"time (H:m:s:ms)","type","latency","utilisation","waiting"
"21:43:20:0 (H:m:s:ms)","GENERIC","124.429","0.05862898074845962","2038"
"21:43:1:818 (H:m:s:ms)","GENERIC","124.186","0.08790592837530171","1181"
"21:42:55:757 (H:m:s:ms)","GENERIC","124.326","0.07826874232582413","242"
"21:42:49:696 (H:m:s:ms)","GENERIC","124.535","0.07517286149167142","341"
"21:42:43:636 (H:m:s:ms)","GENERIC","124.256","0.08154492564584334","364"
"21:42:37:575 (H:m:s:ms)","GENERIC","124.267","0.08053070224684987","424"
"21:42:31:515 (H:m:s:ms)","GENERIC","124.415","0.053279026800263134","1484"
"21:42:25:454 (H:m:s:ms)","GENERIC","124.35","0.11957492344379345","545"
"21:42:19:393 (H:m:s:ms)","GENERIC","124.484","0.059034948146879235","1646"
"21:43:13:939 (H:m:s:ms)","GENERIC","124.407","0.12210538486890297","1060"
"21:43:7:878 (H:m:s:ms)","GENERIC","124.538","0.13924053196742667","1121"
"21:44:26:666 (H:m:s:ms)","GENERIC","93.299","0.1087100089377427","1333"
"21:44:20:606 (H:m:s:ms)","GENERIC","124.563","0.05921516763293234","1393"
"21:44:8:484 (H:m:s:ms)","GENERIC","124.23500000000001","0.07815633461947093","2553"
"20:0:0:0 (H:m:s:ms)","GENERIC","93.579","0.03982186123863102","2085"
"21:44:2:424 (H:m:s:ms)","GENERIC","124.30600000000001","0.10662114299103491","575"
"20:0:6:60 (H:m:s:ms)","GENERIC","93.216","0.06645163323811491","939"
"21:43:56:363 (H:m:s:ms)","GENERIC","124.428","0.0900124601344445","636"
"20:0:12:121 (H:m:s:ms)","GENERIC","62.161","0.09517754240529107","878"
"21:43:50:303 (H:m:s:ms)","GENERIC","124.33","0.10864364520416211","696"
"20:0:18:181 (H:m:s:ms)","GENERIC","93.52799999999999","0.0982241601967835","818"
"21:43:44:242 (H:m:s:ms)","GENERIC","124.578","0.1210272149289208","758"
"20:0:24:242 (H:m:s:ms)","GENERIC","93.5","0.07572406136980203","2759"
"21:43:38:181 (H:m:s:ms)","GENERIC","124.483","0.07618875037032145","818"
"20:0:30:303 (H:m:s:ms)","GENERIC","93.339","0.13404889232352254","1697"
"21:43:32:121 (H:m:s:ms)","GENERIC","124.328","0.07185758290472014","878"
"20:0:36:363 (H:m:s:ms)","GENERIC","93.405","0.132306077290199","637"
"21:43:26:60 (H:m:s:ms)","GENERIC","124.33099999999999","0.08250311642158453","939"
"20:0:42:424 (H:m:s:ms)","GENERIC","93.179","0.10773181369273807","575"
"21:10:42:424 (H:m:s:ms)","GENERIC","124.556","0.12271490550200649","575"
"20:0:48:484 (H:m:s:ms)","GENERIC","93.26599999999999","0.08059526105167472","1528"
"21:10:48:484 (H:m:s:ms)","GENERIC","124.408","0.09405405398244056","515"
"21:10:54:545 (H:m:s:ms)","GENERIC","124.527","0.06828641461438448","455"
"21:11:0:606 (H:m:s:ms)","GENERIC","124.608","0.05005547344639509","393"
"21:11:6:666 (H:m:s:ms)","GENERIC","124.41","0.06677954366441415","333"
"21:11:12:727 (H:m:s:ms)","GENERIC","124.50999999999999","0.14264206357652556","272"
"21:11:18:787 (H:m:s:ms)","GENERIC","124.662","0.15372126141864906","212"
"21:11:24:848 (H:m:s:ms)","GENERIC","124.55099999999999","0.09658729855605157","151"
"21:44:14:545 (H:m:s:ms)","GENERIC","124.191","0.09340276043533884","454"
"21:11:30:909 (H:m:s:ms)","GENERIC","124.464","0.04455812201063404","1090"
"21:11:36:969 (H:m:s:ms)","GENERIC","124.506","0.07924633780638221","2030"
"21:26:9:696 (H:m:s:ms)","GENERIC","124.56700000000001","0.10446196111568175","344"
"21:45:33:333 (H:m:s:ms)","GENERIC","124.127","0.08866052973472066","666"
"21:45:27:272 (H:m:s:ms)","GENERIC","124.434","0.051931227657876416","727"
"21:45:21:212 (H:m:s:ms)","GENERIC","124.27199999999999","0.05793725581911961","787"
"21:45:15:151 (H:m:s:ms)","GENERIC","124.548","0.07611969140405686","848"
"21:45:9:90 (H:m:s:ms)","GENERIC","124.301","0.0643282985472797","1951"
"21:45:3:30 (H:m:s:ms)","GENERIC","124.55799999999999","0.052042024437499314","969"
"21:44:56:969 (H:m:s:ms)","GENERIC","124.412","0.07264775518566872","1030"
"21:44:50:909 (H:m:s:ms)","GENERIC","124.544","0.11645228914211446","1090"
"21:44:44:848 (H:m:s:ms)","GENERIC","124.411","0.1192558135410562","1152"
"21:44:38:787 (H:m:s:ms)","GENERIC","124.425","0.06432346674285318","2251"
"21:11:43:30 (H:m:s:ms)","GENERIC","124.444","0.10225101196359487","1970"
"21:44:32:727 (H:m:s:ms)","GENERIC","124.304","0.10029932040638645","272"
"21:11:49:90 (H:m:s:ms)","GENERIC","124.36500000000001","0.10550640447849848","949"
"21:11:55:151 (H:m:s:ms)","GENERIC","124.31","0.1024455990544121","849"
"21:12:1:212 (H:m:s:ms)","GENERIC","124.191","0.04939834704903084","1787"
"21:12:7:272 (H:m:s:ms)","GENERIC","124.4","0.07251035748303135","727"
"21:12:13:333 (H:m:s:ms)","GENERIC","124.39","0.0934497589835939","666"
"21:12:19:393 (H:m:s:ms)","GENERIC","124.50200000000001","0.10956272039620533","647"
"21:12:25:454 (H:m:s:ms)","GENERIC","124.43299999999999","0.10679960445330225","545"
"21:12:31:515 (H:m:s:ms)","GENERIC","124.582","0.08505007618026249","484"
"21:12:37:575 (H:m:s:ms)","GENERIC","124.682","0.09170814375246672","424"
"21:26:46:60 (H:m:s:ms)","GENERIC","124.525","0.11524623978757068","939"
"21:46:40:0 (H:m:s:ms)","GENERIC","124.61500000000001","0.13773151879297038","1039"
"21:26:42:531 (H:m:s:ms)","OPERA","124.32900000000001","0.09953151386079072","468"
"21:46:33:939 (H:m:s:ms)","GENERIC","124.37100000000001","0.11724193758034347","1061"
"21:46:27:878 (H:m:s:ms)","GENERIC","124.30199999999999","0.08175919222032269","2159"
"21:46:21:818 (H:m:s:ms)","GENERIC","124.531","0.0868817261618869","181"
"21:26:34:936 (H:m:s:ms)","OPERA","124.36","0.0923947721599786","2064"
"21:26:33:939 (H:m:s:ms)","GENERIC","124.46199999999999","0.08826887443258241","1061"
"21:46:15:757 (H:m:s:ms)","GENERIC","124.443","0.040206187077012914","1242"
"21:26:27:878 (H:m:s:ms)","GENERIC","124.60900000000001","0.05325198078850754","2162"
"21:46:9:696 (H:m:s:ms)","GENERIC","124.557","0.11104405421924471","342"
"21:26:27:341 (H:m:s:ms)","OPERA","124.131","0.07355469151308648","4699"
"21:46:3:636 (H:m:s:ms)","GENERIC","124.394","0.10149869885570448","363"
"21:26:21:818 (H:m:s:ms)","GENERIC","124.30799999999999","0.1343740389048546","181"
"21:45:57:575 (H:m:s:ms)","GENERIC","124.559","0.059183388727969695","1424"
"21:26:19:746 (H:m:s:ms)","OPERA","124.33099999999999","0.11148159090450997","294"
"21:45:51:515 (H:m:s:ms)","GENERIC","124.35499999999999","0.12239994581654745","484"
"21:12:43:636 (H:m:s:ms)","GENERIC","124.475","0.09026612644727197","363"
"21:26:15:757 (H:m:s:ms)","GENERIC","124.245","0.1518955246293273","243"
"21:45:45:454 (H:m:s:ms)","GENERIC","124.494","0.0930105051496147","545"
"21:12:49:696 (H:m:s:ms)","GENERIC","124.64","0.0885414856177154","343"
"21:26:12:151 (H:m:s:ms)","OPERA","124.44","0.128532742650511","848"
"21:45:39:393 (H:m:s:ms)","GENERIC","124.511","0.08159589308206638","6646"
"21:12:55:757 (H:m:s:ms)","GENERIC","124.508","0.14501513705422822","242"
"21:13:1:818 (H:m:s:ms)","GENERIC","124.42","0.14334140466013584","181"
"21:13:7:878 (H:m:s:ms)","GENERIC","124.596","0.10334333745240183","1121"
"21:13:13:939 (H:m:s:ms)","GENERIC","124.554","0.11358826808230167","1060"
"21:13:20:0 (H:m:s:ms)","GENERIC","124.313","0.11990501607591676","1038"
"21:13:26:60 (H:m:s:ms)","GENERIC","124.625","0.11952014086135303","939"
"21:13:32:121 (H:m:s:ms)","GENERIC","124.547","0.101652049655639","878"
"21:13:38:181 (H:m:s:ms)","GENERIC","124.441","0.13906478427394509","818"
"21:26:40:0 (H:m:s:ms)","GENERIC","124.682","0.10291787041228886","1041"
"21:27:22:424 (H:m:s:ms)","GENERIC","124.364","0.14392177535156375","1575"
"21:47:46:666 (H:m:s:ms)","GENERIC","124.51400000000001","0.06385836401621368","333"
"21:27:20:506 (H:m:s:ms)","OPERA","93.462","0.13303903366134837","1493"
"21:47:40:606 (H:m:s:ms)","GENERIC","124.471","0.11129263099257047","393"
"21:27:16:363 (H:m:s:ms)","GENERIC","124.396","0.12921878142544388","2636"
"21:47:34:545 (H:m:s:ms)","GENERIC","124.635","0.11425154450675909","455"
"21:47:28:484 (H:m:s:ms)","GENERIC","124.439","0.058991484042897016","515"
"21:47:22:424 (H:m:s:ms)","GENERIC","124.189","0.05654021554148013","575"
"21:27:12:911 (H:m:s:ms)","OPERA","124.333","0.09177241701158931","1089"
"21:27:10:303 (H:m:s:ms)","GENERIC","124.445","0.0804332581928076","1696"
"21:27:5:316 (H:m:s:ms)","OPERA","124.37700000000001","0.09473501067235188","683"
"21:47:16:363 (H:m:s:ms)","GENERIC","124.399","0.04855088555388313","1636"
"21:27:4:242 (H:m:s:ms)","GENERIC","124.43100000000001","0.08147026008233911","757"
"21:47:10:303 (H:m:s:ms)","GENERIC","124.449","0.12977724427076076","696"
"21:26:58:181 (H:m:s:ms)","GENERIC","124.392","0.0743734824507335","818"
"21:47:4:242 (H:m:s:ms)","GENERIC","124.364","0.1145854348763891","758"
"21:13:44:242 (H:m:s:ms)","GENERIC","124.481","0.12159344545167304","757"
"21:26:57:721 (H:m:s:ms)","OPERA","124.527","0.061399104338613515","1278"
"21:46:58:181 (H:m:s:ms)","GENERIC","124.42699999999999","0.07569123431386078","818"
"21:13:50:303 (H:m:s:ms)","GENERIC","124.63300000000001","0.11502135993947062","696"
"21:26:52:121 (H:m:s:ms)","GENERIC","124.492","0.09658831775324976","878"
"21:46:52:121 (H:m:s:ms)","GENERIC","124.392","0.09471295960461693","879"
"21:13:56:363 (H:m:s:ms)","GENERIC","124.458","0.04412632684670267","3673"
"21:26:50:126 (H:m:s:ms)","OPERA","124.28399999999999","0.09054089424217358","873"
"21:46:46:60 (H:m:s:ms)","GENERIC","124.43799999999999","0.13152657964762982","939"
"21:14:2:424 (H:m:s:ms)","GENERIC","124.41499999999999","0.08439715534603204","575"
"21:14:8:484 (H:m:s:ms)","GENERIC","124.499","0.12646256704047398","515"
"21:14:14:545 (H:m:s:ms)","GENERIC","124.239","0.11517463058298488","454"
"21:14:20:606 (H:m:s:ms)","GENERIC","124.526","0.07528885213640131","1393"
"21:14:26:666 (H:m:s:ms)","GENERIC","124.443","0.11313733487951486","333"
"21:14:32:727 (H:m:s:ms)","GENERIC","124.422","0.11776974402880513","273"
"21:14:38:787 (H:m:s:ms)","GENERIC","124.38","0.09848143202541808","212"
"21:27:58:787 (H:m:s:ms)","GENERIC","124.292","0.09357249684322103","212"
"21:48:53:333 (H:m:s:ms)","GENERIC","124.535","0.08307314253365179","2667"
"21:27:58:481 (H:m:s:ms)","OPERA","124.381","0.07956633128923675","518"
"21:48:47:272 (H:m:s:ms)","GENERIC","124.34800000000001","0.07372784786710843","727"
"21:27:52:727 (H:m:s:ms)","GENERIC","124.503","0.1171693631714248","272"
"21:48:41:212 (H:m:s:ms)","GENERIC","124.464","0.12746390453917059","787"
"21:27:50:886 (H:m:s:ms)","OPERA","124.401","0.10214029456055027","1113"
"21:48:35:151 (H:m:s:ms)","GENERIC","124.461","0.11669445555880113","848"
"21:48:29:90 (H:m:s:ms)","GENERIC","124.38499999999999","0.09199041984679679","948"
"21:48:23:30 (H:m:s:ms)","GENERIC","124.384","0.09248168923439098","969"
"21:27:46:666 (H:m:s:ms)","GENERIC","124.386","0.14076078214523302","333"
"21:27:43:291 (H:m:s:ms)","OPERA","124.307","0.1094554747846574","709"
"21:27:40:606 (H:m:s:ms)","GENERIC","124.304","0.11525279321156032","1393"
"21:48:16:969 (H:m:s:ms)","GENERIC","124.572","0.07527871066713736","1030"
"21:14:44:848 (H:m:s:ms)","GENERIC","124.354","0.06447085558080762","151"
"21:27:35:696 (H:m:s:ms)","OPERA","124.388","0.15270717011229698","1303"
"21:48:10:909 (H:m:s:ms)","GENERIC","124.55199999999999","0.06477575609655033","1090"
"21:14:50:909 (H:m:s:ms)","GENERIC","124.30199999999999","0.07164494368024259","1090"
"21:27:34:545 (H:m:s:ms)","GENERIC","124.562","0.14580512061674625","454"
"21:48:4:848 (H:m:s:ms)","GENERIC","124.281","0.09233971499149499","151"
"20:52:37:575 (H:m:s:ms)","GENERIC","124.35499999999999","0.10000310291899353","424"
"21:14:56:969 (H:m:s:ms)","GENERIC","124.368","0.09879966428742519","1030"
"21:27:28:484 (H:m:s:ms)","GENERIC","124.386","0.09961007945170022","515"
"21:47:58:787 (H:m:s:ms)","GENERIC","124.521","0.09474619120978728","212"
"20:52:43:636 (H:m:s:ms)","GENERIC","124.516","0.13077858865124098","363"
"21:15:3:30 (H:m:s:ms)","GENERIC","124.561","0.10542150508571016","1970"
"21:27:28:101 (H:m:s:ms)","OPERA","124.281","0.1089391307359904","898"
"21:47:52:727 (H:m:s:ms)","GENERIC","124.363","0.06388968317530848","272"
"20:52:49:696 (H:m:s:ms)","GENERIC","124.48599999999999","0.12326881229659055","348"
"21:15:9:90 (H:m:s:ms)","GENERIC","124.42699999999999","0.13497536255776216","948"
"20:52:55:757 (H:m:s:ms)","GENERIC","124.17","0.10166709691202391","242"
"21:15:15:151 (H:m:s:ms)","GENERIC","124.452","0.10267632420183304","848"
"20:53:1:818 (H:m:s:ms)","GENERIC","124.381","0.06852067089059036","181"
"21:15:21:212 (H:m:s:ms)","GENERIC","124.45599999999999","0.10590797322728322","1787"
"20:53:7:878 (H:m:s:ms)","GENERIC","124.322","0.06418490482524944","1121"
"21:15:27:272 (H:m:s:ms)","GENERIC","124.195","0.12051738538241898","727"
"20:53:13:939 (H:m:s:ms)","GENERIC","124.34299999999999","0.10430307441933653","1061"
"21:15:33:333 (H:m:s:ms)","GENERIC","124.362","0.11215277073544622","666"
"20:53:20:0 (H:m:s:ms)","GENERIC","124.583","0.10342390258121979","1045"
"21:15:39:393 (H:m:s:ms)","GENERIC","124.48599999999999","0.09649616732560984","644"
"20:53:26:60 (H:m:s:ms)","GENERIC","124.41999999999999","0.04679044668163616","1939"
"20:53:32:121 (H:m:s:ms)","GENERIC","124.228","0.09720466597490716","1878"
"21:28:36:455 (H:m:s:ms)","OPERA","124.566","0.10644637466171372","1544"
"21:50:0:0 (H:m:s:ms)","GENERIC","124.429","0.10102797778528122","1037"
"21:28:35:151 (H:m:s:ms)","GENERIC","124.344","0.10006349752470299","848"
"21:49:53:939 (H:m:s:ms)","GENERIC","124.463","0.12886427442274775","1060"
"21:28:29:90 (H:m:s:ms)","GENERIC","124.47","0.10030593395031126","1947"
"21:49:47:878 (H:m:s:ms)","GENERIC","124.411","0.09639663899212805","3160"
"21:28:28:860 (H:m:s:ms)","OPERA","124.362","0.11848656875801125","139"
"21:49:41:818 (H:m:s:ms)","GENERIC","124.66300000000001","0.09710593534397648","181"
"21:28:23:30 (H:m:s:ms)","GENERIC","124.42599999999999","0.12131534384079623","969"
"21:49:35:757 (H:m:s:ms)","GENERIC","93.142","0.04963414006953176","242"
"21:49:29:696 (H:m:s:ms)","GENERIC","124.477","0.061709907971021036","343"
"21:49:23:636 (H:m:s:ms)","GENERIC","124.231","0.07596998331149038","363"
"21:28:21:265 (H:m:s:ms)","OPERA","124.31700000000001","0.09439595733351581","734"
"21:15:45:454 (H:m:s:ms)","GENERIC","124.153","0.08773017183116964","545"
"21:28:16:969 (H:m:s:ms)","GENERIC","124.459","0.11426106097217416","1030"
"21:15:51:515 (H:m:s:ms)","GENERIC","124.541","0.08875371157375275","484"
"21:28:13:670 (H:m:s:ms)","OPERA","124.374","0.1365446096141412","329"
"21:49:17:575 (H:m:s:ms)","GENERIC","124.37299999999999","0.0926393967181323","424"
"20:53:38:181 (H:m:s:ms)","GENERIC","124.44900000000001","0.11234993781119715","818"
"21:15:57:575 (H:m:s:ms)","GENERIC","124.569","0.06285349071462232","424"
"21:28:10:909 (H:m:s:ms)","GENERIC","124.315","0.11710722743338906","3090"
"21:49:11:515 (H:m:s:ms)","GENERIC","124.475","0.0974638596621461","484"
"20:53:44:242 (H:m:s:ms)","GENERIC","124.453","0.09033054444687506","757"
"21:16:3:636 (H:m:s:ms)","GENERIC","124.469","0.0663425950627218","363"
"21:28:6:75 (H:m:s:ms)","OPERA","93.501","0.11391059394790488","1924"
"21:49:5:454 (H:m:s:ms)","GENERIC","124.50800000000001","0.10546321342607205","545"
"20:53:50:303 (H:m:s:ms)","GENERIC","124.298","0.0681316882522105","696"
"21:16:9:696 (H:m:s:ms)","GENERIC","124.214","0.08174170113985481","340"
"21:28:4:848 (H:m:s:ms)","GENERIC","124.61699999999999","0.10673219432259597","152"
"21:48:59:393 (H:m:s:ms)","GENERIC","124.471","0.11903078613786149","645"
"20:53:56:363 (H:m:s:ms)","GENERIC","124.287","0.08974637150844068","1636"
"21:16:15:757 (H:m:s:ms)","GENERIC","124.306","0.10505211350035117","242"
"20:54:2:424 (H:m:s:ms)","GENERIC","124.493","0.10150633472782115","575"
"21:16:21:818 (H:m:s:ms)","GENERIC","124.29499999999999","0.10784298085724345","181"
"20:54:8:484 (H:m:s:ms)","GENERIC","124.247","0.07548092563222245","515"
"21:16:27:878 (H:m:s:ms)","GENERIC","124.554","0.07217801748756647","1121"
"20:54:14:545 (H:m:s:ms)","GENERIC","124.533","0.06916499761155306","454"
"21:16:33:939 (H:m:s:ms)","GENERIC","124.417","0.10512652993114166","1061"
"20:54:20:606 (H:m:s:ms)","GENERIC","124.462","0.0776957203039678","393"
"21:16:40:0 (H:m:s:ms)","GENERIC","124.55799999999999","0.047917775127311914","2037"
"20:54:26:666 (H:m:s:ms)","GENERIC","124.50800000000001","0.0886422778318836","333"
"20:54:32:727 (H:m:s:ms)","GENERIC","124.348","0.06967902063402154","272"
"21:29:14:430 (H:m:s:ms)","OPERA","124.421","0.0881111204395206","1570"
"21:29:11:515 (H:m:s:ms)","GENERIC","124.43700000000001","0.10333154583713666","1484"
"24:31:34:736 (H:m:s:ms)","AMBULANCE","124.31899999999999","0.03771192037946081","263"
"21:29:6:835 (H:m:s:ms)","OPERA","124.14699999999999","0.13288990207249812","164"
"24:1:34:736 (H:m:s:ms)","AMBULANCE","124.338","0.08218357577813648","264"
"21:29:5:454 (H:m:s:ms)","GENERIC","124.576","0.14670062164555242","545"
"23:31:34:736 (H:m:s:ms)","AMBULANCE","124.321","0.05412802570841754","263"
"21:28:59:393 (H:m:s:ms)","GENERIC","124.318","0.13254572551529573","644"
"23:1:34:736 (H:m:s:ms)","AMBULANCE","124.401","0.05684751870949253","263"
"21:28:59:240 (H:m:s:ms)","OPERA","124.253","0.10840934664964073","797"
"22:31:34:736 (H:m:s:ms)","AMBULANCE","124.345","0.07701523850911066","263"
"22:9:28:421 (H:m:s:ms)","AMBULANCE","124.455","0.07596069743410955","578"
"22:6:18:947 (H:m:s:ms)","AMBULANCE","124.47900000000001","0.09096201253679617","1058"
"21:16:46:60 (H:m:s:ms)","GENERIC","124.39699999999999","0.08153351931026108","939"
"21:16:52:121 (H:m:s:ms)","GENERIC","124.485","0.0873837847089406","878"
"21:28:53:333 (H:m:s:ms)","GENERIC","124.441","0.14627180185490857","666"
"20:54:38:787 (H:m:s:ms)","GENERIC","124.41","0.04171667922014317","1256"
"21:16:58:181 (H:m:s:ms)","GENERIC","124.372","0.0741606294842474","818"
"21:28:51:645 (H:m:s:ms)","OPERA","124.251","0.1276905965998195","1354"
"20:54:44:848 (H:m:s:ms)","GENERIC","124.218","0.07495172788430032","152"
"21:17:4:242 (H:m:s:ms)","GENERIC","124.47900000000001","0.06498230557546737","757"
"21:28:47:272 (H:m:s:ms)","GENERIC","124.461","0.14219721038085795","727"
"22:5:15:789 (H:m:s:ms)","AMBULANCE","124.458","0.06265756382071115","210"
"20:54:50:909 (H:m:s:ms)","GENERIC","124.22399999999999","0.07793471167708685","1090"
"21:17:10:303 (H:m:s:ms)","GENERIC","124.414","0.04770021481605349","1696"
"21:28:44:50 (H:m:s:ms)","OPERA","124.43","0.11922317373563905","949"
"22:2:37:894 (H:m:s:ms)","AMBULANCE","124.489","0.08659513607012727","2111"
"20:54:56:969 (H:m:s:ms)","GENERIC","124.385","0.1118256703584125","1030"
"21:17:16:363 (H:m:s:ms)","GENERIC","124.39099999999999","0.07217759070167379","636"
"21:28:41:212 (H:m:s:ms)","GENERIC","124.293","0.09890271509839982","1787"
"22:1:34:736 (H:m:s:ms)","AMBULANCE","93.252","0.05333664976237534","2264"
"20:55:3:30 (H:m:s:ms)","GENERIC","124.541","0.10197226296158803","969"
"21:17:22:424 (H:m:s:ms)","GENERIC","124.21000000000001","0.07966069449371928","575"
"20:55:9:90 (H:m:s:ms)","GENERIC","124.40899999999999","0.033590576483739906","1954"
"21:17:28:484 (H:m:s:ms)","GENERIC","124.4","0.08717976928340786","515"
"20:55:15:151 (H:m:s:ms)","GENERIC","124.313","0.08159986126444307","848"
"21:17:34:545 (H:m:s:ms)","GENERIC","124.50999999999999","0.09532918184029882","455"
"20:55:21:212 (H:m:s:ms)","GENERIC","124.36000000000001","0.09499265326245548","787"
"21:17:40:606 (H:m:s:ms)","GENERIC","124.366","0.09726509678905851","393"
"20:55:27:272 (H:m:s:ms)","GENERIC","124.523","0.0671070189133621","727"
"20:55:33:333 (H:m:s:ms)","GENERIC","124.263","0.05433931256157048","666"
"21:29:52:405 (H:m:s:ms)","OPERA","124.41300000000001","0.09858221410506707","594"
"21:29:47:878 (H:m:s:ms)","GENERIC","124.52","0.11370897589905413","1121"
"21:29:44:810 (H:m:s:ms)","OPERA","124.435","0.09843391114843116","189"
"21:29:41:818 (H:m:s:ms)","GENERIC","124.43299999999999","0.06096384853686923","1181"
"21:29:37:215 (H:m:s:ms)","OPERA","124.186","0.12048429094723975","784"
"21:29:35:757 (H:m:s:ms)","GENERIC","124.30000000000001","0.13184945049713084","242"
"21:29:29:696 (H:m:s:ms)","GENERIC","124.202","0.13009851210972492","341"
"21:17:46:666 (H:m:s:ms)","GENERIC","124.55799999999999","0.07631969230325938","333"
"21:17:52:727 (H:m:s:ms)","GENERIC","124.378","0.10181505340368803","272"
"20:55:39:393 (H:m:s:ms)","GENERIC","124.581","0.06960860460959803","651"
"21:17:58:787 (H:m:s:ms)","GENERIC","124.43","0.06382521669855194","1250"
"20:55:45:454 (H:m:s:ms)","GENERIC","124.42500000000001","0.08476369290455121","545"
"21:18:4:848 (H:m:s:ms)","GENERIC","124.324","0.07642556138057241","151"
"21:29:29:620 (H:m:s:ms)","OPERA","124.265","0.10477875709479063","3417"
"20:55:51:515 (H:m:s:ms)","GENERIC","124.286","0.12155473227689458","484"
"21:18:10:909 (H:m:s:ms)","GENERIC","124.368","0.021261082471523425","1090"
"21:29:23:636 (H:m:s:ms)","GENERIC","124.501","0.12593920916148996","1363"
"20:55:57:575 (H:m:s:ms)","GENERIC","124.608","0.04401219768306307","2470"
"21:18:16:969 (H:m:s:ms)","GENERIC","124.29599999999999","0.07810628998208531","1030"
"21:29:22:25 (H:m:s:ms)","OPERA","124.348","0.06563277785524463","974"
"20:56:3:636 (H:m:s:ms)","GENERIC","124.31200000000001","0.05280210673336556","363"
"21:18:23:30 (H:m:s:ms)","GENERIC","124.447","0.11766909370516757","969"
"21:29:17:575 (H:m:s:ms)","GENERIC","124.345","0.09682808056276211","1424"
"20:56:9:696 (H:m:s:ms)","GENERIC","124.352","0.07796119917156465","349"
"21:18:29:90 (H:m:s:ms)","GENERIC","124.44800000000001","0.13670509964693706","947"
"20:56:15:757 (H:m:s:ms)","GENERIC","124.176","0.09455207263813573","3242"
"21:18:35:151 (H:m:s:ms)","GENERIC","124.58","0.13136656390176998","848"
"20:56:21:818 (H:m:s:ms)","GENERIC","124.615","0.1372102764963886","182"
"21:18:41:212 (H:m:s:ms)","GENERIC","124.48400000000001","0.12580844477613606","787"
"20:56:27:878 (H:m:s:ms)","GENERIC","124.41499999999999","0.09621063533266179","1121"
"20:56:33:939 (H:m:s:ms)","GENERIC","124.382","0.13188583711285945","1060"
"21:30:31:578 (H:m:s:ms)","AMBULANCE","124.497","0.15423848193366835","421"
"21:30:30:303 (H:m:s:ms)","GENERIC","124.586","0.09995032281700907","696"
"21:30:24:242 (H:m:s:ms)","GENERIC","124.261","0.08654981375165524","5800"
"21:30:18:181 (H:m:s:ms)","GENERIC","124.59899999999999","0.07711398436846056","1856"
"21:30:12:121 (H:m:s:ms)","GENERIC","124.292","0.07135668634624828","878"
"21:30:6:60 (H:m:s:ms)","GENERIC","124.339","0.11794249057872139","939"
"21:30:0:0 (H:m:s:ms)","GENERIC","124.365","0.10136355410456138","1037"
"21:30:0:0 (H:m:s:ms)","GENERIC","124.481","0.10531075973157933","2037"
"21:18:47:272 (H:m:s:ms)","GENERIC","124.45599999999999","0.12414388379936674","727"
"21:18:53:333 (H:m:s:ms)","GENERIC","124.402","0.09038577255533609","666"
"20:56:40:0 (H:m:s:ms)","GENERIC","124.52","0.08003470043727637","2047"
"21:18:59:393 (H:m:s:ms)","GENERIC","124.34299999999999","0.08857349124302166","642"
"20:56:46:60 (H:m:s:ms)","GENERIC","124.611","0.08513766988996119","939"
"21:19:5:454 (H:m:s:ms)","GENERIC","124.435","0.09703741450343224","545"
"20:40:0:0 (H:m:s:ms)","GENERIC","124.444","0.13125131322697156","1119"
"20:56:52:121 (H:m:s:ms)","GENERIC","124.494","0.08811195337121976","1878"
"21:19:11:515 (H:m:s:ms)","GENERIC","124.487","0.07576682535766657","484"
"20:40:0:0 (H:m:s:ms)","GENERIC","124.564","0.1380427602757675","1119"
"20:56:58:181 (H:m:s:ms)","GENERIC","124.35","0.1220653580296481","818"
"21:19:17:575 (H:m:s:ms)","GENERIC","124.501","0.10506740882400255","1424"
"21:30:0:0 (H:m:s:ms)","AMBULANCE","124.64099999999999","0.08868290121235874","1037"
"20:40:6:60 (H:m:s:ms)","GENERIC","124.269","0.10301999654026123","1939"
"20:57:4:242 (H:m:s:ms)","GENERIC","124.352","0.1172235568850076","758"
"21:19:23:636 (H:m:s:ms)","GENERIC","124.176","0.12479636860840952","363"
"21:30:0:0 (H:m:s:ms)","OPERA","124.295","0.0723028598318186","1037"
"20:40:7:594 (H:m:s:ms)","OPERA","93.449","0.1421745299068128","405"
"20:57:10:303 (H:m:s:ms)","GENERIC","124.41","0.10938567871298502","696"
"21:19:29:696 (H:m:s:ms)","GENERIC","124.297","0.07564612905778349","344"
"21:29:53:939 (H:m:s:ms)","GENERIC","124.304","0.11234031612233288","1062"
"20:40:12:121 (H:m:s:ms)","GENERIC","124.307","0.14718774584669034","878"
"20:57:16:363 (H:m:s:ms)","GENERIC","124.409","0.10418816644478902","636"
"21:19:35:757 (H:m:s:ms)","GENERIC","124.445","0.06497490340200988","242"
"20:40:15:189 (H:m:s:ms)","OPERA","93.23599999999999","0.06781108026855687","810"
"20:57:22:424 (H:m:s:ms)","GENERIC","124.488","0.09587253941557103","575"
"21:19:41:818 (H:m:s:ms)","GENERIC","124.376","0.07966453485318266","181"
"20:40:18:181 (H:m:s:ms)","GENERIC","124.42","0.07663090612338468","818"
"20:57:28:484 (H:m:s:ms)","GENERIC","124.435","0.07190698065588325","515"
"20:40:22:784 (H:m:s:ms)","OPERA","93.365","0.10348774381241956","215"
"20:57:34:545 (H:m:s:ms)","GENERIC","124.439","0.05627785478691418","454"
"20:40:24:242 (H:m:s:ms)","GENERIC","124.471","0.10953930481274407","758"
"20:40:30:303 (H:m:s:ms)","GENERIC","124.4","0.09048133160399445","1696"
"21:30:48:484 (H:m:s:ms)","GENERIC","124.531","0.09805764915367901","515"
"21:31:30:909 (H:m:s:ms)","GENERIC","124.423","0.07965401932617745","1090"
"21:31:24:848 (H:m:s:ms)","GENERIC","124.402","0.08716352549952384","151"
"21:31:18:787 (H:m:s:ms)","GENERIC","124.462","0.07958049836311416","1249"
"21:31:12:727 (H:m:s:ms)","GENERIC","124.52199999999999","0.11951838706040363","272"
"21:31:6:666 (H:m:s:ms)","GENERIC","124.471","0.10424766865796684","333"
"21:31:3:157 (H:m:s:ms)","AMBULANCE","124.34100000000001","0.08250142312445434","842"
"21:31:0:606 (H:m:s:ms)","GENERIC","124.38300000000001","0.09074199692473488","393"
"21:19:47:878 (H:m:s:ms)","GENERIC","124.453","0.08057294018843936","3159"
"21:30:54:545 (H:m:s:ms)","GENERIC","124.42699999999999","0.10249011946160862","454"
"21:19:53:939 (H:m:s:ms)","GENERIC","124.359","0.1042845870562875","2060"
"20:57:40:606 (H:m:s:ms)","GENERIC","124.40899999999999","0.06232864243602176","393"
"21:20:0:0 (H:m:s:ms)","OPERA","93.465","0.10733046202547926","1117"
"20:57:46:666 (H:m:s:ms)","GENERIC","124.158","0.0712419138851639","333"
"21:20:0:0 (H:m:s:ms)","GENERIC","124.608","0.11401931129782951","1117"
"20:40:30:379 (H:m:s:ms)","OPERA","93.355","0.10099236065757508","2620"
"20:57:52:727 (H:m:s:ms)","GENERIC","124.292","0.10205466967732414","1272"
"21:20:0:0 (H:m:s:ms)","GENERIC","124.544","0.1264991377153985","1117"
"20:40:36:363 (H:m:s:ms)","GENERIC","124.441","0.11212417470538309","636"
"20:57:58:787 (H:m:s:ms)","GENERIC","124.512","0.11516151418109181","212"
"21:20:6:60 (H:m:s:ms)","GENERIC","124.30000000000001","0.12953313454805027","939"
"20:40:37:974 (H:m:s:ms)","OPERA","93.443","0.06626276430837673","3065"
"20:58:4:848 (H:m:s:ms)","GENERIC","124.251","0.07621943827774962","152"
"21:20:7:594 (H:m:s:ms)","OPERA","124.412","0.06928749725947687","405"
"20:40:42:424 (H:m:s:ms)","GENERIC","124.58600000000001","0.08532242319869345","3576"
"20:58:10:909 (H:m:s:ms)","GENERIC","124.586","0.08328945690366278","1090"
"21:20:12:121 (H:m:s:ms)","GENERIC","124.237","0.07866168791917176","878"
"21:30:42:424 (H:m:s:ms)","GENERIC","124.485","0.0858824393284193","575"
"20:40:45:569 (H:m:s:ms)","OPERA","93.33","0.11402494809567404","430"
"20:58:16:969 (H:m:s:ms)","GENERIC","124.44800000000001","0.10080281865495101","1030"
"21:20:15:189 (H:m:s:ms)","OPERA","124.33600000000001","0.07692304341713875","1810"
"21:30:36:363 (H:m:s:ms)","GENERIC","124.61099999999999","0.14574011985240837","636"
"20:40:48:484 (H:m:s:ms)","GENERIC","124.387","0.12934382585840642","515"
"20:58:23:30 (H:m:s:ms)","GENERIC","124.22399999999999","0.07530508249365334","969"
"21:20:18:181 (H:m:s:ms)","GENERIC","124.34100000000001","0.10722885634311889","818"
"20:40:53:164 (H:m:s:ms)","OPERA","93.463","0.10023229699422699","836"
"20:58:29:90 (H:m:s:ms)","GENERIC","124.203","0.07123635089031452","955"
"20:40:54:545 (H:m:s:ms)","GENERIC","124.41399999999999","0.11079754470833655","454"
"20:58:35:151 (H:m:s:ms)","GENERIC","124.368","0.08442869111958111","848"
"20:41:0:606 (H:m:s:ms)","GENERIC","124.455","0.13135054365385312","3393"
"20:41:0:759 (H:m:s:ms)","OPERA","93.417","0.09888179937441693","240"
"21:31:49:90 (H:m:s:ms)","GENERIC","124.366","0.08676454409793374","949"
"21:31:43:30 (H:m:s:ms)","GENERIC","124.527","0.06261017225685996","1969"
"21:32:31:515 (H:m:s:ms)","GENERIC","124.28399999999999","0.10298468444312184","484"
"21:32:25:454 (H:m:s:ms)","GENERIC","124.197","0.04859244884821865","2545"
"21:32:19:393 (H:m:s:ms)","GENERIC","124.49199999999999","0.06571979991808756","643"
"21:32:13:333 (H:m:s:ms)","GENERIC","124.36699999999999","0.055471220929451386","2667"
"21:32:7:272 (H:m:s:ms)","GENERIC","124.447","0.12425259888093561","727"
"21:32:6:315 (H:m:s:ms)","AMBULANCE","124.491","0.11001394400562618","1684"
"21:32:1:212 (H:m:s:ms)","GENERIC","124.418","0.12115053582322377","787"
"21:31:55:151 (H:m:s:ms)","GENERIC","124.51599999999999","0.10942841948461017","848"
"20:58:41:212 (H:m:s:ms)","GENERIC","124.358","0.10103399174262342","787"
"20:58:47:272 (H:m:s:ms)","GENERIC","124.225","0.05345288697998778","1727"
"20:41:6:666 (H:m:s:ms)","GENERIC","124.339","0.13176362273436185","1333"
"20:58:53:333 (H:m:s:ms)","GENERIC","124.281","0.09289423091572568","666"
"20:41:8:354 (H:m:s:ms)","OPERA","93.267","0.16010263068846758","645"
"20:58:59:393 (H:m:s:ms)","GENERIC","124.33000000000001","0.10069371774468092","649"
"20:41:12:727 (H:m:s:ms)","GENERIC","124.489","0.13864963663243093","272"
"20:59:5:454 (H:m:s:ms)","GENERIC","124.44800000000001","0.09913002828745839","545"
"20:41:15:949 (H:m:s:ms)","OPERA","93.22","0.1120511043011365","2050"
"20:59:11:515 (H:m:s:ms)","GENERIC","124.428","0.10501545241930035","484"
"20:41:18:787 (H:m:s:ms)","GENERIC","124.30799999999999","0.12034498598607306","212"
"20:59:17:575 (H:m:s:ms)","GENERIC","124.265","0.044266328633457044","1424"
"20:41:23:544 (H:m:s:ms)","OPERA","93.561","0.14250554981800284","455"
"20:59:23:636 (H:m:s:ms)","GENERIC","124.553","0.12886919833424446","363"
"21:31:36:969 (H:m:s:ms)","GENERIC","124.295","0.11090833986507313","1030"
"20:41:24:848 (H:m:s:ms)","GENERIC","124.25200000000001","0.11471124969395727","152"
"20:59:29:696 (H:m:s:ms)","GENERIC","124.547","0.13106483442810668","349"
"20:41:30:909 (H:m:s:ms)","GENERIC","124.28","0.04391750900277127","1090"
"20:59:35:757 (H:m:s:ms)","GENERIC","124.478","0.11220072244135504","242"
"20:41:31:139 (H:m:s:ms)","OPERA","93.245","0.10460076736084832","2860"
"20:41:36:969 (H:m:s:ms)","GENERIC","124.51599999999999","0.1162673259215904","1030"
"20:59:41:818 (H:m:s:ms)","GENERIC","124.53399999999999","0.05879961969035351","1181"
"20:59:47:878 (H:m:s:ms)","GENERIC","124.44999999999999","0.0993078532846038","1121"
"20:41:38:734 (H:m:s:ms)","OPERA","93.325","0.12289979104932702","265"
"20:59:53:939 (H:m:s:ms)","GENERIC","124.237","0.09328895117672673","1061"
"20:41:43:30 (H:m:s:ms)","GENERIC","124.45400000000001","0.11357516720191695","969"
"21:0:0:0 (H:m:s:ms)","AMBULANCE","93.431","0.1086371903204025","2126"
"20:41:46:329 (H:m:s:ms)","OPERA","93.189","0.11542691973996994","670"
"21:0:0:0 (H:m:s:ms)","GENERIC","124.297","0.13418582634181886","2126"
"20:41:49:90 (H:m:s:ms)","GENERIC","124.396","0.14191654985974414","949"
"21:0:0:0 (H:m:s:ms)","GENERIC","124.672","0.08546368450590158","1123"
"20:41:53:924 (H:m:s:ms)","OPERA","93.47200000000001","0.11794031936610182","1076"
"21:0:6:60 (H:m:s:ms)","GENERIC","124.464","0.15219872430511044","939"
"20:41:55:151 (H:m:s:ms)","GENERIC","124.461","0.11074435502356816","1848"
"21:0:12:121 (H:m:s:ms)","GENERIC","124.457","0.08147790972624643","878"
"20:42:1:212 (H:m:s:ms)","GENERIC","124.436","0.171452945380946","1787"
"21:0:18:181 (H:m:s:ms)","GENERIC","124.481","0.08405003031019868","1861"
"20:42:1:518 (H:m:s:ms)","OPERA","93.423","0.12140291426375151","481"
"21:0:24:242 (H:m:s:ms)","GENERIC","124.533","0.10667174438509806","757"
"20:42:7:272 (H:m:s:ms)","GENERIC","124.613","0.16792616987138376","727"
"20:42:13:333 (H:m:s:ms)","GENERIC","124.481","0.07205325589251307","1667"
"21:0:30:303 (H:m:s:ms)","GENERIC","124.32","0.07979168892413664","696"
"21:0:31:578 (H:m:s:ms)","AMBULANCE","93.328","0.08997445129886647","2421"
"20:42:16:708 (H:m:s:ms)","OPERA","93.396","0.08897178080326076","291"
"21:0:36:363 (H:m:s:ms)","GENERIC","124.40299999999999","0.11727045340245323","636"
"20:42:19:393 (H:m:s:ms)","GENERIC","124.27799999999999","0.11351864435485126","1645"
"21:0:42:424 (H:m:s:ms)","GENERIC","124.399","0.08768530661191272","575"
"20:20:0:0 (H:m:s:ms)","GENERIC","124.435","0.08815184503132244","1120"
"20:42:24:303 (H:m:s:ms)","OPERA","93.575","0.12975694364945853","696"
"21:0:48:484 (H:m:s:ms)","GENERIC","124.482","0.08762658056165558","515"
"20:20:0:0 (H:m:s:ms)","GENERIC","124.503","0.09732004658390515","1120"
"20:42:25:454 (H:m:s:ms)","GENERIC","124.405","0.14105872599324423","545"
"21:0:54:545 (H:m:s:ms)","GENERIC","124.44","0.03419472137035544","1455"
"20:20:6:60 (H:m:s:ms)","GENERIC","124.243","0.0975871310505075","939"
"20:42:31:515 (H:m:s:ms)","GENERIC","124.524","0.05611392323356362","1484"
"21:1:0:606 (H:m:s:ms)","GENERIC","124.285","0.06927556306905046","393"
"20:20:12:121 (H:m:s:ms)","GENERIC","124.215","0.05650939919533728","1878"
"20:42:37:575 (H:m:s:ms)","GENERIC","124.539","0.07929698744956387","1424"
"21:1:3:157 (H:m:s:ms)","AMBULANCE","93.18599999999999","0.09514783734682129","842"
"20:20:18:181 (H:m:s:ms)","GENERIC","124.352","0.10316192091878279","1859"
"20:42:39:493 (H:m:s:ms)","OPERA","93.395","0.11355750020503586","1546"
"21:1:6:666 (H:m:s:ms)","GENERIC","124.521","0.10942053331721927","333"
"20:20:24:242 (H:m:s:ms)","GENERIC","124.462","0.10338974729150795","757"
"20:42:43:636 (H:m:s:ms)","GENERIC","124.386","0.13821380861678856","1363"
"21:1:12:727 (H:m:s:ms)","GENERIC","124.468","0.087544373944708","272"
"20:20:30:303 (H:m:s:ms)","GENERIC","124.386","0.08770886714375241","696"
"20:42:47:88 (H:m:s:ms)","OPERA","93.116","0.09588034706380137","911"
"20:20:36:363 (H:m:s:ms)","GENERIC","124.517","0.09332980568045311","636"
"20:42:49:696 (H:m:s:ms)","GENERIC","124.47","0.10471524917218088","343"
"20:20:42:424 (H:m:s:ms)","GENERIC","124.319","0.09794114567079566","2576"
"20:20:48:484 (H:m:s:ms)","GENERIC","124.357","0.11423305792382259","515"
"21:1:18:787 (H:m:s:ms)","GENERIC","124.328","0.07831256623185588","212"
"21:1:24:848 (H:m:s:ms)","GENERIC","124.318","0.06531768984495516","151"
"20:42:54:683 (H:m:s:ms)","OPERA","93.164","0.08691484180366182","2317"
"21:1:30:909 (H:m:s:ms)","GENERIC","124.505","0.05003786794564537","1090"
"20:42:55:757 (H:m:s:ms)","GENERIC","124.212","0.05775518595550455","242"
"21:1:36:969 (H:m:s:ms)","GENERIC","124.265","0.10119361630503623","1030"
"20:20:54:545 (H:m:s:ms)","GENERIC","124.519","0.07609284298864256","454"
"20:43:1:818 (H:m:s:ms)","GENERIC","124.47","0.10134994785117468","181"
"21:1:43:30 (H:m:s:ms)","GENERIC","124.266","0.1174337655046646","969"
"20:21:0:606 (H:m:s:ms)","GENERIC","124.467","0.07015264466280315","393"
"20:43:2:278 (H:m:s:ms)","OPERA","93.321","0.09975320134440771","721"
"21:1:49:90 (H:m:s:ms)","GENERIC","124.294","0.10906495503080463","955"
"20:21:6:666 (H:m:s:ms)","GENERIC","124.349","0.05695312276871442","2334"
"20:43:7:878 (H:m:s:ms)","GENERIC","124.422","0.07282794597609399","1121"
"21:1:55:151 (H:m:s:ms)","GENERIC","124.214","0.11031662514159933","848"
"20:21:12:727 (H:m:s:ms)","GENERIC","124.523","0.09424620486234837","1273"
"20:43:9:873 (H:m:s:ms)","OPERA","93.34400000000001","0.07375696289768913","171"
"21:2:1:212 (H:m:s:ms)","GENERIC","124.32499999999999","0.09454721958486705","787"
"20:21:18:787 (H:m:s:ms)","GENERIC","124.172","0.09289561758218112","212"
"20:43:13:939 (H:m:s:ms)","GENERIC","124.479","0.08524734650321512","1060"
"21:2:6:315 (H:m:s:ms)","AMBULANCE","93.295","0.10252026144375351","684"
"20:21:24:848 (H:m:s:ms)","GENERIC","124.351","0.0664613584693127","151"
"20:43:17:468 (H:m:s:ms)","OPERA","93.388","0.05878577938142204","1531"
"21:2:7:272 (H:m:s:ms)","GENERIC","124.376","0.13269756002569194","727"
"20:21:30:909 (H:m:s:ms)","GENERIC","124.219","0.08796774153453167","1090"
"20:43:20:0 (H:m:s:ms)","GENERIC","124.461","0.12761435660569345","3043"
"20:21:36:969 (H:m:s:ms)","GENERIC","124.38","0.1298444645033334","1030"
"20:43:25:63 (H:m:s:ms)","OPERA","93.225","0.14594408742173007","936"
"20:21:43:30 (H:m:s:ms)","GENERIC","124.458","0.0899533391637694","1970"
"20:21:49:90 (H:m:s:ms)","GENERIC","124.46","0.12036762485410776","951"
"20:43:26:60 (H:m:s:ms)","GENERIC","124.503","0.15818224568731776","939"
"20:43:32:121 (H:m:s:ms)","GENERIC","124.471","0.11088483914353564","878"
"20:21:55:151 (H:m:s:ms)","GENERIC","124.446","0.09855894148897992","848"
"20:43:32:658 (H:m:s:ms)","OPERA","93.466","0.12912225387480897","341"
"20:22:1:212 (H:m:s:ms)","GENERIC","124.384","0.06288356278317171","787"
"20:43:38:181 (H:m:s:ms)","GENERIC","124.351","0.14996334011676793","818"
"20:22:7:272 (H:m:s:ms)","GENERIC","124.303","0.09342352741960726","727"
"20:43:40:253 (H:m:s:ms)","OPERA","93.375","0.11653536071481324","3746"
"20:22:13:333 (H:m:s:ms)","GENERIC","124.424","0.11185245379720476","666"
"20:43:44:242 (H:m:s:ms)","GENERIC","124.489","0.12317334191264094","757"
"20:22:19:393 (H:m:s:ms)","GENERIC","124.446","0.09543755821220012","645"
"20:43:47:848 (H:m:s:ms)","OPERA","93.453","0.1250284409415166","151"
"20:22:25:454 (H:m:s:ms)","GENERIC","124.57900000000001","0.11457115128039481","545"
"20:43:50:303 (H:m:s:ms)","GENERIC","124.4","0.12392650363408267","2696"
"20:22:31:515 (H:m:s:ms)","GENERIC","124.47999999999999","0.12074936556024794","485"
"20:43:55:443 (H:m:s:ms)","OPERA","93.35300000000001","0.08866517669311447","556"
"20:22:37:575 (H:m:s:ms)","GENERIC","124.402","0.10049305652553633","424"
"20:43:56:363 (H:m:s:ms)","GENERIC","124.391","0.11346902143183717","636"
"20:22:43:636 (H:m:s:ms)","GENERIC","124.31800000000001","0.09148610837933954","363"
"20:22:49:696 (H:m:s:ms)","GENERIC","124.44200000000001","0.057542615032997825","1343"
"20:44:2:424 (H:m:s:ms)","GENERIC","124.407","0.08518910927818864","575"
"20:44:3:37 (H:m:s:ms)","OPERA","93.267","0.08632341169511375","962"
"20:22:55:757 (H:m:s:ms)","GENERIC","124.39099999999999","0.08597630226734693","242"
"20:44:8:484 (H:m:s:ms)","GENERIC","124.186","0.12192343319711929","515"
"20:23:1:818 (H:m:s:ms)","GENERIC","124.43299999999999","0.07509042652227002","181"
"20:44:10:632 (H:m:s:ms)","OPERA","93.147","0.10860800940951668","1367"
"20:23:7:878 (H:m:s:ms)","GENERIC","124.22200000000001","0.04225060820914258","1121"
"20:44:14:545 (H:m:s:ms)","GENERIC","124.60900000000001","0.14557912266778886","454"
"20:23:13:939 (H:m:s:ms)","GENERIC","124.44999999999999","0.060261934071238234","1061"
"20:44:18:227 (H:m:s:ms)","OPERA","93.312","0.11770755271317467","772"
"20:23:20:0 (H:m:s:ms)","GENERIC","124.394","0.08514711200851455","1039"
"20:44:20:606 (H:m:s:ms)","GENERIC","124.303","0.1320925372157692","393"
"20:23:26:60 (H:m:s:ms)","GENERIC","124.525","0.08217121380470106","1939"
"20:44:25:822 (H:m:s:ms)","OPERA","93.197","0.09060493866676632","177"
"20:23:32:121 (H:m:s:ms)","GENERIC","124.537","0.10675087112664496","878"
"20:44:26:666 (H:m:s:ms)","GENERIC","124.62700000000001","0.12395984837474432","333"
"20:23:38:181 (H:m:s:ms)","GENERIC","124.289","0.09487505020982509","818"
"20:44:32:727 (H:m:s:ms)","GENERIC","124.496","0.13699683805144572","272"
"20:23:44:242 (H:m:s:ms)","GENERIC","124.543","0.10369931881959651","758"
"20:23:50:303 (H:m:s:ms)","GENERIC","124.315","0.0939929295699253","696"
"20:44:33:417 (H:m:s:ms)","OPERA","93.221","0.11048447887370033","582"
"20:44:38:787 (H:m:s:ms)","GENERIC","124.368","0.13830070835555347","212"
"20:23:56:363 (H:m:s:ms)","GENERIC","124.216","0.0867938821459141","636"
"20:44:44:848 (H:m:s:ms)","GENERIC","124.481","0.11635356211272059","152"
"20:24:2:424 (H:m:s:ms)","GENERIC","124.243","0.06565297947087594","1575"
"20:44:48:607 (H:m:s:ms)","OPERA","93.138","0.0999307810424108","392"
"20:24:8:484 (H:m:s:ms)","GENERIC","124.44800000000001","0.10241666476081113","1555"
"20:44:50:909 (H:m:s:ms)","GENERIC","124.487","0.08646115292212708","3091"
"20:24:14:545 (H:m:s:ms)","GENERIC","124.402","0.08893956491803816","454"
"20:44:56:969 (H:m:s:ms)","GENERIC","124.62299999999999","0.10962875519950392","1030"
"20:24:20:606 (H:m:s:ms)","GENERIC","124.47999999999999","0.0991591738573264","393"
"20:45:3:30 (H:m:s:ms)","GENERIC","124.244","0.09274087959541322","969"
"20:24:26:666 (H:m:s:ms)","GENERIC","124.658","0.10125088221204365","333"
"20:45:3:797 (H:m:s:ms)","OPERA","93.25200000000001","0.12220289075723295","202"
"20:24:32:727 (H:m:s:ms)","GENERIC","124.38","0.09090814785133969","272"
"20:45:9:90 (H:m:s:ms)","GENERIC","124.31800000000001","0.08171177343466066","1949"
"20:24:38:787 (H:m:s:ms)","GENERIC","124.402","0.10921946497805733","212"
"20:45:11:392 (H:m:s:ms)","OPERA","93.35300000000001","0.08684179354717803","607"
"20:24:44:848 (H:m:s:ms)","GENERIC","124.47200000000001","0.10413624208352701","152"
"20:24:50:909 (H:m:s:ms)","GENERIC","124.54599999999999","0.05570623412065566","1090"
"20:45:15:151 (H:m:s:ms)","GENERIC","124.17699999999999","0.10991482995398776","1848"
"20:45:18:987 (H:m:s:ms)","OPERA","93.215","0.12896696684634676","1053"
"20:24:56:969 (H:m:s:ms)","GENERIC","93.16","0.08178820513344734","1030"
"20:45:21:212 (H:m:s:ms)","GENERIC","124.332","0.14129491913527686","787"
"20:25:3:30 (H:m:s:ms)","GENERIC","124.392","0.068563648769284","1970"
"20:45:26:582 (H:m:s:ms)","OPERA","93.303","0.11172103517995237","417"
"20:25:9:90 (H:m:s:ms)","GENERIC","124.445","0.12583523522179418","949"
"20:45:27:272 (H:m:s:ms)","GENERIC","124.31200000000001","0.12424435011558156","727"
"20:25:15:151 (H:m:s:ms)","GENERIC","124.33099999999999","0.1268543070309518","848"
"20:45:33:333 (H:m:s:ms)","GENERIC","124.193","0.09823185706026809","666"
"20:25:21:212 (H:m:s:ms)","GENERIC","124.419","0.08474465431619697","787"
"20:45:34:177 (H:m:s:ms)","OPERA","93.288","0.10001447392975568","822"
"20:25:27:272 (H:m:s:ms)","GENERIC","124.381","0.11489710681890623","727"
"20:45:39:393 (H:m:s:ms)","GENERIC","124.59100000000001","0.12508994888817462","646"
"20:25:33:333 (H:m:s:ms)","GENERIC","124.3","0.1481618609930509","667"
"20:45:41:772 (H:m:s:ms)","OPERA","62.113","0.12568993298718725","5228"
"20:25:39:393 (H:m:s:ms)","GENERIC","124.36099999999999","0.11886340860089284","645"
"20:45:45:454 (H:m:s:ms)","GENERIC","124.364","0.10775258437197298","545"
"20:25:45:454 (H:m:s:ms)","GENERIC","124.49799999999999","0.08964015507529258","545"
"20:25:51:515 (H:m:s:ms)","GENERIC","124.384","0.11431515781087391","484"
"20:25:57:575 (H:m:s:ms)","GENERIC","124.418","0.1079754238295999","1424"
"20:26:3:636 (H:m:s:ms)","GENERIC","124.429","0.12395981446847122","363"
"20:26:9:696 (H:m:s:ms)","GENERIC","124.364","0.09308978580818784","341"
"20:26:15:757 (H:m:s:ms)","GENERIC","124.497","0.11254923451258698","242"
"20:26:21:818 (H:m:s:ms)","GENERIC","124.584","0.10059779431822068","181"
"20:26:27:878 (H:m:s:ms)","GENERIC","124.513","0.07403794862453013","1121"
"20:26:33:939 (H:m:s:ms)","GENERIC","124.447","0.08513486027991883","1061"
"20:26:40:0 (H:m:s:ms)","GENERIC","124.463","0.10295362180745941","1039"
"20:26:46:60 (H:m:s:ms)","GENERIC","124.453","0.0881313244036069","939"
"20:26:52:121 (H:m:s:ms)","GENERIC","124.47","0.08400270652545339","1878"
"20:26:58:181 (H:m:s:ms)","GENERIC","124.464","0.05320710303414776","2857"
"20:27:4:242 (H:m:s:ms)","GENERIC","124.30199999999999","0.10020864295422702","757"
"20:27:10:303 (H:m:s:ms)","GENERIC","124.511","0.12235234158495674","696"
"20:27:16:363 (H:m:s:ms)","GENERIC","124.469","0.04394994461635627","1636"
"20:27:22:424 (H:m:s:ms)","GENERIC","124.239","0.10306989302076922","575"
"20:27:28:484 (H:m:s:ms)","GENERIC","124.271","0.03683139249337723","1558"
"20:27:34:545 (H:m:s:ms)","GENERIC","124.35300000000001","0.0946615152484672","4455"
"20:27:40:606 (H:m:s:ms)","GENERIC","124.489","0.12218639407898511","1393"
"20:27:46:666 (H:m:s:ms)","GENERIC","124.34299999999999","0.07212419830785806","333"
"20:27:52:727 (H:m:s:ms)","GENERIC","124.49799999999999","0.059113979327964174","4273"
"20:27:58:787 (H:m:s:ms)","GENERIC","124.445","0.08102460865767763","212"
"20:28:4:848 (H:m:s:ms)","GENERIC","124.179","0.07169781493060769","152"
"20:28:10:909 (H:m:s:ms)","GENERIC","124.551","0.0821888627399361","1090"
"20:28:16:969 (H:m:s:ms)","GENERIC","124.453","0.1294383515689886","1030"
"20:28:23:30 (H:m:s:ms)","GENERIC","124.441","0.1151445227543354","969"
"20:28:29:90 (H:m:s:ms)","GENERIC","124.225","0.08779646700015169","948"
"20:28:35:151 (H:m:s:ms)","GENERIC","124.386","0.08754853493385911","848"
"20:28:41:212 (H:m:s:ms)","GENERIC","124.437","0.0900965450525055","1787"
"20:28:47:272 (H:m:s:ms)","GENERIC","124.257","0.10132891288279593","727"
"20:28:53:333 (H:m:s:ms)","GENERIC","124.31","0.10078400222352737","666"
"20:28:59:393 (H:m:s:ms)","GENERIC","124.47200000000001","0.11869921538763978","645"
"20:29:5:454 (H:m:s:ms)","GENERIC","124.615","0.11460284278261089","545"
"20:29:11:515 (H:m:s:ms)","GENERIC","124.28","0.12134107709990453","1484"
"20:29:17:575 (H:m:s:ms)","GENERIC","124.527","0.15827863090121216","1424"
"20:29:23:636 (H:m:s:ms)","GENERIC","124.21000000000001","0.1286223687582514","363"
"20:29:29:696 (H:m:s:ms)","GENERIC","124.255","0.08949048290765005","342"
"20:29:35:757 (H:m:s:ms)","GENERIC","124.344","0.059266142756377004","1242"
"20:29:41:818 (H:m:s:ms)","GENERIC","124.523","0.08097153041468846","181"
"20:29:47:878 (H:m:s:ms)","GENERIC","124.31200000000001","0.09025830705148459","5160"
"20:29:53:939 (H:m:s:ms)","GENERIC","124.274","0.10740260366310002","2061"
"21:20:22:784 (H:m:s:ms)","OPERA","124.402","0.11783566937693349","215"
"21:20:24:242 (H:m:s:ms)","GENERIC","124.485","0.12898447449211434","757"
"21:20:30:303 (H:m:s:ms)","GENERIC","124.586","0.09888961068753153","1696"
"21:20:30:379 (H:m:s:ms)","OPERA","124.245","0.10407624542697644","620"
"21:20:36:363 (H:m:s:ms)","GENERIC","124.313","0.09460554824244743","1636"
"21:20:37:974 (H:m:s:ms)","OPERA","124.338","0.06312771577900111","4062"
"21:20:42:424 (H:m:s:ms)","GENERIC","124.291","0.09567712879938056","575"
"21:20:45:569 (H:m:s:ms)","OPERA","124.461","0.0976584802533807","430"
"21:20:48:484 (H:m:s:ms)","GENERIC","124.16300000000001","0.12096095408678377","515"
"21:20:53:164 (H:m:s:ms)","OPERA","124.378","0.09958478828411432","1836"
"21:20:54:545 (H:m:s:ms)","GENERIC","124.437","0.07744768127703341","1455"
"21:21:0:606 (H:m:s:ms)","GENERIC","124.455","0.11631230936548406","393"
"21:21:0:759 (H:m:s:ms)","OPERA","124.357","0.10096505077822242","240"
"21:21:6:666 (H:m:s:ms)","GENERIC","124.435","0.11106101359733299","333"
"21:21:8:354 (H:m:s:ms)","OPERA","124.35300000000001","0.09958506242379905","645"
"21:21:12:727 (H:m:s:ms)","GENERIC","124.411","0.11475833697424988","272"
"21:21:15:949 (H:m:s:ms)","OPERA","124.267","0.0765004383296496","2050"
"21:21:18:787 (H:m:s:ms)","GENERIC","124.496","0.09231297151336403","212"
"21:21:23:544 (H:m:s:ms)","OPERA","124.40299999999999","0.09048488060926352","455"
"21:21:24:848 (H:m:s:ms)","GENERIC","124.22399999999999","0.1265231102885944","152"
"21:33:26:60 (H:m:s:ms)","GENERIC","124.22999999999999","0.1035761862555931","939"
"21:33:9:473 (H:m:s:ms)","AMBULANCE","93.273","0.08883651296082401","563"
"21:33:7:878 (H:m:s:ms)","GENERIC","124.428","0.06453365975379437","1121"
"21:33:1:818 (H:m:s:ms)","GENERIC","124.211","0.10178311235192843","181"
"21:32:55:757 (H:m:s:ms)","GENERIC","124.399","0.10692425706155","242"
"21:32:49:696 (H:m:s:ms)","GENERIC","124.606","0.07529323242945761","341"
"21:32:43:636 (H:m:s:ms)","GENERIC","124.439","0.11658421216787905","363"
"21:32:37:894 (H:m:s:ms)","AMBULANCE","124.541","0.10996323203819233","1105"
"21:21:30:909 (H:m:s:ms)","GENERIC","124.45","0.08201196418675503","1090"
"21:32:37:575 (H:m:s:ms)","GENERIC","93.401","0.12172875293248181","424"
"21:21:31:139 (H:m:s:ms)","OPERA","124.49199999999999","0.08881160286821076","860"
"21:21:36:969 (H:m:s:ms)","GENERIC","124.19800000000001","0.11988978349300201","1030"
"21:21:38:734 (H:m:s:ms)","OPERA","124.43700000000001","0.13020121642750485","265"
"21:21:43:30 (H:m:s:ms)","GENERIC","124.398","0.1399272854936471","969"
"21:21:46:329 (H:m:s:ms)","OPERA","124.342","0.08031540703196789","670"
"21:21:49:90 (H:m:s:ms)","GENERIC","124.385","0.10347674705317066","946"
"21:21:53:924 (H:m:s:ms)","OPERA","124.299","0.09016871811927185","3076"
"21:33:20:0 (H:m:s:ms)","GENERIC","124.62100000000001","0.10387901382208585","1038"
"21:21:55:151 (H:m:s:ms)","GENERIC","124.211","0.11288033378211579","2848"
"21:33:13:939 (H:m:s:ms)","GENERIC","124.405","0.11747053555291188","1060"
"21:22:1:212 (H:m:s:ms)","GENERIC","124.351","0.14138634720911883","2788"
"21:34:20:606 (H:m:s:ms)","GENERIC","124.392","0.1105035137644145","1393"
"21:34:14:545 (H:m:s:ms)","GENERIC","124.354","0.13184449931114678","1454"
"21:34:8:484 (H:m:s:ms)","GENERIC","124.494","0.08476086061616069","1553"
"21:34:2:424 (H:m:s:ms)","GENERIC","124.267","0.047028791074366305","1575"
"21:33:56:363 (H:m:s:ms)","GENERIC","124.275","0.12895262862644577","636"
"21:33:50:303 (H:m:s:ms)","GENERIC","124.537","0.12986193385580197","1696"
"21:33:44:242 (H:m:s:ms)","GENERIC","124.34","0.08447674416693844","1758"
"21:33:41:52 (H:m:s:ms)","AMBULANCE","124.378","0.05118616604434314","947"
"21:22:1:518 (H:m:s:ms)","OPERA","124.243","0.1397952419661933","481"
"21:33:38:181 (H:m:s:ms)","GENERIC","124.475","0.07057565075745445","818"
"21:22:7:272 (H:m:s:ms)","GENERIC","124.366","0.1463681468649447","727"
"21:33:32:121 (H:m:s:ms)","GENERIC","124.554","0.09807483975465826","878"
"21:22:13:333 (H:m:s:ms)","GENERIC","124.334","0.0991874721102697","666"
"21:22:16:708 (H:m:s:ms)","OPERA","124.443","0.09805614993200316","291"
"21:22:19:393 (H:m:s:ms)","GENERIC","124.44800000000001","0.13175288989310352","1644"
"21:22:24:303 (H:m:s:ms)","OPERA","124.39099999999999","0.13149208379711827","1696"
"21:22:25:454 (H:m:s:ms)","GENERIC","124.37299999999999","0.15109694089961034","546"
"21:22:31:515 (H:m:s:ms)","GENERIC","124.455","0.1331562693536455","484"
"21:22:31:898 (H:m:s:ms)","OPERA","93.294","0.0915590749845017","1101"
"21:22:37:575 (H:m:s:ms)","GENERIC","124.47800000000001","0.06173359745940899","1424"
"21:34:12:631 (H:m:s:ms)","AMBULANCE","124.49600000000001","0.12084445120315196","368"
"21:35:21:212 (H:m:s:ms)","GENERIC","124.189","0.10927073329475638","787"
"21:35:15:789 (H:m:s:ms)","AMBULANCE","124.273","0.12174688889656725","210"
"21:35:15:151 (H:m:s:ms)","GENERIC","124.646","0.09886299582127081","848"
"21:35:9:90 (H:m:s:ms)","GENERIC","124.268","0.09718336014642177","946"
"21:35:3:30 (H:m:s:ms)","GENERIC","124.519","0.06937523825108552","969"
"21:34:56:969 (H:m:s:ms)","GENERIC","124.55799999999999","0.09298392903466242","1030"
"21:34:50:909 (H:m:s:ms)","GENERIC","124.37700000000001","0.0845347989446659","1090"
"21:34:44:848 (H:m:s:ms)","GENERIC","124.42699999999999","0.10715576123609118","152"
"21:22:39:493 (H:m:s:ms)","OPERA","93.203","0.07751630377223469","1543"
"21:34:38:787 (H:m:s:ms)","GENERIC","124.554","0.10354112550891043","212"
"21:22:43:636 (H:m:s:ms)","GENERIC","124.592","0.11587471614780077","1364"
"21:34:32:727 (H:m:s:ms)","GENERIC","124.40899999999999","0.07414255156821203","1272"
"21:2:13:333 (H:m:s:ms)","GENERIC","124.358","0.10726707588347317","667"
"21:22:47:88 (H:m:s:ms)","OPERA","124.46100000000001","0.11876429706414136","911"
"21:34:26:666 (H:m:s:ms)","GENERIC","124.53299999999999","0.10341958938687368","1333"
"21:2:19:393 (H:m:s:ms)","GENERIC","124.47","0.0806429902368504","650"
"21:22:49:696 (H:m:s:ms)","GENERIC","93.345","0.14461748639100497","344"
"21:2:25:454 (H:m:s:ms)","GENERIC","124.219","0.10269754122141722","545"
"21:22:54:683 (H:m:s:ms)","OPERA","124.497","0.07484818757246593","316"
"21:2:31:515 (H:m:s:ms)","GENERIC","124.4","0.11760701899945132","484"
"21:22:55:757 (H:m:s:ms)","GENERIC","124.463","0.09508180983541127","242"
"21:2:37:575 (H:m:s:ms)","GENERIC","124.488","0.0935245806942973","424"
"21:23:1:818 (H:m:s:ms)","GENERIC","124.375","0.09080793056105704","181"
"21:2:37:894 (H:m:s:ms)","AMBULANCE","93.312","0.13634853338292707","105"
"21:23:2:278 (H:m:s:ms)","OPERA","124.509","0.10373508093326854","721"
"21:2:43:636 (H:m:s:ms)","GENERIC","124.53399999999999","0.1206417572524507","363"
"21:23:7:878 (H:m:s:ms)","GENERIC","124.561","0.061248838197454976","2162"
"21:2:49:696 (H:m:s:ms)","GENERIC","124.359","0.06204434438153085","350"
"21:23:9:873 (H:m:s:ms)","OPERA","124.392","0.09442389647582526","167"
"21:2:55:757 (H:m:s:ms)","GENERIC","124.30799999999999","0.10047887805863562","242"
"21:3:1:818 (H:m:s:ms)","GENERIC","124.392","0.1264185627487377","181"
"21:36:18:947 (H:m:s:ms)","AMBULANCE","124.247","0.08065329427449963","1089"
"21:36:15:757 (H:m:s:ms)","GENERIC","124.25399999999999","0.06903315874142135","1242"
"21:36:9:696 (H:m:s:ms)","GENERIC","124.199","0.043025114668589444","2341"
"21:36:3:636 (H:m:s:ms)","GENERIC","124.434","0.10537317025766559","363"
"21:35:57:575 (H:m:s:ms)","GENERIC","124.494","0.08874776050480013","1424"
"21:35:51:515 (H:m:s:ms)","GENERIC","124.245","0.10683255639483978","484"
"21:35:47:368 (H:m:s:ms)","AMBULANCE","124.49199999999999","0.10092745794639131","631"
"21:23:13:939 (H:m:s:ms)","GENERIC","124.509","0.10539114519015044","3061"
"21:35:45:454 (H:m:s:ms)","GENERIC","124.37299999999999","0.07386336000617356","545"
"21:23:17:468 (H:m:s:ms)","OPERA","124.44399999999999","0.11963793193622402","531"
"21:35:39:393 (H:m:s:ms)","GENERIC","124.41","0.047402884197923545","1644"
"21:3:7:878 (H:m:s:ms)","GENERIC","124.55000000000001","0.03604551563183382","1121"
"21:23:20:0 (H:m:s:ms)","GENERIC","124.519","0.15133038951584532","3041"
"21:35:33:333 (H:m:s:ms)","GENERIC","124.414","0.09764016086525165","666"
"21:3:9:473 (H:m:s:ms)","AMBULANCE","93.293","0.04800025830890529","571"
"21:23:25:63 (H:m:s:ms)","OPERA","124.268","0.12941559356545623","936"
"21:35:27:272 (H:m:s:ms)","GENERIC","124.477","0.09818283840110927","727"
"21:3:13:939 (H:m:s:ms)","GENERIC","124.496","0.11279447433353838","1060"
"21:23:26:60 (H:m:s:ms)","GENERIC","124.475","0.1421446690966891","939"
"21:3:20:0 (H:m:s:ms)","GENERIC","124.57300000000001","0.14645775276852718","1045"
"21:23:32:121 (H:m:s:ms)","GENERIC","124.382","0.13205146204679155","1878"
"21:3:26:60 (H:m:s:ms)","GENERIC","124.32499999999999","0.13707445863796114","940"
"21:23:32:658 (H:m:s:ms)","OPERA","124.271","0.12000715865407877","341"
"21:3:32:121 (H:m:s:ms)","GENERIC","124.525","0.09820226129271069","878"
"21:23:38:181 (H:m:s:ms)","GENERIC","124.476","0.1359555257776386","818"
"21:3:38:181 (H:m:s:ms)","GENERIC","124.356","0.08536219215681275","818"
"21:23:40:253 (H:m:s:ms)","OPERA","93.134","0.06677240309201275","1746"
"21:3:41:52 (H:m:s:ms)","AMBULANCE","93.347","0.09801669970321052","947"
"21:23:44:242 (H:m:s:ms)","GENERIC","124.378","0.10591482212120279","1757"
"21:3:44:242 (H:m:s:ms)","GENERIC","124.44800000000001","0.12956805477544503","757"
"21:3:50:303 (H:m:s:ms)","GENERIC","124.479","0.10562684248223425","696"
"21:37:16:363 (H:m:s:ms)","GENERIC","124.455","0.10345465240590399","636"
"21:37:10:303 (H:m:s:ms)","GENERIC","124.464","0.05782774576939368","2696"
"21:37:4:242 (H:m:s:ms)","GENERIC","124.529","0.11336734690141503","757"
"21:36:58:181 (H:m:s:ms)","GENERIC","124.646","0.1093649079921428","818"
"21:36:52:121 (H:m:s:ms)","GENERIC","124.457","0.14473358443484843","878"
"21:36:50:526 (H:m:s:ms)","AMBULANCE","124.251","0.12032830057315876","473"
"21:23:47:848 (H:m:s:ms)","OPERA","124.363","0.14802463103300825","151"
"21:36:46:60 (H:m:s:ms)","GENERIC","124.417","0.10958853325512727","939"
"21:23:50:303 (H:m:s:ms)","GENERIC","124.45400000000001","0.1519312370062656","696"
"21:36:40:0 (H:m:s:ms)","GENERIC","124.422","0.0927938887012491","2038"
"21:3:56:363 (H:m:s:ms)","GENERIC","124.66499999999999","0.102668774510062","636"
"21:23:55:443 (H:m:s:ms)","OPERA","124.325","0.1127900788749348","1556"
"21:36:33:939 (H:m:s:ms)","GENERIC","124.42500000000001","0.1071905631755662","1061"
"21:4:2:424 (H:m:s:ms)","GENERIC","124.166","0.054325159028092","1575"
"21:23:56:363 (H:m:s:ms)","GENERIC","124.68799999999999","0.12901019525592275","636"
"21:36:27:878 (H:m:s:ms)","GENERIC","124.27199999999999","0.07317907223736159","1121"
"21:4:8:484 (H:m:s:ms)","GENERIC","124.342","0.084428899022198","515"
"21:24:2:424 (H:m:s:ms)","GENERIC","124.31700000000001","0.152039167800718","575"
"21:36:21:818 (H:m:s:ms)","GENERIC","124.51400000000001","0.08670624532300886","181"
"21:4:12:631 (H:m:s:ms)","AMBULANCE","93.455","0.088291857822394","368"
"21:24:3:37 (H:m:s:ms)","OPERA","124.409","0.1436273339354875","2962"
"21:4:14:545 (H:m:s:ms)","GENERIC","124.316","0.0985745865589259","455"
"21:24:8:484 (H:m:s:ms)","GENERIC","124.43","0.15146060486609667","515"
"21:4:20:606 (H:m:s:ms)","GENERIC","124.559","0.08923436695338331","3393"
"21:24:10:632 (H:m:s:ms)","OPERA","124.38900000000001","0.12014452379249392","1367"
"21:4:26:666 (H:m:s:ms)","GENERIC","124.495","0.12737729261422928","333"
"21:24:14:545 (H:m:s:ms)","GENERIC","124.364","0.09841948370236027","455"
"21:4:32:727 (H:m:s:ms)","GENERIC","124.45","0.10635539987639367","273"
"21:24:18:227 (H:m:s:ms)","OPERA","124.44800000000001","0.09416917865246968","772"
"21:4:38:787 (H:m:s:ms)","GENERIC","124.606","0.06796166326044803","212"
"21:4:44:210 (H:m:s:ms)","AMBULANCE","93.466","0.07914474987263866","789"
"21:38:10:909 (H:m:s:ms)","GENERIC","124.561","0.08153150687163688","2090"
"21:38:4:848 (H:m:s:ms)","GENERIC","124.42599999999999","0.06788795364395044","151"
"21:37:58:787 (H:m:s:ms)","GENERIC","124.168","0.11453132584773608","212"
"21:37:53:684 (H:m:s:ms)","AMBULANCE","124.404","0.12923047969304902","315"
"21:37:52:727 (H:m:s:ms)","GENERIC","124.244","0.12149307562746355","272"
"21:37:46:666 (H:m:s:ms)","GENERIC","124.444","0.08970868135193326","1333"
"21:24:20:606 (H:m:s:ms)","GENERIC","124.527","0.1518456330995171","393"
"21:24:25:822 (H:m:s:ms)","OPERA","124.455","0.1057628053761741","2177"
"21:37:40:606 (H:m:s:ms)","GENERIC","124.475","0.05722715135649597","2393"
"21:4:44:848 (H:m:s:ms)","GENERIC","124.463","0.11776774575280793","151"
"21:24:26:666 (H:m:s:ms)","GENERIC","124.315","0.14097953625624046","333"
"21:37:34:545 (H:m:s:ms)","GENERIC","124.378","0.09411236977269731","454"
"21:4:50:909 (H:m:s:ms)","GENERIC","124.42099999999999","0.06766389319061013","2090"
"21:24:32:727 (H:m:s:ms)","GENERIC","124.535","0.12426455197933703","272"
"21:37:28:484 (H:m:s:ms)","GENERIC","124.571","0.1032001559028412","515"
"21:4:56:969 (H:m:s:ms)","GENERIC","124.57","0.1046915905661599","1030"
"21:24:33:417 (H:m:s:ms)","OPERA","124.25","0.11617183953240198","2583"
"21:37:22:424 (H:m:s:ms)","GENERIC","124.399","0.10289670401132264","575"
"21:5:3:30 (H:m:s:ms)","GENERIC","124.41900000000001","0.05192829431017601","2969"
"21:24:38:787 (H:m:s:ms)","GENERIC","124.555","0.15542710596211204","212"
"21:37:22:105 (H:m:s:ms)","AMBULANCE","93.238","0.09787266630446177","894"
"21:5:9:90 (H:m:s:ms)","GENERIC","93.166","0.07034548375797683","953"
"21:24:44:848 (H:m:s:ms)","GENERIC","124.559","0.13539885542566774","151"
"21:5:15:151 (H:m:s:ms)","GENERIC","124.502","0.12151768637928409","848"
"21:24:48:607 (H:m:s:ms)","OPERA","124.393","0.11069986543818787","392"
"21:5:15:789 (H:m:s:ms)","AMBULANCE","93.243","0.09392123179333808","210"
"21:24:50:909 (H:m:s:ms)","GENERIC","124.561","0.08992121773727897","1090"
"21:5:21:212 (H:m:s:ms)","GENERIC","124.15299999999999","0.13117233392477873","787"
"21:24:56:969 (H:m:s:ms)","GENERIC","124.4","0.11431862468471948","1030"
"21:5:27:272 (H:m:s:ms)","GENERIC","124.342","0.078483064467015","727"
"21:5:33:333 (H:m:s:ms)","GENERIC","124.34899999999999","0.06203648697310397","666"
"21:39:11:515 (H:m:s:ms)","GENERIC","124.416","0.12349096736962437","484"
"21:39:5:454 (H:m:s:ms)","GENERIC","124.403","0.10720590716145481","545"
"21:38:59:393 (H:m:s:ms)","GENERIC","124.269","0.1420850165578892","647"
"21:38:56:842 (H:m:s:ms)","AMBULANCE","124.179","0.12666543470997815","1157"
"21:38:53:333 (H:m:s:ms)","GENERIC","124.525","0.12121669981710746","666"
"21:38:47:272 (H:m:s:ms)","GENERIC","124.31899999999999","0.09126886862154532","1727"
"21:38:41:212 (H:m:s:ms)","GENERIC","124.479","0.1007505664556852","787"
"21:25:3:30 (H:m:s:ms)","GENERIC","124.67500000000001","0.12910793948639634","970"
"21:25:3:797 (H:m:s:ms)","OPERA","124.37700000000001","0.1404602117174862","203"
"21:5:39:393 (H:m:s:ms)","GENERIC","124.521","0.07087076173317924","1651"
"21:25:9:90 (H:m:s:ms)","GENERIC","124.31700000000001","0.11294696421027128","947"
"21:5:45:454 (H:m:s:ms)","GENERIC","124.212","0.0925575156129439","545"
"21:25:11:392 (H:m:s:ms)","OPERA","124.18299999999999","0.09879815687508514","607"
"21:38:35:151 (H:m:s:ms)","GENERIC","124.274","0.05369017497341316","2848"
"20:45:49:367 (H:m:s:ms)","OPERA","93.321","0.14595072431874936","672"
"21:5:47:368 (H:m:s:ms)","AMBULANCE","93.349","0.09401548681153683","1631"
"21:25:15:151 (H:m:s:ms)","GENERIC","124.44","0.11421796100171287","848"
"21:38:29:90 (H:m:s:ms)","GENERIC","124.19999999999999","0.07356662312427573","949"
"20:45:51:515 (H:m:s:ms)","GENERIC","124.253","0.16646764635896863","484"
"21:5:51:515 (H:m:s:ms)","GENERIC","124.457","0.08473683586142199","3484"
"21:25:18:987 (H:m:s:ms)","OPERA","124.428","0.129782146345323","1052"
"21:38:23:30 (H:m:s:ms)","GENERIC","124.418","0.09590384661402937","969"
"20:45:56:962 (H:m:s:ms)","OPERA","93.251","0.1233121851857797","1037"
"21:5:57:575 (H:m:s:ms)","GENERIC","124.549","0.07275604187467921","1424"
"21:25:21:212 (H:m:s:ms)","GENERIC","124.178","0.15855655653754647","787"
"21:38:16:969 (H:m:s:ms)","GENERIC","124.404","0.11532517885054876","1031"
"20:45:57:575 (H:m:s:ms)","GENERIC","124.424","0.15874516580195733","424"
"21:6:3:636 (H:m:s:ms)","GENERIC","124.377","0.06394759461253552","363"
"21:25:26:582 (H:m:s:ms)","OPERA","124.469","0.08367530180074857","417"
"20:46:3:636 (H:m:s:ms)","GENERIC","124.372","0.15344843116245194","363"
"21:6:9:696 (H:m:s:ms)","GENERIC","124.293","0.08460504740579784","347"
"21:25:27:272 (H:m:s:ms)","GENERIC","124.434","0.10486430189321967","727"
"20:46:4:556 (H:m:s:ms)","OPERA","93.462","0.11086585885380229","444"
"21:6:15:757 (H:m:s:ms)","GENERIC","124.351","0.1029265813298304","243"
"21:25:33:333 (H:m:s:ms)","GENERIC","124.44","0.09498616453870981","2666"
"20:46:9:696 (H:m:s:ms)","GENERIC","124.499","0.12525173909961837","342"
"21:6:18:947 (H:m:s:ms)","AMBULANCE","93.324","0.10884449272827657","2096"
"20:46:12:151 (H:m:s:ms)","OPERA","93.23400000000001","0.07608641391277939","848"
"21:6:21:818 (H:m:s:ms)","GENERIC","124.47200000000001","0.13465656239043292","181"
"20:46:15:757 (H:m:s:ms)","GENERIC","124.312","0.09337949255142755","242"
"20:46:19:746 (H:m:s:ms)","OPERA","93.322","0.08678013058609664","2294"
"21:40:0:0 (H:m:s:ms)","GENERIC","124.57","0.08964628537341082","1117"
"21:40:0:0 (H:m:s:ms)","GENERIC","124.535","0.14127648325485181","4120"
"21:40:0:0 (H:m:s:ms)","AMBULANCE","124.467","0.11783097047621127","4120"
"21:39:53:939 (H:m:s:ms)","GENERIC","124.49000000000001","0.09445741070823115","1061"
"21:39:47:878 (H:m:s:ms)","GENERIC","124.305","0.06660078537183581","1121"
"21:39:41:818 (H:m:s:ms)","GENERIC","124.616","0.08813999393560273","181"
"21:39:35:757 (H:m:s:ms)","GENERIC","124.468","0.13193590917088632","242"
"21:39:29:696 (H:m:s:ms)","GENERIC","124.263","0.12348144872062031","1342"
"21:25:34:177 (H:m:s:ms)","OPERA","124.32900000000001","0.06300536772189301","822"
"21:25:39:393 (H:m:s:ms)","GENERIC","124.404","0.1150865665986298","648"
"21:6:27:878 (H:m:s:ms)","GENERIC","124.43799999999999","0.05402866633930986","1121"
"21:25:41:772 (H:m:s:ms)","OPERA","124.109","0.10498190546758664","227"
"21:6:33:939 (H:m:s:ms)","GENERIC","124.31","0.10268362495293544","1060"
"21:25:45:454 (H:m:s:ms)","GENERIC","124.4","0.14393372602676122","545"
"20:46:21:818 (H:m:s:ms)","GENERIC","124.305","0.11203102537776893","181"
"21:6:40:0 (H:m:s:ms)","GENERIC","124.469","0.10965866558847423","1043"
"21:25:49:367 (H:m:s:ms)","OPERA","124.4","0.15392711337578138","1674"
"20:46:27:341 (H:m:s:ms)","OPERA","93.333","0.10335678086761994","1658"
"21:6:46:60 (H:m:s:ms)","GENERIC","124.41499999999999","0.07771342381558988","2940"
"21:25:51:515 (H:m:s:ms)","GENERIC","124.494","0.17990715938495946","484"
"21:39:28:421 (H:m:s:ms)","AMBULANCE","124.496","0.08609866943827858","578"
"20:46:27:878 (H:m:s:ms)","GENERIC","124.21000000000001","0.07033239024091047","1121"
"21:6:50:526 (H:m:s:ms)","AMBULANCE","93.279","0.10860502181470046","473"
"21:25:56:962 (H:m:s:ms)","OPERA","124.25800000000001","0.09434831874739309","4079"
"21:39:23:636 (H:m:s:ms)","GENERIC","124.36500000000001","0.09271507207367224","363"
"20:46:33:939 (H:m:s:ms)","GENERIC","124.276","0.1095671954114058","1060"
"21:6:52:121 (H:m:s:ms)","GENERIC","124.343","0.12427715893732062","878"
"21:25:57:575 (H:m:s:ms)","GENERIC","124.489","0.1013528805224148","424"
"21:39:17:575 (H:m:s:ms)","GENERIC","124.23599999999999","0.09746259921313101","424"
"20:46:34:936 (H:m:s:ms)","OPERA","93.489","0.08808799717341467","1063"
"21:6:58:181 (H:m:s:ms)","GENERIC","124.568","0.11874512701400203","818"
"21:26:3:636 (H:m:s:ms)","GENERIC","124.47200000000001","0.1069729790152573","1364"
"20:46:40:0 (H:m:s:ms)","GENERIC","124.375","0.11418325933309027","1041"
"21:7:4:242 (H:m:s:ms)","GENERIC","124.44200000000001","0.12679902297593762","757"
"21:26:4:556 (H:m:s:ms)","OPERA","124.565","0.1215727098642935","444"
"20:46:42:531 (H:m:s:ms)","OPERA","93.397","0.10706670581234684","468"
"21:7:10:303 (H:m:s:ms)","GENERIC","124.64500000000001","0.13938048361209895","697"
"20:46:46:60 (H:m:s:ms)","GENERIC","124.398","0.09211962466211684","1940"
"21:7:16:363 (H:m:s:ms)","GENERIC","93.17","0.12719780111191495","636"
"20:46:50:126 (H:m:s:ms)","OPERA","93.225","0.08299861285264759","873"
"20:46:52:121 (H:m:s:ms)","GENERIC","124.586","0.09599096014843282","878"
"21:40:18:181 (H:m:s:ms)","GENERIC","124.62","0.09847420665219596","818"
"21:41:6:666 (H:m:s:ms)","GENERIC","124.21000000000001","0.10101618341141722","333"
"21:41:0:606 (H:m:s:ms)","GENERIC","124.481","0.10158292069129378","393"
"21:40:54:545 (H:m:s:ms)","GENERIC","124.532","0.09891350408563972","454"
"21:40:48:484 (H:m:s:ms)","GENERIC","124.582","0.07024107757937843","515"
"21:40:42:424 (H:m:s:ms)","GENERIC","124.351","0.10565810877921104","575"
"21:40:36:363 (H:m:s:ms)","GENERIC","124.303","0.09787157735620941","636"
"21:40:30:303 (H:m:s:ms)","GENERIC","93.295","0.08953049313763056","696"
"21:40:24:242 (H:m:s:ms)","GENERIC","124.39099999999999","0.11484243048488216","759"
"21:7:22:105 (H:m:s:ms)","AMBULANCE","93.447","0.12361498477225588","894"
"21:7:22:424 (H:m:s:ms)","GENERIC","124.46799999999999","0.14146056407383695","575"
"20:46:57:721 (H:m:s:ms)","OPERA","93.358","0.0660655684080774","2319"
"21:7:28:484 (H:m:s:ms)","GENERIC","124.185","0.13875017792813277","515"
"20:46:58:181 (H:m:s:ms)","GENERIC","124.412","0.07317854167383754","818"
"21:7:34:545 (H:m:s:ms)","GENERIC","124.29400000000001","0.0776172628593806","455"
"20:47:4:242 (H:m:s:ms)","GENERIC","124.31","0.0998724417317591","758"
"21:7:40:606 (H:m:s:ms)","GENERIC","124.436","0.08166498036013183","393"
"20:47:5:316 (H:m:s:ms)","OPERA","93.175","0.10658856264449115","683"
"21:7:46:666 (H:m:s:ms)","GENERIC","124.209","0.11374663439509763","333"
"21:40:12:121 (H:m:s:ms)","GENERIC","124.422","0.0773996612538613","878"
"20:47:10:303 (H:m:s:ms)","GENERIC","124.52199999999999","0.13474298246671618","696"
"21:7:52:727 (H:m:s:ms)","GENERIC","124.287","0.10530817110941953","272"
"21:40:6:60 (H:m:s:ms)","GENERIC","124.481","0.1499154169455567","940"
"20:47:12:911 (H:m:s:ms)","OPERA","62.141000000000005","0.12011356265232016","1088"
"21:7:53:684 (H:m:s:ms)","AMBULANCE","93.317","0.0838641425778123","315"
"20:47:16:363 (H:m:s:ms)","GENERIC","124.47","0.08791484482811393","1636"
"21:7:58:787 (H:m:s:ms)","GENERIC","124.38300000000001","0.10342719270531202","1256"
"20:47:22:424 (H:m:s:ms)","GENERIC","124.36500000000001","0.09354332090281421","1575"
"21:8:4:848 (H:m:s:ms)","GENERIC","124.194","0.10290934839963696","151"
"20:47:28:101 (H:m:s:ms)","OPERA","93.33500000000001","0.12092746378662213","898"
"20:47:28:484 (H:m:s:ms)","GENERIC","124.488","0.1417042262879616","515"
"21:8:10:909 (H:m:s:ms)","GENERIC","124.458","0.0815620227125068","1090"
"21:8:16:969 (H:m:s:ms)","GENERIC","124.42","0.09591730028148315","1030"
"20:47:34:545 (H:m:s:ms)","GENERIC","124.21199999999999","0.14249647229634146","455"
"21:8:23:30 (H:m:s:ms)","GENERIC","124.53","0.09933239178163004","969"
"20:47:35:696 (H:m:s:ms)","OPERA","93.333","0.0929799717858988","303"
"21:8:25:263 (H:m:s:ms)","AMBULANCE","93.529","0.10340211985860676","736"
"20:47:40:606 (H:m:s:ms)","GENERIC","124.40899999999999","0.10664941939636649","393"
"21:8:29:90 (H:m:s:ms)","GENERIC","124.44300000000001","0.12497921059471771","951"
"20:47:43:291 (H:m:s:ms)","OPERA","93.332","0.07380512283098334","708"
"21:8:35:151 (H:m:s:ms)","GENERIC","124.47200000000001","0.08517242844994137","3848"
"20:47:46:666 (H:m:s:ms)","GENERIC","124.52199999999999","0.06955682646658627","1333"
"21:8:41:212 (H:m:s:ms)","GENERIC","124.568","0.10365891256951221","788"
"20:47:50:886 (H:m:s:ms)","OPERA","93.408","0.0848005680556906","113"
"21:8:47:272 (H:m:s:ms)","GENERIC","124.348","0.11404318186973733","727"
"21:41:12:727 (H:m:s:ms)","GENERIC","124.376","0.0893663520594046","272"
"20:47:52:727 (H:m:s:ms)","GENERIC","124.321","0.09553684711982321","272"
"21:8:53:333 (H:m:s:ms)","GENERIC","124.451","0.11051648027639338","666"
"20:47:58:481 (H:m:s:ms)","OPERA","93.21","0.06846569323460487","518"
"21:8:56:842 (H:m:s:ms)","AMBULANCE","93.44500000000001","0.09057850886906034","2157"
"20:47:58:787 (H:m:s:ms)","GENERIC","124.506","0.09972359961115282","212"
"20:48:4:848 (H:m:s:ms)","GENERIC","124.197","0.05817526502054217","2152"
"21:8:59:393 (H:m:s:ms)","GENERIC","124.304","0.08288728644686526","1647"
"21:9:5:454 (H:m:s:ms)","GENERIC","124.393","0.06851048633249798","545"
"20:48:10:909 (H:m:s:ms)","GENERIC","124.25399999999999","0.07991741591888377","1090"
"21:9:11:515 (H:m:s:ms)","GENERIC","124.398","0.07108695445363176","484"
"20:48:13:670 (H:m:s:ms)","OPERA","93.443","0.10543985428778709","1329"
"21:9:17:575 (H:m:s:ms)","GENERIC","124.28800000000001","0.08717109350466005","424"
"20:30:0:0 (H:m:s:ms)","GENERIC","124.53399999999999","0.10159333896246665","4040"
"20:48:16:969 (H:m:s:ms)","GENERIC","124.286","0.11875217171811014","1030"
"21:9:23:636 (H:m:s:ms)","GENERIC","124.40299999999999","0.09364155664887067","363"
"20:30:0:0 (H:m:s:ms)","GENERIC","124.506","0.0777250524382379","1040"
"20:48:21:265 (H:m:s:ms)","OPERA","93.41","0.06865899100079387","734"
"21:9:28:421 (H:m:s:ms)","AMBULANCE","93.43299999999999","0.07002218377091998","1618"
"20:30:6:60 (H:m:s:ms)","GENERIC","124.40899999999999","0.13997424067361233","2939"
"20:48:23:30 (H:m:s:ms)","GENERIC","124.404","0.08193985042679462","969"
"21:9:29:696 (H:m:s:ms)","GENERIC","124.439","0.1381591095101654","343"
"20:30:12:121 (H:m:s:ms)","GENERIC","124.461","0.11659261382441148","878"
"20:48:28:860 (H:m:s:ms)","OPERA","93.351","0.075054500574435","139"
"21:9:35:757 (H:m:s:ms)","GENERIC","124.41","0.16235827599981523","242"
"20:30:18:181 (H:m:s:ms)","GENERIC","124.406","0.05384778606688715","818"
"20:48:29:90 (H:m:s:ms)","GENERIC","124.35","0.09012268842843071","952"
"21:9:41:818 (H:m:s:ms)","GENERIC","124.391","0.10922714355500578","181"
"20:30:24:242 (H:m:s:ms)","GENERIC","124.263","0.08586280591693617","757"
"20:48:35:151 (H:m:s:ms)","GENERIC","124.455","0.08953568055444923","1848"
"21:9:47:878 (H:m:s:ms)","GENERIC","124.376","0.02731977510661236","1121"
"20:30:30:303 (H:m:s:ms)","GENERIC","124.394","0.12956041425812195","696"
"20:48:36:455 (H:m:s:ms)","OPERA","93.412","0.13428582341608383","544"
"20:30:36:363 (H:m:s:ms)","GENERIC","124.23599999999999","0.14009706680501008","636"
"20:48:41:212 (H:m:s:ms)","GENERIC","124.477","0.13625450887914667","787"
"20:30:42:424 (H:m:s:ms)","GENERIC","124.35","0.11711639457186838","575"
"20:30:48:484 (H:m:s:ms)","GENERIC","124.289","0.090686508468322","515"
"21:9:53:939 (H:m:s:ms)","GENERIC","124.44200000000001","0.09607149608407173","1061"
"21:10:0:0 (H:m:s:ms)","AMBULANCE","93.491","0.09998748877406456","1041"
"20:48:44:50 (H:m:s:ms)","OPERA","93.174","0.06888165747115246","949"
"21:10:0:0 (H:m:s:ms)","GENERIC","124.624","0.123984990891667","1041"
"20:48:47:272 (H:m:s:ms)","GENERIC","124.363","0.0848506152549815","1727"
"21:10:0:0 (H:m:s:ms)","GENERIC","124.68799999999999","0.1162809600781734","2041"
"20:30:54:545 (H:m:s:ms)","GENERIC","124.32","0.10534871374786306","1454"
"20:48:51:645 (H:m:s:ms)","OPERA","93.35900000000001","0.08767874332808478","354"
"21:10:6:60 (H:m:s:ms)","GENERIC","124.334","0.12703761792523866","939"
"20:31:0:606 (H:m:s:ms)","GENERIC","124.494","0.12668952668755498","393"
"20:48:53:333 (H:m:s:ms)","GENERIC","124.382","0.11203936059136688","666"
"21:10:12:121 (H:m:s:ms)","GENERIC","124.429","0.052512986559822186","1878"
"20:31:6:666 (H:m:s:ms)","GENERIC","124.213","0.08892310338442794","333"
"20:48:59:240 (H:m:s:ms)","OPERA","93.262","0.09311995995110442","803"
"21:10:18:181 (H:m:s:ms)","GENERIC","124.285","0.07588697235289465","819"
"20:31:12:727 (H:m:s:ms)","GENERIC","124.37100000000001","0.06697452197322537","272"
"20:48:59:393 (H:m:s:ms)","GENERIC","124.40899999999999","0.11149814643602196","650"
"21:10:24:242 (H:m:s:ms)","GENERIC","124.313","0.08615105474528922","1758"
"20:31:18:787 (H:m:s:ms)","GENERIC","93.229","0.08396711587153678","212"
"20:49:5:454 (H:m:s:ms)","GENERIC","124.239","0.10117647506284129","545"
"21:10:30:303 (H:m:s:ms)","GENERIC","124.57300000000001","0.10514536523882645","696"
"20:31:24:848 (H:m:s:ms)","GENERIC","124.43299999999999","0.11339411901874313","151"
"20:49:6:835 (H:m:s:ms)","OPERA","93.3","0.07410625401165795","164"
"21:10:36:363 (H:m:s:ms)","GENERIC","124.487","0.11024559948350734","636"
"20:31:30:909 (H:m:s:ms)","GENERIC","124.364","0.12630708666544307","1090"
"20:49:11:515 (H:m:s:ms)","GENERIC","124.444","0.09258627518615296","484"
"20:31:36:969 (H:m:s:ms)","GENERIC","124.32300000000001","0.13420321091728957","1030"
"20:49:14:430 (H:m:s:ms)","OPERA","93.40100000000001","0.06384665466927472","569"
"20:31:43:30 (H:m:s:ms)","GENERIC","124.225","0.09395213547952835","969"
"20:31:49:90 (H:m:s:ms)","GENERIC","124.47999999999999","0.10051473161115951","947"
"20:49:17:575 (H:m:s:ms)","GENERIC","124.373","0.10024946596624255","424"
"20:49:22:25 (H:m:s:ms)","OPERA","93.35900000000001","0.11007747952729105","974"
"20:31:55:151 (H:m:s:ms)","GENERIC","124.355","0.09977547646023023","848"
"20:49:23:636 (H:m:s:ms)","GENERIC","124.541","0.10656767370023547","1364"
"20:32:1:212 (H:m:s:ms)","GENERIC","124.477","0.05490538626648201","1787"
"20:49:29:620 (H:m:s:ms)","OPERA","93.33","0.0674255134738543","2423"
"20:32:7:272 (H:m:s:ms)","GENERIC","124.32300000000001","0.07401059727932766","2765"
"20:49:29:696 (H:m:s:ms)","GENERIC","124.334","0.08176775964063335","347"
"20:32:13:333 (H:m:s:ms)","GENERIC","124.527","0.11204715415180679","1666"
"20:49:35:757 (H:m:s:ms)","GENERIC","124.43799999999999","0.10968112161814245","242"
"20:32:19:393 (H:m:s:ms)","GENERIC","124.52799999999999","0.10975150422978527","646"
"20:49:37:215 (H:m:s:ms)","OPERA","93.497","0.11980311500107287","784"
"20:32:25:454 (H:m:s:ms)","GENERIC","124.419","0.07831406006705861","545"
"20:49:41:818 (H:m:s:ms)","GENERIC","124.551","0.12114663256759278","181"
"20:32:31:515 (H:m:s:ms)","GENERIC","124.458","0.07407160851739467","1484"
"20:49:44:810 (H:m:s:ms)","OPERA","93.26599999999999","0.09835230361389809","189"
"20:32:37:575 (H:m:s:ms)","GENERIC","124.529","0.08705110184682427","1424"
"20:49:47:878 (H:m:s:ms)","GENERIC","124.39","0.09456252397595397","1121"
"20:32:43:636 (H:m:s:ms)","GENERIC","124.48599999999999","0.09285154824720956","363"
"20:32:49:696 (H:m:s:ms)","GENERIC","124.27199999999999","0.0885419063673996","341"
"20:49:52:405 (H:m:s:ms)","OPERA","93.368","0.0638568604778969","594"
"20:49:53:939 (H:m:s:ms)","GENERIC","124.347","0.08371106248687657","1061"
"20:32:55:757 (H:m:s:ms)","GENERIC","124.24","0.08553455246889602","242"
"20:50:0:0 (H:m:s:ms)","OPERA","93.39099999999999","0.062215760195367516","1044"
"20:33:1:818 (H:m:s:ms)","GENERIC","124.391","0.12061502848971359","181"
"20:50:0:0 (H:m:s:ms)","GENERIC","124.586","0.06772736410620074","2044"
"20:33:7:878 (H:m:s:ms)","GENERIC","93.237","0.07175042609750142","1121"
"20:50:0:0 (H:m:s:ms)","GENERIC","124.50200000000001","0.07357153799669736","1044"
"20:33:13:939 (H:m:s:ms)","GENERIC","124.501","0.09791652647753045","1060"
"20:50:6:60 (H:m:s:ms)","GENERIC","124.45599999999999","0.08204594216529318","939"
"20:33:20:0 (H:m:s:ms)","GENERIC","124.459","0.09622890086451329","1039"
"20:50:12:121 (H:m:s:ms)","GENERIC","124.43199999999999","0.06962646291376841","878"
"20:33:26:60 (H:m:s:ms)","GENERIC","124.25899999999999","0.11355584788464292","939"
"20:50:18:181 (H:m:s:ms)","GENERIC","124.40299999999999","0.03130865694215105","2864"
"20:33:32:121 (H:m:s:ms)","GENERIC","124.35300000000001","0.12152632530541585","878"
"20:50:24:242 (H:m:s:ms)","GENERIC","124.209","0.047104932634184624","758"
"20:33:38:181 (H:m:s:ms)","GENERIC","124.19300000000001","0.10579405318900442","818"
"20:50:30:303 (H:m:s:ms)","GENERIC","93.297","0.09649821422240036","696"
"20:33:44:242 (H:m:s:ms)","GENERIC","124.311","0.053833842637589016","2757"
"20:33:50:303 (H:m:s:ms)","GENERIC","124.47800000000001","0.08842340561936342","1696"
"20:50:36:363 (H:m:s:ms)","GENERIC","124.545","0.11056270317558858","636"
"20:50:42:424 (H:m:s:ms)","GENERIC","124.375","0.08671239341062777","575"
"20:33:56:363 (H:m:s:ms)","GENERIC","124.463","0.07203364534135973","2636"
"20:50:48:484 (H:m:s:ms)","GENERIC","124.437","0.10776016385225225","515"
"20:34:2:424 (H:m:s:ms)","GENERIC","124.412","0.11144005305342163","575"
"20:50:54:545 (H:m:s:ms)","GENERIC","124.407","0.12248728930202779","454"
"20:10:0:0 (H:m:s:ms)","GENERIC","93.43599999999999","0.09111246660487698","1000"
"20:34:8:484 (H:m:s:ms)","GENERIC","124.473","0.12081889896484482","515"
"20:51:0:606 (H:m:s:ms)","GENERIC","124.47","0.09339063042398374","393"
"20:10:0:0 (H:m:s:ms)","GENERIC","124.299","0.11715232206057612","3048"
"20:34:14:545 (H:m:s:ms)","GENERIC","124.168","0.13059811925442724","455"
"20:51:6:666 (H:m:s:ms)","GENERIC","124.257","0.04000203366709585","1333"
"20:10:6:60 (H:m:s:ms)","GENERIC","124.503","0.134691720596279","2939"
"20:34:20:606 (H:m:s:ms)","GENERIC","124.51","0.12325638178717122","393"
"20:51:12:727 (H:m:s:ms)","GENERIC","124.453","0.06666579406657014","1272"
"20:10:12:121 (H:m:s:ms)","GENERIC","124.438","0.11613574101872977","878"
"20:34:26:666 (H:m:s:ms)","GENERIC","124.447","0.10671461113714864","333"
"20:51:18:787 (H:m:s:ms)","GENERIC","124.52199999999999","0.10344149059944552","212"
"20:10:18:181 (H:m:s:ms)","GENERIC","124.334","0.08383602797467524","1859"
"20:34:32:727 (H:m:s:ms)","GENERIC","124.254","0.09813908894638636","272"
"20:51:24:848 (H:m:s:ms)","GENERIC","124.281","0.1376521691358827","151"
"20:10:24:242 (H:m:s:ms)","GENERIC","124.365","0.1067928052416242","757"
"20:34:38:787 (H:m:s:ms)","GENERIC","124.444","0.05728174255008548","212"
"20:51:30:909 (H:m:s:ms)","GENERIC","124.527","0.08574173213996787","1090"
"20:10:30:303 (H:m:s:ms)","GENERIC","124.411","0.10464784025460795","696"
"20:34:44:848 (H:m:s:ms)","GENERIC","124.59700000000001","0.07453753876459498","151"
"20:10:36:363 (H:m:s:ms)","GENERIC","124.582","0.11007661191049808","636"
"20:34:50:909 (H:m:s:ms)","GENERIC","124.375","0.09564726183028345","1090"
"20:10:42:424 (H:m:s:ms)","GENERIC","124.436","0.09109877113734242","1575"
"20:10:48:484 (H:m:s:ms)","GENERIC","124.46","0.12217593279189289","515"
"20:51:36:969 (H:m:s:ms)","GENERIC","124.41999999999999","0.1012895344754466","1030"
"20:51:43:30 (H:m:s:ms)","GENERIC","124.37700000000001","0.0791598928547161","969"
"20:34:56:969 (H:m:s:ms)","GENERIC","124.62700000000001","0.11500280484070129","1030"
"20:51:49:90 (H:m:s:ms)","GENERIC","124.19","0.10138582579243614","1953"
"20:35:3:30 (H:m:s:ms)","GENERIC","124.435","0.07924190434799684","969"
"20:51:55:151 (H:m:s:ms)","GENERIC","124.34100000000001","0.1247076749989412","1848"
"20:10:54:545 (H:m:s:ms)","GENERIC","124.50200000000001","0.12056547384226157","454"
"20:35:9:90 (H:m:s:ms)","GENERIC","124.57","0.09740271398862799","947"
"20:52:1:212 (H:m:s:ms)","GENERIC","124.506","0.11593641136542449","787"
"20:11:0:606 (H:m:s:ms)","GENERIC","124.439","0.05561053199226875","2393"
"20:35:15:151 (H:m:s:ms)","GENERIC","124.499","0.11025630562694617","849"
"20:52:7:272 (H:m:s:ms)","GENERIC","124.417","0.10694855979984395","2772"
"20:11:6:666 (H:m:s:ms)","GENERIC","124.412","0.085044693926033","333"
"20:35:21:212 (H:m:s:ms)","GENERIC","124.475","0.09922638379765873","787"
"20:52:13:333 (H:m:s:ms)","GENERIC","124.482","0.11756843339851761","667"
"20:11:12:727 (H:m:s:ms)","GENERIC","124.476","0.10053030199024882","272"
"20:35:27:272 (H:m:s:ms)","GENERIC","124.37100000000001","0.10590952516501695","727"
"20:52:19:393 (H:m:s:ms)","GENERIC","124.56700000000001","0.09947352797984069","652"
"20:11:18:787 (H:m:s:ms)","GENERIC","124.38","0.10260832859312113","212"
"20:35:33:333 (H:m:s:ms)","GENERIC","124.44200000000001","0.14517233309093758","666"
"20:52:25:454 (H:m:s:ms)","GENERIC","124.42099999999999","0.12160057658086922","545"
"20:11:24:848 (H:m:s:ms)","GENERIC","124.56","0.08477211981832958","152"
"20:35:39:393 (H:m:s:ms)","GENERIC","124.428","0.12980861107332894","646"
"20:52:31:515 (H:m:s:ms)","GENERIC","124.39099999999999","0.044634414627002385","6485"
"20:11:30:909 (H:m:s:ms)","GENERIC","124.456","0.08264558634073844","1090"
"20:35:45:454 (H:m:s:ms)","GENERIC","124.51599999999999","0.07939993224376923","545"
"20:11:36:969 (H:m:s:ms)","GENERIC","124.20599999999999","0.08323372458741847","3072"
"20:35:51:515 (H:m:s:ms)","GENERIC","124.408","0.10777904054544774","484"
"20:11:43:30 (H:m:s:ms)","GENERIC","124.513","0.09059403410113963","969"
"20:11:49:90 (H:m:s:ms)","GENERIC","124.543","0.08056148721992815","950"
"20:0:54:545 (H:m:s:ms)","GENERIC","93.54599999999999","0.13058890627376626","1455"
"20:1:0:606 (H:m:s:ms)","GENERIC","93.469","0.12939071448359002","394"
"20:1:6:666 (H:m:s:ms)","GENERIC","93.19399999999999","0.08949443190219007","1334"
"20:1:12:727 (H:m:s:ms)","GENERIC","93.34","0.10797767130680332","272"
"20:1:18:787 (H:m:s:ms)","GENERIC","93.24799999999999","0.09394727653742331","1227"
"20:1:24:848 (H:m:s:ms)","GENERIC","93.306","0.10329282245912817","152"
"20:1:30:909 (H:m:s:ms)","GENERIC","93.44800000000001","0.07705197756641145","1091"
"20:1:36:969 (H:m:s:ms)","GENERIC","93.31700000000001","0.10109347405726704","1031"
"20:1:43:30 (H:m:s:ms)","GENERIC","93.506","0.11170240544162216","969"
"20:1:49:90 (H:m:s:ms)","GENERIC","93.388","0.09843909859178501","925"
"20:35:57:575 (H:m:s:ms)","GENERIC","124.533","0.10703513393338109","424"
"20:36:3:636 (H:m:s:ms)","GENERIC","124.209","0.06485288421497823","363"
"20:11:55:151 (H:m:s:ms)","GENERIC","124.46000000000001","0.05822746225715336","1848"
"20:36:9:696 (H:m:s:ms)","GENERIC","124.356","0.06434813073590026","340"
"20:12:1:212 (H:m:s:ms)","GENERIC","124.336","0.10323373134893388","788"
"20:36:15:757 (H:m:s:ms)","GENERIC","124.34","0.09231165204382957","242"
"20:12:7:272 (H:m:s:ms)","GENERIC","124.46000000000001","0.10064748119047631","727"
"20:36:21:818 (H:m:s:ms)","GENERIC","124.506","0.08327787311106447","181"
"20:12:13:333 (H:m:s:ms)","GENERIC","124.498","0.10462259967738666","666"
"20:36:27:878 (H:m:s:ms)","GENERIC","124.447","0.06391049005525481","1121"
"20:12:19:393 (H:m:s:ms)","GENERIC","124.51599999999999","0.10182991069521019","649"
"20:36:33:939 (H:m:s:ms)","GENERIC","124.467","0.0744567624707715","1060"
"20:12:25:454 (H:m:s:ms)","GENERIC","124.469","0.07582829552327498","545"
"20:36:40:0 (H:m:s:ms)","GENERIC","124.53800000000001","0.07490942016755853","1039"
"20:12:31:515 (H:m:s:ms)","GENERIC","124.53399999999999","0.13510148788356882","484"
"20:36:46:60 (H:m:s:ms)","GENERIC","124.523","0.11893604622133899","939"
"20:12:37:575 (H:m:s:ms)","GENERIC","124.521","0.14912086122523718","424"
"20:36:52:121 (H:m:s:ms)","GENERIC","124.571","0.11887217401464127","878"
"20:12:43:636 (H:m:s:ms)","GENERIC","124.58","0.11909244380335382","363"
"20:12:49:696 (H:m:s:ms)","GENERIC","124.551","0.06851015650706259","2346"
"20:1:55:151 (H:m:s:ms)","GENERIC","93.263","0.06654518932317323","848"
"20:2:1:212 (H:m:s:ms)","GENERIC","93.29","0.06808323544160899","787"
"20:2:7:272 (H:m:s:ms)","GENERIC","93.41","0.06933379663720593","727"
"20:2:13:333 (H:m:s:ms)","GENERIC","93.473","0.07416700958403498","667"
"20:2:19:393 (H:m:s:ms)","GENERIC","93.554","0.07520210665525878","624"
"20:2:25:454 (H:m:s:ms)","GENERIC","93.22","0.09389812951753776","545"
"20:2:31:515 (H:m:s:ms)","GENERIC","93.411","0.09219621855547148","484"
"20:2:37:575 (H:m:s:ms)","GENERIC","93.525","0.07934595851302156","1425"
"20:2:43:636 (H:m:s:ms)","GENERIC","93.426","0.11823335154171181","363"
"20:2:49:696 (H:m:s:ms)","GENERIC","93.127","0.10358482165406648","325"
"20:36:58:181 (H:m:s:ms)","GENERIC","124.501","0.07698247557929448","1857"
"20:37:4:242 (H:m:s:ms)","GENERIC","124.364","0.10931372801522346","1757"
"20:12:55:757 (H:m:s:ms)","GENERIC","124.467","0.10948627704319498","1242"
"20:37:10:303 (H:m:s:ms)","GENERIC","124.25","0.056994445701263975","2696"
"20:13:1:818 (H:m:s:ms)","GENERIC","124.45400000000001","0.10404575021314916","181"
"20:37:16:363 (H:m:s:ms)","GENERIC","124.43299999999999","0.10395903265328955","636"
"20:13:7:878 (H:m:s:ms)","GENERIC","124.501","0.08900540713562083","121"
"20:37:22:424 (H:m:s:ms)","GENERIC","124.38","0.12136304694479126","575"
"20:13:13:939 (H:m:s:ms)","GENERIC","124.285","0.050211651210950746","1061"
"20:37:28:484 (H:m:s:ms)","GENERIC","124.533","0.09385683518471749","1554"
"20:13:20:0 (H:m:s:ms)","GENERIC","124.4","0.0759846138537661","1042"
"20:37:34:545 (H:m:s:ms)","GENERIC","124.47300000000001","0.11339113207194414","455"
"20:13:26:60 (H:m:s:ms)","GENERIC","124.275","0.09539767001707342","939"
"20:37:40:606 (H:m:s:ms)","GENERIC","124.386","0.094247170183507","393"
"20:13:32:121 (H:m:s:ms)","GENERIC","124.40299999999999","0.08971223277397226","2878"
"20:37:46:666 (H:m:s:ms)","GENERIC","124.40700000000001","0.0799758818864612","333"
"20:13:38:181 (H:m:s:ms)","GENERIC","124.39","0.07739137065429928","3860"
"20:37:52:727 (H:m:s:ms)","GENERIC","124.44200000000001","0.05799571278876566","1272"
"20:13:44:242 (H:m:s:ms)","GENERIC","124.243","0.11650588428653827","758"
"20:13:50:303 (H:m:s:ms)","GENERIC","124.31","0.10129515832188427","696"
"20:2:55:757 (H:m:s:ms)","GENERIC","93.137","0.11266587045144162","242"
"20:3:1:818 (H:m:s:ms)","GENERIC","93.412","0.07781962036863152","1182"
"20:3:7:878 (H:m:s:ms)","GENERIC","93.338","0.08095143897007169","3143"
"20:3:13:939 (H:m:s:ms)","GENERIC","93.434","0.13060647757250118","2060"
"20:3:20:0 (H:m:s:ms)","GENERIC","93.513","0.11227338671397886","1000"
"20:3:26:60 (H:m:s:ms)","GENERIC","93.401","0.06950574706118674","939"
"20:3:32:121 (H:m:s:ms)","GENERIC","93.425","0.07670671660770681","878"
"20:3:38:181 (H:m:s:ms)","GENERIC","93.30699999999999","0.05344493662647048","2841"
"20:3:44:242 (H:m:s:ms)","GENERIC","93.52000000000001","0.061653147561349715","759"
"20:3:50:303 (H:m:s:ms)","GENERIC","93.531","0.07337784224679812","696"
"20:37:58:787 (H:m:s:ms)","GENERIC","124.324","0.08012202329465064","212"
"20:38:4:848 (H:m:s:ms)","GENERIC","124.151","0.09911766510328178","151"
"20:13:56:363 (H:m:s:ms)","GENERIC","124.48400000000001","0.07706470658247849","636"
"20:38:10:909 (H:m:s:ms)","GENERIC","124.32900000000001","0.06175989680121642","1090"
"20:14:2:424 (H:m:s:ms)","GENERIC","124.451","0.06540606757130465","575"
"20:38:16:969 (H:m:s:ms)","GENERIC","124.494","0.07469522684528879","1030"
"20:14:8:484 (H:m:s:ms)","GENERIC","124.548","0.10614143339580155","515"
"20:38:23:30 (H:m:s:ms)","GENERIC","124.489","0.05697210749308899","1969"
"20:14:14:545 (H:m:s:ms)","GENERIC","93.338","0.11155183884439875","454"
"20:38:29:90 (H:m:s:ms)","GENERIC","124.628","0.08153465657593777","949"
"20:14:20:606 (H:m:s:ms)","GENERIC","124.39500000000001","0.08317152644149295","393"
"20:38:35:151 (H:m:s:ms)","GENERIC","124.154","0.09396355303514674","1848"
"20:14:26:666 (H:m:s:ms)","GENERIC","124.44800000000001","0.08597821164247545","333"
"20:38:41:212 (H:m:s:ms)","GENERIC","124.208","0.10462373081239013","787"
"20:14:32:727 (H:m:s:ms)","GENERIC","124.542","0.09261613421356481","272"
"20:38:47:272 (H:m:s:ms)","GENERIC","124.459","0.059304972060961414","727"
"20:14:38:787 (H:m:s:ms)","GENERIC","124.25","0.09801122112439524","212"
"20:38:53:333 (H:m:s:ms)","GENERIC","124.473","0.053158335885082314","1667"
"20:14:44:848 (H:m:s:ms)","GENERIC","124.495","0.09021050676973244","151"
"20:14:50:909 (H:m:s:ms)","GENERIC","124.191","0.031105334708827554","1090"
"20:3:56:363 (H:m:s:ms)","GENERIC","93.541","0.04226314999930736","1637"
"20:4:2:424 (H:m:s:ms)","GENERIC","93.237","0.10606297763364853","575"
"20:4:8:484 (H:m:s:ms)","GENERIC","93.22200000000001","0.13298469588873266","515"
"20:4:14:545 (H:m:s:ms)","GENERIC","93.433","0.11817726524215513","455"
"20:4:20:606 (H:m:s:ms)","GENERIC","93.55","0.11125459075730627","393"
"20:4:26:666 (H:m:s:ms)","GENERIC","93.513","0.08507068473404675","333"
"20:4:32:727 (H:m:s:ms)","GENERIC","93.519","0.05856265673607769","2273"
"20:4:38:787 (H:m:s:ms)","GENERIC","93.35","0.07799144767736192","213"
"20:4:44:848 (H:m:s:ms)","GENERIC","93.345","0.09199938508654168","152"
"20:4:50:909 (H:m:s:ms)","GENERIC","93.351","0.04295649272877365","1090"
"20:38:59:393 (H:m:s:ms)","GENERIC","124.441","0.06785931274753257","645"
"20:39:5:454 (H:m:s:ms)","GENERIC","124.406","0.03954136619211191","1545"
"20:14:56:969 (H:m:s:ms)","GENERIC","124.525","0.05150652438766818","2030"
"20:39:11:515 (H:m:s:ms)","GENERIC","124.374","0.07506687584231089","484"
"20:15:3:30 (H:m:s:ms)","GENERIC","124.311","0.09214888503097872","969"
"20:39:17:575 (H:m:s:ms)","GENERIC","124.212","0.0932127398639834","424"
"20:15:9:90 (H:m:s:ms)","GENERIC","124.446","0.11354240539583943","949"
"20:39:23:636 (H:m:s:ms)","GENERIC","124.452","0.06650161870319722","1364"
"20:15:15:151 (H:m:s:ms)","GENERIC","124.494","0.11920381031244935","848"
"20:39:29:696 (H:m:s:ms)","GENERIC","124.644","0.084333602404392","343"
"20:15:21:212 (H:m:s:ms)","GENERIC","93.174","0.11384782582631257","788"
"20:39:35:757 (H:m:s:ms)","GENERIC","124.334","0.09747310339900381","242"
"20:15:27:272 (H:m:s:ms)","GENERIC","124.65","0.10545836182424165","1728"
"20:39:41:818 (H:m:s:ms)","GENERIC","124.273","0.05480830926851821","1182"
"20:15:33:333 (H:m:s:ms)","GENERIC","124.358","0.11846047129255279","666"
"20:39:47:878 (H:m:s:ms)","GENERIC","124.376","0.1011935019003211","1121"
"20:15:39:393 (H:m:s:ms)","GENERIC","124.35499999999999","0.05487485660967667","1646"
"20:39:53:939 (H:m:s:ms)","GENERIC","124.38","0.11442091435019296","1061"
"20:15:45:454 (H:m:s:ms)","GENERIC","124.313","0.08068680763799192","545"
"20:15:51:515 (H:m:s:ms)","GENERIC","124.429","0.08188436229895582","484"
"20:4:56:969 (H:m:s:ms)","GENERIC","93.524","0.06856047316536176","1031"
"20:5:3:30 (H:m:s:ms)","GENERIC","93.445","0.07169012881572764","969"
"20:5:9:90 (H:m:s:ms)","GENERIC","93.475","0.10033495417889754","935"
"20:5:15:151 (H:m:s:ms)","GENERIC","93.218","0.10455399569459195","848"
"20:5:21:212 (H:m:s:ms)","GENERIC","93.32","0.0807573802243908","787"
"20:5:27:272 (H:m:s:ms)","GENERIC","93.348","0.09227650350761023","727"
"20:5:33:333 (H:m:s:ms)","GENERIC","93.37","0.09549501985928974","666"
"20:5:39:393 (H:m:s:ms)","GENERIC","93.399","0.11969700463719574","634"
"20:5:45:454 (H:m:s:ms)","GENERIC","93.472","0.12791139031257245","545"
"20:5:51:515 (H:m:s:ms)","GENERIC","93.113","0.09852409989275987","484"
"20:15:57:575 (H:m:s:ms)","GENERIC","124.406","0.07051245668495479","1424"
"20:16:3:636 (H:m:s:ms)","GENERIC","124.486","0.08678675954362423","363"
"20:16:9:696 (H:m:s:ms)","GENERIC","124.361","0.11578233609397127","343"
"20:16:15:757 (H:m:s:ms)","GENERIC","124.487","0.12278358305241346","242"
"20:16:21:818 (H:m:s:ms)","GENERIC","124.42","0.12431431504696351","181"
"20:16:27:878 (H:m:s:ms)","GENERIC","124.519","0.05056236453056792","4162"
"20:16:33:939 (H:m:s:ms)","GENERIC","124.62","0.11193880444702063","1061"
"20:16:40:0 (H:m:s:ms)","GENERIC","124.20400000000001","0.07134966707131224","3041"
"20:16:46:60 (H:m:s:ms)","GENERIC","124.487","0.08696783274428647","940"
"20:16:52:121 (H:m:s:ms)","GENERIC","124.38900000000001","0.0885468098730304","878"
"20:5:57:575 (H:m:s:ms)","GENERIC","93.392","0.10096750641030189","425"
"20:6:3:636 (H:m:s:ms)","GENERIC","93.407","0.10389622100425522","364"
"20:6:9:696 (H:m:s:ms)","GENERIC","93.423","0.08527271215989407","332"
"20:6:15:757 (H:m:s:ms)","GENERIC","93.343","0.08678051731705443","243"
"20:6:21:818 (H:m:s:ms)","GENERIC","93.468","0.10100443889605022","181"
"20:6:27:878 (H:m:s:ms)","GENERIC","93.6","0.12104688573759732","121"
"20:6:33:939 (H:m:s:ms)","GENERIC","93.529","0.0918108448686408","1061"
"20:6:40:0 (H:m:s:ms)","GENERIC","93.411","0.11714552410123041","1000"
"20:6:46:60 (H:m:s:ms)","GENERIC","93.458","0.08894289199102447","939"
"20:6:52:121 (H:m:s:ms)","GENERIC","93.562","0.11912698364322163","878"
"20:16:58:181 (H:m:s:ms)","GENERIC","124.446","0.0857837372790264","818"
"20:17:4:242 (H:m:s:ms)","GENERIC","124.513","0.0878932770220912","757"
"20:17:10:303 (H:m:s:ms)","GENERIC","124.459","0.10104458823255313","2696"
"20:17:16:363 (H:m:s:ms)","GENERIC","124.342","0.12972360718250658","636"
"20:17:22:424 (H:m:s:ms)","GENERIC","124.42","0.09607144205143985","575"
"20:17:28:484 (H:m:s:ms)","GENERIC","124.289","0.0756568828800867","2555"
"20:17:34:545 (H:m:s:ms)","GENERIC","124.447","0.09377250674911121","454"
"20:17:40:606 (H:m:s:ms)","GENERIC","124.388","0.07482050929146061","393"
"20:17:46:666 (H:m:s:ms)","GENERIC","124.344","0.10116258287530971","333"
"20:17:52:727 (H:m:s:ms)","GENERIC","124.42099999999999","0.10075142364887779","272"
"20:6:58:181 (H:m:s:ms)","GENERIC","93.42999999999999","0.11441472727799784","818"
"20:7:4:242 (H:m:s:ms)","GENERIC","93.448","0.12124591296539984","758"
"20:7:10:303 (H:m:s:ms)","GENERIC","93.386","0.07853924283862569","1697"
"20:7:16:363 (H:m:s:ms)","GENERIC","93.59700000000001","0.09485133741589725","1637"
"20:7:22:424 (H:m:s:ms)","GENERIC","93.278","0.07998807617641414","575"
"20:7:28:484 (H:m:s:ms)","GENERIC","93.437","0.07338817355233074","515"
"20:7:34:545 (H:m:s:ms)","GENERIC","93.254","0.11378448942523745","455"
"20:7:40:606 (H:m:s:ms)","GENERIC","93.497","0.06153654283279732","1393"
"20:7:46:666 (H:m:s:ms)","GENERIC","93.514","0.09787500609270344","333"
"20:7:52:727 (H:m:s:ms)","GENERIC","93.35900000000001","0.10417373326312174","272"
"20:17:58:787 (H:m:s:ms)","GENERIC","124.211","0.09430740229315776","212"
"20:18:4:848 (H:m:s:ms)","GENERIC","124.571","0.0981908408781923","151"
"20:18:10:909 (H:m:s:ms)","GENERIC","124.394","0.08618833597335741","1090"
"20:18:16:969 (H:m:s:ms)","GENERIC","124.557","0.11616846624114387","1030"
"20:18:23:30 (H:m:s:ms)","GENERIC","124.48","0.13560881275806694","969"
"20:18:29:90 (H:m:s:ms)","GENERIC","124.405","0.14233117682811858","950"
"20:18:35:151 (H:m:s:ms)","GENERIC","124.44399999999999","0.10729987074216972","848"
"20:18:41:212 (H:m:s:ms)","GENERIC","124.373","0.1026742205802346","787"
"20:18:47:272 (H:m:s:ms)","GENERIC","124.307","0.11014742541178063","727"
"20:18:53:333 (H:m:s:ms)","GENERIC","124.33","0.09615468257748987","666"
"20:7:58:787 (H:m:s:ms)","GENERIC","93.554","0.07681254576799712","213"
"20:8:4:848 (H:m:s:ms)","GENERIC","93.35300000000001","0.06377612950964291","152"
"20:8:10:909 (H:m:s:ms)","GENERIC","93.439","0.07554347706033879","1090"
"20:8:16:969 (H:m:s:ms)","GENERIC","93.358","0.0960905585124478","1030"
"20:8:23:30 (H:m:s:ms)","GENERIC","93.37","0.10032639035314016","969"
"20:8:29:90 (H:m:s:ms)","GENERIC","93.489","0.13319708792338286","947"
"20:8:35:151 (H:m:s:ms)","GENERIC","93.49600000000001","0.12173537453671478","848"
"20:8:41:212 (H:m:s:ms)","GENERIC","93.44500000000001","0.10211098718121159","787"
"20:8:47:272 (H:m:s:ms)","GENERIC","93.345","0.08082857283103799","3764"
"20:8:53:333 (H:m:s:ms)","GENERIC","93.469","0.09976159103041839","1667"
"20:18:59:393 (H:m:s:ms)","GENERIC","124.399","0.08240348490782523","655"
"20:19:5:454 (H:m:s:ms)","GENERIC","124.576","0.09897037810674693","545"
"20:19:11:515 (H:m:s:ms)","GENERIC","124.482","0.10715934863278133","484"
"20:19:17:575 (H:m:s:ms)","GENERIC","124.414","0.10969674488876466","424"
"20:19:23:636 (H:m:s:ms)","GENERIC","124.45400000000001","0.09825464858370109","2364"
"20:19:29:696 (H:m:s:ms)","GENERIC","124.358","0.06524350380408851","3345"
"20:19:35:757 (H:m:s:ms)","GENERIC","124.336","0.11760986880834622","242"
"20:19:41:818 (H:m:s:ms)","GENERIC","124.58699999999999","0.10984908349166442","181"
"20:19:47:878 (H:m:s:ms)","GENERIC","124.29599999999999","0.1237306227296886","1121"
"20:19:53:939 (H:m:s:ms)","GENERIC","124.475","0.1297835448678075","1060"
"20:8:59:393 (H:m:s:ms)","GENERIC","93.486","0.07957004728353764","645"
"20:9:5:454 (H:m:s:ms)","GENERIC","93.484","0.058395124339334706","545"
"20:9:11:515 (H:m:s:ms)","GENERIC","93.376","0.055715783702330296","484"
"20:9:17:575 (H:m:s:ms)","GENERIC","93.396","0.09420584846717395","424"
"20:9:23:636 (H:m:s:ms)","GENERIC","93.328","0.0740912072460058","1364"
"20:9:29:696 (H:m:s:ms)","GENERIC","93.278","0.10846919809679227","344"
"20:9:35:757 (H:m:s:ms)","GENERIC","93.369","0.07440816688048685","2243"
"20:9:41:818 (H:m:s:ms)","GENERIC","93.428","0.1127860075061128","181"
"20:9:47:878 (H:m:s:ms)","GENERIC","93.42099999999999","0.11841341949608573","121"
"20:9:53:939 (H:m:s:ms)","GENERIC","93.374","0.05380142808431613","1061"
"21:41:55:151 (H:m:s:ms)","GENERIC","124.304","0.0819817122136919","848"
"21:41:49:90 (H:m:s:ms)","GENERIC","124.511","0.09909105396758294","949"
"21:41:43:30 (H:m:s:ms)","GENERIC","124.213","0.12173219004765023","969"
"21:41:36:969 (H:m:s:ms)","GENERIC","124.537","0.11985435553282765","1030"
"21:41:30:909 (H:m:s:ms)","GENERIC","124.494","0.07814256024880638","2090"
"21:41:24:848 (H:m:s:ms)","GENERIC","124.41900000000001","0.12006364703849623","151"
"21:41:18:787 (H:m:s:ms)","GENERIC","124.53299999999999","0.10637178480227828","212"
"21:42:13:333 (H:m:s:ms)","GENERIC","124.321","0.07785642998514108","666"
"21:42:7:272 (H:m:s:ms)","GENERIC","124.303","0.1029519721773824","727"
"21:42:1:212 (H:m:s:ms)","GENERIC","124.619","0.1105027602102117","787"
