"time (H:m:s:ms)","type","latency","utilisation","waiting"
"21:42:25:454 (H:m:s:ms)","GENERIC","62.083","0.2362457798282428","545"
"21:42:7:272 (H:m:s:ms)","GENERIC","62.023","0.24182683569423358","727"
"21:42:1:212 (H:m:s:ms)","GENERIC","62.091","0.24412376061445923","787"
"21:41:55:151 (H:m:s:ms)","GENERIC","62.099","0.245272474681225","1848"
"21:41:49:90 (H:m:s:ms)","GENERIC","62.093","0.24403151563176873","944"
"21:41:43:30 (H:m:s:ms)","GENERIC","62.081","0.24809776293590055","969"
"21:41:36:969 (H:m:s:ms)","GENERIC","62.053","0.25404394798578994","1030"
"21:41:30:909 (H:m:s:ms)","GENERIC","62.111","0.24819797654828415","1090"
"21:41:24:848 (H:m:s:ms)","GENERIC","62.053","0.24353451521947805","152"
"21:42:19:393 (H:m:s:ms)","GENERIC","62.021","0.23965274605286643","641"
"21:42:13:333 (H:m:s:ms)","GENERIC","62.045","0.24216207779207147","666"
"21:43:32:121 (H:m:s:ms)","GENERIC","62.105","0.22920127271303276","1878"
"21:43:26:60 (H:m:s:ms)","GENERIC","62.045","0.22645923699924744","1941"
"21:43:13:939 (H:m:s:ms)","GENERIC","62.061","0.23040862055026098","1061"
"20:0:0:0 (H:m:s:ms)","GENERIC","31.04","0.04988481143165057","1073"
"21:43:7:878 (H:m:s:ms)","GENERIC","62.119","0.22939900054281903","1121"
"20:0:6:60 (H:m:s:ms)","GENERIC","31.029","0.05373627929481486","940"
"21:43:1:818 (H:m:s:ms)","GENERIC","62.143","0.2345735622559393","181"
"20:0:12:121 (H:m:s:ms)","GENERIC","31.021","0.07146671516032059","878"
"21:42:55:757 (H:m:s:ms)","GENERIC","62.067","0.23474190401080336","242"
"20:0:18:181 (H:m:s:ms)","GENERIC","31.019","0.07501695617685747","819"
"21:42:49:696 (H:m:s:ms)","GENERIC","62.087","0.2417765848379643","337"
"20:0:24:242 (H:m:s:ms)","GENERIC","31.037","0.07825608681412342","758"
"21:42:43:636 (H:m:s:ms)","GENERIC","62.055","0.24482391836636047","363"
"20:0:30:303 (H:m:s:ms)","GENERIC","31.032","0.07888415032013402","697"
"21:42:37:575 (H:m:s:ms)","GENERIC","62.063","0.24487709642750663","424"
"20:0:36:363 (H:m:s:ms)","GENERIC","31.028","0.10487419139556009","2636"
"21:42:31:515 (H:m:s:ms)","GENERIC","62.073","0.23957467611935157","484"
"20:0:42:424 (H:m:s:ms)","GENERIC","31.046","0.10513843322372694","575"
"21:10:12:121 (H:m:s:ms)","GENERIC","62.089","0.2637631915391942","878"
"20:0:48:484 (H:m:s:ms)","GENERIC","31.042","0.11794437607520894","515"
"21:10:18:181 (H:m:s:ms)","GENERIC","62.093","0.2570191634574865","818"
"21:10:24:242 (H:m:s:ms)","GENERIC","62.081","0.25688601558215135","757"
"21:10:30:303 (H:m:s:ms)","GENERIC","62.109","0.2535139863938186","696"
"21:10:36:363 (H:m:s:ms)","GENERIC","62.065","0.253590850391519","636"
"21:10:42:424 (H:m:s:ms)","GENERIC","62.065","0.25246396152822587","575"
"21:10:48:484 (H:m:s:ms)","GENERIC","62.133","0.25022770820802337","515"
"21:10:54:545 (H:m:s:ms)","GENERIC","62.059","0.2505126402949798","454"
"21:43:20:0 (H:m:s:ms)","GENERIC","62.091","0.22599922345164178","3034"
"21:11:0:606 (H:m:s:ms)","GENERIC","62.045","0.2558815600745704","393"
"21:11:6:666 (H:m:s:ms)","GENERIC","62.021","0.24901134198086808","333"
"21:25:41:772 (H:m:s:ms)","OPERA","62.013","0.2802373386404228","1227"
"21:44:38:787 (H:m:s:ms)","GENERIC","62.087","0.235103462747369","212"
"21:44:32:727 (H:m:s:ms)","GENERIC","62.085","0.23432072321550523","272"
"21:44:26:666 (H:m:s:ms)","GENERIC","62.041","0.2341759343823074","333"
"21:44:20:606 (H:m:s:ms)","GENERIC","62.125","0.2306905871170154","393"
"21:44:14:545 (H:m:s:ms)","GENERIC","62.063","0.22767039316472007","454"
"21:44:8:484 (H:m:s:ms)","GENERIC","62.023","0.22672312625689828","515"
"21:44:2:424 (H:m:s:ms)","GENERIC","62.065","0.22589429476397782","1575"
"21:43:56:363 (H:m:s:ms)","GENERIC","62.109","0.22555971618825058","1636"
"21:43:50:303 (H:m:s:ms)","GENERIC","62.097","0.22941802909088205","696"
"21:43:44:242 (H:m:s:ms)","GENERIC","62.023","0.2333370187334137","757"
"21:11:12:727 (H:m:s:ms)","GENERIC","62.065","0.24351058778211687","272"
"21:43:38:181 (H:m:s:ms)","GENERIC","62.089","0.2319402722755863","818"
"21:11:18:787 (H:m:s:ms)","GENERIC","62.061","0.24285040314780476","212"
"21:11:24:848 (H:m:s:ms)","GENERIC","62.077","0.24163051543916622","151"
"21:11:30:909 (H:m:s:ms)","GENERIC","62.123","0.23771146710812133","1090"
"21:11:36:969 (H:m:s:ms)","GENERIC","62.069","0.23594255610805343","1030"
"21:11:43:30 (H:m:s:ms)","GENERIC","62.093","0.23882236690442843","969"
"21:11:49:90 (H:m:s:ms)","GENERIC","62.117","0.23467922444400352","945"
"21:11:55:151 (H:m:s:ms)","GENERIC","62.127","0.22802982391052173","848"
"21:12:1:212 (H:m:s:ms)","GENERIC","62.093","0.22711845614469764","787"
"21:12:7:272 (H:m:s:ms)","GENERIC","62.029","0.22991322471473982","727"
"21:26:19:746 (H:m:s:ms)","OPERA","62.013","0.2780538356030923","288"
"21:45:45:454 (H:m:s:ms)","GENERIC","62.119","0.2394370403108797","545"
"21:26:15:757 (H:m:s:ms)","GENERIC","62.117","0.27643364453259184","1242"
"21:45:39:393 (H:m:s:ms)","GENERIC","62.095","0.2413827497840418","641"
"21:45:33:333 (H:m:s:ms)","GENERIC","62.097","0.24791773788593918","666"
"21:45:27:272 (H:m:s:ms)","GENERIC","62.051","0.24853719649178385","727"
"21:26:9:696 (H:m:s:ms)","GENERIC","62.081","0.27954242514221345","337"
"21:26:4:556 (H:m:s:ms)","OPERA","62.011","0.2845344808453685","1444"
"21:45:21:212 (H:m:s:ms)","GENERIC","62.049","0.24577051100813524","787"
"21:26:3:636 (H:m:s:ms)","GENERIC","62.113","0.28560182858279937","363"
"21:45:15:151 (H:m:s:ms)","GENERIC","62.151","0.23983879475797262","848"
"21:25:57:575 (H:m:s:ms)","GENERIC","62.073","0.28665852819767385","424"
"21:45:9:90 (H:m:s:ms)","GENERIC","62.087","0.24077981384265085","943"
"21:25:56:962 (H:m:s:ms)","OPERA","62.013","0.2863653249606967","1037"
"21:45:3:30 (H:m:s:ms)","GENERIC","62.065","0.23456131596868668","969"
"21:25:51:515 (H:m:s:ms)","GENERIC","62.091","0.2889566034607026","1484"
"21:44:56:969 (H:m:s:ms)","GENERIC","62.115","0.23655313359719127","1030"
"21:12:13:333 (H:m:s:ms)","GENERIC","62.037","0.22965950172405894","666"
"21:25:49:367 (H:m:s:ms)","OPERA","62.013","0.28698622972026167","666"
"21:44:50:909 (H:m:s:ms)","GENERIC","62.027","0.23571525249666508","1090"
"21:12:19:393 (H:m:s:ms)","GENERIC","62.061","0.23361383728671828","642"
"21:25:45:454 (H:m:s:ms)","GENERIC","62.101","0.28455336721772995","545"
"21:44:44:848 (H:m:s:ms)","GENERIC","62.059","0.23494519326279395","151"
"21:12:25:454 (H:m:s:ms)","GENERIC","62.109","0.2206526168616067","545"
"21:12:31:515 (H:m:s:ms)","GENERIC","62.057","0.2176341606143801","484"
"21:12:37:575 (H:m:s:ms)","GENERIC","62.061","0.21031782857075645","424"
"21:12:43:636 (H:m:s:ms)","GENERIC","62.047","0.21096090630528314","363"
"21:12:49:696 (H:m:s:ms)","GENERIC","62.053","0.21191162120758056","339"
"21:12:55:757 (H:m:s:ms)","GENERIC","62.029","0.21649662168145628","242"
"21:13:1:818 (H:m:s:ms)","GENERIC","62.085","0.20904118677887726","181"
"21:13:7:878 (H:m:s:ms)","GENERIC","62.113","0.20986104380481874","1121"
"21:26:12:151 (H:m:s:ms)","OPERA","62.015","0.27725887085798095","4848"
"21:26:57:721 (H:m:s:ms)","OPERA","62.013","0.28205255335643586","278"
"21:46:52:121 (H:m:s:ms)","GENERIC","62.053","0.24198043726419544","878"
"21:26:52:121 (H:m:s:ms)","GENERIC","62.057","0.2796179094462641","878"
"21:46:46:60 (H:m:s:ms)","GENERIC","62.045","0.23901581837658806","939"
"21:26:50:126 (H:m:s:ms)","OPERA","62.011","0.28040365179656773","873"
"21:46:40:0 (H:m:s:ms)","GENERIC","62.043","0.23817679521351012","1035"
"21:46:33:939 (H:m:s:ms)","GENERIC","62.021","0.2340165935878074","1061"
"21:46:27:878 (H:m:s:ms)","GENERIC","62.033","0.23156391965975373","1121"
"21:26:46:60 (H:m:s:ms)","GENERIC","62.083","0.285409549566215","939"
"21:26:42:531 (H:m:s:ms)","OPERA","62.013","0.2847836843602944","468"
"21:26:40:0 (H:m:s:ms)","GENERIC","62.053","0.28283924059633647","2034"
"21:46:21:818 (H:m:s:ms)","GENERIC","62.041","0.23168669031307584","181"
"21:26:34:936 (H:m:s:ms)","OPERA","62.013","0.2825629213309029","2063"
"21:46:15:757 (H:m:s:ms)","GENERIC","62.097","0.23379500477887682","242"
"21:26:33:939 (H:m:s:ms)","GENERIC","62.051","0.2837977492492043","1060"
"21:46:9:696 (H:m:s:ms)","GENERIC","62.055","0.24029626471286256","1338"
"21:13:13:939 (H:m:s:ms)","GENERIC","62.101","0.2139158449187863","1060"
"21:26:27:878 (H:m:s:ms)","GENERIC","62.011","0.28239004941789464","1121"
"21:46:3:636 (H:m:s:ms)","GENERIC","62.139","0.2355264455570363","1363"
"21:13:20:0 (H:m:s:ms)","GENERIC","62.071","0.20675780254930423","1035"
"21:26:27:341 (H:m:s:ms)","OPERA","62.011","0.2812451902483957","1658"
"21:45:57:575 (H:m:s:ms)","GENERIC","62.087","0.2353997191259222","424"
"21:13:26:60 (H:m:s:ms)","GENERIC","62.065","0.19965017739211102","939"
"21:26:21:818 (H:m:s:ms)","GENERIC","62.055","0.2826723831534148","181"
"21:45:51:515 (H:m:s:ms)","GENERIC","62.099","0.239522937631254","484"
"21:13:32:121 (H:m:s:ms)","GENERIC","62.143","0.20111985279141115","878"
"21:13:38:181 (H:m:s:ms)","GENERIC","62.033","0.20161883544443196","818"
"21:13:44:242 (H:m:s:ms)","GENERIC","62.053","0.20949309027546822","757"
"21:13:50:303 (H:m:s:ms)","GENERIC","62.107","0.20957201350242127","1696"
"21:13:56:363 (H:m:s:ms)","GENERIC","62.125","0.20943776117905297","636"
"21:14:2:424 (H:m:s:ms)","GENERIC","62.039","0.20968929024181182","575"
"21:14:8:484 (H:m:s:ms)","GENERIC","62.013","0.20786064056192133","515"
"21:27:35:696 (H:m:s:ms)","OPERA","62.015","0.27680891515064965","1303"
"21:47:58:787 (H:m:s:ms)","GENERIC","62.043","0.2514924009964444","212"
"21:27:34:545 (H:m:s:ms)","GENERIC","62.103","0.2774849970143417","2455"
"21:47:52:727 (H:m:s:ms)","GENERIC","62.059","0.251662602144538","1272"
"21:27:28:484 (H:m:s:ms)","GENERIC","62.089","0.2787984519612268","515"
"21:47:46:666 (H:m:s:ms)","GENERIC","62.115","0.2466148482708952","333"
"21:27:28:101 (H:m:s:ms)","OPERA","62.015","0.27705801274348907","898"
"21:47:40:606 (H:m:s:ms)","GENERIC","62.047","0.24600937510398277","393"
"21:47:34:545 (H:m:s:ms)","GENERIC","62.107","0.25124147171212075","455"
"21:47:28:484 (H:m:s:ms)","GENERIC","62.111","0.2507914299807584","1550"
"21:27:22:424 (H:m:s:ms)","GENERIC","62.067","0.27783939304590416","1575"
"21:27:16:363 (H:m:s:ms)","GENERIC","62.085","0.2779901622794665","636"
"21:27:12:911 (H:m:s:ms)","OPERA","62.013","0.2813720056038669","1088"
"21:47:22:424 (H:m:s:ms)","GENERIC","62.053","0.2517872571173251","575"
"21:14:14:545 (H:m:s:ms)","GENERIC","62.071","0.20404401069439151","454"
"21:27:10:303 (H:m:s:ms)","GENERIC","62.091","0.27818237385420497","697"
"21:47:16:363 (H:m:s:ms)","GENERIC","62.053","0.2480569235387393","636"
"21:14:20:606 (H:m:s:ms)","GENERIC","62.099","0.20492087610300622","393"
"21:27:5:316 (H:m:s:ms)","OPERA","62.013","0.2776165619398695","683"
"21:47:10:303 (H:m:s:ms)","GENERIC","62.111","0.24772853501366876","1696"
"20:52:13:333 (H:m:s:ms)","GENERIC","62.067","0.28416800241060935","667"
"21:14:26:666 (H:m:s:ms)","GENERIC","62.035","0.20486034864076091","334"
"21:27:4:242 (H:m:s:ms)","GENERIC","62.115","0.2775687706560951","5791"
"21:47:4:242 (H:m:s:ms)","GENERIC","62.083","0.24762331109689412","757"
"20:52:19:393 (H:m:s:ms)","GENERIC","62.059","0.282611230638567","647"
"21:14:32:727 (H:m:s:ms)","GENERIC","62.131","0.20481526677117026","272"
"21:26:58:181 (H:m:s:ms)","GENERIC","62.111","0.280703683604531","818"
"21:46:58:181 (H:m:s:ms)","GENERIC","62.089","0.24338039660079058","818"
"20:52:25:454 (H:m:s:ms)","GENERIC","62.089","0.28242896725310995","545"
"21:14:38:787 (H:m:s:ms)","GENERIC","62.093","0.1968874318711821","212"
"20:52:31:515 (H:m:s:ms)","GENERIC","62.061","0.28465123409172116","1484"
"21:14:44:848 (H:m:s:ms)","GENERIC","62.063","0.20225724956647884","151"
"20:52:37:575 (H:m:s:ms)","GENERIC","62.047","0.27922857842580884","424"
"21:14:50:909 (H:m:s:ms)","GENERIC","62.065","0.2026938699381968","1090"
"20:52:43:636 (H:m:s:ms)","GENERIC","62.071","0.28379924913423776","363"
"21:14:56:969 (H:m:s:ms)","GENERIC","62.075","0.20608233412473728","1030"
"20:52:49:696 (H:m:s:ms)","GENERIC","62.067","0.27717988233938484","344"
"21:15:3:30 (H:m:s:ms)","GENERIC","62.049","0.19621616119260593","969"
"20:52:55:757 (H:m:s:ms)","GENERIC","62.025","0.2741480520524936","242"
"21:15:9:90 (H:m:s:ms)","GENERIC","62.073","0.2022133517388227","1944"
"20:53:1:818 (H:m:s:ms)","GENERIC","62.069","0.27586283759225205","3182"
"20:53:7:878 (H:m:s:ms)","GENERIC","62.109","0.2701740885757893","1121"
"21:28:13:670 (H:m:s:ms)","OPERA","62.011","0.2674195681443615","329"
"21:49:5:454 (H:m:s:ms)","GENERIC","62.075","0.24554750779993217","545"
"21:28:10:909 (H:m:s:ms)","GENERIC","62.081","0.2662127548998577","1090"
"21:48:59:393 (H:m:s:ms)","GENERIC","62.067","0.24582522935896842","5642"
"21:28:6:75 (H:m:s:ms)","OPERA","62.013","0.2641558182183841","924"
"21:48:53:333 (H:m:s:ms)","GENERIC","62.057","0.2561088541443253","666"
"21:28:4:848 (H:m:s:ms)","GENERIC","62.089","0.2657776650838445","151"
"21:48:47:272 (H:m:s:ms)","GENERIC","62.087","0.25823657034302416","727"
"21:27:58:787 (H:m:s:ms)","GENERIC","62.025","0.26525241249171055","212"
"21:48:41:212 (H:m:s:ms)","GENERIC","62.167","0.26439127444166866","3787"
"21:48:35:151 (H:m:s:ms)","GENERIC","62.093","0.26430545402271116","848"
"21:48:29:90 (H:m:s:ms)","GENERIC","62.063","0.2642568723997037","944"
"21:27:58:481 (H:m:s:ms)","OPERA","62.015","0.26855603123885335","518"
"21:15:15:151 (H:m:s:ms)","GENERIC","62.099","0.1996884575383856","848"
"21:27:52:727 (H:m:s:ms)","GENERIC","62.047","0.2656628395813035","272"
"21:15:21:212 (H:m:s:ms)","GENERIC","62.081","0.20846212715802862","788"
"21:27:50:886 (H:m:s:ms)","OPERA","62.011","0.26616509997122023","1113"
"21:48:23:30 (H:m:s:ms)","GENERIC","62.127","0.25951656963890746","969"
"20:53:13:939 (H:m:s:ms)","GENERIC","62.089","0.2611888230687126","1060"
"21:15:27:272 (H:m:s:ms)","GENERIC","62.095","0.20928758367028988","727"
"21:27:46:666 (H:m:s:ms)","GENERIC","62.095","0.2730834045405573","333"
"21:48:16:969 (H:m:s:ms)","GENERIC","62.149","0.2532279763795272","1030"
"20:53:20:0 (H:m:s:ms)","GENERIC","62.051","0.26550386305424073","1040"
"21:15:33:333 (H:m:s:ms)","GENERIC","62.087","0.2081306277746711","666"
"21:27:43:291 (H:m:s:ms)","OPERA","62.011","0.27494236112554893","708"
"21:48:10:909 (H:m:s:ms)","GENERIC","62.109","0.25223490490327194","1090"
"20:53:26:60 (H:m:s:ms)","GENERIC","62.071","0.2686972310272905","939"
"21:15:39:393 (H:m:s:ms)","GENERIC","62.119","0.20854700570434737","640"
"21:27:40:606 (H:m:s:ms)","GENERIC","62.047","0.2759700974436424","393"
"21:48:4:848 (H:m:s:ms)","GENERIC","62.099","0.25199155812442003","151"
"20:53:32:121 (H:m:s:ms)","GENERIC","62.121","0.26434146619153204","1878"
"21:15:45:454 (H:m:s:ms)","GENERIC","62.089","0.2134126009935228","545"
"20:53:38:181 (H:m:s:ms)","GENERIC","62.033","0.2625504865327012","818"
"21:15:51:515 (H:m:s:ms)","GENERIC","62.085","0.21392365863435078","484"
"20:53:44:242 (H:m:s:ms)","GENERIC","62.067","0.26394090672788467","757"
"21:15:57:575 (H:m:s:ms)","GENERIC","62.087","0.21321381090387606","424"
"20:53:50:303 (H:m:s:ms)","GENERIC","62.105","0.26442628699499043","696"
"21:16:3:636 (H:m:s:ms)","GENERIC","62.105","0.2197683861583989","363"
"20:53:56:363 (H:m:s:ms)","GENERIC","62.131","0.26407950443148065","636"
"21:16:9:696 (H:m:s:ms)","GENERIC","62.075","0.21982390827499382","337"
"20:54:2:424 (H:m:s:ms)","GENERIC","62.065","0.2632829020695798","575"
"20:54:8:484 (H:m:s:ms)","GENERIC","62.039","0.2604483912341467","1555"
"21:28:51:645 (H:m:s:ms)","OPERA","62.015","0.2653312213631701","354"
"22:6:50:526 (H:m:s:ms)","AMBULANCE","62.047","0.04144917021060948","473"
"21:28:47:272 (H:m:s:ms)","GENERIC","62.091","0.2619221238740202","727"
"22:5:15:789 (H:m:s:ms)","AMBULANCE","62.077","0.033441999744913194","210"
"21:28:44:50 (H:m:s:ms)","OPERA","62.015","0.26211544852583135","2949"
"21:50:0:0 (H:m:s:ms)","GENERIC","62.071","0.24021281543803008","1034"
"21:28:41:212 (H:m:s:ms)","GENERIC","62.135","0.2636092895654427","1788"
"21:49:53:939 (H:m:s:ms)","GENERIC","62.061","0.24137151301026014","2060"
"21:28:36:455 (H:m:s:ms)","OPERA","62.013","0.26365017467546065","544"
"21:49:47:878 (H:m:s:ms)","GENERIC","62.045","0.24201643187754682","1121"
"21:28:35:151 (H:m:s:ms)","GENERIC","62.107","0.26506387635459755","848"
"21:49:41:818 (H:m:s:ms)","GENERIC","62.073","0.24251248888662505","181"
"21:49:35:757 (H:m:s:ms)","GENERIC","62.123","0.2407422449584675","242"
"21:49:29:696 (H:m:s:ms)","GENERIC","62.139","0.24018161706423496","338"
"21:16:15:757 (H:m:s:ms)","GENERIC","62.129","0.22176489647347028","242"
"21:16:21:818 (H:m:s:ms)","GENERIC","62.045","0.22559496959671058","181"
"21:28:29:90 (H:m:s:ms)","GENERIC","62.065","0.2674905956201953","943"
"20:54:14:545 (H:m:s:ms)","GENERIC","62.067","0.26561489376613123","454"
"21:16:27:878 (H:m:s:ms)","GENERIC","62.011","0.2246279606745251","1121"
"21:28:28:860 (H:m:s:ms)","OPERA","62.013","0.2678420972495656","139"
"20:54:20:606 (H:m:s:ms)","GENERIC","62.097","0.26579365034012215","2393"
"21:16:33:939 (H:m:s:ms)","GENERIC","62.071","0.22698839481011124","1060"
"21:28:23:30 (H:m:s:ms)","GENERIC","62.131","0.2697423654448698","969"
"21:49:23:636 (H:m:s:ms)","GENERIC","62.051","0.24168058165819745","363"
"20:54:26:666 (H:m:s:ms)","GENERIC","62.053","0.25879827419355583","1333"
"21:16:40:0 (H:m:s:ms)","GENERIC","62.063","0.2287246685812682","1034"
"21:28:21:265 (H:m:s:ms)","OPERA","62.011","0.26798930784083497","734"
"21:49:17:575 (H:m:s:ms)","GENERIC","62.039","0.24033078928978546","425"
"20:54:32:727 (H:m:s:ms)","GENERIC","62.139","0.2561461019967919","272"
"21:16:46:60 (H:m:s:ms)","GENERIC","62.081","0.22885974432549602","939"
"21:28:16:969 (H:m:s:ms)","GENERIC","62.135","0.27073783923073397","1030"
"21:49:11:515 (H:m:s:ms)","GENERIC","62.101","0.2455580356245931","484"
"20:54:38:787 (H:m:s:ms)","GENERIC","62.111","0.24949997967331453","2253"
"21:16:52:121 (H:m:s:ms)","GENERIC","62.051","0.2293318394735962","878"
"20:54:44:848 (H:m:s:ms)","GENERIC","62.075","0.2495635358505714","151"
"21:16:58:181 (H:m:s:ms)","GENERIC","62.107","0.23487927375124085","818"
"20:54:50:909 (H:m:s:ms)","GENERIC","62.081","0.24943413151986343","1090"
"21:17:4:242 (H:m:s:ms)","GENERIC","62.129","0.23190613474644725","758"
"20:54:56:969 (H:m:s:ms)","GENERIC","62.097","0.24210937006016697","1030"
"21:17:10:303 (H:m:s:ms)","GENERIC","62.079","0.231298690725024","696"
"20:55:3:30 (H:m:s:ms)","GENERIC","62.055","0.2429020356668136","969"
"20:55:9:90 (H:m:s:ms)","GENERIC","62.085","0.2397925187520327","950"
"21:29:29:620 (H:m:s:ms)","OPERA","62.015","0.25756060707823114","413"
"21:29:23:636 (H:m:s:ms)","GENERIC","62.069","0.2564622818193983","363"
"21:29:22:25 (H:m:s:ms)","OPERA","62.011","0.2578990818786831","974"
"21:29:17:575 (H:m:s:ms)","GENERIC","62.073","0.2636711550776017","424"
"21:29:14:430 (H:m:s:ms)","OPERA","62.013","0.2618362380060279","570"
"21:29:11:515 (H:m:s:ms)","GENERIC","62.063","0.26104074720105774","484"
"21:29:6:835 (H:m:s:ms)","OPERA","62.015","0.2591139081414899","3198"
"21:17:16:363 (H:m:s:ms)","GENERIC","62.107","0.2302566266846799","636"
"21:17:22:424 (H:m:s:ms)","GENERIC","62.085","0.23022928350620067","575"
"20:55:15:151 (H:m:s:ms)","GENERIC","62.091","0.23700369323637016","848"
"21:17:28:484 (H:m:s:ms)","GENERIC","62.083","0.23008050316354584","515"
"20:55:21:212 (H:m:s:ms)","GENERIC","62.065","0.24003229474759233","787"
"21:17:34:545 (H:m:s:ms)","GENERIC","62.087","0.228999261844334","1455"
"21:29:5:454 (H:m:s:ms)","GENERIC","62.099","0.2568916069575152","545"
"20:55:27:272 (H:m:s:ms)","GENERIC","62.095","0.24220457750142318","727"
"21:17:40:606 (H:m:s:ms)","GENERIC","62.059","0.22748039616038593","393"
"21:28:59:393 (H:m:s:ms)","GENERIC","62.047","0.25978304189113105","640"
"20:55:33:333 (H:m:s:ms)","GENERIC","62.073","0.24347238933423715","666"
"21:17:46:666 (H:m:s:ms)","GENERIC","62.085","0.2280658544918223","1333"
"21:28:59:240 (H:m:s:ms)","OPERA","62.013","0.2609064686855316","793"
"20:55:39:393 (H:m:s:ms)","GENERIC","62.149","0.24540556519254386","647"
"21:17:52:727 (H:m:s:ms)","GENERIC","62.053","0.2329939171124117","1272"
"21:28:53:333 (H:m:s:ms)","GENERIC","62.053","0.2628214580281313","666"
"22:10:0:0 (H:m:s:ms)","AMBULANCE","62.067","0.04234598962262625","1006"
"20:55:45:454 (H:m:s:ms)","GENERIC","62.119","0.24874260548677488","545"
"21:17:58:787 (H:m:s:ms)","GENERIC","62.017","0.22760191187748238","212"
"20:55:51:515 (H:m:s:ms)","GENERIC","62.097","0.24716527321934337","484"
"21:18:4:848 (H:m:s:ms)","GENERIC","62.081","0.22800713964514846","151"
"20:55:57:575 (H:m:s:ms)","GENERIC","62.123","0.24784644479783693","424"
"21:18:10:909 (H:m:s:ms)","GENERIC","62.063","0.2333628026549611","1090"
"20:56:3:636 (H:m:s:ms)","GENERIC","62.111","0.25364683702612023","363"
"20:56:9:696 (H:m:s:ms)","GENERIC","62.083","0.25303056551922065","343"
"21:30:0:0 (H:m:s:ms)","AMBULANCE","62.109","0.2686214651375157","1034"
"21:30:0:0 (H:m:s:ms)","OPERA","62.011","0.2674884288752687","1034"
"21:30:0:0 (H:m:s:ms)","GENERIC","62.073","0.26641755206001705","1034"
"21:29:53:939 (H:m:s:ms)","GENERIC","62.029","0.26708833486026584","5060"
"21:29:52:405 (H:m:s:ms)","OPERA","62.013","0.2613998303497974","594"
"21:29:47:878 (H:m:s:ms)","GENERIC","62.061","0.2612869901519238","2155"
"21:29:44:810 (H:m:s:ms)","OPERA","62.013","0.2626572320890072","1189"
"21:29:41:818 (H:m:s:ms)","GENERIC","62.081","0.2621647412481957","181"
"21:18:16:969 (H:m:s:ms)","GENERIC","62.139","0.2351660537735938","1030"
"21:18:23:30 (H:m:s:ms)","GENERIC","62.117","0.23394755599939673","970"
"20:56:15:757 (H:m:s:ms)","GENERIC","62.147","0.24982753366574464","242"
"21:18:29:90 (H:m:s:ms)","GENERIC","62.067","0.23390110412784437","943"
"20:56:21:818 (H:m:s:ms)","GENERIC","62.043","0.25265876473573257","1181"
"21:18:35:151 (H:m:s:ms)","GENERIC","62.117","0.23194683204022812","848"
"20:40:0:0 (H:m:s:ms)","OPERA","31.009","0.21703102662984333","1103"
"20:56:27:878 (H:m:s:ms)","GENERIC","62.035","0.25195595722546205","1121"
"21:18:41:212 (H:m:s:ms)","GENERIC","62.115","0.23248983507757467","787"
"20:40:0:0 (H:m:s:ms)","GENERIC","62.027","0.21800347282861135","2105"
"20:56:33:939 (H:m:s:ms)","GENERIC","62.097","0.24676352754595823","1061"
"21:18:47:272 (H:m:s:ms)","GENERIC","62.089","0.23262184871786265","727"
"21:29:37:215 (H:m:s:ms)","OPERA","62.015","0.2586190250430705","2817"
"20:40:0:0 (H:m:s:ms)","GENERIC","62.075","0.2243929413640006","2105"
"20:56:40:0 (H:m:s:ms)","GENERIC","62.071","0.24695532531603887","1041"
"21:18:53:333 (H:m:s:ms)","GENERIC","62.063","0.232702962494535","666"
"21:29:35:757 (H:m:s:ms)","GENERIC","62.149","0.25867318523900723","242"
"20:40:6:60 (H:m:s:ms)","GENERIC","62.041","0.22209419881102233","939"
"20:56:46:60 (H:m:s:ms)","GENERIC","62.067","0.24653876724228863","939"
"21:18:59:393 (H:m:s:ms)","GENERIC","62.067","0.23367752891708762","639"
"21:29:29:696 (H:m:s:ms)","GENERIC","62.137","0.25745529633975656","337"
"20:40:7:594 (H:m:s:ms)","OPERA","31.009","0.22237359823119643","405"
"20:56:52:121 (H:m:s:ms)","GENERIC","62.047","0.24753081985325506","878"
"21:19:5:454 (H:m:s:ms)","GENERIC","62.119","0.2340983688195658","546"
"20:40:12:121 (H:m:s:ms)","GENERIC","62.071","0.223165516659774","878"
"20:56:58:181 (H:m:s:ms)","GENERIC","62.073","0.24649362996641766","818"
"21:19:11:515 (H:m:s:ms)","GENERIC","62.051","0.23179011255142432","484"
"20:40:18:181 (H:m:s:ms)","GENERIC","62.109","0.22234902951451402","818"
"20:57:4:242 (H:m:s:ms)","GENERIC","62.107","0.24727300342174713","758"
"20:40:22:784 (H:m:s:ms)","OPERA","31.009","0.22296820331002357","1215"
"20:57:10:303 (H:m:s:ms)","GENERIC","62.067","0.24233574035256203","696"
"20:40:24:242 (H:m:s:ms)","GENERIC","62.081","0.22314244649702897","758"
"20:40:30:303 (H:m:s:ms)","GENERIC","62.043","0.2243810281637651","696"
"21:30:12:121 (H:m:s:ms)","GENERIC","62.125","0.2634463270029465","878"
"21:30:54:545 (H:m:s:ms)","GENERIC","62.089","0.2600614504994824","1455"
"21:30:48:484 (H:m:s:ms)","GENERIC","62.099","0.2588476918108009","515"
"21:30:42:424 (H:m:s:ms)","GENERIC","62.089","0.25932596356888815","1575"
"21:30:36:363 (H:m:s:ms)","GENERIC","62.061","0.2569352513444884","636"
"21:30:31:578 (H:m:s:ms)","AMBULANCE","62.085","0.2568946860598246","421"
"21:30:30:303 (H:m:s:ms)","GENERIC","62.089","0.2583985011488202","696"
"21:30:24:242 (H:m:s:ms)","GENERIC","62.049","0.2616869210380593","1757"
"21:19:17:575 (H:m:s:ms)","GENERIC","62.089","0.2278109591227986","424"
"21:30:18:181 (H:m:s:ms)","GENERIC","62.055","0.2644341324435925","818"
"21:19:23:636 (H:m:s:ms)","GENERIC","62.079","0.22068381656366845","363"
"20:57:16:363 (H:m:s:ms)","GENERIC","62.101","0.24268143415639573","636"
"21:19:29:696 (H:m:s:ms)","GENERIC","62.109","0.22504004495875093","337"
"20:57:22:424 (H:m:s:ms)","GENERIC","62.089","0.24153786117274514","575"
"21:19:35:757 (H:m:s:ms)","GENERIC","62.131","0.22059305168201043","242"
"20:40:30:379 (H:m:s:ms)","OPERA","31.007","0.22470700548057848","620"
"20:57:28:484 (H:m:s:ms)","GENERIC","62.061","0.24319509076936363","515"
"21:19:41:818 (H:m:s:ms)","GENERIC","62.063","0.22073086656496252","181"
"20:40:36:363 (H:m:s:ms)","GENERIC","62.075","0.22512085830109502","636"
"20:57:34:545 (H:m:s:ms)","GENERIC","62.061","0.2384528918679154","1455"
"21:19:47:878 (H:m:s:ms)","GENERIC","62.063","0.22368724599214732","121"
"20:40:37:974 (H:m:s:ms)","OPERA","31.008","0.226502867865742","1025"
"20:57:40:606 (H:m:s:ms)","GENERIC","62.079","0.23967738143589248","393"
"21:19:53:939 (H:m:s:ms)","GENERIC","62.021","0.22209507601519185","1060"
"20:40:42:424 (H:m:s:ms)","GENERIC","62.119","0.22679535848818602","575"
"20:57:46:666 (H:m:s:ms)","GENERIC","62.079","0.24164251135072634","334"
"21:20:0:0 (H:m:s:ms)","OPERA","62.011","0.2238019136701625","1107"
"21:30:6:60 (H:m:s:ms)","GENERIC","62.053","0.25848334127857353","939"
"20:40:45:569 (H:m:s:ms)","OPERA","31.008","0.22629711471740446","430"
"20:57:52:727 (H:m:s:ms)","GENERIC","62.045","0.24024126702252646","272"
"21:20:0:0 (H:m:s:ms)","GENERIC","62.053","0.22588524852703826","3109"
"21:30:0:0 (H:m:s:ms)","GENERIC","62.107","0.2688623687637848","1034"
"20:40:48:484 (H:m:s:ms)","GENERIC","62.117","0.2256984478962615","515"
"20:57:58:787 (H:m:s:ms)","GENERIC","62.029","0.24601935662016475","212"
"21:20:0:0 (H:m:s:ms)","GENERIC","62.099","0.22608657930470386","1107"
"20:40:53:164 (H:m:s:ms)","OPERA","31.009","0.22563656758032338","835"
"20:58:4:848 (H:m:s:ms)","GENERIC","62.073","0.24531375447460393","1151"
"20:40:54:545 (H:m:s:ms)","GENERIC","62.069","0.2250469960276806","455"
"20:58:10:909 (H:m:s:ms)","GENERIC","62.029","0.24546254280278995","1090"
"20:41:0:606 (H:m:s:ms)","GENERIC","62.055","0.2290350780568474","393"
"20:41:0:759 (H:m:s:ms)","OPERA","31.009","0.23140234208724406","240"
"21:31:6:666 (H:m:s:ms)","GENERIC","62.039","0.25900068282542477","333"
"21:31:3:157 (H:m:s:ms)","AMBULANCE","62.087","0.26145130011980633","842"
"21:31:49:90 (H:m:s:ms)","GENERIC","62.093","0.2643440449754315","1943"
"21:31:43:30 (H:m:s:ms)","GENERIC","62.087","0.26431176569031095","969"
"21:31:36:969 (H:m:s:ms)","GENERIC","62.053","0.26500685373449423","1030"
"21:31:34:736 (H:m:s:ms)","AMBULANCE","62.095","0.2609960202228187","263"
"21:31:30:909 (H:m:s:ms)","GENERIC","62.109","0.26195323141630383","2090"
"21:31:24:848 (H:m:s:ms)","GENERIC","62.061","0.2598448004379412","151"
"21:31:18:787 (H:m:s:ms)","GENERIC","62.099","0.2577748957502703","212"
"21:31:12:727 (H:m:s:ms)","GENERIC","62.107","0.26193490497040034","272"
"20:58:16:969 (H:m:s:ms)","GENERIC","62.155","0.2409983203305088","1030"
"20:58:23:30 (H:m:s:ms)","GENERIC","62.083","0.23497642024398702","969"
"20:41:6:666 (H:m:s:ms)","GENERIC","62.069","0.22695908820649316","333"
"20:58:29:90 (H:m:s:ms)","GENERIC","62.069","0.23350387611478068","950"
"20:41:8:354 (H:m:s:ms)","OPERA","31.008","0.226897301176855","645"
"20:58:35:151 (H:m:s:ms)","GENERIC","62.125","0.23590896198171632","848"
"20:41:12:727 (H:m:s:ms)","GENERIC","62.051","0.22627633798895935","272"
"20:58:41:212 (H:m:s:ms)","GENERIC","62.083","0.235273698099611","787"
"20:41:15:949 (H:m:s:ms)","OPERA","31.008","0.2250829080668941","1050"
"20:58:47:272 (H:m:s:ms)","GENERIC","62.103","0.23629950268539787","3768"
"20:41:18:787 (H:m:s:ms)","GENERIC","62.117","0.22553422491738606","1247"
"20:58:53:333 (H:m:s:ms)","GENERIC","62.053","0.23614117948948357","666"
"20:41:23:544 (H:m:s:ms)","OPERA","31.009","0.22381393678635944","455"
"20:58:59:393 (H:m:s:ms)","GENERIC","62.079","0.23733538366377563","646"
"21:31:0:606 (H:m:s:ms)","GENERIC","62.041","0.2589883863668011","393"
"20:41:24:848 (H:m:s:ms)","GENERIC","62.067","0.22514950407060225","2152"
"20:59:5:454 (H:m:s:ms)","GENERIC","62.129","0.2376171935966023","545"
"20:41:30:909 (H:m:s:ms)","GENERIC","62.141","0.22584889830745036","1090"
"20:59:11:515 (H:m:s:ms)","GENERIC","62.083","0.2349144289381572","484"
"20:41:31:139 (H:m:s:ms)","OPERA","31.009","0.2274212785426841","860"
"20:41:36:969 (H:m:s:ms)","GENERIC","62.063","0.23188260540311378","9065"
"20:59:17:575 (H:m:s:ms)","GENERIC","62.081","0.2290083743771352","424"
"20:59:23:636 (H:m:s:ms)","GENERIC","62.099","0.2277807929762564","363"
"20:41:38:734 (H:m:s:ms)","OPERA","31.007","0.23314982725765204","1299"
"20:59:29:696 (H:m:s:ms)","GENERIC","62.085","0.22774232822281243","343"
"20:41:43:30 (H:m:s:ms)","GENERIC","62.097","0.2325995201169373","969"
"20:59:35:757 (H:m:s:ms)","GENERIC","62.089","0.2274062661190389","242"
"20:41:46:329 (H:m:s:ms)","OPERA","31.007","0.23698406443939934","670"
"20:59:41:818 (H:m:s:ms)","GENERIC","62.031","0.22739972572406267","181"
"20:41:49:90 (H:m:s:ms)","GENERIC","62.069","0.2364931295304989","944"
"20:59:47:878 (H:m:s:ms)","GENERIC","62.089","0.22783241334994078","1121"
"20:41:53:924 (H:m:s:ms)","OPERA","31.007","0.24089614821335495","1075"
"20:59:53:939 (H:m:s:ms)","GENERIC","62.041","0.22556043799503475","1061"
"20:41:55:151 (H:m:s:ms)","GENERIC","62.105","0.24532068083877756","848"
"21:0:0:0 (H:m:s:ms)","AMBULANCE","31.027","0.2259798357912505","1108"
"20:42:1:212 (H:m:s:ms)","GENERIC","62.087","0.24530669294131646","787"
"21:0:0:0 (H:m:s:ms)","GENERIC","62.043","0.22761997046168095","1108"
"20:42:1:518 (H:m:s:ms)","OPERA","31.009","0.24956120385798095","481"
"21:0:0:0 (H:m:s:ms)","GENERIC","62.069","0.22716868321687247","1108"
"20:42:7:272 (H:m:s:ms)","GENERIC","62.081","0.2502088176994196","727"
"20:42:9:113 (H:m:s:ms)","OPERA","31.009","0.24931823517885013","922"
"21:0:6:60 (H:m:s:ms)","GENERIC","62.037","0.22016432091732585","939"
"21:0:12:121 (H:m:s:ms)","GENERIC","62.075","0.2201761010236557","878"
"20:42:13:333 (H:m:s:ms)","GENERIC","62.049","0.2537196821234196","666"
"21:0:18:181 (H:m:s:ms)","GENERIC","62.107","0.22982569241191236","818"
"20:42:16:708 (H:m:s:ms)","OPERA","31.008","0.2531318720004361","291"
"21:0:24:242 (H:m:s:ms)","GENERIC","62.083","0.2294611322866516","757"
"20:20:0:0 (H:m:s:ms)","GENERIC","62.039","0.23386640116454516","1104"
"20:42:19:393 (H:m:s:ms)","GENERIC","62.063","0.2539501251809268","1642"
"21:0:30:303 (H:m:s:ms)","GENERIC","62.087","0.22956711788379078","696"
"20:20:0:0 (H:m:s:ms)","GENERIC","62.067","0.23495922478004916","2107"
"20:42:24:303 (H:m:s:ms)","OPERA","31.009","0.25389211029726966","696"
"21:0:31:578 (H:m:s:ms)","AMBULANCE","31.046","0.22912133103818622","421"
"20:20:6:60 (H:m:s:ms)","GENERIC","62.039","0.23187484989201607","939"
"20:42:25:454 (H:m:s:ms)","GENERIC","62.077","0.2552740165798856","545"
"21:0:36:363 (H:m:s:ms)","GENERIC","62.057","0.22910334972722918","636"
"20:20:12:121 (H:m:s:ms)","GENERIC","62.039","0.2347025996875304","878"
"20:42:31:515 (H:m:s:ms)","GENERIC","62.081","0.252401856624028","484"
"21:0:42:424 (H:m:s:ms)","GENERIC","62.083","0.22275687969740504","1575"
"20:20:18:181 (H:m:s:ms)","GENERIC","62.077","0.23498802783558648","818"
"20:42:31:898 (H:m:s:ms)","OPERA","31.009","0.2514599515000848","101"
"21:0:48:484 (H:m:s:ms)","GENERIC","62.145","0.22393436921812834","515"
"20:20:24:242 (H:m:s:ms)","GENERIC","62.087","0.23221297404472782","758"
"20:42:37:575 (H:m:s:ms)","GENERIC","62.053","0.2514555571063193","1424"
"21:0:54:545 (H:m:s:ms)","GENERIC","62.047","0.22624830385922762","454"
"20:20:30:303 (H:m:s:ms)","GENERIC","62.035","0.23272024611040365","696"
"20:42:39:493 (H:m:s:ms)","OPERA","31.009","0.25520614029990246","541"
"20:20:36:363 (H:m:s:ms)","GENERIC","62.055","0.2269534958268935","636"
"20:42:43:636 (H:m:s:ms)","GENERIC","62.081","0.25427901040445594","364"
"20:20:42:424 (H:m:s:ms)","GENERIC","62.127","0.2195993548657402","575"
"20:20:48:484 (H:m:s:ms)","GENERIC","62.119","0.21776047397864423","515"
"21:1:0:606 (H:m:s:ms)","GENERIC","62.049","0.22083429205982613","393"
"21:1:3:157 (H:m:s:ms)","AMBULANCE","31.05","0.2207778479990565","842"
"20:42:47:88 (H:m:s:ms)","OPERA","31.008","0.2527211132931655","911"
"21:1:6:666 (H:m:s:ms)","GENERIC","62.033","0.22104626263057056","333"
"20:42:49:696 (H:m:s:ms)","GENERIC","62.079","0.2527357079033916","339"
"21:1:12:727 (H:m:s:ms)","GENERIC","62.051","0.2158136361639524","272"
"20:20:54:545 (H:m:s:ms)","GENERIC","62.101","0.21335049529925904","455"
"20:42:54:683 (H:m:s:ms)","OPERA","31.008","0.2535980454786382","316"
"21:1:18:787 (H:m:s:ms)","GENERIC","62.075","0.21575769715270696","212"
"20:21:0:606 (H:m:s:ms)","GENERIC","62.039","0.21438115627625362","393"
"20:42:55:757 (H:m:s:ms)","GENERIC","62.013","0.2552158627237721","242"
"21:1:24:848 (H:m:s:ms)","GENERIC","62.059","0.2146602797126879","151"
"20:21:6:666 (H:m:s:ms)","GENERIC","62.109","0.2123701847709898","333"
"20:43:1:818 (H:m:s:ms)","GENERIC","62.065","0.2518094325027919","181"
"21:1:30:909 (H:m:s:ms)","GENERIC","62.121","0.21410795624504886","1090"
"20:21:12:727 (H:m:s:ms)","GENERIC","62.083","0.2130394501880273","272"
"20:43:2:278 (H:m:s:ms)","OPERA","31.007","0.25081345872437166","721"
"21:1:34:736 (H:m:s:ms)","AMBULANCE","31.033","0.21713133140409432","263"
"20:21:18:787 (H:m:s:ms)","GENERIC","62.107","0.21576974085899855","212"
"20:43:7:878 (H:m:s:ms)","GENERIC","62.103","0.25338840827962084","1121"
"21:1:36:969 (H:m:s:ms)","GENERIC","62.085","0.21753617396425975","2030"
"20:21:24:848 (H:m:s:ms)","GENERIC","62.085","0.2135219667770711","151"
"20:43:9:873 (H:m:s:ms)","OPERA","31.008","0.252714872201332","162"
"21:1:43:30 (H:m:s:ms)","GENERIC","62.097","0.21714120792309144","970"
"20:21:30:909 (H:m:s:ms)","GENERIC","62.175","0.22039107436381386","2091"
"20:43:13:939 (H:m:s:ms)","GENERIC","62.097","0.2524677288467685","1061"
"20:21:36:969 (H:m:s:ms)","GENERIC","62.025","0.22193428294388962","3065"
"20:43:17:468 (H:m:s:ms)","OPERA","31.009","0.2544290120235029","531"
"20:21:43:30 (H:m:s:ms)","GENERIC","62.119","0.22190481749597826","1969"
"20:21:49:90 (H:m:s:ms)","GENERIC","62.107","0.22478552856519107","944"
"20:43:20:0 (H:m:s:ms)","GENERIC","62.041","0.2545653972568423","1035"
"20:43:25:63 (H:m:s:ms)","OPERA","31.009","0.25516354963970045","936"
"20:21:55:151 (H:m:s:ms)","GENERIC","62.087","0.219798905831546","1848"
"20:43:26:60 (H:m:s:ms)","GENERIC","62.073","0.25638039661292256","939"
"20:22:1:212 (H:m:s:ms)","GENERIC","62.095","0.21476751016358947","787"
"20:43:32:121 (H:m:s:ms)","GENERIC","62.109","0.25703563897054255","878"
"20:22:7:272 (H:m:s:ms)","GENERIC","62.055","0.21464560611789102","727"
"20:43:32:658 (H:m:s:ms)","OPERA","31.009","0.2554059336781337","341"
"20:22:13:333 (H:m:s:ms)","GENERIC","62.049","0.21173338064229424","666"
"20:43:38:181 (H:m:s:ms)","GENERIC","62.045","0.25566563907432804","818"
"20:22:19:393 (H:m:s:ms)","GENERIC","62.031","0.21356296005574313","641"
"20:43:40:253 (H:m:s:ms)","OPERA","31.007","0.2594872702645619","746"
"20:22:25:454 (H:m:s:ms)","GENERIC","62.079","0.21747536945503299","545"
"20:43:44:242 (H:m:s:ms)","GENERIC","62.079","0.26357731987138705","758"
"20:22:31:515 (H:m:s:ms)","GENERIC","62.075","0.2225084878149567","484"
"20:43:47:848 (H:m:s:ms)","OPERA","31.009","0.2642754357465752","151"
"20:22:37:575 (H:m:s:ms)","GENERIC","62.047","0.2230063691468209","2459"
"20:43:50:303 (H:m:s:ms)","GENERIC","62.109","0.2651758987080874","696"
"20:22:43:636 (H:m:s:ms)","GENERIC","62.041","0.21565027515439178","363"
"20:22:49:696 (H:m:s:ms)","GENERIC","62.075","0.21938243277359165","338"
"20:43:55:443 (H:m:s:ms)","OPERA","31.008","0.26342715660468297","1556"
"20:43:56:363 (H:m:s:ms)","GENERIC","62.131","0.2628668131586564","636"
"20:22:55:757 (H:m:s:ms)","GENERIC","62.015","0.2192852143268495","242"
"20:44:2:424 (H:m:s:ms)","GENERIC","62.071","0.2622382816297252","2575"
"20:23:1:818 (H:m:s:ms)","GENERIC","62.101","0.22607395827787843","182"
"20:44:3:37 (H:m:s:ms)","OPERA","31.007","0.25932428328570895","962"
"20:23:7:878 (H:m:s:ms)","GENERIC","62.075","0.22432962897015665","2157"
"20:44:8:484 (H:m:s:ms)","GENERIC","62.053","0.2580823535021443","515"
"20:23:13:939 (H:m:s:ms)","GENERIC","62.099","0.22771672003026822","1060"
"20:44:10:632 (H:m:s:ms)","OPERA","31.008","0.256836332367215","1367"
"20:23:20:0 (H:m:s:ms)","GENERIC","62.043","0.22872687334273176","1035"
"20:44:14:545 (H:m:s:ms)","GENERIC","62.061","0.2561433040458108","455"
"20:23:26:60 (H:m:s:ms)","GENERIC","62.061","0.23082131016518995","939"
"20:44:18:227 (H:m:s:ms)","OPERA","31.008","0.2551590217980724","772"
"20:23:32:121 (H:m:s:ms)","GENERIC","62.085","0.23091935229246305","878"
"20:44:20:606 (H:m:s:ms)","GENERIC","62.111","0.25891562890750586","393"
"20:23:38:181 (H:m:s:ms)","GENERIC","62.073","0.2325062740832287","3853"
"20:44:25:822 (H:m:s:ms)","OPERA","31.007","0.25806228669493386","177"
"20:23:44:242 (H:m:s:ms)","GENERIC","62.089","0.23128680728850964","758"
"20:23:50:303 (H:m:s:ms)","GENERIC","62.113","0.22991006965300534","696"
"20:44:26:666 (H:m:s:ms)","GENERIC","62.055","0.26189334280988513","333"
"20:44:32:727 (H:m:s:ms)","GENERIC","62.123","0.26539313566846784","272"
"20:23:56:363 (H:m:s:ms)","GENERIC","62.099","0.23265767087367606","636"
"20:44:33:417 (H:m:s:ms)","OPERA","31.007","0.26417972035170456","582"
"20:24:2:424 (H:m:s:ms)","GENERIC","62.109","0.22990243111376904","576"
"20:44:38:787 (H:m:s:ms)","GENERIC","62.105","0.2667094344747331","212"
"20:24:8:484 (H:m:s:ms)","GENERIC","62.085","0.2354669367699739","515"
"20:44:41:12 (H:m:s:ms)","OPERA","31.007","0.27033745603587195","987"
"20:24:14:545 (H:m:s:ms)","GENERIC","62.069","0.23145218882520885","454"
"20:44:44:848 (H:m:s:ms)","GENERIC","62.085","0.26841721008765296","151"
"20:24:20:606 (H:m:s:ms)","GENERIC","62.085","0.23136174062556736","393"
"20:44:48:607 (H:m:s:ms)","OPERA","31.008","0.2678131760963257","392"
"20:24:26:666 (H:m:s:ms)","GENERIC","62.051","0.23149377365780235","2333"
"20:44:50:909 (H:m:s:ms)","GENERIC","62.081","0.2679558350271518","1090"
"20:24:32:727 (H:m:s:ms)","GENERIC","62.089","0.22699142958827653","272"
"20:44:56:202 (H:m:s:ms)","OPERA","31.007","0.26661535750091486","797"
"20:24:38:787 (H:m:s:ms)","GENERIC","62.073","0.22852213834105212","212"
"20:44:56:969 (H:m:s:ms)","GENERIC","62.105","0.26623627593325133","1031"
"20:24:44:848 (H:m:s:ms)","GENERIC","62.099","0.22835066335462723","151"
"20:24:50:909 (H:m:s:ms)","GENERIC","62.051","0.22830936042017635","1090"
"20:45:3:30 (H:m:s:ms)","GENERIC","62.067","0.26748113232525605","969"
"20:45:9:90 (H:m:s:ms)","GENERIC","62.077","0.266324317275939","946"
"20:24:56:969 (H:m:s:ms)","GENERIC","62.111","0.22770313974380954","1030"
"20:45:11:392 (H:m:s:ms)","OPERA","31.007","0.2693816534868082","607"
"20:25:3:30 (H:m:s:ms)","GENERIC","62.073","0.2179831268005667","969"
"20:45:15:151 (H:m:s:ms)","GENERIC","62.099","0.27169640687969027","848"
"20:25:9:90 (H:m:s:ms)","GENERIC","62.039","0.2187478763057705","943"
"20:45:18:987 (H:m:s:ms)","OPERA","31.009","0.27447327126324883","1049"
"20:25:15:151 (H:m:s:ms)","GENERIC","62.129","0.2158832024417795","848"
"20:45:21:212 (H:m:s:ms)","GENERIC","62.069","0.27318503706246217","787"
"20:25:21:212 (H:m:s:ms)","GENERIC","62.103","0.22161095334051717","787"
"20:45:26:582 (H:m:s:ms)","OPERA","31.008","0.27164525360258535","3454"
"20:25:27:272 (H:m:s:ms)","GENERIC","62.097","0.21868166333314387","727"
"20:45:27:272 (H:m:s:ms)","GENERIC","62.091","0.2729699661183489","727"
"20:25:33:333 (H:m:s:ms)","GENERIC","62.109","0.21780907453100792","666"
"20:45:33:333 (H:m:s:ms)","GENERIC","62.087","0.2745124969877039","666"
"20:25:39:393 (H:m:s:ms)","GENERIC","62.131","0.2183332044104305","640"
"20:45:34:177 (H:m:s:ms)","OPERA","31.007","0.27312671757333307","822"
"20:25:45:454 (H:m:s:ms)","GENERIC","62.109","0.21799731691973637","545"
"20:25:51:515 (H:m:s:ms)","GENERIC","62.087","0.21764632804831122","484"
"20:25:57:575 (H:m:s:ms)","GENERIC","62.125","0.22017613357053373","424"
"20:26:3:636 (H:m:s:ms)","GENERIC","62.133","0.22129227125160644","363"
"20:26:9:696 (H:m:s:ms)","GENERIC","62.031","0.2247834006378631","338"
"20:26:15:757 (H:m:s:ms)","GENERIC","62.127","0.21982874490543752","242"
"20:26:21:818 (H:m:s:ms)","GENERIC","62.067","0.22671370074221017","181"
"20:26:27:878 (H:m:s:ms)","GENERIC","62.079","0.2251558878419876","1121"
"20:26:33:939 (H:m:s:ms)","GENERIC","62.077","0.22245254807544446","1060"
"20:26:40:0 (H:m:s:ms)","GENERIC","62.095","0.22301974365777122","1035"
"20:26:46:60 (H:m:s:ms)","GENERIC","62.083","0.21657608619597765","939"
"20:26:52:121 (H:m:s:ms)","GENERIC","62.035","0.21847659049736096","879"
"20:26:58:181 (H:m:s:ms)","GENERIC","62.085","0.21684827502466178","818"
"20:27:4:242 (H:m:s:ms)","GENERIC","62.085","0.21618773663394053","757"
"20:27:10:303 (H:m:s:ms)","GENERIC","62.071","0.20939070424911388","696"
"20:27:16:363 (H:m:s:ms)","GENERIC","62.069","0.20964215427105648","636"
"20:27:22:424 (H:m:s:ms)","GENERIC","62.061","0.21037008632295293","575"
"20:27:28:484 (H:m:s:ms)","GENERIC","62.059","0.20969055495510946","515"
"20:27:34:545 (H:m:s:ms)","GENERIC","62.047","0.2038992299225612","454"
"20:27:40:606 (H:m:s:ms)","GENERIC","62.029","0.2109830682998578","393"
"20:27:46:666 (H:m:s:ms)","GENERIC","62.057","0.21822756409045393","333"
"20:27:52:727 (H:m:s:ms)","GENERIC","62.083","0.21795666049590076","272"
"20:27:58:787 (H:m:s:ms)","GENERIC","62.061","0.2181713615418559","212"
"20:28:4:848 (H:m:s:ms)","GENERIC","62.069","0.21580900036340936","151"
"20:28:10:909 (H:m:s:ms)","GENERIC","62.045","0.21702126668860872","2090"
"20:28:16:969 (H:m:s:ms)","GENERIC","62.121","0.22380342269588488","1030"
"20:28:23:30 (H:m:s:ms)","GENERIC","62.117","0.221337511436569","969"
"20:28:29:90 (H:m:s:ms)","GENERIC","62.039","0.22824095045140388","1943"
"20:28:35:151 (H:m:s:ms)","GENERIC","62.137","0.2300327033974079","848"
"20:28:41:212 (H:m:s:ms)","GENERIC","62.059","0.22962541262577296","787"
"20:28:47:272 (H:m:s:ms)","GENERIC","62.125","0.2250570574825717","727"
"20:28:53:333 (H:m:s:ms)","GENERIC","62.051","0.22591826866236087","666"
"20:28:59:393 (H:m:s:ms)","GENERIC","62.119","0.22494586972611083","641"
"20:29:5:454 (H:m:s:ms)","GENERIC","62.093","0.22304477819406437","545"
"20:29:11:515 (H:m:s:ms)","GENERIC","62.147","0.22401926554132587","484"
"20:29:17:575 (H:m:s:ms)","GENERIC","62.109","0.22498116528505782","424"
"20:29:23:636 (H:m:s:ms)","GENERIC","62.059","0.22478234320288698","363"
"20:29:29:696 (H:m:s:ms)","GENERIC","62.131","0.22207341189332847","337"
"20:29:35:757 (H:m:s:ms)","GENERIC","62.049","0.21972988594681317","242"
"20:29:41:818 (H:m:s:ms)","GENERIC","62.099","0.22408469460545774","181"
"20:29:47:878 (H:m:s:ms)","GENERIC","62.071","0.22638968761046896","1121"
"20:29:53:939 (H:m:s:ms)","GENERIC","62.069","0.22052895567472458","1060"
"21:20:6:60 (H:m:s:ms)","GENERIC","62.041","0.2254820335944221","939"
"21:20:7:594 (H:m:s:ms)","OPERA","62.011","0.23180233369041822","1405"
"21:20:12:121 (H:m:s:ms)","GENERIC","62.103","0.22915538395801668","878"
"21:20:15:189 (H:m:s:ms)","OPERA","31.008","0.22949939000381636","810"
"21:20:18:181 (H:m:s:ms)","GENERIC","62.073","0.23560613051320403","2853"
"21:20:22:784 (H:m:s:ms)","OPERA","62.013","0.23340727389489693","215"
"21:20:24:242 (H:m:s:ms)","GENERIC","62.065","0.23592952934127812","757"
"21:20:30:303 (H:m:s:ms)","GENERIC","62.101","0.23603399144746856","696"
"21:20:30:379 (H:m:s:ms)","OPERA","62.011","0.23679356837781945","620"
"21:20:36:363 (H:m:s:ms)","GENERIC","62.067","0.23950201685323677","636"
"21:20:37:974 (H:m:s:ms)","OPERA","62.011","0.24487493766530388","1025"
"21:20:42:424 (H:m:s:ms)","GENERIC","62.069","0.2527864786889583","575"
"21:20:45:569 (H:m:s:ms)","OPERA","62.013","0.2534708201426572","430"
"21:20:48:484 (H:m:s:ms)","GENERIC","62.117","0.2543662297228622","515"
"21:20:53:164 (H:m:s:ms)","OPERA","62.011","0.2532518470502539","835"
"21:20:54:545 (H:m:s:ms)","GENERIC","62.075","0.2536847777018314","454"
"21:21:0:606 (H:m:s:ms)","GENERIC","62.035","0.25268424468453066","1393"
"21:21:0:759 (H:m:s:ms)","OPERA","62.013","0.25300779315821276","240"
"21:21:6:666 (H:m:s:ms)","GENERIC","62.027","0.24727125824628704","333"
"21:21:8:354 (H:m:s:ms)","OPERA","62.013","0.25229481326771525","645"
"21:32:43:636 (H:m:s:ms)","GENERIC","62.063","0.2583058541395397","363"
"21:32:31:515 (H:m:s:ms)","GENERIC","62.081","0.2587596068284743","484"
"21:32:25:454 (H:m:s:ms)","GENERIC","62.079","0.26155349274623846","545"
"21:32:19:393 (H:m:s:ms)","GENERIC","62.031","0.2602466518447735","640"
"21:32:13:333 (H:m:s:ms)","GENERIC","62.033","0.2602099811391562","666"
"21:32:7:272 (H:m:s:ms)","GENERIC","62.027","0.2591777598477108","727"
"21:32:6:315 (H:m:s:ms)","AMBULANCE","62.047","0.26023176112151947","684"
"21:32:1:212 (H:m:s:ms)","GENERIC","62.097","0.26426321890176885","1788"
"21:21:12:727 (H:m:s:ms)","GENERIC","62.085","0.252441167059247","1272"
"21:31:55:151 (H:m:s:ms)","GENERIC","62.103","0.2633938430656723","848"
"21:21:15:949 (H:m:s:ms)","OPERA","62.011","0.24731927106465632","1050"
"21:21:18:787 (H:m:s:ms)","GENERIC","62.079","0.24722379745439282","212"
"21:21:23:544 (H:m:s:ms)","OPERA","62.015","0.252183925128308","456"
"21:21:24:848 (H:m:s:ms)","GENERIC","62.079","0.25654672742981727","151"
"21:21:30:909 (H:m:s:ms)","GENERIC","62.109","0.2549234513567444","1090"
"21:21:31:139 (H:m:s:ms)","OPERA","62.015","0.25436341190357054","860"
"21:21:36:969 (H:m:s:ms)","GENERIC","62.063","0.2543604464072026","1030"
"21:32:37:894 (H:m:s:ms)","AMBULANCE","62.081","0.2612656069395122","1105"
"21:21:38:734 (H:m:s:ms)","OPERA","62.013","0.2547696589921842","265"
"21:32:37:575 (H:m:s:ms)","GENERIC","62.073","0.25664393476434055","424"
"21:21:43:30 (H:m:s:ms)","GENERIC","62.089","0.2531372964319946","969"
"21:33:41:52 (H:m:s:ms)","AMBULANCE","62.033","0.2543459431030619","947"
"21:33:38:181 (H:m:s:ms)","GENERIC","62.075","0.2527792253558533","818"
"21:33:26:60 (H:m:s:ms)","GENERIC","62.057","0.2587568583604423","939"
"21:33:20:0 (H:m:s:ms)","GENERIC","62.089","0.2594402758735244","1034"
"21:33:13:939 (H:m:s:ms)","GENERIC","62.079","0.2594402758735244","1060"
"21:33:9:473 (H:m:s:ms)","AMBULANCE","62.093","0.25737868972105954","560"
"21:33:7:878 (H:m:s:ms)","GENERIC","62.127","0.2551130320366975","1121"
"21:33:1:818 (H:m:s:ms)","GENERIC","62.121","0.25684428284425714","181"
"21:21:46:329 (H:m:s:ms)","OPERA","62.015","0.252411926773542","670"
"21:32:55:757 (H:m:s:ms)","GENERIC","62.071","0.25711053823590524","1242"
"21:21:49:90 (H:m:s:ms)","GENERIC","62.103","0.2541341910327822","943"
"21:32:49:696 (H:m:s:ms)","GENERIC","62.069","0.2540554086299158","337"
"21:21:53:924 (H:m:s:ms)","OPERA","62.011","0.25120577819601764","1075"
"21:21:55:151 (H:m:s:ms)","GENERIC","62.115","0.2542587636624795","848"
"21:22:1:212 (H:m:s:ms)","GENERIC","62.103","0.24917558612849683","787"
"21:22:1:518 (H:m:s:ms)","OPERA","62.015","0.2533353768373121","481"
"21:22:7:272 (H:m:s:ms)","GENERIC","62.025","0.2567026486061948","727"
"21:22:9:113 (H:m:s:ms)","OPERA","62.013","0.2563378977150692","920"
"21:22:13:333 (H:m:s:ms)","GENERIC","62.027","0.25641025247880583","1666"
"21:22:16:708 (H:m:s:ms)","OPERA","62.011","0.2566864442613602","291"
"21:33:32:121 (H:m:s:ms)","GENERIC","62.121","0.25537652135843","878"
"21:34:44:210 (H:m:s:ms)","AMBULANCE","62.125","0.2469009499464881","789"
"21:34:38:787 (H:m:s:ms)","GENERIC","62.089","0.24764203755583467","212"
"21:34:32:727 (H:m:s:ms)","GENERIC","62.097","0.24545070470305394","272"
"21:34:26:666 (H:m:s:ms)","GENERIC","62.031","0.24724282605848497","1334"
"21:34:20:606 (H:m:s:ms)","GENERIC","62.119","0.25026448722696715","393"
"21:34:14:545 (H:m:s:ms)","GENERIC","62.075","0.2466298739295883","1455"
"21:34:8:484 (H:m:s:ms)","GENERIC","62.017","0.24753307619159337","515"
"21:34:2:424 (H:m:s:ms)","GENERIC","62.057","0.2489144458266415","575"
"21:22:19:393 (H:m:s:ms)","GENERIC","62.047","0.2566472325894323","641"
"21:33:56:363 (H:m:s:ms)","GENERIC","62.123","0.2514440975881792","2636"
"21:22:24:303 (H:m:s:ms)","OPERA","62.013","0.2553883857288606","696"
"21:33:50:303 (H:m:s:ms)","GENERIC","62.113","0.2531588010272045","696"
"21:1:49:90 (H:m:s:ms)","GENERIC","62.105","0.21368894922721024","949"
"21:22:25:454 (H:m:s:ms)","GENERIC","62.089","0.25454970414751094","545"
"21:33:44:242 (H:m:s:ms)","GENERIC","62.031","0.25034813374748005","758"
"21:1:55:151 (H:m:s:ms)","GENERIC","62.131","0.21237864031633935","848"
"21:22:31:515 (H:m:s:ms)","GENERIC","62.075","0.2568848278320346","484"
"21:2:1:212 (H:m:s:ms)","GENERIC","62.085","0.21243975898932696","788"
"21:22:31:898 (H:m:s:ms)","OPERA","62.011","0.2602888159696529","1101"
"21:2:6:315 (H:m:s:ms)","AMBULANCE","31.039","0.21869513478095157","684"
"21:22:37:575 (H:m:s:ms)","GENERIC","62.071","0.25468497614608515","1424"
"21:2:7:272 (H:m:s:ms)","GENERIC","62.049","0.21991088258884098","1727"
"21:22:39:493 (H:m:s:ms)","OPERA","62.011","0.2551280987509256","540"
"21:2:13:333 (H:m:s:ms)","GENERIC","62.055","0.2215151923368778","666"
"21:22:43:636 (H:m:s:ms)","GENERIC","62.055","0.25606341534955135","363"
"21:2:19:393 (H:m:s:ms)","GENERIC","62.069","0.22075708431340785","645"
"21:22:47:88 (H:m:s:ms)","OPERA","62.015","0.25695884507820005","911"
"21:2:25:454 (H:m:s:ms)","GENERIC","62.103","0.2220478438215987","545"
"21:22:49:696 (H:m:s:ms)","GENERIC","62.051","0.26008730211957826","336"
"21:2:31:515 (H:m:s:ms)","GENERIC","62.053","0.22429373921448104","1484"
"21:2:37:575 (H:m:s:ms)","GENERIC","62.047","0.22548058165178964","1425"
"21:35:39:393 (H:m:s:ms)","GENERIC","62.107","0.2194510560321749","639"
"21:35:33:333 (H:m:s:ms)","GENERIC","62.097","0.22131799804159935","666"
"21:35:27:272 (H:m:s:ms)","GENERIC","62.063","0.22190767519977894","727"
"21:35:21:212 (H:m:s:ms)","GENERIC","62.063","0.22549731090464764","787"
"21:35:15:789 (H:m:s:ms)","AMBULANCE","62.033","0.2303991184353471","210"
"21:35:15:151 (H:m:s:ms)","GENERIC","62.135","0.2319741147890732","1848"
"21:35:9:90 (H:m:s:ms)","GENERIC","62.089","0.23635471664438715","943"
"21:22:54:683 (H:m:s:ms)","OPERA","62.015","0.25594783264623916","316"
"21:35:3:30 (H:m:s:ms)","GENERIC","62.065","0.2357240851895522","969"
"21:22:55:757 (H:m:s:ms)","GENERIC","62.055","0.2554526246193411","242"
"21:34:56:969 (H:m:s:ms)","GENERIC","62.097","0.2402378896722216","1030"
"21:2:37:894 (H:m:s:ms)","AMBULANCE","31.05","0.22412992228781806","106"
"21:23:1:818 (H:m:s:ms)","GENERIC","62.101","0.2548030968013563","182"
"21:34:50:909 (H:m:s:ms)","GENERIC","62.051","0.23942645758107467","1091"
"21:2:43:636 (H:m:s:ms)","GENERIC","62.055","0.22426997208521937","363"
"21:23:2:278 (H:m:s:ms)","OPERA","62.015","0.254237724150264","721"
"21:34:44:848 (H:m:s:ms)","GENERIC","62.059","0.2462125877086589","151"
"21:2:49:696 (H:m:s:ms)","GENERIC","62.063","0.21960197590707173","342"
"21:23:7:878 (H:m:s:ms)","GENERIC","62.117","0.25136523226890195","2156"
"21:2:55:757 (H:m:s:ms)","GENERIC","62.029","0.22128670435692535","242"
"21:23:9:873 (H:m:s:ms)","OPERA","62.011","0.25233601683250345","161"
"21:3:1:818 (H:m:s:ms)","GENERIC","62.071","0.22239650780224282","181"
"21:23:13:939 (H:m:s:ms)","GENERIC","62.099","0.24649443223071626","1060"
"21:3:7:878 (H:m:s:ms)","GENERIC","62.109","0.22048062715479247","1121"
"21:23:17:468 (H:m:s:ms)","OPERA","62.011","0.2502416044135324","531"
"21:3:9:473 (H:m:s:ms)","AMBULANCE","31.045","0.22043530235474693","565"
"21:23:20:0 (H:m:s:ms)","GENERIC","62.079","0.25194161419397765","1035"
"21:3:13:939 (H:m:s:ms)","GENERIC","62.097","0.22211104298861437","1061"
"21:23:25:63 (H:m:s:ms)","OPERA","62.013","0.25526340928052393","936"
"21:3:20:0 (H:m:s:ms)","GENERIC","62.063","0.22262046882734138","1040"
"21:3:26:60 (H:m:s:ms)","GENERIC","62.069","0.22553428030865721","939"
"21:36:33:939 (H:m:s:ms)","GENERIC","62.033","0.236031095584348","1060"
"21:36:27:878 (H:m:s:ms)","GENERIC","62.031","0.2334750773159783","1121"
"21:36:21:818 (H:m:s:ms)","GENERIC","62.049","0.23099184593910876","181"
"21:36:18:947 (H:m:s:ms)","AMBULANCE","62.099","0.23167213202390563","1086"
"21:36:15:757 (H:m:s:ms)","GENERIC","62.103","0.23359945224838025","242"
"21:36:9:696 (H:m:s:ms)","GENERIC","62.077","0.2352770342296321","337"
"21:23:26:60 (H:m:s:ms)","GENERIC","62.067","0.25426368142608097","939"
"21:36:3:636 (H:m:s:ms)","GENERIC","62.119","0.23131837540134562","363"
"21:23:32:121 (H:m:s:ms)","GENERIC","62.127","0.2567513817922904","878"
"21:35:57:575 (H:m:s:ms)","GENERIC","62.069","0.2262452393407567","424"
"21:3:32:121 (H:m:s:ms)","GENERIC","62.141","0.23207041217028074","878"
"21:23:32:658 (H:m:s:ms)","OPERA","62.013","0.25567778434725963","1341"
"21:35:51:515 (H:m:s:ms)","GENERIC","62.101","0.2201553945076606","484"
"21:3:38:181 (H:m:s:ms)","GENERIC","62.029","0.23148139757671107","1857"
"21:23:38:181 (H:m:s:ms)","GENERIC","62.055","0.2586973088420234","818"
"21:35:47:368 (H:m:s:ms)","AMBULANCE","62.097","0.22211834440564263","631"
"21:3:41:52 (H:m:s:ms)","AMBULANCE","31.017","0.23101917473007538","947"
"21:23:40:253 (H:m:s:ms)","OPERA","62.011","0.2588932437393644","746"
"21:35:45:454 (H:m:s:ms)","GENERIC","62.109","0.21920948326747616","546"
"21:3:44:242 (H:m:s:ms)","GENERIC","62.075","0.23373741087384323","758"
"21:23:44:242 (H:m:s:ms)","GENERIC","62.039","0.26176787726510886","2758"
"21:3:50:303 (H:m:s:ms)","GENERIC","62.099","0.23575224564417807","696"
"21:23:47:848 (H:m:s:ms)","OPERA","62.013","0.2655941102643706","151"
"21:3:56:363 (H:m:s:ms)","GENERIC","62.121","0.2330221718809503","636"
"21:23:50:303 (H:m:s:ms)","GENERIC","62.109","0.2655357769445643","1696"
"21:4:2:424 (H:m:s:ms)","GENERIC","62.057","0.2384008158720551","575"
"21:23:55:443 (H:m:s:ms)","OPERA","62.015","0.2624259461597248","1556"
"21:4:8:484 (H:m:s:ms)","GENERIC","62.025","0.23930500271214725","515"
"21:23:56:363 (H:m:s:ms)","GENERIC","62.127","0.26121245924669073","636"
"21:4:12:631 (H:m:s:ms)","AMBULANCE","31.039","0.23862114611356208","1368"
"21:4:14:545 (H:m:s:ms)","GENERIC","62.071","0.24064761195550222","454"
"21:37:28:484 (H:m:s:ms)","GENERIC","62.097","0.2423922806369348","1550"
"21:37:22:424 (H:m:s:ms)","GENERIC","62.057","0.23822076483230223","575"
"21:37:22:105 (H:m:s:ms)","AMBULANCE","62.103","0.23993627351968635","1894"
"21:37:16:363 (H:m:s:ms)","GENERIC","62.065","0.2364925419106421","636"
"21:37:10:303 (H:m:s:ms)","GENERIC","62.091","0.23234639933544934","696"
"21:37:4:242 (H:m:s:ms)","GENERIC","62.101","0.23990601334049066","757"
"21:24:2:424 (H:m:s:ms)","GENERIC","62.041","0.26139970607808266","575"
"21:24:3:37 (H:m:s:ms)","OPERA","62.015","0.2610275369282016","962"
"21:36:58:181 (H:m:s:ms)","GENERIC","62.097","0.23717151618297547","818"
"21:4:20:606 (H:m:s:ms)","GENERIC","62.101","0.2333020467580396","393"
"21:24:8:484 (H:m:s:ms)","GENERIC","62.023","0.26616925823978427","1548"
"21:36:52:121 (H:m:s:ms)","GENERIC","62.063","0.2357021646145225","878"
"21:4:26:666 (H:m:s:ms)","GENERIC","62.055","0.2333439454430944","333"
"21:24:10:632 (H:m:s:ms)","OPERA","62.011","0.26965986938861897","2367"
"21:36:50:526 (H:m:s:ms)","AMBULANCE","62.021","0.23293730459119852","473"
"21:4:32:727 (H:m:s:ms)","GENERIC","62.149","0.22683157539974003","272"
"21:24:14:545 (H:m:s:ms)","GENERIC","62.073","0.27158676424856437","1454"
"21:36:46:60 (H:m:s:ms)","GENERIC","62.063","0.2335675222202115","939"
"21:4:38:787 (H:m:s:ms)","GENERIC","62.111","0.22822753757035108","212"
"21:24:18:227 (H:m:s:ms)","OPERA","62.013","0.2684366592292039","772"
"21:36:40:0 (H:m:s:ms)","GENERIC","62.047","0.23743488882105854","1033"
"21:4:44:210 (H:m:s:ms)","AMBULANCE","31.035","0.22321994658777916","789"
"21:24:20:606 (H:m:s:ms)","GENERIC","62.105","0.27078859648022097","393"
"21:4:44:848 (H:m:s:ms)","GENERIC","62.065","0.22296889098007935","151"
"21:24:25:822 (H:m:s:ms)","OPERA","62.015","0.2757282312904577","177"
"21:4:50:909 (H:m:s:ms)","GENERIC","62.073","0.22679438476775426","1090"
"21:24:26:666 (H:m:s:ms)","GENERIC","62.019","0.274870337426861","333"
"21:4:56:969 (H:m:s:ms)","GENERIC","62.089","0.2297067294273261","1030"
"21:24:32:727 (H:m:s:ms)","GENERIC","62.117","0.2743248158630462","1272"
"21:5:3:30 (H:m:s:ms)","GENERIC","62.047","0.229702840911716","969"
"21:5:9:90 (H:m:s:ms)","GENERIC","62.075","0.23007244786514866","947"
"21:38:25:263 (H:m:s:ms)","AMBULANCE","62.021","0.23569899780110604","736"
"21:38:23:30 (H:m:s:ms)","GENERIC","62.135","0.23579382791564196","969"
"21:38:16:969 (H:m:s:ms)","GENERIC","62.139","0.23839434905200504","1030"
"21:38:10:909 (H:m:s:ms)","GENERIC","62.095","0.2395672039341526","1090"
"21:38:4:848 (H:m:s:ms)","GENERIC","62.101","0.23583924863610084","151"
"21:37:58:787 (H:m:s:ms)","GENERIC","62.039","0.23709633927425716","212"
"21:37:53:684 (H:m:s:ms)","AMBULANCE","62.093","0.24080086152535962","315"
"21:24:33:417 (H:m:s:ms)","OPERA","62.013","0.2777449962106774","582"
"21:24:38:787 (H:m:s:ms)","GENERIC","62.089","0.278416307078072","212"
"21:5:15:151 (H:m:s:ms)","GENERIC","62.089","0.2299532279811415","848"
"21:24:41:12 (H:m:s:ms)","OPERA","62.013","0.28040743664137163","987"
"21:5:15:789 (H:m:s:ms)","AMBULANCE","31.015","0.23321025052622754","210"
"21:24:44:848 (H:m:s:ms)","GENERIC","62.065","0.2813930683728964","151"
"21:37:52:727 (H:m:s:ms)","GENERIC","62.045","0.23991688270349829","272"
"20:45:39:393 (H:m:s:ms)","GENERIC","62.157","0.2687713526806443","643"
"21:5:21:212 (H:m:s:ms)","GENERIC","62.071","0.22850710508304523","787"
"21:24:48:607 (H:m:s:ms)","OPERA","62.011","0.28470604064085087","5425"
"21:37:46:666 (H:m:s:ms)","GENERIC","62.105","0.23933703968226347","333"
"20:45:41:772 (H:m:s:ms)","OPERA","31.007","0.2678134045618466","227"
"21:5:27:272 (H:m:s:ms)","GENERIC","62.103","0.22724288342882082","727"
"21:24:50:909 (H:m:s:ms)","GENERIC","62.057","0.2859191297317985","1090"
"21:37:40:606 (H:m:s:ms)","GENERIC","62.053","0.2405095352411331","393"
"20:45:45:454 (H:m:s:ms)","GENERIC","62.133","0.2671353941736529","545"
"21:5:33:333 (H:m:s:ms)","GENERIC","62.083","0.22695101166513834","666"
"21:24:56:202 (H:m:s:ms)","OPERA","62.011","0.28351393024893395","797"
"21:37:34:545 (H:m:s:ms)","GENERIC","62.105","0.24184672285995965","1454"
"20:45:49:367 (H:m:s:ms)","OPERA","31.009","0.2630680365756092","669"
"21:5:39:393 (H:m:s:ms)","GENERIC","62.131","0.22659328955489577","1644"
"21:24:56:969 (H:m:s:ms)","GENERIC","62.085","0.2827600280257222","1030"
"20:45:51:515 (H:m:s:ms)","GENERIC","62.097","0.26490903094266594","484"
"21:5:45:454 (H:m:s:ms)","GENERIC","62.101","0.22968044068168103","545"
"21:25:3:30 (H:m:s:ms)","GENERIC","62.061","0.283334740473111","1969"
"20:45:56:962 (H:m:s:ms)","OPERA","31.007","0.2640046372841194","1037"
"21:5:47:368 (H:m:s:ms)","AMBULANCE","31.056","0.22910653477166593","631"
"21:25:3:797 (H:m:s:ms)","OPERA","31.008","0.2823864834752937","202"
"20:45:57:575 (H:m:s:ms)","GENERIC","62.119","0.2625438145301486","424"
"21:5:51:515 (H:m:s:ms)","GENERIC","62.089","0.22859858536983674","1484"
"20:46:3:636 (H:m:s:ms)","GENERIC","62.131","0.263543450515868","363"
"21:5:57:575 (H:m:s:ms)","GENERIC","62.105","0.22693296906335228","1424"
"20:46:4:556 (H:m:s:ms)","OPERA","31.008","0.2670351048156801","443"
"20:46:9:696 (H:m:s:ms)","GENERIC","62.069","0.26243747482125085","341"
"21:39:23:636 (H:m:s:ms)","GENERIC","62.057","0.2450814034690784","363"
"21:39:17:575 (H:m:s:ms)","GENERIC","62.057","0.24387503074563138","424"
"21:39:11:515 (H:m:s:ms)","GENERIC","62.085","0.2400310769662476","484"
"21:39:5:454 (H:m:s:ms)","GENERIC","62.077","0.23803936226765907","545"
"21:38:59:393 (H:m:s:ms)","GENERIC","62.051","0.24343551030403093","640"
"21:38:56:842 (H:m:s:ms)","AMBULANCE","62.069","0.24877622292546248","157"
"21:38:53:333 (H:m:s:ms)","GENERIC","62.063","0.2483484054539329","666"
"21:38:47:272 (H:m:s:ms)","GENERIC","62.087","0.24875715603967405","727"
"21:25:9:90 (H:m:s:ms)","GENERIC","62.081","0.28071334617082133","943"
"21:25:11:392 (H:m:s:ms)","OPERA","62.013","0.2793847778352168","607"
"21:6:3:636 (H:m:s:ms)","GENERIC","62.105","0.2318210611839864","363"
"21:25:15:151 (H:m:s:ms)","GENERIC","62.117","0.2819650486800948","848"
"21:6:9:696 (H:m:s:ms)","GENERIC","62.075","0.23629488975308546","2340"
"21:25:18:987 (H:m:s:ms)","OPERA","62.011","0.28041201527855203","1046"
"20:46:12:151 (H:m:s:ms)","OPERA","31.009","0.26588001152698476","848"
"21:6:15:757 (H:m:s:ms)","GENERIC","62.135","0.2361366559786026","242"
"21:25:21:212 (H:m:s:ms)","GENERIC","62.075","0.27855351825984076","2787"
"20:46:15:757 (H:m:s:ms)","GENERIC","62.149","0.26839411056483586","242"
"21:6:18:947 (H:m:s:ms)","AMBULANCE","31.054","0.2353673894995084","1090"
"21:25:26:582 (H:m:s:ms)","OPERA","62.013","0.27232669710990226","417"
"21:38:41:212 (H:m:s:ms)","GENERIC","62.159","0.24406270278050923","4787"
"20:46:19:746 (H:m:s:ms)","OPERA","31.007","0.2609572991431419","1292"
"21:6:21:818 (H:m:s:ms)","GENERIC","62.053","0.23482184901508263","181"
"21:25:27:272 (H:m:s:ms)","GENERIC","62.075","0.27534066267093504","727"
"21:38:35:151 (H:m:s:ms)","GENERIC","62.103","0.23663481884321533","848"
"20:46:21:818 (H:m:s:ms)","GENERIC","62.035","0.2615740455516632","181"
"21:6:27:878 (H:m:s:ms)","GENERIC","62.025","0.23715278458005834","1121"
"21:25:33:333 (H:m:s:ms)","GENERIC","62.093","0.27758789921487165","666"
"21:38:29:90 (H:m:s:ms)","GENERIC","62.063","0.23593286197505517","942"
"20:46:27:341 (H:m:s:ms)","OPERA","31.007","0.2617923262846128","658"
"21:6:33:939 (H:m:s:ms)","GENERIC","62.087","0.23452088132354837","1061"
"21:25:34:177 (H:m:s:ms)","OPERA","62.015","0.2794044840373212","1822"
"20:46:27:878 (H:m:s:ms)","GENERIC","62.055","0.26528284034134836","1121"
"21:6:40:0 (H:m:s:ms)","GENERIC","62.063","0.2289322535341396","1038"
"21:25:39:393 (H:m:s:ms)","GENERIC","62.109","0.2769852001976487","643"
"20:46:33:939 (H:m:s:ms)","GENERIC","62.087","0.26234641755004184","3061"
"21:6:46:60 (H:m:s:ms)","GENERIC","62.073","0.22959045285841573","939"
"20:46:34:936 (H:m:s:ms)","OPERA","31.008","0.2629564874086219","1064"
"21:6:50:526 (H:m:s:ms)","AMBULANCE","31.023","0.2308948278656931","473"
"20:46:40:0 (H:m:s:ms)","GENERIC","62.081","0.26175247360586595","1037"
"20:46:42:531 (H:m:s:ms)","OPERA","31.007","0.26228888714607507","1468"
"21:39:35:757 (H:m:s:ms)","GENERIC","62.145","0.2504642857171239","242"
"21:40:12:121 (H:m:s:ms)","GENERIC","62.145","0.25005148835877866","878"
"21:40:6:60 (H:m:s:ms)","GENERIC","62.069","0.2512267701346987","939"
"21:40:0:0 (H:m:s:ms)","AMBULANCE","62.101","0.24763030679395873","1101"
"21:40:0:0 (H:m:s:ms)","GENERIC","62.117","0.24745382709118213","1101"
"21:40:0:0 (H:m:s:ms)","GENERIC","62.059","0.24806119865233595","1101"
"21:39:53:939 (H:m:s:ms)","GENERIC","62.047","0.24912146247458195","4061"
"21:39:47:878 (H:m:s:ms)","GENERIC","62.055","0.2467680305849944","1121"
"21:39:41:818 (H:m:s:ms)","GENERIC","62.085","0.2481064381626687","1181"
"21:6:52:121 (H:m:s:ms)","GENERIC","62.059","0.23628395723395645","878"
"21:6:58:181 (H:m:s:ms)","GENERIC","62.089","0.24126243320408072","818"
"20:46:46:60 (H:m:s:ms)","GENERIC","62.079","0.2613290594078097","939"
"21:7:4:242 (H:m:s:ms)","GENERIC","62.121","0.23648598495705334","757"
"20:46:50:126 (H:m:s:ms)","OPERA","31.009","0.26089833538502527","3874"
"21:7:10:303 (H:m:s:ms)","GENERIC","62.073","0.23497485455576364","696"
"20:46:52:121 (H:m:s:ms)","GENERIC","62.035","0.2609659677329247","879"
"21:7:16:363 (H:m:s:ms)","GENERIC","62.111","0.22975726955226303","636"
"20:46:57:721 (H:m:s:ms)","OPERA","31.009","0.25973948182920814","278"
"21:7:22:105 (H:m:s:ms)","AMBULANCE","31.031","0.22994335783605566","894"
"21:39:29:696 (H:m:s:ms)","GENERIC","62.155","0.250009913697675","1337"
"20:46:58:181 (H:m:s:ms)","GENERIC","62.083","0.2584123909797815","3856"
"21:7:22:424 (H:m:s:ms)","GENERIC","62.101","0.2297842213202405","575"
"21:39:28:421 (H:m:s:ms)","AMBULANCE","62.099","0.24559848321077496","2612"
"20:47:4:242 (H:m:s:ms)","GENERIC","62.101","0.2546036812919382","2758"
"21:7:28:484 (H:m:s:ms)","GENERIC","62.073","0.23067909760863323","515"
"20:47:5:316 (H:m:s:ms)","OPERA","31.008","0.2557791369795947","683"
"21:7:34:545 (H:m:s:ms)","GENERIC","62.071","0.23465518214684447","454"
"20:47:10:303 (H:m:s:ms)","GENERIC","62.057","0.2565253635989469","696"
"21:7:40:606 (H:m:s:ms)","GENERIC","62.077","0.23671240525607667","394"
"20:47:12:911 (H:m:s:ms)","OPERA","31.007","0.259088788312408","1089"
"20:47:16:363 (H:m:s:ms)","GENERIC","62.093","0.2600836814317075","636"
"21:7:46:666 (H:m:s:ms)","GENERIC","62.075","0.24054016730925806","333"
"21:7:52:727 (H:m:s:ms)","GENERIC","62.051","0.250026991486862","272"
"20:47:22:424 (H:m:s:ms)","GENERIC","62.075","0.2621422960916687","1575"
"21:7:53:684 (H:m:s:ms)","AMBULANCE","31.038","0.24955160947585261","315"
"20:47:28:101 (H:m:s:ms)","OPERA","31.007","0.2640597709584594","898"
"21:7:58:787 (H:m:s:ms)","GENERIC","62.021","0.2537185215516078","212"
"20:47:28:484 (H:m:s:ms)","GENERIC","62.055","0.2660321512452778","515"
"21:8:4:848 (H:m:s:ms)","GENERIC","62.075","0.25623207329638664","2151"
"20:47:34:545 (H:m:s:ms)","GENERIC","62.069","0.2677488348467857","454"
"21:8:10:909 (H:m:s:ms)","GENERIC","62.045","0.2511036130676607","1090"
"20:47:35:696 (H:m:s:ms)","OPERA","31.007","0.2711142299988045","303"
"21:8:16:969 (H:m:s:ms)","GENERIC","62.153","0.2515975539416803","1030"
"20:47:40:606 (H:m:s:ms)","GENERIC","62.061","0.2715524890000919","393"
"21:8:23:30 (H:m:s:ms)","GENERIC","62.095","0.25219819977059","969"
"21:40:18:181 (H:m:s:ms)","GENERIC","62.031","0.24558750168491614","818"
"20:47:43:291 (H:m:s:ms)","OPERA","31.009","0.2739544765044897","708"
"21:8:25:263 (H:m:s:ms)","AMBULANCE","31.016","0.2538858773363736","737"
"20:47:46:666 (H:m:s:ms)","GENERIC","62.071","0.2755250180038423","333"
"21:8:29:90 (H:m:s:ms)","GENERIC","62.067","0.2549470572432754","945"
"20:47:50:886 (H:m:s:ms)","OPERA","31.009","0.27959794981406544","2113"
"20:47:52:727 (H:m:s:ms)","GENERIC","62.049","0.27823346407697824","272"
"21:8:35:151 (H:m:s:ms)","GENERIC","62.121","0.24950361006438626","849"
"21:8:41:212 (H:m:s:ms)","GENERIC","62.091","0.2519985204207578","787"
"20:47:58:481 (H:m:s:ms)","OPERA","31.009","0.2828083642676354","518"
"21:8:47:272 (H:m:s:ms)","GENERIC","62.091","0.25172130774091717","727"
"20:47:58:787 (H:m:s:ms)","GENERIC","62.041","0.28227768437270534","212"
"21:8:53:333 (H:m:s:ms)","GENERIC","62.057","0.2530958038430442","1666"
"20:30:0:0 (H:m:s:ms)","GENERIC","62.018","0.21774880730914029","1034"
"20:48:4:848 (H:m:s:ms)","GENERIC","62.063","0.27895783763118986","152"
"21:8:56:842 (H:m:s:ms)","AMBULANCE","31.059","0.25496045101351894","158"
"20:30:0:0 (H:m:s:ms)","GENERIC","62.075","0.21866141416073076","1034"
"20:48:6:75 (H:m:s:ms)","OPERA","31.009","0.278284573139763","924"
"21:8:59:393 (H:m:s:ms)","GENERIC","62.075","0.25601391864249246","642"
"20:30:6:60 (H:m:s:ms)","GENERIC","62.025","0.21861200435920167","939"
"20:48:10:909 (H:m:s:ms)","GENERIC","62.031","0.2786178161085588","1090"
"21:9:5:454 (H:m:s:ms)","GENERIC","62.139","0.25550143470724146","545"
"20:30:12:121 (H:m:s:ms)","GENERIC","62.051","0.21816076422659797","878"
"20:48:13:670 (H:m:s:ms)","OPERA","31.008","0.2779585035769241","329"
"21:9:11:515 (H:m:s:ms)","GENERIC","62.071","0.26089684432767574","2484"
"20:30:18:181 (H:m:s:ms)","GENERIC","62.093","0.21770994687305906","818"
"20:48:16:969 (H:m:s:ms)","GENERIC","62.151","0.2729847547271242","1030"
"21:9:17:575 (H:m:s:ms)","GENERIC","62.093","0.25710334737412277","424"
"20:30:24:242 (H:m:s:ms)","GENERIC","62.083","0.2106163758129533","757"
"20:48:21:265 (H:m:s:ms)","OPERA","31.009","0.2729699285336879","734"
"21:9:23:636 (H:m:s:ms)","GENERIC","62.089","0.254908781123187","363"
"20:30:30:303 (H:m:s:ms)","GENERIC","62.029","0.21666549524263584","697"
"20:48:23:30 (H:m:s:ms)","GENERIC","62.073","0.2720078148896632","969"
"20:30:36:363 (H:m:s:ms)","GENERIC","62.069","0.21486706416348939","636"
"20:48:28:860 (H:m:s:ms)","OPERA","31.009","0.2748858971816518","139"
"20:30:42:424 (H:m:s:ms)","GENERIC","62.139","0.2157308618570678","575"
"20:30:48:484 (H:m:s:ms)","GENERIC","62.117","0.20896101642540854","515"
"21:9:28:421 (H:m:s:ms)","AMBULANCE","31.052","0.2548328496207894","578"
"21:9:29:696 (H:m:s:ms)","GENERIC","62.085","0.25782696941781874","340"
"20:48:29:90 (H:m:s:ms)","GENERIC","62.067","0.27358897865403464","948"
"21:9:35:757 (H:m:s:ms)","GENERIC","62.111","0.2629522774736239","2242"
"20:48:35:151 (H:m:s:ms)","GENERIC","62.133","0.2729661566465603","1848"
"21:9:41:818 (H:m:s:ms)","GENERIC","62.045","0.2628338854343401","181"
"20:30:54:545 (H:m:s:ms)","GENERIC","62.083","0.21373783965498397","2454"
"20:48:36:455 (H:m:s:ms)","OPERA","31.008","0.2716512137400853","544"
"21:9:47:878 (H:m:s:ms)","GENERIC","62.083","0.2602985911843917","2158"
"20:31:0:606 (H:m:s:ms)","GENERIC","62.041","0.2211066497246587","393"
"20:48:41:212 (H:m:s:ms)","GENERIC","62.087","0.2678285039004548","787"
"21:9:53:939 (H:m:s:ms)","GENERIC","62.023","0.26423532444983544","1061"
"20:31:6:666 (H:m:s:ms)","GENERIC","62.089","0.22076789944162362","1333"
"20:48:44:50 (H:m:s:ms)","OPERA","31.009","0.2698666730270654","949"
"21:10:0:0 (H:m:s:ms)","AMBULANCE","31.057","0.26210604689471395","1036"
"20:31:12:727 (H:m:s:ms)","GENERIC","62.067","0.22211318653834458","1272"
"20:48:47:272 (H:m:s:ms)","GENERIC","62.109","0.2692726929740656","727"
"21:10:0:0 (H:m:s:ms)","GENERIC","62.055","0.2615240987092173","1036"
"20:31:18:787 (H:m:s:ms)","GENERIC","62.115","0.22882315105784795","212"
"20:48:51:645 (H:m:s:ms)","OPERA","31.008","0.2718623401534866","354"
"21:10:0:0 (H:m:s:ms)","GENERIC","62.087","0.26133514218797155","1036"
"20:31:24:848 (H:m:s:ms)","GENERIC","62.069","0.22885440086132688","151"
"20:48:53:333 (H:m:s:ms)","GENERIC","62.053","0.27169487783115026","666"
"21:10:6:60 (H:m:s:ms)","GENERIC","62.029","0.26149820819862446","939"
"20:31:30:909 (H:m:s:ms)","GENERIC","62.161","0.22658539953588205","1090"
"20:48:59:240 (H:m:s:ms)","OPERA","31.007","0.27321491617924903","798"
"20:31:36:969 (H:m:s:ms)","GENERIC","62.037","0.22483606718144838","1030"
"20:48:59:393 (H:m:s:ms)","GENERIC","62.099","0.27195699084876507","645"
"20:31:43:30 (H:m:s:ms)","GENERIC","62.107","0.22269789089794886","969"
"20:31:49:90 (H:m:s:ms)","GENERIC","62.089","0.22195800315582986","944"
"20:49:5:454 (H:m:s:ms)","GENERIC","62.111","0.26869608822779756","1545"
"20:49:6:835 (H:m:s:ms)","OPERA","31.009","0.27149709489557766","164"
"20:31:55:151 (H:m:s:ms)","GENERIC","62.089","0.22709524436063966","848"
"20:49:11:515 (H:m:s:ms)","GENERIC","62.103","0.27170037203429065","484"
"20:32:1:212 (H:m:s:ms)","GENERIC","62.087","0.22238315027931257","787"
"20:49:14:430 (H:m:s:ms)","OPERA","31.008","0.27381584263700026","1570"
"20:32:7:272 (H:m:s:ms)","GENERIC","62.069","0.22350414465382196","727"
"20:49:17:575 (H:m:s:ms)","GENERIC","62.079","0.275101167829753","1424"
"20:32:13:333 (H:m:s:ms)","GENERIC","62.039","0.2235114723940967","2666"
"20:49:22:25 (H:m:s:ms)","OPERA","31.009","0.2740735726258266","974"
"20:32:19:393 (H:m:s:ms)","GENERIC","62.047","0.2246351311725898","640"
"20:49:23:636 (H:m:s:ms)","GENERIC","62.097","0.27364209072152135","363"
"20:32:25:454 (H:m:s:ms)","GENERIC","62.073","0.2255838793400998","545"
"20:49:29:620 (H:m:s:ms)","OPERA","31.008","0.27359927305982773","1418"
"20:32:31:515 (H:m:s:ms)","GENERIC","62.095","0.22460340121384487","484"
"20:49:29:696 (H:m:s:ms)","GENERIC","62.105","0.2746053870869679","342"
"20:32:37:575 (H:m:s:ms)","GENERIC","62.047","0.22957174904833236","424"
"20:49:35:757 (H:m:s:ms)","GENERIC","62.075","0.2776233056926652","242"
"20:32:43:636 (H:m:s:ms)","GENERIC","62.061","0.22961009897545195","363"
"20:32:49:696 (H:m:s:ms)","GENERIC","62.093","0.22300829022053412","338"
"20:49:37:215 (H:m:s:ms)","OPERA","31.007","0.2794125288255325","784"
"20:49:41:818 (H:m:s:ms)","GENERIC","62.051","0.2814002203495074","181"
"20:32:55:757 (H:m:s:ms)","GENERIC","62.031","0.2238057358269384","242"
"20:49:44:810 (H:m:s:ms)","OPERA","31.008","0.27714500462788105","189"
"20:33:1:818 (H:m:s:ms)","GENERIC","62.077","0.2252472875715582","1181"
"20:49:47:878 (H:m:s:ms)","GENERIC","62.101","0.27738761387608346","1121"
"20:33:7:878 (H:m:s:ms)","GENERIC","62.083","0.22524524053386225","1121"
"20:49:52:405 (H:m:s:ms)","OPERA","31.008","0.2736522299138572","2594"
"20:33:13:939 (H:m:s:ms)","GENERIC","62.105","0.22524867376191693","1060"
"20:49:53:939 (H:m:s:ms)","GENERIC","62.059","0.2733247699071021","2060"
"20:33:20:0 (H:m:s:ms)","GENERIC","62.045","0.22510339505554605","1035"
"20:50:0:0 (H:m:s:ms)","OPERA","31.009","0.2710053267125263","1039"
"20:33:26:60 (H:m:s:ms)","GENERIC","62.069","0.22720619748214535","939"
"20:50:0:0 (H:m:s:ms)","GENERIC","62.039","0.27036800569189046","1039"
"20:33:32:121 (H:m:s:ms)","GENERIC","62.093","0.22195897869215322","878"
"20:50:0:0 (H:m:s:ms)","GENERIC","62.063","0.2722869275928822","3039"
"20:33:38:181 (H:m:s:ms)","GENERIC","62.061","0.22180974124812736","818"
"20:50:6:60 (H:m:s:ms)","GENERIC","62.045","0.2690145071397065","939"
"20:33:44:242 (H:m:s:ms)","GENERIC","62.071","0.22061488892242404","757"
"20:33:50:303 (H:m:s:ms)","GENERIC","62.115","0.22477948122235147","696"
"20:50:12:121 (H:m:s:ms)","GENERIC","62.065","0.26549916435620746","878"
"20:50:18:181 (H:m:s:ms)","GENERIC","62.123","0.26687308513850666","818"
"20:33:56:363 (H:m:s:ms)","GENERIC","62.115","0.22356775928055975","636"
"20:50:24:242 (H:m:s:ms)","GENERIC","62.081","0.27021543926864217","757"
"20:34:2:424 (H:m:s:ms)","GENERIC","62.083","0.22497464484116872","575"
"20:50:30:303 (H:m:s:ms)","GENERIC","62.063","0.2692182997761176","696"
"20:10:0:0 (H:m:s:ms)","GENERIC","31.03","0.21468846214355608","1000"
"20:34:8:484 (H:m:s:ms)","GENERIC","62.067","0.23125825728690677","516"
"20:50:36:363 (H:m:s:ms)","GENERIC","62.067","0.2721529283793533","636"
"20:10:0:0 (H:m:s:ms)","GENERIC","62.069","0.22139858491979247","1038"
"20:34:14:545 (H:m:s:ms)","GENERIC","62.055","0.23751048878223638","1454"
"20:50:42:424 (H:m:s:ms)","GENERIC","62.103","0.2709438933707236","575"
"20:10:6:60 (H:m:s:ms)","GENERIC","62.059","0.22193550701445805","939"
"20:34:20:606 (H:m:s:ms)","GENERIC","62.099","0.24276388975939445","393"
"20:50:48:484 (H:m:s:ms)","GENERIC","62.133","0.2737204714264741","515"
"20:10:12:121 (H:m:s:ms)","GENERIC","62.037","0.22339177734254945","878"
"20:34:26:666 (H:m:s:ms)","GENERIC","62.059","0.2489979751625718","333"
"20:50:54:545 (H:m:s:ms)","GENERIC","62.053","0.27575103048075594","455"
"20:10:18:181 (H:m:s:ms)","GENERIC","62.059","0.22309945668568978","818"
"20:34:32:727 (H:m:s:ms)","GENERIC","62.107","0.2489924349342396","272"
"20:51:0:606 (H:m:s:ms)","GENERIC","62.061","0.2691414375237826","393"
"20:10:24:242 (H:m:s:ms)","GENERIC","62.081","0.22309483263234864","757"
"20:34:38:787 (H:m:s:ms)","GENERIC","62.095","0.24846796673155655","212"
"20:51:6:666 (H:m:s:ms)","GENERIC","62.049","0.27228198195098546","333"
"20:10:30:303 (H:m:s:ms)","GENERIC","62.049","0.21963487293697345","696"
"20:34:44:848 (H:m:s:ms)","GENERIC","62.091","0.2487029480266934","151"
"20:10:36:363 (H:m:s:ms)","GENERIC","62.037","0.2198075403381943","636"
"20:34:50:909 (H:m:s:ms)","GENERIC","62.069","0.24617471103942898","1091"
"20:10:42:424 (H:m:s:ms)","GENERIC","62.109","0.21387619683235295","575"
"20:10:48:484 (H:m:s:ms)","GENERIC","62.101","0.21562992405311662","515"
"20:51:12:727 (H:m:s:ms)","GENERIC","62.035","0.274886804895331","272"
"20:51:18:787 (H:m:s:ms)","GENERIC","62.095","0.2739348666948193","212"
"20:34:56:969 (H:m:s:ms)","GENERIC","62.115","0.24855679020824156","2030"
"20:51:24:848 (H:m:s:ms)","GENERIC","62.051","0.27276714626712706","151"
"20:35:3:30 (H:m:s:ms)","GENERIC","62.071","0.24914310543422738","969"
"20:51:30:909 (H:m:s:ms)","GENERIC","62.121","0.2729184253492526","1090"
"20:10:54:545 (H:m:s:ms)","GENERIC","62.117","0.22266153234198366","454"
"20:35:9:90 (H:m:s:ms)","GENERIC","62.057","0.2450107043904784","944"
"20:51:36:969 (H:m:s:ms)","GENERIC","62.089","0.27264374478922426","1030"
"20:11:0:606 (H:m:s:ms)","GENERIC","62.043","0.22305856395252172","1393"
"20:35:15:151 (H:m:s:ms)","GENERIC","62.115","0.25081511527926226","848"
"20:51:43:30 (H:m:s:ms)","GENERIC","62.099","0.27982356716194173","969"
"20:11:6:666 (H:m:s:ms)","GENERIC","62.117","0.22476945240554186","333"
"20:35:21:212 (H:m:s:ms)","GENERIC","62.085","0.24924088362142718","787"
"20:51:49:90 (H:m:s:ms)","GENERIC","62.087","0.28043044569662456","948"
"20:11:12:727 (H:m:s:ms)","GENERIC","62.101","0.2230271301666054","272"
"20:35:27:272 (H:m:s:ms)","GENERIC","62.105","0.25490543965820267","727"
"20:51:55:151 (H:m:s:ms)","GENERIC","62.119","0.27765318772875663","848"
"20:11:18:787 (H:m:s:ms)","GENERIC","62.101","0.22575211576392948","212"
"20:35:33:333 (H:m:s:ms)","GENERIC","62.103","0.2508001258186958","666"
"20:52:1:212 (H:m:s:ms)","GENERIC","62.081","0.2777386394382792","1787"
"20:11:24:848 (H:m:s:ms)","GENERIC","62.089","0.22595649374288188","1151"
"20:35:39:393 (H:m:s:ms)","GENERIC","62.143","0.24953894262737647","1639"
"20:52:7:272 (H:m:s:ms)","GENERIC","62.065","0.28090077355126464","727"
"20:11:30:909 (H:m:s:ms)","GENERIC","62.159","0.2257337102198777","1090"
"20:35:45:454 (H:m:s:ms)","GENERIC","62.119","0.24953894262737647","545"
"20:11:36:969 (H:m:s:ms)","GENERIC","62.033","0.22194103633250586","1030"
"20:35:51:515 (H:m:s:ms)","GENERIC","62.093","0.2495004494031526","485"
"20:11:43:30 (H:m:s:ms)","GENERIC","62.135","0.21582938000297805","969"
"20:11:49:90 (H:m:s:ms)","GENERIC","62.129","0.21546638089632364","946"
"20:0:54:545 (H:m:s:ms)","GENERIC","31.061","0.13612312568728224","454"
"20:1:0:606 (H:m:s:ms)","GENERIC","31.018","0.1375913563715866","393"
"20:1:6:666 (H:m:s:ms)","GENERIC","31.053","0.13831934427921908","333"
"20:1:12:727 (H:m:s:ms)","GENERIC","31.045","0.1448920378228543","272"
"20:1:18:787 (H:m:s:ms)","GENERIC","31.047","0.15102347885161604","212"
"20:1:24:848 (H:m:s:ms)","GENERIC","31.034","0.1527040393145762","152"
"20:1:30:909 (H:m:s:ms)","GENERIC","31.07","0.15440539230053074","1090"
"20:1:36:969 (H:m:s:ms)","GENERIC","31.026","0.15446722208806124","1031"
"20:1:43:30 (H:m:s:ms)","GENERIC","31.061","0.15440724376456894","969"
"20:1:49:90 (H:m:s:ms)","GENERIC","31.076","0.15547084605450953","920"
"20:35:57:575 (H:m:s:ms)","GENERIC","62.117","0.25041921773354064","1424"
"20:36:3:636 (H:m:s:ms)","GENERIC","62.145","0.24492380115274975","363"
"20:11:55:151 (H:m:s:ms)","GENERIC","62.107","0.21546638089632364","848"
"20:36:9:696 (H:m:s:ms)","GENERIC","62.051","0.24486691532941232","337"
"20:12:1:212 (H:m:s:ms)","GENERIC","62.109","0.21203155475522648","787"
"20:36:15:757 (H:m:s:ms)","GENERIC","62.137","0.24347613787788294","242"
"20:12:7:272 (H:m:s:ms)","GENERIC","62.057","0.2099921893533548","727"
"20:36:21:818 (H:m:s:ms)","GENERIC","62.049","0.23681936745813248","181"
"20:12:13:333 (H:m:s:ms)","GENERIC","62.043","0.21369651857003386","666"
"20:36:27:878 (H:m:s:ms)","GENERIC","62.071","0.23579796840524986","1121"
"20:12:19:393 (H:m:s:ms)","GENERIC","62.017","0.21012959576109116","644"
"20:36:33:939 (H:m:s:ms)","GENERIC","62.089","0.23267512613577193","1060"
"20:12:25:454 (H:m:s:ms)","GENERIC","62.091","0.20911178967732735","545"
"20:36:40:0 (H:m:s:ms)","GENERIC","62.087","0.2284863820862963","1034"
"20:12:31:515 (H:m:s:ms)","GENERIC","62.053","0.21337114177530958","1484"
"20:36:46:60 (H:m:s:ms)","GENERIC","62.093","0.2334006785627276","939"
"20:12:37:575 (H:m:s:ms)","GENERIC","62.045","0.21584601664561656","424"
"20:36:52:121 (H:m:s:ms)","GENERIC","62.041","0.22848566457877356","878"
"20:12:43:636 (H:m:s:ms)","GENERIC","62.035","0.21501637206408145","363"
"20:12:49:696 (H:m:s:ms)","GENERIC","62.067","0.21136005878001798","339"
"20:1:55:151 (H:m:s:ms)","GENERIC","31.062","0.15848437433614415","848"
"20:2:1:212 (H:m:s:ms)","GENERIC","31.056","0.16384657302716535","787"
"20:2:7:272 (H:m:s:ms)","GENERIC","31.034","0.16433891650667873","727"
"20:2:13:333 (H:m:s:ms)","GENERIC","31.015","0.16913778730483411","666"
"20:2:19:393 (H:m:s:ms)","GENERIC","31.013","0.16913186586306217","619"
"20:2:25:454 (H:m:s:ms)","GENERIC","31.052","0.1726222489412278","545"
"20:2:31:515 (H:m:s:ms)","GENERIC","31.018","0.17524360713838896","1484"
"20:2:37:575 (H:m:s:ms)","GENERIC","31.024","0.17575759902054686","425"
"20:2:43:636 (H:m:s:ms)","GENERIC","31.023","0.17984428332984645","363"
"20:2:49:696 (H:m:s:ms)","GENERIC","31.044","0.19016622292600957","1317"
"20:36:58:181 (H:m:s:ms)","GENERIC","62.091","0.2216221325980878","818"
"20:37:4:242 (H:m:s:ms)","GENERIC","62.093","0.22157235012647133","757"
"20:12:55:757 (H:m:s:ms)","GENERIC","62.017","0.2124244201856435","242"
"20:37:10:303 (H:m:s:ms)","GENERIC","62.065","0.2223882461615434","696"
"20:13:1:818 (H:m:s:ms)","GENERIC","62.121","0.21298124661717255","181"
"20:37:16:363 (H:m:s:ms)","GENERIC","62.085","0.2258845900245889","636"
"20:13:7:878 (H:m:s:ms)","GENERIC","62.083","0.21277172348628515","1121"
"20:37:22:424 (H:m:s:ms)","GENERIC","62.067","0.22651409739726325","575"
"20:13:13:939 (H:m:s:ms)","GENERIC","62.105","0.2190774687025655","1060"
"20:37:28:484 (H:m:s:ms)","GENERIC","62.057","0.22506919874598355","515"
"20:13:20:0 (H:m:s:ms)","GENERIC","62.051","0.2206420736629756","1036"
"20:37:34:545 (H:m:s:ms)","GENERIC","62.057","0.2263370781204009","1454"
"20:13:26:60 (H:m:s:ms)","GENERIC","62.061","0.22267359856492241","939"
"20:37:40:606 (H:m:s:ms)","GENERIC","62.047","0.22186011506168543","1393"
"20:13:32:121 (H:m:s:ms)","GENERIC","62.079","0.22348281279389842","878"
"20:37:46:666 (H:m:s:ms)","GENERIC","62.057","0.21497119857340397","333"
"20:13:38:181 (H:m:s:ms)","GENERIC","62.063","0.22367605360279802","818"
"20:37:52:727 (H:m:s:ms)","GENERIC","62.067","0.21905807935200897","272"
"20:13:44:242 (H:m:s:ms)","GENERIC","62.093","0.22142030041432825","758"
"20:13:50:303 (H:m:s:ms)","GENERIC","62.107","0.22312790453115805","696"
"20:2:55:757 (H:m:s:ms)","GENERIC","31.018","0.1917385626480625","242"
"20:3:1:818 (H:m:s:ms)","GENERIC","31.073","0.19159370059564382","181"
"20:3:7:878 (H:m:s:ms)","GENERIC","31.053","0.1915160792100294","121"
"20:3:13:939 (H:m:s:ms)","GENERIC","31.058","0.19126064694317116","1061"
"20:3:20:0 (H:m:s:ms)","GENERIC","31.03","0.19102158465181954","1000"
"20:3:26:60 (H:m:s:ms)","GENERIC","31.037","0.1924264226331207","940"
"20:3:32:121 (H:m:s:ms)","GENERIC","31.041","0.19563022833172353","878"
"20:3:38:181 (H:m:s:ms)","GENERIC","31.025","0.2053929967591298","1836"
"20:3:44:242 (H:m:s:ms)","GENERIC","31.052","0.20564832593329033","758"
"20:3:50:303 (H:m:s:ms)","GENERIC","31.05","0.2056590370766171","696"
"20:37:58:787 (H:m:s:ms)","GENERIC","62.049","0.22598042849837557","1246"
"20:38:4:848 (H:m:s:ms)","GENERIC","62.075","0.2191341466640661","151"
"20:13:56:363 (H:m:s:ms)","GENERIC","62.087","0.22722734757588442","636"
"20:38:10:909 (H:m:s:ms)","GENERIC","62.039","0.21895554079725651","1091"
"20:14:2:424 (H:m:s:ms)","GENERIC","62.113","0.2263441089013381","575"
"20:38:16:969 (H:m:s:ms)","GENERIC","62.133","0.2158963055751634","1030"
"20:14:8:484 (H:m:s:ms)","GENERIC","62.099","0.21935494286446006","515"
"20:38:23:30 (H:m:s:ms)","GENERIC","62.091","0.22041071439156362","969"
"20:14:14:545 (H:m:s:ms)","GENERIC","62.089","0.22344199687828803","455"
"20:38:29:90 (H:m:s:ms)","GENERIC","62.049","0.22025885926287952","943"
"20:14:20:606 (H:m:s:ms)","GENERIC","62.069","0.22423943295097568","393"
"20:38:35:151 (H:m:s:ms)","GENERIC","62.141","0.22428062576815788","848"
"20:14:26:666 (H:m:s:ms)","GENERIC","62.033","0.2251849998820222","333"
"20:38:41:212 (H:m:s:ms)","GENERIC","62.081","0.22617172916325748","787"
"20:14:32:727 (H:m:s:ms)","GENERIC","62.081","0.22598466473343512","272"
"20:38:47:272 (H:m:s:ms)","GENERIC","62.113","0.22455268753551264","727"
"20:14:38:787 (H:m:s:ms)","GENERIC","62.055","0.22620322906993787","1247"
"20:38:53:333 (H:m:s:ms)","GENERIC","62.061","0.22459412574105989","666"
"20:14:44:848 (H:m:s:ms)","GENERIC","62.097","0.22042639983983803","151"
"20:14:50:909 (H:m:s:ms)","GENERIC","62.061","0.22340516612069225","1090"
"20:3:56:363 (H:m:s:ms)","GENERIC","31.044","0.21047350027568518","1636"
"20:4:2:424 (H:m:s:ms)","GENERIC","31.045","0.21167909392125275","575"
"20:4:8:484 (H:m:s:ms)","GENERIC","31.043","0.2114183552495825","515"
"20:4:14:545 (H:m:s:ms)","GENERIC","31.054","0.21113728603240395","455"
"20:4:20:606 (H:m:s:ms)","GENERIC","31.029","0.21390120899378287","1393"
"20:4:26:666 (H:m:s:ms)","GENERIC","31.011","0.2159346183280967","2333"
"20:4:32:727 (H:m:s:ms)","GENERIC","31.04","0.21556337819585064","272"
"20:4:38:787 (H:m:s:ms)","GENERIC","31.02","0.22259420402261482","212"
"20:4:44:848 (H:m:s:ms)","GENERIC","31.047","0.22216558706530287","152"
"20:4:50:909 (H:m:s:ms)","GENERIC","31.028","0.224615213357632","4091"
"20:38:59:393 (H:m:s:ms)","GENERIC","62.113","0.22474781715863473","640"
"20:39:5:454 (H:m:s:ms)","GENERIC","62.111","0.22344459650989656","545"
"20:14:56:969 (H:m:s:ms)","GENERIC","62.123","0.22291684254095143","1030"
"20:39:11:515 (H:m:s:ms)","GENERIC","62.127","0.2284275628699108","484"
"20:15:3:30 (H:m:s:ms)","GENERIC","62.077","0.2141655867504384","1970"
"20:39:17:575 (H:m:s:ms)","GENERIC","62.093","0.22500562008377933","424"
"20:15:9:90 (H:m:s:ms)","GENERIC","62.045","0.2159864622357907","945"
"20:39:23:636 (H:m:s:ms)","GENERIC","62.077","0.21796181138936138","363"
"20:15:15:151 (H:m:s:ms)","GENERIC","62.141","0.2213175303443527","848"
"20:39:29:696 (H:m:s:ms)","GENERIC","62.115","0.21704503251393778","338"
"20:15:21:212 (H:m:s:ms)","GENERIC","62.121","0.2213924638421789","787"
"20:39:35:757 (H:m:s:ms)","GENERIC","62.055","0.21490044756405985","242"
"20:15:27:272 (H:m:s:ms)","GENERIC","62.105","0.21981930067015554","727"
"20:39:41:818 (H:m:s:ms)","GENERIC","62.073","0.21497993196016224","1181"
"20:15:33:333 (H:m:s:ms)","GENERIC","62.119","0.21670461065790156","666"
"20:39:47:878 (H:m:s:ms)","GENERIC","62.087","0.21738771071173663","1121"
"20:15:39:393 (H:m:s:ms)","GENERIC","62.119","0.22327102413298572","1643"
"20:39:53:939 (H:m:s:ms)","GENERIC","62.065","0.2172900217106758","1061"
"20:15:45:454 (H:m:s:ms)","GENERIC","62.105","0.22759988682582835","545"
"20:15:51:515 (H:m:s:ms)","GENERIC","62.069","0.22062366899715696","484"
"20:4:56:969 (H:m:s:ms)","GENERIC","31.06","0.2264535786187876","1030"
"20:5:3:30 (H:m:s:ms)","GENERIC","31.043","0.22469584743600413","970"
"20:5:9:90 (H:m:s:ms)","GENERIC","31.028","0.2243578445716552","932"
"20:5:15:151 (H:m:s:ms)","GENERIC","31.072","0.22778981056870864","848"
"20:5:21:212 (H:m:s:ms)","GENERIC","31.07","0.22460160102486995","787"
"20:5:27:272 (H:m:s:ms)","GENERIC","31.064","0.2281379537622167","727"
"20:5:33:333 (H:m:s:ms)","GENERIC","31.069","0.22609976073282387","666"
"20:5:39:393 (H:m:s:ms)","GENERIC","31.053","0.22029982415685287","630"
"20:5:45:454 (H:m:s:ms)","GENERIC","31.049","0.22026949115883054","545"
"20:5:51:515 (H:m:s:ms)","GENERIC","31.029","0.2201410967050273","484"
"20:15:57:575 (H:m:s:ms)","GENERIC","62.141","0.21508158810052216","2460"
"20:16:3:636 (H:m:s:ms)","GENERIC","62.121","0.22179206933163365","363"
"20:16:9:696 (H:m:s:ms)","GENERIC","62.041","0.22468506833931168","339"
"20:16:15:757 (H:m:s:ms)","GENERIC","62.113","0.22509635565065272","242"
"20:16:21:818 (H:m:s:ms)","GENERIC","62.079","0.2265110541140186","1181"
"20:16:27:878 (H:m:s:ms)","GENERIC","62.057","0.23271036907232268","1121"
"20:16:33:939 (H:m:s:ms)","GENERIC","62.071","0.23063659536640316","2060"
"20:16:40:0 (H:m:s:ms)","GENERIC","62.103","0.22632006798109303","1036"
"20:16:46:60 (H:m:s:ms)","GENERIC","62.061","0.22555946567979615","939"
"20:16:52:121 (H:m:s:ms)","GENERIC","62.043","0.22779039364217502","878"
"20:5:57:575 (H:m:s:ms)","GENERIC","31.081","0.21276014839664886","424"
"20:6:3:636 (H:m:s:ms)","GENERIC","31.057","0.2125726700315075","364"
"20:6:9:696 (H:m:s:ms)","GENERIC","31.031","0.21060250375765327","330"
"20:6:15:757 (H:m:s:ms)","GENERIC","31.054","0.20906542569422953","242"
"20:6:21:818 (H:m:s:ms)","GENERIC","31.033","0.20720081766816253","181"
"20:6:27:878 (H:m:s:ms)","GENERIC","31.018","0.20711967991338584","1121"
"20:6:33:939 (H:m:s:ms)","GENERIC","31.032","0.2072712624667128","1061"
"20:6:40:0 (H:m:s:ms)","GENERIC","31.047","0.21288649863164658","1000"
"20:6:46:60 (H:m:s:ms)","GENERIC","31.026","0.21528958074468582","939"
"20:6:52:121 (H:m:s:ms)","GENERIC","31.024","0.21525370810203814","878"
"20:16:58:181 (H:m:s:ms)","GENERIC","62.097","0.22398263752435751","818"
"20:17:4:242 (H:m:s:ms)","GENERIC","62.079","0.22632466323405204","757"
"20:17:10:303 (H:m:s:ms)","GENERIC","62.091","0.22645792042394294","696"
"20:17:16:363 (H:m:s:ms)","GENERIC","62.049","0.23290063708851289","636"
"20:17:22:424 (H:m:s:ms)","GENERIC","62.047","0.2355424093345336","575"
"20:17:28:484 (H:m:s:ms)","GENERIC","62.055","0.23140585394752627","515"
"20:17:34:545 (H:m:s:ms)","GENERIC","62.047","0.23001490823046042","454"
"20:17:40:606 (H:m:s:ms)","GENERIC","62.023","0.22506163182646585","393"
"20:17:46:666 (H:m:s:ms)","GENERIC","62.063","0.22634886571189647","333"
"20:17:52:727 (H:m:s:ms)","GENERIC","62.097","0.23135403381232536","272"
"20:6:58:181 (H:m:s:ms)","GENERIC","31.058","0.22232267144122375","1848"
"20:7:4:242 (H:m:s:ms)","GENERIC","31.042","0.22320407620061597","757"
"20:7:10:303 (H:m:s:ms)","GENERIC","31.051","0.22779214215576696","696"
"20:7:16:363 (H:m:s:ms)","GENERIC","31.021","0.22603895648545","636"
"20:7:22:424 (H:m:s:ms)","GENERIC","31.028","0.22360511296673563","575"
"20:7:28:484 (H:m:s:ms)","GENERIC","31.033","0.21638009168571296","516"
"20:7:34:545 (H:m:s:ms)","GENERIC","31.03","0.2174961757715583","454"
"20:7:40:606 (H:m:s:ms)","GENERIC","31.018","0.21827919095014003","393"
"20:7:46:666 (H:m:s:ms)","GENERIC","31.036","0.21618694290262422","2334"
"20:7:52:727 (H:m:s:ms)","GENERIC","31.05","0.21393341148176695","272"
"20:17:58:787 (H:m:s:ms)","GENERIC","62.077","0.2314814124212508","212"
"20:18:4:848 (H:m:s:ms)","GENERIC","62.081","0.2322095586650658","151"
"20:18:10:909 (H:m:s:ms)","GENERIC","62.059","0.23476956049333744","1090"
"20:18:16:969 (H:m:s:ms)","GENERIC","62.109","0.22800769585747394","1030"
"20:18:23:30 (H:m:s:ms)","GENERIC","62.115","0.2294896479643502","969"
"20:18:29:90 (H:m:s:ms)","GENERIC","62.051","0.22917227630946096","945"
"20:18:35:151 (H:m:s:ms)","GENERIC","62.121","0.23093940564694057","848"
"20:18:41:212 (H:m:s:ms)","GENERIC","62.071","0.2295416403578201","787"
"20:18:47:272 (H:m:s:ms)","GENERIC","62.121","0.23229602295998697","727"
"20:18:53:333 (H:m:s:ms)","GENERIC","62.045","0.22428643144699803","666"
"20:7:58:787 (H:m:s:ms)","GENERIC","31.047","0.21338380552064964","212"
"20:8:4:848 (H:m:s:ms)","GENERIC","31.04","0.21167465073660613","151"
"20:8:10:909 (H:m:s:ms)","GENERIC","31.033","0.21116096076447488","1091"
"20:8:16:969 (H:m:s:ms)","GENERIC","31.058","0.2111517180851686","1030"
"20:8:23:30 (H:m:s:ms)","GENERIC","31.058","0.21480958926156374","969"
"20:8:29:90 (H:m:s:ms)","GENERIC","31.035","0.21396231999501475","942"
"20:8:35:151 (H:m:s:ms)","GENERIC","31.06","0.21363951271207854","848"
"20:8:41:212 (H:m:s:ms)","GENERIC","31.046","0.21316685460866053","787"
"20:8:47:272 (H:m:s:ms)","GENERIC","31.054","0.21457052442350466","727"
"20:8:53:333 (H:m:s:ms)","GENERIC","31.024","0.21539662410845628","666"
"20:18:59:393 (H:m:s:ms)","GENERIC","62.101","0.2302339931941876","642"
"20:19:5:454 (H:m:s:ms)","GENERIC","62.069","0.228397738378479","545"
"20:19:11:515 (H:m:s:ms)","GENERIC","62.157","0.22839946192779612","484"
"20:19:17:575 (H:m:s:ms)","GENERIC","62.105","0.22300000551263724","424"
"20:19:23:636 (H:m:s:ms)","GENERIC","62.047","0.22616422124209637","363"
"20:19:29:696 (H:m:s:ms)","GENERIC","62.127","0.22616766647696349","339"
"20:19:35:757 (H:m:s:ms)","GENERIC","62.069","0.23035290469905742","242"
"20:19:41:818 (H:m:s:ms)","GENERIC","62.123","0.22817129492457258","2181"
"20:19:47:878 (H:m:s:ms)","GENERIC","62.067","0.2282720698726649","1121"
"20:19:53:939 (H:m:s:ms)","GENERIC","62.083","0.22825601558060968","1060"
"20:8:59:393 (H:m:s:ms)","GENERIC","31.043","0.21457923663203643","640"
"20:9:5:454 (H:m:s:ms)","GENERIC","31.028","0.2152737394335245","545"
"20:9:11:515 (H:m:s:ms)","GENERIC","31.07","0.21711930445124702","1484"
"20:9:17:575 (H:m:s:ms)","GENERIC","31.05","0.21609261775790717","424"
"20:9:23:636 (H:m:s:ms)","GENERIC","31.026","0.2151102935725854","363"
"20:9:29:696 (H:m:s:ms)","GENERIC","31.067","0.2128864578495364","339"
"20:9:35:757 (H:m:s:ms)","GENERIC","31.045","0.21316991973953497","242"
"20:9:41:818 (H:m:s:ms)","GENERIC","31.059","0.21339556576696106","1181"
"20:9:47:878 (H:m:s:ms)","GENERIC","31.029","0.21378710220128166","121"
"20:9:53:939 (H:m:s:ms)","GENERIC","31.042","0.21461676541771893","4061"
"21:41:0:606 (H:m:s:ms)","GENERIC","62.047","0.2500148141867961","1393"
"21:40:54:545 (H:m:s:ms)","GENERIC","62.109","0.25002048230701307","454"
"21:40:48:484 (H:m:s:ms)","GENERIC","62.105","0.2500924861265538","515"
"21:40:42:424 (H:m:s:ms)","GENERIC","62.105","0.2495350445252939","575"
"21:40:36:363 (H:m:s:ms)","GENERIC","62.039","0.24603511929293653","636"
"21:40:30:303 (H:m:s:ms)","GENERIC","62.073","0.24574381317710403","696"
"21:40:24:242 (H:m:s:ms)","GENERIC","62.069","0.24249411418192032","757"
"21:41:18:787 (H:m:s:ms)","GENERIC","62.097","0.24497752371833725","212"
"21:41:12:727 (H:m:s:ms)","GENERIC","62.101","0.250490498588794","272"
"21:41:6:666 (H:m:s:ms)","GENERIC","62.049","0.24939495177014637","333"
