"time (H:m:s:ms)","type","latency","utilisation","waiting"
"21:42:49:696 (H:m:s:ms)","GENERIC","187.952","0.26898135191944395","340"
"21:42:31:515 (H:m:s:ms)","GENERIC","188.274","0.2665313052185087","3485"
"21:42:25:454 (H:m:s:ms)","GENERIC","188.204","0.264350085122195","4582"
"21:42:19:393 (H:m:s:ms)","GENERIC","188.167","0.26602379048602987","4643"
"21:42:13:333 (H:m:s:ms)","GENERIC","187.364","0.2619777984876364","666"
"21:42:7:272 (H:m:s:ms)","GENERIC","188.076","0.2614742423712145","1727"
"21:42:1:212 (H:m:s:ms)","GENERIC","188.241","0.26084653045376427","8824"
"21:41:55:151 (H:m:s:ms)","GENERIC","188.376","0.26433491659339936","848"
"21:41:49:90 (H:m:s:ms)","GENERIC","187.334","0.2633387130986823","1947"
"21:42:43:636 (H:m:s:ms)","GENERIC","187.91","0.26706036318695014","4364"
"21:42:37:575 (H:m:s:ms)","GENERIC","187.227","0.2668273260708039","1424"
"21:43:56:363 (H:m:s:ms)","GENERIC","187.543","0.2720705766451677","3674"
"21:43:50:303 (H:m:s:ms)","GENERIC","187.74900000000002","0.27770642682407654","3696"
"21:43:38:181 (H:m:s:ms)","GENERIC","187.558","0.27543417436698964","1853"
"20:0:0:0 (H:m:s:ms)","GENERIC","156.435","0.05300695823615933","2205"
"21:43:32:121 (H:m:s:ms)","GENERIC","187.507","0.27435610976947467","3878"
"20:0:6:60 (H:m:s:ms)","GENERIC","156.823","0.07930018846611082","940"
"21:43:26:60 (H:m:s:ms)","GENERIC","187.332","0.27661760709917455","1939"
"20:0:12:121 (H:m:s:ms)","GENERIC","156.71","0.08700687517614586","1878"
"21:43:20:0 (H:m:s:ms)","GENERIC","187.76","0.2765623939482812","2037"
"20:0:18:181 (H:m:s:ms)","GENERIC","157.291","0.11060427767691648","818"
"21:43:13:939 (H:m:s:ms)","GENERIC","187.525","0.2758878982393539","3060"
"20:0:24:242 (H:m:s:ms)","GENERIC","156.577","0.12436584155788251","758"
"21:43:7:878 (H:m:s:ms)","GENERIC","187.437","0.27134732678406137","1121"
"20:0:30:303 (H:m:s:ms)","GENERIC","156.938","0.1273558951649851","696"
"21:43:1:818 (H:m:s:ms)","GENERIC","187.901","0.27044877956935226","182"
"20:0:36:363 (H:m:s:ms)","GENERIC","156.35500000000002","0.13723825185721447","4646"
"21:42:55:757 (H:m:s:ms)","GENERIC","188.141","0.271754857261522","242"
"20:0:42:424 (H:m:s:ms)","GENERIC","156.75300000000001","0.14258136275592484","575"
"21:10:30:303 (H:m:s:ms)","GENERIC","187.225","0.2766987949634828","1696"
"20:0:48:484 (H:m:s:ms)","GENERIC","156.649","0.1499725365776252","1525"
"21:10:36:363 (H:m:s:ms)","GENERIC","187.22199999999998","0.27587633239798115","636"
"21:10:42:424 (H:m:s:ms)","GENERIC","188.37900000000002","0.279037137050144","575"
"21:10:48:484 (H:m:s:ms)","GENERIC","187.70100000000002","0.27776087267107913","515"
"21:10:54:545 (H:m:s:ms)","GENERIC","187.963","0.2802742512100417","454"
"21:11:0:606 (H:m:s:ms)","GENERIC","187.779","0.2792430310340311","1393"
"21:11:6:666 (H:m:s:ms)","GENERIC","186.667","0.2787763946135944","333"
"21:11:12:727 (H:m:s:ms)","GENERIC","186.89999999999998","0.27636820777289894","272"
"21:43:44:242 (H:m:s:ms)","GENERIC","187.797","0.27765404114475256","1758"
"21:11:18:787 (H:m:s:ms)","GENERIC","187.702","0.27421271195587416","212"
"21:11:24:848 (H:m:s:ms)","GENERIC","187.633","0.2759201024492435","4152"
"21:25:51:515 (H:m:s:ms)","GENERIC","187.673","0.28137000375356963","23556"
"21:45:3:30 (H:m:s:ms)","GENERIC","188.84799999999998","0.27420716063324896","1970"
"21:44:56:969 (H:m:s:ms)","GENERIC","187.855","0.27345328353499204","8108"
"21:44:50:909 (H:m:s:ms)","GENERIC","187.65200000000002","0.27311252429760086","3090"
"21:44:44:848 (H:m:s:ms)","GENERIC","188.392","0.2740835231334555","1151"
"21:44:38:787 (H:m:s:ms)","GENERIC","187.844","0.2740164110631835","212"
"21:44:32:727 (H:m:s:ms)","GENERIC","187.356","0.2722363611672857","272"
"21:44:26:666 (H:m:s:ms)","GENERIC","187.518","0.2746631192831822","333"
"21:44:20:606 (H:m:s:ms)","GENERIC","187.92000000000002","0.2764759757021684","393"
"21:44:14:545 (H:m:s:ms)","GENERIC","187.805","0.2739427184452391","6492"
"21:44:8:484 (H:m:s:ms)","GENERIC","187.61200000000002","0.2736892457377703","4553"
"21:11:30:909 (H:m:s:ms)","GENERIC","187.058","0.27472046653640214","2090"
"21:44:2:424 (H:m:s:ms)","GENERIC","187.275","0.2729678964931163","576"
"21:11:36:969 (H:m:s:ms)","GENERIC","187.774","0.27573161342042873","1030"
"21:11:43:30 (H:m:s:ms)","GENERIC","188.15800000000002","0.2782163070630071","1970"
"21:11:49:90 (H:m:s:ms)","GENERIC","187.878","0.27754607069658604","946"
"21:11:55:151 (H:m:s:ms)","GENERIC","187.422","0.27441449939953094","11885"
"21:12:1:212 (H:m:s:ms)","GENERIC","188.177","0.2735314396073865","787"
"21:12:7:272 (H:m:s:ms)","GENERIC","187.974","0.2760571748012795","2763"
"21:12:13:333 (H:m:s:ms)","GENERIC","187.648","0.2766768294629393","2667"
"21:12:19:393 (H:m:s:ms)","GENERIC","187.562","0.2748276956388668","3642"
"21:12:25:454 (H:m:s:ms)","GENERIC","188.091","0.2747060587694452","546"
"21:26:27:878 (H:m:s:ms)","GENERIC","188.041","0.28248581652930016","15193"
"21:46:9:696 (H:m:s:ms)","GENERIC","187.976","0.27981289099891715","2343"
"21:26:27:341 (H:m:s:ms)","OPERA","188.261","0.2822569756860803","13730"
"21:46:3:636 (H:m:s:ms)","GENERIC","187.538","0.2800997911554849","1364"
"21:45:57:575 (H:m:s:ms)","GENERIC","188.001","0.28322986619407636","1424"
"21:45:51:515 (H:m:s:ms)","GENERIC","188.222","0.28440989132671085","484"
"21:26:19:746 (H:m:s:ms)","OPERA","187.654","0.2798888438523054","5289"
"21:26:15:757 (H:m:s:ms)","GENERIC","188.187","0.28065355335837755","6277"
"21:45:45:454 (H:m:s:ms)","GENERIC","187.852","0.2840957606688821","545"
"21:26:12:151 (H:m:s:ms)","OPERA","188.341","0.2793926219955894","849"
"21:45:39:393 (H:m:s:ms)","GENERIC","188.209","0.2840958433981899","3647"
"21:26:9:696 (H:m:s:ms)","GENERIC","187.652","0.2817869040190652","7339"
"21:45:33:333 (H:m:s:ms)","GENERIC","186.677","0.2829805969687728","666"
"21:26:4:556 (H:m:s:ms)","OPERA","155.977","0.28233890976056425","10480"
"21:45:27:272 (H:m:s:ms)","GENERIC","188.20499999999998","0.2760080520580794","2769"
"21:26:3:636 (H:m:s:ms)","GENERIC","187.753","0.2814049167918854","20436"
"21:45:21:212 (H:m:s:ms)","GENERIC","187.553","0.2750087462624844","4787"
"21:12:31:515 (H:m:s:ms)","GENERIC","187.733","0.271659212914197","1484"
"21:25:57:575 (H:m:s:ms)","GENERIC","188.032","0.2821101029203313","1424"
"21:45:15:151 (H:m:s:ms)","GENERIC","188.393","0.2725682372268199","848"
"21:12:37:575 (H:m:s:ms)","GENERIC","188.459","0.27461612129665","9461"
"21:25:56:962 (H:m:s:ms)","OPERA","156.114","0.28068901242849287","2037"
"21:45:9:90 (H:m:s:ms)","GENERIC","188.324","0.27509799761392384","952"
"21:12:43:636 (H:m:s:ms)","GENERIC","187.892","0.2736810375583414","1363"
"21:12:49:696 (H:m:s:ms)","GENERIC","187.641","0.2758393802011012","340"
"21:12:55:757 (H:m:s:ms)","GENERIC","188.03","0.27197888960432137","242"
"21:13:1:818 (H:m:s:ms)","GENERIC","186.692","0.27307541054901213","181"
"21:13:7:878 (H:m:s:ms)","GENERIC","187.462","0.26990433156996013","1121"
"21:13:13:939 (H:m:s:ms)","GENERIC","188.299","0.2722639830929942","1060"
"21:13:20:0 (H:m:s:ms)","GENERIC","187.578","0.2744598271211819","4036"
"21:13:26:60 (H:m:s:ms)","GENERIC","187.566","0.2717943988160336","1939"
"21:26:21:818 (H:m:s:ms)","GENERIC","187.38400000000001","0.2827216163062901","181"
"21:27:5:316 (H:m:s:ms)","OPERA","156.655","0.27573478929998146","25790"
"21:47:16:363 (H:m:s:ms)","GENERIC","187.225","0.2842336045533603","636"
"21:27:4:242 (H:m:s:ms)","GENERIC","187.75","0.27519229810109386","13794"
"21:47:10:303 (H:m:s:ms)","GENERIC","187.93599999999998","0.283148500348512","696"
"21:26:58:181 (H:m:s:ms)","GENERIC","188.35","0.2765423825976088","15889"
"21:47:4:242 (H:m:s:ms)","GENERIC","187.79500000000002","0.2818768582228852","5796"
"21:46:58:181 (H:m:s:ms)","GENERIC","188.15","0.27659369771793824","1856"
"21:46:52:121 (H:m:s:ms)","GENERIC","187.613","0.2779601411449843","12918"
"21:26:57:721 (H:m:s:ms)","OPERA","156.311","0.2830347025689812","2313"
"21:26:52:121 (H:m:s:ms)","GENERIC","187.5","0.28175501224250593","8914"
"21:26:50:126 (H:m:s:ms)","OPERA","187.625","0.2841903126511072","1873"
"21:46:46:60 (H:m:s:ms)","GENERIC","187.42000000000002","0.2752288595641021","5977"
"21:26:46:60 (H:m:s:ms)","GENERIC","187.293","0.28304721276070277","9975"
"21:46:40:0 (H:m:s:ms)","GENERIC","187.393","0.27526920237233016","4042"
"21:26:42:531 (H:m:s:ms)","OPERA","187.62900000000002","0.2831238121540748","1468"
"21:46:33:939 (H:m:s:ms)","GENERIC","187.845","0.2771240773406256","4060"
"21:13:32:121 (H:m:s:ms)","GENERIC","187.964","0.27018335065000326","878"
"21:26:40:0 (H:m:s:ms)","GENERIC","188.19","0.28193866693796993","13070"
"21:46:27:878 (H:m:s:ms)","GENERIC","187.722","0.27845114436304214","3159"
"21:13:38:181 (H:m:s:ms)","GENERIC","187.93099999999998","0.2727265464773002","2854"
"21:26:34:936 (H:m:s:ms)","OPERA","156.80700000000002","0.28062737137341937","4064"
"21:46:21:818 (H:m:s:ms)","GENERIC","187.657","0.2798453472476776","4181"
"21:13:44:242 (H:m:s:ms)","GENERIC","187.227","0.2711819856923121","1758"
"21:26:33:939 (H:m:s:ms)","GENERIC","187.35399999999998","0.2830091616897883","11096"
"21:46:15:757 (H:m:s:ms)","GENERIC","188.33100000000002","0.2803286157413381","242"
"21:13:50:303 (H:m:s:ms)","GENERIC","187.981","0.27233697861071204","696"
"21:13:56:363 (H:m:s:ms)","GENERIC","188.162","0.2762996557070096","636"
"21:14:2:424 (H:m:s:ms)","GENERIC","187.576","0.2775331656624579","575"
"21:14:8:484 (H:m:s:ms)","GENERIC","187.18599999999998","0.27649486801829454","1550"
"21:14:14:545 (H:m:s:ms)","GENERIC","187.882","0.27630573199134456","2455"
"21:14:20:606 (H:m:s:ms)","GENERIC","187.702","0.278019985162955","393"
"21:14:26:666 (H:m:s:ms)","GENERIC","187.591","0.2781305758685728","333"
"21:27:43:291 (H:m:s:ms)","OPERA","187.84199999999998","0.2737668752025824","49887"
"21:48:23:30 (H:m:s:ms)","GENERIC","188.31","0.2787042251643653","969"
"21:27:40:606 (H:m:s:ms)","GENERIC","186.973","0.2756866634531136","2394"
"21:48:16:969 (H:m:s:ms)","GENERIC","188.028","0.27960043493539183","1030"
"21:27:35:696 (H:m:s:ms)","OPERA","187.93900000000002","0.27288108649672954","4339"
"21:48:10:909 (H:m:s:ms)","GENERIC","187.873","0.2801887552910274","4090"
"21:27:34:545 (H:m:s:ms)","GENERIC","188.211","0.2744266442540692","454"
"21:48:4:848 (H:m:s:ms)","GENERIC","187.031","0.2799374247145978","151"
"21:47:58:787 (H:m:s:ms)","GENERIC","187.844","0.28094083950988513","10250"
"21:47:52:727 (H:m:s:ms)","GENERIC","187.27100000000002","0.27993605187159865","272"
"21:27:28:484 (H:m:s:ms)","GENERIC","188.025","0.27436798970971393","39658"
"21:27:28:101 (H:m:s:ms)","OPERA","187.871","0.2751088240136823","1933"
"21:27:22:424 (H:m:s:ms)","GENERIC","187.15","0.27479069011920954","3575"
"21:47:46:666 (H:m:s:ms)","GENERIC","187.704","0.27866681429538503","1333"
"21:14:32:727 (H:m:s:ms)","GENERIC","187.659","0.2771464123563497","5273"
"21:27:20:506 (H:m:s:ms)","OPERA","156.314","0.27383483917863743","20565"
"21:47:40:606 (H:m:s:ms)","GENERIC","187.61","0.2785796189693208","393"
"21:14:38:787 (H:m:s:ms)","GENERIC","187.857","0.2782625938604325","1247"
"21:27:16:363 (H:m:s:ms)","GENERIC","188.32","0.27403102943935226","16707"
"21:47:34:545 (H:m:s:ms)","GENERIC","187.248","0.2797712637032163","2454"
"20:52:31:515 (H:m:s:ms)","GENERIC","187.992","0.2784047587345338","11527"
"21:14:44:848 (H:m:s:ms)","GENERIC","187.07999999999998","0.275475382345698","3152"
"21:27:12:911 (H:m:s:ms)","OPERA","157.123","0.2747657587354145","7124"
"21:47:28:484 (H:m:s:ms)","GENERIC","187.98","0.2854398018776701","1553"
"20:52:37:575 (H:m:s:ms)","GENERIC","188.239","0.28082666847552007","6467"
"21:14:50:909 (H:m:s:ms)","GENERIC","187.687","0.2715718846821768","3091"
"21:27:10:303 (H:m:s:ms)","GENERIC","187.312","0.27612806697556275","47840"
"21:47:22:424 (H:m:s:ms)","GENERIC","187.97","0.28612556990941734","3575"
"20:52:43:636 (H:m:s:ms)","GENERIC","188.002","0.2830599240221322","4364"
"21:14:56:969 (H:m:s:ms)","GENERIC","187.495","0.2721887450903568","1030"
"20:52:49:696 (H:m:s:ms)","GENERIC","188.43099999999998","0.2858441677154425","345"
"21:15:3:30 (H:m:s:ms)","GENERIC","188.37800000000001","0.26833757606599096","7001"
"20:52:55:757 (H:m:s:ms)","GENERIC","187.974","0.2850240298534106","1243"
"21:15:9:90 (H:m:s:ms)","GENERIC","188.198","0.2682766583888739","5941"
"20:53:1:818 (H:m:s:ms)","GENERIC","187.425","0.2868425621567304","181"
"21:15:15:151 (H:m:s:ms)","GENERIC","187.861","0.26800233966546166","4882"
"20:53:7:878 (H:m:s:ms)","GENERIC","188.305","0.28640377800597955","121"
"21:15:21:212 (H:m:s:ms)","GENERIC","187.149","0.2684026945164127","4787"
"20:53:13:939 (H:m:s:ms)","GENERIC","187.914","0.2788789787947643","15103"
"21:15:27:272 (H:m:s:ms)","GENERIC","187.615","0.27219377425859126","1727"
"20:53:20:0 (H:m:s:ms)","GENERIC","188.387","0.2818304435124072","4042"
"20:53:26:60 (H:m:s:ms)","GENERIC","186.909","0.28225733352459925","4981"
"21:28:21:265 (H:m:s:ms)","OPERA","155.792","0.27199165351487303","5735"
"21:49:29:696 (H:m:s:ms)","GENERIC","187.941","0.275420548364379","345"
"21:28:16:969 (H:m:s:ms)","GENERIC","188.136","0.2721707715993279","8066"
"21:49:23:636 (H:m:s:ms)","GENERIC","188.825","0.2734726323264792","363"
"21:28:13:670 (H:m:s:ms)","OPERA","156.94","0.27348254007044737","2330"
"21:49:17:575 (H:m:s:ms)","GENERIC","188.433","0.2707999089447488","424"
"21:28:10:909 (H:m:s:ms)","GENERIC","187.111","0.2749050816223906","13127"
"21:49:11:515 (H:m:s:ms)","GENERIC","188.363","0.2739061057948971","484"
"21:28:6:75 (H:m:s:ms)","OPERA","187.755","0.27175327486338297","11960"
"21:49:5:454 (H:m:s:ms)","GENERIC","187.867","0.2741402753209217","546"
"21:48:59:393 (H:m:s:ms)","GENERIC","187.838","0.278287911062284","643"
"21:48:53:333 (H:m:s:ms)","GENERIC","187.736","0.2795175844675679","666"
"21:28:4:848 (H:m:s:ms)","GENERIC","187.935","0.27156266546017827","11188"
"21:15:33:333 (H:m:s:ms)","GENERIC","187.632","0.2706032595097791","666"
"21:27:58:787 (H:m:s:ms)","GENERIC","187.911","0.2709933538312099","28320"
"21:15:39:393 (H:m:s:ms)","GENERIC","187.277","0.26921871332244857","6640"
"21:27:58:481 (H:m:s:ms)","OPERA","156.711","0.27605331415768697","2553"
"21:48:47:272 (H:m:s:ms)","GENERIC","187.528","0.27906062022336603","727"
"20:53:32:121 (H:m:s:ms)","GENERIC","187.661","0.2839819194303847","4879"
"21:15:45:454 (H:m:s:ms)","GENERIC","187.68","0.2702163894668407","1545"
"21:27:52:727 (H:m:s:ms)","GENERIC","187.33800000000002","0.2758241407756755","3273"
"21:48:41:212 (H:m:s:ms)","GENERIC","186.971","0.28085943787419515","787"
"20:53:38:181 (H:m:s:ms)","GENERIC","187.976","0.2824496955705946","1859"
"21:15:51:515 (H:m:s:ms)","GENERIC","187.87","0.27008064779047064","4485"
"21:27:50:886 (H:m:s:ms)","OPERA","157.264","0.2709371748741865","30221"
"21:48:35:151 (H:m:s:ms)","GENERIC","187.98000000000002","0.2809550956528878","6886"
"20:53:44:242 (H:m:s:ms)","GENERIC","187.811","0.2781575826373439","3758"
"21:15:57:575 (H:m:s:ms)","GENERIC","188.02","0.269238992548443","424"
"21:27:46:666 (H:m:s:ms)","GENERIC","187.66","0.27596869075828573","1333"
"21:48:29:90 (H:m:s:ms)","GENERIC","186.516","0.2815085595114346","9947"
"20:53:50:303 (H:m:s:ms)","GENERIC","187.445","0.2793052399133886","3696"
"21:16:3:636 (H:m:s:ms)","GENERIC","187.689","0.26747297434374157","1363"
"20:53:56:363 (H:m:s:ms)","GENERIC","188.216","0.2783025137028623","15726"
"21:16:9:696 (H:m:s:ms)","GENERIC","187.766","0.2701262086766131","3337"
"20:54:2:424 (H:m:s:ms)","GENERIC","187.306","0.2789641277091012","575"
"21:16:15:757 (H:m:s:ms)","GENERIC","187.481","0.2686901589871497","1242"
"20:54:8:484 (H:m:s:ms)","GENERIC","188.097","0.27676058243064855","515"
"21:16:21:818 (H:m:s:ms)","GENERIC","187.736","0.2705334407504824","2181"
"20:54:14:545 (H:m:s:ms)","GENERIC","187.751","0.27569457623761884","2455"
"21:16:27:878 (H:m:s:ms)","GENERIC","187.023","0.2697552572616639","2156"
"20:54:20:606 (H:m:s:ms)","GENERIC","187.336","0.2752514151710536","393"
"20:54:26:666 (H:m:s:ms)","GENERIC","187.77100000000002","0.2712196670819319","333"
"21:28:59:240 (H:m:s:ms)","OPERA","188.036","0.2716988926718706","20867"
"21:28:53:333 (H:m:s:ms)","GENERIC","187.993","0.2715335820609677","4667"
"22:6:50:526 (H:m:s:ms)","AMBULANCE","187.73000000000002","0.07164809584300251","473"
"21:28:51:645 (H:m:s:ms)","OPERA","156.088","0.27472211504627125","3355"
"22:4:12:631 (H:m:s:ms)","AMBULANCE","187.316","0.10805263338427404","1368"
"21:28:47:272 (H:m:s:ms)","GENERIC","187.974","0.27515917047501076","7763"
"22:2:6:315 (H:m:s:ms)","AMBULANCE","156.848","0.09532263263285387","684"
"21:28:44:50 (H:m:s:ms)","OPERA","156.341","0.27161940454733247","17021"
"22:1:34:736 (H:m:s:ms)","AMBULANCE","187.44","0.09002626275920488","264"
"21:28:41:212 (H:m:s:ms)","GENERIC","187.522","0.27406203982782423","787"
"22:1:3:157 (H:m:s:ms)","AMBULANCE","186.564","0.06526052351036982","842"
"21:50:0:0 (H:m:s:ms)","GENERIC","187.768","0.26539548899678445","2038"
"21:49:53:939 (H:m:s:ms)","GENERIC","187.707","0.26467221165971877","2060"
"21:16:33:939 (H:m:s:ms)","GENERIC","188.31099999999998","0.27239393485444585","1060"
"21:16:40:0 (H:m:s:ms)","GENERIC","188.076","0.26990286000580316","1035"
"21:28:36:455 (H:m:s:ms)","OPERA","187.821","0.2756247642503643","14616"
"20:54:32:727 (H:m:s:ms)","GENERIC","187.858","0.2693532839550587","2272"
"21:16:46:60 (H:m:s:ms)","GENERIC","187.916","0.2700198219244939","939"
"21:28:35:151 (H:m:s:ms)","GENERIC","187.571","0.27527872104832163","17920"
"20:54:38:787 (H:m:s:ms)","GENERIC","187.97199999999998","0.27149429746679077","1254"
"21:16:52:121 (H:m:s:ms)","GENERIC","187.863","0.2696415976241519","5878"
"21:28:29:90 (H:m:s:ms)","GENERIC","187.468","0.27476230132937696","13980"
"21:49:47:878 (H:m:s:ms)","GENERIC","187.451","0.27041471369083764","3159"
"20:54:44:848 (H:m:s:ms)","GENERIC","187.296","0.27394639890927863","151"
"21:16:58:181 (H:m:s:ms)","GENERIC","187.647","0.27278266625854086","4851"
"21:28:28:860 (H:m:s:ms)","OPERA","157.107","0.27315238361112604","140"
"21:49:41:818 (H:m:s:ms)","GENERIC","188.075","0.27188665706420334","181"
"20:54:50:909 (H:m:s:ms)","GENERIC","187.915","0.27280905930522625","7091"
"21:17:4:242 (H:m:s:ms)","GENERIC","187.949","0.274844334698583","1758"
"21:28:23:30 (H:m:s:ms)","GENERIC","188.132","0.27426107203980926","4969"
"21:49:35:757 (H:m:s:ms)","GENERIC","188.517","0.2740137284635121","242"
"20:54:56:969 (H:m:s:ms)","GENERIC","187.887","0.27272600708187983","1030"
"21:17:10:303 (H:m:s:ms)","GENERIC","187.911","0.2755155023088213","696"
"20:55:3:30 (H:m:s:ms)","GENERIC","186.898","0.26747513168217246","5970"
"21:17:16:363 (H:m:s:ms)","GENERIC","188.45499999999998","0.27493640605639524","2637"
"20:55:9:90 (H:m:s:ms)","GENERIC","187.468","0.26652740499848376","5950"
"21:17:22:424 (H:m:s:ms)","GENERIC","187.47899999999998","0.2751841390182921","575"
"20:55:15:151 (H:m:s:ms)","GENERIC","188.151","0.26379613323467477","3848"
"21:17:28:484 (H:m:s:ms)","GENERIC","188.101","0.2735413086231603","2549"
"20:55:21:212 (H:m:s:ms)","GENERIC","187.397","0.26577721465751997","788"
"20:55:27:272 (H:m:s:ms)","GENERIC","188.531","0.2643295922795968","3768"
"21:29:35:757 (H:m:s:ms)","GENERIC","187.046","0.27886919548899125","28346"
"21:29:29:696 (H:m:s:ms)","GENERIC","187.266","0.27153545415091745","3338"
"21:29:29:620 (H:m:s:ms)","OPERA","157.085","0.27130992583935587","16448"
"21:29:23:636 (H:m:s:ms)","GENERIC","187.757","0.2712479517816882","5363"
"21:29:22:25 (H:m:s:ms)","OPERA","156.756","0.26971424360602814","974"
"21:29:17:575 (H:m:s:ms)","GENERIC","187.445","0.2882264716178233","68670"
"21:29:14:430 (H:m:s:ms)","OPERA","187.68","0.27279503635611047","5604"
"21:17:34:545 (H:m:s:ms)","GENERIC","188.221","0.2734463292339245","1455"
"21:17:40:606 (H:m:s:ms)","GENERIC","187.452","0.27505251204447245","2393"
"20:55:33:333 (H:m:s:ms)","GENERIC","187.503","0.26641869711019633","666"
"21:17:46:666 (H:m:s:ms)","GENERIC","188.37","0.273503717770882","333"
"20:55:39:393 (H:m:s:ms)","GENERIC","188.25","0.27023308082058795","6648"
"21:17:52:727 (H:m:s:ms)","GENERIC","187.628","0.26730398568013597","272"
"21:29:11:515 (H:m:s:ms)","GENERIC","188.259","0.26995035401456774","22555"
"20:55:45:454 (H:m:s:ms)","GENERIC","188.03","0.2674425849479105","5587"
"21:17:58:787 (H:m:s:ms)","GENERIC","187.954","0.2656449573865498","212"
"21:29:6:835 (H:m:s:ms)","OPERA","187.608","0.2699586371774192","164"
"20:55:51:515 (H:m:s:ms)","GENERIC","188.013","0.2684753715687668","3485"
"21:18:4:848 (H:m:s:ms)","GENERIC","187.835","0.2629683932761739","152"
"21:29:5:454 (H:m:s:ms)","GENERIC","188.227","0.27049766845401085","3546"
"20:55:57:575 (H:m:s:ms)","GENERIC","187.914","0.2669707542765823","6466"
"21:18:10:909 (H:m:s:ms)","GENERIC","187.904","0.2615086887253535","1090"
"21:28:59:393 (H:m:s:ms)","GENERIC","187.46699999999998","0.27252543108721267","2641"
"20:56:3:636 (H:m:s:ms)","GENERIC","187.91400000000002","0.27128782967621096","1363"
"21:18:16:969 (H:m:s:ms)","GENERIC","187.99099999999999","0.2619909926833549","3064"
"20:56:9:696 (H:m:s:ms)","GENERIC","187.534","0.2710775668073689","2346"
"21:18:23:30 (H:m:s:ms)","GENERIC","187.478","0.26193190813764616","4969"
"20:56:15:757 (H:m:s:ms)","GENERIC","188.557","0.2748575410243274","2242"
"21:18:29:90 (H:m:s:ms)","GENERIC","187.781","0.2611074732589509","2944"
"20:56:21:818 (H:m:s:ms)","GENERIC","187.801","0.27227409354096055","1181"
"20:56:27:878 (H:m:s:ms)","GENERIC","187.48399999999998","0.27332906465904827","1122"
"21:30:6:60 (H:m:s:ms)","GENERIC","156.651","0.2829796233545797","2939"
"21:30:0:0 (H:m:s:ms)","GENERIC","187.621","0.2778427837856527","1034"
"21:30:0:0 (H:m:s:ms)","AMBULANCE","187.769","0.2841782971709381","8035"
"21:30:0:0 (H:m:s:ms)","GENERIC","187.812","0.2838053646611905","5035"
"21:30:0:0 (H:m:s:ms)","OPERA","156.48399999999998","0.27961726517344515","2034"
"21:29:53:939 (H:m:s:ms)","GENERIC","188.20499999999998","0.27963966772969207","4061"
"21:29:52:405 (H:m:s:ms)","OPERA","188.573","0.27968595274267133","8629"
"21:29:47:878 (H:m:s:ms)","GENERIC","186.60399999999998","0.27670515378482835","2156"
"21:18:35:151 (H:m:s:ms)","GENERIC","188.753","0.2624758017245739","1848"
"21:18:41:212 (H:m:s:ms)","GENERIC","187.666","0.2618949290063664","788"
"20:56:33:939 (H:m:s:ms)","GENERIC","187.33100000000002","0.273969004274907","1060"
"21:18:47:272 (H:m:s:ms)","GENERIC","187.3","0.26310241057005274","1727"
"20:56:40:0 (H:m:s:ms)","GENERIC","188.24","0.2738149960992584","3042"
"21:18:53:333 (H:m:s:ms)","GENERIC","187.696","0.26039404313453995","666"
"20:40:0:0 (H:m:s:ms)","OPERA","156.906","0.27816168440573313","2242"
"20:56:46:60 (H:m:s:ms)","GENERIC","188.05700000000002","0.2763227989570832","939"
"21:18:59:393 (H:m:s:ms)","GENERIC","188.411","0.26058834603024955","1640"
"20:40:0:0 (H:m:s:ms)","GENERIC","187.359","0.2782970384480203","2242"
"20:56:52:121 (H:m:s:ms)","GENERIC","188.0","0.27815735298192384","1878"
"21:19:5:454 (H:m:s:ms)","GENERIC","188.19899999999998","0.26287503869421147","2545"
"21:29:44:810 (H:m:s:ms)","OPERA","156.778","0.27990264450126906","24260"
"20:40:0:0 (H:m:s:ms)","GENERIC","187.598","0.2786016800092078","2242"
"20:56:58:181 (H:m:s:ms)","GENERIC","188.377","0.2774109221017843","3860"
"21:19:11:515 (H:m:s:ms)","GENERIC","187.65","0.2597725660605279","484"
"21:29:41:818 (H:m:s:ms)","GENERIC","187.167","0.271935831289165","2181"
"20:40:6:60 (H:m:s:ms)","GENERIC","187.786","0.27776333346540416","940"
"20:57:4:242 (H:m:s:ms)","GENERIC","188.132","0.27610798997089747","1757"
"21:19:17:575 (H:m:s:ms)","GENERIC","188.082","0.2587529751070483","2459"
"21:29:37:215 (H:m:s:ms)","OPERA","156.332","0.27192627640476563","784"
"20:40:7:594 (H:m:s:ms)","OPERA","156.578","0.2795012563777668","405"
"20:57:10:303 (H:m:s:ms)","GENERIC","187.404","0.27180778604470407","3696"
"21:19:23:636 (H:m:s:ms)","GENERIC","187.952","0.2590267995873548","3363"
"20:40:12:121 (H:m:s:ms)","GENERIC","187.445","0.2776757427216256","878"
"20:57:16:363 (H:m:s:ms)","GENERIC","188.274","0.26657752943973234","636"
"21:19:29:696 (H:m:s:ms)","GENERIC","188.101","0.257826293388823","344"
"20:40:18:181 (H:m:s:ms)","GENERIC","187.782","0.27811373579481957","1853"
"20:57:22:424 (H:m:s:ms)","GENERIC","187.303","0.2669806596268952","576"
"20:40:22:784 (H:m:s:ms)","OPERA","157.40699999999998","0.27939753770210946","3216"
"20:57:28:484 (H:m:s:ms)","GENERIC","187.17000000000002","0.2682503881505621","2557"
"20:40:24:242 (H:m:s:ms)","GENERIC","188.012","0.2793981843866839","757"
"20:40:30:303 (H:m:s:ms)","GENERIC","187.642","0.2788997598010916","2697"
"21:30:24:242 (H:m:s:ms)","GENERIC","188.108","0.28939201363297606","4757"
"21:31:3:157 (H:m:s:ms)","AMBULANCE","188.11700000000002","0.28797905648454675","7877"
"21:31:0:606 (H:m:s:ms)","GENERIC","186.90699999999998","0.28791208059447987","3393"
"21:30:54:545 (H:m:s:ms)","GENERIC","188.494","0.288856506113157","8490"
"21:30:48:484 (H:m:s:ms)","GENERIC","187.26999999999998","0.2854569051248831","1549"
"21:30:42:424 (H:m:s:ms)","GENERIC","187.216","0.2881361856289656","2575"
"21:30:36:363 (H:m:s:ms)","GENERIC","187.697","0.2914490963237354","51814"
"21:30:31:578 (H:m:s:ms)","AMBULANCE","187.362","0.29080921698510515","3422"
"21:19:35:757 (H:m:s:ms)","GENERIC","186.493","0.25988310150987204","242"
"21:30:30:303 (H:m:s:ms)","GENERIC","188.053","0.2893981876404572","5697"
"21:19:41:818 (H:m:s:ms)","GENERIC","187.457","0.258571172066238","6182"
"20:57:34:545 (H:m:s:ms)","GENERIC","187.36700000000002","0.27008510992374524","1454"
"21:19:47:878 (H:m:s:ms)","GENERIC","187.856","0.25831893718331955","1121"
"20:57:40:606 (H:m:s:ms)","GENERIC","187.409","0.2687993262328271","1394"
"21:19:53:939 (H:m:s:ms)","GENERIC","187.816","0.2585015052883896","1061"
"20:40:30:379 (H:m:s:ms)","OPERA","156.902","0.28037009970174226","1621"
"20:57:46:666 (H:m:s:ms)","GENERIC","188.48399999999998","0.2693279646027641","3376"
"21:20:0:0 (H:m:s:ms)","OPERA","156.674","0.25929664505041694","4326"
"20:40:36:363 (H:m:s:ms)","GENERIC","187.821","0.27576037105524187","1636"
"20:57:52:727 (H:m:s:ms)","GENERIC","187.755","0.2733810532866059","272"
"21:20:0:0 (H:m:s:ms)","GENERIC","187.61","0.25819551236821225","3319"
"20:40:37:974 (H:m:s:ms)","OPERA","155.695","0.27583015598959915","5061"
"20:57:58:787 (H:m:s:ms)","GENERIC","188.291","0.27255117992278144","212"
"21:20:0:0 (H:m:s:ms)","GENERIC","187.439","0.2599043622858545","2254"
"20:40:42:424 (H:m:s:ms)","GENERIC","187.608","0.27580696508922825","576"
"20:58:4:848 (H:m:s:ms)","GENERIC","187.67","0.27463659601830304","151"
"21:20:6:60 (H:m:s:ms)","GENERIC","188.897","0.2610718479650039","939"
"21:30:18:181 (H:m:s:ms)","GENERIC","188.66500000000002","0.2814796436561314","818"
"20:40:45:569 (H:m:s:ms)","OPERA","157.439","0.27288177463597807","9467"
"20:58:10:909 (H:m:s:ms)","GENERIC","188.123","0.27478371581755334","2090"
"21:20:7:594 (H:m:s:ms)","OPERA","156.608","0.2618889212057129","1405"
"21:30:12:121 (H:m:s:ms)","GENERIC","156.749","0.28005210956968446","5879"
"20:40:48:484 (H:m:s:ms)","GENERIC","188.182","0.274278032735398","7552"
"20:58:16:969 (H:m:s:ms)","GENERIC","186.98499999999999","0.27403733346981207","1030"
"21:20:12:121 (H:m:s:ms)","GENERIC","188.738","0.2593273350459479","878"
"20:40:53:164 (H:m:s:ms)","OPERA","156.512","0.2706380265730108","1835"
"20:58:23:30 (H:m:s:ms)","GENERIC","187.875","0.27584110881509305","970"
"20:40:54:545 (H:m:s:ms)","GENERIC","186.849","0.27204966756985083","454"
"20:58:29:90 (H:m:s:ms)","GENERIC","187.858","0.2750374030440935","949"
"20:41:0:606 (H:m:s:ms)","GENERIC","187.95","0.2739160109651438","393"
"20:41:0:759 (H:m:s:ms)","OPERA","156.275","0.2727429400694349","4240"
"21:31:18:787 (H:m:s:ms)","GENERIC","187.61599999999999","0.29122550919933476","28317"
"21:31:12:727 (H:m:s:ms)","GENERIC","187.459","0.28952387663280205","4274"
"21:32:1:212 (H:m:s:ms)","GENERIC","187.32999999999998","0.2866875475946217","1787"
"21:31:55:151 (H:m:s:ms)","GENERIC","188.02499999999998","0.28698215123575205","8884"
"21:31:49:90 (H:m:s:ms)","GENERIC","187.994","0.2899678156912672","8944"
"21:31:43:30 (H:m:s:ms)","GENERIC","188.442","0.29275969589637074","7005"
"21:31:36:969 (H:m:s:ms)","GENERIC","188.107","0.2932266177803838","10066"
"21:31:34:736 (H:m:s:ms)","AMBULANCE","187.39","0.2920513163225458","263"
"21:31:30:909 (H:m:s:ms)","GENERIC","187.103","0.29071500850698234","43234"
"21:31:24:848 (H:m:s:ms)","GENERIC","187.84699999999998","0.28871863850887364","3152"
"20:58:35:151 (H:m:s:ms)","GENERIC","186.852","0.2725908830971048","848"
"20:58:41:212 (H:m:s:ms)","GENERIC","187.343","0.27492704455558736","787"
"20:41:6:666 (H:m:s:ms)","GENERIC","186.941","0.26940982908342304","7369"
"20:58:47:272 (H:m:s:ms)","GENERIC","187.764","0.2754803023431391","3771"
"20:41:8:354 (H:m:s:ms)","OPERA","156.359","0.27177782301929715","645"
"20:58:53:333 (H:m:s:ms)","GENERIC","187.94","0.27893716640076616","2666"
"20:41:12:727 (H:m:s:ms)","GENERIC","186.591","0.26780366884116025","5273"
"20:58:59:393 (H:m:s:ms)","GENERIC","188.0","0.2786889547852706","647"
"20:41:15:949 (H:m:s:ms)","OPERA","156.785","0.27100400342546127","1050"
"20:59:5:454 (H:m:s:ms)","GENERIC","187.697","0.2769403435297208","545"
"20:41:18:787 (H:m:s:ms)","GENERIC","187.448","0.2670433324546374","6249"
"20:59:11:515 (H:m:s:ms)","GENERIC","187.928","0.27667702153186574","1485"
"20:41:23:544 (H:m:s:ms)","OPERA","156.675","0.2689985091722876","2455"
"20:59:17:575 (H:m:s:ms)","GENERIC","188.222","0.27512163514436955","424"
"21:31:6:666 (H:m:s:ms)","GENERIC","188.098","0.28897282971047716","11370"
"20:41:24:848 (H:m:s:ms)","GENERIC","188.102","0.27213047148074204","14187"
"20:59:23:636 (H:m:s:ms)","GENERIC","187.54","0.2736915266917965","363"
"20:41:30:909 (H:m:s:ms)","GENERIC","187.714","0.27161541221507285","2091"
"20:59:29:696 (H:m:s:ms)","GENERIC","188.063","0.2714433006678721","1345"
"20:41:31:139 (H:m:s:ms)","OPERA","157.10899999999998","0.2711794358362665","1861"
"20:41:36:969 (H:m:s:ms)","GENERIC","187.16500000000002","0.2738074870760402","6065"
"20:59:35:757 (H:m:s:ms)","GENERIC","188.244","0.2710863552795608","242"
"20:59:41:818 (H:m:s:ms)","GENERIC","187.728","0.273013541870535","181"
"20:41:38:734 (H:m:s:ms)","OPERA","156.68200000000002","0.27538461629308986","2300"
"20:59:47:878 (H:m:s:ms)","GENERIC","187.904","0.2718905999841582","3164"
"20:41:43:30 (H:m:s:ms)","GENERIC","187.985","0.27483686590281287","969"
"20:59:53:939 (H:m:s:ms)","GENERIC","188.04500000000002","0.27381034029211676","3061"
"20:41:46:329 (H:m:s:ms)","OPERA","157.095","0.2772295841634171","11706"
"21:0:0:0 (H:m:s:ms)","AMBULANCE","157.115","0.2742461484684502","4330"
"20:41:49:90 (H:m:s:ms)","GENERIC","188.315","0.2722827707289171","1945"
"21:0:0:0 (H:m:s:ms)","GENERIC","188.013","0.2735247518766126","2258"
"20:41:53:924 (H:m:s:ms)","OPERA","156.563","0.27179318294795574","1075"
"21:0:0:0 (H:m:s:ms)","GENERIC","186.776","0.2750976109078562","2258"
"20:41:55:151 (H:m:s:ms)","GENERIC","187.586","0.27568830914124","848"
"21:0:6:60 (H:m:s:ms)","GENERIC","188.53300000000002","0.27399603883373996","939"
"20:42:1:212 (H:m:s:ms)","GENERIC","187.55","0.2835148541742083","10824"
"21:0:12:121 (H:m:s:ms)","GENERIC","188.091","0.2743375856712487","1878"
"20:42:1:518 (H:m:s:ms)","OPERA","155.974","0.2843196220899917","13519"
"21:0:18:181 (H:m:s:ms)","GENERIC","187.59300000000002","0.26925350662223785","1859"
"20:42:7:272 (H:m:s:ms)","GENERIC","186.449","0.2807372950972242","1727"
"20:42:9:113 (H:m:s:ms)","OPERA","156.439","0.28666610988621427","10959"
"21:0:24:242 (H:m:s:ms)","GENERIC","187.541","0.27146322790979727","757"
"21:0:30:303 (H:m:s:ms)","GENERIC","187.871","0.27111474216018233","1696"
"20:42:13:333 (H:m:s:ms)","GENERIC","187.041","0.2913632839299194","19740"
"21:0:31:578 (H:m:s:ms)","AMBULANCE","156.87699999999998","0.2737203715089633","1421"
"20:42:16:708 (H:m:s:ms)","OPERA","156.838","0.28870837469544525","3327"
"21:0:36:363 (H:m:s:ms)","GENERIC","187.63","0.27125484841234065","636"
"20:20:0:0 (H:m:s:ms)","GENERIC","187.76","0.2543563787872587","2259"
"20:42:19:393 (H:m:s:ms)","GENERIC","187.81","0.2906944027492153","2642"
"21:0:42:424 (H:m:s:ms)","GENERIC","187.81400000000002","0.2722853122386091","1575"
"20:20:0:0 (H:m:s:ms)","GENERIC","187.111","0.2537627358494111","3322"
"20:42:24:303 (H:m:s:ms)","OPERA","156.946","0.29113416654311686","4697"
"21:0:48:484 (H:m:s:ms)","GENERIC","187.391","0.2723636223962858","1556"
"20:20:6:60 (H:m:s:ms)","GENERIC","187.836","0.25446205475697176","939"
"20:42:25:454 (H:m:s:ms)","GENERIC","187.711","0.28999552633479764","2545"
"21:0:54:545 (H:m:s:ms)","GENERIC","187.943","0.2713910864714537","455"
"20:20:12:121 (H:m:s:ms)","GENERIC","188.09300000000002","0.25198838335770424","3879"
"20:42:31:515 (H:m:s:ms)","GENERIC","188.222","0.2921142366577073","41636"
"21:1:0:606 (H:m:s:ms)","GENERIC","187.751","0.2730475265672406","4393"
"20:20:18:181 (H:m:s:ms)","GENERIC","187.219","0.2511773411660972","1853"
"20:42:31:898 (H:m:s:ms)","OPERA","156.662","0.29439468622414455","9139"
"21:1:3:157 (H:m:s:ms)","AMBULANCE","156.398","0.27141173833113624","842"
"20:20:24:242 (H:m:s:ms)","GENERIC","187.683","0.25142608883914286","757"
"20:42:37:575 (H:m:s:ms)","GENERIC","187.596","0.2946495294213033","424"
"21:1:6:666 (H:m:s:ms)","GENERIC","188.078","0.27657231021997764","3374"
"20:20:30:303 (H:m:s:ms)","GENERIC","187.05","0.25507829477636096","3696"
"20:42:43:636 (H:m:s:ms)","GENERIC","188.401","0.2931558116521963","363"
"20:20:36:363 (H:m:s:ms)","GENERIC","186.96300000000002","0.2569452637242897","1636"
"20:42:47:88 (H:m:s:ms)","OPERA","156.81300000000002","0.29403757547804454","7950"
"20:20:42:424 (H:m:s:ms)","GENERIC","187.207","0.25833739603162115","2575"
"20:20:48:484 (H:m:s:ms)","GENERIC","187.93","0.2599878345844809","515"
"21:1:12:727 (H:m:s:ms)","GENERIC","188.15699999999998","0.27872324466121917","2273"
"21:1:18:787 (H:m:s:ms)","GENERIC","187.90800000000002","0.2754530065738726","1274"
"20:42:49:696 (H:m:s:ms)","GENERIC","188.378","0.2940432916329155","1341"
"21:1:24:848 (H:m:s:ms)","GENERIC","188.014","0.2723750737044705","152"
"20:42:54:683 (H:m:s:ms)","OPERA","156.139","0.29366850495832","1317"
"21:1:30:909 (H:m:s:ms)","GENERIC","187.32299999999998","0.2712477685186319","1090"
"20:20:54:545 (H:m:s:ms)","GENERIC","187.746","0.26281252504176433","2454"
"20:42:55:757 (H:m:s:ms)","GENERIC","187.70499999999998","0.2903337340435881","9280"
"21:1:34:736 (H:m:s:ms)","AMBULANCE","156.543","0.27319479847020267","264"
"20:21:0:606 (H:m:s:ms)","GENERIC","187.661","0.26483860557269107","2393"
"20:43:1:818 (H:m:s:ms)","GENERIC","187.83499999999998","0.29200122392032646","2181"
"21:1:36:969 (H:m:s:ms)","GENERIC","187.718","0.27731659980011675","4071"
"20:21:6:666 (H:m:s:ms)","GENERIC","187.65800000000002","0.26743742174151347","333"
"20:43:7:878 (H:m:s:ms)","GENERIC","187.958","0.2897917215728494","10158"
"21:1:43:30 (H:m:s:ms)","GENERIC","187.947","0.2776069913305023","2970"
"20:21:12:727 (H:m:s:ms)","GENERIC","186.692","0.265169855026681","272"
"20:43:9:873 (H:m:s:ms)","OPERA","156.997","0.29148063610185704","9164"
"21:1:49:90 (H:m:s:ms)","GENERIC","187.72199999999998","0.27964386821578296","2949"
"20:21:18:787 (H:m:s:ms)","GENERIC","187.767","0.26718302332731353","1247"
"20:43:13:939 (H:m:s:ms)","GENERIC","188.647","0.2908454155595259","2060"
"21:1:55:151 (H:m:s:ms)","GENERIC","188.209","0.2784913591744666","1848"
"20:21:24:848 (H:m:s:ms)","GENERIC","187.945","0.2681753842846612","1152"
"20:43:17:468 (H:m:s:ms)","OPERA","155.965","0.29062568748538753","531"
"21:2:1:212 (H:m:s:ms)","GENERIC","188.28300000000002","0.2780904030179322","5787"
"20:21:30:909 (H:m:s:ms)","GENERIC","187.107","0.26856118220410147","1090"
"20:43:20:0 (H:m:s:ms)","GENERIC","187.256","0.2926886775559911","5036"
"20:21:36:969 (H:m:s:ms)","GENERIC","188.048","0.26927865697743275","1030"
"20:43:25:63 (H:m:s:ms)","OPERA","157.55700000000002","0.2931093095449433","936"
"20:21:43:30 (H:m:s:ms)","GENERIC","187.78","0.2695872181626536","4970"
"20:21:49:90 (H:m:s:ms)","GENERIC","187.044","0.27116552156778184","944"
"20:43:26:60 (H:m:s:ms)","GENERIC","188.453","0.2942376923368009","4976"
"20:43:32:121 (H:m:s:ms)","GENERIC","187.43200000000002","0.29160170066035457","1879"
"20:21:55:151 (H:m:s:ms)","GENERIC","188.77","0.2719032908442235","848"
"20:43:32:658 (H:m:s:ms)","OPERA","156.688","0.2928279295354358","1342"
"20:22:1:212 (H:m:s:ms)","GENERIC","187.66","0.27842826355246225","787"
"20:43:38:181 (H:m:s:ms)","GENERIC","188.313","0.2935859147349726","4878"
"20:22:7:272 (H:m:s:ms)","GENERIC","188.036","0.27441516083630896","3762"
"20:43:40:253 (H:m:s:ms)","OPERA","156.553","0.2937716204621711","1746"
"20:22:13:333 (H:m:s:ms)","GENERIC","187.858","0.2751921331563285","666"
"20:43:44:242 (H:m:s:ms)","GENERIC","187.24","0.28668718007606175","28871"
"20:22:19:393 (H:m:s:ms)","GENERIC","187.918","0.27465974679574157","4642"
"20:43:47:848 (H:m:s:ms)","OPERA","156.654","0.29060151380433086","151"
"20:22:25:454 (H:m:s:ms)","GENERIC","187.975","0.27610783018026724","545"
"20:43:50:303 (H:m:s:ms)","GENERIC","188.654","0.2877402679440219","4696"
"20:22:31:515 (H:m:s:ms)","GENERIC","187.543","0.27364241143238766","1484"
"20:43:55:443 (H:m:s:ms)","OPERA","156.748","0.28852915553651004","4594"
"20:22:37:575 (H:m:s:ms)","GENERIC","156.079","0.27679926758651097","1424"
"20:43:56:363 (H:m:s:ms)","GENERIC","188.09","0.2842973662467752","16713"
"20:22:43:636 (H:m:s:ms)","GENERIC","187.75","0.2752651658008188","363"
"20:22:49:696 (H:m:s:ms)","GENERIC","188.196","0.2758020110495764","338"
"20:44:2:424 (H:m:s:ms)","GENERIC","188.647","0.28680023450135117","13615"
"20:44:3:37 (H:m:s:ms)","OPERA","125.216","0.2859611740580135","16002"
"20:22:55:757 (H:m:s:ms)","GENERIC","188.577","0.2766069192453087","2242"
"20:44:8:484 (H:m:s:ms)","GENERIC","187.839","0.28664402992447047","1553"
"20:23:1:818 (H:m:s:ms)","GENERIC","187.119","0.2771069289258615","1181"
"20:44:10:632 (H:m:s:ms)","OPERA","156.913","0.2870820114574861","367"
"20:23:7:878 (H:m:s:ms)","GENERIC","187.49","0.27770567563265924","1121"
"20:44:14:545 (H:m:s:ms)","GENERIC","188.071","0.2876742391413535","2454"
"20:23:13:939 (H:m:s:ms)","GENERIC","187.296","0.2755816906198281","5061"
"20:44:18:227 (H:m:s:ms)","OPERA","156.441","0.28998295231020504","5810"
"20:23:20:0 (H:m:s:ms)","GENERIC","187.109","0.27700484056705843","2034"
"20:44:20:606 (H:m:s:ms)","GENERIC","187.567","0.2873556031389473","393"
"20:23:26:60 (H:m:s:ms)","GENERIC","188.341","0.27268091727530036","2939"
"20:44:25:822 (H:m:s:ms)","OPERA","156.324","0.2910798596979216","2177"
"20:23:32:121 (H:m:s:ms)","GENERIC","187.415","0.2754148745887955","878"
"20:44:26:666 (H:m:s:ms)","GENERIC","187.066","0.2907927203637066","2333"
"20:23:38:181 (H:m:s:ms)","GENERIC","187.768","0.2755743512954645","818"
"20:44:32:727 (H:m:s:ms)","GENERIC","188.039","0.2901294953559283","12310"
"20:23:44:242 (H:m:s:ms)","GENERIC","187.441","0.272171677795597","757"
"20:23:50:303 (H:m:s:ms)","GENERIC","188.16","0.27207715383111053","1697"
"20:44:33:417 (H:m:s:ms)","OPERA","156.385","0.2909692615407542","6620"
"20:44:38:787 (H:m:s:ms)","GENERIC","188.495","0.2936800872017142","12287"
"20:23:56:363 (H:m:s:ms)","GENERIC","188.307","0.2715937526114213","1636"
"20:44:41:12 (H:m:s:ms)","OPERA","156.38400000000001","0.2889566391792368","987"
"20:24:2:424 (H:m:s:ms)","GENERIC","188.28300000000002","0.27029040360870704","1575"
"20:44:44:848 (H:m:s:ms)","GENERIC","187.155","0.29169996893469363","1151"
"20:24:8:484 (H:m:s:ms)","GENERIC","187.67","0.270133027433689","1554"
"20:44:48:607 (H:m:s:ms)","OPERA","156.661","0.29296855486877693","392"
"20:24:14:545 (H:m:s:ms)","GENERIC","188.274","0.26865741522610825","455"
"20:44:50:909 (H:m:s:ms)","GENERIC","187.658","0.2941652066009461","1090"
"20:24:20:606 (H:m:s:ms)","GENERIC","187.61599999999999","0.27298403853744235","2393"
"20:44:56:202 (H:m:s:ms)","OPERA","157.288","0.29629335165827464","1797"
"20:24:26:666 (H:m:s:ms)","GENERIC","188.26","0.2685103570903539","4369"
"20:44:56:969 (H:m:s:ms)","GENERIC","188.38299999999998","0.28797598467229135","19133"
"20:24:32:727 (H:m:s:ms)","GENERIC","188.381","0.2696475384583412","272"
"20:45:3:30 (H:m:s:ms)","GENERIC","186.718","0.29047081411151204","1969"
"20:24:38:787 (H:m:s:ms)","GENERIC","187.767","0.27088769613778096","3249"
"20:45:3:797 (H:m:s:ms)","OPERA","157.196","0.29123723601878804","1202"
"20:24:44:848 (H:m:s:ms)","GENERIC","188.371","0.27070105891373847","151"
"20:24:50:909 (H:m:s:ms)","GENERIC","187.903","0.2691463566518133","1090"
"20:45:9:90 (H:m:s:ms)","GENERIC","188.39600000000002","0.28617910235915694","2948"
"20:45:11:392 (H:m:s:ms)","OPERA","157.115","0.28822591355798133","9646"
"20:24:56:969 (H:m:s:ms)","GENERIC","188.19","0.2586983603221979","15129"
"20:45:15:151 (H:m:s:ms)","GENERIC","187.96099999999998","0.2866692619440284","4886"
"20:25:3:30 (H:m:s:ms)","GENERIC","187.732","0.25961582620400336","1969"
"20:45:18:987 (H:m:s:ms)","OPERA","156.851","0.2853286238547153","7050"
"20:25:9:90 (H:m:s:ms)","GENERIC","188.163","0.2667477680505509","10980"
"20:45:21:212 (H:m:s:ms)","GENERIC","186.914","0.2847133314954503","3787"
"20:25:15:151 (H:m:s:ms)","GENERIC","187.515","0.2632051471464702","3849"
"20:45:26:582 (H:m:s:ms)","OPERA","156.753","0.2785627296003069","28534"
"20:25:21:212 (H:m:s:ms)","GENERIC","187.41500000000002","0.26612183343893386","10823"
"20:45:27:272 (H:m:s:ms)","GENERIC","187.19299999999998","0.282371968894444","1727"
"20:25:27:272 (H:m:s:ms)","GENERIC","187.828","0.2633382937786765","2763"
"20:45:33:333 (H:m:s:ms)","GENERIC","187.882","0.2829425082055163","2667"
"20:25:33:333 (H:m:s:ms)","GENERIC","187.514","0.26818879595012124","666"
"20:45:34:177 (H:m:s:ms)","OPERA","156.769","0.2796551821808283","1823"
"20:25:39:393 (H:m:s:ms)","GENERIC","187.46800000000002","0.26661341597315097","641"
"20:45:39:393 (H:m:s:ms)","GENERIC","187.35","0.27972715156511246","644"
"20:25:45:454 (H:m:s:ms)","GENERIC","187.821","0.2684245922305707","545"
"20:25:51:515 (H:m:s:ms)","GENERIC","187.12599999999998","0.270025217335673","484"
"20:25:57:575 (H:m:s:ms)","GENERIC","188.066","0.26642530441771045","424"
"20:26:3:636 (H:m:s:ms)","GENERIC","187.799","0.26624949963937933","363"
"20:26:9:696 (H:m:s:ms)","GENERIC","187.699","0.2664457814323095","1338"
"20:26:15:757 (H:m:s:ms)","GENERIC","187.494","0.2647531562209066","1242"
"20:26:21:818 (H:m:s:ms)","GENERIC","187.66","0.26413402704962824","4181"
"20:26:27:878 (H:m:s:ms)","GENERIC","188.086","0.26610631315853545","3156"
"20:26:33:939 (H:m:s:ms)","GENERIC","188.335","0.26549433866901123","10096"
"20:26:40:0 (H:m:s:ms)","GENERIC","187.86700000000002","0.2639279844255315","1034"
"20:26:46:60 (H:m:s:ms)","GENERIC","187.749","0.2658827275386098","939"
"20:26:52:121 (H:m:s:ms)","GENERIC","187.628","0.2687359471287977","878"
"20:26:58:181 (H:m:s:ms)","GENERIC","187.79000000000002","0.26981204344888265","2854"
"20:27:4:242 (H:m:s:ms)","GENERIC","187.04399999999998","0.27153345358508685","757"
"20:27:10:303 (H:m:s:ms)","GENERIC","187.629","0.2731095611219414","696"
"20:27:16:363 (H:m:s:ms)","GENERIC","188.549","0.27195627167114933","636"
"20:27:22:424 (H:m:s:ms)","GENERIC","188.001","0.2694314680991933","5577"
"20:27:28:484 (H:m:s:ms)","GENERIC","188.11599999999999","0.2720346148449253","2550"
"20:27:34:545 (H:m:s:ms)","GENERIC","187.659","0.268523919720477","5489"
"20:27:40:606 (H:m:s:ms)","GENERIC","188.424","0.2686298236120877","393"
"20:27:46:666 (H:m:s:ms)","GENERIC","187.994","0.26780523120553934","5368"
"20:27:52:727 (H:m:s:ms)","GENERIC","187.772","0.2678770237323176","1272"
"20:27:58:787 (H:m:s:ms)","GENERIC","188.696","0.2666240949280211","212"
"20:28:4:848 (H:m:s:ms)","GENERIC","188.078","0.26434618948595195","152"
"20:28:10:909 (H:m:s:ms)","GENERIC","187.106","0.26437547918734156","2090"
"20:28:16:969 (H:m:s:ms)","GENERIC","187.963","0.2654195085833082","2030"
"20:28:23:30 (H:m:s:ms)","GENERIC","187.31799999999998","0.2666560405269654","1969"
"20:28:29:90 (H:m:s:ms)","GENERIC","187.952","0.26665245646029767","943"
"20:28:35:151 (H:m:s:ms)","GENERIC","187.61700000000002","0.2655018673663461","1848"
"20:28:41:212 (H:m:s:ms)","GENERIC","188.079","0.2630787511043851","787"
"20:28:47:272 (H:m:s:ms)","GENERIC","187.86599999999999","0.2638197908821456","1727"
"20:28:53:333 (H:m:s:ms)","GENERIC","187.995","0.26220155887768043","666"
"20:28:59:393 (H:m:s:ms)","GENERIC","188.079","0.26144419699870486","640"
"20:29:5:454 (H:m:s:ms)","GENERIC","188.173","0.25696960487752146","545"
"20:29:11:515 (H:m:s:ms)","GENERIC","187.912","0.2588473418058186","5485"
"20:29:17:575 (H:m:s:ms)","GENERIC","187.13400000000001","0.25613449461723525","7460"
"20:29:23:636 (H:m:s:ms)","GENERIC","187.659","0.2539029084406545","20435"
"20:29:29:696 (H:m:s:ms)","GENERIC","188.087","0.2575955797213186","338"
"20:29:35:757 (H:m:s:ms)","GENERIC","187.437","0.2542076178468088","2243"
"20:29:41:818 (H:m:s:ms)","GENERIC","187.696","0.25152705437391865","1181"
"20:29:47:878 (H:m:s:ms)","GENERIC","186.527","0.25778355948292164","4154"
"20:29:53:939 (H:m:s:ms)","GENERIC","187.515","0.2585265930355995","1061"
"21:20:15:189 (H:m:s:ms)","OPERA","157.453","0.26218750027711196","810"
"21:20:18:181 (H:m:s:ms)","GENERIC","187.233","0.25742564787621586","12889"
"21:20:22:784 (H:m:s:ms)","OPERA","187.187","0.2623539638177502","215"
"21:20:24:242 (H:m:s:ms)","GENERIC","187.846","0.2584233821609166","3757"
"21:20:30:303 (H:m:s:ms)","GENERIC","187.657","0.2595152979729345","1696"
"21:20:30:379 (H:m:s:ms)","OPERA","156.687","0.2633535595283658","1620"
"21:20:36:363 (H:m:s:ms)","GENERIC","187.13299999999998","0.2630495749524403","636"
"21:20:37:974 (H:m:s:ms)","OPERA","156.563","0.26533101043370505","2061"
"21:20:42:424 (H:m:s:ms)","GENERIC","187.882","0.2665321565793298","575"
"21:20:45:569 (H:m:s:ms)","OPERA","156.06400000000002","0.26526330154112926","2430"
"21:20:48:484 (H:m:s:ms)","GENERIC","187.78","0.2664681571429557","1549"
"21:20:53:164 (H:m:s:ms)","OPERA","156.726","0.2660490922973071","1835"
"21:20:54:545 (H:m:s:ms)","GENERIC","188.197","0.2695611247286966","1455"
"21:21:0:606 (H:m:s:ms)","GENERIC","187.566","0.2704372541424656","6394"
"21:21:0:759 (H:m:s:ms)","OPERA","187.886","0.26806663973612865","1240"
"21:21:6:666 (H:m:s:ms)","GENERIC","186.971","0.274262731010799","3369"
"21:21:8:354 (H:m:s:ms)","OPERA","156.497","0.27310941238829334","645"
"21:21:12:727 (H:m:s:ms)","GENERIC","187.268","0.27331822917094317","1272"
"21:21:15:949 (H:m:s:ms)","OPERA","155.912","0.2735733682335152","7102"
"21:21:18:787 (H:m:s:ms)","GENERIC","188.659","0.2717276789455212","212"
"21:32:55:757 (H:m:s:ms)","GENERIC","188.047","0.2988352951214838","242"
"21:32:37:894 (H:m:s:ms)","AMBULANCE","187.975","0.29829358811318324","6141"
"21:32:37:575 (H:m:s:ms)","GENERIC","187.825","0.29736252048004164","424"
"21:32:31:515 (H:m:s:ms)","GENERIC","187.892","0.29600150194613917","24560"
"21:32:25:454 (H:m:s:ms)","GENERIC","187.612","0.29410452763404904","7581"
"21:32:19:393 (H:m:s:ms)","GENERIC","188.053","0.2964234928663103","14678"
"21:32:13:333 (H:m:s:ms)","GENERIC","187.98399999999998","0.2920142994515098","2667"
"21:32:7:272 (H:m:s:ms)","GENERIC","188.112","0.2885576490663988","3763"
"21:21:23:544 (H:m:s:ms)","OPERA","156.49699999999999","0.27540092871983046","455"
"21:32:6:315 (H:m:s:ms)","AMBULANCE","187.978","0.2904093271385384","5720"
"21:21:24:848 (H:m:s:ms)","GENERIC","188.167","0.27677988127836506","2152"
"21:21:30:909 (H:m:s:ms)","GENERIC","187.055","0.27824810105692926","9123"
"21:21:31:139 (H:m:s:ms)","OPERA","156.917","0.2793879973976299","1860"
"21:21:36:969 (H:m:s:ms)","GENERIC","187.74099999999999","0.2792155724627737","3062"
"21:21:38:734 (H:m:s:ms)","OPERA","156.91","0.27789713458137827","265"
"21:21:43:30 (H:m:s:ms)","GENERIC","188.262","0.27696374764754317","12005"
"21:21:46:329 (H:m:s:ms)","OPERA","187.52","0.2782331744760547","2670"
"21:32:49:696 (H:m:s:ms)","GENERIC","187.644","0.29634933265596725","1340"
"21:21:49:90 (H:m:s:ms)","GENERIC","187.218","0.27669065606136767","12978"
"21:32:43:636 (H:m:s:ms)","GENERIC","188.308","0.2958297729766565","363"
"21:21:53:924 (H:m:s:ms)","OPERA","187.631","0.27707062277089156","1076"
"21:33:56:363 (H:m:s:ms)","GENERIC","188.208","0.2817582179615317","636"
"21:33:50:303 (H:m:s:ms)","GENERIC","188.277","0.2809865682066807","2696"
"21:33:38:181 (H:m:s:ms)","GENERIC","188.07999999999998","0.2845674778156649","818"
"21:33:32:121 (H:m:s:ms)","GENERIC","187.95100000000002","0.2863131460762386","878"
"21:33:26:60 (H:m:s:ms)","GENERIC","187.417","0.28754596539050997","1939"
"21:33:20:0 (H:m:s:ms)","GENERIC","188.148","0.2907345295055295","1032"
"21:33:13:939 (H:m:s:ms)","GENERIC","186.795","0.29280870462990344","2061"
"21:33:9:473 (H:m:s:ms)","AMBULANCE","187.262","0.2921141004133718","1560"
"21:21:55:151 (H:m:s:ms)","GENERIC","188.313","0.2763302751163682","3848"
"21:33:7:878 (H:m:s:ms)","GENERIC","187.19","0.29245561407037557","5155"
"21:22:1:212 (H:m:s:ms)","GENERIC","187.444","0.27929596321531347","787"
"21:33:1:818 (H:m:s:ms)","GENERIC","187.54","0.28483942706283794","32283"
"21:22:1:518 (H:m:s:ms)","OPERA","156.538","0.2799375968949211","16517"
"21:22:7:272 (H:m:s:ms)","GENERIC","187.458","0.28095988751373574","5762"
"21:22:9:113 (H:m:s:ms)","OPERA","156.95999999999998","0.27949136676322067","1921"
"21:22:13:333 (H:m:s:ms)","GENERIC","187.647","0.28168999935378153","666"
"21:22:16:708 (H:m:s:ms)","OPERA","156.268","0.27808893374204813","2291"
"21:22:19:393 (H:m:s:ms)","GENERIC","188.01600000000002","0.2777654006275832","4640"
"21:22:24:303 (H:m:s:ms)","OPERA","156.37","0.2796281248812542","2697"
"21:22:25:454 (H:m:s:ms)","GENERIC","187.633","0.2794420903100634","545"
"21:33:44:242 (H:m:s:ms)","GENERIC","187.864","0.2809123534535092","7793"
"21:34:50:909 (H:m:s:ms)","GENERIC","187.678","0.2797966597511977","4091"
"21:34:44:848 (H:m:s:ms)","GENERIC","187.812","0.2783059189050598","2151"
"21:34:44:210 (H:m:s:ms)","AMBULANCE","187.909","0.2775527382174732","1789"
"21:34:38:787 (H:m:s:ms)","GENERIC","188.358","0.2786565404967138","11281"
"21:34:32:727 (H:m:s:ms)","GENERIC","187.08100000000002","0.27876593864407423","272"
"21:34:26:666 (H:m:s:ms)","GENERIC","187.91899999999998","0.2749855660961546","16403"
"21:34:20:606 (H:m:s:ms)","GENERIC","187.71","0.2778577988189915","1393"
"21:34:14:545 (H:m:s:ms)","GENERIC","187.905","0.2768262085763173","1455"
"21:22:31:515 (H:m:s:ms)","GENERIC","187.551","0.276812292825188","484"
"21:34:12:631 (H:m:s:ms)","AMBULANCE","188.18599999999998","0.2771077088359626","6369"
"21:22:31:898 (H:m:s:ms)","OPERA","156.685","0.27938909923257427","3102"
"21:34:8:484 (H:m:s:ms)","GENERIC","188.965","0.27841741503251005","1549"
"21:2:6:315 (H:m:s:ms)","AMBULANCE","156.918","0.27926959286310626","684"
"21:22:37:575 (H:m:s:ms)","GENERIC","187.546","0.28187342467887266","2457"
"21:34:2:424 (H:m:s:ms)","GENERIC","187.93099999999998","0.27807638538457924","575"
"21:2:7:272 (H:m:s:ms)","GENERIC","187.853","0.28006850102676306","727"
"21:22:39:493 (H:m:s:ms)","OPERA","156.505","0.2806357014226102","539"
"21:2:13:333 (H:m:s:ms)","GENERIC","188.175","0.2803051750750934","666"
"21:22:43:636 (H:m:s:ms)","GENERIC","187.934","0.2784227976344345","1363"
"21:2:19:393 (H:m:s:ms)","GENERIC","187.28","0.27936348610778655","1647"
"21:22:47:88 (H:m:s:ms)","OPERA","187.716","0.2784061895161585","8946"
"21:2:25:454 (H:m:s:ms)","GENERIC","188.098","0.27740048747544194","1545"
"21:22:49:696 (H:m:s:ms)","GENERIC","188.172","0.27956144260423527","337"
"21:2:31:515 (H:m:s:ms)","GENERIC","187.48","0.27702030991793397","1484"
"21:22:54:683 (H:m:s:ms)","OPERA","187.435","0.27648645154654583","317"
"21:2:37:575 (H:m:s:ms)","GENERIC","187.668","0.2778239772671519","6466"
"21:22:55:757 (H:m:s:ms)","GENERIC","187.302","0.2708463853821362","119663"
"21:2:37:894 (H:m:s:ms)","AMBULANCE","156.482","0.27420404387394015","1105"
"21:23:1:818 (H:m:s:ms)","GENERIC","187.313","0.27653794358420075","1181"
"21:2:43:636 (H:m:s:ms)","GENERIC","188.24599999999998","0.2776044557287874","1364"
"21:2:49:696 (H:m:s:ms)","GENERIC","188.411","0.27833732993047466","2344"
"21:35:47:368 (H:m:s:ms)","AMBULANCE","187.21","0.27832029886466714","2666"
"21:35:45:454 (H:m:s:ms)","GENERIC","187.188","0.27935075274245513","6580"
"21:35:39:393 (H:m:s:ms)","GENERIC","187.73","0.27655764548228007","3641"
"21:35:33:333 (H:m:s:ms)","GENERIC","188.317","0.27649255548479684","3666"
"21:35:27:272 (H:m:s:ms)","GENERIC","187.82399999999998","0.2809363978473976","4762"
"21:35:21:212 (H:m:s:ms)","GENERIC","187.723","0.28159247246471386","2787"
"21:35:15:789 (H:m:s:ms)","AMBULANCE","155.949","0.28496018275020507","2211"
"21:23:2:278 (H:m:s:ms)","OPERA","157.25400000000002","0.2757466988691293","12757"
"21:35:15:151 (H:m:s:ms)","GENERIC","187.39499999999998","0.2855122813004474","1848"
"21:23:7:878 (H:m:s:ms)","GENERIC","187.90699999999998","0.27627790219415144","11156"
"21:35:9:90 (H:m:s:ms)","GENERIC","187.602","0.28299311181575765","1944"
"21:2:55:757 (H:m:s:ms)","GENERIC","187.732","0.27529735044793435","242"
"21:23:9:873 (H:m:s:ms)","OPERA","157.046","0.27780486486590883","2161"
"21:35:3:30 (H:m:s:ms)","GENERIC","188.51999999999998","0.2852633138553384","969"
"21:3:1:818 (H:m:s:ms)","GENERIC","187.419","0.2787555135194979","2181"
"21:23:13:939 (H:m:s:ms)","GENERIC","188.037","0.2752696677055897","5060"
"21:34:56:969 (H:m:s:ms)","GENERIC","187.817","0.2816711568447263","2031"
"21:3:7:878 (H:m:s:ms)","GENERIC","187.76","0.2793203779689911","1121"
"21:23:17:468 (H:m:s:ms)","OPERA","155.975","0.2784544240703276","7567"
"21:3:9:473 (H:m:s:ms)","AMBULANCE","157.232","0.2787676382906297","1565"
"21:23:20:0 (H:m:s:ms)","GENERIC","188.071","0.277299877404675","1034"
"21:3:13:939 (H:m:s:ms)","GENERIC","188.144","0.27443569747504354","18141"
"21:23:25:63 (H:m:s:ms)","OPERA","187.863","0.2800359480295339","2936"
"21:3:20:0 (H:m:s:ms)","GENERIC","188.1","0.2725552718006179","1040"
"21:23:26:60 (H:m:s:ms)","GENERIC","187.698","0.27775331466595005","10974"
"21:3:26:60 (H:m:s:ms)","GENERIC","187.546","0.27319587904075954","939"
"21:23:32:121 (H:m:s:ms)","GENERIC","189.04500000000002","0.2794962541217262","3879"
"21:3:32:121 (H:m:s:ms)","GENERIC","188.696","0.2785601541419465","878"
"21:23:32:658 (H:m:s:ms)","OPERA","187.399","0.2756953245152717","16378"
"21:3:38:181 (H:m:s:ms)","GENERIC","187.588","0.279218849986262","1858"
"21:3:41:52 (H:m:s:ms)","AMBULANCE","156.627","0.27852364607150204","947"
"21:36:46:60 (H:m:s:ms)","GENERIC","188.148","0.28084861342306533","1939"
"21:36:40:0 (H:m:s:ms)","GENERIC","187.304","0.2815723565167799","2035"
"21:36:33:939 (H:m:s:ms)","GENERIC","187.745","0.28016695472078845","2060"
"21:36:27:878 (H:m:s:ms)","GENERIC","187.051","0.28198565343202536","8158"
"21:36:21:818 (H:m:s:ms)","GENERIC","188.226","0.2804788329529375","181"
"21:36:18:947 (H:m:s:ms)","AMBULANCE","187.571","0.2786379919152024","1088"
"21:23:38:181 (H:m:s:ms)","GENERIC","188.10399999999998","0.271774770199427","27923"
"21:36:15:757 (H:m:s:ms)","GENERIC","187.28","0.276881511082025","242"
"21:23:40:253 (H:m:s:ms)","OPERA","187.757","0.2762134933065017","2747"
"21:36:9:696 (H:m:s:ms)","GENERIC","187.564","0.27881623910017367","338"
"21:3:44:242 (H:m:s:ms)","GENERIC","187.056","0.2778221077533378","6796"
"21:23:44:242 (H:m:s:ms)","GENERIC","188.288","0.27839762000830387","1758"
"21:36:3:636 (H:m:s:ms)","GENERIC","188.9","0.2798629662903402","1364"
"21:3:50:303 (H:m:s:ms)","GENERIC","188.25099999999998","0.27922726963975625","696"
"21:23:47:848 (H:m:s:ms)","OPERA","188.369","0.2783407266342333","151"
"21:35:57:575 (H:m:s:ms)","GENERIC","188.221","0.27908244220695655","3459"
"21:3:56:363 (H:m:s:ms)","GENERIC","187.816","0.2733241217865248","11675"
"21:23:50:303 (H:m:s:ms)","GENERIC","187.894","0.2730623198494146","1697"
"21:35:51:515 (H:m:s:ms)","GENERIC","187.263","0.2799473292168638","484"
"21:4:2:424 (H:m:s:ms)","GENERIC","187.932","0.2759367552834425","1575"
"21:23:55:443 (H:m:s:ms)","OPERA","156.35399999999998","0.273152424093595","556"
"21:4:8:484 (H:m:s:ms)","GENERIC","187.522","0.27352576402464696","515"
"21:23:56:363 (H:m:s:ms)","GENERIC","186.999","0.27136546138564954","8671"
"21:4:12:631 (H:m:s:ms)","AMBULANCE","156.48499999999999","0.27476648787139124","368"
"21:24:2:424 (H:m:s:ms)","GENERIC","187.51","0.27592565095853555","105962"
"21:4:14:545 (H:m:s:ms)","GENERIC","188.1","0.2721148848176755","454"
"21:24:3:37 (H:m:s:ms)","OPERA","188.19299999999998","0.2733771737170039","962"
"21:4:20:606 (H:m:s:ms)","GENERIC","187.534","0.2709806778890252","1393"
"21:24:8:484 (H:m:s:ms)","GENERIC","187.668","0.27618701132128415","2550"
"21:4:26:666 (H:m:s:ms)","GENERIC","187.737","0.2683924179801421","333"
"21:4:32:727 (H:m:s:ms)","GENERIC","187.392","0.2712559908824482","4273"
"21:37:40:606 (H:m:s:ms)","GENERIC","187.772","0.2771851445241784","3393"
"21:37:34:545 (H:m:s:ms)","GENERIC","187.448","0.2772015437618299","3454"
"21:37:28:484 (H:m:s:ms)","GENERIC","188.163","0.2768505073333293","515"
"21:37:22:424 (H:m:s:ms)","GENERIC","188.267","0.2769247308975233","1575"
"21:37:22:105 (H:m:s:ms)","AMBULANCE","188.086","0.27890255351611615","10929"
"21:37:16:363 (H:m:s:ms)","GENERIC","188.04000000000002","0.27574922482619707","7672"
"21:24:10:632 (H:m:s:ms)","OPERA","187.002","0.27132230714481365","46507"
"21:24:14:545 (H:m:s:ms)","GENERIC","187.512","0.27882609480197995","19524"
"21:37:10:303 (H:m:s:ms)","GENERIC","188.002","0.2803603878388988","696"
"21:4:38:787 (H:m:s:ms)","GENERIC","187.451","0.2721557761522162","4251"
"21:24:18:227 (H:m:s:ms)","OPERA","157.098","0.27793549353792074","15841"
"21:37:4:242 (H:m:s:ms)","GENERIC","187.74200000000002","0.2807163407593839","2758"
"21:4:44:210 (H:m:s:ms)","AMBULANCE","156.863","0.27221230348762177","789"
"21:24:20:606 (H:m:s:ms)","GENERIC","188.489","0.27783954936112565","6394"
"21:36:58:181 (H:m:s:ms)","GENERIC","188.11","0.2786679021912221","818"
"21:4:44:848 (H:m:s:ms)","GENERIC","188.014","0.2763209005609404","151"
"21:24:25:822 (H:m:s:ms)","OPERA","186.84799999999998","0.2792718148860485","5212"
"21:36:52:121 (H:m:s:ms)","GENERIC","187.411","0.2804997044641612","2878"
"21:4:50:909 (H:m:s:ms)","GENERIC","187.42000000000002","0.2790822355934131","2091"
"21:24:26:666 (H:m:s:ms)","GENERIC","188.17","0.2798203311668494","3368"
"21:36:50:526 (H:m:s:ms)","AMBULANCE","187.957","0.2798569440108107","4474"
"21:4:56:969 (H:m:s:ms)","GENERIC","187.305","0.2748767495146634","2031"
"21:24:32:727 (H:m:s:ms)","GENERIC","187.052","0.27310967893902016","26343"
"21:5:3:30 (H:m:s:ms)","GENERIC","187.563","0.27258647265513153","1970"
"21:24:33:417 (H:m:s:ms)","OPERA","187.36","0.27556053997067503","2583"
"21:5:9:90 (H:m:s:ms)","GENERIC","187.1","0.27052540099703865","2947"
"21:24:38:787 (H:m:s:ms)","GENERIC","187.79","0.27338680045399116","212"
"21:5:15:151 (H:m:s:ms)","GENERIC","187.49599999999998","0.27140443010822835","848"
"21:24:41:12 (H:m:s:ms)","OPERA","156.96699999999998","0.2732830286860444","6988"
"21:5:15:789 (H:m:s:ms)","AMBULANCE","156.653","0.2717654471876498","1210"
"21:5:21:212 (H:m:s:ms)","GENERIC","188.29399999999998","0.2737001533592273","787"
"21:38:41:212 (H:m:s:ms)","GENERIC","187.849","0.2799314933416758","3787"
"21:38:35:151 (H:m:s:ms)","GENERIC","187.898","0.2772906065765253","4884"
"21:38:29:90 (H:m:s:ms)","GENERIC","187.503","0.27779359786903457","1945"
"21:38:23:30 (H:m:s:ms)","GENERIC","187.291","0.27859694301373794","969"
"21:38:16:969 (H:m:s:ms)","GENERIC","156.484","0.2755354656765684","4065"
"21:38:10:909 (H:m:s:ms)","GENERIC","187.525","0.27312221040232365","3090"
"21:38:4:848 (H:m:s:ms)","GENERIC","187.74900000000002","0.2756810269722601","1151"
"21:24:44:848 (H:m:s:ms)","GENERIC","187.183","0.274902960049147","1151"
"21:24:48:607 (H:m:s:ms)","OPERA","188.218","0.26993473049433164","3427"
"21:5:27:272 (H:m:s:ms)","GENERIC","187.441","0.2711863197869976","1727"
"21:24:50:909 (H:m:s:ms)","GENERIC","187.135","0.2699464092270712","2091"
"21:5:33:333 (H:m:s:ms)","GENERIC","187.475","0.267101604896321","666"
"21:24:56:202 (H:m:s:ms)","OPERA","187.724","0.2721361302271486","4857"
"21:37:58:787 (H:m:s:ms)","GENERIC","187.553","0.27465090299444267","3249"
"20:45:41:772 (H:m:s:ms)","OPERA","156.842","0.2796854340958118","21306"
"21:5:39:393 (H:m:s:ms)","GENERIC","188.209","0.26642833967694085","644"
"21:24:56:969 (H:m:s:ms)","GENERIC","156.106","0.2717923529166982","7090"
"21:37:53:684 (H:m:s:ms)","AMBULANCE","188.42399999999998","0.27527414596118593","4315"
"20:45:45:454 (H:m:s:ms)","GENERIC","187.475","0.2795427265367852","11585"
"21:5:45:454 (H:m:s:ms)","GENERIC","187.821","0.26662372921981387","6587"
"21:25:3:30 (H:m:s:ms)","GENERIC","187.24099999999999","0.27227962633155484","2970"
"21:37:52:727 (H:m:s:ms)","GENERIC","187.898","0.272852195613471","4272"
"20:45:49:367 (H:m:s:ms)","OPERA","157.147","0.2773218049603396","6671"
"21:5:47:368 (H:m:s:ms)","AMBULANCE","156.215","0.2648872886966144","631"
"21:25:3:797 (H:m:s:ms)","OPERA","187.863","0.27257731025499016","1203"
"21:37:46:666 (H:m:s:ms)","GENERIC","187.711","0.27645208406207583","3369"
"20:45:51:515 (H:m:s:ms)","GENERIC","187.764","0.2773111418092793","4485"
"21:5:51:515 (H:m:s:ms)","GENERIC","188.004","0.2668064384849166","2485"
"21:25:9:90 (H:m:s:ms)","GENERIC","187.863","0.2768327899142966","4943"
"20:45:56:962 (H:m:s:ms)","OPERA","157.161","0.2775785955907862","1037"
"21:5:57:575 (H:m:s:ms)","GENERIC","187.945","0.26957163732205497","424"
"21:25:11:392 (H:m:s:ms)","OPERA","156.64","0.27573468148135594","8650"
"20:45:57:575 (H:m:s:ms)","GENERIC","187.561","0.28179669908747246","58661"
"21:6:3:636 (H:m:s:ms)","GENERIC","188.442","0.2697505344604824","363"
"21:25:15:151 (H:m:s:ms)","GENERIC","188.187","0.2759885882217948","3848"
"20:46:3:636 (H:m:s:ms)","GENERIC","188.385","0.2783383445191256","363"
"21:6:9:696 (H:m:s:ms)","GENERIC","187.459","0.2678128279366517","1342"
"20:46:4:556 (H:m:s:ms)","OPERA","156.3","0.28008761513451846","2443"
"21:6:15:757 (H:m:s:ms)","GENERIC","186.96699999999998","0.267541875817099","242"
"20:46:9:696 (H:m:s:ms)","GENERIC","187.348","0.2816380487705608","341"
"20:46:12:151 (H:m:s:ms)","OPERA","156.187","0.2790630200225363","6849"
"21:39:35:757 (H:m:s:ms)","GENERIC","187.462","0.2818817632188137","1243"
"21:39:29:696 (H:m:s:ms)","GENERIC","187.237","0.2806584726226475","337"
"21:39:28:421 (H:m:s:ms)","AMBULANCE","188.05200000000002","0.27971045941378203","1612"
"21:39:23:636 (H:m:s:ms)","GENERIC","188.288","0.277421394869893","1364"
"21:39:17:575 (H:m:s:ms)","GENERIC","187.508","0.27925668660150005","9461"
"21:39:11:515 (H:m:s:ms)","GENERIC","188.045","0.2774917877388245","1484"
"21:39:5:454 (H:m:s:ms)","GENERIC","188.187","0.27577847237251396","6581"
"21:38:59:393 (H:m:s:ms)","GENERIC","187.853","0.2754158105431547","2642"
"21:25:18:987 (H:m:s:ms)","OPERA","187.885","0.272871822024884","6055"
"21:25:21:212 (H:m:s:ms)","GENERIC","187.471","0.27251245757994874","787"
"21:6:18:947 (H:m:s:ms)","AMBULANCE","157.30700000000002","0.2689297781682936","5091"
"21:25:26:582 (H:m:s:ms)","OPERA","156.09300000000002","0.27612663844852414","12452"
"21:6:21:818 (H:m:s:ms)","GENERIC","187.673","0.2667020309097987","181"
"21:25:27:272 (H:m:s:ms)","GENERIC","188.124","0.2724374835645429","3761"
"20:46:15:757 (H:m:s:ms)","GENERIC","188.07999999999998","0.2755866065862002","8281"
"21:6:27:878 (H:m:s:ms)","GENERIC","187.265","0.2677701921253854","2158"
"21:25:33:333 (H:m:s:ms)","GENERIC","188.04000000000002","0.2761053696598574","14703"
"20:46:19:746 (H:m:s:ms)","OPERA","156.363","0.2786040624297653","291"
"21:6:33:939 (H:m:s:ms)","GENERIC","187.731","0.2677952100218594","6098"
"21:25:34:177 (H:m:s:ms)","OPERA","156.375","0.2751601160807005","2823"
"21:38:56:842 (H:m:s:ms)","AMBULANCE","188.12599999999998","0.27362010347155313","157"
"20:46:21:818 (H:m:s:ms)","GENERIC","187.437","0.27738609659509256","1181"
"21:6:40:0 (H:m:s:ms)","GENERIC","187.68099999999998","0.26489852318091484","6039"
"21:25:39:393 (H:m:s:ms)","GENERIC","187.857","0.274633313237625","1641"
"21:38:53:333 (H:m:s:ms)","GENERIC","187.619","0.2738021896536658","3667"
"20:46:27:341 (H:m:s:ms)","OPERA","156.405","0.27644221663876795","2697"
"21:6:46:60 (H:m:s:ms)","GENERIC","188.474","0.2661361389159353","2939"
"21:25:41:772 (H:m:s:ms)","OPERA","188.428","0.2753797345011253","2227"
"21:38:47:272 (H:m:s:ms)","GENERIC","187.167","0.2740369045058929","11764"
"20:46:27:878 (H:m:s:ms)","GENERIC","187.84699999999998","0.28035883450599136","4161"
"21:6:50:526 (H:m:s:ms)","AMBULANCE","156.44299999999998","0.26995116397494145","6474"
"21:25:45:454 (H:m:s:ms)","GENERIC","187.715","0.2780125966627422","7581"
"20:46:33:939 (H:m:s:ms)","GENERIC","187.948","0.281210872650626","2060"
"21:6:52:121 (H:m:s:ms)","GENERIC","187.686","0.2658872661889302","2878"
"21:25:49:367 (H:m:s:ms)","OPERA","187.893","0.2813857286954588","23737"
"20:46:34:936 (H:m:s:ms)","OPERA","156.653","0.2806150275988384","4063"
"21:6:58:181 (H:m:s:ms)","GENERIC","188.227","0.2704921059767361","818"
"20:46:40:0 (H:m:s:ms)","GENERIC","187.132","0.2834865035648783","5040"
"21:7:4:242 (H:m:s:ms)","GENERIC","187.402","0.27048283360924225","4758"
"20:46:42:531 (H:m:s:ms)","OPERA","157.28","0.28379693947008733","17548"
"20:46:46:60 (H:m:s:ms)","GENERIC","188.3","0.2829736590312862","1939"
"21:39:53:939 (H:m:s:ms)","GENERIC","188.035","0.2735837564692703","4061"
"21:40:36:363 (H:m:s:ms)","GENERIC","187.467","0.27084697455176915","2636"
"21:40:30:303 (H:m:s:ms)","GENERIC","187.204","0.272256041186802","3696"
"21:40:24:242 (H:m:s:ms)","GENERIC","187.358","0.2754554416038906","2757"
"21:40:18:181 (H:m:s:ms)","GENERIC","187.858","0.2750297298757105","3852"
"21:40:12:121 (H:m:s:ms)","GENERIC","187.628","0.2771889298830239","878"
"21:40:6:60 (H:m:s:ms)","GENERIC","187.796","0.27740751832703786","1939"
"21:40:0:0 (H:m:s:ms)","GENERIC","187.644","0.2752886461887988","9333"
"21:40:0:0 (H:m:s:ms)","GENERIC","188.392","0.27388688967721103","3325"
"21:7:10:303 (H:m:s:ms)","GENERIC","155.721","0.27017435395454586","696"
"21:7:16:363 (H:m:s:ms)","GENERIC","186.966","0.2719339374810542","1636"
"20:46:50:126 (H:m:s:ms)","OPERA","156.734","0.2809030329250011","3874"
"21:7:22:105 (H:m:s:ms)","AMBULANCE","156.565","0.27545736090943007","1894"
"20:46:52:121 (H:m:s:ms)","GENERIC","187.93900000000002","0.28240056808529884","3879"
"21:7:22:424 (H:m:s:ms)","GENERIC","187.224","0.27676902931514","4575"
"20:46:57:721 (H:m:s:ms)","OPERA","157.445","0.2830702995726436","278"
"21:7:28:484 (H:m:s:ms)","GENERIC","187.843","0.27735745832084746","2553"
"20:46:58:181 (H:m:s:ms)","GENERIC","187.788","0.2828362615375759","2857"
"21:7:34:545 (H:m:s:ms)","GENERIC","188.07299999999998","0.27862291465260863","1454"
"21:39:47:878 (H:m:s:ms)","GENERIC","188.86","0.2766588128580409","5162"
"20:47:4:242 (H:m:s:ms)","GENERIC","188.155","0.28491136262082123","758"
"21:7:40:606 (H:m:s:ms)","GENERIC","187.957","0.2774682086874414","393"
"21:39:41:818 (H:m:s:ms)","GENERIC","187.096","0.2758358054345209","6182"
"20:47:10:303 (H:m:s:ms)","GENERIC","187.091","0.2860132853821225","4697"
"21:7:46:666 (H:m:s:ms)","GENERIC","187.435","0.2730636271190869","5370"
"20:47:12:911 (H:m:s:ms)","OPERA","156.737","0.28448296428951975","1088"
"21:7:52:727 (H:m:s:ms)","GENERIC","187.524","0.27435809339223266","3272"
"20:47:16:363 (H:m:s:ms)","GENERIC","187.805","0.2863361450176635","637"
"21:7:53:684 (H:m:s:ms)","AMBULANCE","156.29000000000002","0.27350068072405065","1315"
"20:47:22:424 (H:m:s:ms)","GENERIC","187.353","0.2908345967651151","575"
"20:47:28:101 (H:m:s:ms)","OPERA","157.023","0.29010502453122605","1937"
"21:7:58:787 (H:m:s:ms)","GENERIC","187.379","0.27363282303283715","2250"
"21:8:4:848 (H:m:s:ms)","GENERIC","188.088","0.2720334450491344","3152"
"20:47:28:484 (H:m:s:ms)","GENERIC","187.367","0.29214775365442797","5555"
"21:8:10:909 (H:m:s:ms)","GENERIC","188.526","0.275379111575635","1090"
"20:47:34:545 (H:m:s:ms)","GENERIC","188.138","0.2864391115643362","15531"
"21:8:16:969 (H:m:s:ms)","GENERIC","187.439","0.2776450976769677","1030"
"20:47:35:696 (H:m:s:ms)","OPERA","156.925","0.2909938075070151","2303"
"21:8:23:30 (H:m:s:ms)","GENERIC","187.649","0.28099067471580197","2970"
"20:47:40:606 (H:m:s:ms)","GENERIC","187.444","0.2890810462079104","2393"
"21:8:25:263 (H:m:s:ms)","AMBULANCE","156.606","0.28058232900840574","3736"
"20:47:43:291 (H:m:s:ms)","OPERA","156.239","0.28972529690020615","708"
"21:8:29:90 (H:m:s:ms)","GENERIC","188.013","0.282089860301677","2949"
"20:47:46:666 (H:m:s:ms)","GENERIC","187.219","0.28683553080518337","2333"
"21:8:35:151 (H:m:s:ms)","GENERIC","188.044","0.2825371093688545","6886"
"21:40:42:424 (H:m:s:ms)","GENERIC","188.05599999999998","0.2738757697357413","575"
"20:47:50:886 (H:m:s:ms)","OPERA","156.559","0.28481448652501645","3114"
"21:8:41:212 (H:m:s:ms)","GENERIC","187.892","0.27990813546208965","2788"
"20:47:52:727 (H:m:s:ms)","GENERIC","187.597","0.284691760311476","12312"
"21:8:47:272 (H:m:s:ms)","GENERIC","187.75400000000002","0.28210589858513313","727"
"20:47:58:481 (H:m:s:ms)","OPERA","157.315","0.28423060294009916","14597"
"20:47:58:787 (H:m:s:ms)","GENERIC","187.799","0.2862821546601833","3251"
"21:8:53:333 (H:m:s:ms)","GENERIC","188.185","0.2854488997852932","12704"
"21:8:56:842 (H:m:s:ms)","AMBULANCE","156.529","0.28127326044138734","4195"
"20:48:4:848 (H:m:s:ms)","GENERIC","187.63400000000001","0.2834623802129748","2151"
"21:8:59:393 (H:m:s:ms)","GENERIC","187.78","0.28261857044479677","5644"
"20:48:6:75 (H:m:s:ms)","OPERA","156.293","0.28339024666545387","1924"
"21:9:5:454 (H:m:s:ms)","GENERIC","187.482","0.2836500967661573","9582"
"20:30:0:0 (H:m:s:ms)","GENERIC","188.232","0.2595984117295308","1035"
"20:48:10:909 (H:m:s:ms)","GENERIC","187.316","0.28190571579224327","2090"
"21:9:11:515 (H:m:s:ms)","GENERIC","187.513","0.2849224326662402","5484"
"20:30:0:0 (H:m:s:ms)","GENERIC","188.031","0.2592848748520385","2035"
"20:48:13:670 (H:m:s:ms)","OPERA","156.254","0.2862824538108722","329"
"21:9:17:575 (H:m:s:ms)","GENERIC","156.603","0.2845618638959597","5461"
"20:30:6:60 (H:m:s:ms)","GENERIC","187.49099999999999","0.2591140073669424","939"
"20:48:16:969 (H:m:s:ms)","GENERIC","187.566","0.2878295107719636","8070"
"21:9:23:636 (H:m:s:ms)","GENERIC","187.8","0.2836309230911869","8400"
"20:30:12:121 (H:m:s:ms)","GENERIC","187.614","0.26412803126657547","878"
"20:48:21:265 (H:m:s:ms)","OPERA","156.168","0.2906924002084266","14774"
"21:9:28:421 (H:m:s:ms)","AMBULANCE","156.32","0.28086922896243466","23688"
"20:30:18:181 (H:m:s:ms)","GENERIC","187.901","0.26486829567972137","1853"
"20:48:23:30 (H:m:s:ms)","GENERIC","188.14100000000002","0.2863247274385765","969"
"21:9:29:696 (H:m:s:ms)","GENERIC","187.89600000000002","0.28417792069175385","339"
"20:30:24:242 (H:m:s:ms)","GENERIC","187.476","0.2635072842211619","8792"
"20:48:28:860 (H:m:s:ms)","OPERA","156.755","0.29179031474021117","11217"
"21:9:35:757 (H:m:s:ms)","GENERIC","188.03300000000002","0.2823910463430162","2242"
"20:30:30:303 (H:m:s:ms)","GENERIC","187.726","0.26234295056163914","5697"
"20:48:29:90 (H:m:s:ms)","GENERIC","187.856","0.2887568862180047","3948"
"20:30:36:363 (H:m:s:ms)","GENERIC","188.05","0.26292959280488837","3671"
"20:48:35:151 (H:m:s:ms)","GENERIC","187.251","0.2916857472603115","848"
"20:30:42:424 (H:m:s:ms)","GENERIC","188.563","0.2617776529032912","2576"
"20:30:48:484 (H:m:s:ms)","GENERIC","187.237","0.2625930100760725","3549"
"21:9:41:818 (H:m:s:ms)","GENERIC","187.388","0.2816277636374916","181"
"21:9:47:878 (H:m:s:ms)","GENERIC","187.555","0.27950713487140216","1121"
"20:48:36:455 (H:m:s:ms)","OPERA","156.65800000000002","0.29175388787504636","544"
"21:9:53:939 (H:m:s:ms)","GENERIC","187.126","0.2776307893580801","10097"
"20:48:41:212 (H:m:s:ms)","GENERIC","188.318","0.2928243572826302","1787"
"21:10:0:0 (H:m:s:ms)","AMBULANCE","156.745","0.276146210385002","7037"
"20:30:54:545 (H:m:s:ms)","GENERIC","187.91","0.26546827529858524","1455"
"20:48:44:50 (H:m:s:ms)","OPERA","157.358","0.2904830224350224","5988"
"21:10:0:0 (H:m:s:ms)","GENERIC","188.125","0.27763557663911426","2036"
"20:31:0:606 (H:m:s:ms)","GENERIC","188.007","0.2681284353825275","2393"
"20:48:47:272 (H:m:s:ms)","GENERIC","187.338","0.2887195849927113","2766"
"21:10:0:0 (H:m:s:ms)","GENERIC","188.16","0.2786629559784629","1036"
"20:31:6:666 (H:m:s:ms)","GENERIC","187.951","0.26797614433497596","3367"
"20:48:51:645 (H:m:s:ms)","OPERA","156.749","0.2897062390756318","5354"
"21:10:6:60 (H:m:s:ms)","GENERIC","187.0","0.2781565527743366","1939"
"20:31:12:727 (H:m:s:ms)","GENERIC","187.873","0.26485992036577716","4272"
"20:48:53:333 (H:m:s:ms)","GENERIC","187.976","0.28865609213370735","4667"
"21:10:12:121 (H:m:s:ms)","GENERIC","188.51","0.28100308813997704","3878"
"20:31:18:787 (H:m:s:ms)","GENERIC","187.647","0.2623673531036421","2247"
"20:48:59:240 (H:m:s:ms)","OPERA","156.504","0.28928948443299884","2798"
"21:10:18:181 (H:m:s:ms)","GENERIC","187.89600000000002","0.27960804479126283","818"
"20:31:24:848 (H:m:s:ms)","GENERIC","187.087","0.2621221309333985","1151"
"20:48:59:393 (H:m:s:ms)","GENERIC","187.912","0.28706368847575964","3645"
"21:10:24:242 (H:m:s:ms)","GENERIC","187.38400000000001","0.2778997742386987","13794"
"20:31:30:909 (H:m:s:ms)","GENERIC","188.108","0.2593998957743577","3090"
"20:49:5:454 (H:m:s:ms)","GENERIC","187.42","0.28894398135785077","6589"
"20:31:36:969 (H:m:s:ms)","GENERIC","188.039","0.26085044378326067","1030"
"20:49:6:835 (H:m:s:ms)","OPERA","156.15","0.2872880078747974","164"
"20:31:43:30 (H:m:s:ms)","GENERIC","187.966","0.2584514039843854","969"
"20:31:49:90 (H:m:s:ms)","GENERIC","187.637","0.25962779867236596","943"
"20:49:11:515 (H:m:s:ms)","GENERIC","188.045","0.2903238614242603","1484"
"20:49:14:430 (H:m:s:ms)","OPERA","155.699","0.2858943769626701","570"
"20:31:55:151 (H:m:s:ms)","GENERIC","188.4","0.26016306651380816","1848"
"20:49:17:575 (H:m:s:ms)","GENERIC","187.98","0.2887565664905386","5465"
"20:32:1:212 (H:m:s:ms)","GENERIC","187.723","0.2648202050884382","787"
"20:49:22:25 (H:m:s:ms)","OPERA","156.7","0.28935914401420637","975"
"20:32:7:272 (H:m:s:ms)","GENERIC","188.777","0.26284028605288506","1727"
"20:49:23:636 (H:m:s:ms)","GENERIC","188.034","0.29262988710466226","6404"
"20:32:13:333 (H:m:s:ms)","GENERIC","188.482","0.26607051435640267","666"
"20:49:29:620 (H:m:s:ms)","OPERA","155.50799999999998","0.29184970866759474","1419"
"20:32:19:393 (H:m:s:ms)","GENERIC","187.663","0.26860375258192476","2640"
"20:49:29:696 (H:m:s:ms)","GENERIC","188.293","0.2916035710787964","4343"
"20:32:25:454 (H:m:s:ms)","GENERIC","187.655","0.26648330805473147","3545"
"20:49:35:757 (H:m:s:ms)","GENERIC","187.852","0.28857053078023953","1242"
"20:32:31:515 (H:m:s:ms)","GENERIC","188.061","0.26638626361439405","484"
"20:49:37:215 (H:m:s:ms)","OPERA","157.04000000000002","0.28718570166966945","5825"
"20:32:37:575 (H:m:s:ms)","GENERIC","187.76100000000002","0.26701790785473717","424"
"20:49:41:818 (H:m:s:ms)","GENERIC","188.084","0.28680274541628764","11222"
"20:32:43:636 (H:m:s:ms)","GENERIC","187.762","0.26510561607062005","363"
"20:32:49:696 (H:m:s:ms)","GENERIC","188.096","0.2679356059542455","1338"
"20:49:44:810 (H:m:s:ms)","OPERA","155.789","0.2859835946281468","190"
"20:49:47:878 (H:m:s:ms)","GENERIC","188.028","0.28750886353862515","1121"
"20:32:55:757 (H:m:s:ms)","GENERIC","187.832","0.26658471409907053","242"
"20:49:52:405 (H:m:s:ms)","OPERA","156.779","0.2857671002585141","8634"
"20:33:1:818 (H:m:s:ms)","GENERIC","188.191","0.2684591434613597","181"
"20:49:53:939 (H:m:s:ms)","GENERIC","187.962","0.2835025779060199","24141"
"20:33:7:878 (H:m:s:ms)","GENERIC","187.178","0.27167886076963776","1121"
"20:50:0:0 (H:m:s:ms)","GENERIC","187.589","0.2879591002573213","3039"
"20:33:13:939 (H:m:s:ms)","GENERIC","187.753","0.2701851212898694","1062"
"20:50:0:0 (H:m:s:ms)","GENERIC","188.162","0.28779559661712106","4040"
"20:33:20:0 (H:m:s:ms)","GENERIC","187.429","0.27138811155152615","1033"
"20:50:6:60 (H:m:s:ms)","GENERIC","187.657","0.28689168073646165","4978"
"20:33:26:60 (H:m:s:ms)","GENERIC","187.743","0.26833815158833413","939"
"20:50:12:121 (H:m:s:ms)","GENERIC","188.155","0.2863622647769893","1878"
"20:33:32:121 (H:m:s:ms)","GENERIC","156.562","0.2696805449434079","3878"
"20:50:18:181 (H:m:s:ms)","GENERIC","188.598","0.28222466074969366","7858"
"20:33:38:181 (H:m:s:ms)","GENERIC","187.834","0.2677648704079241","4854"
"20:50:24:242 (H:m:s:ms)","GENERIC","187.057","0.2852850268356924","14798"
"20:33:44:242 (H:m:s:ms)","GENERIC","187.497","0.268326471535167","1757"
"20:33:50:303 (H:m:s:ms)","GENERIC","187.68200000000002","0.26848233648018466","1696"
"20:50:30:303 (H:m:s:ms)","GENERIC","187.923","0.2876471748784445","1697"
"20:50:36:363 (H:m:s:ms)","GENERIC","187.21","0.2859266009611391","636"
"20:33:56:363 (H:m:s:ms)","GENERIC","188.185","0.2665343572663836","1636"
"20:50:42:424 (H:m:s:ms)","GENERIC","187.511","0.28513639697056586","6575"
"20:34:2:424 (H:m:s:ms)","GENERIC","187.293","0.2665878852568379","575"
"20:50:48:484 (H:m:s:ms)","GENERIC","187.80700000000002","0.2848573608545706","2555"
"20:10:0:0 (H:m:s:ms)","GENERIC","155.919","0.2609642138833232","2000"
"20:34:8:484 (H:m:s:ms)","GENERIC","187.375","0.2692582956942357","3548"
"20:50:54:545 (H:m:s:ms)","GENERIC","187.603","0.28770618479322063","1454"
"20:10:0:0 (H:m:s:ms)","GENERIC","187.19899999999998","0.25938923620690174","1038"
"20:34:14:545 (H:m:s:ms)","GENERIC","187.409","0.26977126878509594","2454"
"20:51:0:606 (H:m:s:ms)","GENERIC","186.69299999999998","0.28627190877410463","1394"
"20:10:6:60 (H:m:s:ms)","GENERIC","186.884","0.25953463187659037","6978"
"20:34:20:606 (H:m:s:ms)","GENERIC","188.272","0.26925360869954856","6394"
"20:51:6:666 (H:m:s:ms)","GENERIC","188.453","0.2861705031952478","333"
"20:10:12:121 (H:m:s:ms)","GENERIC","187.791","0.2633590290326488","1878"
"20:34:26:666 (H:m:s:ms)","GENERIC","187.78","0.271340005795744","334"
"20:51:12:727 (H:m:s:ms)","GENERIC","187.735","0.28391127091128354","5273"
"20:10:18:181 (H:m:s:ms)","GENERIC","187.593","0.26557096323729196","3856"
"20:34:32:727 (H:m:s:ms)","GENERIC","187.671","0.26888888515027337","272"
"20:51:18:787 (H:m:s:ms)","GENERIC","188.063","0.28476119535379707","1253"
"20:10:24:242 (H:m:s:ms)","GENERIC","187.631","0.2664229896297752","1757"
"20:34:38:787 (H:m:s:ms)","GENERIC","188.063","0.2668946326261548","4247"
"20:51:24:848 (H:m:s:ms)","GENERIC","187.46699999999998","0.2841140363759403","1152"
"20:10:30:303 (H:m:s:ms)","GENERIC","187.849","0.26755314882551506","22774"
"20:34:44:848 (H:m:s:ms)","GENERIC","188.213","0.2684598352976781","151"
"20:10:36:363 (H:m:s:ms)","GENERIC","188.573","0.26667778332340153","636"
"20:34:50:909 (H:m:s:ms)","GENERIC","188.215","0.2690386810115501","1090"
"20:10:42:424 (H:m:s:ms)","GENERIC","187.136","0.2682715657145389","2575"
"20:10:48:484 (H:m:s:ms)","GENERIC","187.21","0.26826880739716746","516"
"20:51:30:909 (H:m:s:ms)","GENERIC","187.483","0.2839511338422162","1091"
"20:51:36:969 (H:m:s:ms)","GENERIC","187.39","0.27946897646577334","4070"
"20:34:56:969 (H:m:s:ms)","GENERIC","187.805","0.26315743698397953","6065"
"20:51:43:30 (H:m:s:ms)","GENERIC","187.626","0.2820863310897179","14011"
"20:35:3:30 (H:m:s:ms)","GENERIC","188.153","0.26637241831169217","2970"
"20:51:49:90 (H:m:s:ms)","GENERIC","188.11","0.2789156778224955","5951"
"20:10:54:545 (H:m:s:ms)","GENERIC","187.284","0.2675791664055513","454"
"20:35:9:90 (H:m:s:ms)","GENERIC","187.805","0.2660742985229763","944"
"20:51:55:151 (H:m:s:ms)","GENERIC","187.296","0.28266309035986076","2848"
"20:11:0:606 (H:m:s:ms)","GENERIC","187.579","0.26910516698978404","13436"
"20:35:15:151 (H:m:s:ms)","GENERIC","187.369","0.2639047816907337","4881"
"20:52:1:212 (H:m:s:ms)","GENERIC","188.32600000000002","0.27857126435838603","11829"
"20:11:6:666 (H:m:s:ms)","GENERIC","187.273","0.2687833507009688","333"
"20:35:21:212 (H:m:s:ms)","GENERIC","187.046","0.2625018145721233","788"
"20:52:7:272 (H:m:s:ms)","GENERIC","187.101","0.27831536862512635","7769"
"20:11:12:727 (H:m:s:ms)","GENERIC","188.405","0.26755787695010824","272"
"20:35:27:272 (H:m:s:ms)","GENERIC","186.971","0.2647458411466677","1727"
"20:52:13:333 (H:m:s:ms)","GENERIC","187.713","0.27796613276862164","1667"
"20:11:18:787 (H:m:s:ms)","GENERIC","187.697","0.2674945692174743","1250"
"20:35:33:333 (H:m:s:ms)","GENERIC","187.101","0.2660187220197948","2666"
"20:52:19:393 (H:m:s:ms)","GENERIC","187.211","0.27735498339843795","19691"
"20:11:24:848 (H:m:s:ms)","GENERIC","187.41899999999998","0.2686027370983447","3151"
"20:35:39:393 (H:m:s:ms)","GENERIC","187.455","0.2680906885438352","1640"
"20:52:25:454 (H:m:s:ms)","GENERIC","187.37900000000002","0.28356323124691196","19631"
"20:11:30:909 (H:m:s:ms)","GENERIC","188.39600000000002","0.26988597407733655","1090"
"20:35:45:454 (H:m:s:ms)","GENERIC","187.64","0.2675282329811696","545"
"20:11:36:969 (H:m:s:ms)","GENERIC","188.077","0.27027301020635497","1031"
"20:35:51:515 (H:m:s:ms)","GENERIC","188.321","0.2703015168905405","484"
"20:11:43:30 (H:m:s:ms)","GENERIC","187.50900000000001","0.2697408051830783","3969"
"20:11:49:90 (H:m:s:ms)","GENERIC","187.756","0.2713930683755923","948"
"20:0:54:545 (H:m:s:ms)","GENERIC","156.488","0.1616070372660375","455"
"20:1:0:606 (H:m:s:ms)","GENERIC","157.20600000000002","0.1641000551082444","394"
"20:1:6:666 (H:m:s:ms)","GENERIC","156.828","0.17210014379656774","333"
"20:1:12:727 (H:m:s:ms)","GENERIC","156.029","0.17593918453787827","273"
"20:1:18:787 (H:m:s:ms)","GENERIC","156.342","0.18298928223669952","1224"
"20:1:24:848 (H:m:s:ms)","GENERIC","156.969","0.18803578640139698","151"
"20:1:30:909 (H:m:s:ms)","GENERIC","156.286","0.19290936196474148","1090"
"20:1:36:969 (H:m:s:ms)","GENERIC","156.785","0.19978783131386135","2030"
"20:1:43:30 (H:m:s:ms)","GENERIC","156.539","0.21058808372644772","3971"
"20:1:49:90 (H:m:s:ms)","GENERIC","156.91899999999998","0.21457569169233132","1922"
"20:35:57:575 (H:m:s:ms)","GENERIC","186.59","0.27179580727222874","424"
"20:36:3:636 (H:m:s:ms)","GENERIC","187.91","0.270855967060007","2364"
"20:11:55:151 (H:m:s:ms)","GENERIC","187.263","0.2662863839408751","1848"
"20:36:9:696 (H:m:s:ms)","GENERIC","188.276","0.27271919615038026","338"
"20:12:1:212 (H:m:s:ms)","GENERIC","187.642","0.26935382306970956","2787"
"20:36:15:757 (H:m:s:ms)","GENERIC","187.38299999999998","0.2711511752301115","1242"
"20:12:7:272 (H:m:s:ms)","GENERIC","188.072","0.27087525325294703","5765"
"20:36:21:818 (H:m:s:ms)","GENERIC","187.138","0.26990941660189666","181"
"20:12:13:333 (H:m:s:ms)","GENERIC","187.959","0.2750096011104101","2667"
"20:36:27:878 (H:m:s:ms)","GENERIC","187.741","0.2690897059433565","1121"
"20:12:19:393 (H:m:s:ms)","GENERIC","188.46300000000002","0.2749841866740175","4644"
"20:36:33:939 (H:m:s:ms)","GENERIC","187.64100000000002","0.267982389355813","2061"
"20:12:25:454 (H:m:s:ms)","GENERIC","188.31099999999998","0.2737787239933066","545"
"20:36:40:0 (H:m:s:ms)","GENERIC","188.22299999999998","0.2684713969919246","2035"
"20:12:31:515 (H:m:s:ms)","GENERIC","187.193","0.2751717142661021","2484"
"20:36:46:60 (H:m:s:ms)","GENERIC","187.348","0.26908895317145815","939"
"20:12:37:575 (H:m:s:ms)","GENERIC","187.421","0.27356541388947525","424"
"20:36:52:121 (H:m:s:ms)","GENERIC","187.574","0.2694009788130472","878"
"20:12:43:636 (H:m:s:ms)","GENERIC","187.394","0.27259107877070143","3364"
"20:12:49:696 (H:m:s:ms)","GENERIC","187.43","0.2696614021820859","1342"
"20:1:55:151 (H:m:s:ms)","GENERIC","157.175","0.2176917598011578","1848"
"20:2:1:212 (H:m:s:ms)","GENERIC","157.066","0.2215263316310888","788"
"20:2:7:272 (H:m:s:ms)","GENERIC","156.685","0.22578917354105918","727"
"20:2:13:333 (H:m:s:ms)","GENERIC","157.822","0.2289058812709751","2667"
"20:2:19:393 (H:m:s:ms)","GENERIC","157.455","0.23150816930403367","5623"
"20:2:25:454 (H:m:s:ms)","GENERIC","156.329","0.23161912987154357","1545"
"20:2:31:515 (H:m:s:ms)","GENERIC","157.066","0.23169226882147978","484"
"20:2:37:575 (H:m:s:ms)","GENERIC","157.097","0.23379499652547547","424"
"20:2:43:636 (H:m:s:ms)","GENERIC","157.234","0.23678343416784028","1363"
"20:2:49:696 (H:m:s:ms)","GENERIC","157.125","0.24033503675596063","319"
"20:36:58:181 (H:m:s:ms)","GENERIC","187.12900000000002","0.27065872328285917","818"
"20:37:4:242 (H:m:s:ms)","GENERIC","187.628","0.2693372541814378","1758"
"20:12:55:757 (H:m:s:ms)","GENERIC","187.987","0.26806999394164344","242"
"20:37:10:303 (H:m:s:ms)","GENERIC","187.235","0.26765104877275453","696"
"20:13:1:818 (H:m:s:ms)","GENERIC","186.986","0.26785804062211244","2182"
"20:37:16:363 (H:m:s:ms)","GENERIC","188.27","0.2667664916023924","636"
"20:13:7:878 (H:m:s:ms)","GENERIC","188.084","0.26909517076796496","2160"
"20:37:22:424 (H:m:s:ms)","GENERIC","187.29899999999998","0.2609952494146356","1575"
"20:13:13:939 (H:m:s:ms)","GENERIC","187.395","0.2666987984452388","3060"
"20:37:28:484 (H:m:s:ms)","GENERIC","187.691","0.25702949189817464","8549"
"20:13:20:0 (H:m:s:ms)","GENERIC","187.737","0.2604113757360486","11072"
"20:37:34:545 (H:m:s:ms)","GENERIC","188.158","0.2616733002962883","2455"
"20:13:26:60 (H:m:s:ms)","GENERIC","187.527","0.26736799564149927","940"
"20:37:40:606 (H:m:s:ms)","GENERIC","187.466","0.26423535303641155","3393"
"20:13:32:121 (H:m:s:ms)","GENERIC","187.184","0.2607908154228951","878"
"20:37:46:666 (H:m:s:ms)","GENERIC","188.34","0.2610151171769094","2333"
"20:13:38:181 (H:m:s:ms)","GENERIC","187.301","0.25652867469371454","1854"
"20:37:52:727 (H:m:s:ms)","GENERIC","187.998","0.2606134955738049","1272"
"20:13:44:242 (H:m:s:ms)","GENERIC","187.847","0.2564643263611541","5792"
"20:13:50:303 (H:m:s:ms)","GENERIC","187.695","0.25661057210484145","1696"
"20:2:55:757 (H:m:s:ms)","GENERIC","156.705","0.2446386492324473","3243"
"20:3:1:818 (H:m:s:ms)","GENERIC","156.481","0.24663410319754245","1181"
"20:3:7:878 (H:m:s:ms)","GENERIC","156.783","0.25050964437790413","121"
"20:3:13:939 (H:m:s:ms)","GENERIC","157.12800000000001","0.2532740343377865","4085"
"20:3:20:0 (H:m:s:ms)","GENERIC","156.571","0.2573397853734661","2000"
"20:3:26:60 (H:m:s:ms)","GENERIC","156.901","0.25871629780199973","1939"
"20:3:32:121 (H:m:s:ms)","GENERIC","156.29500000000002","0.2609106808308683","878"
"20:3:38:181 (H:m:s:ms)","GENERIC","156.77","0.2616889082995308","818"
"20:3:44:242 (H:m:s:ms)","GENERIC","157.031","0.26383328641227716","758"
"20:3:50:303 (H:m:s:ms)","GENERIC","156.825","0.264322101839347","3697"
"20:37:58:787 (H:m:s:ms)","GENERIC","187.872","0.2592340455151814","212"
"20:38:4:848 (H:m:s:ms)","GENERIC","187.846","0.2650768811746969","1152"
"20:13:56:363 (H:m:s:ms)","GENERIC","188.506","0.25903220407618927","636"
"20:38:10:909 (H:m:s:ms)","GENERIC","187.909","0.2645902291420252","1090"
"20:14:2:424 (H:m:s:ms)","GENERIC","187.586","0.2591306301715692","6576"
"20:38:16:969 (H:m:s:ms)","GENERIC","188.026","0.268080816323891","2030"
"20:14:8:484 (H:m:s:ms)","GENERIC","188.04","0.2606653946675147","516"
"20:38:23:30 (H:m:s:ms)","GENERIC","187.947","0.2690295420291451","969"
"20:14:14:545 (H:m:s:ms)","GENERIC","187.586","0.2606454734406657","455"
"20:38:29:90 (H:m:s:ms)","GENERIC","187.821","0.27066089915588515","1944"
"20:14:20:606 (H:m:s:ms)","GENERIC","188.235","0.2622919504753918","12432"
"20:38:35:151 (H:m:s:ms)","GENERIC","187.297","0.2680777857527903","2848"
"20:14:26:666 (H:m:s:ms)","GENERIC","187.345","0.2618452031534014","333"
"20:38:41:212 (H:m:s:ms)","GENERIC","187.868","0.2664462763288289","2787"
"20:14:32:727 (H:m:s:ms)","GENERIC","187.726","0.2621459371017741","2272"
"20:38:47:272 (H:m:s:ms)","GENERIC","187.409","0.2697641291359988","1727"
"20:14:38:787 (H:m:s:ms)","GENERIC","188.10500000000002","0.2606196635671604","212"
"20:38:53:333 (H:m:s:ms)","GENERIC","187.013","0.26633953251697734","2667"
"20:14:44:848 (H:m:s:ms)","GENERIC","187.691","0.25828709200187516","1152"
"20:14:50:909 (H:m:s:ms)","GENERIC","187.679","0.2578297978791785","2091"
"20:3:56:363 (H:m:s:ms)","GENERIC","156.989","0.2653325109175182","636"
"20:4:2:424 (H:m:s:ms)","GENERIC","155.894","0.26941008403346445","2577"
"20:4:8:484 (H:m:s:ms)","GENERIC","156.629","0.2709421242399743","515"
"20:4:14:545 (H:m:s:ms)","GENERIC","156.696","0.2717293607750693","456"
"20:4:20:606 (H:m:s:ms)","GENERIC","156.446","0.2759752774710351","394"
"20:4:26:666 (H:m:s:ms)","GENERIC","156.414","0.28173992923368335","11358"
"20:4:32:727 (H:m:s:ms)","GENERIC","157.426","0.27863647938222885","273"
"20:4:38:787 (H:m:s:ms)","GENERIC","156.939","0.2835947552386808","212"
"20:4:44:848 (H:m:s:ms)","GENERIC","157.126","0.28318537519156234","153"
"20:4:50:909 (H:m:s:ms)","GENERIC","157.318","0.28377442284585247","1091"
"20:38:59:393 (H:m:s:ms)","GENERIC","187.775","0.2680732234697867","642"
"20:39:5:454 (H:m:s:ms)","GENERIC","188.363","0.26874806740087515","1545"
"20:14:56:969 (H:m:s:ms)","GENERIC","187.412","0.2595194512812263","1031"
"20:39:11:515 (H:m:s:ms)","GENERIC","188.22299999999998","0.2723660958779055","1484"
"20:15:3:30 (H:m:s:ms)","GENERIC","188.482","0.2604337774750312","969"
"20:39:17:575 (H:m:s:ms)","GENERIC","188.216","0.2718244425332132","8461"
"20:15:9:90 (H:m:s:ms)","GENERIC","187.524","0.2614731620942701","2946"
"20:39:23:636 (H:m:s:ms)","GENERIC","187.474","0.27336203431547323","2364"
"20:15:15:151 (H:m:s:ms)","GENERIC","186.906","0.2593356570748917","848"
"20:39:29:696 (H:m:s:ms)","GENERIC","188.284","0.2665157275362288","3339"
"20:15:21:212 (H:m:s:ms)","GENERIC","187.535","0.25980278648359073","2787"
"20:39:35:757 (H:m:s:ms)","GENERIC","187.386","0.2704166537293966","1243"
"20:15:27:272 (H:m:s:ms)","GENERIC","187.454","0.2621108025622685","727"
"20:39:41:818 (H:m:s:ms)","GENERIC","187.336","0.2710504907949828","2181"
"20:15:33:333 (H:m:s:ms)","GENERIC","187.559","0.261314999105214","1667"
"20:39:47:878 (H:m:s:ms)","GENERIC","187.57999999999998","0.27551867005506336","1121"
"20:15:39:393 (H:m:s:ms)","GENERIC","187.235","0.2630202841223858","3642"
"20:39:53:939 (H:m:s:ms)","GENERIC","187.673","0.2778845175910105","1060"
"20:15:45:454 (H:m:s:ms)","GENERIC","188.424","0.2605191342187789","545"
"20:15:51:515 (H:m:s:ms)","GENERIC","187.20100000000002","0.2567153611610719","2484"
"20:4:56:969 (H:m:s:ms)","GENERIC","156.723","0.286122968246939","3052"
"20:5:3:30 (H:m:s:ms)","GENERIC","157.05","0.2840901937526214","1971"
"20:5:9:90 (H:m:s:ms)","GENERIC","156.722","0.2819302176411682","1932"
"20:5:15:151 (H:m:s:ms)","GENERIC","156.928","0.28208805058212094","849"
"20:5:21:212 (H:m:s:ms)","GENERIC","157.534","0.27841082662668254","4787"
"20:5:27:272 (H:m:s:ms)","GENERIC","156.772","0.28169408113753514","727"
"20:5:33:333 (H:m:s:ms)","GENERIC","156.75900000000001","0.28181450620824017","2667"
"20:5:39:393 (H:m:s:ms)","GENERIC","156.867","0.28411967559638013","632"
"20:5:45:454 (H:m:s:ms)","GENERIC","156.718","0.2811832999720523","9572"
"20:5:51:515 (H:m:s:ms)","GENERIC","156.57","0.2791545481607296","485"
"20:15:57:575 (H:m:s:ms)","GENERIC","187.494","0.2589817310213701","424"
"20:16:3:636 (H:m:s:ms)","GENERIC","187.929","0.25913151062487716","1363"
"20:16:9:696 (H:m:s:ms)","GENERIC","188.267","0.261122203905843","2340"
"20:16:15:757 (H:m:s:ms)","GENERIC","188.214","0.25725123395731614","242"
"20:16:21:818 (H:m:s:ms)","GENERIC","188.131","0.25676184336180535","1182"
"20:16:27:878 (H:m:s:ms)","GENERIC","188.344","0.2542188179963063","1121"
"20:16:33:939 (H:m:s:ms)","GENERIC","188.284","0.2517589473659851","3061"
"20:16:40:0 (H:m:s:ms)","GENERIC","187.975","0.25211621558445024","5036"
"20:16:46:60 (H:m:s:ms)","GENERIC","187.882","0.2526848599024292","2939"
"20:16:52:121 (H:m:s:ms)","GENERIC","187.774","0.2524474924821101","3879"
"20:5:57:575 (H:m:s:ms)","GENERIC","156.798","0.27932889731963784","1425"
"20:6:3:636 (H:m:s:ms)","GENERIC","156.575","0.2776999963373527","2364"
"20:6:9:696 (H:m:s:ms)","GENERIC","156.542","0.2810934121824996","1330"
"20:6:15:757 (H:m:s:ms)","GENERIC","157.1","0.2788317839822614","242"
"20:6:21:818 (H:m:s:ms)","GENERIC","156.09799999999998","0.27675206115362794","181"
"20:6:27:878 (H:m:s:ms)","GENERIC","156.031","0.272755389555602","2148"
"20:6:33:939 (H:m:s:ms)","GENERIC","156.442","0.2707017867042454","2061"
"20:6:40:0 (H:m:s:ms)","GENERIC","156.453","0.2704399568403816","2000"
"20:6:46:60 (H:m:s:ms)","GENERIC","157.68800000000002","0.2679176349254631","1939"
"20:6:52:121 (H:m:s:ms)","GENERIC","157.154","0.27217407411984507","1878"
"20:16:58:181 (H:m:s:ms)","GENERIC","186.858","0.2516955357606137","818"
"20:17:4:242 (H:m:s:ms)","GENERIC","187.685","0.2515665513594933","2758"
"20:17:10:303 (H:m:s:ms)","GENERIC","187.64600000000002","0.2529868593986563","696"
"20:17:16:363 (H:m:s:ms)","GENERIC","188.317","0.2544540270532945","1636"
"20:17:22:424 (H:m:s:ms)","GENERIC","187.531","0.2552125856608776","6577"
"20:17:28:484 (H:m:s:ms)","GENERIC","187.334","0.25912208059127095","1552"
"20:17:34:545 (H:m:s:ms)","GENERIC","187.51600000000002","0.2605234808271404","5490"
"20:17:40:606 (H:m:s:ms)","GENERIC","187.875","0.26323599583859675","2393"
"20:17:46:666 (H:m:s:ms)","GENERIC","188.42499999999998","0.2633340457578668","14405"
"20:17:52:727 (H:m:s:ms)","GENERIC","187.631","0.26286381360599276","1272"
"20:6:58:181 (H:m:s:ms)","GENERIC","156.963","0.27193482535321417","818"
"20:7:4:242 (H:m:s:ms)","GENERIC","156.285","0.26768487083275716","757"
"20:7:10:303 (H:m:s:ms)","GENERIC","157.128","0.26908881769634274","696"
"20:7:16:363 (H:m:s:ms)","GENERIC","157.04500000000002","0.26713240907200453","1636"
"20:7:22:424 (H:m:s:ms)","GENERIC","157.51","0.26647620040439074","575"
"20:7:28:484 (H:m:s:ms)","GENERIC","157.016","0.2629429934455413","516"
"20:7:34:545 (H:m:s:ms)","GENERIC","156.801","0.2641957691981438","454"
"20:7:40:606 (H:m:s:ms)","GENERIC","157.387","0.26069454002694925","5394"
"20:7:46:666 (H:m:s:ms)","GENERIC","156.662","0.26087339628345885","334"
"20:7:52:727 (H:m:s:ms)","GENERIC","157.223","0.2596072606697874","272"
"20:17:58:787 (H:m:s:ms)","GENERIC","188.41899999999998","0.26243767496686493","7248"
"20:18:4:848 (H:m:s:ms)","GENERIC","187.86","0.2657208997318778","8187"
"20:18:10:909 (H:m:s:ms)","GENERIC","187.899","0.2677889252979681","14127"
"20:18:16:969 (H:m:s:ms)","GENERIC","187.748","0.26722455439287757","1030"
"20:18:23:30 (H:m:s:ms)","GENERIC","187.887","0.268851903478276","1970"
"20:18:29:90 (H:m:s:ms)","GENERIC","187.34199999999998","0.2687731394015785","944"
"20:18:35:151 (H:m:s:ms)","GENERIC","187.422","0.258101859346931","5884"
"20:18:41:212 (H:m:s:ms)","GENERIC","187.888","0.2590390132398825","4787"
"20:18:47:272 (H:m:s:ms)","GENERIC","188.189","0.2617721346169273","2762"
"20:18:53:333 (H:m:s:ms)","GENERIC","188.074","0.26105644094163727","1666"
"20:7:58:787 (H:m:s:ms)","GENERIC","156.402","0.25862838791464277","212"
"20:8:4:848 (H:m:s:ms)","GENERIC","157.144","0.24980224180495011","4152"
"20:8:10:909 (H:m:s:ms)","GENERIC","156.715","0.2536737004512454","2090"
"20:8:16:969 (H:m:s:ms)","GENERIC","155.95499999999998","0.25467527070948426","1030"
"20:8:23:30 (H:m:s:ms)","GENERIC","156.586","0.25435263842230527","3971"
"20:8:29:90 (H:m:s:ms)","GENERIC","157.455","0.2573305369088859","943"
"20:8:35:151 (H:m:s:ms)","GENERIC","157.12","0.2572051594346305","848"
"20:8:41:212 (H:m:s:ms)","GENERIC","156.274","0.258110851889454","8822"
"20:8:47:272 (H:m:s:ms)","GENERIC","156.726","0.25631271248812293","1727"
"20:8:53:333 (H:m:s:ms)","GENERIC","157.026","0.2598666295910982","1668"
"20:18:59:393 (H:m:s:ms)","GENERIC","188.082","0.25810725432975484","3641"
"20:19:5:454 (H:m:s:ms)","GENERIC","188.09","0.2599579174322307","4581"
"20:19:11:515 (H:m:s:ms)","GENERIC","187.54500000000002","0.2619603226607992","484"
"20:19:17:575 (H:m:s:ms)","GENERIC","187.462","0.2615480457789956","2459"
"20:19:23:636 (H:m:s:ms)","GENERIC","187.58100000000002","0.25895283142089576","5363"
"20:19:29:696 (H:m:s:ms)","GENERIC","187.303","0.2619958827140414","339"
"20:19:35:757 (H:m:s:ms)","GENERIC","188.31799999999998","0.2583581045673938","243"
"20:19:41:818 (H:m:s:ms)","GENERIC","187.385","0.2544932147307564","3181"
"20:19:47:878 (H:m:s:ms)","GENERIC","188.258","0.25202288740709905","1121"
"20:19:53:939 (H:m:s:ms)","GENERIC","187.429","0.25525773723413736","2060"
"20:8:59:393 (H:m:s:ms)","GENERIC","156.626","0.2612659343122578","640"
"20:9:5:454 (H:m:s:ms)","GENERIC","155.995","0.26126112585172523","545"
"20:9:11:515 (H:m:s:ms)","GENERIC","156.705","0.26074405532311007","484"
"20:9:17:575 (H:m:s:ms)","GENERIC","156.759","0.261516817484817","2459"
"20:9:23:636 (H:m:s:ms)","GENERIC","156.423","0.26163580895973026","363"
"20:9:29:696 (H:m:s:ms)","GENERIC","156.933","0.26320784119584656","2339"
"20:9:35:757 (H:m:s:ms)","GENERIC","156.90200000000002","0.2631625140775866","242"
"20:9:41:818 (H:m:s:ms)","GENERIC","156.099","0.2621074696039238","3183"
"20:9:47:878 (H:m:s:ms)","GENERIC","157.19","0.26289780804709756","1121"
"20:9:53:939 (H:m:s:ms)","GENERIC","157.047","0.260969863826325","3061"
"21:41:24:848 (H:m:s:ms)","GENERIC","188.502","0.2685407486722875","1152"
"21:41:18:787 (H:m:s:ms)","GENERIC","187.615","0.26887019949032637","1252"
"21:41:12:727 (H:m:s:ms)","GENERIC","187.973","0.2700608668706425","1272"
"21:41:6:666 (H:m:s:ms)","GENERIC","187.898","0.2732671949004999","3373"
"21:41:0:606 (H:m:s:ms)","GENERIC","187.615","0.2744934371830821","393"
"21:40:54:545 (H:m:s:ms)","GENERIC","187.262","0.27266895518729034","2455"
"21:40:48:484 (H:m:s:ms)","GENERIC","188.823","0.2787418654465535","515"
"21:41:43:30 (H:m:s:ms)","GENERIC","186.981","0.26716004603681354","2970"
"21:41:36:969 (H:m:s:ms)","GENERIC","186.934","0.2662271711612027","1030"
"21:41:30:909 (H:m:s:ms)","GENERIC","187.173","0.2697461403919515","2090"
