"time (H:m:s:ms)","type","latency","utilisation","waiting"
"21:42:13:333 (H:m:s:ms)","GENERIC","187.481","0.08249404841402334","666"
"21:41:55:151 (H:m:s:ms)","GENERIC","187.51999999999998","0.09591928106697077","848"
"21:41:49:90 (H:m:s:ms)","GENERIC","187.551","0.086555946824728","945"
"21:41:43:30 (H:m:s:ms)","GENERIC","187.541","0.09012783113193798","970"
"21:41:36:969 (H:m:s:ms)","GENERIC","187.469","0.08565387424867883","1030"
"21:41:30:909 (H:m:s:ms)","GENERIC","187.547","0.06313510311521683","1091"
"21:41:24:848 (H:m:s:ms)","GENERIC","187.557","0.08052007175258598","152"
"21:41:18:787 (H:m:s:ms)","GENERIC","187.517","0.09237034611031916","212"
"21:41:12:727 (H:m:s:ms)","GENERIC","187.505","0.08868687161101503","272"
"21:42:7:272 (H:m:s:ms)","GENERIC","187.565","0.07821343737108534","727"
"21:42:1:212 (H:m:s:ms)","GENERIC","187.517","0.0899266249418348","787"
"21:43:20:0 (H:m:s:ms)","GENERIC","187.61599999999999","0.09621494562622435","1037"
"21:43:13:939 (H:m:s:ms)","GENERIC","187.531","0.09029293878344859","1061"
"21:43:1:818 (H:m:s:ms)","GENERIC","187.56099999999998","0.09087782018700498","181"
"20:0:0:0 (H:m:s:ms)","GENERIC","156.516","0.06731419135115532","1462"
"21:42:55:757 (H:m:s:ms)","GENERIC","187.541","0.08852839600055758","243"
"20:0:6:60 (H:m:s:ms)","GENERIC","156.502","0.10249302292172774","940"
"21:42:49:696 (H:m:s:ms)","GENERIC","187.551","0.09454028427809102","344"
"20:0:12:121 (H:m:s:ms)","GENERIC","156.487","0.09415705883835249","878"
"21:42:43:636 (H:m:s:ms)","GENERIC","187.555","0.0742740055720137","363"
"20:0:18:181 (H:m:s:ms)","GENERIC","156.485","0.08437006214149054","818"
"21:42:37:575 (H:m:s:ms)","GENERIC","187.56099999999998","0.07844918095862924","424"
"20:0:24:242 (H:m:s:ms)","GENERIC","156.50300000000001","0.08639709776640389","759"
"21:42:31:515 (H:m:s:ms)","GENERIC","187.50900000000001","0.08703565867146817","484"
"20:0:30:303 (H:m:s:ms)","GENERIC","156.491","0.08429733641185323","696"
"21:42:25:454 (H:m:s:ms)","GENERIC","187.53699999999998","0.09226023002541613","545"
"20:0:36:363 (H:m:s:ms)","GENERIC","156.493","0.08779553006596308","636"
"21:42:19:393 (H:m:s:ms)","GENERIC","187.555","0.08496008507563978","646"
"20:0:42:424 (H:m:s:ms)","GENERIC","156.502","0.09874010880430405","576"
"21:10:0:0 (H:m:s:ms)","GENERIC","187.635","0.06258332600075205","1040"
"20:0:48:484 (H:m:s:ms)","GENERIC","156.476","0.0967009097794419","516"
"21:10:6:60 (H:m:s:ms)","GENERIC","187.511","0.12748128165993572","939"
"21:10:12:121 (H:m:s:ms)","GENERIC","187.53699999999998","0.07155534843812833","878"
"21:10:18:181 (H:m:s:ms)","GENERIC","187.499","0.08089449571407817","818"
"21:10:24:242 (H:m:s:ms)","GENERIC","187.547","0.07858525844257833","757"
"21:10:30:303 (H:m:s:ms)","GENERIC","187.54500000000002","0.08134226732625938","696"
"21:10:36:363 (H:m:s:ms)","GENERIC","187.53699999999998","0.08032036007394176","636"
"21:10:42:424 (H:m:s:ms)","GENERIC","187.507","0.07980489898574558","575"
"21:43:7:878 (H:m:s:ms)","GENERIC","187.571","0.07061225679438696","1121"
"21:10:48:484 (H:m:s:ms)","GENERIC","187.521","0.0886330832645179","515"
"21:10:54:545 (H:m:s:ms)","GENERIC","187.499","0.08295090184567822","455"
"21:25:34:177 (H:m:s:ms)","OPERA","156.471","0.09315194419819643","822"
"21:44:26:666 (H:m:s:ms)","GENERIC","187.517","0.07885680462772206","334"
"21:44:20:606 (H:m:s:ms)","GENERIC","187.587","0.08195668105999215","393"
"21:44:14:545 (H:m:s:ms)","GENERIC","187.529","0.08662192389690976","454"
"21:44:8:484 (H:m:s:ms)","GENERIC","187.547","0.07978357858677163","515"
"21:44:2:424 (H:m:s:ms)","GENERIC","187.499","0.08455870101662821","575"
"21:43:56:363 (H:m:s:ms)","GENERIC","187.579","0.08057685994656275","636"
"21:43:50:303 (H:m:s:ms)","GENERIC","187.503","0.0877225553360442","696"
"21:43:44:242 (H:m:s:ms)","GENERIC","187.575","0.08431010278858261","758"
"21:43:38:181 (H:m:s:ms)","GENERIC","187.613","0.09413484795320967","818"
"21:43:32:121 (H:m:s:ms)","GENERIC","187.56799999999998","0.09722050406942487","878"
"21:11:0:606 (H:m:s:ms)","GENERIC","187.54500000000002","0.0858010189011691","393"
"21:43:26:60 (H:m:s:ms)","GENERIC","187.547","0.09140659266716938","939"
"21:11:6:666 (H:m:s:ms)","GENERIC","187.563","0.09489131892741116","333"
"21:11:12:727 (H:m:s:ms)","GENERIC","187.555","0.07884153501284036","272"
"21:11:18:787 (H:m:s:ms)","GENERIC","187.511","0.07223654692446596","212"
"21:11:24:848 (H:m:s:ms)","GENERIC","187.59799999999998","0.08579037087454577","152"
"21:11:30:909 (H:m:s:ms)","GENERIC","187.569","0.0537286834319251","1090"
"21:11:36:969 (H:m:s:ms)","GENERIC","187.513","0.07927714641141982","1030"
"21:11:43:30 (H:m:s:ms)","GENERIC","187.503","0.07902582301990516","969"
"21:11:49:90 (H:m:s:ms)","GENERIC","187.51299999999998","0.08112285319746357","947"
"21:11:55:151 (H:m:s:ms)","GENERIC","187.513","0.07494211522981967","848"
"21:26:12:151 (H:m:s:ms)","OPERA","156.481","0.07747710430843105","848"
"21:45:33:333 (H:m:s:ms)","GENERIC","187.541","0.08199603434577482","666"
"21:26:9:696 (H:m:s:ms)","GENERIC","187.495","0.10860986952841738","343"
"21:45:27:272 (H:m:s:ms)","GENERIC","187.54500000000002","0.08815978607727049","727"
"21:45:21:212 (H:m:s:ms)","GENERIC","187.583","0.08664565997165445","787"
"21:45:15:151 (H:m:s:ms)","GENERIC","187.523","0.08801370611474582","848"
"21:26:3:636 (H:m:s:ms)","GENERIC","187.525","0.10203059272085258","363"
"21:25:57:575 (H:m:s:ms)","GENERIC","187.51","0.10841297355951698","424"
"21:45:9:90 (H:m:s:ms)","GENERIC","187.587","0.09430052671384488","947"
"21:25:56:962 (H:m:s:ms)","OPERA","156.471","0.09255125423143204","1037"
"21:45:3:30 (H:m:s:ms)","GENERIC","187.637","0.08438562100807671","969"
"21:25:51:515 (H:m:s:ms)","GENERIC","187.491","0.1265680699035851","484"
"21:44:56:969 (H:m:s:ms)","GENERIC","187.541","0.0879366016883337","1030"
"21:25:49:367 (H:m:s:ms)","OPERA","187.485","0.09176678196079845","673"
"21:44:50:909 (H:m:s:ms)","GENERIC","187.54899999999998","0.06865240511099914","1090"
"21:25:45:454 (H:m:s:ms)","GENERIC","187.514","0.12264628198338176","545"
"21:44:44:848 (H:m:s:ms)","GENERIC","187.569","0.08174194524448565","151"
"21:12:1:212 (H:m:s:ms)","GENERIC","187.515","0.08341179915648682","787"
"21:25:41:772 (H:m:s:ms)","OPERA","187.48499999999999","0.09494871238836915","227"
"21:44:38:787 (H:m:s:ms)","GENERIC","187.563","0.07167532352030036","212"
"21:12:7:272 (H:m:s:ms)","GENERIC","187.567","0.09813967023764227","727"
"21:25:39:393 (H:m:s:ms)","GENERIC","187.519","0.12203919251709004","647"
"21:44:32:727 (H:m:s:ms)","GENERIC","187.511","0.08545009955476375","273"
"21:12:13:333 (H:m:s:ms)","GENERIC","187.525","0.09781695041255586","666"
"21:12:19:393 (H:m:s:ms)","GENERIC","187.569","0.08544010053528579","643"
"21:12:25:454 (H:m:s:ms)","GENERIC","187.515","0.09829406879229396","545"
"21:12:31:515 (H:m:s:ms)","GENERIC","187.511","0.09277594042854159","484"
"21:12:37:575 (H:m:s:ms)","GENERIC","187.573","0.0818564022976329","424"
"21:12:43:636 (H:m:s:ms)","GENERIC","187.547","0.08216098366164286","363"
"21:12:49:696 (H:m:s:ms)","GENERIC","187.595","0.08565616121266514","341"
"21:12:55:757 (H:m:s:ms)","GENERIC","187.527","0.07889305116795736","242"
"21:26:4:556 (H:m:s:ms)","OPERA","187.487","0.08808165226850084","444"
"21:26:50:126 (H:m:s:ms)","OPERA","187.485","0.08369874477529587","873"
"21:46:40:0 (H:m:s:ms)","GENERIC","187.497","0.09680327626875852","1037"
"21:26:46:60 (H:m:s:ms)","GENERIC","187.503","0.10725923177652565","939"
"21:46:33:939 (H:m:s:ms)","GENERIC","187.543","0.09352180873819192","1061"
"21:26:42:531 (H:m:s:ms)","OPERA","187.487","0.0769400289553479","468"
"21:46:27:878 (H:m:s:ms)","GENERIC","187.519","0.07247328141511847","1121"
"21:46:21:818 (H:m:s:ms)","GENERIC","187.511","0.08915988406522166","181"
"21:46:15:757 (H:m:s:ms)","GENERIC","187.52100000000002","0.09044151062322942","243"
"21:26:40:0 (H:m:s:ms)","GENERIC","187.481","0.11213112800664599","1039"
"21:26:34:936 (H:m:s:ms)","OPERA","187.469","0.08987838178273905","1064"
"21:26:33:939 (H:m:s:ms)","GENERIC","187.545","0.0923794919995213","1061"
"21:46:9:696 (H:m:s:ms)","GENERIC","187.537","0.08932504772132295","341"
"21:26:27:878 (H:m:s:ms)","GENERIC","187.513","0.08306708756450364","1121"
"21:46:3:636 (H:m:s:ms)","GENERIC","187.514","0.09542145889818929","363"
"21:26:27:341 (H:m:s:ms)","OPERA","156.486","0.0811682549307653","658"
"21:45:57:575 (H:m:s:ms)","GENERIC","187.562","0.09747120952228998","424"
"21:13:1:818 (H:m:s:ms)","GENERIC","187.591","0.08155046676713133","182"
"21:26:21:818 (H:m:s:ms)","GENERIC","187.487","0.1080979638447921","181"
"21:45:51:515 (H:m:s:ms)","GENERIC","187.513","0.07186245701531682","484"
"21:13:7:878 (H:m:s:ms)","GENERIC","187.577","0.06908973119586254","1121"
"21:26:19:746 (H:m:s:ms)","OPERA","187.493","0.09660947342594878","293"
"21:45:45:454 (H:m:s:ms)","GENERIC","187.525","0.08208273448199466","545"
"21:13:13:939 (H:m:s:ms)","GENERIC","187.501","0.09068326717965675","1061"
"21:26:15:757 (H:m:s:ms)","GENERIC","187.554","0.11502038986231401","242"
"21:45:39:393 (H:m:s:ms)","GENERIC","187.543","0.080128308418426","644"
"21:13:20:0 (H:m:s:ms)","GENERIC","187.661","0.09135268172741615","1039"
"21:13:26:60 (H:m:s:ms)","GENERIC","187.525","0.09647963961606858","939"
"21:13:32:121 (H:m:s:ms)","GENERIC","187.553","0.08102531181175456","878"
"21:13:38:181 (H:m:s:ms)","GENERIC","187.617","0.09200182139183925","818"
"21:13:44:242 (H:m:s:ms)","GENERIC","187.54","0.09783957410827018","757"
"21:13:50:303 (H:m:s:ms)","GENERIC","187.547","0.08788634432998099","696"
"21:13:56:363 (H:m:s:ms)","GENERIC","187.593","0.0816065139479877","636"
"21:27:28:484 (H:m:s:ms)","GENERIC","187.579","0.1015472821047876","515"
"21:47:46:666 (H:m:s:ms)","GENERIC","187.597","0.08474855521600473","333"
"21:27:28:101 (H:m:s:ms)","OPERA","156.466","0.07283973800716352","898"
"21:47:40:606 (H:m:s:ms)","GENERIC","187.523","0.07917852636023673","393"
"21:27:22:424 (H:m:s:ms)","GENERIC","187.603","0.07844149632764373","575"
"21:47:34:545 (H:m:s:ms)","GENERIC","187.53300000000002","0.08662192389690976","454"
"21:27:16:363 (H:m:s:ms)","GENERIC","187.545","0.11793085146234863","636"
"21:47:28:484 (H:m:s:ms)","GENERIC","187.637","0.07583819761855186","515"
"21:47:22:424 (H:m:s:ms)","GENERIC","187.589","0.08055843281922144","575"
"21:47:16:363 (H:m:s:ms)","GENERIC","187.593","0.0818606958541205","637"
"21:27:12:911 (H:m:s:ms)","OPERA","187.481","0.09242981325825148","1088"
"21:27:10:303 (H:m:s:ms)","GENERIC","187.541","0.10856600808502251","696"
"21:27:5:316 (H:m:s:ms)","OPERA","156.47","0.08794396847812963","683"
"21:47:10:303 (H:m:s:ms)","GENERIC","187.553","0.08674484125926858","696"
"21:14:2:424 (H:m:s:ms)","GENERIC","187.505","0.08446157271138083","575"
"21:27:4:242 (H:m:s:ms)","GENERIC","187.507","0.0774405937733392","757"
"21:47:4:242 (H:m:s:ms)","GENERIC","187.52499999999998","0.09035495970538683","757"
"21:14:8:484 (H:m:s:ms)","GENERIC","187.551","0.08412222334249676","515"
"21:26:58:181 (H:m:s:ms)","GENERIC","187.517","0.10457154602610882","818"
"21:46:58:181 (H:m:s:ms)","GENERIC","187.497","0.08880769351489888","818"
"20:52:1:212 (H:m:s:ms)","GENERIC","187.53300000000002","0.08137180076704682","787"
"21:14:14:545 (H:m:s:ms)","GENERIC","187.517","0.08128051762890696","455"
"21:26:57:721 (H:m:s:ms)","OPERA","187.48499999999999","0.0769208029962438","278"
"21:46:52:121 (H:m:s:ms)","GENERIC","187.535","0.08385272349617762","878"
"20:52:7:272 (H:m:s:ms)","GENERIC","187.60899999999998","0.08149185822043352","727"
"21:14:20:606 (H:m:s:ms)","GENERIC","187.571","0.08067384042789072","393"
"21:26:52:121 (H:m:s:ms)","GENERIC","187.536","0.10513275820171762","878"
"21:46:46:60 (H:m:s:ms)","GENERIC","187.495","0.08990255769739926","939"
"20:52:13:333 (H:m:s:ms)","GENERIC","187.549","0.08352770230917372","666"
"21:14:26:666 (H:m:s:ms)","GENERIC","187.527","0.08708395835694006","333"
"20:52:19:393 (H:m:s:ms)","GENERIC","187.58499999999998","0.08537628869178213","651"
"21:14:32:727 (H:m:s:ms)","GENERIC","187.557","0.09709332506341582","272"
"20:52:25:454 (H:m:s:ms)","GENERIC","187.53699999999998","0.09594559856234312","545"
"21:14:38:787 (H:m:s:ms)","GENERIC","187.552","0.0880939321613193","212"
"20:52:31:515 (H:m:s:ms)","GENERIC","187.474","0.09896417936111468","484"
"21:14:44:848 (H:m:s:ms)","GENERIC","187.63299999999998","0.07566113447184517","151"
"20:52:37:575 (H:m:s:ms)","GENERIC","187.53300000000002","0.0868567109041904","424"
"21:14:50:909 (H:m:s:ms)","GENERIC","187.567","0.05290927812883561","1090"
"20:52:43:636 (H:m:s:ms)","GENERIC","187.528","0.08718198437105106","363"
"21:14:56:969 (H:m:s:ms)","GENERIC","187.53300000000002","0.09290339727951383","1030"
"20:52:49:696 (H:m:s:ms)","GENERIC","187.597","0.08970532565956267","347"
"20:52:55:757 (H:m:s:ms)","GENERIC","187.481","0.09820352849913719","242"
"21:28:6:75 (H:m:s:ms)","OPERA","156.481","0.08213365532019852","924"
"21:48:53:333 (H:m:s:ms)","GENERIC","187.505","0.09489454808041864","666"
"21:28:4:848 (H:m:s:ms)","GENERIC","187.47899999999998","0.10496144366765177","151"
"21:48:47:272 (H:m:s:ms)","GENERIC","187.523","0.097438620105185","727"
"21:27:58:787 (H:m:s:ms)","GENERIC","187.542","0.10104029187717052","212"
"21:48:41:212 (H:m:s:ms)","GENERIC","187.543","0.0849115119462229","787"
"21:27:58:481 (H:m:s:ms)","OPERA","187.48499999999999","0.07478162934620522","518"
"21:48:35:151 (H:m:s:ms)","GENERIC","187.571","0.0822684077585107","848"
"21:27:52:727 (H:m:s:ms)","GENERIC","187.538","0.09536243776965155","272"
"21:48:29:90 (H:m:s:ms)","GENERIC","187.505","0.08946987296589036","945"
"21:48:23:30 (H:m:s:ms)","GENERIC","187.543","0.08600853010476298","970"
"21:48:16:969 (H:m:s:ms)","GENERIC","187.543","0.09002034318534677","1030"
"21:27:50:886 (H:m:s:ms)","OPERA","156.47899999999998","0.07747592007840587","113"
"21:15:3:30 (H:m:s:ms)","GENERIC","187.608","0.09089606065848643","969"
"21:27:46:666 (H:m:s:ms)","GENERIC","187.582","0.10981635265484817","333"
"21:15:9:90 (H:m:s:ms)","GENERIC","187.575","0.08430399764072215","947"
"21:27:43:291 (H:m:s:ms)","OPERA","156.481","0.0839309454284708","708"
"21:48:10:909 (H:m:s:ms)","GENERIC","187.53699999999998","0.05237436375462345","1090"
"20:53:1:818 (H:m:s:ms)","GENERIC","187.557","0.09719463591940213","181"
"21:15:15:151 (H:m:s:ms)","GENERIC","187.508","0.08006079880592257","849"
"21:27:40:606 (H:m:s:ms)","GENERIC","187.477","0.11319727492111814","394"
"21:48:4:848 (H:m:s:ms)","GENERIC","187.549","0.08821321281444636","151"
"20:53:7:878 (H:m:s:ms)","GENERIC","187.575","0.06422715261562344","1121"
"21:15:21:212 (H:m:s:ms)","GENERIC","187.65699999999998","0.07538414489798814","787"
"21:27:35:696 (H:m:s:ms)","OPERA","156.466","0.08197635223383731","303"
"21:47:58:787 (H:m:s:ms)","GENERIC","187.563","0.08697618600696021","212"
"20:53:13:939 (H:m:s:ms)","GENERIC","187.495","0.09949127669351995","1061"
"21:15:27:272 (H:m:s:ms)","GENERIC","187.579","0.07774124142694426","727"
"21:27:34:545 (H:m:s:ms)","GENERIC","187.534","0.1074717301081207","455"
"21:47:52:727 (H:m:s:ms)","GENERIC","187.579","0.08877246191986654","272"
"20:53:20:0 (H:m:s:ms)","GENERIC","187.627","0.09997830228532051","1044"
"21:15:33:333 (H:m:s:ms)","GENERIC","187.569","0.08463986302374768","666"
"20:53:26:60 (H:m:s:ms)","GENERIC","187.53699999999998","0.09248202714486523","939"
"21:15:39:393 (H:m:s:ms)","GENERIC","187.567","0.09028530700055398","646"
"20:53:32:121 (H:m:s:ms)","GENERIC","187.53699999999998","0.08605881926711134","878"
"21:15:45:454 (H:m:s:ms)","GENERIC","187.55700000000002","0.0907584343295044","545"
"20:53:38:181 (H:m:s:ms)","GENERIC","187.589","0.09485750336667256","818"
"21:15:51:515 (H:m:s:ms)","GENERIC","187.509","0.06699907094682844","484"
"20:53:44:242 (H:m:s:ms)","GENERIC","187.541","0.08611950444749093","757"
"21:15:57:575 (H:m:s:ms)","GENERIC","187.511","0.0846846405131265","424"
"20:53:50:303 (H:m:s:ms)","GENERIC","187.565","0.08259732828521271","696"
"20:53:56:363 (H:m:s:ms)","GENERIC","187.55700000000002","0.08550530902256151","636"
"21:28:44:50 (H:m:s:ms)","OPERA","187.475","0.0890551399352995","950"
"21:50:0:0 (H:m:s:ms)","GENERIC","187.577","0.08580305105350448","1035"
"21:28:41:212 (H:m:s:ms)","GENERIC","187.49599999999998","0.1092234277850957","787"
"21:49:53:939 (H:m:s:ms)","GENERIC","187.533","0.07987595275910714","1061"
"21:28:36:455 (H:m:s:ms)","OPERA","187.483","0.08676778850877744","544"
"21:49:47:878 (H:m:s:ms)","GENERIC","187.57299999999998","0.047907867801675684","1121"
"21:28:35:151 (H:m:s:ms)","GENERIC","187.563","0.08080419846780346","848"
"21:49:41:818 (H:m:s:ms)","GENERIC","187.593","0.092435651054347","181"
"21:28:29:90 (H:m:s:ms)","GENERIC","187.471","0.11397400435726969","947"
"21:49:35:757 (H:m:s:ms)","GENERIC","187.588","0.09124572291209869","242"
"21:28:28:860 (H:m:s:ms)","OPERA","187.485","0.09253079288928291","139"
"21:49:29:696 (H:m:s:ms)","GENERIC","187.525","0.09547131146052842","340"
"21:49:23:636 (H:m:s:ms)","GENERIC","187.629","0.0972238754876711","363"
"21:49:17:575 (H:m:s:ms)","GENERIC","187.551","0.08584527473975562","424"
"21:16:3:636 (H:m:s:ms)","GENERIC","187.527","0.08856335885517984","363"
"21:16:9:696 (H:m:s:ms)","GENERIC","187.531","0.0870250068794815","341"
"21:28:23:30 (H:m:s:ms)","GENERIC","187.544","0.12233177323128618","969"
"20:54:2:424 (H:m:s:ms)","GENERIC","187.523","0.08993398560255911","575"
"21:16:15:757 (H:m:s:ms)","GENERIC","187.555","0.08870745815356958","242"
"21:28:21:265 (H:m:s:ms)","OPERA","187.483","0.09164836732885484","734"
"20:54:8:484 (H:m:s:ms)","GENERIC","187.525","0.09050843949239404","515"
"21:16:21:818 (H:m:s:ms)","GENERIC","187.513","0.09087277117765906","181"
"21:28:16:969 (H:m:s:ms)","GENERIC","187.52800000000002","0.12363553676243179","1031"
"21:49:11:515 (H:m:s:ms)","GENERIC","187.649","0.08457927422367466","484"
"20:54:14:545 (H:m:s:ms)","GENERIC","187.52100000000002","0.08066084007598458","454"
"21:16:27:878 (H:m:s:ms)","GENERIC","187.50900000000001","0.06237944580118926","1121"
"21:28:13:670 (H:m:s:ms)","OPERA","156.47899999999998","0.09265633596248614","329"
"21:49:5:454 (H:m:s:ms)","GENERIC","187.512","0.0948438529035874","546"
"20:54:20:606 (H:m:s:ms)","GENERIC","187.527","0.0839506451404696","393"
"21:16:33:939 (H:m:s:ms)","GENERIC","187.523","0.08597403239930618","1061"
"21:28:10:909 (H:m:s:ms)","GENERIC","187.519","0.09502095258133549","1090"
"21:48:59:393 (H:m:s:ms)","GENERIC","187.488","0.10117729616918615","643"
"20:54:26:666 (H:m:s:ms)","GENERIC","187.529","0.08547189855734254","333"
"21:16:40:0 (H:m:s:ms)","GENERIC","187.525","0.09215790565149243","1039"
"20:54:32:727 (H:m:s:ms)","GENERIC","187.615","0.07692144359339634","272"
"21:16:46:60 (H:m:s:ms)","GENERIC","187.507","0.09769326662009804","939"
"20:54:38:787 (H:m:s:ms)","GENERIC","187.58499999999998","0.07643888955853112","212"
"21:16:52:121 (H:m:s:ms)","GENERIC","187.577","0.0887755306418853","878"
"20:54:44:848 (H:m:s:ms)","GENERIC","187.617","0.08605281823340256","152"
"21:16:58:181 (H:m:s:ms)","GENERIC","187.547","0.08397414546066614","818"
"20:54:50:909 (H:m:s:ms)","GENERIC","187.557","0.061611435467008875","1090"
"20:54:56:969 (H:m:s:ms)","GENERIC","187.573","0.08800226790539727","1030"
"21:29:22:25 (H:m:s:ms)","OPERA","187.493","0.07752685284418431","974"
"21:29:17:575 (H:m:s:ms)","GENERIC","187.52499999999998","0.08990262056905753","424"
"21:29:14:430 (H:m:s:ms)","OPERA","156.486","0.06224341867989351","569"
"21:29:11:515 (H:m:s:ms)","GENERIC","187.591","0.11266043754871456","484"
"21:29:6:835 (H:m:s:ms)","OPERA","156.468","0.09562828451220808","164"
"21:29:5:454 (H:m:s:ms)","GENERIC","187.513","0.11233063664985626","545"
"21:28:59:393 (H:m:s:ms)","GENERIC","187.465","0.1065468178229492","647"
"21:17:4:242 (H:m:s:ms)","GENERIC","187.477","0.08175989195435523","757"
"21:17:10:303 (H:m:s:ms)","GENERIC","187.551","0.08984367180391632","696"
"20:55:3:30 (H:m:s:ms)","GENERIC","187.59300000000002","0.08591853284825511","969"
"21:17:16:363 (H:m:s:ms)","GENERIC","187.559","0.09210032474378355","636"
"20:55:9:90 (H:m:s:ms)","GENERIC","187.575","0.09336276735087558","954"
"21:17:22:424 (H:m:s:ms)","GENERIC","187.6","0.09363203889892449","575"
"21:28:59:240 (H:m:s:ms)","OPERA","156.469","0.08675288347478603","800"
"20:55:15:151 (H:m:s:ms)","GENERIC","187.523","0.09539847925961306","848"
"21:17:28:484 (H:m:s:ms)","GENERIC","187.58100000000002","0.08666720299753879","515"
"21:28:53:333 (H:m:s:ms)","GENERIC","187.485","0.10408917482351077","666"
"20:55:21:212 (H:m:s:ms)","GENERIC","187.633","0.0955802297945678","787"
"21:17:34:545 (H:m:s:ms)","GENERIC","187.553","0.08535706251212548","455"
"21:28:51:645 (H:m:s:ms)","OPERA","187.475","0.07707012386912573","354"
"20:55:27:272 (H:m:s:ms)","GENERIC","187.555","0.08814834729511169","727"
"21:17:40:606 (H:m:s:ms)","GENERIC","187.493","0.08531081314248219","394"
"21:28:47:272 (H:m:s:ms)","GENERIC","187.483","0.1098996258496059","727"
"22:3:9:473 (H:m:s:ms)","AMBULANCE","187.603","0.051387376470738017","532"
"20:55:33:333 (H:m:s:ms)","GENERIC","187.583","0.0894075593551834","667"
"21:17:46:666 (H:m:s:ms)","GENERIC","187.575","0.08358840698603727","333"
"20:55:39:393 (H:m:s:ms)","GENERIC","187.53300000000002","0.10303072458591687","652"
"21:17:52:727 (H:m:s:ms)","GENERIC","187.539","0.09371873554764353","272"
"20:55:45:454 (H:m:s:ms)","GENERIC","187.571","0.09908378958233148","545"
"21:17:58:787 (H:m:s:ms)","GENERIC","187.557","0.08954523942990507","212"
"20:55:51:515 (H:m:s:ms)","GENERIC","187.517","0.08521334083898065","484"
"20:55:57:575 (H:m:s:ms)","GENERIC","187.489","0.09396642048384654","424"
"21:30:0:0 (H:m:s:ms)","OPERA","187.48499999999999","0.08807412681014676","1037"
"21:29:53:939 (H:m:s:ms)","GENERIC","187.50900000000001","0.10755422992561196","1061"
"21:29:52:405 (H:m:s:ms)","OPERA","187.48499999999999","0.09296816986082135","594"
"21:29:47:878 (H:m:s:ms)","GENERIC","187.603","0.09634571059668268","1121"
"21:29:44:810 (H:m:s:ms)","OPERA","156.481","0.07768503927113393","190"
"21:29:41:818 (H:m:s:ms)","GENERIC","187.545","0.10837607871299276","181"
"21:29:37:215 (H:m:s:ms)","OPERA","187.487","0.07937888262345287","784"
"21:29:35:757 (H:m:s:ms)","GENERIC","187.55700000000002","0.10198364566240285","242"
"21:18:4:848 (H:m:s:ms)","GENERIC","187.505","0.07539930939487917","151"
"21:18:10:909 (H:m:s:ms)","GENERIC","187.569","0.07073109014953423","1090"
"20:56:3:636 (H:m:s:ms)","GENERIC","187.485","0.08528587141758791","363"
"21:18:16:969 (H:m:s:ms)","GENERIC","187.531","0.09115780475361089","1030"
"20:56:9:696 (H:m:s:ms)","GENERIC","187.547","0.08025911144855694","351"
"21:18:23:30 (H:m:s:ms)","GENERIC","187.555","0.08560259333040002","969"
"20:40:0:0 (H:m:s:ms)","OPERA","156.47899999999998","0.09628854457268343","1495"
"20:56:15:757 (H:m:s:ms)","GENERIC","187.516","0.0931148712311888","242"
"21:18:29:90 (H:m:s:ms)","GENERIC","187.509","0.09164318819372598","947"
"20:40:0:0 (H:m:s:ms)","GENERIC","187.512","0.11142837810862975","1494"
"20:56:21:818 (H:m:s:ms)","GENERIC","187.519","0.09996135062314047","181"
"21:18:35:151 (H:m:s:ms)","GENERIC","187.557","0.0884371623320024","848"
"21:29:29:696 (H:m:s:ms)","GENERIC","187.52100000000002","0.11610694718108991","341"
"20:40:0:0 (H:m:s:ms)","GENERIC","187.568","0.13726873357316635","1494"
"20:56:27:878 (H:m:s:ms)","GENERIC","187.505","0.05674322912338589","1122"
"21:18:41:212 (H:m:s:ms)","GENERIC","187.493","0.09379704628561215","788"
"21:29:29:620 (H:m:s:ms)","OPERA","156.477","0.09951635516485662","417"
"20:40:6:60 (H:m:s:ms)","GENERIC","187.524","0.1275333133730088","939"
"20:56:33:939 (H:m:s:ms)","GENERIC","187.507","0.0858336623772241","1060"
"21:18:47:272 (H:m:s:ms)","GENERIC","187.547","0.09109719383377893","727"
"21:29:23:636 (H:m:s:ms)","GENERIC","187.613","0.10934109755354392","364"
"20:40:7:594 (H:m:s:ms)","OPERA","156.47","0.07751664169049549","405"
"20:56:40:0 (H:m:s:ms)","GENERIC","187.56099999999998","0.06902090640931974","1047"
"21:18:53:333 (H:m:s:ms)","GENERIC","187.489","0.09781102394376164","666"
"20:40:12:121 (H:m:s:ms)","GENERIC","187.465","0.1019545817848066","878"
"20:56:46:60 (H:m:s:ms)","GENERIC","187.50900000000001","0.08560707772632369","939"
"21:18:59:393 (H:m:s:ms)","GENERIC","187.50400000000002","0.0927182387160464","642"
"20:40:15:189 (H:m:s:ms)","OPERA","156.47","0.08655451084884198","810"
"20:56:52:121 (H:m:s:ms)","GENERIC","187.549","0.10243117597570188","878"
"20:40:18:181 (H:m:s:ms)","GENERIC","187.485","0.10627756276086808","818"
"20:56:58:181 (H:m:s:ms)","GENERIC","187.552","0.09316854321561394","818"
"20:40:22:784 (H:m:s:ms)","OPERA","156.462","0.07165385922672157","215"
"20:40:24:242 (H:m:s:ms)","GENERIC","187.498","0.1067458977331932","757"
"21:30:0:0 (H:m:s:ms)","AMBULANCE","187.531","0.14739411085634288","1037"
"21:30:42:424 (H:m:s:ms)","GENERIC","187.547","0.09131583759168488","575"
"21:30:36:363 (H:m:s:ms)","GENERIC","187.469","0.11305742831579775","636"
"21:30:31:578 (H:m:s:ms)","AMBULANCE","187.559","0.0907866868187864","421"
"21:30:30:303 (H:m:s:ms)","GENERIC","187.527","0.07739097227916175","696"
"21:30:24:242 (H:m:s:ms)","GENERIC","187.543","0.09279122041034167","757"
"21:30:18:181 (H:m:s:ms)","GENERIC","187.527","0.09610718288728894","818"
"21:30:12:121 (H:m:s:ms)","GENERIC","187.515","0.07204055546186128","878"
"21:19:5:454 (H:m:s:ms)","GENERIC","187.51","0.10200839817355634","545"
"21:30:6:60 (H:m:s:ms)","GENERIC","187.517","0.14313681883152798","939"
"21:19:11:515 (H:m:s:ms)","GENERIC","187.577","0.09358831718386054","484"
"20:57:4:242 (H:m:s:ms)","GENERIC","187.515","0.07620810490176487","757"
"21:19:17:575 (H:m:s:ms)","GENERIC","187.551","0.08832653843977675","424"
"20:57:10:303 (H:m:s:ms)","GENERIC","187.555","0.09112123238965682","696"
"21:19:23:636 (H:m:s:ms)","GENERIC","187.615","0.0865675918231926","363"
"20:40:30:303 (H:m:s:ms)","GENERIC","187.505","0.09105736542961246","697"
"20:57:16:363 (H:m:s:ms)","GENERIC","187.567","0.09899423160844556","636"
"21:19:29:696 (H:m:s:ms)","GENERIC","187.559","0.08233678409463445","340"
"20:40:30:379 (H:m:s:ms)","OPERA","156.462","0.11432204643661048","621"
"20:57:22:424 (H:m:s:ms)","GENERIC","187.605","0.08934190078244007","575"
"21:19:35:757 (H:m:s:ms)","GENERIC","187.549","0.08482361234570854","242"
"20:40:36:363 (H:m:s:ms)","GENERIC","187.46800000000002","0.11722796129360702","636"
"20:57:28:484 (H:m:s:ms)","GENERIC","187.589","0.08237618995050143","515"
"21:19:41:818 (H:m:s:ms)","GENERIC","187.565","0.09623715574468365","181"
"20:40:37:974 (H:m:s:ms)","OPERA","156.47899999999998","0.09007991578025254","1025"
"20:57:34:545 (H:m:s:ms)","GENERIC","187.551","0.08195424149418226","454"
"21:19:47:878 (H:m:s:ms)","GENERIC","187.59699999999998","0.04965980443724489","1121"
"21:30:0:0 (H:m:s:ms)","GENERIC","187.557","0.1251761304599264","1037"
"20:40:42:424 (H:m:s:ms)","GENERIC","187.517","0.10739815991876048","575"
"20:57:40:606 (H:m:s:ms)","GENERIC","187.517","0.0840143498988816","393"
"21:19:53:939 (H:m:s:ms)","GENERIC","187.533","0.08319900300485714","1060"
"21:30:0:0 (H:m:s:ms)","GENERIC","187.587","0.1048998298514444","1037"
"20:40:45:569 (H:m:s:ms)","OPERA","156.481","0.07564871945625228","430"
"20:57:46:666 (H:m:s:ms)","GENERIC","187.575","0.08926135526685951","333"
"21:20:0:0 (H:m:s:ms)","OPERA","156.47","0.08714940235371975","1493"
"20:40:48:484 (H:m:s:ms)","GENERIC","187.464","0.10750411973469912","515"
"20:57:52:727 (H:m:s:ms)","GENERIC","187.499","0.0825532383652873","272"
"20:40:53:164 (H:m:s:ms)","OPERA","156.471","0.08740772721736464","835"
"20:57:58:787 (H:m:s:ms)","GENERIC","187.557","0.0910844371689071","212"
"20:40:54:545 (H:m:s:ms)","GENERIC","187.531","0.11500672568743914","454"
"20:41:0:606 (H:m:s:ms)","GENERIC","187.553","0.08675157521007261","393"
"21:31:0:606 (H:m:s:ms)","GENERIC","187.541","0.08200420841956242","393"
"21:30:54:545 (H:m:s:ms)","GENERIC","187.563","0.0815800897822375","455"
"21:31:36:969 (H:m:s:ms)","GENERIC","187.45600000000002","0.1086022519914747","1030"
"21:31:34:736 (H:m:s:ms)","AMBULANCE","187.587","0.08991413951946223","263"
"21:31:30:909 (H:m:s:ms)","GENERIC","187.559","0.06249413437883858","1090"
"21:31:24:848 (H:m:s:ms)","GENERIC","187.57299999999998","0.08061727751692255","151"
"21:31:18:787 (H:m:s:ms)","GENERIC","187.513","0.08257397675658786","212"
"21:31:12:727 (H:m:s:ms)","GENERIC","187.535","0.09148277430378098","272"
"21:31:6:666 (H:m:s:ms)","GENERIC","187.546","0.1133452128414233","333"
"21:31:3:157 (H:m:s:ms)","AMBULANCE","187.57299999999998","0.07260662485814834","842"
"20:58:4:848 (H:m:s:ms)","GENERIC","187.495","0.08682093044424555","151"
"20:58:10:909 (H:m:s:ms)","GENERIC","187.559","0.054597665131662","1090"
"20:41:0:759 (H:m:s:ms)","OPERA","156.458","0.10881897881768361","240"
"20:58:16:969 (H:m:s:ms)","GENERIC","187.515","0.10276826901476502","1030"
"20:41:6:666 (H:m:s:ms)","GENERIC","187.562","0.10676743781604836","333"
"20:58:23:30 (H:m:s:ms)","GENERIC","187.545","0.0962212745558821","969"
"20:41:8:354 (H:m:s:ms)","OPERA","156.486","0.07218556326055488","645"
"20:58:29:90 (H:m:s:ms)","GENERIC","187.523","0.08625315643221926","956"
"20:41:12:727 (H:m:s:ms)","GENERIC","187.54500000000002","0.09479573682893387","273"
"20:58:35:151 (H:m:s:ms)","GENERIC","187.529","0.09012215413335678","848"
"20:41:15:949 (H:m:s:ms)","OPERA","156.465","0.09257985804664105","1050"
"20:58:41:212 (H:m:s:ms)","GENERIC","187.481","0.10076837729665424","787"
"20:41:18:787 (H:m:s:ms)","GENERIC","187.521","0.1098825179584769","212"
"20:58:47:272 (H:m:s:ms)","GENERIC","187.555","0.09116939217879508","727"
"21:30:48:484 (H:m:s:ms)","GENERIC","187.49099999999999","0.08358846253403136","515"
"20:41:23:544 (H:m:s:ms)","OPERA","156.481","0.08081069555706644","455"
"20:58:53:333 (H:m:s:ms)","GENERIC","187.486","0.07640154718590837","667"
"20:41:24:848 (H:m:s:ms)","GENERIC","187.595","0.10227917644489855","152"
"20:58:59:393 (H:m:s:ms)","GENERIC","187.50900000000001","0.08815962373595812","652"
"20:41:30:909 (H:m:s:ms)","GENERIC","187.53699999999998","0.04883623833711702","1091"
"20:41:31:139 (H:m:s:ms)","OPERA","156.47","0.09052270991706271","861"
"20:59:5:454 (H:m:s:ms)","GENERIC","187.508","0.09213069498336672","545"
"20:59:11:515 (H:m:s:ms)","GENERIC","187.58499999999998","0.0927994037832682","484"
"20:41:36:969 (H:m:s:ms)","GENERIC","187.53","0.10654934298379527","1030"
"20:59:17:575 (H:m:s:ms)","GENERIC","187.557","0.083703920895864","424"
"20:41:38:734 (H:m:s:ms)","OPERA","156.48","0.09002064123217493","265"
"20:59:23:636 (H:m:s:ms)","GENERIC","187.605","0.08597403239930618","363"
"20:41:43:30 (H:m:s:ms)","GENERIC","187.502","0.10618026798552592","969"
"20:59:29:696 (H:m:s:ms)","GENERIC","187.573","0.09145396952938596","349"
"20:41:46:329 (H:m:s:ms)","OPERA","156.487","0.07905056475557419","670"
"20:59:35:757 (H:m:s:ms)","GENERIC","187.52100000000002","0.08768295323460441","242"
"20:41:49:90 (H:m:s:ms)","GENERIC","187.492","0.10892088845878074","948"
"20:59:41:818 (H:m:s:ms)","GENERIC","187.53699999999998","0.09086077155142298","181"
"20:41:53:924 (H:m:s:ms)","OPERA","156.481","0.09450713946610921","1075"
"20:59:47:878 (H:m:s:ms)","GENERIC","187.57299999999998","0.06323740115797903","1121"
"20:41:55:151 (H:m:s:ms)","GENERIC","187.512","0.11155161872978983","848"
"20:59:53:939 (H:m:s:ms)","GENERIC","187.531","0.08248779930389816","1060"
"20:42:1:212 (H:m:s:ms)","GENERIC","187.553","0.08153719393350542","787"
"21:0:0:0 (H:m:s:ms)","AMBULANCE","156.536","0.07768293420899236","1510"
"20:42:1:518 (H:m:s:ms)","OPERA","156.45499999999998","0.11428368530661133","481"
"20:42:7:272 (H:m:s:ms)","GENERIC","187.57999999999998","0.11109136083445952","727"
"21:0:0:0 (H:m:s:ms)","GENERIC","187.529","0.1078495352584388","1510"
"21:0:0:0 (H:m:s:ms)","GENERIC","187.596","0.1298402840074212","1510"
"20:42:9:113 (H:m:s:ms)","OPERA","156.487","0.06945575416027978","926"
"21:0:6:60 (H:m:s:ms)","GENERIC","187.529","0.12290914186596995","939"
"20:42:13:333 (H:m:s:ms)","GENERIC","187.527","0.09350886275249165","666"
"21:0:12:121 (H:m:s:ms)","GENERIC","187.527","0.08314691425410657","878"
"20:20:0:0 (H:m:s:ms)","GENERIC","187.577","0.09965876137942412","1500"
"20:42:16:708 (H:m:s:ms)","OPERA","156.478","0.0865271963741447","291"
"21:0:18:181 (H:m:s:ms)","GENERIC","187.473","0.09585192783445565","818"
"20:20:0:0 (H:m:s:ms)","GENERIC","187.548","0.11096666683380757","1500"
"20:42:19:393 (H:m:s:ms)","GENERIC","187.551","0.11253652563504009","646"
"21:0:24:242 (H:m:s:ms)","GENERIC","187.555","0.09318088984291766","758"
"20:20:6:60 (H:m:s:ms)","GENERIC","187.53300000000002","0.10003438152807333","939"
"20:42:24:303 (H:m:s:ms)","OPERA","156.481","0.08689254232223444","697"
"21:0:30:303 (H:m:s:ms)","GENERIC","187.527","0.09986444319454917","696"
"20:20:12:121 (H:m:s:ms)","GENERIC","187.499","0.07301434866603163","878"
"20:42:25:454 (H:m:s:ms)","GENERIC","187.548","0.1095161283279125","545"
"21:0:31:578 (H:m:s:ms)","AMBULANCE","156.515","0.09651892794397038","421"
"20:20:18:181 (H:m:s:ms)","GENERIC","187.517","0.07438941151479049","818"
"20:42:31:515 (H:m:s:ms)","GENERIC","187.497","0.07292473256641863","484"
"21:0:36:363 (H:m:s:ms)","GENERIC","187.49599999999998","0.11153997977672603","636"
"20:20:24:242 (H:m:s:ms)","GENERIC","187.529","0.08864591872463347","757"
"20:42:31:898 (H:m:s:ms)","OPERA","156.433","0.1111764694953186","101"
"21:0:42:424 (H:m:s:ms)","GENERIC","187.519","0.07480857261112933","575"
"20:20:30:303 (H:m:s:ms)","GENERIC","187.463","0.09761673026051834","696"
"20:42:37:575 (H:m:s:ms)","GENERIC","187.53300000000002","0.11580436778853419","424"
"20:20:36:363 (H:m:s:ms)","GENERIC","187.539","0.09047078546518067","636"
"20:42:39:493 (H:m:s:ms)","OPERA","156.469","0.08955135930525286","546"
"20:20:42:424 (H:m:s:ms)","GENERIC","187.493","0.08641707507749939","575"
"20:20:48:484 (H:m:s:ms)","GENERIC","187.515","0.0911443109529813","516"
"21:0:48:484 (H:m:s:ms)","GENERIC","187.505","0.08150400389557655","515"
"21:0:54:545 (H:m:s:ms)","GENERIC","187.519","0.08069299029156755","454"
"20:42:43:636 (H:m:s:ms)","GENERIC","187.49200000000002","0.11062980633880352","363"
"21:1:0:606 (H:m:s:ms)","GENERIC","187.535","0.09009905655912884","393"
"20:42:47:88 (H:m:s:ms)","OPERA","156.48","0.08309010631861195","911"
"21:1:3:157 (H:m:s:ms)","AMBULANCE","156.525","0.09614733853917459","842"
"20:20:54:545 (H:m:s:ms)","GENERIC","187.54399999999998","0.09350458307876304","455"
"20:42:49:696 (H:m:s:ms)","GENERIC","187.577","0.10514001322611172","343"
"21:1:6:666 (H:m:s:ms)","GENERIC","187.541","0.11505430887696355","333"
"20:21:0:606 (H:m:s:ms)","GENERIC","187.576","0.10109120982596843","393"
"20:42:54:683 (H:m:s:ms)","OPERA","156.487","0.07859892556637132","316"
"21:1:12:727 (H:m:s:ms)","GENERIC","187.541","0.07413051012794554","272"
"20:21:6:666 (H:m:s:ms)","GENERIC","187.595","0.09782607980255854","333"
"20:42:55:757 (H:m:s:ms)","GENERIC","187.471","0.11363970191547573","242"
"21:1:18:787 (H:m:s:ms)","GENERIC","187.525","0.08142696470339283","212"
"20:21:12:727 (H:m:s:ms)","GENERIC","187.567","0.08750901997852173","272"
"20:43:1:818 (H:m:s:ms)","GENERIC","187.547","0.08711765419226641","182"
"21:1:24:848 (H:m:s:ms)","GENERIC","187.629","0.07459660804472018","151"
"20:21:18:787 (H:m:s:ms)","GENERIC","187.529","0.08921602598751437","212"
"20:43:2:278 (H:m:s:ms)","OPERA","156.45499999999998","0.0864974986944066","721"
"21:1:30:909 (H:m:s:ms)","GENERIC","187.54899999999998","0.06359040692939848","1090"
"20:21:24:848 (H:m:s:ms)","GENERIC","187.573","0.0839352679347162","152"
"20:43:7:878 (H:m:s:ms)","GENERIC","187.575","0.08502594519575692","1121"
"21:1:34:736 (H:m:s:ms)","AMBULANCE","156.494","0.08853762648198239","264"
"20:21:30:909 (H:m:s:ms)","GENERIC","187.54899999999998","0.06362631740839955","1090"
"20:43:9:873 (H:m:s:ms)","OPERA","156.477","0.08490215920221082","166"
"20:21:36:969 (H:m:s:ms)","GENERIC","187.563","0.09947775595823513","1030"
"20:43:13:939 (H:m:s:ms)","GENERIC","187.46800000000002","0.10706362129564494","1060"
"20:21:43:30 (H:m:s:ms)","GENERIC","187.495","0.0897799835517781","969"
"20:21:49:90 (H:m:s:ms)","GENERIC","187.53300000000002","0.08441699591166037","949"
"20:43:17:468 (H:m:s:ms)","OPERA","156.486","0.09092845420747314","531"
"20:43:20:0 (H:m:s:ms)","GENERIC","187.595","0.10546039656010929","1041"
"20:21:55:151 (H:m:s:ms)","GENERIC","187.535","0.08541111169636119","848"
"20:43:25:63 (H:m:s:ms)","OPERA","156.476","0.08527232796295178","936"
"20:22:1:212 (H:m:s:ms)","GENERIC","187.557","0.08945710699531292","787"
"20:43:26:60 (H:m:s:ms)","GENERIC","187.513","0.1104007419668942","939"
"20:22:7:272 (H:m:s:ms)","GENERIC","187.56099999999998","0.096398142580793","727"
"20:43:32:121 (H:m:s:ms)","GENERIC","187.517","0.08454327043644196","878"
"20:22:13:333 (H:m:s:ms)","GENERIC","187.487","0.0940628805695525","666"
"20:43:32:658 (H:m:s:ms)","OPERA","156.469","0.11111280357144741","341"
"20:22:19:393 (H:m:s:ms)","GENERIC","187.611","0.0709229055868549","646"
"20:43:38:181 (H:m:s:ms)","GENERIC","187.556","0.1062586311318937","818"
"20:22:25:454 (H:m:s:ms)","GENERIC","187.549","0.07621327758101035","545"
"20:43:40:253 (H:m:s:ms)","OPERA","156.48","0.0856364256132985","746"
"20:22:31:515 (H:m:s:ms)","GENERIC","187.523","0.08620900717327315","484"
"20:43:44:242 (H:m:s:ms)","GENERIC","187.537","0.10088400187246703","757"
"20:22:37:575 (H:m:s:ms)","GENERIC","187.525","0.08788866062128846","424"
"20:43:47:848 (H:m:s:ms)","OPERA","156.477","0.0756949553558466","151"
"20:22:43:636 (H:m:s:ms)","GENERIC","187.515","0.09208645279860668","364"
"20:22:49:696 (H:m:s:ms)","GENERIC","187.579","0.08269450055236939","343"
"20:43:50:303 (H:m:s:ms)","GENERIC","187.529","0.10626211165431848","696"
"20:43:55:443 (H:m:s:ms)","OPERA","156.48","0.09418193490113011","556"
"20:22:55:757 (H:m:s:ms)","GENERIC","187.495","0.07885895285709953","242"
"20:43:56:363 (H:m:s:ms)","GENERIC","187.516","0.11926039746209524","636"
"20:23:1:818 (H:m:s:ms)","GENERIC","187.539","0.0827237741587945","181"
"20:44:2:424 (H:m:s:ms)","GENERIC","187.555","0.07858070672319724","575"
"20:23:7:878 (H:m:s:ms)","GENERIC","187.623","0.05975680686385088","1121"
"20:44:3:37 (H:m:s:ms)","OPERA","156.464","0.08620899032826192","962"
"20:23:13:939 (H:m:s:ms)","GENERIC","187.515","0.08812266252219998","1060"
"20:44:8:484 (H:m:s:ms)","GENERIC","187.48399999999998","0.10378718804609093","515"
"20:23:20:0 (H:m:s:ms)","GENERIC","187.575","0.08928933409235074","1041"
"20:44:10:632 (H:m:s:ms)","OPERA","156.487","0.08562187282230149","367"
"20:23:26:60 (H:m:s:ms)","GENERIC","187.53300000000002","0.08980379029855065","939"
"20:44:14:545 (H:m:s:ms)","GENERIC","187.513","0.10040346184641452","455"
"20:23:32:121 (H:m:s:ms)","GENERIC","187.537","0.09185262864901958","878"
"20:44:18:227 (H:m:s:ms)","OPERA","156.471","0.0882143082381431","772"
"20:23:38:181 (H:m:s:ms)","GENERIC","187.615","0.09207493159396084","819"
"20:44:20:606 (H:m:s:ms)","GENERIC","187.494","0.10708270499222389","394"
"20:23:44:242 (H:m:s:ms)","GENERIC","187.545","0.0818142719735464","757"
"20:23:50:303 (H:m:s:ms)","GENERIC","187.52100000000002","0.07319171899652441","696"
"20:44:25:822 (H:m:s:ms)","OPERA","156.484","0.070182828993884","177"
"20:44:26:666 (H:m:s:ms)","GENERIC","187.539","0.09057158100462727","333"
"20:23:56:363 (H:m:s:ms)","GENERIC","187.539","0.07368622243655085","636"
"20:44:32:727 (H:m:s:ms)","GENERIC","187.639","0.08496753289181207","272"
"20:24:2:424 (H:m:s:ms)","GENERIC","187.515","0.08684920755197996","575"
"20:44:33:417 (H:m:s:ms)","OPERA","156.46","0.10393499414912134","582"
"20:24:8:484 (H:m:s:ms)","GENERIC","187.517","0.0943801841644193","515"
"20:44:38:787 (H:m:s:ms)","GENERIC","187.547","0.11651999997346886","212"
"20:24:14:545 (H:m:s:ms)","GENERIC","187.51299999999998","0.1022452048529927","454"
"20:44:41:12 (H:m:s:ms)","OPERA","156.48","0.07362461829309372","987"
"20:24:20:606 (H:m:s:ms)","GENERIC","187.497","0.10248508205283188","393"
"20:44:44:848 (H:m:s:ms)","GENERIC","187.58499999999998","0.10457106438457969","152"
"20:24:26:666 (H:m:s:ms)","GENERIC","187.551","0.09467316776435113","333"
"20:44:48:607 (H:m:s:ms)","OPERA","156.481","0.08225649375367063","392"
"20:24:32:727 (H:m:s:ms)","GENERIC","187.603","0.09146268895687196","272"
"20:44:50:909 (H:m:s:ms)","GENERIC","187.541","0.08035664538906069","1090"
"20:24:38:787 (H:m:s:ms)","GENERIC","187.534","0.08842107709731968","212"
"20:44:56:202 (H:m:s:ms)","OPERA","156.476","0.08347653439920451","797"
"20:24:44:848 (H:m:s:ms)","GENERIC","187.551","0.07727731734579786","151"
"20:24:50:909 (H:m:s:ms)","GENERIC","187.551","0.06237944580118926","1090"
"20:44:56:969 (H:m:s:ms)","GENERIC","187.583","0.10092846832902451","1030"
"20:45:3:30 (H:m:s:ms)","GENERIC","187.579","0.08572798320094521","969"
"20:24:56:969 (H:m:s:ms)","GENERIC","187.589","0.08115169558036817","1030"
"20:45:3:797 (H:m:s:ms)","OPERA","156.45600000000002","0.10771915084505283","202"
"20:25:3:30 (H:m:s:ms)","GENERIC","187.559","0.07053227897321075","969"
"20:45:9:90 (H:m:s:ms)","GENERIC","187.553","0.11398084381200393","949"
"20:25:9:90 (H:m:s:ms)","GENERIC","187.571","0.08948111775588319","950"
"20:45:11:392 (H:m:s:ms)","OPERA","156.481","0.09542951598615118","607"
"20:25:15:151 (H:m:s:ms)","GENERIC","187.527","0.09655890645005097","848"
"20:45:15:151 (H:m:s:ms)","GENERIC","187.505","0.12137401146950152","848"
"20:25:21:212 (H:m:s:ms)","GENERIC","187.572","0.10064056117963707","787"
"20:45:18:987 (H:m:s:ms)","OPERA","156.48","0.08901430159518135","1052"
"20:25:27:272 (H:m:s:ms)","GENERIC","187.555","0.0991718144159383","727"
"20:45:21:212 (H:m:s:ms)","GENERIC","187.605","0.11805278180634071","787"
"20:25:33:333 (H:m:s:ms)","GENERIC","187.582","0.09622872144648348","666"
"20:45:26:582 (H:m:s:ms)","OPERA","156.487","0.09400323515208553","417"
"20:25:39:393 (H:m:s:ms)","GENERIC","187.535","0.09216421918037535","646"
"20:45:27:272 (H:m:s:ms)","GENERIC","187.524","0.1055132582867457","727"
"20:25:45:454 (H:m:s:ms)","GENERIC","187.558","0.09871098958661906","545"
"20:25:51:515 (H:m:s:ms)","GENERIC","187.508","0.08853239819578022","484"
"20:25:57:575 (H:m:s:ms)","GENERIC","187.519","0.0853597021564211","424"
"20:26:3:636 (H:m:s:ms)","GENERIC","187.487","0.08757153245183366","363"
"20:26:9:696 (H:m:s:ms)","GENERIC","187.559","0.09408956288394718","343"
"20:26:15:757 (H:m:s:ms)","GENERIC","187.49699999999999","0.09421559454956525","242"
"20:26:21:818 (H:m:s:ms)","GENERIC","187.495","0.06954342764811933","181"
"20:26:27:878 (H:m:s:ms)","GENERIC","187.519","0.06041278112547732","1121"
"20:26:33:939 (H:m:s:ms)","GENERIC","187.555","0.08891531852158534","1060"
"20:26:40:0 (H:m:s:ms)","GENERIC","187.531","0.08962655354265535","1039"
"20:26:46:60 (H:m:s:ms)","GENERIC","187.529","0.09262576381564931","939"
"20:26:52:121 (H:m:s:ms)","GENERIC","187.50900000000001","0.08436768929015076","878"
"20:26:58:181 (H:m:s:ms)","GENERIC","187.599","0.08265188534801216","818"
"20:27:4:242 (H:m:s:ms)","GENERIC","187.551","0.09097562669328274","757"
"20:27:10:303 (H:m:s:ms)","GENERIC","187.58599999999998","0.09413116320755663","696"
"20:27:16:363 (H:m:s:ms)","GENERIC","187.555","0.0953115285960942","636"
"20:27:22:424 (H:m:s:ms)","GENERIC","187.58499999999998","0.08454251828752636","575"
"20:27:28:484 (H:m:s:ms)","GENERIC","187.603","0.08205044350112681","515"
"20:27:34:545 (H:m:s:ms)","GENERIC","187.52100000000002","0.08771802854455614","455"
"20:27:40:606 (H:m:s:ms)","GENERIC","187.571","0.07727159129914962","393"
"20:27:46:666 (H:m:s:ms)","GENERIC","187.573","0.08434556513101635","334"
"20:27:52:727 (H:m:s:ms)","GENERIC","187.521","0.08392622664051538","272"
"20:27:58:787 (H:m:s:ms)","GENERIC","187.54500000000002","0.08767333529259087","212"
"20:28:4:848 (H:m:s:ms)","GENERIC","187.483","0.08448477051452302","151"
"20:28:10:909 (H:m:s:ms)","GENERIC","187.601","0.06150280971089492","1090"
"20:28:16:969 (H:m:s:ms)","GENERIC","187.509","0.09312453847214484","1030"
"20:28:23:30 (H:m:s:ms)","GENERIC","187.541","0.09113212751459616","969"
"20:28:29:90 (H:m:s:ms)","GENERIC","187.539","0.0860931993805307","951"
"20:28:35:151 (H:m:s:ms)","GENERIC","187.551","0.08758566542936831","848"
"20:28:41:212 (H:m:s:ms)","GENERIC","187.485","0.08133127968516889","787"
"20:28:47:272 (H:m:s:ms)","GENERIC","187.523","0.08233688976100119","727"
"20:28:53:333 (H:m:s:ms)","GENERIC","187.511","0.09632139868661944","666"
"20:28:59:393 (H:m:s:ms)","GENERIC","187.507","0.08488958903763483","649"
"20:29:5:454 (H:m:s:ms)","GENERIC","187.539","0.08500212223204297","545"
"20:29:11:515 (H:m:s:ms)","GENERIC","187.511","0.09245742885497045","484"
"20:29:17:575 (H:m:s:ms)","GENERIC","187.53300000000002","0.09613775031495164","424"
"20:29:23:636 (H:m:s:ms)","GENERIC","187.615","0.0874034968576846","363"
"20:29:29:696 (H:m:s:ms)","GENERIC","187.61700000000002","0.0980756624690402","347"
"20:29:35:757 (H:m:s:ms)","GENERIC","187.561","0.09345626888093683","242"
"20:29:41:818 (H:m:s:ms)","GENERIC","187.539","0.08054437965363498","181"
"20:29:47:878 (H:m:s:ms)","GENERIC","187.555","0.0488873109194862","1121"
"20:29:53:939 (H:m:s:ms)","GENERIC","187.541","0.07664592584852535","1061"
"21:20:0:0 (H:m:s:ms)","GENERIC","187.54","0.1091731167826784","1493"
"21:20:0:0 (H:m:s:ms)","GENERIC","187.578","0.13586443253314973","1493"
"21:20:6:60 (H:m:s:ms)","GENERIC","187.50799999999998","0.13674978252784292","940"
"21:20:7:594 (H:m:s:ms)","OPERA","187.475","0.0900048197605709","405"
"21:20:12:121 (H:m:s:ms)","GENERIC","187.499","0.11887755045973808","878"
"21:20:15:189 (H:m:s:ms)","OPERA","156.471","0.0996031970699748","810"
"21:20:18:181 (H:m:s:ms)","GENERIC","187.487","0.12376832486259033","818"
"21:20:22:784 (H:m:s:ms)","OPERA","156.486","0.08106241840111918","215"
"21:20:24:242 (H:m:s:ms)","GENERIC","187.527","0.09950945289954552","757"
"21:20:30:303 (H:m:s:ms)","GENERIC","187.54899999999998","0.07544847762966844","696"
"21:20:30:379 (H:m:s:ms)","OPERA","187.46699999999998","0.10318689111527202","620"
"21:20:36:363 (H:m:s:ms)","GENERIC","187.507","0.10789870422527115","636"
"21:20:37:974 (H:m:s:ms)","OPERA","187.481","0.07837414465351598","1025"
"21:20:42:424 (H:m:s:ms)","GENERIC","187.493","0.10154111204459797","575"
"21:20:45:569 (H:m:s:ms)","OPERA","187.493","0.08112610375881757","430"
"21:20:48:484 (H:m:s:ms)","GENERIC","187.507","0.10204734818433686","515"
"21:20:53:164 (H:m:s:ms)","OPERA","187.49099999999999","0.07074201901859364","835"
"21:20:54:545 (H:m:s:ms)","GENERIC","187.505","0.09592063335659347","455"
"21:21:0:606 (H:m:s:ms)","GENERIC","187.563","0.08373340583743254","393"
"21:21:0:759 (H:m:s:ms)","OPERA","187.46699999999998","0.10083429424064111","240"
"21:32:37:575 (H:m:s:ms)","GENERIC","187.577","0.08573041505175329","424"
"21:32:19:393 (H:m:s:ms)","GENERIC","187.563","0.08705062046653117","644"
"21:32:13:333 (H:m:s:ms)","GENERIC","187.511","0.09898742388028875","666"
"21:32:7:272 (H:m:s:ms)","GENERIC","187.534","0.11666912617587534","727"
"21:32:6:315 (H:m:s:ms)","AMBULANCE","187.529","0.08326775294218013","684"
"21:32:1:212 (H:m:s:ms)","GENERIC","187.517","0.08526457207409326","787"
"21:31:55:151 (H:m:s:ms)","GENERIC","187.523","0.08829281203572134","848"
"21:31:49:90 (H:m:s:ms)","GENERIC","187.539","0.08928279410101034","945"
"21:21:6:666 (H:m:s:ms)","GENERIC","187.547","0.10071593734213792","333"
"21:31:43:30 (H:m:s:ms)","GENERIC","187.539","0.07776226498156534","969"
"21:21:8:354 (H:m:s:ms)","OPERA","187.481","0.09034038928512536","645"
"21:21:12:727 (H:m:s:ms)","GENERIC","187.524","0.11418801342209708","272"
"21:21:15:949 (H:m:s:ms)","OPERA","156.481","0.08543487589130161","1050"
"21:21:18:787 (H:m:s:ms)","GENERIC","187.495","0.11785053801196173","212"
"21:21:23:544 (H:m:s:ms)","OPERA","187.483","0.08330123605171214","455"
"21:21:24:848 (H:m:s:ms)","GENERIC","187.535","0.11153370283494846","151"
"21:21:30:909 (H:m:s:ms)","GENERIC","187.561","0.08675000834382915","1090"
"21:32:31:515 (H:m:s:ms)","GENERIC","187.504","0.09902168669703541","484"
"21:21:31:139 (H:m:s:ms)","OPERA","156.487","0.0602244109540386","860"
"21:32:25:454 (H:m:s:ms)","GENERIC","187.525","0.0838002088379137","545"
"21:21:36:969 (H:m:s:ms)","GENERIC","187.483","0.10853371988330875","1030"
"21:33:32:121 (H:m:s:ms)","GENERIC","187.575","0.08969971477610261","878"
"21:33:26:60 (H:m:s:ms)","GENERIC","187.537","0.08421750846565068","939"
"21:33:13:939 (H:m:s:ms)","GENERIC","187.502","0.11052948487985159","1060"
"21:33:9:473 (H:m:s:ms)","AMBULANCE","187.547","0.09152373963861644","564"
"21:33:7:878 (H:m:s:ms)","GENERIC","187.565","0.06375605056111094","1121"
"21:33:1:818 (H:m:s:ms)","GENERIC","187.579","0.09369949875875451","181"
"21:32:55:757 (H:m:s:ms)","GENERIC","187.539","0.09651422637863885","242"
"21:32:49:696 (H:m:s:ms)","GENERIC","187.561","0.0776234492229321","343"
"21:21:38:734 (H:m:s:ms)","OPERA","156.462","0.08460545209287722","265"
"21:32:43:636 (H:m:s:ms)","GENERIC","187.535","0.0992760083748433","363"
"21:21:43:30 (H:m:s:ms)","GENERIC","187.508","0.1113990506807693","969"
"21:32:37:894 (H:m:s:ms)","AMBULANCE","187.56900000000002","0.0801641949224377","1105"
"21:21:46:329 (H:m:s:ms)","OPERA","187.48499999999999","0.07789818432775848","670"
"21:21:49:90 (H:m:s:ms)","GENERIC","187.529","0.10619475735047758","947"
"21:21:53:924 (H:m:s:ms)","OPERA","156.47","0.08655558722427294","1076"
"21:21:55:151 (H:m:s:ms)","GENERIC","187.486","0.11271258070653714","848"
"21:22:1:212 (H:m:s:ms)","GENERIC","187.515","0.09462827813682946","787"
"21:22:1:518 (H:m:s:ms)","OPERA","187.469","0.10851417901875358","481"
"21:22:7:272 (H:m:s:ms)","GENERIC","187.539","0.0985431760661388","727"
"21:22:9:113 (H:m:s:ms)","OPERA","156.477","0.07170603891155461","924"
"21:33:20:0 (H:m:s:ms)","GENERIC","187.641","0.06959958474138978","1037"
"21:34:26:666 (H:m:s:ms)","GENERIC","187.513","0.09067967372107631","333"
"21:34:20:606 (H:m:s:ms)","GENERIC","187.563","0.07912626251069231","393"
"21:34:14:545 (H:m:s:ms)","GENERIC","187.5","0.11073931942197897","454"
"21:34:12:631 (H:m:s:ms)","AMBULANCE","187.577","0.09869620831194144","368"
"21:34:8:484 (H:m:s:ms)","GENERIC","187.535","0.09491365032515148","515"
"21:34:2:424 (H:m:s:ms)","GENERIC","187.505","0.09569902997255113","575"
"21:33:56:363 (H:m:s:ms)","GENERIC","187.583","0.08797551315883075","636"
"21:33:50:303 (H:m:s:ms)","GENERIC","187.53699999999998","0.0589727302497121","696"
"21:22:13:333 (H:m:s:ms)","GENERIC","187.511","0.10459219153823332","666"
"21:33:44:242 (H:m:s:ms)","GENERIC","187.535","0.11095571598058951","757"
"21:22:16:708 (H:m:s:ms)","OPERA","187.481","0.09355936923081","291"
"21:33:41:52 (H:m:s:ms)","AMBULANCE","187.511","0.10040625722201986","947"
"21:1:36:969 (H:m:s:ms)","GENERIC","187.50799999999998","0.10459088081318618","1030"
"21:22:19:393 (H:m:s:ms)","GENERIC","187.547","0.1161419449466161","645"
"21:33:38:181 (H:m:s:ms)","GENERIC","187.635","0.09459069960352359","818"
"21:1:43:30 (H:m:s:ms)","GENERIC","187.503","0.08061800874609261","969"
"21:22:24:303 (H:m:s:ms)","OPERA","156.481","0.08124536244413427","697"
"21:1:49:90 (H:m:s:ms)","GENERIC","187.495","0.08464255926563224","956"
"21:22:25:454 (H:m:s:ms)","GENERIC","187.48000000000002","0.11014431117059449","545"
"21:1:55:151 (H:m:s:ms)","GENERIC","187.524","0.08642426064638588","848"
"21:22:31:515 (H:m:s:ms)","GENERIC","187.523","0.09266794918170261","484"
"21:2:1:212 (H:m:s:ms)","GENERIC","187.525","0.09585458688929252","787"
"21:22:31:898 (H:m:s:ms)","OPERA","187.464","0.10113607437882649","1101"
"21:2:6:315 (H:m:s:ms)","AMBULANCE","156.5","0.08390669949481178","684"
"21:22:37:575 (H:m:s:ms)","GENERIC","187.523","0.12237906807387526","424"
"21:2:7:272 (H:m:s:ms)","GENERIC","187.563","0.109532902965037","727"
"21:22:39:493 (H:m:s:ms)","OPERA","187.487","0.08042751331960925","544"
"21:2:13:333 (H:m:s:ms)","GENERIC","187.561","0.08690620662977885","666"
"21:22:43:636 (H:m:s:ms)","GENERIC","187.53300000000002","0.10422746448957251","363"
"21:2:19:393 (H:m:s:ms)","GENERIC","187.569","0.0888273540864439","650"
"21:2:25:454 (H:m:s:ms)","GENERIC","187.537","0.08728055968132374","545"
"21:35:27:272 (H:m:s:ms)","GENERIC","187.555","0.09375666986896183","727"
"21:35:21:212 (H:m:s:ms)","GENERIC","187.627","0.08729412167493183","787"
"21:35:15:151 (H:m:s:ms)","GENERIC","187.526","0.08789719886951285","849"
"21:35:9:90 (H:m:s:ms)","GENERIC","187.589","0.09791965604738707","946"
"21:35:3:30 (H:m:s:ms)","GENERIC","187.655","0.0988188454774017","969"
"21:34:56:969 (H:m:s:ms)","GENERIC","187.525","0.10331345704987249","1030"
"21:34:50:909 (H:m:s:ms)","GENERIC","187.553","0.07132663917369146","1090"
"21:22:47:88 (H:m:s:ms)","OPERA","187.48499999999999","0.08424322609676309","912"
"21:34:44:848 (H:m:s:ms)","GENERIC","187.581","0.0915202049567858","151"
"21:22:49:696 (H:m:s:ms)","GENERIC","187.539","0.10792999028082809","341"
"21:34:44:210 (H:m:s:ms)","AMBULANCE","187.501","0.11291069455323975","789"
"21:2:31:515 (H:m:s:ms)","GENERIC","187.483","0.09646350099356546","484"
"21:22:54:683 (H:m:s:ms)","OPERA","187.477","0.09393598043038216","316"
"21:34:38:787 (H:m:s:ms)","GENERIC","187.563","0.09056107753582703","212"
"21:2:37:575 (H:m:s:ms)","GENERIC","187.563","0.09742316687532103","424"
"21:22:55:757 (H:m:s:ms)","GENERIC","187.529","0.12091130739659847","242"
"21:34:32:727 (H:m:s:ms)","GENERIC","187.531","0.07654505704353465","273"
"21:2:37:894 (H:m:s:ms)","AMBULANCE","156.509","0.11583641806689723","105"
"21:23:1:818 (H:m:s:ms)","GENERIC","187.585","0.08299079893673336","181"
"21:2:43:636 (H:m:s:ms)","GENERIC","187.519","0.09509247770405119","363"
"21:23:2:278 (H:m:s:ms)","OPERA","156.471","0.1048676324369128","721"
"21:2:49:696 (H:m:s:ms)","GENERIC","187.615","0.08537429993641656","345"
"21:23:7:878 (H:m:s:ms)","GENERIC","187.579","0.10089371107304958","1121"
"21:2:55:757 (H:m:s:ms)","GENERIC","187.499","0.09801632932084366","243"
"21:23:9:873 (H:m:s:ms)","OPERA","156.471","0.08399721938647778","165"
"21:3:1:818 (H:m:s:ms)","GENERIC","187.579","0.09410126784765319","181"
"21:23:13:939 (H:m:s:ms)","GENERIC","187.512","0.10854558680939529","1060"
"21:3:7:878 (H:m:s:ms)","GENERIC","187.583","0.050936605722497","1121"
"21:23:17:468 (H:m:s:ms)","OPERA","156.478","0.08553366485172884","531"
"21:3:9:473 (H:m:s:ms)","AMBULANCE","156.513","0.07849315307781304","569"
"21:3:13:939 (H:m:s:ms)","GENERIC","187.497","0.10881105461334918","1061"
"21:36:21:818 (H:m:s:ms)","GENERIC","187.486","0.10262859981903565","182"
"21:36:18:947 (H:m:s:ms)","AMBULANCE","187.567","0.077209997992286","1088"
"21:36:15:757 (H:m:s:ms)","GENERIC","187.543","0.07077628299721697","242"
"21:36:9:696 (H:m:s:ms)","GENERIC","187.531","0.08583803797842421","340"
"21:36:3:636 (H:m:s:ms)","GENERIC","187.525","0.09464357082365377","363"
"21:35:57:575 (H:m:s:ms)","GENERIC","187.54500000000002","0.08425569851830357","424"
"21:23:20:0 (H:m:s:ms)","GENERIC","187.639","0.10431296127035708","1038"
"21:35:51:515 (H:m:s:ms)","GENERIC","187.47","0.11629463974145166","484"
"21:23:25:63 (H:m:s:ms)","OPERA","187.48499999999999","0.08001519473578186","936"
"21:35:47:368 (H:m:s:ms)","AMBULANCE","187.506","0.09272753713268121","631"
"21:3:20:0 (H:m:s:ms)","GENERIC","187.649","0.0900401859332294","1044"
"21:23:26:60 (H:m:s:ms)","GENERIC","187.513","0.10232673423358932","939"
"21:35:45:454 (H:m:s:ms)","GENERIC","187.531","0.09417672351531155","545"
"21:3:26:60 (H:m:s:ms)","GENERIC","187.53300000000002","0.09853539779403976","939"
"21:23:32:121 (H:m:s:ms)","GENERIC","187.567","0.07955548238630895","879"
"21:35:39:393 (H:m:s:ms)","GENERIC","187.531","0.08030924207372896","643"
"21:3:32:121 (H:m:s:ms)","GENERIC","187.51999999999998","0.09274256173121133","878"
"21:23:32:658 (H:m:s:ms)","OPERA","187.462","0.09962776914531529","342"
"21:35:33:333 (H:m:s:ms)","GENERIC","187.563","0.09379420887181275","666"
"21:3:38:181 (H:m:s:ms)","GENERIC","187.615","0.07899754123667177","818"
"21:23:38:181 (H:m:s:ms)","GENERIC","187.62900000000002","0.10911025769351541","818"
"21:3:41:52 (H:m:s:ms)","AMBULANCE","156.487","0.07288552662733014","947"
"21:23:40:253 (H:m:s:ms)","OPERA","156.477","0.09211889600744486","746"
"21:3:44:242 (H:m:s:ms)","GENERIC","187.521","0.09953010604016464","757"
"21:23:44:242 (H:m:s:ms)","GENERIC","187.53199999999998","0.11208435318356288","758"
"21:3:50:303 (H:m:s:ms)","GENERIC","187.577","0.08012620410800708","696"
"21:23:47:848 (H:m:s:ms)","OPERA","156.48","0.07859344276192434","151"
"21:3:56:363 (H:m:s:ms)","GENERIC","187.557","0.09603973264454063","636"
"21:23:50:303 (H:m:s:ms)","GENERIC","187.524","0.11011683772707609","696"
"21:4:2:424 (H:m:s:ms)","GENERIC","187.519","0.09520653198784987","576"
"21:4:8:484 (H:m:s:ms)","GENERIC","187.519","0.0894345463817436","516"
"21:37:22:105 (H:m:s:ms)","AMBULANCE","187.599","0.08723430281468286","894"
"21:37:16:363 (H:m:s:ms)","GENERIC","187.575","0.08330394536613343","636"
"21:37:10:303 (H:m:s:ms)","GENERIC","187.575","0.098418907850218","696"
"21:37:4:242 (H:m:s:ms)","GENERIC","187.489","0.09737561796749135","757"
"21:36:58:181 (H:m:s:ms)","GENERIC","187.535","0.07527677043015277","818"
"21:36:52:121 (H:m:s:ms)","GENERIC","187.523","0.10700311034662512","878"
"21:23:55:443 (H:m:s:ms)","OPERA","156.481","0.09094021227631661","556"
"21:23:56:363 (H:m:s:ms)","GENERIC","187.581","0.10886298757972097","636"
"21:36:50:526 (H:m:s:ms)","AMBULANCE","187.599","0.08655068952244371","473"
"21:4:12:631 (H:m:s:ms)","AMBULANCE","156.531","0.08647860773629126","368"
"21:24:2:424 (H:m:s:ms)","GENERIC","187.517","0.07842832765221307","575"
"21:36:46:60 (H:m:s:ms)","GENERIC","187.52499999999998","0.09070075175933169","939"
"21:4:14:545 (H:m:s:ms)","GENERIC","187.521","0.10888327273425753","454"
"21:24:3:37 (H:m:s:ms)","OPERA","156.465","0.08561947103528365","962"
"21:36:40:0 (H:m:s:ms)","GENERIC","187.47899999999998","0.07982409939836044","1037"
"21:4:20:606 (H:m:s:ms)","GENERIC","187.535","0.07840894665523337","393"
"21:24:8:484 (H:m:s:ms)","GENERIC","187.50900000000001","0.10416541282819645","515"
"21:36:33:939 (H:m:s:ms)","GENERIC","187.539","0.08192010041700254","1060"
"21:4:26:666 (H:m:s:ms)","GENERIC","187.50099999999998","0.0840173989775158","333"
"21:24:10:632 (H:m:s:ms)","OPERA","156.481","0.07888866020750836","367"
"21:36:27:878 (H:m:s:ms)","GENERIC","187.521","0.05592924247070102","1121"
"21:4:32:727 (H:m:s:ms)","GENERIC","187.589","0.09057337042772717","272"
"21:24:14:545 (H:m:s:ms)","GENERIC","187.502","0.10449722841063926","454"
"21:4:38:787 (H:m:s:ms)","GENERIC","187.551","0.0963083603218304","212"
"21:24:18:227 (H:m:s:ms)","OPERA","187.471","0.09210405970855819","772"
"21:4:44:210 (H:m:s:ms)","AMBULANCE","156.494","0.09628726344711167","789"
"21:24:20:606 (H:m:s:ms)","GENERIC","187.554","0.11358971398707109","393"
"21:4:44:848 (H:m:s:ms)","GENERIC","187.601","0.12043686105051199","151"
"21:24:25:822 (H:m:s:ms)","OPERA","156.481","0.08171669405121679","177"
"21:4:50:909 (H:m:s:ms)","GENERIC","187.571","0.047578065088633215","1090"
"21:4:56:969 (H:m:s:ms)","GENERIC","187.553","0.09437207646997428","1030"
"21:38:16:969 (H:m:s:ms)","GENERIC","187.547","0.08641803926661869","1030"
"21:38:10:909 (H:m:s:ms)","GENERIC","187.559","0.06041278112547732","1090"
"21:38:4:848 (H:m:s:ms)","GENERIC","187.527","0.07337874790382831","151"
"21:37:58:787 (H:m:s:ms)","GENERIC","187.536","0.11179872527844625","212"
"21:37:53:684 (H:m:s:ms)","AMBULANCE","187.547","0.09727157236868648","315"
"21:37:52:727 (H:m:s:ms)","GENERIC","187.557","0.09422029032997328","272"
"21:37:46:666 (H:m:s:ms)","GENERIC","187.605","0.07377017358235609","333"
"21:24:26:666 (H:m:s:ms)","GENERIC","187.511","0.11216032714372323","333"
"21:24:32:727 (H:m:s:ms)","GENERIC","187.553","0.0923458176363857","272"
"21:5:3:30 (H:m:s:ms)","GENERIC","187.601","0.10068065213315316","969"
"21:24:33:417 (H:m:s:ms)","OPERA","156.465","0.08238643488229226","582"
"21:5:9:90 (H:m:s:ms)","GENERIC","187.578","0.10087809879326644","954"
"21:24:38:787 (H:m:s:ms)","GENERIC","187.551","0.10611910008422173","212"
"21:37:40:606 (H:m:s:ms)","GENERIC","187.513","0.0860745565852756","393"
"20:45:33:333 (H:m:s:ms)","GENERIC","187.607","0.06792282466501377","666"
"21:5:15:151 (H:m:s:ms)","GENERIC","187.521","0.09357601114196729","848"
"21:24:41:12 (H:m:s:ms)","OPERA","187.477","0.08219510745393094","988"
"21:37:34:545 (H:m:s:ms)","GENERIC","187.54899999999998","0.0826110686574217","455"
"20:45:34:177 (H:m:s:ms)","OPERA","156.46699999999998","0.07820005202584147","822"
"21:5:15:789 (H:m:s:ms)","AMBULANCE","156.469","0.11432318471251564","210"
"21:24:44:848 (H:m:s:ms)","GENERIC","187.586","0.11417423298863968","151"
"21:37:28:484 (H:m:s:ms)","GENERIC","187.606","0.10937140304696814","515"
"20:45:39:393 (H:m:s:ms)","GENERIC","187.52100000000002","0.09761195685496923","648"
"21:5:21:212 (H:m:s:ms)","GENERIC","187.651","0.10392117793922498","787"
"21:24:48:607 (H:m:s:ms)","OPERA","156.468","0.08525672239834856","392"
"21:37:22:424 (H:m:s:ms)","GENERIC","187.606","0.11165097523338188","575"
"20:45:41:772 (H:m:s:ms)","OPERA","156.481","0.08411297794814879","227"
"21:5:27:272 (H:m:s:ms)","GENERIC","187.563","0.08272442981667012","727"
"21:24:50:909 (H:m:s:ms)","GENERIC","187.54899999999998","0.09389133797123725","1090"
"20:45:45:454 (H:m:s:ms)","GENERIC","187.575","0.10521146230644333","545"
"21:5:33:333 (H:m:s:ms)","GENERIC","187.567","0.08504575052266165","666"
"21:24:56:202 (H:m:s:ms)","OPERA","156.47899999999998","0.09908266868836756","797"
"20:45:49:367 (H:m:s:ms)","OPERA","156.474","0.07859826793979577","674"
"21:5:39:393 (H:m:s:ms)","GENERIC","187.54","0.08419146495628345","650"
"21:24:56:969 (H:m:s:ms)","GENERIC","187.514","0.11409198348371624","1030"
"20:45:51:515 (H:m:s:ms)","GENERIC","187.49699999999999","0.09510758506344566","484"
"21:5:45:454 (H:m:s:ms)","GENERIC","187.555","0.08892340036650014","545"
"20:45:56:962 (H:m:s:ms)","OPERA","156.48","0.07535802938466812","1037"
"21:5:47:368 (H:m:s:ms)","AMBULANCE","156.504","0.08977696819856093","631"
"20:45:57:575 (H:m:s:ms)","GENERIC","187.479","0.10149793654830087","424"
"20:46:3:636 (H:m:s:ms)","GENERIC","187.461","0.10494455025091404","363"
"21:39:11:515 (H:m:s:ms)","GENERIC","187.631","0.08192918039147448","484"
"21:39:5:454 (H:m:s:ms)","GENERIC","187.53699999999998","0.06915933704164125","546"
"21:38:59:393 (H:m:s:ms)","GENERIC","187.465","0.10518983997146406","641"
"21:38:56:842 (H:m:s:ms)","AMBULANCE","187.507","0.08784778697616727","157"
"21:38:53:333 (H:m:s:ms)","GENERIC","187.485","0.08235036903731693","666"
"21:38:47:272 (H:m:s:ms)","GENERIC","187.52100000000002","0.08891693578492721","727"
"21:38:41:212 (H:m:s:ms)","GENERIC","187.519","0.08383038550755016","787"
"21:38:35:151 (H:m:s:ms)","GENERIC","187.577","0.08451749209594377","848"
"21:25:3:30 (H:m:s:ms)","GENERIC","187.647","0.07407138146832368","969"
"21:25:3:797 (H:m:s:ms)","OPERA","156.465","0.09850415087794878","202"
"21:5:51:515 (H:m:s:ms)","GENERIC","187.477","0.10941814150309889","484"
"21:25:9:90 (H:m:s:ms)","GENERIC","187.566","0.10877657030247236","950"
"21:5:57:575 (H:m:s:ms)","GENERIC","187.501","0.07910586192107803","424"
"21:25:11:392 (H:m:s:ms)","OPERA","156.48","0.09945788508979497","607"
"20:46:4:556 (H:m:s:ms)","OPERA","156.481","0.07674494641993418","444"
"21:6:3:636 (H:m:s:ms)","GENERIC","187.494","0.09338914638296687","363"
"21:25:15:151 (H:m:s:ms)","GENERIC","187.49599999999998","0.11330199476322811","849"
"20:46:9:696 (H:m:s:ms)","GENERIC","187.54500000000002","0.10903459917609969","346"
"21:6:9:696 (H:m:s:ms)","GENERIC","187.529","0.09567363182477218","346"
"21:25:18:987 (H:m:s:ms)","OPERA","156.481","0.08125011807017667","1052"
"21:38:29:90 (H:m:s:ms)","GENERIC","187.46800000000002","0.11028322047794213","946"
"20:46:12:151 (H:m:s:ms)","OPERA","156.47899999999998","0.08445150757048771","848"
"21:6:15:757 (H:m:s:ms)","GENERIC","187.53","0.09331457700448775","242"
"21:25:21:212 (H:m:s:ms)","GENERIC","187.64100000000002","0.10599627482118316","787"
"21:38:25:263 (H:m:s:ms)","AMBULANCE","187.567","0.08609481620249926","736"
"20:46:15:757 (H:m:s:ms)","GENERIC","187.492","0.11478611703987064","242"
"21:6:18:947 (H:m:s:ms)","AMBULANCE","156.535","0.0854573697519483","1095"
"21:25:26:582 (H:m:s:ms)","OPERA","156.48","0.07996075393080929","417"
"21:38:23:30 (H:m:s:ms)","GENERIC","187.555","0.08641485240614663","970"
"20:46:19:746 (H:m:s:ms)","OPERA","156.471","0.08597210443729053","300"
"21:6:21:818 (H:m:s:ms)","GENERIC","187.502","0.1107439468113968","181"
"21:25:27:272 (H:m:s:ms)","GENERIC","187.558","0.11072303256565001","727"
"20:46:21:818 (H:m:s:ms)","GENERIC","187.488","0.10814606024999807","181"
"21:6:27:878 (H:m:s:ms)","GENERIC","187.499","0.058817577108289706","1122"
"21:25:33:333 (H:m:s:ms)","GENERIC","187.577","0.0853307875721641","666"
"20:46:27:341 (H:m:s:ms)","OPERA","156.471","0.0743808718188267","658"
"21:6:33:939 (H:m:s:ms)","GENERIC","187.512","0.09259615385726282","1061"
"20:46:27:878 (H:m:s:ms)","GENERIC","187.518","0.09894356091622317","1121"
"21:6:40:0 (H:m:s:ms)","GENERIC","187.551","0.09137605431031848","1042"
"20:46:33:939 (H:m:s:ms)","GENERIC","187.543","0.0969233064508534","1060"
"20:46:34:936 (H:m:s:ms)","OPERA","156.463","0.08959516521210165","1064"
"21:39:28:421 (H:m:s:ms)","AMBULANCE","187.489","0.09191916624190066","578"
"21:40:0:0 (H:m:s:ms)","GENERIC","187.549","0.12393148992505276","1479"
"21:40:0:0 (H:m:s:ms)","GENERIC","187.571","0.09762283091138176","1479"
"21:40:0:0 (H:m:s:ms)","AMBULANCE","187.573","0.07992517270218648","1479"
"21:39:53:939 (H:m:s:ms)","GENERIC","187.525","0.08102805086067867","1060"
"21:39:47:878 (H:m:s:ms)","GENERIC","187.587","0.0630513589393863","1121"
"21:39:41:818 (H:m:s:ms)","GENERIC","187.583","0.0848136471449515","181"
"21:39:35:757 (H:m:s:ms)","GENERIC","187.589","0.07862616660348147","242"
"21:39:29:696 (H:m:s:ms)","GENERIC","187.518","0.11980919908521294","340"
"21:6:46:60 (H:m:s:ms)","GENERIC","187.49099999999999","0.08599553642741325","939"
"21:6:50:526 (H:m:s:ms)","AMBULANCE","156.542","0.08606894489154489","474"
"20:46:40:0 (H:m:s:ms)","GENERIC","187.513","0.11126804861369263","1043"
"21:6:52:121 (H:m:s:ms)","GENERIC","187.545","0.11155622387413884","878"
"20:46:42:531 (H:m:s:ms)","OPERA","156.47","0.09383474396302638","468"
"21:6:58:181 (H:m:s:ms)","GENERIC","187.565","0.08960267957647704","818"
"20:46:46:60 (H:m:s:ms)","GENERIC","187.495","0.12350577340463906","939"
"21:7:4:242 (H:m:s:ms)","GENERIC","187.481","0.0899900706074549","758"
"20:46:50:126 (H:m:s:ms)","OPERA","156.487","0.09056839024143057","873"
"21:7:10:303 (H:m:s:ms)","GENERIC","187.553","0.09648786049542761","696"
"21:39:23:636 (H:m:s:ms)","GENERIC","187.627","0.09953718869333446","363"
"20:46:52:121 (H:m:s:ms)","GENERIC","187.518","0.11387905163932885","878"
"21:7:16:363 (H:m:s:ms)","GENERIC","187.563","0.09648850091330044","636"
"21:39:17:575 (H:m:s:ms)","GENERIC","187.531","0.08849736893745092","425"
"20:46:57:721 (H:m:s:ms)","OPERA","156.478","0.0809814667862757","278"
"21:7:22:105 (H:m:s:ms)","AMBULANCE","156.477","0.11849183419552413","894"
"20:46:58:181 (H:m:s:ms)","GENERIC","187.549","0.11495684185941257","818"
"21:7:22:424 (H:m:s:ms)","GENERIC","187.605","0.08585711640407416","575"
"20:47:4:242 (H:m:s:ms)","GENERIC","187.531","0.09373911815255251","758"
"21:7:28:484 (H:m:s:ms)","GENERIC","187.56099999999998","0.12041549943953193","516"
"20:47:5:316 (H:m:s:ms)","OPERA","156.471","0.09112139879849387","683"
"20:47:10:303 (H:m:s:ms)","GENERIC","187.526","0.11537552364992083","696"
"21:7:34:545 (H:m:s:ms)","GENERIC","187.552","0.09062580149767659","455"
"21:7:40:606 (H:m:s:ms)","GENERIC","187.511","0.09317086656002578","393"
"20:47:12:911 (H:m:s:ms)","OPERA","156.481","0.09412436384842579","1088"
"21:7:46:666 (H:m:s:ms)","GENERIC","187.561","0.09483474591128432","333"
"20:47:16:363 (H:m:s:ms)","GENERIC","187.553","0.11387803961118496","636"
"21:7:52:727 (H:m:s:ms)","GENERIC","187.513","0.0941267204482044","273"
"20:47:22:424 (H:m:s:ms)","GENERIC","187.613","0.08591379706208915","575"
"21:7:53:684 (H:m:s:ms)","AMBULANCE","156.515","0.08363646691702717","315"
"20:47:28:101 (H:m:s:ms)","OPERA","156.46699999999998","0.0893805663798265","898"
"21:7:58:787 (H:m:s:ms)","GENERIC","187.53699999999998","0.10924364783029182","212"
"20:47:28:484 (H:m:s:ms)","GENERIC","187.557","0.10587984928826938","515"
"21:8:4:848 (H:m:s:ms)","GENERIC","187.49099999999999","0.08494022531690441","152"
"20:47:34:545 (H:m:s:ms)","GENERIC","187.536","0.10882475640525763","454"
"21:8:10:909 (H:m:s:ms)","GENERIC","187.555","0.05894015305514402","1090"
"21:40:6:60 (H:m:s:ms)","GENERIC","187.508","0.1333050091632493","939"
"20:47:35:696 (H:m:s:ms)","OPERA","156.46699999999998","0.08738258224945732","303"
"21:8:16:969 (H:m:s:ms)","GENERIC","187.511","0.09751106610509044","1030"
"20:47:40:606 (H:m:s:ms)","GENERIC","187.518","0.11394550537429181","393"
"21:8:23:30 (H:m:s:ms)","GENERIC","187.567","0.10003733611309906","969"
"20:47:43:291 (H:m:s:ms)","OPERA","156.486","0.08588655074156014","708"
"20:47:46:666 (H:m:s:ms)","GENERIC","187.562","0.10864942459014905","333"
"21:8:25:263 (H:m:s:ms)","AMBULANCE","156.502","0.08516370886577505","736"
"21:8:29:90 (H:m:s:ms)","GENERIC","187.50099999999998","0.1060028488352398","954"
"20:47:50:886 (H:m:s:ms)","OPERA","156.486","0.07845018493978503","113"
"21:8:35:151 (H:m:s:ms)","GENERIC","187.539","0.07595730813284857","848"
"20:47:52:727 (H:m:s:ms)","GENERIC","187.487","0.11067281742072238","272"
"21:8:41:212 (H:m:s:ms)","GENERIC","187.47899999999998","0.09197969596986724","787"
"20:30:0:0 (H:m:s:ms)","GENERIC","187.58100000000002","0.08229670934699856","1041"
"20:47:58:481 (H:m:s:ms)","OPERA","156.481","0.09314298614181048","518"
"21:8:47:272 (H:m:s:ms)","GENERIC","187.55700000000002","0.08482512523918814","727"
"20:30:0:0 (H:m:s:ms)","GENERIC","187.52800000000002","0.1087281711894977","1041"
"20:47:58:787 (H:m:s:ms)","GENERIC","187.547","0.11063461356977393","212"
"21:8:53:333 (H:m:s:ms)","GENERIC","187.471","0.0903911735014278","666"
"20:30:6:60 (H:m:s:ms)","GENERIC","187.522","0.11547646094265855","939"
"20:48:4:848 (H:m:s:ms)","GENERIC","187.483","0.1078254544513489","151"
"21:8:56:842 (H:m:s:ms)","AMBULANCE","156.501","0.09441428819297726","157"
"20:30:12:121 (H:m:s:ms)","GENERIC","187.485","0.08988870881509348","878"
"20:48:6:75 (H:m:s:ms)","OPERA","156.48","0.0906054817092826","924"
"21:8:59:393 (H:m:s:ms)","GENERIC","187.496","0.11511107033891127","647"
"20:30:18:181 (H:m:s:ms)","GENERIC","187.505","0.09455227340356534","818"
"20:48:10:909 (H:m:s:ms)","GENERIC","187.56900000000002","0.0888224250063581","1090"
"21:9:5:454 (H:m:s:ms)","GENERIC","187.527","0.0834322712453364","545"
"20:30:24:242 (H:m:s:ms)","GENERIC","187.529","0.0888368146966405","758"
"20:48:13:670 (H:m:s:ms)","OPERA","156.476","0.08451201319826321","329"
"21:9:11:515 (H:m:s:ms)","GENERIC","187.577","0.09027133067720841","484"
"20:30:30:303 (H:m:s:ms)","GENERIC","187.473","0.0969678848813708","696"
"20:48:16:969 (H:m:s:ms)","GENERIC","187.49","0.1141695633428783","1030"
"20:30:36:363 (H:m:s:ms)","GENERIC","187.513","0.09490859109584501","636"
"20:48:21:265 (H:m:s:ms)","OPERA","156.477","0.09016618446344853","734"
"20:30:42:424 (H:m:s:ms)","GENERIC","187.501","0.08808843474613598","575"
"20:30:48:484 (H:m:s:ms)","GENERIC","187.493","0.09064860195719483","515"
"21:9:17:575 (H:m:s:ms)","GENERIC","187.57299999999998","0.07958687057836535","424"
"21:9:23:636 (H:m:s:ms)","GENERIC","187.599","0.07583266076267392","363"
"20:48:23:30 (H:m:s:ms)","GENERIC","187.523","0.10789766966745597","969"
"21:9:28:421 (H:m:s:ms)","AMBULANCE","156.502","0.08640227928663055","579"
"20:48:28:860 (H:m:s:ms)","OPERA","156.469","0.08955254850760179","139"
"21:9:29:696 (H:m:s:ms)","GENERIC","187.554","0.10846616589327657","342"
"20:30:54:545 (H:m:s:ms)","GENERIC","187.567","0.09054318541225516","454"
"20:48:29:90 (H:m:s:ms)","GENERIC","187.51","0.1112417771454019","953"
"21:9:35:757 (H:m:s:ms)","GENERIC","187.537","0.08425317543704215","242"
"20:31:0:606 (H:m:s:ms)","GENERIC","187.561","0.08344722738323415","393"
"20:48:35:151 (H:m:s:ms)","GENERIC","187.517","0.08088027163154791","848"
"21:9:41:818 (H:m:s:ms)","GENERIC","187.561","0.09484851109848419","181"
"20:31:6:666 (H:m:s:ms)","GENERIC","187.581","0.09633126494675061","333"
"20:48:36:455 (H:m:s:ms)","OPERA","156.48","0.0904478727679592","544"
"21:9:47:878 (H:m:s:ms)","GENERIC","187.583","0.06154652899804345","1121"
"20:31:12:727 (H:m:s:ms)","GENERIC","187.563","0.09739412744404881","273"
"20:48:41:212 (H:m:s:ms)","GENERIC","187.46","0.11562602684081354","787"
"21:9:53:939 (H:m:s:ms)","GENERIC","187.525","0.07066548629249389","1060"
"20:31:18:787 (H:m:s:ms)","GENERIC","187.539","0.07936450305288281","212"
"20:48:44:50 (H:m:s:ms)","OPERA","156.486","0.10140516800312309","950"
"21:10:0:0 (H:m:s:ms)","AMBULANCE","156.482","0.10496636058519077","1040"
"20:31:24:848 (H:m:s:ms)","GENERIC","187.567","0.0861104233158599","151"
"20:48:47:272 (H:m:s:ms)","GENERIC","187.529","0.11700953892650356","727"
"21:10:0:0 (H:m:s:ms)","GENERIC","187.513","0.12789974820154887","1040"
"20:31:30:909 (H:m:s:ms)","GENERIC","187.535","0.0673266709541786","1090"
"20:48:51:645 (H:m:s:ms)","OPERA","156.486","0.0895083109005198","354"
"20:31:36:969 (H:m:s:ms)","GENERIC","187.573","0.0829952235213546","1030"
"20:48:53:333 (H:m:s:ms)","GENERIC","187.483","0.11629115262373539","666"
"20:31:43:30 (H:m:s:ms)","GENERIC","187.493","0.08845658912131117","969"
"20:31:49:90 (H:m:s:ms)","GENERIC","187.505","0.09781717978979011","947"
"20:48:59:240 (H:m:s:ms)","OPERA","156.48","0.09022075243569727","805"
"20:48:59:393 (H:m:s:ms)","GENERIC","187.472","0.11182503451301436","652"
"20:31:55:151 (H:m:s:ms)","GENERIC","187.53300000000002","0.09642165195381688","848"
"20:49:5:454 (H:m:s:ms)","GENERIC","187.527","0.09712102196275961","545"
"20:32:1:212 (H:m:s:ms)","GENERIC","187.555","0.10098210630276049","788"
"20:49:6:835 (H:m:s:ms)","OPERA","156.471","0.07631462019185377","164"
"20:32:7:272 (H:m:s:ms)","GENERIC","187.587","0.0923587779228979","727"
"20:49:11:515 (H:m:s:ms)","GENERIC","187.52","0.1119232618968599","484"
"20:32:13:333 (H:m:s:ms)","GENERIC","187.499","0.08040702915725673","666"
"20:49:14:430 (H:m:s:ms)","OPERA","156.481","0.09224967317004037","570"
"20:32:19:393 (H:m:s:ms)","GENERIC","187.601","0.07306477455112395","645"
"20:49:17:575 (H:m:s:ms)","GENERIC","187.539","0.11221999024876124","424"
"20:32:25:454 (H:m:s:ms)","GENERIC","187.559","0.08164425087444808","545"
"20:49:22:25 (H:m:s:ms)","OPERA","156.477","0.0847670198602575","975"
"20:32:31:515 (H:m:s:ms)","GENERIC","187.519","0.08227303935397694","484"
"20:49:23:636 (H:m:s:ms)","GENERIC","187.584","0.11195913389607243","363"
"20:32:37:575 (H:m:s:ms)","GENERIC","187.50900000000001","0.08809311760861686","424"
"20:49:29:620 (H:m:s:ms)","OPERA","156.47","0.07408376808895967","424"
"20:32:43:636 (H:m:s:ms)","GENERIC","187.505","0.09488201887418343","363"
"20:32:49:696 (H:m:s:ms)","GENERIC","187.567","0.08613058662050693","341"
"20:49:29:696 (H:m:s:ms)","GENERIC","187.59300000000002","0.11425119537643501","348"
"20:49:35:757 (H:m:s:ms)","GENERIC","187.504","0.11289098232731191","242"
"20:32:55:757 (H:m:s:ms)","GENERIC","187.493","0.07775267296064922","242"
"20:49:37:215 (H:m:s:ms)","OPERA","156.47","0.075175773180624","784"
"20:33:1:818 (H:m:s:ms)","GENERIC","187.531","0.08060276472615152","181"
"20:49:41:818 (H:m:s:ms)","GENERIC","187.53","0.11165438284671611","181"
"20:33:7:878 (H:m:s:ms)","GENERIC","187.599","0.05337198589018963","1121"
"20:49:44:810 (H:m:s:ms)","OPERA","156.485","0.0974637575180263","189"
"20:33:13:939 (H:m:s:ms)","GENERIC","187.499","0.0949982748979235","1061"
"20:49:47:878 (H:m:s:ms)","GENERIC","187.551","0.092253255218317","1121"
"20:33:20:0 (H:m:s:ms)","GENERIC","187.574","0.09528105628178883","1038"
"20:49:52:405 (H:m:s:ms)","OPERA","156.477","0.09441845673915782","594"
"20:33:26:60 (H:m:s:ms)","GENERIC","187.53300000000002","0.0812872568402077","939"
"20:49:53:939 (H:m:s:ms)","GENERIC","187.513","0.11984044403104858","1061"
"20:33:32:121 (H:m:s:ms)","GENERIC","187.52499999999998","0.08516842926214112","878"
"20:50:0:0 (H:m:s:ms)","OPERA","156.48","0.07914541028325169","1046"
"20:33:38:181 (H:m:s:ms)","GENERIC","187.593","0.08101362808593415","818"
"20:50:0:0 (H:m:s:ms)","GENERIC","187.517","0.10392353701660255","1046"
"20:33:44:242 (H:m:s:ms)","GENERIC","187.531","0.08468475473829071","757"
"20:33:50:303 (H:m:s:ms)","GENERIC","187.535","0.08920227783479912","697"
"20:50:0:0 (H:m:s:ms)","GENERIC","187.58599999999998","0.12849718340861352","1046"
"20:50:6:60 (H:m:s:ms)","GENERIC","187.51299999999998","0.12429369225672549","939"
"20:33:56:363 (H:m:s:ms)","GENERIC","187.523","0.0893699725614394","636"
"20:50:12:121 (H:m:s:ms)","GENERIC","187.505","0.07777959232344701","878"
"20:34:2:424 (H:m:s:ms)","GENERIC","187.514","0.0987956903059637","575"
"20:50:18:181 (H:m:s:ms)","GENERIC","187.481","0.09105437456241344","818"
"20:10:0:0 (H:m:s:ms)","GENERIC","156.513","0.09568921200493519","1000"
"20:34:8:484 (H:m:s:ms)","GENERIC","187.521","0.09249938371224221","516"
"20:50:24:242 (H:m:s:ms)","GENERIC","187.547","0.08354247900072309","757"
"20:10:0:0 (H:m:s:ms)","GENERIC","187.548","0.10850153018344165","1042"
"20:34:14:545 (H:m:s:ms)","GENERIC","187.531","0.09573140760265406","455"
"20:50:30:303 (H:m:s:ms)","GENERIC","187.517","0.08032588260333294","696"
"20:10:6:60 (H:m:s:ms)","GENERIC","187.545","0.10823396733149185","939"
"20:34:20:606 (H:m:s:ms)","GENERIC","187.503","0.08754448029436666","393"
"20:50:36:363 (H:m:s:ms)","GENERIC","187.495","0.0844239387871355","636"
"20:10:12:121 (H:m:s:ms)","GENERIC","187.485","0.09488405808082961","878"
"20:34:26:666 (H:m:s:ms)","GENERIC","187.547","0.0932582469489854","333"
"20:50:42:424 (H:m:s:ms)","GENERIC","187.53300000000002","0.07685879928509791","575"
"20:10:18:181 (H:m:s:ms)","GENERIC","187.511","0.09603731569493225","819"
"20:34:32:727 (H:m:s:ms)","GENERIC","187.643","0.08986823357632624","272"
"20:50:48:484 (H:m:s:ms)","GENERIC","187.483","0.07914798106682151","515"
"20:10:24:242 (H:m:s:ms)","GENERIC","187.52","0.10072719020592627","758"
"20:34:38:787 (H:m:s:ms)","GENERIC","187.575","0.08611271395469906","212"
"20:50:54:545 (H:m:s:ms)","GENERIC","187.54500000000002","0.09064356179307734","454"
"20:10:30:303 (H:m:s:ms)","GENERIC","187.477","0.0951824393387618","696"
"20:34:44:848 (H:m:s:ms)","GENERIC","187.563","0.09593633755880787","151"
"20:10:36:363 (H:m:s:ms)","GENERIC","187.54500000000002","0.07936047404536416","636"
"20:34:50:909 (H:m:s:ms)","GENERIC","187.551","0.060045633680048394","1090"
"20:10:42:424 (H:m:s:ms)","GENERIC","187.507","0.08760183879653677","575"
"20:10:48:484 (H:m:s:ms)","GENERIC","187.517","0.09980956164114575","515"
"20:51:0:606 (H:m:s:ms)","GENERIC","187.527","0.08970686148161053","394"
"20:51:6:666 (H:m:s:ms)","GENERIC","187.569","0.09025500225586584","333"
"20:34:56:969 (H:m:s:ms)","GENERIC","187.591","0.08253284452769243","1031"
"20:51:12:727 (H:m:s:ms)","GENERIC","187.549","0.0899900706074549","272"
"20:35:3:30 (H:m:s:ms)","GENERIC","187.55599999999998","0.09092344395675078","969"
"20:51:18:787 (H:m:s:ms)","GENERIC","187.54500000000002","0.08550571151103703","212"
"20:10:54:545 (H:m:s:ms)","GENERIC","187.561","0.09718962233060223","454"
"20:35:9:90 (H:m:s:ms)","GENERIC","187.559","0.08930951213404995","948"
"20:51:24:848 (H:m:s:ms)","GENERIC","187.61599999999999","0.08609176390092677","152"
"20:11:0:606 (H:m:s:ms)","GENERIC","187.596","0.0904230413334364","393"
"20:35:15:151 (H:m:s:ms)","GENERIC","187.52499999999998","0.08842370178908092","848"
"20:51:30:909 (H:m:s:ms)","GENERIC","187.533","0.06146128949966774","1090"
"20:11:6:666 (H:m:s:ms)","GENERIC","187.599","0.0904656214204927","334"
"20:35:21:212 (H:m:s:ms)","GENERIC","187.585","0.09618896187054232","788"
"20:51:36:969 (H:m:s:ms)","GENERIC","187.541","0.08976463247673296","1030"
"20:11:12:727 (H:m:s:ms)","GENERIC","187.579","0.0790536586788418","272"
"20:35:27:272 (H:m:s:ms)","GENERIC","187.547","0.0938280958403162","727"
"20:51:43:30 (H:m:s:ms)","GENERIC","187.52499999999998","0.08212308125011254","969"
"20:11:18:787 (H:m:s:ms)","GENERIC","187.517","0.08247323416598877","212"
"20:35:33:333 (H:m:s:ms)","GENERIC","187.589","0.09175198777053155","666"
"20:51:49:90 (H:m:s:ms)","GENERIC","187.497","0.08765205416046969","955"
"20:11:24:848 (H:m:s:ms)","GENERIC","187.565","0.09622077421368065","152"
"20:35:39:393 (H:m:s:ms)","GENERIC","187.53300000000002","0.08090035679786838","645"
"20:51:55:151 (H:m:s:ms)","GENERIC","187.53699999999998","0.08221978129463635","848"
"20:11:30:909 (H:m:s:ms)","GENERIC","187.565","0.05819125162527729","1090"
"20:35:45:454 (H:m:s:ms)","GENERIC","187.58100000000002","0.08645555841579428","545"
"20:11:36:969 (H:m:s:ms)","GENERIC","187.549","0.08618441871145163","1030"
"20:35:51:515 (H:m:s:ms)","GENERIC","187.513","0.08910796894016074","484"
"20:11:43:30 (H:m:s:ms)","GENERIC","187.505","0.09343279647938027","969"
"20:11:49:90 (H:m:s:ms)","GENERIC","187.55700000000002","0.10244724439895397","951"
"20:0:54:545 (H:m:s:ms)","GENERIC","156.523","0.09979192915786793","456"
"20:1:0:606 (H:m:s:ms)","GENERIC","156.531","0.08903233593829583","394"
"20:1:6:666 (H:m:s:ms)","GENERIC","156.522","0.0984370201575079","334"
"20:1:12:727 (H:m:s:ms)","GENERIC","156.515","0.09161758630869313","273"
"20:1:18:787 (H:m:s:ms)","GENERIC","156.502","0.09041272310077401","213"
"20:1:24:848 (H:m:s:ms)","GENERIC","156.493","0.09797445428760782","152"
"20:1:30:909 (H:m:s:ms)","GENERIC","156.525","0.061685841054338775","1090"
"20:1:36:969 (H:m:s:ms)","GENERIC","156.497","0.08336216322363443","1030"
"20:1:43:30 (H:m:s:ms)","GENERIC","156.498","0.08916811098503133","969"
"20:1:49:90 (H:m:s:ms)","GENERIC","156.51","0.09315952188092261","925"
"20:35:57:575 (H:m:s:ms)","GENERIC","187.499","0.08102958479175959","424"
"20:36:3:636 (H:m:s:ms)","GENERIC","187.493","0.09258874175332292","363"
"20:11:55:151 (H:m:s:ms)","GENERIC","187.523","0.08492895016919867","848"
"20:36:9:696 (H:m:s:ms)","GENERIC","187.573","0.09202004590800748","341"
"20:12:1:212 (H:m:s:ms)","GENERIC","187.555","0.08207184527052445","787"
"20:36:15:757 (H:m:s:ms)","GENERIC","187.501","0.07490114034207807","242"
"20:12:7:272 (H:m:s:ms)","GENERIC","187.575","0.08179897918121178","727"
"20:36:21:818 (H:m:s:ms)","GENERIC","187.499","0.08154577072559377","181"
"20:12:13:333 (H:m:s:ms)","GENERIC","187.478","0.10328464475021384","666"
"20:36:27:878 (H:m:s:ms)","GENERIC","187.531","0.059419024390727646","1121"
"20:12:19:393 (H:m:s:ms)","GENERIC","187.607","0.10123670772198343","649"
"20:36:33:939 (H:m:s:ms)","GENERIC","187.54899999999998","0.07996478910420624","1060"
"20:12:25:454 (H:m:s:ms)","GENERIC","187.537","0.08722083673909603","545"
"20:36:40:0 (H:m:s:ms)","GENERIC","187.545","0.07936769975162827","1037"
"20:12:31:515 (H:m:s:ms)","GENERIC","187.53699999999998","0.09816188522947437","484"
"20:36:46:60 (H:m:s:ms)","GENERIC","187.511","0.08426963860065965","939"
"20:12:37:575 (H:m:s:ms)","GENERIC","187.533","0.09454605643695309","424"
"20:36:52:121 (H:m:s:ms)","GENERIC","187.535","0.0675817784282934","878"
"20:12:43:636 (H:m:s:ms)","GENERIC","187.535","0.0980756624690402","363"
"20:12:49:696 (H:m:s:ms)","GENERIC","187.589","0.0946365441961344","346"
"20:1:55:151 (H:m:s:ms)","GENERIC","156.489","0.09432963448189527","848"
"20:2:1:212 (H:m:s:ms)","GENERIC","156.495","0.09434609412479308","787"
"20:2:7:272 (H:m:s:ms)","GENERIC","156.534","0.08003780626491688","728"
"20:2:13:333 (H:m:s:ms)","GENERIC","156.47899999999998","0.07621327758101035","666"
"20:2:19:393 (H:m:s:ms)","GENERIC","156.533","0.08679683061590118","625"
"20:2:25:454 (H:m:s:ms)","GENERIC","156.494","0.10798971975952183","545"
"20:2:31:515 (H:m:s:ms)","GENERIC","156.502","0.09694003380670739","485"
"20:2:37:575 (H:m:s:ms)","GENERIC","156.494","0.08588231933455356","424"
"20:2:43:636 (H:m:s:ms)","GENERIC","156.51","0.08557291044554219","363"
"20:2:49:696 (H:m:s:ms)","GENERIC","156.546","0.08072703013301694","323"
"20:36:58:181 (H:m:s:ms)","GENERIC","187.583","0.0817512544682498","818"
"20:37:4:242 (H:m:s:ms)","GENERIC","187.547","0.08469801706535787","758"
"20:12:55:757 (H:m:s:ms)","GENERIC","187.483","0.08414778108826479","242"
"20:37:10:303 (H:m:s:ms)","GENERIC","187.577","0.08870965747261433","697"
"20:13:1:818 (H:m:s:ms)","GENERIC","187.534","0.09556727812392002","181"
"20:37:16:363 (H:m:s:ms)","GENERIC","187.551","0.09059585566424126","636"
"20:13:7:878 (H:m:s:ms)","GENERIC","187.637","0.06135887234525041","1122"
"20:37:22:424 (H:m:s:ms)","GENERIC","187.583","0.08955313997763359","575"
"20:13:13:939 (H:m:s:ms)","GENERIC","187.521","0.09245997110291056","1060"
"20:37:28:484 (H:m:s:ms)","GENERIC","187.582","0.09477242558328189","515"
"20:13:20:0 (H:m:s:ms)","GENERIC","187.563","0.08531297723016719","1042"
"20:37:34:545 (H:m:s:ms)","GENERIC","187.541","0.09436339420389252","455"
"20:13:26:60 (H:m:s:ms)","GENERIC","187.537","0.09491279604789152","939"
"20:37:40:606 (H:m:s:ms)","GENERIC","187.555","0.08304876547897586","394"
"20:13:32:121 (H:m:s:ms)","GENERIC","187.543","0.09760878199254636","879"
"20:37:46:666 (H:m:s:ms)","GENERIC","187.582","0.10290383397180279","333"
"20:13:38:181 (H:m:s:ms)","GENERIC","187.625","0.0912879327521485","818"
"20:37:52:727 (H:m:s:ms)","GENERIC","187.509","0.09741758016358615","272"
"20:13:44:242 (H:m:s:ms)","GENERIC","187.567","0.09497417791523827","758"
"20:13:50:303 (H:m:s:ms)","GENERIC","187.507","0.0855193052675386","696"
"20:2:55:757 (H:m:s:ms)","GENERIC","156.478","0.08464576346899066","242"
"20:3:1:818 (H:m:s:ms)","GENERIC","156.502","0.09003650459573523","182"
"20:3:7:878 (H:m:s:ms)","GENERIC","156.54","0.07949610694184646","121"
"20:3:13:939 (H:m:s:ms)","GENERIC","156.50900000000001","0.06290678643708983","1061"
"20:3:20:0 (H:m:s:ms)","GENERIC","156.506","0.09416223122827508","1001"
"20:3:26:60 (H:m:s:ms)","GENERIC","156.526","0.08531302634182589","940"
"20:3:32:121 (H:m:s:ms)","GENERIC","156.49","0.090338313339897","878"
"20:3:38:181 (H:m:s:ms)","GENERIC","156.551","0.10137530899485206","819"
"20:3:44:242 (H:m:s:ms)","GENERIC","156.509","0.09879803429296173","759"
"20:3:50:303 (H:m:s:ms)","GENERIC","156.507","0.09273674152163816","696"
"20:37:58:787 (H:m:s:ms)","GENERIC","187.547","0.08855243667917004","212"
"20:38:4:848 (H:m:s:ms)","GENERIC","187.48499999999999","0.08667565401479124","152"
"20:13:56:363 (H:m:s:ms)","GENERIC","187.547","0.07633446687031603","636"
"20:38:10:909 (H:m:s:ms)","GENERIC","187.595","0.05944120400493064","1090"
"20:14:2:424 (H:m:s:ms)","GENERIC","187.485","0.07907034607676128","575"
"20:38:16:969 (H:m:s:ms)","GENERIC","187.506","0.09835752275122082","1030"
"20:14:8:484 (H:m:s:ms)","GENERIC","187.545","0.0869396884202813","515"
"20:38:23:30 (H:m:s:ms)","GENERIC","187.539","0.09484680809691308","969"
"20:14:14:545 (H:m:s:ms)","GENERIC","187.515","0.09657685165449051","455"
"20:38:29:90 (H:m:s:ms)","GENERIC","187.527","0.09779011845063434","948"
"20:14:20:606 (H:m:s:ms)","GENERIC","187.506","0.09563454780907965","393"
"20:38:35:151 (H:m:s:ms)","GENERIC","187.53300000000002","0.10123921956627004","848"
"20:14:26:666 (H:m:s:ms)","GENERIC","187.547","0.093626209951917","333"
"20:38:41:212 (H:m:s:ms)","GENERIC","187.483","0.09498300589740793","788"
"20:14:32:727 (H:m:s:ms)","GENERIC","187.595","0.08501657064193775","272"
"20:38:47:272 (H:m:s:ms)","GENERIC","187.541","0.10168684651363243","727"
"20:14:38:787 (H:m:s:ms)","GENERIC","187.559","0.08631882545140022","212"
"20:38:53:333 (H:m:s:ms)","GENERIC","187.493","0.08777011702532855","666"
"20:14:44:848 (H:m:s:ms)","GENERIC","187.527","0.08929810841408492","151"
"20:14:50:909 (H:m:s:ms)","GENERIC","187.54899999999998","0.06222141418841952","1090"
"20:3:56:363 (H:m:s:ms)","GENERIC","156.492","0.0802660987169054","637"
"20:4:2:424 (H:m:s:ms)","GENERIC","156.469","0.09263581665207368","575"
"20:4:8:484 (H:m:s:ms)","GENERIC","156.504","0.0872768333442744","515"
"20:4:14:545 (H:m:s:ms)","GENERIC","156.51","0.08032036120271716","455"
"20:4:20:606 (H:m:s:ms)","GENERIC","156.5","0.09326409818184164","393"
"20:4:26:666 (H:m:s:ms)","GENERIC","156.497","0.07912197146367345","333"
"20:4:32:727 (H:m:s:ms)","GENERIC","156.513","0.08037645835495862","272"
"20:4:38:787 (H:m:s:ms)","GENERIC","156.51500000000001","0.08102805086067867","213"
"20:4:44:848 (H:m:s:ms)","GENERIC","156.5","0.08115169558036817","153"
"20:4:50:909 (H:m:s:ms)","GENERIC","156.511","0.05411724810112543","1090"
"20:38:59:393 (H:m:s:ms)","GENERIC","187.49099999999999","0.07556085560529648","645"
"20:39:5:454 (H:m:s:ms)","GENERIC","187.539","0.08611944520819709","545"
"20:14:56:969 (H:m:s:ms)","GENERIC","187.58499999999998","0.091593373943481","1030"
"20:39:11:515 (H:m:s:ms)","GENERIC","187.531","0.08022410614343031","484"
"20:15:3:30 (H:m:s:ms)","GENERIC","187.536","0.07705909347599797","969"
"20:39:17:575 (H:m:s:ms)","GENERIC","187.553","0.09103880299176785","424"
"20:15:9:90 (H:m:s:ms)","GENERIC","187.583","0.08318160698666689","948"
"20:39:23:636 (H:m:s:ms)","GENERIC","187.59699999999998","0.09089281315415668","363"
"20:15:15:151 (H:m:s:ms)","GENERIC","187.511","0.09795160845454035","848"
"20:39:29:696 (H:m:s:ms)","GENERIC","187.607","0.0938842273891596","341"
"20:15:21:212 (H:m:s:ms)","GENERIC","187.595","0.09499941971060531","788"
"20:39:35:757 (H:m:s:ms)","GENERIC","187.52499999999998","0.08732458034889959","242"
"20:15:27:272 (H:m:s:ms)","GENERIC","187.571","0.09195882942081761","727"
"20:39:41:818 (H:m:s:ms)","GENERIC","187.549","0.08843223270989867","182"
"20:15:33:333 (H:m:s:ms)","GENERIC","187.569","0.08728841880212285","666"
"20:39:47:878 (H:m:s:ms)","GENERIC","187.563","0.05856818533744035","1121"
"20:15:39:393 (H:m:s:ms)","GENERIC","187.53300000000002","0.08720913306601244","647"
"20:39:53:939 (H:m:s:ms)","GENERIC","187.529","0.097772804496432","1060"
"20:15:45:454 (H:m:s:ms)","GENERIC","187.537","0.07982854028651866","545"
"20:15:51:515 (H:m:s:ms)","GENERIC","187.531","0.08475729771899122","484"
"20:4:56:969 (H:m:s:ms)","GENERIC","156.544","0.09071234335868542","1030"
"20:5:3:30 (H:m:s:ms)","GENERIC","156.497","0.08844767685865271","970"
"20:5:9:90 (H:m:s:ms)","GENERIC","156.523","0.08440476753865774","936"
"20:5:15:151 (H:m:s:ms)","GENERIC","156.491","0.07689685706279849","848"
"20:5:21:212 (H:m:s:ms)","GENERIC","156.53799999999998","0.07937102773180452","787"
"20:5:27:272 (H:m:s:ms)","GENERIC","156.524","0.08399287772270522","727"
"20:5:33:333 (H:m:s:ms)","GENERIC","156.53300000000002","0.08335548781136462","666"
"20:5:39:393 (H:m:s:ms)","GENERIC","156.486","0.07857797358666295","633"
"20:5:45:454 (H:m:s:ms)","GENERIC","156.513","0.08509431258793539","545"
"20:5:51:515 (H:m:s:ms)","GENERIC","156.512","0.08860036667633274","484"
"20:15:57:575 (H:m:s:ms)","GENERIC","187.523","0.0945487883532861","424"
"20:16:3:636 (H:m:s:ms)","GENERIC","187.495","0.08283091084453925","363"
"20:16:9:696 (H:m:s:ms)","GENERIC","187.543","0.08274530713231128","344"
"20:16:15:757 (H:m:s:ms)","GENERIC","187.463","0.08864226003175962","242"
"20:16:21:818 (H:m:s:ms)","GENERIC","187.511","0.09576132281806418","181"
"20:16:27:878 (H:m:s:ms)","GENERIC","187.51299999999998","0.06085856172755162","1121"
"20:16:33:939 (H:m:s:ms)","GENERIC","187.539","0.09699192710816668","1060"
"20:16:40:0 (H:m:s:ms)","GENERIC","187.54999999999998","0.08960822341827011","1041"
"20:16:46:60 (H:m:s:ms)","GENERIC","187.533","0.08572449537046957","939"
"20:16:52:121 (H:m:s:ms)","GENERIC","187.499","0.08557994696535043","878"
"20:5:57:575 (H:m:s:ms)","GENERIC","156.494","0.08378085620723848","424"
"20:6:3:636 (H:m:s:ms)","GENERIC","156.492","0.09043297373233868","364"
"20:6:9:696 (H:m:s:ms)","GENERIC","156.50400000000002","0.08011052371702015","331"
"20:6:15:757 (H:m:s:ms)","GENERIC","156.476","0.0802841194786682","242"
"20:6:21:818 (H:m:s:ms)","GENERIC","156.484","0.08833576775975073","182"
"20:6:27:878 (H:m:s:ms)","GENERIC","156.476","0.09024234022520487","121"
"20:6:33:939 (H:m:s:ms)","GENERIC","156.51500000000001","0.05289290219437363","1061"
"20:6:40:0 (H:m:s:ms)","GENERIC","156.522","0.09665930255029434","1000"
"20:6:46:60 (H:m:s:ms)","GENERIC","156.50799999999998","0.08789004870398535","940"
"20:6:52:121 (H:m:s:ms)","GENERIC","156.474","0.07954377162571868","878"
"20:16:58:181 (H:m:s:ms)","GENERIC","187.579","0.08120664459192582","819"
"20:17:4:242 (H:m:s:ms)","GENERIC","187.53300000000002","0.09132270095660322","757"
"20:17:10:303 (H:m:s:ms)","GENERIC","187.62099999999998","0.09020883666645078","696"
"20:17:16:363 (H:m:s:ms)","GENERIC","187.547","0.09634675007222124","636"
"20:17:22:424 (H:m:s:ms)","GENERIC","187.579","0.09756143083704394","575"
"20:17:28:484 (H:m:s:ms)","GENERIC","187.572","0.08961139281152734","515"
"20:17:34:545 (H:m:s:ms)","GENERIC","187.52499999999998","0.09076178585185554","454"
"20:17:40:606 (H:m:s:ms)","GENERIC","187.553","0.0912499014310569","393"
"20:17:46:666 (H:m:s:ms)","GENERIC","187.569","0.08853645856878897","333"
"20:17:52:727 (H:m:s:ms)","GENERIC","187.515","0.0894579170084018","272"
"20:6:58:181 (H:m:s:ms)","GENERIC","156.512","0.09642498557408137","818"
"20:7:4:242 (H:m:s:ms)","GENERIC","156.49699999999999","0.0942808038727659","758"
"20:7:10:303 (H:m:s:ms)","GENERIC","156.559","0.08464911195881798","697"
"20:7:16:363 (H:m:s:ms)","GENERIC","156.517","0.08787632581614002","637"
"20:7:22:424 (H:m:s:ms)","GENERIC","156.539","0.08311673823551584","576"
"20:7:28:484 (H:m:s:ms)","GENERIC","156.532","0.07912642978466487","515"
"20:7:34:545 (H:m:s:ms)","GENERIC","156.49200000000002","0.07881929538583134","455"
"20:7:40:606 (H:m:s:ms)","GENERIC","156.499","0.09971802911117217","393"
"20:7:46:666 (H:m:s:ms)","GENERIC","156.529","0.0951587189923451","334"
"20:7:52:727 (H:m:s:ms)","GENERIC","156.494","0.08318061918927173","272"
"20:17:58:787 (H:m:s:ms)","GENERIC","187.54500000000002","0.08027285771479652","213"
"20:18:4:848 (H:m:s:ms)","GENERIC","187.49099999999999","0.08631555152577437","152"
"20:18:10:909 (H:m:s:ms)","GENERIC","187.607","0.06064960208752688","1090"
"20:18:16:969 (H:m:s:ms)","GENERIC","187.531","0.0982938127459886","1030"
"20:18:23:30 (H:m:s:ms)","GENERIC","187.511","0.09302500512756565","969"
"20:18:29:90 (H:m:s:ms)","GENERIC","187.559","0.0966171650924498","950"
"20:18:35:151 (H:m:s:ms)","GENERIC","187.573","0.09872645966486303","848"
"20:18:41:212 (H:m:s:ms)","GENERIC","187.475","0.09335339448797061","787"
"20:18:47:272 (H:m:s:ms)","GENERIC","187.531","0.09378847440003546","727"
"20:18:53:333 (H:m:s:ms)","GENERIC","187.517","0.09548667856223224","666"
"20:7:58:787 (H:m:s:ms)","GENERIC","156.518","0.09080767081720865","212"
"20:8:4:848 (H:m:s:ms)","GENERIC","156.482","0.09627544116813132","152"
"20:8:10:909 (H:m:s:ms)","GENERIC","156.559","0.06514268592656984","1091"
"20:8:16:969 (H:m:s:ms)","GENERIC","156.501","0.08447557610056688","1031"
"20:8:23:30 (H:m:s:ms)","GENERIC","156.46699999999998","0.0834036388109483","970"
"20:8:29:90 (H:m:s:ms)","GENERIC","156.505","0.09165571028859679","946"
"20:8:35:151 (H:m:s:ms)","GENERIC","156.532","0.08587792977900537","848"
"20:8:41:212 (H:m:s:ms)","GENERIC","156.493","0.08807707044305998","787"
"20:8:47:272 (H:m:s:ms)","GENERIC","156.484","0.08699566165630662","727"
"20:8:53:333 (H:m:s:ms)","GENERIC","156.481","0.08468818061878228","666"
"20:18:59:393 (H:m:s:ms)","GENERIC","187.535","0.08739197562776921","647"
"20:19:5:454 (H:m:s:ms)","GENERIC","187.547","0.0827110743702041","545"
"20:19:11:515 (H:m:s:ms)","GENERIC","187.519","0.08324585909588286","484"
"20:19:17:575 (H:m:s:ms)","GENERIC","187.527","0.08563608050876302","424"
"20:19:23:636 (H:m:s:ms)","GENERIC","187.631","0.08361079722634457","363"
"20:19:29:696 (H:m:s:ms)","GENERIC","187.63299999999998","0.08234889997559465","343"
"20:19:35:757 (H:m:s:ms)","GENERIC","187.593","0.07854408966183331","242"
"20:19:41:818 (H:m:s:ms)","GENERIC","187.529","0.08176410735830801","181"
"20:19:47:878 (H:m:s:ms)","GENERIC","187.571","0.0550197352726359","1121"
"20:19:53:939 (H:m:s:ms)","GENERIC","187.541","0.0948985012239948","1060"
"20:8:59:393 (H:m:s:ms)","GENERIC","156.50400000000002","0.08217312236364338","644"
"20:9:5:454 (H:m:s:ms)","GENERIC","156.51999999999998","0.08447364495855256","545"
"20:9:11:515 (H:m:s:ms)","GENERIC","156.49099999999999","0.08120497044054072","484"
"20:9:17:575 (H:m:s:ms)","GENERIC","156.50900000000001","0.09379015288059442","425"
"20:9:23:636 (H:m:s:ms)","GENERIC","156.531","0.09373540155555396","363"
"20:9:29:696 (H:m:s:ms)","GENERIC","156.559","0.09795686745074067","343"
"20:9:35:757 (H:m:s:ms)","GENERIC","156.529","0.0876191490612736","243"
"20:9:41:818 (H:m:s:ms)","GENERIC","156.505","0.0829479515777795","181"
"20:9:47:878 (H:m:s:ms)","GENERIC","156.502","0.08785495720365576","121"
"20:9:53:939 (H:m:s:ms)","GENERIC","156.505","0.04845665203675736","1061"
"21:40:48:484 (H:m:s:ms)","GENERIC","187.48499999999999","0.09706763940320301","515"
"21:40:42:424 (H:m:s:ms)","GENERIC","187.553","0.09157280536619535","576"
"21:40:36:363 (H:m:s:ms)","GENERIC","187.499","0.08463113380802399","636"
"21:40:30:303 (H:m:s:ms)","GENERIC","187.505","0.09102285834715683","696"
"21:40:24:242 (H:m:s:ms)","GENERIC","187.535","0.08984385101708948","758"
"21:40:18:181 (H:m:s:ms)","GENERIC","187.541","0.09323878690275467","818"
"21:40:12:121 (H:m:s:ms)","GENERIC","187.50900000000001","0.0866483982496035","878"
"21:41:6:666 (H:m:s:ms)","GENERIC","187.53300000000002","0.08796070112757666","333"
"21:41:0:606 (H:m:s:ms)","GENERIC","187.541","0.08337518268185443","393"
"21:40:54:545 (H:m:s:ms)","GENERIC","187.573","0.08426841670904417","454"
