"time (H:m:s:ms)","type","latency","utilisation","waiting"
"21:42:55:757 (H:m:s:ms)","GENERIC","124.99799999999999","0.06115156648218628","242"
"21:42:37:575 (H:m:s:ms)","GENERIC","124.981","0.042681305516346496","424"
"21:42:31:515 (H:m:s:ms)","GENERIC","125.013","0.04426475413827604","484"
"21:42:25:454 (H:m:s:ms)","GENERIC","125.062","0.0530564500264069","545"
"21:42:19:393 (H:m:s:ms)","GENERIC","125.045","0.05449819221122897","645"
"21:42:13:333 (H:m:s:ms)","GENERIC","125.015","0.04260716700327062","666"
"21:42:7:272 (H:m:s:ms)","GENERIC","125.069","0.047967864243704514","728"
"21:42:1:212 (H:m:s:ms)","GENERIC","125.001","0.054287286345429085","787"
"21:41:55:151 (H:m:s:ms)","GENERIC","125.037","0.05726493159337799","848"
"21:42:49:696 (H:m:s:ms)","GENERIC","125.005","0.05415305120020573","344"
"21:42:43:636 (H:m:s:ms)","GENERIC","125.035","0.03760413819764401","363"
"21:44:2:424 (H:m:s:ms)","GENERIC","125.083","0.03756643736712978","575"
"21:43:56:363 (H:m:s:ms)","GENERIC","125.062","0.04862610498511799","636"
"21:43:44:242 (H:m:s:ms)","GENERIC","124.98400000000001","0.05240888076783137","757"
"20:0:0:0 (H:m:s:ms)","GENERIC","94.017","0.024298405010713384","2164"
"21:43:38:181 (H:m:s:ms)","GENERIC","125.081","0.055276912201219094","818"
"20:0:6:60 (H:m:s:ms)","GENERIC","94.02600000000001","0.047127751317654065","940"
"21:43:32:121 (H:m:s:ms)","GENERIC","125.006","0.05493747907239646","878"
"20:0:12:121 (H:m:s:ms)","GENERIC","93.983","0.04724798191321825","879"
"21:43:26:60 (H:m:s:ms)","GENERIC","125.047","0.04787224650123469","939"
"20:0:18:181 (H:m:s:ms)","GENERIC","94.029","0.05260477885084212","819"
"21:43:20:0 (H:m:s:ms)","GENERIC","125.006","0.05783770814995841","1040"
"20:0:24:242 (H:m:s:ms)","GENERIC","94.026","0.05746396470276116","758"
"21:43:13:939 (H:m:s:ms)","GENERIC","124.995","0.04848858317049327","1061"
"20:0:30:303 (H:m:s:ms)","GENERIC","94.006","0.04977633798573484","697"
"21:43:7:878 (H:m:s:ms)","GENERIC","125.023","0.018149382458145544","1121"
"20:0:36:363 (H:m:s:ms)","GENERIC","94.011","0.04579574343322554","637"
"21:43:1:818 (H:m:s:ms)","GENERIC","125.021","0.041038220473935974","181"
"20:0:42:424 (H:m:s:ms)","GENERIC","93.985","0.0437331162919548","575"
"21:10:30:303 (H:m:s:ms)","GENERIC","125.041","0.05590391177981527","696"
"20:0:48:484 (H:m:s:ms)","GENERIC","93.974","0.05178625522121134","515"
"21:10:36:363 (H:m:s:ms)","GENERIC","125.011","0.05876371136756135","636"
"21:10:42:424 (H:m:s:ms)","GENERIC","125.01599999999999","0.05887600390773078","575"
"21:10:48:484 (H:m:s:ms)","GENERIC","124.999","0.057877738671464715","515"
"21:10:54:545 (H:m:s:ms)","GENERIC","125.047","0.05322225752119307","454"
"21:11:0:606 (H:m:s:ms)","GENERIC","125.078","0.04325529653508602","393"
"21:11:6:666 (H:m:s:ms)","GENERIC","125.051","0.05860815391575285","333"
"21:11:12:727 (H:m:s:ms)","GENERIC","125.02199999999999","0.055527304116085696","272"
"21:43:50:303 (H:m:s:ms)","GENERIC","125.061","0.06161619843152424","696"
"21:11:18:787 (H:m:s:ms)","GENERIC","125.061","0.04548927343038475","212"
"21:11:24:848 (H:m:s:ms)","GENERIC","125.003","0.054773368841301094","151"
"21:25:56:962 (H:m:s:ms)","OPERA","93.964","0.05954822324140901","1037"
"21:45:9:90 (H:m:s:ms)","GENERIC","125.075","0.045644691349416594","949"
"21:45:3:30 (H:m:s:ms)","GENERIC","124.977","0.05548044439390284","969"
"21:44:56:969 (H:m:s:ms)","GENERIC","125.025","0.053625101185415636","1030"
"21:44:50:909 (H:m:s:ms)","GENERIC","125.039","0.024752819282464117","1090"
"21:44:44:848 (H:m:s:ms)","GENERIC","125.029","0.04947966430249101","151"
"21:44:38:787 (H:m:s:ms)","GENERIC","125.081","0.03277263232040537","212"
"21:44:32:727 (H:m:s:ms)","GENERIC","125.003","0.04000657519815774","272"
"21:44:26:666 (H:m:s:ms)","GENERIC","125.029","0.04929760261096295","333"
"21:44:20:606 (H:m:s:ms)","GENERIC","125.063","0.04498096680987115","393"
"21:44:14:545 (H:m:s:ms)","GENERIC","125.094","0.048142686007834785","454"
"21:11:30:909 (H:m:s:ms)","GENERIC","125.027","0.031938376946271115","1090"
"21:44:8:484 (H:m:s:ms)","GENERIC","124.995","0.047255723465237216","515"
"21:11:36:969 (H:m:s:ms)","GENERIC","125.092","0.06162557485244816","1030"
"21:11:43:30 (H:m:s:ms)","GENERIC","125.117","0.04991445198999829","970"
"21:11:49:90 (H:m:s:ms)","GENERIC","125.035","0.04641277586674415","947"
"21:11:55:151 (H:m:s:ms)","GENERIC","125.013","0.04701836585827051","848"
"21:12:1:212 (H:m:s:ms)","GENERIC","124.995","0.045644691349416594","787"
"21:12:7:272 (H:m:s:ms)","GENERIC","125.07300000000001","0.06056966078107813","727"
"21:12:13:333 (H:m:s:ms)","GENERIC","125.009","0.05425971421247048","666"
"21:12:19:393 (H:m:s:ms)","GENERIC","125.089","0.04988236486368015","644"
"21:12:25:454 (H:m:s:ms)","GENERIC","125.06","0.04848090723024984","545"
"21:26:34:936 (H:m:s:ms)","OPERA","124.971","0.051596379883725736","1063"
"21:46:15:757 (H:m:s:ms)","GENERIC","124.997","0.054855533607638944","242"
"21:26:33:939 (H:m:s:ms)","GENERIC","125.084","0.055150904162993133","1060"
"21:46:9:696 (H:m:s:ms)","GENERIC","125.00800000000001","0.05242674027447164","342"
"21:46:3:636 (H:m:s:ms)","GENERIC","125.047","0.04973154660758262","363"
"21:45:57:575 (H:m:s:ms)","GENERIC","125.057","0.0471577545933134","424"
"21:26:27:341 (H:m:s:ms)","OPERA","93.97","0.05355403421996545","658"
"21:26:21:818 (H:m:s:ms)","GENERIC","125.003","0.05937153912679657","181"
"21:45:51:515 (H:m:s:ms)","GENERIC","125.051","0.046381564863512574","484"
"21:26:19:746 (H:m:s:ms)","OPERA","93.964","0.03886527329941531","294"
"21:45:45:454 (H:m:s:ms)","GENERIC","125.024","0.04499716702367524","546"
"21:26:15:757 (H:m:s:ms)","GENERIC","124.99799999999999","0.07645921402074547","242"
"21:45:39:393 (H:m:s:ms)","GENERIC","125.029","0.05613691685825247","646"
"21:26:12:151 (H:m:s:ms)","OPERA","124.976","0.062241472109359056","848"
"21:45:33:333 (H:m:s:ms)","GENERIC","125.02199999999999","0.05804170311021204","666"
"21:26:9:696 (H:m:s:ms)","GENERIC","125.001","0.044518336452569314","343"
"21:45:27:272 (H:m:s:ms)","GENERIC","125.019","0.04572342908914441","727"
"21:12:31:515 (H:m:s:ms)","GENERIC","125.061","0.052210519632483764","484"
"21:26:3:636 (H:m:s:ms)","GENERIC","125.08","0.06511339077226704","364"
"21:45:21:212 (H:m:s:ms)","GENERIC","125.08500000000001","0.04504789659614427","787"
"21:12:37:575 (H:m:s:ms)","GENERIC","125.005","0.05369437150976944","424"
"21:25:57:575 (H:m:s:ms)","GENERIC","125.025","0.07472403663720424","424"
"21:45:15:151 (H:m:s:ms)","GENERIC","125.009","0.04572342908914441","848"
"21:12:43:636 (H:m:s:ms)","GENERIC","125.059","0.04638840562563327","363"
"21:12:49:696 (H:m:s:ms)","GENERIC","125.011","0.054243010687761974","340"
"21:12:55:757 (H:m:s:ms)","GENERIC","124.994","0.05779347468841848","242"
"21:13:1:818 (H:m:s:ms)","GENERIC","125.013","0.054602804990120754","182"
"21:13:7:878 (H:m:s:ms)","GENERIC","125.005","0.022920023570898174","1121"
"21:13:13:939 (H:m:s:ms)","GENERIC","125.039","0.05395751146483943","1061"
"21:13:20:0 (H:m:s:ms)","GENERIC","124.99600000000001","0.059319571571711","1036"
"21:13:26:60 (H:m:s:ms)","GENERIC","125.015","0.046675583619809516","939"
"21:26:27:878 (H:m:s:ms)","GENERIC","125.049","0.04959362796675477","1121"
"21:27:12:911 (H:m:s:ms)","OPERA","124.969","0.04936988342034235","1089"
"21:47:22:424 (H:m:s:ms)","GENERIC","125.019","0.05292666572033784","575"
"21:27:10:303 (H:m:s:ms)","GENERIC","125.054","0.06864023297308666","696"
"21:47:16:363 (H:m:s:ms)","GENERIC","125.011","0.05601017852599957","636"
"21:27:5:316 (H:m:s:ms)","OPERA","93.971","0.05134581837648493","683"
"21:47:10:303 (H:m:s:ms)","GENERIC","125.03200000000001","0.05976481092742255","696"
"21:47:4:242 (H:m:s:ms)","GENERIC","125.055","0.058687401330252846","757"
"21:46:58:181 (H:m:s:ms)","GENERIC","125.086","0.055689144108218284","818"
"21:27:4:242 (H:m:s:ms)","GENERIC","125.029","0.04721566330184819","758"
"21:26:58:181 (H:m:s:ms)","GENERIC","125.08699999999999","0.06352738208672537","818"
"21:26:57:721 (H:m:s:ms)","OPERA","124.969","0.04948126213969507","278"
"21:46:52:121 (H:m:s:ms)","GENERIC","125.049","0.05269645253006211","878"
"21:26:52:121 (H:m:s:ms)","GENERIC","125.08099999999999","0.06306345450200043","878"
"21:46:46:60 (H:m:s:ms)","GENERIC","125.001","0.042481591494259674","939"
"21:26:50:126 (H:m:s:ms)","OPERA","93.964","0.04963200061255367","873"
"21:46:40:0 (H:m:s:ms)","GENERIC","124.99799999999999","0.04874262960956705","1040"
"21:13:32:121 (H:m:s:ms)","GENERIC","124.96700000000001","0.051053662447226665","878"
"21:26:46:60 (H:m:s:ms)","GENERIC","125.017","0.06744581967838573","939"
"21:46:33:939 (H:m:s:ms)","GENERIC","125.06700000000001","0.051164362063583775","1060"
"21:13:38:181 (H:m:s:ms)","GENERIC","125.077","0.04808534485879795","818"
"21:26:42:531 (H:m:s:ms)","OPERA","93.964","0.04453669458614225","468"
"21:46:27:878 (H:m:s:ms)","GENERIC","125.045","0.027751522802131466","1121"
"21:13:44:242 (H:m:s:ms)","GENERIC","124.999","0.05548044439390284","758"
"21:26:40:0 (H:m:s:ms)","GENERIC","125.02600000000001","0.07394138033236991","1041"
"21:46:21:818 (H:m:s:ms)","GENERIC","124.987","0.05790948300451831","181"
"21:13:50:303 (H:m:s:ms)","GENERIC","125.05600000000001","0.05561703885532324","696"
"21:13:56:363 (H:m:s:ms)","GENERIC","125.081","0.03196322525402015","636"
"21:14:2:424 (H:m:s:ms)","GENERIC","125.147","0.033023398852857024","575"
"21:14:8:484 (H:m:s:ms)","GENERIC","124.97900000000001","0.041978612102170854","515"
"21:14:14:545 (H:m:s:ms)","GENERIC","125.093","0.050310871659462436","455"
"21:14:20:606 (H:m:s:ms)","GENERIC","125.10900000000001","0.054243010687761974","393"
"21:14:26:666 (H:m:s:ms)","GENERIC","125.02799999999999","0.061166141053418575","333"
"21:27:52:727 (H:m:s:ms)","GENERIC","125.13","0.05329987980282137","272"
"21:48:29:90 (H:m:s:ms)","GENERIC","125.061","0.05011918145725866","950"
"21:27:50:886 (H:m:s:ms)","OPERA","124.969","0.047127751317654065","1113"
"21:48:23:30 (H:m:s:ms)","GENERIC","124.999","0.04804216296427034","969"
"21:27:46:666 (H:m:s:ms)","GENERIC","125.019","0.07176407745656709","334"
"21:48:16:969 (H:m:s:ms)","GENERIC","125.005","0.050068478421205445","1030"
"21:27:43:291 (H:m:s:ms)","OPERA","93.96300000000001","0.058086019399206816","708"
"21:48:10:909 (H:m:s:ms)","GENERIC","125.047","0.029200072444588544","1090"
"21:48:4:848 (H:m:s:ms)","GENERIC","125.03200000000001","0.048716384989788336","152"
"21:47:58:787 (H:m:s:ms)","GENERIC","124.987","0.0500640835376933","212"
"21:27:40:606 (H:m:s:ms)","GENERIC","125.02199999999999","0.07179859193077087","393"
"21:27:35:696 (H:m:s:ms)","OPERA","124.974","0.050437136226333376","303"
"21:27:34:545 (H:m:s:ms)","GENERIC","125.07900000000001","0.04252282323762269","455"
"21:47:52:727 (H:m:s:ms)","GENERIC","125.092","0.04720314414532391","272"
"21:14:32:727 (H:m:s:ms)","GENERIC","124.995","0.055263163937232594","273"
"21:27:28:484 (H:m:s:ms)","GENERIC","125.12100000000001","0.042694833862331576","515"
"21:47:46:666 (H:m:s:ms)","GENERIC","125.023","0.053756569462085416","333"
"21:14:38:787 (H:m:s:ms)","GENERIC","125.1","0.052423377585621135","212"
"21:27:22:424 (H:m:s:ms)","GENERIC","125.00200000000001","0.0615492230953285","575"
"21:47:40:606 (H:m:s:ms)","GENERIC","125.041","0.05010517088471876","393"
"20:52:31:515 (H:m:s:ms)","GENERIC","125.051","0.053077936171832416","484"
"21:14:44:848 (H:m:s:ms)","GENERIC","125.065","0.05935047944055808","152"
"21:27:20:506 (H:m:s:ms)","OPERA","124.96700000000001","0.043568639771210504","493"
"21:47:34:545 (H:m:s:ms)","GENERIC","125.099","0.044270915146919665","455"
"20:52:37:575 (H:m:s:ms)","GENERIC","125.036","0.05292263873021698","424"
"21:14:50:909 (H:m:s:ms)","GENERIC","125.095","0.026825427108927272","1090"
"21:27:16:363 (H:m:s:ms)","GENERIC","125.03","0.06683585247024526","636"
"21:47:28:484 (H:m:s:ms)","GENERIC","125.1","0.049696527663363195","515"
"20:52:43:636 (H:m:s:ms)","GENERIC","125.06700000000001","0.06066294389621262","363"
"21:14:56:969 (H:m:s:ms)","GENERIC","125.066","0.05080687960836918","1030"
"20:52:49:696 (H:m:s:ms)","GENERIC","124.993","0.055037245264424495","341"
"21:15:3:30 (H:m:s:ms)","GENERIC","125.015","0.05089832376348025","970"
"20:52:55:757 (H:m:s:ms)","GENERIC","125.02000000000001","0.04733698724539391","242"
"21:15:9:90 (H:m:s:ms)","GENERIC","125.068","0.05249002356963459","946"
"20:53:1:818 (H:m:s:ms)","GENERIC","125.037","0.03608525876540282","181"
"21:15:15:151 (H:m:s:ms)","GENERIC","125.011","0.04619033509237741","848"
"20:53:7:878 (H:m:s:ms)","GENERIC","125.041","0.0328781808656526","1121"
"21:15:21:212 (H:m:s:ms)","GENERIC","125.081","0.04947966430249101","787"
"20:53:13:939 (H:m:s:ms)","GENERIC","125.035","0.04696398558500972","1061"
"21:15:27:272 (H:m:s:ms)","GENERIC","125.02199999999999","0.0571543066149431","727"
"20:53:20:0 (H:m:s:ms)","GENERIC","124.987","0.04973154660758262","1040"
"20:53:26:60 (H:m:s:ms)","GENERIC","125.019","0.06356605719920402","939"
"21:28:29:90 (H:m:s:ms)","GENERIC","125.042","0.0673683688227441","947"
"21:49:35:757 (H:m:s:ms)","GENERIC","125.011","0.052423459638067306","242"
"21:28:28:860 (H:m:s:ms)","OPERA","124.969","0.04917655079890001","139"
"21:49:29:696 (H:m:s:ms)","GENERIC","125.05000000000001","0.05216827544356521","345"
"21:28:23:30 (H:m:s:ms)","GENERIC","125.03200000000001","0.06284721347128006","969"
"21:49:23:636 (H:m:s:ms)","GENERIC","125.111","0.04589816995819602","363"
"21:28:21:265 (H:m:s:ms)","OPERA","124.969","0.03988270730599792","734"
"21:49:17:575 (H:m:s:ms)","GENERIC","125.049","0.049925741847846504","424"
"21:28:16:969 (H:m:s:ms)","GENERIC","125.03200000000001","0.06570407632426693","1030"
"21:49:11:515 (H:m:s:ms)","GENERIC","125.075","0.05322225752119307","484"
"21:49:5:454 (H:m:s:ms)","GENERIC","124.983","0.04569461881234815","545"
"21:48:59:393 (H:m:s:ms)","GENERIC","124.999","0.0519702723664","647"
"21:28:13:670 (H:m:s:ms)","OPERA","93.964","0.0511296238365567","329"
"21:15:33:333 (H:m:s:ms)","GENERIC","125.065","0.05542965546018031","666"
"21:28:10:909 (H:m:s:ms)","GENERIC","125.031","0.046516770330302507","1090"
"21:15:39:393 (H:m:s:ms)","GENERIC","125.05600000000001","0.053077936171832416","643"
"21:28:6:75 (H:m:s:ms)","OPERA","93.964","0.039720142672456826","924"
"21:48:53:333 (H:m:s:ms)","GENERIC","125.084","0.052874378304837176","666"
"20:53:32:121 (H:m:s:ms)","GENERIC","125.011","0.059171949362697866","878"
"21:15:45:454 (H:m:s:ms)","GENERIC","125.001","0.05504714213213402","546"
"21:28:4:848 (H:m:s:ms)","GENERIC","125.054","0.056034572427021874","151"
"21:48:47:272 (H:m:s:ms)","GENERIC","124.991","0.05541582320545712","727"
"20:53:38:181 (H:m:s:ms)","GENERIC","125.11500000000001","0.052583984322730905","818"
"21:15:51:515 (H:m:s:ms)","GENERIC","125.074","0.057136618249160345","484"
"21:27:58:787 (H:m:s:ms)","GENERIC","125.027","0.04831747402920431","212"
"21:48:41:212 (H:m:s:ms)","GENERIC","125.06700000000001","0.048735553161160884","787"
"20:53:44:242 (H:m:s:ms)","GENERIC","125.021","0.04403320060541901","758"
"21:15:57:575 (H:m:s:ms)","GENERIC","125.039","0.048816962140887925","424"
"21:27:58:481 (H:m:s:ms)","OPERA","124.96700000000001","0.03987180541085745","518"
"21:48:35:151 (H:m:s:ms)","GENERIC","125.07","0.04586510172618172","849"
"20:53:50:303 (H:m:s:ms)","GENERIC","125.02600000000001","0.051876011390187826","696"
"21:16:3:636 (H:m:s:ms)","GENERIC","125.071","0.05001236608506942","364"
"20:53:56:363 (H:m:s:ms)","GENERIC","125.06","0.06561452903854204","636"
"21:16:9:696 (H:m:s:ms)","GENERIC","125.02600000000001","0.04957313864738855","339"
"20:54:2:424 (H:m:s:ms)","GENERIC","125.113","0.0478564230572479","575"
"21:16:15:757 (H:m:s:ms)","GENERIC","124.989","0.04203589419819697","242"
"20:54:8:484 (H:m:s:ms)","GENERIC","124.969","0.04278968751766635","515"
"21:16:21:818 (H:m:s:ms)","GENERIC","125.023","0.059002620494305796","181"
"20:54:14:545 (H:m:s:ms)","GENERIC","125.066","0.05134581837648493","454"
"21:16:27:878 (H:m:s:ms)","GENERIC","125.049","0.020204414536881633","1121"
"20:54:20:606 (H:m:s:ms)","GENERIC","125.083","0.05036540243375688","393"
"20:54:26:666 (H:m:s:ms)","GENERIC","125.043","0.04558867252323025","333"
"21:29:6:835 (H:m:s:ms)","OPERA","93.965","0.039635777586248214","164"
"21:29:5:454 (H:m:s:ms)","GENERIC","125.003","0.06899377456287926","545"
"21:28:59:393 (H:m:s:ms)","GENERIC","125.02799999999999","0.07845609569936254","642"
"21:28:59:240 (H:m:s:ms)","OPERA","93.971","0.06066864883556318","795"
"21:28:53:333 (H:m:s:ms)","GENERIC","125.108","0.07314178339731289","666"
"21:28:51:645 (H:m:s:ms)","OPERA","93.964","0.05324011460435727","354"
"22:10:0:0 (H:m:s:ms)","AMBULANCE","125.081","0.028054173485316934","1007"
"22:0:0:0 (H:m:s:ms)","AMBULANCE","125.08000000000001","0.019392781875010267","2298"
"21:50:0:0 (H:m:s:ms)","GENERIC","125.021","0.051959557079570756","1040"
"21:16:33:939 (H:m:s:ms)","GENERIC","125.06700000000001","0.04040882907376327","1061"
"21:16:40:0 (H:m:s:ms)","GENERIC","125.005","0.04319876896290922","1037"
"21:28:47:272 (H:m:s:ms)","GENERIC","125.031","0.06381115410918774","727"
"20:54:32:727 (H:m:s:ms)","GENERIC","124.993","0.04889180915275748","272"
"21:16:46:60 (H:m:s:ms)","GENERIC","125.031","0.04701836585827051","939"
"21:28:44:50 (H:m:s:ms)","OPERA","124.969","0.044142325839814506","949"
"20:54:38:787 (H:m:s:ms)","GENERIC","125.078","0.04648100913713654","212"
"21:16:52:121 (H:m:s:ms)","GENERIC","125.083","0.040896022681013666","878"
"21:28:41:212 (H:m:s:ms)","GENERIC","125.089","0.07467412921167471","787"
"21:49:53:939 (H:m:s:ms)","GENERIC","125.03999999999999","0.05556885867250879","1061"
"20:54:44:848 (H:m:s:ms)","GENERIC","125.09700000000001","0.06007491256578757","151"
"21:16:58:181 (H:m:s:ms)","GENERIC","125.06700000000001","0.04262417102310505","818"
"21:28:36:455 (H:m:s:ms)","OPERA","124.982","0.06986451786516798","544"
"21:49:47:878 (H:m:s:ms)","GENERIC","125.021","0.03300297907231588","1121"
"20:54:50:909 (H:m:s:ms)","GENERIC","125.081","0.030927404028715588","1090"
"21:17:4:242 (H:m:s:ms)","GENERIC","125.021","0.04560212026158745","757"
"21:28:35:151 (H:m:s:ms)","GENERIC","125.069","0.0524748313416068","848"
"21:49:41:818 (H:m:s:ms)","GENERIC","125.053","0.04696398558500972","181"
"20:54:56:969 (H:m:s:ms)","GENERIC","125.03800000000001","0.057100358459709594","1030"
"21:17:10:303 (H:m:s:ms)","GENERIC","125.029","0.05136538049373787","696"
"20:55:3:30 (H:m:s:ms)","GENERIC","124.997","0.052874378304837176","969"
"21:17:16:363 (H:m:s:ms)","GENERIC","125.03399999999999","0.05194418322668827","636"
"20:55:9:90 (H:m:s:ms)","GENERIC","125.02799999999999","0.05604889735819706","951"
"21:17:22:424 (H:m:s:ms)","GENERIC","124.983","0.04867055038029432","575"
"20:55:15:151 (H:m:s:ms)","GENERIC","125.033","0.046696254835905","848"
"21:17:28:484 (H:m:s:ms)","GENERIC","125.10300000000001","0.055665628599324","515"
"20:55:21:212 (H:m:s:ms)","GENERIC","125.063","0.04784133989191931","787"
"20:55:27:272 (H:m:s:ms)","GENERIC","125.027","0.054773368841301094","727"
"21:29:44:810 (H:m:s:ms)","OPERA","124.971","0.0556433432293139","189"
"21:29:41:818 (H:m:s:ms)","GENERIC","125.05000000000001","0.0763726973004649","181"
"21:29:37:215 (H:m:s:ms)","OPERA","124.969","0.04969035221966964","784"
"21:29:35:757 (H:m:s:ms)","GENERIC","125.03200000000001","0.07225970938009518","242"
"21:29:29:696 (H:m:s:ms)","GENERIC","125.062","0.065039794325152","340"
"21:29:29:620 (H:m:s:ms)","OPERA","124.96700000000001","0.03783792805824114","416"
"21:29:23:636 (H:m:s:ms)","GENERIC","125.084","0.05922430222252253","363"
"21:17:34:545 (H:m:s:ms)","GENERIC","125.086","0.06170724220532421","455"
"21:17:40:606 (H:m:s:ms)","GENERIC","125.009","0.055633966131829256","393"
"20:55:33:333 (H:m:s:ms)","GENERIC","125.053","0.053765666872319304","666"
"21:17:46:666 (H:m:s:ms)","GENERIC","125.036","0.05127346302746047","333"
"20:55:39:393 (H:m:s:ms)","GENERIC","125.075","0.05248742350823538","649"
"21:17:52:727 (H:m:s:ms)","GENERIC","125.13300000000001","0.049843404529456264","272"
"21:29:22:25 (H:m:s:ms)","OPERA","93.964","0.04371557591776373","974"
"20:55:45:454 (H:m:s:ms)","GENERIC","125.013","0.04280816533036752","545"
"21:17:58:787 (H:m:s:ms)","GENERIC","125.039","0.05548044439390284","212"
"21:29:17:575 (H:m:s:ms)","GENERIC","125.062","0.06254986350722058","424"
"20:55:51:515 (H:m:s:ms)","GENERIC","125.087","0.04868172261801016","485"
"21:18:4:848 (H:m:s:ms)","GENERIC","125.055","0.05267862088913022","153"
"21:29:14:430 (H:m:s:ms)","OPERA","124.969","0.04476924298060948","569"
"20:55:57:575 (H:m:s:ms)","GENERIC","125.057","0.04701836585827051","424"
"21:18:10:909 (H:m:s:ms)","GENERIC","125.017","0.03613808021595133","1090"
"21:29:11:515 (H:m:s:ms)","GENERIC","125.047","0.05927039794048836","484"
"20:56:3:636 (H:m:s:ms)","GENERIC","125.05199999999999","0.0478564230572479","363"
"21:18:16:969 (H:m:s:ms)","GENERIC","125.029","0.05112379776465973","1030"
"20:56:9:696 (H:m:s:ms)","GENERIC","125.039","0.0554090280043592","345"
"21:18:23:30 (H:m:s:ms)","GENERIC","125.013","0.04260716700327062","969"
"20:56:15:757 (H:m:s:ms)","GENERIC","125.014","0.06231072166108196","242"
"21:18:29:90 (H:m:s:ms)","GENERIC","125.021","0.05670838560363298","945"
"20:56:21:818 (H:m:s:ms)","GENERIC","124.997","0.0659178649147597","181"
"20:56:27:878 (H:m:s:ms)","GENERIC","125.037","0.032759979799706","1121"
"21:30:24:242 (H:m:s:ms)","GENERIC","125.095","0.051324703555839075","757"
"21:30:18:181 (H:m:s:ms)","GENERIC","125.095","0.05740965225189377","818"
"21:30:12:121 (H:m:s:ms)","GENERIC","124.999","0.046495236317980394","878"
"21:30:6:60 (H:m:s:ms)","GENERIC","125.064","0.0814790239073648","939"
"21:30:0:0 (H:m:s:ms)","AMBULANCE","125.04599999999999","0.0729908794244133","1037"
"21:30:0:0 (H:m:s:ms)","GENERIC","125.005","0.0590591442369337","1037"
"21:30:0:0 (H:m:s:ms)","GENERIC","125.09700000000001","0.0910480254188927","1037"
"21:30:0:0 (H:m:s:ms)","OPERA","93.978","0.08934621623569527","1037"
"21:18:35:151 (H:m:s:ms)","GENERIC","125.059","0.047094807009570486","848"
"21:18:41:212 (H:m:s:ms)","GENERIC","125.087","0.0471577545933134","787"
"20:56:33:939 (H:m:s:ms)","GENERIC","125.05600000000001","0.044311069185788934","1060"
"21:18:47:272 (H:m:s:ms)","GENERIC","125.027","0.05121418045640902","727"
"20:56:40:0 (H:m:s:ms)","GENERIC","124.993","0.039437169144145905","1042"
"21:18:53:333 (H:m:s:ms)","GENERIC","125.124","0.04739192231520406","667"
"20:40:0:0 (H:m:s:ms)","OPERA","93.964","0.05358649719061131","2207"
"20:56:46:60 (H:m:s:ms)","GENERIC","125.041","0.0435361671941575","939"
"21:18:59:393 (H:m:s:ms)","GENERIC","125.043","0.0443903545568769","642"
"20:40:0:0 (H:m:s:ms)","GENERIC","125.02000000000001","0.0665942998228556","2207"
"20:56:52:121 (H:m:s:ms)","GENERIC","125.119","0.0415428064276631","878"
"21:19:5:454 (H:m:s:ms)","GENERIC","125.005","0.041943409278929616","545"
"21:29:53:939 (H:m:s:ms)","GENERIC","125.001","0.07534838936478194","1060"
"20:40:0:0 (H:m:s:ms)","GENERIC","125.102","0.09005870143522092","2207"
"20:56:58:181 (H:m:s:ms)","GENERIC","125.04599999999999","0.05530026837022757","819"
"21:19:11:515 (H:m:s:ms)","GENERIC","125.051","0.04577342288962378","484"
"21:29:52:405 (H:m:s:ms)","OPERA","124.96700000000001","0.05643301582063056","594"
"20:40:6:60 (H:m:s:ms)","GENERIC","125.083","0.08208031929667121","939"
"20:57:4:242 (H:m:s:ms)","GENERIC","125.065","0.06069674748798973","757"
"21:19:17:575 (H:m:s:ms)","GENERIC","125.062","0.047545712412834756","424"
"21:29:47:878 (H:m:s:ms)","GENERIC","125.0","0.05836514030249537","1121"
"20:40:7:594 (H:m:s:ms)","OPERA","93.964","0.044905370775584846","405"
"20:57:10:303 (H:m:s:ms)","GENERIC","125.021","0.06127773642235749","696"
"21:19:23:636 (H:m:s:ms)","GENERIC","125.069","0.0478524710217854","363"
"20:40:12:121 (H:m:s:ms)","GENERIC","125.02600000000001","0.05960362473340962","878"
"20:57:16:363 (H:m:s:ms)","GENERIC","125.029","0.05391889259764059","637"
"21:19:29:696 (H:m:s:ms)","GENERIC","125.041","0.05185141789138204","340"
"20:40:15:189 (H:m:s:ms)","OPERA","93.96300000000001","0.04526811148467557","810"
"20:57:22:424 (H:m:s:ms)","GENERIC","124.987","0.04584961179941129","575"
"20:40:18:181 (H:m:s:ms)","GENERIC","125.106","0.06831287191809085","818"
"20:57:28:484 (H:m:s:ms)","GENERIC","125.065","0.05384517836351606","515"
"20:40:22:784 (H:m:s:ms)","OPERA","93.964","0.05579484124179344","215"
"20:40:24:242 (H:m:s:ms)","GENERIC","125.021","0.07202360510048178","757"
"21:30:36:363 (H:m:s:ms)","GENERIC","125.003","0.07564669287056963","636"
"21:31:18:787 (H:m:s:ms)","GENERIC","125.049","0.051164362063583775","212"
"21:31:12:727 (H:m:s:ms)","GENERIC","125.003","0.04174068942923885","272"
"21:31:6:666 (H:m:s:ms)","GENERIC","125.076","0.06842855187420692","333"
"21:31:3:157 (H:m:s:ms)","AMBULANCE","125.061","0.053625101185415636","842"
"21:31:0:606 (H:m:s:ms)","GENERIC","125.037","0.04582575767955109","393"
"21:30:54:545 (H:m:s:ms)","GENERIC","125.033","0.049023197249148165","455"
"21:30:48:484 (H:m:s:ms)","GENERIC","125.019","0.05672537588694446","515"
"21:19:35:757 (H:m:s:ms)","GENERIC","125.043","0.05579617585416883","242"
"21:30:42:424 (H:m:s:ms)","GENERIC","125.021","0.05589547359696583","575"
"21:19:41:818 (H:m:s:ms)","GENERIC","125.039","0.051952954820380155","181"
"20:57:34:545 (H:m:s:ms)","GENERIC","125.055","0.06004225565189982","454"
"21:19:47:878 (H:m:s:ms)","GENERIC","125.013","0.024298405010713384","1121"
"20:57:40:606 (H:m:s:ms)","GENERIC","124.976","0.051935635116757944","393"
"21:19:53:939 (H:m:s:ms)","GENERIC","124.991","0.0471577545933134","1060"
"20:40:30:303 (H:m:s:ms)","GENERIC","125.041","0.0488008532841351","697"
"20:57:46:666 (H:m:s:ms)","GENERIC","125.059","0.04085542540523988","333"
"21:20:0:0 (H:m:s:ms)","OPERA","124.977","0.06392482651119215","2297"
"20:40:30:379 (H:m:s:ms)","OPERA","93.972","0.0727751290168706","620"
"20:57:52:727 (H:m:s:ms)","GENERIC","125.164","0.04835968193940839","272"
"21:20:0:0 (H:m:s:ms)","GENERIC","125.029","0.07778034818370744","2296"
"20:40:36:363 (H:m:s:ms)","GENERIC","125.035","0.07841874340422032","637"
"20:57:58:787 (H:m:s:ms)","GENERIC","125.04400000000001","0.06980455413833736","212"
"21:20:0:0 (H:m:s:ms)","GENERIC","125.09100000000001","0.055606454294418975","2296"
"20:40:37:974 (H:m:s:ms)","OPERA","93.964","0.05458788383499094","1025"
"20:58:4:848 (H:m:s:ms)","GENERIC","125.06899999999999","0.066272423419587","151"
"21:20:6:60 (H:m:s:ms)","GENERIC","125.048","0.07937965201270847","939"
"21:30:31:578 (H:m:s:ms)","AMBULANCE","125.03999999999999","0.061166141053418575","421"
"20:40:42:424 (H:m:s:ms)","GENERIC","125.003","0.06275259082086013","575"
"20:58:10:909 (H:m:s:ms)","GENERIC","125.019","0.0405686567950962","1090"
"21:20:7:594 (H:m:s:ms)","OPERA","124.96700000000001","0.06031482165610714","405"
"21:30:30:303 (H:m:s:ms)","GENERIC","125.049","0.05194053445322386","696"
"20:40:45:569 (H:m:s:ms)","OPERA","93.964","0.047989214867402756","430"
"20:58:16:969 (H:m:s:ms)","GENERIC","125.015","0.05611290478699858","1030"
"21:20:12:121 (H:m:s:ms)","GENERIC","125.011","0.07340780564581731","878"
"20:40:48:484 (H:m:s:ms)","GENERIC","125.03200000000001","0.061463560468319405","516"
"20:58:23:30 (H:m:s:ms)","GENERIC","124.989","0.04380822357323545","969"
"20:40:53:164 (H:m:s:ms)","OPERA","93.96300000000001","0.04766454921847564","836"
"20:58:29:90 (H:m:s:ms)","GENERIC","125.033","0.04767792908634048","951"
"20:40:54:545 (H:m:s:ms)","GENERIC","125.116","0.07530628882941859","454"
"20:41:0:606 (H:m:s:ms)","GENERIC","125.113","0.063538257553302","393"
"21:31:34:736 (H:m:s:ms)","AMBULANCE","125.06","0.060595085365596484","264"
"21:31:30:909 (H:m:s:ms)","GENERIC","125.029","0.036880803966648","1090"
"21:32:13:333 (H:m:s:ms)","GENERIC","125.005","0.05953177224172596","666"
"21:32:7:272 (H:m:s:ms)","GENERIC","125.094","0.06403354162438822","727"
"21:32:6:315 (H:m:s:ms)","AMBULANCE","125.025","0.046636075849940416","684"
"21:32:1:212 (H:m:s:ms)","GENERIC","125.005","0.04892972839867489","787"
"21:31:55:151 (H:m:s:ms)","GENERIC","125.037","0.054272673426512645","849"
"21:31:49:90 (H:m:s:ms)","GENERIC","125.045","0.056188883557617725","946"
"21:31:43:30 (H:m:s:ms)","GENERIC","125.101","0.05909740191095008","969"
"21:31:36:969 (H:m:s:ms)","GENERIC","125.13","0.08196248776975718","1030"
"20:58:35:151 (H:m:s:ms)","GENERIC","125.071","0.0471577545933134","849"
"20:58:41:212 (H:m:s:ms)","GENERIC","125.08","0.05493245097514106","787"
"20:41:0:759 (H:m:s:ms)","OPERA","93.971","0.07639841232743876","240"
"20:58:47:272 (H:m:s:ms)","GENERIC","125.023","0.05482026360612603","727"
"20:41:6:666 (H:m:s:ms)","GENERIC","125.02","0.07172956941629473","333"
"20:58:53:333 (H:m:s:ms)","GENERIC","125.162","0.05203749865908228","666"
"20:41:8:354 (H:m:s:ms)","OPERA","93.964","0.05889312588940933","645"
"20:58:59:393 (H:m:s:ms)","GENERIC","125.041","0.04873010878994094","647"
"20:41:12:727 (H:m:s:ms)","GENERIC","125.009","0.06878950425110135","272"
"20:59:5:454 (H:m:s:ms)","GENERIC","124.99600000000001","0.05519593305446856","546"
"20:41:15:949 (H:m:s:ms)","OPERA","93.96300000000001","0.03821138690477205","1050"
"20:59:11:515 (H:m:s:ms)","GENERIC","125.064","0.06613206973788598","484"
"20:41:18:787 (H:m:s:ms)","GENERIC","125.02600000000001","0.05663055585492283","212"
"20:59:17:575 (H:m:s:ms)","GENERIC","125.071","0.05965520008175228","424"
"21:31:24:848 (H:m:s:ms)","GENERIC","125.017","0.05295227758299243","152"
"20:41:23:544 (H:m:s:ms)","OPERA","93.964","0.05192085833373451","455"
"20:59:23:636 (H:m:s:ms)","GENERIC","125.057","0.04929760261096295","363"
"20:41:24:848 (H:m:s:ms)","GENERIC","125.03999999999999","0.06902669474487635","152"
"20:59:29:696 (H:m:s:ms)","GENERIC","125.05000000000001","0.047781106622962456","345"
"20:41:30:909 (H:m:s:ms)","GENERIC","125.021","0.03255874332650324","1090"
"20:41:31:139 (H:m:s:ms)","OPERA","93.964","0.05136538049373787","860"
"20:59:35:757 (H:m:s:ms)","GENERIC","125.033","0.04418672293896957","242"
"20:59:41:818 (H:m:s:ms)","GENERIC","125.037","0.051164362063583775","181"
"20:41:36:969 (H:m:s:ms)","GENERIC","125.055","0.0670038213128053","1030"
"20:59:47:878 (H:m:s:ms)","GENERIC","125.037","0.023984242086219736","1121"
"20:41:38:734 (H:m:s:ms)","OPERA","93.964","0.04961463019141496","265"
"20:59:53:939 (H:m:s:ms)","GENERIC","125.01400000000001","0.05760658755134563","1061"
"20:41:43:30 (H:m:s:ms)","GENERIC","125.08600000000001","0.07297963131930325","969"
"21:0:0:0 (H:m:s:ms)","AMBULANCE","94.0","0.057525894488764044","2234"
"20:41:46:329 (H:m:s:ms)","OPERA","93.964","0.06736305705744242","670"
"21:0:0:0 (H:m:s:ms)","GENERIC","125.047","0.07365153667908317","2234"
"20:41:49:90 (H:m:s:ms)","GENERIC","125.011","0.07434713992702516","946"
"21:0:0:0 (H:m:s:ms)","GENERIC","125.063","0.08792827753426943","2234"
"20:41:53:924 (H:m:s:ms)","OPERA","93.964","0.03732633936576179","1075"
"21:0:6:60 (H:m:s:ms)","GENERIC","125.076","0.08374578947812732","939"
"20:41:55:151 (H:m:s:ms)","GENERIC","125.03800000000001","0.06390483979175299","848"
"21:0:12:121 (H:m:s:ms)","GENERIC","125.029","0.055325811584667484","878"
"20:42:1:212 (H:m:s:ms)","GENERIC","125.005","0.06450121803246225","787"
"21:0:18:181 (H:m:s:ms)","GENERIC","125.072","0.05906305988999591","818"
"20:42:1:518 (H:m:s:ms)","OPERA","93.977","0.077366813118816","481"
"20:42:7:272 (H:m:s:ms)","GENERIC","125.057","0.06729416540489248","727"
"21:0:24:242 (H:m:s:ms)","GENERIC","125.047","0.05256399646447875","758"
"21:0:30:303 (H:m:s:ms)","GENERIC","125.04599999999999","0.05155674932898465","696"
"20:42:9:113 (H:m:s:ms)","OPERA","93.964","0.045297772997941306","922"
"21:0:31:578 (H:m:s:ms)","AMBULANCE","93.99000000000001","0.04962039296102488","421"
"20:42:13:333 (H:m:s:ms)","GENERIC","125.038","0.06718777300181746","666"
"21:0:36:363 (H:m:s:ms)","GENERIC","125.03800000000001","0.0693347348722799","636"
"20:20:0:0 (H:m:s:ms)","GENERIC","125.013","0.04973953198778049","2195"
"20:42:16:708 (H:m:s:ms)","OPERA","93.964","0.0508142678539441","291"
"21:0:42:424 (H:m:s:ms)","GENERIC","124.987","0.03994720816951747","575"
"20:20:0:0 (H:m:s:ms)","GENERIC","125.10900000000001","0.06275276051890809","2195"
"20:42:19:393 (H:m:s:ms)","GENERIC","125.039","0.06563469814145129","643"
"21:0:48:484 (H:m:s:ms)","GENERIC","125.011","0.04989687665464159","516"
"20:20:6:60 (H:m:s:ms)","GENERIC","125.10900000000001","0.07213988939619988","940"
"20:42:24:303 (H:m:s:ms)","OPERA","93.964","0.048806498907181674","697"
"21:0:54:545 (H:m:s:ms)","GENERIC","125.072","0.05953177224172596","455"
"20:20:12:121 (H:m:s:ms)","GENERIC","125.009","0.049525505250049055","879"
"20:42:25:454 (H:m:s:ms)","GENERIC","125.064","0.06226751082395976","545"
"21:1:0:606 (H:m:s:ms)","GENERIC","125.08500000000001","0.05624064718185251","393"
"20:20:18:181 (H:m:s:ms)","GENERIC","125.1","0.045471289584722935","818"
"20:42:31:515 (H:m:s:ms)","GENERIC","125.031","0.036746489840785546","484"
"21:1:3:157 (H:m:s:ms)","AMBULANCE","94.023","0.049744432926941216","842"
"20:20:24:242 (H:m:s:ms)","GENERIC","125.047","0.041457958223609315","757"
"20:42:31:898 (H:m:s:ms)","OPERA","93.96300000000001","0.06194963064708553","101"
"21:1:6:666 (H:m:s:ms)","GENERIC","125.036","0.07063341021478398","333"
"20:20:30:303 (H:m:s:ms)","GENERIC","125.051","0.05295227758299243","696"
"20:42:37:575 (H:m:s:ms)","GENERIC","125.05","0.07112702104623898","424"
"20:20:36:363 (H:m:s:ms)","GENERIC","125.031","0.04701836585827051","636"
"20:42:39:493 (H:m:s:ms)","OPERA","93.964","0.06590071102851564","543"
"20:20:42:424 (H:m:s:ms)","GENERIC","125.003","0.0443312440308685","575"
"20:20:48:484 (H:m:s:ms)","GENERIC","125.00399999999999","0.0497864798523922","515"
"21:1:12:727 (H:m:s:ms)","GENERIC","125.009","0.048656212971611025","272"
"21:1:18:787 (H:m:s:ms)","GENERIC","125.045","0.049257587455762544","212"
"20:42:43:636 (H:m:s:ms)","GENERIC","125.077","0.07402479597104573","363"
"21:1:24:848 (H:m:s:ms)","GENERIC","125.01599999999999","0.05240888076783137","152"
"20:42:47:88 (H:m:s:ms)","OPERA","93.96300000000001","0.05353034211550318","911"
"21:1:30:909 (H:m:s:ms)","GENERIC","125.025","0.02736341117081375","1090"
"20:20:54:545 (H:m:s:ms)","GENERIC","125.101","0.03823390271702518","455"
"20:42:49:696 (H:m:s:ms)","GENERIC","125.01599999999999","0.0707095157405146","340"
"21:1:34:736 (H:m:s:ms)","AMBULANCE","94.00200000000001","0.04737169417903333","263"
"20:21:0:606 (H:m:s:ms)","GENERIC","125.119","0.04898602569600247","393"
"20:42:54:683 (H:m:s:ms)","OPERA","93.965","0.05385081365473148","316"
"21:1:36:969 (H:m:s:ms)","GENERIC","125.07","0.06757335188192551","1030"
"20:21:6:666 (H:m:s:ms)","GENERIC","125.01599999999999","0.05115803615317105","333"
"20:42:55:757 (H:m:s:ms)","GENERIC","124.995","0.06600200509352536","242"
"21:1:43:30 (H:m:s:ms)","GENERIC","125.107","0.03829616625823649","969"
"20:21:12:727 (H:m:s:ms)","GENERIC","125.015","0.03941832773117223","272"
"20:43:1:818 (H:m:s:ms)","GENERIC","125.064","0.05198351486925401","181"
"21:1:49:90 (H:m:s:ms)","GENERIC","125.02799999999999","0.05256596115461851","950"
"20:21:18:787 (H:m:s:ms)","GENERIC","125.011","0.0435361671941575","212"
"20:43:2:278 (H:m:s:ms)","OPERA","93.964","0.05198565397305961","721"
"21:1:55:151 (H:m:s:ms)","GENERIC","125.013","0.058159496665900264","848"
"20:21:24:848 (H:m:s:ms)","GENERIC","125.045","0.05185141789138204","152"
"20:43:7:878 (H:m:s:ms)","GENERIC","125.045","0.047127751317654065","1122"
"21:2:1:212 (H:m:s:ms)","GENERIC","125.007","0.04808547589667777","787"
"20:21:30:909 (H:m:s:ms)","GENERIC","125.021","0.019392781875010267","1090"
"20:43:9:873 (H:m:s:ms)","OPERA","93.964","0.056188883557617725","164"
"20:21:36:969 (H:m:s:ms)","GENERIC","125.039","0.04858386851437052","1030"
"20:43:13:939 (H:m:s:ms)","GENERIC","125.026","0.07362901059711924","1060"
"20:21:43:30 (H:m:s:ms)","GENERIC","125.098","0.05297596973734496","969"
"20:21:49:90 (H:m:s:ms)","GENERIC","124.987","0.052423968184748586","944"
"20:43:17:468 (H:m:s:ms)","OPERA","93.964","0.05644216934647364","532"
"20:43:20:0 (H:m:s:ms)","GENERIC","124.992","0.07783707011764152","1038"
"20:21:55:151 (H:m:s:ms)","GENERIC","125.041","0.060527686985888875","848"
"20:43:25:63 (H:m:s:ms)","OPERA","93.96300000000001","0.05748998980359878","936"
"20:22:1:212 (H:m:s:ms)","GENERIC","125.005","0.052608748917393124","787"
"20:43:26:60 (H:m:s:ms)","GENERIC","125.02000000000001","0.07262260768343377","939"
"20:22:7:272 (H:m:s:ms)","GENERIC","125.029","0.043502545127302075","727"
"20:43:32:121 (H:m:s:ms)","GENERIC","125.005","0.04226248067726456","878"
"20:22:13:333 (H:m:s:ms)","GENERIC","125.024","0.0524480045073453","666"
"20:43:32:658 (H:m:s:ms)","OPERA","93.964","0.0574662757374457","342"
"20:22:19:393 (H:m:s:ms)","GENERIC","125.053","0.0487657368607942","641"
"20:43:38:181 (H:m:s:ms)","GENERIC","125.128","0.06545946520809487","818"
"20:22:25:454 (H:m:s:ms)","GENERIC","125.061","0.04872761119140314","545"
"20:43:40:253 (H:m:s:ms)","OPERA","93.964","0.06482958333096345","746"
"20:22:31:515 (H:m:s:ms)","GENERIC","125.00399999999999","0.0521959636959232","484"
"20:43:44:242 (H:m:s:ms)","GENERIC","125.04599999999999","0.08342261850096107","757"
"20:22:37:575 (H:m:s:ms)","GENERIC","125.043","0.04494087895559429","424"
"20:43:47:848 (H:m:s:ms)","OPERA","93.964","0.05697481420688013","151"
"20:22:43:636 (H:m:s:ms)","GENERIC","125.059","0.04701836585827051","364"
"20:22:49:696 (H:m:s:ms)","GENERIC","125.029","0.05138099117084909","337"
"20:43:50:303 (H:m:s:ms)","GENERIC","125.023","0.06960217749921759","696"
"20:43:55:443 (H:m:s:ms)","OPERA","93.964","0.05365345156749826","556"
"20:22:55:757 (H:m:s:ms)","GENERIC","124.997","0.05068789526001378","242"
"20:43:56:363 (H:m:s:ms)","GENERIC","125.048","0.0656538591247461","636"
"20:23:1:818 (H:m:s:ms)","GENERIC","125.021","0.05365345156749826","182"
"20:44:2:424 (H:m:s:ms)","GENERIC","125.095","0.04239378822959121","575"
"20:23:7:878 (H:m:s:ms)","GENERIC","125.009","0.023449330440436778","1121"
"20:44:8:484 (H:m:s:ms)","GENERIC","124.977","0.051773857592310533","515"
"20:23:13:939 (H:m:s:ms)","GENERIC","125.017","0.047027700926194266","1061"
"20:44:10:632 (H:m:s:ms)","OPERA","93.96300000000001","0.06127773642235749","367"
"20:23:20:0 (H:m:s:ms)","GENERIC","124.97300000000001","0.03902010101429926","1035"
"20:44:14:545 (H:m:s:ms)","GENERIC","125.053","0.07483545273190108","454"
"20:23:26:60 (H:m:s:ms)","GENERIC","125.019","0.041943409278929616","939"
"20:44:18:227 (H:m:s:ms)","OPERA","93.964","0.05367115857898073","772"
"20:23:32:121 (H:m:s:ms)","GENERIC","125.021","0.05182278755453012","878"
"20:44:20:606 (H:m:s:ms)","GENERIC","125.078","0.0752610592684158","393"
"20:23:38:181 (H:m:s:ms)","GENERIC","125.099","0.04825071986685801","818"
"20:44:25:822 (H:m:s:ms)","OPERA","93.96300000000001","0.05630012161325374","177"
"20:23:44:242 (H:m:s:ms)","GENERIC","125.037","0.0409833744876191","757"
"20:23:50:303 (H:m:s:ms)","GENERIC","125.043","0.04342980856529115","696"
"20:44:26:666 (H:m:s:ms)","GENERIC","125.03","0.06791738368730872","333"
"20:44:32:727 (H:m:s:ms)","GENERIC","124.991","0.04638407461080056","272"
"20:23:56:363 (H:m:s:ms)","GENERIC","125.047","0.052814956149636924","637"
"20:44:33:417 (H:m:s:ms)","OPERA","93.96300000000001","0.060798293997070936","582"
"20:24:2:424 (H:m:s:ms)","GENERIC","125.122","0.06066076915913067","576"
"20:44:38:787 (H:m:s:ms)","GENERIC","125.065","0.06933700906599069","212"
"20:24:8:484 (H:m:s:ms)","GENERIC","124.969","0.055219123186482644","515"
"20:44:41:12 (H:m:s:ms)","OPERA","93.964","0.04500511365357848","987"
"20:24:14:545 (H:m:s:ms)","GENERIC","125.00999999999999","0.051666520204890425","455"
"20:44:44:848 (H:m:s:ms)","GENERIC","125.114","0.07021317352325107","151"
"20:24:20:606 (H:m:s:ms)","GENERIC","125.053","0.046296034810435975","393"
"20:44:48:607 (H:m:s:ms)","OPERA","93.971","0.06585990770031161","392"
"20:24:26:666 (H:m:s:ms)","GENERIC","124.989","0.04848858317049327","333"
"20:44:50:909 (H:m:s:ms)","GENERIC","125.061","0.057899901423508454","1090"
"20:24:32:727 (H:m:s:ms)","GENERIC","125.009","0.05422579231990832","273"
"20:44:56:202 (H:m:s:ms)","OPERA","93.965","0.05055044694890026","797"
"20:24:38:787 (H:m:s:ms)","GENERIC","125.059","0.05318816894884351","212"
"20:44:56:969 (H:m:s:ms)","GENERIC","125.03399999999999","0.060841904697237235","1030"
"20:24:44:848 (H:m:s:ms)","GENERIC","125.06899999999999","0.0500067660195545","151"
"20:24:50:909 (H:m:s:ms)","GENERIC","125.065","0.03239203617872438","1090"
"20:45:3:30 (H:m:s:ms)","GENERIC","124.983","0.03850662826347666","970"
"20:45:3:797 (H:m:s:ms)","OPERA","93.966","0.05783098477982016","202"
"20:24:56:969 (H:m:s:ms)","GENERIC","125.003","0.04935181161742659","1030"
"20:45:9:90 (H:m:s:ms)","GENERIC","125.005","0.06959309724772653","948"
"20:25:3:30 (H:m:s:ms)","GENERIC","124.981","0.04650096497482337","969"
"20:45:11:392 (H:m:s:ms)","OPERA","93.964","0.04846492749266603","607"
"20:25:9:90 (H:m:s:ms)","GENERIC","124.988","0.04789916144866979","945"
"20:45:15:151 (H:m:s:ms)","GENERIC","125.02199999999999","0.06695565409755311","848"
"20:25:15:151 (H:m:s:ms)","GENERIC","125.009","0.050117072658262304","848"
"20:45:18:987 (H:m:s:ms)","OPERA","93.964","0.04158423563076706","1050"
"20:25:21:212 (H:m:s:ms)","GENERIC","125.084","0.05904948978965637","787"
"20:45:21:212 (H:m:s:ms)","GENERIC","125.06","0.05884542947544096","787"
"20:25:27:272 (H:m:s:ms)","GENERIC","125.005","0.05496694244446359","727"
"20:45:26:582 (H:m:s:ms)","OPERA","93.964","0.048097631139622246","417"
"20:25:33:333 (H:m:s:ms)","GENERIC","125.033","0.047753168543130206","666"
"20:45:27:272 (H:m:s:ms)","GENERIC","125.03200000000001","0.06970711523156975","727"
"20:25:39:393 (H:m:s:ms)","GENERIC","125.117","0.05178226809188903","642"
"20:45:33:333 (H:m:s:ms)","GENERIC","125.041","0.046538926352796696","666"
"20:25:45:454 (H:m:s:ms)","GENERIC","125.011","0.04770086760579519","545"
"20:25:51:515 (H:m:s:ms)","GENERIC","125.09700000000001","0.04848858317049327","485"
"20:25:57:575 (H:m:s:ms)","GENERIC","125.072","0.058884795184573686","424"
"20:26:3:636 (H:m:s:ms)","GENERIC","125.039","0.058290613796084044","363"
"20:26:9:696 (H:m:s:ms)","GENERIC","125.012","0.05778028215149072","339"
"20:26:15:757 (H:m:s:ms)","GENERIC","125.055","0.05656716935995823","242"
"20:26:21:818 (H:m:s:ms)","GENERIC","125.017","0.046323817225736474","181"
"20:26:27:878 (H:m:s:ms)","GENERIC","125.031","0.03629852497379393","1121"
"20:26:33:939 (H:m:s:ms)","GENERIC","125.074","0.055150904162993133","1061"
"20:26:40:0 (H:m:s:ms)","GENERIC","124.993","0.04148189470519636","1035"
"20:26:46:60 (H:m:s:ms)","GENERIC","125.015","0.056125202201730014","939"
"20:26:52:121 (H:m:s:ms)","GENERIC","125.124","0.05382467277788348","878"
"20:26:58:181 (H:m:s:ms)","GENERIC","124.995","0.05339813749872002","818"
"20:27:4:242 (H:m:s:ms)","GENERIC","125.051","0.04988880591628256","757"
"20:27:10:303 (H:m:s:ms)","GENERIC","125.017","0.04577037769241034","696"
"20:27:16:363 (H:m:s:ms)","GENERIC","125.072","0.045606953243211686","637"
"20:27:22:424 (H:m:s:ms)","GENERIC","124.96700000000001","0.05207709254353915","575"
"20:27:28:484 (H:m:s:ms)","GENERIC","125.029","0.05861328943065564","515"
"20:27:34:545 (H:m:s:ms)","GENERIC","125.089","0.053068339021171286","454"
"20:27:40:606 (H:m:s:ms)","GENERIC","125.003","0.05125480916609984","393"
"20:27:46:666 (H:m:s:ms)","GENERIC","125.033","0.04980382362096984","334"
"20:27:52:727 (H:m:s:ms)","GENERIC","125.118","0.05788681911809724","272"
"20:27:58:787 (H:m:s:ms)","GENERIC","125.013","0.04608661057815681","212"
"20:28:4:848 (H:m:s:ms)","GENERIC","125.051","0.04149017886700287","151"
"20:28:10:909 (H:m:s:ms)","GENERIC","125.075","0.03292482400369781","1090"
"20:28:16:969 (H:m:s:ms)","GENERIC","124.989","0.04995584557115888","1031"
"20:28:23:30 (H:m:s:ms)","GENERIC","124.975","0.03966989136661354","969"
"20:28:29:90 (H:m:s:ms)","GENERIC","125.063","0.04762444825243602","946"
"20:28:35:151 (H:m:s:ms)","GENERIC","125.095","0.05231026925746214","848"
"20:28:41:212 (H:m:s:ms)","GENERIC","125.061","0.04186796414210609","788"
"20:28:47:272 (H:m:s:ms)","GENERIC","125.024","0.05493747907239646","727"
"20:28:53:333 (H:m:s:ms)","GENERIC","125.152","0.06554089482875106","666"
"20:28:59:393 (H:m:s:ms)","GENERIC","125.031","0.06448993189401837","639"
"20:29:5:454 (H:m:s:ms)","GENERIC","124.991","0.06144522444894156","545"
"20:29:11:515 (H:m:s:ms)","GENERIC","125.089","0.05809445035156049","484"
"20:29:17:575 (H:m:s:ms)","GENERIC","125.047","0.054243010687761974","424"
"20:29:23:636 (H:m:s:ms)","GENERIC","125.04599999999999","0.04777056366643486","363"
"20:29:29:696 (H:m:s:ms)","GENERIC","125.007","0.05179954480837008","338"
"20:29:35:757 (H:m:s:ms)","GENERIC","125.036","0.05205219452296062","242"
"20:29:41:818 (H:m:s:ms)","GENERIC","124.989","0.057961693089388214","181"
"20:29:47:878 (H:m:s:ms)","GENERIC","125.051","0.027513235388012248","1121"
"20:29:53:939 (H:m:s:ms)","GENERIC","125.05199999999999","0.052252511961212944","1060"
"21:20:15:189 (H:m:s:ms)","OPERA","124.969","0.04002830594088435","810"
"21:20:18:181 (H:m:s:ms)","GENERIC","125.086","0.061855860122962805","818"
"21:20:22:784 (H:m:s:ms)","OPERA","124.969","0.060809989399938515","215"
"21:20:24:242 (H:m:s:ms)","GENERIC","125.089","0.070149805996773","758"
"21:20:30:303 (H:m:s:ms)","GENERIC","125.049","0.032579835948661116","696"
"21:20:30:379 (H:m:s:ms)","OPERA","124.969","0.04934879852414169","620"
"21:20:36:363 (H:m:s:ms)","GENERIC","125.00399999999999","0.05183057488744594","637"
"21:20:37:974 (H:m:s:ms)","OPERA","124.971","0.043467493668538214","1025"
"21:20:42:424 (H:m:s:ms)","GENERIC","125.025","0.0605616359262998","575"
"21:20:45:569 (H:m:s:ms)","OPERA","124.969","0.03635074705689278","430"
"21:20:48:484 (H:m:s:ms)","GENERIC","124.995","0.04989687665464159","515"
"21:20:53:164 (H:m:s:ms)","OPERA","93.964","0.04050527444080688","835"
"21:20:54:545 (H:m:s:ms)","GENERIC","125.03999999999999","0.05939343601748415","455"
"21:21:0:606 (H:m:s:ms)","GENERIC","125.053","0.04850430739149727","394"
"21:21:0:759 (H:m:s:ms)","OPERA","124.983","0.07672955895931684","241"
"21:21:6:666 (H:m:s:ms)","GENERIC","125.064","0.08333838255682534","333"
"21:21:8:354 (H:m:s:ms)","OPERA","93.964","0.0589361967634915","645"
"21:21:12:727 (H:m:s:ms)","GENERIC","125.02799999999999","0.07742356702439637","272"
"21:21:15:949 (H:m:s:ms)","OPERA","124.96700000000001","0.0564812378477268","1050"
"21:21:18:787 (H:m:s:ms)","GENERIC","125.07300000000001","0.06803084086350578","213"
"21:33:13:939 (H:m:s:ms)","GENERIC","124.993","0.04762444825243602","1061"
"21:32:55:757 (H:m:s:ms)","GENERIC","124.97300000000001","0.04767792908634048","242"
"21:32:49:696 (H:m:s:ms)","GENERIC","125.007","0.04636963543179157","341"
"21:32:43:636 (H:m:s:ms)","GENERIC","125.06","0.07675761977121083","364"
"21:32:37:894 (H:m:s:ms)","AMBULANCE","125.048","0.05806386144098241","1105"
"21:32:37:575 (H:m:s:ms)","GENERIC","124.989","0.056371493345346205","424"
"21:32:31:515 (H:m:s:ms)","GENERIC","125.023","0.05208942550769104","484"
"21:32:25:454 (H:m:s:ms)","GENERIC","125.055","0.049889447364250626","545"
"21:21:23:544 (H:m:s:ms)","OPERA","93.964","0.03400003893695728","455"
"21:32:19:393 (H:m:s:ms)","GENERIC","125.074","0.05951969490896406","643"
"21:21:24:848 (H:m:s:ms)","GENERIC","125.012","0.05773509341804233","152"
"21:21:30:909 (H:m:s:ms)","GENERIC","125.031","0.019179628209080903","1090"
"21:21:31:139 (H:m:s:ms)","OPERA","124.96700000000001","0.05112379776465973","860"
"21:21:36:969 (H:m:s:ms)","GENERIC","125.118","0.06883581063509897","1030"
"21:21:38:734 (H:m:s:ms)","OPERA","124.96700000000001","0.054325587588325466","265"
"21:21:43:30 (H:m:s:ms)","GENERIC","125.11500000000001","0.07297036977955983","970"
"21:21:46:329 (H:m:s:ms)","OPERA","93.96300000000001","0.046351710302183775","670"
"21:33:7:878 (H:m:s:ms)","GENERIC","125.021","0.02281925429934446","1121"
"21:21:49:90 (H:m:s:ms)","GENERIC","125.048","0.059521471725073924","946"
"21:33:1:818 (H:m:s:ms)","GENERIC","125.023","0.04654940673040761","181"
"21:21:53:924 (H:m:s:ms)","OPERA","124.969","0.04731034398268607","1076"
"21:34:12:631 (H:m:s:ms)","AMBULANCE","125.00399999999999","0.05423586666524847","368"
"21:34:8:484 (H:m:s:ms)","GENERIC","124.981","0.05945951636064385","515"
"21:33:56:363 (H:m:s:ms)","GENERIC","125.069","0.04737548221914056","636"
"21:33:50:303 (H:m:s:ms)","GENERIC","125.077","0.05320380806181755","697"
"21:33:44:242 (H:m:s:ms)","GENERIC","124.979","0.0746287446968643","758"
"21:33:41:52 (H:m:s:ms)","AMBULANCE","125.07","0.056887743751758126","947"
"21:33:38:181 (H:m:s:ms)","GENERIC","125.084","0.05179954480837008","818"
"21:33:32:121 (H:m:s:ms)","GENERIC","124.975","0.05367936119799174","878"
"21:21:55:151 (H:m:s:ms)","GENERIC","125.03200000000001","0.062321932168524545","848"
"21:33:26:60 (H:m:s:ms)","GENERIC","125.054","0.047708184708931435","939"
"21:22:1:212 (H:m:s:ms)","GENERIC","125.001","0.04536561954687509","787"
"21:33:20:0 (H:m:s:ms)","GENERIC","124.974","0.05055044694890026","1038"
"21:22:1:518 (H:m:s:ms)","OPERA","124.969","0.06515150523422118","482"
"21:22:7:272 (H:m:s:ms)","GENERIC","125.098","0.06587249798096548","727"
"21:22:9:113 (H:m:s:ms)","OPERA","124.969","0.04614638607186584","923"
"21:22:13:333 (H:m:s:ms)","GENERIC","125.00999999999999","0.07421335211009523","666"
"21:22:16:708 (H:m:s:ms)","OPERA","93.964","0.05549437712957373","291"
"21:22:19:393 (H:m:s:ms)","GENERIC","125.08","0.07945672038861026","644"
"21:22:24:303 (H:m:s:ms)","OPERA","124.969","0.05971692357017533","696"
"21:22:25:454 (H:m:s:ms)","GENERIC","125.055","0.07399878987139677","545"
"21:34:2:424 (H:m:s:ms)","GENERIC","125.105","0.05575461596839947","575"
"21:35:9:90 (H:m:s:ms)","GENERIC","125.096","0.05788681911809724","946"
"21:35:3:30 (H:m:s:ms)","GENERIC","124.995","0.047977449876512326","969"
"21:34:56:969 (H:m:s:ms)","GENERIC","125.047","0.05147103663773845","1031"
"21:34:50:909 (H:m:s:ms)","GENERIC","125.057","0.03239203617872438","1090"
"21:34:44:848 (H:m:s:ms)","GENERIC","125.03999999999999","0.06352267868880768","152"
"21:34:44:210 (H:m:s:ms)","AMBULANCE","125.053","0.047753168543130206","790"
"21:34:38:787 (H:m:s:ms)","GENERIC","125.071","0.05717706314157844","212"
"21:34:32:727 (H:m:s:ms)","GENERIC","125.03200000000001","0.05162364391873758","272"
"21:22:31:515 (H:m:s:ms)","GENERIC","125.041","0.04842578590120711","484"
"21:34:26:666 (H:m:s:ms)","GENERIC","125.009","0.04499097983422574","333"
"21:22:31:898 (H:m:s:ms)","OPERA","93.971","0.05984541082124978","101"
"21:34:20:606 (H:m:s:ms)","GENERIC","125.081","0.040460041582391054","393"
"21:2:6:315 (H:m:s:ms)","AMBULANCE","93.973","0.05001236608506942","684"
"21:22:37:575 (H:m:s:ms)","GENERIC","124.993","0.05521031273339204","424"
"21:34:14:545 (H:m:s:ms)","GENERIC","125.124","0.07167587930520755","455"
"21:2:7:272 (H:m:s:ms)","GENERIC","125.074","0.06074369972224399","727"
"21:22:39:493 (H:m:s:ms)","OPERA","124.971","0.03958504468406828","541"
"21:2:13:333 (H:m:s:ms)","GENERIC","125.019","0.04843038903729555","666"
"21:22:43:636 (H:m:s:ms)","GENERIC","125.07","0.05605648525466341","363"
"21:2:19:393 (H:m:s:ms)","GENERIC","125.076","0.056575904695017665","647"
"21:22:47:88 (H:m:s:ms)","OPERA","124.96700000000001","0.040291365890950594","911"
"21:2:25:454 (H:m:s:ms)","GENERIC","125.053","0.04880943762398253","545"
"21:22:49:696 (H:m:s:ms)","GENERIC","125.018","0.06827889237527758","340"
"21:2:31:515 (H:m:s:ms)","GENERIC","125.071","0.047753168543130206","484"
"21:22:54:683 (H:m:s:ms)","OPERA","124.969","0.05058593920712288","317"
"21:2:37:575 (H:m:s:ms)","GENERIC","125.017","0.04640125242178198","424"
"21:22:55:757 (H:m:s:ms)","GENERIC","124.984","0.06908665476739187","242"
"21:2:37:894 (H:m:s:ms)","AMBULANCE","93.994","0.07002635741023308","105"
"21:23:1:818 (H:m:s:ms)","GENERIC","125.013","0.04899411081865296","181"
"21:2:43:636 (H:m:s:ms)","GENERIC","125.061","0.07021450518704224","364"
"21:2:49:696 (H:m:s:ms)","GENERIC","125.001","0.04455740724708547","344"
"21:36:3:636 (H:m:s:ms)","GENERIC","125.06700000000001","0.053756569462085416","363"
"21:35:57:575 (H:m:s:ms)","GENERIC","125.039","0.04978627206749491","424"
"21:35:51:515 (H:m:s:ms)","GENERIC","125.07300000000001","0.06281771844554321","484"
"21:35:47:368 (H:m:s:ms)","AMBULANCE","125.009","0.04780293378617222","631"
"21:35:45:454 (H:m:s:ms)","GENERIC","125.011","0.04767792908634048","545"
"21:35:39:393 (H:m:s:ms)","GENERIC","125.039","0.0512553085416356","644"
"21:35:33:333 (H:m:s:ms)","GENERIC","125.03399999999999","0.05663055585492283","666"
"21:23:2:278 (H:m:s:ms)","OPERA","93.964","0.055116395282941724","721"
"21:35:27:272 (H:m:s:ms)","GENERIC","125.015","0.0535746767343573","727"
"21:23:7:878 (H:m:s:ms)","GENERIC","125.003","0.04640125242178198","1121"
"21:35:21:212 (H:m:s:ms)","GENERIC","125.088","0.07436458751760276","787"
"21:2:55:757 (H:m:s:ms)","GENERIC","125.007","0.04056114203313742","242"
"21:23:9:873 (H:m:s:ms)","OPERA","124.969","0.055369942624725076","164"
"21:35:15:789 (H:m:s:ms)","AMBULANCE","124.98","0.08084756953301625","211"
"21:3:1:818 (H:m:s:ms)","GENERIC","125.019","0.029110752265029186","181"
"21:23:13:939 (H:m:s:ms)","GENERIC","125.025","0.06391441704664358","1060"
"21:35:15:151 (H:m:s:ms)","GENERIC","124.991","0.05867445219812729","848"
"21:3:7:878 (H:m:s:ms)","GENERIC","125.027","0.027513235388012248","1121"
"21:23:17:468 (H:m:s:ms)","OPERA","124.969","0.0488551253071841","531"
"21:3:9:473 (H:m:s:ms)","AMBULANCE","93.99600000000001","0.04535622505915262","566"
"21:23:20:0 (H:m:s:ms)","GENERIC","124.98","0.0749131231371678","1036"
"21:3:13:939 (H:m:s:ms)","GENERIC","125.06200000000001","0.057552631718756554","1060"
"21:23:25:63 (H:m:s:ms)","OPERA","124.969","0.06699830774254059","936"
"21:3:20:0 (H:m:s:ms)","GENERIC","124.993","0.04730331088975003","1040"
"21:23:26:60 (H:m:s:ms)","GENERIC","125.047","0.07259490911952717","939"
"21:3:26:60 (H:m:s:ms)","GENERIC","125.018","0.04518075688711294","939"
"21:23:32:121 (H:m:s:ms)","GENERIC","124.97300000000001","0.04898773208122464","878"
"21:3:32:121 (H:m:s:ms)","GENERIC","124.991","0.04498096680987115","878"
"21:23:32:658 (H:m:s:ms)","OPERA","124.974","0.06643345752972991","341"
"21:3:38:181 (H:m:s:ms)","GENERIC","125.1","0.059669614384580336","818"
"21:3:41:52 (H:m:s:ms)","AMBULANCE","94.015","0.049813839904726494","947"
"21:36:58:181 (H:m:s:ms)","GENERIC","125.081","0.03718078303288796","818"
"21:36:52:121 (H:m:s:ms)","GENERIC","125.066","0.059050181422006694","878"
"21:36:50:526 (H:m:s:ms)","AMBULANCE","125.003","0.05178226809188903","474"
"21:36:46:60 (H:m:s:ms)","GENERIC","125.005","0.042597108547801944","939"
"21:36:40:0 (H:m:s:ms)","GENERIC","125.003","0.04699115673190725","1039"
"21:36:33:939 (H:m:s:ms)","GENERIC","125.076","0.057239635135389225","1060"
"21:23:38:181 (H:m:s:ms)","GENERIC","125.086","0.06882221336530592","819"
"21:36:27:878 (H:m:s:ms)","GENERIC","125.051","0.03255874332650324","1122"
"21:23:40:253 (H:m:s:ms)","OPERA","124.969","0.04655859447510161","746"
"21:36:21:818 (H:m:s:ms)","GENERIC","124.993","0.07053951632875644","181"
"21:3:44:242 (H:m:s:ms)","GENERIC","125.026","0.06840607780506452","758"
"21:23:44:242 (H:m:s:ms)","GENERIC","124.983","0.06341108835995284","758"
"21:36:18:947 (H:m:s:ms)","AMBULANCE","125.025","0.05914227479376723","1089"
"21:3:50:303 (H:m:s:ms)","GENERIC","125.033","0.044836725092804855","696"
"21:23:47:848 (H:m:s:ms)","OPERA","93.971","0.04862610498511799","151"
"21:36:15:757 (H:m:s:ms)","GENERIC","125.001","0.04763660415526699","242"
"21:3:56:363 (H:m:s:ms)","GENERIC","125.072","0.047287384422057925","636"
"21:23:50:303 (H:m:s:ms)","GENERIC","125.078","0.06613174782053856","696"
"21:36:9:696 (H:m:s:ms)","GENERIC","125.00200000000001","0.05013353308388232","340"
"21:4:2:424 (H:m:s:ms)","GENERIC","125.135","0.056172572077873156","575"
"21:23:55:443 (H:m:s:ms)","OPERA","124.969","0.03965950796831236","556"
"21:4:8:484 (H:m:s:ms)","GENERIC","124.99000000000001","0.058923302307297296","515"
"21:23:56:363 (H:m:s:ms)","GENERIC","125.08500000000001","0.06788656820784404","636"
"21:4:12:631 (H:m:s:ms)","AMBULANCE","93.986","0.059305091918487325","369"
"21:24:2:424 (H:m:s:ms)","GENERIC","125.125","0.05185141789138204","575"
"21:4:14:545 (H:m:s:ms)","GENERIC","125.07300000000001","0.07043268601361732","454"
"21:24:8:484 (H:m:s:ms)","GENERIC","124.98500000000001","0.04876695171640474","515"
"21:4:20:606 (H:m:s:ms)","GENERIC","125.09700000000001","0.048725366404067834","393"
"21:24:10:632 (H:m:s:ms)","OPERA","93.971","0.05590545127421954","367"
"21:4:26:666 (H:m:s:ms)","GENERIC","125.049","0.04654940673040761","333"
"21:4:32:727 (H:m:s:ms)","GENERIC","124.989","0.04518916841640958","272"
"21:37:53:684 (H:m:s:ms)","AMBULANCE","124.99000000000001","0.05443471747045957","315"
"21:37:52:727 (H:m:s:ms)","GENERIC","125.099","0.047127751317654065","272"
"21:37:46:666 (H:m:s:ms)","GENERIC","125.013","0.04724798191321825","333"
"21:37:40:606 (H:m:s:ms)","GENERIC","125.025","0.0471577545933134","393"
"21:37:34:545 (H:m:s:ms)","GENERIC","125.081","0.04717219517650563","455"
"21:37:28:484 (H:m:s:ms)","GENERIC","125.105","0.0690479239280738","515"
"21:24:14:545 (H:m:s:ms)","GENERIC","125.126","0.08299990578392039","454"
"21:24:18:227 (H:m:s:ms)","OPERA","124.969","0.0626219974657326","772"
"21:37:22:424 (H:m:s:ms)","GENERIC","125.009","0.07149126208598858","576"
"21:4:38:787 (H:m:s:ms)","GENERIC","125.098","0.05151629478434485","212"
"21:24:20:606 (H:m:s:ms)","GENERIC","125.09899999999999","0.07115593435506441","393"
"21:37:22:105 (H:m:s:ms)","AMBULANCE","125.01599999999999","0.05248228599340689","894"
"21:4:44:210 (H:m:s:ms)","AMBULANCE","93.98400000000001","0.04853076925132473","790"
"21:24:25:822 (H:m:s:ms)","OPERA","124.96700000000001","0.04579463821940159","177"
"21:37:16:363 (H:m:s:ms)","GENERIC","125.013","0.056790003654253705","637"
"21:4:44:848 (H:m:s:ms)","GENERIC","125.088","0.06899545687244962","152"
"21:24:26:666 (H:m:s:ms)","GENERIC","124.997","0.05894837399470587","333"
"21:37:10:303 (H:m:s:ms)","GENERIC","125.037","0.05447772627414324","696"
"21:4:50:909 (H:m:s:ms)","GENERIC","125.10300000000001","0.027513235388012248","1090"
"21:24:32:727 (H:m:s:ms)","GENERIC","125.009","0.043820913225278986","272"
"21:37:4:242 (H:m:s:ms)","GENERIC","125.04599999999999","0.052712641259168115","757"
"21:4:56:969 (H:m:s:ms)","GENERIC","125.045","0.05426654456966826","1030"
"21:24:33:417 (H:m:s:ms)","OPERA","124.969","0.05080699785674379","582"
"21:5:3:30 (H:m:s:ms)","GENERIC","125.007","0.049184366086547894","969"
"21:24:38:787 (H:m:s:ms)","GENERIC","125.077","0.06224813668109219","212"
"21:5:9:90 (H:m:s:ms)","GENERIC","125.041","0.049184366086547894","948"
"21:24:41:12 (H:m:s:ms)","OPERA","124.96700000000001","0.04455816015798012","988"
"21:5:15:151 (H:m:s:ms)","GENERIC","125.029","0.0542002190055103","848"
"21:24:44:848 (H:m:s:ms)","GENERIC","125.062","0.0597835978355522","152"
"21:5:15:789 (H:m:s:ms)","AMBULANCE","93.99799999999999","0.05820868365715101","210"
"21:5:21:212 (H:m:s:ms)","GENERIC","125.084","0.0660995810755079","787"
"21:38:53:333 (H:m:s:ms)","GENERIC","125.094","0.045786548504030106","666"
"21:38:47:272 (H:m:s:ms)","GENERIC","125.005","0.05541107589060084","727"
"21:38:41:212 (H:m:s:ms)","GENERIC","125.088","0.05428304502620186","787"
"21:38:35:151 (H:m:s:ms)","GENERIC","125.071","0.043903861215675584","848"
"21:38:29:90 (H:m:s:ms)","GENERIC","125.048","0.0763654831301592","946"
"21:38:25:263 (H:m:s:ms)","AMBULANCE","125.09299999999999","0.05616922529298214","736"
"21:38:23:30 (H:m:s:ms)","GENERIC","125.02600000000001","0.05609002010196031","969"
"21:24:48:607 (H:m:s:ms)","OPERA","124.969","0.041842124054576206","392"
"21:24:50:909 (H:m:s:ms)","GENERIC","125.075","0.04931271376864482","1091"
"21:5:27:272 (H:m:s:ms)","GENERIC","125.015","0.048708481872896996","727"
"21:24:56:202 (H:m:s:ms)","OPERA","124.976","0.05510897559017634","797"
"21:5:33:333 (H:m:s:ms)","GENERIC","125.061","0.040446367836257685","666"
"21:24:56:969 (H:m:s:ms)","GENERIC","125.056","0.07760383569161167","1030"
"21:38:16:969 (H:m:s:ms)","GENERIC","125.017","0.047255723465237216","1030"
"20:45:34:177 (H:m:s:ms)","OPERA","93.964","0.047255723465237216","823"
"21:5:39:393 (H:m:s:ms)","GENERIC","125.061","0.05001058973699165","646"
"21:25:3:30 (H:m:s:ms)","GENERIC","125.009","0.06410143737716242","969"
"21:38:10:909 (H:m:s:ms)","GENERIC","125.037","0.024648801305481475","1090"
"20:45:39:393 (H:m:s:ms)","GENERIC","125.092","0.058869900983858206","645"
"21:5:45:454 (H:m:s:ms)","GENERIC","125.00399999999999","0.05485852559041943","545"
"21:25:3:797 (H:m:s:ms)","OPERA","93.966","0.0775589940403735","202"
"21:38:4:848 (H:m:s:ms)","GENERIC","125.031","0.05026005263491625","151"
"20:45:41:772 (H:m:s:ms)","OPERA","93.964","0.048295479550889704","227"
"21:5:47:368 (H:m:s:ms)","AMBULANCE","93.975","0.04571162532447314","631"
"21:25:9:90 (H:m:s:ms)","GENERIC","125.088","0.0718799784847417","947"
"21:37:58:787 (H:m:s:ms)","GENERIC","125.018","0.07141755254320217","212"
"20:45:45:454 (H:m:s:ms)","GENERIC","125.009","0.06255227093202291","545"
"21:5:51:515 (H:m:s:ms)","GENERIC","125.07900000000001","0.05950598952877072","484"
"21:25:11:392 (H:m:s:ms)","OPERA","124.96700000000001","0.05364015207591342","607"
"20:45:49:367 (H:m:s:ms)","OPERA","93.964","0.04260716700327062","671"
"21:5:57:575 (H:m:s:ms)","GENERIC","125.045","0.043332185348005155","425"
"21:25:15:151 (H:m:s:ms)","GENERIC","124.995","0.06542935733219941","848"
"20:45:51:515 (H:m:s:ms)","GENERIC","125.116","0.05511796838282774","484"
"21:6:3:636 (H:m:s:ms)","GENERIC","125.064","0.04327280495732776","363"
"21:25:18:987 (H:m:s:ms)","OPERA","124.969","0.047159673510979806","1051"
"20:45:56:962 (H:m:s:ms)","OPERA","93.964","0.04414879179428719","1037"
"21:6:9:696 (H:m:s:ms)","GENERIC","125.031","0.04368591265716622","342"
"20:45:57:575 (H:m:s:ms)","GENERIC","125.066","0.06789452643338226","424"
"21:6:15:757 (H:m:s:ms)","GENERIC","124.99600000000001","0.051315776086790575","242"
"20:46:3:636 (H:m:s:ms)","GENERIC","125.048","0.07162218688575589","363"
"20:46:9:696 (H:m:s:ms)","GENERIC","125.023","0.051553002831003086","343"
"21:39:47:878 (H:m:s:ms)","GENERIC","124.997","0.0328385271967302","1121"
"21:39:41:818 (H:m:s:ms)","GENERIC","125.053","0.05860815391575285","181"
"21:39:35:757 (H:m:s:ms)","GENERIC","125.013","0.062351626935892954","242"
"21:39:29:696 (H:m:s:ms)","GENERIC","125.066","0.06996150054385213","341"
"21:39:28:421 (H:m:s:ms)","AMBULANCE","125.065","0.047313413381848815","578"
"21:39:23:636 (H:m:s:ms)","GENERIC","125.09100000000001","0.049760960093097766","363"
"21:39:17:575 (H:m:s:ms)","GENERIC","125.061","0.05499999870729703","424"
"21:39:11:515 (H:m:s:ms)","GENERIC","125.065","0.06069674748798973","484"
"21:25:21:212 (H:m:s:ms)","GENERIC","125.094","0.06608001754047571","787"
"21:25:26:582 (H:m:s:ms)","OPERA","124.969","0.04276233657569756","417"
"21:6:18:947 (H:m:s:ms)","AMBULANCE","93.974","0.043750957587083944","1091"
"21:25:27:272 (H:m:s:ms)","GENERIC","125.025","0.06509046097742845","727"
"21:6:21:818 (H:m:s:ms)","GENERIC","125.024","0.06767271260675498","181"
"21:25:33:333 (H:m:s:ms)","GENERIC","125.05600000000001","0.050529540081606074","666"
"20:46:12:151 (H:m:s:ms)","OPERA","93.96300000000001","0.04185756159469025","848"
"21:6:27:878 (H:m:s:ms)","GENERIC","125.043","0.03937211881833719","1121"
"21:25:34:177 (H:m:s:ms)","OPERA","124.976","0.04852062583985165","823"
"20:46:15:757 (H:m:s:ms)","GENERIC","125.027","0.06140114080953747","242"
"21:6:33:939 (H:m:s:ms)","GENERIC","125.05600000000001","0.055751084170899926","1061"
"21:25:39:393 (H:m:s:ms)","GENERIC","125.04400000000001","0.07670081707829633","645"
"21:39:5:454 (H:m:s:ms)","GENERIC","124.993","0.05080687960836918","545"
"20:46:19:746 (H:m:s:ms)","OPERA","93.964","0.056084195896230905","293"
"21:6:40:0 (H:m:s:ms)","GENERIC","124.999","0.05663931656212653","1038"
"21:25:41:772 (H:m:s:ms)","OPERA","124.969","0.0628117816688784","227"
"21:38:59:393 (H:m:s:ms)","GENERIC","125.00999999999999","0.06347548864252911","645"
"20:46:21:818 (H:m:s:ms)","GENERIC","124.981","0.06818420056524799","181"
"21:6:46:60 (H:m:s:ms)","GENERIC","125.05600000000001","0.05600341989412776","939"
"21:25:45:454 (H:m:s:ms)","GENERIC","125.01599999999999","0.07690288897168407","545"
"21:38:56:842 (H:m:s:ms)","AMBULANCE","125.023","0.041629588421335385","157"
"20:46:27:341 (H:m:s:ms)","OPERA","93.964","0.047159673510979806","658"
"21:6:50:526 (H:m:s:ms)","AMBULANCE","93.967","0.040974889484489255","473"
"21:25:49:367 (H:m:s:ms)","OPERA","124.96700000000001","0.047691869325551924","673"
"20:46:27:878 (H:m:s:ms)","GENERIC","125.041","0.05959786621807889","1121"
"21:6:52:121 (H:m:s:ms)","GENERIC","125.10400000000001","0.07662965480435792","878"
"21:25:51:515 (H:m:s:ms)","GENERIC","125.072","0.0674338426835955","484"
"20:46:33:939 (H:m:s:ms)","GENERIC","125.06","0.05571223812601239","1061"
"21:6:58:181 (H:m:s:ms)","GENERIC","125.051","0.06831009002824619","818"
"20:46:34:936 (H:m:s:ms)","OPERA","93.96300000000001","0.05392502814979344","1063"
"21:7:4:242 (H:m:s:ms)","GENERIC","125.045","0.04913224141073113","757"
"20:46:40:0 (H:m:s:ms)","GENERIC","125.019","0.07413611155683847","1041"
"20:46:42:531 (H:m:s:ms)","OPERA","93.964","0.056330266422185","468"
"21:40:0:0 (H:m:s:ms)","AMBULANCE","125.054","0.0640550993277813","2339"
"21:40:42:424 (H:m:s:ms)","GENERIC","125.007","0.05865987002347133","575"
"21:40:36:363 (H:m:s:ms)","GENERIC","125.005","0.05941380442638796","636"
"21:40:30:303 (H:m:s:ms)","GENERIC","125.062","0.059456439020250426","696"
"21:40:24:242 (H:m:s:ms)","GENERIC","125.083","0.05891919660283422","758"
"21:40:18:181 (H:m:s:ms)","GENERIC","125.094","0.057525894488764044","818"
"21:40:12:121 (H:m:s:ms)","GENERIC","125.007","0.04316591136541849","878"
"21:40:6:60 (H:m:s:ms)","GENERIC","125.066","0.07944188244468452","939"
"21:40:0:0 (H:m:s:ms)","GENERIC","125.108","0.08280498137955546","2338"
"21:7:10:303 (H:m:s:ms)","GENERIC","125.03399999999999","0.052940456533536115","696"
"21:7:16:363 (H:m:s:ms)","GENERIC","125.021","0.05203911437286737","636"
"20:46:46:60 (H:m:s:ms)","GENERIC","125.027","0.0710755421748902","939"
"21:7:22:105 (H:m:s:ms)","AMBULANCE","93.968","0.053861159127363424","894"
"20:46:50:126 (H:m:s:ms)","OPERA","93.971","0.05304602895870812","873"
"21:7:22:424 (H:m:s:ms)","GENERIC","124.988","0.07497093377088705","575"
"20:46:52:121 (H:m:s:ms)","GENERIC","125.15","0.08054191986109448","879"
"21:7:28:484 (H:m:s:ms)","GENERIC","125.083","0.07224524707814368","515"
"20:46:57:721 (H:m:s:ms)","OPERA","93.964","0.057986585479143433","278"
"21:7:34:545 (H:m:s:ms)","GENERIC","125.06700000000001","0.038363991724427914","455"
"21:40:0:0 (H:m:s:ms)","GENERIC","125.005","0.039279180420618585","2338"
"20:46:58:181 (H:m:s:ms)","GENERIC","125.027","0.0780957159871012","819"
"21:7:40:606 (H:m:s:ms)","GENERIC","124.989","0.04334127842865899","393"
"21:39:53:939 (H:m:s:ms)","GENERIC","125.02199999999999","0.04867700284867067","1060"
"20:47:4:242 (H:m:s:ms)","GENERIC","125.051","0.04353778252535345","757"
"21:7:46:666 (H:m:s:ms)","GENERIC","125.041","0.047313413381848815","333"
"20:47:5:316 (H:m:s:ms)","OPERA","93.96300000000001","0.04673837856852949","683"
"21:7:52:727 (H:m:s:ms)","GENERIC","125.14500000000001","0.0415428064276631","272"
"20:47:10:303 (H:m:s:ms)","GENERIC","125.02000000000001","0.06452720034296544","696"
"21:7:53:684 (H:m:s:ms)","AMBULANCE","93.986","0.04980382362096984","316"
"20:47:12:911 (H:m:s:ms)","OPERA","93.964","0.05240888076783137","1088"
"20:47:16:363 (H:m:s:ms)","GENERIC","125.048","0.07432790902349716","636"
"21:7:58:787 (H:m:s:ms)","GENERIC","125.06","0.07221385646830576","212"
"21:8:4:848 (H:m:s:ms)","GENERIC","125.055","0.058615254478542204","152"
"20:47:20:506 (H:m:s:ms)","OPERA","93.96300000000001","0.06225683540818001","493"
"21:8:10:909 (H:m:s:ms)","GENERIC","125.005","0.027092346926473415","1090"
"20:47:22:424 (H:m:s:ms)","GENERIC","125.012","0.07311946795842418","575"
"21:8:16:969 (H:m:s:ms)","GENERIC","125.02600000000001","0.055686410613233685","1030"
"20:47:28:484 (H:m:s:ms)","GENERIC","125.043","0.05120762306343564","515"
"21:8:23:30 (H:m:s:ms)","GENERIC","125.001","0.05852759292813309","969"
"20:47:34:545 (H:m:s:ms)","GENERIC","125.082","0.05240888076783137","454"
"21:8:25:263 (H:m:s:ms)","AMBULANCE","94.01400000000001","0.045824768633238734","736"
"20:47:35:696 (H:m:s:ms)","OPERA","93.96300000000001","0.055592126961644936","303"
"21:8:29:90 (H:m:s:ms)","GENERIC","125.036","0.05956776719615778","946"
"20:47:40:606 (H:m:s:ms)","GENERIC","124.983","0.07377927108091525","393"
"21:8:35:151 (H:m:s:ms)","GENERIC","125.069","0.05187441833997901","848"
"21:40:48:484 (H:m:s:ms)","GENERIC","125.007","0.055821372618609214","515"
"20:47:46:666 (H:m:s:ms)","GENERIC","125.069","0.05603328455467966","333"
"21:8:41:212 (H:m:s:ms)","GENERIC","125.081","0.06070502151948502","787"
"20:47:50:886 (H:m:s:ms)","OPERA","93.964","0.059238360789902626","113"
"21:8:47:272 (H:m:s:ms)","GENERIC","125.025","0.054773368841301094","727"
"20:47:52:727 (H:m:s:ms)","GENERIC","125.161","0.06548425939810613","272"
"20:47:58:481 (H:m:s:ms)","OPERA","93.96300000000001","0.04333416532049413","518"
"21:8:53:333 (H:m:s:ms)","GENERIC","125.137","0.04572342908914441","666"
"21:8:56:842 (H:m:s:ms)","AMBULANCE","93.98","0.05075417150645453","157"
"20:47:58:787 (H:m:s:ms)","GENERIC","125.04","0.07200606750296165","212"
"21:8:59:393 (H:m:s:ms)","GENERIC","125.065","0.06616190060586119","643"
"20:48:4:848 (H:m:s:ms)","GENERIC","125.07","0.07625536846052718","152"
"21:9:5:454 (H:m:s:ms)","GENERIC","124.989","0.04079278143941918","545"
"20:30:0:0 (H:m:s:ms)","GENERIC","124.999","0.06319749921757652","1035"
"20:48:6:75 (H:m:s:ms)","OPERA","93.964","0.05163313679897243","924"
"21:9:11:515 (H:m:s:ms)","GENERIC","125.062","0.05510443270812144","484"
"20:30:0:0 (H:m:s:ms)","GENERIC","125.096","0.07358995217319435","1036"
"20:48:10:909 (H:m:s:ms)","GENERIC","125.04599999999999","0.056102611234020404","1090"
"21:9:17:575 (H:m:s:ms)","GENERIC","125.063","0.05999788773972508","424"
"20:30:6:60 (H:m:s:ms)","GENERIC","125.101","0.06607609350838964","939"
"20:48:13:670 (H:m:s:ms)","OPERA","93.96300000000001","0.04663022101282078","329"
"21:9:23:636 (H:m:s:ms)","GENERIC","125.066","0.05186936722300048","363"
"20:30:12:121 (H:m:s:ms)","GENERIC","125.013","0.037072851981549956","878"
"20:48:16:969 (H:m:s:ms)","GENERIC","125.002","0.07172051928622333","1030"
"21:9:28:421 (H:m:s:ms)","AMBULANCE","94.004","0.05235588290364898","578"
"20:30:18:181 (H:m:s:ms)","GENERIC","125.105","0.033023398852857024","818"
"20:48:21:265 (H:m:s:ms)","OPERA","93.964","0.06524266977182876","734"
"21:9:29:696 (H:m:s:ms)","GENERIC","125.05600000000001","0.06594786482181576","340"
"20:30:24:242 (H:m:s:ms)","GENERIC","125.023","0.05342541217016353","758"
"20:48:23:30 (H:m:s:ms)","GENERIC","124.992","0.07767962921271768","969"
"21:9:35:757 (H:m:s:ms)","GENERIC","125.045","0.04962567339377055","242"
"20:30:30:303 (H:m:s:ms)","GENERIC","125.054","0.05740690779307005","696"
"20:48:28:860 (H:m:s:ms)","OPERA","93.96300000000001","0.04404714280634361","139"
"20:30:36:363 (H:m:s:ms)","GENERIC","125.027","0.051586916118022026","636"
"20:48:29:90 (H:m:s:ms)","GENERIC","125.049","0.05929019008336675","949"
"20:30:42:424 (H:m:s:ms)","GENERIC","125.006","0.045197296849529486","575"
"20:30:48:484 (H:m:s:ms)","GENERIC","125.013","0.0439168373085483","515"
"21:9:41:818 (H:m:s:ms)","GENERIC","125.04599999999999","0.058923302307297296","181"
"21:9:47:878 (H:m:s:ms)","GENERIC","125.037","0.022738731022580914","1121"
"20:48:35:151 (H:m:s:ms)","GENERIC","125.069","0.04989687665464159","848"
"21:9:53:939 (H:m:s:ms)","GENERIC","124.995","0.04969773462846963","1060"
"20:48:36:455 (H:m:s:ms)","OPERA","93.97","0.05311619231900623","544"
"21:10:0:0 (H:m:s:ms)","AMBULANCE","94.008","0.047872463271130816","1038"
"20:30:54:545 (H:m:s:ms)","GENERIC","125.117","0.04986345625594148","455"
"20:48:41:212 (H:m:s:ms)","GENERIC","125.068","0.07342710230626877","787"
"21:10:0:0 (H:m:s:ms)","GENERIC","125.036","0.07034940491070737","1038"
"20:31:0:606 (H:m:s:ms)","GENERIC","125.125","0.04178196144412288","394"
"20:48:44:50 (H:m:s:ms)","OPERA","93.964","0.052355640299676404","949"
"21:10:0:0 (H:m:s:ms)","GENERIC","125.082","0.08095575678461463","1038"
"20:31:6:666 (H:m:s:ms)","GENERIC","125.01599999999999","0.04731577183749709","333"
"20:48:47:272 (H:m:s:ms)","GENERIC","125.021","0.07164353382821866","727"
"21:10:6:60 (H:m:s:ms)","GENERIC","125.057","0.07970002753840476","939"
"20:31:12:727 (H:m:s:ms)","GENERIC","125.011","0.050750878715959756","272"
"20:48:53:333 (H:m:s:ms)","GENERIC","125.171","0.060527686985888875","666"
"21:10:12:121 (H:m:s:ms)","GENERIC","125.021","0.05098312048080953","878"
"20:31:18:787 (H:m:s:ms)","GENERIC","125.013","0.0510442446394679","212"
"20:48:59:240 (H:m:s:ms)","OPERA","93.971","0.05159769292689263","798"
"21:10:18:181 (H:m:s:ms)","GENERIC","125.063","0.047711118009908154","818"
"20:31:24:848 (H:m:s:ms)","GENERIC","125.041","0.046439227678069524","151"
"20:48:59:393 (H:m:s:ms)","GENERIC","125.042","0.08326167759387808","645"
"21:10:24:242 (H:m:s:ms)","GENERIC","125.057","0.04623589302468816","758"
"20:31:30:909 (H:m:s:ms)","GENERIC","125.021","0.023449330440436778","1090"
"20:49:5:454 (H:m:s:ms)","GENERIC","124.999","0.08194850678164028","545"
"20:31:36:969 (H:m:s:ms)","GENERIC","125.054","0.047415184387348014","1030"
"20:49:11:515 (H:m:s:ms)","GENERIC","125.061","0.0620614771895383","484"
"20:31:43:30 (H:m:s:ms)","GENERIC","125.098","0.056918638079031095","969"
"20:31:49:90 (H:m:s:ms)","GENERIC","124.991","0.0400311273301791","945"
"20:49:14:430 (H:m:s:ms)","OPERA","93.97","0.05603628889455747","569"
"20:49:17:575 (H:m:s:ms)","GENERIC","125.08099999999999","0.0830788746327342","424"
"20:31:55:151 (H:m:s:ms)","GENERIC","125.037","0.048414630529163165","848"
"20:49:22:25 (H:m:s:ms)","OPERA","93.964","0.056787939976293944","974"
"20:32:1:212 (H:m:s:ms)","GENERIC","125.001","0.05670838560363298","788"
"20:49:23:636 (H:m:s:ms)","GENERIC","125.066","0.07391774173663507","363"
"20:32:7:272 (H:m:s:ms)","GENERIC","125.04599999999999","0.04724256056702092","727"
"20:49:29:620 (H:m:s:ms)","OPERA","93.965","0.04574157183499994","419"
"20:32:13:333 (H:m:s:ms)","GENERIC","125.015","0.052712641259168115","666"
"20:49:29:696 (H:m:s:ms)","GENERIC","125.04599999999999","0.06252500748150505","343"
"20:32:19:393 (H:m:s:ms)","GENERIC","125.033","0.05688981776788623","642"
"20:49:35:757 (H:m:s:ms)","GENERIC","125.03","0.06685988879405826","242"
"20:32:25:454 (H:m:s:ms)","GENERIC","125.076","0.06042125907417204","545"
"20:49:37:215 (H:m:s:ms)","OPERA","93.96300000000001","0.050152846784132885","784"
"20:32:31:515 (H:m:s:ms)","GENERIC","125.013","0.05167873758202299","484"
"20:49:41:818 (H:m:s:ms)","GENERIC","125.023","0.08146728159052906","181"
"20:32:37:575 (H:m:s:ms)","GENERIC","125.05000000000001","0.04420668031388716","424"
"20:49:44:810 (H:m:s:ms)","OPERA","93.96300000000001","0.0627626331967281","190"
"20:32:43:636 (H:m:s:ms)","GENERIC","125.069","0.055311664142413626","363"
"20:32:49:696 (H:m:s:ms)","GENERIC","125.021","0.06121934880233106","337"
"20:49:47:878 (H:m:s:ms)","GENERIC","125.037","0.05371390182924056","1121"
"20:49:52:405 (H:m:s:ms)","OPERA","93.96300000000001","0.049505638564928234","594"
"20:32:55:757 (H:m:s:ms)","GENERIC","124.981","0.05876371136756135","242"
"20:49:53:939 (H:m:s:ms)","GENERIC","125.025","0.06829747233063298","1061"
"20:33:1:818 (H:m:s:ms)","GENERIC","125.039","0.05732903792794338","181"
"20:50:0:0 (H:m:s:ms)","OPERA","93.964","0.04094342298654756","1040"
"20:33:7:878 (H:m:s:ms)","GENERIC","125.031","0.028185746672673102","1121"
"20:50:0:0 (H:m:s:ms)","GENERIC","125.033","0.05469571820634234","1040"
"20:33:13:939 (H:m:s:ms)","GENERIC","125.005","0.04260716700327062","1061"
"20:50:0:0 (H:m:s:ms)","GENERIC","125.083","0.0764546496939989","1040"
"20:33:20:0 (H:m:s:ms)","GENERIC","124.96700000000001","0.03942698542226091","1033"
"20:50:6:60 (H:m:s:ms)","GENERIC","125.08099999999999","0.07266178129301473","939"
"20:33:26:60 (H:m:s:ms)","GENERIC","125.02199999999999","0.05439589466414213","939"
"20:50:12:121 (H:m:s:ms)","GENERIC","125.035","0.03963758037334806","878"
"20:33:32:121 (H:m:s:ms)","GENERIC","125.00999999999999","0.06057100724850157","878"
"20:50:18:181 (H:m:s:ms)","GENERIC","125.081","0.04719320183976219","819"
"20:33:38:181 (H:m:s:ms)","GENERIC","125.117","0.05328248401858878","818"
"20:50:24:242 (H:m:s:ms)","GENERIC","125.025","0.05369859290147815","757"
"20:33:44:242 (H:m:s:ms)","GENERIC","125.05199999999999","0.04848090723024984","757"
"20:33:50:303 (H:m:s:ms)","GENERIC","125.029","0.04245153493114416","697"
"20:50:30:303 (H:m:s:ms)","GENERIC","125.039","0.04973154660758262","696"
"20:50:36:363 (H:m:s:ms)","GENERIC","125.049","0.05185141789138204","636"
"20:33:56:363 (H:m:s:ms)","GENERIC","125.051","0.05449819221122897","636"
"20:50:42:424 (H:m:s:ms)","GENERIC","124.985","0.04780293378617222","575"
"20:34:2:424 (H:m:s:ms)","GENERIC","125.099","0.056237658128253","575"
"20:50:48:484 (H:m:s:ms)","GENERIC","125.025","0.0427368503125643","515"
"20:10:0:0 (H:m:s:ms)","GENERIC","93.99799999999999","0.05569577607487597","1000"
"20:34:8:484 (H:m:s:ms)","GENERIC","124.977","0.046516770330302507","515"
"20:50:54:545 (H:m:s:ms)","GENERIC","125.089","0.05445636875614102","454"
"20:10:0:0 (H:m:s:ms)","GENERIC","125.107","0.07031970111953385","1037"
"20:34:14:545 (H:m:s:ms)","GENERIC","125.02799999999999","0.05203966009590382","454"
"20:51:0:606 (H:m:s:ms)","GENERIC","125.104","0.058589865717534634","393"
"20:10:6:60 (H:m:s:ms)","GENERIC","125.107","0.06918915276250301","939"
"20:34:20:606 (H:m:s:ms)","GENERIC","125.06700000000001","0.059380724664064556","393"
"20:51:6:666 (H:m:s:ms)","GENERIC","125.013","0.04635209607526254","333"
"20:10:12:121 (H:m:s:ms)","GENERIC","125.01599999999999","0.06110734545852354","878"
"20:34:26:666 (H:m:s:ms)","GENERIC","125.00399999999999","0.051750198567566796","334"
"20:51:12:727 (H:m:s:ms)","GENERIC","125.005","0.04636072872959303","272"
"20:10:18:181 (H:m:s:ms)","GENERIC","125.088","0.07033841366244895","818"
"20:34:32:727 (H:m:s:ms)","GENERIC","124.991","0.0484246507883375","272"
"20:51:18:787 (H:m:s:ms)","GENERIC","125.033","0.043420101150809035","212"
"20:10:24:242 (H:m:s:ms)","GENERIC","125.071","0.06393765603703598","758"
"20:34:38:787 (H:m:s:ms)","GENERIC","125.045","0.04585717418538731","212"
"20:51:24:848 (H:m:s:ms)","GENERIC","125.017","0.050479238974523666","152"
"20:10:30:303 (H:m:s:ms)","GENERIC","125.041","0.04600353810801765","696"
"20:34:44:848 (H:m:s:ms)","GENERIC","125.093","0.04267713569535144","151"
"20:10:36:363 (H:m:s:ms)","GENERIC","125.049","0.05384517836351606","636"
"20:34:50:909 (H:m:s:ms)","GENERIC","125.07300000000001","0.02440391654423288","1090"
"20:10:42:424 (H:m:s:ms)","GENERIC","125.001","0.05365345156749826","575"
"20:10:48:484 (H:m:s:ms)","GENERIC","124.989","0.05369859290147815","515"
"20:51:30:909 (H:m:s:ms)","GENERIC","125.017","0.027529944677707537","1090"
"20:51:36:969 (H:m:s:ms)","GENERIC","125.05199999999999","0.047970350220335474","1030"
"20:34:56:969 (H:m:s:ms)","GENERIC","125.019","0.053625101185415636","1030"
"20:51:43:30 (H:m:s:ms)","GENERIC","125.09100000000001","0.053175905597921624","969"
"20:35:3:30 (H:m:s:ms)","GENERIC","124.975","0.05732903792794338","969"
"20:51:49:90 (H:m:s:ms)","GENERIC","125.017","0.056188883557617725","950"
"20:10:54:545 (H:m:s:ms)","GENERIC","125.096","0.05264676732049738","455"
"20:35:9:90 (H:m:s:ms)","GENERIC","124.975","0.05867486419113694","944"
"20:51:55:151 (H:m:s:ms)","GENERIC","125.025","0.05080699785674379","848"
"20:11:0:606 (H:m:s:ms)","GENERIC","125.099","0.05351848926445414","393"
"20:35:15:151 (H:m:s:ms)","GENERIC","124.999","0.04899839629587206","848"
"20:52:1:212 (H:m:s:ms)","GENERIC","125.015","0.04848858317049327","787"
"20:11:6:666 (H:m:s:ms)","GENERIC","125.009","0.054967527405908115","333"
"20:35:21:212 (H:m:s:ms)","GENERIC","125.055","0.04208221967808329","788"
"20:52:7:272 (H:m:s:ms)","GENERIC","125.06700000000001","0.04808534485879795","727"
"20:11:12:727 (H:m:s:ms)","GENERIC","125.017","0.054243010687761974","273"
"20:35:27:272 (H:m:s:ms)","GENERIC","125.018","0.04731577183749709","727"
"20:52:13:333 (H:m:s:ms)","GENERIC","125.031","0.04708171162645541","666"
"20:11:18:787 (H:m:s:ms)","GENERIC","125.013","0.04466566466288205","212"
"20:35:33:333 (H:m:s:ms)","GENERIC","125.029","0.05560574913945804","666"
"20:52:19:393 (H:m:s:ms)","GENERIC","125.05600000000001","0.047491123062434665","647"
"20:11:24:848 (H:m:s:ms)","GENERIC","125.031","0.054923270436596575","151"
"20:35:39:393 (H:m:s:ms)","GENERIC","125.108","0.05300471333735151","640"
"20:52:25:454 (H:m:s:ms)","GENERIC","125.05799999999999","0.061072728956481755","545"
"20:11:30:909 (H:m:s:ms)","GENERIC","125.019","0.030589195107130953","1090"
"20:35:45:454 (H:m:s:ms)","GENERIC","125.013","0.04731577183749709","545"
"20:11:36:969 (H:m:s:ms)","GENERIC","125.051","0.049646394559460676","1030"
"20:35:51:515 (H:m:s:ms)","GENERIC","125.108","0.05994297249976801","484"
"20:11:43:30 (H:m:s:ms)","GENERIC","125.099","0.047094807009570486","969"
"20:11:49:90 (H:m:s:ms)","GENERIC","125.003","0.048414630529163165","947"
"20:0:54:545 (H:m:s:ms)","GENERIC","94.036","0.0610176065258642","455"
"20:1:0:606 (H:m:s:ms)","GENERIC","94.022","0.05275459104928678","393"
"20:1:6:666 (H:m:s:ms)","GENERIC","93.995","0.05197918727672892","333"
"20:1:12:727 (H:m:s:ms)","GENERIC","93.993","0.05955240626597884","273"
"20:1:18:787 (H:m:s:ms)","GENERIC","93.994","0.061662404609633986","212"
"20:1:24:848 (H:m:s:ms)","GENERIC","93.99600000000001","0.054231241555858276","152"
"20:1:30:909 (H:m:s:ms)","GENERIC","93.993","0.019392781875010267","1091"
"20:1:36:969 (H:m:s:ms)","GENERIC","94.009","0.04636072872959303","1030"
"20:1:43:30 (H:m:s:ms)","GENERIC","94.036","0.04702936770762311","970"
"20:1:49:90 (H:m:s:ms)","GENERIC","93.989","0.05075417150645453","922"
"20:35:57:575 (H:m:s:ms)","GENERIC","125.061","0.057991308728373325","424"
"20:36:3:636 (H:m:s:ms)","GENERIC","125.04400000000001","0.058441286169712725","363"
"20:11:55:151 (H:m:s:ms)","GENERIC","125.051","0.0588421233891998","848"
"20:36:9:696 (H:m:s:ms)","GENERIC","125.013","0.05318480156310769","346"
"20:12:1:212 (H:m:s:ms)","GENERIC","125.011","0.056188883557617725","787"
"20:36:15:757 (H:m:s:ms)","GENERIC","125.035","0.05021855106113743","242"
"20:12:7:272 (H:m:s:ms)","GENERIC","125.031","0.05042859091322989","727"
"20:36:21:818 (H:m:s:ms)","GENERIC","125.003","0.04873134076279302","181"
"20:12:13:333 (H:m:s:ms)","GENERIC","125.01599999999999","0.05203966009590382","666"
"20:36:27:878 (H:m:s:ms)","GENERIC","125.027","0.035966799226505905","1122"
"20:12:19:393 (H:m:s:ms)","GENERIC","125.049","0.05859514480191671","643"
"20:36:33:939 (H:m:s:ms)","GENERIC","125.06700000000001","0.055083121862756455","1061"
"20:12:25:454 (H:m:s:ms)","GENERIC","125.059","0.05419809367418836","545"
"20:36:40:0 (H:m:s:ms)","GENERIC","125.02000000000001","0.049292565930451504","1035"
"20:12:31:515 (H:m:s:ms)","GENERIC","124.991","0.039982311624015617","484"
"20:36:46:60 (H:m:s:ms)","GENERIC","125.017","0.05551823218812238","939"
"20:12:37:575 (H:m:s:ms)","GENERIC","125.027","0.041978612102170854","424"
"20:36:52:121 (H:m:s:ms)","GENERIC","125.135","0.054838874151205017","878"
"20:12:43:636 (H:m:s:ms)","GENERIC","125.065","0.04650096497482337","363"
"20:12:49:696 (H:m:s:ms)","GENERIC","125.039","0.051053662447226665","339"
"20:1:55:151 (H:m:s:ms)","GENERIC","94.019","0.050887754431956034","848"
"20:2:1:212 (H:m:s:ms)","GENERIC","93.983","0.03970294074079065","787"
"20:2:7:272 (H:m:s:ms)","GENERIC","93.999","0.04602208524164097","727"
"20:2:13:333 (H:m:s:ms)","GENERIC","93.985","0.05473982729560965","666"
"20:2:19:393 (H:m:s:ms)","GENERIC","93.99000000000001","0.04779700706386066","620"
"20:2:25:454 (H:m:s:ms)","GENERIC","94.01","0.05844447879257298","545"
"20:2:31:515 (H:m:s:ms)","GENERIC","93.982","0.05944239429561431","484"
"20:2:37:575 (H:m:s:ms)","GENERIC","93.987","0.051751746436552955","425"
"20:2:43:636 (H:m:s:ms)","GENERIC","94.01","0.05173316512129464","363"
"20:2:49:696 (H:m:s:ms)","GENERIC","93.987","0.059519981561893864","318"
"20:36:58:181 (H:m:s:ms)","GENERIC","125.018","0.050821882359809445","818"
"20:37:4:242 (H:m:s:ms)","GENERIC","125.039","0.05167617856426538","757"
"20:12:55:757 (H:m:s:ms)","GENERIC","125.009","0.051094146058301065","242"
"20:37:10:303 (H:m:s:ms)","GENERIC","125.009","0.055369942624725076","696"
"20:13:1:818 (H:m:s:ms)","GENERIC","125.005","0.04848858317049327","181"
"20:37:16:363 (H:m:s:ms)","GENERIC","125.068","0.05554098699652454","636"
"20:13:7:878 (H:m:s:ms)","GENERIC","125.005","0.03223786965182181","1121"
"20:37:22:424 (H:m:s:ms)","GENERIC","124.98500000000001","0.05609002010196031","575"
"20:13:13:939 (H:m:s:ms)","GENERIC","125.033","0.05325115200239124","1061"
"20:37:28:484 (H:m:s:ms)","GENERIC","125.023","0.05315567758091148","515"
"20:13:20:0 (H:m:s:ms)","GENERIC","125.00200000000001","0.05190018999132142","1036"
"20:37:34:545 (H:m:s:ms)","GENERIC","125.089","0.05433401940235588","454"
"20:13:26:60 (H:m:s:ms)","GENERIC","125.021","0.0545927144042183","940"
"20:37:40:606 (H:m:s:ms)","GENERIC","124.97900000000001","0.05498123226913425","393"
"20:13:32:121 (H:m:s:ms)","GENERIC","125.035","0.05342541217016353","878"
"20:37:46:666 (H:m:s:ms)","GENERIC","125.047","0.054838874151205017","333"
"20:13:38:181 (H:m:s:ms)","GENERIC","125.088","0.04719901674451058","818"
"20:37:52:727 (H:m:s:ms)","GENERIC","125.137","0.05535775485279403","272"
"20:13:44:242 (H:m:s:ms)","GENERIC","125.035","0.040154191343232955","757"
"20:13:50:303 (H:m:s:ms)","GENERIC","125.055","0.04292207134415446","696"
"20:2:55:757 (H:m:s:ms)","GENERIC","93.992","0.059519981561893864","242"
"20:3:1:818 (H:m:s:ms)","GENERIC","93.97200000000001","0.04260716700327062","181"
"20:3:7:878 (H:m:s:ms)","GENERIC","93.992","0.05055044694890026","121"
"20:3:13:939 (H:m:s:ms)","GENERIC","93.994","0.03681107230974258","1062"
"20:3:20:0 (H:m:s:ms)","GENERIC","93.986","0.05968226420921089","1000"
"20:3:26:60 (H:m:s:ms)","GENERIC","93.993","0.05293189425942576","939"
"20:3:32:121 (H:m:s:ms)","GENERIC","93.992","0.04796848417243947","878"
"20:3:38:181 (H:m:s:ms)","GENERIC","94.013","0.047990848254276554","819"
"20:3:44:242 (H:m:s:ms)","GENERIC","94.00200000000001","0.05313595032559909","758"
"20:3:50:303 (H:m:s:ms)","GENERIC","94.012","0.04841836634301661","696"
"20:37:58:787 (H:m:s:ms)","GENERIC","125.021","0.05725841295671455","212"
"20:38:4:848 (H:m:s:ms)","GENERIC","125.047","0.05544548856114179","152"
"20:13:56:363 (H:m:s:ms)","GENERIC","125.037","0.05343336711543848","636"
"20:38:10:909 (H:m:s:ms)","GENERIC","125.057","0.01568917978477019","1090"
"20:14:2:424 (H:m:s:ms)","GENERIC","125.108","0.0589799203904165","575"
"20:38:16:969 (H:m:s:ms)","GENERIC","124.991","0.0349058596180423","1030"
"20:14:8:484 (H:m:s:ms)","GENERIC","124.981","0.04982158162446726","515"
"20:38:23:30 (H:m:s:ms)","GENERIC","124.97900000000001","0.05125480916609984","969"
"20:14:14:545 (H:m:s:ms)","GENERIC","124.991","0.05726650278423771","454"
"20:38:29:90 (H:m:s:ms)","GENERIC","125.069","0.05998243309354504","945"
"20:14:20:606 (H:m:s:ms)","GENERIC","125.041","0.06004225565189982","393"
"20:38:35:151 (H:m:s:ms)","GENERIC","125.082","0.04724530555398992","848"
"20:14:26:666 (H:m:s:ms)","GENERIC","125.013","0.047255723465237216","333"
"20:38:41:212 (H:m:s:ms)","GENERIC","125.057","0.0478564230572479","787"
"20:14:32:727 (H:m:s:ms)","GENERIC","125.027","0.04702936770762311","272"
"20:38:47:272 (H:m:s:ms)","GENERIC","125.021","0.05198066246007435","727"
"20:14:38:787 (H:m:s:ms)","GENERIC","125.08500000000001","0.041293324601359246","213"
"20:38:53:333 (H:m:s:ms)","GENERIC","125.16300000000001","0.05198066246007435","666"
"20:14:44:848 (H:m:s:ms)","GENERIC","125.049","0.044895790088492774","151"
"20:14:50:909 (H:m:s:ms)","GENERIC","125.063","0.03629852497379393","1090"
"20:3:56:363 (H:m:s:ms)","GENERIC","93.998","0.05838713326689731","636"
"20:4:2:424 (H:m:s:ms)","GENERIC","94.023","0.05197811730958576","575"
"20:4:8:484 (H:m:s:ms)","GENERIC","93.974","0.04799934106958293","515"
"20:4:14:545 (H:m:s:ms)","GENERIC","93.986","0.04716676888785744","455"
"20:4:20:606 (H:m:s:ms)","GENERIC","93.994","0.05015293752855753","394"
"20:4:26:666 (H:m:s:ms)","GENERIC","93.999","0.047246734772107814","333"
"20:4:32:727 (H:m:s:ms)","GENERIC","94.001","0.05126759197348473","272"
"20:4:38:787 (H:m:s:ms)","GENERIC","94.02000000000001","0.054773368841301094","212"
"20:4:44:848 (H:m:s:ms)","GENERIC","93.991","0.05042682922719397","152"
"20:4:50:909 (H:m:s:ms)","GENERIC","94.005","0.021431978680115524","1091"
"20:38:59:393 (H:m:s:ms)","GENERIC","125.03800000000001","0.05374169337960824","642"
"20:39:5:454 (H:m:s:ms)","GENERIC","124.999","0.0585056952977396","545"
"20:14:56:969 (H:m:s:ms)","GENERIC","124.991","0.05203728495031475","1030"
"20:39:11:515 (H:m:s:ms)","GENERIC","125.077","0.0500067660195545","484"
"20:15:3:30 (H:m:s:ms)","GENERIC","124.997","0.04666596446689129","969"
"20:39:17:575 (H:m:s:ms)","GENERIC","125.063","0.05325115200239124","424"
"20:15:9:90 (H:m:s:ms)","GENERIC","124.98400000000001","0.05535775485279403","945"
"20:39:23:636 (H:m:s:ms)","GENERIC","125.05600000000001","0.05813952242161004","363"
"20:15:15:151 (H:m:s:ms)","GENERIC","125.029","0.062257398356733745","848"
"20:39:29:696 (H:m:s:ms)","GENERIC","125.027","0.04751063591920892","340"
"20:15:21:212 (H:m:s:ms)","GENERIC","125.083","0.05541582320545712","788"
"20:39:35:757 (H:m:s:ms)","GENERIC","125.021","0.05998243309354504","242"
"20:15:27:272 (H:m:s:ms)","GENERIC","124.995","0.04447901531947867","727"
"20:39:41:818 (H:m:s:ms)","GENERIC","125.003","0.054838874151205017","181"
"20:15:33:333 (H:m:s:ms)","GENERIC","125.033","0.05365345156749826","666"
"20:39:47:878 (H:m:s:ms)","GENERIC","125.049","0.016687417405505053","1121"
"20:15:39:393 (H:m:s:ms)","GENERIC","125.119","0.05194053445322386","642"
"20:39:53:939 (H:m:s:ms)","GENERIC","125.031","0.049225006957053626","1060"
"20:15:45:454 (H:m:s:ms)","GENERIC","125.009","0.05178226809188903","545"
"20:15:51:515 (H:m:s:ms)","GENERIC","125.10499999999999","0.05367994278591467","484"
"20:4:56:969 (H:m:s:ms)","GENERIC","93.97800000000001","0.05006681015778519","1030"
"20:5:3:30 (H:m:s:ms)","GENERIC","93.993","0.05726493159337799","969"
"20:5:9:90 (H:m:s:ms)","GENERIC","93.968","0.055422605386378665","933"
"20:5:15:151 (H:m:s:ms)","GENERIC","94.011","0.048071752446452926","848"
"20:5:21:212 (H:m:s:ms)","GENERIC","94.031","0.05116620465752561","788"
"20:5:27:272 (H:m:s:ms)","GENERIC","93.983","0.056790003654253705","727"
"20:5:33:333 (H:m:s:ms)","GENERIC","94.001","0.06011934780956891","666"
"20:5:39:393 (H:m:s:ms)","GENERIC","94.029","0.04858386851437052","630"
"20:5:45:454 (H:m:s:ms)","GENERIC","93.97800000000001","0.04373847196423174","545"
"20:5:51:515 (H:m:s:ms)","GENERIC","94.028","0.040849313188349515","485"
"20:15:57:575 (H:m:s:ms)","GENERIC","125.086","0.05543567947673792","424"
"20:16:3:636 (H:m:s:ms)","GENERIC","125.033","0.047886774003335915","363"
"20:16:9:696 (H:m:s:ms)","GENERIC","125.015","0.052819834836592146","339"
"20:16:15:757 (H:m:s:ms)","GENERIC","125.05000000000001","0.05511712381748481","242"
"20:16:21:818 (H:m:s:ms)","GENERIC","125.039","0.05553272872807107","181"
"20:16:27:878 (H:m:s:ms)","GENERIC","125.013","0.029501974500744436","1122"
"20:16:33:939 (H:m:s:ms)","GENERIC","125.06700000000001","0.05419809367418836","1060"
"20:16:40:0 (H:m:s:ms)","GENERIC","124.99799999999999","0.04926443418583503","1036"
"20:16:46:60 (H:m:s:ms)","GENERIC","125.023","0.04454932788951329","939"
"20:16:52:121 (H:m:s:ms)","GENERIC","125.099","0.04636072872959303","878"
"20:5:57:575 (H:m:s:ms)","GENERIC","94.023","0.04994025136901565","425"
"20:6:3:636 (H:m:s:ms)","GENERIC","94.0","0.055020219131311186","363"
"20:6:9:696 (H:m:s:ms)","GENERIC","93.995","0.04921944643220141","330"
"20:6:15:757 (H:m:s:ms)","GENERIC","93.998","0.047517074084310267","242"
"20:6:21:818 (H:m:s:ms)","GENERIC","94.011","0.053805782851087135","181"
"20:6:27:878 (H:m:s:ms)","GENERIC","93.98","0.06215248985793466","121"
"20:6:33:939 (H:m:s:ms)","GENERIC","94.011","0.040001698333511","1061"
"20:6:40:0 (H:m:s:ms)","GENERIC","93.99000000000001","0.05655316336471476","1001"
"20:6:46:60 (H:m:s:ms)","GENERIC","93.995","0.0444004607413544","939"
"20:6:52:121 (H:m:s:ms)","GENERIC","94.021","0.053068339021171286","878"
"20:16:58:181 (H:m:s:ms)","GENERIC","124.981","0.05426654456966826","818"
"20:17:4:242 (H:m:s:ms)","GENERIC","125.05699999999999","0.05202216898906515","758"
"20:17:10:303 (H:m:s:ms)","GENERIC","125.011","0.051063142345415265","696"
"20:17:16:363 (H:m:s:ms)","GENERIC","125.06","0.05390084523550955","636"
"20:17:22:424 (H:m:s:ms)","GENERIC","124.983","0.050821882359809445","575"
"20:17:28:484 (H:m:s:ms)","GENERIC","125.04599999999999","0.05179490736179499","516"
"20:17:34:545 (H:m:s:ms)","GENERIC","125.10300000000001","0.05306500225169951","454"
"20:17:40:606 (H:m:s:ms)","GENERIC","125.025","0.04986167460287415","393"
"20:17:46:666 (H:m:s:ms)","GENERIC","125.029","0.04641986868219994","333"
"20:17:52:727 (H:m:s:ms)","GENERIC","125.093","0.04791463691110792","273"
"20:6:58:181 (H:m:s:ms)","GENERIC","93.97","0.04879069921602735","818"
"20:7:4:242 (H:m:s:ms)","GENERIC","94.005","0.04646067822318951","758"
"20:7:10:303 (H:m:s:ms)","GENERIC","93.979","0.04787262893232276","696"
"20:7:16:363 (H:m:s:ms)","GENERIC","93.999","0.04724798191321825","636"
"20:7:22:424 (H:m:s:ms)","GENERIC","93.98400000000001","0.052235246908690684","575"
"20:7:28:484 (H:m:s:ms)","GENERIC","94.006","0.06026053002654318","516"
"20:7:34:545 (H:m:s:ms)","GENERIC","94.04599999999999","0.05822598546103787","455"
"20:7:40:606 (H:m:s:ms)","GENERIC","93.99600000000001","0.06385221955978924","393"
"20:7:46:666 (H:m:s:ms)","GENERIC","94.01","0.0575656163125506","333"
"20:7:52:727 (H:m:s:ms)","GENERIC","94.019","0.04420668031388716","273"
"20:17:58:787 (H:m:s:ms)","GENERIC","125.003","0.04708171162645541","212"
"20:18:4:848 (H:m:s:ms)","GENERIC","125.059","0.04558867252323025","151"
"20:18:10:909 (H:m:s:ms)","GENERIC","125.089","0.030877518131732673","1091"
"20:18:16:969 (H:m:s:ms)","GENERIC","124.997","0.05415305120020573","1030"
"20:18:23:30 (H:m:s:ms)","GENERIC","124.989","0.051094146058301065","969"
"20:18:29:90 (H:m:s:ms)","GENERIC","125.075","0.04973154660758262","944"
"20:18:35:151 (H:m:s:ms)","GENERIC","125.089","0.045644691349416594","848"
"20:18:41:212 (H:m:s:ms)","GENERIC","125.071","0.059519981561893864","787"
"20:18:47:272 (H:m:s:ms)","GENERIC","125.03399999999999","0.054248866686406494","727"
"20:18:53:333 (H:m:s:ms)","GENERIC","125.13900000000001","0.047159661442812945","666"
"20:7:58:787 (H:m:s:ms)","GENERIC","93.988","0.052276951448006155","213"
"20:8:4:848 (H:m:s:ms)","GENERIC","94.01","0.05997656841172642","151"
"20:8:10:909 (H:m:s:ms)","GENERIC","94.031","0.03215742180328773","1091"
"20:8:16:969 (H:m:s:ms)","GENERIC","93.985","0.05314006884933075","1031"
"20:8:23:30 (H:m:s:ms)","GENERIC","93.98","0.04998573579279418","970"
"20:8:29:90 (H:m:s:ms)","GENERIC","94.021","0.049100154058275745","942"
"20:8:35:151 (H:m:s:ms)","GENERIC","94.025","0.05185141789138204","849"
"20:8:41:212 (H:m:s:ms)","GENERIC","94.02000000000001","0.059416523795056346","787"
"20:8:47:272 (H:m:s:ms)","GENERIC","93.994","0.05042859091322989","727"
"20:8:53:333 (H:m:s:ms)","GENERIC","94.042","0.04499097983422574","667"
"20:18:59:393 (H:m:s:ms)","GENERIC","125.035","0.04553273780278501","642"
"20:19:5:454 (H:m:s:ms)","GENERIC","124.983","0.055026470776024496","545"
"20:19:11:515 (H:m:s:ms)","GENERIC","125.098","0.05151629478434485","484"
"20:19:17:575 (H:m:s:ms)","GENERIC","125.031","0.03937099197506499","424"
"20:19:23:636 (H:m:s:ms)","GENERIC","125.023","0.04512783002054762","363"
"20:19:29:696 (H:m:s:ms)","GENERIC","124.991","0.05664504227047446","335"
"20:19:35:757 (H:m:s:ms)","GENERIC","125.023","0.048414630529163165","242"
"20:19:41:818 (H:m:s:ms)","GENERIC","125.009","0.04000657519815774","181"
"20:19:47:878 (H:m:s:ms)","GENERIC","125.035","0.024752819282464117","1121"
"20:19:53:939 (H:m:s:ms)","GENERIC","125.057","0.04203666546043274","1061"
"20:8:59:393 (H:m:s:ms)","GENERIC","94.01","0.052399268947484035","640"
"20:9:5:454 (H:m:s:ms)","GENERIC","93.975","0.06164915642051812","545"
"20:9:11:515 (H:m:s:ms)","GENERIC","94.024","0.05197408524032534","484"
"20:9:17:575 (H:m:s:ms)","GENERIC","93.99000000000001","0.0451646978437554","425"
"20:9:23:636 (H:m:s:ms)","GENERIC","93.986","0.05670838560363298","363"
"20:9:29:696 (H:m:s:ms)","GENERIC","93.96600000000001","0.0510442446394679","338"
"20:9:35:757 (H:m:s:ms)","GENERIC","93.988","0.05035558481402133","243"
"20:9:41:818 (H:m:s:ms)","GENERIC","94.001","0.054050783127865806","181"
"20:9:47:878 (H:m:s:ms)","GENERIC","93.99000000000001","0.04697319750650512","121"
"20:9:53:939 (H:m:s:ms)","GENERIC","94.00800000000001","0.03424100391257416","1062"
"21:41:30:909 (H:m:s:ms)","GENERIC","125.029","0.03255874332650324","1091"
"21:41:24:848 (H:m:s:ms)","GENERIC","125.033","0.05998243309354504","151"
"21:41:18:787 (H:m:s:ms)","GENERIC","125.037","0.05615511320557031","212"
"21:41:12:727 (H:m:s:ms)","GENERIC","124.97900000000001","0.057899901423508454","272"
"21:41:6:666 (H:m:s:ms)","GENERIC","125.078","0.05220320437716095","333"
"21:41:0:606 (H:m:s:ms)","GENERIC","125.02799999999999","0.05045261884751205","393"
"21:40:54:545 (H:m:s:ms)","GENERIC","125.019","0.06198713769555607","454"
"21:41:49:90 (H:m:s:ms)","GENERIC","125.05000000000001","0.04835968193940839","948"
"21:41:43:30 (H:m:s:ms)","GENERIC","125.09700000000001","0.03895473568839818","969"
"21:41:36:969 (H:m:s:ms)","GENERIC","125.13300000000001","0.047094807009570486","1030"
