"time (H:m:s:ms)","type","latency","utilisation","waiting"
"21:43:1:818 (H:m:s:ms)","GENERIC","186.933","0.08012553967136345","181"
"21:42:43:636 (H:m:s:ms)","GENERIC","186.95499999999998","0.10121854623378866","364"
"21:42:37:575 (H:m:s:ms)","GENERIC","186.933","0.07877492228067591","424"
"21:42:31:515 (H:m:s:ms)","GENERIC","186.963","0.054318588943770486","484"
"21:42:25:454 (H:m:s:ms)","GENERIC","186.923","0.10182827323448468","545"
"21:42:19:393 (H:m:s:ms)","GENERIC","186.961","0.09306514885089841","647"
"21:42:13:333 (H:m:s:ms)","GENERIC","186.99099999999999","0.07764775402011327","666"
"21:42:7:272 (H:m:s:ms)","GENERIC","186.923","0.07118088335787741","727"
"21:42:1:212 (H:m:s:ms)","GENERIC","186.985","0.07607157574925119","787"
"21:42:55:757 (H:m:s:ms)","GENERIC","186.941","0.09087260198800072","242"
"21:42:49:696 (H:m:s:ms)","GENERIC","186.911","0.0864071507259553","342"
"21:44:8:484 (H:m:s:ms)","GENERIC","186.963","0.10156940233310761","515"
"21:44:2:424 (H:m:s:ms)","GENERIC","186.887","0.08680450942638045","575"
"21:43:50:303 (H:m:s:ms)","GENERIC","186.95499999999998","0.08704250714929206","696"
"20:0:0:0 (H:m:s:ms)","GENERIC","155.905","0.09407448887692897","1077"
"21:43:44:242 (H:m:s:ms)","GENERIC","186.97899999999998","0.09005787254517958","758"
"20:0:6:60 (H:m:s:ms)","GENERIC","155.878","0.09489068917702008","941"
"21:43:38:181 (H:m:s:ms)","GENERIC","186.909","0.0749417186873984","818"
"20:0:12:121 (H:m:s:ms)","GENERIC","155.889","0.08423336709736656","878"
"21:43:32:121 (H:m:s:ms)","GENERIC","186.92000000000002","0.08533880070024064","878"
"20:0:18:181 (H:m:s:ms)","GENERIC","155.929","0.10260053947945184","819"
"21:43:26:60 (H:m:s:ms)","GENERIC","186.951","0.09599359407616585","939"
"20:0:24:242 (H:m:s:ms)","GENERIC","155.951","0.0851388855971328","758"
"21:43:20:0 (H:m:s:ms)","GENERIC","186.975","0.07181562948909935","1040"
"20:0:30:303 (H:m:s:ms)","GENERIC","155.94","0.08711571737313704","697"
"21:43:13:939 (H:m:s:ms)","GENERIC","186.99099999999999","0.08524768839461996","1061"
"20:0:36:363 (H:m:s:ms)","GENERIC","155.924","0.06056702553365959","637"
"21:43:7:878 (H:m:s:ms)","GENERIC","186.937","0.07232497174060322","1122"
"20:0:42:424 (H:m:s:ms)","GENERIC","155.907","0.07752224109942492","576"
"21:10:24:242 (H:m:s:ms)","GENERIC","186.959","0.0689949367712717","757"
"20:0:48:484 (H:m:s:ms)","GENERIC","155.905","0.08581609619454054","516"
"21:10:30:303 (H:m:s:ms)","GENERIC","186.94299999999998","0.08793261891710454","696"
"21:10:36:363 (H:m:s:ms)","GENERIC","186.983","0.09596041158395588","636"
"21:10:42:424 (H:m:s:ms)","GENERIC","186.927","0.09201831788389712","575"
"21:10:48:484 (H:m:s:ms)","GENERIC","186.935","0.06247018494074062","515"
"21:10:54:545 (H:m:s:ms)","GENERIC","186.963","0.09714238814862122","454"
"21:11:0:606 (H:m:s:ms)","GENERIC","186.885","0.08012553967136345","393"
"21:11:6:666 (H:m:s:ms)","GENERIC","186.957","0.06781434346022897","333"
"21:43:56:363 (H:m:s:ms)","GENERIC","186.939","0.08064092079170113","636"
"21:11:12:727 (H:m:s:ms)","GENERIC","186.945","0.09487865880335354","272"
"21:11:18:787 (H:m:s:ms)","GENERIC","186.941","0.10260053947945184","212"
"21:25:56:962 (H:m:s:ms)","OPERA","186.879","0.08766920130514519","1037"
"21:45:15:151 (H:m:s:ms)","GENERIC","186.981","0.08304454798752978","848"
"21:45:9:90 (H:m:s:ms)","GENERIC","186.95499999999998","0.10156940233310761","949"
"21:45:3:30 (H:m:s:ms)","GENERIC","186.925","0.08939271987078426","969"
"21:44:56:969 (H:m:s:ms)","GENERIC","186.983","0.09842234735099727","1030"
"21:44:50:909 (H:m:s:ms)","GENERIC","186.987","0.06963242370892367","1090"
"21:44:44:848 (H:m:s:ms)","GENERIC","186.945","0.08459756220310807","151"
"21:44:38:787 (H:m:s:ms)","GENERIC","186.975","0.07914606079606136","212"
"21:44:32:727 (H:m:s:ms)","GENERIC","186.969","0.06114630695726059","272"
"21:44:26:666 (H:m:s:ms)","GENERIC","186.977","0.07711404206790584","333"
"21:44:20:606 (H:m:s:ms)","GENERIC","186.952","0.08749184957111124","393"
"21:11:24:848 (H:m:s:ms)","GENERIC","186.911","0.09677731530287162","151"
"21:44:14:545 (H:m:s:ms)","GENERIC","186.913","0.08108627435906911","454"
"21:11:30:909 (H:m:s:ms)","GENERIC","186.921","0.07118088335787741","1090"
"21:11:36:969 (H:m:s:ms)","GENERIC","186.91500000000002","0.0909530451949836","1030"
"21:11:43:30 (H:m:s:ms)","GENERIC","186.917","0.0910337233139777","969"
"21:11:49:90 (H:m:s:ms)","GENERIC","186.905","0.08452842803702273","948"
"21:11:55:151 (H:m:s:ms)","GENERIC","186.959","0.09891337323836862","848"
"21:12:1:212 (H:m:s:ms)","GENERIC","186.985","0.09352578639966946","787"
"21:12:7:272 (H:m:s:ms)","GENERIC","186.923","0.09953183212801892","727"
"21:12:13:333 (H:m:s:ms)","GENERIC","186.969","0.09407448887692897","666"
"21:12:19:393 (H:m:s:ms)","GENERIC","186.965","0.09206956778777899","645"
"21:26:34:936 (H:m:s:ms)","OPERA","186.877","0.10269331935062762","1063"
"21:46:21:818 (H:m:s:ms)","GENERIC","186.935","0.08304454798752978","181"
"21:26:33:939 (H:m:s:ms)","GENERIC","186.903","0.0701097905676104","1060"
"21:46:15:757 (H:m:s:ms)","GENERIC","186.941","0.08992509496561092","242"
"21:46:9:696 (H:m:s:ms)","GENERIC","186.985","0.08327144650723937","343"
"21:46:3:636 (H:m:s:ms)","GENERIC","186.953","0.0841759950466026","363"
"21:26:27:341 (H:m:s:ms)","OPERA","186.876","0.08540062606010188","658"
"21:26:21:818 (H:m:s:ms)","GENERIC","186.90699999999998","0.09090613547032379","181"
"21:45:57:575 (H:m:s:ms)","GENERIC","187.007","0.08635170260333866","424"
"21:26:15:757 (H:m:s:ms)","GENERIC","186.907","0.12319021015785833","242"
"21:45:51:515 (H:m:s:ms)","GENERIC","186.979","0.09741617437471337","484"
"21:26:12:151 (H:m:s:ms)","OPERA","186.876","0.11376108652146799","848"
"21:45:45:454 (H:m:s:ms)","GENERIC","186.899","0.08492956674154807","545"
"21:26:9:696 (H:m:s:ms)","GENERIC","186.95100000000002","0.13732161007836294","342"
"21:45:39:393 (H:m:s:ms)","GENERIC","186.93099999999998","0.09352578639966946","646"
"21:26:4:556 (H:m:s:ms)","OPERA","186.876","0.12512915309848724","444"
"21:45:33:333 (H:m:s:ms)","GENERIC","186.999","0.06779323964961446","666"
"21:12:25:454 (H:m:s:ms)","GENERIC","186.889","0.07223431877701537","545"
"21:26:3:636 (H:m:s:ms)","GENERIC","186.949","0.053422743849104934","363"
"21:45:27:272 (H:m:s:ms)","GENERIC","186.989","0.07207845034033719","727"
"21:12:31:515 (H:m:s:ms)","GENERIC","186.981","0.06988033969117269","484"
"21:25:57:575 (H:m:s:ms)","GENERIC","187.002","0.12400805196480456","424"
"21:45:21:212 (H:m:s:ms)","GENERIC","186.888","0.08403905934289592","787"
"21:12:37:575 (H:m:s:ms)","GENERIC","186.946","0.09343449566521961","424"
"21:12:43:636 (H:m:s:ms)","GENERIC","186.929","0.09267793291889342","363"
"21:12:49:696 (H:m:s:ms)","GENERIC","186.913","0.10046358259978902","342"
"21:12:55:757 (H:m:s:ms)","GENERIC","186.948","0.08735060092965084","242"
"21:13:1:818 (H:m:s:ms)","GENERIC","186.922","0.09231691281133765","181"
"21:13:7:878 (H:m:s:ms)","GENERIC","186.962","0.10084413649227789","1121"
"21:13:13:939 (H:m:s:ms)","GENERIC","186.985","0.06773653587425785","1060"
"21:13:20:0 (H:m:s:ms)","GENERIC","186.94299999999998","0.07811610806267312","1040"
"21:26:27:878 (H:m:s:ms)","GENERIC","187.008","0.1328841048632473","1121"
"21:27:12:911 (H:m:s:ms)","OPERA","186.877","0.10832683435555228","1088"
"21:47:28:484 (H:m:s:ms)","GENERIC","186.937","0.09267793291889342","515"
"21:27:10:303 (H:m:s:ms)","GENERIC","186.883","0.08825811570631506","696"
"21:47:22:424 (H:m:s:ms)","GENERIC","186.957","0.09596041158395588","575"
"21:27:5:316 (H:m:s:ms)","OPERA","186.877","0.12284196748287214","683"
"21:47:16:363 (H:m:s:ms)","GENERIC","186.952","0.09074290986699556","636"
"21:47:10:303 (H:m:s:ms)","GENERIC","186.903","0.07279192980634432","696"
"21:47:4:242 (H:m:s:ms)","GENERIC","186.984","0.0774611602695842","757"
"21:27:4:242 (H:m:s:ms)","GENERIC","186.963","0.1031009574992075","757"
"21:26:58:181 (H:m:s:ms)","GENERIC","186.964","0.1380031846460604","818"
"21:26:57:721 (H:m:s:ms)","OPERA","186.885","0.1206849349817457","278"
"21:46:58:181 (H:m:s:ms)","GENERIC","187.002","0.07248979048728514","818"
"21:26:52:121 (H:m:s:ms)","GENERIC","186.93099999999998","0.1179215699825288","878"
"21:46:52:121 (H:m:s:ms)","GENERIC","186.96699999999998","0.08842918163102192","878"
"21:26:50:126 (H:m:s:ms)","OPERA","186.873","0.1305270224987512","873"
"21:46:46:60 (H:m:s:ms)","GENERIC","186.947","0.07099121177058454","939"
"21:13:26:60 (H:m:s:ms)","GENERIC","186.933","0.10261841925473467","939"
"21:26:46:60 (H:m:s:ms)","GENERIC","186.937","0.12013019133093143","939"
"21:46:40:0 (H:m:s:ms)","GENERIC","186.929","0.07755491149754425","1040"
"21:13:32:121 (H:m:s:ms)","GENERIC","186.90699999999998","0.07273912286374037","878"
"21:26:42:531 (H:m:s:ms)","OPERA","186.872","0.13157236179431497","468"
"21:46:33:939 (H:m:s:ms)","GENERIC","186.893","0.06962516313473947","1060"
"21:13:38:181 (H:m:s:ms)","GENERIC","186.963","0.10040264109218383","818"
"21:26:40:0 (H:m:s:ms)","GENERIC","186.918","0.1140177592926043","1039"
"21:46:27:878 (H:m:s:ms)","GENERIC","187.00900000000001","0.08643038515277741","1121"
"21:13:44:242 (H:m:s:ms)","GENERIC","186.969","0.1031009574992075","757"
"21:13:50:303 (H:m:s:ms)","GENERIC","186.90699999999998","0.09405314283093331","696"
"21:13:56:363 (H:m:s:ms)","GENERIC","186.903","0.07698067494991805","636"
"21:14:2:424 (H:m:s:ms)","GENERIC","186.937","0.08621038714088518","575"
"21:14:8:484 (H:m:s:ms)","GENERIC","186.941","0.07095443694412114","515"
"21:14:14:545 (H:m:s:ms)","GENERIC","186.909","0.08553591846922771","454"
"21:14:20:606 (H:m:s:ms)","GENERIC","186.957","0.09060732792813563","393"
"21:27:50:886 (H:m:s:ms)","OPERA","186.874","0.11893385474197675","1113"
"21:48:35:151 (H:m:s:ms)","GENERIC","186.994","0.08363038345552333","848"
"21:27:46:666 (H:m:s:ms)","GENERIC","186.955","0.12177046512475934","333"
"21:48:29:90 (H:m:s:ms)","GENERIC","186.981","0.08680450942638045","948"
"21:27:43:291 (H:m:s:ms)","OPERA","186.87900000000002","0.11229589248898486","708"
"21:48:23:30 (H:m:s:ms)","GENERIC","186.91899999999998","0.07103864949225898","969"
"21:27:40:606 (H:m:s:ms)","GENERIC","186.995","0.11579628730980782","393"
"21:48:16:969 (H:m:s:ms)","GENERIC","186.95","0.08700424561176924","1030"
"21:48:10:909 (H:m:s:ms)","GENERIC","187.003","0.08515622096639358","1090"
"21:48:4:848 (H:m:s:ms)","GENERIC","186.959","0.06655779079114989","151"
"21:27:35:696 (H:m:s:ms)","OPERA","186.878","0.13732290193239258","303"
"21:27:34:545 (H:m:s:ms)","GENERIC","186.983","0.09087260198800072","454"
"21:27:28:484 (H:m:s:ms)","GENERIC","186.916","0.1212057731807243","515"
"21:47:58:787 (H:m:s:ms)","GENERIC","186.94299999999998","0.08037544689307263","212"
"21:14:26:666 (H:m:s:ms)","GENERIC","186.983","0.08547368332865937","333"
"21:27:28:101 (H:m:s:ms)","OPERA","186.881","0.08459756220310807","898"
"21:47:52:727 (H:m:s:ms)","GENERIC","186.94299999999998","0.09588817273123929","272"
"21:14:32:727 (H:m:s:ms)","GENERIC","186.98","0.09068294778475737","272"
"21:27:22:424 (H:m:s:ms)","GENERIC","186.976","0.12572058651781276","575"
"21:47:46:666 (H:m:s:ms)","GENERIC","186.981","0.10040264109218383","333"
"20:52:19:393 (H:m:s:ms)","GENERIC","186.929","0.07937854067066341","650"
"21:14:38:787 (H:m:s:ms)","GENERIC","187.007","0.08513393078118688","212"
"21:27:20:506 (H:m:s:ms)","OPERA","186.876","0.11837126105551353","493"
"21:47:40:606 (H:m:s:ms)","GENERIC","187.003","0.09352578639966946","393"
"20:52:25:454 (H:m:s:ms)","GENERIC","186.917","0.06403998622235675","545"
"21:14:44:848 (H:m:s:ms)","GENERIC","186.94299999999998","0.09087260198800072","151"
"21:27:16:363 (H:m:s:ms)","GENERIC","186.962","0.10686986241958772","636"
"21:47:34:545 (H:m:s:ms)","GENERIC","186.961","0.08441367937390103","455"
"20:52:31:515 (H:m:s:ms)","GENERIC","186.957","0.08545018876917974","484"
"21:14:50:909 (H:m:s:ms)","GENERIC","186.957","0.08934972476706947","1090"
"20:52:37:575 (H:m:s:ms)","GENERIC","186.973","0.08766920130514519","424"
"21:14:56:969 (H:m:s:ms)","GENERIC","186.96699999999998","0.0599396437310613","1030"
"20:52:43:636 (H:m:s:ms)","GENERIC","186.923","0.09253981003558702","363"
"21:15:3:30 (H:m:s:ms)","GENERIC","186.911","0.08015059506146369","969"
"20:52:49:696 (H:m:s:ms)","GENERIC","186.951","0.07950585609203821","348"
"21:15:9:90 (H:m:s:ms)","GENERIC","186.935","0.10156940233310761","946"
"20:52:55:757 (H:m:s:ms)","GENERIC","186.957","0.09217536286894082","242"
"21:15:15:151 (H:m:s:ms)","GENERIC","187.03300000000002","0.08490819318723561","848"
"20:53:1:818 (H:m:s:ms)","GENERIC","186.913","0.07752224109942492","181"
"21:15:21:212 (H:m:s:ms)","GENERIC","186.91899999999998","0.08108627435906911","787"
"20:53:7:878 (H:m:s:ms)","GENERIC","186.962","0.09583273985285407","1121"
"20:53:13:939 (H:m:s:ms)","GENERIC","186.975","0.07817067187736089","1061"
"21:28:28:860 (H:m:s:ms)","OPERA","186.873","0.11916282688799615","139"
"21:49:41:818 (H:m:s:ms)","GENERIC","187.039","0.08834372043567487","181"
"21:28:23:30 (H:m:s:ms)","GENERIC","186.941","0.12460752680733182","969"
"21:49:35:757 (H:m:s:ms)","GENERIC","186.96699999999998","0.07771424935708346","242"
"21:28:21:265 (H:m:s:ms)","OPERA","186.878","0.1296221878425801","734"
"21:49:29:696 (H:m:s:ms)","GENERIC","186.939","0.08831950114760555","342"
"21:28:16:969 (H:m:s:ms)","GENERIC","186.945","0.12107696203073952","1030"
"21:49:23:636 (H:m:s:ms)","GENERIC","186.892","0.09206365148564774","363"
"21:28:13:670 (H:m:s:ms)","OPERA","186.877","0.12029156971221633","329"
"21:49:17:575 (H:m:s:ms)","GENERIC","186.939","0.0778014871783161","424"
"21:49:11:515 (H:m:s:ms)","GENERIC","186.93200000000002","0.09630349839116696","484"
"21:49:5:454 (H:m:s:ms)","GENERIC","186.934","0.09569648015781235","545"
"21:28:10:909 (H:m:s:ms)","GENERIC","186.969","0.12515147161380488","1090"
"21:15:27:272 (H:m:s:ms)","GENERIC","186.964","0.08622259481337302","727"
"21:28:6:75 (H:m:s:ms)","OPERA","186.874","0.12443735376627187","924"
"21:15:33:333 (H:m:s:ms)","GENERIC","186.957","0.08157227935827918","666"
"21:28:4:848 (H:m:s:ms)","GENERIC","186.941","0.07811610806267312","151"
"21:48:59:393 (H:m:s:ms)","GENERIC","186.911","0.07771424935708346","646"
"20:53:20:0 (H:m:s:ms)","GENERIC","186.94299999999998","0.08402891101485631","1046"
"21:15:39:393 (H:m:s:ms)","GENERIC","186.941","0.07841124340929104","644"
"21:27:58:787 (H:m:s:ms)","GENERIC","186.91500000000002","0.12819671045427947","212"
"21:48:53:333 (H:m:s:ms)","GENERIC","186.945","0.07698067494991805","666"
"20:53:26:60 (H:m:s:ms)","GENERIC","186.933","0.0915011860731841","939"
"21:15:45:454 (H:m:s:ms)","GENERIC","186.915","0.06710044879795764","545"
"21:27:58:481 (H:m:s:ms)","OPERA","186.879","0.09257879501834052","518"
"21:48:47:272 (H:m:s:ms)","GENERIC","186.903","0.07937854067066341","727"
"20:53:32:121 (H:m:s:ms)","GENERIC","186.917","0.09352578639966946","878"
"21:15:51:515 (H:m:s:ms)","GENERIC","186.934","0.08517358265386277","484"
"21:27:52:727 (H:m:s:ms)","GENERIC","186.947","0.12887453019750472","272"
"21:48:41:212 (H:m:s:ms)","GENERIC","186.885","0.1017025782427392","788"
"20:53:38:181 (H:m:s:ms)","GENERIC","186.94299999999998","0.09487294376260777","818"
"21:15:57:575 (H:m:s:ms)","GENERIC","187.001","0.07771424935708346","424"
"20:53:44:242 (H:m:s:ms)","GENERIC","186.985","0.08831950114760555","757"
"21:16:3:636 (H:m:s:ms)","GENERIC","186.942","0.08409760396203447","364"
"20:53:50:303 (H:m:s:ms)","GENERIC","186.911","0.0953890839197984","696"
"21:16:9:696 (H:m:s:ms)","GENERIC","186.963","0.08528899489041976","339"
"20:53:56:363 (H:m:s:ms)","GENERIC","186.921","0.09084593245481072","636"
"21:16:15:757 (H:m:s:ms)","GENERIC","186.913","0.09139020311482433","242"
"20:54:2:424 (H:m:s:ms)","GENERIC","186.971","0.0752871871837397","575"
"21:16:21:818 (H:m:s:ms)","GENERIC","186.915","0.07937854067066341","181"
"20:54:8:484 (H:m:s:ms)","GENERIC","186.975","0.06873924611303243","515"
"20:54:14:545 (H:m:s:ms)","GENERIC","186.905","0.07036352309973107","454"
"21:29:5:454 (H:m:s:ms)","GENERIC","186.917","0.07937854067066341","545"
"21:28:59:393 (H:m:s:ms)","GENERIC","186.93200000000002","0.10993167213401221","643"
"24:8:25:263 (H:m:s:ms)","AMBULANCE","186.93099999999998","0.07811610806267312","736"
"21:28:59:240 (H:m:s:ms)","OPERA","186.877","0.07025390499721645","796"
"23:38:25:263 (H:m:s:ms)","AMBULANCE","186.887","0.08400881175268815","736"
"21:28:53:333 (H:m:s:ms)","GENERIC","186.964","0.11725390814519276","666"
"23:8:25:263 (H:m:s:ms)","AMBULANCE","186.901","0.08456009414128386","736"
"21:28:51:645 (H:m:s:ms)","OPERA","186.877","0.10285886067264581","354"
"22:38:25:263 (H:m:s:ms)","AMBULANCE","186.897","0.06422478325207866","736"
"21:28:47:272 (H:m:s:ms)","GENERIC","186.911","0.11091352649852748","727"
"22:8:25:263 (H:m:s:ms)","AMBULANCE","155.906","0.07777790263494985","736"
"22:5:47:368 (H:m:s:ms)","AMBULANCE","186.93099999999998","0.07834363326189196","631"
"22:0:0:0 (H:m:s:ms)","AMBULANCE","186.959","0.10152741446233077","1084"
"21:16:27:878 (H:m:s:ms)","GENERIC","186.995","0.07213758109587019","1121"
"21:16:33:939 (H:m:s:ms)","GENERIC","186.917","0.1017025782427392","1061"
"21:28:44:50 (H:m:s:ms)","OPERA","186.879","0.13205136765263698","949"
"20:54:20:606 (H:m:s:ms)","GENERIC","186.949","0.07872612863834401","393"
"21:16:40:0 (H:m:s:ms)","GENERIC","186.915","0.08934972476706947","1037"
"21:28:41:212 (H:m:s:ms)","GENERIC","186.886","0.141255307497186","787"
"20:54:26:666 (H:m:s:ms)","GENERIC","186.977","0.08413938425875427","333"
"21:16:46:60 (H:m:s:ms)","GENERIC","186.951","0.07872612863834401","939"
"21:28:36:455 (H:m:s:ms)","OPERA","186.878","0.1286150122648275","544"
"21:50:0:0 (H:m:s:ms)","GENERIC","186.917","0.08511108576050366","1039"
"20:54:32:727 (H:m:s:ms)","GENERIC","186.972","0.08365469327235857","272"
"21:16:52:121 (H:m:s:ms)","GENERIC","186.92000000000002","0.08852454274787204","878"
"21:28:35:151 (H:m:s:ms)","GENERIC","186.993","0.07273912286374037","848"
"21:49:53:939 (H:m:s:ms)","GENERIC","186.933","0.0920075873060676","1060"
"20:54:38:787 (H:m:s:ms)","GENERIC","187.013","0.07098272961176369","212"
"21:16:58:181 (H:m:s:ms)","GENERIC","186.961","0.07641253121786944","818"
"21:28:29:90 (H:m:s:ms)","GENERIC","186.99099999999999","0.12469170102173247","947"
"21:49:47:878 (H:m:s:ms)","GENERIC","186.915","0.08171897796879507","1121"
"20:54:44:848 (H:m:s:ms)","GENERIC","186.913","0.0797950394959293","152"
"21:17:4:242 (H:m:s:ms)","GENERIC","186.945","0.0923810722731668","757"
"20:54:50:909 (H:m:s:ms)","GENERIC","186.942","0.09386054594446583","1090"
"21:17:10:303 (H:m:s:ms)","GENERIC","186.883","0.07279192980634432","696"
"20:54:56:969 (H:m:s:ms)","GENERIC","186.949","0.05568859227329028","1030"
"21:17:16:363 (H:m:s:ms)","GENERIC","186.959","0.09234726800294599","636"
"20:55:3:30 (H:m:s:ms)","GENERIC","186.923","0.0797950394959293","969"
"21:17:22:424 (H:m:s:ms)","GENERIC","186.965","0.09254096743474771","575"
"20:55:9:90 (H:m:s:ms)","GENERIC","186.971","0.0955396952469541","957"
"20:55:15:151 (H:m:s:ms)","GENERIC","187.027","0.09290522024663218","849"
"21:29:41:818 (H:m:s:ms)","GENERIC","186.99099999999999","0.12889046206088323","181"
"21:29:37:215 (H:m:s:ms)","OPERA","186.872","0.12306833495313782","784"
"21:29:35:757 (H:m:s:ms)","GENERIC","186.973","0.061860030385064615","242"
"21:29:29:696 (H:m:s:ms)","GENERIC","186.962","0.11258478519447211","345"
"21:29:29:620 (H:m:s:ms)","OPERA","186.881","0.07877492228067591","421"
"21:29:23:636 (H:m:s:ms)","GENERIC","186.933","0.12274482478470974","363"
"21:29:22:25 (H:m:s:ms)","OPERA","186.878","0.12396807345910356","974"
"21:17:28:484 (H:m:s:ms)","GENERIC","186.913","0.0701097905676104","515"
"21:17:34:545 (H:m:s:ms)","GENERIC","186.975","0.07025390499721645","455"
"20:55:21:212 (H:m:s:ms)","GENERIC","186.939","0.08549098372593997","787"
"21:17:40:606 (H:m:s:ms)","GENERIC","186.97899999999998","0.08570384696848149","393"
"20:55:27:272 (H:m:s:ms)","GENERIC","186.943","0.09102707570665385","727"
"21:17:46:666 (H:m:s:ms)","GENERIC","186.951","0.09349172802648963","333"
"21:29:17:575 (H:m:s:ms)","GENERIC","186.924","0.11894740470833051","424"
"20:55:33:333 (H:m:s:ms)","GENERIC","186.95499999999998","0.09234726800294599","666"
"21:17:52:727 (H:m:s:ms)","GENERIC","186.935","0.09588817273123929","272"
"21:29:14:430 (H:m:s:ms)","OPERA","186.877","0.1206795168201843","570"
"20:55:39:393 (H:m:s:ms)","GENERIC","186.965","0.07232497174060322","652"
"21:17:58:787 (H:m:s:ms)","GENERIC","186.90699999999998","0.06753521672787301","212"
"21:29:11:515 (H:m:s:ms)","GENERIC","186.937","0.1257699504661529","484"
"20:55:45:454 (H:m:s:ms)","GENERIC","186.953","0.09299889532844265","545"
"21:18:4:848 (H:m:s:ms)","GENERIC","186.936","0.08378423031623074","151"
"21:29:6:835 (H:m:s:ms)","OPERA","186.876","0.1257699504661529","164"
"20:55:51:515 (H:m:s:ms)","GENERIC","186.94299999999998","0.07952892820724942","484"
"21:18:10:909 (H:m:s:ms)","GENERIC","186.95600000000002","0.09810805744506067","1090"
"20:55:57:575 (H:m:s:ms)","GENERIC","187.016","0.0702424963011394","424"
"21:18:16:969 (H:m:s:ms)","GENERIC","186.929","0.08360320475242163","1030"
"20:56:3:636 (H:m:s:ms)","GENERIC","186.923","0.08939271987078426","363"
"21:18:23:30 (H:m:s:ms)","GENERIC","186.957","0.09534879276169628","970"
"20:56:9:696 (H:m:s:ms)","GENERIC","187.0","0.07863176705143474","348"
"20:56:15:757 (H:m:s:ms)","GENERIC","186.927","0.07641253121786944","242"
"21:30:18:181 (H:m:s:ms)","GENERIC","186.909","0.0689949367712717","819"
"21:30:12:121 (H:m:s:ms)","GENERIC","186.96699999999998","0.06462956353441404","878"
"21:30:6:60 (H:m:s:ms)","GENERIC","186.905","0.06219347520053411","939"
"21:30:0:0 (H:m:s:ms)","AMBULANCE","186.928","0.14912664384352842","1039"
"21:30:0:0 (H:m:s:ms)","GENERIC","186.92","0.11390383856133306","1039"
"21:30:0:0 (H:m:s:ms)","GENERIC","186.93099999999998","0.07358232000646024","1039"
"21:30:0:0 (H:m:s:ms)","OPERA","186.881","0.18371876630262762","1039"
"21:29:53:939 (H:m:s:ms)","GENERIC","186.915","0.13263883460325276","1060"
"21:18:29:90 (H:m:s:ms)","GENERIC","186.973","0.08678137516584467","950"
"21:18:35:151 (H:m:s:ms)","GENERIC","186.987","0.09060732792813563","848"
"20:56:21:818 (H:m:s:ms)","GENERIC","186.937","0.0785393019322936","181"
"21:18:41:212 (H:m:s:ms)","GENERIC","186.917","0.0778014871783161","787"
"20:56:27:878 (H:m:s:ms)","GENERIC","186.953","0.08547368332865937","1121"
"21:18:47:272 (H:m:s:ms)","GENERIC","186.911","0.09596041158395588","728"
"20:40:0:0 (H:m:s:ms)","OPERA","155.875","0.09534879276169628","1118"
"20:56:33:939 (H:m:s:ms)","GENERIC","186.947","0.07120665295092653","1061"
"21:18:53:333 (H:m:s:ms)","GENERIC","186.959","0.09352578639966946","666"
"20:40:0:0 (H:m:s:ms)","GENERIC","186.923","0.1328175709855846","1118"
"20:56:40:0 (H:m:s:ms)","GENERIC","186.917","0.09185856612265733","1045"
"21:18:59:393 (H:m:s:ms)","GENERIC","186.935","0.08492956674154807","643"
"21:29:52:405 (H:m:s:ms)","OPERA","186.877","0.12416343235236495","594"
"20:40:0:0 (H:m:s:ms)","GENERIC","186.975","0.16290192686081278","1118"
"20:56:46:60 (H:m:s:ms)","GENERIC","186.955","0.09231218290466862","940"
"21:19:5:454 (H:m:s:ms)","GENERIC","186.917","0.07877492228067591","545"
"21:29:47:878 (H:m:s:ms)","GENERIC","186.939","0.1324531895196723","1121"
"20:40:6:60 (H:m:s:ms)","GENERIC","186.947","0.057621819855410934","939"
"20:56:52:121 (H:m:s:ms)","GENERIC","186.941","0.07872612863834401","878"
"21:19:11:515 (H:m:s:ms)","GENERIC","186.914","0.09158949829749241","484"
"21:29:44:810 (H:m:s:ms)","OPERA","186.871","0.1281954976839514","189"
"20:40:7:594 (H:m:s:ms)","OPERA","155.872","0.11061286235538587","405"
"20:56:58:181 (H:m:s:ms)","GENERIC","186.968","0.09714710523195018","818"
"21:19:17:575 (H:m:s:ms)","GENERIC","186.941","0.0896820469913312","424"
"20:40:12:121 (H:m:s:ms)","GENERIC","186.928","0.11995761745618465","878"
"20:57:4:242 (H:m:s:ms)","GENERIC","186.935","0.06937026268374018","758"
"21:19:23:636 (H:m:s:ms)","GENERIC","186.929","0.08511108576050366","363"
"20:40:15:189 (H:m:s:ms)","OPERA","155.873","0.12359821221183095","810"
"20:57:10:303 (H:m:s:ms)","GENERIC","186.893","0.0895534164770894","696"
"20:40:18:181 (H:m:s:ms)","GENERIC","186.972","0.12479480024010489","818"
"20:57:16:363 (H:m:s:ms)","GENERIC","186.939","0.10109626029650447","636"
"20:40:24:242 (H:m:s:ms)","GENERIC","186.96699999999998","0.06468470858796799","757"
"20:40:30:303 (H:m:s:ms)","GENERIC","186.952","0.08449586996111515","696"
"21:30:31:578 (H:m:s:ms)","AMBULANCE","186.995","0.13648356351902557","421"
"21:31:12:727 (H:m:s:ms)","GENERIC","186.975","0.07096885880814094","272"
"21:31:6:666 (H:m:s:ms)","GENERIC","187.005","0.13531399712859782","333"
"21:31:3:157 (H:m:s:ms)","AMBULANCE","186.94299999999998","0.11995788130212746","842"
"21:31:0:606 (H:m:s:ms)","GENERIC","186.881","0.07181562948909935","393"
"21:30:54:545 (H:m:s:ms)","GENERIC","186.993","0.07914606079606136","454"
"21:30:48:484 (H:m:s:ms)","GENERIC","186.935","0.08492956674154807","515"
"21:30:42:424 (H:m:s:ms)","GENERIC","186.935","0.07273912286374037","575"
"21:19:29:696 (H:m:s:ms)","GENERIC","186.945","0.09058516486267061","339"
"21:30:36:363 (H:m:s:ms)","GENERIC","186.935","0.12172201537010564","636"
"21:19:35:757 (H:m:s:ms)","GENERIC","186.989","0.09058516486267061","242"
"20:57:22:424 (H:m:s:ms)","GENERIC","186.937","0.08532489675411141","575"
"21:19:41:818 (H:m:s:ms)","GENERIC","186.97899999999998","0.07950585609203821","181"
"20:57:28:484 (H:m:s:ms)","GENERIC","186.925","0.0965282696386843","515"
"21:19:47:878 (H:m:s:ms)","GENERIC","186.939","0.07536603487430112","1121"
"20:40:30:379 (H:m:s:ms)","OPERA","155.86599999999999","0.1275023078274306","620"
"20:57:34:545 (H:m:s:ms)","GENERIC","186.995","0.08365969867567748","455"
"21:19:53:939 (H:m:s:ms)","GENERIC","186.921","0.0770305742266691","1061"
"20:40:36:363 (H:m:s:ms)","GENERIC","186.982","0.09934945379987598","636"
"20:57:40:606 (H:m:s:ms)","GENERIC","186.961","0.09489068917702008","393"
"21:20:0:0 (H:m:s:ms)","OPERA","186.873","0.16657235421839753","1115"
"20:40:37:974 (H:m:s:ms)","OPERA","155.873","0.13306182827654303","1025"
"20:57:46:666 (H:m:s:ms)","GENERIC","186.91899999999998","0.06751171950376202","333"
"21:20:0:0 (H:m:s:ms)","GENERIC","186.94299999999998","0.0895534164770894","1115"
"20:40:42:424 (H:m:s:ms)","GENERIC","186.926","0.12139781214040882","576"
"20:57:52:727 (H:m:s:ms)","GENERIC","186.905","0.08842918163102192","272"
"21:20:0:0 (H:m:s:ms)","GENERIC","186.94","0.1207330926870643","1115"
"21:30:30:303 (H:m:s:ms)","GENERIC","186.973","0.09534879276169628","696"
"20:40:45:569 (H:m:s:ms)","OPERA","155.86599999999999","0.1357018496148153","430"
"20:57:58:787 (H:m:s:ms)","GENERIC","186.911","0.08528617258933494","212"
"21:20:6:60 (H:m:s:ms)","GENERIC","186.897","0.05660902181497283","939"
"21:30:24:242 (H:m:s:ms)","GENERIC","186.951","0.09267793291889342","757"
"20:40:48:484 (H:m:s:ms)","GENERIC","186.92000000000002","0.1261388254011896","515"
"20:58:4:848 (H:m:s:ms)","GENERIC","186.941","0.08452842803702273","152"
"21:20:7:594 (H:m:s:ms)","OPERA","186.875","0.11458370708855953","405"
"20:40:53:164 (H:m:s:ms)","OPERA","155.868","0.12422170674654134","835"
"20:58:10:909 (H:m:s:ms)","GENERIC","186.949","0.06873924611303243","1090"
"20:40:54:545 (H:m:s:ms)","GENERIC","186.935","0.12692048713902526","454"
"20:58:16:969 (H:m:s:ms)","GENERIC","186.939","0.06036244135430531","1030"
"20:41:0:606 (H:m:s:ms)","GENERIC","186.935","0.08459756220310807","393"
"20:41:0:759 (H:m:s:ms)","OPERA","155.865","0.12877398797621695","240"
"21:31:30:909 (H:m:s:ms)","GENERIC","186.90699999999998","0.07950585609203821","1090"
"21:31:24:848 (H:m:s:ms)","GENERIC","186.906","0.07020875091280859","151"
"21:32:7:272 (H:m:s:ms)","GENERIC","186.914","0.11813758894227774","727"
"21:32:6:315 (H:m:s:ms)","AMBULANCE","186.977","0.1231715472584972","684"
"21:32:1:212 (H:m:s:ms)","GENERIC","186.987","0.08285843158290168","787"
"21:31:55:151 (H:m:s:ms)","GENERIC","186.951","0.09290522024663218","848"
"21:31:49:90 (H:m:s:ms)","GENERIC","186.901","0.07641253121786944","946"
"21:31:43:30 (H:m:s:ms)","GENERIC","186.923","0.0865819882632228","969"
"21:31:36:969 (H:m:s:ms)","GENERIC","186.887","0.1180056777788469","1030"
"21:31:34:736 (H:m:s:ms)","AMBULANCE","186.983","0.11793999228440284","264"
"20:58:23:30 (H:m:s:ms)","GENERIC","186.971","0.09407448887692897","969"
"20:58:29:90 (H:m:s:ms)","GENERIC","186.959","0.08623082621569665","954"
"20:41:6:666 (H:m:s:ms)","GENERIC","186.965","0.08678137516584467","333"
"20:58:35:151 (H:m:s:ms)","GENERIC","186.96","0.09633752724154387","848"
"20:41:8:354 (H:m:s:ms)","OPERA","155.87","0.1308060198618666","645"
"20:58:41:212 (H:m:s:ms)","GENERIC","186.941","0.0847501349383314","787"
"20:41:12:727 (H:m:s:ms)","GENERIC","186.947","0.12064118423456893","272"
"20:58:47:272 (H:m:s:ms)","GENERIC","186.899","0.10250191348238741","727"
"20:41:15:949 (H:m:s:ms)","OPERA","155.865","0.14136307810935445","1050"
"20:58:53:333 (H:m:s:ms)","GENERIC","186.957","0.06268821857306359","666"
"20:41:18:787 (H:m:s:ms)","GENERIC","186.923","0.13813200925798633","212"
"20:58:59:393 (H:m:s:ms)","GENERIC","186.953","0.06937026268374018","652"
"20:41:23:544 (H:m:s:ms)","OPERA","155.875","0.1258887866786201","455"
"20:59:5:454 (H:m:s:ms)","GENERIC","186.901","0.07866659677795264","545"
"21:31:18:787 (H:m:s:ms)","GENERIC","186.957","0.08787940457620629","212"
"20:41:24:848 (H:m:s:ms)","GENERIC","186.935","0.12345630601771156","151"
"20:59:11:515 (H:m:s:ms)","GENERIC","186.905","0.08558197656156875","484"
"20:41:30:909 (H:m:s:ms)","GENERIC","186.961","0.08992509496561092","1090"
"20:59:17:575 (H:m:s:ms)","GENERIC","186.951","0.08549098372593997","424"
"20:41:31:139 (H:m:s:ms)","OPERA","155.872","0.13195284484046108","860"
"20:41:36:969 (H:m:s:ms)","GENERIC","186.941","0.07871811259549764","1030"
"20:59:23:636 (H:m:s:ms)","GENERIC","186.899","0.07798115096960721","363"
"20:59:29:696 (H:m:s:ms)","GENERIC","186.923","0.07578248664932928","348"
"20:41:38:734 (H:m:s:ms)","OPERA","155.87","0.11605156327475454","265"
"20:59:35:757 (H:m:s:ms)","GENERIC","186.983","0.08459756220310807","242"
"20:41:43:30 (H:m:s:ms)","GENERIC","186.93200000000002","0.12081118513424403","969"
"20:59:41:818 (H:m:s:ms)","GENERIC","186.949","0.06108180062603961","181"
"20:41:46:329 (H:m:s:ms)","OPERA","155.868","0.12964102897335103","670"
"20:59:47:878 (H:m:s:ms)","GENERIC","186.959","0.09386920310897347","1121"
"20:41:49:90 (H:m:s:ms)","GENERIC","186.916","0.12294445935903837","948"
"20:59:53:939 (H:m:s:ms)","GENERIC","186.893","0.09207592599811347","1060"
"20:41:55:151 (H:m:s:ms)","GENERIC","186.975","0.07872612863834401","848"
"21:0:0:0 (H:m:s:ms)","AMBULANCE","155.909","0.08490819318723561","1121"
"20:42:1:212 (H:m:s:ms)","GENERIC","186.997","0.08532489675411141","787"
"21:0:0:0 (H:m:s:ms)","GENERIC","186.924","0.13532031010791543","1121"
"20:42:1:518 (H:m:s:ms)","OPERA","155.864","0.13028305633776052","481"
"21:0:0:0 (H:m:s:ms)","GENERIC","186.937","0.16246976466357005","1121"
"20:42:7:272 (H:m:s:ms)","GENERIC","186.895","0.08303449683388343","727"
"21:0:6:60 (H:m:s:ms)","GENERIC","186.929","0.09003749851310767","939"
"20:42:9:113 (H:m:s:ms)","OPERA","155.865","0.13505231137650997","932"
"20:42:13:333 (H:m:s:ms)","GENERIC","186.986","0.12132689901479718","666"
"21:0:12:121 (H:m:s:ms)","GENERIC","186.953","0.07491185101220796","878"
"21:0:18:181 (H:m:s:ms)","GENERIC","186.924","0.0764787392628975","818"
"20:42:16:708 (H:m:s:ms)","OPERA","155.868","0.11957617528094269","291"
"21:0:24:242 (H:m:s:ms)","GENERIC","186.957","0.08236754959240451","757"
"20:42:19:393 (H:m:s:ms)","GENERIC","186.91","0.12673394693040607","646"
"21:0:30:303 (H:m:s:ms)","GENERIC","186.918","0.08065917263257837","696"
"20:20:0:0 (H:m:s:ms)","GENERIC","186.911","0.08585420205641978","1111"
"20:42:24:303 (H:m:s:ms)","OPERA","155.872","0.13628443458966116","696"
"21:0:31:578 (H:m:s:ms)","AMBULANCE","155.896","0.13503979620064746","421"
"20:20:0:0 (H:m:s:ms)","GENERIC","186.939","0.1134388222892702","1111"
"20:42:25:454 (H:m:s:ms)","GENERIC","186.937","0.12905128161115823","545"
"21:0:36:363 (H:m:s:ms)","GENERIC","187.002","0.13376369515058595","636"
"20:20:6:60 (H:m:s:ms)","GENERIC","186.917","0.06403998622235675","939"
"20:42:31:515 (H:m:s:ms)","GENERIC","186.965","0.09402214863946988","484"
"21:0:42:424 (H:m:s:ms)","GENERIC","186.924","0.06981066239317084","575"
"20:20:12:121 (H:m:s:ms)","GENERIC","186.93099999999998","0.06773653587425785","878"
"20:42:31:898 (H:m:s:ms)","OPERA","155.87099999999998","0.13578961302809944","101"
"21:0:48:484 (H:m:s:ms)","GENERIC","186.92000000000002","0.088174381329738","515"
"20:20:18:181 (H:m:s:ms)","GENERIC","186.981","0.07736614603526022","818"
"20:42:37:575 (H:m:s:ms)","GENERIC","186.961","0.07937594110498344","424"
"21:0:54:545 (H:m:s:ms)","GENERIC","186.952","0.09546228026851544","454"
"20:20:24:242 (H:m:s:ms)","GENERIC","186.995","0.07939272557859492","757"
"20:42:39:493 (H:m:s:ms)","OPERA","155.864","0.11729102380520515","546"
"21:1:0:606 (H:m:s:ms)","GENERIC","186.903","0.07273912286374037","393"
"20:20:30:303 (H:m:s:ms)","GENERIC","186.99099999999999","0.09791474313452826","696"
"20:42:43:636 (H:m:s:ms)","GENERIC","186.919","0.1315655943791351","363"
"20:20:36:363 (H:m:s:ms)","GENERIC","186.963","0.07203758674375658","636"
"20:42:49:696 (H:m:s:ms)","GENERIC","186.973","0.09060732792813563","343"
"20:20:42:424 (H:m:s:ms)","GENERIC","186.939","0.07773694505184937","575"
"20:20:48:484 (H:m:s:ms)","GENERIC","186.937","0.08791457354440498","515"
"21:1:3:157 (H:m:s:ms)","AMBULANCE","155.893","0.11412223151543573","842"
"21:1:6:666 (H:m:s:ms)","GENERIC","186.959","0.10854333810151523","333"
"20:42:54:683 (H:m:s:ms)","OPERA","155.874","0.13034038621255373","316"
"21:1:12:727 (H:m:s:ms)","GENERIC","186.937","0.09318364199651175","272"
"20:42:55:757 (H:m:s:ms)","GENERIC","186.948","0.13530701280395982","242"
"21:1:18:787 (H:m:s:ms)","GENERIC","186.933","0.07992978564602855","212"
"20:20:54:545 (H:m:s:ms)","GENERIC","186.941","0.06219347520053411","455"
"20:43:1:818 (H:m:s:ms)","GENERIC","186.912","0.0792393448068823","181"
"21:1:24:848 (H:m:s:ms)","GENERIC","186.923","0.08881270362076138","151"
"20:21:0:606 (H:m:s:ms)","GENERIC","186.958","0.09663681687573544","394"
"20:43:2:278 (H:m:s:ms)","OPERA","155.869","0.12112996722774837","721"
"21:1:30:909 (H:m:s:ms)","GENERIC","186.937","0.07635671106211343","1090"
"20:21:6:666 (H:m:s:ms)","GENERIC","186.969","0.07635671106211343","333"
"20:43:7:878 (H:m:s:ms)","GENERIC","186.97899999999998","0.06655779079114989","1121"
"21:1:34:736 (H:m:s:ms)","AMBULANCE","155.91","0.12864254745671613","263"
"20:21:12:727 (H:m:s:ms)","GENERIC","186.975","0.09138070523828307","272"
"20:43:9:873 (H:m:s:ms)","OPERA","155.873","0.10641968949392813","167"
"21:1:36:969 (H:m:s:ms)","GENERIC","186.936","0.1272634392176719","1030"
"20:21:18:787 (H:m:s:ms)","GENERIC","186.893","0.09144980307761218","212"
"20:43:13:939 (H:m:s:ms)","GENERIC","186.972","0.12526781423572747","1062"
"21:1:43:30 (H:m:s:ms)","GENERIC","186.927","0.07098272961176369","969"
"20:21:24:848 (H:m:s:ms)","GENERIC","186.917","0.08670843900942016","152"
"20:43:17:468 (H:m:s:ms)","OPERA","155.871","0.13512281687413322","531"
"21:1:49:90 (H:m:s:ms)","GENERIC","186.921","0.07919138595737178","951"
"20:21:30:909 (H:m:s:ms)","GENERIC","186.929","0.07664855373546989","1090"
"20:43:20:0 (H:m:s:ms)","GENERIC","186.948","0.13596808791547343","1040"
"20:21:36:969 (H:m:s:ms)","GENERIC","186.957","0.05492920358695746","1031"
"20:43:25:63 (H:m:s:ms)","OPERA","155.875","0.12834214238193498","936"
"20:21:43:30 (H:m:s:ms)","GENERIC","186.94299999999998","0.07843684640569494","969"
"20:21:49:90 (H:m:s:ms)","GENERIC","186.878","0.08097225261910711","947"
"20:43:26:60 (H:m:s:ms)","GENERIC","186.935","0.10761149677066177","939"
"20:43:32:121 (H:m:s:ms)","GENERIC","186.92000000000002","0.06904287018678705","878"
"20:21:55:151 (H:m:s:ms)","GENERIC","186.973","0.09764139794455262","848"
"20:43:32:658 (H:m:s:ms)","OPERA","155.869","0.1285856657246068","341"
"20:22:1:212 (H:m:s:ms)","GENERIC","187.013","0.07843684640569494","787"
"20:43:38:181 (H:m:s:ms)","GENERIC","186.925","0.0863762825875699","818"
"20:22:7:272 (H:m:s:ms)","GENERIC","186.901","0.06912118123846141","728"
"20:43:40:253 (H:m:s:ms)","OPERA","155.872","0.12990953372678257","746"
"20:22:13:333 (H:m:s:ms)","GENERIC","187.001","0.08643038515277741","666"
"20:43:44:242 (H:m:s:ms)","GENERIC","186.965","0.12879168584715478","758"
"20:22:19:393 (H:m:s:ms)","GENERIC","186.921","0.06962516313473947","644"
"20:43:47:848 (H:m:s:ms)","OPERA","155.875","0.14112384547525847","151"
"20:22:25:454 (H:m:s:ms)","GENERIC","186.913","0.08711571737313704","545"
"20:43:50:303 (H:m:s:ms)","GENERIC","186.921","0.14007787477048478","696"
"20:22:31:515 (H:m:s:ms)","GENERIC","186.953","0.06253166443071682","484"
"20:43:55:443 (H:m:s:ms)","OPERA","155.873","0.12820386591041283","556"
"20:22:37:575 (H:m:s:ms)","GENERIC","186.927","0.06968637560124562","424"
"20:43:56:363 (H:m:s:ms)","GENERIC","186.917","0.12087823861525818","636"
"20:22:43:636 (H:m:s:ms)","GENERIC","186.893","0.09239342785342866","363"
"20:22:49:696 (H:m:s:ms)","GENERIC","186.962","0.07170552761684527","340"
"20:44:2:424 (H:m:s:ms)","GENERIC","186.985","0.09126129853369143","575"
"20:44:3:37 (H:m:s:ms)","OPERA","155.87","0.12982120848492348","962"
"20:22:55:757 (H:m:s:ms)","GENERIC","186.91899999999998","0.08015059506146369","242"
"20:44:8:484 (H:m:s:ms)","GENERIC","186.977","0.12112506649926043","515"
"20:23:1:818 (H:m:s:ms)","GENERIC","186.91899999999998","0.07099121177058454","181"
"20:44:10:632 (H:m:s:ms)","OPERA","155.87","0.12919997452408669","367"
"20:23:7:878 (H:m:s:ms)","GENERIC","186.942","0.08502941735163408","1121"
"20:44:14:545 (H:m:s:ms)","GENERIC","186.909","0.12646486606863155","454"
"20:23:13:939 (H:m:s:ms)","GENERIC","186.975","0.09170739737480603","1061"
"20:44:18:227 (H:m:s:ms)","OPERA","155.872","0.11564478834735761","772"
"20:23:20:0 (H:m:s:ms)","GENERIC","186.973","0.08497975588224446","1038"
"20:44:20:606 (H:m:s:ms)","GENERIC","186.947","0.11517818414747616","393"
"20:23:26:60 (H:m:s:ms)","GENERIC","186.936","0.07541282728932681","939"
"20:44:25:822 (H:m:s:ms)","OPERA","155.87800000000001","0.1215178207501519","178"
"20:23:32:121 (H:m:s:ms)","GENERIC","186.945","0.09197020921558399","879"
"20:44:26:666 (H:m:s:ms)","GENERIC","186.966","0.12159537561362058","333"
"20:23:38:181 (H:m:s:ms)","GENERIC","186.881","0.08475740947919859","819"
"20:44:32:727 (H:m:s:ms)","GENERIC","186.977","0.06988033969117269","272"
"20:23:44:242 (H:m:s:ms)","GENERIC","186.93099999999998","0.07358232000646024","757"
"20:23:50:303 (H:m:s:ms)","GENERIC","186.89600000000002","0.09163491088166235","697"
"20:44:33:417 (H:m:s:ms)","OPERA","155.871","0.12278840459696136","582"
"20:44:38:787 (H:m:s:ms)","GENERIC","187.023","0.1268100285330062","212"
"20:23:56:363 (H:m:s:ms)","GENERIC","186.90699999999998","0.09043475132307753","636"
"20:44:41:12 (H:m:s:ms)","OPERA","155.868","0.12875991856316404","987"
"20:24:2:424 (H:m:s:ms)","GENERIC","186.977","0.07767979259989233","575"
"20:44:44:848 (H:m:s:ms)","GENERIC","186.921","0.13501568536049663","152"
"20:24:8:484 (H:m:s:ms)","GENERIC","186.971","0.09534879276169628","515"
"20:44:48:607 (H:m:s:ms)","OPERA","155.871","0.1320528385214631","392"
"20:24:14:545 (H:m:s:ms)","GENERIC","186.912","0.08043406380739622","454"
"20:44:50:909 (H:m:s:ms)","GENERIC","186.939","0.12174639606445711","1090"
"20:24:20:606 (H:m:s:ms)","GENERIC","186.963","0.08581609619454054","394"
"20:44:56:202 (H:m:s:ms)","OPERA","155.864","0.12783932370261986","797"
"20:24:26:666 (H:m:s:ms)","GENERIC","186.965","0.07294190079860881","333"
"20:44:56:969 (H:m:s:ms)","GENERIC","186.937","0.12593738757758122","1030"
"20:24:32:727 (H:m:s:ms)","GENERIC","186.977","0.08598446987630738","272"
"20:45:3:30 (H:m:s:ms)","GENERIC","186.91899999999998","0.07294190079860881","969"
"20:24:38:787 (H:m:s:ms)","GENERIC","187.03199999999998","0.08746174798665798","212"
"20:45:3:797 (H:m:s:ms)","OPERA","155.864","0.12941090774031294","202"
"20:24:44:848 (H:m:s:ms)","GENERIC","186.95","0.08565966366146678","152"
"20:24:50:909 (H:m:s:ms)","GENERIC","186.935","0.0714698605147453","1090"
"20:45:9:90 (H:m:s:ms)","GENERIC","186.973","0.06963242370892367","952"
"20:45:11:392 (H:m:s:ms)","OPERA","155.87","0.11374077695058468","607"
"20:24:56:969 (H:m:s:ms)","GENERIC","186.929","0.10260053947945184","1030"
"20:45:15:151 (H:m:s:ms)","GENERIC","187.015","0.11044709169541703","848"
"20:25:3:30 (H:m:s:ms)","GENERIC","186.937","0.07698067494991805","969"
"20:45:18:987 (H:m:s:ms)","OPERA","155.868","0.11877667726939967","1058"
"20:25:9:90 (H:m:s:ms)","GENERIC","186.947","0.0785067365349637","947"
"20:45:21:212 (H:m:s:ms)","GENERIC","186.93099999999998","0.10614520542011756","787"
"20:25:15:151 (H:m:s:ms)","GENERIC","186.983","0.07834363326189196","848"
"20:45:26:582 (H:m:s:ms)","OPERA","155.874","0.10615634267712788","417"
"20:25:21:212 (H:m:s:ms)","GENERIC","186.917","0.08360320475242163","787"
"20:45:27:272 (H:m:s:ms)","GENERIC","186.952","0.10621932476598578","727"
"20:25:27:272 (H:m:s:ms)","GENERIC","186.975","0.09305985163268721","727"
"20:45:33:333 (H:m:s:ms)","GENERIC","186.959","0.08413938425875427","666"
"20:25:33:333 (H:m:s:ms)","GENERIC","186.963","0.08609214648881748","666"
"20:45:34:177 (H:m:s:ms)","OPERA","155.87099999999998","0.12451064128087655","822"
"20:25:39:393 (H:m:s:ms)","GENERIC","186.993","0.07025390499721645","643"
"20:45:39:393 (H:m:s:ms)","GENERIC","186.964","0.12856339078002718","650"
"20:25:45:454 (H:m:s:ms)","GENERIC","186.897","0.09234726800294599","545"
"20:25:51:515 (H:m:s:ms)","GENERIC","186.957","0.06637167512768871","484"
"20:25:57:575 (H:m:s:ms)","GENERIC","186.969","0.08680450942638045","424"
"20:26:3:636 (H:m:s:ms)","GENERIC","186.913","0.07819051546657599","363"
"20:26:9:696 (H:m:s:ms)","GENERIC","186.999","0.07937854067066341","339"
"20:26:15:757 (H:m:s:ms)","GENERIC","186.90699999999998","0.08398992334781868","242"
"20:26:21:818 (H:m:s:ms)","GENERIC","186.939","0.08545018876917974","181"
"20:26:27:878 (H:m:s:ms)","GENERIC","186.899","0.0519674884154038","1121"
"20:26:33:939 (H:m:s:ms)","GENERIC","186.94299999999998","0.08441367937390103","1060"
"20:26:40:0 (H:m:s:ms)","GENERIC","186.94299999999998","0.07872612863834401","1038"
"20:26:46:60 (H:m:s:ms)","GENERIC","186.939","0.09935230619630037","940"
"20:26:52:121 (H:m:s:ms)","GENERIC","186.953","0.09714454667803873","878"
"20:26:58:181 (H:m:s:ms)","GENERIC","186.99099999999999","0.0881471789116467","818"
"20:27:4:242 (H:m:s:ms)","GENERIC","186.925","0.0915011860731841","758"
"20:27:10:303 (H:m:s:ms)","GENERIC","186.935","0.05453039752907194","696"
"20:27:16:363 (H:m:s:ms)","GENERIC","186.925","0.07834363326189196","636"
"20:27:22:424 (H:m:s:ms)","GENERIC","186.937","0.08545648899519873","575"
"20:27:28:484 (H:m:s:ms)","GENERIC","186.915","0.07030889227587751","515"
"20:27:34:545 (H:m:s:ms)","GENERIC","186.995","0.09596041158395588","454"
"20:27:40:606 (H:m:s:ms)","GENERIC","186.949","0.10203517985907211","393"
"20:27:46:666 (H:m:s:ms)","GENERIC","186.891","0.07098272961176369","333"
"20:27:52:727 (H:m:s:ms)","GENERIC","186.897","0.08549098372593997","272"
"20:27:58:787 (H:m:s:ms)","GENERIC","186.91","0.07665754946666606","212"
"20:28:4:848 (H:m:s:ms)","GENERIC","186.97899999999998","0.09599359407616585","151"
"20:28:10:909 (H:m:s:ms)","GENERIC","186.961","0.08939271987078426","1090"
"20:28:16:969 (H:m:s:ms)","GENERIC","186.921","0.09341758018570634","1030"
"20:28:23:30 (H:m:s:ms)","GENERIC","186.973","0.08934972476706947","969"
"20:28:29:90 (H:m:s:ms)","GENERIC","186.99099999999999","0.10217599505605862","946"
"20:28:35:151 (H:m:s:ms)","GENERIC","186.999","0.07919459570879366","848"
"20:28:41:212 (H:m:s:ms)","GENERIC","186.913","0.09168304080634448","787"
"20:28:47:272 (H:m:s:ms)","GENERIC","186.937","0.06859480011264651","727"
"20:28:53:333 (H:m:s:ms)","GENERIC","186.94299999999998","0.08181508401492255","666"
"20:28:59:393 (H:m:s:ms)","GENERIC","186.90699999999998","0.07485467103062485","643"
"20:29:5:454 (H:m:s:ms)","GENERIC","186.935","0.08456009414128386","545"
"20:29:11:515 (H:m:s:ms)","GENERIC","186.921","0.10121854623378866","484"
"20:29:17:575 (H:m:s:ms)","GENERIC","186.927","0.08680450942638045","424"
"20:29:23:636 (H:m:s:ms)","GENERIC","186.925","0.0914838446102552","363"
"20:29:29:696 (H:m:s:ms)","GENERIC","186.889","0.08454714618371187","341"
"20:29:35:757 (H:m:s:ms)","GENERIC","186.94400000000002","0.08540062606010188","242"
"20:29:41:818 (H:m:s:ms)","GENERIC","186.971","0.08939271987078426","181"
"20:29:47:878 (H:m:s:ms)","GENERIC","186.957","0.10109626029650447","1121"
"20:29:53:939 (H:m:s:ms)","GENERIC","186.91899999999998","0.09060732792813563","1060"
"21:20:12:121 (H:m:s:ms)","GENERIC","186.979","0.13240652804500483","878"
"21:20:15:189 (H:m:s:ms)","OPERA","186.87900000000002","0.12225821063463296","810"
"21:20:18:181 (H:m:s:ms)","GENERIC","186.90800000000002","0.11671579051048371","818"
"21:20:24:242 (H:m:s:ms)","GENERIC","186.965","0.07578248664932928","757"
"21:20:30:303 (H:m:s:ms)","GENERIC","186.95499999999998","0.05398210831446234","696"
"21:20:30:379 (H:m:s:ms)","OPERA","186.874","0.12864254745671613","620"
"21:20:36:363 (H:m:s:ms)","GENERIC","186.96","0.10076067470318285","636"
"21:20:37:974 (H:m:s:ms)","OPERA","186.874","0.13717769170870325","1025"
"21:20:42:424 (H:m:s:ms)","GENERIC","186.929","0.11724529394223379","575"
"21:20:45:569 (H:m:s:ms)","OPERA","186.874","0.12321108822169619","430"
"21:20:48:484 (H:m:s:ms)","GENERIC","186.941","0.11812956071849241","515"
"21:20:53:164 (H:m:s:ms)","OPERA","186.874","0.1287657043767586","835"
"21:20:54:545 (H:m:s:ms)","GENERIC","186.977","0.1033023170693279","454"
"21:21:0:606 (H:m:s:ms)","GENERIC","186.885","0.0890128915283837","393"
"21:21:0:759 (H:m:s:ms)","OPERA","186.877","0.14149844727645697","240"
"21:21:6:666 (H:m:s:ms)","GENERIC","186.981","0.07046572820384218","333"
"21:21:8:354 (H:m:s:ms)","OPERA","186.881","0.10744811875402255","645"
"21:21:12:727 (H:m:s:ms)","GENERIC","186.954","0.1139709695864496","272"
"21:21:15:949 (H:m:s:ms)","OPERA","186.877","0.11881290943356061","1050"
"21:21:18:787 (H:m:s:ms)","GENERIC","186.95600000000002","0.11364230305143216","212"
"21:33:7:878 (H:m:s:ms)","GENERIC","186.951","0.08570384696848149","1121"
"21:32:49:696 (H:m:s:ms)","GENERIC","186.917","0.07777790263494985","339"
"21:32:43:636 (H:m:s:ms)","GENERIC","186.933","0.10844533046762625","363"
"21:32:37:894 (H:m:s:ms)","AMBULANCE","186.95499999999998","0.13265245501918016","1105"
"21:32:37:575 (H:m:s:ms)","GENERIC","186.922","0.0916465869400015","424"
"21:32:31:515 (H:m:s:ms)","GENERIC","186.977","0.07877492228067591","484"
"21:32:25:454 (H:m:s:ms)","GENERIC","186.911","0.06968637560124562","545"
"21:32:19:393 (H:m:s:ms)","GENERIC","186.975","0.10308148066541295","643"
"21:21:23:544 (H:m:s:ms)","OPERA","186.879","0.11748089031644078","455"
"21:32:13:333 (H:m:s:ms)","GENERIC","186.975","0.07025390499721645","666"
"21:21:24:848 (H:m:s:ms)","GENERIC","186.894","0.12285990701045786","151"
"21:21:30:909 (H:m:s:ms)","GENERIC","186.913","0.09207592599811347","1090"
"21:21:31:139 (H:m:s:ms)","OPERA","186.876","0.12578663318383457","860"
"21:21:36:969 (H:m:s:ms)","GENERIC","186.895","0.0789572315696862","1031"
"21:21:38:734 (H:m:s:ms)","OPERA","186.876","0.1239690277093243","265"
"21:21:43:30 (H:m:s:ms)","GENERIC","186.921","0.13052290237158243","970"
"21:21:46:329 (H:m:s:ms)","OPERA","186.87900000000002","0.12872432700253345","670"
"21:33:1:818 (H:m:s:ms)","GENERIC","186.935","0.07675629398775097","181"
"21:21:49:90 (H:m:s:ms)","GENERIC","186.883","0.12170562044075113","947"
"21:32:55:757 (H:m:s:ms)","GENERIC","186.933","0.08534877473327204","242"
"21:21:55:151 (H:m:s:ms)","GENERIC","186.951","0.0953890839197984","848"
"21:34:2:424 (H:m:s:ms)","GENERIC","186.899","0.09187304210779475","575"
"21:33:56:363 (H:m:s:ms)","GENERIC","186.927","0.0673286917402432","636"
"21:33:44:242 (H:m:s:ms)","GENERIC","186.961","0.13174835202977744","757"
"21:33:41:52 (H:m:s:ms)","AMBULANCE","186.923","0.13569242613270702","947"
"21:33:38:181 (H:m:s:ms)","GENERIC","186.921","0.09094631778125578","818"
"21:33:32:121 (H:m:s:ms)","GENERIC","186.923","0.07843684640569494","878"
"21:33:26:60 (H:m:s:ms)","GENERIC","186.945","0.08609214648881748","939"
"21:33:20:0 (H:m:s:ms)","GENERIC","186.966","0.07532647007275617","1039"
"21:22:1:212 (H:m:s:ms)","GENERIC","186.993","0.07754270496444848","787"
"21:33:13:939 (H:m:s:ms)","GENERIC","187.005","0.12392426759038325","1061"
"21:22:1:518 (H:m:s:ms)","OPERA","186.872","0.13335980210089682","481"
"21:33:9:473 (H:m:s:ms)","AMBULANCE","186.949","0.1262534679308411","564"
"21:22:7:272 (H:m:s:ms)","GENERIC","186.921","0.09286385141232188","727"
"21:22:9:113 (H:m:s:ms)","OPERA","186.874","0.1288111078528866","925"
"21:22:13:333 (H:m:s:ms)","GENERIC","186.961","0.11558011760580428","666"
"21:22:16:708 (H:m:s:ms)","OPERA","186.87900000000002","0.11774342348206727","291"
"21:22:19:393 (H:m:s:ms)","GENERIC","186.974","0.12665027668596285","642"
"21:22:24:303 (H:m:s:ms)","OPERA","186.87","0.12782915158781455","697"
"21:22:25:454 (H:m:s:ms)","GENERIC","186.89600000000002","0.12088811868941755","545"
"21:22:31:515 (H:m:s:ms)","GENERIC","186.97899999999998","0.10383002185293469","484"
"21:33:50:303 (H:m:s:ms)","GENERIC","186.937","0.09234726800294599","696"
"21:34:56:969 (H:m:s:ms)","GENERIC","186.977","0.04696332941307126","1030"
"21:34:50:909 (H:m:s:ms)","GENERIC","186.977","0.0920075873060676","1090"
"21:34:44:848 (H:m:s:ms)","GENERIC","186.939","0.1270449370645019","151"
"21:34:44:210 (H:m:s:ms)","AMBULANCE","186.926","0.08443126920535449","789"
"21:34:38:787 (H:m:s:ms)","GENERIC","186.972","0.09240143839347931","212"
"21:34:32:727 (H:m:s:ms)","GENERIC","186.97899999999998","0.0770305742266691","272"
"21:34:26:666 (H:m:s:ms)","GENERIC","186.975","0.07591028364935899","333"
"21:34:20:606 (H:m:s:ms)","GENERIC","186.945","0.08583824634178638","393"
"21:22:31:898 (H:m:s:ms)","OPERA","186.877","0.12356199401471615","1101"
"21:34:14:545 (H:m:s:ms)","GENERIC","186.921","0.13598649176775474","454"
"21:22:37:575 (H:m:s:ms)","GENERIC","186.927","0.12251390996778416","424"
"21:34:12:631 (H:m:s:ms)","AMBULANCE","186.942","0.13231201008748011","368"
"21:1:55:151 (H:m:s:ms)","GENERIC","186.977","0.06872263790063206","848"
"21:22:39:493 (H:m:s:ms)","OPERA","186.876","0.13588999384966238","544"
"21:34:8:484 (H:m:s:ms)","GENERIC","186.94299999999998","0.09677731530287162","515"
"21:2:1:212 (H:m:s:ms)","GENERIC","186.99099999999999","0.07578248664932928","787"
"21:22:43:636 (H:m:s:ms)","GENERIC","186.915","0.1147162464870196","363"
"21:2:6:315 (H:m:s:ms)","AMBULANCE","155.904","0.1320348854675335","684"
"21:22:47:88 (H:m:s:ms)","OPERA","155.868","0.11363693607087985","911"
"21:2:7:272 (H:m:s:ms)","GENERIC","186.914","0.1322173621559334","727"
"21:22:49:696 (H:m:s:ms)","GENERIC","186.907","0.11580974299334183","341"
"21:2:13:333 (H:m:s:ms)","GENERIC","186.983","0.06942563211636285","666"
"21:22:54:683 (H:m:s:ms)","OPERA","186.876","0.10973395299878798","317"
"21:2:19:393 (H:m:s:ms)","GENERIC","186.945","0.08609214648881748","648"
"21:22:55:757 (H:m:s:ms)","GENERIC","186.933","0.10678295646941958","242"
"21:2:25:454 (H:m:s:ms)","GENERIC","186.893","0.08402891101485631","545"
"21:23:1:818 (H:m:s:ms)","GENERIC","186.93099999999998","0.06917399479439369","181"
"21:2:31:515 (H:m:s:ms)","GENERIC","186.969","0.08319337236941511","484"
"21:23:2:278 (H:m:s:ms)","OPERA","186.87","0.12422611654430142","721"
"21:2:37:575 (H:m:s:ms)","GENERIC","186.96699999999998","0.10199751408209788","424"
"21:2:37:894 (H:m:s:ms)","AMBULANCE","155.90200000000002","0.13723501883270803","105"
"21:35:51:515 (H:m:s:ms)","GENERIC","186.969","0.11986144020974002","484"
"21:35:47:368 (H:m:s:ms)","AMBULANCE","186.957","0.11079796898205424","631"
"21:35:45:454 (H:m:s:ms)","GENERIC","186.897","0.07819051546657599","545"
"21:35:39:393 (H:m:s:ms)","GENERIC","186.929","0.08456009414128386","644"
"21:35:33:333 (H:m:s:ms)","GENERIC","186.97899999999998","0.08261376948781499","666"
"21:35:27:272 (H:m:s:ms)","GENERIC","186.971","0.07635671106211343","727"
"21:35:21:212 (H:m:s:ms)","GENERIC","186.881","0.09730659196665992","787"
"21:23:7:878 (H:m:s:ms)","GENERIC","186.969","0.08497975588224446","1121"
"21:35:15:789 (H:m:s:ms)","AMBULANCE","186.927","0.07771424935708346","210"
"21:23:9:873 (H:m:s:ms)","OPERA","186.879","0.12820716089904988","164"
"21:35:15:151 (H:m:s:ms)","GENERIC","187.001","0.11170620278638349","849"
"21:2:43:636 (H:m:s:ms)","GENERIC","186.934","0.07928215501011354","363"
"21:23:13:939 (H:m:s:ms)","GENERIC","186.999","0.1267713061157941","1060"
"21:35:9:90 (H:m:s:ms)","GENERIC","186.937","0.061699651660349526","947"
"21:2:49:696 (H:m:s:ms)","GENERIC","186.93099999999998","0.08532489675411141","346"
"21:23:17:468 (H:m:s:ms)","OPERA","186.87900000000002","0.11563287639094165","531"
"21:35:3:30 (H:m:s:ms)","GENERIC","186.922","0.0786187040495876","969"
"21:2:55:757 (H:m:s:ms)","GENERIC","186.96","0.07699383188393025","242"
"21:23:20:0 (H:m:s:ms)","GENERIC","186.952","0.11581120827915317","1038"
"21:3:1:818 (H:m:s:ms)","GENERIC","186.921","0.09448671403480016","181"
"21:23:25:63 (H:m:s:ms)","OPERA","186.87","0.1309876565283","936"
"21:3:7:878 (H:m:s:ms)","GENERIC","186.963","0.06963242370892367","1121"
"21:23:26:60 (H:m:s:ms)","GENERIC","186.934","0.12862863754098966","939"
"21:3:9:473 (H:m:s:ms)","AMBULANCE","155.913","0.11819594772743612","569"
"21:23:32:121 (H:m:s:ms)","GENERIC","186.913","0.06917399479439369","878"
"21:3:13:939 (H:m:s:ms)","GENERIC","186.976","0.10503574620516237","1061"
"21:23:32:658 (H:m:s:ms)","OPERA","186.87","0.12255412225488595","342"
"21:3:20:0 (H:m:s:ms)","GENERIC","186.935","0.09785163788940987","1043"
"21:23:38:181 (H:m:s:ms)","GENERIC","186.934","0.08823343031474377","818"
"21:3:26:60 (H:m:s:ms)","GENERIC","186.939","0.0791030945474661","939"
"21:3:32:121 (H:m:s:ms)","GENERIC","186.917","0.08752468666215946","878"
"21:36:52:121 (H:m:s:ms)","GENERIC","186.95499999999998","0.0955396952469541","878"
"21:36:46:60 (H:m:s:ms)","GENERIC","186.937","0.10260053947945184","939"
"21:36:40:0 (H:m:s:ms)","GENERIC","186.93099999999998","0.07427849320841098","1040"
"21:36:33:939 (H:m:s:ms)","GENERIC","186.895","0.06913528173835808","1060"
"21:36:27:878 (H:m:s:ms)","GENERIC","187.029","0.07716434295456717","121"
"21:36:21:818 (H:m:s:ms)","GENERIC","186.917","0.13602756151504553","181"
"21:23:40:253 (H:m:s:ms)","OPERA","186.872","0.1302167250131351","746"
"21:36:18:947 (H:m:s:ms)","AMBULANCE","186.958","0.12840113136445253","1091"
"21:23:44:242 (H:m:s:ms)","GENERIC","186.964","0.12638043919273495","757"
"21:36:15:757 (H:m:s:ms)","GENERIC","186.923","0.0797950394959293","242"
"21:3:38:181 (H:m:s:ms)","GENERIC","186.96699999999998","0.07872612863834401","818"
"21:23:47:848 (H:m:s:ms)","OPERA","186.873","0.12878217981912304","151"
"21:36:9:696 (H:m:s:ms)","GENERIC","186.965","0.09588817273123929","341"
"21:3:41:52 (H:m:s:ms)","AMBULANCE","155.876","0.12536311516650608","947"
"21:23:50:303 (H:m:s:ms)","GENERIC","186.921","0.10518151871154588","696"
"21:36:3:636 (H:m:s:ms)","GENERIC","186.94","0.0802073533560011","363"
"21:3:44:242 (H:m:s:ms)","GENERIC","186.973","0.11820645033628639","758"
"21:23:55:443 (H:m:s:ms)","OPERA","186.874","0.11673751555017439","556"
"21:35:57:575 (H:m:s:ms)","GENERIC","187.011","0.07811610806267312","424"
"21:3:50:303 (H:m:s:ms)","GENERIC","186.89600000000002","0.08346125639946056","696"
"21:23:56:363 (H:m:s:ms)","GENERIC","186.90300000000002","0.1186628276009152","636"
"21:3:56:363 (H:m:s:ms)","GENERIC","186.909","0.08641680870604171","636"
"21:24:2:424 (H:m:s:ms)","GENERIC","186.915","0.08402891101485631","575"
"21:4:2:424 (H:m:s:ms)","GENERIC","186.95499999999998","0.10156940233310761","575"
"21:24:3:37 (H:m:s:ms)","OPERA","186.876","0.12281652277499087","962"
"21:4:8:484 (H:m:s:ms)","GENERIC","186.95499999999998","0.08765222687364503","515"
"21:24:8:484 (H:m:s:ms)","GENERIC","186.919","0.1360836111514952","515"
"21:4:12:631 (H:m:s:ms)","AMBULANCE","155.89000000000001","0.12146701071374835","368"
"21:24:10:632 (H:m:s:ms)","OPERA","186.87900000000002","0.13621890039016477","367"
"21:4:14:545 (H:m:s:ms)","GENERIC","186.903","0.10511660946932473","454"
"21:4:20:606 (H:m:s:ms)","GENERIC","186.952","0.07539922917443423","393"
"21:37:52:727 (H:m:s:ms)","GENERIC","186.959","0.08015059506146369","272"
"21:37:46:666 (H:m:s:ms)","GENERIC","186.973","0.09170092434673752","333"
"21:37:40:606 (H:m:s:ms)","GENERIC","187.007","0.09267793291889342","393"
"21:37:34:545 (H:m:s:ms)","GENERIC","186.983","0.09238614241915616","455"
"21:37:28:484 (H:m:s:ms)","GENERIC","186.929","0.08553591846922771","515"
"21:37:22:424 (H:m:s:ms)","GENERIC","186.962","0.13165607829349968","575"
"21:24:14:545 (H:m:s:ms)","GENERIC","186.912","0.12419303105713672","454"
"21:24:18:227 (H:m:s:ms)","OPERA","186.881","0.123372146629886","772"
"21:37:22:105 (H:m:s:ms)","AMBULANCE","186.969","0.07163150651944204","894"
"21:4:26:666 (H:m:s:ms)","GENERIC","186.97","0.09278545220226649","333"
"21:24:20:606 (H:m:s:ms)","GENERIC","186.946","0.11101504900448539","393"
"21:37:16:363 (H:m:s:ms)","GENERIC","186.957","0.08549098372593997","636"
"21:4:32:727 (H:m:s:ms)","GENERIC","186.985","0.09290522024663218","272"
"21:24:25:822 (H:m:s:ms)","OPERA","186.876","0.11589195041571743","177"
"21:37:10:303 (H:m:s:ms)","GENERIC","186.897","0.09062128795799364","696"
"21:4:38:787 (H:m:s:ms)","GENERIC","186.999","0.07358232000646024","212"
"21:24:26:666 (H:m:s:ms)","GENERIC","186.975","0.11628766463356628","333"
"21:37:4:242 (H:m:s:ms)","GENERIC","186.97899999999998","0.09407448887692897","758"
"21:4:44:210 (H:m:s:ms)","AMBULANCE","155.921","0.07736614603526022","790"
"21:24:32:727 (H:m:s:ms)","GENERIC","186.987","0.07360724887128348","272"
"21:36:58:181 (H:m:s:ms)","GENERIC","186.985","0.07932484412189882","818"
"21:4:44:848 (H:m:s:ms)","GENERIC","186.921","0.12975089849612917","152"
"21:24:33:417 (H:m:s:ms)","OPERA","186.87900000000002","0.11648787836918335","582"
"21:4:50:909 (H:m:s:ms)","GENERIC","186.94299999999998","0.07071043584927923","1090"
"21:24:38:787 (H:m:s:ms)","GENERIC","186.993","0.11076709900130004","212"
"21:4:56:969 (H:m:s:ms)","GENERIC","186.959","0.08570286484686239","1030"
"21:24:41:12 (H:m:s:ms)","OPERA","186.881","0.107386686576604","987"
"21:5:3:30 (H:m:s:ms)","GENERIC","186.917","0.06296672322620128","969"
"21:24:44:848 (H:m:s:ms)","GENERIC","186.95100000000002","0.11851480506261755","151"
"21:5:9:90 (H:m:s:ms)","GENERIC","186.953","0.08137288925313554","953"
"21:5:15:151 (H:m:s:ms)","GENERIC","187.037","0.06963242370892367","848"
"21:38:53:333 (H:m:s:ms)","GENERIC","186.948","0.09158949829749241","666"
"21:38:47:272 (H:m:s:ms)","GENERIC","186.905","0.08475740947919859","727"
"21:38:41:212 (H:m:s:ms)","GENERIC","186.887","0.08393414284086911","787"
"21:38:35:151 (H:m:s:ms)","GENERIC","186.999","0.08939271987078426","848"
"21:38:29:90 (H:m:s:ms)","GENERIC","186.993","0.08015059506146369","947"
"21:38:23:30 (H:m:s:ms)","GENERIC","186.929","0.07817067187736089","969"
"21:38:16:969 (H:m:s:ms)","GENERIC","186.959","0.07937854067066341","1030"
"21:24:48:607 (H:m:s:ms)","OPERA","186.87900000000002","0.11225174253862698","392"
"21:24:50:909 (H:m:s:ms)","GENERIC","186.962","0.11610341495806524","1090"
"21:5:15:789 (H:m:s:ms)","AMBULANCE","155.905","0.11557215200996589","210"
"21:24:56:202 (H:m:s:ms)","OPERA","186.873","0.11890934087307348","797"
"21:5:21:212 (H:m:s:ms)","GENERIC","186.933","0.06344999471297957","787"
"21:24:56:969 (H:m:s:ms)","GENERIC","186.971","0.11815789670344737","1031"
"21:38:10:909 (H:m:s:ms)","GENERIC","186.987","0.07076230829846439","1090"
"20:45:41:772 (H:m:s:ms)","OPERA","155.87099999999998","0.13669531917655595","227"
"21:5:27:272 (H:m:s:ms)","GENERIC","186.953","0.07992169143655958","727"
"21:25:3:30 (H:m:s:ms)","GENERIC","186.913","0.08570384696848149","969"
"21:38:4:848 (H:m:s:ms)","GENERIC","186.945","0.07817067187736089","152"
"20:45:45:454 (H:m:s:ms)","GENERIC","186.93200000000002","0.12646157656720283","545"
"21:5:33:333 (H:m:s:ms)","GENERIC","186.94400000000002","0.07723879225128","666"
"21:25:3:797 (H:m:s:ms)","OPERA","186.877","0.12289972638722416","202"
"21:37:58:787 (H:m:s:ms)","GENERIC","186.93099999999998","0.12691768940183892","213"
"20:45:49:367 (H:m:s:ms)","OPERA","155.862","0.11862285366390936","676"
"21:5:39:393 (H:m:s:ms)","GENERIC","186.957","0.09058516486267061","649"
"21:25:9:90 (H:m:s:ms)","GENERIC","186.921","0.08506820556750155","949"
"21:37:53:684 (H:m:s:ms)","AMBULANCE","186.938","0.1357658514300893","315"
"20:45:51:515 (H:m:s:ms)","GENERIC","186.949","0.12091725380275721","484"
"21:5:45:454 (H:m:s:ms)","GENERIC","186.935","0.10155816310931401","545"
"21:25:11:392 (H:m:s:ms)","OPERA","186.876","0.12301368385965726","607"
"20:45:56:962 (H:m:s:ms)","OPERA","155.873","0.08609214648881748","1038"
"21:5:47:368 (H:m:s:ms)","AMBULANCE","155.909","0.13017304456834003","631"
"21:25:15:151 (H:m:s:ms)","GENERIC","187.015","0.10885513620616723","848"
"20:45:57:575 (H:m:s:ms)","GENERIC","187.01","0.13156976054703529","425"
"21:5:51:515 (H:m:s:ms)","GENERIC","186.939","0.11758330992998538","484"
"21:25:18:987 (H:m:s:ms)","OPERA","186.876","0.13638502596065477","1053"
"20:46:3:636 (H:m:s:ms)","GENERIC","186.921","0.09855369127669554","363"
"21:5:57:575 (H:m:s:ms)","GENERIC","187.01","0.09583273985285407","424"
"20:46:4:556 (H:m:s:ms)","OPERA","155.86599999999999","0.14114958917251208","443"
"21:6:3:636 (H:m:s:ms)","GENERIC","186.935","0.08576450852798602","363"
"20:46:9:696 (H:m:s:ms)","GENERIC","187.017","0.13230765245002812","346"
"20:46:12:151 (H:m:s:ms)","OPERA","155.875","0.12003560048184941","848"
"21:39:47:878 (H:m:s:ms)","GENERIC","186.933","0.08423336709736656","1121"
"21:39:41:818 (H:m:s:ms)","GENERIC","187.019","0.08553591846922771","181"
"21:39:35:757 (H:m:s:ms)","GENERIC","186.962","0.08732864248448255","242"
"21:39:29:696 (H:m:s:ms)","GENERIC","186.961","0.11060015666234678","342"
"21:39:28:421 (H:m:s:ms)","AMBULANCE","186.977","0.11624978998233433","578"
"21:39:23:636 (H:m:s:ms)","GENERIC","186.909","0.09238614241915616","363"
"21:39:17:575 (H:m:s:ms)","GENERIC","186.93099999999998","0.06873924611303243","424"
"21:39:11:515 (H:m:s:ms)","GENERIC","186.94299999999998","0.09588817273123929","484"
"21:25:21:212 (H:m:s:ms)","GENERIC","186.89499999999998","0.13833194937100654","787"
"21:25:26:582 (H:m:s:ms)","OPERA","186.876","0.1228601085179366","417"
"21:6:9:696 (H:m:s:ms)","GENERIC","186.983","0.07752224109942492","344"
"21:25:27:272 (H:m:s:ms)","GENERIC","186.961","0.11274612584409524","727"
"21:6:15:757 (H:m:s:ms)","GENERIC","186.915","0.08489100703169358","242"
"21:25:33:333 (H:m:s:ms)","GENERIC","186.957","0.08441367937390103","666"
"20:46:15:757 (H:m:s:ms)","GENERIC","186.926","0.12691309050659166","242"
"21:6:18:947 (H:m:s:ms)","AMBULANCE","155.899","0.11949332283240562","1093"
"21:25:34:177 (H:m:s:ms)","OPERA","186.872","0.11686465238603932","822"
"20:46:21:818 (H:m:s:ms)","GENERIC","186.937","0.07250161616112728","181"
"21:6:21:818 (H:m:s:ms)","GENERIC","186.92000000000002","0.12379653762880857","181"
"21:25:39:393 (H:m:s:ms)","GENERIC","186.928","0.10477832467283979","648"
"21:39:5:454 (H:m:s:ms)","GENERIC","186.923","0.09407448887692897","545"
"20:46:27:341 (H:m:s:ms)","OPERA","155.875","0.07811610806267312","658"
"21:6:27:878 (H:m:s:ms)","GENERIC","186.975","0.08494885068944699","121"
"21:25:41:772 (H:m:s:ms)","OPERA","186.876","0.11750353030718243","227"
"21:38:59:393 (H:m:s:ms)","GENERIC","186.921","0.11687276587261301","644"
"20:46:27:878 (H:m:s:ms)","GENERIC","186.931","0.12184861800301569","1121"
"21:6:33:939 (H:m:s:ms)","GENERIC","186.93099999999998","0.0851388855971328","1060"
"21:25:45:454 (H:m:s:ms)","GENERIC","186.898","0.12484184888857695","545"
"21:38:56:842 (H:m:s:ms)","AMBULANCE","186.923","0.13179697858552178","157"
"20:46:33:939 (H:m:s:ms)","GENERIC","186.959","0.09170739737480603","1061"
"21:6:40:0 (H:m:s:ms)","GENERIC","186.916","0.06933865324367565","1042"
"21:25:49:367 (H:m:s:ms)","OPERA","186.876","0.12497339773505901","673"
"20:46:34:936 (H:m:s:ms)","OPERA","155.87099999999998","0.13420541954155643","1064"
"21:6:46:60 (H:m:s:ms)","GENERIC","186.957","0.08532489675411141","939"
"21:25:51:515 (H:m:s:ms)","GENERIC","186.954","0.11699539550030072","484"
"20:46:40:0 (H:m:s:ms)","GENERIC","186.917","0.13668619223088252","1045"
"21:6:50:526 (H:m:s:ms)","AMBULANCE","155.904","0.12807471859854525","473"
"20:46:42:531 (H:m:s:ms)","OPERA","155.872","0.14049507370446393","468"
"21:6:52:121 (H:m:s:ms)","GENERIC","186.925","0.13306823309041493","878"
"20:46:46:60 (H:m:s:ms)","GENERIC","186.94299999999998","0.12285073007955008","939"
"20:46:50:126 (H:m:s:ms)","OPERA","155.87","0.12531553253628913","874"
"21:40:0:0 (H:m:s:ms)","GENERIC","186.908","0.12127358672700328","1127"
"21:40:48:484 (H:m:s:ms)","GENERIC","186.933","0.1032758539631012","515"
"21:40:42:424 (H:m:s:ms)","GENERIC","186.913","0.08616662507924276","575"
"21:40:36:363 (H:m:s:ms)","GENERIC","186.934","0.08001558330876432","636"
"21:40:30:303 (H:m:s:ms)","GENERIC","186.982","0.09123011625659566","696"
"21:40:24:242 (H:m:s:ms)","GENERIC","186.95499999999998","0.08100602055519972","758"
"21:40:18:181 (H:m:s:ms)","GENERIC","186.913","0.07952892820724942","818"
"21:40:12:121 (H:m:s:ms)","GENERIC","186.942","0.08609353875528018","878"
"21:40:6:60 (H:m:s:ms)","GENERIC","186.911","0.10156940233310761","939"
"21:6:58:181 (H:m:s:ms)","GENERIC","186.959","0.08939271987078426","818"
"21:7:4:242 (H:m:s:ms)","GENERIC","186.935","0.09294325752368669","758"
"20:46:52:121 (H:m:s:ms)","GENERIC","186.947","0.14097940009619409","878"
"21:7:10:303 (H:m:s:ms)","GENERIC","186.883","0.0689949367712717","696"
"20:46:57:721 (H:m:s:ms)","OPERA","155.86599999999999","0.1354524755695753","278"
"21:7:16:363 (H:m:s:ms)","GENERIC","186.942","0.09486798991324835","636"
"20:46:58:181 (H:m:s:ms)","GENERIC","186.95100000000002","0.12352770447850615","818"
"21:7:22:105 (H:m:s:ms)","AMBULANCE","155.904","0.08528899489041976","894"
"20:47:4:242 (H:m:s:ms)","GENERIC","186.93200000000002","0.08099640255153809","757"
"21:7:22:424 (H:m:s:ms)","GENERIC","186.94400000000002","0.13557836930332381","575"
"21:40:0:0 (H:m:s:ms)","GENERIC","186.914","0.0874700523342447","1127"
"20:47:5:316 (H:m:s:ms)","OPERA","155.866","0.1356939303230319","683"
"21:7:28:484 (H:m:s:ms)","GENERIC","186.915","0.09599359407616585","515"
"21:39:53:939 (H:m:s:ms)","GENERIC","186.927","0.08571491298458446","1060"
"20:47:10:303 (H:m:s:ms)","GENERIC","186.90800000000002","0.1161385505223132","696"
"21:7:34:545 (H:m:s:ms)","GENERIC","186.977","0.09470452044772877","454"
"20:47:12:911 (H:m:s:ms)","OPERA","155.872","0.13476048036983715","1088"
"21:7:40:606 (H:m:s:ms)","GENERIC","186.97","0.08530205526964056","393"
"20:47:16:363 (H:m:s:ms)","GENERIC","186.94","0.12924147974268785","636"
"21:7:46:666 (H:m:s:ms)","GENERIC","186.935","0.0701097905676104","334"
"20:47:20:506 (H:m:s:ms)","OPERA","155.869","0.12411109338768023","493"
"20:47:22:424 (H:m:s:ms)","GENERIC","186.92700000000002","0.13404392949880053","575"
"21:7:52:727 (H:m:s:ms)","GENERIC","186.921","0.09730659196665992","272"
"21:7:53:684 (H:m:s:ms)","AMBULANCE","155.887","0.11232376598040648","315"
"20:47:28:101 (H:m:s:ms)","OPERA","155.874","0.0854598920894245","898"
"21:7:58:787 (H:m:s:ms)","GENERIC","186.894","0.10253567150551601","212"
"20:47:28:484 (H:m:s:ms)","GENERIC","186.918","0.1280092122098877","515"
"21:8:4:848 (H:m:s:ms)","GENERIC","186.93099999999998","0.09358257811759665","151"
"20:47:34:545 (H:m:s:ms)","GENERIC","187.007","0.09588817273123929","454"
"21:8:10:909 (H:m:s:ms)","GENERIC","186.949","0.09596041158395588","1090"
"20:47:35:696 (H:m:s:ms)","OPERA","155.875","0.12911863681864044","303"
"21:8:16:969 (H:m:s:ms)","GENERIC","186.927","0.07992036870242814","1030"
"20:47:40:606 (H:m:s:ms)","GENERIC","186.945","0.10930970097409352","393"
"21:8:23:30 (H:m:s:ms)","GENERIC","186.961","0.09588817273123929","969"
"20:47:43:291 (H:m:s:ms)","OPERA","155.871","0.11428937974419665","708"
"21:8:29:90 (H:m:s:ms)","GENERIC","186.957","0.09487294376260777","948"
"21:40:54:545 (H:m:s:ms)","GENERIC","186.977","0.07607157574925119","454"
"20:47:46:666 (H:m:s:ms)","GENERIC","186.901","0.09967263888086902","333"
"21:8:35:151 (H:m:s:ms)","GENERIC","186.96699999999998","0.07937854067066341","848"
"20:47:50:886 (H:m:s:ms)","OPERA","155.869","0.12089382530593985","114"
"21:8:41:212 (H:m:s:ms)","GENERIC","186.934","0.08568138656619266","787"
"20:47:52:727 (H:m:s:ms)","GENERIC","186.883","0.13396665630606197","272"
"20:47:58:481 (H:m:s:ms)","OPERA","155.871","0.08436738632058871","518"
"21:8:47:272 (H:m:s:ms)","GENERIC","186.90699999999998","0.07664855373546989","727"
"21:8:53:333 (H:m:s:ms)","GENERIC","186.973","0.0770305742266691","666"
"20:47:58:787 (H:m:s:ms)","GENERIC","186.898","0.1206707792800078","212"
"21:8:56:842 (H:m:s:ms)","AMBULANCE","155.892","0.12314063745318181","157"
"20:48:4:848 (H:m:s:ms)","GENERIC","186.949","0.08793780967570192","152"
"21:8:59:393 (H:m:s:ms)","GENERIC","186.93900000000002","0.12993778052229696","647"
"20:30:0:0 (H:m:s:ms)","GENERIC","186.911","0.05576510479035757","1038"
"20:48:6:75 (H:m:s:ms)","OPERA","155.872","0.13262772236461326","924"
"21:9:5:454 (H:m:s:ms)","GENERIC","186.903","0.07937854067066341","545"
"20:30:0:0 (H:m:s:ms)","GENERIC","186.967","0.10847384691841447","1038"
"20:48:10:909 (H:m:s:ms)","GENERIC","186.95100000000002","0.13057979186453508","1090"
"21:9:11:515 (H:m:s:ms)","GENERIC","186.909","0.1031009574992075","485"
"20:30:6:60 (H:m:s:ms)","GENERIC","186.935","0.08934972476706947","939"
"20:48:13:670 (H:m:s:ms)","OPERA","155.871","0.11763778479905236","329"
"21:9:17:575 (H:m:s:ms)","GENERIC","186.953","0.09599359407616585","424"
"20:30:12:121 (H:m:s:ms)","GENERIC","186.93099999999998","0.06108180062603961","878"
"20:48:16:969 (H:m:s:ms)","GENERIC","186.941","0.11356470011472712","1030"
"21:9:23:636 (H:m:s:ms)","GENERIC","186.905","0.06864121294667964","363"
"20:30:18:181 (H:m:s:ms)","GENERIC","186.972","0.09231691281133765","818"
"20:48:21:265 (H:m:s:ms)","OPERA","155.871","0.11951017913151689","734"
"21:9:28:421 (H:m:s:ms)","AMBULANCE","155.899","0.11485702473959246","579"
"20:30:24:242 (H:m:s:ms)","GENERIC","186.978","0.08463255953084312","757"
"20:48:23:30 (H:m:s:ms)","GENERIC","186.965","0.11768648165123373","969"
"21:9:29:696 (H:m:s:ms)","GENERIC","186.924","0.12322656636678077","343"
"20:30:30:303 (H:m:s:ms)","GENERIC","186.973","0.08400881175268815","696"
"20:48:28:860 (H:m:s:ms)","OPERA","155.874","0.12339140315740825","139"
"20:30:36:363 (H:m:s:ms)","GENERIC","186.969","0.10152741446233077","636"
"20:48:29:90 (H:m:s:ms)","GENERIC","186.96699999999998","0.1299300141380204","952"
"20:30:42:424 (H:m:s:ms)","GENERIC","186.939","0.07095443694412114","575"
"20:30:48:484 (H:m:s:ms)","GENERIC","186.933","0.07213758109587019","515"
"21:9:35:757 (H:m:s:ms)","GENERIC","186.999","0.06483705667513183","242"
"21:9:41:818 (H:m:s:ms)","GENERIC","186.96","0.07565913914024788","181"
"20:48:35:151 (H:m:s:ms)","GENERIC","186.983","0.09632821328300875","848"
"21:9:47:878 (H:m:s:ms)","GENERIC","186.947","0.07635671106211343","1121"
"20:48:36:455 (H:m:s:ms)","OPERA","155.873","0.13709130877902437","544"
"21:9:53:939 (H:m:s:ms)","GENERIC","186.903","0.08486939263355844","1061"
"20:30:54:545 (H:m:s:ms)","GENERIC","186.94400000000002","0.07174822010074716","454"
"20:48:41:212 (H:m:s:ms)","GENERIC","186.929","0.12180316902781728","787"
"21:10:0:0 (H:m:s:ms)","AMBULANCE","155.909","0.06276117504714437","1041"
"20:31:0:606 (H:m:s:ms)","GENERIC","186.95100000000002","0.0909530451949836","393"
"20:48:44:50 (H:m:s:ms)","OPERA","155.873","0.11833072606350464","950"
"21:10:0:0 (H:m:s:ms)","GENERIC","186.939","0.113780027762981","1041"
"20:31:6:666 (H:m:s:ms)","GENERIC","186.971","0.10109626029650447","333"
"20:48:47:272 (H:m:s:ms)","GENERIC","186.903","0.10543110083151946","727"
"21:10:0:0 (H:m:s:ms)","GENERIC","186.924","0.16122897465591585","1041"
"20:31:12:727 (H:m:s:ms)","GENERIC","186.966","0.0792393448068823","272"
"20:48:51:645 (H:m:s:ms)","OPERA","155.871","0.11196802141653536","354"
"21:10:6:60 (H:m:s:ms)","GENERIC","186.911","0.06781434346022897","940"
"20:31:18:787 (H:m:s:ms)","GENERIC","186.90699999999998","0.07952892820724942","212"
"20:48:53:333 (H:m:s:ms)","GENERIC","186.935","0.12521816015822823","666"
"21:10:12:121 (H:m:s:ms)","GENERIC","186.965","0.08032329259136331","878"
"20:31:24:848 (H:m:s:ms)","GENERIC","186.925","0.05709044851968519","151"
"20:48:59:240 (H:m:s:ms)","OPERA","155.873","0.0920829949444457","804"
"21:10:18:181 (H:m:s:ms)","GENERIC","186.911","0.06963242370892367","818"
"20:31:30:909 (H:m:s:ms)","GENERIC","186.945","0.09534879276169628","1090"
"20:48:59:393 (H:m:s:ms)","GENERIC","186.932","0.12940385699230253","651"
"20:31:36:969 (H:m:s:ms)","GENERIC","186.951","0.10440017969771652","1030"
"20:49:5:454 (H:m:s:ms)","GENERIC","186.914","0.07604812824202628","545"
"20:31:43:30 (H:m:s:ms)","GENERIC","186.941","0.08583283021011603","969"
"20:31:49:90 (H:m:s:ms)","GENERIC","186.901","0.07914606079606136","949"
"20:49:6:835 (H:m:s:ms)","OPERA","155.869","0.13498450278327748","164"
"20:49:11:515 (H:m:s:ms)","GENERIC","186.916","0.1210606627120726","484"
"20:31:55:151 (H:m:s:ms)","GENERIC","186.971","0.07782530271669195","848"
"20:49:14:430 (H:m:s:ms)","OPERA","155.872","0.11386715818620903","569"
"20:32:1:212 (H:m:s:ms)","GENERIC","186.997","0.08585420205641978","787"
"20:49:17:575 (H:m:s:ms)","GENERIC","186.953","0.11155184552467431","424"
"20:32:7:272 (H:m:s:ms)","GENERIC","186.883","0.08793261891710454","727"
"20:49:22:25 (H:m:s:ms)","OPERA","155.869","0.11296955905382089","974"
"20:32:13:333 (H:m:s:ms)","GENERIC","186.993","0.07771424935708346","666"
"20:49:23:636 (H:m:s:ms)","GENERIC","186.917","0.11689510836020524","363"
"20:32:19:393 (H:m:s:ms)","GENERIC","186.917","0.08621038714088518","645"
"20:49:29:620 (H:m:s:ms)","OPERA","155.875","0.08842918163102192","423"
"20:32:25:454 (H:m:s:ms)","GENERIC","186.921","0.09254096743474771","545"
"20:49:29:696 (H:m:s:ms)","GENERIC","186.901","0.12136735290881805","347"
"20:32:31:515 (H:m:s:ms)","GENERIC","186.975","0.07782530271669195","484"
"20:49:35:757 (H:m:s:ms)","GENERIC","186.975","0.09115067692809528","242"
"20:32:37:575 (H:m:s:ms)","GENERIC","186.94299999999998","0.08086843489771302","424"
"20:49:37:215 (H:m:s:ms)","OPERA","155.874","0.1300465400630865","784"
"20:32:43:636 (H:m:s:ms)","GENERIC","186.90699999999998","0.07773694505184937","363"
"20:32:49:696 (H:m:s:ms)","GENERIC","186.977","0.09743700465485787","341"
"20:49:41:818 (H:m:s:ms)","GENERIC","186.951","0.12167307283386514","181"
"20:49:44:810 (H:m:s:ms)","OPERA","155.864","0.12498526097338133","190"
"20:32:55:757 (H:m:s:ms)","GENERIC","186.937","0.0799095471365281","242"
"20:49:47:878 (H:m:s:ms)","GENERIC","186.973","0.12846638299023622","1121"
"20:33:1:818 (H:m:s:ms)","GENERIC","186.93099999999998","0.08680450942638045","182"
"20:49:52:405 (H:m:s:ms)","OPERA","155.871","0.12594098866571335","594"
"20:33:7:878 (H:m:s:ms)","GENERIC","186.966","0.08857532724479351","1121"
"20:49:53:939 (H:m:s:ms)","GENERIC","186.889","0.113438209057721","1061"
"20:33:13:939 (H:m:s:ms)","GENERIC","186.977","0.09743630372115022","1061"
"20:50:0:0 (H:m:s:ms)","OPERA","155.882","0.1465974451767453","1044"
"20:33:20:0 (H:m:s:ms)","GENERIC","186.969","0.09267793291889342","1037"
"20:50:0:0 (H:m:s:ms)","GENERIC","186.933","0.0799095471365281","1044"
"20:33:26:60 (H:m:s:ms)","GENERIC","186.94299999999998","0.08492956674154807","939"
"20:50:0:0 (H:m:s:ms)","GENERIC","186.96699999999998","0.10920952318935367","1044"
"20:33:32:121 (H:m:s:ms)","GENERIC","186.93099999999998","0.06962516313473947","878"
"20:50:6:60 (H:m:s:ms)","GENERIC","186.94299999999998","0.07859357194396226","939"
"20:33:38:181 (H:m:s:ms)","GENERIC","186.899","0.07025390499721645","818"
"20:50:12:121 (H:m:s:ms)","GENERIC","186.941","0.07764775402011327","879"
"20:33:44:242 (H:m:s:ms)","GENERIC","186.949","0.0831611858466647","757"
"20:33:50:303 (H:m:s:ms)","GENERIC","186.90699999999998","0.07767979259989233","696"
"20:50:18:181 (H:m:s:ms)","GENERIC","186.95","0.09386054594446583","818"
"20:50:24:242 (H:m:s:ms)","GENERIC","186.959","0.09484574470998179","758"
"20:33:56:363 (H:m:s:ms)","GENERIC","186.906","0.09486798991324835","636"
"20:50:30:303 (H:m:s:ms)","GENERIC","186.929","0.08515622096639358","696"
"20:34:2:424 (H:m:s:ms)","GENERIC","186.981","0.07914606079606136","575"
"20:50:36:363 (H:m:s:ms)","GENERIC","187.005","0.09131167248534681","636"
"20:10:0:0 (H:m:s:ms)","GENERIC","155.89600000000002","0.07213758109587019","1000"
"20:34:8:484 (H:m:s:ms)","GENERIC","186.972","0.0846730543473189","515"
"20:50:42:424 (H:m:s:ms)","GENERIC","186.93099999999998","0.10032322273482082","576"
"20:10:0:0 (H:m:s:ms)","GENERIC","186.923","0.11052593887081515","1039"
"20:34:14:545 (H:m:s:ms)","GENERIC","186.90800000000002","0.08653895236913306","454"
"20:50:48:484 (H:m:s:ms)","GENERIC","186.915","0.07096885880814094","515"
"20:10:6:60 (H:m:s:ms)","GENERIC","186.899","0.07558158605027897","939"
"20:34:20:606 (H:m:s:ms)","GENERIC","186.952","0.07825443798006121","393"
"20:50:54:545 (H:m:s:ms)","GENERIC","186.94299999999998","0.07872612863834401","455"
"20:10:12:121 (H:m:s:ms)","GENERIC","186.925","0.09588817273123929","879"
"20:34:26:666 (H:m:s:ms)","GENERIC","186.977","0.07273912286374037","333"
"20:51:0:606 (H:m:s:ms)","GENERIC","186.921","0.09677731530287162","393"
"20:10:18:181 (H:m:s:ms)","GENERIC","186.995","0.07314694957132929","818"
"20:34:32:727 (H:m:s:ms)","GENERIC","186.975","0.10156940233310761","272"
"20:51:6:666 (H:m:s:ms)","GENERIC","186.969","0.06937026268374018","333"
"20:10:24:242 (H:m:s:ms)","GENERIC","187.015","0.08356888770302283","757"
"20:34:38:787 (H:m:s:ms)","GENERIC","187.04500000000002","0.07950585609203821","212"
"20:51:12:727 (H:m:s:ms)","GENERIC","186.949","0.10203517985907211","272"
"20:10:30:303 (H:m:s:ms)","GENERIC","187.005","0.09126129853369143","696"
"20:34:44:848 (H:m:s:ms)","GENERIC","186.945","0.06942563211636285","151"
"20:10:36:363 (H:m:s:ms)","GENERIC","186.965","0.1017025782427392","636"
"20:34:50:909 (H:m:s:ms)","GENERIC","186.939","0.08088915022724352","1090"
"20:10:42:424 (H:m:s:ms)","GENERIC","186.94299999999998","0.07926835737931096","575"
"20:10:48:484 (H:m:s:ms)","GENERIC","186.941","0.0831611858466647","515"
"20:51:18:787 (H:m:s:ms)","GENERIC","186.929","0.08791457354440498","212"
"20:51:24:848 (H:m:s:ms)","GENERIC","186.935","0.0953890839197984","152"
"20:34:56:969 (H:m:s:ms)","GENERIC","186.939","0.09286385141232188","1030"
"20:51:30:909 (H:m:s:ms)","GENERIC","186.949","0.0955396952469541","1090"
"20:35:3:30 (H:m:s:ms)","GENERIC","186.91899999999998","0.07987227481164295","969"
"20:51:36:969 (H:m:s:ms)","GENERIC","186.937","0.0598307735691965","1030"
"20:10:54:545 (H:m:s:ms)","GENERIC","186.953","0.07048529956199694","455"
"20:35:9:90 (H:m:s:ms)","GENERIC","186.965","0.08515622096639358","948"
"20:51:43:30 (H:m:s:ms)","GENERIC","186.93099999999998","0.09309595047524698","969"
"20:11:0:606 (H:m:s:ms)","GENERIC","186.975","0.07273912286374037","394"
"20:35:15:151 (H:m:s:ms)","GENERIC","186.997","0.0841759950466026","848"
"20:51:49:90 (H:m:s:ms)","GENERIC","186.933","0.06137250933059404","954"
"20:11:6:666 (H:m:s:ms)","GENERIC","186.961","0.07096885880814094","333"
"20:35:21:212 (H:m:s:ms)","GENERIC","186.93","0.10084413649227789","787"
"20:51:55:151 (H:m:s:ms)","GENERIC","186.993","0.0791030945474661","848"
"20:11:12:727 (H:m:s:ms)","GENERIC","186.969","0.09286385141232188","272"
"20:35:27:272 (H:m:s:ms)","GENERIC","186.96699999999998","0.08423336709736656","727"
"20:52:1:212 (H:m:s:ms)","GENERIC","186.997","0.09935230619630037","787"
"20:11:18:787 (H:m:s:ms)","GENERIC","186.90699999999998","0.07132103350996563","212"
"20:35:33:333 (H:m:s:ms)","GENERIC","186.973","0.07767979259989233","666"
"20:52:7:272 (H:m:s:ms)","GENERIC","186.893","0.07735861402915563","727"
"20:11:24:848 (H:m:s:ms)","GENERIC","186.89600000000002","0.0853738265596274","151"
"20:35:39:393 (H:m:s:ms)","GENERIC","186.97899999999998","0.07190031217864487","642"
"20:52:13:333 (H:m:s:ms)","GENERIC","186.987","0.07273912286374037","666"
"20:11:30:909 (H:m:s:ms)","GENERIC","186.93099999999998","0.0805154002176583","1090"
"20:35:45:454 (H:m:s:ms)","GENERIC","186.915","0.1031009574992075","547"
"20:11:36:969 (H:m:s:ms)","GENERIC","186.951","0.09901185592031543","1031"
"20:35:51:515 (H:m:s:ms)","GENERIC","186.95","0.08694196205274568","484"
"20:11:43:30 (H:m:s:ms)","GENERIC","186.959","0.0851388855971328","970"
"20:11:49:90 (H:m:s:ms)","GENERIC","186.895","0.07798115096960721","952"
"20:0:54:545 (H:m:s:ms)","GENERIC","155.913","0.09541427004915523","455"
"20:1:0:606 (H:m:s:ms)","GENERIC","155.924","0.09516131373170356","393"
"20:1:6:666 (H:m:s:ms)","GENERIC","155.911","0.07821222197507972","333"
"20:1:12:727 (H:m:s:ms)","GENERIC","155.917","0.08492956674154807","272"
"20:1:18:787 (H:m:s:ms)","GENERIC","155.891","0.08770223900437678","213"
"20:1:24:848 (H:m:s:ms)","GENERIC","155.877","0.08553591846922771","152"
"20:1:30:909 (H:m:s:ms)","GENERIC","155.904","0.08678137516584467","1090"
"20:1:36:969 (H:m:s:ms)","GENERIC","155.902","0.07048529956199694","1030"
"20:1:43:30 (H:m:s:ms)","GENERIC","155.911","0.09438407306385826","969"
"20:1:49:90 (H:m:s:ms)","GENERIC","155.887","0.0953890839197984","923"
"20:35:57:575 (H:m:s:ms)","GENERIC","186.988","0.09522991077873764","424"
"20:36:3:636 (H:m:s:ms)","GENERIC","186.923","0.08402891101485631","363"
"20:11:55:151 (H:m:s:ms)","GENERIC","186.96699999999998","0.08755659006778505","849"
"20:36:9:696 (H:m:s:ms)","GENERIC","187.004","0.08436738632058871","339"
"20:12:1:212 (H:m:s:ms)","GENERIC","187.031","0.060522807330974954","787"
"20:36:15:757 (H:m:s:ms)","GENERIC","186.925","0.1031009574992075","242"
"20:12:7:272 (H:m:s:ms)","GENERIC","186.91899999999998","0.09534879276169628","727"
"20:36:21:818 (H:m:s:ms)","GENERIC","186.933","0.09238614241915616","181"
"20:12:13:333 (H:m:s:ms)","GENERIC","186.987","0.09977897887368371","666"
"20:36:27:878 (H:m:s:ms)","GENERIC","186.912","0.08696046222765488","1121"
"20:12:19:393 (H:m:s:ms)","GENERIC","186.929","0.07641253121786944","647"
"20:36:33:939 (H:m:s:ms)","GENERIC","186.949","0.07098272961176369","1060"
"20:12:25:454 (H:m:s:ms)","GENERIC","186.904","0.08541315435527715","545"
"20:36:40:0 (H:m:s:ms)","GENERIC","186.935","0.08046707416738125","1037"
"20:12:31:515 (H:m:s:ms)","GENERIC","186.949","0.07880585348561367","484"
"20:36:46:60 (H:m:s:ms)","GENERIC","186.935","0.08356888770302283","939"
"20:12:37:575 (H:m:s:ms)","GENERIC","186.90699999999998","0.07914606079606136","425"
"20:36:52:121 (H:m:s:ms)","GENERIC","186.957","0.08678137516584467","878"
"20:12:43:636 (H:m:s:ms)","GENERIC","186.90300000000002","0.0909530451949836","363"
"20:12:49:696 (H:m:s:ms)","GENERIC","186.951","0.08583283021011603","343"
"20:1:55:151 (H:m:s:ms)","GENERIC","155.912","0.0716427331816715","848"
"20:2:1:212 (H:m:s:ms)","GENERIC","155.953","0.0772170020300769","787"
"20:2:7:272 (H:m:s:ms)","GENERIC","155.901","0.07558158605027897","728"
"20:2:13:333 (H:m:s:ms)","GENERIC","155.92","0.08620689828845327","666"
"20:2:19:393 (H:m:s:ms)","GENERIC","155.907","0.0689949367712717","623"
"20:2:25:454 (H:m:s:ms)","GENERIC","155.88","0.08568138656619266","545"
"20:2:31:515 (H:m:s:ms)","GENERIC","155.90800000000002","0.07098272961176369","485"
"20:2:37:575 (H:m:s:ms)","GENERIC","155.885","0.08536777764987422","424"
"20:2:43:636 (H:m:s:ms)","GENERIC","155.89600000000002","0.09484574470998179","364"
"20:2:49:696 (H:m:s:ms)","GENERIC","155.913","0.08459756220310807","321"
"20:36:58:181 (H:m:s:ms)","GENERIC","186.973","0.09126129853369143","818"
"20:37:4:242 (H:m:s:ms)","GENERIC","186.929","0.07811610806267312","757"
"20:12:55:757 (H:m:s:ms)","GENERIC","186.906","0.07904121894817903","242"
"20:37:10:303 (H:m:s:ms)","GENERIC","186.917","0.07764775402011327","697"
"20:13:1:818 (H:m:s:ms)","GENERIC","186.91","0.08944466973884962","181"
"20:37:16:363 (H:m:s:ms)","GENERIC","186.935","0.0847501349383314","636"
"20:13:7:878 (H:m:s:ms)","GENERIC","186.933","0.08398992334781868","1121"
"20:37:22:424 (H:m:s:ms)","GENERIC","186.941","0.09334353242812002","575"
"20:13:13:939 (H:m:s:ms)","GENERIC","186.964","0.07692722506361713","1060"
"20:37:28:484 (H:m:s:ms)","GENERIC","186.927","0.07937854067066341","515"
"20:13:20:0 (H:m:s:ms)","GENERIC","186.975","0.09201831788389712","1040"
"20:37:34:545 (H:m:s:ms)","GENERIC","186.999","0.09290522024663218","454"
"20:13:26:60 (H:m:s:ms)","GENERIC","186.929","0.08236519925581828","939"
"20:37:40:606 (H:m:s:ms)","GENERIC","186.939","0.06849899624615395","394"
"20:13:32:121 (H:m:s:ms)","GENERIC","186.951","0.07817067187736089","878"
"20:37:46:666 (H:m:s:ms)","GENERIC","186.891","0.06394585594173531","333"
"20:13:38:181 (H:m:s:ms)","GENERIC","186.877","0.09341758018570634","818"
"20:37:52:727 (H:m:s:ms)","GENERIC","186.893","0.09354540069154944","272"
"20:13:44:242 (H:m:s:ms)","GENERIC","186.941","0.0868071463590587","757"
"20:13:50:303 (H:m:s:ms)","GENERIC","186.895","0.08456009414128386","696"
"20:2:55:757 (H:m:s:ms)","GENERIC","155.886","0.10080287283093342","242"
"20:3:1:818 (H:m:s:ms)","GENERIC","155.893","0.10199751408209788","181"
"20:3:7:878 (H:m:s:ms)","GENERIC","155.895","0.08663894073805299","121"
"20:3:13:939 (H:m:s:ms)","GENERIC","155.916","0.0550748867350976","1061"
"20:3:20:0 (H:m:s:ms)","GENERIC","155.911","0.06912118123846141","1000"
"20:3:26:60 (H:m:s:ms)","GENERIC","155.89600000000002","0.09599359407616585","939"
"20:3:32:121 (H:m:s:ms)","GENERIC","155.911","0.09187304210779475","878"
"20:3:38:181 (H:m:s:ms)","GENERIC","155.886","0.07673356641299367","818"
"20:3:44:242 (H:m:s:ms)","GENERIC","155.912","0.06700321487935665","758"
"20:3:50:303 (H:m:s:ms)","GENERIC","155.89","0.09327741743450488","696"
"20:37:58:787 (H:m:s:ms)","GENERIC","186.90699999999998","0.07344473693607592","212"
"20:38:4:848 (H:m:s:ms)","GENERIC","186.965","0.0750748379225077","151"
"20:13:56:363 (H:m:s:ms)","GENERIC","186.915","0.06655779079114989","636"
"20:38:10:909 (H:m:s:ms)","GENERIC","186.957","0.08678137516584467","1090"
"20:14:2:424 (H:m:s:ms)","GENERIC","186.971","0.06108180062603961","575"
"20:38:16:969 (H:m:s:ms)","GENERIC","186.934","0.09546228026851544","1030"
"20:14:8:484 (H:m:s:ms)","GENERIC","186.961","0.06968637560124562","515"
"20:38:23:30 (H:m:s:ms)","GENERIC","186.96","0.07543917767735565","969"
"20:14:14:545 (H:m:s:ms)","GENERIC","186.9","0.08839029284975582","454"
"20:38:29:90 (H:m:s:ms)","GENERIC","186.976","0.07068986299238651","947"
"20:14:20:606 (H:m:s:ms)","GENERIC","186.968","0.08049792542991234","393"
"20:38:35:151 (H:m:s:ms)","GENERIC","186.993","0.1007427009984906","848"
"20:14:26:666 (H:m:s:ms)","GENERIC","186.959","0.09115067692809528","333"
"20:38:41:212 (H:m:s:ms)","GENERIC","186.91899999999998","0.0932217557650245","787"
"20:14:32:727 (H:m:s:ms)","GENERIC","186.963","0.05453039752907194","272"
"20:38:47:272 (H:m:s:ms)","GENERIC","186.917","0.09003749851310767","727"
"20:14:38:787 (H:m:s:ms)","GENERIC","187.019","0.06751171950376202","212"
"20:38:53:333 (H:m:s:ms)","GENERIC","186.935","0.08511108576050366","666"
"20:14:44:848 (H:m:s:ms)","GENERIC","186.95","0.09406888507920459","151"
"20:14:50:909 (H:m:s:ms)","GENERIC","186.941","0.08414418439389028","1090"
"20:3:56:363 (H:m:s:ms)","GENERIC","155.893","0.09986944521551136","636"
"20:4:2:424 (H:m:s:ms)","GENERIC","155.918","0.09484574470998179","575"
"20:4:8:484 (H:m:s:ms)","GENERIC","155.92","0.08680450942638045","515"
"20:4:14:545 (H:m:s:ms)","GENERIC","155.882","0.09567484783592606","455"
"20:4:20:606 (H:m:s:ms)","GENERIC","155.916","0.08708136869932315","393"
"20:4:26:666 (H:m:s:ms)","GENERIC","155.922","0.09318364199651175","333"
"20:4:32:727 (H:m:s:ms)","GENERIC","155.909","0.07872612863834401","272"
"20:4:38:787 (H:m:s:ms)","GENERIC","155.935","0.08178288610916275","212"
"20:4:44:848 (H:m:s:ms)","GENERIC","155.90800000000002","0.05082061460287335","153"
"20:4:50:909 (H:m:s:ms)","GENERIC","155.914","0.07207845034033719","1090"
"20:38:59:393 (H:m:s:ms)","GENERIC","186.91","0.08283533496368978","645"
"20:39:5:454 (H:m:s:ms)","GENERIC","186.928","0.09486798991324835","545"
"20:14:56:969 (H:m:s:ms)","GENERIC","186.916","0.07800297868829477","1030"
"20:39:11:515 (H:m:s:ms)","GENERIC","186.929","0.09148231834889549","484"
"20:15:3:30 (H:m:s:ms)","GENERIC","186.927","0.07777790263494985","969"
"20:39:17:575 (H:m:s:ms)","GENERIC","186.94299999999998","0.08881270362076138","424"
"20:15:9:90 (H:m:s:ms)","GENERIC","186.93200000000002","0.0918966265144602","946"
"20:39:23:636 (H:m:s:ms)","GENERIC","186.909","0.07533124497454295","363"
"20:15:15:151 (H:m:s:ms)","GENERIC","186.97899999999998","0.08195680704127627","848"
"20:39:29:696 (H:m:s:ms)","GENERIC","186.889","0.07711404206790584","342"
"20:15:21:212 (H:m:s:ms)","GENERIC","186.899","0.07160535484841561","787"
"20:39:35:757 (H:m:s:ms)","GENERIC","186.961","0.07698067494991805","242"
"20:15:27:272 (H:m:s:ms)","GENERIC","186.975","0.08939271987078426","728"
"20:39:41:818 (H:m:s:ms)","GENERIC","186.965","0.09341758018570634","181"
"20:15:33:333 (H:m:s:ms)","GENERIC","186.94299999999998","0.07519157404570818","666"
"20:39:47:878 (H:m:s:ms)","GENERIC","186.973","0.07360724887128348","1121"
"20:15:39:393 (H:m:s:ms)","GENERIC","187.00900000000001","0.07872612863834401","645"
"20:39:53:939 (H:m:s:ms)","GENERIC","186.905","0.08620954773675438","1060"
"20:15:45:454 (H:m:s:ms)","GENERIC","186.885","0.08400881175268815","545"
"20:15:51:515 (H:m:s:ms)","GENERIC","186.972","0.08823343031474377","484"
"20:4:56:969 (H:m:s:ms)","GENERIC","155.89","0.08046707416738125","1030"
"20:5:3:30 (H:m:s:ms)","GENERIC","155.892","0.08575483927779722","969"
"20:5:9:90 (H:m:s:ms)","GENERIC","155.899","0.08708136869932315","933"
"20:5:15:151 (H:m:s:ms)","GENERIC","155.917","0.08680450942638045","849"
"20:5:21:212 (H:m:s:ms)","GENERIC","155.872","0.0763746499695262","787"
"20:5:27:272 (H:m:s:ms)","GENERIC","155.92","0.07641253121786944","727"
"20:5:33:333 (H:m:s:ms)","GENERIC","155.903","0.0680381827492618","666"
"20:5:39:393 (H:m:s:ms)","GENERIC","155.949","0.07871811259549764","632"
"20:5:45:454 (H:m:s:ms)","GENERIC","155.883","0.06751171950376202","545"
"20:5:51:515 (H:m:s:ms)","GENERIC","155.922","0.09286385141232188","484"
"20:15:57:575 (H:m:s:ms)","GENERIC","186.959","0.07872612863834401","424"
"20:16:3:636 (H:m:s:ms)","GENERIC","186.903","0.09677731530287162","363"
"20:16:9:696 (H:m:s:ms)","GENERIC","186.987","0.09341758018570634","343"
"20:16:15:757 (H:m:s:ms)","GENERIC","186.893","0.08766920130514519","242"
"20:16:21:818 (H:m:s:ms)","GENERIC","186.935","0.09239342785342866","181"
"20:16:27:878 (H:m:s:ms)","GENERIC","186.881","0.08129791038912576","1121"
"20:16:33:939 (H:m:s:ms)","GENERIC","186.93099999999998","0.08528899489041976","1060"
"20:16:40:0 (H:m:s:ms)","GENERIC","186.935","0.0814940457861001","1039"
"20:16:46:60 (H:m:s:ms)","GENERIC","186.951","0.08643038515277741","939"
"20:16:52:121 (H:m:s:ms)","GENERIC","186.95","0.09089816689800446","878"
"20:5:57:575 (H:m:s:ms)","GENERIC","155.912","0.08617259778304379","424"
"20:6:3:636 (H:m:s:ms)","GENERIC","155.883","0.08939271987078426","363"
"20:6:9:696 (H:m:s:ms)","GENERIC","155.92","0.06942563211636285","330"
"20:6:15:757 (H:m:s:ms)","GENERIC","155.885","0.09661839200386252","242"
"20:6:21:818 (H:m:s:ms)","GENERIC","155.895","0.1033341635425878","181"
"20:6:27:878 (H:m:s:ms)","GENERIC","155.875","0.09159799426426654","121"
"20:6:33:939 (H:m:s:ms)","GENERIC","155.893","0.08452842803702273","1061"
"20:6:40:0 (H:m:s:ms)","GENERIC","155.898","0.07641253121786944","1000"
"20:6:46:60 (H:m:s:ms)","GENERIC","155.914","0.06937026268374018","939"
"20:6:52:121 (H:m:s:ms)","GENERIC","155.904","0.07777790263494985","878"
"20:16:58:181 (H:m:s:ms)","GENERIC","186.985","0.09817990795865687","818"
"20:17:4:242 (H:m:s:ms)","GENERIC","186.927","0.07937594110498344","757"
"20:17:10:303 (H:m:s:ms)","GENERIC","186.933","0.09352578639966946","696"
"20:17:16:363 (H:m:s:ms)","GENERIC","186.917","0.07877492228067591","636"
"20:17:22:424 (H:m:s:ms)","GENERIC","186.953","0.07658946310059678","575"
"20:17:28:484 (H:m:s:ms)","GENERIC","186.899","0.06864121294667964","515"
"20:17:34:545 (H:m:s:ms)","GENERIC","187.011","0.08583824634178638","454"
"20:17:40:606 (H:m:s:ms)","GENERIC","186.961","0.06938697896990659","393"
"20:17:46:666 (H:m:s:ms)","GENERIC","186.903","0.07025390499721645","333"
"20:17:52:727 (H:m:s:ms)","GENERIC","186.891","0.0701097905676104","272"
"20:6:58:181 (H:m:s:ms)","GENERIC","155.922","0.08680450942638045","818"
"20:7:4:242 (H:m:s:ms)","GENERIC","155.898","0.0805154002176583","757"
"20:7:10:303 (H:m:s:ms)","GENERIC","155.901","0.07843684640569494","696"
"20:7:16:363 (H:m:s:ms)","GENERIC","155.894","0.09238614241915616","636"
"20:7:22:424 (H:m:s:ms)","GENERIC","155.911","0.10260053947945184","575"
"20:7:28:484 (H:m:s:ms)","GENERIC","155.882","0.07673356641299367","515"
"20:7:34:545 (H:m:s:ms)","GENERIC","155.937","0.09305985163268721","455"
"20:7:40:606 (H:m:s:ms)","GENERIC","155.912","0.07817067187736089","393"
"20:7:46:666 (H:m:s:ms)","GENERIC","155.891","0.07825443798006121","333"
"20:7:52:727 (H:m:s:ms)","GENERIC","155.879","0.09136483892695284","272"
"20:17:58:787 (H:m:s:ms)","GENERIC","186.923","0.09154183942501905","212"
"20:18:4:848 (H:m:s:ms)","GENERIC","186.969","0.07578248664932928","151"
"20:18:10:909 (H:m:s:ms)","GENERIC","186.963","0.08441367937390103","1090"
"20:18:16:969 (H:m:s:ms)","GENERIC","186.911","0.08452842803702273","1031"
"20:18:23:30 (H:m:s:ms)","GENERIC","186.969","0.0778014871783161","969"
"20:18:29:90 (H:m:s:ms)","GENERIC","186.993","0.07664855373546989","949"
"20:18:35:151 (H:m:s:ms)","GENERIC","186.999","0.0955396952469541","848"
"20:18:41:212 (H:m:s:ms)","GENERIC","186.925","0.08886069956582604","787"
"20:18:47:272 (H:m:s:ms)","GENERIC","186.945","0.06268821857306359","727"
"20:18:53:333 (H:m:s:ms)","GENERIC","186.94299999999998","0.08511108576050366","666"
"20:7:58:787 (H:m:s:ms)","GENERIC","155.902","0.0955396952469541","213"
"20:8:4:848 (H:m:s:ms)","GENERIC","155.916","0.07627263574189458","151"
"20:8:10:909 (H:m:s:ms)","GENERIC","155.916","0.08356888770302283","1090"
"20:8:16:969 (H:m:s:ms)","GENERIC","155.892","0.06821975203388657","1030"
"20:8:23:30 (H:m:s:ms)","GENERIC","155.918","0.07068986299238651","969"
"20:8:29:90 (H:m:s:ms)","GENERIC","155.94","0.0895534164770894","944"
"20:8:35:151 (H:m:s:ms)","GENERIC","155.924","0.08766920130514519","848"
"20:8:41:212 (H:m:s:ms)","GENERIC","155.9","0.05719716937002709","788"
"20:8:47:272 (H:m:s:ms)","GENERIC","155.892","0.0853518965082412","727"
"20:8:53:333 (H:m:s:ms)","GENERIC","155.91","0.07937854067066341","666"
"20:18:59:393 (H:m:s:ms)","GENERIC","186.925","0.08475740947919859","645"
"20:19:5:454 (H:m:s:ms)","GENERIC","186.947","0.09448671403480016","545"
"20:19:11:515 (H:m:s:ms)","GENERIC","186.913","0.07203758674375658","484"
"20:19:17:575 (H:m:s:ms)","GENERIC","186.925","0.04704507795196096","424"
"20:19:23:636 (H:m:s:ms)","GENERIC","186.941","0.09290522024663218","363"
"20:19:29:696 (H:m:s:ms)","GENERIC","186.906","0.07818901010805887","341"
"20:19:35:757 (H:m:s:ms)","GENERIC","186.935","0.0789572315696862","242"
"20:19:41:818 (H:m:s:ms)","GENERIC","186.97899999999998","0.10182827323448468","181"
"20:19:47:878 (H:m:s:ms)","GENERIC","186.933","0.06284935307374227","1121"
"20:19:53:939 (H:m:s:ms)","GENERIC","186.937","0.06913528173835808","1060"
"20:8:59:393 (H:m:s:ms)","GENERIC","155.89600000000002","0.08413938425875427","648"
"20:9:5:454 (H:m:s:ms)","GENERIC","155.90800000000002","0.09110923311326861","545"
"20:9:11:515 (H:m:s:ms)","GENERIC","155.89600000000002","0.05405324290012379","484"
"20:9:17:575 (H:m:s:ms)","GENERIC","155.899","0.08607232454300176","424"
"20:9:23:636 (H:m:s:ms)","GENERIC","155.912","0.06963242370892367","363"
"20:9:29:696 (H:m:s:ms)","GENERIC","155.898","0.0923810722731668","342"
"20:9:35:757 (H:m:s:ms)","GENERIC","155.898","0.10119209320351542","243"
"20:9:41:818 (H:m:s:ms)","GENERIC","155.931","0.08088915022724352","181"
"20:9:47:878 (H:m:s:ms)","GENERIC","155.89","0.06366300273759286","121"
"20:9:53:939 (H:m:s:ms)","GENERIC","155.909","0.08620954773675438","1061"
"21:41:36:969 (H:m:s:ms)","GENERIC","186.883","0.06818049715858863","1030"
"21:41:30:909 (H:m:s:ms)","GENERIC","186.911","0.05951594404029152","1090"
"21:41:24:848 (H:m:s:ms)","GENERIC","186.913","0.07817067187736089","151"
"21:41:18:787 (H:m:s:ms)","GENERIC","186.941","0.08263297245719754","212"
"21:41:12:727 (H:m:s:ms)","GENERIC","186.985","0.09438407306385826","272"
"21:41:6:666 (H:m:s:ms)","GENERIC","187.013","0.08532489675411141","333"
"21:41:0:606 (H:m:s:ms)","GENERIC","186.893","0.08915647854721598","393"
"21:41:55:151 (H:m:s:ms)","GENERIC","186.953","0.09341758018570634","848"
"21:41:49:90 (H:m:s:ms)","GENERIC","186.925","0.09433080941322361","951"
"21:41:43:30 (H:m:s:ms)","GENERIC","186.927","0.10367615045434624","969"
