"time (H:m:s:ms)","type","latency","utilisation","waiting"
"21:42:37:575 (H:m:s:ms)","GENERIC","62.099","0.010614615773885066","465"
"21:42:19:393 (H:m:s:ms)","GENERIC","62.053","0.0204379141140511","681"
"21:42:13:333 (H:m:s:ms)","GENERIC","62.041","0.010243102844229857","707"
"21:42:7:272 (H:m:s:ms)","GENERIC","62.095","0.00834027488666795","768"
"21:42:1:212 (H:m:s:ms)","GENERIC","62.019","0.030631481349314905","826"
"21:41:55:151 (H:m:s:ms)","GENERIC","62.077","0.00717219138186554","887"
"21:41:49:90 (H:m:s:ms)","GENERIC","62.105","0.01521451548625453","983"
"21:41:43:30 (H:m:s:ms)","GENERIC","62.033","0.017966332838012973","1004"
"21:41:36:969 (H:m:s:ms)","GENERIC","62.023","0.020477630071210118","1070"
"21:42:31:515 (H:m:s:ms)","GENERIC","62.107","0.017010345435994192","524"
"21:42:25:454 (H:m:s:ms)","GENERIC","62.093","0.030646929773533123","580"
"21:43:44:242 (H:m:s:ms)","GENERIC","62.053","0.05103103630798264","794"
"21:43:38:181 (H:m:s:ms)","GENERIC","62.049","0.023251529171549625","856"
"21:43:26:60 (H:m:s:ms)","GENERIC","62.061","0.015628081550172906","975"
"20:0:0:0 (H:m:s:ms)","GENERIC","31.046","0.04111771718695786","2225"
"21:43:20:0 (H:m:s:ms)","GENERIC","62.155","0.024503201852853197","1071"
"20:0:6:60 (H:m:s:ms)","GENERIC","31.042","0.01029960315478367","986"
"21:43:13:939 (H:m:s:ms)","GENERIC","62.049","0.011725876297341856","1102"
"20:0:12:121 (H:m:s:ms)","GENERIC","31.085","0.017511008746840116","920"
"21:43:7:878 (H:m:s:ms)","GENERIC","62.069","0.010290819754059611","1161"
"20:0:18:181 (H:m:s:ms)","GENERIC","31.039","0.01029960315478367","859"
"21:43:1:818 (H:m:s:ms)","GENERIC","62.091","0.01026901528371238","221"
"20:0:24:242 (H:m:s:ms)","GENERIC","31.045","0.023094010767584817","821"
"21:42:55:757 (H:m:s:ms)","GENERIC","62.121","0.0105477729188475","281"
"20:0:30:303 (H:m:s:ms)","GENERIC","31.023","0.024730023737838898","733"
"21:42:49:696 (H:m:s:ms)","GENERIC","62.083","0.02091035146414103","377"
"20:0:36:363 (H:m:s:ms)","GENERIC","31.026","0.020747066572165265","676"
"21:42:43:636 (H:m:s:ms)","GENERIC","62.131","0.026906633794452302","398"
"20:0:42:424 (H:m:s:ms)","GENERIC","31.034","0.014344382763731105","615"
"21:10:24:242 (H:m:s:ms)","GENERIC","62.087","0.020561821197800183","799"
"20:0:48:484 (H:m:s:ms)","GENERIC","31.039","0.04097452336056921","554"
"21:10:30:303 (H:m:s:ms)","GENERIC","62.043","0.04085501376699513","733"
"21:10:36:363 (H:m:s:ms)","GENERIC","62.077","0.007977671030558093","679"
"21:10:42:424 (H:m:s:ms)","GENERIC","62.047","0.016379690803959897","617"
"21:10:48:484 (H:m:s:ms)","GENERIC","62.153","0.01586984095231734","558"
"21:10:54:545 (H:m:s:ms)","GENERIC","62.149","0.029439202887759433","497"
"21:11:0:606 (H:m:s:ms)","GENERIC","62.049","0.034641016151377595","430"
"21:11:6:666 (H:m:s:ms)","GENERIC","62.075","0.00820121927683165","375"
"21:43:32:121 (H:m:s:ms)","GENERIC","62.073","0.00896887793148402","919"
"21:11:12:727 (H:m:s:ms)","GENERIC","62.043","0.01825741858350537","313"
"21:11:18:787 (H:m:s:ms)","GENERIC","62.057","0.030792315058576925","250"
"21:25:56:962 (H:m:s:ms)","OPERA","62.013","0.027484344238870424","1075"
"21:44:50:909 (H:m:s:ms)","GENERIC","62.123","0.015389622582594829","1127"
"21:44:44:848 (H:m:s:ms)","GENERIC","62.071","0.015214515486254519","193"
"21:44:38:787 (H:m:s:ms)","GENERIC","62.087","0.040993179571116985","254"
"21:44:32:727 (H:m:s:ms)","GENERIC","62.091","0.04114253678777375","314"
"21:44:26:666 (H:m:s:ms)","GENERIC","62.085","0.023094010767584817","373"
"21:44:20:606 (H:m:s:ms)","GENERIC","62.089","0.031365527196211586","429"
"21:44:14:545 (H:m:s:ms)","GENERIC","62.089","0.04109569339698593","489"
"21:44:8:484 (H:m:s:ms)","GENERIC","62.089","0.015214515486254496","554"
"21:44:2:424 (H:m:s:ms)","GENERIC","62.099","0.021984843263788096","610"
"21:43:56:363 (H:m:s:ms)","GENERIC","62.077","0.00841625411530166","677"
"21:11:24:848 (H:m:s:ms)","GENERIC","62.105","0.02730428362008491","192"
"21:43:50:303 (H:m:s:ms)","GENERIC","62.059","0.04085501376699513","732"
"21:11:30:909 (H:m:s:ms)","GENERIC","62.057","0.03227486121839502","1126"
"21:11:36:969 (H:m:s:ms)","GENERIC","62.037","0.02043088730029771","1073"
"21:11:43:30 (H:m:s:ms)","GENERIC","62.047","0.014400504654268472","1010"
"21:11:49:90 (H:m:s:ms)","GENERIC","62.063","0.020816659994661212","986"
"21:11:55:151 (H:m:s:ms)","GENERIC","62.091","0.04088336862260685","889"
"21:12:1:212 (H:m:s:ms)","GENERIC","62.051","0.01053361616748513","828"
"21:12:7:272 (H:m:s:ms)","GENERIC","62.043","0.01110402268224857","768"
"21:12:13:333 (H:m:s:ms)","GENERIC","62.051","0.025020824660004076","701"
"21:12:19:393 (H:m:s:ms)","GENERIC","62.065","0.015324940117985431","682"
"21:26:33:939 (H:m:s:ms)","GENERIC","62.163","0.013646495955073931","1101"
"21:45:57:575 (H:m:s:ms)","GENERIC","62.039","0.010229636175666591","463"
"21:26:27:878 (H:m:s:ms)","GENERIC","62.095","0.05770145453309028","1199"
"21:45:51:515 (H:m:s:ms)","GENERIC","62.035","0.014400504654268472","524"
"21:45:45:454 (H:m:s:ms)","GENERIC","62.129","0.015214515486254496","584"
"21:45:39:393 (H:m:s:ms)","GENERIC","62.109","0.02042413905863607","682"
"21:26:21:818 (H:m:s:ms)","GENERIC","62.045","0.04317091538376008","222"
"21:26:19:746 (H:m:s:ms)","OPERA","62.015","0.04166193687188604","327"
"21:45:33:333 (H:m:s:ms)","GENERIC","62.025","0.026140645235596723","700"
"21:26:15:757 (H:m:s:ms)","GENERIC","62.093","0.022189461439100285","281"
"21:45:27:272 (H:m:s:ms)","GENERIC","62.117","0.03067002769176659","765"
"21:26:12:151 (H:m:s:ms)","OPERA","62.015","0.0341056891291985","888"
"21:45:21:212 (H:m:s:ms)","GENERIC","62.055","0.0247300237378389","824"
"21:26:9:696 (H:m:s:ms)","GENERIC","62.125","0.049160066996482815","377"
"21:45:15:151 (H:m:s:ms)","GENERIC","62.047","0.011547005383792408","889"
"21:26:4:556 (H:m:s:ms)","OPERA","62.013","0.04769713525486689","477"
"21:45:9:90 (H:m:s:ms)","GENERIC","62.101","0.020585322770060453","987"
"21:12:25:454 (H:m:s:ms)","GENERIC","62.113","0.029439202887759437","586"
"21:26:3:636 (H:m:s:ms)","GENERIC","62.105","0.024503201852853197","398"
"21:45:3:30 (H:m:s:ms)","GENERIC","62.067","0.014136252073487598","1010"
"21:12:31:515 (H:m:s:ms)","GENERIC","62.109","0.005287421408024005","526"
"21:25:57:575 (H:m:s:ms)","GENERIC","62.039","0.03298206607951086","497"
"21:44:56:969 (H:m:s:ms)","GENERIC","62.029","0.02053803056742475","1071"
"21:12:37:575 (H:m:s:ms)","GENERIC","62.081","0.024503201852853197","459"
"21:12:43:636 (H:m:s:ms)","GENERIC","62.123","0.013742172119435217","403"
"21:12:49:696 (H:m:s:ms)","GENERIC","62.045","0.027397128931323907","381"
"21:12:55:757 (H:m:s:ms)","GENERIC","62.135","0.05103103630798264","277"
"21:13:1:818 (H:m:s:ms)","GENERIC","62.077","0.015476402454117343","220"
"21:13:7:878 (H:m:s:ms)","GENERIC","62.127","0.015214515486254578","1162"
"21:13:13:939 (H:m:s:ms)","GENERIC","62.063","0.01832353892154098","1097"
"21:13:20:0 (H:m:s:ms)","GENERIC","62.135","0.020747066572165265","1078"
"21:26:27:341 (H:m:s:ms)","OPERA","62.015","0.04089142750672073","698"
"21:27:10:303 (H:m:s:ms)","GENERIC","62.063","0.02243172272077069","736"
"21:47:4:242 (H:m:s:ms)","GENERIC","62.111","0.02455150954325262","792"
"21:27:5:316 (H:m:s:ms)","OPERA","62.013","0.028378552190419255","718"
"21:46:58:181 (H:m:s:ms)","GENERIC","62.051","0.00587444017557264","858"
"21:27:4:242 (H:m:s:ms)","GENERIC","62.067","0.019245008972987403","798"
"21:46:52:121 (H:m:s:ms)","GENERIC","62.061","0.006801360408136015","917"
"21:46:46:60 (H:m:s:ms)","GENERIC","62.063","0.010309826235528974","979"
"21:46:40:0 (H:m:s:ms)","GENERIC","62.024","0.01168620554846696","1078"
"21:26:58:181 (H:m:s:ms)","GENERIC","62.023","0.03566897692220118","854"
"21:26:57:721 (H:m:s:ms)","OPERA","31.008","0.03923956268083438","313"
"21:26:52:121 (H:m:s:ms)","GENERIC","62.081","0.047715711391841616","910"
"21:46:33:939 (H:m:s:ms)","GENERIC","62.145","0.013786040758123671","1101"
"21:26:50:126 (H:m:s:ms)","OPERA","62.015","0.04267984528634868","912"
"21:46:27:878 (H:m:s:ms)","GENERIC","62.105","0.017551000184005513","1159"
"21:26:46:60 (H:m:s:ms)","GENERIC","62.057","0.019579642459845788","979"
"21:46:21:818 (H:m:s:ms)","GENERIC","62.071","0.01086005392941771","220"
"21:13:26:60 (H:m:s:ms)","GENERIC","62.095","0.011977555225341843","982"
"21:26:42:531 (H:m:s:ms)","OPERA","62.015","0.025664572021348298","502"
"21:46:15:757 (H:m:s:ms)","GENERIC","62.137","0.011685455220183409","282"
"21:13:32:121 (H:m:s:ms)","GENERIC","62.053","0.029439202887759437","915"
"21:26:40:0 (H:m:s:ms)","GENERIC","62.066","0.027041600385969974","1075"
"21:46:9:696 (H:m:s:ms)","GENERIC","62.087","0.04083133758832405","373"
"21:13:38:181 (H:m:s:ms)","GENERIC","62.073","0.040830498767828086","859"
"21:26:34:936 (H:m:s:ms)","OPERA","62.013","0.02227516422635402","1138"
"21:46:3:636 (H:m:s:ms)","GENERIC","62.109","0.010296529440472522","403"
"21:13:44:242 (H:m:s:ms)","GENERIC","62.077","0.010614615773885066","799"
"21:13:50:303 (H:m:s:ms)","GENERIC","62.035","0.03067002769176659","733"
"21:13:56:363 (H:m:s:ms)","GENERIC","62.075","0.010296529440472522","679"
"21:14:2:424 (H:m:s:ms)","GENERIC","62.075","0.01423801560735806","616"
"21:14:8:484 (H:m:s:ms)","GENERIC","62.095","0.020449868526290643","551"
"21:14:14:545 (H:m:s:ms)","GENERIC","62.119","0.017535192990021087","491"
"21:14:20:606 (H:m:s:ms)","GENERIC","62.089","0.013664393190372302","436"
"21:27:46:666 (H:m:s:ms)","GENERIC","62.049","0.058036368336918505","371"
"21:48:10:909 (H:m:s:ms)","GENERIC","62.101","0.014433756729740567","1130"
"21:27:43:291 (H:m:s:ms)","OPERA","62.013","0.04348285081977183","741"
"21:48:4:848 (H:m:s:ms)","GENERIC","62.113","0.015369673121177681","187"
"21:27:40:606 (H:m:s:ms)","GENERIC","62.105","0.030764305694717248","432"
"21:47:58:787 (H:m:s:ms)","GENERIC","62.081","0.03070250857701704","247"
"21:27:35:696 (H:m:s:ms)","OPERA","62.015","0.02914230115688832","342"
"21:47:52:727 (H:m:s:ms)","GENERIC","62.079","0.014105292973503873","311"
"21:47:46:666 (H:m:s:ms)","GENERIC","62.033","0.02091035146414103","367"
"21:47:40:606 (H:m:s:ms)","GENERIC","62.085","0.017440374613713495","432"
"21:27:34:545 (H:m:s:ms)","GENERIC","62.041","0.010389704334592055","494"
"21:27:28:484 (H:m:s:ms)","GENERIC","62.057","0.03282479785633917","588"
"21:27:28:101 (H:m:s:ms)","OPERA","62.015","0.011722412976277281","938"
"21:47:34:545 (H:m:s:ms)","GENERIC","62.093","0.040829812241894","489"
"21:14:26:666 (H:m:s:ms)","GENERIC","62.089","0.012266334536566382","375"
"21:27:22:424 (H:m:s:ms)","GENERIC","62.067","0.025163229377444314","613"
"21:47:28:484 (H:m:s:ms)","GENERIC","62.045","0.030654589489166297","550"
"21:14:32:727 (H:m:s:ms)","GENERIC","62.069","0.015682763598105803","307"
"21:27:20:506 (H:m:s:ms)","OPERA","62.015","0.02256792891873393","532"
"21:47:22:424 (H:m:s:ms)","GENERIC","62.049","0.02455150954325262","612"
"20:52:25:454 (H:m:s:ms)","GENERIC","62.065","0.04087582822810217","583"
"21:14:38:787 (H:m:s:ms)","GENERIC","62.105","0.00620262709261362","251"
"21:27:16:363 (H:m:s:ms)","GENERIC","62.093","0.02897545857103257","673"
"21:47:16:363 (H:m:s:ms)","GENERIC","62.113","0.027780073367036338","675"
"20:52:31:515 (H:m:s:ms)","GENERIC","62.097","0.02581988897471612","524"
"21:14:44:848 (H:m:s:ms)","GENERIC","62.085","0.04088778178855467","193"
"21:27:12:911 (H:m:s:ms)","OPERA","62.013","0.02878362593983526","1127"
"21:47:10:303 (H:m:s:ms)","GENERIC","62.037","0.04109569339698593","730"
"20:52:37:575 (H:m:s:ms)","GENERIC","62.127","0.006435915851654984","468"
"21:14:50:909 (H:m:s:ms)","GENERIC","62.101","0.011853834787804083","1131"
"20:52:43:636 (H:m:s:ms)","GENERIC","62.173","0.04085501376699513","403"
"21:14:56:969 (H:m:s:ms)","GENERIC","62.029","0.040884427368695214","1067"
"20:52:49:696 (H:m:s:ms)","GENERIC","62.061","0.020601325213465273","388"
"21:15:3:30 (H:m:s:ms)","GENERIC","62.063","0.04149413314433053","1010"
"20:52:55:757 (H:m:s:ms)","GENERIC","62.141","0.030631481349314905","281"
"21:15:9:90 (H:m:s:ms)","GENERIC","62.099","0.017511008746840116","981"
"20:53:1:818 (H:m:s:ms)","GENERIC","62.053","0.02581988897471612","219"
"21:15:15:151 (H:m:s:ms)","GENERIC","62.059","0.01634458492242929","889"
"20:53:7:878 (H:m:s:ms)","GENERIC","62.087","0.006721184399188228","1165"
"21:15:21:212 (H:m:s:ms)","GENERIC","62.023","0.01067841746728053","827"
"20:53:13:939 (H:m:s:ms)","GENERIC","62.039","0.030889588321417614","1100"
"20:53:20:0 (H:m:s:ms)","GENERIC","62.137","0.013782900581898171","1085"
"21:28:23:30 (H:m:s:ms)","GENERIC","62.047","0.018202931335702926","1007"
"21:49:17:575 (H:m:s:ms)","GENERIC","62.183","0.030699489860353448","458"
"21:28:21:265 (H:m:s:ms)","OPERA","62.015","0.016818658496685845","774"
"21:49:11:515 (H:m:s:ms)","GENERIC","62.037","0.03064884747999254","520"
"21:28:16:969 (H:m:s:ms)","GENERIC","62.101","0.02829073958018182","1070"
"21:49:5:454 (H:m:s:ms)","GENERIC","62.045","0.030872459262178874","582"
"21:28:13:670 (H:m:s:ms)","OPERA","62.011","0.030501773632780744","363"
"21:48:59:393 (H:m:s:ms)","GENERIC","62.091","0.017535192990021087","679"
"21:28:10:909 (H:m:s:ms)","GENERIC","62.067","0.02342929808933163","1129"
"21:48:53:333 (H:m:s:ms)","GENERIC","62.097","0.013676148472323417","706"
"21:48:47:272 (H:m:s:ms)","GENERIC","62.061","0.01434438276373108","768"
"21:48:41:212 (H:m:s:ms)","GENERIC","62.083","0.030631481349314905","823"
"21:28:6:75 (H:m:s:ms)","OPERA","62.013","0.04096062926855907","963"
"21:15:27:272 (H:m:s:ms)","GENERIC","62.125","0.006721184399188228","767"
"21:28:4:848 (H:m:s:ms)","GENERIC","62.115","0.02455150954325262","188"
"21:15:33:333 (H:m:s:ms)","GENERIC","62.025","0.024569536205940105","703"
"21:27:58:787 (H:m:s:ms)","GENERIC","62.089","0.01726136152680158","291"
"21:48:35:151 (H:m:s:ms)","GENERIC","62.119","0.030734164164344865","882"
"20:53:26:60 (H:m:s:ms)","GENERIC","62.115","0.017623320526718157","978"
"21:15:39:393 (H:m:s:ms)","GENERIC","62.069","0.0228217732293818","682"
"21:27:58:481 (H:m:s:ms)","OPERA","62.011","0.013625276076034028","557"
"21:48:29:90 (H:m:s:ms)","GENERIC","62.063","0.02726180889037709","986"
"20:53:32:121 (H:m:s:ms)","GENERIC","62.057","0.024528098258256147","918"
"21:15:45:454 (H:m:s:ms)","GENERIC","62.113","0.020449868526290643","581"
"21:27:52:727 (H:m:s:ms)","GENERIC","62.097","0.0419090372244561","311"
"21:48:23:30 (H:m:s:ms)","GENERIC","62.067","0.024508501926202412","1005"
"20:53:38:181 (H:m:s:ms)","GENERIC","62.093","0.01767043500548981","858"
"21:15:51:515 (H:m:s:ms)","GENERIC","62.061","0.020747066572165265","525"
"21:27:50:886 (H:m:s:ms)","OPERA","62.011","0.04203053973343276","1153"
"21:48:16:969 (H:m:s:ms)","GENERIC","62.087","0.02151657414559664","1071"
"20:53:44:242 (H:m:s:ms)","GENERIC","62.047","0.030631481349314905","796"
"21:15:57:575 (H:m:s:ms)","GENERIC","62.053","0.04111771718695786","464"
"20:53:50:303 (H:m:s:ms)","GENERIC","62.071","0.014105292973503892","740"
"21:16:3:636 (H:m:s:ms)","GENERIC","62.107","0.008538973216061533","403"
"20:53:56:363 (H:m:s:ms)","GENERIC","62.069","0.0306436038362968","675"
"21:16:9:696 (H:m:s:ms)","GENERIC","62.117","0.013698564465661953","381"
"20:54:2:424 (H:m:s:ms)","GENERIC","62.077","0.010484926292258537","619"
"21:16:15:757 (H:m:s:ms)","GENERIC","62.081","0.012177820811947015","283"
"20:54:8:484 (H:m:s:ms)","GENERIC","62.065","0.012266334536566382","560"
"21:16:21:818 (H:m:s:ms)","GENERIC","62.055","0.010296529440472522","221"
"20:54:14:545 (H:m:s:ms)","GENERIC","62.063","0.010540582756289016","498"
"20:54:20:606 (H:m:s:ms)","GENERIC","62.061","0.007977671030558093","437"
"21:28:59:393 (H:m:s:ms)","GENERIC","62.107","0.044560562786281066","713"
"22:7:53:684 (H:m:s:ms)","AMBULANCE","62.093","0.02730428362008491","367"
"21:28:59:240 (H:m:s:ms)","OPERA","62.015","0.01784285142399558","827"
"22:6:18:947 (H:m:s:ms)","AMBULANCE","62.011","0.02091035146414103","1094"
"21:28:53:333 (H:m:s:ms)","GENERIC","62.055","0.0228708782469975","706"
"22:5:15:789 (H:m:s:ms)","AMBULANCE","62.065","0.007977671030558093","250"
"21:28:51:645 (H:m:s:ms)","OPERA","62.013","0.018469807487434046","394"
"22:0:0:0 (H:m:s:ms)","AMBULANCE","62.049","0.01751003251280358","2222"
"21:28:47:272 (H:m:s:ms)","GENERIC","62.061","0.02912721761419678","762"
"21:50:0:0 (H:m:s:ms)","GENERIC","62.097","0.027225056541790544","1075"
"21:28:44:50 (H:m:s:ms)","OPERA","62.015","0.04782030379019416","984"
"21:49:53:939 (H:m:s:ms)","GENERIC","62.037","0.00550915358700734","1103"
"21:49:47:878 (H:m:s:ms)","GENERIC","62.077","0.04095880332133063","1156"
"21:49:41:818 (H:m:s:ms)","GENERIC","62.089","0.02046442075913213","222"
"21:16:27:878 (H:m:s:ms)","GENERIC","62.113","0.01641472776256384","1163"
"21:16:33:939 (H:m:s:ms)","GENERIC","62.173","0.011729658044658298","1102"
"21:28:41:212 (H:m:s:ms)","GENERIC","62.083","0.04224395438114388","826"
"20:54:26:666 (H:m:s:ms)","GENERIC","62.075","0.020593058880945043","378"
"21:16:40:0 (H:m:s:ms)","GENERIC","62.089","0.011547005383792408","1079"
"21:28:36:455 (H:m:s:ms)","OPERA","62.015","0.0228954672628553","582"
"20:54:32:727 (H:m:s:ms)","GENERIC","62.059","0.01190888048710434","317"
"21:16:46:60 (H:m:s:ms)","GENERIC","62.063","0.01086005392941771","979"
"21:28:35:151 (H:m:s:ms)","GENERIC","62.113","0.020423751605168548","888"
"21:49:35:757 (H:m:s:ms)","GENERIC","62.127","0.00595444024355217","282"
"20:54:38:787 (H:m:s:ms)","GENERIC","62.139","0.03064884747999254","251"
"21:16:52:121 (H:m:s:ms)","GENERIC","62.075","0.0409454344171057","914"
"21:28:29:90 (H:m:s:ms)","GENERIC","62.099","0.03533930357340602","979"
"21:49:29:696 (H:m:s:ms)","GENERIC","62.127","0.0409454344171057","374"
"20:54:44:848 (H:m:s:ms)","GENERIC","62.063","0.005877505255396248","196"
"21:16:58:181 (H:m:s:ms)","GENERIC","62.015","0.040831337588324024","859"
"21:28:28:860 (H:m:s:ms)","OPERA","62.013","0.03377887008155226","173"
"21:49:23:636 (H:m:s:ms)","GENERIC","62.127","0.030699489860353448","398"
"20:54:50:909 (H:m:s:ms)","GENERIC","62.097","0.010373533286082638","1134"
"21:17:4:242 (H:m:s:ms)","GENERIC","62.047","0.00820121927683165","799"
"20:54:56:969 (H:m:s:ms)","GENERIC","62.035","0.016520110882939386","1074"
"21:17:10:303 (H:m:s:ms)","GENERIC","62.065","0.02723568261320793","737"
"20:55:3:30 (H:m:s:ms)","GENERIC","62.111","0.020449868526290643","1009"
"21:17:16:363 (H:m:s:ms)","GENERIC","62.089","0.008424712057111207","679"
"20:55:9:90 (H:m:s:ms)","GENERIC","62.139","0.00833326391752283","1000"
"21:17:22:424 (H:m:s:ms)","GENERIC","62.089","0.010353000700757372","617"
"20:55:15:151 (H:m:s:ms)","GENERIC","62.029","0.04149413314433053","894"
"20:55:21:212 (H:m:s:ms)","GENERIC","62.035","0.007240035952945134","832"
"21:29:37:215 (H:m:s:ms)","OPERA","62.013","0.026304765419949968","822"
"21:29:35:757 (H:m:s:ms)","GENERIC","62.087","0.01592192366082764","278"
"21:29:29:696 (H:m:s:ms)","GENERIC","62.097","0.04261337412334358","414"
"21:29:29:620 (H:m:s:ms)","OPERA","62.013","0.01217782081194704","451"
"21:29:23:636 (H:m:s:ms)","GENERIC","62.101","0.05442859661354467","402"
"21:29:22:25 (H:m:s:ms)","OPERA","62.015","0.03654903149724418","1008"
"21:29:17:575 (H:m:s:ms)","GENERIC","62.149","0.014853554413455927","464"
"21:17:28:484 (H:m:s:ms)","GENERIC","62.051","0.013795985579399286","557"
"21:17:34:545 (H:m:s:ms)","GENERIC","62.059","0.0228217732293818","495"
"20:55:27:272 (H:m:s:ms)","GENERIC","62.131","0.031365527196211586","766"
"21:17:40:606 (H:m:s:ms)","GENERIC","62.107","0.02051422270848517","433"
"20:55:33:333 (H:m:s:ms)","GENERIC","62.061","0.02048620568845973","709"
"21:17:46:666 (H:m:s:ms)","GENERIC","62.057","0.01592192366082764","370"
"21:29:14:430 (H:m:s:ms)","OPERA","62.015","0.01655156918770246","608"
"20:55:39:393 (H:m:s:ms)","GENERIC","62.101","0.04111771718695786","694"
"21:17:52:727 (H:m:s:ms)","GENERIC","62.105","0.020693978369099003","309"
"21:29:11:515 (H:m:s:ms)","GENERIC","62.021","0.024675505429666577","522"
"20:55:45:454 (H:m:s:ms)","GENERIC","62.093","0.020816659994661212","591"
"21:17:58:787 (H:m:s:ms)","GENERIC","62.091","0.020454852021233014","252"
"21:29:6:835 (H:m:s:ms)","OPERA","62.013","0.022887253781843767","204"
"20:55:51:515 (H:m:s:ms)","GENERIC","62.061","0.024569536205940105","523"
"21:18:4:848 (H:m:s:ms)","GENERIC","62.103","0.04083973678069579","187"
"21:29:5:454 (H:m:s:ms)","GENERIC","62.021","0.010290819754059611","586"
"20:55:57:575 (H:m:s:ms)","GENERIC","62.065","0.01383137771477682","469"
"21:18:10:909 (H:m:s:ms)","GENERIC","62.083","0.02043088730029771","1132"
"20:56:3:636 (H:m:s:ms)","GENERIC","62.115","0.007977671030558093","406"
"21:18:16:969 (H:m:s:ms)","GENERIC","62.099","0.01644167801781989","1072"
"20:56:9:696 (H:m:s:ms)","GENERIC","62.073","0.020486205688459713","392"
"21:18:23:30 (H:m:s:ms)","GENERIC","62.043","0.011722412976277257","1010"
"20:56:15:757 (H:m:s:ms)","GENERIC","62.089","0.019307747554965164","280"
"20:56:21:818 (H:m:s:ms)","GENERIC","62.067","0.00833326391752283","228"
"21:30:12:121 (H:m:s:ms)","GENERIC","62.093","0.031365527196211586","913"
"21:30:6:60 (H:m:s:ms)","GENERIC","62.063","0.012619947915876976","978"
"21:30:0:0 (H:m:s:ms)","GENERIC","62.075","0.05448617289952131","1188"
"21:30:0:0 (H:m:s:ms)","GENERIC","62.079","0.04509135237040662","1153"
"21:30:0:0 (H:m:s:ms)","AMBULANCE","62.027","0.019143608995975857","1115"
"21:30:0:0 (H:m:s:ms)","OPERA","62.015","0.01586984095231734","1073"
"21:29:53:939 (H:m:s:ms)","GENERIC","62.043","0.027518819443905843","1095"
"21:29:52:405 (H:m:s:ms)","OPERA","62.015","0.04676760395651007","634"
"21:18:29:90 (H:m:s:ms)","GENERIC","62.115","0.02135683493456106","982"
"21:18:35:151 (H:m:s:ms)","GENERIC","62.087","0.041095693396986","889"
"20:56:27:878 (H:m:s:ms)","GENERIC","62.129","0.013676148472323417","1165"
"21:18:41:212 (H:m:s:ms)","GENERIC","62.095","0.011977555225341843","828"
"20:56:33:939 (H:m:s:ms)","GENERIC","62.139","0.03067002769176659","1100"
"21:18:47:272 (H:m:s:ms)","GENERIC","62.043","0.027397128931323907","770"
"20:40:0:0 (H:m:s:ms)","OPERA","31.009","0.020693978369099003","2676"
"20:56:40:0 (H:m:s:ms)","GENERIC","62.097","0.04208127057650844","1082"
"21:18:53:333 (H:m:s:ms)","GENERIC","62.059","0.005873022651243365","707"
"20:40:0:0 (H:m:s:ms)","GENERIC","62.055","0.022360301835724607","2735"
"20:56:46:60 (H:m:s:ms)","GENERIC","62.065","0.005875932589341895","984"
"21:18:59:393 (H:m:s:ms)","GENERIC","62.113","0.024503201852853197","678"
"21:29:47:878 (H:m:s:ms)","GENERIC","62.041","0.041315503388307924","1160"
"20:40:0:0 (H:m:s:ms)","GENERIC","62.087","0.023172569227322255","2792"
"20:56:52:121 (H:m:s:ms)","GENERIC","62.063","0.020431698811408126","922"
"21:19:5:454 (H:m:s:ms)","GENERIC","62.033","0.014400504654268472","585"
"21:29:44:810 (H:m:s:ms)","OPERA","62.013","0.041315503388307924","230"
"20:40:6:60 (H:m:s:ms)","GENERIC","62.047","0.01086005392941771","991"
"20:56:58:181 (H:m:s:ms)","GENERIC","62.049","0.020449868526290643","857"
"21:19:11:515 (H:m:s:ms)","GENERIC","62.017","0.024507005752641656","520"
"21:29:41:818 (H:m:s:ms)","GENERIC","62.067","0.04590343046986039","221"
"20:40:7:594 (H:m:s:ms)","OPERA","31.007","0.03256824085622297","450"
"20:57:4:242 (H:m:s:ms)","GENERIC","62.067","0.011547005383792408","803"
"21:19:17:575 (H:m:s:ms)","GENERIC","62.127","0.040829971684064485","460"
"20:40:12:121 (H:m:s:ms)","GENERIC","62.189","0.03366760190977381","932"
"20:57:10:303 (H:m:s:ms)","GENERIC","62.101","0.023094010767584827","742"
"21:19:23:636 (H:m:s:ms)","GENERIC","62.087","0.005961884057752822","404"
"20:40:15:189 (H:m:s:ms)","OPERA","31.007","0.018269843128390216","860"
"20:57:16:363 (H:m:s:ms)","GENERIC","62.087","0.011853834787804083","680"
"20:40:18:181 (H:m:s:ms)","GENERIC","62.073","0.04262332738746885","861"
"20:57:22:424 (H:m:s:ms)","GENERIC","62.053","0.011853834787804083","618"
"20:40:22:784 (H:m:s:ms)","OPERA","31.009","0.044720952781362316","256"
"20:40:24:242 (H:m:s:ms)","GENERIC","62.097","0.021712039179351408","805"
"21:30:30:303 (H:m:s:ms)","GENERIC","62.021","0.013940234309427344","738"
"21:31:6:666 (H:m:s:ms)","GENERIC","62.073","0.027925923626747746","375"
"21:31:3:157 (H:m:s:ms)","AMBULANCE","62.059","0.013644259448417496","880"
"21:31:0:606 (H:m:s:ms)","GENERIC","62.021","0.012207792606176568","432"
"21:30:54:545 (H:m:s:ms)","GENERIC","62.131","0.01541186551374412","489"
"21:30:48:484 (H:m:s:ms)","GENERIC","62.123","0.027225056541790544","554"
"21:30:42:424 (H:m:s:ms)","GENERIC","62.065","0.01645701471510944","615"
"21:30:36:363 (H:m:s:ms)","GENERIC","62.075","0.019268325616792314","674"
"21:19:29:696 (H:m:s:ms)","GENERIC","62.081","0.04085747585611862","378"
"21:30:31:578 (H:m:s:ms)","AMBULANCE","62.079","0.021451985110789787","460"
"21:19:35:757 (H:m:s:ms)","GENERIC","62.083","0.01374643498070536","283"
"20:57:28:484 (H:m:s:ms)","GENERIC","62.053","0.04149413314433053","558"
"21:19:41:818 (H:m:s:ms)","GENERIC","62.049","0.025515518153991387","218"
"20:57:34:545 (H:m:s:ms)","GENERIC","62.077","0.040830498767828086","493"
"21:19:47:878 (H:m:s:ms)","GENERIC","62.043","0.04085882141617734","1157"
"20:40:30:303 (H:m:s:ms)","GENERIC","62.063","0.0247300237378389","737"
"20:57:40:606 (H:m:s:ms)","GENERIC","62.143","0.02722930215693814","438"
"21:19:53:939 (H:m:s:ms)","GENERIC","62.033","0.031365527196211586","1096"
"20:40:30:379 (H:m:s:ms)","OPERA","31.009","0.027075849291504462","707"
"20:57:46:666 (H:m:s:ms)","GENERIC","62.063","0.006179018701124251","379"
"21:20:0:0 (H:m:s:ms)","OPERA","62.014","0.04771222024738277","2616"
"20:40:36:363 (H:m:s:ms)","GENERIC","62.029","0.03074488467833781","679"
"20:57:52:727 (H:m:s:ms)","GENERIC","62.143","0.015371732448860878","311"
"21:20:0:0 (H:m:s:ms)","GENERIC","62.073","0.024582699334665652","2521"
"20:40:37:974 (H:m:s:ms)","OPERA","31.007","0.03125678062951603","1070"
"20:57:58:787 (H:m:s:ms)","GENERIC","62.115","0.016486682491892442","256"
"21:20:0:0 (H:m:s:ms)","GENERIC","62.085","0.03929582676093447","2567"
"21:30:24:242 (H:m:s:ms)","GENERIC","62.085","0.027225056541790544","798"
"20:40:42:424 (H:m:s:ms)","GENERIC","62.045","0.013155519439753871","619"
"20:58:4:848 (H:m:s:ms)","GENERIC","62.075","0.040831337588324024","195"
"21:20:6:60 (H:m:s:ms)","GENERIC","62.069","0.04083973678069579","980"
"21:30:18:181 (H:m:s:ms)","GENERIC","62.037","0.02053803056742473","853"
"20:40:45:569 (H:m:s:ms)","OPERA","31.008","0.016530280273661095","476"
"20:58:10:909 (H:m:s:ms)","GENERIC","62.105","0.010758287072798321","1134"
"21:20:7:594 (H:m:s:ms)","OPERA","62.015","0.043009430780328595","449"
"20:40:48:484 (H:m:s:ms)","GENERIC","62.133","0.014139523747669124","560"
"20:58:16:969 (H:m:s:ms)","GENERIC","62.103","0.013965927041340236","1073"
"20:40:53:164 (H:m:s:ms)","OPERA","31.008","0.022279669572117796","874"
"20:58:23:30 (H:m:s:ms)","GENERIC","62.045","0.016351171880931565","1015"
"20:40:54:545 (H:m:s:ms)","GENERIC","62.137","0.02142176942535042","499"
"20:41:0:606 (H:m:s:ms)","GENERIC","62.095","0.04231587892051173","437"
"21:31:24:848 (H:m:s:ms)","GENERIC","62.077","0.013174005532437985","190"
"21:31:18:787 (H:m:s:ms)","GENERIC","62.053","0.013760517862778605","253"
"21:32:6:315 (H:m:s:ms)","AMBULANCE","62.057","0.04757210570349188","719"
"21:32:1:212 (H:m:s:ms)","GENERIC","62.013","0.040847503210337095","826"
"21:31:55:151 (H:m:s:ms)","GENERIC","62.095","0.011853834787804083","886"
"21:31:49:90 (H:m:s:ms)","GENERIC","62.089","0.04564354645876364","978"
"21:31:43:30 (H:m:s:ms)","GENERIC","62.049","0.040884427368695214","1005"
"21:31:36:969 (H:m:s:ms)","GENERIC","62.019","0.019069663360647138","1069"
"21:31:34:736 (H:m:s:ms)","AMBULANCE","62.105","0.04413203905517833","301"
"21:31:30:909 (H:m:s:ms)","GENERIC","62.051","0.04087582822810219","1126"
"20:58:29:90 (H:m:s:ms)","GENERIC","62.091","0.031365527196211586","997"
"20:58:35:151 (H:m:s:ms)","GENERIC","62.045","0.030918719583502844","888"
"20:41:0:759 (H:m:s:ms)","OPERA","31.008","0.05872652318002257","328"
"20:58:41:212 (H:m:s:ms)","GENERIC","62.129","0.04093948786522188","825"
"20:41:6:666 (H:m:s:ms)","GENERIC","62.121","0.025020824660004073","373"
"20:58:47:272 (H:m:s:ms)","GENERIC","62.025","0.02730586888088704","771"
"20:41:8:354 (H:m:s:ms)","OPERA","31.008","0.025602450309480832","689"
"20:58:53:333 (H:m:s:ms)","GENERIC","62.063","0.005149801577391835","711"
"20:41:12:727 (H:m:s:ms)","GENERIC","62.045","0.008738513160147657","315"
"20:58:59:393 (H:m:s:ms)","GENERIC","62.115","0.02452809825825615","691"
"20:41:15:949 (H:m:s:ms)","OPERA","31.007","0.013695572152038156","1093"
"20:59:5:454 (H:m:s:ms)","GENERIC","62.043","0.006005457422331023","588"
"20:41:18:787 (H:m:s:ms)","GENERIC","62.027","0.03302494522749476","250"
"20:59:11:515 (H:m:s:ms)","GENERIC","62.041","0.020483168338545247","527"
"21:31:12:727 (H:m:s:ms)","GENERIC","62.033","0.020693978369098982","310"
"20:41:23:544 (H:m:s:ms)","OPERA","31.008","0.032969015207501506","499"
"20:59:17:575 (H:m:s:ms)","GENERIC","62.123","0.015324940117985431","463"
"20:41:24:848 (H:m:s:ms)","GENERIC","62.165","0.014339547882992566","196"
"20:59:23:636 (H:m:s:ms)","GENERIC","62.091","0.011074018572765408","407"
"20:41:30:909 (H:m:s:ms)","GENERIC","62.077","0.040881334027126306","1133"
"20:41:31:139 (H:m:s:ms)","OPERA","31.008","0.04506785799336392","941"
"20:59:29:696 (H:m:s:ms)","GENERIC","62.103","0.014433756729740566","392"
"20:59:35:757 (H:m:s:ms)","GENERIC","62.111","0.020454852021233014","288"
"20:41:36:969 (H:m:s:ms)","GENERIC","62.035","0.027621189146254273","1074"
"20:59:41:818 (H:m:s:ms)","GENERIC","62.025","0.005873022651243365","225"
"20:41:38:734 (H:m:s:ms)","OPERA","31.007","0.049220656917791504","309"
"20:59:47:878 (H:m:s:ms)","GENERIC","62.023","0.020561821197800177","1160"
"20:41:43:30 (H:m:s:ms)","GENERIC","62.029","0.04193060394988325","1012"
"20:59:53:939 (H:m:s:ms)","GENERIC","62.049","0.02052924328688148","1104"
"20:41:46:329 (H:m:s:ms)","OPERA","31.009","0.020673610714738458","709"
"21:0:0:0 (H:m:s:ms)","AMBULANCE","31.017","0.029439202887759437","2359"
"20:41:49:90 (H:m:s:ms)","GENERIC","62.019","0.03278549605857294","992"
"21:0:0:0 (H:m:s:ms)","GENERIC","62.059","0.03718925505025409","2404"
"20:41:53:924 (H:m:s:ms)","OPERA","31.008","0.03236163357778999","1115"
"21:0:0:0 (H:m:s:ms)","GENERIC","62.073","0.05529209018791094","2444"
"20:41:55:151 (H:m:s:ms)","GENERIC","62.085","0.02222942845287265","893"
"21:0:6:60 (H:m:s:ms)","GENERIC","62.051","0.016351171880931565","987"
"20:42:1:212 (H:m:s:ms)","GENERIC","62.047","0.020423751605168548","831"
"21:0:12:121 (H:m:s:ms)","GENERIC","62.145","0.01184751148331479","935"
"20:42:1:518 (H:m:s:ms)","OPERA","31.007","0.046926947785599624","567"
"20:42:7:272 (H:m:s:ms)","GENERIC","62.051","0.024503201852853197","766"
"21:0:18:181 (H:m:s:ms)","GENERIC","62.085","0.01383137771477682","864"
"21:0:24:242 (H:m:s:ms)","GENERIC","62.099","0.03227486121839502","796"
"20:42:9:113 (H:m:s:ms)","OPERA","31.009","0.04756357701195238","968"
"21:0:30:303 (H:m:s:ms)","GENERIC","62.041","0.011321071798494436","740"
"20:42:13:333 (H:m:s:ms)","GENERIC","62.029","0.04194345464806983","712"
"21:0:31:578 (H:m:s:ms)","AMBULANCE","31.028","0.022297131732314138","466"
"20:20:0:0 (H:m:s:ms)","GENERIC","62.077","0.02074706657216529","2298"
"20:42:16:708 (H:m:s:ms)","OPERA","31.007","0.03094190061911135","330"
"21:0:36:363 (H:m:s:ms)","GENERIC","62.057","0.02181001468473327","680"
"20:20:0:0 (H:m:s:ms)","GENERIC","62.107","0.025127008449914973","2338"
"20:42:19:393 (H:m:s:ms)","GENERIC","62.099","0.03578992924936354","689"
"21:0:42:424 (H:m:s:ms)","GENERIC","62.045","0.04208127057650845","630"
"20:20:6:60 (H:m:s:ms)","GENERIC","62.053","0.006912865550939932","981"
"20:42:24:303 (H:m:s:ms)","OPERA","31.007","0.021991379475295253","741"
"21:0:48:484 (H:m:s:ms)","GENERIC","62.169","0.021516574145596642","560"
"20:20:12:121 (H:m:s:ms)","GENERIC","62.179","0.027292991910147845","917"
"20:42:25:454 (H:m:s:ms)","GENERIC","62.041","0.031785275232346095","584"
"21:0:54:545 (H:m:s:ms)","GENERIC","62.157","0.02074706657216529","499"
"20:20:18:181 (H:m:s:ms)","GENERIC","62.083","0.021256807188565423","859"
"20:42:31:515 (H:m:s:ms)","GENERIC","62.085","0.040869655932508776","523"
"21:1:0:606 (H:m:s:ms)","GENERIC","62.071","0.01811937631630903","431"
"20:20:24:242 (H:m:s:ms)","GENERIC","62.069","0.013965927041340236","798"
"20:42:31:898 (H:m:s:ms)","OPERA","31.008","0.05768909797096356","184"
"21:1:3:157 (H:m:s:ms)","AMBULANCE","31.018","0.03048848059982411","882"
"20:20:30:303 (H:m:s:ms)","GENERIC","62.053","0.027246437288339136","736"
"20:42:37:575 (H:m:s:ms)","GENERIC","62.149","0.006435915851654984","469"
"20:20:36:363 (H:m:s:ms)","GENERIC","62.029","0.0306436038362968","672"
"20:42:43:636 (H:m:s:ms)","GENERIC","62.191","0.04109569339698593","401"
"20:20:42:424 (H:m:s:ms)","GENERIC","62.047","0.012266334536566382","616"
"20:20:48:484 (H:m:s:ms)","GENERIC","62.093","0.030734164164344865","562"
"21:1:6:666 (H:m:s:ms)","GENERIC","62.087","0.028104733884617303","378"
"21:1:12:727 (H:m:s:ms)","GENERIC","62.033","0.020442213684347618","315"
"20:42:47:88 (H:m:s:ms)","OPERA","31.008","0.04189468440992273","955"
"21:1:18:787 (H:m:s:ms)","GENERIC","62.061","0.04083182858849437","255"
"20:42:49:696 (H:m:s:ms)","GENERIC","62.057","0.02593381229499322","378"
"21:1:24:848 (H:m:s:ms)","GENERIC","62.125","0.04149413314433053","205"
"20:20:54:545 (H:m:s:ms)","GENERIC","62.101","0.045643546458763604","491"
"20:42:54:683 (H:m:s:ms)","OPERA","31.007","0.028184731491082554","361"
"21:1:30:909 (H:m:s:ms)","GENERIC","62.065","0.027246437288339136","1135"
"20:21:0:606 (H:m:s:ms)","GENERIC","62.089","0.008554360486519846","434"
"20:42:55:757 (H:m:s:ms)","GENERIC","62.131","0.04447516451540817","285"
"21:1:34:736 (H:m:s:ms)","AMBULANCE","31.028","0.049031162683523505","303"
"20:21:6:666 (H:m:s:ms)","GENERIC","62.093","0.005877505255396248","375"
"20:43:1:818 (H:m:s:ms)","GENERIC","62.039","0.03062761767077749","220"
"21:1:36:969 (H:m:s:ms)","GENERIC","62.039","0.04760870103639377","1069"
"20:21:12:727 (H:m:s:ms)","GENERIC","62.025","0.01168620554846696","313"
"20:43:2:278 (H:m:s:ms)","OPERA","31.007","0.032355908188684536","765"
"21:1:43:30 (H:m:s:ms)","GENERIC","62.033","0.02726180889037709","1013"
"20:21:18:787 (H:m:s:ms)","GENERIC","62.025","0.020460900136687152","252"
"20:43:7:878 (H:m:s:ms)","GENERIC","62.069","0.04099317957111703","1165"
"21:1:49:90 (H:m:s:ms)","GENERIC","62.049","0.017966332838012973","992"
"20:21:24:848 (H:m:s:ms)","GENERIC","62.167","0.030631481349314905","187"
"20:43:9:873 (H:m:s:ms)","OPERA","31.007","0.051533551696155804","204"
"21:1:55:151 (H:m:s:ms)","GENERIC","62.081","0.005873022651243365","892"
"20:21:30:909 (H:m:s:ms)","GENERIC","62.073","0.00845280012374436","1130"
"20:43:13:939 (H:m:s:ms)","GENERIC","62.035","0.03305813563966894","1105"
"20:21:36:969 (H:m:s:ms)","GENERIC","62.069","0.01765119332652458","1066"
"20:43:17:468 (H:m:s:ms)","OPERA","31.007","0.015871807102140267","576"
"20:21:43:30 (H:m:s:ms)","GENERIC","62.019","0.02091035146414103","1005"
"20:21:49:90 (H:m:s:ms)","GENERIC","62.019","0.026140645235596748","984"
"20:43:20:0 (H:m:s:ms)","GENERIC","62.143","0.023607447767569987","1083"
"20:43:25:63 (H:m:s:ms)","OPERA","31.009","0.030729308532689625","979"
"20:21:55:151 (H:m:s:ms)","GENERIC","62.111","0.016379690803959897","889"
"20:43:26:60 (H:m:s:ms)","GENERIC","62.119","0.0228683714290099","984"
"20:22:1:212 (H:m:s:ms)","GENERIC","62.065","0.024532669073132764","827"
"20:43:32:121 (H:m:s:ms)","GENERIC","62.049","0.029972791301285957","956"
"20:22:7:272 (H:m:s:ms)","GENERIC","62.089","0.040847503210337095","763"
"20:43:32:658 (H:m:s:ms)","OPERA","31.008","0.025594851410640836","380"
"20:22:13:333 (H:m:s:ms)","GENERIC","62.053","0.008485672943659268","705"
"20:43:38:181 (H:m:s:ms)","GENERIC","62.103","0.006801360408136015","861"
"20:22:19:393 (H:m:s:ms)","GENERIC","62.099","0.017551000184005513","678"
"20:43:40:253 (H:m:s:ms)","OPERA","31.008","0.015330743845243558","790"
"20:22:25:454 (H:m:s:ms)","GENERIC","62.047","0.010562862967684135","587"
"20:43:44:242 (H:m:s:ms)","GENERIC","62.053","0.014946323738223393","801"
"20:22:31:515 (H:m:s:ms)","GENERIC","62.073","0.01756667106239287","519"
"20:43:50:303 (H:m:s:ms)","GENERIC","62.087","0.027301237076578652","743"
"20:22:37:575 (H:m:s:ms)","GENERIC","62.189","0.02051422270848517","463"
"20:43:55:443 (H:m:s:ms)","OPERA","31.007","0.031391192530239954","595"
"20:22:43:636 (H:m:s:ms)","GENERIC","62.175","0.01024472138811494","403"
"20:22:49:696 (H:m:s:ms)","GENERIC","62.055","0.04111771718695786","379"
"20:43:56:363 (H:m:s:ms)","GENERIC","62.081","0.02342107931774258","675"
"20:44:2:424 (H:m:s:ms)","GENERIC","62.075","0.0209920619917783","619"
"20:22:55:757 (H:m:s:ms)","GENERIC","62.127","0.020457725155024295","287"
"20:44:3:37 (H:m:s:ms)","OPERA","31.009","0.027292667669537793","1001"
"20:23:1:818 (H:m:s:ms)","GENERIC","62.061","0.01644167801781989","220"
"20:44:8:484 (H:m:s:ms)","GENERIC","62.047","0.0268612320668559","559"
"20:23:7:878 (H:m:s:ms)","GENERIC","62.059","0.013807013030175163","1160"
"20:44:10:632 (H:m:s:ms)","OPERA","31.008","0.02962133016582428","411"
"20:23:13:939 (H:m:s:ms)","GENERIC","62.055","0.012023220164716722","1100"
"20:44:14:545 (H:m:s:ms)","GENERIC","62.035","0.022437999041343314","500"
"20:23:20:0 (H:m:s:ms)","GENERIC","62.119","0.04085501376699513","1072"
"20:44:20:606 (H:m:s:ms)","GENERIC","62.055","0.018119376316309062","433"
"20:23:26:60 (H:m:s:ms)","GENERIC","62.093","0.021256807188565402","979"
"20:44:26:666 (H:m:s:ms)","GENERIC","62.079","0.020816659994661212","377"
"20:23:32:121 (H:m:s:ms)","GENERIC","62.035","0.013676148472323417","919"
"20:44:32:727 (H:m:s:ms)","GENERIC","62.065","0.021720107858835408","316"
"20:23:38:181 (H:m:s:ms)","GENERIC","62.107","0.04208127057650844","853"
"20:44:33:417 (H:m:s:ms)","OPERA","31.009","0.029860369428268214","626"
"20:23:44:242 (H:m:s:ms)","GENERIC","62.059","0.04099317957111703","799"
"20:23:50:303 (H:m:s:ms)","GENERIC","62.093","0.04095880332133065","736"
"20:44:38:787 (H:m:s:ms)","GENERIC","62.147","0.03193938596379692","251"
"20:44:41:12 (H:m:s:ms)","OPERA","31.008","0.028358429754723264","1031"
"20:23:56:363 (H:m:s:ms)","GENERIC","62.113","0.01366794751789197","678"
"20:44:44:848 (H:m:s:ms)","GENERIC","62.041","0.022618936943227353","191"
"20:24:2:424 (H:m:s:ms)","GENERIC","62.063","0.013965927041340236","615"
"20:44:48:607 (H:m:s:ms)","OPERA","31.009","0.0270629253654075","436"
"20:24:8:484 (H:m:s:ms)","GENERIC","62.049","0.020486205688459713","555"
"20:44:50:909 (H:m:s:ms)","GENERIC","62.085","0.02923877491169553","1134"
"20:24:14:545 (H:m:s:ms)","GENERIC","62.045","0.01786332073065671","489"
"20:44:56:202 (H:m:s:ms)","OPERA","31.008","0.03333223230811966","841"
"20:24:20:606 (H:m:s:ms)","GENERIC","62.049","0.01755289767293192","429"
"20:44:56:969 (H:m:s:ms)","GENERIC","62.041","0.030945911357124635","1118"
"20:24:26:666 (H:m:s:ms)","GENERIC","62.045","0.006801360408136015","371"
"20:45:3:30 (H:m:s:ms)","GENERIC","62.085","0.010243102844229857","1014"
"20:24:32:727 (H:m:s:ms)","GENERIC","62.089","0.024509062715924238","309"
"20:45:3:797 (H:m:s:ms)","OPERA","31.007","0.026529941021692347","286"
"20:24:38:787 (H:m:s:ms)","GENERIC","62.109","0.01644167801781989","252"
"20:45:9:90 (H:m:s:ms)","GENERIC","62.137","0.01383137771477682","992"
"20:24:44:848 (H:m:s:ms)","GENERIC","62.049","0.030908508693099152","186"
"20:24:50:909 (H:m:s:ms)","GENERIC","62.071","0.02074706657216529","1131"
"20:45:11:392 (H:m:s:ms)","OPERA","31.009","0.029271574373634555","651"
"20:45:15:151 (H:m:s:ms)","GENERIC","62.011","0.02841027973677212","893"
"20:24:56:969 (H:m:s:ms)","GENERIC","62.063","0.016351171880931565","1075"
"20:45:18:987 (H:m:s:ms)","OPERA","31.007","0.020529926733666284","1098"
"20:25:3:30 (H:m:s:ms)","GENERIC","62.069","0.024504668731077404","1004"
"20:45:21:212 (H:m:s:ms)","GENERIC","62.051","0.024348801849529197","827"
"20:25:9:90 (H:m:s:ms)","GENERIC","62.095","0.02043088730029771","984"
"20:45:26:582 (H:m:s:ms)","OPERA","31.008","0.044453320232407376","458"
"20:25:15:151 (H:m:s:ms)","GENERIC","62.049","0.027224026920762423","889"
"20:45:27:272 (H:m:s:ms)","GENERIC","62.123","0.04377971557977739","766"
"20:25:21:212 (H:m:s:ms)","GENERIC","62.065","0.01075828707279832","828"
"20:45:33:333 (H:m:s:ms)","GENERIC","62.055","0.04099317957111703","716"
"20:25:27:272 (H:m:s:ms)","GENERIC","62.093","0.00550915358700734","766"
"20:45:34:177 (H:m:s:ms)","OPERA","31.008","0.047713762148405385","862"
"20:25:33:333 (H:m:s:ms)","GENERIC","62.035","0.04231587892051173","706"
"20:45:39:393 (H:m:s:ms)","GENERIC","62.107","0.025874611063374256","691"
"20:25:39:393 (H:m:s:ms)","GENERIC","62.075","0.017619067953730326","677"
"20:45:41:772 (H:m:s:ms)","OPERA","31.007","0.04169673997367045","265"
"20:25:45:454 (H:m:s:ms)","GENERIC","62.085","0.03071842808972549","580"
"20:25:51:515 (H:m:s:ms)","GENERIC","62.103","0.040831337588324024","525"
"20:25:57:575 (H:m:s:ms)","GENERIC","62.065","0.0409454344171057","459"
"20:26:3:636 (H:m:s:ms)","GENERIC","62.121","0.03073169728758086","398"
"20:26:9:696 (H:m:s:ms)","GENERIC","62.103","0.03227486121839502","375"
"20:26:15:757 (H:m:s:ms)","GENERIC","62.105","0.04088336862260685","280"
"20:26:21:818 (H:m:s:ms)","GENERIC","62.055","0.01053361616748513","221"
"20:26:27:878 (H:m:s:ms)","GENERIC","62.147","0.006281383789653747","1161"
"20:26:33:939 (H:m:s:ms)","GENERIC","62.163","0.04109569339698593","1095"
"20:26:40:0 (H:m:s:ms)","GENERIC","62.081","0.005877505255396248","1082"
"20:26:46:60 (H:m:s:ms)","GENERIC","62.075","0.020816659994661233","978"
"20:26:52:121 (H:m:s:ms)","GENERIC","62.057","0.0176150252808863","913"
"20:26:58:181 (H:m:s:ms)","GENERIC","62.017","0.011547005383792408","858"
"20:27:4:242 (H:m:s:ms)","GENERIC","62.111","0.011729658044658298","799"
"20:27:10:303 (H:m:s:ms)","GENERIC","62.087","0.02722930215693814","737"
"20:27:16:363 (H:m:s:ms)","GENERIC","62.063","0.02581988897471612","675"
"20:27:22:424 (H:m:s:ms)","GENERIC","62.053","0.00884537962671697","615"
"20:27:28:484 (H:m:s:ms)","GENERIC","62.059","0.02069397836909897","555"
"20:27:34:545 (H:m:s:ms)","GENERIC","62.083","0.020710180217126208","496"
"20:27:40:606 (H:m:s:ms)","GENERIC","62.105","0.013795985579399286","433"
"20:27:46:666 (H:m:s:ms)","GENERIC","62.047","0.01710872097303971","372"
"20:27:52:727 (H:m:s:ms)","GENERIC","62.099","0.020486205688459713","312"
"20:27:58:787 (H:m:s:ms)","GENERIC","62.057","0.04093948786522188","247"
"20:28:4:848 (H:m:s:ms)","GENERIC","62.085","0.011977555225341843","192"
"20:28:10:909 (H:m:s:ms)","GENERIC","62.149","0.017537508436247552","1126"
"20:28:16:969 (H:m:s:ms)","GENERIC","62.089","0.027384040756566298","1070"
"20:28:23:30 (H:m:s:ms)","GENERIC","62.053","0.007031848612564999","1013"
"20:28:29:90 (H:m:s:ms)","GENERIC","62.061","0.020747066572165268","979"
"20:28:35:151 (H:m:s:ms)","GENERIC","62.059","0.012266334536566389","887"
"20:28:41:212 (H:m:s:ms)","GENERIC","62.107","0.01041517034163316","827"
"20:28:47:272 (H:m:s:ms)","GENERIC","62.067","0.013667947517891965","767"
"20:28:53:333 (H:m:s:ms)","GENERIC","62.069","0.011841498572198246","707"
"20:28:59:393 (H:m:s:ms)","GENERIC","62.053","0.013646495955073931","682"
"20:29:5:454 (H:m:s:ms)","GENERIC","62.075","0.02051769415029944","584"
"20:29:11:515 (H:m:s:ms)","GENERIC","62.045","0.02054528762362334","524"
"20:29:17:575 (H:m:s:ms)","GENERIC","62.077","0.02452809825825615","458"
"20:29:23:636 (H:m:s:ms)","GENERIC","62.087","0.027250552152068057","404"
"20:29:29:696 (H:m:s:ms)","GENERIC","62.073","0.020431698811408126","379"
"20:29:35:757 (H:m:s:ms)","GENERIC","62.069","0.021516574145596642","282"
"20:29:41:818 (H:m:s:ms)","GENERIC","62.049","0.021157939460255886","221"
"20:29:47:878 (H:m:s:ms)","GENERIC","62.077","0.020875807043750156","1160"
"20:29:53:939 (H:m:s:ms)","GENERIC","62.095","0.020992061991778287","1103"
"21:20:12:121 (H:m:s:ms)","GENERIC","62.109","0.04300147519317328","916"
"21:20:15:189 (H:m:s:ms)","OPERA","62.013","0.04213496675938158","852"
"21:20:18:181 (H:m:s:ms)","GENERIC","62.053","0.01730156984657913","863"
"21:20:22:784 (H:m:s:ms)","OPERA","62.015","0.017126941501544268","258"
"21:20:24:242 (H:m:s:ms)","GENERIC","62.083","0.01831485959026993","798"
"21:20:30:303 (H:m:s:ms)","GENERIC","62.027","0.005877505255396248","737"
"21:20:30:379 (H:m:s:ms)","OPERA","62.013","0.04124828384699866","696"
"21:20:36:363 (H:m:s:ms)","GENERIC","62.093","0.024582699334665652","671"
"21:20:37:974 (H:m:s:ms)","OPERA","62.015","0.025495710095848036","1066"
"21:20:42:424 (H:m:s:ms)","GENERIC","62.055","0.025450000479024647","614"
"21:20:45:569 (H:m:s:ms)","OPERA","62.011","0.025415177591482006","473"
"21:20:48:484 (H:m:s:ms)","GENERIC","62.137","0.012327194804548722","555"
"21:20:53:164 (H:m:s:ms)","OPERA","62.015","0.04221010468210732","876"
"21:20:54:545 (H:m:s:ms)","GENERIC","62.141","0.05781561256416965","491"
"21:21:0:606 (H:m:s:ms)","GENERIC","62.033","0.027292991910147862","433"
"21:21:0:759 (H:m:s:ms)","OPERA","62.013","0.04925715100254294","314"
"21:21:6:666 (H:m:s:ms)","GENERIC","62.083","0.02725557908173787","373"
"21:21:8:354 (H:m:s:ms)","OPERA","62.013","0.03400828112319717","685"
"21:21:12:727 (H:m:s:ms)","GENERIC","62.047","0.028385919398935755","311"
"21:21:15:949 (H:m:s:ms)","OPERA","62.013","0.028610633029055012","1089"
"21:33:1:818 (H:m:s:ms)","GENERIC","62.091","0.02151657414559664","221"
"21:32:43:636 (H:m:s:ms)","GENERIC","62.113","0.02037446734620164","399"
"21:32:37:894 (H:m:s:ms)","AMBULANCE","62.089","0.024299937252955314","1183"
"21:32:37:575 (H:m:s:ms)","GENERIC","62.083","0.020459272351333185","464"
"21:32:31:515 (H:m:s:ms)","GENERIC","62.105","0.010562862967684135","524"
"21:32:25:454 (H:m:s:ms)","GENERIC","62.085","0.04083406856875096","585"
"21:32:19:393 (H:m:s:ms)","GENERIC","62.047","0.01825741858350537","681"
"21:32:13:333 (H:m:s:ms)","GENERIC","62.045","0.01777594953633848","703"
"21:21:18:787 (H:m:s:ms)","GENERIC","62.045","0.021657385239618816","254"
"21:32:7:272 (H:m:s:ms)","GENERIC","62.079","0.03215132449794216","766"
"21:21:23:544 (H:m:s:ms)","OPERA","62.015","0.02793447688972965","495"
"21:21:24:848 (H:m:s:ms)","GENERIC","62.093","0.040923563775549246","187"
"21:21:30:909 (H:m:s:ms)","GENERIC","62.053","0.02455150954325262","1125"
"21:21:31:139 (H:m:s:ms)","OPERA","62.013","0.03660249884422865","936"
"21:21:36:969 (H:m:s:ms)","GENERIC","62.035","0.005460856724017","1069"
"21:21:38:734 (H:m:s:ms)","OPERA","62.013","0.02775043764269036","305"
"21:21:43:30 (H:m:s:ms)","GENERIC","62.055","0.027898260615918265","1008"
"21:32:55:757 (H:m:s:ms)","GENERIC","62.125","0.01053361616748513","280"
"21:21:46:329 (H:m:s:ms)","OPERA","62.013","0.025752605613848806","704"
"21:32:49:696 (H:m:s:ms)","GENERIC","62.071","0.00717219138186554","378"
"21:21:49:90 (H:m:s:ms)","GENERIC","62.079","0.03948733700580286","979"
"21:33:56:363 (H:m:s:ms)","GENERIC","62.075","0.029439202887759433","672"
"21:33:50:303 (H:m:s:ms)","GENERIC","62.051","0.02054528762362334","736"
"21:33:41:52 (H:m:s:ms)","AMBULANCE","62.081","0.020034411086444312","987"
"21:33:38:181 (H:m:s:ms)","GENERIC","62.041","0.01786332073065671","852"
"21:33:32:121 (H:m:s:ms)","GENERIC","62.063","0.024792104337873416","912"
"21:33:26:60 (H:m:s:ms)","GENERIC","62.077","0.017660392455068064","974"
"21:33:20:0 (H:m:s:ms)","GENERIC","62.153","0.01423801560735806","1073"
"21:33:13:939 (H:m:s:ms)","GENERIC","62.051","0.019306382026091782","1102"
"21:21:53:924 (H:m:s:ms)","OPERA","62.013","0.03677749990342885","1115"
"21:33:9:473 (H:m:s:ms)","AMBULANCE","62.073","0.02451740796693132","595"
"21:21:55:151 (H:m:s:ms)","GENERIC","62.099","0.024656539921679713","886"
"21:33:7:878 (H:m:s:ms)","GENERIC","62.083","0.01701034543599418","1160"
"21:22:1:212 (H:m:s:ms)","GENERIC","62.033","0.006005457422331023","826"
"21:22:1:518 (H:m:s:ms)","OPERA","62.011","0.04131052407892531","560"
"21:22:7:272 (H:m:s:ms)","GENERIC","62.057","0.020747066572165268","761"
"21:22:9:113 (H:m:s:ms)","OPERA","62.013","0.027104167888022165","955"
"21:22:13:333 (H:m:s:ms)","GENERIC","62.055","0.020446597570576243","705"
"21:22:16:708 (H:m:s:ms)","OPERA","62.015","0.017261169994594944","330"
"21:22:19:393 (H:m:s:ms)","GENERIC","62.061","0.029188749139072906","677"
"21:22:24:303 (H:m:s:ms)","OPERA","62.011","0.04830031979061319","731"
"21:33:44:242 (H:m:s:ms)","GENERIC","62.059","0.04188330318352404","794"
"21:34:50:909 (H:m:s:ms)","GENERIC","62.127","0.014105292973503873","1129"
"21:34:44:848 (H:m:s:ms)","GENERIC","62.073","0.019466737154134755","228"
"21:34:44:210 (H:m:s:ms)","AMBULANCE","62.049","0.011895234282663567","831"
"21:34:38:787 (H:m:s:ms)","GENERIC","62.085","0.01434438276373108","251"
"21:34:32:727 (H:m:s:ms)","GENERIC","62.105","0.008333263917522897","312"
"21:34:26:666 (H:m:s:ms)","GENERIC","62.093","0.02282177322938181","368"
"21:34:20:606 (H:m:s:ms)","GENERIC","62.101","0.024792104337873416","427"
"21:34:14:545 (H:m:s:ms)","GENERIC","62.105","0.03138361197077231","493"
"21:22:25:454 (H:m:s:ms)","GENERIC","62.111","0.042117203625250475","586"
"21:34:12:631 (H:m:s:ms)","AMBULANCE","62.067","0.04377035579619886","406"
"21:22:31:515 (H:m:s:ms)","GENERIC","62.101","0.04096633667709041","524"
"21:34:8:484 (H:m:s:ms)","GENERIC","62.089","0.031365527196211586","550"
"21:2:1:212 (H:m:s:ms)","GENERIC","62.067","0.018225370109994","826"
"21:22:31:898 (H:m:s:ms)","OPERA","62.015","0.0457979041633874","1180"
"21:34:2:424 (H:m:s:ms)","GENERIC","62.097","0.012177820811947015","614"
"21:2:6:315 (H:m:s:ms)","AMBULANCE","31.013","0.025463000118097177","721"
"21:22:37:575 (H:m:s:ms)","GENERIC","62.071","0.022160987012652743","463"
"21:2:7:272 (H:m:s:ms)","GENERIC","62.041","0.035431525878072974","775"
"21:22:43:636 (H:m:s:ms)","GENERIC","62.107","0.013760517862778598","402"
"21:2:13:333 (H:m:s:ms)","GENERIC","62.035","0.014136252073487598","710"
"21:22:47:88 (H:m:s:ms)","OPERA","62.013","0.015070346734964496","950"
"21:2:19:393 (H:m:s:ms)","GENERIC","62.083","0.04111771718695786","692"
"21:22:49:696 (H:m:s:ms)","GENERIC","62.055","0.02792552003177144","375"
"21:2:25:454 (H:m:s:ms)","GENERIC","62.091","0.012266334536566389","590"
"21:22:54:683 (H:m:s:ms)","OPERA","62.015","0.03401561940905568","351"
"21:2:31:515 (H:m:s:ms)","GENERIC","62.099","0.03350649467170769","528"
"21:22:55:757 (H:m:s:ms)","GENERIC","62.129","0.032664653299759705","277"
"21:2:37:575 (H:m:s:ms)","GENERIC","62.101","0.0246274321979915","463"
"21:23:1:818 (H:m:s:ms)","GENERIC","62.083","0.0409044873251495","216"
"21:2:37:894 (H:m:s:ms)","AMBULANCE","31.028","0.04194174688501156","188"
"21:2:43:636 (H:m:s:ms)","GENERIC","62.147","0.030729308532689625","400"
"21:35:47:368 (H:m:s:ms)","AMBULANCE","62.067","0.025528784085380365","671"
"21:35:45:454 (H:m:s:ms)","GENERIC","62.123","0.015371732448860878","580"
"21:35:39:393 (H:m:s:ms)","GENERIC","62.091","0.016405247633040392","679"
"21:35:33:333 (H:m:s:ms)","GENERIC","62.017","0.017654171922174756","703"
"21:35:27:272 (H:m:s:ms)","GENERIC","62.115","0.01832353892154098","762"
"21:35:21:212 (H:m:s:ms)","GENERIC","62.053","0.031365527196211586","822"
"21:35:15:789 (H:m:s:ms)","AMBULANCE","62.039","0.04304633695375446","288"
"21:23:2:278 (H:m:s:ms)","OPERA","62.013","0.04138790928231614","762"
"21:35:15:151 (H:m:s:ms)","GENERIC","62.049","0.012871831703309968","888"
"21:23:7:878 (H:m:s:ms)","GENERIC","62.103","0.017511008746840116","1156"
"21:35:9:90 (H:m:s:ms)","GENERIC","62.095","0.04120265042693057","980"
"21:2:49:696 (H:m:s:ms)","GENERIC","62.055","0.021157939460255886","388"
"21:23:9:873 (H:m:s:ms)","OPERA","62.015","0.02525902831811625","200"
"21:35:3:30 (H:m:s:ms)","GENERIC","62.061","0.0228217732293818","1008"
"21:2:55:757 (H:m:s:ms)","GENERIC","62.153","0.013786040758123671","287"
"21:23:13:939 (H:m:s:ms)","GENERIC","62.059","0.044679388323345254","1101"
"21:34:56:969 (H:m:s:ms)","GENERIC","62.031","0.005875932589341895","1069"
"21:3:1:818 (H:m:s:ms)","GENERIC","62.067","0.04231587892051173","224"
"21:23:17:468 (H:m:s:ms)","OPERA","62.015","0.043027277518482704","571"
"21:3:7:878 (H:m:s:ms)","GENERIC","62.105","0.01024472138811494","1165"
"21:23:20:0 (H:m:s:ms)","GENERIC","62.147","0.020788710321967042","1069"
"21:3:9:473 (H:m:s:ms)","AMBULANCE","31.044","0.01195267972871686","611"
"21:23:25:63 (H:m:s:ms)","OPERA","62.015","0.03139623594063372","976"
"21:3:13:939 (H:m:s:ms)","GENERIC","62.051","0.018686155263483828","1099"
"21:23:26:60 (H:m:s:ms)","GENERIC","62.079","0.030101555038418343","979"
"21:3:20:0 (H:m:s:ms)","GENERIC","62.131","0.01832353892154098","1080"
"21:23:32:121 (H:m:s:ms)","GENERIC","62.053","0.027224026920762423","918"
"21:3:26:60 (H:m:s:ms)","GENERIC","62.109","0.040993179571116985","983"
"21:23:32:658 (H:m:s:ms)","OPERA","62.013","0.029147341737123095","421"
"21:3:32:121 (H:m:s:ms)","GENERIC","62.055","0.007750509723849845","920"
"21:3:38:181 (H:m:s:ms)","GENERIC","62.095","0.006912865550939932","859"
"21:36:46:60 (H:m:s:ms)","GENERIC","62.051","0.04087582822810219","974"
"21:36:40:0 (H:m:s:ms)","GENERIC","62.043","0.024503201852853197","1069"
"21:36:33:939 (H:m:s:ms)","GENERIC","62.141","0.006179018701124251","1102"
"21:36:27:878 (H:m:s:ms)","GENERIC","62.091","0.025515518153991324","1156"
"21:36:21:818 (H:m:s:ms)","GENERIC","62.053","0.05201306253445538","218"
"21:36:18:947 (H:m:s:ms)","AMBULANCE","62.055","0.03250606373515354","1122"
"21:23:38:181 (H:m:s:ms)","GENERIC","62.049","0.01053361616748513","857"
"21:36:15:757 (H:m:s:ms)","GENERIC","62.113","0.010758287072798377","280"
"21:23:40:253 (H:m:s:ms)","OPERA","62.013","0.017242785982175567","789"
"21:36:9:696 (H:m:s:ms)","GENERIC","62.105","0.01784285142399558","374"
"21:3:41:52 (H:m:s:ms)","AMBULANCE","31.036","0.01898861379777398","985"
"21:23:44:242 (H:m:s:ms)","GENERIC","62.077","0.04098723254005448","804"
"21:36:3:636 (H:m:s:ms)","GENERIC","62.107","0.019307747554965164","397"
"21:3:44:242 (H:m:s:ms)","GENERIC","62.055","0.02611627609539549","799"
"21:23:47:848 (H:m:s:ms)","OPERA","31.009","0.04151682220679228","189"
"21:35:57:575 (H:m:s:ms)","GENERIC","62.029","0.011853834787804083","466"
"21:3:50:303 (H:m:s:ms)","GENERIC","62.055","0.025819888974716123","738"
"21:23:50:303 (H:m:s:ms)","GENERIC","62.033","0.03415512088340961","737"
"21:35:51:515 (H:m:s:ms)","GENERIC","62.035","0.03090800847936873","523"
"21:3:56:363 (H:m:s:ms)","GENERIC","62.075","0.04087757053990879","678"
"21:23:55:443 (H:m:s:ms)","OPERA","62.013","0.025429667160525853","596"
"21:4:2:424 (H:m:s:ms)","GENERIC","62.065","0.019307747554965164","612"
"21:23:56:363 (H:m:s:ms)","GENERIC","62.073","0.02773248125326545","670"
"21:4:8:484 (H:m:s:ms)","GENERIC","62.085","0.036799003609699274","553"
"21:24:2:424 (H:m:s:ms)","GENERIC","62.091","0.040844758180619896","611"
"21:4:12:631 (H:m:s:ms)","AMBULANCE","31.01","0.054889363177359554","406"
"21:24:3:37 (H:m:s:ms)","OPERA","62.013","0.04125815270934179","1001"
"21:4:14:545 (H:m:s:ms)","GENERIC","62.091","0.05102943945419735","491"
"21:24:8:484 (H:m:s:ms)","GENERIC","62.095","0.04222377969943723","554"
"21:4:20:606 (H:m:s:ms)","GENERIC","62.079","0.04083758481268592","431"
"21:4:26:666 (H:m:s:ms)","GENERIC","62.075","0.017619067953730326","370"
"21:37:40:606 (H:m:s:ms)","GENERIC","62.099","0.017619067953730326","428"
"21:37:34:545 (H:m:s:ms)","GENERIC","62.067","0.02151657414559664","495"
"21:37:28:484 (H:m:s:ms)","GENERIC","62.057","0.02051769415029944","553"
"21:37:22:424 (H:m:s:ms)","GENERIC","62.061","0.01568535623892638","655"
"21:37:22:105 (H:m:s:ms)","AMBULANCE","62.067","0.010501832743398085","934"
"21:37:16:363 (H:m:s:ms)","GENERIC","62.101","0.040831111239090306","676"
"21:24:10:632 (H:m:s:ms)","OPERA","62.011","0.05846399297970644","407"
"21:24:14:545 (H:m:s:ms)","GENERIC","62.131","0.04413316052275294","494"
"21:37:10:303 (H:m:s:ms)","GENERIC","62.047","0.031365527196211586","732"
"21:4:32:727 (H:m:s:ms)","GENERIC","62.059","0.020561821197800177","318"
"21:24:20:606 (H:m:s:ms)","GENERIC","62.101","0.016351171880931565","433"
"21:37:4:242 (H:m:s:ms)","GENERIC","62.087","0.024622091643846038","793"
"21:4:38:787 (H:m:s:ms)","GENERIC","62.119","0.01383137771477682","255"
"21:24:25:822 (H:m:s:ms)","OPERA","31.008","0.044065786913976966","215"
"21:36:58:181 (H:m:s:ms)","GENERIC","62.037","0.006281383789653747","857"
"21:4:44:210 (H:m:s:ms)","AMBULANCE","31.023","0.01765119332652458","827"
"21:24:26:666 (H:m:s:ms)","GENERIC","62.095","0.04576313596937664","372"
"21:36:52:121 (H:m:s:ms)","GENERIC","62.075","0.02130567367183552","917"
"21:4:44:848 (H:m:s:ms)","GENERIC","62.083","0.023266871792837384","230"
"21:24:32:727 (H:m:s:ms)","GENERIC","62.085","0.02091035146414105","311"
"21:36:50:526 (H:m:s:ms)","AMBULANCE","62.093","0.04566092532030614","513"
"21:4:50:909 (H:m:s:ms)","GENERIC","62.103","0.011547005383792414","1133"
"21:24:33:417 (H:m:s:ms)","OPERA","62.013","0.04582124975374547","622"
"21:4:56:969 (H:m:s:ms)","GENERIC","62.033","0.027246437288339136","1072"
"21:24:38:787 (H:m:s:ms)","GENERIC","62.095","0.057730605782195576","251"
"21:5:3:30 (H:m:s:ms)","GENERIC","62.085","0.014613027499762383","1011"
"21:24:41:12 (H:m:s:ms)","OPERA","62.013","0.04767573407601791","1022"
"21:5:9:90 (H:m:s:ms)","GENERIC","62.121","0.040939487865221884","993"
"21:24:44:848 (H:m:s:ms)","GENERIC","62.065","0.02738622837472555","190"
"21:5:15:151 (H:m:s:ms)","GENERIC","62.049","0.020443890894277325","891"
"21:5:15:789 (H:m:s:ms)","AMBULANCE","31.029","0.02888748090881397","296"
"21:38:35:151 (H:m:s:ms)","GENERIC","62.103","0.030646929773533123","883"
"21:38:29:90 (H:m:s:ms)","GENERIC","62.081","0.03115065675061448","978"
"21:38:25:263 (H:m:s:ms)","AMBULANCE","62.089","0.039187002637711174","771"
"21:38:23:30 (H:m:s:ms)","GENERIC","62.059","0.030662137346679875","1004"
"21:38:16:969 (H:m:s:ms)","GENERIC","62.091","0.021040635288254225","1072"
"21:38:10:909 (H:m:s:ms)","GENERIC","62.083","0.04084995202048474","1126"
"21:38:4:848 (H:m:s:ms)","GENERIC","62.111","0.04086698169473065","187"
"21:24:48:607 (H:m:s:ms)","OPERA","62.011","0.018627442602037202","431"
"21:24:50:909 (H:m:s:ms)","GENERIC","62.113","0.02485187571128843","1129"
"21:5:21:212 (H:m:s:ms)","GENERIC","62.021","0.016351171880931565","830"
"21:24:56:202 (H:m:s:ms)","OPERA","62.015","0.021454083641855536","837"
"21:5:27:272 (H:m:s:ms)","GENERIC","62.127","0.040993179571116985","772"
"21:24:56:969 (H:m:s:ms)","GENERIC","62.027","0.025317294209972276","1105"
"21:37:58:787 (H:m:s:ms)","GENERIC","62.085","0.05033819598404158","250"
"20:45:45:454 (H:m:s:ms)","GENERIC","62.089","0.057722135784537006","588"
"21:5:33:333 (H:m:s:ms)","GENERIC","62.039","0.013984741571424628","708"
"21:25:3:30 (H:m:s:ms)","GENERIC","62.051","0.011547005383792414","1012"
"21:37:53:684 (H:m:s:ms)","AMBULANCE","62.047","0.04307074517301417","354"
"20:45:49:367 (H:m:s:ms)","OPERA","31.009","0.04445272708862616","712"
"21:5:39:393 (H:m:s:ms)","GENERIC","62.081","0.014400504654268472","689"
"21:25:3:797 (H:m:s:ms)","OPERA","62.015","0.019448919827909236","284"
"21:37:52:727 (H:m:s:ms)","GENERIC","62.091","0.013664393190372302","315"
"20:45:51:515 (H:m:s:ms)","GENERIC","62.065","0.035305639414712396","524"
"21:5:45:454 (H:m:s:ms)","GENERIC","62.095","0.027250552152068057","588"
"21:25:9:90 (H:m:s:ms)","GENERIC","62.089","0.008281414441146492","987"
"21:37:46:666 (H:m:s:ms)","GENERIC","62.027","0.017681427138278825","369"
"20:45:56:962 (H:m:s:ms)","OPERA","31.008","0.012871831703309968","1082"
"21:5:47:368 (H:m:s:ms)","AMBULANCE","31.017","0.03403387462106001","674"
"21:25:11:392 (H:m:s:ms)","OPERA","62.013","0.016061191012650824","644"
"20:45:57:575 (H:m:s:ms)","GENERIC","62.051","0.01738236131125966","513"
"21:5:51:515 (H:m:s:ms)","GENERIC","62.057","0.02692013165474005","522"
"21:25:15:151 (H:m:s:ms)","GENERIC","62.071","0.04306153083340136","887"
"20:46:3:636 (H:m:s:ms)","GENERIC","62.125","0.013742172119435217","406"
"21:5:57:575 (H:m:s:ms)","GENERIC","62.069","0.014433756729740567","466"
"21:25:18:987 (H:m:s:ms)","OPERA","62.013","0.04560156480998353","1086"
"20:46:4:556 (H:m:s:ms)","OPERA","31.008","0.0147150139935746","487"
"21:6:3:636 (H:m:s:ms)","GENERIC","62.107","0.025515518153991324","401"
"20:46:9:696 (H:m:s:ms)","GENERIC","62.063","0.013349746728204095","388"
"21:6:9:696 (H:m:s:ms)","GENERIC","62.097","0.011860490164387318","384"
"20:46:12:151 (H:m:s:ms)","OPERA","31.009","0.029851893999790175","892"
"20:46:15:757 (H:m:s:ms)","GENERIC","62.107","0.034293993794504624","288"
"21:39:29:696 (H:m:s:ms)","GENERIC","62.117","0.05106504208449591","378"
"21:39:28:421 (H:m:s:ms)","AMBULANCE","62.143","0.04346867782759939","613"
"21:39:23:636 (H:m:s:ms)","GENERIC","62.115","0.03084273179670032","398"
"21:39:17:575 (H:m:s:ms)","GENERIC","62.169","0.02581988897471612","459"
"21:39:11:515 (H:m:s:ms)","GENERIC","62.017","0.0051948521672960275","523"
"21:39:5:454 (H:m:s:ms)","GENERIC","62.035","0.014105292973503873","585"
"21:38:59:393 (H:m:s:ms)","GENERIC","62.099","0.01633874774059261","679"
"21:38:56:842 (H:m:s:ms)","AMBULANCE","62.123","0.01552623027113346","197"
"21:25:21:212 (H:m:s:ms)","GENERIC","62.039","0.03921576165122982","826"
"21:25:26:582 (H:m:s:ms)","OPERA","62.015","0.03815402765507675","452"
"21:6:15:757 (H:m:s:ms)","GENERIC","62.075","0.02551551815399133","280"
"21:25:27:272 (H:m:s:ms)","GENERIC","62.115","0.027440563661840597","767"
"21:6:18:947 (H:m:s:ms)","AMBULANCE","31.036","0.02806080369067585","1133"
"21:25:33:333 (H:m:s:ms)","GENERIC","62.025","0.04085501376699513","701"
"20:46:19:746 (H:m:s:ms)","OPERA","31.008","0.02771459431248261","339"
"21:6:21:818 (H:m:s:ms)","GENERIC","62.069","0.02064700111342662","224"
"21:25:34:177 (H:m:s:ms)","OPERA","62.011","0.04611344178841168","861"
"20:46:21:818 (H:m:s:ms)","GENERIC","62.063","0.02008998738619886","224"
"21:6:27:878 (H:m:s:ms)","GENERIC","62.121","0.01190888048710434","1163"
"21:25:39:393 (H:m:s:ms)","GENERIC","62.075","0.029803721220476687","679"
"21:38:53:333 (H:m:s:ms)","GENERIC","62.073","0.010206207261596524","710"
"20:46:27:341 (H:m:s:ms)","OPERA","31.007","0.009623271556086133","701"
"21:6:33:939 (H:m:s:ms)","GENERIC","62.155","0.030729308532689625","1098"
"21:25:41:772 (H:m:s:ms)","OPERA","62.015","0.030758003030147807","266"
"21:38:47:272 (H:m:s:ms)","GENERIC","62.075","0.020693978369098972","767"
"20:46:27:878 (H:m:s:ms)","GENERIC","62.121","0.015380534446044808","1208"
"21:6:40:0 (H:m:s:ms)","GENERIC","62.109","0.020561821197800177","1077"
"21:25:45:454 (H:m:s:ms)","GENERIC","62.119","0.038281778298998245","579"
"21:38:41:212 (H:m:s:ms)","GENERIC","62.069","0.030734164164344865","824"
"20:46:33:939 (H:m:s:ms)","GENERIC","62.133","0.00820736388128192","1105"
"21:6:46:60 (H:m:s:ms)","GENERIC","62.067","0.040993179571116985","982"
"21:25:49:367 (H:m:s:ms)","OPERA","62.013","0.0376362543866206","708"
"20:46:34:936 (H:m:s:ms)","OPERA","31.008","0.011578276688969004","1152"
"21:6:50:526 (H:m:s:ms)","AMBULANCE","31.039","0.043842043597567736","509"
"21:25:51:515 (H:m:s:ms)","GENERIC","62.049","0.03271059255816224","519"
"20:46:40:0 (H:m:s:ms)","GENERIC","62.089","0.04167749810224309","1089"
"21:6:52:121 (H:m:s:ms)","GENERIC","62.069","0.020740978870556107","920"
"20:46:42:531 (H:m:s:ms)","OPERA","31.008","0.042196394901996205","513"
"21:6:58:181 (H:m:s:ms)","GENERIC","62.031","0.010578969730127938","860"
"20:46:46:60 (H:m:s:ms)","GENERIC","62.073","0.022956033879744805","984"
"20:46:50:126 (H:m:s:ms)","OPERA","31.008","0.04564079152905339","913"
"21:39:47:878 (H:m:s:ms)","GENERIC","62.057","0.04231587892051173","1160"
"21:40:24:242 (H:m:s:ms)","GENERIC","62.085","0.005877505255396248","799"
"21:40:18:181 (H:m:s:ms)","GENERIC","62.037","0.04149413314433053","858"
"21:40:12:121 (H:m:s:ms)","GENERIC","62.079","0.04109569339698593","913"
"21:40:6:60 (H:m:s:ms)","GENERIC","62.085","0.01699576464237748","989"
"21:40:0:0 (H:m:s:ms)","GENERIC","62.083","0.05080560658643275","2309"
"21:40:0:0 (H:m:s:ms)","AMBULANCE","62.133","0.04454891076497636","2275"
"21:40:0:0 (H:m:s:ms)","GENERIC","62.073","0.041003842553675986","2239"
"21:39:53:939 (H:m:s:ms)","GENERIC","62.037","0.00595444024355217","1101"
"21:7:4:242 (H:m:s:ms)","GENERIC","62.047","0.010381339952896015","800"
"21:7:10:303 (H:m:s:ms)","GENERIC","62.081","0.016565464091022695","738"
"20:46:52:121 (H:m:s:ms)","GENERIC","62.055","0.044748522892986496","917"
"21:7:16:363 (H:m:s:ms)","GENERIC","62.095","0.04087582822810217","678"
"20:46:58:181 (H:m:s:ms)","GENERIC","62.053","0.04095880332133063","860"
"21:7:22:105 (H:m:s:ms)","AMBULANCE","31.046","0.010309826235528974","937"
"20:47:4:242 (H:m:s:ms)","GENERIC","62.089","0.04109569339698593","796"
"21:7:22:424 (H:m:s:ms)","GENERIC","62.079","0.021673476986006177","653"
"20:47:5:316 (H:m:s:ms)","OPERA","31.008","0.05787131122301589","721"
"21:7:28:484 (H:m:s:ms)","GENERIC","62.051","0.009622504486493688","556"
"21:39:41:818 (H:m:s:ms)","GENERIC","62.081","0.01184751148331479","221"
"20:47:10:303 (H:m:s:ms)","GENERIC","62.119","0.04315941284009747","741"
"21:7:34:545 (H:m:s:ms)","GENERIC","62.083","0.01674636591472484","497"
"21:39:35:757 (H:m:s:ms)","GENERIC","62.111","0.013845418081511627","282"
"20:47:12:911 (H:m:s:ms)","OPERA","31.008","0.043227257095886144","1133"
"21:7:40:606 (H:m:s:ms)","GENERIC","62.127","0.0058775052553962535","434"
"20:47:16:363 (H:m:s:ms)","GENERIC","62.085","0.04595996998018735","675"
"21:7:46:666 (H:m:s:ms)","GENERIC","62.059","0.027225056541790544","375"
"20:47:20:506 (H:m:s:ms)","OPERA","31.009","0.025885655050075167","537"
"21:7:52:727 (H:m:s:ms)","GENERIC","62.119","0.013664393190372302","315"
"20:47:22:424 (H:m:s:ms)","GENERIC","62.039","0.03425606444405658","614"
"20:47:28:101 (H:m:s:ms)","OPERA","31.008","0.013664393190372302","942"
"21:7:53:684 (H:m:s:ms)","AMBULANCE","31.026","0.021598903627994694","358"
"21:7:58:787 (H:m:s:ms)","GENERIC","62.111","0.03209291406658987","255"
"20:47:28:484 (H:m:s:ms)","GENERIC","62.057","0.01930549635222835","603"
"21:8:4:848 (H:m:s:ms)","GENERIC","62.089","0.017551000184005513","188"
"20:47:34:545 (H:m:s:ms)","GENERIC","62.075","0.029439202887759437","497"
"21:8:10:909 (H:m:s:ms)","GENERIC","62.089","0.008294125451595405","1133"
"20:47:35:696 (H:m:s:ms)","OPERA","31.007","0.03827651087911752","343"
"21:8:16:969 (H:m:s:ms)","GENERIC","62.115","0.027301237076578652","1072"
"20:47:40:606 (H:m:s:ms)","GENERIC","62.141","0.025055318011641625","438"
"21:8:23:30 (H:m:s:ms)","GENERIC","62.043","0.010614615773885066","1011"
"20:47:43:291 (H:m:s:ms)","OPERA","31.008","0.016293356317159776","746"
"21:8:25:263 (H:m:s:ms)","AMBULANCE","31.068","0.026973781035975995","773"
"20:47:46:666 (H:m:s:ms)","GENERIC","62.051","0.04362342407141003","372"
"21:8:29:90 (H:m:s:ms)","GENERIC","62.109","0.02550090162676857","995"
"21:40:30:303 (H:m:s:ms)","GENERIC","62.033","0.0408508569923176","736"
"20:47:50:886 (H:m:s:ms)","OPERA","31.009","0.04204202490991164","156"
"21:8:35:151 (H:m:s:ms)","GENERIC","62.063","0.017537508436247552","885"
"20:47:52:727 (H:m:s:ms)","GENERIC","62.127","0.020449302153047272","310"
"21:8:41:212 (H:m:s:ms)","GENERIC","62.111","0.01029960315478367","832"
"20:47:58:481 (H:m:s:ms)","OPERA","31.007","0.017511008746840116","557"
"20:47:58:787 (H:m:s:ms)","GENERIC","62.095","0.04445130629831431","294"
"21:8:47:272 (H:m:s:ms)","GENERIC","62.023","0.010455175732070528","769"
"21:8:53:333 (H:m:s:ms)","GENERIC","62.059","0.02730428362008491","707"
"20:48:4:848 (H:m:s:ms)","GENERIC","62.075","0.024943723641678427","190"
"21:8:56:842 (H:m:s:ms)","AMBULANCE","31.037","0.0517231779373926","199"
"20:48:6:75 (H:m:s:ms)","OPERA","31.009","0.02876083804875272","967"
"21:8:59:393 (H:m:s:ms)","GENERIC","62.123","0.04858529583120065","685"
"20:30:0:0 (H:m:s:ms)","GENERIC","62.069","0.01365293444044352","1075"
"20:48:10:909 (H:m:s:ms)","GENERIC","62.119","0.01606623950363346","1134"
"21:9:5:454 (H:m:s:ms)","GENERIC","62.039","0.0247300237378389","584"
"20:30:0:0 (H:m:s:ms)","GENERIC","62.091","0.04326092668933988","1110"
"20:48:13:670 (H:m:s:ms)","OPERA","31.007","0.011503293458864507","373"
"21:9:11:515 (H:m:s:ms)","GENERIC","62.023","0.017554895681514363","521"
"20:30:6:60 (H:m:s:ms)","GENERIC","62.045","0.00620262709261362","979"
"20:48:16:969 (H:m:s:ms)","GENERIC","62.085","0.041813597992475755","1077"
"21:9:17:575 (H:m:s:ms)","GENERIC","62.109","0.010446307689926434","465"
"20:30:12:121 (H:m:s:ms)","GENERIC","62.199","0.01365293444044352","919"
"20:48:21:265 (H:m:s:ms)","OPERA","31.008","0.042102410550631075","777"
"21:9:23:636 (H:m:s:ms)","GENERIC","62.087","0.03079231505857688","402"
"20:30:18:181 (H:m:s:ms)","GENERIC","62.075","0.015682763598105807","853"
"20:48:23:30 (H:m:s:ms)","GENERIC","62.053","0.0193492857921516","1013"
"21:9:28:421 (H:m:s:ms)","AMBULANCE","31.048","0.051058668860459726","622"
"20:30:24:242 (H:m:s:ms)","GENERIC","62.083","0.02581988897471612","797"
"20:48:28:860 (H:m:s:ms)","OPERA","31.008","0.026291773841936282","183"
"21:9:29:696 (H:m:s:ms)","GENERIC","62.079","0.04394345082198216","382"
"20:30:30:303 (H:m:s:ms)","GENERIC","62.063","0.04088336862260688","732"
"20:48:29:90 (H:m:s:ms)","GENERIC","62.075","0.04566855790065907","994"
"20:30:36:363 (H:m:s:ms)","GENERIC","62.039","0.030654589489166297","671"
"20:48:35:151 (H:m:s:ms)","GENERIC","62.035","0.008281414441146492","892"
"20:30:42:424 (H:m:s:ms)","GENERIC","62.043","0.013795985579399286","615"
"20:30:48:484 (H:m:s:ms)","GENERIC","62.111","0.02091035146414103","550"
"21:9:35:757 (H:m:s:ms)","GENERIC","62.103","0.02057807254248805","282"
"21:9:41:818 (H:m:s:ms)","GENERIC","62.037","0.020457725155024295","223"
"20:48:36:455 (H:m:s:ms)","OPERA","31.008","0.031908452387994723","582"
"21:9:47:878 (H:m:s:ms)","GENERIC","62.033","0.027225975080665973","1163"
"20:48:41:212 (H:m:s:ms)","GENERIC","62.127","0.0338726171422824","831"
"21:9:53:939 (H:m:s:ms)","GENERIC","62.039","0.01075828707279833","1101"
"20:30:54:545 (H:m:s:ms)","GENERIC","62.121","0.009622504486493688","493"
"20:48:44:50 (H:m:s:ms)","OPERA","31.009","0.025858848794417542","992"
"21:10:0:0 (H:m:s:ms)","AMBULANCE","31.042","0.04087582822810217","1079"
"20:31:0:606 (H:m:s:ms)","GENERIC","62.105","0.007674548244114577","433"
"20:48:47:272 (H:m:s:ms)","GENERIC","62.025","0.03884253352218705","764"
"21:10:0:0 (H:m:s:ms)","GENERIC","62.069","0.04281656037494915","1122"
"20:31:6:666 (H:m:s:ms)","GENERIC","62.105","0.005961884057752822","373"
"20:48:51:645 (H:m:s:ms)","OPERA","31.009","0.035060618989418896","397"
"21:10:0:0 (H:m:s:ms)","GENERIC","62.085","0.04769943147671233","1164"
"20:31:12:727 (H:m:s:ms)","GENERIC","62.045","0.030807045851137155","312"
"20:48:53:333 (H:m:s:ms)","GENERIC","62.063","0.04307643268913289","712"
"21:10:6:60 (H:m:s:ms)","GENERIC","62.051","0.01825741858350537","982"
"20:31:18:787 (H:m:s:ms)","GENERIC","62.035","0.017706774307789806","246"
"20:48:59:240 (H:m:s:ms)","OPERA","31.007","0.02723568261320793","844"
"21:10:12:121 (H:m:s:ms)","GENERIC","62.125","0.02726180889037709","920"
"20:31:24:848 (H:m:s:ms)","GENERIC","62.175","0.024792104337873416","191"
"20:48:59:393 (H:m:s:ms)","GENERIC","62.091","0.049063705791196933","729"
"21:10:18:181 (H:m:s:ms)","GENERIC","62.073","0.0246274321979915","855"
"20:31:30:909 (H:m:s:ms)","GENERIC","62.087","0.013760517862778598","1130"
"20:49:5:454 (H:m:s:ms)","GENERIC","62.049","0.020693978369098972","589"
"20:31:36:969 (H:m:s:ms)","GENERIC","62.049","0.01434438276373108","1070"
"20:49:6:835 (H:m:s:ms)","OPERA","31.009","0.0271904348411498","203"
"20:31:43:30 (H:m:s:ms)","GENERIC","62.015","0.04084148884265038","1010"
"20:31:49:90 (H:m:s:ms)","GENERIC","62.029","0.008264034779291052","984"
"20:49:11:515 (H:m:s:ms)","GENERIC","62.045","0.019724241916835104","528"
"20:49:14:430 (H:m:s:ms)","OPERA","31.008","0.013293563772725427","613"
"20:31:55:151 (H:m:s:ms)","GENERIC","62.095","0.021516574145596632","883"
"20:49:17:575 (H:m:s:ms)","GENERIC","62.117","0.015517058912876256","467"
"20:32:1:212 (H:m:s:ms)","GENERIC","62.051","0.02726180889037709","827"
"20:49:22:25 (H:m:s:ms)","OPERA","31.009","0.016648103963672084","1018"
"20:32:7:272 (H:m:s:ms)","GENERIC","62.069","0.034641016151377595","762"
"20:49:23:636 (H:m:s:ms)","GENERIC","62.089","0.017960292720182264","407"
"20:32:13:333 (H:m:s:ms)","GENERIC","62.037","0.04084995202048477","706"
"20:49:29:620 (H:m:s:ms)","OPERA","31.007","0.024509062715924238","463"
"20:32:19:393 (H:m:s:ms)","GENERIC","62.107","0.04360093653428385","676"
"20:49:29:696 (H:m:s:ms)","GENERIC","62.093","0.030155912880299902","425"
"20:32:25:454 (H:m:s:ms)","GENERIC","62.035","0.01035940467789545","586"
"20:49:35:757 (H:m:s:ms)","GENERIC","62.109","0.018257418583505377","286"
"20:32:31:515 (H:m:s:ms)","GENERIC","62.075","0.02042413905863607","526"
"20:49:37:215 (H:m:s:ms)","OPERA","31.008","0.02527688321506772","823"
"20:32:37:575 (H:m:s:ms)","GENERIC","62.167","0.020486205688459713","464"
"20:49:41:818 (H:m:s:ms)","GENERIC","62.029","0.02059807533657376","226"
"20:32:43:636 (H:m:s:ms)","GENERIC","62.195","0.00717219138186554","403"
"20:32:49:696 (H:m:s:ms)","GENERIC","62.053","0.00717219138186554","380"
"20:49:44:810 (H:m:s:ms)","OPERA","31.008","0.023158593185073996","233"
"20:49:47:878 (H:m:s:ms)","GENERIC","62.047","0.021618759676062332","1165"
"20:32:55:757 (H:m:s:ms)","GENERIC","62.127","0.01086005392941771","281"
"20:49:52:405 (H:m:s:ms)","OPERA","31.008","0.017048543364591152","633"
"20:33:1:818 (H:m:s:ms)","GENERIC","62.043","0.027224026920762423","222"
"20:49:53:939 (H:m:s:ms)","GENERIC","62.063","0.01738331510276984","1102"
"20:33:7:878 (H:m:s:ms)","GENERIC","62.053","0.018257418583505377","1160"
"20:50:0:0 (H:m:s:ms)","OPERA","31.009","0.057804354764741384","1131"
"20:33:13:939 (H:m:s:ms)","GENERIC","62.045","0.016520110882939386","1099"
"20:50:0:0 (H:m:s:ms)","GENERIC","62.053","0.06126078367928246","1174"
"20:33:20:0 (H:m:s:ms)","GENERIC","62.131","0.016492623966693345","1073"
"20:50:0:0 (H:m:s:ms)","GENERIC","62.077","0.04089142750672073","1085"
"20:33:26:60 (H:m:s:ms)","GENERIC","62.107","0.02452809825825615","974"
"20:50:6:60 (H:m:s:ms)","GENERIC","62.045","0.020533517583517295","982"
"20:33:32:121 (H:m:s:ms)","GENERIC","62.041","0.031365527196211586","914"
"20:50:12:121 (H:m:s:ms)","GENERIC","62.167","0.027292991910147845","922"
"20:33:38:181 (H:m:s:ms)","GENERIC","62.095","0.006944855346160362","857"
"20:50:18:181 (H:m:s:ms)","GENERIC","62.079","0.015378584146147338","858"
"20:33:44:242 (H:m:s:ms)","GENERIC","62.053","0.011547005383792408","800"
"20:33:50:303 (H:m:s:ms)","GENERIC","62.101","0.040955260142420236","736"
"20:50:24:242 (H:m:s:ms)","GENERIC","62.101","0.023094010767584817","804"
"20:50:30:303 (H:m:s:ms)","GENERIC","62.057","0.02069397836909897","742"
"20:33:56:363 (H:m:s:ms)","GENERIC","62.097","0.01634458492242929","676"
"20:50:36:363 (H:m:s:ms)","GENERIC","62.039","0.019245008972987403","682"
"20:34:2:424 (H:m:s:ms)","GENERIC","62.065","0.030807045851137155","610"
"20:50:42:424 (H:m:s:ms)","GENERIC","62.045","0.007977671030558093","621"
"20:10:0:0 (H:m:s:ms)","GENERIC","31.054","0.02458895697606597","1035"
"20:34:8:484 (H:m:s:ms)","GENERIC","62.049","0.027301237076578652","555"
"20:50:48:484 (H:m:s:ms)","GENERIC","62.153","0.030654589489166297","558"
"20:10:0:0 (H:m:s:ms)","GENERIC","62.091","0.04759322949236142","1112"
"20:34:14:545 (H:m:s:ms)","GENERIC","62.027","0.030628685424103217","491"
"20:50:54:545 (H:m:s:ms)","GENERIC","62.155","0.02069397836909897","498"
"20:10:6:60 (H:m:s:ms)","GENERIC","62.071","0.02052924328688148","978"
"20:34:20:606 (H:m:s:ms)","GENERIC","62.043","0.01754584718739656","433"
"20:51:0:606 (H:m:s:ms)","GENERIC","62.085","0.008538973216061533","437"
"20:10:12:121 (H:m:s:ms)","GENERIC","62.173","0.015529501051136102","914"
"20:34:26:666 (H:m:s:ms)","GENERIC","62.067","0.040881334027126306","376"
"20:51:6:666 (H:m:s:ms)","GENERIC","62.105","0.010992421631894034","377"
"20:10:18:181 (H:m:s:ms)","GENERIC","62.073","0.030729308532689625","853"
"20:34:32:727 (H:m:s:ms)","GENERIC","62.075","0.010243102844229857","315"
"20:51:12:727 (H:m:s:ms)","GENERIC","62.033","0.010252389430764884","318"
"20:10:24:242 (H:m:s:ms)","GENERIC","62.073","0.024532669073132785","796"
"20:34:38:787 (H:m:s:ms)","GENERIC","62.127","0.013965927041340236","254"
"20:51:18:787 (H:m:s:ms)","GENERIC","62.041","0.02091035146414103","252"
"20:10:30:303 (H:m:s:ms)","GENERIC","62.045","0.03066786521496418","731"
"20:34:44:848 (H:m:s:ms)","GENERIC","62.029","0.017440374613713495","193"
"20:10:36:363 (H:m:s:ms)","GENERIC","62.029","0.0246274321979915","677"
"20:34:50:909 (H:m:s:ms)","GENERIC","62.083","0.029439202887759437","1131"
"20:10:42:424 (H:m:s:ms)","GENERIC","62.053","0.008194233111555134","616"
"20:10:48:484 (H:m:s:ms)","GENERIC","62.077","0.020561821197800177","551"
"20:51:24:848 (H:m:s:ms)","GENERIC","62.143","0.030658856521969445","190"
"20:51:30:909 (H:m:s:ms)","GENERIC","62.067","0.016388466223110267","1135"
"20:34:56:969 (H:m:s:ms)","GENERIC","62.055","0.020747066572165275","1072"
"20:51:36:969 (H:m:s:ms)","GENERIC","62.037","0.010206207261596524","1075"
"20:35:3:30 (H:m:s:ms)","GENERIC","62.075","0.020459272351333185","1013"
"20:51:43:30 (H:m:s:ms)","GENERIC","62.033","0.018257418583505377","1013"
"20:10:54:545 (H:m:s:ms)","GENERIC","62.095","0.006005457422331023","495"
"20:35:9:90 (H:m:s:ms)","GENERIC","62.115","0.02457980200625441","985"
"20:51:49:90 (H:m:s:ms)","GENERIC","62.033","0.010389704334592055","996"
"20:11:0:606 (H:m:s:ms)","GENERIC","62.077","0.030674802789436028","428"
"20:35:15:151 (H:m:s:ms)","GENERIC","62.033","0.007750509723849845","891"
"20:51:55:151 (H:m:s:ms)","GENERIC","62.077","0.013776864315075642","890"
"20:11:6:666 (H:m:s:ms)","GENERIC","62.077","0.04138795673819798","370"
"20:35:21:212 (H:m:s:ms)","GENERIC","62.067","0.013940234309427344","830"
"20:52:1:212 (H:m:s:ms)","GENERIC","62.061","0.006281383789653747","831"
"20:11:12:727 (H:m:s:ms)","GENERIC","62.017","0.0105477729188475","312"
"20:35:27:272 (H:m:s:ms)","GENERIC","62.109","0.011547005383792414","771"
"20:52:7:272 (H:m:s:ms)","GENERIC","62.037","0.01041517034163316","771"
"20:11:18:787 (H:m:s:ms)","GENERIC","62.033","0.020585322770060453","251"
"20:35:33:333 (H:m:s:ms)","GENERIC","62.033","0.02730428362008491","709"
"20:52:13:333 (H:m:s:ms)","GENERIC","62.027","0.027267514767450898","710"
"20:11:24:848 (H:m:s:ms)","GENERIC","62.145","0.016392637984043834","192"
"20:35:39:393 (H:m:s:ms)","GENERIC","62.091","0.016680549773335888","686"
"20:52:19:393 (H:m:s:ms)","GENERIC","62.091","0.01592192366082764","690"
"20:11:30:909 (H:m:s:ms)","GENERIC","62.065","0.02746843361795366","1131"
"20:35:45:454 (H:m:s:ms)","GENERIC","62.079","0.01423801560735806","588"
"20:11:36:969 (H:m:s:ms)","GENERIC","62.093","0.020449868526290653","1070"
"20:35:51:515 (H:m:s:ms)","GENERIC","62.083","0.013625276076034028","527"
"20:11:43:30 (H:m:s:ms)","GENERIC","62.033","0.011977555225341843","1009"
"20:11:49:90 (H:m:s:ms)","GENERIC","62.029","0.013676148472323417","987"
"20:0:54:545 (H:m:s:ms)","GENERIC","31.043","0.025422358196994572","494"
"20:1:0:606 (H:m:s:ms)","GENERIC","31.034","0.020457725155024302","433"
"20:1:6:666 (H:m:s:ms)","GENERIC","31.039","0.01034698918454949","374"
"20:1:12:727 (H:m:s:ms)","GENERIC","31.013","0.020672042311618094","311"
"20:1:18:787 (H:m:s:ms)","GENERIC","31.024","0.024503201852853197","248"
"20:1:24:848 (H:m:s:ms)","GENERIC","31.067","0.04208127057650844","188"
"20:1:30:909 (H:m:s:ms)","GENERIC","31.029","0.05103103630798264","1125"
"20:1:36:969 (H:m:s:ms)","GENERIC","31.054","0.014533645511427927","1070"
"20:1:43:30 (H:m:s:ms)","GENERIC","31.026","0.02053803056742473","1004"
"20:1:49:90 (H:m:s:ms)","GENERIC","31.024","0.030674802789436028","958"
"20:35:57:575 (H:m:s:ms)","GENERIC","62.061","0.016388466223110267","470"
"20:36:3:636 (H:m:s:ms)","GENERIC","62.129","0.040829812241894","402"
"20:11:55:151 (H:m:s:ms)","GENERIC","62.097","0.015476402454117343","885"
"20:36:9:696 (H:m:s:ms)","GENERIC","62.089","0.02048944277622988","384"
"20:12:1:212 (H:m:s:ms)","GENERIC","62.059","0.04088778178855465","828"
"20:36:15:757 (H:m:s:ms)","GENERIC","62.113","0.02455150954325262","281"
"20:12:7:272 (H:m:s:ms)","GENERIC","62.105","0.025819888974716123","767"
"20:36:21:818 (H:m:s:ms)","GENERIC","62.073","0.0408758282281022","225"
"20:12:13:333 (H:m:s:ms)","GENERIC","62.061","0.013667947517891965","706"
"20:36:27:878 (H:m:s:ms)","GENERIC","62.135","0.005149801577391835","1166"
"20:12:19:393 (H:m:s:ms)","GENERIC","62.095","0.013795985579399286","683"
"20:36:33:939 (H:m:s:ms)","GENERIC","62.147","0.020486205688459713","1105"
"20:12:25:454 (H:m:s:ms)","GENERIC","62.057","0.02054528762362334","585"
"20:36:40:0 (H:m:s:ms)","GENERIC","62.095","0.02047763007121013","1081"
"20:12:31:515 (H:m:s:ms)","GENERIC","62.085","0.010758287072798325","527"
"20:36:46:60 (H:m:s:ms)","GENERIC","62.081","0.009622504486493688","982"
"20:12:37:575 (H:m:s:ms)","GENERIC","62.183","0.02581988897471612","462"
"20:36:52:121 (H:m:s:ms)","GENERIC","62.063","0.0409044873251495","919"
"20:12:43:636 (H:m:s:ms)","GENERIC","62.153","0.040829812241894","399"
"20:12:49:696 (H:m:s:ms)","GENERIC","62.037","0.015324940117985431","375"
"20:1:55:151 (H:m:s:ms)","GENERIC","31.037","0.01646134178143542","887"
"20:2:1:212 (H:m:s:ms)","GENERIC","31.032","0.007750509723849845","826"
"20:2:7:272 (H:m:s:ms)","GENERIC","31.064","0.02091035146414103","762"
"20:2:13:333 (H:m:s:ms)","GENERIC","31.031","0.027621189146254273","706"
"20:2:19:393 (H:m:s:ms)","GENERIC","31.044","0.015869840952317346","660"
"20:2:25:454 (H:m:s:ms)","GENERIC","31.033","0.025819888974716123","584"
"20:2:31:515 (H:m:s:ms)","GENERIC","31.044","0.04086698169473065","537"
"20:2:37:575 (H:m:s:ms)","GENERIC","31.082","0.02047763007121013","465"
"20:2:43:636 (H:m:s:ms)","GENERIC","31.068","0.04085747585611862","404"
"20:2:49:696 (H:m:s:ms)","GENERIC","31.012","0.026906633794452302","353"
"20:36:58:181 (H:m:s:ms)","GENERIC","62.033","0.00820736388128192","864"
"20:37:4:242 (H:m:s:ms)","GENERIC","62.099","0.04088778178855465","801"
"20:12:55:757 (H:m:s:ms)","GENERIC","62.131","0.02452809825825615","277"
"20:37:10:303 (H:m:s:ms)","GENERIC","62.101","0.040907909621048705","739"
"20:13:1:818 (H:m:s:ms)","GENERIC","62.079","0.024509062715924238","217"
"20:37:16:363 (H:m:s:ms)","GENERIC","62.067","0.03402069087198836","680"
"20:13:7:878 (H:m:s:ms)","GENERIC","62.073","0.0409454344171057","1157"
"20:37:22:424 (H:m:s:ms)","GENERIC","62.045","0.02151657414559664","621"
"20:13:13:939 (H:m:s:ms)","GENERIC","62.063","0.040847503210337095","1102"
"20:37:28:484 (H:m:s:ms)","GENERIC","62.051","0.02282177322938181","555"
"20:13:20:0 (H:m:s:ms)","GENERIC","62.109","0.04084148884265038","1076"
"20:37:34:545 (H:m:s:ms)","GENERIC","62.091","0.010033955955097765","498"
"20:13:26:60 (H:m:s:ms)","GENERIC","62.087","0.013633757383725449","979"
"20:37:40:606 (H:m:s:ms)","GENERIC","62.123","0.02151657414559667","431"
"20:13:32:121 (H:m:s:ms)","GENERIC","62.039","0.01641472776256384","919"
"20:37:46:666 (H:m:s:ms)","GENERIC","62.031","0.008177556357710935","379"
"20:13:38:181 (H:m:s:ms)","GENERIC","62.129","0.02051769415029944","856"
"20:37:52:727 (H:m:s:ms)","GENERIC","62.109","0.0408508569923176","317"
"20:13:44:242 (H:m:s:ms)","GENERIC","62.071","0.030658856521969445","794"
"20:13:50:303 (H:m:s:ms)","GENERIC","62.097","0.0166805497733359","737"
"20:2:55:757 (H:m:s:ms)","GENERIC","31.071","0.010992421631894034","281"
"20:3:1:818 (H:m:s:ms)","GENERIC","31.047","0.005227587866035266","221"
"20:3:7:878 (H:m:s:ms)","GENERIC","31.029","0.04149413314433053","161"
"20:3:13:939 (H:m:s:ms)","GENERIC","31.025","0.020564874509333027","1100"
"20:3:20:0 (H:m:s:ms)","GENERIC","31.058","0.005999614419193775","1041"
"20:3:26:60 (H:m:s:ms)","GENERIC","31.046","0.00587444017557264","979"
"20:3:32:121 (H:m:s:ms)","GENERIC","31.03","0.021516574145596642","921"
"20:3:38:181 (H:m:s:ms)","GENERIC","31.067","0.015324940117985431","855"
"20:3:44:242 (H:m:s:ms)","GENERIC","31.034","0.013795985579399286","799"
"20:3:50:303 (H:m:s:ms)","GENERIC","31.057","0.00620262709261362","737"
"20:37:58:787 (H:m:s:ms)","GENERIC","62.073","0.008442953975800619","255"
"20:38:4:848 (H:m:s:ms)","GENERIC","62.083","0.010336021155809054","197"
"20:13:56:363 (H:m:s:ms)","GENERIC","62.115","0.00599406072054169","676"
"20:38:10:909 (H:m:s:ms)","GENERIC","62.129","0.02091035146414103","1132"
"20:14:2:424 (H:m:s:ms)","GENERIC","62.071","0.010248294892779253","616"
"20:38:16:969 (H:m:s:ms)","GENERIC","62.085","0.024832774042918927","1069"
"20:14:8:484 (H:m:s:ms)","GENERIC","62.061","0.02459967546374977","551"
"20:38:23:30 (H:m:s:ms)","GENERIC","62.061","0.01075828707279832","1014"
"20:14:14:545 (H:m:s:ms)","GENERIC","62.063","0.029439202887759437","494"
"20:38:29:90 (H:m:s:ms)","GENERIC","62.055","0.023094010767584827","990"
"20:14:20:606 (H:m:s:ms)","GENERIC","62.061","0.020710180217126208","434"
"20:38:35:151 (H:m:s:ms)","GENERIC","62.041","0.00691568885738841","892"
"20:14:26:666 (H:m:s:ms)","GENERIC","62.035","0.02524876234590523","368"
"20:38:41:212 (H:m:s:ms)","GENERIC","62.121","0.024582699334665652","824"
"20:14:32:727 (H:m:s:ms)","GENERIC","62.097","0.00691568885738841","312"
"20:38:47:272 (H:m:s:ms)","GENERIC","62.043","0.02723568261320793","772"
"20:14:38:787 (H:m:s:ms)","GENERIC","62.091","0.030729308532689625","246"
"20:38:53:333 (H:m:s:ms)","GENERIC","62.073","0.020423751605168548","711"
"20:14:44:848 (H:m:s:ms)","GENERIC","62.029","0.007977671030558093","191"
"20:14:50:909 (H:m:s:ms)","GENERIC","62.065","0.01839950180484963","1125"
"20:3:56:363 (H:m:s:ms)","GENERIC","31.052","0.012240446333851634","676"
"20:4:2:424 (H:m:s:ms)","GENERIC","31.043","0.01634458492242929","616"
"20:4:8:484 (H:m:s:ms)","GENERIC","31.035","0.005307307886942533","556"
"20:4:14:545 (H:m:s:ms)","GENERIC","31.045","0.016379690803959897","495"
"20:4:20:606 (H:m:s:ms)","GENERIC","31.04","0.04085501376699513","430"
"20:4:26:666 (H:m:s:ms)","GENERIC","31.018","0.024505366317448003","377"
"20:4:32:727 (H:m:s:ms)","GENERIC","31.05","0.031008063467427217","307"
"20:4:38:787 (H:m:s:ms)","GENERIC","31.039","0.020477630071210118","252"
"20:4:44:848 (H:m:s:ms)","GENERIC","31.023","0.005999614419193775","193"
"20:4:50:909 (H:m:s:ms)","GENERIC","31.036","0.02726180889037709","1131"
"20:38:59:393 (H:m:s:ms)","GENERIC","62.073","0.04090127215117643","684"
"20:39:5:454 (H:m:s:ms)","GENERIC","62.061","0.01434438276373108","590"
"20:14:56:969 (H:m:s:ms)","GENERIC","62.075","0.024528098258256147","1065"
"20:39:11:515 (H:m:s:ms)","GENERIC","62.037","0.020433490847365315","529"
"20:15:3:30 (H:m:s:ms)","GENERIC","62.089","0.030631481349314905","1004"
"20:39:17:575 (H:m:s:ms)","GENERIC","62.097","0.02052924328688148","467"
"20:15:9:90 (H:m:s:ms)","GENERIC","62.083","0.00717219138186554","987"
"20:39:23:636 (H:m:s:ms)","GENERIC","62.083","0.006435915851654984","409"
"20:15:15:151 (H:m:s:ms)","GENERIC","62.063","0.04089142750672073","888"
"20:39:29:696 (H:m:s:ms)","GENERIC","62.083","0.010353000700757372","387"
"20:15:21:212 (H:m:s:ms)","GENERIC","62.049","0.02725557908173787","827"
"20:39:35:757 (H:m:s:ms)","GENERIC","62.085","0.030626997540606396","281"
"20:15:27:272 (H:m:s:ms)","GENERIC","62.091","0.024832774042918927","762"
"20:39:41:818 (H:m:s:ms)","GENERIC","62.043","0.006179018701124251","226"
"20:15:33:333 (H:m:s:ms)","GENERIC","62.055","0.017654171922174756","706"
"20:39:47:878 (H:m:s:ms)","GENERIC","62.069","0.024533959290733445","1162"
"20:15:39:393 (H:m:s:ms)","GENERIC","62.079","0.03070907581282935","677"
"20:39:53:939 (H:m:s:ms)","GENERIC","62.077","0.04097452336056921","1104"
"20:15:45:454 (H:m:s:ms)","GENERIC","62.089","0.02079123391147248","585"
"20:15:51:515 (H:m:s:ms)","GENERIC","62.121","0.008264034779291052","525"
"20:4:56:969 (H:m:s:ms)","GENERIC","31.041","0.014400504654268472","1070"
"20:5:3:30 (H:m:s:ms)","GENERIC","31.043","0.012871831703309968","1010"
"20:5:9:90 (H:m:s:ms)","GENERIC","31.047","0.017737695744942203","968"
"20:5:15:151 (H:m:s:ms)","GENERIC","31.032","0.010944195153667836","888"
"20:5:21:212 (H:m:s:ms)","GENERIC","31.018","0.027250552152068057","828"
"20:5:27:272 (H:m:s:ms)","GENERIC","31.043","0.020693978369098972","766"
"20:5:33:333 (H:m:s:ms)","GENERIC","31.038","0.02051422270848517","705"
"20:5:39:393 (H:m:s:ms)","GENERIC","31.051","0.01226633453656638","671"
"20:5:45:454 (H:m:s:ms)","GENERIC","31.044","0.02726180889037709","585"
"20:5:51:515 (H:m:s:ms)","GENERIC","31.062","0.006281383789653747","524"
"20:15:57:575 (H:m:s:ms)","GENERIC","62.051","0.017440374613713495","464"
"20:16:3:636 (H:m:s:ms)","GENERIC","62.113","0.011722412976277257","404"
"20:16:9:696 (H:m:s:ms)","GENERIC","62.119","0.00599406072054169","380"
"20:16:15:757 (H:m:s:ms)","GENERIC","62.107","0.02091035146414106","278"
"20:16:21:818 (H:m:s:ms)","GENERIC","62.055","0.01053361616748513","221"
"20:16:27:878 (H:m:s:ms)","GENERIC","62.163","0.01175186517868379","1162"
"20:16:33:939 (H:m:s:ms)","GENERIC","62.175","0.02452809825825615","1096"
"20:16:40:0 (H:m:s:ms)","GENERIC","62.091","0.011725876297341856","1077"
"20:16:46:60 (H:m:s:ms)","GENERIC","62.065","0.017010345435994192","979"
"20:16:52:121 (H:m:s:ms)","GENERIC","62.045","0.027224026920762423","918"
"20:5:57:575 (H:m:s:ms)","GENERIC","31.021","0.01543224836158276","459"
"20:6:3:636 (H:m:s:ms)","GENERIC","31.061","0.03063267669569039","399"
"20:6:9:696 (H:m:s:ms)","GENERIC","31.053","0.011729658044658298","371"
"20:6:15:757 (H:m:s:ms)","GENERIC","31.061","0.010758287072798377","282"
"20:6:21:818 (H:m:s:ms)","GENERIC","31.033","0.02053803056742473","218"
"20:6:27:878 (H:m:s:ms)","GENERIC","31.09","0.02458895697606597","156"
"20:6:33:939 (H:m:s:ms)","GENERIC","31.08","0.04086698169473065","1097"
"20:6:40:0 (H:m:s:ms)","GENERIC","31.045","0.007977671030558093","1040"
"20:6:46:60 (H:m:s:ms)","GENERIC","31.024","0.025819888974716123","975"
"20:6:52:121 (H:m:s:ms)","GENERIC","31.02","0.01053361616748513","916"
"20:16:58:181 (H:m:s:ms)","GENERIC","62.019","0.030631481349314905","855"
"20:17:4:242 (H:m:s:ms)","GENERIC","62.119","0.041028445416970385","797"
"20:17:10:303 (H:m:s:ms)","GENERIC","62.077","0.01592192366082764","731"
"20:17:16:363 (H:m:s:ms)","GENERIC","62.075","0.030631481349314905","672"
"20:17:22:424 (H:m:s:ms)","GENERIC","62.071","0.027258521192369736","616"
"20:17:28:484 (H:m:s:ms)","GENERIC","62.073","0.031365527196211586","551"
"20:17:34:545 (H:m:s:ms)","GENERIC","62.065","0.021516574145596632","489"
"20:17:40:606 (H:m:s:ms)","GENERIC","62.089","0.00630718781467657","439"
"20:17:46:666 (H:m:s:ms)","GENERIC","62.067","0.016388466223110267","373"
"20:17:52:727 (H:m:s:ms)","GENERIC","62.081","0.01558455650188809","308"
"20:6:58:181 (H:m:s:ms)","GENERIC","31.017","0.02057807254248805","857"
"20:7:4:242 (H:m:s:ms)","GENERIC","31.064","0.020747066572165268","792"
"20:7:10:303 (H:m:s:ms)","GENERIC","31.036","0.011895234282663567","737"
"20:7:16:363 (H:m:s:ms)","GENERIC","31.039","0.013625276076034028","676"
"20:7:22:424 (H:m:s:ms)","GENERIC","31.048","0.01029960315478367","615"
"20:7:28:484 (H:m:s:ms)","GENERIC","31.044","0.040847503210337095","551"
"20:7:34:545 (H:m:s:ms)","GENERIC","31.033","0.040830692576620475","496"
"20:7:40:606 (H:m:s:ms)","GENERIC","31.036","0.019764453162570007","432"
"20:7:46:666 (H:m:s:ms)","GENERIC","31.045","0.020443890894277325","374"
"20:7:52:727 (H:m:s:ms)","GENERIC","31.042","0.02051422270848517","312"
"20:17:58:787 (H:m:s:ms)","GENERIC","62.049","0.04138795673819798","247"
"20:18:4:848 (H:m:s:ms)","GENERIC","62.087","0.0204254284961588","192"
"20:18:10:909 (H:m:s:ms)","GENERIC","62.143","0.015378584146147338","1125"
"20:18:16:969 (H:m:s:ms)","GENERIC","62.107","0.027250552152068057","1070"
"20:18:23:30 (H:m:s:ms)","GENERIC","62.049","0.005875932589341895","1009"
"20:18:29:90 (H:m:s:ms)","GENERIC","62.069","0.021256807188565416","986"
"20:18:35:151 (H:m:s:ms)","GENERIC","62.051","0.03350649467170769","887"
"20:18:41:212 (H:m:s:ms)","GENERIC","62.103","0.02730586888088704","828"
"20:18:47:272 (H:m:s:ms)","GENERIC","62.077","0.006801360408136015","766"
"20:18:53:333 (H:m:s:ms)","GENERIC","62.075","0.00691568885738841","706"
"20:7:58:787 (H:m:s:ms)","GENERIC","31.03","0.01571551445085223","248"
"20:8:4:848 (H:m:s:ms)","GENERIC","31.047","0.02048944277622988","193"
"20:8:10:909 (H:m:s:ms)","GENERIC","31.065","0.010614615773885066","1130"
"20:8:16:969 (H:m:s:ms)","GENERIC","31.064","0.040831337588324024","1070"
"20:8:23:30 (H:m:s:ms)","GENERIC","31.023","0.0228217732293818","1009"
"20:8:29:90 (H:m:s:ms)","GENERIC","31.043","0.020561821197800183","983"
"20:8:35:151 (H:m:s:ms)","GENERIC","31.018","0.020486205688459713","888"
"20:8:41:212 (H:m:s:ms)","GENERIC","31.052","0.024521133909965385","823"
"20:8:47:272 (H:m:s:ms)","GENERIC","31.031","0.010033955955097765","765"
"20:8:53:333 (H:m:s:ms)","GENERIC","31.045","0.020747066572165265","707"
"20:18:59:393 (H:m:s:ms)","GENERIC","62.055","0.020693978369098982","681"
"20:19:5:454 (H:m:s:ms)","GENERIC","62.071","0.010389704334592055","584"
"20:19:11:515 (H:m:s:ms)","GENERIC","62.053","0.011104022682248554","524"
"20:19:17:575 (H:m:s:ms)","GENERIC","62.067","0.04120265042693057","464"
"20:19:23:636 (H:m:s:ms)","GENERIC","62.095","0.012266334536566382","403"
"20:19:29:696 (H:m:s:ms)","GENERIC","62.069","0.016379690803959897","379"
"20:19:35:757 (H:m:s:ms)","GENERIC","62.063","0.027250552152068057","281"
"20:19:41:818 (H:m:s:ms)","GENERIC","62.045","0.02454329488556986","220"
"20:19:47:878 (H:m:s:ms)","GENERIC","62.075","0.05103103630798264","1155"
"20:19:53:939 (H:m:s:ms)","GENERIC","62.103","0.008845379626716963","1100"
"20:8:59:393 (H:m:s:ms)","GENERIC","31.038","0.006005457422331023","682"
"20:9:5:454 (H:m:s:ms)","GENERIC","31.027","0.016486682491892442","585"
"20:9:11:515 (H:m:s:ms)","GENERIC","31.024","0.020466326573568935","524"
"20:9:17:575 (H:m:s:ms)","GENERIC","31.033","0.024792104337873416","460"
"20:9:23:636 (H:m:s:ms)","GENERIC","31.053","0.04087582822810217","397"
"20:9:29:696 (H:m:s:ms)","GENERIC","31.047","0.015324940117985431","375"
"20:9:35:757 (H:m:s:ms)","GENERIC","31.039","0.016492623966693345","281"
"20:9:41:818 (H:m:s:ms)","GENERIC","31.031","0.01592192366082764","216"
"20:9:47:878 (H:m:s:ms)","GENERIC","31.035","0.010614615773885066","161"
"20:9:53:939 (H:m:s:ms)","GENERIC","31.051","0.021095545837695018","1096"
"21:41:12:727 (H:m:s:ms)","GENERIC","62.025","0.040993179571116985","312"
"21:41:6:666 (H:m:s:ms)","GENERIC","62.063","0.01368346076818423","373"
"21:41:0:606 (H:m:s:ms)","GENERIC","62.017","0.013633757383725449","434"
"21:40:54:545 (H:m:s:ms)","GENERIC","62.115","0.010296529440472522","495"
"21:40:48:484 (H:m:s:ms)","GENERIC","62.139","0.041028445416970385","554"
"21:40:42:424 (H:m:s:ms)","GENERIC","62.081","0.02733589503578393","615"
"21:40:36:363 (H:m:s:ms)","GENERIC","62.055","0.005877505255396248","675"
"21:41:30:909 (H:m:s:ms)","GENERIC","62.053","0.02759197115879862","1130"
"21:41:24:848 (H:m:s:ms)","GENERIC","62.081","0.020992061991778287","190"
"21:41:18:787 (H:m:s:ms)","GENERIC","62.067","0.02733108372638526","255"
