"time (H:m:s:ms)","type","latency","utilisation","waiting"
"21:42:25:454 (H:m:s:ms)","GENERIC","124.354","0.3020596760360122","554"
"21:42:7:272 (H:m:s:ms)","GENERIC","124.253","0.2983818628357252","742"
"21:42:1:212 (H:m:s:ms)","GENERIC","124.372","0.298523844114169","805"
"21:41:55:151 (H:m:s:ms)","GENERIC","124.298","0.30490228496802435","864"
"21:41:49:90 (H:m:s:ms)","GENERIC","124.26599999999999","0.2894216474302914","959"
"21:41:43:30 (H:m:s:ms)","GENERIC","124.352","0.29349597036969904","982"
"21:41:36:969 (H:m:s:ms)","GENERIC","93.32900000000001","0.29402152491053835","1042"
"21:41:30:909 (H:m:s:ms)","GENERIC","124.386","0.29052299710615215","1106"
"21:41:24:848 (H:m:s:ms)","GENERIC","124.463","0.27912196795525396","162"
"21:42:19:393 (H:m:s:ms)","GENERIC","124.359","0.3021551335103444","656"
"21:42:13:333 (H:m:s:ms)","GENERIC","124.338","0.3026301180481994","677"
"21:43:32:121 (H:m:s:ms)","GENERIC","124.533","0.3170670292346538","892"
"21:43:26:60 (H:m:s:ms)","GENERIC","124.455","0.3218328586378036","952"
"21:43:13:939 (H:m:s:ms)","GENERIC","124.35499999999999","0.3198916569773995","1074"
"20:0:0:0 (H:m:s:ms)","GENERIC","93.06700000000001","0.06910845969416077","1148"
"21:43:7:878 (H:m:s:ms)","GENERIC","124.36","0.3181987138838513","1136"
"20:0:6:60 (H:m:s:ms)","GENERIC","93.347","0.10472868632663533","983"
"21:43:1:818 (H:m:s:ms)","GENERIC","124.31299999999999","0.30995018810943925","194"
"20:0:12:121 (H:m:s:ms)","GENERIC","93.12100000000001","0.12287184753401052","923"
"21:42:55:757 (H:m:s:ms)","GENERIC","124.40700000000001","0.30396424859346066","253"
"20:0:18:181 (H:m:s:ms)","GENERIC","93.233","0.13303498572802241","862"
"21:42:49:696 (H:m:s:ms)","GENERIC","124.314","0.3010423848637623","350"
"20:0:24:242 (H:m:s:ms)","GENERIC","93.233","0.13758761671430247","804"
"21:42:43:636 (H:m:s:ms)","GENERIC","124.40100000000001","0.29759733974221486","375"
"20:0:30:303 (H:m:s:ms)","GENERIC","93.181","0.15065703247977247","738"
"21:42:37:575 (H:m:s:ms)","GENERIC","124.399","0.29815673470079757","434"
"20:0:36:363 (H:m:s:ms)","GENERIC","93.37299999999999","0.174468696098599","674"
"21:42:31:515 (H:m:s:ms)","GENERIC","124.51599999999999","0.3016125877963685","498"
"20:0:42:424 (H:m:s:ms)","GENERIC","93.28","0.18958611329792868","616"
"21:10:18:181 (H:m:s:ms)","GENERIC","124.411","0.3105837445308717","831"
"20:0:48:484 (H:m:s:ms)","GENERIC","93.387","0.19626034273416126","553"
"21:10:24:242 (H:m:s:ms)","GENERIC","124.255","0.3079658032367313","770"
"21:10:30:303 (H:m:s:ms)","GENERIC","124.43299999999999","0.30974169898741377","712"
"21:10:36:363 (H:m:s:ms)","GENERIC","93.28999999999999","0.3106665203986608","652"
"21:10:42:424 (H:m:s:ms)","GENERIC","124.463","0.3074763136652166","589"
"21:10:48:484 (H:m:s:ms)","GENERIC","124.422","0.3075706469872334","530"
"21:10:54:545 (H:m:s:ms)","GENERIC","124.328","0.3085852756626277","468"
"21:11:0:606 (H:m:s:ms)","GENERIC","93.214","0.31280288523315575","407"
"21:43:20:0 (H:m:s:ms)","GENERIC","124.321","0.31915322845687855","1051"
"21:11:6:666 (H:m:s:ms)","GENERIC","124.344","0.3113470347028889","349"
"21:11:12:727 (H:m:s:ms)","GENERIC","124.259","0.29897099025114066","285"
"21:25:45:454 (H:m:s:ms)","GENERIC","124.408","0.22343774951495787","9581"
"21:44:38:787 (H:m:s:ms)","GENERIC","93.111","0.29377913298019737","221"
"21:44:32:727 (H:m:s:ms)","GENERIC","93.074","0.2853094416730743","285"
"21:44:26:666 (H:m:s:ms)","GENERIC","124.303","0.2851677701363181","349"
"21:44:20:606 (H:m:s:ms)","GENERIC","124.557","0.29512735684947206","414"
"21:44:14:545 (H:m:s:ms)","GENERIC","93.218","0.29948090478653366","471"
"21:44:8:484 (H:m:s:ms)","GENERIC","124.37100000000001","0.31013609476750353","528"
"21:44:2:424 (H:m:s:ms)","GENERIC","124.338","0.3135105702105831","589"
"21:43:56:363 (H:m:s:ms)","GENERIC","124.349","0.3105922436318087","650"
"21:43:50:303 (H:m:s:ms)","GENERIC","124.415","0.31522400934340467","708"
"21:43:44:242 (H:m:s:ms)","GENERIC","124.42500000000001","0.31207368718226725","770"
"21:11:18:787 (H:m:s:ms)","GENERIC","124.24799999999999","0.2987052133785864","227"
"21:43:38:181 (H:m:s:ms)","GENERIC","124.31700000000001","0.3122321141878897","832"
"21:11:24:848 (H:m:s:ms)","GENERIC","124.336","0.3101008066831369","167"
"21:11:30:909 (H:m:s:ms)","GENERIC","124.25","0.3122341686926927","1113"
"21:11:36:969 (H:m:s:ms)","GENERIC","124.33500000000001","0.31291691253101495","1049"
"21:11:43:30 (H:m:s:ms)","GENERIC","93.291","0.3066031949682648","983"
"21:11:49:90 (H:m:s:ms)","GENERIC","124.354","0.30751257743463095","952"
"21:11:55:151 (H:m:s:ms)","GENERIC","124.21600000000001","0.30391875014201325","858"
"21:12:1:212 (H:m:s:ms)","GENERIC","124.40899999999999","0.30421416698734377","810"
"21:12:7:272 (H:m:s:ms)","GENERIC","124.176","0.303259066988055","739"
"21:12:13:333 (H:m:s:ms)","GENERIC","124.36500000000001","0.30145898490923223","681"
"21:26:21:818 (H:m:s:ms)","GENERIC","124.39500000000001","0.23007826844107984","23268"
"21:45:45:454 (H:m:s:ms)","GENERIC","124.331","0.3094428815078957","562"
"21:26:19:746 (H:m:s:ms)","OPERA","124.277","0.23532157653456393","20372"
"21:45:39:393 (H:m:s:ms)","GENERIC","93.36500000000001","0.3072258668862286","655"
"21:45:33:333 (H:m:s:ms)","GENERIC","124.197","0.30564094386945473","683"
"21:45:27:272 (H:m:s:ms)","GENERIC","124.277","0.30439837195715685","744"
"21:26:12:151 (H:m:s:ms)","OPERA","124.10300000000001","0.2192691651866045","5851"
"21:26:9:696 (H:m:s:ms)","GENERIC","124.34200000000001","0.22757731108112478","16375"
"21:45:21:212 (H:m:s:ms)","GENERIC","124.28999999999999","0.30312049238907757","804"
"21:26:4:556 (H:m:s:ms)","OPERA","62.293000000000006","0.2195554209302397","15517"
"21:45:15:151 (H:m:s:ms)","GENERIC","124.39699999999999","0.30754210580108354","872"
"21:26:3:636 (H:m:s:ms)","GENERIC","124.37899999999999","0.223285106815788","4365"
"21:45:9:90 (H:m:s:ms)","GENERIC","124.339","0.29894245969557204","959"
"21:25:57:575 (H:m:s:ms)","GENERIC","93.326","0.2228200097486135","4466"
"21:45:3:30 (H:m:s:ms)","GENERIC","124.27","0.2962091378716351","985"
"21:25:56:962 (H:m:s:ms)","OPERA","93.274","0.22480778948288693","1041"
"21:44:56:969 (H:m:s:ms)","GENERIC","93.18","0.2937556112785339","1045"
"21:12:19:393 (H:m:s:ms)","GENERIC","124.418","0.30629405981120944","660"
"21:25:51:515 (H:m:s:ms)","GENERIC","124.473","0.22776007173042404","10527"
"21:44:50:909 (H:m:s:ms)","GENERIC","124.179","0.2965569909743072","1108"
"21:12:25:454 (H:m:s:ms)","GENERIC","124.25","0.30870572269286745","566"
"21:25:49:367 (H:m:s:ms)","OPERA","93.187","0.21756006871143382","5668"
"21:44:44:848 (H:m:s:ms)","GENERIC","124.46000000000001","0.29674562908504204","165"
"21:12:31:515 (H:m:s:ms)","GENERIC","124.21799999999999","0.3118576652321337","497"
"21:12:37:575 (H:m:s:ms)","GENERIC","124.303","0.31478955378956663","440"
"21:12:43:636 (H:m:s:ms)","GENERIC","93.363","0.31650644773506026","382"
"21:12:49:696 (H:m:s:ms)","GENERIC","124.18299999999999","0.3146598929375905","352"
"21:12:55:757 (H:m:s:ms)","GENERIC","124.392","0.31326803968922323","258"
"21:13:1:818 (H:m:s:ms)","GENERIC","124.375","0.31554800600334887","199"
"21:13:7:878 (H:m:s:ms)","GENERIC","124.406","0.31251049013466875","1145"
"21:13:13:939 (H:m:s:ms)","GENERIC","124.44","0.31138466569898055","1070"
"21:26:15:757 (H:m:s:ms)","GENERIC","124.29599999999999","0.2424834993939407","47443"
"21:26:58:181 (H:m:s:ms)","GENERIC","124.382","0.2080092876084689","253809"
"21:46:52:121 (H:m:s:ms)","GENERIC","124.243","0.31868318737371","895"
"21:26:57:721 (H:m:s:ms)","OPERA","93.35000000000001","0.23799453687977815","280"
"21:46:46:60 (H:m:s:ms)","GENERIC","93.203","0.32253703059644817","957"
"21:26:52:121 (H:m:s:ms)","GENERIC","124.408","0.23682552414676106","16918"
"21:46:40:0 (H:m:s:ms)","GENERIC","124.226","0.3182984173392888","1053"
"21:46:33:939 (H:m:s:ms)","GENERIC","93.199","0.31819658107150617","1074"
"21:46:27:878 (H:m:s:ms)","GENERIC","124.401","0.3153670372830444","1139"
"21:26:50:126 (H:m:s:ms)","OPERA","93.301","0.23734516769667285","881"
"21:26:46:60 (H:m:s:ms)","GENERIC","124.577","0.23922880411023373","10981"
"21:26:42:531 (H:m:s:ms)","OPERA","124.33600000000001","0.20522440551787655","322707"
"21:46:21:818 (H:m:s:ms)","GENERIC","124.207","0.31198524996094507","194"
"21:26:40:0 (H:m:s:ms)","GENERIC","124.561","0.21538075892596587","548188"
"21:46:15:757 (H:m:s:ms)","GENERIC","124.42099999999999","0.30308428282653466","258"
"21:26:34:936 (H:m:s:ms)","OPERA","124.52600000000001","0.2296657065559701","7099"
"21:46:9:696 (H:m:s:ms)","GENERIC","124.392","0.3040092586788314","355"
"21:13:20:0 (H:m:s:ms)","GENERIC","93.346","0.3004148372222142","1051"
"21:26:33:939 (H:m:s:ms)","GENERIC","124.29599999999999","0.24759376061672653","17134"
"21:46:3:636 (H:m:s:ms)","GENERIC","124.318","0.30058966145304633","377"
"21:13:26:60 (H:m:s:ms)","GENERIC","124.466","0.29903210768785504","955"
"21:26:27:878 (H:m:s:ms)","GENERIC","124.23","0.22612954021563947","5165"
"21:45:57:575 (H:m:s:ms)","GENERIC","124.22999999999999","0.3053949655119432","442"
"21:13:32:121 (H:m:s:ms)","GENERIC","124.414","0.29061625848508355","893"
"21:26:27:341 (H:m:s:ms)","OPERA","124.298","0.23320870908027305","5698"
"21:45:51:515 (H:m:s:ms)","GENERIC","124.40899999999999","0.30154306377746054","499"
"21:13:38:181 (H:m:s:ms)","GENERIC","124.262","0.29758250337924774","839"
"21:13:44:242 (H:m:s:ms)","GENERIC","124.543","0.29969084694949216","777"
"21:13:50:303 (H:m:s:ms)","GENERIC","93.191","0.2999566573792743","711"
"21:13:56:363 (H:m:s:ms)","GENERIC","124.39699999999999","0.2994456394283673","656"
"21:14:2:424 (H:m:s:ms)","GENERIC","124.256","0.2955033594405139","595"
"21:14:8:484 (H:m:s:ms)","GENERIC","124.332","0.29319292019598797","528"
"21:14:14:545 (H:m:s:ms)","GENERIC","124.43299999999999","0.29527741053720835","469"
"21:27:35:696 (H:m:s:ms)","OPERA","124.191","0.22749598652102318","5339"
"21:47:58:787 (H:m:s:ms)","GENERIC","124.344","0.31680250072444593","234"
"21:27:34:545 (H:m:s:ms)","GENERIC","93.331","0.22996981390212767","458"
"21:47:52:727 (H:m:s:ms)","GENERIC","124.506","0.31051130601478333","293"
"21:27:28:484 (H:m:s:ms)","GENERIC","124.281","0.22925942193892815","515"
"21:47:46:666 (H:m:s:ms)","GENERIC","93.307","0.3129735578670282","355"
"21:27:28:101 (H:m:s:ms)","OPERA","124.41300000000001","0.2315637826751436","20975"
"21:47:40:606 (H:m:s:ms)","GENERIC","124.386","0.30494850602926316","408"
"21:47:34:545 (H:m:s:ms)","GENERIC","124.303","0.3107352123045444","472"
"21:47:28:484 (H:m:s:ms)","GENERIC","124.31200000000001","0.31876278213702697","530"
"21:27:22:424 (H:m:s:ms)","GENERIC","124.356","0.22977326719663804","579"
"21:27:20:506 (H:m:s:ms)","OPERA","124.418","0.2273538075736815","18539"
"21:27:16:363 (H:m:s:ms)","GENERIC","124.511","0.22624258950278217","636"
"21:47:22:424 (H:m:s:ms)","GENERIC","124.378","0.31913976230675317","591"
"21:14:20:606 (H:m:s:ms)","GENERIC","124.3","0.2954213843311063","411"
"21:27:12:911 (H:m:s:ms)","OPERA","124.114","0.23337195312123718","13131"
"21:47:16:363 (H:m:s:ms)","GENERIC","124.53800000000001","0.3195337854895543","656"
"21:14:26:666 (H:m:s:ms)","GENERIC","124.292","0.2998895126817367","349"
"21:27:10:303 (H:m:s:ms)","GENERIC","62.039","0.23435627303133919","22775"
"21:47:10:303 (H:m:s:ms)","GENERIC","124.371","0.32296298607732576","708"
"20:52:19:393 (H:m:s:ms)","GENERIC","124.374","0.22191826161173758","653"
"21:14:32:727 (H:m:s:ms)","GENERIC","124.21199999999999","0.3015422233724466","291"
"21:27:5:316 (H:m:s:ms)","OPERA","93.349","0.23761917119207734","9719"
"21:47:4:242 (H:m:s:ms)","GENERIC","124.371","0.3239630946147281","772"
"20:52:25:454 (H:m:s:ms)","GENERIC","124.218","0.22489400791801784","2549"
"21:14:38:787 (H:m:s:ms)","GENERIC","124.346","0.29814841994810337","228"
"21:27:4:242 (H:m:s:ms)","GENERIC","93.23400000000001","0.24102152230433413","761"
"21:46:58:181 (H:m:s:ms)","GENERIC","124.465","0.3200429718240591","835"
"20:52:31:515 (H:m:s:ms)","GENERIC","124.352","0.22601412358816086","490"
"21:14:44:848 (H:m:s:ms)","GENERIC","124.231","0.2964654023056972","167"
"20:52:37:575 (H:m:s:ms)","GENERIC","124.253","0.24085309126890492","8465"
"21:14:50:909 (H:m:s:ms)","GENERIC","124.47999999999999","0.29964482043765234","1116"
"20:52:43:636 (H:m:s:ms)","GENERIC","124.523","0.2336480191891028","5364"
"21:14:56:969 (H:m:s:ms)","GENERIC","93.334","0.29991471786031976","1046"
"20:52:49:696 (H:m:s:ms)","GENERIC","124.411","0.23053444230547893","352"
"21:15:3:30 (H:m:s:ms)","GENERIC","124.396","0.2982071690449649","989"
"20:52:55:757 (H:m:s:ms)","GENERIC","124.231","0.23230401058327058","249"
"21:15:9:90 (H:m:s:ms)","GENERIC","124.381","0.29507031736764244","956"
"20:53:1:818 (H:m:s:ms)","GENERIC","93.244","0.23634265087718478","9228"
"21:15:15:151 (H:m:s:ms)","GENERIC","124.36","0.30284184944069786","866"
"20:53:7:878 (H:m:s:ms)","GENERIC","124.362","0.23894948875780556","1128"
"20:53:13:939 (H:m:s:ms)","GENERIC","124.437","0.23469027343768942","14109"
"21:28:13:670 (H:m:s:ms)","OPERA","124.304","0.23785500346065747","30446"
"21:49:5:454 (H:m:s:ms)","GENERIC","124.39500000000001","0.3159953700153082","563"
"21:28:10:909 (H:m:s:ms)","GENERIC","124.297","0.1965912187732425","280180"
"21:48:59:393 (H:m:s:ms)","GENERIC","124.497","0.31896601185817497","657"
"21:28:6:75 (H:m:s:ms)","OPERA","93.165","0.21677641810545814","155536"
"21:48:53:333 (H:m:s:ms)","GENERIC","124.21799999999999","0.3192955974465936","687"
"21:28:4:848 (H:m:s:ms)","GENERIC","124.24000000000001","0.2129126716699516","125651"
"21:48:47:272 (H:m:s:ms)","GENERIC","124.30699999999999","0.32219146411834","746"
"21:27:58:787 (H:m:s:ms)","GENERIC","93.12899999999999","0.23301945567095195","33358"
"21:48:41:212 (H:m:s:ms)","GENERIC","124.23400000000001","0.32125891505219","806"
"21:48:35:151 (H:m:s:ms)","GENERIC","124.39099999999999","0.3223326790309519","864"
"21:48:29:90 (H:m:s:ms)","GENERIC","93.372","0.31834165653507107","965"
"21:27:58:481 (H:m:s:ms)","OPERA","93.356","0.23015750362407195","5557"
"21:15:21:212 (H:m:s:ms)","GENERIC","124.439","0.3078106453615485","804"
"21:27:52:727 (H:m:s:ms)","GENERIC","124.134","0.2304552840809525","8310"
"21:15:27:272 (H:m:s:ms)","GENERIC","124.554","0.3074712478047202","750"
"21:27:50:886 (H:m:s:ms)","OPERA","124.112","0.23114773876901956","1118"
"21:48:23:30 (H:m:s:ms)","GENERIC","124.432","0.3137709019747925","983"
"20:53:20:0 (H:m:s:ms)","GENERIC","124.283","0.24461912363327334","1047"
"21:15:33:333 (H:m:s:ms)","GENERIC","124.48","0.30786355481197103","686"
"21:27:46:666 (H:m:s:ms)","GENERIC","124.267","0.23040287431178458","26450"
"21:48:16:969 (H:m:s:ms)","GENERIC","93.266","0.31960471840666027","1045"
"20:53:26:60 (H:m:s:ms)","GENERIC","124.471","0.23386723707617138","940"
"21:15:39:393 (H:m:s:ms)","GENERIC","124.48400000000001","0.30615153212168533","656"
"21:27:43:291 (H:m:s:ms)","OPERA","124.406","0.21254178794606918","170369"
"21:48:10:909 (H:m:s:ms)","GENERIC","124.473","0.31353262274217836","1109"
"20:53:32:121 (H:m:s:ms)","GENERIC","124.382","0.24993926160058502","884"
"21:15:45:454 (H:m:s:ms)","GENERIC","124.231","0.31752921563359904","567"
"21:27:40:606 (H:m:s:ms)","GENERIC","124.24600000000001","0.2311095266546617","8400"
"21:48:4:848 (H:m:s:ms)","GENERIC","124.288","0.3119342044225077","169"
"20:53:38:181 (H:m:s:ms)","GENERIC","124.60300000000001","0.24238414866742442","818"
"21:15:51:515 (H:m:s:ms)","GENERIC","93.26","0.3122097340632307","504"
"20:53:44:242 (H:m:s:ms)","GENERIC","124.31","0.2415143034345784","1758"
"21:15:57:575 (H:m:s:ms)","GENERIC","124.291","0.31052084254983203","441"
"20:53:50:303 (H:m:s:ms)","GENERIC","124.457","0.241908628362149","4700"
"21:16:3:636 (H:m:s:ms)","GENERIC","124.19300000000001","0.3125453625339642","384"
"20:53:56:363 (H:m:s:ms)","GENERIC","124.45400000000001","0.25284451987452133","8677"
"21:16:9:696 (H:m:s:ms)","GENERIC","124.418","0.31010813771481954","353"
"20:54:2:424 (H:m:s:ms)","GENERIC","124.434","0.26595297085584096","12622"
"21:16:15:757 (H:m:s:ms)","GENERIC","124.287","0.30814072927803926","258"
"20:54:8:484 (H:m:s:ms)","GENERIC","124.405","0.2552881132336484","7574"
"20:54:14:545 (H:m:s:ms)","GENERIC","124.36500000000001","0.2652920237054148","468"
"21:28:51:645 (H:m:s:ms)","OPERA","93.282","0.20411727869336796","155928"
"22:0:31:578 (H:m:s:ms)","AMBULANCE","124.499","0.11862102522135072","458"
"21:28:47:272 (H:m:s:ms)","GENERIC","124.286","0.2249695253461815","731"
"22:0:0:0 (H:m:s:ms)","AMBULANCE","124.245","0.08006650114791933","1115"
"21:28:44:50 (H:m:s:ms)","OPERA","93.32600000000001","0.22664824412715706","953"
"21:50:0:0 (H:m:s:ms)","GENERIC","124.173","0.3148821056093591","1056"
"21:28:41:212 (H:m:s:ms)","GENERIC","93.237","0.21066702666488565","227645"
"21:49:53:939 (H:m:s:ms)","GENERIC","124.271","0.31422900418317457","1077"
"21:28:36:455 (H:m:s:ms)","OPERA","62.230000000000004","0.22456051690434725","547"
"21:49:47:878 (H:m:s:ms)","GENERIC","93.325","0.31494050631517534","1136"
"21:28:35:151 (H:m:s:ms)","GENERIC","124.195","0.22953568265493607","853"
"21:49:41:818 (H:m:s:ms)","GENERIC","124.245","0.3179165765618284","201"
"21:49:35:757 (H:m:s:ms)","GENERIC","93.219","0.3167181176224796","261"
"21:49:29:696 (H:m:s:ms)","GENERIC","124.43299999999999","0.3136389175537884","352"
"21:16:21:818 (H:m:s:ms)","GENERIC","124.354","0.3029733449377816","199"
"21:16:27:878 (H:m:s:ms)","GENERIC","124.23400000000001","0.2996903049368452","1145"
"21:28:29:90 (H:m:s:ms)","GENERIC","124.37899999999999","0.21047349798975729","147487"
"20:54:20:606 (H:m:s:ms)","GENERIC","124.631","0.2390775038572805","1393"
"21:16:33:939 (H:m:s:ms)","GENERIC","124.357","0.29591841998260926","1085"
"21:28:28:860 (H:m:s:ms)","OPERA","124.209","0.22697004775349686","1173"
"20:54:26:666 (H:m:s:ms)","GENERIC","124.218","0.23828314235383236","5373"
"21:16:40:0 (H:m:s:ms)","GENERIC","124.207","0.29609153402460564","1050"
"21:28:23:30 (H:m:s:ms)","GENERIC","93.27199999999999","0.22462335556287513","28091"
"21:49:23:636 (H:m:s:ms)","GENERIC","93.278","0.3167413356031122","382"
"20:54:32:727 (H:m:s:ms)","GENERIC","124.376","0.2367424573076876","278"
"21:16:46:60 (H:m:s:ms)","GENERIC","124.34700000000001","0.30147191899696674","954"
"21:28:21:265 (H:m:s:ms)","OPERA","93.288","0.22170906449592767","442496"
"21:49:17:575 (H:m:s:ms)","GENERIC","124.506","0.3164606442663597","434"
"20:54:38:787 (H:m:s:ms)","GENERIC","124.531","0.2398382297094901","216"
"21:16:52:121 (H:m:s:ms)","GENERIC","124.431","0.30121319861141976","891"
"21:28:16:969 (H:m:s:ms)","GENERIC","124.274","0.23524578467852966","3065"
"21:49:11:515 (H:m:s:ms)","GENERIC","124.512","0.3163491644303303","495"
"20:54:44:848 (H:m:s:ms)","GENERIC","124.28999999999999","0.23887942414786448","160"
"21:16:58:181 (H:m:s:ms)","GENERIC","124.212","0.3022624345396319","838"
"20:54:50:909 (H:m:s:ms)","GENERIC","124.26599999999999","0.2510915336160031","1096"
"21:17:4:242 (H:m:s:ms)","GENERIC","124.39699999999999","0.30160295451038066","771"
"20:54:56:969 (H:m:s:ms)","GENERIC","124.349","0.23148368737572828","1034"
"21:17:10:303 (H:m:s:ms)","GENERIC","124.19999999999999","0.3025265243785978","716"
"20:55:3:30 (H:m:s:ms)","GENERIC","93.253","0.2388936245328571","977"
"21:17:16:363 (H:m:s:ms)","GENERIC","124.30799999999999","0.3069031867559719","656"
"20:55:9:90 (H:m:s:ms)","GENERIC","124.304","0.22869735959612947","956"
"20:55:15:151 (H:m:s:ms)","GENERIC","124.326","0.23620913459427179","856"
"21:29:29:620 (H:m:s:ms)","OPERA","93.267","0.21948311761420936","39541"
"21:29:23:636 (H:m:s:ms)","GENERIC","124.41999999999999","0.21621461193609348","39522"
"21:29:22:25 (H:m:s:ms)","OPERA","124.18","0.22771099299551414","12016"
"21:29:17:575 (H:m:s:ms)","GENERIC","124.185","0.21915054239786272","14499"
"21:29:14:430 (H:m:s:ms)","OPERA","124.31200000000001","0.2169837889147365","23649"
"21:29:11:515 (H:m:s:ms)","GENERIC","93.196","0.2195527247396689","20557"
"21:29:6:835 (H:m:s:ms)","OPERA","62.214","0.21834872634684693","13236"
"21:17:22:424 (H:m:s:ms)","GENERIC","124.47399999999999","0.3036564736649353","593"
"21:17:28:484 (H:m:s:ms)","GENERIC","93.317","0.301795771298218","528"
"20:55:21:212 (H:m:s:ms)","GENERIC","124.531","0.22769571081044573","795"
"21:17:34:545 (H:m:s:ms)","GENERIC","124.39699999999999","0.30599990086884304","474"
"20:55:27:272 (H:m:s:ms)","GENERIC","93.336","0.23617683428135414","735"
"21:17:40:606 (H:m:s:ms)","GENERIC","124.114","0.3117552033678575","413"
"21:29:5:454 (H:m:s:ms)","GENERIC","93.284","0.22216994554402317","8581"
"20:55:33:333 (H:m:s:ms)","GENERIC","93.292","0.24452626999124366","675"
"21:17:46:666 (H:m:s:ms)","GENERIC","124.22800000000001","0.3152123936925049","345"
"21:28:59:393 (H:m:s:ms)","GENERIC","124.259","0.22222876587978563","12675"
"20:55:39:393 (H:m:s:ms)","GENERIC","124.208","0.24866412463572174","655"
"21:17:52:727 (H:m:s:ms)","GENERIC","124.19","0.31909744451340477","290"
"21:28:59:240 (H:m:s:ms)","OPERA","124.144","0.21950497389522924","8795"
"22:2:6:315 (H:m:s:ms)","AMBULANCE","124.316","0.14388187935085653","719"
"20:55:45:454 (H:m:s:ms)","GENERIC","124.386","0.24914015188883953","550"
"21:17:58:787 (H:m:s:ms)","GENERIC","124.175","0.31567486757857444","231"
"21:28:53:333 (H:m:s:ms)","GENERIC","124.429","0.22362693280824858","38807"
"22:1:34:736 (H:m:s:ms)","AMBULANCE","124.249","0.13871775799313477","296"
"20:55:51:515 (H:m:s:ms)","GENERIC","124.282","0.25604592247876085","493"
"21:18:4:848 (H:m:s:ms)","GENERIC","124.463","0.3150496053970979","166"
"20:55:57:575 (H:m:s:ms)","GENERIC","124.288","0.25344938772240105","432"
"21:18:10:909 (H:m:s:ms)","GENERIC","124.267","0.31579039932582276","1107"
"20:56:3:636 (H:m:s:ms)","GENERIC","93.19","0.2533727230689206","368"
"21:18:16:969 (H:m:s:ms)","GENERIC","124.34800000000001","0.3201238242287855","1052"
"20:56:9:696 (H:m:s:ms)","GENERIC","124.184","0.25014306488779414","353"
"20:56:15:757 (H:m:s:ms)","GENERIC","124.418","0.24971020547618566","250"
"21:30:0:0 (H:m:s:ms)","AMBULANCE","124.532","0.21452304825852925","9046"
"21:30:0:0 (H:m:s:ms)","GENERIC","124.404","0.21496797729116116","3042"
"21:30:0:0 (H:m:s:ms)","GENERIC","124.54599999999999","0.21320919888388665","15083"
"21:30:0:0 (H:m:s:ms)","OPERA","124.244","0.2202481073069042","1038"
"21:29:53:939 (H:m:s:ms)","GENERIC","124.229","0.21339959168792477","31182"
"21:29:52:405 (H:m:s:ms)","OPERA","93.267","0.2048049246474586","94942"
"21:29:47:878 (H:m:s:ms)","GENERIC","124.377","0.2194559434026154","9159"
"21:29:41:818 (H:m:s:ms)","GENERIC","124.35300000000001","0.21730780475007994","9221"
"21:18:23:30 (H:m:s:ms)","GENERIC","124.465","0.3258073658137961","985"
"21:18:29:90 (H:m:s:ms)","GENERIC","93.243","0.3258246076702111","959"
"20:56:21:818 (H:m:s:ms)","GENERIC","124.25200000000001","0.2510915859935791","188"
"21:18:35:151 (H:m:s:ms)","GENERIC","124.36000000000001","0.32756350036402015","863"
"20:56:27:878 (H:m:s:ms)","GENERIC","93.229","0.2515265204179721","1134"
"21:18:41:212 (H:m:s:ms)","GENERIC","124.373","0.32415931745938537","805"
"20:40:0:0 (H:m:s:ms)","OPERA","93.279","0.30175581269553536","1132"
"20:56:33:939 (H:m:s:ms)","GENERIC","124.364","0.2526961070684956","1066"
"21:18:47:272 (H:m:s:ms)","GENERIC","124.324","0.32690793267753027","743"
"20:40:0:0 (H:m:s:ms)","GENERIC","124.18","0.30398087922875844","1151"
"20:56:40:0 (H:m:s:ms)","GENERIC","124.245","0.25031067989154693","1050"
"21:18:53:333 (H:m:s:ms)","GENERIC","124.282","0.3248966265748847","685"
"21:29:37:215 (H:m:s:ms)","OPERA","62.227000000000004","0.19661768829674006","177488"
"20:40:0:0 (H:m:s:ms)","GENERIC","124.283","0.3023647467105393","1179"
"20:56:46:60 (H:m:s:ms)","GENERIC","93.453","0.27319522590747003","954"
"21:18:59:393 (H:m:s:ms)","GENERIC","124.255","0.31737910168854094","659"
"21:29:35:757 (H:m:s:ms)","GENERIC","124.423","0.21737317979349793","11280"
"20:40:6:60 (H:m:s:ms)","GENERIC","124.26400000000001","0.3025734374257427","958"
"20:56:52:121 (H:m:s:ms)","GENERIC","124.341","0.28127164921388315","893"
"21:19:5:454 (H:m:s:ms)","GENERIC","124.381","0.3258493874413569","560"
"21:29:29:696 (H:m:s:ms)","GENERIC","124.38300000000001","0.22024497930859507","16383"
"20:40:7:594 (H:m:s:ms)","OPERA","93.274","0.3048230440886789","431"
"20:56:58:181 (H:m:s:ms)","GENERIC","124.548","0.2811673587135592","825"
"21:19:11:515 (H:m:s:ms)","GENERIC","93.286","0.3230696291391284","498"
"20:40:12:121 (H:m:s:ms)","GENERIC","124.208","0.3046319040293226","893"
"20:57:4:242 (H:m:s:ms)","GENERIC","124.367","0.28201111941404994","770"
"21:19:17:575 (H:m:s:ms)","GENERIC","93.101","0.3224164441751816","438"
"20:40:15:189 (H:m:s:ms)","OPERA","93.254","0.30371958479842487","829"
"20:57:10:303 (H:m:s:ms)","GENERIC","124.404","0.27613482319656385","704"
"20:40:18:181 (H:m:s:ms)","GENERIC","124.338","0.30996458477661676","843"
"20:57:16:363 (H:m:s:ms)","GENERIC","124.32","0.2788193408629777","653"
"20:40:22:784 (H:m:s:ms)","OPERA","93.333","0.3044894478646789","232"
"20:40:24:242 (H:m:s:ms)","GENERIC","124.342","0.30389225973340633","776"
"21:30:18:181 (H:m:s:ms)","GENERIC","93.219","0.21450089963853364","20896"
"21:31:0:606 (H:m:s:ms)","GENERIC","93.276","0.2087847800853312","2395"
"21:30:54:545 (H:m:s:ms)","GENERIC","124.291","0.21459593972504878","284592"
"21:30:48:484 (H:m:s:ms)","GENERIC","124.36","0.21050425323821767","516"
"21:30:42:424 (H:m:s:ms)","GENERIC","124.462","0.2127713639307863","6578"
"21:30:36:363 (H:m:s:ms)","GENERIC","124.40899999999999","0.2147621285563855","8672"
"21:30:31:578 (H:m:s:ms)","AMBULANCE","124.255","0.21592154996439247","5423"
"21:30:30:303 (H:m:s:ms)","GENERIC","124.55600000000001","0.20116206459085603","32804"
"21:19:23:636 (H:m:s:ms)","GENERIC","124.24700000000001","0.3159182505836807","385"
"21:30:24:242 (H:m:s:ms)","GENERIC","124.34100000000001","0.21307399338440527","3760"
"21:19:29:696 (H:m:s:ms)","GENERIC","93.326","0.31342227304440157","353"
"20:57:22:424 (H:m:s:ms)","GENERIC","124.273","0.287054379781545","590"
"21:19:35:757 (H:m:s:ms)","GENERIC","124.31800000000001","0.3160988933983594","258"
"20:57:28:484 (H:m:s:ms)","GENERIC","124.47","0.28982257579679127","530"
"21:19:41:818 (H:m:s:ms)","GENERIC","124.489","0.3125746659702341","201"
"20:40:30:303 (H:m:s:ms)","GENERIC","124.334","0.30611617278402364","715"
"20:57:34:545 (H:m:s:ms)","GENERIC","124.458","0.29402092282231423","466"
"21:19:47:878 (H:m:s:ms)","GENERIC","124.34299999999999","0.31417011174668785","1139"
"20:40:30:379 (H:m:s:ms)","OPERA","62.149","0.3021597892288257","653"
"20:57:40:606 (H:m:s:ms)","GENERIC","93.118","0.29621488536345303","416"
"21:19:53:939 (H:m:s:ms)","GENERIC","93.34899999999999","0.3139362512479438","1082"
"20:40:36:363 (H:m:s:ms)","GENERIC","124.31","0.29889850974515897","651"
"20:57:46:666 (H:m:s:ms)","GENERIC","124.291","0.2962717712150052","349"
"21:20:0:0 (H:m:s:ms)","OPERA","93.291","0.32014603501076005","1119"
"20:40:42:424 (H:m:s:ms)","GENERIC","124.49799999999999","0.3027085333233931","590"
"20:57:52:727 (H:m:s:ms)","GENERIC","124.256","0.2977845251005625","286"
"21:20:0:0 (H:m:s:ms)","GENERIC","124.376","0.3232364706979163","1140"
"21:30:12:121 (H:m:s:ms)","GENERIC","124.271","0.23117117520367841","225744"
"20:40:45:569 (H:m:s:ms)","OPERA","62.202","0.2981481261144979","442"
"20:57:58:787 (H:m:s:ms)","GENERIC","124.393","0.2918894943460607","228"
"21:20:0:0 (H:m:s:ms)","GENERIC","93.261","0.32185005666651584","1162"
"21:30:6:60 (H:m:s:ms)","GENERIC","124.376","0.2136805853146052","15015"
"20:40:48:484 (H:m:s:ms)","GENERIC","124.52000000000001","0.29378498764713756","534"
"20:58:4:848 (H:m:s:ms)","GENERIC","124.257","0.2882437524628248","163"
"21:20:6:60 (H:m:s:ms)","GENERIC","93.36699999999999","0.31504074522023384","953"
"20:40:53:164 (H:m:s:ms)","OPERA","93.424","0.2977868860400243","856"
"20:58:10:909 (H:m:s:ms)","GENERIC","93.34","0.28595957936270006","1111"
"20:40:54:545 (H:m:s:ms)","GENERIC","124.301","0.3002365466779051","466"
"20:58:16:969 (H:m:s:ms)","GENERIC","124.511","0.2815513344465179","1045"
"20:41:0:606 (H:m:s:ms)","GENERIC","124.481","0.30421359314524404","410"
"20:41:0:759 (H:m:s:ms)","OPERA","93.401","0.30164118168429843","276"
"21:31:12:727 (H:m:s:ms)","GENERIC","93.372","0.2142113629284199","8308"
"21:31:6:666 (H:m:s:ms)","GENERIC","124.484","0.21296692888688315","4368"
"21:31:55:151 (H:m:s:ms)","GENERIC","124.32900000000001","0.2032600787575367","851"
"21:31:49:90 (H:m:s:ms)","GENERIC","124.33099999999999","0.21226643041287455","2946"
"21:31:43:30 (H:m:s:ms)","GENERIC","124.223","0.2269836524285653","9004"
"21:31:36:969 (H:m:s:ms)","GENERIC","124.375","0.2048792153549919","21112"
"21:31:34:736 (H:m:s:ms)","AMBULANCE","124.406","0.21048783204730656","6299"
"21:31:30:909 (H:m:s:ms)","GENERIC","124.51400000000001","0.20710813315069976","15130"
"21:31:24:848 (H:m:s:ms)","GENERIC","124.40700000000001","0.20265872000641483","154"
"21:31:18:787 (H:m:s:ms)","GENERIC","124.232","0.20748220654169214","2251"
"20:58:23:30 (H:m:s:ms)","GENERIC","124.37100000000001","0.2830878992720707","985"
"20:58:29:90 (H:m:s:ms)","GENERIC","124.44900000000001","0.29027153516886617","970"
"20:41:6:666 (H:m:s:ms)","GENERIC","124.28800000000001","0.3051085279551001","353"
"20:58:35:151 (H:m:s:ms)","GENERIC","124.146","0.2907889988098573","867"
"20:41:8:354 (H:m:s:ms)","OPERA","93.22200000000001","0.30130932895845924","658"
"20:58:41:212 (H:m:s:ms)","GENERIC","124.396","0.29595222458030074","802"
"20:41:12:727 (H:m:s:ms)","GENERIC","124.19","0.2944886650339503","290"
"20:58:47:272 (H:m:s:ms)","GENERIC","124.34299999999999","0.2976864558958594","748"
"20:41:15:949 (H:m:s:ms)","OPERA","62.116","0.29623162481540666","1064"
"20:58:53:333 (H:m:s:ms)","GENERIC","124.447","0.29698578948771037","680"
"20:41:18:787 (H:m:s:ms)","GENERIC","124.45599999999999","0.28987861735631165","229"
"20:58:59:393 (H:m:s:ms)","GENERIC","124.39500000000001","0.3027809749147581","666"
"20:41:23:544 (H:m:s:ms)","OPERA","93.34400000000001","0.28650098134180946","467"
"20:59:5:454 (H:m:s:ms)","GENERIC","124.375","0.302265256314215","561"
"21:31:3:157 (H:m:s:ms)","AMBULANCE","124.56700000000001","0.21067688654152564","30958"
"20:41:24:848 (H:m:s:ms)","GENERIC","124.219","0.28747255106725256","168"
"20:59:11:515 (H:m:s:ms)","GENERIC","124.34100000000001","0.30577164065085377","497"
"20:41:30:909 (H:m:s:ms)","GENERIC","124.39099999999999","0.2816131726954787","1102"
"20:59:17:575 (H:m:s:ms)","GENERIC","93.249","0.32012077050800286","442"
"20:41:31:139 (H:m:s:ms)","OPERA","93.405","0.27980639545954894","885"
"20:41:36:969 (H:m:s:ms)","GENERIC","124.396","0.27588745724517133","1045"
"20:59:23:636 (H:m:s:ms)","GENERIC","124.578","0.3240827058796623","383"
"20:59:29:696 (H:m:s:ms)","GENERIC","93.19800000000001","0.32040323997723935","357"
"20:41:38:734 (H:m:s:ms)","OPERA","93.399","0.27081731183149116","278"
"20:59:35:757 (H:m:s:ms)","GENERIC","93.283","0.32063760411727343","259"
"20:41:43:30 (H:m:s:ms)","GENERIC","124.241","0.26335798688284523","977"
"20:59:41:818 (H:m:s:ms)","GENERIC","124.305","0.3174191203798473","200"
"20:41:46:329 (H:m:s:ms)","OPERA","93.23","0.26453105785884384","679"
"20:59:47:878 (H:m:s:ms)","GENERIC","124.396","0.31843333184697326","1138"
"20:41:49:90 (H:m:s:ms)","GENERIC","124.393","0.2646765699787362","955"
"20:59:53:939 (H:m:s:ms)","GENERIC","124.347","0.32015686155848455","1078"
"20:41:53:924 (H:m:s:ms)","OPERA","93.406","0.2689135759140813","1087"
"21:0:0:0 (H:m:s:ms)","AMBULANCE","93.481","0.3181740057834569","1124"
"20:41:55:151 (H:m:s:ms)","GENERIC","124.203","0.2687978298073197","865"
"21:0:0:0 (H:m:s:ms)","GENERIC","124.60900000000001","0.32290726454207164","1143"
"20:42:1:212 (H:m:s:ms)","GENERIC","124.413","0.2721453531216811","795"
"21:0:0:0 (H:m:s:ms)","GENERIC","124.24000000000001","0.32276640574742954","1159"
"20:42:1:518 (H:m:s:ms)","OPERA","93.309","0.26994822103512434","502"
"21:0:6:60 (H:m:s:ms)","GENERIC","93.24","0.31601395829831946","956"
"20:42:7:272 (H:m:s:ms)","GENERIC","124.398","0.2743158434415825","739"
"20:42:9:113 (H:m:s:ms)","OPERA","93.391","0.2684061625857013","936"
"21:0:12:121 (H:m:s:ms)","GENERIC","124.36699999999999","0.30677342917035566","893"
"21:0:18:181 (H:m:s:ms)","GENERIC","124.22999999999999","0.3104261139964216","836"
"20:42:13:333 (H:m:s:ms)","GENERIC","124.461","0.2671368996113275","676"
"21:0:24:242 (H:m:s:ms)","GENERIC","93.208","0.31435776641499585","781"
"20:42:16:708 (H:m:s:ms)","OPERA","93.418","0.25776179501523405","300"
"21:0:30:303 (H:m:s:ms)","GENERIC","124.36","0.3138200314313208","715"
"20:20:0:0 (H:m:s:ms)","GENERIC","124.35","0.3167073099479134","1134"
"20:42:19:393 (H:m:s:ms)","GENERIC","124.53","0.2574154359178768","650"
"21:0:31:578 (H:m:s:ms)","AMBULANCE","93.35300000000001","0.31845424792594007","443"
"20:20:0:0 (H:m:s:ms)","GENERIC","93.324","0.31025278503756526","1152"
"20:42:24:303 (H:m:s:ms)","OPERA","93.2","0.25204736948719453","705"
"21:0:36:363 (H:m:s:ms)","GENERIC","124.30600000000001","0.3235568759035194","654"
"20:20:6:60 (H:m:s:ms)","GENERIC","93.229","0.31311179524026694","964"
"20:42:25:454 (H:m:s:ms)","GENERIC","124.282","0.24572635301599427","554"
"21:0:42:424 (H:m:s:ms)","GENERIC","124.30699999999999","0.3184300407625303","593"
"20:20:12:121 (H:m:s:ms)","GENERIC","124.203","0.3085076644233775","898"
"20:42:31:515 (H:m:s:ms)","GENERIC","124.487","0.2523374598203726","490"
"21:0:48:484 (H:m:s:ms)","GENERIC","124.293","0.3178071077378221","527"
"20:20:18:181 (H:m:s:ms)","GENERIC","124.286","0.3020058219936789","845"
"20:42:31:898 (H:m:s:ms)","OPERA","62.268","0.24264199584961116","114"
"21:0:54:545 (H:m:s:ms)","GENERIC","124.36099999999999","0.3137591423321822","470"
"20:20:24:242 (H:m:s:ms)","GENERIC","124.459","0.30224849231527307","774"
"20:42:37:575 (H:m:s:ms)","GENERIC","124.192","0.23867547949859733","434"
"21:1:0:606 (H:m:s:ms)","GENERIC","124.25399999999999","0.31329685087777764","412"
"20:20:30:303 (H:m:s:ms)","GENERIC","124.384","0.29638939864339514","713"
"20:42:39:493 (H:m:s:ms)","OPERA","62.119","0.22922136439773702","556"
"20:20:36:363 (H:m:s:ms)","GENERIC","124.196","0.3033749040593298","658"
"20:42:43:636 (H:m:s:ms)","GENERIC","124.549","0.22737340543324577","374"
"20:20:42:424 (H:m:s:ms)","GENERIC","124.213","0.303127849360175","597"
"20:20:48:484 (H:m:s:ms)","GENERIC","124.412","0.3071256144554806","538"
"21:1:3:157 (H:m:s:ms)","AMBULANCE","93.128","0.3125395635145092","859"
"21:1:6:666 (H:m:s:ms)","GENERIC","124.431","0.31182460241279536","348"
"20:42:47:88 (H:m:s:ms)","OPERA","93.249","0.2324526330208671","922"
"21:1:12:727 (H:m:s:ms)","GENERIC","124.21600000000001","0.30725870671741684","293"
"20:42:49:696 (H:m:s:ms)","GENERIC","124.385","0.23482343162021263","345"
"21:1:18:787 (H:m:s:ms)","GENERIC","124.53","0.2973166873341652","228"
"20:20:54:545 (H:m:s:ms)","GENERIC","124.39099999999999","0.30585820941218145","473"
"20:42:54:683 (H:m:s:ms)","OPERA","62.204","0.23908230943168324","323"
"21:1:24:848 (H:m:s:ms)","GENERIC","124.227","0.2991793431916893","171"
"20:21:0:606 (H:m:s:ms)","GENERIC","93.25200000000001","0.3066576861970589","415"
"20:42:55:757 (H:m:s:ms)","GENERIC","124.466","0.23764938692108867","246"
"21:1:30:909 (H:m:s:ms)","GENERIC","124.293","0.30246209246790995","1109"
"20:21:6:666 (H:m:s:ms)","GENERIC","124.322","0.3070662906436653","356"
"20:43:1:818 (H:m:s:ms)","GENERIC","124.316","0.230384376318142","191"
"21:1:34:736 (H:m:s:ms)","AMBULANCE","93.334","0.30230043149721614","281"
"20:21:12:727 (H:m:s:ms)","GENERIC","124.31200000000001","0.3096109824683403","293"
"20:43:2:278 (H:m:s:ms)","OPERA","93.305","0.230392743006048","729"
"21:1:36:969 (H:m:s:ms)","GENERIC","124.439","0.30191361109389514","1048"
"20:21:18:787 (H:m:s:ms)","GENERIC","124.32499999999999","0.3127111462713711","233"
"20:43:7:878 (H:m:s:ms)","GENERIC","93.28999999999999","0.22743686912633185","1124"
"21:1:43:30 (H:m:s:ms)","GENERIC","124.298","0.29245886419734707","984"
"20:21:24:848 (H:m:s:ms)","GENERIC","93.238","0.30671036630214915","168"
"20:43:9:873 (H:m:s:ms)","OPERA","93.282","0.2137689286501428","9166"
"21:1:49:90 (H:m:s:ms)","GENERIC","124.39","0.29534918264745713","966"
"20:21:30:909 (H:m:s:ms)","GENERIC","93.244","0.3042786001722502","1112"
"20:43:13:939 (H:m:s:ms)","GENERIC","124.483","0.2180569335603112","1062"
"20:21:36:969 (H:m:s:ms)","GENERIC","124.29400000000001","0.29984443131849914","1051"
"20:43:17:468 (H:m:s:ms)","OPERA","93.214","0.21708710232317568","13614"
"20:21:43:30 (H:m:s:ms)","GENERIC","124.202","0.2990737658427796","996"
"20:21:49:90 (H:m:s:ms)","GENERIC","124.30799999999999","0.3075948693204644","959"
"20:43:20:0 (H:m:s:ms)","GENERIC","124.375","0.2293530612220769","124566"
"20:43:25:63 (H:m:s:ms)","OPERA","93.303","0.21560936959306357","943"
"20:21:55:151 (H:m:s:ms)","GENERIC","124.303","0.30489096421782513","867"
"20:43:26:60 (H:m:s:ms)","GENERIC","124.499","0.21238564140753252","4979"
"20:22:1:212 (H:m:s:ms)","GENERIC","93.363","0.30157971450525006","815"
"20:43:32:121 (H:m:s:ms)","GENERIC","124.3","0.22969376817380238","144506"
"20:22:7:272 (H:m:s:ms)","GENERIC","124.338","0.3031816125151726","750"
"20:43:32:658 (H:m:s:ms)","OPERA","93.208","0.2178287012024199","10380"
"20:22:13:333 (H:m:s:ms)","GENERIC","124.264","0.3103802404661732","693"
"20:43:38:181 (H:m:s:ms)","GENERIC","124.294","0.2180755076197489","10860"
"20:22:19:393 (H:m:s:ms)","GENERIC","124.185","0.3133984369034975","665"
"20:43:40:253 (H:m:s:ms)","OPERA","93.424","0.21561060097286128","32871"
"20:22:25:454 (H:m:s:ms)","GENERIC","93.31","0.30325581012816827","563"
"20:43:44:242 (H:m:s:ms)","GENERIC","124.589","0.22852616320592928","169549"
"20:22:31:515 (H:m:s:ms)","GENERIC","124.463","0.3000589147666316","508"
"20:43:47:848 (H:m:s:ms)","OPERA","93.546","0.2166791791867282","519587"
"20:22:37:575 (H:m:s:ms)","GENERIC","124.189","0.3079756045321671","445"
"20:43:50:303 (H:m:s:ms)","GENERIC","124.44200000000001","0.2136486537382792","703"
"20:22:43:636 (H:m:s:ms)","GENERIC","124.392","0.3195080311405558","384"
"20:22:49:696 (H:m:s:ms)","GENERIC","93.299","0.3177932242640451","357"
"20:43:55:443 (H:m:s:ms)","OPERA","93.31700000000001","0.23565866738466096","659667"
"20:43:56:363 (H:m:s:ms)","GENERIC","124.457","0.22756978559184038","468827"
"20:22:55:757 (H:m:s:ms)","GENERIC","124.189","0.31431844718936724","260"
"20:44:2:424 (H:m:s:ms)","GENERIC","124.481","0.21876358776958202","575"
"20:23:1:818 (H:m:s:ms)","GENERIC","124.27","0.31059408499909036","205"
"20:44:3:37 (H:m:s:ms)","OPERA","93.479","0.21546732418457454","5962"
"20:23:7:878 (H:m:s:ms)","GENERIC","124.364","0.3014847315691233","1140"
"20:44:8:484 (H:m:s:ms)","GENERIC","124.31","0.22516647699452091","16598"
"20:23:13:939 (H:m:s:ms)","GENERIC","124.38900000000001","0.2992918101017435","1084"
"20:44:10:632 (H:m:s:ms)","OPERA","93.31","0.22538111928367777","26471"
"20:23:20:0 (H:m:s:ms)","GENERIC","124.261","0.3037983509701915","1057"
"20:44:14:545 (H:m:s:ms)","GENERIC","93.359","0.2263741569937259","236589"
"20:23:26:60 (H:m:s:ms)","GENERIC","124.43","0.30086191426208253","954"
"20:44:18:227 (H:m:s:ms)","OPERA","62.262","0.21639863280565827","24915"
"20:23:32:121 (H:m:s:ms)","GENERIC","124.255","0.3003057782527809","892"
"20:44:20:606 (H:m:s:ms)","GENERIC","124.283","0.21631778621131673","399"
"20:23:38:181 (H:m:s:ms)","GENERIC","124.56","0.29044388811122884","840"
"20:44:25:822 (H:m:s:ms)","OPERA","93.453","0.21542905357208483","453310"
"20:23:44:242 (H:m:s:ms)","GENERIC","124.41","0.29133376910971115","778"
"20:23:50:303 (H:m:s:ms)","GENERIC","124.457","0.29823291436461524","722"
"20:44:26:666 (H:m:s:ms)","GENERIC","124.231","0.2280379081343119","10387"
"20:44:32:727 (H:m:s:ms)","GENERIC","124.318","0.22597623557360336","29414"
"20:23:56:363 (H:m:s:ms)","GENERIC","124.17099999999999","0.30370587177538244","661"
"20:44:33:417 (H:m:s:ms)","OPERA","62.28","0.2300951854065952","592"
"20:24:2:424 (H:m:s:ms)","GENERIC","124.31899999999999","0.3027640178814225","591"
"20:44:38:787 (H:m:s:ms)","GENERIC","124.19800000000001","0.22736165454805388","4253"
"20:24:8:484 (H:m:s:ms)","GENERIC","93.166","0.3004587133858908","532"
"20:44:41:12 (H:m:s:ms)","OPERA","93.143","0.22794250020728654","9029"
"20:24:14:545 (H:m:s:ms)","GENERIC","124.375","0.3031708105352176","471"
"20:44:44:848 (H:m:s:ms)","GENERIC","124.286","0.2179362365265411","17232"
"20:24:20:606 (H:m:s:ms)","GENERIC","124.27799999999999","0.30574438837267076","416"
"20:44:48:607 (H:m:s:ms)","OPERA","93.352","0.2206262669760142","1429"
"20:24:26:666 (H:m:s:ms)","GENERIC","124.331","0.3096157068033868","352"
"20:44:50:909 (H:m:s:ms)","GENERIC","124.17599999999999","0.22762314865706818","23186"
"20:24:32:727 (H:m:s:ms)","GENERIC","124.257","0.3047427290629105","294"
"20:44:56:202 (H:m:s:ms)","OPERA","62.313","0.231378486092682","35981"
"20:24:38:787 (H:m:s:ms)","GENERIC","124.305","0.3060946976102765","231"
"20:44:56:969 (H:m:s:ms)","GENERIC","124.412","0.21756354983517207","11077"
"20:24:44:848 (H:m:s:ms)","GENERIC","93.346","0.31010100198508206","168"
"20:24:50:909 (H:m:s:ms)","GENERIC","124.214","0.307397079880499","1115"
"20:45:3:30 (H:m:s:ms)","GENERIC","124.20400000000001","0.2256051008305938","5975"
"20:45:3:797 (H:m:s:ms)","OPERA","93.11","0.22964039220607108","13256"
"20:24:56:969 (H:m:s:ms)","GENERIC","124.35","0.3044159799905855","1052"
"20:45:9:90 (H:m:s:ms)","GENERIC","124.273","0.22683917920346572","951"
"20:25:3:30 (H:m:s:ms)","GENERIC","93.398","0.3097351733378358","985"
"20:45:11:392 (H:m:s:ms)","OPERA","93.375","0.23027433821975501","26701"
"20:25:9:90 (H:m:s:ms)","GENERIC","124.34","0.31159901449135324","970"
"20:45:15:151 (H:m:s:ms)","GENERIC","93.309","0.23070828298224724","31983"
"20:25:15:151 (H:m:s:ms)","GENERIC","124.219","0.31108922254504434","867"
"20:45:18:987 (H:m:s:ms)","OPERA","62.255","0.22964522665741055","43242"
"20:25:21:212 (H:m:s:ms)","GENERIC","124.375","0.3120263159492414","802"
"20:45:21:212 (H:m:s:ms)","GENERIC","124.387","0.22958555737808625","1787"
"20:25:27:272 (H:m:s:ms)","GENERIC","124.168","0.31224106848970967","743"
"20:45:26:582 (H:m:s:ms)","OPERA","93.49","0.22335942454741056","429467"
"20:25:33:333 (H:m:s:ms)","GENERIC","124.476","0.31239720635928264","685"
"20:45:27:272 (H:m:s:ms)","GENERIC","93.314","0.22944956406506134","733"
"20:25:39:393 (H:m:s:ms)","GENERIC","93.368","0.3126741825270361","663"
"20:45:33:333 (H:m:s:ms)","GENERIC","124.47800000000001","0.23044650421282772","10709"
"20:25:45:454 (H:m:s:ms)","GENERIC","124.39500000000001","0.30989974259945074","563"
"20:25:51:515 (H:m:s:ms)","GENERIC","124.413","0.30928936873473367","502"
"20:25:57:575 (H:m:s:ms)","GENERIC","124.4","0.3121682928027609","437"
"20:26:3:636 (H:m:s:ms)","GENERIC","124.249","0.31250902718054446","378"
"20:26:9:696 (H:m:s:ms)","GENERIC","124.42699999999999","0.3139309633992215","355"
"20:26:15:757 (H:m:s:ms)","GENERIC","124.666","0.31356430811495584","263"
"20:26:21:818 (H:m:s:ms)","GENERIC","124.378","0.3061977018836563","195"
"20:26:27:878 (H:m:s:ms)","GENERIC","124.404","0.3088002121941996","1135"
"20:26:33:939 (H:m:s:ms)","GENERIC","124.387","0.310764973762603","1080"
"20:26:40:0 (H:m:s:ms)","GENERIC","93.173","0.30750201263779625","1054"
"20:26:46:60 (H:m:s:ms)","GENERIC","124.378","0.3097700644369282","955"
"20:26:52:121 (H:m:s:ms)","GENERIC","124.469","0.30351347038076626","894"
"20:26:58:181 (H:m:s:ms)","GENERIC","124.356","0.3097804797440175","839"
"20:27:4:242 (H:m:s:ms)","GENERIC","124.524","0.311142177527007","775"
"20:27:10:303 (H:m:s:ms)","GENERIC","124.15299999999999","0.31416171690786066","716"
"20:27:16:363 (H:m:s:ms)","GENERIC","124.186","0.30300554662786805","650"
"20:27:22:424 (H:m:s:ms)","GENERIC","124.322","0.30337778277200855","595"
"20:27:28:484 (H:m:s:ms)","GENERIC","124.456","0.3068030511552054","536"
"20:27:34:545 (H:m:s:ms)","GENERIC","124.369","0.30100831410295076","473"
"20:27:40:606 (H:m:s:ms)","GENERIC","124.285","0.3055214507066391","409"
"20:27:46:666 (H:m:s:ms)","GENERIC","124.233","0.3045623980571203","359"
"20:27:52:727 (H:m:s:ms)","GENERIC","93.39","0.3068925385586481","293"
"20:27:58:787 (H:m:s:ms)","GENERIC","124.19200000000001","0.3077232925148298","228"
"20:28:4:848 (H:m:s:ms)","GENERIC","124.39699999999999","0.2990455522335389","164"
"20:28:10:909 (H:m:s:ms)","GENERIC","124.233","0.30684624520819453","1110"
"20:28:16:969 (H:m:s:ms)","GENERIC","93.39699999999999","0.2935039480280901","1047"
"20:28:23:30 (H:m:s:ms)","GENERIC","124.41","0.29328980116383574","985"
"20:28:29:90 (H:m:s:ms)","GENERIC","93.313","0.289700286891754","957"
"20:28:35:151 (H:m:s:ms)","GENERIC","124.494","0.28880126208624285","865"
"20:28:41:212 (H:m:s:ms)","GENERIC","124.27600000000001","0.2933499113510412","809"
"20:28:47:272 (H:m:s:ms)","GENERIC","124.287","0.29670209367834083","741"
"20:28:53:333 (H:m:s:ms)","GENERIC","124.24600000000001","0.29403099859822857","688"
"20:28:59:393 (H:m:s:ms)","GENERIC","124.131","0.29516615248096995","666"
"20:29:5:454 (H:m:s:ms)","GENERIC","124.363","0.2939810155107158","561"
"20:29:11:515 (H:m:s:ms)","GENERIC","124.25399999999999","0.29600871760148095","497"
"20:29:17:575 (H:m:s:ms)","GENERIC","93.28","0.29529324241111793","448"
"20:29:23:636 (H:m:s:ms)","GENERIC","124.583","0.28978604384347884","376"
"20:29:29:696 (H:m:s:ms)","GENERIC","124.517","0.28421957754488403","353"
"20:29:35:757 (H:m:s:ms)","GENERIC","93.19","0.2882794361449645","267"
"20:29:41:818 (H:m:s:ms)","GENERIC","124.269","0.2808645595438475","203"
"20:29:47:878 (H:m:s:ms)","GENERIC","93.21","0.27761194766009384","1145"
"20:29:53:939 (H:m:s:ms)","GENERIC","124.16300000000001","0.283751334420687","1085"
"22:7:22:105 (H:m:s:ms)","AMBULANCE","124.30699999999999","0.13856207232518233","927"
"22:4:44:210 (H:m:s:ms)","AMBULANCE","124.215","0.18859475148664487","821"
"22:2:37:894 (H:m:s:ms)","AMBULANCE","124.327","0.16087929202219545","1138"
"21:20:7:594 (H:m:s:ms)","OPERA","124.27600000000001","0.31223795628395445","420"
"21:20:12:121 (H:m:s:ms)","GENERIC","124.531","0.3104949543783302","896"
"21:20:15:189 (H:m:s:ms)","OPERA","93.281","0.30820206101567366","834"
"21:20:18:181 (H:m:s:ms)","GENERIC","124.314","0.30635614365675906","833"
"21:20:22:784 (H:m:s:ms)","OPERA","93.148","0.3083332317965245","231"
"21:20:24:242 (H:m:s:ms)","GENERIC","124.32300000000001","0.307806218126851","774"
"21:20:30:303 (H:m:s:ms)","GENERIC","124.404","0.3060673545956647","706"
"21:20:30:379 (H:m:s:ms)","OPERA","124.34800000000001","0.3091750663352723","647"
"21:20:36:363 (H:m:s:ms)","GENERIC","124.282","0.30886694151228855","651"
"21:20:37:974 (H:m:s:ms)","OPERA","93.238","0.30397183203873995","1038"
"21:20:42:424 (H:m:s:ms)","GENERIC","124.613","0.3033070424453943","589"
"21:20:45:569 (H:m:s:ms)","OPERA","93.294","0.2997390538407587","444"
"21:20:48:484 (H:m:s:ms)","GENERIC","124.405","0.287419150346926","532"
"21:20:53:164 (H:m:s:ms)","OPERA","124.384","0.29042038792956615","844"
"21:20:54:545 (H:m:s:ms)","GENERIC","124.252","0.29416306293773126","470"
"21:21:0:606 (H:m:s:ms)","GENERIC","124.295","0.30805799168335024","414"
"21:21:0:759 (H:m:s:ms)","OPERA","93.413","0.30186384401329935","269"
"21:21:6:666 (H:m:s:ms)","GENERIC","124.34200000000001","0.29221501952670925","342"
"21:21:8:354 (H:m:s:ms)","OPERA","93.275","0.2855222192008758","655"
"21:21:12:727 (H:m:s:ms)","GENERIC","124.27199999999999","0.29903493904281087","287"
"21:32:49:696 (H:m:s:ms)","GENERIC","124.178","0.22473240424639393","48494"
"21:32:37:575 (H:m:s:ms)","GENERIC","124.297","0.19703911835075416","5466"
"21:32:31:515 (H:m:s:ms)","GENERIC","124.424","0.20025103726493332","490"
"21:32:25:454 (H:m:s:ms)","GENERIC","124.26599999999999","0.22050234434399538","555"
"21:32:19:393 (H:m:s:ms)","GENERIC","124.515","0.19910504688971797","20738"
"21:32:13:333 (H:m:s:ms)","GENERIC","124.31700000000001","0.21861821911834436","13714"
"21:32:7:272 (H:m:s:ms)","GENERIC","124.15799999999999","0.21960792297930207","19804"
"21:32:6:315 (H:m:s:ms)","AMBULANCE","124.40899999999999","0.2071512510119256","4717"
"21:21:15:949 (H:m:s:ms)","OPERA","124.09200000000001","0.3040938329588854","1066"
"21:32:1:212 (H:m:s:ms)","GENERIC","124.31299999999999","0.20550158487480252","793"
"21:21:18:787 (H:m:s:ms)","GENERIC","93.368","0.29775991994800005","217"
"21:21:23:544 (H:m:s:ms)","OPERA","124.19200000000001","0.2947091824477822","471"
"21:21:24:848 (H:m:s:ms)","GENERIC","124.384","0.28544397682976574","158"
"21:21:30:909 (H:m:s:ms)","GENERIC","124.464","0.28019060376683974","1104"
"21:21:31:139 (H:m:s:ms)","OPERA","93.298","0.2748887404418986","887"
"21:21:36:969 (H:m:s:ms)","GENERIC","124.44","0.2727157464555837","1042"
"21:21:38:734 (H:m:s:ms)","OPERA","124.518","0.26715176008109137","274"
"21:32:43:636 (H:m:s:ms)","GENERIC","124.406","0.1938674170646468","6402"
"21:21:43:30 (H:m:s:ms)","GENERIC","124.37100000000001","0.25654908409616595","975"
"21:32:37:894 (H:m:s:ms)","AMBULANCE","124.21600000000001","0.2022666245784714","1111"
"21:21:46:329 (H:m:s:ms)","OPERA","124.42699999999999","0.24290958155351144","680"
"21:33:44:242 (H:m:s:ms)","GENERIC","124.352","0.20902641096349336","763"
"21:33:41:52 (H:m:s:ms)","AMBULANCE","124.426","0.2093871361972015","950"
"21:33:32:121 (H:m:s:ms)","GENERIC","93.206","0.2217365667702587","878"
"21:33:26:60 (H:m:s:ms)","GENERIC","124.187","0.21979264380387084","105401"
"21:33:20:0 (H:m:s:ms)","GENERIC","124.337","0.21417972184876688","202873"
"21:33:13:939 (H:m:s:ms)","GENERIC","124.417","0.22103060974980043","194857"
"21:33:9:473 (H:m:s:ms)","AMBULANCE","124.231","0.22301168317833364","21630"
"21:33:7:878 (H:m:s:ms)","GENERIC","93.303","0.2154821525937306","122649"
"21:21:49:90 (H:m:s:ms)","GENERIC","124.30000000000001","0.24069334843267826","950"
"21:33:1:818 (H:m:s:ms)","GENERIC","124.278","0.19592375583734545","186"
"21:21:53:924 (H:m:s:ms)","OPERA","124.218","0.2393779084146019","1081"
"21:32:55:757 (H:m:s:ms)","GENERIC","124.188","0.1963256602707546","246"
"21:21:55:151 (H:m:s:ms)","GENERIC","124.47800000000001","0.23706905388333577","858"
"21:22:1:212 (H:m:s:ms)","GENERIC","124.344","0.2408005992535341","799"
"21:22:1:518 (H:m:s:ms)","OPERA","124.37100000000001","0.23256363466158428","502"
"21:22:7:272 (H:m:s:ms)","GENERIC","124.363","0.23394936047051823","739"
"21:22:9:113 (H:m:s:ms)","OPERA","124.156","0.23385710439483354","931"
"21:22:13:333 (H:m:s:ms)","GENERIC","124.437","0.22630863891589426","678"
"21:22:16:708 (H:m:s:ms)","OPERA","124.2","0.22594761927707321","299"
"21:22:19:393 (H:m:s:ms)","GENERIC","124.386","0.2238728843906443","650"
"21:33:38:181 (H:m:s:ms)","GENERIC","124.336","0.23088832916882607","822"
"21:34:44:210 (H:m:s:ms)","AMBULANCE","124.17","0.21044591803879217","796"
"21:34:38:787 (H:m:s:ms)","GENERIC","124.321","0.21406180736284025","221"
"21:34:32:727 (H:m:s:ms)","GENERIC","93.09","0.21949509198815614","19367"
"21:34:26:666 (H:m:s:ms)","GENERIC","124.201","0.2336142550412232","12380"
"21:34:20:606 (H:m:s:ms)","GENERIC","124.344","0.23087554611490999","397"
"21:34:14:545 (H:m:s:ms)","GENERIC","93.361","0.2324592494673566","18538"
"21:34:12:631 (H:m:s:ms)","AMBULANCE","93.135","0.2333366949144971","2374"
"21:34:8:484 (H:m:s:ms)","GENERIC","124.37","0.2325135055321138","2552"
"21:22:24:303 (H:m:s:ms)","OPERA","124.215","0.23434088322319235","700"
"21:34:2:424 (H:m:s:ms)","GENERIC","124.223","0.23463051546214928","6580"
"21:22:25:454 (H:m:s:ms)","GENERIC","124.479","0.23382158064537167","553"
"21:33:56:363 (H:m:s:ms)","GENERIC","124.241","0.24370075608846434","36789"
"21:1:55:151 (H:m:s:ms)","GENERIC","124.114","0.3015955702700082","865"
"21:22:31:515 (H:m:s:ms)","GENERIC","124.286","0.23875117263557055","493"
"21:33:50:303 (H:m:s:ms)","GENERIC","93.279","0.22153302852011048","1700"
"21:2:1:212 (H:m:s:ms)","GENERIC","124.389","0.30699420329765287","805"
"21:22:31:898 (H:m:s:ms)","OPERA","31.01","0.22984173320545534","114"
"21:2:6:315 (H:m:s:ms)","AMBULANCE","62.217","0.30273661070150476","700"
"21:22:37:575 (H:m:s:ms)","GENERIC","124.491","0.2233481903119269","430"
"21:2:7:272 (H:m:s:ms)","GENERIC","124.315","0.30255245784085144","743"
"21:22:39:493 (H:m:s:ms)","OPERA","93.41","0.22423877174019485","547"
"21:2:13:333 (H:m:s:ms)","GENERIC","124.277","0.3112787272622748","678"
"21:22:43:636 (H:m:s:ms)","GENERIC","124.298","0.23157723502162322","4369"
"21:2:19:393 (H:m:s:ms)","GENERIC","124.16499999999999","0.30598330854361866","658"
"21:22:47:88 (H:m:s:ms)","OPERA","124.404","0.21978005211256477","920"
"21:2:25:454 (H:m:s:ms)","GENERIC","93.212","0.3027377789870801","560"
"21:22:49:696 (H:m:s:ms)","GENERIC","124.229","0.2168512706285135","339"
"21:2:31:515 (H:m:s:ms)","GENERIC","124.416","0.2988575323471624","498"
"21:22:54:683 (H:m:s:ms)","OPERA","93.101","0.22801226828769158","5353"
"21:2:37:575 (H:m:s:ms)","GENERIC","124.331","0.30767044487318373","437"
"21:2:37:894 (H:m:s:ms)","AMBULANCE","93.505","0.31477070358047865","135"
"21:35:39:393 (H:m:s:ms)","GENERIC","124.26599999999999","0.22320726591436116","649"
"21:35:33:333 (H:m:s:ms)","GENERIC","124.269","0.2207757242986918","674"
"21:35:27:272 (H:m:s:ms)","GENERIC","124.479","0.2212370225418941","6765"
"21:35:21:212 (H:m:s:ms)","GENERIC","124.239","0.2168821949922115","4792"
"21:35:15:789 (H:m:s:ms)","AMBULANCE","124.515","0.21334799067944343","214"
"21:35:15:151 (H:m:s:ms)","GENERIC","124.356","0.21662442168689394","850"
"21:35:9:90 (H:m:s:ms)","GENERIC","124.363","0.22066532516378476","949"
"21:22:55:757 (H:m:s:ms)","GENERIC","124.373","0.21135485829066822","620705"
"21:35:3:30 (H:m:s:ms)","GENERIC","124.402","0.21393015149736713","971"
"21:23:1:818 (H:m:s:ms)","GENERIC","124.332","0.22537976860061334","29308"
"21:34:56:969 (H:m:s:ms)","GENERIC","124.35","0.21076967266931396","1039"
"21:2:43:636 (H:m:s:ms)","GENERIC","124.417","0.3160070951071267","373"
"21:23:2:278 (H:m:s:ms)","OPERA","93.265","0.21847032631742566","728"
"21:34:50:909 (H:m:s:ms)","GENERIC","124.39500000000001","0.2133287523688728","7098"
"21:2:49:696 (H:m:s:ms)","GENERIC","124.589","0.3063373372518505","352"
"21:23:7:878 (H:m:s:ms)","GENERIC","124.314","0.22330266053974265","1126"
"21:34:44:848 (H:m:s:ms)","GENERIC","124.292","0.21243135019957096","11196"
"21:2:55:757 (H:m:s:ms)","GENERIC","124.348","0.3019460853095675","255"
"21:23:9:873 (H:m:s:ms)","OPERA","124.168","0.21355168232402497","9166"
"21:3:1:818 (H:m:s:ms)","GENERIC","93.202","0.30933687602362386","192"
"21:23:13:939 (H:m:s:ms)","GENERIC","124.332","0.23437283363662975","23148"
"21:3:7:878 (H:m:s:ms)","GENERIC","93.207","0.31120974419173303","1133"
"21:23:17:468 (H:m:s:ms)","OPERA","124.327","0.21922703792811482","793707"
"21:3:9:473 (H:m:s:ms)","AMBULANCE","62.285","0.3089663253278249","581"
"21:23:20:0 (H:m:s:ms)","GENERIC","124.46000000000001","0.21213746516267512","35152"
"21:3:13:939 (H:m:s:ms)","GENERIC","124.223","0.31384017469398345","1073"
"21:23:25:63 (H:m:s:ms)","OPERA","124.355","0.2068226215911424","522993"
"21:3:20:0 (H:m:s:ms)","GENERIC","93.267","0.31503829519826543","1052"
"21:23:26:60 (H:m:s:ms)","GENERIC","124.27199999999999","0.2254293180274602","944"
"21:3:26:60 (H:m:s:ms)","GENERIC","124.283","0.3155115364121721","953"
"21:3:32:121 (H:m:s:ms)","GENERIC","124.321","0.32187123410536395","891"
"21:36:33:939 (H:m:s:ms)","GENERIC","124.42","0.2209355147479254","1062"
"21:36:27:878 (H:m:s:ms)","GENERIC","124.37899999999999","0.2128758857644511","1127"
"21:36:21:818 (H:m:s:ms)","GENERIC","93.348","0.21735740267313503","183"
"21:36:18:947 (H:m:s:ms)","AMBULANCE","124.374","0.21100576089171627","1089"
"21:36:15:757 (H:m:s:ms)","GENERIC","124.305","0.22073575873957507","48441"
"21:36:9:696 (H:m:s:ms)","GENERIC","124.416","0.20793178280722913","341"
"21:23:32:121 (H:m:s:ms)","GENERIC","124.261","0.22470846250454532","885"
"21:36:3:636 (H:m:s:ms)","GENERIC","124.179","0.20467087215647894","370"
"21:23:32:658 (H:m:s:ms)","OPERA","124.144","0.21248371928877","34454"
"21:35:57:575 (H:m:s:ms)","GENERIC","124.467","0.2150587387860359","14504"
"21:3:38:181 (H:m:s:ms)","GENERIC","93.236","0.31570840784502435","831"
"21:23:38:181 (H:m:s:ms)","GENERIC","124.41900000000001","0.2246879206496133","4853"
"21:35:51:515 (H:m:s:ms)","GENERIC","124.32300000000001","0.2091928251265258","5488"
"21:3:41:52 (H:m:s:ms)","AMBULANCE","93.221","0.31473760178395793","965"
"21:23:40:253 (H:m:s:ms)","OPERA","62.089","0.2171031398238024","32861"
"21:35:47:368 (H:m:s:ms)","AMBULANCE","124.344","0.21272187497824782","2670"
"21:3:44:242 (H:m:s:ms)","GENERIC","124.33500000000001","0.3138611729628091","770"
"21:23:44:242 (H:m:s:ms)","GENERIC","124.358","0.22463803720114717","5791"
"21:35:45:454 (H:m:s:ms)","GENERIC","124.362","0.2155134601075338","4584"
"21:3:50:303 (H:m:s:ms)","GENERIC","124.35900000000001","0.3053269755178906","712"
"21:23:47:848 (H:m:s:ms)","OPERA","93.283","0.2208237881411464","31269"
"21:3:56:363 (H:m:s:ms)","GENERIC","124.158","0.315314523163122","648"
"21:23:50:303 (H:m:s:ms)","GENERIC","124.52","0.2300622618024729","40852"
"21:4:2:424 (H:m:s:ms)","GENERIC","124.424","0.31028699729190307","588"
"21:23:55:443 (H:m:s:ms)","OPERA","93.249","0.21804406286719022","35713"
"21:4:8:484 (H:m:s:ms)","GENERIC","124.406","0.31195495368762427","526"
"21:23:56:363 (H:m:s:ms)","GENERIC","124.35300000000001","0.2206375386938505","65928"
"21:4:12:631 (H:m:s:ms)","AMBULANCE","93.422","0.31655265839269164","385"
"21:24:2:424 (H:m:s:ms)","GENERIC","124.452","0.21913837839354447","34704"
"21:4:14:545 (H:m:s:ms)","GENERIC","124.392","0.31332254799068804","467"
"21:4:20:606 (H:m:s:ms)","GENERIC","93.302","0.30993823473688004","403"
"21:37:28:484 (H:m:s:ms)","GENERIC","124.179","0.23756447093845942","4553"
"21:37:22:424 (H:m:s:ms)","GENERIC","124.287","0.21789153245333046","5585"
"21:37:22:105 (H:m:s:ms)","AMBULANCE","124.577","0.21714505599146666","895"
"21:37:16:363 (H:m:s:ms)","GENERIC","93.359","0.23104451856629218","12682"
"21:37:10:303 (H:m:s:ms)","GENERIC","124.455","0.2185593971141478","699"
"21:37:4:242 (H:m:s:ms)","GENERIC","124.33","0.22374929905313382","764"
"21:24:3:37 (H:m:s:ms)","OPERA","62.27","0.21881135284440198","65229"
"21:24:8:484 (H:m:s:ms)","GENERIC","124.431","0.21661046722667107","47733"
"21:36:58:181 (H:m:s:ms)","GENERIC","124.162","0.22740526640601644","821"
"21:4:26:666 (H:m:s:ms)","GENERIC","93.291","0.30442198656381103","350"
"21:24:10:632 (H:m:s:ms)","OPERA","124.283","0.21482744400865894","372"
"21:36:52:121 (H:m:s:ms)","GENERIC","124.38499999999999","0.21583507173799318","883"
"21:4:32:727 (H:m:s:ms)","GENERIC","124.49000000000001","0.30398319402730467","284"
"21:24:14:545 (H:m:s:ms)","GENERIC","124.36","0.2172372945903913","35625"
"21:36:50:526 (H:m:s:ms)","AMBULANCE","124.62","0.21250358505371889","473"
"21:4:38:787 (H:m:s:ms)","GENERIC","124.36699999999999","0.3051464638091495","227"
"21:24:18:227 (H:m:s:ms)","OPERA","93.449","0.22282365184914132","112268"
"21:36:46:60 (H:m:s:ms)","GENERIC","124.497","0.2267056608203967","942"
"21:4:44:210 (H:m:s:ms)","AMBULANCE","93.233","0.30900093169766024","807"
"21:24:20:606 (H:m:s:ms)","GENERIC","124.30199999999999","0.22117757755367673","48578"
"21:36:40:0 (H:m:s:ms)","GENERIC","124.506","0.21533735967424192","1038"
"21:4:44:848 (H:m:s:ms)","GENERIC","62.047","0.3048653265141983","181"
"21:24:25:822 (H:m:s:ms)","OPERA","124.33000000000001","0.2366960518082987","127713"
"21:4:50:909 (H:m:s:ms)","GENERIC","93.323","0.3093711565138312","1102"
"21:24:26:666 (H:m:s:ms)","GENERIC","124.30199999999999","0.23074123431621427","119833"
"21:4:56:969 (H:m:s:ms)","GENERIC","124.38499999999999","0.3072851176949129","1043"
"21:24:32:727 (H:m:s:ms)","GENERIC","124.42099999999999","0.2181904920968326","274"
"21:5:3:30 (H:m:s:ms)","GENERIC","124.662","0.309055472941726","987"
"21:24:33:417 (H:m:s:ms)","OPERA","93.56700000000001","0.21435710561711396","34725"
"21:5:9:90 (H:m:s:ms)","GENERIC","124.229","0.31147829887485157","962"
"21:5:15:151 (H:m:s:ms)","GENERIC","93.263","0.30474383624831547","859"
"21:38:25:263 (H:m:s:ms)","AMBULANCE","124.35499999999999","0.2478150394195434","94139"
"21:38:23:30 (H:m:s:ms)","GENERIC","124.24000000000001","0.22925755539958875","9011"
"21:38:16:969 (H:m:s:ms)","GENERIC","124.306","0.23642584015730098","29148"
"21:38:10:909 (H:m:s:ms)","GENERIC","124.34299999999999","0.228468089498416","4097"
"21:38:4:848 (H:m:s:ms)","GENERIC","124.568","0.2314907371106692","153"
"21:37:58:787 (H:m:s:ms)","GENERIC","124.30699999999999","0.24890770066795612","218"
"21:37:53:684 (H:m:s:ms)","AMBULANCE","124.432","0.2512751021075617","321"
"21:24:38:787 (H:m:s:ms)","GENERIC","124.21799999999999","0.21449508469430384","30354"
"21:24:41:12 (H:m:s:ms)","OPERA","93.243","0.21594507341879485","993"
"21:5:15:789 (H:m:s:ms)","AMBULANCE","93.306","0.30570821884204","232"
"21:24:44:848 (H:m:s:ms)","GENERIC","124.31299999999999","0.22009419290490925","155"
"21:5:21:212 (H:m:s:ms)","GENERIC","124.227","0.3038883731182091","801"
"21:24:48:607 (H:m:s:ms)","OPERA","124.34800000000001","0.22242762479358102","399"
"21:37:52:727 (H:m:s:ms)","GENERIC","124.28999999999999","0.25901858271799894","277"
"20:45:34:177 (H:m:s:ms)","OPERA","93.33200000000001","0.23052283395511566","15917"
"21:5:27:272 (H:m:s:ms)","GENERIC","124.41","0.3037606703715529","743"
"21:24:50:909 (H:m:s:ms)","GENERIC","124.262","0.23900687616655641","125582"
"21:37:46:666 (H:m:s:ms)","GENERIC","124.27799999999999","0.24741053207763264","344"
"20:45:39:393 (H:m:s:ms)","GENERIC","124.32400000000001","0.23156512716909275","15703"
"21:5:33:333 (H:m:s:ms)","GENERIC","124.148","0.3117558050835232","684"
"21:24:56:202 (H:m:s:ms)","OPERA","124.447","0.2129418092997276","17884"
"21:37:40:606 (H:m:s:ms)","GENERIC","93.28800000000001","0.24577635429110573","400"
"20:45:41:772 (H:m:s:ms)","OPERA","93.263","0.2294223241987051","26342"
"21:5:39:393 (H:m:s:ms)","GENERIC","124.285","0.3098931501414921","658"
"21:24:56:969 (H:m:s:ms)","GENERIC","124.551","0.208298143299437","669707"
"21:37:34:545 (H:m:s:ms)","GENERIC","93.338","0.23925106582051","456"
"20:45:45:454 (H:m:s:ms)","GENERIC","124.457","0.23051274204787267","545"
"21:5:45:454 (H:m:s:ms)","GENERIC","93.176","0.3110033179826784","564"
"21:25:3:30 (H:m:s:ms)","GENERIC","124.399","0.21722322115541953","974"
"20:45:49:367 (H:m:s:ms)","OPERA","93.208","0.22979151305183518","20783"
"21:5:47:368 (H:m:s:ms)","AMBULANCE","93.219","0.31174344699658413","651"
"21:25:3:797 (H:m:s:ms)","OPERA","93.324","0.2184905819594156","44372"
"20:45:51:515 (H:m:s:ms)","GENERIC","124.211","0.22203875070793033","10540"
"21:5:51:515 (H:m:s:ms)","GENERIC","124.38499999999999","0.30853895144829574","496"
"21:25:9:90 (H:m:s:ms)","GENERIC","124.492","0.2304358811736869","138462"
"20:45:56:962 (H:m:s:ms)","OPERA","93.273","0.22967183380156753","17136"
"21:5:57:575 (H:m:s:ms)","GENERIC","93.349","0.3053081207525927","439"
"20:45:57:575 (H:m:s:ms)","GENERIC","124.469","0.2229826186195216","329981"
"21:6:3:636 (H:m:s:ms)","GENERIC","124.454","0.3037847012053863","375"
"20:46:3:636 (H:m:s:ms)","GENERIC","124.16","0.2414095036130862","22468"
"20:46:4:556 (H:m:s:ms)","OPERA","93.491","0.2327217079032915","77826"
"21:39:23:636 (H:m:s:ms)","GENERIC","124.418","0.25445832497172866","371"
"21:39:17:575 (H:m:s:ms)","GENERIC","124.287","0.24758710089037225","432"
"21:39:11:515 (H:m:s:ms)","GENERIC","93.298","0.24359321449036844","4491"
"21:39:5:454 (H:m:s:ms)","GENERIC","124.202","0.2389019357160568","4585"
"21:38:59:393 (H:m:s:ms)","GENERIC","93.18","0.25226141288511034","22737"
"21:38:56:842 (H:m:s:ms)","AMBULANCE","124.257","0.23480511785554994","170"
"21:38:53:333 (H:m:s:ms)","GENERIC","124.197","0.24234021356274052","18767"
"21:38:47:272 (H:m:s:ms)","GENERIC","93.184","0.2384658040429","10782"
"21:25:11:392 (H:m:s:ms)","OPERA","124.213","0.2250101169026839","225477"
"21:25:15:151 (H:m:s:ms)","GENERIC","124.48","0.21599575160102474","16924"
"21:6:9:696 (H:m:s:ms)","GENERIC","124.15","0.3038891748527508","357"
"21:25:18:987 (H:m:s:ms)","OPERA","93.287","0.21549852399136007","1047"
"21:6:15:757 (H:m:s:ms)","GENERIC","124.231","0.30542796344526885","252"
"21:25:21:212 (H:m:s:ms)","GENERIC","93.11","0.21586586987087808","2789"
"20:46:9:696 (H:m:s:ms)","GENERIC","124.271","0.2333761115309971","53588"
"21:6:18:947 (H:m:s:ms)","AMBULANCE","62.337","0.3031730295894015","1109"
"21:25:26:582 (H:m:s:ms)","OPERA","124.245","0.21495309617524747","419"
"20:46:12:151 (H:m:s:ms)","OPERA","93.081","0.22464736119278556","555479"
"21:6:21:818 (H:m:s:ms)","GENERIC","124.494","0.2945717417386017","192"
"21:25:27:272 (H:m:s:ms)","GENERIC","124.305","0.2175193727233182","4762"
"21:38:41:212 (H:m:s:ms)","GENERIC","124.32900000000001","0.23697711381429254","11824"
"20:46:15:757 (H:m:s:ms)","GENERIC","124.301","0.2270213682398914","2243"
"21:6:27:878 (H:m:s:ms)","GENERIC","124.402","0.2928403879570097","1134"
"21:25:33:333 (H:m:s:ms)","GENERIC","124.333","0.21804997148740754","6704"
"21:38:35:151 (H:m:s:ms)","GENERIC","124.368","0.22705953960294312","3853"
"20:46:19:746 (H:m:s:ms)","OPERA","93.276","0.22708257915851454","300"
"21:6:33:939 (H:m:s:ms)","GENERIC","124.476","0.2909912160715807","1074"
"21:25:34:177 (H:m:s:ms)","OPERA","93.382","0.21907716295492966","3823"
"21:38:29:90 (H:m:s:ms)","GENERIC","124.30199999999999","0.22661179100164294","6951"
"20:46:21:818 (H:m:s:ms)","GENERIC","124.405","0.24146326879589075","3185"
"21:6:40:0 (H:m:s:ms)","GENERIC","124.534","0.2935068934880946","1051"
"21:25:39:393 (H:m:s:ms)","GENERIC","124.348","0.2247377709066943","4646"
"20:46:27:341 (H:m:s:ms)","OPERA","93.205","0.22686587798052604","663"
"21:6:46:60 (H:m:s:ms)","GENERIC","124.35900000000001","0.3004247974340386","953"
"21:25:41:772 (H:m:s:ms)","OPERA","93.318","0.2173823496302641","2232"
"20:46:27:878 (H:m:s:ms)","GENERIC","124.242","0.23367935510372587","5169"
"21:6:50:526 (H:m:s:ms)","AMBULANCE","93.265","0.3004758555739064","489"
"20:46:33:939 (H:m:s:ms)","GENERIC","124.25999999999999","0.2235973178790361","6102"
"21:6:52:121 (H:m:s:ms)","GENERIC","124.263","0.2999120641903442","894"
"20:46:34:936 (H:m:s:ms)","OPERA","93.286","0.22660229799352258","13115"
"20:46:40:0 (H:m:s:ms)","GENERIC","124.491","0.2258393696321124","1048"
"21:39:35:757 (H:m:s:ms)","GENERIC","124.225","0.25447164224225916","4281"
"21:40:12:121 (H:m:s:ms)","GENERIC","124.196","0.2557992892010489","886"
"21:40:6:60 (H:m:s:ms)","GENERIC","124.257","0.24790255578674378","4979"
"21:40:0:0 (H:m:s:ms)","AMBULANCE","124.368","0.2513257930438351","5125"
"21:40:0:0 (H:m:s:ms)","GENERIC","124.41","0.24706806569656856","5120"
"21:40:0:0 (H:m:s:ms)","GENERIC","124.39","0.24533009900374478","1111"
"21:39:53:939 (H:m:s:ms)","GENERIC","124.385","0.24701388688272743","1068"
"21:39:47:878 (H:m:s:ms)","GENERIC","124.482","0.24702579666006577","10163"
"21:39:41:818 (H:m:s:ms)","GENERIC","124.22399999999999","0.250093954993413","4182"
"21:6:58:181 (H:m:s:ms)","GENERIC","124.23400000000001","0.29930926583771206","831"
"21:7:4:242 (H:m:s:ms)","GENERIC","124.5","0.29290745418715125","766"
"20:46:42:531 (H:m:s:ms)","OPERA","93.33","0.22639821614009775","2468"
"21:7:10:303 (H:m:s:ms)","GENERIC","124.358","0.2926274695608536","711"
"20:46:46:60 (H:m:s:ms)","GENERIC","124.435","0.22318057816911113","4984"
"21:7:16:363 (H:m:s:ms)","GENERIC","124.31800000000001","0.290752606253644","651"
"20:46:50:126 (H:m:s:ms)","OPERA","93.362","0.24831571792054047","43069"
"21:7:22:105 (H:m:s:ms)","AMBULANCE","93.177","0.2870978560703275","907"
"20:46:52:121 (H:m:s:ms)","GENERIC","124.501","0.2165854917843142","3879"
"21:7:22:424 (H:m:s:ms)","GENERIC","124.345","0.28606009096451285","595"
"21:39:29:696 (H:m:s:ms)","GENERIC","124.517","0.24573685226034359","4345"
"20:46:57:721 (H:m:s:ms)","OPERA","93.487","0.19972340007149728","231352"
"21:7:28:484 (H:m:s:ms)","GENERIC","93.32300000000001","0.28307935021150193","525"
"21:39:28:421 (H:m:s:ms)","AMBULANCE","124.412","0.25370091727484007","5617"
"20:46:58:181 (H:m:s:ms)","GENERIC","124.35900000000001","0.23102849515247462","12901"
"21:7:34:545 (H:m:s:ms)","GENERIC","124.44800000000001","0.2792094119859226","470"
"20:47:4:242 (H:m:s:ms)","GENERIC","124.392","0.22521251463819758","10808"
"21:7:40:606 (H:m:s:ms)","GENERIC","124.392","0.28011750126541934","408"
"20:47:10:303 (H:m:s:ms)","GENERIC","124.208","0.2013667564322018","227741"
"21:7:46:666 (H:m:s:ms)","GENERIC","124.41499999999999","0.28065469178389785","345"
"20:47:12:911 (H:m:s:ms)","OPERA","93.265","0.22505843090797337","1096"
"20:47:16:363 (H:m:s:ms)","GENERIC","124.31700000000001","0.23385134533942645","1641"
"21:7:52:727 (H:m:s:ms)","GENERIC","124.312","0.2838819125498393","291"
"21:7:53:684 (H:m:s:ms)","AMBULANCE","93.332","0.27954572272739076","329"
"20:47:20:506 (H:m:s:ms)","OPERA","62.107","0.23828969004456468","6498"
"21:7:58:787 (H:m:s:ms)","GENERIC","124.566","0.2815965331058337","226"
"20:47:22:424 (H:m:s:ms)","GENERIC","124.497","0.23773784531240483","10631"
"21:8:4:848 (H:m:s:ms)","GENERIC","93.428","0.29225925569838324","169"
"20:47:28:101 (H:m:s:ms)","OPERA","93.418","0.23634743733490282","904"
"21:8:10:909 (H:m:s:ms)","GENERIC","93.32900000000001","0.2952846666160918","1105"
"20:47:28:484 (H:m:s:ms)","GENERIC","124.473","0.23637648840899536","525"
"21:8:16:969 (H:m:s:ms)","GENERIC","124.489","0.2960590247516421","1042"
"20:47:34:545 (H:m:s:ms)","GENERIC","124.408","0.23377894507021169","457"
"21:8:23:30 (H:m:s:ms)","GENERIC","124.22399999999999","0.3051353168694379","992"
"20:47:35:696 (H:m:s:ms)","OPERA","93.47","0.22051902771261536","303"
"21:8:25:263 (H:m:s:ms)","AMBULANCE","93.223","0.3052453802549194","753"
"21:40:18:181 (H:m:s:ms)","GENERIC","124.38499999999999","0.2655211731369294","823"
"20:47:40:606 (H:m:s:ms)","GENERIC","124.332","0.22245825200225686","252565"
"21:8:29:90 (H:m:s:ms)","GENERIC","124.4","0.3039678194822647","962"
"20:47:43:291 (H:m:s:ms)","OPERA","93.158","0.23097114021385157","1711"
"21:8:35:151 (H:m:s:ms)","GENERIC","124.202","0.30606331648357654","860"
"20:47:46:666 (H:m:s:ms)","GENERIC","124.47","0.2230084425592942","336"
"20:47:50:886 (H:m:s:ms)","OPERA","62.231","0.22755157295551826","7118"
"21:8:41:212 (H:m:s:ms)","GENERIC","124.33699999999999","0.2986987354900919","797"
"21:8:47:272 (H:m:s:ms)","GENERIC","124.235","0.3000147791361061","742"
"20:47:52:727 (H:m:s:ms)","GENERIC","124.13999999999999","0.22518588437178025","276"
"21:8:53:333 (H:m:s:ms)","GENERIC","124.35499999999999","0.29284928663191107","683"
"20:47:58:787 (H:m:s:ms)","GENERIC","124.547","0.22603346553376127","228280"
"21:8:56:842 (H:m:s:ms)","AMBULANCE","62.230000000000004","0.2926877224986303","178"
"20:30:0:0 (H:m:s:ms)","GENERIC","124.202","0.2920511203343557","1063"
"20:48:4:848 (H:m:s:ms)","GENERIC","93.336","0.22597910356396442","158"
"21:8:59:393 (H:m:s:ms)","GENERIC","124.223","0.2949705018102014","663"
"20:30:0:0 (H:m:s:ms)","GENERIC","124.30699999999999","0.2988426471516398","1086"
"20:48:6:75 (H:m:s:ms)","OPERA","93.24","0.2254310490777687","929"
"21:9:5:454 (H:m:s:ms)","GENERIC","124.273","0.29407565540933056","559"
"20:30:6:60 (H:m:s:ms)","GENERIC","93.392","0.29883170114884233","960"
"20:48:10:909 (H:m:s:ms)","GENERIC","93.225","0.226252996561719","7096"
"21:9:11:515 (H:m:s:ms)","GENERIC","124.292","0.2961283345787487","498"
"20:30:12:121 (H:m:s:ms)","GENERIC","93.257","0.293955408716512","892"
"20:48:13:670 (H:m:s:ms)","OPERA","93.389","0.22452447648774476","333"
"21:9:17:575 (H:m:s:ms)","GENERIC","124.276","0.299990662416874","438"
"20:30:18:181 (H:m:s:ms)","GENERIC","124.282","0.29775804590719557","833"
"20:48:16:969 (H:m:s:ms)","GENERIC","124.383","0.22769707208689557","10073"
"21:9:23:636 (H:m:s:ms)","GENERIC","124.43299999999999","0.30854684347568917","378"
"20:30:24:242 (H:m:s:ms)","GENERIC","124.351","0.29887750478015473","773"
"20:48:21:265 (H:m:s:ms)","OPERA","93.32300000000001","0.23016293559964582","10783"
"21:9:28:421 (H:m:s:ms)","AMBULANCE","93.176","0.30863195700815965","596"
"20:30:30:303 (H:m:s:ms)","GENERIC","124.531","0.30471785759509007","713"
"20:48:23:30 (H:m:s:ms)","GENERIC","124.478","0.22192504120619336","9018"
"20:30:36:363 (H:m:s:ms)","GENERIC","124.396","0.3054967258955431","658"
"20:48:28:860 (H:m:s:ms)","OPERA","93.282","0.22699179503036299","143"
"20:30:42:424 (H:m:s:ms)","GENERIC","124.24600000000001","0.301411273331255","594"
"20:30:48:484 (H:m:s:ms)","GENERIC","124.37899999999999","0.30306399728231964","532"
"21:9:29:696 (H:m:s:ms)","GENERIC","124.468","0.3065250822064854","353"
"21:9:35:757 (H:m:s:ms)","GENERIC","124.375","0.3092196014134171","257"
"20:48:29:90 (H:m:s:ms)","GENERIC","124.39","0.21810431047999315","45118"
"21:9:41:818 (H:m:s:ms)","GENERIC","124.31800000000001","0.30852631731481633","194"
"20:48:35:151 (H:m:s:ms)","GENERIC","124.464","0.2187191792099022","849"
"21:9:47:878 (H:m:s:ms)","GENERIC","124.346","0.31015490907497995","1138"
"20:30:54:545 (H:m:s:ms)","GENERIC","124.256","0.30839016058805135","476"
"20:48:36:455 (H:m:s:ms)","OPERA","93.209","0.2155383967448204","7584"
"21:9:53:939 (H:m:s:ms)","GENERIC","124.407","0.3100209108081182","1074"
"20:31:0:606 (H:m:s:ms)","GENERIC","93.32","0.3080021087427714","410"
"20:48:41:212 (H:m:s:ms)","GENERIC","124.268","0.21506388720826705","57002"
"21:10:0:0 (H:m:s:ms)","AMBULANCE","93.419","0.29738317571801737","1048"
"20:31:6:666 (H:m:s:ms)","GENERIC","124.25200000000001","0.314742210561667","352"
"20:48:44:50 (H:m:s:ms)","OPERA","93.286","0.21850963190587955","5986"
"21:10:0:0 (H:m:s:ms)","GENERIC","124.289","0.30279680789386954","1064"
"20:31:12:727 (H:m:s:ms)","GENERIC","124.365","0.32600565041551266","293"
"20:48:47:272 (H:m:s:ms)","GENERIC","124.219","0.22423862317079293","64027"
"21:10:0:0 (H:m:s:ms)","GENERIC","93.304","0.3006952247479378","1080"
"20:31:18:787 (H:m:s:ms)","GENERIC","124.39699999999999","0.3282587064430384","231"
"20:48:51:645 (H:m:s:ms)","OPERA","93.364","0.21896189817308923","52574"
"21:10:6:60 (H:m:s:ms)","GENERIC","124.375","0.3041400484427151","951"
"20:31:24:848 (H:m:s:ms)","GENERIC","124.374","0.3300302817463728","168"
"20:48:53:333 (H:m:s:ms)","GENERIC","124.327","0.22415666574078905","669"
"21:10:12:121 (H:m:s:ms)","GENERIC","124.489","0.29977919760363053","892"
"20:31:30:909 (H:m:s:ms)","GENERIC","124.391","0.33519386706592785","1110"
"20:48:59:240 (H:m:s:ms)","OPERA","93.301","0.21823549929798491","800"
"20:31:36:969 (H:m:s:ms)","GENERIC","124.372","0.33576832054330175","1051"
"20:48:59:393 (H:m:s:ms)","GENERIC","124.287","0.2192331442811981","4649"
"20:31:43:30 (H:m:s:ms)","GENERIC","124.396","0.32816831001915947","989"
"20:31:49:90 (H:m:s:ms)","GENERIC","124.43799999999999","0.3292746740968883","960"
"20:49:5:454 (H:m:s:ms)","GENERIC","124.38300000000001","0.20866388196829272","45765"
"20:49:6:835 (H:m:s:ms)","OPERA","93.296","0.20220009577287204","98646"
"20:31:55:151 (H:m:s:ms)","GENERIC","124.443","0.32401462252590074","865"
"20:49:11:515 (H:m:s:ms)","GENERIC","124.339","0.22250507913302997","487"
"20:32:1:212 (H:m:s:ms)","GENERIC","93.16","0.3178191400590058","811"
"20:49:14:430 (H:m:s:ms)","OPERA","93.33800000000001","0.20994831423801968","571"
"20:32:7:272 (H:m:s:ms)","GENERIC","124.519","0.31523645338392536","739"
"20:49:17:575 (H:m:s:ms)","GENERIC","124.263","0.23206404888926785","222497"
"20:32:13:333 (H:m:s:ms)","GENERIC","124.41","0.3178210438460283","689"
"20:49:22:25 (H:m:s:ms)","OPERA","93.35300000000001","0.2061626755531386","101470"
"20:32:19:393 (H:m:s:ms)","GENERIC","124.525","0.31447476856461215","658"
"20:49:23:636 (H:m:s:ms)","GENERIC","124.368","0.20814764291901675","66707"
"20:32:25:454 (H:m:s:ms)","GENERIC","124.184","0.3174469718745947","569"
"20:49:29:620 (H:m:s:ms)","OPERA","62.11","0.2311286023714536","343075"
"20:32:31:515 (H:m:s:ms)","GENERIC","124.374","0.3183160440465028","499"
"20:49:29:696 (H:m:s:ms)","GENERIC","124.33099999999999","0.20776555286452253","343"
"20:32:37:575 (H:m:s:ms)","GENERIC","124.206","0.31813309778134186","446"
"20:49:35:757 (H:m:s:ms)","GENERIC","124.34700000000001","0.21102582068484865","246"
"20:32:43:636 (H:m:s:ms)","GENERIC","124.389","0.3257551276732731","381"
"20:32:49:696 (H:m:s:ms)","GENERIC","124.28","0.32703243758181744","354"
"20:49:37:215 (H:m:s:ms)","OPERA","93.183","0.20590998181016248","13878"
"20:49:41:818 (H:m:s:ms)","GENERIC","124.305","0.2117824840867712","97635"
"20:32:55:757 (H:m:s:ms)","GENERIC","124.37100000000001","0.3286653504854334","260"
"20:49:47:878 (H:m:s:ms)","GENERIC","124.42","0.20118875661833868","15225"
"20:33:1:818 (H:m:s:ms)","GENERIC","124.239","0.33295100046569254","197"
"20:49:52:405 (H:m:s:ms)","OPERA","93.487","0.20572439183871233","141277"
"20:33:7:878 (H:m:s:ms)","GENERIC","124.38300000000001","0.33649954470673377","1141"
"20:49:53:939 (H:m:s:ms)","GENERIC","124.39","0.19576428414301214","17164"
"20:33:13:939 (H:m:s:ms)","GENERIC","124.41","0.3327879733385871","1072"
"20:50:0:0 (H:m:s:ms)","OPERA","93.455","0.20339370661028028","1046"
"20:33:20:0 (H:m:s:ms)","GENERIC","124.361","0.33222472999061015","1060"
"20:50:0:0 (H:m:s:ms)","GENERIC","124.30199999999999","0.2008062862424209","3050"
"20:33:26:60 (H:m:s:ms)","GENERIC","124.398","0.32766824226319097","953"
"20:50:0:0 (H:m:s:ms)","GENERIC","124.343","0.20903504853484678","25156"
"20:33:32:121 (H:m:s:ms)","GENERIC","124.21199999999999","0.3243522976818706","896"
"20:50:6:60 (H:m:s:ms)","GENERIC","93.172","0.1990481158303","3987"
"20:33:38:181 (H:m:s:ms)","GENERIC","124.318","0.32622524023989524","833"
"20:50:12:121 (H:m:s:ms)","GENERIC","93.37","0.19945335144399282","2883"
"20:33:44:242 (H:m:s:ms)","GENERIC","93.27","0.3222508456180414","777"
"20:33:50:303 (H:m:s:ms)","GENERIC","124.364","0.32347582413355397","713"
"20:50:18:181 (H:m:s:ms)","GENERIC","124.15299999999999","0.20903504853484678","5866"
"20:50:24:242 (H:m:s:ms)","GENERIC","124.301","0.20721658512922136","762"
"20:33:56:363 (H:m:s:ms)","GENERIC","124.202","0.32682196920592077","655"
"20:50:30:303 (H:m:s:ms)","GENERIC","124.56800000000001","0.20846654233253267","2699"
"20:34:2:424 (H:m:s:ms)","GENERIC","124.263","0.3255790880923164","602"
"20:50:36:363 (H:m:s:ms)","GENERIC","124.32300000000001","0.21500834595015922","2636"
"20:10:0:0 (H:m:s:ms)","GENERIC","62.178","0.3028761638392516","1015"
"20:34:8:484 (H:m:s:ms)","GENERIC","124.251","0.31414257880573954","531"
"20:50:42:424 (H:m:s:ms)","GENERIC","124.476","0.21817536206348484","2580"
"20:10:0:0 (H:m:s:ms)","GENERIC","124.451","0.30424903065979636","1070"
"20:34:14:545 (H:m:s:ms)","GENERIC","124.315","0.3196925600970472","470"
"20:50:48:484 (H:m:s:ms)","GENERIC","124.429","0.19754026642778436","519"
"20:10:6:60 (H:m:s:ms)","GENERIC","124.18799999999999","0.30500154992580275","954"
"20:34:20:606 (H:m:s:ms)","GENERIC","124.438","0.3178166745741456","412"
"20:50:54:545 (H:m:s:ms)","GENERIC","124.59","0.19921781000137886","1455"
"20:10:12:121 (H:m:s:ms)","GENERIC","124.34700000000001","0.30900354736786245","900"
"20:34:26:666 (H:m:s:ms)","GENERIC","124.289","0.31253811669746073","353"
"20:51:0:606 (H:m:s:ms)","GENERIC","93.233","0.20211838843369448","8397"
"20:10:18:181 (H:m:s:ms)","GENERIC","124.262","0.30257655643135556","836"
"20:34:32:727 (H:m:s:ms)","GENERIC","124.337","0.31731271271746936","289"
"20:51:6:666 (H:m:s:ms)","GENERIC","124.309","0.21168393958846562","4375"
"20:10:24:242 (H:m:s:ms)","GENERIC","93.357","0.3058505375650496","771"
"20:34:38:787 (H:m:s:ms)","GENERIC","93.128","0.32541434351572873","234"
"20:51:12:727 (H:m:s:ms)","GENERIC","124.25800000000001","0.22093581499670878","8314"
"20:10:30:303 (H:m:s:ms)","GENERIC","124.213","0.3096667246548185","716"
"20:34:44:848 (H:m:s:ms)","GENERIC","124.557","0.32345439896988476","174"
"20:10:36:363 (H:m:s:ms)","GENERIC","93.289","0.30309876875569725","652"
"20:34:50:909 (H:m:s:ms)","GENERIC","124.11500000000001","0.32839717707481425","1109"
"20:10:42:424 (H:m:s:ms)","GENERIC","93.227","0.3066728599109648","595"
"20:10:48:484 (H:m:s:ms)","GENERIC","124.339","0.30871200404458893","533"
"20:51:18:787 (H:m:s:ms)","GENERIC","124.289","0.22226368575502634","8258"
"20:51:24:848 (H:m:s:ms)","GENERIC","124.49000000000001","0.2388829333385798","9196"
"20:34:56:969 (H:m:s:ms)","GENERIC","124.327","0.3195367799459312","1044"
"20:51:30:909 (H:m:s:ms)","GENERIC","124.244","0.23996672127682764","10139"
"20:35:3:30 (H:m:s:ms)","GENERIC","124.287","0.3112038002674093","989"
"20:51:36:969 (H:m:s:ms)","GENERIC","124.23400000000001","0.22607372820357205","12084"
"20:10:54:545 (H:m:s:ms)","GENERIC","124.264","0.3037999156644809","470"
"20:35:9:90 (H:m:s:ms)","GENERIC","124.34100000000001","0.3140593913791965","965"
"20:51:43:30 (H:m:s:ms)","GENERIC","124.5","0.21876329206820863","51226"
"20:11:0:606 (H:m:s:ms)","GENERIC","124.313","0.30264732944940315","409"
"20:35:15:151 (H:m:s:ms)","GENERIC","124.32300000000001","0.322581254003065","868"
"20:51:49:90 (H:m:s:ms)","GENERIC","124.223","0.21493500431550563","955"
"20:11:6:666 (H:m:s:ms)","GENERIC","93.247","0.3001630701212872","348"
"20:35:21:212 (H:m:s:ms)","GENERIC","93.136","0.3234234794778423","807"
"20:51:55:151 (H:m:s:ms)","GENERIC","124.17699999999999","0.21691175254008876","854"
"20:11:12:727 (H:m:s:ms)","GENERIC","124.345","0.3049232362628135","293"
"20:35:27:272 (H:m:s:ms)","GENERIC","124.31","0.31793262851940207","747"
"20:52:1:212 (H:m:s:ms)","GENERIC","124.383","0.21890795615035571","14836"
"20:11:18:787 (H:m:s:ms)","GENERIC","124.452","0.3033592935039956","223"
"20:35:33:333 (H:m:s:ms)","GENERIC","124.444","0.32048610513586256","681"
"20:52:7:272 (H:m:s:ms)","GENERIC","124.224","0.20480394735848081","3769"
"20:11:24:848 (H:m:s:ms)","GENERIC","124.2","0.3034979397135568","171"
"20:35:39:393 (H:m:s:ms)","GENERIC","124.327","0.31317463420302805","663"
"20:52:13:333 (H:m:s:ms)","GENERIC","124.422","0.20470925498819023","671"
"20:11:30:909 (H:m:s:ms)","GENERIC","124.132","0.3055776766657627","1113"
"20:35:45:454 (H:m:s:ms)","GENERIC","124.358","0.31148225797103674","562"
"20:11:36:969 (H:m:s:ms)","GENERIC","124.387","0.30465069923815774","1047"
"20:35:51:515 (H:m:s:ms)","GENERIC","124.28399999999999","0.3041106469701037","502"
"20:11:43:30 (H:m:s:ms)","GENERIC","124.223","0.30874389744645253","983"
"20:11:49:90 (H:m:s:ms)","GENERIC","124.495","0.30848666860828483","966"
"20:0:54:545 (H:m:s:ms)","GENERIC","93.22","0.20762297386575923","492"
"20:1:0:606 (H:m:s:ms)","GENERIC","93.204","0.21277727012030737","432"
"20:1:6:666 (H:m:s:ms)","GENERIC","93.22","0.2266234005919257","371"
"20:1:12:727 (H:m:s:ms)","GENERIC","62.131","0.22946527820912505","310"
"20:1:18:787 (H:m:s:ms)","GENERIC","62.166","0.23365248413484843","254"
"20:1:24:848 (H:m:s:ms)","GENERIC","93.22399999999999","0.2328109955306918","191"
"20:1:30:909 (H:m:s:ms)","GENERIC","93.387","0.24706323950032444","1127"
"20:1:36:969 (H:m:s:ms)","GENERIC","93.312","0.2515901244229699","1067"
"20:1:43:30 (H:m:s:ms)","GENERIC","93.281","0.25670809339529355","1005"
"20:1:49:90 (H:m:s:ms)","GENERIC","93.268","0.2649442354611575","959"
"20:35:57:575 (H:m:s:ms)","GENERIC","124.354","0.30594871824944675","444"
"20:36:3:636 (H:m:s:ms)","GENERIC","124.37899999999999","0.3111431144510774","382"
"20:11:55:151 (H:m:s:ms)","GENERIC","124.463","0.3141147947097895","869"
"20:36:9:696 (H:m:s:ms)","GENERIC","124.259","0.30721671184701327","352"
"20:12:1:212 (H:m:s:ms)","GENERIC","93.207","0.30975005522155385","806"
"20:36:15:757 (H:m:s:ms)","GENERIC","124.46100000000001","0.30542362440097826","257"
"20:12:7:272 (H:m:s:ms)","GENERIC","124.375","0.30776583197944396","748"
"20:36:21:818 (H:m:s:ms)","GENERIC","124.431","0.31392397827310325","203"
"20:12:13:333 (H:m:s:ms)","GENERIC","124.205","0.31216938667711996","689"
"20:36:27:878 (H:m:s:ms)","GENERIC","124.251","0.3190652291190368","1143"
"20:12:19:393 (H:m:s:ms)","GENERIC","124.225","0.3111415150972221","675"
"20:36:33:939 (H:m:s:ms)","GENERIC","124.383","0.3214007518045624","1081"
"20:12:25:454 (H:m:s:ms)","GENERIC","124.342","0.3151585434827073","568"
"20:36:40:0 (H:m:s:ms)","GENERIC","124.276","0.3214543308362822","1055"
"20:12:31:515 (H:m:s:ms)","GENERIC","124.386","0.3107989381988511","502"
"20:36:46:60 (H:m:s:ms)","GENERIC","124.295","0.3267605925311115","961"
"20:12:37:575 (H:m:s:ms)","GENERIC","124.346","0.310998261172303","445"
"20:36:52:121 (H:m:s:ms)","GENERIC","124.352","0.3224950869004073","899"
"20:12:43:636 (H:m:s:ms)","GENERIC","124.26400000000001","0.30838463286896295","381"
"20:12:49:696 (H:m:s:ms)","GENERIC","124.375","0.30786472679963595","362"
"20:1:55:151 (H:m:s:ms)","GENERIC","93.315","0.2643035533157729","878"
"20:2:1:212 (H:m:s:ms)","GENERIC","93.21600000000001","0.27459020945712503","818"
"20:2:7:272 (H:m:s:ms)","GENERIC","93.231","0.2785953290475751","760"
"20:2:13:333 (H:m:s:ms)","GENERIC","93.363","0.28448417075560123","695"
"20:2:19:393 (H:m:s:ms)","GENERIC","93.199","0.2884546867473002","656"
"20:2:25:454 (H:m:s:ms)","GENERIC","93.327","0.2965612406122327","576"
"20:2:31:515 (H:m:s:ms)","GENERIC","93.357","0.30069790985019335","515"
"20:2:37:575 (H:m:s:ms)","GENERIC","93.358","0.30181341103128306","458"
"20:2:43:636 (H:m:s:ms)","GENERIC","93.29599999999999","0.30641929723377725","397"
"20:2:49:696 (H:m:s:ms)","GENERIC","62.254000000000005","0.30976274962194916","348"
"20:36:58:181 (H:m:s:ms)","GENERIC","124.514","0.31892891080251584","835"
"20:37:4:242 (H:m:s:ms)","GENERIC","93.28","0.31881136080044475","776"
"20:12:55:757 (H:m:s:ms)","GENERIC","124.491","0.306158535770714","257"
"20:37:10:303 (H:m:s:ms)","GENERIC","124.31700000000001","0.31404427369738663","711"
"20:13:1:818 (H:m:s:ms)","GENERIC","124.394","0.303429096003118","201"
"20:37:16:363 (H:m:s:ms)","GENERIC","124.451","0.32166778801593193","655"
"20:13:7:878 (H:m:s:ms)","GENERIC","93.261","0.30387532133584605","1144"
"20:37:22:424 (H:m:s:ms)","GENERIC","124.444","0.3284734757154735","598"
"20:13:13:939 (H:m:s:ms)","GENERIC","124.19800000000001","0.3042662570604596","1085"
"20:37:28:484 (H:m:s:ms)","GENERIC","124.441","0.3227301019019041","533"
"20:13:20:0 (H:m:s:ms)","GENERIC","124.40899999999999","0.3066029787136071","1056"
"20:37:34:545 (H:m:s:ms)","GENERIC","124.31200000000001","0.3206064742299115","467"
"20:13:26:60 (H:m:s:ms)","GENERIC","124.44200000000001","0.3102796232769655","956"
"20:37:40:606 (H:m:s:ms)","GENERIC","124.459","0.32542340214799553","417"
"20:13:32:121 (H:m:s:ms)","GENERIC","124.411","0.311465892678439","899"
"20:37:46:666 (H:m:s:ms)","GENERIC","93.344","0.3189177748900512","352"
"20:13:38:181 (H:m:s:ms)","GENERIC","124.341","0.3045846767724329","841"
"20:37:52:727 (H:m:s:ms)","GENERIC","124.37","0.3179713005136096","290"
"20:13:44:242 (H:m:s:ms)","GENERIC","124.51400000000001","0.3060352157640566","780"
"20:13:50:303 (H:m:s:ms)","GENERIC","124.435","0.30606404795453296","721"
"20:2:55:757 (H:m:s:ms)","GENERIC","93.37899999999999","0.3128238445724335","269"
"20:3:1:818 (H:m:s:ms)","GENERIC","62.29","0.3150658918609767","205"
"20:3:7:878 (H:m:s:ms)","GENERIC","62.315","0.31425929920257434","147"
"20:3:13:939 (H:m:s:ms)","GENERIC","93.307","0.3212624685256009","1086"
"20:3:20:0 (H:m:s:ms)","GENERIC","93.316","0.32084268119183634","1031"
"20:3:26:60 (H:m:s:ms)","GENERIC","93.48","0.32063516743787873","963"
"20:3:32:121 (H:m:s:ms)","GENERIC","93.2","0.3188448067165438","908"
"20:3:38:181 (H:m:s:ms)","GENERIC","62.221000000000004","0.31799099837988914","845"
"20:3:44:242 (H:m:s:ms)","GENERIC","93.289","0.3192230443848184","781"
"20:3:50:303 (H:m:s:ms)","GENERIC","93.19","0.3232653420862537","721"
"20:37:58:787 (H:m:s:ms)","GENERIC","124.328","0.3137675802674738","235"
"20:38:4:848 (H:m:s:ms)","GENERIC","124.441","0.3045351270470067","176"
"20:13:56:363 (H:m:s:ms)","GENERIC","124.14","0.31484448958766575","656"
"20:38:10:909 (H:m:s:ms)","GENERIC","124.20400000000001","0.3032266473837074","1118"
"20:14:2:424 (H:m:s:ms)","GENERIC","124.298","0.31614927478593813","597"
"20:38:16:969 (H:m:s:ms)","GENERIC","124.30799999999999","0.31189973817309413","1053"
"20:14:8:484 (H:m:s:ms)","GENERIC","93.248","0.31504582951768834","530"
"20:38:23:30 (H:m:s:ms)","GENERIC","124.384","0.31061168518811977","996"
"20:14:14:545 (H:m:s:ms)","GENERIC","124.271","0.3191314489033609","474"
"20:38:29:90 (H:m:s:ms)","GENERIC","124.42699999999999","0.3112851085571342","962"
"20:14:20:606 (H:m:s:ms)","GENERIC","124.309","0.3186088371900949","418"
"20:38:35:151 (H:m:s:ms)","GENERIC","124.505","0.3206161735334109","873"
"20:14:26:666 (H:m:s:ms)","GENERIC","124.345","0.32047968282340006","349"
"20:38:41:212 (H:m:s:ms)","GENERIC","124.249","0.32026940458834235","806"
"20:14:32:727 (H:m:s:ms)","GENERIC","93.249","0.324159283510609","291"
"20:38:47:272 (H:m:s:ms)","GENERIC","124.44999999999999","0.3164582786795584","742"
"20:14:38:787 (H:m:s:ms)","GENERIC","93.342","0.3277864964659069","235"
"20:38:53:333 (H:m:s:ms)","GENERIC","124.149","0.30806477397574766","690"
"20:14:44:848 (H:m:s:ms)","GENERIC","93.243","0.32730393714548794","171"
"20:14:50:909 (H:m:s:ms)","GENERIC","124.281","0.32582849541779374","1104"
"20:3:56:363 (H:m:s:ms)","GENERIC","93.34100000000001","0.3225369413620347","657"
"20:4:2:424 (H:m:s:ms)","GENERIC","93.256","0.32789457205098643","599"
"20:4:8:484 (H:m:s:ms)","GENERIC","93.32300000000001","0.32575123178081744","537"
"20:4:14:545 (H:m:s:ms)","GENERIC","93.33","0.32308712910015414","476"
"20:4:20:606 (H:m:s:ms)","GENERIC","93.33","0.3205289967266264","415"
"20:4:26:666 (H:m:s:ms)","GENERIC","62.356","0.31864961698489663","351"
"20:4:32:727 (H:m:s:ms)","GENERIC","93.205","0.32246325946594245","296"
"20:4:38:787 (H:m:s:ms)","GENERIC","93.461","0.32080910321481315","228"
"20:4:44:848 (H:m:s:ms)","GENERIC","93.314","0.3147781554948942","172"
"20:4:50:909 (H:m:s:ms)","GENERIC","62.234","0.31584339084181007","1109"
"20:38:59:393 (H:m:s:ms)","GENERIC","124.172","0.3139578764839502","664"
"20:39:5:454 (H:m:s:ms)","GENERIC","93.285","0.31063058395905524","570"
"20:14:56:969 (H:m:s:ms)","GENERIC","124.394","0.3286986299958197","1049"
"20:39:11:515 (H:m:s:ms)","GENERIC","124.39099999999999","0.30796622253428474","499"
"20:15:3:30 (H:m:s:ms)","GENERIC","124.52099999999999","0.325525292800278","985"
"20:39:17:575 (H:m:s:ms)","GENERIC","124.253","0.312327687557268","448"
"20:15:9:90 (H:m:s:ms)","GENERIC","124.18700000000001","0.32213258236867054","972"
"20:39:23:636 (H:m:s:ms)","GENERIC","124.267","0.31048540871369945","380"
"20:15:15:151 (H:m:s:ms)","GENERIC","124.369","0.3159961819438457","864"
"20:39:29:696 (H:m:s:ms)","GENERIC","124.411","0.3093828279059628","357"
"20:15:21:212 (H:m:s:ms)","GENERIC","124.237","0.32035748945692","812"
"20:39:35:757 (H:m:s:ms)","GENERIC","93.34299999999999","0.3011785909623978","266"
"20:15:27:272 (H:m:s:ms)","GENERIC","124.17","0.32149199622350383","744"
"20:39:41:818 (H:m:s:ms)","GENERIC","93.38300000000001","0.303784210728862","200"
"20:15:33:333 (H:m:s:ms)","GENERIC","124.446","0.3199396500813016","683"
"20:39:47:878 (H:m:s:ms)","GENERIC","124.253","0.3064725795040842","1138"
"20:15:39:393 (H:m:s:ms)","GENERIC","124.185","0.32457341438779574","662"
"20:39:53:939 (H:m:s:ms)","GENERIC","93.147","0.30368685610118584","1086"
"20:15:45:454 (H:m:s:ms)","GENERIC","124.50399999999999","0.32823668219298047","565"
"20:15:51:515 (H:m:s:ms)","GENERIC","124.327","0.3254746049905026","509"
"20:4:56:969 (H:m:s:ms)","GENERIC","93.459","0.31448252839697216","1053"
"20:5:3:30 (H:m:s:ms)","GENERIC","93.401","0.3111950646238924","984"
"20:5:9:90 (H:m:s:ms)","GENERIC","93.267","0.31673871307891893","952"
"20:5:15:151 (H:m:s:ms)","GENERIC","93.248","0.31489321041788637","867"
"20:5:21:212 (H:m:s:ms)","GENERIC","93.38","0.30917976308509537","802"
"20:5:27:272 (H:m:s:ms)","GENERIC","93.21","0.30501021133830675","746"
"20:5:33:333 (H:m:s:ms)","GENERIC","93.358","0.303767022689283","690"
"20:5:39:393 (H:m:s:ms)","GENERIC","93.457","0.3128270535982904","649"
"20:5:45:454 (H:m:s:ms)","GENERIC","93.223","0.3152480589022914","571"
"20:5:51:515 (H:m:s:ms)","GENERIC","93.13499999999999","0.31714262228131435","501"
"20:15:57:575 (H:m:s:ms)","GENERIC","124.27799999999999","0.3234332725317455","447"
"20:16:3:636 (H:m:s:ms)","GENERIC","124.215","0.3195916150398051","384"
"20:16:9:696 (H:m:s:ms)","GENERIC","124.268","0.31824199354489885","361"
"20:16:15:757 (H:m:s:ms)","GENERIC","124.40299999999999","0.31678746404437325","262"
"20:16:21:818 (H:m:s:ms)","GENERIC","124.364","0.32439137302385984","200"
"20:16:27:878 (H:m:s:ms)","GENERIC","124.366","0.32275386782702065","1136"
"20:16:33:939 (H:m:s:ms)","GENERIC","124.395","0.318675028320843","1080"
"20:16:40:0 (H:m:s:ms)","GENERIC","124.28399999999999","0.31270659345645696","1058"
"20:16:46:60 (H:m:s:ms)","GENERIC","93.38300000000001","0.3076593934079988","959"
"20:16:52:121 (H:m:s:ms)","GENERIC","124.396","0.30859523556329943","900"
"20:5:57:575 (H:m:s:ms)","GENERIC","93.226","0.3198110042196963","444"
"20:6:3:636 (H:m:s:ms)","GENERIC","93.318","0.3210132197512217","387"
"20:6:9:696 (H:m:s:ms)","GENERIC","93.245","0.3259340629096041","346"
"20:6:15:757 (H:m:s:ms)","GENERIC","93.25200000000001","0.3207339425595802","256"
"20:6:21:818 (H:m:s:ms)","GENERIC","93.33","0.32206035785216497","203"
"20:6:27:878 (H:m:s:ms)","GENERIC","62.138999999999996","0.3145330919794731","139"
"20:6:33:939 (H:m:s:ms)","GENERIC","93.459","0.3072196532083646","1079"
"20:6:40:0 (H:m:s:ms)","GENERIC","93.30000000000001","0.309968824527563","1018"
"20:6:46:60 (H:m:s:ms)","GENERIC","93.193","0.3074989897865638","961"
"20:6:52:121 (H:m:s:ms)","GENERIC","62.333","0.3033898184496007","895"
"20:16:58:181 (H:m:s:ms)","GENERIC","124.42099999999999","0.3080082205540088","833"
"20:17:4:242 (H:m:s:ms)","GENERIC","124.34299999999999","0.30774622477496494","780"
"20:17:10:303 (H:m:s:ms)","GENERIC","124.494","0.30184575424041893","712"
"20:17:16:363 (H:m:s:ms)","GENERIC","93.194","0.3020043403579454","663"
"20:17:22:424 (H:m:s:ms)","GENERIC","124.262","0.303731657091796","593"
"20:17:28:484 (H:m:s:ms)","GENERIC","124.28999999999999","0.3029344886477969","539"
"20:17:34:545 (H:m:s:ms)","GENERIC","124.34200000000001","0.3025794121917697","481"
"20:17:40:606 (H:m:s:ms)","GENERIC","124.44","0.30513165888816624","414"
"20:17:46:666 (H:m:s:ms)","GENERIC","124.23400000000001","0.30538841350464596","357"
"20:17:52:727 (H:m:s:ms)","GENERIC","124.481","0.30210426312515576","296"
"20:6:58:181 (H:m:s:ms)","GENERIC","93.235","0.29898321250545806","843"
"20:7:4:242 (H:m:s:ms)","GENERIC","93.52499999999999","0.3038422067238915","778"
"20:7:10:303 (H:m:s:ms)","GENERIC","93.22","0.29729261456099254","714"
"20:7:16:363 (H:m:s:ms)","GENERIC","93.13","0.30443463389564324","659"
"20:7:22:424 (H:m:s:ms)","GENERIC","62.257000000000005","0.29522755300824105","589"
"20:7:28:484 (H:m:s:ms)","GENERIC","62.172","0.2916660105609073","536"
"20:7:34:545 (H:m:s:ms)","GENERIC","93.184","0.2885680922386592","469"
"20:7:40:606 (H:m:s:ms)","GENERIC","93.224","0.2958514324418327","413"
"20:7:46:666 (H:m:s:ms)","GENERIC","93.179","0.29863289229957557","347"
"20:7:52:727 (H:m:s:ms)","GENERIC","62.201","0.29544038270001394","294"
"20:17:58:787 (H:m:s:ms)","GENERIC","124.315","0.2967657305094007","233"
"20:18:4:848 (H:m:s:ms)","GENERIC","124.47","0.30076223722942586","175"
"20:18:10:909 (H:m:s:ms)","GENERIC","124.332","0.304547884922699","1113"
"20:18:16:969 (H:m:s:ms)","GENERIC","124.31","0.3089513007750788","1050"
"20:18:23:30 (H:m:s:ms)","GENERIC","124.447","0.3137080712972192","990"
"20:18:29:90 (H:m:s:ms)","GENERIC","124.342","0.31622490998376956","971"
"20:18:35:151 (H:m:s:ms)","GENERIC","124.312","0.31532949564810764","875"
"20:18:41:212 (H:m:s:ms)","GENERIC","124.428","0.31164463685894656","802"
"20:18:47:272 (H:m:s:ms)","GENERIC","124.22800000000001","0.31084568315271793","745"
"20:18:53:333 (H:m:s:ms)","GENERIC","124.332","0.3105429203485953","692"
"20:7:58:787 (H:m:s:ms)","GENERIC","93.34700000000001","0.29450317297981893","231"
"20:8:4:848 (H:m:s:ms)","GENERIC","93.328","0.2894508276241625","171"
"20:8:10:909 (H:m:s:ms)","GENERIC","93.351","0.29874617638659307","1107"
"20:8:16:969 (H:m:s:ms)","GENERIC","93.221","0.298685201691198","1053"
"20:8:23:30 (H:m:s:ms)","GENERIC","93.358","0.2976941352929157","989"
"20:8:29:90 (H:m:s:ms)","GENERIC","93.312","0.30051205763497896","965"
"20:8:35:151 (H:m:s:ms)","GENERIC","93.306","0.3080855171617545","865"
"20:8:41:212 (H:m:s:ms)","GENERIC","93.211","0.3118058548500444","809"
"20:8:47:272 (H:m:s:ms)","GENERIC","93.201","0.3116909889397299","748"
"20:8:53:333 (H:m:s:ms)","GENERIC","93.321","0.31039149017975864","683"
"20:18:59:393 (H:m:s:ms)","GENERIC","124.583","0.3009706054871697","664"
"20:19:5:454 (H:m:s:ms)","GENERIC","124.446","0.29904209846846835","566"
"20:19:11:515 (H:m:s:ms)","GENERIC","124.46600000000001","0.30572769431570784","509"
"20:19:17:575 (H:m:s:ms)","GENERIC","124.38300000000001","0.30675846360899617","441"
"20:19:23:636 (H:m:s:ms)","GENERIC","124.481","0.3030224875434536","384"
"20:19:29:696 (H:m:s:ms)","GENERIC","124.321","0.3071934265520167","364"
"20:19:35:757 (H:m:s:ms)","GENERIC","124.445","0.30958785206320333","263"
"20:19:41:818 (H:m:s:ms)","GENERIC","93.263","0.30558995352491364","200"
"20:19:47:878 (H:m:s:ms)","GENERIC","124.38499999999999","0.3104832013029369","1136"
"20:19:53:939 (H:m:s:ms)","GENERIC","124.283","0.31523721098587537","1081"
"20:8:59:393 (H:m:s:ms)","GENERIC","93.307","0.31050699822735495","666"
"20:9:5:454 (H:m:s:ms)","GENERIC","62.333","0.3069533568462803","564"
"20:9:11:515 (H:m:s:ms)","GENERIC","93.388","0.29723342073978826","497"
"20:9:17:575 (H:m:s:ms)","GENERIC","93.278","0.2989151372922716","440"
"20:9:23:636 (H:m:s:ms)","GENERIC","93.458","0.29947708130421635","382"
"20:9:29:696 (H:m:s:ms)","GENERIC","93.35900000000001","0.2983161196980624","364"
"20:9:35:757 (H:m:s:ms)","GENERIC","93.264","0.2919789815526991","259"
"20:9:41:818 (H:m:s:ms)","GENERIC","93.305","0.2931740624501616","197"
"20:9:47:878 (H:m:s:ms)","GENERIC","93.357","0.30242180363975935","142"
"20:9:53:939 (H:m:s:ms)","GENERIC","93.234","0.3008617015896456","1080"
"21:41:0:606 (H:m:s:ms)","GENERIC","124.401","0.2842929848826092","402"
"21:40:54:545 (H:m:s:ms)","GENERIC","124.358","0.2717465475118976","464"
"21:40:48:484 (H:m:s:ms)","GENERIC","124.318","0.2683302548065471","523"
"21:40:42:424 (H:m:s:ms)","GENERIC","124.237","0.25798426196592794","583"
"21:40:36:363 (H:m:s:ms)","GENERIC","93.132","0.24711552867980363","645"
"21:40:30:303 (H:m:s:ms)","GENERIC","124.483","0.2538211523788766","701"
"21:40:24:242 (H:m:s:ms)","GENERIC","124.428","0.2560581261046645","764"
"21:41:18:787 (H:m:s:ms)","GENERIC","93.339","0.27148119482911687","218"
"21:41:12:727 (H:m:s:ms)","GENERIC","124.41499999999999","0.2804519120542722","280"
"21:41:6:666 (H:m:s:ms)","GENERIC","124.271","0.2843847348132899","344"
