"time (H:m:s:ms)","type","latency","utilisation","waiting"
"21:43:1:818 (H:m:s:ms)","GENERIC","186.612","0.10427152925546936","245"
"21:42:43:636 (H:m:s:ms)","GENERIC","186.41","0.09889142824538485","422"
"21:42:37:575 (H:m:s:ms)","GENERIC","186.471","0.08191749303545591","485"
"21:42:31:515 (H:m:s:ms)","GENERIC","186.533","0.09524105086946523","542"
"21:42:25:454 (H:m:s:ms)","GENERIC","186.405","0.0851972617965754","604"
"21:42:19:393 (H:m:s:ms)","GENERIC","186.478","0.10686234809721516","705"
"21:42:13:333 (H:m:s:ms)","GENERIC","155.684","0.08364250063441947","731"
"21:42:7:272 (H:m:s:ms)","GENERIC","186.515","0.06714933645318787","787"
"21:42:1:212 (H:m:s:ms)","GENERIC","186.605","0.07964974365218716","852"
"21:42:55:757 (H:m:s:ms)","GENERIC","186.39999999999998","0.06269001826308138","304"
"21:42:49:696 (H:m:s:ms)","GENERIC","186.621","0.09356091374786689","402"
"21:44:8:484 (H:m:s:ms)","GENERIC","155.51","0.051960521634689526","580"
"21:44:2:424 (H:m:s:ms)","GENERIC","186.463","0.10914659011607476","637"
"21:43:50:303 (H:m:s:ms)","GENERIC","186.458","0.0903340610796894","759"
"20:0:0:0 (H:m:s:ms)","GENERIC","155.482","0.0753270270779823","1175"
"21:43:44:242 (H:m:s:ms)","GENERIC","186.568","0.10041970877760643","817"
"20:0:6:60 (H:m:s:ms)","GENERIC","124.638","0.08602018465436706","1013"
"21:43:38:181 (H:m:s:ms)","GENERIC","186.667","0.07104919017071334","878"
"20:0:12:121 (H:m:s:ms)","GENERIC","124.753","0.09942201406372862","952"
"21:43:32:121 (H:m:s:ms)","GENERIC","186.595","0.06267348615113073","940"
"20:0:18:181 (H:m:s:ms)","GENERIC","155.552","0.052147610600250756","890"
"21:43:26:60 (H:m:s:ms)","GENERIC","186.579","0.04519638332878637","1004"
"20:0:24:242 (H:m:s:ms)","GENERIC","124.455","0.08743942140337649","843"
"21:43:20:0 (H:m:s:ms)","GENERIC","186.509","0.07654994376798678","1102"
"20:0:30:303 (H:m:s:ms)","GENERIC","155.505","0.09344828141002719","771"
"21:43:13:939 (H:m:s:ms)","GENERIC","186.533","0.07820038030464772","1122"
"20:0:36:363 (H:m:s:ms)","GENERIC","124.644","0.07454908234563133","708"
"21:43:7:878 (H:m:s:ms)","GENERIC","186.416","0.053771398632567975","1186"
"20:0:42:424 (H:m:s:ms)","GENERIC","155.507","0.05990001656134555","646"
"21:10:24:242 (H:m:s:ms)","GENERIC","186.604","0.07919056225494807","822"
"20:0:48:484 (H:m:s:ms)","GENERIC","155.431","0.07750760623189251","583"
"21:10:30:303 (H:m:s:ms)","GENERIC","155.356","0.0980946127040848","757"
"21:10:36:363 (H:m:s:ms)","GENERIC","186.443","0.08856498778160418","697"
"21:10:42:424 (H:m:s:ms)","GENERIC","186.79","0.08923568661103153","641"
"21:10:48:484 (H:m:s:ms)","GENERIC","186.416","0.08170740724800332","577"
"21:10:54:545 (H:m:s:ms)","GENERIC","186.522","0.11781721570469263","520"
"21:11:0:606 (H:m:s:ms)","GENERIC","186.386","0.09457247720889127","457"
"21:11:6:666 (H:m:s:ms)","GENERIC","186.715","0.10387752674407093","397"
"21:43:56:363 (H:m:s:ms)","GENERIC","186.64000000000001","0.061416064982613254","699"
"21:11:12:727 (H:m:s:ms)","GENERIC","186.367","0.09400862926232002","336"
"21:11:18:787 (H:m:s:ms)","GENERIC","155.644","0.08370833511535646","278"
"21:25:56:962 (H:m:s:ms)","OPERA","186.44400000000002","0.07957799535744016","1107"
"21:45:15:151 (H:m:s:ms)","GENERIC","186.403","0.07657380223246989","906"
"21:45:9:90 (H:m:s:ms)","GENERIC","186.503","0.08652969400079545","1002"
"21:45:3:30 (H:m:s:ms)","GENERIC","155.401","0.09012348299189389","1025"
"21:44:56:969 (H:m:s:ms)","GENERIC","186.794","0.07217966849870135","1091"
"21:44:50:909 (H:m:s:ms)","GENERIC","155.63400000000001","0.10111970329190915","1152"
"21:44:44:848 (H:m:s:ms)","GENERIC","186.41","0.08214679696194349","215"
"21:44:38:787 (H:m:s:ms)","GENERIC","186.59199999999998","0.10852183533603012","273"
"21:44:32:727 (H:m:s:ms)","GENERIC","155.517","0.09501176175787171","336"
"21:44:26:666 (H:m:s:ms)","GENERIC","155.643","0.11560174112550842","397"
"21:44:20:606 (H:m:s:ms)","GENERIC","186.461","0.08428530181714053","452"
"21:11:24:848 (H:m:s:ms)","GENERIC","186.52","0.08822709788988586","215"
"21:44:14:545 (H:m:s:ms)","GENERIC","155.845","0.07700984137771053","517"
"21:11:30:909 (H:m:s:ms)","GENERIC","186.381","0.10229832378729964","1151"
"21:11:36:969 (H:m:s:ms)","GENERIC","155.655","0.06649521283908331","1095"
"21:11:43:30 (H:m:s:ms)","GENERIC","186.60000000000002","0.08916430673565433","1031"
"21:11:49:90 (H:m:s:ms)","GENERIC","186.402","0.08601571539942103","1016"
"21:11:55:151 (H:m:s:ms)","GENERIC","186.391","0.04447772538668186","916"
"21:12:1:212 (H:m:s:ms)","GENERIC","186.512","0.10370362129712363","850"
"21:12:7:272 (H:m:s:ms)","GENERIC","186.387","0.08013110339458328","791"
"21:12:13:333 (H:m:s:ms)","GENERIC","186.37900000000002","0.10173963538988536","726"
"21:12:19:393 (H:m:s:ms)","GENERIC","155.40699999999998","0.10676965796298973","708"
"21:26:33:939 (H:m:s:ms)","GENERIC","155.6","0.10483596548223767","1125"
"21:46:21:818 (H:m:s:ms)","GENERIC","186.484","0.07208041793007494","242"
"21:26:27:878 (H:m:s:ms)","GENERIC","186.477","0.12832419495467914","1253"
"21:46:15:757 (H:m:s:ms)","GENERIC","155.641","0.06832574688077778","303"
"21:46:9:696 (H:m:s:ms)","GENERIC","186.447","0.06135153798233369","399"
"21:46:3:636 (H:m:s:ms)","GENERIC","186.57399999999998","0.10025552069315041","424"
"21:26:21:818 (H:m:s:ms)","GENERIC","186.639","0.08568080765565353","252"
"21:26:19:746 (H:m:s:ms)","OPERA","186.497","0.1103558385951583","357"
"21:45:57:575 (H:m:s:ms)","GENERIC","186.53","0.09822485191176895","486"
"21:26:15:757 (H:m:s:ms)","GENERIC","186.575","0.13164856466191524","306"
"21:45:51:515 (H:m:s:ms)","GENERIC","186.732","0.0741729502157135","550"
"21:26:12:151 (H:m:s:ms)","OPERA","155.685","0.11790124384456308","918"
"21:45:45:454 (H:m:s:ms)","GENERIC","186.541","0.08595292812816897","605"
"21:26:9:696 (H:m:s:ms)","GENERIC","186.576","0.11558522652762157","409"
"21:45:39:393 (H:m:s:ms)","GENERIC","186.898","0.0855897122570099","701"
"21:26:4:556 (H:m:s:ms)","OPERA","155.468","0.11444089222511633","515"
"21:45:33:333 (H:m:s:ms)","GENERIC","186.772","0.09831300443019597","721"
"21:12:25:454 (H:m:s:ms)","GENERIC","186.334","0.07858703912579931","610"
"21:26:3:636 (H:m:s:ms)","GENERIC","155.673","0.07429395091161886","434"
"21:45:27:272 (H:m:s:ms)","GENERIC","186.58100000000002","0.09581006454152233","784"
"21:12:31:515 (H:m:s:ms)","GENERIC","155.436","0.0957670145591322","552"
"21:25:57:575 (H:m:s:ms)","GENERIC","186.50900000000001","0.09963919691518364","567"
"21:45:21:212 (H:m:s:ms)","GENERIC","186.387","0.08587597996616868","846"
"21:12:37:575 (H:m:s:ms)","GENERIC","186.549","0.08628079536413721","493"
"21:12:43:636 (H:m:s:ms)","GENERIC","155.669","0.06123095257532747","425"
"21:12:49:696 (H:m:s:ms)","GENERIC","186.55599999999998","0.07404672226832759","409"
"21:12:55:757 (H:m:s:ms)","GENERIC","186.388","0.0836326106200079","307"
"21:13:1:818 (H:m:s:ms)","GENERIC","186.62","0.06966001928690467","245"
"21:13:7:878 (H:m:s:ms)","GENERIC","155.317","0.06868973944304028","1183"
"21:13:13:939 (H:m:s:ms)","GENERIC","186.422","0.08886721837485977","1123"
"21:13:20:0 (H:m:s:ms)","GENERIC","186.336","0.08143194551120937","1108"
"21:26:27:341 (H:m:s:ms)","OPERA","186.47899999999998","0.10159393428991832","724"
"21:27:10:303 (H:m:s:ms)","GENERIC","186.472","0.1109677690315089","763"
"21:47:28:484 (H:m:s:ms)","GENERIC","155.518","0.08608235415579643","579"
"21:27:5:316 (H:m:s:ms)","OPERA","186.42000000000002","0.12491179769238088","749"
"21:47:22:424 (H:m:s:ms)","GENERIC","155.533","0.05818438388995623","639"
"21:27:4:242 (H:m:s:ms)","GENERIC","186.84300000000002","0.10916636694250263","825"
"21:47:16:363 (H:m:s:ms)","GENERIC","155.399","0.0887959415530416","701"
"21:47:10:303 (H:m:s:ms)","GENERIC","186.567","0.0981769245476883","757"
"21:47:4:242 (H:m:s:ms)","GENERIC","186.43099999999998","0.0632572878955703","824"
"21:26:58:181 (H:m:s:ms)","GENERIC","186.646","0.15028451268440104","883"
"21:26:57:721 (H:m:s:ms)","OPERA","155.503","0.11832844076303732","342"
"21:26:52:121 (H:m:s:ms)","GENERIC","155.549","0.09444779506925917","946"
"21:46:58:181 (H:m:s:ms)","GENERIC","186.587","0.05815361915553613","882"
"21:26:50:126 (H:m:s:ms)","OPERA","186.386","0.1011333416869213","941"
"21:46:52:121 (H:m:s:ms)","GENERIC","186.532","0.07846645807162685","940"
"21:26:46:60 (H:m:s:ms)","GENERIC","186.519","0.07576398848406804","1006"
"21:46:46:60 (H:m:s:ms)","GENERIC","186.539","0.12483056698799962","1003"
"21:13:26:60 (H:m:s:ms)","GENERIC","186.398","0.06819662184764813","1003"
"21:26:42:531 (H:m:s:ms)","OPERA","186.531","0.08931513345896512","533"
"21:46:40:0 (H:m:s:ms)","GENERIC","186.455","0.0875651348759467","1098"
"21:13:32:121 (H:m:s:ms)","GENERIC","186.648","0.053290617041637435","948"
"21:26:40:0 (H:m:s:ms)","GENERIC","155.599","0.10675414903678876","1105"
"21:46:33:939 (H:m:s:ms)","GENERIC","186.643","0.09289865419226617","1122"
"21:13:38:181 (H:m:s:ms)","GENERIC","186.417","0.0809735412950001","879"
"21:26:34:936 (H:m:s:ms)","OPERA","186.625","0.1322517094699294","1195"
"21:46:27:878 (H:m:s:ms)","GENERIC","186.567","0.06492127260818352","1181"
"21:13:44:242 (H:m:s:ms)","GENERIC","186.446","0.08343747207437542","824"
"21:13:50:303 (H:m:s:ms)","GENERIC","186.635","0.08667420499847789","760"
"21:13:56:363 (H:m:s:ms)","GENERIC","186.594","0.10298604521162924","701"
"21:14:2:424 (H:m:s:ms)","GENERIC","186.33","0.05974108904440899","644"
"21:14:8:484 (H:m:s:ms)","GENERIC","155.749","0.10369547912777752","580"
"21:14:14:545 (H:m:s:ms)","GENERIC","186.662","0.07709491746090943","514"
"21:14:20:606 (H:m:s:ms)","GENERIC","186.292","0.09221256850810683","461"
"21:27:46:666 (H:m:s:ms)","GENERIC","186.486","0.0813043911091927","399"
"21:48:35:151 (H:m:s:ms)","GENERIC","186.55599999999998","0.08818062903802679","911"
"21:27:43:291 (H:m:s:ms)","OPERA","186.488","0.1402044534423535","777"
"21:48:29:90 (H:m:s:ms)","GENERIC","186.539","0.04632791116620698","1008"
"21:27:40:606 (H:m:s:ms)","GENERIC","186.636","0.13870202748074054","458"
"21:48:23:30 (H:m:s:ms)","GENERIC","155.413","0.06524340546142696","1028"
"21:27:35:696 (H:m:s:ms)","OPERA","155.453","0.08072821329523769","371"
"21:48:16:969 (H:m:s:ms)","GENERIC","186.9","0.0876183328038672","1096"
"21:48:10:909 (H:m:s:ms)","GENERIC","155.521","0.10762028453547173","1158"
"21:48:4:848 (H:m:s:ms)","GENERIC","186.524","0.06439064355162867","214"
"21:27:34:545 (H:m:s:ms)","GENERIC","186.66899999999998","0.057490745532270154","522"
"21:27:28:484 (H:m:s:ms)","GENERIC","155.507","0.11925101833931118","644"
"21:27:28:101 (H:m:s:ms)","OPERA","186.483","0.07061879109568828","965"
"21:47:58:787 (H:m:s:ms)","GENERIC","155.711","0.08043043596444793","277"
"21:14:26:666 (H:m:s:ms)","GENERIC","186.562","0.09566808109119683","398"
"21:27:22:424 (H:m:s:ms)","GENERIC","186.554","0.12190307744229285","638"
"21:47:52:727 (H:m:s:ms)","GENERIC","186.297","0.07420499295754787","336"
"21:14:32:727 (H:m:s:ms)","GENERIC","186.601","0.058539794191237005","337"
"21:27:20:506 (H:m:s:ms)","OPERA","155.52100000000002","0.10335533523557097","562"
"21:47:46:666 (H:m:s:ms)","GENERIC","186.625","0.08914453002987477","392"
"20:52:25:454 (H:m:s:ms)","GENERIC","155.462","0.09631758201415169","606"
"21:14:38:787 (H:m:s:ms)","GENERIC","186.459","0.08669335778092105","279"
"21:27:16:363 (H:m:s:ms)","GENERIC","155.594","0.08609749746648289","701"
"21:47:40:606 (H:m:s:ms)","GENERIC","186.589","0.05382831577062389","454"
"20:52:31:515 (H:m:s:ms)","GENERIC","186.591","0.03927315354852324","551"
"21:14:44:848 (H:m:s:ms)","GENERIC","155.446","0.06001422546438092","217"
"21:27:12:911 (H:m:s:ms)","OPERA","186.483","0.09616948411600881","1158"
"21:47:34:545 (H:m:s:ms)","GENERIC","155.4","0.06745024879469971","517"
"20:52:37:575 (H:m:s:ms)","GENERIC","155.551","0.05271279750666217","491"
"21:14:50:909 (H:m:s:ms)","GENERIC","155.404","0.06870977419046237","1158"
"20:52:43:636 (H:m:s:ms)","GENERIC","155.503","0.07374829843405449","425"
"21:14:56:969 (H:m:s:ms)","GENERIC","186.409","0.052669248387782884","1096"
"20:52:49:696 (H:m:s:ms)","GENERIC","155.566","0.09513292732105959","407"
"21:15:3:30 (H:m:s:ms)","GENERIC","155.647","0.08773714518464609","1031"
"20:52:55:757 (H:m:s:ms)","GENERIC","186.6","0.09579317934840345","304"
"21:15:9:90 (H:m:s:ms)","GENERIC","186.49099999999999","0.06997554102114402","1017"
"20:53:1:818 (H:m:s:ms)","GENERIC","186.614","0.07640392693261601","241"
"21:15:15:151 (H:m:s:ms)","GENERIC","186.781","0.06330534426489884","912"
"20:53:7:878 (H:m:s:ms)","GENERIC","186.551","0.05679302338534317","1182"
"21:15:21:212 (H:m:s:ms)","GENERIC","186.377","0.07591627965240072","849"
"20:53:13:939 (H:m:s:ms)","GENERIC","186.745","0.05488505560551361","1121"
"20:53:20:0 (H:m:s:ms)","GENERIC","155.53199999999998","0.09431092717918405","1106"
"21:28:23:30 (H:m:s:ms)","GENERIC","186.326","0.1096004003130043","1030"
"21:49:41:818 (H:m:s:ms)","GENERIC","186.46","0.07828115113218874","243"
"21:28:21:265 (H:m:s:ms)","OPERA","186.448","0.12125680446986506","798"
"21:49:35:757 (H:m:s:ms)","GENERIC","186.453","0.09245173264184094","300"
"21:28:16:969 (H:m:s:ms)","GENERIC","186.608","0.12759638853609181","1092"
"21:49:29:696 (H:m:s:ms)","GENERIC","155.642","0.058301356866606494","401"
"21:28:13:670 (H:m:s:ms)","OPERA","186.496","0.1308349212922739","398"
"21:49:23:636 (H:m:s:ms)","GENERIC","186.585","0.05984952157456628","425"
"21:28:10:909 (H:m:s:ms)","GENERIC","186.602","0.1311704201232209","1156"
"21:49:17:575 (H:m:s:ms)","GENERIC","186.335","0.07264128720978114","487"
"21:49:11:515 (H:m:s:ms)","GENERIC","186.539","0.08902017751007173","547"
"21:49:5:454 (H:m:s:ms)","GENERIC","186.50900000000001","0.08720864134106782","599"
"21:28:6:75 (H:m:s:ms)","OPERA","186.514","0.13126045717798274","989"
"21:15:27:272 (H:m:s:ms)","GENERIC","186.494","0.09170503975832056","791"
"21:28:4:848 (H:m:s:ms)","GENERIC","186.389","0.10302020606674529","213"
"21:15:33:333 (H:m:s:ms)","GENERIC","186.523","0.08596571216238574","733"
"21:27:58:787 (H:m:s:ms)","GENERIC","186.503","0.08831548980328877","340"
"21:48:59:393 (H:m:s:ms)","GENERIC","186.49699999999999","0.0864309439155029","701"
"20:53:26:60 (H:m:s:ms)","GENERIC","186.558","0.0703112195877482","1000"
"21:15:39:393 (H:m:s:ms)","GENERIC","186.586","0.08476464434945817","708"
"21:27:58:481 (H:m:s:ms)","OPERA","186.507","0.06090952324979473","584"
"21:48:53:333 (H:m:s:ms)","GENERIC","186.96","0.08641680283377692","728"
"20:53:32:121 (H:m:s:ms)","GENERIC","186.688","0.06199580778287704","941"
"21:15:45:454 (H:m:s:ms)","GENERIC","186.534","0.059510074343641826","610"
"21:27:52:727 (H:m:s:ms)","GENERIC","186.571","0.09953698344006823","338"
"21:48:47:272 (H:m:s:ms)","GENERIC","186.394","0.09201873933248914","789"
"20:53:38:181 (H:m:s:ms)","GENERIC","155.51600000000002","0.10905837899900556","885"
"21:15:51:515 (H:m:s:ms)","GENERIC","155.776","0.11723440887611346","550"
"21:27:50:886 (H:m:s:ms)","OPERA","186.51600000000002","0.08065861465851604","1178"
"21:48:41:212 (H:m:s:ms)","GENERIC","155.52800000000002","0.07331388316264227","851"
"20:53:44:242 (H:m:s:ms)","GENERIC","186.516","0.08772676707791423","820"
"21:15:57:575 (H:m:s:ms)","GENERIC","186.254","0.05563444859068043","486"
"20:53:50:303 (H:m:s:ms)","GENERIC","186.48000000000002","0.08910235757431542","757"
"21:16:3:636 (H:m:s:ms)","GENERIC","186.738","0.07612819837371909","428"
"20:53:56:363 (H:m:s:ms)","GENERIC","186.45999999999998","0.09007954865005705","696"
"21:16:9:696 (H:m:s:ms)","GENERIC","186.518","0.03390117219291158","409"
"20:54:2:424 (H:m:s:ms)","GENERIC","186.593","0.06470236127091816","641"
"21:16:15:757 (H:m:s:ms)","GENERIC","186.418","0.10297982355185567","305"
"20:54:8:484 (H:m:s:ms)","GENERIC","186.621","0.09017383833921551","578"
"21:16:21:818 (H:m:s:ms)","GENERIC","186.321","0.0676628037276389","244"
"20:54:14:545 (H:m:s:ms)","GENERIC","186.471","0.07361014778142633","516"
"20:54:20:606 (H:m:s:ms)","GENERIC","186.503","0.04486364449856495","459"
"21:28:59:393 (H:m:s:ms)","GENERIC","155.66899999999998","0.09590357634660662","774"
"21:28:59:240 (H:m:s:ms)","OPERA","186.589","0.06169594130265198","860"
"21:28:53:333 (H:m:s:ms)","GENERIC","186.50900000000001","0.07206959744676247","732"
"21:28:51:645 (H:m:s:ms)","OPERA","186.592","0.0745707927656481","423"
"21:28:47:272 (H:m:s:ms)","GENERIC","186.49599999999998","0.09547087742406767","788"
"22:7:22:105 (H:m:s:ms)","AMBULANCE","186.68099999999998","0.0758202886529337","951"
"21:28:44:50 (H:m:s:ms)","OPERA","186.512","0.10680860693853998","1013"
"22:5:47:368 (H:m:s:ms)","AMBULANCE","186.589","0.10597164533417848","689"
"22:3:9:473 (H:m:s:ms)","AMBULANCE","155.746","0.10552739225032699","595"
"22:1:34:736 (H:m:s:ms)","AMBULANCE","186.75900000000001","0.05005179445989012","329"
"21:16:27:878 (H:m:s:ms)","GENERIC","155.515","0.05331233209236561","1183"
"21:16:33:939 (H:m:s:ms)","GENERIC","186.491","0.05219019334645201","1127"
"21:28:41:212 (H:m:s:ms)","GENERIC","186.629","0.1148361632071331","852"
"20:54:26:666 (H:m:s:ms)","GENERIC","186.475","0.09378586681904597","394"
"21:16:40:0 (H:m:s:ms)","GENERIC","186.72","0.08235096118327948","1100"
"21:28:36:455 (H:m:s:ms)","OPERA","186.461","0.1062354941600739","608"
"20:54:32:727 (H:m:s:ms)","GENERIC","186.514","0.07331711873113976","336"
"21:16:46:60 (H:m:s:ms)","GENERIC","186.637","0.08629922391682368","1005"
"21:28:35:151 (H:m:s:ms)","GENERIC","155.61599999999999","0.06556089113861543","915"
"21:50:0:0 (H:m:s:ms)","GENERIC","186.536","0.1071319097660924","1097"
"20:54:38:787 (H:m:s:ms)","GENERIC","186.872","0.06924710920801391","278"
"21:16:52:121 (H:m:s:ms)","GENERIC","186.313","0.1055731966308782","942"
"21:28:29:90 (H:m:s:ms)","GENERIC","155.565","0.1549219867854071","1008"
"21:49:53:939 (H:m:s:ms)","GENERIC","186.424","0.09990519655482416","1116"
"20:54:44:848 (H:m:s:ms)","GENERIC","186.424","0.08635504713882997","218"
"21:16:58:181 (H:m:s:ms)","GENERIC","186.382","0.052398701135080814","883"
"21:28:28:860 (H:m:s:ms)","OPERA","186.378","0.14008715362096272","199"
"21:49:47:878 (H:m:s:ms)","GENERIC","155.387","0.062216274803491164","1179"
"20:54:50:909 (H:m:s:ms)","GENERIC","155.386","0.08619589318746897","1158"
"21:17:4:242 (H:m:s:ms)","GENERIC","186.6","0.05068301645990214","823"
"20:54:56:969 (H:m:s:ms)","GENERIC","186.615","0.10284965193054113","1095"
"21:17:10:303 (H:m:s:ms)","GENERIC","155.233","0.076487366784879","760"
"20:55:3:30 (H:m:s:ms)","GENERIC","186.344","0.07076652564220182","1032"
"21:17:16:363 (H:m:s:ms)","GENERIC","186.579","0.10121005609465607","698"
"20:55:9:90 (H:m:s:ms)","GENERIC","186.375","0.05402001591857596","1017"
"21:17:22:424 (H:m:s:ms)","GENERIC","186.577","0.08239867963148038","643"
"20:55:15:151 (H:m:s:ms)","GENERIC","186.46099999999998","0.048143773273141774","916"
"20:55:21:212 (H:m:s:ms)","GENERIC","186.481","0.09076165246230711","852"
"21:29:41:818 (H:m:s:ms)","GENERIC","186.631","0.13791208330454263","254"
"21:29:37:215 (H:m:s:ms)","OPERA","186.417","0.1301443745177062","851"
"21:29:35:757 (H:m:s:ms)","GENERIC","186.551","0.08326122501930748","309"
"21:29:29:696 (H:m:s:ms)","GENERIC","186.561","0.05180596884928371","412"
"21:29:23:636 (H:m:s:ms)","GENERIC","155.802","0.13300094644072358","430"
"21:29:22:25 (H:m:s:ms)","OPERA","186.374","0.12142417180138164","1037"
"21:29:17:575 (H:m:s:ms)","GENERIC","186.531","0.10262643604990278","486"
"21:17:28:484 (H:m:s:ms)","GENERIC","186.53","0.05166140524014316","580"
"21:17:34:545 (H:m:s:ms)","GENERIC","186.344","0.10173035887344535","518"
"20:55:27:272 (H:m:s:ms)","GENERIC","155.541","0.059260811037357954","793"
"21:17:40:606 (H:m:s:ms)","GENERIC","186.512","0.05626976546094998","459"
"20:55:33:333 (H:m:s:ms)","GENERIC","186.523","0.08669921748866366","731"
"21:17:46:666 (H:m:s:ms)","GENERIC","186.576","0.1038905133304772","394"
"21:29:14:430 (H:m:s:ms)","OPERA","155.40200000000002","0.1073890561588841","639"
"20:55:39:393 (H:m:s:ms)","GENERIC","155.548","0.10274898040850505","714"
"21:17:52:727 (H:m:s:ms)","GENERIC","186.518","0.046763987490717265","336"
"21:29:11:515 (H:m:s:ms)","GENERIC","186.409","0.12149177833599073","550"
"20:55:45:454 (H:m:s:ms)","GENERIC","186.481","0.08022599104330956","612"
"21:17:58:787 (H:m:s:ms)","GENERIC","155.668","0.03567572893073311","280"
"21:29:6:835 (H:m:s:ms)","OPERA","155.434","0.10957772820150828","224"
"20:55:51:515 (H:m:s:ms)","GENERIC","186.54500000000002","0.05619555614209106","551"
"21:18:4:848 (H:m:s:ms)","GENERIC","186.487","0.08704003434190938","214"
"21:29:5:454 (H:m:s:ms)","GENERIC","155.385","0.06225593822660463","611"
"20:55:57:575 (H:m:s:ms)","GENERIC","186.327","0.07484184266586286","490"
"21:18:10:909 (H:m:s:ms)","GENERIC","186.684","0.0771006355182872","1156"
"20:56:3:636 (H:m:s:ms)","GENERIC","155.64100000000002","0.08690306240477133","429"
"21:18:16:969 (H:m:s:ms)","GENERIC","155.689","0.060846647126994","1097"
"20:56:9:696 (H:m:s:ms)","GENERIC","186.482","0.06207712611415026","411"
"21:18:23:30 (H:m:s:ms)","GENERIC","155.629","0.05905641491935141","1036"
"20:56:15:757 (H:m:s:ms)","GENERIC","155.415","0.0953551184001081","306"
"20:56:21:818 (H:m:s:ms)","GENERIC","155.393","0.06345225066248268","247"
"21:30:30:303 (H:m:s:ms)","GENERIC","155.45100000000002","0.07791300016839964","768"
"21:30:24:242 (H:m:s:ms)","GENERIC","155.732","0.0939095665499122","823"
"21:30:18:181 (H:m:s:ms)","GENERIC","155.43599999999998","0.07164826490384676","886"
"21:30:12:121 (H:m:s:ms)","GENERIC","186.607","0.08696899575001632","944"
"21:30:6:60 (H:m:s:ms)","GENERIC","155.579","0.09780738156590392","1013"
"21:30:0:0 (H:m:s:ms)","GENERIC","186.44799999999998","0.05184824702965426","1110"
"21:30:0:0 (H:m:s:ms)","GENERIC","186.321","0.12088483063189484","1242"
"21:30:0:0 (H:m:s:ms)","OPERA","186.33499999999998","0.09200958200078439","1179"
"21:18:29:90 (H:m:s:ms)","GENERIC","155.599","0.09852791814051735","1010"
"21:18:35:151 (H:m:s:ms)","GENERIC","186.70999999999998","0.0807628116544342","912"
"20:56:27:878 (H:m:s:ms)","GENERIC","186.677","0.0729995120196208","1186"
"21:18:41:212 (H:m:s:ms)","GENERIC","186.78300000000002","0.08951554912167034","852"
"20:56:33:939 (H:m:s:ms)","GENERIC","186.335","0.08155569659009677","1126"
"21:18:47:272 (H:m:s:ms)","GENERIC","186.612","0.08032719975120839","795"
"20:40:0:0 (H:m:s:ms)","OPERA","155.231","0.06930834813164469","1176"
"20:56:40:0 (H:m:s:ms)","GENERIC","186.542","0.0960094094337145","1111"
"21:18:53:333 (H:m:s:ms)","GENERIC","186.448","0.07900249759847969","732"
"20:40:0:0 (H:m:s:ms)","GENERIC","186.394","0.09773538469153316","1237"
"20:56:46:60 (H:m:s:ms)","GENERIC","186.623","0.11380901614054267","1004"
"21:18:59:393 (H:m:s:ms)","GENERIC","186.635","0.03708589723241018","712"
"21:29:53:939 (H:m:s:ms)","GENERIC","186.42399999999998","0.10750615703332778","1127"
"20:40:0:0 (H:m:s:ms)","GENERIC","155.52","0.11360615973989466","1301"
"20:56:52:121 (H:m:s:ms)","GENERIC","186.53900000000002","0.08628013631020982","946"
"21:19:5:454 (H:m:s:ms)","GENERIC","155.594","0.0805379156969829","612"
"21:29:52:405 (H:m:s:ms)","OPERA","186.385","0.1409727731442077","659"
"20:40:6:60 (H:m:s:ms)","GENERIC","155.488","0.0760008464579388","1006"
"20:56:58:181 (H:m:s:ms)","GENERIC","186.563","0.08276384348290819","888"
"21:19:11:515 (H:m:s:ms)","GENERIC","155.52","0.07000397400879395","552"
"21:29:47:878 (H:m:s:ms)","GENERIC","186.596","0.10390178135385411","1188"
"20:40:12:121 (H:m:s:ms)","GENERIC","186.37900000000002","0.05772049497320402","940"
"20:57:4:242 (H:m:s:ms)","GENERIC","186.462","0.09901040038700383","821"
"21:19:17:575 (H:m:s:ms)","GENERIC","186.51999999999998","0.06962791782337147","490"
"20:40:15:189 (H:m:s:ms)","OPERA","155.674","0.08186173852681727","874"
"20:57:10:303 (H:m:s:ms)","GENERIC","155.483","0.11509075112964504","763"
"21:19:23:636 (H:m:s:ms)","GENERIC","186.624","0.0586733216390517","429"
"20:40:18:181 (H:m:s:ms)","GENERIC","186.625","0.10639580518210519","882"
"20:57:16:363 (H:m:s:ms)","GENERIC","186.694","0.08210915361156473","702"
"20:40:22:784 (H:m:s:ms)","OPERA","124.245","0.10104515437362921","281"
"20:57:22:424 (H:m:s:ms)","GENERIC","155.56400000000002","0.04384348767728423","643"
"20:40:24:242 (H:m:s:ms)","GENERIC","186.488","0.07167306442870813","825"
"20:40:30:303 (H:m:s:ms)","GENERIC","186.334","0.06637181499356992","761"
"21:30:42:424 (H:m:s:ms)","GENERIC","186.434","0.06060640696436533","640"
"21:31:30:909 (H:m:s:ms)","GENERIC","186.375","0.08511073271597361","1159"
"21:31:24:848 (H:m:s:ms)","GENERIC","186.473","0.05940198732557278","222"
"21:31:18:787 (H:m:s:ms)","GENERIC","186.341","0.1108349857054434","275"
"21:31:12:727 (H:m:s:ms)","GENERIC","186.64100000000002","0.050571756069065825","344"
"21:31:6:666 (H:m:s:ms)","GENERIC","186.464","0.056831588884410415","405"
"21:31:0:606 (H:m:s:ms)","GENERIC","155.69","0.048958802521276115","465"
"21:30:54:545 (H:m:s:ms)","GENERIC","186.601","0.10284604186262679","522"
"21:19:29:696 (H:m:s:ms)","GENERIC","186.638","0.08263931766660639","407"
"21:30:48:484 (H:m:s:ms)","GENERIC","155.578","0.07634904666160072","580"
"21:19:35:757 (H:m:s:ms)","GENERIC","155.69400000000002","0.10588179044780956","307"
"20:57:28:484 (H:m:s:ms)","GENERIC","186.346","0.10022161819117824","580"
"21:19:41:818 (H:m:s:ms)","GENERIC","124.30199999999999","0.09240046964283395","243"
"20:57:34:545 (H:m:s:ms)","GENERIC","186.371","0.05370783805968153","523"
"21:19:47:878 (H:m:s:ms)","GENERIC","186.405","0.0888473138833462","1187"
"20:40:30:379 (H:m:s:ms)","OPERA","155.289","0.09348843076298541","745"
"20:57:40:606 (H:m:s:ms)","GENERIC","186.60999999999999","0.05473108359931544","460"
"21:19:53:939 (H:m:s:ms)","GENERIC","186.554","0.1050172049447061","1124"
"20:40:36:363 (H:m:s:ms)","GENERIC","186.244","0.0603200795785402","699"
"20:57:46:666 (H:m:s:ms)","GENERIC","186.485","0.07866007414664941","406"
"21:20:0:0 (H:m:s:ms)","OPERA","155.607","0.12046197365833458","1330"
"20:40:37:974 (H:m:s:ms)","OPERA","155.362","0.09506375734311229","1089"
"20:57:52:727 (H:m:s:ms)","GENERIC","186.394","0.0979118173766751","351"
"21:20:0:0 (H:m:s:ms)","GENERIC","186.459","0.06334149890243329","1187"
"20:40:42:424 (H:m:s:ms)","GENERIC","186.398","0.10172801498934672","643"
"20:57:58:787 (H:m:s:ms)","GENERIC","186.523","0.0489753786192071","286"
"21:20:0:0 (H:m:s:ms)","GENERIC","155.626","0.08936486003009912","1260"
"21:30:36:363 (H:m:s:ms)","GENERIC","186.502","0.0681561118585094","707"
"20:40:45:569 (H:m:s:ms)","OPERA","155.365","0.128383784317415","488"
"20:58:4:848 (H:m:s:ms)","GENERIC","155.646","0.05191876655525789","224"
"21:20:6:60 (H:m:s:ms)","GENERIC","186.505","0.060837275632726125","1011"
"21:30:31:578 (H:m:s:ms)","AMBULANCE","186.44899999999998","0.09359251228240094","489"
"20:40:48:484 (H:m:s:ms)","GENERIC","186.73000000000002","0.13886116162910478","575"
"20:58:10:909 (H:m:s:ms)","GENERIC","186.469","0.04305821878014518","1162"
"21:20:12:121 (H:m:s:ms)","GENERIC","155.62800000000001","0.07010194287239331","946"
"20:40:53:164 (H:m:s:ms)","OPERA","124.557","0.1504188658354974","898"
"20:58:16:969 (H:m:s:ms)","GENERIC","186.552","0.10076861660737114","1098"
"20:40:54:545 (H:m:s:ms)","GENERIC","155.528","0.13754364925358625","519"
"20:58:23:30 (H:m:s:ms)","GENERIC","186.394","0.07430804286624584","1034"
"20:41:0:606 (H:m:s:ms)","GENERIC","186.621","0.10852351356971555","453"
"20:41:0:759 (H:m:s:ms)","OPERA","155.358","0.13073373405859987","358"
"21:31:43:30 (H:m:s:ms)","GENERIC","186.498","0.08534575742728057","1035"
"21:31:36:969 (H:m:s:ms)","GENERIC","155.528","0.10630162678231454","1095"
"21:32:25:454 (H:m:s:ms)","GENERIC","186.486","0.08863248338410723","614"
"21:32:19:393 (H:m:s:ms)","GENERIC","186.602","0.0848415736065508","716"
"21:32:13:333 (H:m:s:ms)","GENERIC","155.52800000000002","0.09525350733272603","735"
"21:32:7:272 (H:m:s:ms)","GENERIC","186.452","0.10459898471536745","799"
"21:32:6:315 (H:m:s:ms)","AMBULANCE","187.12199999999999","0.13627758347906538","746"
"21:32:1:212 (H:m:s:ms)","GENERIC","186.682","0.099371263055411","852"
"21:31:55:151 (H:m:s:ms)","GENERIC","186.37900000000002","0.07529131688242627","920"
"21:31:49:90 (H:m:s:ms)","GENERIC","186.54500000000002","0.047082200966066516","1018"
"20:58:29:90 (H:m:s:ms)","GENERIC","186.588","0.07728159094204545","1021"
"20:58:35:151 (H:m:s:ms)","GENERIC","186.486","0.06043913051544587","912"
"20:41:6:666 (H:m:s:ms)","GENERIC","186.34300000000002","0.09393883355884895","392"
"20:58:41:212 (H:m:s:ms)","GENERIC","186.526","0.08695748521133423","851"
"20:41:8:354 (H:m:s:ms)","OPERA","124.516","0.1313495692920607","704"
"20:58:47:272 (H:m:s:ms)","GENERIC","186.54500000000002","0.09611698273304423","793"
"20:41:12:727 (H:m:s:ms)","GENERIC","155.799","0.13038072503391354","332"
"20:58:53:333 (H:m:s:ms)","GENERIC","186.518","0.09097153113595469","734"
"20:41:15:949 (H:m:s:ms)","OPERA","155.573","0.11377465512639443","1110"
"20:58:59:393 (H:m:s:ms)","GENERIC","187.127","0.065497139386078","719"
"20:41:18:787 (H:m:s:ms)","GENERIC","155.49099999999999","0.09235966744695359","278"
"20:59:5:454 (H:m:s:ms)","GENERIC","186.599","0.04980500052978976","613"
"20:41:23:544 (H:m:s:ms)","OPERA","155.486","0.11319838862289014","517"
"20:59:11:515 (H:m:s:ms)","GENERIC","186.482","0.083922403940194","547"
"21:31:34:736 (H:m:s:ms)","AMBULANCE","155.636","0.11275349102563682","331"
"20:41:24:848 (H:m:s:ms)","GENERIC","186.589","0.1156709023708503","212"
"20:59:17:575 (H:m:s:ms)","GENERIC","186.432","0.0643740806773571","487"
"20:41:30:909 (H:m:s:ms)","GENERIC","186.586","0.08918346769825528","1149"
"20:59:23:636 (H:m:s:ms)","GENERIC","186.46800000000002","0.09574857435041696","428"
"20:41:31:139 (H:m:s:ms)","OPERA","124.639","0.13053696421047048","983"
"20:41:36:969 (H:m:s:ms)","GENERIC","186.923","0.06834709906993845","1091"
"20:59:29:696 (H:m:s:ms)","GENERIC","155.34699999999998","0.10391225700655811","409"
"20:59:35:757 (H:m:s:ms)","GENERIC","186.579","0.08815743066267334","310"
"20:41:38:734 (H:m:s:ms)","OPERA","155.337","0.09801078421415536","329"
"20:59:41:818 (H:m:s:ms)","GENERIC","155.564","0.07985027610625342","246"
"20:41:43:30 (H:m:s:ms)","GENERIC","155.372","0.10101471159255893","1033"
"20:59:47:878 (H:m:s:ms)","GENERIC","186.386","0.06272650976225726","1184"
"20:41:46:329 (H:m:s:ms)","OPERA","124.711","0.09212605955128109","731"
"20:59:53:939 (H:m:s:ms)","GENERIC","186.631","0.08294904779763461","1127"
"20:41:49:90 (H:m:s:ms)","GENERIC","186.65699999999998","0.10582053954320211","1006"
"21:0:0:0 (H:m:s:ms)","AMBULANCE","155.261","0.07293271773403918","1192"
"20:41:53:924 (H:m:s:ms)","OPERA","155.404","0.10135113304018326","1137"
"21:0:0:0 (H:m:s:ms)","GENERIC","186.54399999999998","0.12450574826241746","1262"
"20:41:55:151 (H:m:s:ms)","GENERIC","186.373","0.09704669137207518","911"
"21:0:0:0 (H:m:s:ms)","GENERIC","155.70499999999998","0.16224647300833486","1325"
"20:42:1:212 (H:m:s:ms)","GENERIC","186.43200000000002","0.09315830191789293","849"
"21:0:6:60 (H:m:s:ms)","GENERIC","186.563","0.07377908144235258","1009"
"20:42:1:518 (H:m:s:ms)","OPERA","124.48100000000001","0.10477955441428918","604"
"21:0:12:121 (H:m:s:ms)","GENERIC","186.76","0.07803395486065917","956"
"20:42:7:272 (H:m:s:ms)","GENERIC","186.5","0.09290650682909887","790"
"20:42:13:333 (H:m:s:ms)","GENERIC","155.461","0.08045784107428354","726"
"21:0:18:181 (H:m:s:ms)","GENERIC","155.541","0.08956041748150978","893"
"21:0:24:242 (H:m:s:ms)","GENERIC","155.651","0.09744703073727987","833"
"20:42:16:708 (H:m:s:ms)","OPERA","124.461","0.10875001927346671","353"
"21:0:30:303 (H:m:s:ms)","GENERIC","186.52100000000002","0.11362648839779203","770"
"20:42:19:393 (H:m:s:ms)","GENERIC","155.57","0.1010979335924259","704"
"21:0:31:578 (H:m:s:ms)","AMBULANCE","155.501","0.14107075084583867","489"
"20:20:0:0 (H:m:s:ms)","GENERIC","186.735","0.07010507467798002","1181"
"20:42:24:303 (H:m:s:ms)","OPERA","124.65100000000001","0.11748711372420267","756"
"21:0:36:363 (H:m:s:ms)","GENERIC","186.344","0.1123317813853758","703"
"20:20:0:0 (H:m:s:ms)","GENERIC","186.577","0.10022199008556992","1241"
"20:42:25:454 (H:m:s:ms)","GENERIC","186.691","0.13832370381259634","602"
"21:0:42:424 (H:m:s:ms)","GENERIC","155.531","0.10307986032424095","645"
"20:20:6:60 (H:m:s:ms)","GENERIC","186.363","0.11680638682391935","994"
"20:42:31:515 (H:m:s:ms)","GENERIC","186.813","0.05380731383925473","549"
"21:0:48:484 (H:m:s:ms)","GENERIC","155.378","0.10105771675378128","581"
"20:20:12:121 (H:m:s:ms)","GENERIC","186.688","0.07270670602159475","939"
"20:42:31:898 (H:m:s:ms)","OPERA","155.481","0.08409880966377259","231"
"21:0:54:545 (H:m:s:ms)","GENERIC","186.639","0.06763479196244251","530"
"20:20:18:181 (H:m:s:ms)","GENERIC","155.369","0.0730315193765137","874"
"20:42:37:575 (H:m:s:ms)","GENERIC","186.359","0.0575549262014507","486"
"21:1:0:606 (H:m:s:ms)","GENERIC","186.479","0.10076597781516883","468"
"20:20:24:242 (H:m:s:ms)","GENERIC","186.585","0.07947006313972205","819"
"20:42:39:493 (H:m:s:ms)","OPERA","124.474","0.09769268834250162","600"
"21:1:3:157 (H:m:s:ms)","AMBULANCE","155.46699999999998","0.12685222073239513","909"
"20:20:30:303 (H:m:s:ms)","GENERIC","186.55","0.06062771035284747","760"
"20:42:43:636 (H:m:s:ms)","GENERIC","155.766","0.11479786676082569","421"
"20:20:36:363 (H:m:s:ms)","GENERIC","186.451","0.08895979910218307","699"
"20:42:47:88 (H:m:s:ms)","OPERA","124.48","0.13330985495702427","970"
"20:20:42:424 (H:m:s:ms)","GENERIC","186.312","0.07999103981569886","635"
"20:20:48:484 (H:m:s:ms)","GENERIC","186.404","0.06951030029928101","573"
"21:1:6:666 (H:m:s:ms)","GENERIC","186.609","0.12421670948081522","399"
"21:1:12:727 (H:m:s:ms)","GENERIC","186.503","0.0686983049201771","339"
"20:42:49:696 (H:m:s:ms)","GENERIC","155.31400000000002","0.13287675632408197","399"
"21:1:18:787 (H:m:s:ms)","GENERIC","186.45","0.08727138613399146","279"
"20:42:54:683 (H:m:s:ms)","OPERA","155.225","0.11568120497261498","374"
"21:1:24:848 (H:m:s:ms)","GENERIC","155.772","0.08006252596350817","219"
"20:20:54:545 (H:m:s:ms)","GENERIC","186.489","0.06019105294661668","518"
"20:42:55:757 (H:m:s:ms)","GENERIC","155.304","0.12380869677994868","301"
"21:1:30:909 (H:m:s:ms)","GENERIC","186.661","0.08006695997585507","1156"
"20:21:0:606 (H:m:s:ms)","GENERIC","155.68099999999998","0.08785098843272064","459"
"20:43:1:818 (H:m:s:ms)","GENERIC","186.642","0.06174206710146537","243"
"21:1:34:736 (H:m:s:ms)","AMBULANCE","155.478","0.11163785177099289","330"
"20:21:6:666 (H:m:s:ms)","GENERIC","186.512","0.07520089395466556","394"
"20:43:2:278 (H:m:s:ms)","OPERA","124.644","0.09938996004698263","783"
"21:1:36:969 (H:m:s:ms)","GENERIC","186.385","0.08825850401399257","1099"
"20:21:12:727 (H:m:s:ms)","GENERIC","155.739","0.0942482483513957","328"
"20:43:7:878 (H:m:s:ms)","GENERIC","186.403","0.0771877703534975","1185"
"21:1:43:30 (H:m:s:ms)","GENERIC","155.593","0.05354445112872049","1037"
"20:21:18:787 (H:m:s:ms)","GENERIC","155.546","0.06505626888697873","269"
"20:43:9:873 (H:m:s:ms)","OPERA","155.426","0.13573356310872903","218"
"21:1:49:90 (H:m:s:ms)","GENERIC","186.271","0.06727297216850378","1020"
"20:21:24:848 (H:m:s:ms)","GENERIC","186.381","0.05950820494540162","218"
"20:43:13:939 (H:m:s:ms)","GENERIC","186.52800000000002","0.1390629897943707","1121"
"21:1:55:151 (H:m:s:ms)","GENERIC","186.416","0.06958106950676834","917"
"20:21:30:909 (H:m:s:ms)","GENERIC","186.493","0.07746152105933922","1152"
"20:43:17:468 (H:m:s:ms)","OPERA","155.59699999999998","0.10314373325965345","592"
"20:21:36:969 (H:m:s:ms)","GENERIC","186.638","0.08495792816139179","1092"
"20:43:20:0 (H:m:s:ms)","GENERIC","186.57","0.08545503222238866","1098"
"20:21:43:30 (H:m:s:ms)","GENERIC","186.543","0.09348093822852063","1027"
"20:21:49:90 (H:m:s:ms)","GENERIC","155.52","0.0755847841181608","1008"
"20:43:25:63 (H:m:s:ms)","OPERA","124.286","0.12231082747700722","996"
"20:43:26:60 (H:m:s:ms)","GENERIC","186.467","0.11253579896204637","1003"
"20:21:55:151 (H:m:s:ms)","GENERIC","186.639","0.07978192102081728","906"
"20:43:32:121 (H:m:s:ms)","GENERIC","186.597","0.10409605658413694","939"
"20:22:1:212 (H:m:s:ms)","GENERIC","155.827","0.05220411696306553","849"
"20:43:38:181 (H:m:s:ms)","GENERIC","155.656","0.08894608474981446","880"
"20:22:7:272 (H:m:s:ms)","GENERIC","155.423","0.06992659985869126","785"
"20:43:40:253 (H:m:s:ms)","OPERA","155.312","0.12336529083838867","803"
"20:22:13:333 (H:m:s:ms)","GENERIC","155.475","0.09735708339515572","724"
"20:43:44:242 (H:m:s:ms)","GENERIC","186.53300000000002","0.113448840388548","820"
"20:22:19:393 (H:m:s:ms)","GENERIC","186.548","0.0600962581414496","703"
"20:43:47:848 (H:m:s:ms)","OPERA","124.566","0.0973241853971874","212"
"20:22:25:454 (H:m:s:ms)","GENERIC","155.561","0.08140128186564634","600"
"20:43:50:303 (H:m:s:ms)","GENERIC","186.487","0.10282070479569687","754"
"20:22:31:515 (H:m:s:ms)","GENERIC","186.37800000000001","0.11723240847157383","542"
"20:43:55:443 (H:m:s:ms)","OPERA","155.375","0.12028519659823614","614"
"20:22:37:575 (H:m:s:ms)","GENERIC","186.571","0.09333352812605451","482"
"20:43:56:363 (H:m:s:ms)","GENERIC","186.543","0.11700765497462463","695"
"20:22:43:636 (H:m:s:ms)","GENERIC","186.586","0.08625705407446638","422"
"20:22:49:696 (H:m:s:ms)","GENERIC","186.496","0.05427606547054297","401"
"20:44:2:424 (H:m:s:ms)","GENERIC","186.96800000000002","0.09238491700683842","638"
"20:44:3:37 (H:m:s:ms)","OPERA","124.498","0.12736371491176668","1026"
"20:22:55:757 (H:m:s:ms)","GENERIC","186.451","0.09319400313500265","299"
"20:44:8:484 (H:m:s:ms)","GENERIC","155.545","0.09909709263751869","579"
"20:23:1:818 (H:m:s:ms)","GENERIC","186.413","0.07830854265602781","237"
"20:44:10:632 (H:m:s:ms)","OPERA","155.431","0.11528452494119285","425"
"20:23:7:878 (H:m:s:ms)","GENERIC","186.505","0.10518037794826132","1182"
"20:44:14:545 (H:m:s:ms)","GENERIC","155.481","0.12181871437651927","516"
"20:23:13:939 (H:m:s:ms)","GENERIC","186.541","0.08446707125233888","1120"
"20:44:18:227 (H:m:s:ms)","OPERA","155.264","0.07794426965537311","834"
"20:23:20:0 (H:m:s:ms)","GENERIC","186.433","0.10127449373846255","1095"
"20:44:20:606 (H:m:s:ms)","GENERIC","155.622","0.0813326041588502","458"
"20:23:26:60 (H:m:s:ms)","GENERIC","186.40800000000002","0.0894616989786861","998"
"20:44:25:822 (H:m:s:ms)","OPERA","155.376","0.10278691891509072","240"
"20:23:32:121 (H:m:s:ms)","GENERIC","186.598","0.10272588469209924","935"
"20:44:26:666 (H:m:s:ms)","GENERIC","155.49599999999998","0.10719050955861774","394"
"20:23:38:181 (H:m:s:ms)","GENERIC","155.518","0.06520430998673364","877"
"20:44:32:727 (H:m:s:ms)","GENERIC","186.409","0.09944749231200752","333"
"20:23:44:242 (H:m:s:ms)","GENERIC","186.353","0.09279241506017709","813"
"20:23:50:303 (H:m:s:ms)","GENERIC","186.517","0.0713120578393509","756"
"20:44:33:417 (H:m:s:ms)","OPERA","155.408","0.15839779166411416","642"
"20:44:38:787 (H:m:s:ms)","GENERIC","186.529","0.10636020557420123","276"
"20:23:56:363 (H:m:s:ms)","GENERIC","186.497","0.06115074358498218","695"
"20:44:41:12 (H:m:s:ms)","OPERA","124.549","0.11688553557147063","1048"
"20:24:2:424 (H:m:s:ms)","GENERIC","186.493","0.07333280741180337","633"
"20:44:44:848 (H:m:s:ms)","GENERIC","155.627","0.14162729898720383","210"
"20:24:8:484 (H:m:s:ms)","GENERIC","186.514","0.0766227323862055","572"
"20:44:48:607 (H:m:s:ms)","OPERA","155.55","0.1076026638239451","452"
"20:24:14:545 (H:m:s:ms)","GENERIC","186.683","0.09921230485320578","514"
"20:44:50:909 (H:m:s:ms)","GENERIC","186.659","0.13564254527689226","1150"
"20:24:20:606 (H:m:s:ms)","GENERIC","186.541","0.08711964858562336","450"
"20:44:56:202 (H:m:s:ms)","OPERA","155.41","0.13291662475492683","858"
"20:24:26:666 (H:m:s:ms)","GENERIC","186.512","0.04192819181624156","392"
"20:44:56:969 (H:m:s:ms)","GENERIC","186.533","0.08598186562531906","1158"
"20:24:32:727 (H:m:s:ms)","GENERIC","186.299","0.08932386864893122","332"
"20:45:3:30 (H:m:s:ms)","GENERIC","186.525","0.0622444610580874","1031"
"20:24:38:787 (H:m:s:ms)","GENERIC","155.53300000000002","0.05679971741773575","271"
"20:45:3:797 (H:m:s:ms)","OPERA","124.486","0.0919102918406085","322"
"20:24:44:848 (H:m:s:ms)","GENERIC","155.436","0.06164374098785023","210"
"20:24:50:909 (H:m:s:ms)","GENERIC","186.666","0.11618713065735352","1149"
"20:45:9:90 (H:m:s:ms)","GENERIC","155.422","0.09553852992557403","1012"
"20:45:11:392 (H:m:s:ms)","OPERA","124.31","0.1401574502760043","671"
"20:24:56:969 (H:m:s:ms)","GENERIC","186.507","0.07047577027444403","1090"
"20:45:15:151 (H:m:s:ms)","GENERIC","155.546","0.11967523749454381","911"
"20:25:3:30 (H:m:s:ms)","GENERIC","186.26","0.12128729301991466","1024"
"20:45:18:987 (H:m:s:ms)","OPERA","155.559","0.11845942565241124","1117"
"20:25:9:90 (H:m:s:ms)","GENERIC","186.524","0.09320181270325695","1002"
"20:45:21:212 (H:m:s:ms)","GENERIC","155.374","0.1316122502751756","849"
"20:25:15:151 (H:m:s:ms)","GENERIC","155.56300000000002","0.06625618484200672","907"
"20:45:26:582 (H:m:s:ms)","OPERA","124.616","0.10211448081792897","481"
"20:25:21:212 (H:m:s:ms)","GENERIC","155.644","0.09403747277927356","849"
"20:45:27:272 (H:m:s:ms)","GENERIC","155.644","0.1362718954315091","787"
"20:25:27:272 (H:m:s:ms)","GENERIC","155.446","0.0691199429635261","784"
"20:45:33:333 (H:m:s:ms)","GENERIC","186.465","0.10037429283703246","731"
"20:25:33:333 (H:m:s:ms)","GENERIC","155.704","0.04856418327666353","726"
"20:45:34:177 (H:m:s:ms)","OPERA","124.522","0.13437991546786798","886"
"20:25:39:393 (H:m:s:ms)","GENERIC","186.318","0.09887618142763513","701"
"20:45:39:393 (H:m:s:ms)","GENERIC","186.485","0.13192780144623692","707"
"20:25:45:454 (H:m:s:ms)","GENERIC","155.426","0.06098072472883012","606"
"20:25:51:515 (H:m:s:ms)","GENERIC","155.566","0.08234468779180017","541"
"20:25:57:575 (H:m:s:ms)","GENERIC","186.43900000000002","0.08503285485879916","481"
"20:26:3:636 (H:m:s:ms)","GENERIC","186.57299999999998","0.06617911989510715","423"
"20:26:9:696 (H:m:s:ms)","GENERIC","186.529","0.09774919373302535","395"
"20:26:15:757 (H:m:s:ms)","GENERIC","155.685","0.09048146469098889","300"
"20:26:21:818 (H:m:s:ms)","GENERIC","186.79500000000002","0.09750732288444716","242"
"20:26:27:878 (H:m:s:ms)","GENERIC","155.759","0.07915941046862565","1178"
"20:26:33:939 (H:m:s:ms)","GENERIC","186.48700000000002","0.06639848157589459","1119"
"20:26:40:0 (H:m:s:ms)","GENERIC","186.645","0.1047132732533233","1094"
"20:26:46:60 (H:m:s:ms)","GENERIC","186.564","0.0615387638490882","999"
"20:26:52:121 (H:m:s:ms)","GENERIC","186.433","0.08713169329919088","936"
"20:26:58:181 (H:m:s:ms)","GENERIC","186.36200000000002","0.10827034507288849","872"
"20:27:4:242 (H:m:s:ms)","GENERIC","186.558","0.057867862816808856","816"
"20:27:10:303 (H:m:s:ms)","GENERIC","186.355","0.06707009543184465","754"
"20:27:16:363 (H:m:s:ms)","GENERIC","186.722","0.11190572797992189","695"
"20:27:22:424 (H:m:s:ms)","GENERIC","186.559","0.11372061998780748","633"
"20:27:28:484 (H:m:s:ms)","GENERIC","155.368","0.058656744685805645","572"
"20:27:34:545 (H:m:s:ms)","GENERIC","186.88600000000002","0.041300312480104004","515"
"20:27:40:606 (H:m:s:ms)","GENERIC","186.526","0.0649305115188159","452"
"20:27:46:666 (H:m:s:ms)","GENERIC","186.448","0.10006507405616008","392"
"20:27:52:727 (H:m:s:ms)","GENERIC","155.458","0.08782808371596587","331"
"20:27:58:787 (H:m:s:ms)","GENERIC","186.643","0.0721744120521196","274"
"20:28:4:848 (H:m:s:ms)","GENERIC","186.348","0.051181125592431945","214"
"20:28:10:909 (H:m:s:ms)","GENERIC","186.34199999999998","0.09730187195757913","1147"
"20:28:16:969 (H:m:s:ms)","GENERIC","155.398","0.07484100308949547","1087"
"20:28:23:30 (H:m:s:ms)","GENERIC","186.57","0.08879438455053996","1026"
"20:28:29:90 (H:m:s:ms)","GENERIC","186.42000000000002","0.09176348275807548","1001"
"20:28:35:151 (H:m:s:ms)","GENERIC","186.582","0.08924947744035863","906"
"20:28:41:212 (H:m:s:ms)","GENERIC","186.412","0.10175551001610696","844"
"20:28:47:272 (H:m:s:ms)","GENERIC","186.527","0.08883934782979315","782"
"20:28:53:333 (H:m:s:ms)","GENERIC","186.506","0.0755885914944405","722"
"20:28:59:393 (H:m:s:ms)","GENERIC","186.54899999999998","0.06414623528270348","703"
"20:29:5:454 (H:m:s:ms)","GENERIC","155.44299999999998","0.07169537975449125","604"
"20:29:11:515 (H:m:s:ms)","GENERIC","186.476","0.0838666142954654","544"
"20:29:17:575 (H:m:s:ms)","GENERIC","186.63","0.06775549303468358","480"
"20:29:23:636 (H:m:s:ms)","GENERIC","186.59","0.07494068589543432","425"
"20:29:29:696 (H:m:s:ms)","GENERIC","155.661","0.1255877210328033","394"
"20:29:35:757 (H:m:s:ms)","GENERIC","186.603","0.06480840751607468","300"
"20:29:41:818 (H:m:s:ms)","GENERIC","186.41899999999998","0.05886310757973477","238"
"20:29:47:878 (H:m:s:ms)","GENERIC","155.364","0.09940540894312228","1180"
"20:29:53:939 (H:m:s:ms)","GENERIC","186.57299999999998","0.08109711753340752","1119"
"21:20:15:189 (H:m:s:ms)","OPERA","186.698","0.09600430041048956","877"
"21:20:18:181 (H:m:s:ms)","GENERIC","186.326","0.07778104649534352","888"
"21:20:22:784 (H:m:s:ms)","OPERA","186.622","0.09545941753194034","281"
"21:20:24:242 (H:m:s:ms)","GENERIC","155.562","0.1438922489350338","825"
"21:20:30:303 (H:m:s:ms)","GENERIC","186.837","0.10734884324785994","765"
"21:20:30:379 (H:m:s:ms)","OPERA","186.497","0.12357441096485633","757"
"21:20:36:363 (H:m:s:ms)","GENERIC","155.703","0.10209926073602459","702"
"21:20:37:974 (H:m:s:ms)","OPERA","186.262","0.13160672552689937","1091"
"21:20:42:424 (H:m:s:ms)","GENERIC","186.631","0.11257363220408467","642"
"21:20:45:569 (H:m:s:ms)","OPERA","155.37","0.1088905759440688","499"
"21:20:48:484 (H:m:s:ms)","GENERIC","186.571","0.10110251858346904","584"
"21:20:53:164 (H:m:s:ms)","OPERA","186.255","0.09707677060352342","900"
"21:20:54:545 (H:m:s:ms)","GENERIC","155.547","0.11442677421877229","525"
"21:21:0:606 (H:m:s:ms)","GENERIC","186.622","0.05097660869764073","458"
"21:21:0:759 (H:m:s:ms)","OPERA","186.48399999999998","0.0677551612253879","371"
"21:21:6:666 (H:m:s:ms)","GENERIC","186.637","0.08296647875728339","400"
"21:21:8:354 (H:m:s:ms)","OPERA","186.22899999999998","0.10374382915055728","715"
"21:21:12:727 (H:m:s:ms)","GENERIC","186.615","0.1282004902639172","339"
"21:21:15:949 (H:m:s:ms)","OPERA","155.66400000000002","0.13186307939177477","1118"
"21:21:18:787 (H:m:s:ms)","GENERIC","186.513","0.11693351470829172","273"
"21:33:20:0 (H:m:s:ms)","GENERIC","186.466","0.07614211769514194","1105"
"21:33:7:878 (H:m:s:ms)","GENERIC","155.608","0.08973572588295448","187"
"21:33:1:818 (H:m:s:ms)","GENERIC","186.474","0.08003958557249123","247"
"21:32:55:757 (H:m:s:ms)","GENERIC","186.607","0.06789396043995426","307"
"21:32:49:696 (H:m:s:ms)","GENERIC","186.438","0.07846459612224652","410"
"21:32:43:636 (H:m:s:ms)","GENERIC","186.58","0.09438575126754452","430"
"21:32:37:894 (H:m:s:ms)","AMBULANCE","155.729","0.1047431138109752","1236"
"21:32:37:575 (H:m:s:ms)","GENERIC","186.51500000000001","0.08187736321870705","488"
"21:21:23:544 (H:m:s:ms)","OPERA","186.356","0.14254342351618057","520"
"21:32:31:515 (H:m:s:ms)","GENERIC","155.557","0.062020731355545054","553"
"21:21:24:848 (H:m:s:ms)","GENERIC","155.86599999999999","0.13661519260749289","216"
"21:21:30:909 (H:m:s:ms)","GENERIC","155.536","0.08295012913457853","1158"
"21:21:31:139 (H:m:s:ms)","OPERA","186.50400000000002","0.1076985639108965","995"
"21:21:36:969 (H:m:s:ms)","GENERIC","155.489","0.09581029214173564","1096"
"21:21:38:734 (H:m:s:ms)","OPERA","155.669","0.12511834825683746","327"
"21:21:43:30 (H:m:s:ms)","GENERIC","155.66","0.11034054775631419","1032"
"21:21:46:329 (H:m:s:ms)","OPERA","186.577","0.1110629631767576","735"
"21:33:13:939 (H:m:s:ms)","GENERIC","186.471","0.1310514667873558","1128"
"21:21:49:90 (H:m:s:ms)","GENERIC","186.611","0.13730678091621318","1008"
"21:33:9:473 (H:m:s:ms)","AMBULANCE","155.451","0.11434878176668689","623"
"21:21:53:924 (H:m:s:ms)","OPERA","186.331","0.14264882627181333","1138"
"21:34:14:545 (H:m:s:ms)","GENERIC","186.723","0.15081332365846736","520"
"21:34:12:631 (H:m:s:ms)","AMBULANCE","186.683","0.11331202496275115","430"
"21:34:2:424 (H:m:s:ms)","GENERIC","155.649","0.061389806735022874","639"
"21:33:56:363 (H:m:s:ms)","GENERIC","186.78699999999998","0.12066993060247114","699"
"21:33:50:303 (H:m:s:ms)","GENERIC","186.48399999999998","0.08352403347919579","760"
"21:33:44:242 (H:m:s:ms)","GENERIC","186.52","0.09325200004075769","823"
"21:33:41:52 (H:m:s:ms)","AMBULANCE","186.558","0.067029398410917","1013"
"21:33:38:181 (H:m:s:ms)","GENERIC","186.525","0.03863359029548729","887"
"21:21:55:151 (H:m:s:ms)","GENERIC","186.482","0.10531551188481396","914"
"21:33:32:121 (H:m:s:ms)","GENERIC","186.425","0.1179172247109016","941"
"21:22:1:212 (H:m:s:ms)","GENERIC","155.442","0.050293796237091494","856"
"21:33:26:60 (H:m:s:ms)","GENERIC","186.614","0.07291280137517928","1003"
"21:22:1:518 (H:m:s:ms)","OPERA","155.462","0.0926772494558849","616"
"21:22:7:272 (H:m:s:ms)","GENERIC","186.49900000000002","0.04566751754128639","796"
"21:22:9:113 (H:m:s:ms)","OPERA","155.488","0.0845013898281077","987"
"21:22:13:333 (H:m:s:ms)","GENERIC","186.546","0.10481379741836785","730"
"21:22:16:708 (H:m:s:ms)","OPERA","186.29399999999998","0.12604368802899646","361"
"21:22:19:393 (H:m:s:ms)","GENERIC","186.647","0.11683758186660272","713"
"21:22:24:303 (H:m:s:ms)","OPERA","124.35","0.11073657973342368","764"
"21:22:25:454 (H:m:s:ms)","GENERIC","186.59699999999998","0.10857218361266395","611"
"21:34:8:484 (H:m:s:ms)","GENERIC","186.565","0.08766264546811073","579"
"21:35:15:151 (H:m:s:ms)","GENERIC","186.584","0.06409356649151668","914"
"21:35:9:90 (H:m:s:ms)","GENERIC","155.44299999999998","0.04176252316241248","1013"
"21:35:3:30 (H:m:s:ms)","GENERIC","186.434","0.08813054055026716","1034"
"21:34:56:969 (H:m:s:ms)","GENERIC","187.051","0.05924986927931848","1094"
"21:34:50:909 (H:m:s:ms)","GENERIC","186.903","0.07955900526266234","1153"
"21:34:44:848 (H:m:s:ms)","GENERIC","186.562","0.12003770219697396","278"
"21:34:44:210 (H:m:s:ms)","AMBULANCE","186.494","0.09814545515351464","852"
"21:34:38:787 (H:m:s:ms)","GENERIC","155.56400000000002","0.05234047793103982","276"
"21:22:31:515 (H:m:s:ms)","GENERIC","186.372","0.11648777116679647","551"
"21:34:32:727 (H:m:s:ms)","GENERIC","186.505","0.09619909273149158","335"
"21:22:31:898 (H:m:s:ms)","OPERA","155.707","0.1365265634815173","1237"
"21:34:26:666 (H:m:s:ms)","GENERIC","155.607","0.06691725699861596","397"
"21:2:1:212 (H:m:s:ms)","GENERIC","186.609","0.07944515066639767","853"
"21:22:37:575 (H:m:s:ms)","GENERIC","186.524","0.12354800412195979","487"
"21:34:20:606 (H:m:s:ms)","GENERIC","186.484","0.06490146340594653","457"
"21:2:6:315 (H:m:s:ms)","AMBULANCE","124.444","0.11821285331936446","746"
"21:22:39:493 (H:m:s:ms)","OPERA","155.679","0.1453677917434267","609"
"21:2:7:272 (H:m:s:ms)","GENERIC","186.5","0.10856233259020119","794"
"21:22:43:636 (H:m:s:ms)","GENERIC","186.445","0.1311283396891769","425"
"21:2:13:333 (H:m:s:ms)","GENERIC","155.524","0.10062768748309836","731"
"21:22:47:88 (H:m:s:ms)","OPERA","186.445","0.09884806874828293","977"
"21:2:19:393 (H:m:s:ms)","GENERIC","186.66899999999998","0.062252047424759066","719"
"21:22:49:696 (H:m:s:ms)","GENERIC","155.576","0.08916108070793337","405"
"21:2:25:454 (H:m:s:ms)","GENERIC","155.571","0.06564428933364388","613"
"21:22:54:683 (H:m:s:ms)","OPERA","155.70499999999998","0.07948082942344972","384"
"21:2:31:515 (H:m:s:ms)","GENERIC","186.544","0.09526681279813372","551"
"21:22:55:757 (H:m:s:ms)","GENERIC","186.68599999999998","0.07547171834216863","311"
"21:2:37:575 (H:m:s:ms)","GENERIC","155.777","0.06785354880627238","489"
"21:23:1:818 (H:m:s:ms)","GENERIC","186.382","0.07893837756270716","245"
"21:2:37:894 (H:m:s:ms)","AMBULANCE","124.605","0.10867975471266923","239"
"21:2:43:636 (H:m:s:ms)","GENERIC","155.775","0.07092706682811745","426"
"21:36:9:696 (H:m:s:ms)","GENERIC","155.38","0.08842846909544837","404"
"21:36:3:636 (H:m:s:ms)","GENERIC","186.46","0.0938391570945574","426"
"21:35:57:575 (H:m:s:ms)","GENERIC","186.565","0.08360451076469885","488"
"21:35:51:515 (H:m:s:ms)","GENERIC","186.426","0.11850029698093645","545"
"21:35:47:368 (H:m:s:ms)","AMBULANCE","186.548","0.1087428147987342","693"
"21:35:45:454 (H:m:s:ms)","GENERIC","186.904","0.08797865918667885","610"
"21:35:39:393 (H:m:s:ms)","GENERIC","186.488","0.06775545814731049","706"
"21:23:2:278 (H:m:s:ms)","OPERA","186.548","0.12400731563026361","786"
"21:35:33:333 (H:m:s:ms)","GENERIC","155.709","0.10734273683825774","729"
"21:23:7:878 (H:m:s:ms)","GENERIC","186.642","0.11380693292109004","1183"
"21:35:27:272 (H:m:s:ms)","GENERIC","186.484","0.08372093425331674","792"
"21:2:49:696 (H:m:s:ms)","GENERIC","155.602","0.10241171633946627","412"
"21:23:9:873 (H:m:s:ms)","OPERA","186.512","0.14399462461291287","225"
"21:35:21:212 (H:m:s:ms)","GENERIC","186.4","0.060676141161702835","854"
"21:2:55:757 (H:m:s:ms)","GENERIC","155.346","0.09080011295296263","308"
"21:23:13:939 (H:m:s:ms)","GENERIC","186.523","0.11503586194292607","1121"
"21:35:15:789 (H:m:s:ms)","AMBULANCE","186.344","0.09188431672464073","336"
"21:3:1:818 (H:m:s:ms)","GENERIC","186.563","0.07654546513659764","255"
"21:23:17:468 (H:m:s:ms)","OPERA","186.179","0.11550192497734627","595"
"21:3:7:878 (H:m:s:ms)","GENERIC","186.897","0.0745269155062671","1193"
"21:23:20:0 (H:m:s:ms)","GENERIC","186.469","0.10502029133144636","1099"
"21:3:9:473 (H:m:s:ms)","AMBULANCE","155.448","0.1205290971764244","641"
"21:23:25:63 (H:m:s:ms)","OPERA","186.40200000000002","0.10489451907461048","1004"
"21:3:13:939 (H:m:s:ms)","GENERIC","186.444","0.13374953457219885","1124"
"21:23:26:60 (H:m:s:ms)","GENERIC","186.62400000000002","0.1118043072556403","1008"
"21:3:20:0 (H:m:s:ms)","GENERIC","186.437","0.11781390860470867","1113"
"21:23:32:121 (H:m:s:ms)","GENERIC","186.674","0.10666821531878569","947"
"21:3:26:60 (H:m:s:ms)","GENERIC","186.289","0.07690199829061276","1009"
"21:23:38:181 (H:m:s:ms)","GENERIC","186.71","0.09449475255575555","888"
"21:3:32:121 (H:m:s:ms)","GENERIC","186.382","0.07071254469845825","943"
"21:3:38:181 (H:m:s:ms)","GENERIC","155.788","0.08254050166463281","884"
"21:37:4:242 (H:m:s:ms)","GENERIC","186.413","0.058432472233509475","826"
"21:36:58:181 (H:m:s:ms)","GENERIC","186.64100000000002","0.09995467513397428","887"
"21:36:52:121 (H:m:s:ms)","GENERIC","186.481","0.12339280062885052","945"
"21:36:50:526 (H:m:s:ms)","AMBULANCE","186.527","0.11782699575888392","540"
"21:36:46:60 (H:m:s:ms)","GENERIC","186.424","0.07390504433703216","1002"
"21:36:40:0 (H:m:s:ms)","GENERIC","155.765","0.06653432288350662","1103"
"21:23:40:253 (H:m:s:ms)","OPERA","155.40300000000002","0.15493048615254956","812"
"21:36:33:939 (H:m:s:ms)","GENERIC","186.825","0.09101452942589566","1122"
"21:23:44:242 (H:m:s:ms)","GENERIC","186.503","0.1534894171412693","824"
"21:36:27:878 (H:m:s:ms)","GENERIC","186.751","0.11642785179720411","1182"
"21:3:41:52 (H:m:s:ms)","AMBULANCE","155.511","0.10548854873417676","1012"
"21:23:47:848 (H:m:s:ms)","OPERA","186.40300000000002","0.1075860825118846","213"
"21:36:21:818 (H:m:s:ms)","GENERIC","186.433","0.10847900189941145","242"
"21:3:44:242 (H:m:s:ms)","GENERIC","186.44299999999998","0.13792331255000126","824"
"21:23:50:303 (H:m:s:ms)","GENERIC","155.285","0.11571715048216258","762"
"21:36:18:947 (H:m:s:ms)","AMBULANCE","186.482","0.08423101709770857","1153"
"21:3:50:303 (H:m:s:ms)","GENERIC","186.64100000000002","0.06760542974572974","761"
"21:23:55:443 (H:m:s:ms)","OPERA","186.347","0.11894181489957917","624"
"21:36:15:757 (H:m:s:ms)","GENERIC","186.591","0.05179929385429604","305"
"21:3:56:363 (H:m:s:ms)","GENERIC","186.377","0.0845841775723826","702"
"21:23:56:363 (H:m:s:ms)","GENERIC","186.513","0.13094393274160984","699"
"21:4:2:424 (H:m:s:ms)","GENERIC","186.475","0.059556781437369026","641"
"21:24:2:424 (H:m:s:ms)","GENERIC","186.461","0.03958936417850914","643"
"21:4:8:484 (H:m:s:ms)","GENERIC","186.608","0.08769759373201404","576"
"21:24:3:37 (H:m:s:ms)","OPERA","155.517","0.11204173644609916","1026"
"21:4:12:631 (H:m:s:ms)","AMBULANCE","155.505","0.15055959394259824","427"
"21:24:8:484 (H:m:s:ms)","GENERIC","186.493","0.1149339975475029","580"
"21:4:14:545 (H:m:s:ms)","GENERIC","186.5","0.15139683139037768","517"
"21:24:10:632 (H:m:s:ms)","OPERA","155.563","0.0779439931840813","431"
"21:4:20:606 (H:m:s:ms)","GENERIC","186.62099999999998","0.0700157520118421","459"
"21:4:26:666 (H:m:s:ms)","GENERIC","186.467","0.06065757777464379","399"
"21:37:58:787 (H:m:s:ms)","GENERIC","186.32","0.0990696443171639","279"
"21:37:53:684 (H:m:s:ms)","AMBULANCE","186.56099999999998","0.09499506520442523","378"
"21:37:52:727 (H:m:s:ms)","GENERIC","186.99099999999999","0.04588939717656664","335"
"21:37:46:666 (H:m:s:ms)","GENERIC","186.472","0.08980940720551765","396"
"21:37:40:606 (H:m:s:ms)","GENERIC","186.567","0.0553347761068473","460"
"21:37:34:545 (H:m:s:ms)","GENERIC","186.412","0.06821713985166475","522"
"21:24:14:545 (H:m:s:ms)","GENERIC","155.68699999999998","0.12918992369093235","517"
"21:24:18:227 (H:m:s:ms)","OPERA","155.503","0.14200129541702888","836"
"21:37:28:484 (H:m:s:ms)","GENERIC","155.61399999999998","0.07680175869851379","585"
"21:4:32:727 (H:m:s:ms)","GENERIC","186.815","0.06044446370177662","340"
"21:24:20:606 (H:m:s:ms)","GENERIC","186.555","0.10928567481517015","457"
"21:37:22:424 (H:m:s:ms)","GENERIC","186.437","0.08816429411569549","712"
"21:4:38:787 (H:m:s:ms)","GENERIC","186.64","0.05572446978171098","281"
"21:24:25:822 (H:m:s:ms)","OPERA","186.589","0.11285134452845696","243"
"21:37:22:105 (H:m:s:ms)","AMBULANCE","186.614","0.06758969812043092","963"
"21:4:44:210 (H:m:s:ms)","AMBULANCE","155.337","0.0826924711768833","857"
"21:24:26:666 (H:m:s:ms)","GENERIC","186.627","0.11671876916857203","396"
"21:37:16:363 (H:m:s:ms)","GENERIC","186.4","0.0634579921380483","701"
"21:4:44:848 (H:m:s:ms)","GENERIC","186.615","0.11019937020911132","283"
"21:24:32:727 (H:m:s:ms)","GENERIC","186.607","0.04931966543375601","338"
"21:37:10:303 (H:m:s:ms)","GENERIC","186.465","0.049749946814610764","767"
"21:4:50:909 (H:m:s:ms)","GENERIC","186.386","0.0789869463970092","1156"
"21:24:33:417 (H:m:s:ms)","OPERA","155.57","0.11636126834365004","647"
"21:4:56:969 (H:m:s:ms)","GENERIC","186.473","0.056808328138350225","1096"
"21:24:38:787 (H:m:s:ms)","GENERIC","155.406","0.1346970051526324","277"
"21:5:3:30 (H:m:s:ms)","GENERIC","155.436","0.08982493082683364","1037"
"21:24:41:12 (H:m:s:ms)","OPERA","186.704","0.12291242328205829","1054"
"21:5:9:90 (H:m:s:ms)","GENERIC","186.463","0.05036208061398349","1023"
"21:24:44:848 (H:m:s:ms)","GENERIC","186.573","0.11475381624253629","213"
"21:5:15:151 (H:m:s:ms)","GENERIC","155.674","0.13919642077201125","914"
"21:5:15:789 (H:m:s:ms)","AMBULANCE","155.419","0.15868456429973693","342"
"21:38:56:842 (H:m:s:ms)","AMBULANCE","186.281","0.0872822893006343","220"
"21:38:53:333 (H:m:s:ms)","GENERIC","186.67000000000002","0.04256977178747896","728"
"21:38:47:272 (H:m:s:ms)","GENERIC","186.558","0.06211938863361416","791"
"21:38:41:212 (H:m:s:ms)","GENERIC","186.579","0.06429515150539435","850"
"21:38:35:151 (H:m:s:ms)","GENERIC","186.606","0.07954622111128876","914"
"21:38:29:90 (H:m:s:ms)","GENERIC","186.545","0.11516008613603848","1015"
"21:38:25:263 (H:m:s:ms)","AMBULANCE","186.418","0.11754227515088081","802"
"21:24:48:607 (H:m:s:ms)","OPERA","186.494","0.08215568733321177","457"
"21:24:50:909 (H:m:s:ms)","GENERIC","186.511","0.11053844638312195","1153"
"21:5:21:212 (H:m:s:ms)","GENERIC","186.683","0.09443050581252578","856"
"21:24:56:202 (H:m:s:ms)","OPERA","186.322","0.11410449821093376","863"
"21:5:27:272 (H:m:s:ms)","GENERIC","186.505","0.09267989440762364","793"
"21:24:56:969 (H:m:s:ms)","GENERIC","155.779","0.13817598702015932","1158"
"21:38:23:30 (H:m:s:ms)","GENERIC","155.6","0.07971822405825194","1033"
"20:45:41:772 (H:m:s:ms)","OPERA","155.529","0.12323732063668436","291"
"21:5:33:333 (H:m:s:ms)","GENERIC","124.25800000000001","0.0762174027620653","737"
"21:25:3:30 (H:m:s:ms)","GENERIC","186.488","0.05641677817744166","1035"
"21:38:16:969 (H:m:s:ms)","GENERIC","186.4","0.07157428850114415","1095"
"20:45:45:454 (H:m:s:ms)","GENERIC","155.43099999999998","0.10713456700545779","606"
"21:5:39:393 (H:m:s:ms)","GENERIC","186.556","0.07413024375188329","715"
"21:25:3:797 (H:m:s:ms)","OPERA","155.818","0.1167728550796235","335"
"21:38:10:909 (H:m:s:ms)","GENERIC","186.522","0.10760312682807917","1152"
"20:45:49:367 (H:m:s:ms)","OPERA","124.469","0.12491427965841166","733"
"21:5:45:454 (H:m:s:ms)","GENERIC","186.535","0.07966740355187903","613"
"21:25:9:90 (H:m:s:ms)","GENERIC","186.616","0.07757455375515332","1018"
"21:38:4:848 (H:m:s:ms)","GENERIC","186.559","0.07395862702527517","211"
"20:45:51:515 (H:m:s:ms)","GENERIC","186.397","0.11415388292840817","547"
"21:5:47:368 (H:m:s:ms)","AMBULANCE","155.588","0.1130318481599761","699"
"21:25:11:392 (H:m:s:ms)","OPERA","186.414","0.11215961385441622","675"
"20:45:56:962 (H:m:s:ms)","OPERA","155.46800000000002","0.08920820307158896","1101"
"21:5:51:515 (H:m:s:ms)","GENERIC","186.53","0.10025038019928566","550"
"21:25:15:151 (H:m:s:ms)","GENERIC","155.49099999999999","0.10748083409966847","917"
"20:45:57:575 (H:m:s:ms)","GENERIC","155.47","0.10797765534537102","549"
"21:5:57:575 (H:m:s:ms)","GENERIC","186.211","0.07400521917951687","494"
"21:25:18:987 (H:m:s:ms)","OPERA","186.211","0.10384138401506547","1118"
"20:46:3:636 (H:m:s:ms)","GENERIC","186.507","0.07975050304213677","424"
"21:6:3:636 (H:m:s:ms)","GENERIC","186.513","0.11092126904047148","431"
"20:46:4:556 (H:m:s:ms)","OPERA","124.473","0.09720290063499389","507"
"21:6:9:696 (H:m:s:ms)","GENERIC","155.613","0.0791825421593764","413"
"20:46:9:696 (H:m:s:ms)","GENERIC","155.56","0.1226656903601033","406"
"20:46:12:151 (H:m:s:ms)","OPERA","155.34","0.13042840346292942","910"
"21:39:53:939 (H:m:s:ms)","GENERIC","155.378","0.08130731859814302","1125"
"21:39:47:878 (H:m:s:ms)","GENERIC","186.52100000000002","0.1053704112015597","1186"
"21:39:41:818 (H:m:s:ms)","GENERIC","155.72199999999998","0.09144848818161039","247"
"21:39:35:757 (H:m:s:ms)","GENERIC","186.755","0.11474802519672554","301"
"21:39:29:696 (H:m:s:ms)","GENERIC","155.694","0.16072886767405584","403"
"21:39:28:421 (H:m:s:ms)","AMBULANCE","186.456","0.10283386639896586","648"
"21:39:23:636 (H:m:s:ms)","GENERIC","155.42399999999998","0.08137253991099426","429"
"21:39:17:575 (H:m:s:ms)","GENERIC","155.369","0.06869804256987365","492"
"21:25:21:212 (H:m:s:ms)","GENERIC","186.446","0.0984272463996117","853"
"21:25:26:582 (H:m:s:ms)","OPERA","186.488","0.13393427411343295","488"
"21:6:15:757 (H:m:s:ms)","GENERIC","186.438","0.09525059740854037","307"
"21:25:27:272 (H:m:s:ms)","GENERIC","155.90699999999998","0.1192960784168986","788"
"21:6:18:947 (H:m:s:ms)","AMBULANCE","155.469","0.11554518850364147","1163"
"21:25:33:333 (H:m:s:ms)","GENERIC","186.49200000000002","0.08489792477072629","732"
"20:46:15:757 (H:m:s:ms)","GENERIC","186.623","0.11590469814348461","306"
"21:6:21:818 (H:m:s:ms)","GENERIC","186.386","0.11263103512914412","243"
"21:25:34:177 (H:m:s:ms)","OPERA","186.423","0.09363113016066361","890"
"20:46:19:746 (H:m:s:ms)","OPERA","155.822","0.10864806589174715","357"
"21:6:27:878 (H:m:s:ms)","GENERIC","186.531","0.07981100704878791","1185"
"21:25:39:393 (H:m:s:ms)","GENERIC","155.416","0.12219275977155127","712"
"21:39:11:515 (H:m:s:ms)","GENERIC","124.403","0.10534709518685206","562"
"20:46:21:818 (H:m:s:ms)","GENERIC","155.792","0.10842895568903206","244"
"21:6:33:939 (H:m:s:ms)","GENERIC","155.39000000000001","0.09901048555911197","1128"
"21:25:41:772 (H:m:s:ms)","OPERA","186.661","0.15308013775529739","291"
"21:39:5:454 (H:m:s:ms)","GENERIC","155.393","0.08634098174367423","604"
"20:46:27:341 (H:m:s:ms)","OPERA","155.275","0.1027937823767157","719"
"21:6:40:0 (H:m:s:ms)","GENERIC","186.435","0.07187780340500224","1113"
"21:25:45:454 (H:m:s:ms)","GENERIC","186.675","0.1533409973376594","610"
"21:38:59:393 (H:m:s:ms)","GENERIC","186.427","0.100336373667927","706"
"20:46:27:878 (H:m:s:ms)","GENERIC","186.48700000000002","0.13534319492342053","246"
"21:6:46:60 (H:m:s:ms)","GENERIC","186.52100000000002","0.08772049138016134","1004"
"21:25:49:367 (H:m:s:ms)","OPERA","155.535","0.12897720965494303","744"
"20:46:33:939 (H:m:s:ms)","GENERIC","155.652","0.08754491467038468","1120"
"21:6:50:526 (H:m:s:ms)","AMBULANCE","155.844","0.13232558908420727","536"
"21:25:51:515 (H:m:s:ms)","GENERIC","186.452","0.10796833659627696","552"
"20:46:34:936 (H:m:s:ms)","OPERA","155.307","0.1399454321814133","1182"
"21:6:52:121 (H:m:s:ms)","GENERIC","186.577","0.1353598299541797","938"
"20:46:40:0 (H:m:s:ms)","GENERIC","155.561","0.1313869788303545","1100"
"21:6:58:181 (H:m:s:ms)","GENERIC","155.459","0.03712158751133698","888"
"20:46:42:531 (H:m:s:ms)","OPERA","155.363","0.10654850205682667","531"
"20:46:46:60 (H:m:s:ms)","GENERIC","186.489","0.1266618851270238","999"
"21:40:0:0 (H:m:s:ms)","GENERIC","186.646","0.1216564011974912","1318"
"21:40:48:484 (H:m:s:ms)","GENERIC","155.594","0.07064704514317316","576"
"21:40:42:424 (H:m:s:ms)","GENERIC","186.52100000000002","0.062180384387571404","639"
"21:40:36:363 (H:m:s:ms)","GENERIC","155.74","0.08986134765304395","701"
"21:40:30:303 (H:m:s:ms)","GENERIC","186.47","0.08794548390574387","761"
"21:40:24:242 (H:m:s:ms)","GENERIC","155.774","0.11108101120484244","820"
"21:40:18:181 (H:m:s:ms)","GENERIC","186.481","0.08377145264500907","879"
"21:40:12:121 (H:m:s:ms)","GENERIC","186.497","0.0803458472389325","940"
"21:40:6:60 (H:m:s:ms)","GENERIC","186.558","0.09860672079804425","1002"
"21:7:4:242 (H:m:s:ms)","GENERIC","155.599","0.09298394333026684","824"
"21:7:10:303 (H:m:s:ms)","GENERIC","186.355","0.1282973305144253","759"
"20:46:50:126 (H:m:s:ms)","OPERA","155.28","0.12103174861996784","931"
"21:7:16:363 (H:m:s:ms)","GENERIC","155.53199999999998","0.0746515394686393","701"
"20:46:52:121 (H:m:s:ms)","GENERIC","155.442","0.13477872810572547","942"
"21:7:22:105 (H:m:s:ms)","AMBULANCE","124.535","0.07376145820829061","960"
"20:46:57:721 (H:m:s:ms)","OPERA","124.484","0.132806857492813","341"
"21:7:22:424 (H:m:s:ms)","GENERIC","186.8","0.102347928323398","707"
"20:46:58:181 (H:m:s:ms)","GENERIC","155.541","0.1070386146080814","880"
"21:7:28:484 (H:m:s:ms)","GENERIC","186.398","0.09161746867114631","580"
"21:40:0:0 (H:m:s:ms)","GENERIC","186.303","0.10630966436389555","1253"
"20:47:4:242 (H:m:s:ms)","GENERIC","186.541","0.11842848134367251","822"
"21:7:34:545 (H:m:s:ms)","GENERIC","186.694","0.07314217840400852","526"
"21:40:0:0 (H:m:s:ms)","AMBULANCE","155.599","0.08811383567288704","1190"
"20:47:5:316 (H:m:s:ms)","OPERA","155.24200000000002","0.15353121171664966","742"
"21:7:40:606 (H:m:s:ms)","GENERIC","186.723","0.08721882631098606","461"
"20:47:10:303 (H:m:s:ms)","GENERIC","186.542","0.14105307808599837","761"
"21:7:46:666 (H:m:s:ms)","GENERIC","186.408","0.06253106865370167","406"
"20:47:12:911 (H:m:s:ms)","OPERA","155.477","0.125599033018886","1152"
"21:7:52:727 (H:m:s:ms)","GENERIC","186.388","0.06598539373886642","342"
"20:47:16:363 (H:m:s:ms)","GENERIC","186.825","0.12636973414126065","698"
"20:47:20:506 (H:m:s:ms)","OPERA","155.475","0.1390720714557211","557"
"21:7:53:684 (H:m:s:ms)","AMBULANCE","124.384","0.08322574969000895","387"
"21:7:58:787 (H:m:s:ms)","GENERIC","155.517","0.09274046333525644","281"
"20:47:22:424 (H:m:s:ms)","GENERIC","155.722","0.10881716645647616","633"
"21:8:4:848 (H:m:s:ms)","GENERIC","186.357","0.07749173780051144","215"
"20:47:28:101 (H:m:s:ms)","OPERA","155.44400000000002","0.09251352835750128","961"
"21:8:10:909 (H:m:s:ms)","GENERIC","186.554","0.051915836226509","1156"
"20:47:28:484 (H:m:s:ms)","GENERIC","186.523","0.1486297782280001","641"
"21:8:16:969 (H:m:s:ms)","GENERIC","186.555","0.04937545755098699","1101"
"20:47:34:545 (H:m:s:ms)","GENERIC","186.523","0.08427525710941643","518"
"21:8:23:30 (H:m:s:ms)","GENERIC","186.45100000000002","0.0995751790237657","1036"
"20:47:35:696 (H:m:s:ms)","OPERA","155.376","0.10804651691285162","366"
"21:8:25:263 (H:m:s:ms)","AMBULANCE","155.728","0.11929674546227433","805"
"20:47:40:606 (H:m:s:ms)","GENERIC","186.43099999999998","0.1171725904496298","453"
"21:8:29:90 (H:m:s:ms)","GENERIC","186.548","0.09792661827969464","1020"
"21:40:54:545 (H:m:s:ms)","GENERIC","186.73399999999998","0.0769530108120254","517"
"20:47:43:291 (H:m:s:ms)","OPERA","155.471","0.12597695869210074","769"
"21:8:35:151 (H:m:s:ms)","GENERIC","155.521","0.06867470071480959","916"
"20:47:46:666 (H:m:s:ms)","GENERIC","186.47899999999998","0.10126727323803891","398"
"21:8:41:212 (H:m:s:ms)","GENERIC","155.731","0.09984501983454826","855"
"20:47:50:886 (H:m:s:ms)","OPERA","124.757","0.09691925964184749","176"
"20:47:52:727 (H:m:s:ms)","GENERIC","186.466","0.10262422968509832","334"
"21:8:47:272 (H:m:s:ms)","GENERIC","186.694","0.04199003022857189","797"
"21:8:53:333 (H:m:s:ms)","GENERIC","186.596","0.11283400877813322","729"
"20:47:58:481 (H:m:s:ms)","OPERA","155.232","0.0757715562781702","582"
"21:8:56:842 (H:m:s:ms)","AMBULANCE","155.483","0.13015637497289304","218"
"20:47:58:787 (H:m:s:ms)","GENERIC","155.917","0.09606759012010091","339"
"21:8:59:393 (H:m:s:ms)","GENERIC","186.427","0.10225951222246077","717"
"20:30:0:0 (H:m:s:ms)","GENERIC","186.50799999999998","0.09177918907008173","1094"
"20:48:4:848 (H:m:s:ms)","GENERIC","155.792","0.09951858348053891","216"
"21:9:5:454 (H:m:s:ms)","GENERIC","155.378","0.08686909918950642","613"
"20:30:0:0 (H:m:s:ms)","GENERIC","186.572","0.13319519544984013","1154"
"20:48:6:75 (H:m:s:ms)","OPERA","155.424","0.11136802558809822","983"
"21:9:11:515 (H:m:s:ms)","GENERIC","186.61","0.089013837665597","553"
"20:30:6:60 (H:m:s:ms)","GENERIC","186.87599999999998","0.08367157690737624","998"
"20:48:10:909 (H:m:s:ms)","GENERIC","186.58","0.08964627426093287","1152"
"21:9:17:575 (H:m:s:ms)","GENERIC","155.685","0.0793627813349029","492"
"20:30:12:121 (H:m:s:ms)","GENERIC","155.66","0.0725911343952346","941"
"20:48:13:670 (H:m:s:ms)","OPERA","124.59700000000001","0.10925662044674585","391"
"21:9:23:636 (H:m:s:ms)","GENERIC","186.48000000000002","0.10741399851892033","430"
"20:30:18:181 (H:m:s:ms)","GENERIC","155.485","0.12016116778187468","876"
"20:48:16:969 (H:m:s:ms)","GENERIC","155.404","0.10628367046073979","1092"
"21:9:28:421 (H:m:s:ms)","AMBULANCE","155.509","0.13435983789828662","646"
"20:30:24:242 (H:m:s:ms)","GENERIC","155.44","0.09206985012490022","822"
"20:48:21:265 (H:m:s:ms)","OPERA","155.336","0.10588990209004064","797"
"21:9:29:696 (H:m:s:ms)","GENERIC","186.713","0.1237710938712718","406"
"20:30:30:303 (H:m:s:ms)","GENERIC","186.511","0.06395252180957993","756"
"20:48:23:30 (H:m:s:ms)","GENERIC","186.468","0.10378383254657192","1032"
"20:30:36:363 (H:m:s:ms)","GENERIC","186.48700000000002","0.05827003053515833","697"
"20:48:28:860 (H:m:s:ms)","OPERA","155.412","0.09348733698216409","203"
"20:30:42:424 (H:m:s:ms)","GENERIC","186.574","0.0879341383204132","631"
"20:30:48:484 (H:m:s:ms)","GENERIC","186.389","0.05961460237185667","578"
"21:9:35:757 (H:m:s:ms)","GENERIC","186.49900000000002","0.08828297637304326","304"
"21:9:41:818 (H:m:s:ms)","GENERIC","186.434","0.08220472341915964","244"
"20:48:29:90 (H:m:s:ms)","GENERIC","186.618","0.11645539383246337","1018"
"21:9:47:878 (H:m:s:ms)","GENERIC","186.26","0.12847025472468881","1183"
"20:48:35:151 (H:m:s:ms)","GENERIC","155.59300000000002","0.06543275724040915","914"
"21:9:53:939 (H:m:s:ms)","GENERIC","186.506","0.0822169828426277","1128"
"20:30:54:545 (H:m:s:ms)","GENERIC","186.398","0.09527246858637889","516"
"20:48:36:455 (H:m:s:ms)","OPERA","155.384","0.09055191312449151","609"
"21:10:0:0 (H:m:s:ms)","AMBULANCE","155.527","0.0719287719642372","1108"
"20:31:0:606 (H:m:s:ms)","GENERIC","186.65200000000002","0.08270028114594145","451"
"20:48:41:212 (H:m:s:ms)","GENERIC","155.763","0.11333578189580978","849"
"21:10:0:0 (H:m:s:ms)","GENERIC","186.449","0.09597926357994446","1173"
"20:31:6:666 (H:m:s:ms)","GENERIC","186.529","0.06984500129156297","392"
"20:48:44:50 (H:m:s:ms)","OPERA","155.331","0.11608279602100621","1013"
"21:10:0:0 (H:m:s:ms)","GENERIC","186.608","0.1236258016993814","1241"
"20:31:12:727 (H:m:s:ms)","GENERIC","155.78","0.08536256000356285","333"
"20:48:47:272 (H:m:s:ms)","GENERIC","186.864","0.10525654431166535","794"
"21:10:6:60 (H:m:s:ms)","GENERIC","186.31900000000002","0.06556946967385781","1006"
"20:31:18:787 (H:m:s:ms)","GENERIC","155.64","0.09445561329626977","271"
"20:48:51:645 (H:m:s:ms)","OPERA","155.385","0.10245754460186708","420"
"21:10:12:121 (H:m:s:ms)","GENERIC","186.481","0.10846581729000657","942"
"20:31:24:848 (H:m:s:ms)","GENERIC","186.47899999999998","0.07657799642472791","211"
"20:48:53:333 (H:m:s:ms)","GENERIC","186.426","0.11266874048146866","730"
"21:10:18:181 (H:m:s:ms)","GENERIC","186.74","0.08734888381203941","883"
"20:31:30:909 (H:m:s:ms)","GENERIC","186.845","0.08189363736083571","1150"
"20:48:59:240 (H:m:s:ms)","OPERA","155.451","0.05803386249873973","868"
"20:31:36:969 (H:m:s:ms)","GENERIC","186.478","0.08970490674140441","1090"
"20:48:59:393 (H:m:s:ms)","GENERIC","186.424","0.08579264162266045","778"
"20:31:43:30 (H:m:s:ms)","GENERIC","186.619","0.08179223428562528","1029"
"20:31:49:90 (H:m:s:ms)","GENERIC","186.37","0.06568651440590698","1006"
"20:49:5:454 (H:m:s:ms)","GENERIC","186.556","0.09355392362763598","606"
"20:49:6:835 (H:m:s:ms)","OPERA","155.57999999999998","0.15353649810066572","226"
"20:31:55:151 (H:m:s:ms)","GENERIC","186.494","0.04929966416477425","910"
"20:49:11:515 (H:m:s:ms)","GENERIC","186.292","0.1412797143682866","546"
"20:32:1:212 (H:m:s:ms)","GENERIC","186.49099999999999","0.0938827221077506","847"
"20:49:14:430 (H:m:s:ms)","OPERA","155.556","0.08869409233422747","636"
"20:32:7:272 (H:m:s:ms)","GENERIC","186.72899999999998","0.11114575664185547","786"
"20:49:17:575 (H:m:s:ms)","GENERIC","155.483","0.11203653982083996","489"
"20:32:13:333 (H:m:s:ms)","GENERIC","186.374","0.07404152623824527","724"
"20:49:22:25 (H:m:s:ms)","OPERA","155.511","0.13136769995100916","1041"
"20:32:19:393 (H:m:s:ms)","GENERIC","186.253","0.05154614465860679","700"
"20:49:23:636 (H:m:s:ms)","GENERIC","186.89499999999998","0.14056379444628117","427"
"20:32:25:454 (H:m:s:ms)","GENERIC","186.286","0.09730488244696536","603"
"20:49:29:696 (H:m:s:ms)","GENERIC","186.464","0.11273521446496526","408"
"20:32:31:515 (H:m:s:ms)","GENERIC","186.781","0.07823526226585957","543"
"20:49:35:757 (H:m:s:ms)","GENERIC","186.39100000000002","0.11505272571642834","304"
"20:32:37:575 (H:m:s:ms)","GENERIC","186.762","0.035507724191880204","485"
"20:49:37:215 (H:m:s:ms)","OPERA","155.51","0.13365491407235644","846"
"20:32:43:636 (H:m:s:ms)","GENERIC","186.44400000000002","0.11483794337570871","421"
"20:32:49:696 (H:m:s:ms)","GENERIC","186.413","0.05813313934360523","398"
"20:49:41:818 (H:m:s:ms)","GENERIC","186.69299999999998","0.11934931856974514","243"
"20:49:47:878 (H:m:s:ms)","GENERIC","186.458","0.04681793404258738","1185"
"20:32:55:757 (H:m:s:ms)","GENERIC","186.62","0.10500659507399326","299"
"20:49:52:405 (H:m:s:ms)","OPERA","155.34","0.08924816337460681","663"
"20:33:1:818 (H:m:s:ms)","GENERIC","186.99599999999998","0.060152473627043415","242"
"20:49:53:939 (H:m:s:ms)","GENERIC","186.637","0.12951648818579004","1120"
"20:33:7:878 (H:m:s:ms)","GENERIC","186.394","0.08955611484618801","1178"
"20:50:0:0 (H:m:s:ms)","OPERA","155.325","0.1152061027020402","1174"
"20:33:13:939 (H:m:s:ms)","GENERIC","186.458","0.06172457807295013","1118"
"20:50:0:0 (H:m:s:ms)","GENERIC","186.272","0.1488364678376113","1235"
"20:33:20:0 (H:m:s:ms)","GENERIC","186.407","0.08308223404185838","1094"
"20:50:0:0 (H:m:s:ms)","GENERIC","186.438","0.07547799273922963","1108"
"20:33:26:60 (H:m:s:ms)","GENERIC","186.413","0.04490264491248334","999"
"20:50:6:60 (H:m:s:ms)","GENERIC","186.381","0.11717505769081335","1004"
"20:33:32:121 (H:m:s:ms)","GENERIC","186.488","0.12573738098444548","934"
"20:50:12:121 (H:m:s:ms)","GENERIC","186.514","0.07717367358797163","941"
"20:33:38:181 (H:m:s:ms)","GENERIC","155.543","0.06487148315150068","878"
"20:50:18:181 (H:m:s:ms)","GENERIC","186.585","0.06480472875370966","884"
"20:33:44:242 (H:m:s:ms)","GENERIC","186.704","0.08450102626144276","815"
"20:33:50:303 (H:m:s:ms)","GENERIC","186.548","0.050068718235630576","755"
"20:50:24:242 (H:m:s:ms)","GENERIC","155.704","0.08042290857620948","820"
"20:50:30:303 (H:m:s:ms)","GENERIC","155.473","0.06156284121550652","762"
"20:33:56:363 (H:m:s:ms)","GENERIC","186.655","0.10421068355574395","691"
"20:50:36:363 (H:m:s:ms)","GENERIC","186.583","0.08195109591915462","700"
"20:34:2:424 (H:m:s:ms)","GENERIC","155.607","0.10582002416477494","635"
"20:50:42:424 (H:m:s:ms)","GENERIC","186.411","0.05574787399453036","642"
"20:10:0:0 (H:m:s:ms)","GENERIC","155.563","0.1029890738548603","1060"
"20:34:8:484 (H:m:s:ms)","GENERIC","186.489","0.07165456097319656","575"
"20:50:48:484 (H:m:s:ms)","GENERIC","186.621","0.07048763219311542","578"
"20:10:0:0 (H:m:s:ms)","GENERIC","186.59199999999998","0.15566931650231713","1155"
"20:34:14:545 (H:m:s:ms)","GENERIC","155.477","0.07777090694569648","514"
"20:50:54:545 (H:m:s:ms)","GENERIC","155.506","0.09672937900490168","516"
"20:10:6:60 (H:m:s:ms)","GENERIC","186.526","0.06588501040822908","998"
"20:34:20:606 (H:m:s:ms)","GENERIC","186.712","0.055797346764848425","454"
"20:51:0:606 (H:m:s:ms)","GENERIC","186.374","0.0808179422141709","459"
"20:10:12:121 (H:m:s:ms)","GENERIC","155.523","0.07357708768485002","940"
"20:34:26:666 (H:m:s:ms)","GENERIC","186.497","0.09762109304225029","390"
"20:51:6:666 (H:m:s:ms)","GENERIC","155.569","0.09314429705929175","395"
"20:10:18:181 (H:m:s:ms)","GENERIC","186.407","0.04835585729195729","878"
"20:34:32:727 (H:m:s:ms)","GENERIC","155.421","0.09381771723971477","332"
"20:51:12:727 (H:m:s:ms)","GENERIC","155.79","0.07642981502280415","330"
"20:10:24:242 (H:m:s:ms)","GENERIC","186.673","0.07305469729921577","817"
"20:34:38:787 (H:m:s:ms)","GENERIC","155.459","0.09193761678726277","272"
"20:51:18:787 (H:m:s:ms)","GENERIC","155.58100000000002","0.09188933869188903","273"
"20:10:30:303 (H:m:s:ms)","GENERIC","186.478","0.05284747598063863","757"
"20:34:44:848 (H:m:s:ms)","GENERIC","155.582","0.09436263466822134","212"
"20:10:36:363 (H:m:s:ms)","GENERIC","186.61599999999999","0.09318809313964364","694"
"20:34:50:909 (H:m:s:ms)","GENERIC","155.606","0.08885423590712622","1151"
"20:10:42:424 (H:m:s:ms)","GENERIC","186.416","0.06563680244481683","635"
"20:10:48:484 (H:m:s:ms)","GENERIC","186.52800000000002","0.105418469554309","576"
"20:51:24:848 (H:m:s:ms)","GENERIC","186.52","0.06818064590940873","217"
"20:51:30:909 (H:m:s:ms)","GENERIC","186.505","0.07435990424609111","1152"
"20:34:56:969 (H:m:s:ms)","GENERIC","186.511","0.10433202901386845","1088"
"20:51:36:969 (H:m:s:ms)","GENERIC","186.667","0.0466101682749838","1094"
"20:35:3:30 (H:m:s:ms)","GENERIC","155.729","0.0904209768459755","1033"
"20:51:43:30 (H:m:s:ms)","GENERIC","186.499","0.08839164431970169","1034"
"20:10:54:545 (H:m:s:ms)","GENERIC","155.621","0.057676017196484554","517"
"20:35:9:90 (H:m:s:ms)","GENERIC","186.38600000000002","0.06843346284952664","1004"
"20:51:49:90 (H:m:s:ms)","GENERIC","155.522","0.10042737876183676","1017"
"20:11:0:606 (H:m:s:ms)","GENERIC","186.529","0.07094167245876246","457"
"20:35:15:151 (H:m:s:ms)","GENERIC","186.546","0.08105167086218851","908"
"20:51:55:151 (H:m:s:ms)","GENERIC","186.50900000000001","0.05777843226314617","911"
"20:11:6:666 (H:m:s:ms)","GENERIC","155.688","0.08670423104884806","389"
"20:35:21:212 (H:m:s:ms)","GENERIC","186.849","0.060637897926642315","849"
"20:52:1:212 (H:m:s:ms)","GENERIC","155.36599999999999","0.08239232421513924","847"
"20:11:12:727 (H:m:s:ms)","GENERIC","186.459","0.05162671608957063","335"
"20:35:27:272 (H:m:s:ms)","GENERIC","186.382","0.09945207224018515","786"
"20:52:7:272 (H:m:s:ms)","GENERIC","186.346","0.05293067353834583","789"
"20:11:18:787 (H:m:s:ms)","GENERIC","187.025","0.10292358412838686","266"
"20:35:33:333 (H:m:s:ms)","GENERIC","155.51","0.09296020742694283","728"
"20:52:13:333 (H:m:s:ms)","GENERIC","155.60500000000002","0.0695605860832675","729"
"20:11:24:848 (H:m:s:ms)","GENERIC","186.463","0.08639724587902892","210"
"20:35:39:393 (H:m:s:ms)","GENERIC","186.505","0.07499314987295345","702"
"20:52:19:393 (H:m:s:ms)","GENERIC","155.402","0.03427729277999862","709"
"20:11:30:909 (H:m:s:ms)","GENERIC","186.675","0.09616530706593615","1151"
"20:35:45:454 (H:m:s:ms)","GENERIC","186.511","0.08649248588364812","605"
"20:11:36:969 (H:m:s:ms)","GENERIC","186.407","0.09372841301445275","1090"
"20:35:51:515 (H:m:s:ms)","GENERIC","186.669","0.09099783567634437","543"
"20:11:43:30 (H:m:s:ms)","GENERIC","186.529","0.0772881029997089","1032"
"20:11:49:90 (H:m:s:ms)","GENERIC","186.418","0.07075875281829133","1008"
"20:0:54:545 (H:m:s:ms)","GENERIC","155.73","0.07103114380146133","530"
"20:1:0:606 (H:m:s:ms)","GENERIC","155.393","0.08531173394445517","459"
"20:1:6:666 (H:m:s:ms)","GENERIC","124.466","0.0867367225988522","399"
"20:1:12:727 (H:m:s:ms)","GENERIC","155.472","0.040130878562529504","342"
"20:1:18:787 (H:m:s:ms)","GENERIC","155.602","0.09479056803429181","274"
"20:1:24:848 (H:m:s:ms)","GENERIC","155.691","0.05510666443171916","220"
"20:1:30:909 (H:m:s:ms)","GENERIC","124.417","0.05021937617427309","1161"
"20:1:36:969 (H:m:s:ms)","GENERIC","155.292","0.11599680030069315","1092"
"20:1:43:30 (H:m:s:ms)","GENERIC","155.44400000000002","0.05373036043064131","1039"
"20:1:49:90 (H:m:s:ms)","GENERIC","155.608","0.08512709088037397","985"
"20:35:57:575 (H:m:s:ms)","GENERIC","186.344","0.06455339156739381","485"
"20:36:3:636 (H:m:s:ms)","GENERIC","186.637","0.10640567917745651","421"
"20:11:55:151 (H:m:s:ms)","GENERIC","186.666","0.07513713907224649","911"
"20:36:9:696 (H:m:s:ms)","GENERIC","186.39600000000002","0.08400454947807129","393"
"20:12:1:212 (H:m:s:ms)","GENERIC","186.483","0.08001398968143673","847"
"20:36:15:757 (H:m:s:ms)","GENERIC","186.798","0.10639497939633163","301"
"20:12:7:272 (H:m:s:ms)","GENERIC","186.721","0.0951704263542718","788"
"20:36:21:818 (H:m:s:ms)","GENERIC","155.862","0.07540218933771232","242"
"20:12:13:333 (H:m:s:ms)","GENERIC","155.699","0.06707994780681874","727"
"20:36:27:878 (H:m:s:ms)","GENERIC","155.435","0.05644292015675923","1183"
"20:12:19:393 (H:m:s:ms)","GENERIC","186.351","0.07157738799141124","708"
"20:36:33:939 (H:m:s:ms)","GENERIC","186.47","0.060233110254140056","1124"
"20:12:25:454 (H:m:s:ms)","GENERIC","186.554","0.09201606362820633","608"
"20:36:40:0 (H:m:s:ms)","GENERIC","186.405","0.06992052337609492","1101"
"20:12:31:515 (H:m:s:ms)","GENERIC","186.59","0.12053525765664572","542"
"20:36:46:60 (H:m:s:ms)","GENERIC","186.618","0.08249107542702769","998"
"20:12:37:575 (H:m:s:ms)","GENERIC","186.882","0.06624370769122169","487"
"20:36:52:121 (H:m:s:ms)","GENERIC","186.237","0.09599687431004174","937"
"20:12:43:636 (H:m:s:ms)","GENERIC","186.531","0.07974452736938023","426"
"20:12:49:696 (H:m:s:ms)","GENERIC","186.522","0.06053017896394381","402"
"20:1:55:151 (H:m:s:ms)","GENERIC","155.334","0.06657210061373031","913"
"20:2:1:212 (H:m:s:ms)","GENERIC","155.43200000000002","0.06931889687522716","853"
"20:2:7:272 (H:m:s:ms)","GENERIC","155.446","0.07949689333731927","792"
"20:2:13:333 (H:m:s:ms)","GENERIC","155.314","0.0787786303005478","734"
"20:2:19:393 (H:m:s:ms)","GENERIC","155.317","0.06990778481171343","687"
"20:2:25:454 (H:m:s:ms)","GENERIC","155.555","0.07996596226514488","609"
"20:2:31:515 (H:m:s:ms)","GENERIC","155.426","0.10590722965454284","551"
"20:2:37:575 (H:m:s:ms)","GENERIC","155.32","0.11916784935526657","490"
"20:2:43:636 (H:m:s:ms)","GENERIC","155.52","0.06855917638797424","428"
"20:2:49:696 (H:m:s:ms)","GENERIC","155.487","0.06900798255371411","385"
"20:36:58:181 (H:m:s:ms)","GENERIC","186.864","0.08352229116408026","875"
"20:37:4:242 (H:m:s:ms)","GENERIC","186.457","0.08835049481392952","817"
"20:12:55:757 (H:m:s:ms)","GENERIC","186.591","0.06572857715280234","299"
"20:37:10:303 (H:m:s:ms)","GENERIC","155.784","0.08336244992769778","752"
"20:13:1:818 (H:m:s:ms)","GENERIC","155.654","0.0842409246751464","242"
"20:37:16:363 (H:m:s:ms)","GENERIC","186.561","0.07276170110621219","693"
"20:13:7:878 (H:m:s:ms)","GENERIC","187.055","0.12027070408182126","1178"
"20:37:22:424 (H:m:s:ms)","GENERIC","186.606","0.08043788204135903","634"
"20:13:13:939 (H:m:s:ms)","GENERIC","186.329","0.09028073303754887","1121"
"20:37:28:484 (H:m:s:ms)","GENERIC","186.78199999999998","0.10565245629525756","576"
"20:13:20:0 (H:m:s:ms)","GENERIC","186.352","0.07923045171142865","1093"
"20:37:34:545 (H:m:s:ms)","GENERIC","186.404","0.06883622145665165","510"
"20:13:26:60 (H:m:s:ms)","GENERIC","155.51","0.09569665032027727","996"
"20:37:40:606 (H:m:s:ms)","GENERIC","186.422","0.0957038583959534","454"
"20:13:32:121 (H:m:s:ms)","GENERIC","186.635","0.060964949956585794","939"
"20:37:46:666 (H:m:s:ms)","GENERIC","186.607","0.07557132906103436","394"
"20:13:38:181 (H:m:s:ms)","GENERIC","186.615","0.0657017816760057","878"
"20:37:52:727 (H:m:s:ms)","GENERIC","186.321","0.08121464885975387","335"
"20:13:44:242 (H:m:s:ms)","GENERIC","186.59","0.060756384222277686","817"
"20:13:50:303 (H:m:s:ms)","GENERIC","155.702","0.09240686429941315","761"
"20:2:55:757 (H:m:s:ms)","GENERIC","124.638","0.09248454741172961","306"
"20:3:1:818 (H:m:s:ms)","GENERIC","155.342","0.10082332588609377","251"
"20:3:7:878 (H:m:s:ms)","GENERIC","155.768","0.10031526307915806","183"
"20:3:13:939 (H:m:s:ms)","GENERIC","155.603","0.06512438014789215","1123"
"20:3:20:0 (H:m:s:ms)","GENERIC","155.537","0.0848886102796188","1066"
"20:3:26:60 (H:m:s:ms)","GENERIC","155.626","0.07682521471544107","1002"
"20:3:32:121 (H:m:s:ms)","GENERIC","124.468","0.04425678340704769","946"
"20:3:38:181 (H:m:s:ms)","GENERIC","155.594","0.08843516849464368","882"
"20:3:44:242 (H:m:s:ms)","GENERIC","155.578","0.08103777409228555","825"
"20:3:50:303 (H:m:s:ms)","GENERIC","124.33500000000001","0.06615082414419995","765"
"20:37:58:787 (H:m:s:ms)","GENERIC","186.933","0.05521121265710262","273"
"20:38:4:848 (H:m:s:ms)","GENERIC","186.599","0.06193539124736884","212"
"20:13:56:363 (H:m:s:ms)","GENERIC","186.74599999999998","0.10359999097631212","695"
"20:38:10:909 (H:m:s:ms)","GENERIC","186.609","0.11001940713087827","1152"
"20:14:2:424 (H:m:s:ms)","GENERIC","186.338","0.11169768479669054","631"
"20:38:16:969 (H:m:s:ms)","GENERIC","186.378","0.07008181907218596","1091"
"20:14:8:484 (H:m:s:ms)","GENERIC","186.674","0.12553651709962055","572"
"20:38:23:30 (H:m:s:ms)","GENERIC","186.512","0.12481433874922272","1027"
"20:14:14:545 (H:m:s:ms)","GENERIC","155.534","0.062081967051520526","517"
"20:38:29:90 (H:m:s:ms)","GENERIC","155.446","0.09090243241709088","1003"
"20:14:20:606 (H:m:s:ms)","GENERIC","155.568","0.08195719517835433","452"
"20:38:35:151 (H:m:s:ms)","GENERIC","186.43900000000002","0.06776989513821073","907"
"20:14:26:666 (H:m:s:ms)","GENERIC","186.87199999999999","0.08500338813204635","392"
"20:38:41:212 (H:m:s:ms)","GENERIC","155.612","0.0891480645279198","847"
"20:14:32:727 (H:m:s:ms)","GENERIC","186.50900000000001","0.09275074485691173","329"
"20:38:47:272 (H:m:s:ms)","GENERIC","186.718","0.09017461227837385","788"
"20:14:38:787 (H:m:s:ms)","GENERIC","186.352","0.06020058863036761","267"
"20:38:53:333 (H:m:s:ms)","GENERIC","155.529","0.12176701494062875","724"
"20:14:44:848 (H:m:s:ms)","GENERIC","186.435","0.06531150727462186","215"
"20:14:50:909 (H:m:s:ms)","GENERIC","186.808","0.0691571550761172","1150"
"20:3:56:363 (H:m:s:ms)","GENERIC","124.527","0.06661351307885371","704"
"20:4:2:424 (H:m:s:ms)","GENERIC","155.469","0.05019620358323627","644"
"20:4:8:484 (H:m:s:ms)","GENERIC","124.312","0.1000823894895028","579"
"20:4:14:545 (H:m:s:ms)","GENERIC","155.468","0.11353395105720196","512"
"20:4:20:606 (H:m:s:ms)","GENERIC","155.40200000000002","0.10343810360419818","457"
"20:4:26:666 (H:m:s:ms)","GENERIC","124.675","0.07358840044204917","399"
"20:4:32:727 (H:m:s:ms)","GENERIC","124.375","0.06302179242802629","337"
"20:4:38:787 (H:m:s:ms)","GENERIC","155.496","0.06792462600422734","289"
"20:4:44:848 (H:m:s:ms)","GENERIC","155.665","0.07808050551144802","218"
"20:4:50:909 (H:m:s:ms)","GENERIC","155.75300000000001","0.09196924166453553","1150"
"20:38:59:393 (H:m:s:ms)","GENERIC","155.466","0.09041636855819335","704"
"20:39:5:454 (H:m:s:ms)","GENERIC","186.53199999999998","0.07216249488574361","606"
"20:14:56:969 (H:m:s:ms)","GENERIC","186.453","0.050864217330425794","1087"
"20:39:11:515 (H:m:s:ms)","GENERIC","186.683","0.09310437603428662","545"
"20:15:3:30 (H:m:s:ms)","GENERIC","155.316","0.07280008423166827","1028"
"20:39:17:575 (H:m:s:ms)","GENERIC","186.487","0.09232720927110541","483"
"20:15:9:90 (H:m:s:ms)","GENERIC","155.74","0.07860376982930821","1003"
"20:39:23:636 (H:m:s:ms)","GENERIC","186.60899999999998","0.07969473168022724","426"
"20:15:15:151 (H:m:s:ms)","GENERIC","186.566","0.04317784373946412","909"
"20:39:29:696 (H:m:s:ms)","GENERIC","186.619","0.08050343882975128","402"
"20:15:21:212 (H:m:s:ms)","GENERIC","186.57","0.09439637309549628","844"
"20:39:35:757 (H:m:s:ms)","GENERIC","186.924","0.09397006489759038","300"
"20:15:27:272 (H:m:s:ms)","GENERIC","186.303","0.050657211758060136","787"
"20:39:41:818 (H:m:s:ms)","GENERIC","186.52800000000002","0.09929197319413476","237"
"20:15:33:333 (H:m:s:ms)","GENERIC","155.541","0.08573094719969039","725"
"20:39:47:878 (H:m:s:ms)","GENERIC","186.24099999999999","0.11153549339570869","1179"
"20:15:39:393 (H:m:s:ms)","GENERIC","155.73","0.10243401403492304","701"
"20:39:53:939 (H:m:s:ms)","GENERIC","155.393","0.12645146500199222","1121"
"20:15:45:454 (H:m:s:ms)","GENERIC","186.481","0.05303735164905682","605"
"20:15:51:515 (H:m:s:ms)","GENERIC","186.545","0.08410852289253908","543"
"20:4:56:969 (H:m:s:ms)","GENERIC","155.342","0.0675897218380358","1094"
"20:5:3:30 (H:m:s:ms)","GENERIC","155.566","0.08117568773087985","1033"
"20:5:9:90 (H:m:s:ms)","GENERIC","124.491","0.05238230787423527","994"
"20:5:15:151 (H:m:s:ms)","GENERIC","155.427","0.057772847245128496","906"
"20:5:21:212 (H:m:s:ms)","GENERIC","155.785","0.0962835302794885","847"
"20:5:27:272 (H:m:s:ms)","GENERIC","155.67499999999998","0.09154550096345627","786"
"20:5:33:333 (H:m:s:ms)","GENERIC","155.421","0.0892886893542395","725"
"20:5:39:393 (H:m:s:ms)","GENERIC","155.505","0.08302242754412661","698"
"20:5:45:454 (H:m:s:ms)","GENERIC","155.415","0.08369397230093438","607"
"20:5:51:515 (H:m:s:ms)","GENERIC","155.381","0.1014244213962762","544"
"20:15:57:575 (H:m:s:ms)","GENERIC","186.547","0.07750071715130674","483"
"20:16:3:636 (H:m:s:ms)","GENERIC","155.463","0.07190036991491844","420"
"20:16:9:696 (H:m:s:ms)","GENERIC","155.60399999999998","0.061630547696024586","401"
"20:16:15:757 (H:m:s:ms)","GENERIC","155.68699999999998","0.10760471913408243","307"
"20:16:21:818 (H:m:s:ms)","GENERIC","155.732","0.0715065859612193","237"
"20:16:27:878 (H:m:s:ms)","GENERIC","186.661","0.05396299311321142","1180"
"20:16:33:939 (H:m:s:ms)","GENERIC","186.47899999999998","0.05492070758775013","1118"
"20:16:40:0 (H:m:s:ms)","GENERIC","186.634","0.07904524958075783","1097"
"20:16:46:60 (H:m:s:ms)","GENERIC","186.59","0.0944692732429228","995"
"20:16:52:121 (H:m:s:ms)","GENERIC","186.728","0.09615647285386222","936"
"20:5:57:575 (H:m:s:ms)","GENERIC","155.255","0.09644705644078948","480"
"20:6:3:636 (H:m:s:ms)","GENERIC","155.464","0.08843736699608688","422"
"20:6:9:696 (H:m:s:ms)","GENERIC","155.51999999999998","0.09198282990009606","390"
"20:6:15:757 (H:m:s:ms)","GENERIC","155.531","0.10189701324781554","299"
"20:6:21:818 (H:m:s:ms)","GENERIC","155.54999999999998","0.07193745499865856","240"
"20:6:27:878 (H:m:s:ms)","GENERIC","155.446","0.11284944592834863","179"
"20:6:33:939 (H:m:s:ms)","GENERIC","155.49699999999999","0.07148256521905239","1123"
"20:6:40:0 (H:m:s:ms)","GENERIC","155.538","0.07986219755268921","1063"
"20:6:46:60 (H:m:s:ms)","GENERIC","155.67","0.10594076891464033","1000"
"20:6:52:121 (H:m:s:ms)","GENERIC","155.384","0.07330748402060397","936"
"20:16:58:181 (H:m:s:ms)","GENERIC","155.663","0.08540159766595856","880"
"20:17:4:242 (H:m:s:ms)","GENERIC","186.451","0.0630759814960838","815"
"20:17:10:303 (H:m:s:ms)","GENERIC","186.779","0.038877777830265574","761"
"20:17:16:363 (H:m:s:ms)","GENERIC","186.415","0.12122309106176839","693"
"20:17:22:424 (H:m:s:ms)","GENERIC","155.59","0.08547183092398927","636"
"20:17:28:484 (H:m:s:ms)","GENERIC","186.484","0.046358731769799426","576"
"20:17:34:545 (H:m:s:ms)","GENERIC","186.445","0.06576913597037927","516"
"20:17:40:606 (H:m:s:ms)","GENERIC","186.45600000000002","0.10472326798803963","453"
"20:17:46:666 (H:m:s:ms)","GENERIC","186.657","0.0683841993723028","393"
"20:17:52:727 (H:m:s:ms)","GENERIC","186.69299999999998","0.11342612916622294","330"
"20:6:58:181 (H:m:s:ms)","GENERIC","155.411","0.0717255298902726","878"
"20:7:4:242 (H:m:s:ms)","GENERIC","155.662","0.03900347157078249","822"
"20:7:10:303 (H:m:s:ms)","GENERIC","155.429","0.09054520567293421","754"
"20:7:16:363 (H:m:s:ms)","GENERIC","155.316","0.09378211601442318","696"
"20:7:22:424 (H:m:s:ms)","GENERIC","124.495","0.06584670957816993","635"
"20:7:28:484 (H:m:s:ms)","GENERIC","155.375","0.06656675438664963","574"
"20:7:34:545 (H:m:s:ms)","GENERIC","155.51","0.054046048525824876","513"
"20:7:40:606 (H:m:s:ms)","GENERIC","155.425","0.05238399371198972","452"
"20:7:46:666 (H:m:s:ms)","GENERIC","155.395","0.09575134983688897","394"
"20:7:52:727 (H:m:s:ms)","GENERIC","155.466","0.06629934221051043","333"
"20:17:58:787 (H:m:s:ms)","GENERIC","186.749","0.07591032048200204","273"
"20:18:4:848 (H:m:s:ms)","GENERIC","186.589","0.06827733699060805","210"
"20:18:10:909 (H:m:s:ms)","GENERIC","155.24599999999998","0.07952677057086482","1153"
"20:18:16:969 (H:m:s:ms)","GENERIC","186.576","0.09007594779434758","1094"
"20:18:23:30 (H:m:s:ms)","GENERIC","186.51","0.09419471046205756","1029"
"20:18:29:90 (H:m:s:ms)","GENERIC","186.671","0.05650418178641321","1003"
"20:18:35:151 (H:m:s:ms)","GENERIC","186.553","0.08010868309929903","909"
"20:18:41:212 (H:m:s:ms)","GENERIC","186.43200000000002","0.08655076925217825","850"
"20:18:47:272 (H:m:s:ms)","GENERIC","186.691","0.05971940291192024","788"
"20:18:53:333 (H:m:s:ms)","GENERIC","186.437","0.06481156102005016","724"
"20:7:58:787 (H:m:s:ms)","GENERIC","124.419","0.1405807263020062","274"
"20:8:4:848 (H:m:s:ms)","GENERIC","124.667","0.06772110170418522","213"
"20:8:10:909 (H:m:s:ms)","GENERIC","155.514","0.09551060950502238","1154"
"20:8:16:969 (H:m:s:ms)","GENERIC","155.473","0.08706598410916888","1090"
"20:8:23:30 (H:m:s:ms)","GENERIC","124.53","0.05505625729952061","1031"
"20:8:29:90 (H:m:s:ms)","GENERIC","124.769","0.05889561988626562","1005"
"20:8:35:151 (H:m:s:ms)","GENERIC","155.704","0.11377205855084163","908"
"20:8:41:212 (H:m:s:ms)","GENERIC","155.323","0.056746058653975466","849"
"20:8:47:272 (H:m:s:ms)","GENERIC","124.39099999999999","0.06639092083793967","786"
"20:8:53:333 (H:m:s:ms)","GENERIC","124.744","0.0920165743979038","722"
"20:18:59:393 (H:m:s:ms)","GENERIC","186.989","0.091784687704327","698"
"20:19:5:454 (H:m:s:ms)","GENERIC","186.629","0.051085387020757614","604"
"20:19:11:515 (H:m:s:ms)","GENERIC","186.61200000000002","0.08304873538038662","542"
"20:19:17:575 (H:m:s:ms)","GENERIC","186.87099999999998","0.1035011502367537","480"
"20:19:23:636 (H:m:s:ms)","GENERIC","186.652","0.08708477871850058","422"
"20:19:29:696 (H:m:s:ms)","GENERIC","186.418","0.10206686003009009","395"
"20:19:35:757 (H:m:s:ms)","GENERIC","186.455","0.07143464912578541","301"
"20:19:41:818 (H:m:s:ms)","GENERIC","186.264","0.10585922681613354","240"
"20:19:47:878 (H:m:s:ms)","GENERIC","155.627","0.11905930520744584","1179"
"20:19:53:939 (H:m:s:ms)","GENERIC","187.037","0.06415581438080055","1120"
"20:8:59:393 (H:m:s:ms)","GENERIC","155.503","0.1084724444077295","702"
"20:9:5:454 (H:m:s:ms)","GENERIC","155.446","0.06230463342081633","605"
"20:9:11:515 (H:m:s:ms)","GENERIC","155.42700000000002","0.07551935804721278","542"
"20:9:17:575 (H:m:s:ms)","GENERIC","155.44299999999998","0.06510120768176439","483"
"20:9:23:636 (H:m:s:ms)","GENERIC","124.339","0.12158589664902332","420"
"20:9:29:696 (H:m:s:ms)","GENERIC","155.502","0.05330034919347239","401"
"20:9:35:757 (H:m:s:ms)","GENERIC","155.56","0.09216851188256321","306"
"20:9:41:818 (H:m:s:ms)","GENERIC","155.76999999999998","0.09318974294672747","241"
"20:9:47:878 (H:m:s:ms)","GENERIC","124.15700000000001","0.08907132725061798","178"
"20:9:53:939 (H:m:s:ms)","GENERIC","124.57300000000001","0.04884192937845817","1122"
"21:41:36:969 (H:m:s:ms)","GENERIC","186.54","0.05659728571809174","1102"
"21:41:30:909 (H:m:s:ms)","GENERIC","186.826","0.08136735207600033","1160"
"21:41:24:848 (H:m:s:ms)","GENERIC","186.47899999999998","0.06801634023234421","220"
"21:41:18:787 (H:m:s:ms)","GENERIC","186.45499999999998","0.060096695143886554","273"
"21:41:12:727 (H:m:s:ms)","GENERIC","155.583","0.0937567340047177","335"
"21:41:6:666 (H:m:s:ms)","GENERIC","186.688","0.09268478882909177","395"
"21:41:0:606 (H:m:s:ms)","GENERIC","155.517","0.09636793233974177","452"
"21:41:55:151 (H:m:s:ms)","GENERIC","155.51600000000002","0.09758088985003299","912"
"21:41:49:90 (H:m:s:ms)","GENERIC","186.55200000000002","0.06230937047046824","1026"
"21:41:43:30 (H:m:s:ms)","GENERIC","186.525","0.08356317058603926","1034"
