"time (H:m:s:ms)","type","latency","utilisation","waiting"
"21:42:31:515 (H:m:s:ms)","GENERIC","124.68299999999999","0.2808217308470487","556"
"21:42:13:333 (H:m:s:ms)","GENERIC","124.389","0.27609695169730103","740"
"21:42:7:272 (H:m:s:ms)","GENERIC","124.362","0.2741055276841894","794"
"21:42:1:212 (H:m:s:ms)","GENERIC","93.358","0.27528460451537146","854"
"21:41:55:151 (H:m:s:ms)","GENERIC","124.495","0.2760904200327791","912"
"21:41:49:90 (H:m:s:ms)","GENERIC","124.298","0.27709659288172567","1022"
"21:41:43:30 (H:m:s:ms)","GENERIC","124.315","0.273618855244059","1045"
"21:41:36:969 (H:m:s:ms)","GENERIC","124.60900000000001","0.2762455361159182","1094"
"21:41:30:909 (H:m:s:ms)","GENERIC","124.643","0.27492628596223306","1162"
"21:42:25:454 (H:m:s:ms)","GENERIC","124.374","0.27793902942854687","613"
"21:42:19:393 (H:m:s:ms)","GENERIC","124.189","0.27506309284802527","710"
"21:43:38:181 (H:m:s:ms)","GENERIC","124.571","0.282997102927069","898"
"21:43:32:121 (H:m:s:ms)","GENERIC","124.695","0.28482981009165803","940"
"21:43:20:0 (H:m:s:ms)","GENERIC","124.693","0.28312063252552494","1113"
"20:0:0:0 (H:m:s:ms)","GENERIC","93.364","0.021044328170053955","1732"
"21:43:13:939 (H:m:s:ms)","GENERIC","124.411","0.28087385439204454","1127"
"20:0:6:60 (H:m:s:ms)","GENERIC","93.14099999999999","0.037158129983435206","1075"
"21:43:7:878 (H:m:s:ms)","GENERIC","124.482","0.28063171698228145","1181"
"20:0:12:121 (H:m:s:ms)","GENERIC","93.191","0.06184800819764985","998"
"21:43:1:818 (H:m:s:ms)","GENERIC","124.506","0.276507574072686","257"
"20:0:18:181 (H:m:s:ms)","GENERIC","93.518","0.08934538987203772","932"
"21:42:55:757 (H:m:s:ms)","GENERIC","124.511","0.27817231134470277","317"
"20:0:24:242 (H:m:s:ms)","GENERIC","93.317","0.10559325770327399","883"
"21:42:49:696 (H:m:s:ms)","GENERIC","124.66900000000001","0.28163740968003925","425"
"20:0:30:303 (H:m:s:ms)","GENERIC","93.619","0.11501149989814545","818"
"21:42:43:636 (H:m:s:ms)","GENERIC","124.848","0.28177106323460616","432"
"20:0:36:363 (H:m:s:ms)","GENERIC","93.14500000000001","0.1194443260627629","762"
"21:42:37:575 (H:m:s:ms)","GENERIC","124.34","0.28002676303824875","501"
"20:0:42:424 (H:m:s:ms)","GENERIC","93.279","0.1319248857979691","661"
"21:10:18:181 (H:m:s:ms)","GENERIC","124.511","0.29651630832689446","875"
"20:0:48:484 (H:m:s:ms)","GENERIC","93.37","0.1356208645417733","615"
"21:10:24:242 (H:m:s:ms)","GENERIC","124.43","0.29920737558184357","815"
"21:10:30:303 (H:m:s:ms)","GENERIC","124.564","0.2974600700756531","744"
"21:10:36:363 (H:m:s:ms)","GENERIC","124.29599999999999","0.30066039508921","692"
"21:10:42:424 (H:m:s:ms)","GENERIC","124.401","0.3004683826347286","635"
"21:10:48:484 (H:m:s:ms)","GENERIC","124.715","0.30534171614682776","566"
"21:10:54:545 (H:m:s:ms)","GENERIC","124.424","0.309070844084016","519"
"21:11:0:606 (H:m:s:ms)","GENERIC","124.537","0.3085521242289378","437"
"21:43:26:60 (H:m:s:ms)","GENERIC","124.608","0.2832241678117727","1017"
"21:11:6:666 (H:m:s:ms)","GENERIC","93.707","0.30891751849479465","381"
"21:11:12:727 (H:m:s:ms)","GENERIC","124.291","0.31200014213827043","320"
"21:25:45:454 (H:m:s:ms)","GENERIC","124.381","0.2994782527704677","605"
"21:44:44:848 (H:m:s:ms)","GENERIC","124.20400000000001","0.28711337142559845","216"
"21:44:38:787 (H:m:s:ms)","GENERIC","124.37899999999999","0.2878842801704711","290"
"21:44:32:727 (H:m:s:ms)","GENERIC","124.563","0.2869624638255491","355"
"21:44:26:666 (H:m:s:ms)","GENERIC","124.601","0.2841525261043346","403"
"21:44:20:606 (H:m:s:ms)","GENERIC","124.172","0.2834073669834251","476"
"21:44:14:545 (H:m:s:ms)","GENERIC","124.452","0.28233337414798276","543"
"21:44:8:484 (H:m:s:ms)","GENERIC","124.39699999999999","0.2836754583455277","600"
"21:44:2:424 (H:m:s:ms)","GENERIC","124.791","0.283540757695833","656"
"21:43:56:363 (H:m:s:ms)","GENERIC","93.6","0.28368779051388027","716"
"21:43:50:303 (H:m:s:ms)","GENERIC","124.527","0.28320158555073455","770"
"21:11:18:787 (H:m:s:ms)","GENERIC","124.626","0.3115352279240294","262"
"21:43:44:242 (H:m:s:ms)","GENERIC","124.564","0.2818747192016037","827"
"21:11:24:848 (H:m:s:ms)","GENERIC","124.654","0.3093771859751012","205"
"21:11:30:909 (H:m:s:ms)","GENERIC","124.25999999999999","0.3092575692010692","1154"
"21:11:36:969 (H:m:s:ms)","GENERIC","124.58099999999999","0.3097058974835813","1087"
"21:11:43:30 (H:m:s:ms)","GENERIC","124.372","0.3121692406692568","1027"
"21:11:49:90 (H:m:s:ms)","GENERIC","124.756","0.3089950661884938","1002"
"21:11:55:151 (H:m:s:ms)","GENERIC","124.58099999999999","0.30359008396710313","905"
"21:12:1:212 (H:m:s:ms)","GENERIC","93.43299999999999","0.30179681932367436","842"
"21:12:7:272 (H:m:s:ms)","GENERIC","124.36699999999999","0.29800290497707327","792"
"21:12:13:333 (H:m:s:ms)","GENERIC","124.4","0.29611060327785865","715"
"21:26:21:818 (H:m:s:ms)","GENERIC","124.362","0.3012632244684823","215"
"21:45:51:515 (H:m:s:ms)","GENERIC","124.41499999999999","0.2836042006650755","547"
"21:26:19:746 (H:m:s:ms)","OPERA","124.388","0.3027641060740343","338"
"21:45:45:454 (H:m:s:ms)","GENERIC","124.537","0.28229088784696676","621"
"21:45:39:393 (H:m:s:ms)","GENERIC","124.526","0.2819487563761251","716"
"21:45:33:333 (H:m:s:ms)","GENERIC","124.35300000000001","0.28416612668247027","720"
"21:26:12:151 (H:m:s:ms)","OPERA","124.226","0.2997251506354549","906"
"21:26:9:696 (H:m:s:ms)","GENERIC","93.607","0.3000840853371745","389"
"21:45:27:272 (H:m:s:ms)","GENERIC","124.418","0.28368512774017457","806"
"21:26:4:556 (H:m:s:ms)","OPERA","93.354","0.30430329980329945","489"
"21:45:21:212 (H:m:s:ms)","GENERIC","124.416","0.282534214328078","854"
"21:26:3:636 (H:m:s:ms)","GENERIC","124.376","0.30472335749769686","412"
"21:45:15:151 (H:m:s:ms)","GENERIC","124.214","0.2805570975528419","932"
"21:25:57:575 (H:m:s:ms)","GENERIC","124.352","0.30729342998088766","518"
"21:45:9:90 (H:m:s:ms)","GENERIC","93.251","0.2807063194890501","1024"
"21:25:56:962 (H:m:s:ms)","OPERA","124.437","0.307446001060635","1085"
"21:45:3:30 (H:m:s:ms)","GENERIC","124.48400000000001","0.2826789122334668","1035"
"21:12:19:393 (H:m:s:ms)","GENERIC","93.27","0.2954444720642953","704"
"21:25:51:515 (H:m:s:ms)","GENERIC","124.449","0.3051288878758165","540"
"21:44:56:969 (H:m:s:ms)","GENERIC","93.333","0.289443453156257","1103"
"21:12:25:454 (H:m:s:ms)","GENERIC","124.569","0.2905980628654823","600"
"21:25:49:367 (H:m:s:ms)","OPERA","124.565","0.3051829869232668","710"
"21:44:50:909 (H:m:s:ms)","GENERIC","124.394","0.2901172421389392","1151"
"21:12:31:515 (H:m:s:ms)","GENERIC","124.464","0.29795166021780695","533"
"21:12:37:575 (H:m:s:ms)","GENERIC","124.275","0.2976694775762447","477"
"21:12:43:636 (H:m:s:ms)","GENERIC","124.215","0.29988549494788674","430"
"21:12:49:696 (H:m:s:ms)","GENERIC","124.293","0.29900220830303376","401"
"21:12:55:757 (H:m:s:ms)","GENERIC","124.322","0.2984801678497261","302"
"21:13:1:818 (H:m:s:ms)","GENERIC","124.639","0.2984266964578436","242"
"21:13:7:878 (H:m:s:ms)","GENERIC","124.343","0.2983758722494155","1193"
"21:13:13:939 (H:m:s:ms)","GENERIC","124.25200000000001","0.2970217108001958","1113"
"21:26:15:757 (H:m:s:ms)","GENERIC","124.55","0.3006766232400811","288"
"21:26:58:181 (H:m:s:ms)","GENERIC","124.2","0.2959178122240301","876"
"21:46:58:181 (H:m:s:ms)","GENERIC","124.494","0.2867001853919545","888"
"21:26:57:721 (H:m:s:ms)","OPERA","124.416","0.29655128402461","320"
"21:46:52:121 (H:m:s:ms)","GENERIC","124.503","0.2872829147231048","951"
"21:26:52:121 (H:m:s:ms)","GENERIC","93.507","0.2964663028718104","927"
"21:46:46:60 (H:m:s:ms)","GENERIC","124.488","0.2902618492248255","1007"
"21:46:40:0 (H:m:s:ms)","GENERIC","124.524","0.2863397688913262","1114"
"21:46:33:939 (H:m:s:ms)","GENERIC","124.275","0.28269565267040475","1127"
"21:26:50:126 (H:m:s:ms)","OPERA","124.366","0.29698883918194824","920"
"21:26:46:60 (H:m:s:ms)","GENERIC","124.691","0.2965657947236863","990"
"21:26:42:531 (H:m:s:ms)","OPERA","124.449","0.2957036948705718","514"
"21:46:27:878 (H:m:s:ms)","GENERIC","124.241","0.2810712721669654","1199"
"21:26:40:0 (H:m:s:ms)","GENERIC","124.547","0.2946514145624383","1094"
"21:46:21:818 (H:m:s:ms)","GENERIC","124.435","0.28145437083120933","245"
"21:26:34:936 (H:m:s:ms)","OPERA","124.818","0.2971211194791806","1143"
"21:46:15:757 (H:m:s:ms)","GENERIC","124.55799999999999","0.28050310099038217","306"
"21:13:20:0 (H:m:s:ms)","GENERIC","124.332","0.29550800451980846","1106"
"21:26:33:939 (H:m:s:ms)","GENERIC","124.298","0.29653095078205777","1114"
"21:46:9:696 (H:m:s:ms)","GENERIC","124.678","0.2792265515580732","409"
"21:13:26:60 (H:m:s:ms)","GENERIC","124.582","0.2963752141635477","1000"
"21:26:27:878 (H:m:s:ms)","GENERIC","124.523","0.2986594149048469","1208"
"21:46:3:636 (H:m:s:ms)","GENERIC","124.38499999999999","0.28426639805148385","430"
"21:13:32:121 (H:m:s:ms)","GENERIC","124.386","0.2968408779581543","939"
"21:26:27:341 (H:m:s:ms)","OPERA","124.619","0.30041794866254473","700"
"21:45:57:575 (H:m:s:ms)","GENERIC","124.231","0.28276618243682033","493"
"21:13:38:181 (H:m:s:ms)","GENERIC","124.37100000000001","0.2954586799438431","883"
"21:13:44:242 (H:m:s:ms)","GENERIC","124.44200000000001","0.29700126950448674","807"
"21:13:50:303 (H:m:s:ms)","GENERIC","124.521","0.2953504421060992","764"
"21:13:56:363 (H:m:s:ms)","GENERIC","124.507","0.29594159363924727","690"
"21:14:2:424 (H:m:s:ms)","GENERIC","124.24199999999999","0.29628601441980323","649"
"21:14:8:484 (H:m:s:ms)","GENERIC","124.551","0.2974605451734012","579"
"21:14:14:545 (H:m:s:ms)","GENERIC","124.336","0.2996894221718856","514"
"21:27:35:696 (H:m:s:ms)","OPERA","124.52600000000001","0.30337522791925764","345"
"21:48:4:848 (H:m:s:ms)","GENERIC","124.57400000000001","0.28661336183253455","225"
"21:27:34:545 (H:m:s:ms)","GENERIC","124.759","0.30265372638252885","502"
"21:47:58:787 (H:m:s:ms)","GENERIC","124.336","0.2843533776253031","296"
"21:27:28:484 (H:m:s:ms)","GENERIC","124.542","0.29881869060548943","609"
"21:47:52:727 (H:m:s:ms)","GENERIC","124.473","0.2844708021424967","337"
"21:27:28:101 (H:m:s:ms)","OPERA","124.364","0.2972735297758024","940"
"21:47:46:666 (H:m:s:ms)","GENERIC","124.345","0.28374517612132766","397"
"21:47:40:606 (H:m:s:ms)","GENERIC","124.34100000000001","0.28305307956070624","451"
"21:47:34:545 (H:m:s:ms)","GENERIC","124.28999999999999","0.28426049236246426","522"
"21:27:22:424 (H:m:s:ms)","GENERIC","124.509","0.2974635158841023","602"
"21:27:20:506 (H:m:s:ms)","OPERA","124.706","0.2976934057833295","533"
"21:27:16:363 (H:m:s:ms)","GENERIC","124.41499999999999","0.29818230684624963","688"
"21:47:28:484 (H:m:s:ms)","GENERIC","124.404","0.28716229378491476","573"
"21:14:20:606 (H:m:s:ms)","GENERIC","124.685","0.2988507705881565","450"
"21:27:12:911 (H:m:s:ms)","OPERA","93.518","0.29755993505974015","1131"
"21:47:22:424 (H:m:s:ms)","GENERIC","124.389","0.28844304916011954","634"
"21:14:26:666 (H:m:s:ms)","GENERIC","124.42","0.2995943269089111","395"
"21:27:10:303 (H:m:s:ms)","GENERIC","124.581","0.29595963547526116","752"
"21:47:16:363 (H:m:s:ms)","GENERIC","124.262","0.28649186929369497","712"
"20:52:19:393 (H:m:s:ms)","GENERIC","124.27","0.2899162676698887","697"
"21:14:32:727 (H:m:s:ms)","GENERIC","124.482","0.2957495214816485","345"
"21:27:5:316 (H:m:s:ms)","OPERA","124.356","0.29777499284734404","734"
"21:47:10:303 (H:m:s:ms)","GENERIC","93.623","0.287836724188305","770"
"20:52:25:454 (H:m:s:ms)","GENERIC","124.28","0.29010055240988697","599"
"21:14:38:787 (H:m:s:ms)","GENERIC","124.666","0.29317684496842883","277"
"21:27:4:242 (H:m:s:ms)","GENERIC","124.61000000000001","0.29532881391649124","798"
"21:47:4:242 (H:m:s:ms)","GENERIC","124.32900000000001","0.2885069132409112","823"
"20:52:31:515 (H:m:s:ms)","GENERIC","124.61500000000001","0.2890048296659253","530"
"21:14:44:848 (H:m:s:ms)","GENERIC","124.506","0.2901974242448189","208"
"20:52:37:575 (H:m:s:ms)","GENERIC","124.854","0.2914230708619226","482"
"21:14:50:909 (H:m:s:ms)","GENERIC","124.43","0.29134417148178665","1161"
"20:52:43:636 (H:m:s:ms)","GENERIC","124.48","0.28941849648059026","409"
"21:14:56:969 (H:m:s:ms)","GENERIC","124.368","0.2881523771652023","1100"
"20:52:49:696 (H:m:s:ms)","GENERIC","124.27","0.2935001896112171","397"
"21:15:3:30 (H:m:s:ms)","GENERIC","124.343","0.28571934285257655","1035"
"20:52:55:757 (H:m:s:ms)","GENERIC","124.596","0.29343619677724336","293"
"21:15:9:90 (H:m:s:ms)","GENERIC","124.267","0.2856135137687904","1019"
"20:53:1:818 (H:m:s:ms)","GENERIC","93.46199999999999","0.292196195911613","218"
"21:15:15:151 (H:m:s:ms)","GENERIC","124.43","0.2834096049014945","902"
"20:53:7:878 (H:m:s:ms)","GENERIC","124.28","0.2894649731707164","1171"
"20:53:13:939 (H:m:s:ms)","GENERIC","124.336","0.28937088292328594","1117"
"21:28:13:670 (H:m:s:ms)","OPERA","124.40100000000001","0.2989357983563697","368"
"21:49:11:515 (H:m:s:ms)","GENERIC","124.279","0.2984384556551075","553"
"21:28:10:909 (H:m:s:ms)","GENERIC","124.582","0.2973686785203917","1139"
"21:49:5:454 (H:m:s:ms)","GENERIC","124.856","0.29111305641025825","625"
"21:28:6:75 (H:m:s:ms)","OPERA","124.247","0.2964325576597773","964"
"21:48:59:393 (H:m:s:ms)","GENERIC","124.274","0.29028975025970066","729"
"21:28:4:848 (H:m:s:ms)","GENERIC","124.613","0.29643961280703635","192"
"21:48:53:333 (H:m:s:ms)","GENERIC","124.598","0.288339241887485","728"
"21:27:58:787 (H:m:s:ms)","GENERIC","124.411","0.29825904386571506","255"
"21:48:47:272 (H:m:s:ms)","GENERIC","124.47800000000001","0.2844992977700954","787"
"21:48:41:212 (H:m:s:ms)","GENERIC","93.58","0.2851869528248405","849"
"21:48:35:151 (H:m:s:ms)","GENERIC","124.744","0.28614518915325193","908"
"21:27:58:481 (H:m:s:ms)","OPERA","124.84700000000001","0.2965316809964492","601"
"21:15:21:212 (H:m:s:ms)","GENERIC","124.463","0.2865392621907828","862"
"21:27:52:727 (H:m:s:ms)","GENERIC","124.727","0.2983229453403328","329"
"21:15:27:272 (H:m:s:ms)","GENERIC","124.436","0.28695429469591843","800"
"21:27:50:886 (H:m:s:ms)","OPERA","124.494","0.2983646810850607","1157"
"21:48:29:90 (H:m:s:ms)","GENERIC","124.394","0.28408440289571735","1027"
"20:53:20:0 (H:m:s:ms)","GENERIC","124.48599999999999","0.2902144300190091","1096"
"21:15:33:333 (H:m:s:ms)","GENERIC","124.42099999999999","0.28635878224955064","725"
"21:27:46:666 (H:m:s:ms)","GENERIC","124.286","0.29990751386672787","391"
"21:48:23:30 (H:m:s:ms)","GENERIC","124.547","0.28129073848609654","1036"
"20:53:26:60 (H:m:s:ms)","GENERIC","124.884","0.28919421395178413","989"
"21:15:39:393 (H:m:s:ms)","GENERIC","124.423","0.28695888913748596","713"
"21:27:43:291 (H:m:s:ms)","OPERA","93.54","0.30285738472185425","748"
"21:48:16:969 (H:m:s:ms)","GENERIC","124.522","0.2816615562160608","1102"
"20:53:32:121 (H:m:s:ms)","GENERIC","124.399","0.28786535278350817","917"
"21:15:45:454 (H:m:s:ms)","GENERIC","124.53399999999999","0.28535982990655273","613"
"21:27:40:606 (H:m:s:ms)","GENERIC","124.543","0.30252339098391384","442"
"21:48:10:909 (H:m:s:ms)","GENERIC","124.22999999999999","0.28340420083750073","1158"
"20:53:38:181 (H:m:s:ms)","GENERIC","124.34","0.2856905707738138","876"
"21:15:51:515 (H:m:s:ms)","GENERIC","124.932","0.28313926269467027","551"
"20:53:44:242 (H:m:s:ms)","GENERIC","124.43299999999999","0.28590023765971023","812"
"21:15:57:575 (H:m:s:ms)","GENERIC","124.30799999999999","0.2866154439810057","473"
"20:53:50:303 (H:m:s:ms)","GENERIC","124.499","0.2836835472825973","758"
"21:16:3:636 (H:m:s:ms)","GENERIC","124.43","0.2885646965873154","428"
"20:53:56:363 (H:m:s:ms)","GENERIC","124.787","0.2807328784982331","687"
"21:16:9:696 (H:m:s:ms)","GENERIC","93.355","0.28681512740715226","413"
"20:54:2:424 (H:m:s:ms)","GENERIC","124.414","0.28112373530943363","633"
"21:16:15:757 (H:m:s:ms)","GENERIC","124.168","0.28383565589651133","310"
"20:54:8:484 (H:m:s:ms)","GENERIC","124.75","0.28039374699144204","564"
"20:54:14:545 (H:m:s:ms)","GENERIC","124.491","0.2813692110044759","511"
"21:28:51:645 (H:m:s:ms)","OPERA","124.53800000000001","0.300755641259661","409"
"22:7:22:105 (H:m:s:ms)","AMBULANCE","124.408","0.05444984507087845","992"
"21:28:47:272 (H:m:s:ms)","GENERIC","124.616","0.2987746956703766","781"
"22:5:15:789 (H:m:s:ms)","AMBULANCE","124.24199999999999","0.08821619584054616","336"
"21:28:44:50 (H:m:s:ms)","OPERA","124.195","0.30265256471408003","1004"
"22:0:31:578 (H:m:s:ms)","AMBULANCE","124.461","0.08065289363679203","566"
"21:28:41:212 (H:m:s:ms)","GENERIC","124.729","0.30180926841932737","834"
"21:50:0:0 (H:m:s:ms)","GENERIC","124.592","0.2980956444986947","1120"
"21:28:36:455 (H:m:s:ms)","OPERA","124.756","0.30153325315438956","593"
"21:49:53:939 (H:m:s:ms)","GENERIC","124.267","0.29652308581086106","1131"
"21:28:35:151 (H:m:s:ms)","GENERIC","124.711","0.30060156609651795","888"
"21:49:47:878 (H:m:s:ms)","GENERIC","124.471","0.2981145495627174","1194"
"21:49:41:818 (H:m:s:ms)","GENERIC","93.411","0.3016221962904952","260"
"21:49:35:757 (H:m:s:ms)","GENERIC","93.469","0.30064909733791373","311"
"21:16:21:818 (H:m:s:ms)","GENERIC","124.37100000000001","0.28087293734542285","251"
"21:16:27:878 (H:m:s:ms)","GENERIC","124.358","0.28062020092519735","1194"
"21:28:29:90 (H:m:s:ms)","GENERIC","124.55699999999999","0.29676865137048136","991"
"20:54:20:606 (H:m:s:ms)","GENERIC","124.616","0.28037218296282534","458"
"21:16:33:939 (H:m:s:ms)","GENERIC","124.649","0.28409710552141254","1119"
"21:28:28:860 (H:m:s:ms)","OPERA","93.497","0.2947918093982239","191"
"20:54:26:666 (H:m:s:ms)","GENERIC","124.55000000000001","0.2817117252569255","384"
"21:16:40:0 (H:m:s:ms)","GENERIC","124.289","0.2828608010367196","1106"
"21:28:23:30 (H:m:s:ms)","GENERIC","124.721","0.2974514512583397","1020"
"21:49:29:696 (H:m:s:ms)","GENERIC","124.518","0.2991557386799786","426"
"20:54:32:727 (H:m:s:ms)","GENERIC","124.563","0.2815013120876281","332"
"21:16:46:60 (H:m:s:ms)","GENERIC","124.645","0.2808661529475641","1007"
"21:28:21:265 (H:m:s:ms)","OPERA","93.392","0.2981626710494633","780"
"21:49:23:636 (H:m:s:ms)","GENERIC","124.27","0.2987693738533344","427"
"20:54:38:787 (H:m:s:ms)","GENERIC","124.293","0.2846160906659646","277"
"21:16:52:121 (H:m:s:ms)","GENERIC","124.569","0.27958792156560064","943"
"21:28:16:969 (H:m:s:ms)","GENERIC","124.602","0.30064592923695527","1064"
"21:49:17:575 (H:m:s:ms)","GENERIC","124.326","0.29672554834049153","506"
"20:54:44:848 (H:m:s:ms)","GENERIC","124.58500000000001","0.28614756510183","200"
"21:16:58:181 (H:m:s:ms)","GENERIC","124.28200000000001","0.2801655710904792","886"
"20:54:50:909 (H:m:s:ms)","GENERIC","124.411","0.28557485418734585","1147"
"21:17:4:242 (H:m:s:ms)","GENERIC","124.197","0.2840951889278826","820"
"20:54:56:969 (H:m:s:ms)","GENERIC","124.358","0.2829879551993955","1090"
"21:17:10:303 (H:m:s:ms)","GENERIC","124.655","0.28471751046106564","759"
"20:55:3:30 (H:m:s:ms)","GENERIC","124.324","0.2818490200161003","1030"
"21:17:16:363 (H:m:s:ms)","GENERIC","124.447","0.2871820340622258","698"
"20:55:9:90 (H:m:s:ms)","GENERIC","124.32900000000001","0.28599362812151","1004"
"20:55:15:151 (H:m:s:ms)","GENERIC","124.503","0.28226588595303076","901"
"21:29:29:620 (H:m:s:ms)","OPERA","124.46199999999999","0.31101542942472765","468"
"21:29:23:636 (H:m:s:ms)","GENERIC","124.66300000000001","0.30964862729698733","407"
"21:29:22:25 (H:m:s:ms)","OPERA","124.59899999999999","0.30698949431948713","1009"
"21:29:17:575 (H:m:s:ms)","GENERIC","124.66399999999999","0.30582963714764877","465"
"21:29:14:430 (H:m:s:ms)","OPERA","124.396","0.30134650479016134","618"
"21:29:11:515 (H:m:s:ms)","GENERIC","124.615","0.3022164398603249","529"
"21:29:6:835 (H:m:s:ms)","OPERA","124.64099999999999","0.300493860033074","216"
"21:17:22:424 (H:m:s:ms)","GENERIC","124.65899999999999","0.29052312211268905","637"
"21:17:28:484 (H:m:s:ms)","GENERIC","124.39099999999999","0.290800399422153","592"
"20:55:21:212 (H:m:s:ms)","GENERIC","124.279","0.2827372150530122","842"
"21:17:34:545 (H:m:s:ms)","GENERIC","124.51","0.28685890868539365","521"
"20:55:27:272 (H:m:s:ms)","GENERIC","124.588","0.2849035592867694","791"
"21:17:40:606 (H:m:s:ms)","GENERIC","124.631","0.28379961412551086","457"
"21:29:5:454 (H:m:s:ms)","GENERIC","124.245","0.30031012630855536","587"
"20:55:33:333 (H:m:s:ms)","GENERIC","124.234","0.28286397015365755","725"
"21:17:46:666 (H:m:s:ms)","GENERIC","124.459","0.28534420879853895","394"
"21:28:59:393 (H:m:s:ms)","GENERIC","124.549","0.3002272968118396","748"
"20:55:39:393 (H:m:s:ms)","GENERIC","124.56899999999999","0.2790480076207784","707"
"21:17:52:727 (H:m:s:ms)","GENERIC","124.343","0.2870410624558434","335"
"21:28:59:240 (H:m:s:ms)","OPERA","93.206","0.3005280641631692","855"
"20:55:45:454 (H:m:s:ms)","GENERIC","124.495","0.27716244617178604","613"
"21:17:58:787 (H:m:s:ms)","GENERIC","124.46000000000001","0.2852485386680835","286"
"21:28:53:333 (H:m:s:ms)","GENERIC","124.20400000000001","0.3011699104766148","713"
"22:8:56:842 (H:m:s:ms)","AMBULANCE","124.54499999999999","0.05820517980790982","256"
"20:55:51:515 (H:m:s:ms)","GENERIC","124.691","0.2755655504139275","544"
"21:18:4:848 (H:m:s:ms)","GENERIC","124.614","0.2844482445061763","218"
"20:55:57:575 (H:m:s:ms)","GENERIC","124.643","0.2745579148296092","475"
"21:18:10:909 (H:m:s:ms)","GENERIC","124.689","0.28981190584778904","1157"
"20:56:3:636 (H:m:s:ms)","GENERIC","93.351","0.2751698092755208","431"
"21:18:16:969 (H:m:s:ms)","GENERIC","124.43700000000001","0.29015766324923414","1078"
"20:56:9:696 (H:m:s:ms)","GENERIC","124.447","0.27539772137792107","409"
"20:56:15:757 (H:m:s:ms)","GENERIC","93.229","0.27309872565441057","294"
"21:30:0:0 (H:m:s:ms)","GENERIC","124.521","0.30979641982972445","1173"
"21:30:0:0 (H:m:s:ms)","GENERIC","124.58099999999999","0.3074187773115302","1130"
"21:30:0:0 (H:m:s:ms)","OPERA","124.337","0.3046206334916658","1090"
"21:29:53:939 (H:m:s:ms)","GENERIC","124.845","0.30478749275746775","1105"
"21:29:52:405 (H:m:s:ms)","OPERA","124.97999999999999","0.3046364761818495","629"
"21:29:47:878 (H:m:s:ms)","GENERIC","124.443","0.3084963832915316","1151"
"21:29:44:810 (H:m:s:ms)","OPERA","124.33500000000001","0.3079884759219613","219"
"21:29:41:818 (H:m:s:ms)","GENERIC","124.469","0.3088483512343454","239"
"21:18:23:30 (H:m:s:ms)","GENERIC","124.265","0.293384071124822","1028"
"21:18:29:90 (H:m:s:ms)","GENERIC","124.372","0.29215682127961823","1009"
"20:56:21:818 (H:m:s:ms)","GENERIC","124.673","0.27659680959959476","247"
"21:18:35:151 (H:m:s:ms)","GENERIC","124.792","0.29155897746715304","916"
"20:56:27:878 (H:m:s:ms)","GENERIC","124.596","0.27396736657882237","1177"
"21:18:41:212 (H:m:s:ms)","GENERIC","124.59","0.29166886430926947","843"
"20:40:0:0 (H:m:s:ms)","OPERA","93.34","0.28730541867774734","1539"
"20:56:33:939 (H:m:s:ms)","GENERIC","124.456","0.27541150636404915","1121"
"21:18:47:272 (H:m:s:ms)","GENERIC","124.265","0.28754054654859484","786"
"20:40:0:0 (H:m:s:ms)","GENERIC","124.46000000000001","0.2904647258525537","1591"
"20:56:40:0 (H:m:s:ms)","GENERIC","124.374","0.2785660917268162","1113"
"21:18:53:333 (H:m:s:ms)","GENERIC","124.411","0.2870929651576629","735"
"21:29:37:215 (H:m:s:ms)","OPERA","93.62299999999999","0.3073054090242713","827"
"20:40:0:0 (H:m:s:ms)","GENERIC","124.526","0.29240030259006583","1657"
"20:56:46:60 (H:m:s:ms)","GENERIC","124.435","0.27833669162223257","995"
"21:18:59:393 (H:m:s:ms)","GENERIC","93.47200000000001","0.2826805044188641","714"
"21:29:35:757 (H:m:s:ms)","GENERIC","124.693","0.3076165159659842","275"
"20:40:6:60 (H:m:s:ms)","GENERIC","124.206","0.2919995114823474","999"
"20:56:52:121 (H:m:s:ms)","GENERIC","124.254","0.2793594445962701","942"
"21:19:5:454 (H:m:s:ms)","GENERIC","124.55","0.28174502442717614","609"
"21:29:29:696 (H:m:s:ms)","GENERIC","124.765","0.3102409394380061","420"
"20:40:7:594 (H:m:s:ms)","OPERA","93.33","0.29561625840066386","457"
"20:56:58:181 (H:m:s:ms)","GENERIC","124.423","0.28293861222129335","884"
"21:19:11:515 (H:m:s:ms)","GENERIC","124.483","0.2825968891980202","548"
"20:40:12:121 (H:m:s:ms)","GENERIC","124.619","0.2940510593435935","940"
"20:57:4:242 (H:m:s:ms)","GENERIC","124.578","0.28109236464556825","814"
"21:19:17:575 (H:m:s:ms)","GENERIC","124.62100000000001","0.28018878711748313","498"
"20:40:15:189 (H:m:s:ms)","OPERA","93.281","0.297758049473907","876"
"20:57:10:303 (H:m:s:ms)","GENERIC","124.469","0.2839611019749916","748"
"20:40:18:181 (H:m:s:ms)","GENERIC","124.219","0.2954875936120813","875"
"20:57:16:363 (H:m:s:ms)","GENERIC","124.237","0.2803697544138713","700"
"20:40:22:784 (H:m:s:ms)","OPERA","93.372","0.2940295431493656","269"
"20:40:24:242 (H:m:s:ms)","GENERIC","124.637","0.29528292493886765","807"
"21:30:12:121 (H:m:s:ms)","GENERIC","124.46799999999999","0.3080235613982544","948"
"21:30:54:545 (H:m:s:ms)","GENERIC","124.44","0.30125418636850787","513"
"21:30:48:484 (H:m:s:ms)","GENERIC","124.269","0.3038456820743952","590"
"21:30:42:424 (H:m:s:ms)","GENERIC","124.68","0.30279013046738196","633"
"21:30:36:363 (H:m:s:ms)","GENERIC","124.446","0.3062792232900503","682"
"21:30:31:578 (H:m:s:ms)","AMBULANCE","124.691","0.3079146101487006","486"
"21:30:30:303 (H:m:s:ms)","GENERIC","124.6","0.3073788491705128","756"
"21:30:24:242 (H:m:s:ms)","GENERIC","124.273","0.3071439240212226","795"
"21:19:23:636 (H:m:s:ms)","GENERIC","124.234","0.2792095931653612","419"
"21:30:18:181 (H:m:s:ms)","GENERIC","124.595","0.3070989281962023","873"
"21:19:29:696 (H:m:s:ms)","GENERIC","93.39999999999999","0.2754952226767087","409"
"20:57:22:424 (H:m:s:ms)","GENERIC","124.672","0.2795687906443628","627"
"21:19:35:757 (H:m:s:ms)","GENERIC","93.178","0.2803972319560736","312"
"20:57:28:484 (H:m:s:ms)","GENERIC","124.426","0.27801312008497675","567"
"21:19:41:818 (H:m:s:ms)","GENERIC","124.30000000000001","0.27839675528444946","245"
"20:40:30:303 (H:m:s:ms)","GENERIC","124.461","0.29051567194605343","753"
"20:57:34:545 (H:m:s:ms)","GENERIC","124.34","0.2811812864580078","515"
"21:19:47:878 (H:m:s:ms)","GENERIC","124.3","0.2757361908856536","1179"
"20:40:30:379 (H:m:s:ms)","OPERA","93.47200000000001","0.2958591706698034","734"
"20:57:40:606 (H:m:s:ms)","GENERIC","124.238","0.2852691414426248","447"
"21:19:53:939 (H:m:s:ms)","GENERIC","124.295","0.27780903549787955","1115"
"20:40:36:363 (H:m:s:ms)","GENERIC","124.52799999999999","0.29345015910208017","690"
"20:57:46:666 (H:m:s:ms)","GENERIC","124.47999999999999","0.28616376785908804","395"
"21:20:0:0 (H:m:s:ms)","OPERA","124.394","0.2790614370278444","1596"
"20:40:37:974 (H:m:s:ms)","OPERA","62.284000000000006","0.29570294027870464","1073"
"20:57:52:727 (H:m:s:ms)","GENERIC","124.544","0.2862431515524707","342"
"21:20:0:0 (H:m:s:ms)","GENERIC","124.457","0.2792224442556869","1676"
"21:30:6:60 (H:m:s:ms)","GENERIC","124.85","0.3095356913299898","1012"
"20:40:42:424 (H:m:s:ms)","GENERIC","124.559","0.29693491341302475","620"
"20:57:58:787 (H:m:s:ms)","GENERIC","124.226","0.28409152523766334","270"
"21:20:0:0 (H:m:s:ms)","GENERIC","124.45500000000001","0.27922136745543524","1746"
"21:30:0:0 (H:m:s:ms)","AMBULANCE","124.718","0.311419651757837","1228"
"20:40:45:569 (H:m:s:ms)","OPERA","93.29599999999999","0.29719395487556927","491"
"20:58:4:848 (H:m:s:ms)","GENERIC","124.434","0.2857707791680633","213"
"21:20:6:60 (H:m:s:ms)","GENERIC","124.322","0.2802229651348888","1006"
"20:40:48:484 (H:m:s:ms)","GENERIC","93.368","0.2998540386952575","568"
"20:58:10:909 (H:m:s:ms)","GENERIC","124.486","0.2867619996007773","1149"
"20:40:53:164 (H:m:s:ms)","OPERA","93.515","0.29935756893772425","887"
"20:58:16:969 (H:m:s:ms)","GENERIC","124.49799999999999","0.2835666061551021","1095"
"20:40:54:545 (H:m:s:ms)","GENERIC","124.256","0.30059924828979717","502"
"20:41:0:606 (H:m:s:ms)","GENERIC","124.68299999999999","0.30061095580624514","449"
"21:31:6:666 (H:m:s:ms)","GENERIC","124.581","0.3040141606546622","412"
"21:31:3:157 (H:m:s:ms)","AMBULANCE","124.685","0.3033123199418766","926"
"21:31:49:90 (H:m:s:ms)","GENERIC","124.30000000000001","0.2982863285077173","1118"
"21:31:43:30 (H:m:s:ms)","GENERIC","124.48599999999999","0.29823482181874217","1104"
"21:31:36:969 (H:m:s:ms)","GENERIC","124.743","0.30108511754384776","1186"
"21:31:34:736 (H:m:s:ms)","AMBULANCE","124.559","0.3013980043852955","347"
"21:31:30:909 (H:m:s:ms)","GENERIC","124.753","0.30122059674384755","1158"
"21:31:24:848 (H:m:s:ms)","GENERIC","124.493","0.3025449056446188","254"
"21:31:18:787 (H:m:s:ms)","GENERIC","124.46100000000001","0.30127753566703014","289"
"21:31:12:727 (H:m:s:ms)","GENERIC","124.439","0.3039842574831333","369"
"20:58:23:30 (H:m:s:ms)","GENERIC","124.471","0.28116654520360107","1038"
"20:58:29:90 (H:m:s:ms)","GENERIC","124.511","0.2831853557066579","1012"
"20:41:0:759 (H:m:s:ms)","OPERA","93.289","0.30308756997987296","343"
"20:58:35:151 (H:m:s:ms)","GENERIC","124.423","0.28315783504547476","906"
"20:41:6:666 (H:m:s:ms)","GENERIC","124.64099999999999","0.30784175236079736","388"
"20:58:41:212 (H:m:s:ms)","GENERIC","124.489","0.28355915356442657","855"
"20:41:8:354 (H:m:s:ms)","OPERA","62.254000000000005","0.30962465024753694","703"
"20:58:47:272 (H:m:s:ms)","GENERIC","124.53800000000001","0.28423155567019615","792"
"20:41:12:727 (H:m:s:ms)","GENERIC","124.265","0.30794109291027927","329"
"20:58:53:333 (H:m:s:ms)","GENERIC","124.252","0.28452614919361546","734"
"20:41:15:949 (H:m:s:ms)","OPERA","93.534","0.30403249771390667","1098"
"20:58:59:393 (H:m:s:ms)","GENERIC","124.655","0.2839021840450078","706"
"20:41:18:787 (H:m:s:ms)","GENERIC","124.583","0.3026629575207302","267"
"20:59:5:454 (H:m:s:ms)","GENERIC","124.414","0.282300361391479","604"
"21:31:0:606 (H:m:s:ms)","GENERIC","124.657","0.3000887877849521","451"
"20:41:23:544 (H:m:s:ms)","OPERA","93.538","0.30582891866121","507"
"20:59:11:515 (H:m:s:ms)","GENERIC","124.657","0.28435677753219235","544"
"20:41:24:848 (H:m:s:ms)","GENERIC","124.55","0.30643937840629376","198"
"20:59:17:575 (H:m:s:ms)","GENERIC","62.095","0.28088750444756716","492"
"20:41:30:909 (H:m:s:ms)","GENERIC","124.28999999999999","0.30617816198115927","1147"
"20:41:31:139 (H:m:s:ms)","OPERA","93.301","0.3098170328774793","958"
"20:59:23:636 (H:m:s:ms)","GENERIC","93.344","0.27900122614830014","423"
"20:59:29:696 (H:m:s:ms)","GENERIC","124.428","0.2787807030167501","401"
"20:41:36:969 (H:m:s:ms)","GENERIC","124.37299999999999","0.3082084253970982","1080"
"20:59:35:757 (H:m:s:ms)","GENERIC","124.201","0.2747062516870761","305"
"20:41:38:734 (H:m:s:ms)","OPERA","93.635","0.3083163560788574","321"
"20:59:41:818 (H:m:s:ms)","GENERIC","124.977","0.2750712385801767","228"
"20:41:43:30 (H:m:s:ms)","GENERIC","124.36","0.30549334808534895","1020"
"20:59:47:878 (H:m:s:ms)","GENERIC","124.673","0.27904197776906703","1183"
"20:41:46:329 (H:m:s:ms)","OPERA","93.462","0.3080522230583706","720"
"20:59:53:939 (H:m:s:ms)","GENERIC","124.242","0.27624532779604805","1119"
"20:41:49:90 (H:m:s:ms)","GENERIC","124.535","0.31089877254838527","1005"
"21:0:0:0 (H:m:s:ms)","AMBULANCE","93.416","0.27869371134645515","1546"
"20:41:53:924 (H:m:s:ms)","OPERA","93.896","0.3082430980134977","1135"
"21:0:0:0 (H:m:s:ms)","GENERIC","124.368","0.2793538049935325","1611"
"20:41:55:151 (H:m:s:ms)","GENERIC","93.488","0.3084106629603842","892"
"21:0:0:0 (H:m:s:ms)","GENERIC","124.589","0.27815027658472935","1687"
"20:42:1:212 (H:m:s:ms)","GENERIC","124.408","0.30527652914776093","831"
"21:0:6:60 (H:m:s:ms)","GENERIC","93.543","0.2790466781327944","1001"
"20:42:1:518 (H:m:s:ms)","OPERA","93.30799999999999","0.3055927427000115","570"
"20:42:7:272 (H:m:s:ms)","GENERIC","124.50899999999999","0.30283844643781965","786"
"21:0:12:121 (H:m:s:ms)","GENERIC","124.388","0.2787377589997173","937"
"21:0:18:181 (H:m:s:ms)","GENERIC","124.45","0.27897928521065274","885"
"20:42:9:113 (H:m:s:ms)","OPERA","93.45400000000001","0.30296415888793204","966"
"21:0:24:242 (H:m:s:ms)","GENERIC","93.573","0.2786292496398429","806"
"20:42:13:333 (H:m:s:ms)","GENERIC","124.53299999999999","0.30191300055369463","709"
"21:0:30:303 (H:m:s:ms)","GENERIC","124.491","0.2776728820619633","759"
"20:20:0:0 (H:m:s:ms)","GENERIC","124.791","0.284936566553817","1532"
"20:42:16:708 (H:m:s:ms)","OPERA","93.412","0.3002875351245822","341"
"21:0:31:578 (H:m:s:ms)","AMBULANCE","93.435","0.27716886432665405","474"
"20:20:0:0 (H:m:s:ms)","GENERIC","124.542","0.2869476834415534","1596"
"20:42:19:393 (H:m:s:ms)","GENERIC","124.473","0.30387703037903396","695"
"21:0:36:363 (H:m:s:ms)","GENERIC","124.494","0.2771982335682719","703"
"20:20:6:60 (H:m:s:ms)","GENERIC","124.507","0.28631097174715975","1020"
"20:42:24:303 (H:m:s:ms)","OPERA","93.467","0.30456987236311145","745"
"21:0:42:424 (H:m:s:ms)","GENERIC","124.777","0.27732590541623314","637"
"20:20:12:121 (H:m:s:ms)","GENERIC","93.126","0.2873544345413848","955"
"20:42:25:454 (H:m:s:ms)","GENERIC","124.494","0.30342530482452035","584"
"21:0:48:484 (H:m:s:ms)","GENERIC","124.469","0.27519886902510016","577"
"20:20:18:181 (H:m:s:ms)","GENERIC","124.304","0.2885180879270144","888"
"20:42:31:515 (H:m:s:ms)","GENERIC","124.18299999999999","0.3043955056347849","533"
"21:0:54:545 (H:m:s:ms)","GENERIC","124.276","0.27870978829588644","505"
"20:20:24:242 (H:m:s:ms)","GENERIC","93.318","0.28799806895539404","828"
"20:42:31:898 (H:m:s:ms)","OPERA","93.701","0.3044131131168811","197"
"21:1:0:606 (H:m:s:ms)","GENERIC","124.315","0.2789440293053904","458"
"20:20:30:303 (H:m:s:ms)","GENERIC","124.49000000000001","0.28902965645302386","760"
"20:42:37:575 (H:m:s:ms)","GENERIC","124.381","0.30339665883990674","466"
"20:20:36:363 (H:m:s:ms)","GENERIC","124.21000000000001","0.29170852476046366","702"
"20:42:39:493 (H:m:s:ms)","OPERA","93.355","0.30279816277694194","587"
"20:20:42:424 (H:m:s:ms)","GENERIC","124.368","0.29000760694312855","654"
"20:20:48:484 (H:m:s:ms)","GENERIC","124.205","0.29180992316080134","569"
"21:1:3:157 (H:m:s:ms)","AMBULANCE","93.79","0.27812131955874103","912"
"21:1:6:666 (H:m:s:ms)","GENERIC","124.707","0.2784421737207347","394"
"20:42:43:636 (H:m:s:ms)","GENERIC","124.57499999999999","0.29888008829638096","396"
"21:1:12:727 (H:m:s:ms)","GENERIC","124.548","0.27747515132236145","333"
"20:42:47:88 (H:m:s:ms)","OPERA","93.408","0.29874670355907107","953"
"21:1:18:787 (H:m:s:ms)","GENERIC","124.33600000000001","0.2792482794542936","274"
"20:20:54:545 (H:m:s:ms)","GENERIC","124.241","0.2921817702745935","510"
"20:42:49:696 (H:m:s:ms)","GENERIC","124.334","0.2992819409532315","400"
"21:1:24:848 (H:m:s:ms)","GENERIC","124.64099999999999","0.2802171038922797","217"
"20:21:0:606 (H:m:s:ms)","GENERIC","93.565","0.2974291772517222","478"
"20:42:54:683 (H:m:s:ms)","OPERA","93.171","0.29979234560861795","369"
"21:1:30:909 (H:m:s:ms)","GENERIC","124.61","0.27666272761260985","1139"
"20:21:6:666 (H:m:s:ms)","GENERIC","124.438","0.2960870834676434","419"
"20:42:55:757 (H:m:s:ms)","GENERIC","93.601","0.29995666119820796","287"
"21:1:34:736 (H:m:s:ms)","AMBULANCE","93.40100000000001","0.2770339019971734","313"
"20:21:12:727 (H:m:s:ms)","GENERIC","124.499","0.2928211846411564","342"
"20:43:1:818 (H:m:s:ms)","GENERIC","124.458","0.3006314063908835","237"
"21:1:36:969 (H:m:s:ms)","GENERIC","124.437","0.27366174978590396","1085"
"20:21:18:787 (H:m:s:ms)","GENERIC","124.805","0.2918411689622235","273"
"20:43:2:278 (H:m:s:ms)","OPERA","93.28999999999999","0.3021061781951292","762"
"21:1:43:30 (H:m:s:ms)","GENERIC","124.60499999999999","0.27135794598530066","1031"
"20:21:24:848 (H:m:s:ms)","GENERIC","124.28","0.29524223221886386","224"
"20:43:7:878 (H:m:s:ms)","GENERIC","124.589","0.3039435523199554","1168"
"21:1:49:90 (H:m:s:ms)","GENERIC","124.53","0.27099499751263134","1001"
"20:21:30:909 (H:m:s:ms)","GENERIC","124.614","0.29532326632297107","1149"
"20:43:9:873 (H:m:s:ms)","OPERA","93.145","0.3031722996697324","219"
"20:21:36:969 (H:m:s:ms)","GENERIC","124.529","0.2933156830949244","1097"
"20:43:13:939 (H:m:s:ms)","GENERIC","124.43700000000001","0.30485333289874467","1117"
"20:21:43:30 (H:m:s:ms)","GENERIC","124.262","0.29615443862723945","1023"
"20:21:49:90 (H:m:s:ms)","GENERIC","124.419","0.29484184250040046","1014"
"20:43:17:468 (H:m:s:ms)","OPERA","93.267","0.305501478689901","576"
"20:43:20:0 (H:m:s:ms)","GENERIC","124.49799999999999","0.3077322179797162","1079"
"20:21:55:151 (H:m:s:ms)","GENERIC","124.465","0.2958747176466435","913"
"20:43:26:60 (H:m:s:ms)","GENERIC","124.69800000000001","0.30676361110160166","981"
"20:22:1:212 (H:m:s:ms)","GENERIC","124.482","0.29434645983029656","848"
"20:43:32:121 (H:m:s:ms)","GENERIC","124.78399999999999","0.3053406431277867","973"
"20:22:7:272 (H:m:s:ms)","GENERIC","124.48400000000001","0.2901678948370481","797"
"20:43:32:658 (H:m:s:ms)","OPERA","93.372","0.30642311214659623","390"
"20:22:13:333 (H:m:s:ms)","GENERIC","124.571","0.28864100059201653","719"
"20:43:38:181 (H:m:s:ms)","GENERIC","124.411","0.3063355443783661","864"
"20:22:19:393 (H:m:s:ms)","GENERIC","124.55600000000001","0.28303304699650966","700"
"20:43:40:253 (H:m:s:ms)","OPERA","93.42099999999999","0.30625529885475034","800"
"20:22:25:454 (H:m:s:ms)","GENERIC","124.99199999999999","0.28417506434947604","606"
"20:43:44:242 (H:m:s:ms)","GENERIC","124.418","0.3064671089119571","807"
"20:22:31:515 (H:m:s:ms)","GENERIC","124.505","0.2854969597784088","547"
"20:43:47:848 (H:m:s:ms)","OPERA","93.168","0.30665142690039643","196"
"20:22:37:575 (H:m:s:ms)","GENERIC","93.561","0.28211207655286885","498"
"20:43:50:303 (H:m:s:ms)","GENERIC","124.61099999999999","0.3070890175727192","748"
"20:22:43:636 (H:m:s:ms)","GENERIC","124.34700000000001","0.27901669716063127","427"
"20:22:49:696 (H:m:s:ms)","GENERIC","124.463","0.2752279498641668","404"
"20:43:55:443 (H:m:s:ms)","OPERA","93.797","0.30699478371130706","611"
"20:43:56:363 (H:m:s:ms)","GENERIC","124.66499999999999","0.30931644063464625","675"
"20:22:55:757 (H:m:s:ms)","GENERIC","124.46799999999999","0.27625417153502274","299"
"20:44:2:424 (H:m:s:ms)","GENERIC","124.582","0.3117360949694611","617"
"20:23:1:818 (H:m:s:ms)","GENERIC","124.44200000000001","0.2742821077036194","242"
"20:44:3:37 (H:m:s:ms)","OPERA","93.425","0.3130652678235317","1011"
"20:23:7:878 (H:m:s:ms)","GENERIC","124.743","0.2747190090955923","1179"
"20:44:8:484 (H:m:s:ms)","GENERIC","124.66","0.3132186156669165","563"
"20:23:13:939 (H:m:s:ms)","GENERIC","124.363","0.2771167078026591","1125"
"20:44:10:632 (H:m:s:ms)","OPERA","93.513","0.31541250526311504","398"
"20:23:20:0 (H:m:s:ms)","GENERIC","124.452","0.27774607581718685","1098"
"20:44:14:545 (H:m:s:ms)","GENERIC","124.689","0.32019674003500637","497"
"20:23:26:60 (H:m:s:ms)","GENERIC","124.638","0.2776480487073834","995"
"20:44:18:227 (H:m:s:ms)","OPERA","93.486","0.3193106670638707","824"
"20:23:32:121 (H:m:s:ms)","GENERIC","124.565","0.2774361576863176","932"
"20:44:20:606 (H:m:s:ms)","GENERIC","93.32900000000001","0.3194353762578657","439"
"20:23:38:181 (H:m:s:ms)","GENERIC","93.15","0.2749112862024598","870"
"20:44:25:822 (H:m:s:ms)","OPERA","93.711","0.3185765616342118","220"
"20:23:44:242 (H:m:s:ms)","GENERIC","124.326","0.27599609136545267","826"
"20:23:50:303 (H:m:s:ms)","GENERIC","124.535","0.2752296597502522","756"
"20:44:26:666 (H:m:s:ms)","GENERIC","124.56","0.3157939474430667","379"
"20:44:32:727 (H:m:s:ms)","GENERIC","124.375","0.31487583590287893","309"
"20:23:56:363 (H:m:s:ms)","GENERIC","124.529","0.27632645775275283","695"
"20:44:33:417 (H:m:s:ms)","OPERA","93.33","0.31415335345833134","619"
"20:24:2:424 (H:m:s:ms)","GENERIC","124.53399999999999","0.2732642639527752","631"
"20:44:38:787 (H:m:s:ms)","GENERIC","124.476","0.3111252171234942","248"
"20:24:8:484 (H:m:s:ms)","GENERIC","124.537","0.27177259759273015","583"
"20:44:41:12 (H:m:s:ms)","OPERA","93.601","0.3111315190030104","1036"
"20:24:14:545 (H:m:s:ms)","GENERIC","124.69","0.27552838841639293","510"
"20:44:44:848 (H:m:s:ms)","GENERIC","124.36500000000001","0.30651626752622163","178"
"20:24:20:606 (H:m:s:ms)","GENERIC","124.62","0.2741640642336672","451"
"20:44:48:607 (H:m:s:ms)","OPERA","93.523","0.305908068726116","433"
"20:24:26:666 (H:m:s:ms)","GENERIC","124.26400000000001","0.27414833196139415","386"
"20:44:50:909 (H:m:s:ms)","GENERIC","124.354","0.31049859471727126","1130"
"20:24:32:727 (H:m:s:ms)","GENERIC","124.661","0.2731409258760803","334"
"20:44:56:202 (H:m:s:ms)","OPERA","62.539","0.3095338430305914","848"
"20:24:38:787 (H:m:s:ms)","GENERIC","124.60300000000001","0.2719559466137476","277"
"20:44:56:969 (H:m:s:ms)","GENERIC","124.379","0.30964453024398625","1117"
"20:24:44:848 (H:m:s:ms)","GENERIC","124.531","0.2738594630984802","211"
"20:24:50:909 (H:m:s:ms)","GENERIC","124.261","0.2748381725994459","1159"
"20:45:3:30 (H:m:s:ms)","GENERIC","125.13","0.3023259325809818","1005"
"20:45:3:797 (H:m:s:ms)","OPERA","93.324","0.3016701100699074","270"
"20:24:56:969 (H:m:s:ms)","GENERIC","124.161","0.27539379444828316","1099"
"20:45:9:90 (H:m:s:ms)","GENERIC","124.327","0.30319052629234894","978"
"20:25:3:30 (H:m:s:ms)","GENERIC","124.471","0.27684775105992077","1016"
"20:45:11:392 (H:m:s:ms)","OPERA","93.919","0.3019191693526195","639"
"20:25:9:90 (H:m:s:ms)","GENERIC","124.559","0.27315763103017715","1003"
"20:45:15:151 (H:m:s:ms)","GENERIC","124.803","0.30287997803654754","893"
"20:25:15:151 (H:m:s:ms)","GENERIC","124.67","0.2715811014908397","908"
"20:45:18:987 (H:m:s:ms)","OPERA","93.678","0.30384365462141605","1092"
"20:25:21:212 (H:m:s:ms)","GENERIC","124.24","0.2736796267199133","858"
"20:45:21:212 (H:m:s:ms)","GENERIC","124.186","0.30722030760469465","818"
"20:25:27:272 (H:m:s:ms)","GENERIC","124.519","0.2744623329650534","772"
"20:45:26:582 (H:m:s:ms)","OPERA","62.478","0.3042494227290346","471"
"20:25:33:333 (H:m:s:ms)","GENERIC","124.59","0.2708865929416322","721"
"20:45:27:272 (H:m:s:ms)","GENERIC","124.631","0.3029944781743795","769"
"20:25:39:393 (H:m:s:ms)","GENERIC","125.051","0.2667175287701712","709"
"20:45:33:333 (H:m:s:ms)","GENERIC","124.69","0.3034295676959476","704"
"20:25:45:454 (H:m:s:ms)","GENERIC","124.41499999999999","0.2649153947950024","605"
"20:25:51:515 (H:m:s:ms)","GENERIC","93.32300000000001","0.2644813904964983","549"
"20:25:57:575 (H:m:s:ms)","GENERIC","124.41900000000001","0.26272350702627123","488"
"20:26:3:636 (H:m:s:ms)","GENERIC","124.42699999999999","0.2618750794505446","418"
"20:26:9:696 (H:m:s:ms)","GENERIC","124.517","0.2657126630101261","403"
"20:26:15:757 (H:m:s:ms)","GENERIC","124.35","0.2678414964866359","296"
"20:26:21:818 (H:m:s:ms)","GENERIC","124.435","0.26751471408108524","241"
"20:26:27:878 (H:m:s:ms)","GENERIC","124.35","0.26851401300951727","1182"
"20:26:33:939 (H:m:s:ms)","GENERIC","124.217","0.27146412044291","1114"
"20:26:40:0 (H:m:s:ms)","GENERIC","124.726","0.2746521983721284","1104"
"20:26:46:60 (H:m:s:ms)","GENERIC","124.383","0.27723879589481565","1000"
"20:26:52:121 (H:m:s:ms)","GENERIC","124.51499999999999","0.28122554370591074","937"
"20:26:58:181 (H:m:s:ms)","GENERIC","124.375","0.28328342031779447","872"
"20:27:4:242 (H:m:s:ms)","GENERIC","93.139","0.28202451919636917","822"
"20:27:10:303 (H:m:s:ms)","GENERIC","124.396","0.28399672906421625","758"
"20:27:16:363 (H:m:s:ms)","GENERIC","124.376","0.28382518331902734","697"
"20:27:22:424 (H:m:s:ms)","GENERIC","124.608","0.28217140286466535","626"
"20:27:28:484 (H:m:s:ms)","GENERIC","124.53999999999999","0.2811544605357571","571"
"20:27:34:545 (H:m:s:ms)","GENERIC","124.57300000000001","0.2802361590623071","517"
"20:27:40:606 (H:m:s:ms)","GENERIC","124.72","0.2800559110752666","442"
"20:27:46:666 (H:m:s:ms)","GENERIC","124.38499999999999","0.2797090885378865","398"
"20:27:52:727 (H:m:s:ms)","GENERIC","124.276","0.2803557746076437","335"
"20:27:58:787 (H:m:s:ms)","GENERIC","124.304","0.282057059482505","265"
"20:28:4:848 (H:m:s:ms)","GENERIC","124.28","0.28331020042180644","207"
"20:28:10:909 (H:m:s:ms)","GENERIC","93.613","0.28180906215434604","1146"
"20:28:16:969 (H:m:s:ms)","GENERIC","124.369","0.28387453781346245","1087"
"20:28:23:30 (H:m:s:ms)","GENERIC","124.726","0.2809598456711937","1033"
"20:28:29:90 (H:m:s:ms)","GENERIC","124.62","0.28153869476522303","1005"
"20:28:35:151 (H:m:s:ms)","GENERIC","124.65899999999999","0.2810625101744338","905"
"20:28:41:212 (H:m:s:ms)","GENERIC","124.411","0.2838505503751482","839"
"20:28:47:272 (H:m:s:ms)","GENERIC","124.331","0.2817242582195343","784"
"20:28:53:333 (H:m:s:ms)","GENERIC","124.25999999999999","0.2855606858891812","717"
"20:28:59:393 (H:m:s:ms)","GENERIC","124.35400000000001","0.2840902617388093","703"
"20:29:5:454 (H:m:s:ms)","GENERIC","124.444","0.28260552215624557","602"
"20:29:11:515 (H:m:s:ms)","GENERIC","124.24000000000001","0.28340945506985254","543"
"20:29:17:575 (H:m:s:ms)","GENERIC","124.734","0.2813857409415653","480"
"20:29:23:636 (H:m:s:ms)","GENERIC","124.619","0.2805729700844706","414"
"20:29:29:696 (H:m:s:ms)","GENERIC","124.336","0.2794644066288255","393"
"20:29:35:757 (H:m:s:ms)","GENERIC","124.4","0.2786009989106171","299"
"20:29:41:818 (H:m:s:ms)","GENERIC","124.303","0.28035541489659765","247"
"20:29:47:878 (H:m:s:ms)","GENERIC","124.8","0.28274329388439917","1166"
"20:29:53:939 (H:m:s:ms)","GENERIC","124.512","0.2837570811252753","1123"
"21:20:7:594 (H:m:s:ms)","OPERA","124.443","0.28122524827040163","467"
"21:20:12:121 (H:m:s:ms)","GENERIC","124.37299999999999","0.28117046447846655","934"
"21:20:15:189 (H:m:s:ms)","OPERA","124.299","0.28414256726736786","873"
"21:20:18:181 (H:m:s:ms)","GENERIC","124.539","0.2832136142085096","874"
"21:20:22:784 (H:m:s:ms)","OPERA","124.35","0.2845826116188456","275"
"21:20:24:242 (H:m:s:ms)","GENERIC","124.703","0.2885612044628524","818"
"21:20:30:303 (H:m:s:ms)","GENERIC","124.418","0.28628586134516715","765"
"21:20:30:379 (H:m:s:ms)","OPERA","124.49199999999999","0.286500627074465","761"
"21:20:36:363 (H:m:s:ms)","GENERIC","124.538","0.28258307106435804","698"
"21:20:37:974 (H:m:s:ms)","OPERA","93.547","0.2828179775728667","1093"
"21:20:42:424 (H:m:s:ms)","GENERIC","124.805","0.286069911317548","631"
"21:20:45:569 (H:m:s:ms)","OPERA","124.39500000000001","0.2881655725085318","486"
"21:20:48:484 (H:m:s:ms)","GENERIC","124.656","0.2902961721198911","566"
"21:20:53:164 (H:m:s:ms)","OPERA","124.44200000000001","0.2933958638842813","905"
"21:20:54:545 (H:m:s:ms)","GENERIC","124.394","0.2958759253015569","517"
"21:21:0:606 (H:m:s:ms)","GENERIC","93.628","0.28961045077551756","458"
"21:21:0:759 (H:m:s:ms)","OPERA","124.203","0.2929497504793023","370"
"21:21:6:666 (H:m:s:ms)","GENERIC","124.493","0.2945738770131268","403"
"21:21:8:354 (H:m:s:ms)","OPERA","124.474","0.29585086216587386","711"
"21:21:12:727 (H:m:s:ms)","GENERIC","124.87299999999999","0.29697390950114055","341"
"21:32:43:636 (H:m:s:ms)","GENERIC","93.35000000000001","0.29884277510736934","418"
"21:32:31:515 (H:m:s:ms)","GENERIC","124.37100000000001","0.29470376257987246","553"
"21:32:25:454 (H:m:s:ms)","GENERIC","124.393","0.2927199525237823","629"
"21:32:19:393 (H:m:s:ms)","GENERIC","124.50200000000001","0.29399538409124504","753"
"21:32:13:333 (H:m:s:ms)","GENERIC","124.138","0.29752365859362834","735"
"21:32:7:272 (H:m:s:ms)","GENERIC","124.583","0.29888332429228354","789"
"21:32:6:315 (H:m:s:ms)","AMBULANCE","93.499","0.29644898008657444","751"
"21:32:1:212 (H:m:s:ms)","GENERIC","124.309","0.2982674051091931","866"
"21:21:15:949 (H:m:s:ms)","OPERA","93.506","0.2955787171147306","1112"
"21:31:55:151 (H:m:s:ms)","GENERIC","93.596","0.2988937076967957","949"
"21:21:18:787 (H:m:s:ms)","GENERIC","124.487","0.29670335419553917","270"
"21:21:23:544 (H:m:s:ms)","OPERA","124.378","0.295111855446924","521"
"21:21:24:848 (H:m:s:ms)","GENERIC","124.637","0.2961459613165412","214"
"21:21:30:909 (H:m:s:ms)","GENERIC","124.20400000000001","0.29942437822600954","1152"
"21:21:31:139 (H:m:s:ms)","OPERA","124.529","0.3009028945697995","988"
"21:21:36:969 (H:m:s:ms)","GENERIC","124.295","0.30371295740158905","1098"
"21:21:38:734 (H:m:s:ms)","OPERA","124.443","0.30526620702192236","318"
"21:32:37:894 (H:m:s:ms)","AMBULANCE","124.602","0.29730571838571307","1266"
"21:21:43:30 (H:m:s:ms)","GENERIC","124.313","0.30400355601453505","1022"
"21:32:37:575 (H:m:s:ms)","GENERIC","124.428","0.29698639144103417","491"
"21:21:46:329 (H:m:s:ms)","OPERA","93.367","0.3049753531816099","736"
"21:33:44:242 (H:m:s:ms)","GENERIC","124.55","0.29196859712388684","837"
"21:33:38:181 (H:m:s:ms)","GENERIC","124.576","0.29237960514416106","880"
"21:33:26:60 (H:m:s:ms)","GENERIC","124.907","0.2958784470778978","1006"
"21:33:20:0 (H:m:s:ms)","GENERIC","124.523","0.3004107828426227","1115"
"21:33:13:939 (H:m:s:ms)","GENERIC","124.527","0.2988148912401493","1135"
"21:33:9:473 (H:m:s:ms)","AMBULANCE","124.86500000000001","0.29533809989892906","650"
"21:33:7:878 (H:m:s:ms)","GENERIC","124.667","0.2979719715177866","1193"
"21:33:1:818 (H:m:s:ms)","GENERIC","124.489","0.29613390208721785","247"
"21:21:49:90 (H:m:s:ms)","GENERIC","124.388","0.3038926448849981","1006"
"21:32:55:757 (H:m:s:ms)","GENERIC","124.744","0.29677576561263547","303"
"21:21:53:924 (H:m:s:ms)","OPERA","124.559","0.30140804125145954","1132"
"21:32:49:696 (H:m:s:ms)","GENERIC","124.273","0.2981245955413334","434"
"21:21:55:151 (H:m:s:ms)","GENERIC","124.607","0.3025978103329797","903"
"21:22:1:212 (H:m:s:ms)","GENERIC","124.58500000000001","0.3032343729731423","843"
"21:22:1:518 (H:m:s:ms)","OPERA","124.499","0.30342351287560637","620"
"21:22:7:272 (H:m:s:ms)","GENERIC","124.477","0.3037343717143209","789"
"21:22:9:113 (H:m:s:ms)","OPERA","124.17099999999999","0.30464661729873066","1031"
"21:22:13:333 (H:m:s:ms)","GENERIC","124.337","0.3059114605623143","779"
"21:22:16:708 (H:m:s:ms)","OPERA","93.15299999999999","0.3088230737172463","436"
"21:22:19:393 (H:m:s:ms)","GENERIC","124.64500000000001","0.3117780068011588","766"
"21:33:32:121 (H:m:s:ms)","GENERIC","124.67500000000001","0.295636378418381","941"
"21:34:44:210 (H:m:s:ms)","AMBULANCE","124.53800000000001","0.3019097776178214","851"
"21:34:38:787 (H:m:s:ms)","GENERIC","124.499","0.3009668138195579","265"
"21:34:32:727 (H:m:s:ms)","GENERIC","93.398","0.30181729921240197","348"
"21:34:26:666 (H:m:s:ms)","GENERIC","124.352","0.30094192372661893","389"
"21:34:20:606 (H:m:s:ms)","GENERIC","124.364","0.298116555160963","461"
"21:34:14:545 (H:m:s:ms)","GENERIC","124.47399999999999","0.30072629164921333","513"
"21:34:12:631 (H:m:s:ms)","AMBULANCE","124.523","0.300303029473396","427"
"21:34:8:484 (H:m:s:ms)","GENERIC","124.291","0.2959951722455929","565"
"21:22:24:303 (H:m:s:ms)","OPERA","124.589","0.3126603297384758","801"
"21:34:2:424 (H:m:s:ms)","GENERIC","124.549","0.29147136170825194","645"
"21:22:25:454 (H:m:s:ms)","GENERIC","124.56700000000001","0.3125207814044863","649"
"21:33:56:363 (H:m:s:ms)","GENERIC","124.236","0.2947641929695888","695"
"21:1:55:151 (H:m:s:ms)","GENERIC","124.24199999999999","0.2745686535002772","918"
"21:22:31:515 (H:m:s:ms)","GENERIC","93.542","0.30954161027469923","597"
"21:33:50:303 (H:m:s:ms)","GENERIC","124.191","0.29537973369913634","757"
"21:2:1:212 (H:m:s:ms)","GENERIC","124.43299999999999","0.27401371350987935","855"
"21:22:31:898 (H:m:s:ms)","OPERA","124.455","0.3081104752473719","1300"
"21:2:6:315 (H:m:s:ms)","AMBULANCE","93.562","0.27639496526317014","742"
"21:22:37:575 (H:m:s:ms)","GENERIC","93.402","0.30621606384210015","515"
"21:2:7:272 (H:m:s:ms)","GENERIC","124.587","0.2806802171373125","781"
"21:22:39:493 (H:m:s:ms)","OPERA","124.77000000000001","0.308499787807779","658"
"21:2:13:333 (H:m:s:ms)","GENERIC","124.36099999999999","0.28095954601391276","720"
"21:22:43:636 (H:m:s:ms)","GENERIC","124.457","0.3107213196412936","455"
"21:2:19:393 (H:m:s:ms)","GENERIC","124.31700000000001","0.2793016782389812","713"
"21:22:47:88 (H:m:s:ms)","OPERA","124.632","0.31189899510202307","994"
"21:2:25:454 (H:m:s:ms)","GENERIC","124.40700000000001","0.279894428585569","610"
"21:22:49:696 (H:m:s:ms)","GENERIC","124.507","0.31351301678996824","436"
"21:2:31:515 (H:m:s:ms)","GENERIC","124.55600000000001","0.27981068551172267","546"
"21:22:54:683 (H:m:s:ms)","OPERA","124.366","0.30959768697218276","406"
"21:2:37:575 (H:m:s:ms)","GENERIC","124.36500000000001","0.2811113080662553","490"
"21:2:37:894 (H:m:s:ms)","AMBULANCE","93.275","0.28479886002095817","234"
"21:35:39:393 (H:m:s:ms)","GENERIC","124.42099999999999","0.2816199391314926","733"
"21:35:33:333 (H:m:s:ms)","GENERIC","124.47800000000001","0.2839560475133403","738"
"21:35:27:272 (H:m:s:ms)","GENERIC","124.559","0.2863961973211051","805"
"21:35:21:212 (H:m:s:ms)","GENERIC","124.413","0.2855259565065139","853"
"21:35:15:789 (H:m:s:ms)","AMBULANCE","124.923","0.28497316340411766","346"
"21:35:15:151 (H:m:s:ms)","GENERIC","124.764","0.28521762476383383","917"
"21:35:9:90 (H:m:s:ms)","GENERIC","93.239","0.2873534072927265","1018"
"21:22:55:757 (H:m:s:ms)","GENERIC","124.563","0.3098952226456739","303"
"21:35:3:30 (H:m:s:ms)","GENERIC","124.288","0.2868939773357139","1034"
"21:23:1:818 (H:m:s:ms)","GENERIC","124.591","0.31017099984461055","255"
"21:34:56:969 (H:m:s:ms)","GENERIC","124.352","0.2996992773599952","1110"
"21:2:43:636 (H:m:s:ms)","GENERIC","124.593","0.2855365839468735","413"
"21:23:2:278 (H:m:s:ms)","OPERA","124.225","0.31278202475665384","776"
"21:34:50:909 (H:m:s:ms)","GENERIC","124.699","0.29969343722060127","1164"
"21:2:49:696 (H:m:s:ms)","GENERIC","124.551","0.28473927074304817","400"
"21:23:7:878 (H:m:s:ms)","GENERIC","124.85400000000001","0.3106019865855426","1164"
"21:34:44:848 (H:m:s:ms)","GENERIC","124.32","0.302655220008588","293"
"21:2:55:757 (H:m:s:ms)","GENERIC","124.539","0.2867523851251871","304"
"21:23:9:873 (H:m:s:ms)","OPERA","124.31800000000001","0.3133505246264136","240"
"21:3:1:818 (H:m:s:ms)","GENERIC","124.51599999999999","0.28827513224804285","241"
"21:23:13:939 (H:m:s:ms)","GENERIC","124.68100000000001","0.31415892742963764","1130"
"21:3:7:878 (H:m:s:ms)","GENERIC","124.284","0.28665579894193716","1184"
"21:23:17:468 (H:m:s:ms)","OPERA","124.46000000000001","0.31404232696722967","590"
"21:3:9:473 (H:m:s:ms)","AMBULANCE","93.521","0.28917847638608324","633"
"21:23:20:0 (H:m:s:ms)","GENERIC","124.565","0.31182696436192553","1103"
"21:3:13:939 (H:m:s:ms)","GENERIC","124.535","0.2922550798241962","1118"
"21:23:25:63 (H:m:s:ms)","OPERA","93.667","0.3118941726621376","996"
"21:3:20:0 (H:m:s:ms)","GENERIC","124.45599999999999","0.29232475988509943","1106"
"21:23:26:60 (H:m:s:ms)","GENERIC","124.814","0.31026972286268223","1024"
"21:3:26:60 (H:m:s:ms)","GENERIC","124.277","0.2928519867655289","998"
"21:3:32:121 (H:m:s:ms)","GENERIC","93.345","0.2899052046939501","936"
"21:36:33:939 (H:m:s:ms)","GENERIC","124.434","0.28599994371565957","1132"
"21:36:27:878 (H:m:s:ms)","GENERIC","124.351","0.2875272797514334","1187"
"21:36:21:818 (H:m:s:ms)","GENERIC","124.554","0.28223270408866075","239"
"21:36:18:947 (H:m:s:ms)","AMBULANCE","124.19","0.27822147236767725","1169"
"21:36:15:757 (H:m:s:ms)","GENERIC","124.418","0.2772092681205436","307"
"21:36:9:696 (H:m:s:ms)","GENERIC","124.536","0.2779585787380427","413"
"21:23:32:121 (H:m:s:ms)","GENERIC","93.156","0.3091892276521713","927"
"21:36:3:636 (H:m:s:ms)","GENERIC","124.345","0.2787527871694754","434"
"21:23:32:658 (H:m:s:ms)","OPERA","93.555","0.30835535045836804","455"
"21:35:57:575 (H:m:s:ms)","GENERIC","124.174","0.2784783020852946","506"
"21:3:38:181 (H:m:s:ms)","GENERIC","124.50800000000001","0.28766498929583456","884"
"21:23:38:181 (H:m:s:ms)","GENERIC","124.481","0.307855725012977","881"
"21:35:51:515 (H:m:s:ms)","GENERIC","93.471","0.27945429774296476","558"
"21:3:41:52 (H:m:s:ms)","AMBULANCE","93.334","0.28786350089645907","1008"
"21:23:40:253 (H:m:s:ms)","OPERA","124.601","0.30969621173704137","793"
"21:35:47:368 (H:m:s:ms)","AMBULANCE","124.363","0.27948847353781975","706"
"21:3:44:242 (H:m:s:ms)","GENERIC","124.513","0.28899861747982153","807"
"21:23:44:242 (H:m:s:ms)","GENERIC","124.548","0.3096471602124615","805"
"21:35:45:454 (H:m:s:ms)","GENERIC","124.526","0.27902778516575744","617"
"21:3:50:303 (H:m:s:ms)","GENERIC","124.18299999999999","0.2904476719265877","750"
"21:23:47:848 (H:m:s:ms)","OPERA","93.575","0.30855577102742276","212"
"21:3:56:363 (H:m:s:ms)","GENERIC","124.494","0.2901318571624271","701"
"21:23:50:303 (H:m:s:ms)","GENERIC","124.685","0.30454258854302957","759"
"21:4:2:424 (H:m:s:ms)","GENERIC","124.827","0.28721181803972523","640"
"21:23:55:443 (H:m:s:ms)","OPERA","124.24600000000001","0.3044189432733297","623"
"21:4:8:484 (H:m:s:ms)","GENERIC","124.314","0.29048814316109545","574"
"21:23:56:363 (H:m:s:ms)","GENERIC","124.41900000000001","0.30424223954157775","688"
"21:4:12:631 (H:m:s:ms)","AMBULANCE","93.453","0.29203675712710564","435"
"21:24:2:424 (H:m:s:ms)","GENERIC","124.217","0.30431580588981116","633"
"21:4:14:545 (H:m:s:ms)","GENERIC","124.369","0.29297472173780786","509"
"21:4:20:606 (H:m:s:ms)","GENERIC","124.548","0.2934690449189941","455"
"21:37:28:484 (H:m:s:ms)","GENERIC","93.207","0.2972059736960421","584"
"21:37:22:424 (H:m:s:ms)","GENERIC","124.637","0.2980686198146358","706"
"21:37:22:105 (H:m:s:ms)","AMBULANCE","124.464","0.29703050938164394","952"
"21:37:16:363 (H:m:s:ms)","GENERIC","124.618","0.29423958003654943","699"
"21:37:10:303 (H:m:s:ms)","GENERIC","124.592","0.29487565136311483","769"
"21:37:4:242 (H:m:s:ms)","GENERIC","124.426","0.29516201556803173","821"
"21:24:3:37 (H:m:s:ms)","OPERA","124.375","0.3054943787919134","1025"
"21:24:8:484 (H:m:s:ms)","GENERIC","124.658","0.3057260202849439","566"
"21:36:58:181 (H:m:s:ms)","GENERIC","124.52","0.29639727225478785","883"
"21:4:26:666 (H:m:s:ms)","GENERIC","125.126","0.29129111759908627","383"
"21:24:10:632 (H:m:s:ms)","OPERA","124.46700000000001","0.30611388116643967","421"
"21:36:52:121 (H:m:s:ms)","GENERIC","124.755","0.29424650203253117","940"
"21:4:32:727 (H:m:s:ms)","GENERIC","124.267","0.29186670612405763","332"
"21:24:14:545 (H:m:s:ms)","GENERIC","124.428","0.30206954256552976","506"
"21:36:50:526 (H:m:s:ms)","AMBULANCE","124.28999999999999","0.2923806430315146","544"
"21:4:38:787 (H:m:s:ms)","GENERIC","124.372","0.2924199504009551","274"
"21:24:18:227 (H:m:s:ms)","OPERA","124.595","0.29706671364010434","820"
"21:36:46:60 (H:m:s:ms)","GENERIC","124.42500000000001","0.2909694193811385","1011"
"21:4:44:210 (H:m:s:ms)","AMBULANCE","62.102999999999994","0.2926943709333792","839"
"21:24:20:606 (H:m:s:ms)","GENERIC","124.881","0.29787081242368224","440"
"21:36:40:0 (H:m:s:ms)","GENERIC","124.352","0.2913348825262922","1111"
"21:4:44:848 (H:m:s:ms)","GENERIC","124.602","0.2950318053523877","257"
"21:24:25:822 (H:m:s:ms)","OPERA","124.638","0.29811235238692685","230"
"21:4:50:909 (H:m:s:ms)","GENERIC","124.273","0.29425466054711186","1138"
"21:24:26:666 (H:m:s:ms)","GENERIC","124.434","0.29672442335347615","375"
"21:4:56:969 (H:m:s:ms)","GENERIC","124.369","0.2926244889431327","1094"
"21:24:32:727 (H:m:s:ms)","GENERIC","124.756","0.2974713849299399","307"
"21:5:3:30 (H:m:s:ms)","GENERIC","124.497","0.28814422996339517","1030"
"21:24:33:417 (H:m:s:ms)","OPERA","124.57900000000001","0.2979164881711624","627"
"21:5:9:90 (H:m:s:ms)","GENERIC","124.591","0.28839645733514097","1000"
"21:5:15:151 (H:m:s:ms)","GENERIC","124.616","0.29288274018486105","897"
"21:38:29:90 (H:m:s:ms)","GENERIC","124.61099999999999","0.2954826990090496","1006"
"21:38:23:30 (H:m:s:ms)","GENERIC","124.423","0.295546141377003","1035"
"21:38:16:969 (H:m:s:ms)","GENERIC","124.324","0.29479614055436987","1107"
"21:38:10:909 (H:m:s:ms)","GENERIC","124.965","0.2904747343690355","1141"
"21:38:4:848 (H:m:s:ms)","GENERIC","124.618","0.29075129631195457","237"
"21:37:58:787 (H:m:s:ms)","GENERIC","124.435","0.2875413999909816","276"
"21:37:53:684 (H:m:s:ms)","AMBULANCE","124.383","0.2894486164863561","388"
"21:24:38:787 (H:m:s:ms)","GENERIC","124.414","0.29923978217504354","247"
"21:24:41:12 (H:m:s:ms)","OPERA","124.679","0.29878411086985696","1032"
"21:5:15:789 (H:m:s:ms)","AMBULANCE","93.366","0.2940898969591431","322"
"21:24:44:848 (H:m:s:ms)","GENERIC","124.71700000000001","0.2975209199386107","197"
"21:5:21:212 (H:m:s:ms)","GENERIC","124.57900000000001","0.2938044960088551","852"
"21:24:48:607 (H:m:s:ms)","OPERA","124.19800000000001","0.2995973080919129","439"
"21:37:52:727 (H:m:s:ms)","GENERIC","124.62100000000001","0.28756999081822965","336"
"20:45:34:177 (H:m:s:ms)","OPERA","93.34700000000001","0.3036948918523258","869"
"21:5:27:272 (H:m:s:ms)","GENERIC","124.686","0.2947508677310516","790"
"21:24:50:909 (H:m:s:ms)","GENERIC","93.663","0.2980470563183123","1130"
"21:37:46:666 (H:m:s:ms)","GENERIC","124.419","0.2906976750551741","404"
"20:45:39:393 (H:m:s:ms)","GENERIC","124.563","0.30311156525984523","687"
"21:5:33:333 (H:m:s:ms)","GENERIC","124.226","0.2892806447243814","731"
"21:24:56:202 (H:m:s:ms)","OPERA","124.473","0.2989687075419578","847"
"21:37:40:606 (H:m:s:ms)","GENERIC","93.622","0.294506692014482","457"
"20:45:41:772 (H:m:s:ms)","OPERA","93.509","0.3030775867188931","253"
"21:5:39:393 (H:m:s:ms)","GENERIC","124.59","0.2899735290569079","705"
"21:24:56:969 (H:m:s:ms)","GENERIC","124.512","0.30179976085461163","1123"
"21:37:34:545 (H:m:s:ms)","GENERIC","124.268","0.2999119580408867","512"
"20:45:45:454 (H:m:s:ms)","GENERIC","124.627","0.3018807309694763","597"
"21:5:45:454 (H:m:s:ms)","GENERIC","93.55199999999999","0.29154663216002985","607"
"21:25:3:30 (H:m:s:ms)","GENERIC","124.418","0.2981562618159104","1010"
"20:45:49:367 (H:m:s:ms)","OPERA","93.239","0.30106092073477136","713"
"21:5:47:368 (H:m:s:ms)","AMBULANCE","93.328","0.2919014883913801","689"
"21:25:3:797 (H:m:s:ms)","OPERA","124.691","0.2997826737457906","288"
"20:45:51:515 (H:m:s:ms)","GENERIC","124.41399999999999","0.3034562140255118","535"
"21:5:51:515 (H:m:s:ms)","GENERIC","124.555","0.29131728369070753","544"
"21:25:9:90 (H:m:s:ms)","GENERIC","124.43299999999999","0.29799093917156805","986"
"20:45:56:962 (H:m:s:ms)","OPERA","93.272","0.3008299836526946","1083"
"21:5:57:575 (H:m:s:ms)","GENERIC","124.387","0.29462343029968485","485"
"20:45:57:575 (H:m:s:ms)","GENERIC","93.332","0.2985753899269625","507"
"21:6:3:636 (H:m:s:ms)","GENERIC","124.697","0.2945579930211616","417"
"20:46:3:636 (H:m:s:ms)","GENERIC","124.749","0.2952895233761011","407"
"20:46:4:556 (H:m:s:ms)","OPERA","93.406","0.2956236808724379","471"
"21:39:28:421 (H:m:s:ms)","AMBULANCE","124.975","0.29205511749461976","651"
"21:39:23:636 (H:m:s:ms)","GENERIC","124.493","0.2986756050560161","432"
"21:39:17:575 (H:m:s:ms)","GENERIC","124.171","0.29846978820373615","485"
"21:39:11:515 (H:m:s:ms)","GENERIC","124.515","0.30216779386522885","565"
"21:39:5:454 (H:m:s:ms)","GENERIC","124.27199999999999","0.30104483746460375","619"
"21:38:59:393 (H:m:s:ms)","GENERIC","124.484","0.3036056203437476","714"
"21:38:56:842 (H:m:s:ms)","AMBULANCE","93.47","0.3040959090788664","227"
"21:38:53:333 (H:m:s:ms)","GENERIC","124.37299999999999","0.3014502868421565","717"
"21:25:11:392 (H:m:s:ms)","OPERA","124.423","0.2991357883083969","674"
"21:25:15:151 (H:m:s:ms)","GENERIC","124.48599999999999","0.29956147215669254","893"
"21:6:9:696 (H:m:s:ms)","GENERIC","124.788","0.294832716995219","401"
"21:25:18:987 (H:m:s:ms)","OPERA","93.523","0.2968813103047361","1098"
"21:6:15:757 (H:m:s:ms)","GENERIC","124.342","0.2968828296840488","299"
"21:25:21:212 (H:m:s:ms)","GENERIC","124.519","0.29520559030225507","830"
"20:46:9:696 (H:m:s:ms)","GENERIC","124.653","0.29786830293575334","375"
"21:6:18:947 (H:m:s:ms)","AMBULANCE","93.481","0.29953678745654405","1152"
"21:25:26:582 (H:m:s:ms)","OPERA","124.47800000000001","0.2958370349848246","474"
"20:46:12:151 (H:m:s:ms)","OPERA","93.389","0.2997228157291308","895"
"21:6:21:818 (H:m:s:ms)","GENERIC","124.605","0.3029416790443031","228"
"21:25:27:272 (H:m:s:ms)","GENERIC","124.515","0.29579234766478024","771"
"21:38:47:272 (H:m:s:ms)","GENERIC","124.501","0.30065083532350534","795"
"20:46:15:757 (H:m:s:ms)","GENERIC","124.476","0.29766484669571097","280"
"21:6:27:878 (H:m:s:ms)","GENERIC","124.25200000000001","0.3053514316116768","1175"
"21:25:33:333 (H:m:s:ms)","GENERIC","124.277","0.2960663636418349","702"
"21:38:41:212 (H:m:s:ms)","GENERIC","124.344","0.2975233690477035","847"
"20:46:19:746 (H:m:s:ms)","OPERA","93.496","0.29591637255196496","327"
"21:6:33:939 (H:m:s:ms)","GENERIC","124.58099999999999","0.30287106867106367","1125"
"21:25:34:177 (H:m:s:ms)","OPERA","124.463","0.2963679442629396","871"
"21:38:35:151 (H:m:s:ms)","GENERIC","124.42699999999999","0.29514698284119756","917"
"20:46:21:818 (H:m:s:ms)","GENERIC","124.84","0.29515898463967616","224"
"21:6:40:0 (H:m:s:ms)","GENERIC","124.531","0.2995574742720394","1105"
"21:25:39:393 (H:m:s:ms)","GENERIC","124.57900000000001","0.29886665757631187","678"
"20:46:27:341 (H:m:s:ms)","OPERA","93.35","0.2974875242323455","691"
"21:6:46:60 (H:m:s:ms)","GENERIC","124.21799999999999","0.2961172630674519","995"
"21:25:41:772 (H:m:s:ms)","OPERA","124.32900000000001","0.3011439906539523","273"
"20:46:27:878 (H:m:s:ms)","GENERIC","124.265","0.2982567092954617","1205"
"21:6:50:526 (H:m:s:ms)","AMBULANCE","93.23400000000001","0.291523148129684","530"
"20:46:33:939 (H:m:s:ms)","GENERIC","124.657","0.29862405184978225","1097"
"21:6:52:121 (H:m:s:ms)","GENERIC","93.35499999999999","0.29356534689590663","934"
"20:46:34:936 (H:m:s:ms)","OPERA","93.713","0.3001840727653164","1135"
"20:46:40:0 (H:m:s:ms)","GENERIC","124.398","0.30095277182583496","1088"
"21:39:41:818 (H:m:s:ms)","GENERIC","124.51599999999999","0.28878988578874987","261"
"21:40:18:181 (H:m:s:ms)","GENERIC","124.482","0.28605728401230057","908"
"21:40:12:121 (H:m:s:ms)","GENERIC","124.583","0.2919734158627682","948"
"21:40:6:60 (H:m:s:ms)","GENERIC","124.587","0.28850547897580503","1015"
"21:40:0:0 (H:m:s:ms)","AMBULANCE","124.517","0.2905235163289726","2060"
"21:40:0:0 (H:m:s:ms)","GENERIC","93.443","0.290472040239908","1987"
"21:40:0:0 (H:m:s:ms)","GENERIC","124.374","0.2882244766096293","1901"
"21:39:53:939 (H:m:s:ms)","GENERIC","124.377","0.28754693578550666","1140"
"21:39:47:878 (H:m:s:ms)","GENERIC","124.418","0.2878373345556295","1200"
"21:6:58:181 (H:m:s:ms)","GENERIC","124.467","0.2946034741454391","866"
"21:7:4:242 (H:m:s:ms)","GENERIC","124.568","0.2959454538137072","808"
"20:46:42:531 (H:m:s:ms)","OPERA","93.221","0.3015587232505639","515"
"21:7:10:303 (H:m:s:ms)","GENERIC","124.40700000000001","0.29250908962421973","757"
"20:46:46:60 (H:m:s:ms)","GENERIC","124.708","0.3003607339421449","974"
"21:7:16:363 (H:m:s:ms)","GENERIC","124.311","0.2951996772308063","702"
"20:46:50:126 (H:m:s:ms)","OPERA","93.589","0.29883343089126857","925"
"21:7:22:105 (H:m:s:ms)","AMBULANCE","62.164","0.29777789775144603","959"
"20:46:52:121 (H:m:s:ms)","GENERIC","124.398","0.29947397685132376","916"
"21:7:22:424 (H:m:s:ms)","GENERIC","124.723","0.2998907653347744","696"
"21:39:35:757 (H:m:s:ms)","GENERIC","124.408","0.29180888319302606","315"
"20:46:57:721 (H:m:s:ms)","OPERA","93.422","0.30251243754144547","310"
"21:7:28:484 (H:m:s:ms)","GENERIC","124.658","0.2999475516969267","565"
"21:39:29:696 (H:m:s:ms)","GENERIC","124.836","0.2917605743615666","410"
"20:46:58:181 (H:m:s:ms)","GENERIC","124.58500000000001","0.30279706707591364","858"
"21:7:34:545 (H:m:s:ms)","GENERIC","124.60900000000001","0.2980066231548743","501"
"20:47:4:242 (H:m:s:ms)","GENERIC","124.406","0.3024946513023675","802"
"21:7:40:606 (H:m:s:ms)","GENERIC","124.497","0.2981857058242543","451"
"20:47:5:316 (H:m:s:ms)","OPERA","93.237","0.30322498101366985","735"
"21:7:46:666 (H:m:s:ms)","GENERIC","124.539","0.29546743256122604","386"
"20:47:10:303 (H:m:s:ms)","GENERIC","124.24600000000001","0.3050337745477737","742"
"20:47:16:363 (H:m:s:ms)","GENERIC","124.596","0.30473779491630887","678"
"21:7:52:727 (H:m:s:ms)","GENERIC","124.429","0.2970335040031475","330"
"21:7:53:684 (H:m:s:ms)","AMBULANCE","93.533","0.2959492294142569","376"
"20:47:20:506 (H:m:s:ms)","OPERA","62.510000000000005","0.30372268223088217","528"
"21:7:58:787 (H:m:s:ms)","GENERIC","124.351","0.29778603057839464","256"
"20:47:22:424 (H:m:s:ms)","GENERIC","124.57","0.30555998299305814","611"
"21:8:4:848 (H:m:s:ms)","GENERIC","124.464","0.29574890036735674","212"
"20:47:28:101 (H:m:s:ms)","OPERA","93.388","0.3039448615040285","936"
"21:8:10:909 (H:m:s:ms)","GENERIC","124.411","0.29589330309917566","1147"
"20:47:28:484 (H:m:s:ms)","GENERIC","124.624","0.30687615684432784","595"
"21:8:16:969 (H:m:s:ms)","GENERIC","93.27199999999999","0.29206917515603215","1088"
"20:47:34:545 (H:m:s:ms)","GENERIC","124.46600000000001","0.30283805532037594","503"
"21:8:23:30 (H:m:s:ms)","GENERIC","124.261","0.29333919438146194","1029"
"20:47:35:696 (H:m:s:ms)","OPERA","93.674","0.3027661286183222","340"
"21:8:25:263 (H:m:s:ms)","AMBULANCE","93.274","0.2935878380308563","797"
"21:40:24:242 (H:m:s:ms)","GENERIC","124.602","0.28672036831843817","819"
"20:47:40:606 (H:m:s:ms)","GENERIC","124.526","0.3034123198360852","439"
"21:8:29:90 (H:m:s:ms)","GENERIC","124.494","0.29376917812377545","1010"
"20:47:46:666 (H:m:s:ms)","GENERIC","124.52199999999999","0.3023985185077663","367"
"21:8:35:151 (H:m:s:ms)","GENERIC","124.368","0.2952085733375103","914"
"20:47:50:886 (H:m:s:ms)","OPERA","93.28200000000001","0.30276851519337145","163"
"20:47:52:727 (H:m:s:ms)","GENERIC","124.408","0.3020843619832242","315"
"21:8:41:212 (H:m:s:ms)","GENERIC","124.67699999999999","0.29867308190486547","837"
"21:8:47:272 (H:m:s:ms)","GENERIC","124.444","0.29597820674337205","780"
"20:47:58:481 (H:m:s:ms)","OPERA","93.375","0.29658537120208617","565"
"21:8:53:333 (H:m:s:ms)","GENERIC","124.253","0.2941556153518229","725"
"20:47:58:787 (H:m:s:ms)","GENERIC","124.36","0.29674834756744967","300"
"21:8:56:842 (H:m:s:ms)","AMBULANCE","93.523","0.2970374548185222","214"
"20:30:0:0 (H:m:s:ms)","GENERIC","124.661","0.28378111348308993","1099"
"20:48:4:848 (H:m:s:ms)","GENERIC","93.671","0.29597959304770055","189"
"21:8:59:393 (H:m:s:ms)","GENERIC","124.288","0.29762663304422743","704"
"20:30:0:0 (H:m:s:ms)","GENERIC","124.285","0.2859045411086882","1163"
"20:48:6:75 (H:m:s:ms)","OPERA","93.592","0.29380153205103204","966"
"21:9:5:454 (H:m:s:ms)","GENERIC","124.529","0.29875789626969607","607"
"20:30:6:60 (H:m:s:ms)","GENERIC","124.554","0.2835563112491324","1002"
"20:48:10:909 (H:m:s:ms)","GENERIC","124.632","0.2921127306648507","1127"
"21:9:11:515 (H:m:s:ms)","GENERIC","93.489","0.2946102617345008","544"
"20:30:12:121 (H:m:s:ms)","GENERIC","124.55000000000001","0.28204089571052915","936"
"20:48:13:670 (H:m:s:ms)","OPERA","93.26400000000001","0.2940244282923986","381"
"21:9:17:575 (H:m:s:ms)","GENERIC","124.539","0.29362637041337625","473"
"20:30:18:181 (H:m:s:ms)","GENERIC","124.227","0.28563061286229063","872"
"20:48:16:969 (H:m:s:ms)","GENERIC","124.842","0.2974396219620128","1075"
"21:9:23:636 (H:m:s:ms)","GENERIC","124.72300000000001","0.29368240128824374","430"
"20:30:24:242 (H:m:s:ms)","GENERIC","124.565","0.285635556762832","804"
"20:48:23:30 (H:m:s:ms)","GENERIC","124.578","0.2932365660067182","1020"
"21:9:28:421 (H:m:s:ms)","AMBULANCE","93.544","0.29491948867333734","633"
"20:30:30:303 (H:m:s:ms)","GENERIC","124.489","0.28532383426109487","761"
"20:48:28:860 (H:m:s:ms)","OPERA","93.32300000000001","0.29360896554484256","179"
"20:30:36:363 (H:m:s:ms)","GENERIC","124.19300000000001","0.2825041183201293","699"
"20:48:29:90 (H:m:s:ms)","GENERIC","124.473","0.2948683424761843","1002"
"20:30:42:424 (H:m:s:ms)","GENERIC","124.702","0.28446033825121103","629"
"20:30:48:484 (H:m:s:ms)","GENERIC","124.426","0.2837216652238203","564"
"21:9:29:696 (H:m:s:ms)","GENERIC","124.30799999999999","0.29638507520516055","410"
"21:9:35:757 (H:m:s:ms)","GENERIC","124.595","0.2945551009042583","302"
"20:48:35:151 (H:m:s:ms)","GENERIC","124.55799999999999","0.29729531592938185","885"
"21:9:41:818 (H:m:s:ms)","GENERIC","124.398","0.2943340612224714","234"
"20:48:36:455 (H:m:s:ms)","OPERA","93.253","0.2999008843618227","586"
"21:9:47:878 (H:m:s:ms)","GENERIC","124.282","0.29531560467963563","1182"
"20:30:54:545 (H:m:s:ms)","GENERIC","124.54400000000001","0.28259304170686594","512"
"20:48:41:212 (H:m:s:ms)","GENERIC","124.35300000000001","0.3010023711313909","828"
"21:9:53:939 (H:m:s:ms)","GENERIC","124.495","0.29803433708416804","1108"
"20:31:0:606 (H:m:s:ms)","GENERIC","124.51","0.2856229164228147","437"
"20:48:44:50 (H:m:s:ms)","OPERA","93.405","0.30061132823014847","992"
"21:10:0:0 (H:m:s:ms)","AMBULANCE","93.446","0.29961840090430586","1106"
"20:31:6:666 (H:m:s:ms)","GENERIC","93.651","0.2819666194620966","389"
"20:48:47:272 (H:m:s:ms)","GENERIC","124.62100000000001","0.2979776063948894","778"
"21:10:0:0 (H:m:s:ms)","GENERIC","124.494","0.30186870110619646","1156"
"20:31:12:727 (H:m:s:ms)","GENERIC","124.32499999999999","0.2825112260554223","316"
"20:48:51:645 (H:m:s:ms)","OPERA","93.643","0.29731075847514643","386"
"21:10:0:0 (H:m:s:ms)","GENERIC","124.256","0.3015097572106829","1211"
"20:31:18:787 (H:m:s:ms)","GENERIC","124.715","0.28107055570840084","277"
"20:48:53:333 (H:m:s:ms)","GENERIC","124.406","0.29672716537939153","714"
"21:10:6:60 (H:m:s:ms)","GENERIC","93.425","0.30025321553948536","996"
"20:31:24:848 (H:m:s:ms)","GENERIC","124.512","0.2791036241355159","199"
"20:48:59:240 (H:m:s:ms)","OPERA","62.519","0.2937937513682348","838"
"21:10:12:121 (H:m:s:ms)","GENERIC","124.299","0.299846710539474","934"
"20:31:30:909 (H:m:s:ms)","GENERIC","124.34100000000001","0.2804919705466698","1146"
"20:48:59:393 (H:m:s:ms)","GENERIC","124.451","0.2938854440131192","732"
"20:31:36:969 (H:m:s:ms)","GENERIC","124.664","0.28022777836870577","1080"
"20:49:5:454 (H:m:s:ms)","GENERIC","124.38","0.2940631292927863","590"
"20:31:43:30 (H:m:s:ms)","GENERIC","124.298","0.28222315833695677","1028"
"20:31:49:90 (H:m:s:ms)","GENERIC","124.565","0.27992274328573474","997"
"20:49:6:835 (H:m:s:ms)","OPERA","93.22500000000001","0.29137223986085936","213"
"20:49:11:515 (H:m:s:ms)","GENERIC","124.624","0.2904484555098181","518"
"20:31:55:151 (H:m:s:ms)","GENERIC","93.439","0.28112039066694644","897"
"20:49:14:430 (H:m:s:ms)","OPERA","93.366","0.2920409174161533","609"
"20:32:1:212 (H:m:s:ms)","GENERIC","124.816","0.2827026465988134","847"
"20:49:17:575 (H:m:s:ms)","GENERIC","124.619","0.28924448854826407","473"
"20:32:7:272 (H:m:s:ms)","GENERIC","124.42","0.2823265719837554","776"
"20:49:22:25 (H:m:s:ms)","OPERA","93.381","0.28771787755833067","1020"
"20:32:13:333 (H:m:s:ms)","GENERIC","124.568","0.28304922412870476","716"
"20:49:23:636 (H:m:s:ms)","GENERIC","124.77199999999999","0.2866864427833168","407"
"20:32:19:393 (H:m:s:ms)","GENERIC","124.218","0.28099016271707095","696"
"20:49:29:620 (H:m:s:ms)","OPERA","93.607","0.2888484996035203","477"
"20:32:25:454 (H:m:s:ms)","GENERIC","124.409","0.280739403419737","605"
"20:49:29:696 (H:m:s:ms)","GENERIC","124.61500000000001","0.28945208095740493","439"
"20:32:31:515 (H:m:s:ms)","GENERIC","124.62700000000001","0.2779001472963186","543"
"20:49:35:757 (H:m:s:ms)","GENERIC","124.34","0.2888111900307293","287"
"20:32:37:575 (H:m:s:ms)","GENERIC","124.564","0.2823517176661201","478"
"20:49:37:215 (H:m:s:ms)","OPERA","93.563","0.2884587414000314","821"
"20:32:43:636 (H:m:s:ms)","GENERIC","124.667","0.28098374448280694","422"
"20:32:49:696 (H:m:s:ms)","GENERIC","124.43","0.28183478009950663","391"
"20:49:41:818 (H:m:s:ms)","GENERIC","124.63300000000001","0.2891952373865485","227"
"20:49:44:810 (H:m:s:ms)","OPERA","93.233","0.288510887187295","228"
"20:32:55:757 (H:m:s:ms)","GENERIC","124.67500000000001","0.28115204976975217","299"
"20:49:47:878 (H:m:s:ms)","GENERIC","124.602","0.2878432238417432","1177"
"20:33:1:818 (H:m:s:ms)","GENERIC","124.23599999999999","0.2819289784891656","237"
"20:49:52:405 (H:m:s:ms)","OPERA","93.432","0.28487407420439037","639"
"20:33:7:878 (H:m:s:ms)","GENERIC","124.559","0.2783674681727906","1170"
"20:49:53:939 (H:m:s:ms)","GENERIC","124.459","0.2858964685202112","1105"
"20:33:13:939 (H:m:s:ms)","GENERIC","124.31200000000001","0.2786284123601706","1111"
"20:50:0:0 (H:m:s:ms)","OPERA","93.257","0.2906286208708067","1175"
"20:33:20:0 (H:m:s:ms)","GENERIC","124.81299999999999","0.2755218684910216","1090"
"20:50:0:0 (H:m:s:ms)","GENERIC","124.558","0.2874668551411058","1083"
"20:33:26:60 (H:m:s:ms)","GENERIC","124.313","0.27804316857355776","994"
"20:50:0:0 (H:m:s:ms)","GENERIC","124.612","0.2895628150887283","1122"
"20:33:32:121 (H:m:s:ms)","GENERIC","124.197","0.282319037824549","943"
"20:50:6:60 (H:m:s:ms)","GENERIC","124.491","0.2931282784636408","991"
"20:33:38:181 (H:m:s:ms)","GENERIC","124.30199999999999","0.28245385977989756","873"
"20:50:12:121 (H:m:s:ms)","GENERIC","124.47","0.29158651173278155","929"
"20:33:44:242 (H:m:s:ms)","GENERIC","124.793","0.28424223111955765","806"
"20:33:50:303 (H:m:s:ms)","GENERIC","124.28399999999999","0.28389175880087714","752"
"20:50:18:181 (H:m:s:ms)","GENERIC","124.502","0.29505359984239643","864"
"20:50:24:242 (H:m:s:ms)","GENERIC","124.57","0.2958498100153603","797"
"20:33:56:363 (H:m:s:ms)","GENERIC","124.50800000000001","0.2838594865988032","685"
"20:50:30:303 (H:m:s:ms)","GENERIC","124.392","0.29815294489383076","736"
"20:34:2:424 (H:m:s:ms)","GENERIC","93.298","0.28251232823641276","628"
"20:50:36:363 (H:m:s:ms)","GENERIC","124.487","0.29852529532363353","682"
"20:10:0:0 (H:m:s:ms)","GENERIC","93.27799999999999","0.27273411298634953","1064"
"20:34:8:484 (H:m:s:ms)","GENERIC","124.30600000000001","0.28107651692636915","576"
"20:50:42:424 (H:m:s:ms)","GENERIC","124.48400000000001","0.3006071169285581","621"
"20:10:0:0 (H:m:s:ms)","GENERIC","124.29400000000001","0.2736491312796954","1168"
"20:34:14:545 (H:m:s:ms)","GENERIC","124.35","0.27996295477037886","513"
"20:50:48:484 (H:m:s:ms)","GENERIC","124.54","0.29797593212357437","565"
"20:10:6:60 (H:m:s:ms)","GENERIC","124.43100000000001","0.2709375775845381","1004"
"20:34:20:606 (H:m:s:ms)","GENERIC","124.60900000000001","0.27497625427404765","447"
"20:50:54:545 (H:m:s:ms)","GENERIC","124.35900000000001","0.29741450553537657","501"
"20:10:12:121 (H:m:s:ms)","GENERIC","124.737","0.2706695740220741","935"
"20:34:26:666 (H:m:s:ms)","GENERIC","93.132","0.2755597363443203","388"
"20:51:0:606 (H:m:s:ms)","GENERIC","124.519","0.2984692671024953","428"
"20:10:18:181 (H:m:s:ms)","GENERIC","124.502","0.2709926936256399","886"
"20:34:32:727 (H:m:s:ms)","GENERIC","124.503","0.2770828651962432","326"
"20:51:6:666 (H:m:s:ms)","GENERIC","93.551","0.30112891441274414","370"
"20:10:24:242 (H:m:s:ms)","GENERIC","124.537","0.26945011268081126","829"
"20:34:38:787 (H:m:s:ms)","GENERIC","93.54899999999999","0.2785139046556588","269"
"20:51:12:727 (H:m:s:ms)","GENERIC","124.72","0.3001804003926396","315"
"20:10:30:303 (H:m:s:ms)","GENERIC","124.441","0.26645650158455203","772"
"20:34:44:848 (H:m:s:ms)","GENERIC","124.19800000000001","0.2753308358378836","214"
"20:10:36:363 (H:m:s:ms)","GENERIC","124.436","0.26746528409632925","695"
"20:34:50:909 (H:m:s:ms)","GENERIC","124.413","0.27736985247409474","1150"
"20:10:42:424 (H:m:s:ms)","GENERIC","124.55","0.26989482727101477","650"
"20:10:48:484 (H:m:s:ms)","GENERIC","124.402","0.2702067601031168","583"
"20:51:18:787 (H:m:s:ms)","GENERIC","124.47800000000001","0.2998326556911321","259"
"20:51:24:848 (H:m:s:ms)","GENERIC","124.511","0.2996455822502876","191"
"20:34:56:969 (H:m:s:ms)","GENERIC","124.256","0.2785660879627279","1086"
"20:51:30:909 (H:m:s:ms)","GENERIC","124.785","0.2992836391564959","1145"
"20:35:3:30 (H:m:s:ms)","GENERIC","124.47","0.2801837722307999","1029"
"20:51:36:969 (H:m:s:ms)","GENERIC","124.637","0.29730290433873224","1089"
"20:10:54:545 (H:m:s:ms)","GENERIC","124.19399999999999","0.27160799870284785","528"
"20:35:9:90 (H:m:s:ms)","GENERIC","124.506","0.2792031677457943","1002"
"20:51:43:30 (H:m:s:ms)","GENERIC","93.643","0.2926230293751671","1027"
"20:11:0:606 (H:m:s:ms)","GENERIC","124.688","0.2742222248909341","466"
"20:35:15:151 (H:m:s:ms)","GENERIC","124.724","0.2783592489792879","913"
"20:51:49:90 (H:m:s:ms)","GENERIC","124.31700000000001","0.2905004405798809","987"
"20:11:6:666 (H:m:s:ms)","GENERIC","124.223","0.27344098574465975","392"
"20:35:21:212 (H:m:s:ms)","GENERIC","124.58099999999999","0.2777323929702542","850"
"20:51:55:151 (H:m:s:ms)","GENERIC","124.777","0.29094560482389964","907"
"20:11:12:727 (H:m:s:ms)","GENERIC","124.323","0.2739605946144342","334"
"20:35:27:272 (H:m:s:ms)","GENERIC","124.361","0.27881006285228055","767"
"20:52:1:212 (H:m:s:ms)","GENERIC","124.458","0.2885193785284375","824"
"20:11:18:787 (H:m:s:ms)","GENERIC","124.42","0.2686922505513974","286"
"20:35:33:333 (H:m:s:ms)","GENERIC","124.703","0.2840943851326274","727"
"20:52:7:272 (H:m:s:ms)","GENERIC","124.69200000000001","0.2901178411384898","783"
"20:11:24:848 (H:m:s:ms)","GENERIC","124.449","0.2738452857263558","218"
"20:35:39:393 (H:m:s:ms)","GENERIC","124.534","0.280967007802611","697"
"20:52:13:333 (H:m:s:ms)","GENERIC","124.358","0.28905682308346453","701"
"20:11:30:909 (H:m:s:ms)","GENERIC","125.07499999999999","0.2735151430556424","1157"
"20:35:45:454 (H:m:s:ms)","GENERIC","124.22800000000001","0.28431050399294405","602"
"20:11:36:969 (H:m:s:ms)","GENERIC","124.465","0.2775034005662598","1081"
"20:35:51:515 (H:m:s:ms)","GENERIC","124.43","0.2854041429321161","532"
"20:11:43:30 (H:m:s:ms)","GENERIC","124.436","0.2765608776834158","1040"
"20:11:49:90 (H:m:s:ms)","GENERIC","124.249","0.27691847394486857","1020"
"20:0:54:545 (H:m:s:ms)","GENERIC","93.479","0.14702986774894","539"
"20:1:0:606 (H:m:s:ms)","GENERIC","93.418","0.15675769602361245","484"
"20:1:6:666 (H:m:s:ms)","GENERIC","93.17399999999999","0.16257176731646045","434"
"20:1:12:727 (H:m:s:ms)","GENERIC","62.463","0.17280746944594708","352"
"20:1:18:787 (H:m:s:ms)","GENERIC","93.733","0.17471410866810355","307"
"20:1:24:848 (H:m:s:ms)","GENERIC","93.422","0.18049614433278235","252"
"20:1:30:909 (H:m:s:ms)","GENERIC","93.214","0.18630794254066377","1191"
"20:1:36:969 (H:m:s:ms)","GENERIC","93.78800000000001","0.19333344129054844","1114"
"20:1:43:30 (H:m:s:ms)","GENERIC","93.439","0.19912384779666537","1057"
"20:1:49:90 (H:m:s:ms)","GENERIC","93.364","0.1998524157493049","1012"
"20:35:57:575 (H:m:s:ms)","GENERIC","124.334","0.28793492735567106","476"
"20:36:3:636 (H:m:s:ms)","GENERIC","124.594","0.28460489930183336","423"
"20:11:55:151 (H:m:s:ms)","GENERIC","124.634","0.27971184616847905","906"
"20:36:9:696 (H:m:s:ms)","GENERIC","124.338","0.28729580799177945","390"
"20:12:1:212 (H:m:s:ms)","GENERIC","124.42","0.28283832740394915","854"
"20:36:15:757 (H:m:s:ms)","GENERIC","124.53999999999999","0.2851729095835298","299"
"20:12:7:272 (H:m:s:ms)","GENERIC","124.298","0.2831459262322999","803"
"20:36:21:818 (H:m:s:ms)","GENERIC","124.51599999999999","0.2865962337066764","229"
"20:12:13:333 (H:m:s:ms)","GENERIC","93.232","0.2849417125491562","726"
"20:36:27:878 (H:m:s:ms)","GENERIC","124.31","0.2893920879251405","1166"
"20:12:19:393 (H:m:s:ms)","GENERIC","124.267","0.2835741271287865","698"
"20:36:33:939 (H:m:s:ms)","GENERIC","124.34700000000001","0.2896985878714855","1109"
"20:12:25:454 (H:m:s:ms)","GENERIC","124.411","0.2835353461658752","625"
"20:36:40:0 (H:m:s:ms)","GENERIC","124.432","0.286459569762754","1088"
"20:12:31:515 (H:m:s:ms)","GENERIC","124.238","0.2841637872518396","547"
"20:36:46:60 (H:m:s:ms)","GENERIC","124.411","0.2851254388961196","992"
"20:12:37:575 (H:m:s:ms)","GENERIC","124.566","0.28286043878252487","494"
"20:36:52:121 (H:m:s:ms)","GENERIC","124.44399999999999","0.2830454111766167","934"
"20:12:43:636 (H:m:s:ms)","GENERIC","124.441","0.28361290732652245","438"
"20:12:49:696 (H:m:s:ms)","GENERIC","124.459","0.28473079128081674","434"
"20:1:55:151 (H:m:s:ms)","GENERIC","93.486","0.205567208226437","942"
"20:2:1:212 (H:m:s:ms)","GENERIC","93.276","0.2062763993170694","881"
"20:2:7:272 (H:m:s:ms)","GENERIC","93.435","0.21105052962602447","816"
"20:2:13:333 (H:m:s:ms)","GENERIC","93.35","0.21794851262009912","738"
"20:2:19:393 (H:m:s:ms)","GENERIC","93.217","0.22051671593554706","703"
"20:2:25:454 (H:m:s:ms)","GENERIC","93.437","0.2228035568824926","635"
"20:2:31:515 (H:m:s:ms)","GENERIC","93.583","0.2268774115725395","567"
"20:2:37:575 (H:m:s:ms)","GENERIC","93.225","0.2302356249714904","504"
"20:2:43:636 (H:m:s:ms)","GENERIC","93.407","0.23411547534988322","441"
"20:2:49:696 (H:m:s:ms)","GENERIC","93.664","0.23939361609513313","409"
"20:36:58:181 (H:m:s:ms)","GENERIC","124.30199999999999","0.2844740961474035","866"
"20:37:4:242 (H:m:s:ms)","GENERIC","124.32400000000001","0.2867980838857425","798"
"20:12:55:757 (H:m:s:ms)","GENERIC","124.65100000000001","0.28661840008119877","319"
"20:37:10:303 (H:m:s:ms)","GENERIC","124.56","0.287915668667966","750"
"20:13:1:818 (H:m:s:ms)","GENERIC","124.82300000000001","0.2858603592499702","257"
"20:37:16:363 (H:m:s:ms)","GENERIC","124.66499999999999","0.2898985592068238","677"
"20:13:7:878 (H:m:s:ms)","GENERIC","124.587","0.2858141360637557","1204"
"20:37:22:424 (H:m:s:ms)","GENERIC","93.234","0.2866917546794812","631"
"20:13:13:939 (H:m:s:ms)","GENERIC","124.407","0.2835407449162145","1127"
"20:37:28:484 (H:m:s:ms)","GENERIC","124.438","0.2840271728796759","569"
"20:13:20:0 (H:m:s:ms)","GENERIC","124.765","0.2846590306004003","1138"
"20:37:34:545 (H:m:s:ms)","GENERIC","124.245","0.28565579169133315","516"
"20:13:26:60 (H:m:s:ms)","GENERIC","124.891","0.28560013542971563","1014"
"20:37:40:606 (H:m:s:ms)","GENERIC","93.128","0.2863327622644711","449"
"20:13:32:121 (H:m:s:ms)","GENERIC","124.458","0.2866950176086575","960"
"20:37:46:666 (H:m:s:ms)","GENERIC","124.61500000000001","0.2875053550064004","396"
"20:13:38:181 (H:m:s:ms)","GENERIC","124.459","0.28505232351774146","903"
"20:37:52:727 (H:m:s:ms)","GENERIC","124.331","0.28658961526812055","330"
"20:13:44:242 (H:m:s:ms)","GENERIC","124.40299999999999","0.28366144851542585","854"
"20:13:50:303 (H:m:s:ms)","GENERIC","124.598","0.2846919262767117","788"
"20:2:55:757 (H:m:s:ms)","GENERIC","93.537","0.2414810672882625","326"
"20:3:1:818 (H:m:s:ms)","GENERIC","93.582","0.24258387078683358","261"
"20:3:7:878 (H:m:s:ms)","GENERIC","93.549","0.24677507670208937","200"
"20:3:13:939 (H:m:s:ms)","GENERIC","93.425","0.2496149356880548","1129"
"20:3:20:0 (H:m:s:ms)","GENERIC","93.537","0.25035376948177807","1085"
"20:3:26:60 (H:m:s:ms)","GENERIC","93.27199999999999","0.25371201963364887","1014"
"20:3:32:121 (H:m:s:ms)","GENERIC","93.244","0.2556344029792786","964"
"20:3:38:181 (H:m:s:ms)","GENERIC","93.43599999999999","0.25843959174738806","896"
"20:3:44:242 (H:m:s:ms)","GENERIC","93.294","0.2635489498408144","831"
"20:3:50:303 (H:m:s:ms)","GENERIC","93.317","0.2642802228293304","787"
"20:37:58:787 (H:m:s:ms)","GENERIC","124.328","0.28697521463268333","277"
"20:38:4:848 (H:m:s:ms)","GENERIC","93.347","0.2877393275844102","212"
"20:13:56:363 (H:m:s:ms)","GENERIC","124.361","0.2882386289004696","723"
"20:38:10:909 (H:m:s:ms)","GENERIC","124.578","0.28299505106690237","1154"
"20:14:2:424 (H:m:s:ms)","GENERIC","124.259","0.288613452980255","679"
"20:38:16:969 (H:m:s:ms)","GENERIC","124.673","0.2822393131231974","1090"
"20:14:8:484 (H:m:s:ms)","GENERIC","124.167","0.2895455689342732","596"
"20:38:23:30 (H:m:s:ms)","GENERIC","124.61","0.2878512201373281","1021"
"20:14:14:545 (H:m:s:ms)","GENERIC","124.457","0.29541578599724766","525"
"20:38:29:90 (H:m:s:ms)","GENERIC","124.45","0.2896979088818872","997"
"20:14:20:606 (H:m:s:ms)","GENERIC","124.332","0.2961283536054499","456"
"20:38:35:151 (H:m:s:ms)","GENERIC","124.676","0.2905527538209273","906"
"20:14:26:666 (H:m:s:ms)","GENERIC","124.48599999999999","0.2970455048412077","399"
"20:38:41:212 (H:m:s:ms)","GENERIC","124.28899999999999","0.2907723411070266","835"
"20:14:32:727 (H:m:s:ms)","GENERIC","124.743","0.29696117487931156","341"
"20:38:47:272 (H:m:s:ms)","GENERIC","124.475","0.2893367012338048","781"
"20:14:38:787 (H:m:s:ms)","GENERIC","124.357","0.2988925371423979","268"
"20:38:53:333 (H:m:s:ms)","GENERIC","124.25800000000001","0.2913755866827729","732"
"20:14:44:848 (H:m:s:ms)","GENERIC","124.648","0.2971630383984086","225"
"20:14:50:909 (H:m:s:ms)","GENERIC","124.314","0.29379216361305965","1154"
"20:3:56:363 (H:m:s:ms)","GENERIC","93.583","0.26455468457624354","727"
"20:4:2:424 (H:m:s:ms)","GENERIC","93.386","0.266192384509234","657"
"20:4:8:484 (H:m:s:ms)","GENERIC","93.26599999999999","0.2699075470418289","599"
"20:4:14:545 (H:m:s:ms)","GENERIC","93.64500000000001","0.27289196388574427","524"
"20:4:20:606 (H:m:s:ms)","GENERIC","93.458","0.2747147556348391","469"
"20:4:26:666 (H:m:s:ms)","GENERIC","93.57","0.2796670511339771","397"
"20:4:32:727 (H:m:s:ms)","GENERIC","93.352","0.28404386037358287","331"
"20:4:38:787 (H:m:s:ms)","GENERIC","62.631","0.285312156263969","273"
"20:4:44:848 (H:m:s:ms)","GENERIC","93.44200000000001","0.285500513394045","224"
"20:4:50:909 (H:m:s:ms)","GENERIC","93.452","0.2870965297972422","1160"
"20:38:59:393 (H:m:s:ms)","GENERIC","124.577","0.2919608196969111","695"
"20:39:5:454 (H:m:s:ms)","GENERIC","124.386","0.2941456671166209","600"
"20:14:56:969 (H:m:s:ms)","GENERIC","124.638","0.29317716577172714","1089"
"20:39:11:515 (H:m:s:ms)","GENERIC","93.58500000000001","0.2922049061169385","536"
"20:15:3:30 (H:m:s:ms)","GENERIC","124.23400000000001","0.28791425002439913","1036"
"20:39:17:575 (H:m:s:ms)","GENERIC","124.649","0.29351022467785554","481"
"20:15:9:90 (H:m:s:ms)","GENERIC","124.777","0.28716421025875216","1020"
"20:39:23:636 (H:m:s:ms)","GENERIC","124.379","0.289928508019899","414"
"20:15:15:151 (H:m:s:ms)","GENERIC","124.249","0.2869750945064015","894"
"20:39:29:696 (H:m:s:ms)","GENERIC","124.639","0.29038532430497216","394"
"20:15:21:212 (H:m:s:ms)","GENERIC","124.41499999999999","0.28388197459517545","852"
"20:39:35:757 (H:m:s:ms)","GENERIC","124.332","0.29439347458770065","304"
"20:15:27:272 (H:m:s:ms)","GENERIC","124.269","0.28684951844334416","772"
"20:39:41:818 (H:m:s:ms)","GENERIC","93.455","0.2919118739397314","236"
"20:15:33:333 (H:m:s:ms)","GENERIC","124.30199999999999","0.28746112145366376","725"
"20:39:47:878 (H:m:s:ms)","GENERIC","124.842","0.2919390925172992","182"
"20:15:39:393 (H:m:s:ms)","GENERIC","124.434","0.2901709433304049","703"
"20:39:53:939 (H:m:s:ms)","GENERIC","124.717","0.2894126921064891","1108"
"20:15:45:454 (H:m:s:ms)","GENERIC","124.25800000000001","0.2892667632026834","606"
"20:15:51:515 (H:m:s:ms)","GENERIC","124.735","0.287640693058553","550"
"20:4:56:969 (H:m:s:ms)","GENERIC","93.25200000000001","0.2874681694923009","1116"
"20:5:3:30 (H:m:s:ms)","GENERIC","93.28800000000001","0.2875880422936498","1059"
"20:5:9:90 (H:m:s:ms)","GENERIC","93.232","0.28567161728890456","1043"
"20:5:15:151 (H:m:s:ms)","GENERIC","93.426","0.2869850228693471","950"
"20:5:21:212 (H:m:s:ms)","GENERIC","93.527","0.28997769520521216","866"
"20:5:27:272 (H:m:s:ms)","GENERIC","93.46000000000001","0.28984474245037933","811"
"20:5:33:333 (H:m:s:ms)","GENERIC","93.394","0.28954072970598776","768"
"20:5:39:393 (H:m:s:ms)","GENERIC","93.53","0.2901746354914838","739"
"20:5:45:454 (H:m:s:ms)","GENERIC","93.423","0.2877376050081212","624"
"20:5:51:515 (H:m:s:ms)","GENERIC","93.446","0.28836589839179916","570"
"20:15:57:575 (H:m:s:ms)","GENERIC","93.33500000000001","0.2866785771789325","478"
"20:16:3:636 (H:m:s:ms)","GENERIC","124.51","0.2832103850620959","414"
"20:16:9:696 (H:m:s:ms)","GENERIC","124.547","0.2814997098015275","385"
"20:16:15:757 (H:m:s:ms)","GENERIC","124.24799999999999","0.2780911103079996","304"
"20:16:21:818 (H:m:s:ms)","GENERIC","124.761","0.2793264531680135","240"
"20:16:27:878 (H:m:s:ms)","GENERIC","124.28800000000001","0.2792595798341301","1191"
"20:16:33:939 (H:m:s:ms)","GENERIC","124.452","0.28118398599667427","1119"
"20:16:40:0 (H:m:s:ms)","GENERIC","124.343","0.27925521154854765","1100"
"20:16:46:60 (H:m:s:ms)","GENERIC","124.548","0.2840237817924011","998"
"20:16:52:121 (H:m:s:ms)","GENERIC","124.25800000000001","0.28627310073465184","932"
"20:5:57:575 (H:m:s:ms)","GENERIC","93.812","0.2866194692216386","509"
"20:6:3:636 (H:m:s:ms)","GENERIC","93.167","0.286125645614828","454"
"20:6:9:696 (H:m:s:ms)","GENERIC","93.269","0.2878781621690324","419"
"20:6:15:757 (H:m:s:ms)","GENERIC","93.26599999999999","0.2859144201288696","320"
"20:6:21:818 (H:m:s:ms)","GENERIC","93.594","0.28764982196471783","254"
"20:6:27:878 (H:m:s:ms)","GENERIC","62.587","0.28505660440537284","190"
"20:6:33:939 (H:m:s:ms)","GENERIC","93.397","0.28550677091355575","1140"
"20:6:40:0 (H:m:s:ms)","GENERIC","93.501","0.28672775829425895","1080"
"20:6:46:60 (H:m:s:ms)","GENERIC","93.477","0.2885792380163752","999"
"20:6:52:121 (H:m:s:ms)","GENERIC","93.397","0.28729154589850475","951"
"20:16:58:181 (H:m:s:ms)","GENERIC","124.451","0.28754864384798523","876"
"20:17:4:242 (H:m:s:ms)","GENERIC","124.529","0.28662692882109286","810"
"20:17:10:303 (H:m:s:ms)","GENERIC","124.306","0.28644180352891757","756"
"20:17:16:363 (H:m:s:ms)","GENERIC","124.604","0.2862967407425541","693"
"20:17:22:424 (H:m:s:ms)","GENERIC","124.74600000000001","0.2856971924753392","641"
"20:17:28:484 (H:m:s:ms)","GENERIC","93.64699999999999","0.28504438600077847","588"
"20:17:34:545 (H:m:s:ms)","GENERIC","124.31700000000001","0.2842400643426861","517"
"20:17:40:606 (H:m:s:ms)","GENERIC","124.654","0.28380676432460306","451"
"20:17:46:666 (H:m:s:ms)","GENERIC","124.732","0.2843211219691934","398"
"20:17:52:727 (H:m:s:ms)","GENERIC","124.404","0.28510283514379464","332"
"20:6:58:181 (H:m:s:ms)","GENERIC","94.086","0.2866966222216994","884"
"20:7:4:242 (H:m:s:ms)","GENERIC","93.62","0.29043114969715755","816"
"20:7:10:303 (H:m:s:ms)","GENERIC","93.48","0.28826770846868993","765"
"20:7:16:363 (H:m:s:ms)","GENERIC","93.598","0.2900216281892795","699"
"20:7:22:424 (H:m:s:ms)","GENERIC","93.53399999999999","0.2894458924156523","644"
"20:7:28:484 (H:m:s:ms)","GENERIC","93.332","0.285673953056945","587"
"20:7:34:545 (H:m:s:ms)","GENERIC","93.485","0.28530972116458303","511"
"20:7:40:606 (H:m:s:ms)","GENERIC","93.344","0.2867762670045451","462"
"20:7:46:666 (H:m:s:ms)","GENERIC","62.137","0.287440460334595","404"
"20:7:52:727 (H:m:s:ms)","GENERIC","93.507","0.2841563580373253","333"
"20:17:58:787 (H:m:s:ms)","GENERIC","124.382","0.281047920707684","276"
"20:18:4:848 (H:m:s:ms)","GENERIC","124.412","0.2827457443685298","213"
"20:18:10:909 (H:m:s:ms)","GENERIC","124.668","0.28233924693233037","1150"
"20:18:16:969 (H:m:s:ms)","GENERIC","124.60300000000001","0.2819675435727254","1098"
"20:18:23:30 (H:m:s:ms)","GENERIC","124.53200000000001","0.2835241267840043","1027"
"20:18:29:90 (H:m:s:ms)","GENERIC","124.768","0.2823219676298932","1006"
"20:18:35:151 (H:m:s:ms)","GENERIC","124.707","0.2837888043583495","900"
"20:18:41:212 (H:m:s:ms)","GENERIC","124.41399999999999","0.2849606814759415","848"
"20:18:47:272 (H:m:s:ms)","GENERIC","124.372","0.2849191565589134","793"
"20:18:53:333 (H:m:s:ms)","GENERIC","124.42099999999999","0.28641332918683043","727"
"20:7:58:787 (H:m:s:ms)","GENERIC","93.805","0.2852993218728823","282"
"20:8:4:848 (H:m:s:ms)","GENERIC","62.367000000000004","0.28559561870614","207"
"20:8:10:909 (H:m:s:ms)","GENERIC","93.739","0.28623200671185756","1147"
"20:8:16:969 (H:m:s:ms)","GENERIC","93.78200000000001","0.28333279713835924","1096"
"20:8:23:30 (H:m:s:ms)","GENERIC","62.439","0.28553515944029784","1025"
"20:8:29:90 (H:m:s:ms)","GENERIC","93.486","0.28877557961363665","1005"
"20:8:35:151 (H:m:s:ms)","GENERIC","93.481","0.2892405544756906","905"
"20:8:41:212 (H:m:s:ms)","GENERIC","93.372","0.2900239120478958","844"
"20:8:47:272 (H:m:s:ms)","GENERIC","93.477","0.2849384208875382","793"
"20:8:53:333 (H:m:s:ms)","GENERIC","93.686","0.28534698182631063","742"
"20:18:59:393 (H:m:s:ms)","GENERIC","124.36500000000001","0.2889865777542921","692"
"20:19:5:454 (H:m:s:ms)","GENERIC","124.564","0.2905529236052508","602"
"20:19:11:515 (H:m:s:ms)","GENERIC","124.203","0.28840196632088233","545"
"20:19:17:575 (H:m:s:ms)","GENERIC","93.277","0.2851865007487265","475"
"20:19:23:636 (H:m:s:ms)","GENERIC","124.444","0.29062528698715834","421"
"20:19:29:696 (H:m:s:ms)","GENERIC","124.423","0.2896967534971049","403"
"20:19:35:757 (H:m:s:ms)","GENERIC","124.486","0.28891476044662645","304"
"20:19:41:818 (H:m:s:ms)","GENERIC","124.509","0.2866188324376487","238"
"20:19:47:878 (H:m:s:ms)","GENERIC","124.458","0.2880851604544872","1179"
"20:19:53:939 (H:m:s:ms)","GENERIC","124.287","0.2857500666442886","1121"
"20:8:59:393 (H:m:s:ms)","GENERIC","93.399","0.28991524287208864","713"
"20:9:5:454 (H:m:s:ms)","GENERIC","93.446","0.2876934656131312","608"
"20:9:11:515 (H:m:s:ms)","GENERIC","62.393","0.28405710105027043","549"
"20:9:17:575 (H:m:s:ms)","GENERIC","62.492000000000004","0.2839767400971425","490"
"20:9:23:636 (H:m:s:ms)","GENERIC","93.301","0.2817449278754917","426"
"20:9:29:696 (H:m:s:ms)","GENERIC","62.144999999999996","0.2783529659426433","411"
"20:9:35:757 (H:m:s:ms)","GENERIC","93.347","0.27162875842478457","320"
"20:9:41:818 (H:m:s:ms)","GENERIC","93.401","0.2746726271624644","241"
"20:9:47:878 (H:m:s:ms)","GENERIC","93.36","0.27114544164486143","179"
"20:9:53:939 (H:m:s:ms)","GENERIC","93.37100000000001","0.2733053537322124","1136"
"21:41:6:666 (H:m:s:ms)","GENERIC","124.488","0.27856917741943193","395"
"21:41:0:606 (H:m:s:ms)","GENERIC","124.506","0.2801960351692108","458"
"21:40:54:545 (H:m:s:ms)","GENERIC","124.50200000000001","0.2789928041986881","528"
"21:40:48:484 (H:m:s:ms)","GENERIC","124.477","0.27829838269083884","578"
"21:40:42:424 (H:m:s:ms)","GENERIC","124.321","0.2831886113147441","644"
"21:40:36:363 (H:m:s:ms)","GENERIC","124.261","0.28909599892364274","700"
"21:40:30:303 (H:m:s:ms)","GENERIC","124.364","0.2874902490361458","760"
"21:41:24:848 (H:m:s:ms)","GENERIC","124.435","0.2766720434896908","227"
"21:41:18:787 (H:m:s:ms)","GENERIC","93.511","0.2776844595556257","261"
"21:41:12:727 (H:m:s:ms)","GENERIC","124.388","0.2768424772656353","348"
