"time (H:m:s:ms)","type","latency","utilisation","waiting"
"21:42:25:454 (H:m:s:ms)","GENERIC","124.279","0.2568035058837562","545"
"21:42:7:272 (H:m:s:ms)","GENERIC","124.38499999999999","0.26052313079106143","727"
"21:42:1:212 (H:m:s:ms)","GENERIC","124.45","0.26159896444544306","787"
"21:41:55:151 (H:m:s:ms)","GENERIC","124.37","0.2593456035416697","848"
"21:41:49:90 (H:m:s:ms)","GENERIC","93.184","0.2611860402692131","948"
"21:41:43:30 (H:m:s:ms)","GENERIC","124.299","0.2610097418558729","969"
"21:41:36:969 (H:m:s:ms)","GENERIC","124.345","0.26262261730334274","1030"
"21:41:30:909 (H:m:s:ms)","GENERIC","93.229","0.2619373143216446","1090"
"21:41:24:848 (H:m:s:ms)","GENERIC","124.531","0.2600771729363469","151"
"21:42:19:393 (H:m:s:ms)","GENERIC","124.363","0.2606495512041433","645"
"21:42:13:333 (H:m:s:ms)","GENERIC","124.15","0.260453433473248","667"
"21:43:32:121 (H:m:s:ms)","GENERIC","124.561","0.245502312375874","878"
"21:43:26:60 (H:m:s:ms)","GENERIC","93.338","0.24506571622946896","939"
"21:43:13:939 (H:m:s:ms)","GENERIC","124.202","0.24936393113675742","1060"
"20:0:0:0 (H:m:s:ms)","GENERIC","31.017","0.043803245083388204","2211"
"21:43:7:878 (H:m:s:ms)","GENERIC","124.565","0.2504691853264696","1121"
"20:0:6:60 (H:m:s:ms)","GENERIC","62.027","0.06808229796924148","940"
"21:43:1:818 (H:m:s:ms)","GENERIC","124.246","0.2512083178968619","181"
"20:0:12:121 (H:m:s:ms)","GENERIC","62.045","0.07931022715127198","879"
"21:42:55:757 (H:m:s:ms)","GENERIC","124.39099999999999","0.2513704491915739","242"
"20:0:18:181 (H:m:s:ms)","GENERIC","62.058","0.08709255189082045","818"
"21:42:49:696 (H:m:s:ms)","GENERIC","124.34100000000001","0.2548435023399048","342"
"20:0:24:242 (H:m:s:ms)","GENERIC","62.068","0.09303049726159296","779"
"21:42:43:636 (H:m:s:ms)","GENERIC","124.64599999999999","0.2544437411915905","363"
"20:0:30:303 (H:m:s:ms)","GENERIC","93.092","0.10106647763842423","696"
"21:42:37:575 (H:m:s:ms)","GENERIC","124.42","0.2547776137317293","424"
"20:0:36:363 (H:m:s:ms)","GENERIC","31.044","0.10629361758276612","637"
"21:42:31:515 (H:m:s:ms)","GENERIC","124.218","0.25519211412952686","484"
"20:0:42:424 (H:m:s:ms)","GENERIC","93.115","0.12259196081919468","576"
"21:10:24:242 (H:m:s:ms)","GENERIC","124.30000000000001","0.2816398718288008","757"
"20:0:48:484 (H:m:s:ms)","GENERIC","93.129","0.13292520677550193","516"
"21:10:30:303 (H:m:s:ms)","GENERIC","93.133","0.28146785939731606","697"
"21:10:36:363 (H:m:s:ms)","GENERIC","124.272","0.2812407518587352","636"
"21:10:42:424 (H:m:s:ms)","GENERIC","124.493","0.28090959756849815","575"
"21:10:48:484 (H:m:s:ms)","GENERIC","124.34700000000001","0.2768924610063782","515"
"21:10:54:545 (H:m:s:ms)","GENERIC","93.154","0.27691535030699255","455"
"21:11:0:606 (H:m:s:ms)","GENERIC","124.34899999999999","0.2758166935358446","393"
"21:11:6:666 (H:m:s:ms)","GENERIC","124.281","0.27504431541743773","333"
"21:43:20:0 (H:m:s:ms)","GENERIC","124.306","0.24872918048710194","1038"
"21:11:12:727 (H:m:s:ms)","GENERIC","124.233","0.2729208374275768","272"
"21:11:18:787 (H:m:s:ms)","GENERIC","124.377","0.2736848946084999","212"
"21:25:49:367 (H:m:s:ms)","OPERA","93.185","0.3321405095728312","674"
"21:44:38:787 (H:m:s:ms)","GENERIC","124.47999999999999","0.23961973924758878","212"
"21:44:32:727 (H:m:s:ms)","GENERIC","124.35900000000001","0.23894625271097844","272"
"21:44:26:666 (H:m:s:ms)","GENERIC","124.179","0.24355499111656914","333"
"21:44:20:606 (H:m:s:ms)","GENERIC","124.72","0.24387860065607314","393"
"21:44:14:545 (H:m:s:ms)","GENERIC","124.303","0.24367771886998654","454"
"21:44:8:484 (H:m:s:ms)","GENERIC","93.156","0.24438330847445902","515"
"21:44:2:424 (H:m:s:ms)","GENERIC","124.59","0.2452210363886607","575"
"21:43:56:363 (H:m:s:ms)","GENERIC","124.245","0.24567835593526094","636"
"21:43:50:303 (H:m:s:ms)","GENERIC","124.184","0.24689297987129058","696"
"21:43:44:242 (H:m:s:ms)","GENERIC","124.403","0.24831822066107923","757"
"21:11:24:848 (H:m:s:ms)","GENERIC","124.255","0.26890041684357124","151"
"21:43:38:181 (H:m:s:ms)","GENERIC","124.42099999999999","0.24858533305333502","818"
"21:11:30:909 (H:m:s:ms)","GENERIC","124.363","0.2698366218309719","1090"
"21:11:36:969 (H:m:s:ms)","GENERIC","124.29400000000001","0.2687535746949718","1030"
"21:11:43:30 (H:m:s:ms)","GENERIC","124.32499999999999","0.26922093811948217","969"
"21:11:49:90 (H:m:s:ms)","GENERIC","124.283","0.26746176002181493","949"
"21:11:55:151 (H:m:s:ms)","GENERIC","124.37299999999999","0.2641467122190638","848"
"21:12:1:212 (H:m:s:ms)","GENERIC","124.16999999999999","0.26313409370089424","787"
"21:12:7:272 (H:m:s:ms)","GENERIC","124.20400000000001","0.26296800146437505","728"
"21:12:13:333 (H:m:s:ms)","GENERIC","124.381","0.2624248284801165","666"
"21:12:19:393 (H:m:s:ms)","GENERIC","124.247","0.26181116384848374","646"
"21:26:27:341 (H:m:s:ms)","OPERA","124.234","0.3305035465867029","658"
"21:45:45:454 (H:m:s:ms)","GENERIC","124.474","0.23364800188298707","545"
"21:26:21:818 (H:m:s:ms)","GENERIC","124.307","0.3339245138672286","181"
"21:45:39:393 (H:m:s:ms)","GENERIC","124.477","0.23359508371970208","644"
"21:45:33:333 (H:m:s:ms)","GENERIC","124.464","0.23105524887129555","666"
"21:45:27:272 (H:m:s:ms)","GENERIC","124.544","0.23318495386518864","727"
"21:26:15:757 (H:m:s:ms)","GENERIC","93.368","0.333927533222303","242"
"21:26:12:151 (H:m:s:ms)","OPERA","124.233","0.33391887302404605","848"
"21:45:21:212 (H:m:s:ms)","GENERIC","124.428","0.235581509827035","787"
"21:26:9:696 (H:m:s:ms)","GENERIC","124.282","0.331706726315323","346"
"21:45:15:151 (H:m:s:ms)","GENERIC","124.53299999999999","0.23224258275040421","848"
"21:26:4:556 (H:m:s:ms)","OPERA","124.272","0.33432329495858565","443"
"21:45:9:90 (H:m:s:ms)","GENERIC","124.22800000000001","0.23461077850709003","947"
"21:26:3:636 (H:m:s:ms)","GENERIC","124.578","0.33281374698037464","364"
"21:45:3:30 (H:m:s:ms)","GENERIC","124.245","0.23492946709362855","969"
"21:25:57:575 (H:m:s:ms)","GENERIC","124.469","0.3349145177882091","424"
"21:44:56:969 (H:m:s:ms)","GENERIC","124.405","0.23974578806398442","1030"
"21:12:25:454 (H:m:s:ms)","GENERIC","124.352","0.2581163992578534","546"
"21:25:56:962 (H:m:s:ms)","OPERA","93.285","0.33278612596023743","1037"
"21:44:50:909 (H:m:s:ms)","GENERIC","124.527","0.2401174794035646","1090"
"21:12:31:515 (H:m:s:ms)","GENERIC","124.44999999999999","0.2589019361805227","484"
"21:25:51:515 (H:m:s:ms)","GENERIC","124.225","0.3341371167194907","484"
"21:44:44:848 (H:m:s:ms)","GENERIC","124.471","0.23973422602536051","152"
"21:12:37:575 (H:m:s:ms)","GENERIC","124.31","0.258369366433701","424"
"21:12:43:636 (H:m:s:ms)","GENERIC","124.5","0.2598592563630605","363"
"21:12:49:696 (H:m:s:ms)","GENERIC","124.262","0.25635567878687926","343"
"21:12:55:757 (H:m:s:ms)","GENERIC","124.22999999999999","0.25100086762533497","242"
"21:13:1:818 (H:m:s:ms)","GENERIC","124.29599999999999","0.2510088802719892","181"
"21:13:7:878 (H:m:s:ms)","GENERIC","124.31800000000001","0.2526945759048334","1121"
"21:13:13:939 (H:m:s:ms)","GENERIC","124.319","0.25207963767636327","1061"
"21:13:20:0 (H:m:s:ms)","GENERIC","124.506","0.2526010316286244","1040"
"21:26:19:746 (H:m:s:ms)","OPERA","93.142","0.3295956488550501","295"
"21:27:4:242 (H:m:s:ms)","GENERIC","124.25399999999999","0.3278118028246695","758"
"21:46:52:121 (H:m:s:ms)","GENERIC","124.285","0.23539802499695223","878"
"21:26:58:181 (H:m:s:ms)","GENERIC","124.305","0.3290403894961528","818"
"21:46:46:60 (H:m:s:ms)","GENERIC","124.543","0.23361380111878294","939"
"21:26:57:721 (H:m:s:ms)","OPERA","93.039","0.32784655950727926","278"
"21:46:40:0 (H:m:s:ms)","GENERIC","124.47200000000001","0.23221475795605132","1038"
"21:46:33:939 (H:m:s:ms)","GENERIC","124.509","0.2308547109955299","1061"
"21:46:27:878 (H:m:s:ms)","GENERIC","124.465","0.23117876819369607","1121"
"21:26:52:121 (H:m:s:ms)","GENERIC","124.453","0.3318245947934315","878"
"21:26:50:126 (H:m:s:ms)","OPERA","124.37","0.32871539642664466","873"
"21:26:46:60 (H:m:s:ms)","GENERIC","124.539","0.33208266685523447","939"
"21:46:21:818 (H:m:s:ms)","GENERIC","124.201","0.2311709582555574","181"
"21:26:42:531 (H:m:s:ms)","OPERA","124.321","0.3319674725519857","468"
"21:46:15:757 (H:m:s:ms)","GENERIC","124.375","0.23236346478002445","242"
"21:26:40:0 (H:m:s:ms)","GENERIC","124.274","0.3294409689433571","1040"
"21:46:9:696 (H:m:s:ms)","GENERIC","124.345","0.2329793078388927","340"
"21:13:26:60 (H:m:s:ms)","GENERIC","124.409","0.2498808724149708","939"
"21:26:34:936 (H:m:s:ms)","OPERA","124.27799999999999","0.33091810143745515","1064"
"21:46:3:636 (H:m:s:ms)","GENERIC","124.467","0.23233958761100665","363"
"21:13:32:121 (H:m:s:ms)","GENERIC","124.30799999999999","0.24841250506888896","879"
"21:26:33:939 (H:m:s:ms)","GENERIC","124.35400000000001","0.32858103431767594","1061"
"21:45:57:575 (H:m:s:ms)","GENERIC","124.24799999999999","0.2334120495413512","424"
"21:13:38:181 (H:m:s:ms)","GENERIC","124.375","0.24909140994843915","818"
"21:26:27:878 (H:m:s:ms)","GENERIC","124.346","0.3321882286295424","1121"
"21:45:51:515 (H:m:s:ms)","GENERIC","124.299","0.23306512554038464","484"
"21:13:44:242 (H:m:s:ms)","GENERIC","124.47399999999999","0.25070485241217727","758"
"21:13:50:303 (H:m:s:ms)","GENERIC","124.41","0.25015579272017574","696"
"21:13:56:363 (H:m:s:ms)","GENERIC","124.39500000000001","0.2495972370206738","636"
"21:14:2:424 (H:m:s:ms)","GENERIC","124.53999999999999","0.24445745027409324","575"
"21:14:8:484 (H:m:s:ms)","GENERIC","124.363","0.24482483089213836","515"
"21:14:14:545 (H:m:s:ms)","GENERIC","124.327","0.2462153819545274","454"
"21:14:20:606 (H:m:s:ms)","GENERIC","124.28899999999999","0.24682446119108983","393"
"21:27:40:606 (H:m:s:ms)","GENERIC","124.624","0.3265300329730023","393"
"21:47:58:787 (H:m:s:ms)","GENERIC","93.113","0.24051763171229032","212"
"21:27:35:696 (H:m:s:ms)","OPERA","124.28999999999999","0.32845709015532654","303"
"21:47:52:727 (H:m:s:ms)","GENERIC","124.374","0.2417231201763654","272"
"21:27:34:545 (H:m:s:ms)","GENERIC","124.517","0.327121464008264","454"
"21:47:46:666 (H:m:s:ms)","GENERIC","124.624","0.2409058472519403","333"
"21:27:28:484 (H:m:s:ms)","GENERIC","93.404","0.32915792782543474","515"
"21:47:40:606 (H:m:s:ms)","GENERIC","124.461","0.24020309345619634","393"
"21:47:34:545 (H:m:s:ms)","GENERIC","124.363","0.23848898514131972","455"
"21:47:28:484 (H:m:s:ms)","GENERIC","124.332","0.23721162293562803","515"
"21:27:28:101 (H:m:s:ms)","OPERA","124.293","0.328358619011316","898"
"21:27:22:424 (H:m:s:ms)","GENERIC","124.336","0.3286882641808803","575"
"21:27:20:506 (H:m:s:ms)","OPERA","124.374","0.3265269424048935","493"
"21:47:22:424 (H:m:s:ms)","GENERIC","124.57300000000001","0.23652614352557588","575"
"21:14:26:666 (H:m:s:ms)","GENERIC","124.195","0.2481735372150163","333"
"21:27:16:363 (H:m:s:ms)","GENERIC","124.368","0.32825829273605855","636"
"21:47:16:363 (H:m:s:ms)","GENERIC","124.378","0.2347410230422217","637"
"21:14:32:727 (H:m:s:ms)","GENERIC","124.565","0.24595566431157392","272"
"21:27:12:911 (H:m:s:ms)","OPERA","124.269","0.32865533887147413","1088"
"21:47:10:303 (H:m:s:ms)","GENERIC","124.40299999999999","0.2352072294315081","696"
"20:52:25:454 (H:m:s:ms)","GENERIC","124.363","0.29238739720539325","546"
"21:14:38:787 (H:m:s:ms)","GENERIC","124.469","0.24659533059869446","212"
"21:27:10:303 (H:m:s:ms)","GENERIC","124.434","0.3257206972110708","696"
"21:47:4:242 (H:m:s:ms)","GENERIC","124.309","0.2338208135190593","757"
"20:52:31:515 (H:m:s:ms)","GENERIC","93.084","0.28986725532355706","485"
"21:14:44:848 (H:m:s:ms)","GENERIC","124.416","0.24745965704307052","151"
"21:27:5:316 (H:m:s:ms)","OPERA","124.439","0.3287999925550994","683"
"21:46:58:181 (H:m:s:ms)","GENERIC","124.39","0.23501907612273853","818"
"20:52:37:575 (H:m:s:ms)","GENERIC","124.358","0.28830368416881424","424"
"21:14:50:909 (H:m:s:ms)","GENERIC","124.638","0.24648473510899718","1090"
"20:52:43:636 (H:m:s:ms)","GENERIC","124.507","0.28600315652401664","363"
"21:14:56:969 (H:m:s:ms)","GENERIC","124.60499999999999","0.24592341724353572","1030"
"20:52:49:696 (H:m:s:ms)","GENERIC","93.256","0.28283585018972934","349"
"21:15:3:30 (H:m:s:ms)","GENERIC","124.618","0.23919303004673365","970"
"20:52:55:757 (H:m:s:ms)","GENERIC","124.475","0.2807618378776135","243"
"21:15:9:90 (H:m:s:ms)","GENERIC","124.46799999999999","0.24055817191671164","949"
"20:53:1:818 (H:m:s:ms)","GENERIC","124.15100000000001","0.28244172950402735","182"
"21:15:15:151 (H:m:s:ms)","GENERIC","124.624","0.2417349339555455","848"
"20:53:7:878 (H:m:s:ms)","GENERIC","124.498","0.2807561001976854","1121"
"21:15:21:212 (H:m:s:ms)","GENERIC","124.381","0.24122254062700246","787"
"20:53:13:939 (H:m:s:ms)","GENERIC","124.507","0.2783769665209912","1060"
"20:53:20:0 (H:m:s:ms)","GENERIC","93.332","0.2797348803597272","1045"
"21:28:16:969 (H:m:s:ms)","GENERIC","124.643","0.3269711770860228","1030"
"21:49:5:454 (H:m:s:ms)","GENERIC","124.326","0.24484635088420945","545"
"21:28:13:670 (H:m:s:ms)","OPERA","93.34700000000001","0.3265379087453969","329"
"21:48:59:393 (H:m:s:ms)","GENERIC","124.29400000000001","0.24586971579621672","644"
"21:28:10:909 (H:m:s:ms)","GENERIC","124.404","0.3244220012624424","1090"
"21:48:53:333 (H:m:s:ms)","GENERIC","124.314","0.24450390504760006","666"
"21:28:6:75 (H:m:s:ms)","OPERA","124.32300000000001","0.32685792445415307","924"
"21:48:47:272 (H:m:s:ms)","GENERIC","124.438","0.24365292178369535","727"
"21:28:4:848 (H:m:s:ms)","GENERIC","93.34700000000001","0.32447193836454474","152"
"21:48:41:212 (H:m:s:ms)","GENERIC","124.24","0.2432990762234776","787"
"21:48:35:151 (H:m:s:ms)","GENERIC","124.56","0.24424415373748076","848"
"21:48:29:90 (H:m:s:ms)","GENERIC","93.134","0.2436381527572976","946"
"21:27:58:787 (H:m:s:ms)","GENERIC","124.429","0.32727010179403465","213"
"21:15:27:272 (H:m:s:ms)","GENERIC","124.418","0.2404175559904912","727"
"21:27:58:481 (H:m:s:ms)","OPERA","124.41900000000001","0.32438309850984476","518"
"21:15:33:333 (H:m:s:ms)","GENERIC","124.30799999999999","0.24029958058994322","666"
"21:27:52:727 (H:m:s:ms)","GENERIC","124.52600000000001","0.3270103860665152","272"
"21:48:23:30 (H:m:s:ms)","GENERIC","124.374","0.2419748047323376","969"
"20:53:26:60 (H:m:s:ms)","GENERIC","124.471","0.27757956659528216","939"
"21:15:39:393 (H:m:s:ms)","GENERIC","124.543","0.23930835559186148","646"
"21:27:50:886 (H:m:s:ms)","OPERA","93.424","0.32532992883802897","113"
"21:48:16:969 (H:m:s:ms)","GENERIC","124.304","0.24288706902582496","1030"
"20:53:32:121 (H:m:s:ms)","GENERIC","124.314","0.27071674342587687","878"
"21:15:45:454 (H:m:s:ms)","GENERIC","124.492","0.23918815450882655","545"
"21:27:46:666 (H:m:s:ms)","GENERIC","124.46600000000001","0.3266859949227867","333"
"21:48:10:909 (H:m:s:ms)","GENERIC","124.25800000000001","0.2421267667045606","1090"
"20:53:38:181 (H:m:s:ms)","GENERIC","124.447","0.27013303868640615","818"
"21:15:51:515 (H:m:s:ms)","GENERIC","124.503","0.24002459050007763","484"
"21:27:43:291 (H:m:s:ms)","OPERA","62.178","0.32789811439911337","708"
"21:48:4:848 (H:m:s:ms)","GENERIC","124.435","0.2417785736192271","152"
"20:53:44:242 (H:m:s:ms)","GENERIC","124.465","0.26990206714090714","758"
"21:15:57:575 (H:m:s:ms)","GENERIC","93.362","0.23947194937245928","424"
"20:53:50:303 (H:m:s:ms)","GENERIC","124.346","0.26693201796522803","696"
"21:16:3:636 (H:m:s:ms)","GENERIC","93.166","0.2428359753211809","363"
"20:53:56:363 (H:m:s:ms)","GENERIC","124.452","0.2644663904212288","636"
"21:16:9:696 (H:m:s:ms)","GENERIC","124.675","0.24396904289394244","342"
"20:54:2:424 (H:m:s:ms)","GENERIC","124.229","0.2600433389990608","575"
"21:16:15:757 (H:m:s:ms)","GENERIC","124.4","0.2447815997585692","243"
"20:54:8:484 (H:m:s:ms)","GENERIC","124.376","0.25989904644397244","515"
"21:16:21:818 (H:m:s:ms)","GENERIC","93.267","0.2443064961301938","181"
"20:54:14:545 (H:m:s:ms)","GENERIC","124.369","0.2602111730143","455"
"20:54:20:606 (H:m:s:ms)","GENERIC","124.303","0.25766632433059194","393"
"21:28:53:333 (H:m:s:ms)","GENERIC","124.63","0.3279559935877152","666"
"22:1:34:736 (H:m:s:ms)","AMBULANCE","93.09700000000001","0.06267570422887363","264"
"21:28:51:645 (H:m:s:ms)","OPERA","124.408","0.32469130900506715","354"
"22:0:0:0 (H:m:s:ms)","AMBULANCE","62.049","0.04467532622894359","2205"
"21:28:47:272 (H:m:s:ms)","GENERIC","93.127","0.3273917421619408","727"
"21:50:0:0 (H:m:s:ms)","GENERIC","124.341","0.24905869175559162","1037"
"21:28:44:50 (H:m:s:ms)","OPERA","124.457","0.3274105510866988","949"
"21:49:53:939 (H:m:s:ms)","GENERIC","124.57","0.2500796342358465","1060"
"21:28:41:212 (H:m:s:ms)","GENERIC","124.631","0.32535425559999803","787"
"21:49:47:878 (H:m:s:ms)","GENERIC","124.378","0.2498106000493038","1121"
"21:28:36:455 (H:m:s:ms)","OPERA","124.258","0.328404745198337","544"
"21:49:41:818 (H:m:s:ms)","GENERIC","124.511","0.24870185193709599","181"
"21:49:35:757 (H:m:s:ms)","GENERIC","124.59","0.25042084569231426","243"
"21:49:29:696 (H:m:s:ms)","GENERIC","124.393","0.25040683757176707","341"
"21:16:27:878 (H:m:s:ms)","GENERIC","124.367","0.24404809022467153","1121"
"21:16:33:939 (H:m:s:ms)","GENERIC","124.305","0.2429962644632154","1061"
"21:28:35:151 (H:m:s:ms)","GENERIC","124.435","0.32630951448404877","848"
"20:54:26:666 (H:m:s:ms)","GENERIC","124.449","0.25557304586885643","333"
"21:16:40:0 (H:m:s:ms)","GENERIC","124.309","0.24399359598389952","1039"
"21:28:29:90 (H:m:s:ms)","GENERIC","124.394","0.32741738428970574","947"
"20:54:32:727 (H:m:s:ms)","GENERIC","124.455","0.2550099298823182","273"
"21:16:46:60 (H:m:s:ms)","GENERIC","124.34100000000001","0.24506832210720367","939"
"21:28:28:860 (H:m:s:ms)","OPERA","124.158","0.3251199481868382","139"
"21:49:23:636 (H:m:s:ms)","GENERIC","93.21799999999999","0.24960472607563516","363"
"20:54:38:787 (H:m:s:ms)","GENERIC","124.499","0.24978045673674798","213"
"21:16:52:121 (H:m:s:ms)","GENERIC","124.284","0.24601738966763864","878"
"21:28:23:30 (H:m:s:ms)","GENERIC","124.402","0.32717326307704936","969"
"21:49:17:575 (H:m:s:ms)","GENERIC","124.294","0.2507921639331138","425"
"20:54:44:848 (H:m:s:ms)","GENERIC","124.355","0.2509448625391624","152"
"21:16:58:181 (H:m:s:ms)","GENERIC","124.22800000000001","0.24805349592272316","818"
"21:28:21:265 (H:m:s:ms)","OPERA","124.33000000000001","0.32378682149207594","734"
"21:49:11:515 (H:m:s:ms)","GENERIC","124.196","0.24903282298058488","484"
"20:54:50:909 (H:m:s:ms)","GENERIC","124.657","0.2490728336070304","1091"
"21:17:4:242 (H:m:s:ms)","GENERIC","124.19999999999999","0.2493081549188117","757"
"20:54:56:969 (H:m:s:ms)","GENERIC","124.536","0.24571014477536193","1030"
"21:17:10:303 (H:m:s:ms)","GENERIC","124.223","0.24821452823509607","696"
"20:55:3:30 (H:m:s:ms)","GENERIC","93.224","0.23984083449624646","970"
"21:17:16:363 (H:m:s:ms)","GENERIC","93.124","0.24886335802395607","636"
"20:55:9:90 (H:m:s:ms)","GENERIC","124.529","0.24147405350503484","955"
"21:17:22:424 (H:m:s:ms)","GENERIC","93.227","0.24764624230420407","575"
"20:55:15:151 (H:m:s:ms)","GENERIC","124.255","0.2422106864064367","848"
"20:55:21:212 (H:m:s:ms)","GENERIC","124.38300000000001","0.24047825212992305","787"
"21:29:29:696 (H:m:s:ms)","GENERIC","124.44800000000001","0.3297493468099702","342"
"21:29:29:620 (H:m:s:ms)","OPERA","93.332","0.3281261648102099","418"
"21:29:23:636 (H:m:s:ms)","GENERIC","124.367","0.33002321316900923","363"
"21:29:22:25 (H:m:s:ms)","OPERA","62.047","0.32820464910197256","974"
"21:29:17:575 (H:m:s:ms)","GENERIC","124.543","0.32951723895501445","424"
"21:29:14:430 (H:m:s:ms)","OPERA","93.28200000000001","0.32999185770654543","570"
"21:29:11:515 (H:m:s:ms)","GENERIC","93.35","0.32838435106539926","484"
"21:17:28:484 (H:m:s:ms)","GENERIC","124.415","0.24800625708974644","515"
"21:17:34:545 (H:m:s:ms)","GENERIC","124.481","0.24724426257551863","455"
"20:55:27:272 (H:m:s:ms)","GENERIC","124.372","0.2407260728828596","727"
"21:17:40:606 (H:m:s:ms)","GENERIC","124.625","0.24789317784544715","393"
"20:55:33:333 (H:m:s:ms)","GENERIC","124.43199999999999","0.2421747256007241","666"
"21:17:46:666 (H:m:s:ms)","GENERIC","124.438","0.2480448767538483","333"
"21:29:6:835 (H:m:s:ms)","OPERA","93.378","0.3306359813298729","164"
"20:55:39:393 (H:m:s:ms)","GENERIC","124.547","0.24173779636238799","651"
"21:17:52:727 (H:m:s:ms)","GENERIC","93.193","0.24786359455380833","272"
"21:29:5:454 (H:m:s:ms)","GENERIC","124.588","0.3273572286958532","545"
"20:55:45:454 (H:m:s:ms)","GENERIC","124.233","0.24248429559028734","545"
"21:17:58:787 (H:m:s:ms)","GENERIC","124.226","0.24863332844222785","212"
"21:28:59:393 (H:m:s:ms)","GENERIC","124.675","0.327873598784974","645"
"22:8:56:842 (H:m:s:ms)","AMBULANCE","93.129","0.05983105097974804","157"
"20:55:51:515 (H:m:s:ms)","GENERIC","124.422","0.24136934957824757","484"
"21:18:4:848 (H:m:s:ms)","GENERIC","124.32300000000001","0.24966331787832005","152"
"21:28:59:240 (H:m:s:ms)","OPERA","124.35900000000001","0.325626608975003","798"
"22:6:50:526 (H:m:s:ms)","AMBULANCE","62.075","0.03614961026992357","473"
"20:55:57:575 (H:m:s:ms)","GENERIC","124.21199999999999","0.2425771878830342","424"
"21:18:10:909 (H:m:s:ms)","GENERIC","124.19999999999999","0.2495588075991833","1090"
"20:56:3:636 (H:m:s:ms)","GENERIC","124.218","0.2451148026796558","363"
"21:18:16:969 (H:m:s:ms)","GENERIC","124.226","0.24897865500199923","1031"
"20:56:9:696 (H:m:s:ms)","GENERIC","124.227","0.2455863778705338","347"
"21:18:23:30 (H:m:s:ms)","GENERIC","93.295","0.24757030854096734","969"
"20:56:15:757 (H:m:s:ms)","GENERIC","124.287","0.24499664236637106","242"
"20:56:21:818 (H:m:s:ms)","GENERIC","124.324","0.2469737443191345","181"
"21:30:0:0 (H:m:s:ms)","GENERIC","124.471","0.33736014802101416","1038"
"21:30:0:0 (H:m:s:ms)","GENERIC","124.313","0.3352546619115583","1038"
"21:30:0:0 (H:m:s:ms)","AMBULANCE","93.182","0.33315792864363536","1038"
"21:30:0:0 (H:m:s:ms)","OPERA","124.42099999999999","0.33001740689878295","1038"
"21:29:53:939 (H:m:s:ms)","GENERIC","124.592","0.3319611615132399","1061"
"21:29:52:405 (H:m:s:ms)","OPERA","124.249","0.32856135703903666","594"
"21:29:47:878 (H:m:s:ms)","GENERIC","124.444","0.33148708178069913","1121"
"21:29:44:810 (H:m:s:ms)","OPERA","124.162","0.33065788017201186","190"
"21:18:29:90 (H:m:s:ms)","GENERIC","124.232","0.24793609262230534","949"
"21:18:35:151 (H:m:s:ms)","GENERIC","124.456","0.2485444903236217","848"
"20:56:27:878 (H:m:s:ms)","GENERIC","93.158","0.24761154743215325","1121"
"21:18:41:212 (H:m:s:ms)","GENERIC","93.165","0.24780154582651873","787"
"20:56:33:939 (H:m:s:ms)","GENERIC","124.352","0.24824908851565858","1060"
"21:18:47:272 (H:m:s:ms)","GENERIC","124.41399999999999","0.24680251397694833","727"
"20:40:0:0 (H:m:s:ms)","OPERA","93.17","0.26437843600183786","2306"
"20:56:40:0 (H:m:s:ms)","GENERIC","93.098","0.247204852121356","1045"
"21:18:53:333 (H:m:s:ms)","GENERIC","124.464","0.24779399625742887","666"
"20:40:0:0 (H:m:s:ms)","GENERIC","124.304","0.26801770965828026","2306"
"20:56:46:60 (H:m:s:ms)","GENERIC","124.471","0.2460571829530949","940"
"21:18:59:393 (H:m:s:ms)","GENERIC","124.618","0.24764216206818068","645"
"21:29:41:818 (H:m:s:ms)","GENERIC","124.40899999999999","0.3304123238397711","181"
"20:40:0:0 (H:m:s:ms)","GENERIC","124.46000000000001","0.271309112182419","2306"
"20:56:52:121 (H:m:s:ms)","GENERIC","93.327","0.24602039569764653","878"
"21:19:5:454 (H:m:s:ms)","GENERIC","124.437","0.2497566382356346","545"
"21:29:37:215 (H:m:s:ms)","OPERA","124.37899999999999","0.3307766444193251","785"
"20:40:6:60 (H:m:s:ms)","GENERIC","93.25","0.271285937374369","939"
"20:56:58:181 (H:m:s:ms)","GENERIC","124.354","0.24796233359883732","818"
"21:19:11:515 (H:m:s:ms)","GENERIC","124.625","0.24958167036945925","484"
"21:29:35:757 (H:m:s:ms)","GENERIC","124.49","0.3287432439137862","242"
"20:40:7:594 (H:m:s:ms)","OPERA","93.189","0.2759533104191525","405"
"20:57:4:242 (H:m:s:ms)","GENERIC","124.22399999999999","0.24863215468198166","757"
"21:19:17:575 (H:m:s:ms)","GENERIC","124.387","0.24974106301206256","424"
"20:40:12:121 (H:m:s:ms)","GENERIC","124.297","0.27560178966369053","878"
"20:57:10:303 (H:m:s:ms)","GENERIC","124.352","0.2481528598226005","696"
"21:19:23:636 (H:m:s:ms)","GENERIC","124.328","0.25165093710276953","363"
"20:40:15:189 (H:m:s:ms)","OPERA","93.203","0.27801616792629513","810"
"20:57:16:363 (H:m:s:ms)","GENERIC","124.473","0.24959634379137166","636"
"20:40:18:181 (H:m:s:ms)","GENERIC","124.213","0.27816722102083596","818"
"20:57:22:424 (H:m:s:ms)","GENERIC","124.657","0.2501650302990673","575"
"20:40:22:784 (H:m:s:ms)","OPERA","93.225","0.27628932362255276","215"
"20:40:24:242 (H:m:s:ms)","GENERIC","124.241","0.27985101392517714","758"
"21:30:18:181 (H:m:s:ms)","GENERIC","124.43700000000001","0.33185150214519","818"
"21:31:0:606 (H:m:s:ms)","GENERIC","93.187","0.32150755452503604","393"
"21:30:54:545 (H:m:s:ms)","GENERIC","124.36099999999999","0.3242400486320176","454"
"21:30:48:484 (H:m:s:ms)","GENERIC","124.458","0.3256358567966998","515"
"21:30:42:424 (H:m:s:ms)","GENERIC","124.42699999999999","0.3247069835928944","575"
"21:30:36:363 (H:m:s:ms)","GENERIC","124.196","0.32880619823265406","636"
"21:30:31:578 (H:m:s:ms)","AMBULANCE","124.508","0.3306959807540813","421"
"21:30:30:303 (H:m:s:ms)","GENERIC","124.675","0.3289026035119456","696"
"21:19:29:696 (H:m:s:ms)","GENERIC","124.15700000000001","0.25193312941678897","342"
"21:30:24:242 (H:m:s:ms)","GENERIC","124.195","0.3310650230263269","758"
"21:19:35:757 (H:m:s:ms)","GENERIC","124.593","0.2514312426965863","242"
"20:57:28:484 (H:m:s:ms)","GENERIC","93.13499999999999","0.24984032371443912","515"
"21:19:41:818 (H:m:s:ms)","GENERIC","124.48","0.2524141080702615","181"
"20:57:34:545 (H:m:s:ms)","GENERIC","124.428","0.24997021251776644","454"
"21:19:47:878 (H:m:s:ms)","GENERIC","124.425","0.2514092806852159","1121"
"20:40:30:303 (H:m:s:ms)","GENERIC","124.39099999999999","0.2811902093191155","697"
"20:57:40:606 (H:m:s:ms)","GENERIC","124.539","0.2506502908560975","393"
"21:19:53:939 (H:m:s:ms)","GENERIC","124.443","0.25137212764949696","1061"
"20:40:30:379 (H:m:s:ms)","OPERA","93.258","0.2854095609083254","620"
"20:57:46:666 (H:m:s:ms)","GENERIC","124.238","0.2508633770393317","333"
"21:20:0:0 (H:m:s:ms)","OPERA","124.34100000000001","0.255750851969272","2354"
"20:40:36:363 (H:m:s:ms)","GENERIC","124.292","0.2831204500701477","636"
"20:57:52:727 (H:m:s:ms)","GENERIC","124.663","0.25101113298369276","273"
"21:20:0:0 (H:m:s:ms)","GENERIC","124.441","0.2507618103481889","2353"
"20:40:37:974 (H:m:s:ms)","OPERA","93.244","0.2874291208982678","1025"
"20:57:58:787 (H:m:s:ms)","GENERIC","93.14","0.25142497595668734","212"
"21:20:0:0 (H:m:s:ms)","GENERIC","124.392","0.2530423981976527","2354"
"21:30:12:121 (H:m:s:ms)","GENERIC","124.602","0.33220207304513893","878"
"20:40:42:424 (H:m:s:ms)","GENERIC","124.464","0.28813486495889895","575"
"20:58:4:848 (H:m:s:ms)","GENERIC","124.255","0.2517941298588753","152"
"21:20:6:60 (H:m:s:ms)","GENERIC","124.388","0.2571126688855323","939"
"21:30:6:60 (H:m:s:ms)","GENERIC","124.428","0.3359822460355163","939"
"20:40:45:569 (H:m:s:ms)","OPERA","62.233999999999995","0.29076310901049507","430"
"20:58:10:909 (H:m:s:ms)","GENERIC","62.025","0.251056211559183","1090"
"21:20:7:594 (H:m:s:ms)","OPERA","124.227","0.2612784953428456","405"
"20:40:48:484 (H:m:s:ms)","GENERIC","93.229","0.2899536857210769","515"
"20:58:16:969 (H:m:s:ms)","GENERIC","124.261","0.25136045861104855","1030"
"20:40:53:164 (H:m:s:ms)","OPERA","93.082","0.29021076830973547","835"
"20:58:23:30 (H:m:s:ms)","GENERIC","124.394","0.250823232351666","969"
"20:40:54:545 (H:m:s:ms)","GENERIC","124.331","0.2924775400961266","454"
"20:41:0:606 (H:m:s:ms)","GENERIC","124.55099999999999","0.29450181423433824","393"
"21:31:12:727 (H:m:s:ms)","GENERIC","124.34","0.3238249819151516","272"
"21:31:6:666 (H:m:s:ms)","GENERIC","124.382","0.3222824249336107","333"
"21:31:55:151 (H:m:s:ms)","GENERIC","124.416","0.3089173496671482","848"
"21:31:49:90 (H:m:s:ms)","GENERIC","93.197","0.31303849722535837","947"
"21:31:43:30 (H:m:s:ms)","GENERIC","93.19","0.3143303170150286","969"
"21:31:36:969 (H:m:s:ms)","GENERIC","124.31700000000001","0.31815688253496976","1030"
"21:31:34:736 (H:m:s:ms)","AMBULANCE","124.19","0.32081968939846306","264"
"21:31:30:909 (H:m:s:ms)","GENERIC","93.292","0.31781258066392354","1090"
"21:31:24:848 (H:m:s:ms)","GENERIC","124.52799999999999","0.31878016348372423","152"
"21:31:18:787 (H:m:s:ms)","GENERIC","124.578","0.32069838423018887","212"
"20:58:29:90 (H:m:s:ms)","GENERIC","124.243","0.2514891192422305","955"
"20:58:35:151 (H:m:s:ms)","GENERIC","124.458","0.2524433922362317","848"
"20:41:0:759 (H:m:s:ms)","OPERA","93.21000000000001","0.299222651419477","240"
"20:58:41:212 (H:m:s:ms)","GENERIC","124.467","0.25288533164585086","787"
"20:41:6:666 (H:m:s:ms)","GENERIC","93.131","0.29870974867995936","333"
"20:58:47:272 (H:m:s:ms)","GENERIC","124.422","0.25308590988611407","727"
"20:41:8:354 (H:m:s:ms)","OPERA","93.16","0.3027518901394647","646"
"20:58:53:333 (H:m:s:ms)","GENERIC","124.384","0.2532248621775372","666"
"20:41:12:727 (H:m:s:ms)","GENERIC","124.36500000000001","0.3005631660331788","272"
"20:58:59:393 (H:m:s:ms)","GENERIC","124.357","0.2528535374708941","652"
"20:41:15:949 (H:m:s:ms)","OPERA","93.284","0.30046246162758594","1050"
"20:59:5:454 (H:m:s:ms)","GENERIC","124.137","0.2551329975090233","545"
"20:41:18:787 (H:m:s:ms)","GENERIC","62.179","0.3021515241524658","212"
"20:59:11:515 (H:m:s:ms)","GENERIC","124.286","0.25620713280735563","484"
"21:31:3:157 (H:m:s:ms)","AMBULANCE","124.451","0.324161090348044","842"
"20:41:23:544 (H:m:s:ms)","OPERA","93.299","0.3009341556776331","455"
"20:59:17:575 (H:m:s:ms)","GENERIC","124.456","0.2557020275477616","424"
"20:41:24:848 (H:m:s:ms)","GENERIC","93.346","0.3023052878516195","152"
"20:59:23:636 (H:m:s:ms)","GENERIC","124.346","0.2539295833306829","363"
"20:41:30:909 (H:m:s:ms)","GENERIC","124.265","0.30228843074439027","1090"
"20:41:31:139 (H:m:s:ms)","OPERA","93.15","0.3057185988087136","860"
"20:59:29:696 (H:m:s:ms)","GENERIC","124.42099999999999","0.2556414845516543","349"
"20:59:35:757 (H:m:s:ms)","GENERIC","124.47999999999999","0.2553249173807435","242"
"20:41:36:969 (H:m:s:ms)","GENERIC","93.205","0.3056905161310691","1030"
"20:59:41:818 (H:m:s:ms)","GENERIC","124.67","0.2549038828209909","181"
"20:41:38:734 (H:m:s:ms)","OPERA","62.218","0.3077431980646164","265"
"20:59:47:878 (H:m:s:ms)","GENERIC","124.473","0.2553613243779936","1121"
"20:41:43:30 (H:m:s:ms)","GENERIC","124.362","0.30674421215491615","969"
"20:59:53:939 (H:m:s:ms)","GENERIC","124.531","0.2545995874616916","1060"
"20:41:46:329 (H:m:s:ms)","OPERA","62.244","0.30877990081653717","670"
"21:0:0:0 (H:m:s:ms)","AMBULANCE","93.485","0.2550856184186587","2364"
"20:41:49:90 (H:m:s:ms)","GENERIC","124.196","0.3088769882205257","955"
"21:0:0:0 (H:m:s:ms)","GENERIC","124.443","0.25940263630108407","2364"
"20:41:53:924 (H:m:s:ms)","OPERA","93.3","0.31067000232689074","1075"
"21:0:0:0 (H:m:s:ms)","GENERIC","124.428","0.2635520688842315","2364"
"20:41:55:151 (H:m:s:ms)","GENERIC","124.553","0.3123632085872396","848"
"21:0:6:60 (H:m:s:ms)","GENERIC","124.167","0.2625542101662824","939"
"20:42:1:212 (H:m:s:ms)","GENERIC","124.49199999999999","0.3129050455730233","788"
"21:0:12:121 (H:m:s:ms)","GENERIC","124.19800000000001","0.26422814379312975","878"
"20:42:1:518 (H:m:s:ms)","OPERA","93.45","0.31516399261940686","482"
"20:42:7:272 (H:m:s:ms)","GENERIC","124.21799999999999","0.3145469664769719","727"
"21:0:18:181 (H:m:s:ms)","GENERIC","93.154","0.2624511304609119","818"
"21:0:24:242 (H:m:s:ms)","GENERIC","124.35499999999999","0.2610216472991201","758"
"20:42:9:113 (H:m:s:ms)","OPERA","93.11099999999999","0.31628738680104446","929"
"21:0:30:303 (H:m:s:ms)","GENERIC","124.533","0.2613385605168767","696"
"20:42:13:333 (H:m:s:ms)","GENERIC","124.312","0.315591223667167","666"
"21:0:31:578 (H:m:s:ms)","AMBULANCE","93.193","0.26441933869397094","421"
"20:20:0:0 (H:m:s:ms)","GENERIC","124.288","0.265432869448542","2308"
"20:42:19:393 (H:m:s:ms)","GENERIC","93.222","0.3139432186575287","649"
"21:0:36:363 (H:m:s:ms)","GENERIC","124.39500000000001","0.26473003815297025","636"
"20:20:0:0 (H:m:s:ms)","GENERIC","124.45400000000001","0.2681910176936699","2308"
"20:42:24:303 (H:m:s:ms)","OPERA","93.156","0.31364068428008063","696"
"21:0:42:424 (H:m:s:ms)","GENERIC","124.25200000000001","0.26396629648586795","575"
"20:20:6:60 (H:m:s:ms)","GENERIC","93.14","0.26808255130517344","939"
"20:42:25:454 (H:m:s:ms)","GENERIC","124.316","0.3164430572566394","545"
"21:0:48:484 (H:m:s:ms)","GENERIC","124.231","0.2626201625348585","515"
"20:20:12:121 (H:m:s:ms)","GENERIC","124.377","0.26737131121564195","878"
"20:42:31:515 (H:m:s:ms)","GENERIC","124.346","0.31497987277009076","484"
"21:0:54:545 (H:m:s:ms)","GENERIC","124.551","0.2630903333089974","454"
"20:20:18:181 (H:m:s:ms)","GENERIC","124.31","0.2679348806253","819"
"20:42:31:898 (H:m:s:ms)","OPERA","62.083","0.31719390072225817","101"
"21:1:0:606 (H:m:s:ms)","GENERIC","124.463","0.2617492683529866","393"
"20:20:24:242 (H:m:s:ms)","GENERIC","124.146","0.2679592161766392","757"
"20:42:37:575 (H:m:s:ms)","GENERIC","93.208","0.31666526254785815","424"
"21:1:3:157 (H:m:s:ms)","AMBULANCE","93.173","0.26520179053095866","842"
"20:20:30:303 (H:m:s:ms)","GENERIC","124.33099999999999","0.26747283108338765","696"
"20:42:39:493 (H:m:s:ms)","OPERA","93.12","0.3188367829829639","549"
"20:20:36:363 (H:m:s:ms)","GENERIC","124.233","0.2668916030895892","636"
"20:42:43:636 (H:m:s:ms)","GENERIC","93.348","0.317963819263624","363"
"20:20:42:424 (H:m:s:ms)","GENERIC","124.32","0.26723378354651484","575"
"20:20:48:484 (H:m:s:ms)","GENERIC","124.2","0.2680510181018899","515"
"21:1:6:666 (H:m:s:ms)","GENERIC","124.226","0.2650620908219987","334"
"21:1:12:727 (H:m:s:ms)","GENERIC","124.32","0.26528016317887515","272"
"20:42:47:88 (H:m:s:ms)","OPERA","93.14099999999999","0.31709483926695137","911"
"21:1:18:787 (H:m:s:ms)","GENERIC","124.445","0.26571300437701834","212"
"20:42:49:696 (H:m:s:ms)","GENERIC","124.378","0.3191551206897475","345"
"21:1:24:848 (H:m:s:ms)","GENERIC","124.381","0.2664621897936143","151"
"20:20:54:545 (H:m:s:ms)","GENERIC","93.08699999999999","0.2683266437539306","454"
"20:42:54:683 (H:m:s:ms)","OPERA","62.11","0.31778834133789613","316"
"21:1:30:909 (H:m:s:ms)","GENERIC","124.382","0.2648007037617315","1090"
"20:21:0:606 (H:m:s:ms)","GENERIC","124.38300000000001","0.26846637536988005","393"
"20:42:55:757 (H:m:s:ms)","GENERIC","124.304","0.32055726934063333","242"
"21:1:34:736 (H:m:s:ms)","AMBULANCE","93.217","0.26693650706369304","264"
"20:21:6:666 (H:m:s:ms)","GENERIC","124.281","0.26877611349185704","333"
"20:43:1:818 (H:m:s:ms)","GENERIC","124.313","0.3210135670238309","181"
"21:1:36:969 (H:m:s:ms)","GENERIC","124.423","0.26672622770248655","1030"
"20:21:12:727 (H:m:s:ms)","GENERIC","93.229","0.27005501723353165","272"
"20:43:2:278 (H:m:s:ms)","OPERA","31.009","0.3218172215726296","721"
"21:1:43:30 (H:m:s:ms)","GENERIC","124.101","0.267151697396292","970"
"20:21:18:787 (H:m:s:ms)","GENERIC","93.20100000000001","0.27005289308830244","212"
"20:43:7:878 (H:m:s:ms)","GENERIC","124.469","0.3214003983960559","1121"
"21:1:49:90 (H:m:s:ms)","GENERIC","124.437","0.2671512784498115","955"
"20:21:24:848 (H:m:s:ms)","GENERIC","124.439","0.26883280278204214","152"
"20:43:9:873 (H:m:s:ms)","OPERA","93.5","0.3235356143206881","168"
"21:1:55:151 (H:m:s:ms)","GENERIC","124.473","0.26691824807731396","848"
"20:21:30:909 (H:m:s:ms)","GENERIC","93.14099999999999","0.26800525521966384","1090"
"20:43:13:939 (H:m:s:ms)","GENERIC","124.568","0.323979688231654","1061"
"20:21:36:969 (H:m:s:ms)","GENERIC","124.287","0.2676458577840916","1031"
"20:43:17:468 (H:m:s:ms)","OPERA","93.324","0.3260371342644365","531"
"20:21:43:30 (H:m:s:ms)","GENERIC","93.203","0.2670906604345154","969"
"20:21:49:90 (H:m:s:ms)","GENERIC","93.15","0.26679558563302924","947"
"20:43:20:0 (H:m:s:ms)","GENERIC","124.46600000000001","0.32519752236820093","1041"
"20:43:25:63 (H:m:s:ms)","OPERA","93.443","0.3248515101219688","936"
"20:21:55:151 (H:m:s:ms)","GENERIC","124.191","0.26772821340225755","848"
"20:43:26:60 (H:m:s:ms)","GENERIC","124.486","0.32768192418309683","939"
"20:22:1:212 (H:m:s:ms)","GENERIC","124.331","0.2685771499301606","787"
"20:43:32:121 (H:m:s:ms)","GENERIC","124.581","0.3316360308159018","878"
"20:22:7:272 (H:m:s:ms)","GENERIC","124.218","0.2680799597481823","727"
"20:43:32:658 (H:m:s:ms)","OPERA","62.18","0.3276961193715358","341"
"20:22:13:333 (H:m:s:ms)","GENERIC","124.32","0.2667617764107035","666"
"20:43:38:181 (H:m:s:ms)","GENERIC","93.12","0.3309352736653522","818"
"20:22:19:393 (H:m:s:ms)","GENERIC","124.17","0.2667334036234301","645"
"20:43:40:253 (H:m:s:ms)","OPERA","93.531","0.332677270479031","746"
"20:22:25:454 (H:m:s:ms)","GENERIC","124.19300000000001","0.26734605748263257","546"
"20:43:44:242 (H:m:s:ms)","GENERIC","124.6","0.3320903078130798","757"
"20:22:31:515 (H:m:s:ms)","GENERIC","124.332","0.2653140811299112","484"
"20:43:47:848 (H:m:s:ms)","OPERA","93.245","0.33516805519793297","151"
"20:22:37:575 (H:m:s:ms)","GENERIC","124.24600000000001","0.26668251167683854","424"
"20:43:50:303 (H:m:s:ms)","GENERIC","124.449","0.33431466660953185","696"
"20:22:43:636 (H:m:s:ms)","GENERIC","124.32900000000001","0.26781208888620694","363"
"20:22:49:696 (H:m:s:ms)","GENERIC","124.376","0.2677139101832689","341"
"20:43:55:443 (H:m:s:ms)","OPERA","93.19","0.3341017051086259","556"
"20:43:56:363 (H:m:s:ms)","GENERIC","124.34","0.3360949520921816","636"
"20:22:55:757 (H:m:s:ms)","GENERIC","124.332","0.2685035743403248","242"
"20:44:2:424 (H:m:s:ms)","GENERIC","93.358","0.33592591433619645","575"
"20:23:1:818 (H:m:s:ms)","GENERIC","124.346","0.2696758242578306","181"
"20:44:3:37 (H:m:s:ms)","OPERA","93.452","0.33886437063281716","962"
"20:23:7:878 (H:m:s:ms)","GENERIC","124.507","0.2724869873778745","1122"
"20:44:8:484 (H:m:s:ms)","GENERIC","93.271","0.33775850272178687","515"
"20:23:13:939 (H:m:s:ms)","GENERIC","93.239","0.2730418563409904","1061"
"20:44:10:632 (H:m:s:ms)","OPERA","93.219","0.3401487793469951","367"
"20:23:20:0 (H:m:s:ms)","GENERIC","124.31","0.2733335213519281","1038"
"20:44:14:545 (H:m:s:ms)","GENERIC","124.26599999999999","0.34036309309229934","455"
"20:23:26:60 (H:m:s:ms)","GENERIC","93.382","0.2727808112433412","939"
"20:44:18:227 (H:m:s:ms)","OPERA","93.44","0.33987195227766437","772"
"20:23:32:121 (H:m:s:ms)","GENERIC","124.39","0.2745549026606636","878"
"20:44:20:606 (H:m:s:ms)","GENERIC","124.549","0.3424121887058848","393"
"20:23:38:181 (H:m:s:ms)","GENERIC","124.257","0.27272127374278765","819"
"20:44:25:822 (H:m:s:ms)","OPERA","62.162","0.3416991705789705","177"
"20:23:44:242 (H:m:s:ms)","GENERIC","124.467","0.27322367243800727","758"
"20:23:50:303 (H:m:s:ms)","GENERIC","124.31299999999999","0.27275438866215207","696"
"20:44:26:666 (H:m:s:ms)","GENERIC","124.217","0.34329764803115714","333"
"20:44:32:727 (H:m:s:ms)","GENERIC","124.678","0.3430817925525085","272"
"20:23:56:363 (H:m:s:ms)","GENERIC","124.289","0.2727223665928458","636"
"20:44:33:417 (H:m:s:ms)","OPERA","93.432","0.34552011075471","582"
"20:24:2:424 (H:m:s:ms)","GENERIC","124.322","0.27276660411040504","575"
"20:44:38:787 (H:m:s:ms)","GENERIC","124.35","0.34471544269844495","212"
"20:24:8:484 (H:m:s:ms)","GENERIC","93.179","0.2739159857195159","515"
"20:44:41:12 (H:m:s:ms)","OPERA","93.587","0.34592382942253946","987"
"20:24:14:545 (H:m:s:ms)","GENERIC","93.217","0.27514475903111874","454"
"20:44:44:848 (H:m:s:ms)","GENERIC","124.60900000000001","0.3452395774741802","151"
"20:24:20:606 (H:m:s:ms)","GENERIC","124.28399999999999","0.27527410402044944","393"
"20:44:48:607 (H:m:s:ms)","OPERA","93.422","0.34698758430588367","392"
"20:24:26:666 (H:m:s:ms)","GENERIC","93.289","0.2739427301456221","333"
"20:44:50:909 (H:m:s:ms)","GENERIC","124.514","0.3469352745907053","1090"
"20:24:32:727 (H:m:s:ms)","GENERIC","124.352","0.2738732119851143","272"
"20:44:56:969 (H:m:s:ms)","GENERIC","124.39099999999999","0.3474628439221388","1030"
"20:24:38:787 (H:m:s:ms)","GENERIC","124.334","0.2744460583764495","213"
"20:45:3:30 (H:m:s:ms)","GENERIC","124.352","0.34256462874584015","969"
"20:24:44:848 (H:m:s:ms)","GENERIC","93.248","0.2732037237748374","151"
"20:24:50:909 (H:m:s:ms)","GENERIC","124.405","0.2747803525978707","1090"
"20:45:3:797 (H:m:s:ms)","OPERA","93.221","0.3452011136204317","202"
"20:45:9:90 (H:m:s:ms)","GENERIC","124.324","0.34223515364810564","953"
"20:24:56:969 (H:m:s:ms)","GENERIC","124.399","0.27559858635233253","1030"
"20:45:15:151 (H:m:s:ms)","GENERIC","93.111","0.3401862288461324","848"
"20:25:3:30 (H:m:s:ms)","GENERIC","93.227","0.2726771760677693","969"
"20:45:18:987 (H:m:s:ms)","OPERA","62.137","0.3356447702031152","1056"
"20:25:9:90 (H:m:s:ms)","GENERIC","124.394","0.2738290792942113","948"
"20:45:21:212 (H:m:s:ms)","GENERIC","124.298","0.3386865206650441","787"
"20:25:15:151 (H:m:s:ms)","GENERIC","124.39","0.27378551809960044","848"
"20:45:26:582 (H:m:s:ms)","OPERA","93.374","0.3371491379741003","417"
"20:25:21:212 (H:m:s:ms)","GENERIC","124.30099999999999","0.2712625228223623","787"
"20:45:27:272 (H:m:s:ms)","GENERIC","124.543","0.3401246856145295","727"
"20:25:27:272 (H:m:s:ms)","GENERIC","124.373","0.27076229762435117","727"
"20:45:33:333 (H:m:s:ms)","GENERIC","124.304","0.3378499052710926","666"
"20:25:33:333 (H:m:s:ms)","GENERIC","124.351","0.26916104858494233","666"
"20:45:34:177 (H:m:s:ms)","OPERA","93.24000000000001","0.3402431291114057","822"
"20:25:39:393 (H:m:s:ms)","GENERIC","124.273","0.2679879065078817","645"
"20:45:39:393 (H:m:s:ms)","GENERIC","124.46799999999999","0.3397411045821804","649"
"20:25:45:454 (H:m:s:ms)","GENERIC","124.28","0.266354921618326","545"
"20:25:51:515 (H:m:s:ms)","GENERIC","93.078","0.266536907000547","485"
"20:25:57:575 (H:m:s:ms)","GENERIC","93.158","0.26515346005167056","424"
"20:26:3:636 (H:m:s:ms)","GENERIC","93.08","0.26464154159453535","363"
"20:26:9:696 (H:m:s:ms)","GENERIC","124.24799999999999","0.2647636973080504","342"
"20:26:15:757 (H:m:s:ms)","GENERIC","124.363","0.26625336192178906","242"
"20:26:21:818 (H:m:s:ms)","GENERIC","124.14099999999999","0.26635019697224166","181"
"20:26:27:878 (H:m:s:ms)","GENERIC","124.276","0.26587030216426766","1121"
"20:26:33:939 (H:m:s:ms)","GENERIC","124.267","0.26661192685562357","1061"
"20:26:40:0 (H:m:s:ms)","GENERIC","124.223","0.2684853764748771","1038"
"20:26:46:60 (H:m:s:ms)","GENERIC","93.224","0.2693923239320721","939"
"20:26:52:121 (H:m:s:ms)","GENERIC","124.349","0.2696010059739275","878"
"20:26:58:181 (H:m:s:ms)","GENERIC","124.13300000000001","0.2687360510343791","818"
"20:27:4:242 (H:m:s:ms)","GENERIC","124.236","0.26897038317742095","757"
"20:27:10:303 (H:m:s:ms)","GENERIC","124.19","0.2694636483222144","696"
"20:27:16:363 (H:m:s:ms)","GENERIC","93.246","0.2689236924711596","636"
"20:27:22:424 (H:m:s:ms)","GENERIC","124.176","0.2686685214939558","576"
"20:27:28:484 (H:m:s:ms)","GENERIC","124.2","0.2673921387016083","515"
"20:27:34:545 (H:m:s:ms)","GENERIC","124.345","0.26703807780292677","455"
"20:27:40:606 (H:m:s:ms)","GENERIC","124.275","0.2652061638733429","393"
"20:27:46:666 (H:m:s:ms)","GENERIC","124.233","0.26426144058995327","333"
"20:27:52:727 (H:m:s:ms)","GENERIC","124.39699999999999","0.2610278831889031","272"
"20:27:58:787 (H:m:s:ms)","GENERIC","124.414","0.262047891077459","212"
"20:28:4:848 (H:m:s:ms)","GENERIC","124.34100000000001","0.26113354960153495","152"
"20:28:10:909 (H:m:s:ms)","GENERIC","124.411","0.2605721034428439","1090"
"20:28:16:969 (H:m:s:ms)","GENERIC","124.348","0.2597517223673631","1030"
"20:28:23:30 (H:m:s:ms)","GENERIC","124.291","0.2591344382489715","970"
"20:28:29:90 (H:m:s:ms)","GENERIC","93.18299999999999","0.25925149114542895","947"
"20:28:35:151 (H:m:s:ms)","GENERIC","124.282","0.2582839360009723","848"
"20:28:41:212 (H:m:s:ms)","GENERIC","124.232","0.2589169064738251","787"
"20:28:47:272 (H:m:s:ms)","GENERIC","124.33","0.2584312933933324","727"
"20:28:53:333 (H:m:s:ms)","GENERIC","124.232","0.2595002081942309","666"
"20:28:59:393 (H:m:s:ms)","GENERIC","93.261","0.25882693396051554","644"
"20:29:5:454 (H:m:s:ms)","GENERIC","124.24799999999999","0.25932409657330496","545"
"20:29:11:515 (H:m:s:ms)","GENERIC","93.20700000000001","0.25863564014878176","484"
"20:29:17:575 (H:m:s:ms)","GENERIC","93.255","0.2586206402447001","425"
"20:29:23:636 (H:m:s:ms)","GENERIC","124.13999999999999","0.2587311031191792","363"
"20:29:29:696 (H:m:s:ms)","GENERIC","124.387","0.26055191806926636","341"
"20:29:35:757 (H:m:s:ms)","GENERIC","124.275","0.2593232345072903","242"
"20:29:41:818 (H:m:s:ms)","GENERIC","93.19800000000001","0.2581863361897265","181"
"20:29:47:878 (H:m:s:ms)","GENERIC","124.31","0.2588931294823439","1121"
"20:29:53:939 (H:m:s:ms)","GENERIC","124.339","0.2581757681499705","1061"
"22:10:0:0 (H:m:s:ms)","AMBULANCE","93.08","0.07310046586801344","1005"
"21:20:12:121 (H:m:s:ms)","GENERIC","124.237","0.26164823885621497","878"
"21:20:15:189 (H:m:s:ms)","OPERA","124.249","0.2644655526789258","810"
"21:20:18:181 (H:m:s:ms)","GENERIC","124.458","0.2626609224649137","818"
"21:20:22:784 (H:m:s:ms)","OPERA","124.398","0.26263473818540695","216"
"21:20:24:242 (H:m:s:ms)","GENERIC","124.31","0.2652527041345742","758"
"21:20:30:303 (H:m:s:ms)","GENERIC","124.275","0.26454852643915433","697"
"21:20:30:379 (H:m:s:ms)","OPERA","124.261","0.26806111482154016","621"
"21:20:36:363 (H:m:s:ms)","GENERIC","124.42500000000001","0.26816880848015096","636"
"21:20:37:974 (H:m:s:ms)","OPERA","124.181","0.2716169316335325","1025"
"21:20:42:424 (H:m:s:ms)","GENERIC","124.286","0.27098542036940126","576"
"21:20:45:569 (H:m:s:ms)","OPERA","124.168","0.2758558228307823","430"
"21:20:48:484 (H:m:s:ms)","GENERIC","124.513","0.2761725379247708","515"
"21:20:53:164 (H:m:s:ms)","OPERA","124.605","0.2746284728066747","835"
"21:20:54:545 (H:m:s:ms)","GENERIC","124.49600000000001","0.2780630406104778","455"
"21:21:0:606 (H:m:s:ms)","GENERIC","124.488","0.27750045683603275","393"
"21:21:0:759 (H:m:s:ms)","OPERA","124.232","0.28090832821279865","240"
"21:21:6:666 (H:m:s:ms)","GENERIC","124.28399999999999","0.2808257149212907","333"
"21:21:8:354 (H:m:s:ms)","OPERA","124.175","0.2854416296933189","645"
"21:21:12:727 (H:m:s:ms)","GENERIC","124.152","0.2864284054882697","272"
"21:21:15:949 (H:m:s:ms)","OPERA","124.275","0.2852206974264191","1050"
"21:32:49:696 (H:m:s:ms)","GENERIC","93.226","0.2968869083957533","342"
"21:32:37:575 (H:m:s:ms)","GENERIC","124.53800000000001","0.29442514530913005","424"
"21:32:31:515 (H:m:s:ms)","GENERIC","124.337","0.29870311736135924","485"
"21:32:25:454 (H:m:s:ms)","GENERIC","93.43100000000001","0.3011279753293138","546"
"21:32:19:393 (H:m:s:ms)","GENERIC","124.314","0.30354248515720894","645"
"21:32:13:333 (H:m:s:ms)","GENERIC","124.60499999999999","0.3076283732989644","666"
"21:32:7:272 (H:m:s:ms)","GENERIC","124.411","0.3072834632927568","728"
"21:32:6:315 (H:m:s:ms)","AMBULANCE","124.154","0.30519572328397143","684"
"21:21:18:787 (H:m:s:ms)","GENERIC","93.267","0.28667795108317273","212"
"21:32:1:212 (H:m:s:ms)","GENERIC","124.25399999999999","0.3071460145855099","787"
"21:21:23:544 (H:m:s:ms)","OPERA","124.30099999999999","0.2876903909126826","455"
"21:21:24:848 (H:m:s:ms)","GENERIC","124.348","0.2895603652328194","152"
"21:21:30:909 (H:m:s:ms)","GENERIC","93.263","0.290064066084113","1090"
"21:21:31:139 (H:m:s:ms)","OPERA","93.22","0.295270864502672","860"
"21:21:36:969 (H:m:s:ms)","GENERIC","124.221","0.2948719959926857","1030"
"21:21:38:734 (H:m:s:ms)","OPERA","124.235","0.2972062880216208","265"
"21:21:43:30 (H:m:s:ms)","GENERIC","124.083","0.2953464091811993","969"
"21:32:43:636 (H:m:s:ms)","GENERIC","124.553","0.29769623385607236","363"
"21:21:46:329 (H:m:s:ms)","OPERA","124.349","0.2992368763625381","670"
"21:32:37:894 (H:m:s:ms)","AMBULANCE","124.53299999999999","0.2978713770673192","1105"
"21:21:49:90 (H:m:s:ms)","GENERIC","124.43799999999999","0.2973254747453995","948"
"21:33:44:242 (H:m:s:ms)","GENERIC","93.157","0.28454027765075374","758"
"21:33:41:52 (H:m:s:ms)","AMBULANCE","124.252","0.2854275776453544","947"
"21:33:32:121 (H:m:s:ms)","GENERIC","124.449","0.2844524490871993","878"
"21:33:26:60 (H:m:s:ms)","GENERIC","124.387","0.2859973091178339","939"
"21:33:20:0 (H:m:s:ms)","GENERIC","124.426","0.286799103710612","1039"
"21:33:13:939 (H:m:s:ms)","GENERIC","124.48","0.28885118889409","1060"
"21:33:9:473 (H:m:s:ms)","AMBULANCE","124.304","0.29313676017465573","564"
"21:33:7:878 (H:m:s:ms)","GENERIC","124.444","0.2894752672911637","1121"
"21:21:53:924 (H:m:s:ms)","OPERA","124.259","0.29825825643622333","1075"
"21:33:1:818 (H:m:s:ms)","GENERIC","124.583","0.29199028133413085","181"
"21:21:55:151 (H:m:s:ms)","GENERIC","124.303","0.30236362319370386","848"
"21:32:55:757 (H:m:s:ms)","GENERIC","124.535","0.2954166709998405","242"
"21:22:1:212 (H:m:s:ms)","GENERIC","124.263","0.30121240940678257","787"
"21:22:1:518 (H:m:s:ms)","OPERA","124.136","0.30343829627956564","481"
"21:22:7:272 (H:m:s:ms)","GENERIC","124.393","0.3029324362726267","727"
"21:22:9:113 (H:m:s:ms)","OPERA","93.253","0.30466386222200814","925"
"21:22:13:333 (H:m:s:ms)","GENERIC","124.394","0.3063151327032843","666"
"21:22:16:708 (H:m:s:ms)","OPERA","93.302","0.30905261663020656","292"
"21:22:19:393 (H:m:s:ms)","GENERIC","124.343","0.3086373032453522","644"
"21:22:24:303 (H:m:s:ms)","OPERA","124.295","0.3078688895109957","697"
"21:33:38:181 (H:m:s:ms)","GENERIC","124.581","0.2825491318200841","818"
"21:34:44:210 (H:m:s:ms)","AMBULANCE","124.33","0.2670261076288102","789"
"21:34:38:787 (H:m:s:ms)","GENERIC","124.56","0.26518635130434715","212"
"21:34:32:727 (H:m:s:ms)","GENERIC","124.42099999999999","0.2697492671656862","272"
"21:34:26:666 (H:m:s:ms)","GENERIC","124.358","0.2716292264637879","333"
"21:34:20:606 (H:m:s:ms)","GENERIC","124.55099999999999","0.27522808236010055","393"
"21:34:14:545 (H:m:s:ms)","GENERIC","124.357","0.27810623524648037","454"
"21:34:12:631 (H:m:s:ms)","AMBULANCE","124.497","0.27465023870813","368"
"21:34:8:484 (H:m:s:ms)","GENERIC","93.257","0.2740804032488493","515"
"21:22:25:454 (H:m:s:ms)","GENERIC","93.298","0.3101265755283226","545"
"21:34:2:424 (H:m:s:ms)","GENERIC","124.604","0.27814065956398465","575"
"21:22:31:515 (H:m:s:ms)","GENERIC","124.491","0.3097905946072971","484"
"21:33:56:363 (H:m:s:ms)","GENERIC","93.17099999999999","0.2798449140135728","636"
"21:2:1:212 (H:m:s:ms)","GENERIC","124.412","0.26465411980655573","787"
"21:22:31:898 (H:m:s:ms)","OPERA","93.238","0.312252189954036","1101"
"21:33:50:303 (H:m:s:ms)","GENERIC","124.378","0.28093949491733217","696"
"21:2:6:315 (H:m:s:ms)","AMBULANCE","93.128","0.2652212746081972","684"
"21:22:37:575 (H:m:s:ms)","GENERIC","124.57","0.3120503273652459","424"
"21:2:7:272 (H:m:s:ms)","GENERIC","124.481","0.2697533222598995","727"
"21:22:39:493 (H:m:s:ms)","OPERA","124.455","0.3135178738144748","544"
"21:2:13:333 (H:m:s:ms)","GENERIC","124.298","0.2704804466178052","666"
"21:22:43:636 (H:m:s:ms)","GENERIC","124.479","0.3125918243588073","363"
"21:2:19:393 (H:m:s:ms)","GENERIC","93.098","0.2707305019286399","651"
"21:22:47:88 (H:m:s:ms)","OPERA","93.322","0.31134512566860123","912"
"21:2:25:454 (H:m:s:ms)","GENERIC","124.535","0.2705788134032908","545"
"21:22:49:696 (H:m:s:ms)","GENERIC","124.432","0.31347178806555226","341"
"21:2:31:515 (H:m:s:ms)","GENERIC","124.328","0.2718978290342244","484"
"21:22:54:683 (H:m:s:ms)","OPERA","124.453","0.31334161868204835","316"
"21:2:37:575 (H:m:s:ms)","GENERIC","124.239","0.27318721796308476","425"
"21:22:55:757 (H:m:s:ms)","GENERIC","93.15100000000001","0.31424969357357935","242"
"21:2:37:894 (H:m:s:ms)","AMBULANCE","62.147000000000006","0.2745783358482898","106"
"21:2:43:636 (H:m:s:ms)","GENERIC","124.394","0.2734315660736367","363"
"21:35:39:393 (H:m:s:ms)","GENERIC","124.487","0.263531925933014","645"
"21:35:33:333 (H:m:s:ms)","GENERIC","124.445","0.2613741608544736","666"
"21:35:27:272 (H:m:s:ms)","GENERIC","124.533","0.2606380972495382","727"
"21:35:21:212 (H:m:s:ms)","GENERIC","124.41499999999999","0.26035905783406166","787"
"21:35:15:789 (H:m:s:ms)","AMBULANCE","124.511","0.25969576698740365","210"
"21:35:15:151 (H:m:s:ms)","GENERIC","124.25999999999999","0.2563591919048145","848"
"21:35:9:90 (H:m:s:ms)","GENERIC","93.312","0.2573623139641359","947"
"21:23:1:818 (H:m:s:ms)","GENERIC","124.412","0.31279670853517044","181"
"21:35:3:30 (H:m:s:ms)","GENERIC","124.536","0.26114009227064366","969"
"21:23:2:278 (H:m:s:ms)","OPERA","93.322","0.3157554567589398","721"
"21:34:56:969 (H:m:s:ms)","GENERIC","124.27799999999999","0.26804707591490506","1030"
"21:2:49:696 (H:m:s:ms)","GENERIC","93.082","0.2742640259552429","350"
"21:23:7:878 (H:m:s:ms)","GENERIC","93.25200000000001","0.3159314959384487","1121"
"21:34:50:909 (H:m:s:ms)","GENERIC","124.447","0.2695137263024683","1090"
"21:2:55:757 (H:m:s:ms)","GENERIC","93.156","0.27379903670484956","242"
"21:23:9:873 (H:m:s:ms)","OPERA","124.477","0.31803216828069303","164"
"21:34:44:848 (H:m:s:ms)","GENERIC","124.575","0.2701719308549386","151"
"21:3:1:818 (H:m:s:ms)","GENERIC","124.499","0.2756969323125573","181"
"21:23:13:939 (H:m:s:ms)","GENERIC","124.4","0.3166353548311063","1061"
"21:3:7:878 (H:m:s:ms)","GENERIC","124.47","0.27492206091127086","1121"
"21:23:17:468 (H:m:s:ms)","OPERA","124.37100000000001","0.3190171711404436","531"
"21:3:9:473 (H:m:s:ms)","AMBULANCE","93.37299999999999","0.2800739385095258","572"
"21:23:20:0 (H:m:s:ms)","GENERIC","124.19999999999999","0.31857921484780366","1038"
"21:3:13:939 (H:m:s:ms)","GENERIC","93.211","0.28135139913963136","1060"
"21:23:25:63 (H:m:s:ms)","OPERA","124.368","0.319542595543157","936"
"21:3:20:0 (H:m:s:ms)","GENERIC","124.396","0.2807915569189448","1045"
"21:23:26:60 (H:m:s:ms)","GENERIC","124.649","0.3215990877963975","939"
"21:3:26:60 (H:m:s:ms)","GENERIC","93.25999999999999","0.27977609999704534","939"
"21:23:32:121 (H:m:s:ms)","GENERIC","124.31700000000001","0.3221416688200481","878"
"21:3:32:121 (H:m:s:ms)","GENERIC","124.277","0.2792011149190132","878"
"21:3:38:181 (H:m:s:ms)","GENERIC","124.339","0.27915412084483565","818"
"21:36:33:939 (H:m:s:ms)","GENERIC","124.45599999999999","0.26654359883035883","1062"
"21:36:27:878 (H:m:s:ms)","GENERIC","124.469","0.2666095009254729","1121"
"21:36:21:818 (H:m:s:ms)","GENERIC","124.496","0.26918120701617904","181"
"21:36:18:947 (H:m:s:ms)","AMBULANCE","93.164","0.2656950912155881","1090"
"21:36:15:757 (H:m:s:ms)","GENERIC","124.19900000000001","0.26482616973566847","242"
"21:36:9:696 (H:m:s:ms)","GENERIC","93.309","0.2644313838038996","341"
"21:23:32:658 (H:m:s:ms)","OPERA","124.15299999999999","0.31977563899592615","341"
"21:36:3:636 (H:m:s:ms)","GENERIC","124.28","0.2678600359706772","363"
"21:23:38:181 (H:m:s:ms)","GENERIC","124.6","0.3220286154812107","818"
"21:35:57:575 (H:m:s:ms)","GENERIC","124.352","0.26716526506597005","424"
"21:3:41:52 (H:m:s:ms)","AMBULANCE","93.272","0.28102602841681035","947"
"21:23:40:253 (H:m:s:ms)","OPERA","93.288","0.323587044424268","746"
"21:35:51:515 (H:m:s:ms)","GENERIC","124.155","0.2669345721909909","485"
"21:3:44:242 (H:m:s:ms)","GENERIC","124.701","0.2806084590343696","758"
"21:23:44:242 (H:m:s:ms)","GENERIC","93.163","0.3242478796514142","758"
"21:35:47:368 (H:m:s:ms)","AMBULANCE","124.569","0.2667495261176567","631"
"21:3:50:303 (H:m:s:ms)","GENERIC","124.35900000000001","0.28069082316646854","696"
"21:23:47:848 (H:m:s:ms)","OPERA","124.515","0.32653988078160867","151"
"21:35:45:454 (H:m:s:ms)","GENERIC","124.312","0.2633301538188089","545"
"21:3:56:363 (H:m:s:ms)","GENERIC","124.386","0.2800655620204325","636"
"21:23:50:303 (H:m:s:ms)","GENERIC","124.386","0.3252699881749861","696"
"21:4:2:424 (H:m:s:ms)","GENERIC","124.457","0.2801324718363855","575"
"21:23:55:443 (H:m:s:ms)","OPERA","124.577","0.3250640697165419","556"
"21:4:8:484 (H:m:s:ms)","GENERIC","124.21700000000001","0.2789707772417144","515"
"21:23:56:363 (H:m:s:ms)","GENERIC","124.39099999999999","0.32734059471369475","636"
"21:4:12:631 (H:m:s:ms)","AMBULANCE","93.219","0.28011527538752923","368"
"21:24:2:424 (H:m:s:ms)","GENERIC","124.55799999999999","0.32754829079609427","575"
"21:4:14:545 (H:m:s:ms)","GENERIC","124.36000000000001","0.2840214182138313","454"
"21:24:3:37 (H:m:s:ms)","OPERA","93.09299999999999","0.329140260255159","963"
"21:4:20:606 (H:m:s:ms)","GENERIC","124.332","0.28458638016800863","394"
"21:4:26:666 (H:m:s:ms)","GENERIC","124.31700000000001","0.2852409779654772","333"
"21:37:28:484 (H:m:s:ms)","GENERIC","124.301","0.26904989394183304","515"
"21:37:22:424 (H:m:s:ms)","GENERIC","124.294","0.26772510499890334","575"
"21:37:22:105 (H:m:s:ms)","AMBULANCE","124.245","0.2641840069078728","895"
"21:37:16:363 (H:m:s:ms)","GENERIC","124.388","0.2641484622990911","636"
"21:37:10:303 (H:m:s:ms)","GENERIC","124.277","0.26261033640227177","696"
"21:37:4:242 (H:m:s:ms)","GENERIC","124.324","0.2657712347727127","758"
"21:24:8:484 (H:m:s:ms)","GENERIC","124.61099999999999","0.3291555114608855","515"
"21:24:10:632 (H:m:s:ms)","OPERA","124.397","0.3307643680060906","368"
"21:36:58:181 (H:m:s:ms)","GENERIC","124.346","0.26540446376087556","818"
"21:4:32:727 (H:m:s:ms)","GENERIC","124.346","0.2842307481632252","273"
"21:24:14:545 (H:m:s:ms)","GENERIC","124.385","0.33017057040452674","454"
"21:36:52:121 (H:m:s:ms)","GENERIC","124.569","0.26612065711876043","878"
"21:4:38:787 (H:m:s:ms)","GENERIC","124.503","0.28388009154450644","212"
"21:24:18:227 (H:m:s:ms)","OPERA","124.156","0.32850427966959017","772"
"21:36:50:526 (H:m:s:ms)","AMBULANCE","93.093","0.26381875992181125","473"
"21:4:44:210 (H:m:s:ms)","AMBULANCE","93.584","0.281777234714979","790"
"21:24:20:606 (H:m:s:ms)","GENERIC","124.36699999999999","0.33133924813030047","393"
"21:36:46:60 (H:m:s:ms)","GENERIC","93.24600000000001","0.2648767145607139","939"
"21:4:44:848 (H:m:s:ms)","GENERIC","124.58500000000001","0.2848930643166538","152"
"21:24:25:822 (H:m:s:ms)","OPERA","93.261","0.3302308644816762","177"
"21:36:40:0 (H:m:s:ms)","GENERIC","124.20400000000001","0.26500841393820934","1038"
"21:4:50:909 (H:m:s:ms)","GENERIC","124.331","0.28493692268369436","1090"
"21:24:26:666 (H:m:s:ms)","GENERIC","124.21000000000001","0.33215183122324504","333"
"21:4:56:969 (H:m:s:ms)","GENERIC","124.60499999999999","0.28498884353765963","1030"
"21:24:32:727 (H:m:s:ms)","GENERIC","124.221","0.3317376689352317","272"
"21:5:3:30 (H:m:s:ms)","GENERIC","124.555","0.27897653867651584","969"
"21:24:33:417 (H:m:s:ms)","OPERA","124.42099999999999","0.3332405754836377","582"
"21:5:9:90 (H:m:s:ms)","GENERIC","124.51400000000001","0.2780870750179553","951"
"21:24:38:787 (H:m:s:ms)","GENERIC","93.336","0.3326169161245869","212"
"21:5:15:151 (H:m:s:ms)","GENERIC","93.169","0.27808986030643545","848"
"21:5:15:789 (H:m:s:ms)","AMBULANCE","93.339","0.2817540342900354","210"
"21:38:25:263 (H:m:s:ms)","AMBULANCE","124.479","0.2729810546620441","736"
"21:38:23:30 (H:m:s:ms)","GENERIC","124.352","0.26980425148984316","970"
"21:38:16:969 (H:m:s:ms)","GENERIC","124.53200000000001","0.26790738308363465","1030"
"21:38:10:909 (H:m:s:ms)","GENERIC","124.265","0.2673056434759808","1090"
"21:38:4:848 (H:m:s:ms)","GENERIC","124.35300000000001","0.2716312451322598","151"
"21:37:58:787 (H:m:s:ms)","GENERIC","124.285","0.2699222380458181","212"
"21:37:53:684 (H:m:s:ms)","AMBULANCE","124.43","0.2684730824664044","315"
"21:24:41:12 (H:m:s:ms)","OPERA","124.55199999999999","0.3349707042791418","987"
"21:24:44:848 (H:m:s:ms)","GENERIC","93.432","0.3330385403819509","152"
"21:5:21:212 (H:m:s:ms)","GENERIC","124.306","0.2825671896020147","787"
"21:24:48:607 (H:m:s:ms)","OPERA","93.297","0.3354325073239653","392"
"21:5:27:272 (H:m:s:ms)","GENERIC","93.31099999999999","0.28319577978784777","727"
"21:24:50:909 (H:m:s:ms)","GENERIC","93.23","0.3359210044197168","1090"
"21:37:52:727 (H:m:s:ms)","GENERIC","124.34700000000001","0.26463150631816185","272"
"20:45:45:454 (H:m:s:ms)","GENERIC","124.37700000000001","0.3397719565308541","545"
"21:5:33:333 (H:m:s:ms)","GENERIC","124.285","0.28039372235349863","666"
"21:24:56:202 (H:m:s:ms)","OPERA","93.309","0.3355303228603372","797"
"21:37:46:666 (H:m:s:ms)","GENERIC","124.627","0.265482577835905","333"
"20:45:49:367 (H:m:s:ms)","OPERA","93.247","0.3387756692224287","675"
"21:5:39:393 (H:m:s:ms)","GENERIC","124.449","0.27932377036665207","649"
"21:24:56:969 (H:m:s:ms)","GENERIC","124.488","0.3373101634350094","1030"
"21:37:40:606 (H:m:s:ms)","GENERIC","124.619","0.26252176537455646","393"
"20:45:51:515 (H:m:s:ms)","GENERIC","124.509","0.3408486973578666","484"
"21:5:45:454 (H:m:s:ms)","GENERIC","124.441","0.2802667910088521","545"
"21:25:3:30 (H:m:s:ms)","GENERIC","124.474","0.3337734232821427","969"
"21:37:34:545 (H:m:s:ms)","GENERIC","124.616","0.2666901253168207","455"
"20:45:56:962 (H:m:s:ms)","OPERA","93.27600000000001","0.3381620626896419","1037"
"21:5:47:368 (H:m:s:ms)","AMBULANCE","93.42","0.28349892829143836","631"
"21:25:3:797 (H:m:s:ms)","OPERA","93.334","0.3353914219245696","202"
"20:45:57:575 (H:m:s:ms)","GENERIC","124.205","0.3400628331923548","424"
"21:5:51:515 (H:m:s:ms)","GENERIC","93.11","0.28364381766366703","484"
"21:25:9:90 (H:m:s:ms)","GENERIC","124.43299999999999","0.3328881263511369","948"
"20:46:3:636 (H:m:s:ms)","GENERIC","124.32900000000001","0.3343418931632896","364"
"21:5:57:575 (H:m:s:ms)","GENERIC","124.403","0.28436458431300443","424"
"21:25:11:392 (H:m:s:ms)","OPERA","93.386","0.3351553412343397","607"
"20:46:4:556 (H:m:s:ms)","OPERA","93.39","0.3357102561456587","443"
"21:6:3:636 (H:m:s:ms)","GENERIC","124.412","0.284782016997243","363"
"20:46:9:696 (H:m:s:ms)","GENERIC","124.28399999999999","0.3346624157725817","345"
"21:6:9:696 (H:m:s:ms)","GENERIC","124.292","0.28245539068300807","347"
"20:46:12:151 (H:m:s:ms)","OPERA","93.262","0.3361213393755792","849"
"20:46:15:757 (H:m:s:ms)","GENERIC","124.333","0.3362435059520649","242"
"21:39:23:636 (H:m:s:ms)","GENERIC","124.476","0.26808164811688645","363"
"21:39:17:575 (H:m:s:ms)","GENERIC","124.638","0.2678758996481321","424"
"21:39:11:515 (H:m:s:ms)","GENERIC","124.327","0.2700016347064947","484"
"21:39:5:454 (H:m:s:ms)","GENERIC","124.32900000000001","0.26736452306746294","545"
"21:38:59:393 (H:m:s:ms)","GENERIC","93.43","0.2717029841286223","644"
"21:38:56:842 (H:m:s:ms)","AMBULANCE","124.453","0.27163630958525714","157"
"21:38:53:333 (H:m:s:ms)","GENERIC","124.42","0.26832022765608177","666"
"21:38:47:272 (H:m:s:ms)","GENERIC","124.274","0.2679473689761648","727"
"21:25:15:151 (H:m:s:ms)","GENERIC","124.364","0.3350253973419427","848"
"21:25:18:987 (H:m:s:ms)","OPERA","124.417","0.33293005127433617","1052"
"21:6:15:757 (H:m:s:ms)","GENERIC","124.265","0.28155806959280233","242"
"21:25:21:212 (H:m:s:ms)","GENERIC","124.511","0.3349409192576693","787"
"21:6:18:947 (H:m:s:ms)","AMBULANCE","93.33","0.2815495318761452","1094"
"21:25:26:582 (H:m:s:ms)","OPERA","124.224","0.3331258163246147","417"
"20:46:19:746 (H:m:s:ms)","OPERA","62.061","0.33459384721121366","295"
"21:6:21:818 (H:m:s:ms)","GENERIC","124.35499999999999","0.2855208629326494","181"
"21:25:27:272 (H:m:s:ms)","GENERIC","93.506","0.3338374542050365","728"
"20:46:21:818 (H:m:s:ms)","GENERIC","124.24799999999999","0.3358593183098054","181"
"21:6:27:878 (H:m:s:ms)","GENERIC","124.327","0.285099091884745","1121"
"21:25:33:333 (H:m:s:ms)","GENERIC","124.286","0.3316842556761101","666"
"21:38:41:212 (H:m:s:ms)","GENERIC","124.281","0.26960262555436787","787"
"20:46:27:341 (H:m:s:ms)","OPERA","93.347","0.33401506453584207","659"
"21:6:33:939 (H:m:s:ms)","GENERIC","124.285","0.28587351773235165","1061"
"21:25:34:177 (H:m:s:ms)","OPERA","62.061","0.33384217839775193","823"
"21:38:35:151 (H:m:s:ms)","GENERIC","93.345","0.2700064498836738","848"
"20:46:27:878 (H:m:s:ms)","GENERIC","124.416","0.33620571995494986","1122"
"21:6:40:0 (H:m:s:ms)","GENERIC","124.279","0.28394273119777863","1043"
"21:25:39:393 (H:m:s:ms)","GENERIC","124.286","0.33154007849526906","647"
"21:38:29:90 (H:m:s:ms)","GENERIC","124.253","0.2719342529820999","947"
"20:46:33:939 (H:m:s:ms)","GENERIC","124.15299999999999","0.3335347737651853","1060"
"21:6:46:60 (H:m:s:ms)","GENERIC","124.32900000000001","0.28395121883505464","939"
"21:25:41:772 (H:m:s:ms)","OPERA","93.602","0.33372867752785396","227"
"20:46:34:936 (H:m:s:ms)","OPERA","62.162000000000006","0.33558052058961213","1063"
"21:6:50:526 (H:m:s:ms)","AMBULANCE","93.354","0.283142399322614","473"
"21:25:45:454 (H:m:s:ms)","GENERIC","124.459","0.33455994813592094","545"
"20:46:40:0 (H:m:s:ms)","GENERIC","93.343","0.3335528983682804","1042"
"21:6:52:121 (H:m:s:ms)","GENERIC","124.318","0.2865719253777567","878"
"20:46:42:531 (H:m:s:ms)","OPERA","93.34","0.33649690279740013","468"
"21:6:58:181 (H:m:s:ms)","GENERIC","124.13999999999999","0.2862464036791906","818"
"20:46:46:60 (H:m:s:ms)","GENERIC","124.449","0.33610505492002174","940"
"20:46:50:126 (H:m:s:ms)","OPERA","93.405","0.33379303315068165","873"
"21:39:35:757 (H:m:s:ms)","GENERIC","124.289","0.2715277389536678","242"
"21:40:12:121 (H:m:s:ms)","GENERIC","124.55","0.27428982791108397","878"
"21:40:6:60 (H:m:s:ms)","GENERIC","93.348","0.2727277247123305","939"
"21:40:0:0 (H:m:s:ms)","GENERIC","124.306","0.27281052111447","2314"
"21:40:0:0 (H:m:s:ms)","GENERIC","124.15299999999999","0.2684473340909591","2314"
"21:40:0:0 (H:m:s:ms)","AMBULANCE","124.149","0.2657031293461162","2314"
"21:39:53:939 (H:m:s:ms)","GENERIC","124.42","0.2679377558912778","1061"
"21:39:47:878 (H:m:s:ms)","GENERIC","124.612","0.26658786356389946","1121"
"21:39:41:818 (H:m:s:ms)","GENERIC","124.202","0.2712005800451313","181"
"21:7:4:242 (H:m:s:ms)","GENERIC","124.457","0.2871992982712942","758"
"21:7:10:303 (H:m:s:ms)","GENERIC","124.202","0.28299656126972517","696"
"20:46:52:121 (H:m:s:ms)","GENERIC","93.302","0.3352182341307642","878"
"21:7:16:363 (H:m:s:ms)","GENERIC","124.367","0.2829394508918738","636"
"20:46:57:721 (H:m:s:ms)","OPERA","93.214","0.3311701148168656","278"
"21:7:22:105 (H:m:s:ms)","AMBULANCE","93.202","0.28275618855848567","894"
"20:46:58:181 (H:m:s:ms)","GENERIC","124.163","0.33280709529586117","818"
"21:7:22:424 (H:m:s:ms)","GENERIC","124.31","0.288104512708977","575"
"20:47:4:242 (H:m:s:ms)","GENERIC","93.275","0.3317521169614427","758"
"21:7:28:484 (H:m:s:ms)","GENERIC","124.396","0.28850578183278885","515"
"21:39:29:696 (H:m:s:ms)","GENERIC","124.32300000000001","0.27215130333813614","341"
"20:47:5:316 (H:m:s:ms)","OPERA","62.247","0.3318750223535795","683"
"21:7:34:545 (H:m:s:ms)","GENERIC","124.452","0.28722170445610673","454"
"21:39:28:421 (H:m:s:ms)","AMBULANCE","124.248","0.26955610576551364","579"
"20:47:10:303 (H:m:s:ms)","GENERIC","124.37","0.33002243175149737","696"
"21:7:40:606 (H:m:s:ms)","GENERIC","124.52600000000001","0.2834227082648397","393"
"20:47:12:911 (H:m:s:ms)","OPERA","93.289","0.3317152312897262","1088"
"21:7:46:666 (H:m:s:ms)","GENERIC","124.20500000000001","0.28514640980424477","333"
"20:47:16:363 (H:m:s:ms)","GENERIC","93.156","0.33041573346828434","636"
"21:7:52:727 (H:m:s:ms)","GENERIC","124.231","0.2856732268922057","273"
"20:47:20:506 (H:m:s:ms)","OPERA","93.257","0.33175873367749886","493"
"20:47:22:424 (H:m:s:ms)","GENERIC","93.343","0.3324267052146114","575"
"21:7:53:684 (H:m:s:ms)","AMBULANCE","93.371","0.28992357083895076","315"
"21:7:58:787 (H:m:s:ms)","GENERIC","124.311","0.289866071905764","212"
"20:47:28:101 (H:m:s:ms)","OPERA","93.249","0.33044235447539055","898"
"21:8:4:848 (H:m:s:ms)","GENERIC","124.199","0.2887638259595422","151"
"20:47:28:484 (H:m:s:ms)","GENERIC","124.17099999999999","0.3323694825141468","515"
"21:8:10:909 (H:m:s:ms)","GENERIC","124.32900000000001","0.2820092996336275","1090"
"20:47:34:545 (H:m:s:ms)","GENERIC","124.201","0.3316271045235381","455"
"21:8:16:969 (H:m:s:ms)","GENERIC","93.184","0.2814397629188466","1030"
"20:47:35:696 (H:m:s:ms)","OPERA","62.163","0.33297699084459276","303"
"21:8:23:30 (H:m:s:ms)","GENERIC","124.357","0.2804045596203116","969"
"20:47:40:606 (H:m:s:ms)","GENERIC","124.787","0.3301379263425459","393"
"21:8:25:263 (H:m:s:ms)","AMBULANCE","93.243","0.2829651459557666","736"
"20:47:43:291 (H:m:s:ms)","OPERA","93.43599999999999","0.3306614821371049","708"
"21:8:29:90 (H:m:s:ms)","GENERIC","124.229","0.28239024251943273","952"
"21:40:18:181 (H:m:s:ms)","GENERIC","93.174","0.26874732932291845","818"
"20:47:46:666 (H:m:s:ms)","GENERIC","124.60900000000001","0.3298498212889544","333"
"21:8:35:151 (H:m:s:ms)","GENERIC","124.255","0.2817406762714522","849"
"20:47:50:886 (H:m:s:ms)","OPERA","93.12100000000001","0.3283805367946903","113"
"21:8:41:212 (H:m:s:ms)","GENERIC","124.331","0.28107185858237477","787"
"20:47:52:727 (H:m:s:ms)","GENERIC","124.518","0.33144768201833225","272"
"20:47:58:481 (H:m:s:ms)","OPERA","93.363","0.3280240235891417","518"
"21:8:47:272 (H:m:s:ms)","GENERIC","124.637","0.2793180839330432","727"
"21:8:53:333 (H:m:s:ms)","GENERIC","124.41999999999999","0.2798631420743586","666"
"20:47:58:787 (H:m:s:ms)","GENERIC","124.41","0.33029838089291685","212"
"21:8:56:842 (H:m:s:ms)","AMBULANCE","93.515","0.28420894824658893","157"
"20:48:4:848 (H:m:s:ms)","GENERIC","62.083","0.32711416707771274","151"
"21:8:59:393 (H:m:s:ms)","GENERIC","124.36699999999999","0.2852629100795046","649"
"20:30:0:0 (H:m:s:ms)","GENERIC","124.239","0.25653071671870853","1038"
"20:48:6:75 (H:m:s:ms)","OPERA","93.574","0.3290191447348206","924"
"21:9:5:454 (H:m:s:ms)","GENERIC","124.447","0.2855137244444713","545"
"20:30:0:0 (H:m:s:ms)","GENERIC","124.393","0.2612347195376453","1039"
"20:48:10:909 (H:m:s:ms)","GENERIC","124.43","0.32602787845188363","1090"
"21:9:11:515 (H:m:s:ms)","GENERIC","93.11","0.28404146019737936","485"
"20:30:6:60 (H:m:s:ms)","GENERIC","124.27600000000001","0.26137704996637734","939"
"20:48:13:670 (H:m:s:ms)","OPERA","93.279","0.3284940926627779","329"
"21:9:17:575 (H:m:s:ms)","GENERIC","124.336","0.2777506015724657","424"
"20:30:12:121 (H:m:s:ms)","GENERIC","124.382","0.26143438243375533","878"
"20:48:16:969 (H:m:s:ms)","GENERIC","93.14699999999999","0.32748379540165545","1030"
"21:9:23:636 (H:m:s:ms)","GENERIC","124.309","0.27718829919857263","363"
"20:30:18:181 (H:m:s:ms)","GENERIC","124.40899999999999","0.26064918296254824","818"
"20:48:21:265 (H:m:s:ms)","OPERA","93.434","0.32300964026600926","734"
"21:9:28:421 (H:m:s:ms)","AMBULANCE","93.264","0.2781836446721395","578"
"20:30:24:242 (H:m:s:ms)","GENERIC","124.38499999999999","0.2600947302862788","758"
"20:48:23:30 (H:m:s:ms)","GENERIC","124.483","0.3258051122290036","969"
"21:9:29:696 (H:m:s:ms)","GENERIC","124.49","0.2812834011578507","346"
"20:30:30:303 (H:m:s:ms)","GENERIC","124.424","0.2611322301476746","696"
"20:48:28:860 (H:m:s:ms)","OPERA","93.353","0.3251337293208966","139"
"20:30:36:363 (H:m:s:ms)","GENERIC","93.208","0.2616727025541263","636"
"20:48:29:90 (H:m:s:ms)","GENERIC","124.315","0.328612470940758","952"
"20:30:42:424 (H:m:s:ms)","GENERIC","93.158","0.2620987083971085","576"
"20:30:48:484 (H:m:s:ms)","GENERIC","124.298","0.26377192106169167","515"
"21:9:35:757 (H:m:s:ms)","GENERIC","124.348","0.2813260366109437","242"
"21:9:41:818 (H:m:s:ms)","GENERIC","93.242","0.281406594018529","181"
"20:48:35:151 (H:m:s:ms)","GENERIC","93.34299999999999","0.3238952879447859","848"
"21:9:47:878 (H:m:s:ms)","GENERIC","124.62","0.27725632113914167","1121"
"20:48:36:455 (H:m:s:ms)","OPERA","93.223","0.3258571276262478","544"
"21:9:53:939 (H:m:s:ms)","GENERIC","124.535","0.27760303802096453","1061"
"20:30:54:545 (H:m:s:ms)","GENERIC","124.217","0.26300460835949213","455"
"20:48:41:212 (H:m:s:ms)","GENERIC","124.57300000000001","0.32388072394470135","788"
"21:10:0:0 (H:m:s:ms)","AMBULANCE","93.583","0.27682392339864587","1042"
"20:31:0:606 (H:m:s:ms)","GENERIC","93.203","0.26518171190506","393"
"20:48:44:50 (H:m:s:ms)","OPERA","93.197","0.3267255537515432","949"
"21:10:0:0 (H:m:s:ms)","GENERIC","124.356","0.2808145178827834","1042"
"20:31:6:666 (H:m:s:ms)","GENERIC","124.221","0.26550637218510054","333"
"20:48:47:272 (H:m:s:ms)","GENERIC","124.43","0.32711588548143444","727"
"21:10:0:0 (H:m:s:ms)","GENERIC","124.485","0.28434559420650835","1042"
"20:31:12:727 (H:m:s:ms)","GENERIC","124.273","0.26575383545836306","272"
"20:48:51:645 (H:m:s:ms)","OPERA","93.214","0.3253361249933226","354"
"21:10:6:60 (H:m:s:ms)","GENERIC","124.39099999999999","0.2836976631399363","939"
"20:31:18:787 (H:m:s:ms)","GENERIC","124.485","0.26530739811453335","212"
"20:48:53:333 (H:m:s:ms)","GENERIC","124.441","0.32751041421263666","666"
"21:10:12:121 (H:m:s:ms)","GENERIC","124.44200000000001","0.28428154418777174","878"
"20:31:24:848 (H:m:s:ms)","GENERIC","124.382","0.26430913109927434","151"
"20:48:59:240 (H:m:s:ms)","OPERA","93.231","0.3252619256341325","804"
"21:10:18:181 (H:m:s:ms)","GENERIC","124.348","0.2807139583171428","818"
"20:31:30:909 (H:m:s:ms)","GENERIC","124.339","0.26715596676970943","1090"
"20:48:59:393 (H:m:s:ms)","GENERIC","124.249","0.32825471859879196","651"
"20:31:36:969 (H:m:s:ms)","GENERIC","124.27199999999999","0.26734907994565904","1030"
"20:49:5:454 (H:m:s:ms)","GENERIC","124.35300000000001","0.32398198299113423","545"
"20:31:43:30 (H:m:s:ms)","GENERIC","124.087","0.266348551646888","969"
"20:31:49:90 (H:m:s:ms)","GENERIC","124.239","0.26649578596525453","948"
"20:49:6:835 (H:m:s:ms)","OPERA","93.272","0.32672315249789124","164"
"20:49:11:515 (H:m:s:ms)","GENERIC","124.268","0.3256216959184026","484"
"20:31:55:151 (H:m:s:ms)","GENERIC","124.314","0.2671002614442657","848"
"20:49:14:430 (H:m:s:ms)","OPERA","62.266000000000005","0.3277915445550078","569"
"20:32:1:212 (H:m:s:ms)","GENERIC","124.159","0.26698583063511433","787"
"20:49:17:575 (H:m:s:ms)","GENERIC","124.472","0.32886737423636775","424"
"20:32:7:272 (H:m:s:ms)","GENERIC","124.35900000000001","0.26760111587690794","727"
"20:49:22:25 (H:m:s:ms)","OPERA","93.19","0.3254681963415408","974"
"20:32:13:333 (H:m:s:ms)","GENERIC","124.248","0.26763194110647953","666"
"20:49:23:636 (H:m:s:ms)","GENERIC","124.339","0.3287985624536354","363"
"20:32:19:393 (H:m:s:ms)","GENERIC","124.44999999999999","0.26720782529310233","644"
"20:49:29:696 (H:m:s:ms)","GENERIC","124.205","0.3268235619405547","352"
"20:32:25:454 (H:m:s:ms)","GENERIC","93.104","0.2645295889046529","545"
"20:49:35:757 (H:m:s:ms)","GENERIC","124.447","0.32299526544826557","242"
"20:32:31:515 (H:m:s:ms)","GENERIC","124.196","0.2647904353224829","484"
"20:49:37:215 (H:m:s:ms)","OPERA","93.553","0.32629798224417406","784"
"20:32:37:575 (H:m:s:ms)","GENERIC","124.25399999999999","0.2657666663733458","424"
"20:49:41:818 (H:m:s:ms)","GENERIC","124.339","0.3256406561275764","181"
"20:32:43:636 (H:m:s:ms)","GENERIC","124.281","0.2661663096188443","363"
"20:32:49:696 (H:m:s:ms)","GENERIC","93.136","0.2648841578429075","341"
"20:49:44:810 (H:m:s:ms)","OPERA","93.413","0.3254244088101303","190"
"20:49:47:878 (H:m:s:ms)","GENERIC","62.079","0.323390018804373","1121"
"20:32:55:757 (H:m:s:ms)","GENERIC","124.35400000000001","0.2655505672496581","243"
"20:49:52:405 (H:m:s:ms)","OPERA","93.419","0.32169777819155","594"
"20:33:1:818 (H:m:s:ms)","GENERIC","124.404","0.26384322977821123","181"
"20:49:53:939 (H:m:s:ms)","GENERIC","124.588","0.323599268480592","1061"
"20:33:7:878 (H:m:s:ms)","GENERIC","62.187","0.2617066619730685","1121"
"20:50:0:0 (H:m:s:ms)","OPERA","93.40899999999999","0.3255358391185254","1048"
"20:33:13:939 (H:m:s:ms)","GENERIC","124.394","0.2631453504022133","1060"
"20:50:0:0 (H:m:s:ms)","GENERIC","124.468","0.32746339900786936","1048"
"20:33:20:0 (H:m:s:ms)","GENERIC","124.388","0.2632772383714681","1037"
"20:50:0:0 (H:m:s:ms)","GENERIC","124.388","0.323814369531135","1048"
"20:33:26:60 (H:m:s:ms)","GENERIC","124.376","0.26413260988330817","939"
"20:50:6:60 (H:m:s:ms)","GENERIC","124.27199999999999","0.32523625587950616","939"
"20:33:32:121 (H:m:s:ms)","GENERIC","124.41499999999999","0.2644038274893988","878"
"20:50:12:121 (H:m:s:ms)","GENERIC","124.247","0.32548309986890583","878"
"20:33:38:181 (H:m:s:ms)","GENERIC","124.369","0.26479496064021546","818"
"20:50:18:181 (H:m:s:ms)","GENERIC","124.45500000000001","0.3268426260737325","818"
"20:33:44:242 (H:m:s:ms)","GENERIC","124.352","0.26636245205854714","757"
"20:33:50:303 (H:m:s:ms)","GENERIC","93.185","0.26577320824466094","696"
"20:50:24:242 (H:m:s:ms)","GENERIC","124.167","0.3240671945893482","758"
"20:50:30:303 (H:m:s:ms)","GENERIC","124.36099999999999","0.32059576692060443","696"
"20:33:56:363 (H:m:s:ms)","GENERIC","124.29","0.2656648069621146","636"
"20:50:36:363 (H:m:s:ms)","GENERIC","124.394","0.3183679480212556","636"
"20:34:2:424 (H:m:s:ms)","GENERIC","124.28399999999999","0.2671077514470669","575"
"20:50:42:424 (H:m:s:ms)","GENERIC","124.29499999999999","0.31715162857859913","575"
"20:10:0:0 (H:m:s:ms)","GENERIC","62.204","0.2755224613742251","1000"
"20:34:8:484 (H:m:s:ms)","GENERIC","124.281","0.2647808153819052","515"
"20:50:48:484 (H:m:s:ms)","GENERIC","124.267","0.31537845826025446","515"
"20:10:0:0 (H:m:s:ms)","GENERIC","124.297","0.2789839243022952","1042"
"20:34:14:545 (H:m:s:ms)","GENERIC","93.319","0.2656796823482303","455"
"20:50:54:545 (H:m:s:ms)","GENERIC","124.398","0.315036202526586","454"
"20:10:6:60 (H:m:s:ms)","GENERIC","124.275","0.27781346029563525","939"
"20:34:20:606 (H:m:s:ms)","GENERIC","93.225","0.2645491233607789","393"
"20:51:0:606 (H:m:s:ms)","GENERIC","124.408","0.31392387935726307","393"
"20:10:12:121 (H:m:s:ms)","GENERIC","124.29599999999999","0.2766391118429559","878"
"20:34:26:666 (H:m:s:ms)","GENERIC","124.245","0.2637853774637365","333"
"20:51:6:666 (H:m:s:ms)","GENERIC","124.20500000000001","0.3127201184156384","333"
"20:10:18:181 (H:m:s:ms)","GENERIC","124.231","0.2755622827235501","818"
"20:34:32:727 (H:m:s:ms)","GENERIC","124.425","0.26238477015877765","272"
"20:51:12:727 (H:m:s:ms)","GENERIC","124.189","0.3128458721215356","272"
"20:10:24:242 (H:m:s:ms)","GENERIC","93.218","0.2739223482140122","758"
"20:34:38:787 (H:m:s:ms)","GENERIC","124.31899999999999","0.2628734271395155","212"
"20:51:18:787 (H:m:s:ms)","GENERIC","124.418","0.31119817154627977","212"
"20:10:30:303 (H:m:s:ms)","GENERIC","93.084","0.27398019098551624","696"
"20:34:44:848 (H:m:s:ms)","GENERIC","124.38499999999999","0.2630335126529816","152"
"20:10:36:363 (H:m:s:ms)","GENERIC","124.113","0.27679734131872175","637"
"20:34:50:909 (H:m:s:ms)","GENERIC","124.312","0.2637275798113627","1090"
"20:10:42:424 (H:m:s:ms)","GENERIC","124.112","0.2775211460861948","576"
"20:10:48:484 (H:m:s:ms)","GENERIC","124.124","0.2762495785008746","515"
"20:51:24:848 (H:m:s:ms)","GENERIC","124.327","0.31040170909381487","152"
"20:51:30:909 (H:m:s:ms)","GENERIC","124.463","0.30721231683253963","1090"
"20:34:56:969 (H:m:s:ms)","GENERIC","93.22200000000001","0.2638802656956278","1030"
"20:51:36:969 (H:m:s:ms)","GENERIC","124.189","0.3066783438578714","1030"
"20:35:3:30 (H:m:s:ms)","GENERIC","124.346","0.2612245323241684","969"
"20:51:43:30 (H:m:s:ms)","GENERIC","124.413","0.3040698844504505","969"
"20:10:54:545 (H:m:s:ms)","GENERIC","124.297","0.2765510963082308","454"
"20:35:9:90 (H:m:s:ms)","GENERIC","124.324","0.2618781307653623","948"
"20:51:49:90 (H:m:s:ms)","GENERIC","93.339","0.3045942164056911","963"
"20:11:0:606 (H:m:s:ms)","GENERIC","124.388","0.2768451569337352","394"
"20:35:15:151 (H:m:s:ms)","GENERIC","124.301","0.2616864714305306","848"
"20:51:55:151 (H:m:s:ms)","GENERIC","124.39699999999999","0.30271104708468427","848"
"20:11:6:666 (H:m:s:ms)","GENERIC","124.401","0.2762629443660727","333"
"20:35:21:212 (H:m:s:ms)","GENERIC","124.322","0.26136994843908135","787"
"20:52:1:212 (H:m:s:ms)","GENERIC","124.39","0.30015097024858506","788"
"20:11:12:727 (H:m:s:ms)","GENERIC","93.25999999999999","0.2746403013277845","273"
"20:35:27:272 (H:m:s:ms)","GENERIC","124.455","0.2596780566056016","727"
"20:52:7:272 (H:m:s:ms)","GENERIC","124.576","0.295788724872689","727"
"20:11:18:787 (H:m:s:ms)","GENERIC","124.301","0.2762926386513","212"
"20:35:33:333 (H:m:s:ms)","GENERIC","124.42500000000001","0.26064402197308334","666"
"20:52:13:333 (H:m:s:ms)","GENERIC","124.535","0.2977635407598989","666"
"20:11:24:848 (H:m:s:ms)","GENERIC","124.32300000000001","0.2757073910962338","151"
"20:35:39:393 (H:m:s:ms)","GENERIC","93.181","0.259089622916515","644"
"20:52:19:393 (H:m:s:ms)","GENERIC","124.358","0.2958758445385998","653"
"20:11:30:909 (H:m:s:ms)","GENERIC","93.132","0.2766071430276516","1090"
"20:35:45:454 (H:m:s:ms)","GENERIC","93.221","0.2589123591210668","546"
"20:11:36:969 (H:m:s:ms)","GENERIC","124.182","0.27594542209319545","1030"
"20:35:51:515 (H:m:s:ms)","GENERIC","124.297","0.25899388759657577","484"
"20:11:43:30 (H:m:s:ms)","GENERIC","124.122","0.2769104062628156","969"
"20:11:49:90 (H:m:s:ms)","GENERIC","124.22200000000001","0.2781114545453571","950"
"20:0:54:545 (H:m:s:ms)","GENERIC","31.041","0.13717298142282625","456"
"20:1:0:606 (H:m:s:ms)","GENERIC","31.077","0.1427398483114784","394"
"20:1:6:666 (H:m:s:ms)","GENERIC","93.126","0.14855995066306407","333"
"20:1:12:727 (H:m:s:ms)","GENERIC","31.04","0.15049523514485869","273"
"20:1:18:787 (H:m:s:ms)","GENERIC","62.104","0.15394868316637192","212"
"20:1:24:848 (H:m:s:ms)","GENERIC","31.058","0.1576436513619464","152"
"20:1:30:909 (H:m:s:ms)","GENERIC","62.082","0.16002239888817513","1091"
"20:1:36:969 (H:m:s:ms)","GENERIC","62.082","0.16629377061365136","1031"
"20:1:43:30 (H:m:s:ms)","GENERIC","93.11699999999999","0.170446884227027","969"
"20:1:49:90 (H:m:s:ms)","GENERIC","62.087","0.17394034560465868","923"
"20:35:57:575 (H:m:s:ms)","GENERIC","93.19999999999999","0.2576915990208468","425"
"20:36:3:636 (H:m:s:ms)","GENERIC","93.202","0.25741508855661965","363"
"20:11:55:151 (H:m:s:ms)","GENERIC","124.29599999999999","0.2793289190350169","848"
"20:36:9:696 (H:m:s:ms)","GENERIC","124.331","0.25646877808288476","340"
"20:12:1:212 (H:m:s:ms)","GENERIC","93.134","0.27967056942190593","787"
"20:36:15:757 (H:m:s:ms)","GENERIC","93.119","0.2553337409204346","242"
"20:12:7:272 (H:m:s:ms)","GENERIC","93.137","0.2796962789149269","727"
"20:36:21:818 (H:m:s:ms)","GENERIC","124.356","0.2562622968490457","181"
"20:12:13:333 (H:m:s:ms)","GENERIC","124.19","0.2800393770274204","666"
"20:36:27:878 (H:m:s:ms)","GENERIC","124.25999999999999","0.2572591744211829","1122"
"20:12:19:393 (H:m:s:ms)","GENERIC","124.173","0.2808472984438641","648"
"20:36:33:939 (H:m:s:ms)","GENERIC","93.191","0.25508189734871817","1061"
"20:12:25:454 (H:m:s:ms)","GENERIC","124.22999999999999","0.27949727543215913","545"
"20:36:40:0 (H:m:s:ms)","GENERIC","124.382","0.25582509983283297","1039"
"20:12:31:515 (H:m:s:ms)","GENERIC","93.14","0.27712415516380334","484"
"20:36:46:60 (H:m:s:ms)","GENERIC","93.145","0.25579445002111406","939"
"20:12:37:575 (H:m:s:ms)","GENERIC","124.42500000000001","0.27667892258058635","424"
"20:36:52:121 (H:m:s:ms)","GENERIC","124.25399999999999","0.2533747027027052","879"
"20:12:43:636 (H:m:s:ms)","GENERIC","124.366","0.2773193689245717","364"
"20:12:49:696 (H:m:s:ms)","GENERIC","93.245","0.2774577393632339","343"
"20:1:55:151 (H:m:s:ms)","GENERIC","62.098","0.17818071374072963","849"
"20:2:1:212 (H:m:s:ms)","GENERIC","93.151","0.18313609430081318","788"
"20:2:7:272 (H:m:s:ms)","GENERIC","93.182","0.1898956028568492","727"
"20:2:13:333 (H:m:s:ms)","GENERIC","93.197","0.19827082718531663","667"
"20:2:19:393 (H:m:s:ms)","GENERIC","31.044","0.19943822534266328","621"
"20:2:25:454 (H:m:s:ms)","GENERIC","31.042","0.20292278211812886","546"
"20:2:31:515 (H:m:s:ms)","GENERIC","62.143","0.20600197616283578","484"
"20:2:37:575 (H:m:s:ms)","GENERIC","31.079","0.20778108288505776","425"
"20:2:43:636 (H:m:s:ms)","GENERIC","93.223","0.2119916946025606","364"
"20:2:49:696 (H:m:s:ms)","GENERIC","31.036","0.21527857506646714","321"
"20:36:58:181 (H:m:s:ms)","GENERIC","124.221","0.2524309729592908","818"
"20:37:4:242 (H:m:s:ms)","GENERIC","124.149","0.25365206478603214","758"
"20:12:55:757 (H:m:s:ms)","GENERIC","124.356","0.27830752645151574","242"
"20:37:10:303 (H:m:s:ms)","GENERIC","124.186","0.2547335627879353","696"
"20:13:1:818 (H:m:s:ms)","GENERIC","124.232","0.27902692289082637","181"
"20:37:16:363 (H:m:s:ms)","GENERIC","124.247","0.2544462820388685","637"
"20:13:7:878 (H:m:s:ms)","GENERIC","124.38","0.2800610885976171","1121"
"20:37:22:424 (H:m:s:ms)","GENERIC","124.37100000000001","0.2557910553184651","575"
"20:13:13:939 (H:m:s:ms)","GENERIC","124.29400000000001","0.27928233694038684","1060"
"20:37:28:484 (H:m:s:ms)","GENERIC","124.151","0.2570844776554014","515"
"20:13:20:0 (H:m:s:ms)","GENERIC","93.182","0.2790214524164264","1041"
"20:37:34:545 (H:m:s:ms)","GENERIC","124.283","0.2564107324792274","455"
"20:13:26:60 (H:m:s:ms)","GENERIC","124.34899999999999","0.281622762447934","939"
"20:37:40:606 (H:m:s:ms)","GENERIC","124.39699999999999","0.2554565171972617","393"
"20:13:32:121 (H:m:s:ms)","GENERIC","124.279","0.2820388603044907","878"
"20:37:46:666 (H:m:s:ms)","GENERIC","124.247","0.25548041333533855","333"
"20:13:38:181 (H:m:s:ms)","GENERIC","124.257","0.279999529678497","818"
"20:37:52:727 (H:m:s:ms)","GENERIC","124.292","0.25578931156607915","272"
"20:13:44:242 (H:m:s:ms)","GENERIC","124.387","0.27984370396683855","758"
"20:13:50:303 (H:m:s:ms)","GENERIC","124.28999999999999","0.279363386940857","697"
"20:2:55:757 (H:m:s:ms)","GENERIC","31.032","0.21614882536825314","243"
"20:3:1:818 (H:m:s:ms)","GENERIC","62.102000000000004","0.21855373700392056","181"
"20:3:7:878 (H:m:s:ms)","GENERIC","62.184","0.2218192837361038","122"
"20:3:13:939 (H:m:s:ms)","GENERIC","62.15","0.22691080936235836","1060"
"20:3:20:0 (H:m:s:ms)","GENERIC","62.138000000000005","0.22892740316183463","1000"
"20:3:26:60 (H:m:s:ms)","GENERIC","62.193","0.23231963940123362","940"
"20:3:32:121 (H:m:s:ms)","GENERIC","62.141999999999996","0.2368598194567809","878"
"20:3:38:181 (H:m:s:ms)","GENERIC","62.147","0.24088288396832958","819"
"20:3:44:242 (H:m:s:ms)","GENERIC","62.215","0.2457000333752013","759"
"20:3:50:303 (H:m:s:ms)","GENERIC","62.158","0.24847173482140175","697"
"20:37:58:787 (H:m:s:ms)","GENERIC","124.369","0.25593223385423153","212"
"20:38:4:848 (H:m:s:ms)","GENERIC","124.375","0.259335232216345","152"
"20:13:56:363 (H:m:s:ms)","GENERIC","124.358","0.2783219882412666","636"
"20:38:10:909 (H:m:s:ms)","GENERIC","124.358","0.261104693427018","1091"
"20:14:2:424 (H:m:s:ms)","GENERIC","124.20599999999999","0.2790822050512104","575"
"20:38:16:969 (H:m:s:ms)","GENERIC","93.158","0.25820999712666176","1030"
"20:14:8:484 (H:m:s:ms)","GENERIC","124.354","0.28046049279484836","515"
"20:38:23:30 (H:m:s:ms)","GENERIC","124.314","0.2618143907471564","969"
"20:14:14:545 (H:m:s:ms)","GENERIC","124.22999999999999","0.2821807334398328","455"
"20:38:29:90 (H:m:s:ms)","GENERIC","124.437","0.26031267946596065","948"
"20:14:20:606 (H:m:s:ms)","GENERIC","93.213","0.2835557042319996","393"
"20:38:35:151 (H:m:s:ms)","GENERIC","93.128","0.26032276845489233","848"
"20:14:26:666 (H:m:s:ms)","GENERIC","93.22999999999999","0.2803551530754416","333"
"20:38:41:212 (H:m:s:ms)","GENERIC","124.386","0.2600885639258342","787"
"20:14:32:727 (H:m:s:ms)","GENERIC","93.232","0.2789303282007649","272"
"20:38:47:272 (H:m:s:ms)","GENERIC","124.231","0.25905297062897736","727"
"20:14:38:787 (H:m:s:ms)","GENERIC","124.37299999999999","0.2786958516157037","212"
"20:38:53:333 (H:m:s:ms)","GENERIC","124.24600000000001","0.2613267407215413","667"
"20:14:44:848 (H:m:s:ms)","GENERIC","124.389","0.27805887396414347","151"
"20:14:50:909 (H:m:s:ms)","GENERIC","124.305","0.2826351951247338","1090"
"20:3:56:363 (H:m:s:ms)","GENERIC","62.143","0.2509598889029938","637"
"20:4:2:424 (H:m:s:ms)","GENERIC","93.245","0.25322242411152013","575"
"20:4:8:484 (H:m:s:ms)","GENERIC","93.285","0.25761770433788606","516"
"20:4:14:545 (H:m:s:ms)","GENERIC","31.042","0.2599859853674876","455"
"20:4:20:606 (H:m:s:ms)","GENERIC","31.035","0.2617185736242161","393"
"20:4:26:666 (H:m:s:ms)","GENERIC","62.18","0.2646300255723235","333"
"20:4:32:727 (H:m:s:ms)","GENERIC","62.178","0.26723180801293345","273"
"20:4:38:787 (H:m:s:ms)","GENERIC","93.316","0.2690396463889101","213"
"20:4:44:848 (H:m:s:ms)","GENERIC","62.17","0.27173583935324114","152"
"20:4:50:909 (H:m:s:ms)","GENERIC","93.3","0.27514406499597965","1090"
"20:38:59:393 (H:m:s:ms)","GENERIC","93.208","0.25959205485478326","645"
"20:39:5:454 (H:m:s:ms)","GENERIC","124.24799999999999","0.2588823083033926","545"
"20:14:56:969 (H:m:s:ms)","GENERIC","124.4","0.2816722750030341","1031"
"20:39:11:515 (H:m:s:ms)","GENERIC","124.24000000000001","0.2611827575377814","484"
"20:15:3:30 (H:m:s:ms)","GENERIC","93.259","0.2770758793017852","969"
"20:39:17:575 (H:m:s:ms)","GENERIC","124.34700000000001","0.2607297615255237","424"
"20:15:9:90 (H:m:s:ms)","GENERIC","124.327","0.27772885442564194","948"
"20:39:23:636 (H:m:s:ms)","GENERIC","124.261","0.2622148411691599","363"
"20:15:15:151 (H:m:s:ms)","GENERIC","124.33699999999999","0.278135767241741","849"
"20:39:29:696 (H:m:s:ms)","GENERIC","124.193","0.2605616040638347","341"
"20:15:21:212 (H:m:s:ms)","GENERIC","124.261","0.27850869112208965","787"
"20:39:35:757 (H:m:s:ms)","GENERIC","124.28800000000001","0.2638354347142003","242"
"20:15:27:272 (H:m:s:ms)","GENERIC","124.364","0.27911919736714585","727"
"20:39:41:818 (H:m:s:ms)","GENERIC","124.313","0.2644055496225943","181"
"20:15:33:333 (H:m:s:ms)","GENERIC","93.21000000000001","0.27860184300729457","666"
"20:39:47:878 (H:m:s:ms)","GENERIC","124.293","0.26645700177725734","1121"
"20:15:39:393 (H:m:s:ms)","GENERIC","124.235","0.27892804645406816","645"
"20:39:53:939 (H:m:s:ms)","GENERIC","124.383","0.2642524572740057","1061"
"20:15:45:454 (H:m:s:ms)","GENERIC","124.084","0.27885949482947925","546"
"20:15:51:515 (H:m:s:ms)","GENERIC","93.083","0.27637946668970853","485"
"20:4:56:969 (H:m:s:ms)","GENERIC","31.071","0.27691341889221244","1030"
"20:5:3:30 (H:m:s:ms)","GENERIC","62.253","0.27551805336909463","969"
"20:5:9:90 (H:m:s:ms)","GENERIC","93.291","0.2751133140381072","934"
"20:5:15:151 (H:m:s:ms)","GENERIC","93.068","0.2750635727058066","848"
"20:5:21:212 (H:m:s:ms)","GENERIC","93.339","0.27571519622132834","788"
"20:5:27:272 (H:m:s:ms)","GENERIC","93.118","0.27560938553476827","727"
"20:5:33:333 (H:m:s:ms)","GENERIC","62.07","0.2757496323230283","667"
"20:5:39:393 (H:m:s:ms)","GENERIC","62.109","0.27652064726326037","641"
"20:5:45:454 (H:m:s:ms)","GENERIC","93.22200000000001","0.2758868907919316","546"
"20:5:51:515 (H:m:s:ms)","GENERIC","62.169","0.27513161259875796","485"
"20:15:57:575 (H:m:s:ms)","GENERIC","124.29400000000001","0.2756299219582597","424"
"20:16:3:636 (H:m:s:ms)","GENERIC","124.241","0.2741257683769225","363"
"20:16:9:696 (H:m:s:ms)","GENERIC","124.334","0.2730229401281249","342"
"20:16:15:757 (H:m:s:ms)","GENERIC","93.193","0.27072616089449614","242"
"20:16:21:818 (H:m:s:ms)","GENERIC","124.294","0.27212368954613003","181"
"20:16:27:878 (H:m:s:ms)","GENERIC","124.255","0.27318755956336677","1121"
"20:16:33:939 (H:m:s:ms)","GENERIC","124.305","0.2744128446515696","1060"
"20:16:40:0 (H:m:s:ms)","GENERIC","124.213","0.2749606078033604","1040"
"20:16:46:60 (H:m:s:ms)","GENERIC","124.362","0.2735946326502494","939"
"20:16:52:121 (H:m:s:ms)","GENERIC","124.33500000000001","0.27192550809967836","879"
"20:5:57:575 (H:m:s:ms)","GENERIC","62.071","0.2744092558986742","425"
"20:6:3:636 (H:m:s:ms)","GENERIC","93.114","0.2778423702439965","364"
"20:6:9:696 (H:m:s:ms)","GENERIC","62.236000000000004","0.27688617409543087","334"
"20:6:15:757 (H:m:s:ms)","GENERIC","93.261","0.2778638733588379","243"
"20:6:21:818 (H:m:s:ms)","GENERIC","62.074","0.27928257718202004","182"
"20:6:27:878 (H:m:s:ms)","GENERIC","62.206","0.2788903332021481","121"
"20:6:33:939 (H:m:s:ms)","GENERIC","93.125","0.2804872203677548","1062"
"20:6:40:0 (H:m:s:ms)","GENERIC","62.108000000000004","0.2785510780237987","1000"
"20:6:46:60 (H:m:s:ms)","GENERIC","93.154","0.2782261386686815","940"
"20:6:52:121 (H:m:s:ms)","GENERIC","62.111999999999995","0.2774414348378873","878"
"20:16:58:181 (H:m:s:ms)","GENERIC","124.352","0.2701173953611277","818"
"20:17:4:242 (H:m:s:ms)","GENERIC","124.214","0.2712486041639085","758"
"20:17:10:303 (H:m:s:ms)","GENERIC","93.117","0.27312060358071877","696"
"20:17:16:363 (H:m:s:ms)","GENERIC","124.201","0.27416395386254905","636"
"20:17:22:424 (H:m:s:ms)","GENERIC","124.145","0.2756623684793134","575"
"20:17:28:484 (H:m:s:ms)","GENERIC","124.344","0.27554772370299874","515"
"20:17:34:545 (H:m:s:ms)","GENERIC","124.42","0.2745592731445937","454"
"20:17:40:606 (H:m:s:ms)","GENERIC","124.43199999999999","0.2703447610324169","394"
"20:17:46:666 (H:m:s:ms)","GENERIC","93.256","0.2715203764424008","333"
"20:17:52:727 (H:m:s:ms)","GENERIC","93.225","0.2696333730284989","272"
"20:6:58:181 (H:m:s:ms)","GENERIC","31.018","0.27598625751825623","818"
"20:7:4:242 (H:m:s:ms)","GENERIC","62.105999999999995","0.2768120489735253","758"
"20:7:10:303 (H:m:s:ms)","GENERIC","93.18100000000001","0.27351861554215656","697"
"20:7:16:363 (H:m:s:ms)","GENERIC","93.18900000000001","0.27323027242675496","637"
"20:7:22:424 (H:m:s:ms)","GENERIC","62.116","0.27460111532344306","576"
"20:7:28:484 (H:m:s:ms)","GENERIC","62.232","0.27426076914728104","515"
"20:7:34:545 (H:m:s:ms)","GENERIC","93.338","0.27602482853919175","455"
"20:7:40:606 (H:m:s:ms)","GENERIC","62.215","0.27719150161221856","393"
"20:7:46:666 (H:m:s:ms)","GENERIC","93.25","0.27715894974047983","334"
"20:7:52:727 (H:m:s:ms)","GENERIC","62.066","0.2790741778669817","272"
"20:17:58:787 (H:m:s:ms)","GENERIC","124.4","0.26835493418929374","212"
"20:18:4:848 (H:m:s:ms)","GENERIC","124.305","0.26672038802526365","151"
"20:18:10:909 (H:m:s:ms)","GENERIC","124.4","0.2655116556430417","1091"
"20:18:16:969 (H:m:s:ms)","GENERIC","124.262","0.2685644611552735","1030"
"20:18:23:30 (H:m:s:ms)","GENERIC","124.22999999999999","0.2682853114228515","969"
"20:18:29:90 (H:m:s:ms)","GENERIC","93.154","0.2678114409855243","948"
"20:18:35:151 (H:m:s:ms)","GENERIC","124.31899999999999","0.2678460266050596","848"
"20:18:41:212 (H:m:s:ms)","GENERIC","124.297","0.26828829003994614","787"
"20:18:47:272 (H:m:s:ms)","GENERIC","124.291","0.26837144573773214","727"
"20:18:53:333 (H:m:s:ms)","GENERIC","124.31","0.26980241065267657","666"
"20:7:58:787 (H:m:s:ms)","GENERIC","93.257","0.2790023211165536","212"
"20:8:4:848 (H:m:s:ms)","GENERIC","62.137","0.2806518847686353","153"
"20:8:10:909 (H:m:s:ms)","GENERIC","93.227","0.28059556724746637","1091"
"20:8:16:969 (H:m:s:ms)","GENERIC","62.104","0.2803216481047675","1030"
"20:8:23:30 (H:m:s:ms)","GENERIC","62.123000000000005","0.2781634024863541","969"
"20:8:29:90 (H:m:s:ms)","GENERIC","93.235","0.27916243299588794","944"
"20:8:35:151 (H:m:s:ms)","GENERIC","93.262","0.28130316449525544","848"
"20:8:41:212 (H:m:s:ms)","GENERIC","93.242","0.28292467579759517","787"
"20:8:47:272 (H:m:s:ms)","GENERIC","62.205","0.2792692035216457","727"
"20:8:53:333 (H:m:s:ms)","GENERIC","93.334","0.2796883369153639","666"
"20:18:59:393 (H:m:s:ms)","GENERIC","124.326","0.2692051826791884","645"
"20:19:5:454 (H:m:s:ms)","GENERIC","93.149","0.26750265464783296","545"
"20:19:11:515 (H:m:s:ms)","GENERIC","124.416","0.2654763983223941","484"
"20:19:17:575 (H:m:s:ms)","GENERIC","124.21600000000001","0.2634674515394025","426"
"20:19:23:636 (H:m:s:ms)","GENERIC","93.164","0.2625664262654352","363"
"20:19:29:696 (H:m:s:ms)","GENERIC","124.277","0.26347297517875307","342"
"20:19:35:757 (H:m:s:ms)","GENERIC","93.174","0.2637825895448954","242"
"20:19:41:818 (H:m:s:ms)","GENERIC","124.351","0.26776091276402486","181"
"20:19:47:878 (H:m:s:ms)","GENERIC","124.279","0.2675535659070202","1121"
"20:19:53:939 (H:m:s:ms)","GENERIC","124.354","0.26471574880560667","1061"
"20:8:59:393 (H:m:s:ms)","GENERIC","93.255","0.27895864153459116","643"
"20:9:5:454 (H:m:s:ms)","GENERIC","93.298","0.2768538698635197","545"
"20:9:11:515 (H:m:s:ms)","GENERIC","93.309","0.2771251517774016","484"
"20:9:17:575 (H:m:s:ms)","GENERIC","31.064","0.2766355463155034","425"
"20:9:23:636 (H:m:s:ms)","GENERIC","93.269","0.27829257368085863","363"
"20:9:29:696 (H:m:s:ms)","GENERIC","93.25399999999999","0.2776752679570896","343"
"20:9:35:757 (H:m:s:ms)","GENERIC","62.164","0.2753453915565625","243"
"20:9:41:818 (H:m:s:ms)","GENERIC","93.295","0.2754972323429447","181"
"20:9:47:878 (H:m:s:ms)","GENERIC","31.021","0.2758228996788413","121"
"20:9:53:939 (H:m:s:ms)","GENERIC","93.311","0.2740671034758552","1061"
"21:41:0:606 (H:m:s:ms)","GENERIC","124.39099999999999","0.26325313608907913","393"
"21:40:54:545 (H:m:s:ms)","GENERIC","124.286","0.2641272064863882","455"
"21:40:48:484 (H:m:s:ms)","GENERIC","124.291","0.26413948380490404","515"
"21:40:42:424 (H:m:s:ms)","GENERIC","124.383","0.26769096514356977","575"
"21:40:36:363 (H:m:s:ms)","GENERIC","93.20599999999999","0.26828320791797844","636"
"21:40:30:303 (H:m:s:ms)","GENERIC","124.53800000000001","0.2691594222037118","697"
"21:40:24:242 (H:m:s:ms)","GENERIC","124.563","0.26880732830993626","758"
"21:41:18:787 (H:m:s:ms)","GENERIC","124.30000000000001","0.2642911424341554","212"
"21:41:12:727 (H:m:s:ms)","GENERIC","124.39","0.26404258094347033","272"
"21:41:6:666 (H:m:s:ms)","GENERIC","93.378","0.2619980267355209","333"
