"time (H:m:s:ms)","type","latency","utilisation","waiting"
"21:42:37:575 (H:m:s:ms)","GENERIC","62.075","0.024656177135705507","424"
"21:42:19:393 (H:m:s:ms)","GENERIC","62.095","0.009192528286497515","641"
"21:42:13:333 (H:m:s:ms)","GENERIC","62.169","0.024856305228882943","666"
"21:42:7:272 (H:m:s:ms)","GENERIC","62.051","0.024535316744171514","727"
"21:42:1:212 (H:m:s:ms)","GENERIC","62.129","0.00828543507629422","787"
"21:41:55:151 (H:m:s:ms)","GENERIC","62.063","0.024535316744171514","848"
"21:41:49:90 (H:m:s:ms)","GENERIC","62.131","0.008636766618008756","945"
"21:41:43:30 (H:m:s:ms)","GENERIC","62.045","0.024656177135705507","969"
"21:41:36:969 (H:m:s:ms)","GENERIC","62.027","0.009192528286497515","1030"
"21:42:31:515 (H:m:s:ms)","GENERIC","62.059","0.01657087015258844","484"
"21:42:25:454 (H:m:s:ms)","GENERIC","62.067","0.009192528286497515","545"
"21:43:44:242 (H:m:s:ms)","GENERIC","62.097","0.01639049829637533","758"
"21:43:38:181 (H:m:s:ms)","GENERIC","62.077","0.024535316744171514","818"
"21:43:26:60 (H:m:s:ms)","GENERIC","62.095","0.009192528286497515","939"
"20:0:0:0 (H:m:s:ms)","GENERIC","31.072","0.01657087015258844","2201"
"21:43:20:0 (H:m:s:ms)","GENERIC","62.103","0.01657087015258844","1037"
"20:0:6:60 (H:m:s:ms)","GENERIC","31.089","0.024856305228882943","940"
"21:43:13:939 (H:m:s:ms)","GENERIC","62.097","0.01657087015258844","1060"
"20:0:12:121 (H:m:s:ms)","GENERIC","31.046","0.024856305228882943","878"
"21:43:7:878 (H:m:s:ms)","GENERIC","62.019","0.008636766618008756","1121"
"20:0:18:181 (H:m:s:ms)","GENERIC","31.039","0.01657087015258844","818"
"21:43:1:818 (H:m:s:ms)","GENERIC","62.077","0.01639049829637533","181"
"20:0:24:242 (H:m:s:ms)","GENERIC","31.014","0.024535316744171514","759"
"21:42:55:757 (H:m:s:ms)","GENERIC","62.095","0.01657087015258844","242"
"20:0:30:303 (H:m:s:ms)","GENERIC","31.008","0.024856305228882943","696"
"21:42:49:696 (H:m:s:ms)","GENERIC","62.075","0.00828543507629422","338"
"20:0:36:363 (H:m:s:ms)","GENERIC","31.014","0.01639049829637533","637"
"21:42:43:636 (H:m:s:ms)","GENERIC","62.025","0.016867204163644102","363"
"20:0:42:424 (H:m:s:ms)","GENERIC","31.036","0.01657087015258844","575"
"21:10:12:121 (H:m:s:ms)","GENERIC","62.053","0.024535316744171514","878"
"20:0:48:484 (H:m:s:ms)","GENERIC","31.055","0.01657087015258844","516"
"21:10:18:181 (H:m:s:ms)","GENERIC","62.143","0.024535316744171514","818"
"21:10:24:242 (H:m:s:ms)","GENERIC","62.055","0.024656177135705507","758"
"21:10:30:303 (H:m:s:ms)","GENERIC","62.051","0.01639049829637533","696"
"21:10:36:363 (H:m:s:ms)","GENERIC","62.031","0.024656177135705507","636"
"21:10:42:424 (H:m:s:ms)","GENERIC","62.041","0.009192528286497515","575"
"21:10:48:484 (H:m:s:ms)","GENERIC","62.051","0.024656177135705507","515"
"21:10:54:545 (H:m:s:ms)","GENERIC","62.081","0.01657087015258844","454"
"21:43:32:121 (H:m:s:ms)","GENERIC","62.033","0.016867204163644102","878"
"21:11:0:606 (H:m:s:ms)","GENERIC","62.079","0.01639049829637533","393"
"21:11:6:666 (H:m:s:ms)","GENERIC","62.031","0.008636766618008756","333"
"21:25:45:454 (H:m:s:ms)","GENERIC","62.107","0.010936429635063812","545"
"21:44:50:909 (H:m:s:ms)","GENERIC","62.051","0.01639049829637533","1090"
"21:44:44:848 (H:m:s:ms)","GENERIC","62.051","0.01657087015258844","151"
"21:44:38:787 (H:m:s:ms)","GENERIC","62.041","0.01639049829637533","212"
"21:44:32:727 (H:m:s:ms)","GENERIC","62.049","0.01639049829637533","272"
"21:44:26:666 (H:m:s:ms)","GENERIC","62.167","0.01639049829637533","333"
"21:44:20:606 (H:m:s:ms)","GENERIC","62.089","0.024656177135705507","393"
"21:44:14:545 (H:m:s:ms)","GENERIC","62.113","0.016867204163644102","454"
"21:44:8:484 (H:m:s:ms)","GENERIC","62.105","0.016867204163644102","515"
"21:44:2:424 (H:m:s:ms)","GENERIC","62.077","0.016867204163644102","575"
"21:43:56:363 (H:m:s:ms)","GENERIC","62.045","0.024856305228882943","636"
"21:11:12:727 (H:m:s:ms)","GENERIC","62.029","0.01639049829637533","272"
"21:43:50:303 (H:m:s:ms)","GENERIC","62.093","0.00828543507629422","696"
"21:11:18:787 (H:m:s:ms)","GENERIC","62.131","0.024535316744171514","212"
"21:11:24:848 (H:m:s:ms)","GENERIC","62.107","0.016867204163644102","152"
"21:11:30:909 (H:m:s:ms)","GENERIC","62.081","0.00828543507629422","1090"
"21:11:36:969 (H:m:s:ms)","GENERIC","62.061","0.024535316744171514","1030"
"21:11:43:30 (H:m:s:ms)","GENERIC","62.105","0.016867204163644102","969"
"21:11:49:90 (H:m:s:ms)","GENERIC","62.067","0.009192528286497515","944"
"21:11:55:151 (H:m:s:ms)","GENERIC","62.067","0.008636766618008756","848"
"21:12:1:212 (H:m:s:ms)","GENERIC","62.119","0.01657087015258844","787"
"21:12:7:272 (H:m:s:ms)","GENERIC","62.095","0.01639049829637533","727"
"21:26:21:818 (H:m:s:ms)","GENERIC","62.019","0.010677574978910448","181"
"21:45:57:575 (H:m:s:ms)","GENERIC","62.083","0.01639049829637533","424"
"21:26:19:746 (H:m:s:ms)","OPERA","62.013","0.011130895426089266","287"
"21:45:51:515 (H:m:s:ms)","GENERIC","62.061","0.009192528286497515","484"
"21:45:45:454 (H:m:s:ms)","GENERIC","62.111","0.009192528286497515","545"
"21:45:39:393 (H:m:s:ms)","GENERIC","62.035","0.009192528286497515","642"
"21:26:12:151 (H:m:s:ms)","OPERA","31.009","0.014731180228069438","848"
"21:26:9:696 (H:m:s:ms)","GENERIC","62.023","0.01073710280489983","338"
"21:45:33:333 (H:m:s:ms)","GENERIC","62.105","0.009192528286497515","666"
"21:26:4:556 (H:m:s:ms)","OPERA","31.009","0.02576369477330656","444"
"21:45:27:272 (H:m:s:ms)","GENERIC","62.123","0.024856305228882943","727"
"21:26:3:636 (H:m:s:ms)","GENERIC","62.113","0.024856305228882943","363"
"21:45:21:212 (H:m:s:ms)","GENERIC","62.067","0.01639049829637533","787"
"21:25:57:575 (H:m:s:ms)","GENERIC","62.113","0.02752595815513313","424"
"21:45:15:151 (H:m:s:ms)","GENERIC","62.083","0.024535316744171514","848"
"21:25:56:962 (H:m:s:ms)","OPERA","62.013","0.024856305228882943","1037"
"21:45:9:90 (H:m:s:ms)","GENERIC","62.121","0.024656177135705507","945"
"21:12:13:333 (H:m:s:ms)","GENERIC","62.193","0.01657087015258844","666"
"21:25:51:515 (H:m:s:ms)","GENERIC","62.097","0.017747305558459627","484"
"21:45:3:30 (H:m:s:ms)","GENERIC","62.053","0.008636766618008756","969"
"21:12:19:393 (H:m:s:ms)","GENERIC","62.095","0.016867204163644102","641"
"21:25:49:367 (H:m:s:ms)","OPERA","31.009","0.01144865403242152","667"
"21:44:56:969 (H:m:s:ms)","GENERIC","62.077","0.01657087015258844","1030"
"21:12:25:454 (H:m:s:ms)","GENERIC","62.067","0.01657087015258844","545"
"21:12:31:515 (H:m:s:ms)","GENERIC","62.097","0.01657087015258844","484"
"21:12:37:575 (H:m:s:ms)","GENERIC","62.061","0.00828543507629422","424"
"21:12:43:636 (H:m:s:ms)","GENERIC","62.043","0.01639049829637533","363"
"21:12:49:696 (H:m:s:ms)","GENERIC","62.113","0.024656177135705507","338"
"21:12:55:757 (H:m:s:ms)","GENERIC","62.063","0.009192528286497515","242"
"21:13:1:818 (H:m:s:ms)","GENERIC","62.065","0.024656177135705507","182"
"21:13:7:878 (H:m:s:ms)","GENERIC","62.033","0.008636766618008756","1121"
"21:26:15:757 (H:m:s:ms)","GENERIC","62.091","0.01525758740505712","242"
"21:26:58:181 (H:m:s:ms)","GENERIC","62.055","0.03020930256480628","818"
"21:47:4:242 (H:m:s:ms)","GENERIC","62.033","0.024656177135705507","757"
"21:26:57:721 (H:m:s:ms)","OPERA","62.011","0.030372676760078373","278"
"21:46:58:181 (H:m:s:ms)","GENERIC","62.095","0.024656177135705507","818"
"21:26:52:121 (H:m:s:ms)","GENERIC","62.143","0.025540199341053005","878"
"21:46:52:121 (H:m:s:ms)","GENERIC","62.175","0.016867204163644102","879"
"21:46:46:60 (H:m:s:ms)","GENERIC","62.089","0.016867204163644102","939"
"21:46:40:0 (H:m:s:ms)","GENERIC","62.053","0.024656177135705507","1037"
"21:26:50:126 (H:m:s:ms)","OPERA","62.013","0.010936429635063812","873"
"21:26:46:60 (H:m:s:ms)","GENERIC","62.079","0.015020623397695953","939"
"21:26:42:531 (H:m:s:ms)","OPERA","62.011","0.02037390138348151","468"
"21:46:33:939 (H:m:s:ms)","GENERIC","62.085","0.009192528286497515","1060"
"21:26:40:0 (H:m:s:ms)","GENERIC","62.023","0.024325151457100184","1036"
"21:46:27:878 (H:m:s:ms)","GENERIC","62.049","0.024856305228882943","1121"
"21:26:34:936 (H:m:s:ms)","OPERA","62.015","0.03030147483295971","1064"
"21:46:21:818 (H:m:s:ms)","GENERIC","62.041","0.009192528286497515","181"
"21:13:13:939 (H:m:s:ms)","GENERIC","62.123","0.016867204163644102","1060"
"21:26:33:939 (H:m:s:ms)","GENERIC","62.051","0.024535316744171514","1061"
"21:46:15:757 (H:m:s:ms)","GENERIC","62.095","0.008636766618008756","242"
"21:13:20:0 (H:m:s:ms)","GENERIC","62.133","0.008636766618008756","1036"
"21:26:27:878 (H:m:s:ms)","GENERIC","62.073","0.018186620276907574","1121"
"21:46:9:696 (H:m:s:ms)","GENERIC","62.051","0.008636766618008756","339"
"21:13:26:60 (H:m:s:ms)","GENERIC","62.063","0.024535316744171514","939"
"21:26:27:341 (H:m:s:ms)","OPERA","62.013","0.016867204163644102","658"
"21:46:3:636 (H:m:s:ms)","GENERIC","62.137","0.024656177135705507","363"
"21:13:32:121 (H:m:s:ms)","GENERIC","62.045","0.01639049829637533","878"
"21:13:38:181 (H:m:s:ms)","GENERIC","62.081","0.00828543507629422","819"
"21:13:44:242 (H:m:s:ms)","GENERIC","62.105","0.00828543507629422","758"
"21:13:50:303 (H:m:s:ms)","GENERIC","62.091","0.00828543507629422","696"
"21:13:56:363 (H:m:s:ms)","GENERIC","62.059","0.024535316744171514","636"
"21:14:2:424 (H:m:s:ms)","GENERIC","62.105","0.01657087015258844","575"
"21:14:8:484 (H:m:s:ms)","GENERIC","62.123","0.024535316744171514","515"
"21:27:35:696 (H:m:s:ms)","OPERA","31.009","0.019523825456723914","303"
"21:48:10:909 (H:m:s:ms)","GENERIC","62.031","0.01639049829637533","1090"
"21:27:34:545 (H:m:s:ms)","GENERIC","62.069","0.008636766618008756","455"
"21:48:4:848 (H:m:s:ms)","GENERIC","62.067","0.01657087015258844","152"
"21:27:28:484 (H:m:s:ms)","GENERIC","62.077","0.025228362087420176","515"
"21:47:58:787 (H:m:s:ms)","GENERIC","62.059","0.016867204163644102","212"
"21:27:28:101 (H:m:s:ms)","OPERA","62.011","0.024535316744171514","898"
"21:47:52:727 (H:m:s:ms)","GENERIC","62.053","0.01657087015258844","273"
"21:47:46:666 (H:m:s:ms)","GENERIC","62.069","0.00828543507629422","333"
"21:47:40:606 (H:m:s:ms)","GENERIC","62.105","0.00828543507629422","393"
"21:27:22:424 (H:m:s:ms)","GENERIC","62.127","0.025571332569495404","575"
"21:27:20:506 (H:m:s:ms)","OPERA","62.015","0.018186620276907574","493"
"21:27:16:363 (H:m:s:ms)","GENERIC","62.067","0.024380587897663255","636"
"21:47:34:545 (H:m:s:ms)","GENERIC","62.087","0.009192528286497515","454"
"21:14:14:545 (H:m:s:ms)","GENERIC","62.143","0.01657087015258844","455"
"21:27:12:911 (H:m:s:ms)","OPERA","62.015","0.01988387870634518","1088"
"21:47:28:484 (H:m:s:ms)","GENERIC","62.039","0.024535316744171514","515"
"21:14:20:606 (H:m:s:ms)","GENERIC","62.093","0.024856305228882943","393"
"21:27:10:303 (H:m:s:ms)","GENERIC","62.067","0.01525758740505712","697"
"21:47:22:424 (H:m:s:ms)","GENERIC","62.105","0.008636766618008756","575"
"20:52:13:333 (H:m:s:ms)","GENERIC","62.167","0.024656177135705507","666"
"21:14:26:666 (H:m:s:ms)","GENERIC","62.133","0.01639049829637533","333"
"21:27:5:316 (H:m:s:ms)","OPERA","62.013","0.014731180228069438","683"
"21:47:16:363 (H:m:s:ms)","GENERIC","62.043","0.01657087015258844","636"
"20:52:19:393 (H:m:s:ms)","GENERIC","62.083","0.00828543507629422","646"
"21:14:32:727 (H:m:s:ms)","GENERIC","62.079","0.024535316744171514","272"
"21:27:4:242 (H:m:s:ms)","GENERIC","62.071","0.00828543507629422","757"
"21:47:10:303 (H:m:s:ms)","GENERIC","62.043","0.00828543507629422","696"
"20:52:25:454 (H:m:s:ms)","GENERIC","62.071","0.009192528286497515","546"
"21:14:38:787 (H:m:s:ms)","GENERIC","62.069","0.01639049829637533","212"
"20:52:31:515 (H:m:s:ms)","GENERIC","62.095","0.01657087015258844","484"
"21:14:44:848 (H:m:s:ms)","GENERIC","62.035","0.008636766618008756","151"
"20:52:37:575 (H:m:s:ms)","GENERIC","62.081","0.008636766618008756","424"
"21:14:50:909 (H:m:s:ms)","GENERIC","62.043","0.01657087015258844","1090"
"20:52:43:636 (H:m:s:ms)","GENERIC","62.043","0.01657087015258844","363"
"21:14:56:969 (H:m:s:ms)","GENERIC","62.123","0.01639049829637533","1030"
"20:52:49:696 (H:m:s:ms)","GENERIC","62.125","0.016867204163644102","343"
"21:15:3:30 (H:m:s:ms)","GENERIC","62.063","0.01639049829637533","969"
"20:52:55:757 (H:m:s:ms)","GENERIC","62.079","0.01657087015258844","243"
"21:15:9:90 (H:m:s:ms)","GENERIC","62.113","0.024856305228882943","944"
"20:53:1:818 (H:m:s:ms)","GENERIC","62.101","0.00828543507629422","181"
"20:53:7:878 (H:m:s:ms)","GENERIC","62.047","0.00828543507629422","1121"
"21:28:13:670 (H:m:s:ms)","OPERA","62.013","0.024380587897663255","329"
"21:49:17:575 (H:m:s:ms)","GENERIC","62.043","0.024535316744171514","424"
"21:28:10:909 (H:m:s:ms)","GENERIC","62.021","0.02061509357582716","1090"
"21:49:11:515 (H:m:s:ms)","GENERIC","62.131","0.024856305228882943","484"
"21:28:6:75 (H:m:s:ms)","OPERA","62.013","0.014687848777105876","925"
"21:49:5:454 (H:m:s:ms)","GENERIC","62.051","0.024535316744171514","545"
"21:28:4:848 (H:m:s:ms)","GENERIC","62.053","0.008636766618008756","151"
"21:48:59:393 (H:m:s:ms)","GENERIC","62.053","0.024535316744171514","645"
"21:27:58:787 (H:m:s:ms)","GENERIC","62.055","0.009192528286497515","212"
"21:48:53:333 (H:m:s:ms)","GENERIC","62.073","0.024535316744171514","666"
"21:48:47:272 (H:m:s:ms)","GENERIC","62.049","0.00828543507629422","727"
"21:48:41:212 (H:m:s:ms)","GENERIC","62.133","0.024856305228882943","787"
"21:27:58:481 (H:m:s:ms)","OPERA","62.013","0.015020623397695953","518"
"21:15:15:151 (H:m:s:ms)","GENERIC","62.059","0.008636766618008756","848"
"21:27:52:727 (H:m:s:ms)","GENERIC","62.041","0.017711354701789434","272"
"21:15:21:212 (H:m:s:ms)","GENERIC","62.025","0.01639049829637533","787"
"21:27:50:886 (H:m:s:ms)","OPERA","62.015","0.017988282600873245","1113"
"21:48:35:151 (H:m:s:ms)","GENERIC","62.045","0.009192528286497515","848"
"20:53:13:939 (H:m:s:ms)","GENERIC","62.121","0.008636766618008756","1060"
"21:15:27:272 (H:m:s:ms)","GENERIC","62.115","0.024535316744171514","727"
"21:27:46:666 (H:m:s:ms)","GENERIC","62.067","0.02061509357582716","333"
"21:48:29:90 (H:m:s:ms)","GENERIC","62.079","0.024656177135705507","944"
"20:53:20:0 (H:m:s:ms)","GENERIC","62.093","0.024656177135705507","1040"
"21:15:33:333 (H:m:s:ms)","GENERIC","62.067","0.00828543507629422","667"
"21:27:43:291 (H:m:s:ms)","OPERA","62.011","0.020228029254012632","708"
"21:48:23:30 (H:m:s:ms)","GENERIC","62.083","0.008636766618008756","969"
"20:53:26:60 (H:m:s:ms)","GENERIC","62.065","0.01657087015258844","939"
"21:15:39:393 (H:m:s:ms)","GENERIC","62.065","0.009192528286497515","641"
"21:27:40:606 (H:m:s:ms)","GENERIC","62.109","0.02396435264398157","393"
"21:48:16:969 (H:m:s:ms)","GENERIC","62.065","0.009192528286497515","1030"
"20:53:32:121 (H:m:s:ms)","GENERIC","62.063","0.016867204163644102","878"
"21:15:45:454 (H:m:s:ms)","GENERIC","62.097","0.016867204163644102","545"
"20:53:38:181 (H:m:s:ms)","GENERIC","62.043","0.024656177135705507","819"
"21:15:51:515 (H:m:s:ms)","GENERIC","62.089","0.01657087015258844","484"
"20:53:44:242 (H:m:s:ms)","GENERIC","62.145","0.008636766618008756","757"
"21:15:57:575 (H:m:s:ms)","GENERIC","62.121","0.024856305228882943","424"
"20:53:50:303 (H:m:s:ms)","GENERIC","62.119","0.024535316744171514","696"
"21:16:3:636 (H:m:s:ms)","GENERIC","62.111","0.00828543507629422","363"
"20:53:56:363 (H:m:s:ms)","GENERIC","62.023","0.024535316744171514","636"
"21:16:9:696 (H:m:s:ms)","GENERIC","62.023","0.00828543507629422","338"
"20:54:2:424 (H:m:s:ms)","GENERIC","62.125","0.024856305228882943","575"
"20:54:8:484 (H:m:s:ms)","GENERIC","62.081","0.00828543507629422","515"
"21:28:51:645 (H:m:s:ms)","OPERA","62.015","0.01073710280489983","354"
"21:28:47:272 (H:m:s:ms)","GENERIC","62.059","0.019371261286195842","727"
"21:28:44:50 (H:m:s:ms)","OPERA","62.013","0.019523825456723914","949"
"21:28:41:212 (H:m:s:ms)","GENERIC","62.115","0.014687848777105876","787"
"22:8:56:842 (H:m:s:ms)","AMBULANCE","62.107","0.016867204163644102","157"
"21:28:36:455 (H:m:s:ms)","OPERA","31.009","0.020228029254012632","544"
"21:50:0:0 (H:m:s:ms)","GENERIC","62.177","0.008636766618008756","1035"
"21:28:35:151 (H:m:s:ms)","GENERIC","62.067","0.01639049829637533","848"
"21:49:53:939 (H:m:s:ms)","GENERIC","62.021","0.016867204163644102","1060"
"21:49:47:878 (H:m:s:ms)","GENERIC","62.069","0.024656177135705507","1121"
"21:49:41:818 (H:m:s:ms)","GENERIC","62.141","0.024856305228882943","181"
"21:16:15:757 (H:m:s:ms)","GENERIC","62.105","0.024856305228882943","242"
"21:16:21:818 (H:m:s:ms)","GENERIC","62.037","0.016867204163644102","181"
"21:28:29:90 (H:m:s:ms)","GENERIC","62.055","0.025624073099422686","942"
"20:54:14:545 (H:m:s:ms)","GENERIC","62.125","0.024656177135705507","454"
"21:16:27:878 (H:m:s:ms)","GENERIC","62.075","0.024856305228882943","1121"
"21:28:28:860 (H:m:s:ms)","OPERA","62.015","0.02543043249038987","139"
"20:54:20:606 (H:m:s:ms)","GENERIC","62.127","0.024856305228882943","393"
"21:16:33:939 (H:m:s:ms)","GENERIC","62.051","0.024535316744171514","1062"
"21:28:23:30 (H:m:s:ms)","GENERIC","62.091","0.025571332569495404","969"
"21:49:35:757 (H:m:s:ms)","GENERIC","62.033","0.01657087015258844","242"
"20:54:26:666 (H:m:s:ms)","GENERIC","62.119","0.009192528286497515","333"
"21:16:40:0 (H:m:s:ms)","GENERIC","62.025","0.016867204163644102","1034"
"21:28:21:265 (H:m:s:ms)","OPERA","62.013","0.02545548400366825","734"
"21:49:29:696 (H:m:s:ms)","GENERIC","62.103","0.024656177135705507","339"
"20:54:32:727 (H:m:s:ms)","GENERIC","62.097","0.009192528286497515","272"
"21:16:46:60 (H:m:s:ms)","GENERIC","62.091","0.00828543507629422","939"
"21:28:16:969 (H:m:s:ms)","GENERIC","62.099","0.03018247699836974","1030"
"21:49:23:636 (H:m:s:ms)","GENERIC","62.109","0.008636766618008756","363"
"20:54:38:787 (H:m:s:ms)","GENERIC","62.107","0.009192528286497515","212"
"21:16:52:121 (H:m:s:ms)","GENERIC","62.135","0.009192528286497515","879"
"20:54:44:848 (H:m:s:ms)","GENERIC","62.057","0.01657087015258844","151"
"21:16:58:181 (H:m:s:ms)","GENERIC","62.031","0.024535316744171514","818"
"20:54:50:909 (H:m:s:ms)","GENERIC","62.049","0.01639049829637533","1090"
"21:17:4:242 (H:m:s:ms)","GENERIC","62.083","0.01657087015258844","758"
"20:54:56:969 (H:m:s:ms)","GENERIC","62.091","0.009192528286497515","1030"
"21:17:10:303 (H:m:s:ms)","GENERIC","62.053","0.024656177135705507","696"
"20:55:3:30 (H:m:s:ms)","GENERIC","62.059","0.009192528286497515","970"
"20:55:9:90 (H:m:s:ms)","GENERIC","62.121","0.01657087015258844","954"
"21:29:29:620 (H:m:s:ms)","OPERA","62.013","0.024856305228882943","413"
"21:29:23:636 (H:m:s:ms)","GENERIC","62.115","0.011008940010814577","363"
"21:29:22:25 (H:m:s:ms)","OPERA","62.015","0.011008940010814577","974"
"21:29:17:575 (H:m:s:ms)","GENERIC","62.023","0.014540641502746176","424"
"21:29:14:430 (H:m:s:ms)","OPERA","31.009","0.027157973115966565","569"
"21:29:11:515 (H:m:s:ms)","GENERIC","62.109","0.03030147483295971","484"
"21:29:6:835 (H:m:s:ms)","OPERA","62.015","0.020063486201958865","164"
"21:17:16:363 (H:m:s:ms)","GENERIC","62.075","0.024656177135705507","636"
"21:17:22:424 (H:m:s:ms)","GENERIC","62.139","0.008636766618008756","575"
"20:55:15:151 (H:m:s:ms)","GENERIC","62.085","0.01657087015258844","848"
"21:17:28:484 (H:m:s:ms)","GENERIC","62.097","0.024535316744171514","515"
"20:55:21:212 (H:m:s:ms)","GENERIC","62.037","0.01657087015258844","787"
"21:17:34:545 (H:m:s:ms)","GENERIC","62.071","0.016867204163644102","454"
"21:29:5:454 (H:m:s:ms)","GENERIC","62.033","0.009192528286497515","545"
"20:55:27:272 (H:m:s:ms)","GENERIC","62.079","0.00828543507629422","727"
"21:17:40:606 (H:m:s:ms)","GENERIC","62.125","0.01639049829637533","393"
"21:28:59:393 (H:m:s:ms)","GENERIC","62.077","0.019523825456723914","641"
"20:55:33:333 (H:m:s:ms)","GENERIC","62.065","0.00828543507629422","666"
"21:17:46:666 (H:m:s:ms)","GENERIC","62.079","0.01639049829637533","333"
"21:28:59:240 (H:m:s:ms)","OPERA","62.011","0.008636766618008756","794"
"20:55:39:393 (H:m:s:ms)","GENERIC","62.099","0.024535316744171514","647"
"21:17:52:727 (H:m:s:ms)","GENERIC","62.051","0.024656177135705507","272"
"21:28:53:333 (H:m:s:ms)","GENERIC","62.061","0.025571332569495404","666"
"20:55:45:454 (H:m:s:ms)","GENERIC","62.077","0.024856305228882943","545"
"21:17:58:787 (H:m:s:ms)","GENERIC","62.057","0.008636766618008756","212"
"20:55:51:515 (H:m:s:ms)","GENERIC","62.071","0.024535316744171514","484"
"21:18:4:848 (H:m:s:ms)","GENERIC","62.043","0.024535316744171514","152"
"20:55:57:575 (H:m:s:ms)","GENERIC","62.161","0.01639049829637533","424"
"21:18:10:909 (H:m:s:ms)","GENERIC","62.039","0.024535316744171514","1090"
"20:56:3:636 (H:m:s:ms)","GENERIC","62.113","0.01639049829637533","363"
"20:56:9:696 (H:m:s:ms)","GENERIC","62.051","0.016867204163644102","344"
"21:30:0:0 (H:m:s:ms)","GENERIC","62.137","0.050784503406056745","1034"
"21:30:0:0 (H:m:s:ms)","GENERIC","62.109","0.03018247699836974","1034"
"21:30:0:0 (H:m:s:ms)","OPERA","31.009","0.024535316744171514","1034"
"21:29:53:939 (H:m:s:ms)","GENERIC","62.047","0.010936429635063812","1060"
"21:29:52:405 (H:m:s:ms)","OPERA","62.013","0.01786860294217335","594"
"21:29:47:878 (H:m:s:ms)","GENERIC","62.065","0.024380587897663255","1121"
"21:29:44:810 (H:m:s:ms)","OPERA","31.009","0.019482292390007084","190"
"21:29:41:818 (H:m:s:ms)","GENERIC","62.129","0.01073710280489983","181"
"21:18:16:969 (H:m:s:ms)","GENERIC","62.095","0.024856305228882943","1030"
"21:18:23:30 (H:m:s:ms)","GENERIC","62.093","0.00828543507629422","969"
"20:56:15:757 (H:m:s:ms)","GENERIC","62.135","0.024656177135705507","242"
"21:18:29:90 (H:m:s:ms)","GENERIC","62.057","0.009192528286497515","944"
"20:56:21:818 (H:m:s:ms)","GENERIC","62.077","0.016867204163644102","181"
"21:18:35:151 (H:m:s:ms)","GENERIC","62.065","0.009192528286497515","848"
"20:40:0:0 (H:m:s:ms)","OPERA","31.009","0.008636766618008756","2190"
"20:56:27:878 (H:m:s:ms)","GENERIC","62.051","0.016867204163644102","1121"
"21:18:41:212 (H:m:s:ms)","GENERIC","62.101","0.008636766618008756","787"
"20:40:0:0 (H:m:s:ms)","GENERIC","62.127","0.011008940010814577","2190"
"20:56:33:939 (H:m:s:ms)","GENERIC","62.061","0.024535316744171514","1060"
"21:18:47:272 (H:m:s:ms)","GENERIC","62.057","0.024656177135705507","727"
"21:29:37:215 (H:m:s:ms)","OPERA","62.013","0.01073710280489983","784"
"20:40:0:0 (H:m:s:ms)","GENERIC","62.119","0.04230490616423521","2190"
"20:56:40:0 (H:m:s:ms)","GENERIC","62.03","0.024856305228882943","1042"
"21:18:53:333 (H:m:s:ms)","GENERIC","62.067","0.024856305228882943","666"
"21:29:35:757 (H:m:s:ms)","GENERIC","62.055","0.00828543507629422","242"
"20:40:6:60 (H:m:s:ms)","GENERIC","62.103","0.016867204163644102","939"
"20:56:46:60 (H:m:s:ms)","GENERIC","62.107","0.009192528286497515","939"
"21:18:59:393 (H:m:s:ms)","GENERIC","62.071","0.024656177135705507","640"
"21:29:29:696 (H:m:s:ms)","GENERIC","62.111","0.025624073099422686","337"
"20:40:7:594 (H:m:s:ms)","OPERA","31.009","0.02429242117228851","405"
"20:56:52:121 (H:m:s:ms)","GENERIC","62.103","0.008636766618008756","878"
"21:19:5:454 (H:m:s:ms)","GENERIC","62.019","0.009192528286497515","545"
"20:40:12:121 (H:m:s:ms)","GENERIC","62.055","0.030372676760078373","878"
"20:56:58:181 (H:m:s:ms)","GENERIC","62.033","0.00828543507629422","818"
"21:19:11:515 (H:m:s:ms)","GENERIC","62.099","0.016867204163644102","484"
"20:40:15:189 (H:m:s:ms)","OPERA","31.007","0.03044323953517493","810"
"20:57:4:242 (H:m:s:ms)","GENERIC","62.081","0.024656177135705507","758"
"20:40:18:181 (H:m:s:ms)","GENERIC","62.113","0.01988387870634518","818"
"20:57:10:303 (H:m:s:ms)","GENERIC","62.023","0.016867204163644102","697"
"20:40:22:784 (H:m:s:ms)","OPERA","31.008","0.019775674263721434","215"
"20:40:24:242 (H:m:s:ms)","GENERIC","62.015","0.019371261286195842","757"
"21:30:18:181 (H:m:s:ms)","GENERIC","62.121","0.024535316744171514","818"
"21:31:3:157 (H:m:s:ms)","AMBULANCE","62.103","0.01786860294217335","842"
"21:31:0:606 (H:m:s:ms)","GENERIC","62.105","0.016867204163644102","393"
"21:30:54:545 (H:m:s:ms)","GENERIC","62.111","0.01639049829637533","454"
"21:30:48:484 (H:m:s:ms)","GENERIC","62.051","0.024535316744171514","515"
"21:30:42:424 (H:m:s:ms)","GENERIC","62.037","0.016867204163644102","575"
"21:30:36:363 (H:m:s:ms)","GENERIC","62.019","0.00828543507629422","636"
"21:30:30:303 (H:m:s:ms)","GENERIC","62.067","0.01657087015258844","696"
"21:19:17:575 (H:m:s:ms)","GENERIC","62.021","0.024535316744171514","424"
"21:30:24:242 (H:m:s:ms)","GENERIC","62.071","0.00828543507629422","758"
"21:19:23:636 (H:m:s:ms)","GENERIC","62.125","0.009192528286497515","363"
"20:57:16:363 (H:m:s:ms)","GENERIC","62.105","0.024535316744171514","636"
"21:19:29:696 (H:m:s:ms)","GENERIC","62.109","0.00828543507629422","336"
"20:57:22:424 (H:m:s:ms)","GENERIC","62.131","0.01657087015258844","575"
"21:19:35:757 (H:m:s:ms)","GENERIC","62.063","0.016867204163644102","242"
"20:40:30:303 (H:m:s:ms)","GENERIC","62.027","0.016867204163644102","696"
"20:57:28:484 (H:m:s:ms)","GENERIC","62.131","0.01639049829637533","515"
"21:19:41:818 (H:m:s:ms)","GENERIC","62.113","0.024535316744171514","181"
"20:40:30:379 (H:m:s:ms)","OPERA","31.009","0.020788384480465452","620"
"20:57:34:545 (H:m:s:ms)","GENERIC","62.089","0.009192528286497515","455"
"21:19:47:878 (H:m:s:ms)","GENERIC","62.067","0.00828543507629422","1121"
"20:40:36:363 (H:m:s:ms)","GENERIC","62.039","0.01639049829637533","636"
"20:57:40:606 (H:m:s:ms)","GENERIC","62.131","0.00828543507629422","393"
"21:19:53:939 (H:m:s:ms)","GENERIC","62.065","0.009192528286497515","1062"
"20:40:37:974 (H:m:s:ms)","OPERA","31.008","0.017419972512558727","1025"
"20:57:46:666 (H:m:s:ms)","GENERIC","62.087","0.016867204163644102","333"
"21:20:0:0 (H:m:s:ms)","OPERA","62.011","0.024856305228882943","2238"
"21:30:12:121 (H:m:s:ms)","GENERIC","62.075","0.01657087015258844","878"
"20:40:42:424 (H:m:s:ms)","GENERIC","62.051","0.010936429635063812","575"
"20:57:52:727 (H:m:s:ms)","GENERIC","62.071","0.016867204163644102","272"
"21:20:0:0 (H:m:s:ms)","GENERIC","62.127","0.030372676760078373","2238"
"21:30:6:60 (H:m:s:ms)","GENERIC","62.093","0.009192528286497515","939"
"20:40:48:484 (H:m:s:ms)","GENERIC","62.095","0.01657087015258844","516"
"20:57:58:787 (H:m:s:ms)","GENERIC","62.081","0.024856305228882943","212"
"21:20:0:0 (H:m:s:ms)","GENERIC","62.117","0.040846551787133895","2238"
"20:40:53:164 (H:m:s:ms)","OPERA","31.009","0.0202680342213073","835"
"20:58:4:848 (H:m:s:ms)","GENERIC","62.065","0.024656177135705507","151"
"20:40:54:545 (H:m:s:ms)","GENERIC","62.089","0.02744789668689219","454"
"20:58:10:909 (H:m:s:ms)","GENERIC","62.029","0.024656177135705507","1090"
"20:41:0:606 (H:m:s:ms)","GENERIC","62.079","0.008636766618008756","393"
"20:41:0:759 (H:m:s:ms)","OPERA","31.008","0.019523825456723914","240"
"21:31:18:787 (H:m:s:ms)","GENERIC","62.115","0.01639049829637533","212"
"21:31:12:727 (H:m:s:ms)","GENERIC","62.069","0.00828543507629422","272"
"21:32:1:212 (H:m:s:ms)","GENERIC","62.147","0.009192528286497515","787"
"21:31:55:151 (H:m:s:ms)","GENERIC","62.075","0.016867204163644102","849"
"21:31:49:90 (H:m:s:ms)","GENERIC","62.113","0.024656177135705507","943"
"21:31:43:30 (H:m:s:ms)","GENERIC","62.061","0.00828543507629422","969"
"21:31:36:969 (H:m:s:ms)","GENERIC","62.041","0.01144865403242152","1030"
"21:31:34:736 (H:m:s:ms)","AMBULANCE","62.051","0.02576369477330656","264"
"21:31:30:909 (H:m:s:ms)","GENERIC","62.073","0.024856305228882943","1090"
"21:31:24:848 (H:m:s:ms)","GENERIC","62.085","0.024535316744171514","151"
"20:58:16:969 (H:m:s:ms)","GENERIC","62.095","0.024535316744171514","1030"
"20:58:23:30 (H:m:s:ms)","GENERIC","62.123","0.024656177135705507","969"
"20:41:6:666 (H:m:s:ms)","GENERIC","62.029","0.01657087015258844","333"
"20:58:29:90 (H:m:s:ms)","GENERIC","62.051","0.01639049829637533","949"
"20:41:8:354 (H:m:s:ms)","OPERA","31.008","0.017589469548137393","645"
"20:58:35:151 (H:m:s:ms)","GENERIC","62.051","0.024535316744171514","848"
"20:41:12:727 (H:m:s:ms)","GENERIC","62.029","0.010186950691740755","273"
"20:58:41:212 (H:m:s:ms)","GENERIC","62.097","0.01657087015258844","787"
"20:41:15:949 (H:m:s:ms)","OPERA","31.009","0.019666142887335588","1050"
"20:58:47:272 (H:m:s:ms)","GENERIC","62.049","0.01639049829637533","727"
"20:41:18:787 (H:m:s:ms)","GENERIC","62.115","0.02452728913686204","212"
"20:58:53:333 (H:m:s:ms)","GENERIC","62.091","0.00828543507629422","666"
"20:41:23:544 (H:m:s:ms)","OPERA","31.007","0.02452728913686204","455"
"20:58:59:393 (H:m:s:ms)","GENERIC","62.051","0.01639049829637533","646"
"21:31:6:666 (H:m:s:ms)","GENERIC","62.065","0.025228362087420176","333"
"20:41:24:848 (H:m:s:ms)","GENERIC","62.051","0.020063486201958865","152"
"20:59:5:454 (H:m:s:ms)","GENERIC","62.023","0.016867204163644102","545"
"20:41:30:909 (H:m:s:ms)","GENERIC","62.041","0.009192528286497515","1090"
"20:59:11:515 (H:m:s:ms)","GENERIC","62.077","0.008636766618008756","484"
"20:41:31:139 (H:m:s:ms)","OPERA","31.008","0.01144865403242152","860"
"20:41:36:969 (H:m:s:ms)","GENERIC","62.069","0.024535316744171514","1030"
"20:59:17:575 (H:m:s:ms)","GENERIC","62.047","0.016867204163644102","424"
"20:59:23:636 (H:m:s:ms)","GENERIC","62.127","0.024856305228882943","363"
"20:41:38:734 (H:m:s:ms)","OPERA","31.007","0.03030147483295971","265"
"20:59:29:696 (H:m:s:ms)","GENERIC","62.119","0.024535316744171514","343"
"20:41:43:30 (H:m:s:ms)","GENERIC","62.085","0.02452728913686204","969"
"20:59:35:757 (H:m:s:ms)","GENERIC","62.033","0.008636766618008756","242"
"20:41:46:329 (H:m:s:ms)","OPERA","31.008","0.017988282600873245","670"
"20:59:41:818 (H:m:s:ms)","GENERIC","62.125","0.01657087015258844","181"
"20:41:49:90 (H:m:s:ms)","GENERIC","62.027","0.017988282600873245","945"
"20:59:47:878 (H:m:s:ms)","GENERIC","62.063","0.016867204163644102","1121"
"20:41:53:924 (H:m:s:ms)","OPERA","31.008","0.02452728913686204","1075"
"20:59:53:939 (H:m:s:ms)","GENERIC","62.049","0.024856305228882943","1060"
"20:41:55:151 (H:m:s:ms)","GENERIC","62.059","0.024325151457100184","848"
"21:0:0:0 (H:m:s:ms)","AMBULANCE","31.05","0.024535316744171514","2196"
"20:42:1:212 (H:m:s:ms)","GENERIC","62.085","0.009192528286497515","787"
"21:0:0:0 (H:m:s:ms)","GENERIC","62.147","0.025313715779506533","2195"
"20:42:1:518 (H:m:s:ms)","OPERA","31.008","0.01144865403242152","481"
"21:0:0:0 (H:m:s:ms)","GENERIC","62.115","0.03711354277412959","2195"
"20:42:7:272 (H:m:s:ms)","GENERIC","62.089","0.009192528286497515","727"
"20:42:9:113 (H:m:s:ms)","OPERA","31.007","0.019775674263721434","922"
"21:0:6:60 (H:m:s:ms)","GENERIC","62.119","0.008636766618008756","939"
"21:0:12:121 (H:m:s:ms)","GENERIC","62.057","0.01657087015258844","878"
"20:42:13:333 (H:m:s:ms)","GENERIC","62.143","0.03020930256480628","666"
"21:0:18:181 (H:m:s:ms)","GENERIC","62.127","0.01639049829637533","818"
"20:42:16:708 (H:m:s:ms)","OPERA","31.007","0.025571332569495404","291"
"21:0:24:242 (H:m:s:ms)","GENERIC","62.037","0.024856305228882943","758"
"20:20:0:0 (H:m:s:ms)","GENERIC","62.137","0.01657087015258844","2194"
"20:42:19:393 (H:m:s:ms)","GENERIC","62.083","0.02576369477330656","642"
"21:0:30:303 (H:m:s:ms)","GENERIC","62.055","0.024856305228882943","696"
"20:20:0:0 (H:m:s:ms)","GENERIC","62.133","0.017913074501716846","2194"
"20:42:24:303 (H:m:s:ms)","OPERA","31.008","0.02752595815513313","697"
"21:0:31:578 (H:m:s:ms)","AMBULANCE","31.035","0.02744789668689219","421"
"20:20:6:60 (H:m:s:ms)","GENERIC","62.133","0.024656177135705507","940"
"20:42:25:454 (H:m:s:ms)","GENERIC","62.081","0.015020623397695953","545"
"21:0:36:363 (H:m:s:ms)","GENERIC","62.041","0.014335140692188325","636"
"20:20:12:121 (H:m:s:ms)","GENERIC","62.081","0.016867204163644102","878"
"20:42:31:515 (H:m:s:ms)","GENERIC","62.073","0.009192528286497515","484"
"21:0:42:424 (H:m:s:ms)","GENERIC","62.057","0.009192528286497515","575"
"20:20:18:181 (H:m:s:ms)","GENERIC","62.087","0.024856305228882943","818"
"20:42:31:898 (H:m:s:ms)","OPERA","31.008","0.014877089346763302","101"
"21:0:48:484 (H:m:s:ms)","GENERIC","62.067","0.016867204163644102","515"
"20:20:24:242 (H:m:s:ms)","GENERIC","62.033","0.01657087015258844","758"
"20:42:37:575 (H:m:s:ms)","GENERIC","62.083","0.00828543507629422","424"
"21:0:54:545 (H:m:s:ms)","GENERIC","62.071","0.01657087015258844","454"
"20:20:30:303 (H:m:s:ms)","GENERIC","62.023","0.01639049829637533","696"
"20:42:39:493 (H:m:s:ms)","OPERA","31.009","0.019666142887335588","543"
"20:20:36:363 (H:m:s:ms)","GENERIC","62.041","0.008636766618008756","636"
"20:42:43:636 (H:m:s:ms)","GENERIC","62.043","0.03039886117227448","363"
"20:20:42:424 (H:m:s:ms)","GENERIC","62.037","0.00828543507629422","575"
"20:20:48:484 (H:m:s:ms)","GENERIC","62.127","0.016867204163644102","516"
"21:1:0:606 (H:m:s:ms)","GENERIC","62.081","0.009192528286497515","393"
"21:1:3:157 (H:m:s:ms)","AMBULANCE","31.058","0.01525758740505712","842"
"20:42:47:88 (H:m:s:ms)","OPERA","31.009","0.03039886117227448","911"
"21:1:6:666 (H:m:s:ms)","GENERIC","62.019","0.020549501461478072","334"
"20:42:49:696 (H:m:s:ms)","GENERIC","62.111","0.03039886117227448","340"
"21:1:12:727 (H:m:s:ms)","GENERIC","62.025","0.01657087015258844","273"
"20:20:54:545 (H:m:s:ms)","GENERIC","62.087","0.00828543507629422","455"
"20:42:54:683 (H:m:s:ms)","OPERA","31.008","0.025345694905851975","317"
"21:1:18:787 (H:m:s:ms)","GENERIC","62.129","0.024856305228882943","212"
"20:21:0:606 (H:m:s:ms)","GENERIC","62.061","0.009192528286497515","393"
"20:42:55:757 (H:m:s:ms)","GENERIC","62.093","0.010474156817735183","242"
"21:1:24:848 (H:m:s:ms)","GENERIC","62.089","0.024656177135705507","151"
"20:21:6:666 (H:m:s:ms)","GENERIC","62.069","0.01657087015258844","333"
"20:43:1:818 (H:m:s:ms)","GENERIC","62.101","0.00828543507629422","181"
"21:1:30:909 (H:m:s:ms)","GENERIC","62.067","0.024535316744171514","1090"
"20:21:12:727 (H:m:s:ms)","GENERIC","62.043","0.01657087015258844","272"
"20:43:2:278 (H:m:s:ms)","OPERA","31.008","0.014731180228069438","721"
"21:1:34:736 (H:m:s:ms)","AMBULANCE","31.021","0.027237280641048234","263"
"20:21:18:787 (H:m:s:ms)","GENERIC","62.105","0.009192528286497515","213"
"20:43:7:878 (H:m:s:ms)","GENERIC","62.033","0.01639049829637533","1122"
"21:1:36:969 (H:m:s:ms)","GENERIC","62.053","0.02037390138348151","1030"
"20:21:24:848 (H:m:s:ms)","GENERIC","62.031","0.024856305228882943","151"
"20:43:9:873 (H:m:s:ms)","OPERA","31.007","0.017747305558459627","164"
"21:1:43:30 (H:m:s:ms)","GENERIC","62.105","0.024656177135705507","970"
"20:21:30:909 (H:m:s:ms)","GENERIC","62.071","0.024535316744171514","1090"
"20:43:13:939 (H:m:s:ms)","GENERIC","62.111","0.02545548400366825","1061"
"20:21:36:969 (H:m:s:ms)","GENERIC","62.067","0.01639049829637533","1030"
"20:43:17:468 (H:m:s:ms)","OPERA","31.008","0.02545548400366825","531"
"20:21:43:30 (H:m:s:ms)","GENERIC","62.079","0.024856305228882943","970"
"20:21:49:90 (H:m:s:ms)","GENERIC","62.065","0.008636766618008756","944"
"20:43:20:0 (H:m:s:ms)","GENERIC","62.075","0.025571332569495404","1038"
"20:43:25:63 (H:m:s:ms)","OPERA","31.009","0.027267003876739256","936"
"20:21:55:151 (H:m:s:ms)","GENERIC","62.093","0.008636766618008756","848"
"20:43:26:60 (H:m:s:ms)","GENERIC","62.075","0.020121113650827898","939"
"20:22:1:212 (H:m:s:ms)","GENERIC","62.095","0.008636766618008756","787"
"20:43:32:121 (H:m:s:ms)","GENERIC","62.071","0.019815866359658017","878"
"20:22:7:272 (H:m:s:ms)","GENERIC","62.103","0.024535316744171514","727"
"20:43:32:658 (H:m:s:ms)","OPERA","31.008","0.008636766618008756","341"
"20:22:13:333 (H:m:s:ms)","GENERIC","62.137","0.009192528286497515","666"
"20:43:38:181 (H:m:s:ms)","GENERIC","62.037","0.009192528286497515","818"
"20:22:19:393 (H:m:s:ms)","GENERIC","62.095","0.016867204163644102","641"
"20:43:40:253 (H:m:s:ms)","OPERA","31.008","0.01988387870634518","746"
"20:22:25:454 (H:m:s:ms)","GENERIC","62.095","0.01639049829637533","545"
"20:43:44:242 (H:m:s:ms)","GENERIC","62.139","0.03044323953517493","757"
"20:22:31:515 (H:m:s:ms)","GENERIC","62.051","0.01657087015258844","484"
"20:43:47:848 (H:m:s:ms)","OPERA","31.008","0.02752595815513313","151"
"20:22:37:575 (H:m:s:ms)","GENERIC","62.069","0.024535316744171514","424"
"20:43:50:303 (H:m:s:ms)","GENERIC","62.111","0.02752595815513313","696"
"20:22:43:636 (H:m:s:ms)","GENERIC","62.039","0.009192528286497515","363"
"20:22:49:696 (H:m:s:ms)","GENERIC","62.111","0.016867204163644102","340"
"20:43:55:443 (H:m:s:ms)","OPERA","31.009","0.030372676760078373","556"
"20:43:56:363 (H:m:s:ms)","GENERIC","62.025","0.019523825456723914","636"
"20:22:55:757 (H:m:s:ms)","GENERIC","62.129","0.01657087015258844","242"
"20:44:2:424 (H:m:s:ms)","GENERIC","62.127","0.016867204163644102","575"
"20:23:1:818 (H:m:s:ms)","GENERIC","62.083","0.016867204163644102","181"
"20:44:3:37 (H:m:s:ms)","OPERA","31.009","0.02452728913686204","962"
"20:23:7:878 (H:m:s:ms)","GENERIC","62.039","0.01639049829637533","1122"
"20:44:8:484 (H:m:s:ms)","GENERIC","62.061","0.02452728913686204","515"
"20:23:13:939 (H:m:s:ms)","GENERIC","62.087","0.024856305228882943","1062"
"20:44:10:632 (H:m:s:ms)","OPERA","31.009","0.02429242117228851","367"
"20:23:20:0 (H:m:s:ms)","GENERIC","62.043","0.01639049829637533","1035"
"20:44:14:545 (H:m:s:ms)","GENERIC","62.117","0.019371261286195842","455"
"20:23:26:60 (H:m:s:ms)","GENERIC","62.081","0.009192528286497515","939"
"20:44:18:227 (H:m:s:ms)","OPERA","31.009","0.019666142887335588","772"
"20:23:32:121 (H:m:s:ms)","GENERIC","62.063","0.01657087015258844","878"
"20:44:20:606 (H:m:s:ms)","GENERIC","62.141","0.019666142887335588","393"
"20:23:38:181 (H:m:s:ms)","GENERIC","62.043","0.008636766618008756","818"
"20:44:25:822 (H:m:s:ms)","OPERA","31.008","0.019371261286195842","177"
"20:23:44:242 (H:m:s:ms)","GENERIC","62.115","0.008636766618008756","757"
"20:23:50:303 (H:m:s:ms)","GENERIC","62.077","0.01639049829637533","696"
"20:44:26:666 (H:m:s:ms)","GENERIC","62.107","0.030110927664312507","333"
"20:44:32:727 (H:m:s:ms)","GENERIC","62.097","0.024856305228882943","272"
"20:23:56:363 (H:m:s:ms)","GENERIC","62.037","0.024535316744171514","637"
"20:44:38:787 (H:m:s:ms)","GENERIC","62.125","0.024535316744171514","212"
"20:24:2:424 (H:m:s:ms)","GENERIC","62.113","0.008636766618008756","575"
"20:44:44:848 (H:m:s:ms)","GENERIC","62.049","0.024856305228882943","151"
"20:24:8:484 (H:m:s:ms)","GENERIC","62.077","0.024535316744171514","515"
"20:44:48:607 (H:m:s:ms)","OPERA","31.009","0.02744789668689219","392"
"20:24:14:545 (H:m:s:ms)","GENERIC","62.097","0.024656177135705507","455"
"20:44:50:909 (H:m:s:ms)","GENERIC","62.039","0.020510747019947307","1090"
"20:24:20:606 (H:m:s:ms)","GENERIC","62.189","0.008636766618008756","393"
"20:44:56:202 (H:m:s:ms)","OPERA","31.009","0.018186620276907574","797"
"20:24:26:666 (H:m:s:ms)","GENERIC","62.137","0.024656177135705507","333"
"20:44:56:969 (H:m:s:ms)","GENERIC","62.083","0.011008940010814577","1030"
"20:24:32:727 (H:m:s:ms)","GENERIC","62.069","0.024856305228882943","272"
"20:45:3:30 (H:m:s:ms)","GENERIC","62.059","0.016867204163644102","969"
"20:24:38:787 (H:m:s:ms)","GENERIC","62.113","0.024535316744171514","212"
"20:45:3:797 (H:m:s:ms)","OPERA","31.009","0.02061509357582716","202"
"20:24:44:848 (H:m:s:ms)","GENERIC","62.065","0.024535316744171514","151"
"20:24:50:909 (H:m:s:ms)","GENERIC","62.025","0.009192528286497515","1090"
"20:45:9:90 (H:m:s:ms)","GENERIC","62.119","0.024535316744171514","950"
"20:45:11:392 (H:m:s:ms)","OPERA","31.009","0.025313715779506533","607"
"20:24:56:969 (H:m:s:ms)","GENERIC","62.101","0.016867204163644102","1030"
"20:45:15:151 (H:m:s:ms)","GENERIC","62.079","0.010677574978910448","848"
"20:25:3:30 (H:m:s:ms)","GENERIC","62.067","0.016867204163644102","969"
"20:45:18:987 (H:m:s:ms)","OPERA","31.008","0.014540641502746176","1052"
"20:25:9:90 (H:m:s:ms)","GENERIC","62.097","0.01657087015258844","944"
"20:45:21:212 (H:m:s:ms)","GENERIC","62.049","0.014540641502746176","787"
"20:25:15:151 (H:m:s:ms)","GENERIC","62.051","0.024535316744171514","849"
"20:45:26:582 (H:m:s:ms)","OPERA","31.007","0.011008940010814577","417"
"20:25:21:212 (H:m:s:ms)","GENERIC","62.079","0.024656177135705507","787"
"20:45:27:272 (H:m:s:ms)","GENERIC","62.063","0.01073710280489983","727"
"20:25:27:272 (H:m:s:ms)","GENERIC","62.045","0.024656177135705507","727"
"20:45:33:333 (H:m:s:ms)","GENERIC","62.077","0.008636766618008756","666"
"20:25:33:333 (H:m:s:ms)","GENERIC","62.087","0.01639049829637533","667"
"20:45:34:177 (H:m:s:ms)","OPERA","31.007","0.019633705886876445","822"
"20:25:39:393 (H:m:s:ms)","GENERIC","62.107","0.016867204163644102","641"
"20:45:39:393 (H:m:s:ms)","GENERIC","62.099","0.019633705886876445","645"
"20:25:45:454 (H:m:s:ms)","GENERIC","62.079","0.009192528286497515","545"
"20:25:51:515 (H:m:s:ms)","GENERIC","62.055","0.024535316744171514","485"
"20:25:57:575 (H:m:s:ms)","GENERIC","62.181","0.024656177135705507","424"
"20:26:3:636 (H:m:s:ms)","GENERIC","62.123","0.01657087015258844","363"
"20:26:9:696 (H:m:s:ms)","GENERIC","62.101","0.016867204163644102","338"
"20:26:15:757 (H:m:s:ms)","GENERIC","62.137","0.01639049829637533","242"
"20:26:21:818 (H:m:s:ms)","GENERIC","62.077","0.024535316744171514","181"
"20:26:27:878 (H:m:s:ms)","GENERIC","62.049","0.00828543507629422","1121"
"20:26:33:939 (H:m:s:ms)","GENERIC","62.091","0.024656177135705507","1061"
"20:26:40:0 (H:m:s:ms)","GENERIC","62.04","0.01639049829637533","1035"
"20:26:46:60 (H:m:s:ms)","GENERIC","62.099","0.008636766618008756","939"
"20:26:52:121 (H:m:s:ms)","GENERIC","62.103","0.024535316744171514","878"
"20:26:58:181 (H:m:s:ms)","GENERIC","62.023","0.009192528286497515","819"
"20:27:4:242 (H:m:s:ms)","GENERIC","62.083","0.01639049829637533","757"
"20:27:10:303 (H:m:s:ms)","GENERIC","62.059","0.01657087015258844","696"
"20:27:16:363 (H:m:s:ms)","GENERIC","62.067","0.008636766618008756","636"
"20:27:22:424 (H:m:s:ms)","GENERIC","62.133","0.024535316744171514","575"
"20:27:28:484 (H:m:s:ms)","GENERIC","62.081","0.00828543507629422","515"
"20:27:34:545 (H:m:s:ms)","GENERIC","62.083","0.016867204163644102","454"
"20:27:40:606 (H:m:s:ms)","GENERIC","62.109","0.01639049829637533","393"
"20:27:46:666 (H:m:s:ms)","GENERIC","62.087","0.016867204163644102","333"
"20:27:52:727 (H:m:s:ms)","GENERIC","62.041","0.01657087015258844","272"
"20:27:58:787 (H:m:s:ms)","GENERIC","62.053","0.00828543507629422","212"
"20:28:4:848 (H:m:s:ms)","GENERIC","62.081","0.01657087015258844","151"
"20:28:10:909 (H:m:s:ms)","GENERIC","62.055","0.024856305228882943","1090"
"20:28:16:969 (H:m:s:ms)","GENERIC","62.111","0.009192528286497515","1030"
"20:28:23:30 (H:m:s:ms)","GENERIC","62.093","0.024535316744171514","969"
"20:28:29:90 (H:m:s:ms)","GENERIC","62.073","0.024535316744171514","944"
"20:28:35:151 (H:m:s:ms)","GENERIC","62.079","0.024656177135705507","849"
"20:28:41:212 (H:m:s:ms)","GENERIC","62.103","0.016867204163644102","787"
"20:28:47:272 (H:m:s:ms)","GENERIC","62.061","0.024856305228882943","727"
"20:28:53:333 (H:m:s:ms)","GENERIC","62.093","0.016867204163644102","666"
"20:28:59:393 (H:m:s:ms)","GENERIC","62.039","0.00828543507629422","641"
"20:29:5:454 (H:m:s:ms)","GENERIC","62.043","0.024656177135705507","545"
"20:29:11:515 (H:m:s:ms)","GENERIC","62.115","0.00828543507629422","484"
"20:29:17:575 (H:m:s:ms)","GENERIC","62.077","0.009192528286497515","424"
"20:29:23:636 (H:m:s:ms)","GENERIC","62.109","0.009192528286497515","363"
"20:29:29:696 (H:m:s:ms)","GENERIC","62.145","0.009192528286497515","338"
"20:29:35:757 (H:m:s:ms)","GENERIC","62.041","0.009192528286497515","242"
"20:29:41:818 (H:m:s:ms)","GENERIC","62.143","0.024535316744171514","181"
"20:29:47:878 (H:m:s:ms)","GENERIC","62.067","0.009192528286497515","1121"
"20:29:53:939 (H:m:s:ms)","GENERIC","62.025","0.024535316744171514","1060"
"21:20:6:60 (H:m:s:ms)","GENERIC","62.115","0.01639049829637533","940"
"21:20:7:594 (H:m:s:ms)","OPERA","62.011","0.02396435264398157","405"
"21:20:12:121 (H:m:s:ms)","GENERIC","62.065","0.03020930256480628","878"
"21:20:15:189 (H:m:s:ms)","OPERA","62.015","0.03039886117227448","810"
"21:20:18:181 (H:m:s:ms)","GENERIC","62.129","0.03030147483295971","818"
"21:20:22:784 (H:m:s:ms)","OPERA","62.013","0.027369086868483446","215"
"21:20:24:242 (H:m:s:ms)","GENERIC","62.065","0.02747686844480861","757"
"21:20:30:303 (H:m:s:ms)","GENERIC","62.057","0.024856305228882943","696"
"21:20:30:379 (H:m:s:ms)","OPERA","31.008","0.02576369477330656","620"
"21:20:36:363 (H:m:s:ms)","GENERIC","62.021","0.00828543507629422","636"
"21:20:37:974 (H:m:s:ms)","OPERA","62.015","0.014731180228069438","1025"
"21:20:42:424 (H:m:s:ms)","GENERIC","62.035","0.014930474018951648","575"
"21:20:45:569 (H:m:s:ms)","OPERA","31.009","0.019815866359658017","430"
"21:20:48:484 (H:m:s:ms)","GENERIC","62.039","0.024203338817033838","515"
"21:20:53:164 (H:m:s:ms)","OPERA","62.013","0.020405161768448764","835"
"21:20:54:545 (H:m:s:ms)","GENERIC","62.089","0.014930474018951648","455"
"21:21:0:606 (H:m:s:ms)","GENERIC","62.097","0.024656177135705507","393"
"21:21:0:759 (H:m:s:ms)","OPERA","62.013","0.025345694905851975","240"
"21:21:6:666 (H:m:s:ms)","GENERIC","62.047","0.008636766618008756","333"
"21:21:8:354 (H:m:s:ms)","OPERA","62.011","0.019523825456723914","645"
"21:32:55:757 (H:m:s:ms)","GENERIC","62.081","0.009192528286497515","242"
"21:32:37:894 (H:m:s:ms)","AMBULANCE","62.051","0.014731180228069438","1105"
"21:32:37:575 (H:m:s:ms)","GENERIC","62.069","0.00828543507629422","424"
"21:32:31:515 (H:m:s:ms)","GENERIC","62.059","0.01657087015258844","484"
"21:32:25:454 (H:m:s:ms)","GENERIC","62.073","0.00828543507629422","545"
"21:32:19:393 (H:m:s:ms)","GENERIC","62.097","0.01639049829637533","640"
"21:32:13:333 (H:m:s:ms)","GENERIC","62.169","0.024656177135705507","666"
"21:32:7:272 (H:m:s:ms)","GENERIC","62.059","0.025345694905851975","727"
"21:21:12:727 (H:m:s:ms)","GENERIC","62.047","0.024087843288506706","272"
"21:32:6:315 (H:m:s:ms)","AMBULANCE","62.087","0.010936429635063812","684"
"21:21:15:949 (H:m:s:ms)","OPERA","31.009","0.020549501461478072","1050"
"21:21:18:787 (H:m:s:ms)","GENERIC","62.121","0.020788384480465452","212"
"21:21:23:544 (H:m:s:ms)","OPERA","31.009","0.02429242117228851","455"
"21:21:24:848 (H:m:s:ms)","GENERIC","62.099","0.030110927664312507","152"
"21:21:30:909 (H:m:s:ms)","GENERIC","62.087","0.01639049829637533","1091"
"21:21:31:139 (H:m:s:ms)","OPERA","62.015","0.024054191954766737","860"
"21:21:36:969 (H:m:s:ms)","GENERIC","62.063","0.024535316744171514","1030"
"21:32:49:696 (H:m:s:ms)","GENERIC","62.091","0.024535316744171514","338"
"21:21:38:734 (H:m:s:ms)","OPERA","62.013","0.025313715779506533","265"
"21:32:43:636 (H:m:s:ms)","GENERIC","62.033","0.020788384480465452","363"
"21:21:43:30 (H:m:s:ms)","GENERIC","62.085","0.011130895426089266","969"
"21:33:50:303 (H:m:s:ms)","GENERIC","62.089","0.00828543507629422","696"
"21:33:44:242 (H:m:s:ms)","GENERIC","62.089","0.030372676760078373","757"
"21:33:38:181 (H:m:s:ms)","GENERIC","62.097","0.009192528286497515","818"
"21:33:32:121 (H:m:s:ms)","GENERIC","62.031","0.01639049829637533","878"
"21:33:26:60 (H:m:s:ms)","GENERIC","62.101","0.016867204163644102","939"
"21:33:20:0 (H:m:s:ms)","GENERIC","62.105","0.01657087015258844","1035"
"21:33:13:939 (H:m:s:ms)","GENERIC","62.111","0.027267003876739256","1060"
"21:33:9:473 (H:m:s:ms)","AMBULANCE","62.039","0.02744789668689219","561"
"21:21:46:329 (H:m:s:ms)","OPERA","62.013","0.014877089346763302","670"
"21:33:7:878 (H:m:s:ms)","GENERIC","62.019","0.024856305228882943","1121"
"21:21:49:90 (H:m:s:ms)","GENERIC","62.091","0.014877089346763302","954"
"21:33:1:818 (H:m:s:ms)","GENERIC","62.067","0.009192528286497515","181"
"21:21:53:924 (H:m:s:ms)","OPERA","62.013","0.01988387870634518","1075"
"21:21:55:151 (H:m:s:ms)","GENERIC","62.073","0.024176989901131273","848"
"21:22:1:212 (H:m:s:ms)","GENERIC","62.133","0.024656177135705507","788"
"21:22:1:518 (H:m:s:ms)","OPERA","62.013","0.027267003876739256","482"
"21:22:7:272 (H:m:s:ms)","GENERIC","62.075","0.024856305228882943","727"
"21:22:9:113 (H:m:s:ms)","OPERA","31.009","0.02576369477330656","919"
"21:22:13:333 (H:m:s:ms)","GENERIC","62.175","0.017747305558459627","666"
"21:22:16:708 (H:m:s:ms)","OPERA","62.011","0.020228029254012632","291"
"21:33:41:52 (H:m:s:ms)","AMBULANCE","62.091","0.019775674263721434","948"
"21:34:50:909 (H:m:s:ms)","GENERIC","62.043","0.016867204163644102","1090"
"21:34:44:848 (H:m:s:ms)","GENERIC","62.027","0.024087843288506706","152"
"21:34:44:210 (H:m:s:ms)","AMBULANCE","62.039","0.01657087015258844","790"
"21:34:38:787 (H:m:s:ms)","GENERIC","62.047","0.00828543507629422","212"
"21:34:32:727 (H:m:s:ms)","GENERIC","62.053","0.01657087015258844","272"
"21:34:26:666 (H:m:s:ms)","GENERIC","62.161","0.024856305228882943","333"
"21:34:20:606 (H:m:s:ms)","GENERIC","62.093","0.01657087015258844","394"
"21:34:14:545 (H:m:s:ms)","GENERIC","62.123","0.01657087015258844","454"
"21:22:19:393 (H:m:s:ms)","GENERIC","62.101","0.02037390138348151","640"
"21:34:8:484 (H:m:s:ms)","GENERIC","62.125","0.01639049829637533","515"
"21:22:24:303 (H:m:s:ms)","OPERA","62.015","0.017913074501716846","697"
"21:34:2:424 (H:m:s:ms)","GENERIC","62.077","0.01657087015258844","575"
"21:1:49:90 (H:m:s:ms)","GENERIC","62.045","0.024856305228882943","948"
"21:22:25:454 (H:m:s:ms)","GENERIC","62.075","0.01144865403242152","545"
"21:33:56:363 (H:m:s:ms)","GENERIC","62.055","0.01639049829637533","636"
"21:1:55:151 (H:m:s:ms)","GENERIC","62.079","0.024656177135705507","849"
"21:22:31:515 (H:m:s:ms)","GENERIC","62.081","0.016867204163644102","485"
"21:2:1:212 (H:m:s:ms)","GENERIC","62.105","0.016867204163644102","787"
"21:22:31:898 (H:m:s:ms)","OPERA","62.015","0.02429242117228851","1102"
"21:2:6:315 (H:m:s:ms)","AMBULANCE","31.032","0.02429242117228851","684"
"21:22:37:575 (H:m:s:ms)","GENERIC","62.063","0.02396435264398157","424"
"21:2:7:272 (H:m:s:ms)","GENERIC","62.095","0.024087843288506706","727"
"21:22:39:493 (H:m:s:ms)","OPERA","31.009","0.020121113650827898","540"
"21:2:13:333 (H:m:s:ms)","GENERIC","62.181","0.00828543507629422","666"
"21:22:43:636 (H:m:s:ms)","GENERIC","62.053","0.020121113650827898","363"
"21:2:19:393 (H:m:s:ms)","GENERIC","62.077","0.00828543507629422","645"
"21:22:47:88 (H:m:s:ms)","OPERA","62.011","0.024203338817033838","911"
"21:2:25:454 (H:m:s:ms)","GENERIC","62.071","0.024856305228882943","545"
"21:22:49:696 (H:m:s:ms)","GENERIC","62.107","0.02452728913686204","337"
"21:2:31:515 (H:m:s:ms)","GENERIC","62.109","0.009192528286497515","484"
"21:2:37:575 (H:m:s:ms)","GENERIC","62.073","0.024656177135705507","424"
"21:35:47:368 (H:m:s:ms)","AMBULANCE","62.109","0.014877089346763302","631"
"21:35:45:454 (H:m:s:ms)","GENERIC","62.117","0.009192528286497515","545"
"21:35:39:393 (H:m:s:ms)","GENERIC","62.029","0.01657087015258844","641"
"21:35:33:333 (H:m:s:ms)","GENERIC","62.101","0.024856305228882943","666"
"21:35:27:272 (H:m:s:ms)","GENERIC","62.139","0.008636766618008756","727"
"21:35:21:212 (H:m:s:ms)","GENERIC","62.051","0.016867204163644102","787"
"21:35:15:789 (H:m:s:ms)","AMBULANCE","62.037","0.019775674263721434","210"
"21:22:54:683 (H:m:s:ms)","OPERA","62.011","0.02061509357582716","316"
"21:35:15:151 (H:m:s:ms)","GENERIC","62.061","0.009192528286497515","848"
"21:22:55:757 (H:m:s:ms)","GENERIC","62.069","0.015020623397695953","242"
"21:35:9:90 (H:m:s:ms)","GENERIC","62.113","0.01639049829637533","944"
"21:2:37:894 (H:m:s:ms)","AMBULANCE","31.023","0.025345694905851975","105"
"21:23:1:818 (H:m:s:ms)","GENERIC","62.063","0.024535316744171514","182"
"21:35:3:30 (H:m:s:ms)","GENERIC","62.055","0.024656177135705507","969"
"21:2:43:636 (H:m:s:ms)","GENERIC","62.055","0.009192528286497515","363"
"21:23:2:278 (H:m:s:ms)","OPERA","62.015","0.027157973115966565","721"
"21:34:56:969 (H:m:s:ms)","GENERIC","62.097","0.00828543507629422","1030"
"21:2:49:696 (H:m:s:ms)","GENERIC","62.115","0.008636766618008756","342"
"21:23:7:878 (H:m:s:ms)","GENERIC","62.019","0.024535316744171514","1121"
"21:2:55:757 (H:m:s:ms)","GENERIC","62.069","0.008636766618008756","242"
"21:23:9:873 (H:m:s:ms)","OPERA","62.013","0.027157973115966565","160"
"21:3:1:818 (H:m:s:ms)","GENERIC","62.083","0.024856305228882943","181"
"21:23:13:939 (H:m:s:ms)","GENERIC","62.125","0.02744789668689219","1060"
"21:3:7:878 (H:m:s:ms)","GENERIC","62.043","0.024656177135705507","1121"
"21:23:17:468 (H:m:s:ms)","OPERA","62.011","0.02576369477330656","531"
"21:3:9:473 (H:m:s:ms)","AMBULANCE","31.021","0.03020930256480628","565"
"21:23:20:0 (H:m:s:ms)","GENERIC","62.121","0.018186620276907574","1034"
"21:3:13:939 (H:m:s:ms)","GENERIC","62.129","0.02396435264398157","1060"
"21:23:25:63 (H:m:s:ms)","OPERA","62.011","0.017988282600873245","936"
"21:3:20:0 (H:m:s:ms)","GENERIC","62.114","0.01657087015258844","1039"
"21:3:26:60 (H:m:s:ms)","GENERIC","62.065","0.024656177135705507","939"
"21:36:46:60 (H:m:s:ms)","GENERIC","62.073","0.00828543507629422","939"
"21:36:40:0 (H:m:s:ms)","GENERIC","62.041","0.009192528286497515","1034"
"21:36:33:939 (H:m:s:ms)","GENERIC","62.065","0.024535316744171514","1061"
"21:36:27:878 (H:m:s:ms)","GENERIC","62.065","0.008636766618008756","1121"
"21:36:21:818 (H:m:s:ms)","GENERIC","62.027","0.020549501461478072","181"
"21:36:18:947 (H:m:s:ms)","AMBULANCE","62.077","0.020788384480465452","1086"
"21:23:26:60 (H:m:s:ms)","GENERIC","62.081","0.010396533910280658","939"
"21:36:15:757 (H:m:s:ms)","GENERIC","62.089","0.016867204163644102","243"
"21:23:32:121 (H:m:s:ms)","GENERIC","62.043","0.024535316744171514","878"
"21:36:9:696 (H:m:s:ms)","GENERIC","62.035","0.009192528286497515","336"
"21:3:32:121 (H:m:s:ms)","GENERIC","62.059","0.024535316744171514","879"
"21:23:32:658 (H:m:s:ms)","OPERA","62.013","0.03030147483295971","341"
"21:36:3:636 (H:m:s:ms)","GENERIC","62.123","0.024535316744171514","363"
"21:3:38:181 (H:m:s:ms)","GENERIC","62.061","0.016867204163644102","818"
"21:23:38:181 (H:m:s:ms)","GENERIC","62.101","0.024856305228882943","818"
"21:35:57:575 (H:m:s:ms)","GENERIC","62.093","0.009192528286497515","424"
"21:3:41:52 (H:m:s:ms)","AMBULANCE","31.037","0.020510747019947307","947"
"21:23:40:253 (H:m:s:ms)","OPERA","62.011","0.025540199341053005","746"
"21:35:51:515 (H:m:s:ms)","GENERIC","62.083","0.014540641502746176","484"
"21:3:44:242 (H:m:s:ms)","GENERIC","62.125","0.027157973115966565","757"
"21:23:44:242 (H:m:s:ms)","GENERIC","62.097","0.025345694905851975","757"
"21:3:50:303 (H:m:s:ms)","GENERIC","62.099","0.024535316744171514","696"
"21:23:47:848 (H:m:s:ms)","OPERA","62.015","0.025345694905851975","151"
"21:3:56:363 (H:m:s:ms)","GENERIC","62.043","0.024856305228882943","636"
"21:23:50:303 (H:m:s:ms)","GENERIC","62.099","0.025228362087420176","696"
"21:4:2:424 (H:m:s:ms)","GENERIC","62.115","0.01639049829637533","575"
"21:23:55:443 (H:m:s:ms)","OPERA","31.009","0.03018247699836974","556"
"21:4:8:484 (H:m:s:ms)","GENERIC","62.101","0.01657087015258844","515"
"21:23:56:363 (H:m:s:ms)","GENERIC","62.059","0.03018247699836974","636"
"21:4:12:631 (H:m:s:ms)","AMBULANCE","31.056","0.020549501461478072","368"
"21:4:14:545 (H:m:s:ms)","GENERIC","62.135","0.027369086868483446","454"
"21:37:40:606 (H:m:s:ms)","GENERIC","62.097","0.01639049829637533","393"
"21:37:34:545 (H:m:s:ms)","GENERIC","62.087","0.008636766618008756","454"
"21:37:28:484 (H:m:s:ms)","GENERIC","62.059","0.009192528286497515","515"
"21:37:22:424 (H:m:s:ms)","GENERIC","62.113","0.019775674263721434","575"
"21:37:22:105 (H:m:s:ms)","AMBULANCE","62.161","0.009192528286497515","894"
"21:37:16:363 (H:m:s:ms)","GENERIC","62.043","0.024535316744171514","636"
"21:24:2:424 (H:m:s:ms)","GENERIC","62.089","0.01639049829637533","575"
"21:24:3:37 (H:m:s:ms)","OPERA","62.015","0.024054191954766737","962"
"21:37:10:303 (H:m:s:ms)","GENERIC","62.057","0.01657087015258844","697"
"21:4:20:606 (H:m:s:ms)","GENERIC","62.111","0.024535316744171514","393"
"21:24:8:484 (H:m:s:ms)","GENERIC","62.133","0.019482292390007084","515"
"21:37:4:242 (H:m:s:ms)","GENERIC","62.049","0.00828543507629422","758"
"21:4:26:666 (H:m:s:ms)","GENERIC","62.125","0.01639049829637533","333"
"21:24:10:632 (H:m:s:ms)","OPERA","62.015","0.010396533910280658","367"
"21:36:58:181 (H:m:s:ms)","GENERIC","62.079","0.01639049829637533","818"
"21:4:32:727 (H:m:s:ms)","GENERIC","62.095","0.01639049829637533","272"
"21:24:14:545 (H:m:s:ms)","GENERIC","62.131","0.017711354701789434","455"
"21:36:52:121 (H:m:s:ms)","GENERIC","62.159","0.03044323953517493","878"
"21:4:38:787 (H:m:s:ms)","GENERIC","62.087","0.016867204163644102","212"
"21:24:18:227 (H:m:s:ms)","OPERA","62.013","0.017589469548137393","772"
"21:36:50:526 (H:m:s:ms)","AMBULANCE","62.057","0.019482292390007084","473"
"21:4:44:210 (H:m:s:ms)","AMBULANCE","31.026","0.024656177135705507","790"
"21:24:20:606 (H:m:s:ms)","GENERIC","62.091","0.01786860294217335","393"
"21:4:44:848 (H:m:s:ms)","GENERIC","62.045","0.02747686844480861","152"
"21:24:25:822 (H:m:s:ms)","OPERA","62.013","0.02452728913686204","177"
"21:4:50:909 (H:m:s:ms)","GENERIC","62.049","0.01657087015258844","1090"
"21:24:26:666 (H:m:s:ms)","GENERIC","62.151","0.03030147483295971","333"
"21:4:56:969 (H:m:s:ms)","GENERIC","62.105","0.024656177135705507","1031"
"21:24:32:727 (H:m:s:ms)","GENERIC","62.067","0.01657087015258844","272"
"21:5:3:30 (H:m:s:ms)","GENERIC","62.065","0.00828543507629422","969"
"21:5:9:90 (H:m:s:ms)","GENERIC","62.121","0.01657087015258844","954"
"21:38:35:151 (H:m:s:ms)","GENERIC","62.051","0.01639049829637533","849"
"21:38:29:90 (H:m:s:ms)","GENERIC","62.069","0.010677574978910448","944"
"21:38:25:263 (H:m:s:ms)","AMBULANCE","62.091","0.010396533910280658","736"
"21:38:23:30 (H:m:s:ms)","GENERIC","62.087","0.00828543507629422","969"
"21:38:16:969 (H:m:s:ms)","GENERIC","62.081","0.00828543507629422","1030"
"21:38:10:909 (H:m:s:ms)","GENERIC","62.021","0.00828543507629422","1090"
"21:38:4:848 (H:m:s:ms)","GENERIC","62.051","0.01639049829637533","151"
"21:24:33:417 (H:m:s:ms)","OPERA","31.009","0.024087843288506706","582"
"21:24:38:787 (H:m:s:ms)","GENERIC","62.055","0.030110927664312507","212"
"21:5:15:151 (H:m:s:ms)","GENERIC","62.077","0.024856305228882943","849"
"21:24:44:848 (H:m:s:ms)","GENERIC","62.015","0.009192528286497515","151"
"21:5:15:789 (H:m:s:ms)","AMBULANCE","31.022","0.030372676760078373","211"
"21:24:48:607 (H:m:s:ms)","OPERA","62.013","0.015020623397695953","392"
"21:37:58:787 (H:m:s:ms)","GENERIC","62.057","0.02429242117228851","212"
"20:45:41:772 (H:m:s:ms)","OPERA","31.008","0.014540641502746176","227"
"21:5:21:212 (H:m:s:ms)","GENERIC","62.021","0.024856305228882943","787"
"21:24:50:909 (H:m:s:ms)","GENERIC","62.033","0.02752595815513313","1090"
"21:37:53:684 (H:m:s:ms)","AMBULANCE","62.123","0.030110927664312507","315"
"20:45:45:454 (H:m:s:ms)","GENERIC","62.081","0.020121113650827898","545"
"21:5:27:272 (H:m:s:ms)","GENERIC","62.097","0.024535316744171514","727"
"21:24:56:202 (H:m:s:ms)","OPERA","62.011","0.02752595815513313","797"
"21:37:52:727 (H:m:s:ms)","GENERIC","62.043","0.024535316744171514","272"
"20:45:49:367 (H:m:s:ms)","OPERA","31.008","0.017543357583141257","671"
"21:5:33:333 (H:m:s:ms)","GENERIC","62.065","0.00828543507629422","666"
"21:24:56:969 (H:m:s:ms)","GENERIC","62.109","0.014687848777105876","1030"
"21:37:46:666 (H:m:s:ms)","GENERIC","62.065","0.01639049829637533","333"
"20:45:51:515 (H:m:s:ms)","GENERIC","62.063","0.025624073099422686","484"
"21:5:39:393 (H:m:s:ms)","GENERIC","62.075","0.016867204163644102","642"
"21:25:3:30 (H:m:s:ms)","GENERIC","62.059","0.01657087015258844","970"
"20:45:56:962 (H:m:s:ms)","OPERA","31.008","0.024656177135705507","1037"
"21:5:45:454 (H:m:s:ms)","GENERIC","62.079","0.024656177135705507","545"
"21:25:3:797 (H:m:s:ms)","OPERA","62.013","0.024087843288506706","203"
"20:45:57:575 (H:m:s:ms)","GENERIC","62.163","0.03039886117227448","424"
"21:5:47:368 (H:m:s:ms)","AMBULANCE","31.047","0.027267003876739256","631"
"21:25:9:90 (H:m:s:ms)","GENERIC","62.123","0.024656177135705507","945"
"20:46:3:636 (H:m:s:ms)","GENERIC","62.117","0.008636766618008756","363"
"21:5:51:515 (H:m:s:ms)","GENERIC","62.081","0.014540641502746176","484"
"20:46:4:556 (H:m:s:ms)","OPERA","31.008","0.019633705886876445","444"
"21:5:57:575 (H:m:s:ms)","GENERIC","62.143","0.008636766618008756","424"
"20:46:9:696 (H:m:s:ms)","GENERIC","62.067","0.03044323953517493","342"
"20:46:12:151 (H:m:s:ms)","OPERA","31.009","0.02744789668689219","849"
"21:39:29:696 (H:m:s:ms)","GENERIC","62.117","0.03056085207522173","338"
"21:39:28:421 (H:m:s:ms)","AMBULANCE","62.065","0.03056085207522173","578"
"21:39:23:636 (H:m:s:ms)","GENERIC","62.117","0.024856305228882943","363"
"21:39:17:575 (H:m:s:ms)","GENERIC","62.045","0.00828543507629422","424"
"21:39:11:515 (H:m:s:ms)","GENERIC","62.121","0.016867204163644102","484"
"21:39:5:454 (H:m:s:ms)","GENERIC","62.051","0.024856305228882943","545"
"21:38:59:393 (H:m:s:ms)","GENERIC","62.063","0.02037390138348151","642"
"21:38:56:842 (H:m:s:ms)","AMBULANCE","62.073","0.014484826944651143","157"
"21:25:11:392 (H:m:s:ms)","OPERA","31.009","0.03020930256480628","607"
"21:25:15:151 (H:m:s:ms)","GENERIC","62.055","0.019775674263721434","848"
"21:6:3:636 (H:m:s:ms)","GENERIC","62.111","0.00828543507629422","363"
"21:25:18:987 (H:m:s:ms)","OPERA","62.015","0.020063486201958865","1048"
"21:6:9:696 (H:m:s:ms)","GENERIC","62.037","0.009192528286497515","339"
"21:25:21:212 (H:m:s:ms)","GENERIC","62.031","0.019666142887335588","787"
"20:46:15:757 (H:m:s:ms)","GENERIC","62.133","0.027157973115966565","242"
"21:6:15:757 (H:m:s:ms)","GENERIC","62.123","0.016867204163644102","242"
"21:25:26:582 (H:m:s:ms)","OPERA","62.013","0.019666142887335588","417"
"20:46:19:746 (H:m:s:ms)","OPERA","31.009","0.027237280641048234","293"
"21:6:18:947 (H:m:s:ms)","AMBULANCE","31.035","0.01786860294217335","1088"
"21:25:27:272 (H:m:s:ms)","GENERIC","62.133","0.03039886117227448","727"
"21:38:53:333 (H:m:s:ms)","GENERIC","62.065","0.00828543507629422","666"
"20:46:21:818 (H:m:s:ms)","GENERIC","62.079","0.015020623397695953","181"
"21:6:21:818 (H:m:s:ms)","GENERIC","62.055","0.010936429635063812","181"
"21:25:33:333 (H:m:s:ms)","GENERIC","62.079","0.008636766618008756","666"
"21:38:47:272 (H:m:s:ms)","GENERIC","62.053","0.024535316744171514","727"
"20:46:27:341 (H:m:s:ms)","OPERA","31.008","0.01639049829637533","658"
"21:6:27:878 (H:m:s:ms)","GENERIC","62.067","0.024535316744171514","1121"
"21:25:34:177 (H:m:s:ms)","OPERA","62.013","0.010677574978910448","822"
"21:38:41:212 (H:m:s:ms)","GENERIC","62.121","0.016867204163644102","787"
"20:46:27:878 (H:m:s:ms)","GENERIC","62.035","0.020228029254012632","1121"
"21:6:33:939 (H:m:s:ms)","GENERIC","62.053","0.00828543507629422","1060"
"21:25:39:393 (H:m:s:ms)","GENERIC","62.045","0.017711354701789434","641"
"20:46:33:939 (H:m:s:ms)","GENERIC","62.063","0.024535316744171514","1060"
"21:6:40:0 (H:m:s:ms)","GENERIC","62.021","0.009192528286497515","1036"
"21:25:41:772 (H:m:s:ms)","OPERA","62.011","0.017589469548137393","227"
"20:46:34:936 (H:m:s:ms)","OPERA","31.007","0.025228362087420176","1064"
"21:6:46:60 (H:m:s:ms)","GENERIC","62.105","0.01657087015258844","939"
"20:46:40:0 (H:m:s:ms)","GENERIC","62.021","0.01786860294217335","1040"
"21:6:50:526 (H:m:s:ms)","AMBULANCE","31.032","0.017913074501716846","473"
"20:46:42:531 (H:m:s:ms)","OPERA","31.008","0.020788384480465452","468"
"20:46:46:60 (H:m:s:ms)","GENERIC","62.109","0.02747686844480861","940"
"21:39:47:878 (H:m:s:ms)","GENERIC","62.061","0.024856305228882943","1121"
"21:40:24:242 (H:m:s:ms)","GENERIC","62.085","0.024856305228882943","757"
"21:40:18:181 (H:m:s:ms)","GENERIC","62.123","0.01639049829637533","818"
"21:40:12:121 (H:m:s:ms)","GENERIC","62.085","0.009192528286497515","878"
"21:40:6:60 (H:m:s:ms)","GENERIC","62.067","0.024535316744171514","939"
"21:40:0:0 (H:m:s:ms)","GENERIC","62.159","0.030416679737419905","2203"
"21:40:0:0 (H:m:s:ms)","GENERIC","62.089","0.027237280641048234","2203"
"21:40:0:0 (H:m:s:ms)","AMBULANCE","62.059","0.024535316744171514","2203"
"21:39:53:939 (H:m:s:ms)","GENERIC","62.025","0.01657087015258844","1061"
"21:6:52:121 (H:m:s:ms)","GENERIC","62.119","0.01144865403242152","878"
"21:6:58:181 (H:m:s:ms)","GENERIC","62.013","0.00828543507629422","818"
"20:46:50:126 (H:m:s:ms)","OPERA","31.008","0.030280432755159847","873"
"21:7:4:242 (H:m:s:ms)","GENERIC","62.081","0.01639049829637533","757"
"20:46:52:121 (H:m:s:ms)","GENERIC","62.091","0.024054191954766737","878"
"21:7:10:303 (H:m:s:ms)","GENERIC","62.037","0.024856305228882943","696"
"20:46:57:721 (H:m:s:ms)","OPERA","31.009","0.017747305558459627","278"
"21:7:16:363 (H:m:s:ms)","GENERIC","62.093","0.024535316744171514","636"
"20:46:58:181 (H:m:s:ms)","GENERIC","62.047","0.017913074501716846","818"
"21:7:22:105 (H:m:s:ms)","AMBULANCE","31.053","0.016867204163644102","894"
"21:39:41:818 (H:m:s:ms)","GENERIC","62.129","0.01639049829637533","181"
"20:47:4:242 (H:m:s:ms)","GENERIC","62.087","0.01639049829637533","757"
"21:7:22:424 (H:m:s:ms)","GENERIC","62.139","0.02429242117228851","575"
"21:39:35:757 (H:m:s:ms)","GENERIC","62.047","0.009192528286497515","242"
"20:47:5:316 (H:m:s:ms)","OPERA","31.009","0.02396435264398157","683"
"21:7:28:484 (H:m:s:ms)","GENERIC","62.113","0.009192528286497515","515"
"20:47:10:303 (H:m:s:ms)","GENERIC","62.027","0.024087843288506706","696"
"21:7:34:545 (H:m:s:ms)","GENERIC","62.089","0.009192528286497515","455"
"20:47:12:911 (H:m:s:ms)","OPERA","31.008","0.0202680342213073","1088"
"21:7:40:606 (H:m:s:ms)","GENERIC","62.129","0.016867204163644102","393"
"20:47:16:363 (H:m:s:ms)","GENERIC","62.085","0.02744789668689219","636"
"20:47:20:506 (H:m:s:ms)","OPERA","31.009","0.030372676760078373","493"
"21:7:46:666 (H:m:s:ms)","GENERIC","62.083","0.024656177135705507","333"
"21:7:52:727 (H:m:s:ms)","GENERIC","62.065","0.024856305228882943","272"
"20:47:22:424 (H:m:s:ms)","GENERIC","62.127","0.019775674263721434","575"
"21:7:53:684 (H:m:s:ms)","AMBULANCE","31.059","0.02744789668689219","315"
"20:47:28:101 (H:m:s:ms)","OPERA","31.009","0.01639049829637533","898"
"21:7:58:787 (H:m:s:ms)","GENERIC","62.069","0.020121113650827898","212"
"20:47:28:484 (H:m:s:ms)","GENERIC","62.121","0.017543357583141257","515"
"21:8:4:848 (H:m:s:ms)","GENERIC","62.045","0.009192528286497515","151"
"20:47:34:545 (H:m:s:ms)","GENERIC","62.077","0.01657087015258844","455"
"21:8:10:909 (H:m:s:ms)","GENERIC","62.047","0.016867204163644102","1090"
"20:47:35:696 (H:m:s:ms)","OPERA","31.009","0.024325151457100184","303"
"21:8:16:969 (H:m:s:ms)","GENERIC","62.083","0.008636766618008756","1030"
"20:47:40:606 (H:m:s:ms)","GENERIC","62.131","0.020063486201958865","393"
"21:8:23:30 (H:m:s:ms)","GENERIC","62.107","0.01639049829637533","969"
"21:40:30:303 (H:m:s:ms)","GENERIC","62.081","0.024535316744171514","696"
"20:47:43:291 (H:m:s:ms)","OPERA","31.008","0.020063486201958865","708"
"21:8:25:263 (H:m:s:ms)","AMBULANCE","31.07","0.024203338817033838","736"
"20:47:46:666 (H:m:s:ms)","GENERIC","62.091","0.03030147483295971","333"
"21:8:29:90 (H:m:s:ms)","GENERIC","62.051","0.019666142887335588","945"
"20:47:50:886 (H:m:s:ms)","OPERA","31.008","0.02545548400366825","113"
"20:47:52:727 (H:m:s:ms)","GENERIC","62.059","0.025571332569495404","272"
"21:8:35:151 (H:m:s:ms)","GENERIC","62.049","0.008636766618008756","849"
"21:8:41:212 (H:m:s:ms)","GENERIC","62.093","0.00828543507629422","787"
"20:47:58:481 (H:m:s:ms)","OPERA","31.009","0.01639049829637533","518"
"21:8:47:272 (H:m:s:ms)","GENERIC","62.059","0.024535316744171514","727"
"20:47:58:787 (H:m:s:ms)","GENERIC","62.067","0.017747305558459627","212"
"21:8:53:333 (H:m:s:ms)","GENERIC","62.075","0.024535316744171514","666"
"20:30:0:0 (H:m:s:ms)","GENERIC","62.125","0.00828543507629422","1035"
"20:48:4:848 (H:m:s:ms)","GENERIC","62.065","0.01657087015258844","151"
"21:8:56:842 (H:m:s:ms)","AMBULANCE","31.026","0.027237280641048234","157"
"20:30:0:0 (H:m:s:ms)","GENERIC","62.125","0.019666142887335588","1035"
"20:48:6:75 (H:m:s:ms)","OPERA","31.008","0.024176989901131273","924"
"21:8:59:393 (H:m:s:ms)","GENERIC","62.061","0.027237280641048234","643"
"20:30:6:60 (H:m:s:ms)","GENERIC","62.115","0.009192528286497515","939"
"20:48:10:909 (H:m:s:ms)","GENERIC","62.021","0.024380587897663255","1090"
"21:9:5:454 (H:m:s:ms)","GENERIC","62.019","0.01639049829637533","546"
"20:30:12:121 (H:m:s:ms)","GENERIC","62.065","0.024656177135705507","878"
"20:48:13:670 (H:m:s:ms)","OPERA","31.009","0.02452728913686204","329"
"21:9:11:515 (H:m:s:ms)","GENERIC","62.083","0.024656177135705507","484"
"20:30:18:181 (H:m:s:ms)","GENERIC","62.103","0.01657087015258844","818"
"20:48:16:969 (H:m:s:ms)","GENERIC","62.101","0.03039886117227448","1030"
"21:9:17:575 (H:m:s:ms)","GENERIC","62.039","0.01639049829637533","424"
"20:30:24:242 (H:m:s:ms)","GENERIC","62.019","0.024856305228882943","757"
"20:48:21:265 (H:m:s:ms)","OPERA","31.008","0.02747686844480861","734"
"21:9:23:636 (H:m:s:ms)","GENERIC","62.123","0.016867204163644102","363"
"20:30:30:303 (H:m:s:ms)","GENERIC","62.013","0.01639049829637533","696"
"20:48:23:30 (H:m:s:ms)","GENERIC","62.121","0.020549501461478072","969"
"20:30:36:363 (H:m:s:ms)","GENERIC","62.047","0.016867204163644102","636"
"20:48:28:860 (H:m:s:ms)","OPERA","31.008","0.017589469548137393","139"
"20:30:42:424 (H:m:s:ms)","GENERIC","62.037","0.01639049829637533","575"
"20:30:48:484 (H:m:s:ms)","GENERIC","62.115","0.024656177135705507","515"
"21:9:28:421 (H:m:s:ms)","AMBULANCE","31.032","0.01786860294217335","578"
"21:9:29:696 (H:m:s:ms)","GENERIC","62.107","0.010474156817735183","340"
"20:48:29:90 (H:m:s:ms)","GENERIC","62.055","0.017589469548137393","945"
"21:9:35:757 (H:m:s:ms)","GENERIC","62.055","0.024856305228882943","242"
"20:48:35:151 (H:m:s:ms)","GENERIC","62.063","0.024656177135705507","848"
"21:9:41:818 (H:m:s:ms)","GENERIC","62.121","0.024856305228882943","181"
"20:30:54:545 (H:m:s:ms)","GENERIC","62.097","0.024656177135705507","455"
"20:48:36:455 (H:m:s:ms)","OPERA","31.009","0.02543043249038987","545"
"21:9:47:878 (H:m:s:ms)","GENERIC","62.071","0.024656177135705507","1121"
"20:31:0:606 (H:m:s:ms)","GENERIC","62.071","0.01639049829637533","394"
"20:48:41:212 (H:m:s:ms)","GENERIC","62.095","0.010396533910280658","787"
"21:9:53:939 (H:m:s:ms)","GENERIC","62.069","0.024656177135705507","1060"
"20:31:6:666 (H:m:s:ms)","GENERIC","62.053","0.024535316744171514","333"
"20:48:44:50 (H:m:s:ms)","OPERA","31.009","0.019666142887335588","950"
"21:10:0:0 (H:m:s:ms)","AMBULANCE","31.012","0.016867204163644102","1037"
"20:31:12:727 (H:m:s:ms)","GENERIC","62.037","0.024535316744171514","272"
"20:48:47:272 (H:m:s:ms)","GENERIC","62.059","0.03030147483295971","727"
"21:10:0:0 (H:m:s:ms)","GENERIC","62.105","0.02061509357582716","1037"
"20:31:18:787 (H:m:s:ms)","GENERIC","62.111","0.016867204163644102","212"
"20:48:51:645 (H:m:s:ms)","OPERA","31.009","0.025313715779506533","354"
"21:10:0:0 (H:m:s:ms)","GENERIC","62.143","0.034150945359194274","1037"
"20:31:24:848 (H:m:s:ms)","GENERIC","62.037","0.024656177135705507","151"
"20:48:53:333 (H:m:s:ms)","GENERIC","62.097","0.025313715779506533","666"
"21:10:6:60 (H:m:s:ms)","GENERIC","62.131","0.009192528286497515","939"
"20:31:30:909 (H:m:s:ms)","GENERIC","62.047","0.024535316744171514","1090"
"20:48:59:240 (H:m:s:ms)","OPERA","31.009","0.024656177135705507","798"
"20:31:36:969 (H:m:s:ms)","GENERIC","62.075","0.00828543507629422","1030"
"20:48:59:393 (H:m:s:ms)","GENERIC","62.043","0.025345694905851975","645"
"20:31:43:30 (H:m:s:ms)","GENERIC","62.085","0.024856305228882943","970"
"20:31:49:90 (H:m:s:ms)","GENERIC","62.043","0.024856305228882943","943"
"20:49:5:454 (H:m:s:ms)","GENERIC","62.017","0.00828543507629422","545"
"20:49:6:835 (H:m:s:ms)","OPERA","31.007","0.014731180228069438","164"
"20:31:55:151 (H:m:s:ms)","GENERIC","62.077","0.00828543507629422","848"
"20:49:11:515 (H:m:s:ms)","GENERIC","62.089","0.020405161768448764","484"
"20:32:1:212 (H:m:s:ms)","GENERIC","62.073","0.00828543507629422","787"
"20:49:14:430 (H:m:s:ms)","OPERA","31.008","0.020405161768448764","570"
"20:32:7:272 (H:m:s:ms)","GENERIC","62.101","0.024535316744171514","727"
"20:49:17:575 (H:m:s:ms)","GENERIC","62.039","0.027655979796884556","424"
"20:32:13:333 (H:m:s:ms)","GENERIC","62.127","0.008636766618008756","666"
"20:49:22:25 (H:m:s:ms)","OPERA","31.009","0.025624073099422686","974"
"20:32:19:393 (H:m:s:ms)","GENERIC","62.095","0.009192528286497515","639"
"20:49:23:636 (H:m:s:ms)","GENERIC","62.121","0.017543357583141257","363"
"20:32:25:454 (H:m:s:ms)","GENERIC","62.091","0.008636766618008756","545"
"20:49:29:620 (H:m:s:ms)","OPERA","31.009","0.01657087015258844","418"
"20:32:31:515 (H:m:s:ms)","GENERIC","62.053","0.016867204163644102","484"
"20:49:29:696 (H:m:s:ms)","GENERIC","62.129","0.017589469548137393","342"
"20:32:37:575 (H:m:s:ms)","GENERIC","62.073","0.008636766618008756","424"
"20:49:35:757 (H:m:s:ms)","GENERIC","62.015","0.008636766618008756","242"
"20:32:43:636 (H:m:s:ms)","GENERIC","62.045","0.008636766618008756","363"
"20:32:49:696 (H:m:s:ms)","GENERIC","62.105","0.00828543507629422","337"
"20:49:37:215 (H:m:s:ms)","OPERA","31.008","0.019523825456723914","784"
"20:49:41:818 (H:m:s:ms)","GENERIC","62.117","0.030372676760078373","181"
"20:32:55:757 (H:m:s:ms)","GENERIC","62.111","0.00828543507629422","242"
"20:49:44:810 (H:m:s:ms)","OPERA","31.009","0.02752595815513313","190"
"20:33:1:818 (H:m:s:ms)","GENERIC","62.083","0.01639049829637533","181"
"20:49:47:878 (H:m:s:ms)","GENERIC","62.065","0.014484826944651143","1121"
"20:33:7:878 (H:m:s:ms)","GENERIC","62.031","0.024535316744171514","1121"
"20:49:52:405 (H:m:s:ms)","OPERA","31.009","0.014731180228069438","594"
"20:33:13:939 (H:m:s:ms)","GENERIC","62.105","0.016867204163644102","1061"
"20:49:53:939 (H:m:s:ms)","GENERIC","62.027","0.027369086868483446","1060"
"20:33:20:0 (H:m:s:ms)","GENERIC","62.055","0.024656177135705507","1033"
"20:50:0:0 (H:m:s:ms)","OPERA","31.009","0.01639049829637533","1038"
"20:33:26:60 (H:m:s:ms)","GENERIC","62.089","0.024656177135705507","939"
"20:50:0:0 (H:m:s:ms)","GENERIC","62.123","0.020121113650827898","1038"
"20:33:32:121 (H:m:s:ms)","GENERIC","62.069","0.008636766618008756","879"
"20:50:0:0 (H:m:s:ms)","GENERIC","62.131","0.04549292762314051","1038"
"20:33:38:181 (H:m:s:ms)","GENERIC","62.041","0.01639049829637533","818"
"20:50:6:60 (H:m:s:ms)","GENERIC","62.095","0.00828543507629422","939"
"20:33:44:242 (H:m:s:ms)","GENERIC","62.129","0.01639049829637533","757"
"20:33:50:303 (H:m:s:ms)","GENERIC","62.089","0.01657087015258844","696"
"20:50:12:121 (H:m:s:ms)","GENERIC","62.053","0.01639049829637533","878"
"20:50:18:181 (H:m:s:ms)","GENERIC","62.119","0.009192528286497515","818"
"20:33:56:363 (H:m:s:ms)","GENERIC","62.021","0.01657087015258844","636"
"20:50:24:242 (H:m:s:ms)","GENERIC","62.033","0.008636766618008756","759"
"20:34:2:424 (H:m:s:ms)","GENERIC","62.121","0.016867204163644102","575"
"20:50:30:303 (H:m:s:ms)","GENERIC","62.041","0.009192528286497515","696"
"20:10:0:0 (H:m:s:ms)","GENERIC","31.067","0.008636766618008756","1001"
"20:34:8:484 (H:m:s:ms)","GENERIC","62.059","0.024535316744171514","516"
"20:50:36:363 (H:m:s:ms)","GENERIC","62.045","0.024856305228882943","636"
"20:10:0:0 (H:m:s:ms)","GENERIC","62.147","0.014930474018951648","1039"
"20:34:14:545 (H:m:s:ms)","GENERIC","62.109","0.01639049829637533","454"
"20:50:42:424 (H:m:s:ms)","GENERIC","62.067","0.00828543507629422","575"
"20:10:6:60 (H:m:s:ms)","GENERIC","62.157","0.01657087015258844","940"
"20:34:20:606 (H:m:s:ms)","GENERIC","62.165","0.009192528286497515","393"
"20:50:48:484 (H:m:s:ms)","GENERIC","62.075","0.01639049829637533","515"
"20:10:12:121 (H:m:s:ms)","GENERIC","62.083","0.008636766618008756","878"
"20:34:26:666 (H:m:s:ms)","GENERIC","62.123","0.024856305228882943","333"
"20:50:54:545 (H:m:s:ms)","GENERIC","62.083","0.008636766618008756","454"
"20:10:18:181 (H:m:s:ms)","GENERIC","62.077","0.009192528286497515","818"
"20:34:32:727 (H:m:s:ms)","GENERIC","62.085","0.00828543507629422","272"
"20:51:0:606 (H:m:s:ms)","GENERIC","62.089","0.00828543507629422","393"
"20:10:24:242 (H:m:s:ms)","GENERIC","62.039","0.01639049829637533","757"
"20:34:38:787 (H:m:s:ms)","GENERIC","62.133","0.024856305228882943","212"
"20:51:6:666 (H:m:s:ms)","GENERIC","62.027","0.009192528286497515","333"
"20:10:30:303 (H:m:s:ms)","GENERIC","62.029","0.008636766618008756","696"
"20:34:44:848 (H:m:s:ms)","GENERIC","62.049","0.01657087015258844","151"
"20:10:36:363 (H:m:s:ms)","GENERIC","62.021","0.00828543507629422","636"
"20:34:50:909 (H:m:s:ms)","GENERIC","62.025","0.024656177135705507","1090"
"20:10:42:424 (H:m:s:ms)","GENERIC","62.055","0.024535316744171514","575"
"20:10:48:484 (H:m:s:ms)","GENERIC","62.113","0.024535316744171514","515"
"20:51:12:727 (H:m:s:ms)","GENERIC","62.025","0.024856305228882943","272"
"20:51:18:787 (H:m:s:ms)","GENERIC","62.123","0.00828543507629422","212"
"20:34:56:969 (H:m:s:ms)","GENERIC","62.085","0.024856305228882943","1030"
"20:51:24:848 (H:m:s:ms)","GENERIC","62.069","0.024656177135705507","152"
"20:35:3:30 (H:m:s:ms)","GENERIC","62.065","0.016867204163644102","969"
"20:51:30:909 (H:m:s:ms)","GENERIC","62.049","0.01657087015258844","1090"
"20:10:54:545 (H:m:s:ms)","GENERIC","62.073","0.024656177135705507","454"
"20:35:9:90 (H:m:s:ms)","GENERIC","62.109","0.024656177135705507","944"
"20:51:36:969 (H:m:s:ms)","GENERIC","62.051","0.024656177135705507","1030"
"20:11:0:606 (H:m:s:ms)","GENERIC","62.047","0.024856305228882943","394"
"20:35:15:151 (H:m:s:ms)","GENERIC","62.059","0.01657087015258844","848"
"20:51:43:30 (H:m:s:ms)","GENERIC","62.091","0.01657087015258844","969"
"20:11:6:666 (H:m:s:ms)","GENERIC","62.087","0.024535316744171514","333"
"20:35:21:212 (H:m:s:ms)","GENERIC","62.063","0.024535316744171514","787"
"20:51:49:90 (H:m:s:ms)","GENERIC","62.019","0.024535316744171514","951"
"20:11:12:727 (H:m:s:ms)","GENERIC","62.055","0.024535316744171514","272"
"20:35:27:272 (H:m:s:ms)","GENERIC","62.045","0.01639049829637533","727"
"20:51:55:151 (H:m:s:ms)","GENERIC","62.063","0.024656177135705507","848"
"20:11:18:787 (H:m:s:ms)","GENERIC","62.095","0.01657087015258844","212"
"20:35:33:333 (H:m:s:ms)","GENERIC","62.077","0.016867204163644102","666"
"20:52:1:212 (H:m:s:ms)","GENERIC","62.103","0.024535316744171514","787"
"20:11:24:848 (H:m:s:ms)","GENERIC","62.029","0.024535316744171514","152"
"20:35:39:393 (H:m:s:ms)","GENERIC","62.095","0.024535316744171514","640"
"20:52:7:272 (H:m:s:ms)","GENERIC","62.089","0.01639049829637533","727"
"20:11:30:909 (H:m:s:ms)","GENERIC","62.081","0.024535316744171514","1090"
"20:35:45:454 (H:m:s:ms)","GENERIC","62.089","0.024856305228882943","545"
"20:11:36:969 (H:m:s:ms)","GENERIC","62.057","0.024856305228882943","1030"
"20:35:51:515 (H:m:s:ms)","GENERIC","62.061","0.009192528286497515","484"
"20:11:43:30 (H:m:s:ms)","GENERIC","62.089","0.024856305228882943","969"
"20:11:49:90 (H:m:s:ms)","GENERIC","62.081","0.024656177135705507","947"
"20:0:54:545 (H:m:s:ms)","GENERIC","31.046","0.024535316744171514","456"
"20:1:0:606 (H:m:s:ms)","GENERIC","31.03","0.024656177135705507","394"
"20:1:6:666 (H:m:s:ms)","GENERIC","31.039","0.016867204163644102","334"
"20:1:12:727 (H:m:s:ms)","GENERIC","31.039","0.016867204163644102","273"
"20:1:18:787 (H:m:s:ms)","GENERIC","31.049","0.01657087015258844","213"
"20:1:24:848 (H:m:s:ms)","GENERIC","31.022","0.01639049829637533","152"
"20:1:30:909 (H:m:s:ms)","GENERIC","31.038","0.024856305228882943","1091"
"20:1:36:969 (H:m:s:ms)","GENERIC","31.023","0.016867204163644102","1030"
"20:1:43:30 (H:m:s:ms)","GENERIC","31.038","0.009192528286497515","970"
"20:1:49:90 (H:m:s:ms)","GENERIC","31.04","0.024656177135705507","927"
"20:35:57:575 (H:m:s:ms)","GENERIC","62.171","0.024656177135705507","424"
"20:36:3:636 (H:m:s:ms)","GENERIC","62.123","0.01657087015258844","364"
"20:11:55:151 (H:m:s:ms)","GENERIC","62.113","0.008636766618008756","848"
"20:36:9:696 (H:m:s:ms)","GENERIC","62.083","0.01639049829637533","339"
"20:12:1:212 (H:m:s:ms)","GENERIC","62.103","0.01657087015258844","787"
"20:36:15:757 (H:m:s:ms)","GENERIC","62.127","0.024535316744171514","242"
"20:12:7:272 (H:m:s:ms)","GENERIC","62.109","0.024656177135705507","727"
"20:36:21:818 (H:m:s:ms)","GENERIC","62.083","0.016867204163644102","181"
"20:12:13:333 (H:m:s:ms)","GENERIC","62.139","0.024656177135705507","666"
"20:36:27:878 (H:m:s:ms)","GENERIC","62.033","0.01657087015258844","1121"
"20:12:19:393 (H:m:s:ms)","GENERIC","62.085","0.024656177135705507","643"
"20:36:33:939 (H:m:s:ms)","GENERIC","62.081","0.016867204163644102","1060"
"20:12:25:454 (H:m:s:ms)","GENERIC","62.087","0.00828543507629422","545"
"20:36:40:0 (H:m:s:ms)","GENERIC","62.021","0.009192528286497515","1036"
"20:12:31:515 (H:m:s:ms)","GENERIC","62.035","0.024856305228882943","485"
"20:36:46:60 (H:m:s:ms)","GENERIC","62.109","0.024856305228882943","940"
"20:12:37:575 (H:m:s:ms)","GENERIC","62.053","0.01657087015258844","425"
"20:36:52:121 (H:m:s:ms)","GENERIC","62.095","0.024535316744171514","878"
"20:12:43:636 (H:m:s:ms)","GENERIC","62.055","0.00828543507629422","364"
"20:12:49:696 (H:m:s:ms)","GENERIC","62.111","0.008636766618008756","340"
"20:1:55:151 (H:m:s:ms)","GENERIC","31.061","0.00828543507629422","849"
"20:2:1:212 (H:m:s:ms)","GENERIC","31.049","0.024856305228882943","788"
"20:2:7:272 (H:m:s:ms)","GENERIC","31.056","0.024856305228882943","727"
"20:2:13:333 (H:m:s:ms)","GENERIC","31.066","0.024856305228882943","666"
"20:2:19:393 (H:m:s:ms)","GENERIC","31.049","0.024856305228882943","621"
"20:2:25:454 (H:m:s:ms)","GENERIC","31.04","0.00828543507629422","546"
"20:2:31:515 (H:m:s:ms)","GENERIC","31.021","0.024856305228882943","484"
"20:2:37:575 (H:m:s:ms)","GENERIC","31.027","0.008636766618008756","424"
"20:2:43:636 (H:m:s:ms)","GENERIC","31.028","0.01657087015258844","363"
"20:2:49:696 (H:m:s:ms)","GENERIC","31.059","0.024656177135705507","319"
"20:36:58:181 (H:m:s:ms)","GENERIC","62.035","0.01639049829637533","818"
"20:37:4:242 (H:m:s:ms)","GENERIC","62.083","0.00828543507629422","757"
"20:12:55:757 (H:m:s:ms)","GENERIC","62.137","0.00828543507629422","242"
"20:37:10:303 (H:m:s:ms)","GENERIC","62.037","0.024656177135705507","696"
"20:13:1:818 (H:m:s:ms)","GENERIC","62.099","0.01639049829637533","181"
"20:37:16:363 (H:m:s:ms)","GENERIC","62.073","0.016867204163644102","636"
"20:13:7:878 (H:m:s:ms)","GENERIC","62.055","0.016867204163644102","1121"
"20:37:22:424 (H:m:s:ms)","GENERIC","62.137","0.00828543507629422","576"
"20:13:13:939 (H:m:s:ms)","GENERIC","62.079","0.01639049829637533","1060"
"20:37:28:484 (H:m:s:ms)","GENERIC","62.101","0.008636766618008756","515"
"20:13:20:0 (H:m:s:ms)","GENERIC","62.051","0.024535316744171514","1036"
"20:37:34:545 (H:m:s:ms)","GENERIC","62.085","0.024535316744171514","455"
"20:13:26:60 (H:m:s:ms)","GENERIC","62.077","0.008636766618008756","939"
"20:37:40:606 (H:m:s:ms)","GENERIC","62.119","0.024656177135705507","393"
"20:13:32:121 (H:m:s:ms)","GENERIC","62.059","0.024535316744171514","878"
"20:37:46:666 (H:m:s:ms)","GENERIC","62.089","0.024535316744171514","334"
"20:13:38:181 (H:m:s:ms)","GENERIC","62.063","0.01657087015258844","818"
"20:37:52:727 (H:m:s:ms)","GENERIC","62.045","0.024535316744171514","272"
"20:13:44:242 (H:m:s:ms)","GENERIC","62.113","0.024856305228882943","758"
"20:13:50:303 (H:m:s:ms)","GENERIC","62.077","0.024656177135705507","696"
"20:2:55:757 (H:m:s:ms)","GENERIC","31.061","0.024535316744171514","242"
"20:3:1:818 (H:m:s:ms)","GENERIC","31.053","0.024656177135705507","181"
"20:3:7:878 (H:m:s:ms)","GENERIC","31.032","0.01639049829637533","122"
"20:3:13:939 (H:m:s:ms)","GENERIC","31.048","0.024856305228882943","1060"
"20:3:20:0 (H:m:s:ms)","GENERIC","31.034","0.024656177135705507","1001"
"20:3:26:60 (H:m:s:ms)","GENERIC","31.049","0.009192528286497515","939"
"20:3:32:121 (H:m:s:ms)","GENERIC","31.036","0.024656177135705507","878"
"20:3:38:181 (H:m:s:ms)","GENERIC","31.042","0.016867204163644102","818"
"20:3:44:242 (H:m:s:ms)","GENERIC","31.06","0.016867204163644102","759"
"20:3:50:303 (H:m:s:ms)","GENERIC","31.047","0.01639049829637533","697"
"20:37:58:787 (H:m:s:ms)","GENERIC","62.055","0.024656177135705507","212"
"20:38:4:848 (H:m:s:ms)","GENERIC","62.067","0.009192528286497515","151"
"20:13:56:363 (H:m:s:ms)","GENERIC","62.051","0.024856305228882943","636"
"20:38:10:909 (H:m:s:ms)","GENERIC","62.037","0.024656177135705507","1090"
"20:14:2:424 (H:m:s:ms)","GENERIC","62.099","0.01639049829637533","576"
"20:38:16:969 (H:m:s:ms)","GENERIC","62.103","0.009192528286497515","1030"
"20:14:8:484 (H:m:s:ms)","GENERIC","62.097","0.00828543507629422","516"
"20:38:23:30 (H:m:s:ms)","GENERIC","62.103","0.00828543507629422","969"
"20:14:14:545 (H:m:s:ms)","GENERIC","62.097","0.024856305228882943","455"
"20:38:29:90 (H:m:s:ms)","GENERIC","62.069","0.01639049829637533","945"
"20:14:20:606 (H:m:s:ms)","GENERIC","62.203","0.00828543507629422","393"
"20:38:35:151 (H:m:s:ms)","GENERIC","62.075","0.008636766618008756","848"
"20:14:26:666 (H:m:s:ms)","GENERIC","62.157","0.01639049829637533","333"
"20:38:41:212 (H:m:s:ms)","GENERIC","62.091","0.024656177135705507","787"
"20:14:32:727 (H:m:s:ms)","GENERIC","62.059","0.024535316744171514","273"
"20:38:47:272 (H:m:s:ms)","GENERIC","62.059","0.009192528286497515","727"
"20:14:38:787 (H:m:s:ms)","GENERIC","62.093","0.01639049829637533","212"
"20:38:53:333 (H:m:s:ms)","GENERIC","62.103","0.01657087015258844","666"
"20:14:44:848 (H:m:s:ms)","GENERIC","62.077","0.009192528286497515","151"
"20:14:50:909 (H:m:s:ms)","GENERIC","62.035","0.016867204163644102","1091"
"20:3:56:363 (H:m:s:ms)","GENERIC","31.027","0.024535316744171514","636"
"20:4:2:424 (H:m:s:ms)","GENERIC","31.045","0.024535316744171514","576"
"20:4:8:484 (H:m:s:ms)","GENERIC","31.06","0.01639049829637533","515"
"20:4:14:545 (H:m:s:ms)","GENERIC","31.059","0.024535316744171514","455"
"20:4:20:606 (H:m:s:ms)","GENERIC","31.091","0.008636766618008756","394"
"20:4:26:666 (H:m:s:ms)","GENERIC","31.07","0.009192528286497515","334"
"20:4:32:727 (H:m:s:ms)","GENERIC","31.022","0.024535316744171514","273"
"20:4:38:787 (H:m:s:ms)","GENERIC","31.042","0.024535316744171514","213"
"20:4:44:848 (H:m:s:ms)","GENERIC","31.041","0.01639049829637533","152"
"20:4:50:909 (H:m:s:ms)","GENERIC","31.029","0.00828543507629422","1090"
"20:38:59:393 (H:m:s:ms)","GENERIC","62.035","0.024856305228882943","641"
"20:39:5:454 (H:m:s:ms)","GENERIC","62.027","0.00828543507629422","545"
"20:14:56:969 (H:m:s:ms)","GENERIC","62.111","0.01657087015258844","1030"
"20:39:11:515 (H:m:s:ms)","GENERIC","62.107","0.024535316744171514","484"
"20:15:3:30 (H:m:s:ms)","GENERIC","62.067","0.008636766618008756","969"
"20:39:17:575 (H:m:s:ms)","GENERIC","62.059","0.024656177135705507","424"
"20:15:9:90 (H:m:s:ms)","GENERIC","62.121","0.024856305228882943","945"
"20:39:23:636 (H:m:s:ms)","GENERIC","62.123","0.024856305228882943","364"
"20:15:15:151 (H:m:s:ms)","GENERIC","62.051","0.008636766618008756","848"
"20:39:29:696 (H:m:s:ms)","GENERIC","62.135","0.024856305228882943","339"
"20:15:21:212 (H:m:s:ms)","GENERIC","62.099","0.009192528286497515","787"
"20:39:35:757 (H:m:s:ms)","GENERIC","62.031","0.01657087015258844","242"
"20:15:27:272 (H:m:s:ms)","GENERIC","62.057","0.01657087015258844","728"
"20:39:41:818 (H:m:s:ms)","GENERIC","62.133","0.01639049829637533","181"
"20:15:33:333 (H:m:s:ms)","GENERIC","62.103","0.024656177135705507","666"
"20:39:47:878 (H:m:s:ms)","GENERIC","62.065","0.00828543507629422","1121"
"20:15:39:393 (H:m:s:ms)","GENERIC","62.111","0.01657087015258844","643"
"20:39:53:939 (H:m:s:ms)","GENERIC","62.023","0.024856305228882943","1061"
"20:15:45:454 (H:m:s:ms)","GENERIC","62.063","0.016867204163644102","545"
"20:15:51:515 (H:m:s:ms)","GENERIC","62.061","0.024656177135705507","484"
"20:4:56:969 (H:m:s:ms)","GENERIC","31.061","0.009192528286497515","1030"
"20:5:3:30 (H:m:s:ms)","GENERIC","31.031","0.024856305228882943","970"
"20:5:9:90 (H:m:s:ms)","GENERIC","31.065","0.024656177135705507","932"
"20:5:15:151 (H:m:s:ms)","GENERIC","31.033","0.00828543507629422","849"
"20:5:21:212 (H:m:s:ms)","GENERIC","31.058","0.01657087015258844","787"
"20:5:27:272 (H:m:s:ms)","GENERIC","31.038","0.016867204163644102","728"
"20:5:33:333 (H:m:s:ms)","GENERIC","31.06","0.00828543507629422","666"
"20:5:39:393 (H:m:s:ms)","GENERIC","31.059","0.01657087015258844","631"
"20:5:45:454 (H:m:s:ms)","GENERIC","31.029","0.024656177135705507","545"
"20:5:51:515 (H:m:s:ms)","GENERIC","31.034","0.008636766618008756","484"
"20:15:57:575 (H:m:s:ms)","GENERIC","62.159","0.024856305228882943","425"
"20:16:3:636 (H:m:s:ms)","GENERIC","62.105","0.01639049829637533","363"
"20:16:9:696 (H:m:s:ms)","GENERIC","62.095","0.008636766618008756","338"
"20:16:15:757 (H:m:s:ms)","GENERIC","62.135","0.009192528286497515","242"
"20:16:21:818 (H:m:s:ms)","GENERIC","62.057","0.008636766618008756","182"
"20:16:27:878 (H:m:s:ms)","GENERIC","62.065","0.01639049829637533","1121"
"20:16:33:939 (H:m:s:ms)","GENERIC","62.099","0.016867204163644102","1061"
"20:16:40:0 (H:m:s:ms)","GENERIC","62.059","0.024656177135705507","1036"
"20:16:46:60 (H:m:s:ms)","GENERIC","62.093","0.00828543507629422","939"
"20:16:52:121 (H:m:s:ms)","GENERIC","62.103","0.009192528286497515","878"
"20:5:57:575 (H:m:s:ms)","GENERIC","31.07","0.024535316744171514","424"
"20:6:3:636 (H:m:s:ms)","GENERIC","31.046","0.024656177135705507","364"
"20:6:9:696 (H:m:s:ms)","GENERIC","31.041","0.00828543507629422","329"
"20:6:15:757 (H:m:s:ms)","GENERIC","31.061","0.016867204163644102","243"
"20:6:21:818 (H:m:s:ms)","GENERIC","31.023","0.009192528286497515","181"
"20:6:27:878 (H:m:s:ms)","GENERIC","31.04","0.016867204163644102","121"
"20:6:33:939 (H:m:s:ms)","GENERIC","31.047","0.00828543507629422","1061"
"20:6:40:0 (H:m:s:ms)","GENERIC","31.041","0.01639049829637533","1000"
"20:6:46:60 (H:m:s:ms)","GENERIC","31.052","0.024856305228882943","939"
"20:6:52:121 (H:m:s:ms)","GENERIC","31.054","0.008636766618008756","878"
"20:16:58:181 (H:m:s:ms)","GENERIC","62.035","0.016867204163644102","818"
"20:17:4:242 (H:m:s:ms)","GENERIC","62.085","0.024535316744171514","758"
"20:17:10:303 (H:m:s:ms)","GENERIC","62.053","0.009192528286497515","696"
"20:17:16:363 (H:m:s:ms)","GENERIC","62.077","0.008636766618008756","636"
"20:17:22:424 (H:m:s:ms)","GENERIC","62.149","0.016867204163644102","575"
"20:17:28:484 (H:m:s:ms)","GENERIC","62.063","0.01639049829637533","515"
"20:17:34:545 (H:m:s:ms)","GENERIC","62.083","0.024656177135705507","455"
"20:17:40:606 (H:m:s:ms)","GENERIC","62.113","0.008636766618008756","393"
"20:17:46:666 (H:m:s:ms)","GENERIC","62.089","0.01657087015258844","333"
"20:17:52:727 (H:m:s:ms)","GENERIC","62.043","0.01639049829637533","272"
"20:6:58:181 (H:m:s:ms)","GENERIC","31.026","0.01639049829637533","818"
"20:7:4:242 (H:m:s:ms)","GENERIC","31.051","0.009192528286497515","757"
"20:7:10:303 (H:m:s:ms)","GENERIC","31.021","0.01639049829637533","696"
"20:7:16:363 (H:m:s:ms)","GENERIC","31.049","0.024856305228882943","637"
"20:7:22:424 (H:m:s:ms)","GENERIC","31.084","0.01639049829637533","575"
"20:7:28:484 (H:m:s:ms)","GENERIC","31.024","0.024535316744171514","515"
"20:7:34:545 (H:m:s:ms)","GENERIC","31.044","0.016867204163644102","455"
"20:7:40:606 (H:m:s:ms)","GENERIC","31.052","0.008636766618008756","394"
"20:7:46:666 (H:m:s:ms)","GENERIC","31.047","0.00828543507629422","334"
"20:7:52:727 (H:m:s:ms)","GENERIC","31.032","0.009192528286497515","273"
"20:17:58:787 (H:m:s:ms)","GENERIC","62.049","0.016867204163644102","212"
"20:18:4:848 (H:m:s:ms)","GENERIC","62.085","0.016867204163644102","151"
"20:18:10:909 (H:m:s:ms)","GENERIC","62.059","0.008636766618008756","1090"
"20:18:16:969 (H:m:s:ms)","GENERIC","62.103","0.024656177135705507","1030"
"20:18:23:30 (H:m:s:ms)","GENERIC","62.091","0.016867204163644102","970"
"20:18:29:90 (H:m:s:ms)","GENERIC","62.087","0.008636766618008756","945"
"20:18:35:151 (H:m:s:ms)","GENERIC","62.083","0.01639049829637533","848"
"20:18:41:212 (H:m:s:ms)","GENERIC","62.105","0.009192528286497515","787"
"20:18:47:272 (H:m:s:ms)","GENERIC","62.047","0.009192528286497515","727"
"20:18:53:333 (H:m:s:ms)","GENERIC","62.075","0.016867204163644102","666"
"20:7:58:787 (H:m:s:ms)","GENERIC","31.029","0.024856305228882943","213"
"20:8:4:848 (H:m:s:ms)","GENERIC","31.036","0.01639049829637533","152"
"20:8:10:909 (H:m:s:ms)","GENERIC","31.028","0.00828543507629422","1090"
"20:8:16:969 (H:m:s:ms)","GENERIC","31.053","0.016867204163644102","1030"
"20:8:23:30 (H:m:s:ms)","GENERIC","31.044","0.024656177135705507","970"
"20:8:29:90 (H:m:s:ms)","GENERIC","31.05","0.008636766618008756","941"
"20:8:35:151 (H:m:s:ms)","GENERIC","31.05","0.01657087015258844","849"
"20:8:41:212 (H:m:s:ms)","GENERIC","31.051","0.024656177135705507","787"
"20:8:47:272 (H:m:s:ms)","GENERIC","31.028","0.009192528286497515","728"
"20:8:53:333 (H:m:s:ms)","GENERIC","31.029","0.024535316744171514","667"
"20:18:59:393 (H:m:s:ms)","GENERIC","62.055","0.00828543507629422","642"
"20:19:5:454 (H:m:s:ms)","GENERIC","62.059","0.024535316744171514","545"
"20:19:11:515 (H:m:s:ms)","GENERIC","62.113","0.009192528286497515","484"
"20:19:17:575 (H:m:s:ms)","GENERIC","62.099","0.009192528286497515","424"
"20:19:23:636 (H:m:s:ms)","GENERIC","62.091","0.01639049829637533","363"
"20:19:29:696 (H:m:s:ms)","GENERIC","62.145","0.009192528286497515","338"
"20:19:35:757 (H:m:s:ms)","GENERIC","62.033","0.008636766618008756","242"
"20:19:41:818 (H:m:s:ms)","GENERIC","62.133","0.008636766618008756","181"
"20:19:47:878 (H:m:s:ms)","GENERIC","62.055","0.01639049829637533","1121"
"20:19:53:939 (H:m:s:ms)","GENERIC","62.045","0.009192528286497515","1061"
"20:8:59:393 (H:m:s:ms)","GENERIC","31.034","0.01657087015258844","642"
"20:9:5:454 (H:m:s:ms)","GENERIC","31.031","0.024856305228882943","545"
"20:9:11:515 (H:m:s:ms)","GENERIC","31.055","0.008636766618008756","484"
"20:9:17:575 (H:m:s:ms)","GENERIC","31.055","0.008636766618008756","424"
"20:9:23:636 (H:m:s:ms)","GENERIC","31.042","0.024656177135705507","364"
"20:9:29:696 (H:m:s:ms)","GENERIC","31.065","0.01639049829637533","339"
"20:9:35:757 (H:m:s:ms)","GENERIC","31.02","0.01639049829637533","242"
"20:9:41:818 (H:m:s:ms)","GENERIC","31.065","0.016867204163644102","182"
"20:9:47:878 (H:m:s:ms)","GENERIC","31.021","0.00828543507629422","121"
"20:9:53:939 (H:m:s:ms)","GENERIC","31.031","0.01639049829637533","1061"
"21:41:12:727 (H:m:s:ms)","GENERIC","62.095","0.024656177135705507","272"
"21:41:6:666 (H:m:s:ms)","GENERIC","62.085","0.01657087015258844","333"
"21:41:0:606 (H:m:s:ms)","GENERIC","62.089","0.016867204163644102","393"
"21:40:54:545 (H:m:s:ms)","GENERIC","62.127","0.009192528286497515","455"
"21:40:48:484 (H:m:s:ms)","GENERIC","62.043","0.009192528286497515","515"
"21:40:42:424 (H:m:s:ms)","GENERIC","62.039","0.009192528286497515","575"
"21:40:36:363 (H:m:s:ms)","GENERIC","62.021","0.024656177135705507","636"
"21:41:30:909 (H:m:s:ms)","GENERIC","62.059","0.01657087015258844","1090"
"21:41:24:848 (H:m:s:ms)","GENERIC","62.081","0.01639049829637533","152"
"21:41:18:787 (H:m:s:ms)","GENERIC","62.095","0.024656177135705507","212"
