"time (H:m:s:ms)","type","latency","utilisation","waiting"
"21:42:25:454 (H:m:s:ms)","GENERIC","62.125","0.013326505564128456","545"
"21:42:7:272 (H:m:s:ms)","GENERIC","62.087","0.027839978675241607","727"
"21:42:1:212 (H:m:s:ms)","GENERIC","62.121","0.020698802372531775","787"
"21:41:55:151 (H:m:s:ms)","GENERIC","62.085","0.024089524396800118","848"
"21:41:49:90 (H:m:s:ms)","GENERIC","62.073","0.019317564826177948","947"
"21:41:43:30 (H:m:s:ms)","GENERIC","62.111","0.02505338544764895","969"
"21:41:36:969 (H:m:s:ms)","GENERIC","62.099","0.03332746930879469","1030"
"21:41:30:909 (H:m:s:ms)","GENERIC","62.119","0.025172415836211437","1090"
"21:41:24:848 (H:m:s:ms)","GENERIC","62.095","0.02667084363029861","152"
"21:42:19:393 (H:m:s:ms)","GENERIC","62.127","0.01759084415619444","644"
"21:42:13:333 (H:m:s:ms)","GENERIC","62.073","0.03009660039205877","666"
"21:43:32:121 (H:m:s:ms)","GENERIC","62.147","0.020698802372531775","878"
"21:43:26:60 (H:m:s:ms)","GENERIC","62.087","0.027839978675241607","939"
"21:43:13:939 (H:m:s:ms)","GENERIC","62.051","0.017808616317600078","1061"
"20:0:0:0 (H:m:s:ms)","GENERIC","31.034","0.016924192648658954","1431"
"21:43:7:878 (H:m:s:ms)","GENERIC","62.073","0.010200319630727865","1122"
"20:0:6:60 (H:m:s:ms)","GENERIC","31.039","0.027286926813617586","939"
"21:43:1:818 (H:m:s:ms)","GENERIC","62.053","0.023637978560396615","181"
"20:0:12:121 (H:m:s:ms)","GENERIC","31.048","0.028525167374677748","879"
"21:42:55:757 (H:m:s:ms)","GENERIC","62.093","0.011782513154382395","242"
"20:0:18:181 (H:m:s:ms)","GENERIC","31.081","0.02019690138147509","819"
"21:42:49:696 (H:m:s:ms)","GENERIC","62.085","0.027607972737961825","354"
"20:0:24:242 (H:m:s:ms)","GENERIC","31.049","0.014148488305156146","759"
"21:42:43:636 (H:m:s:ms)","GENERIC","62.035","0.03009660039205877","363"
"20:0:30:303 (H:m:s:ms)","GENERIC","31.039","0.01877878368184401","696"
"21:42:37:575 (H:m:s:ms)","GENERIC","62.101","0.02892570753391548","425"
"20:0:36:363 (H:m:s:ms)","GENERIC","31.065","0.01683846542140446","637"
"21:42:31:515 (H:m:s:ms)","GENERIC","62.075","0.026573413794076385","485"
"20:0:42:424 (H:m:s:ms)","GENERIC","31.05","0.023195640308530274","575"
"21:10:18:181 (H:m:s:ms)","GENERIC","62.107","0.02261386949854734","818"
"20:0:48:484 (H:m:s:ms)","GENERIC","31.043","0.028525167374677748","515"
"21:10:24:242 (H:m:s:ms)","GENERIC","62.117","0.019317564826177948","757"
"21:10:30:303 (H:m:s:ms)","GENERIC","62.039","0.019317564826177948","696"
"21:10:36:363 (H:m:s:ms)","GENERIC","62.131","0.023177480895246964","636"
"21:10:42:424 (H:m:s:ms)","GENERIC","62.065","0.02272827914686813","575"
"21:10:48:484 (H:m:s:ms)","GENERIC","62.073","0.023659661692846147","515"
"21:10:54:545 (H:m:s:ms)","GENERIC","62.105","0.02038568531394672","455"
"21:11:0:606 (H:m:s:ms)","GENERIC","62.125","0.027607972737961825","393"
"21:43:20:0 (H:m:s:ms)","GENERIC","62.053","0.030223611555628232","1036"
"21:11:6:666 (H:m:s:ms)","GENERIC","62.065","0.03043568545972587","333"
"21:11:12:727 (H:m:s:ms)","GENERIC","62.065","0.029281612958248562","272"
"21:25:45:454 (H:m:s:ms)","GENERIC","62.145","0.057281920056077185","545"
"21:44:38:787 (H:m:s:ms)","GENERIC","62.063","0.02892570753391548","212"
"21:44:32:727 (H:m:s:ms)","GENERIC","62.097","0.02892570753391548","272"
"21:44:26:666 (H:m:s:ms)","GENERIC","62.109","0.02892570753391548","333"
"21:44:20:606 (H:m:s:ms)","GENERIC","62.075","0.026180718469365077","393"
"21:44:14:545 (H:m:s:ms)","GENERIC","62.099","0.02019690138147509","454"
"21:44:8:484 (H:m:s:ms)","GENERIC","62.085","0.024089524396800118","515"
"21:44:2:424 (H:m:s:ms)","GENERIC","62.067","0.024089524396800118","576"
"21:43:56:363 (H:m:s:ms)","GENERIC","62.109","0.028882707075298122","636"
"21:43:50:303 (H:m:s:ms)","GENERIC","62.087","0.03371244187953255","696"
"21:43:44:242 (H:m:s:ms)","GENERIC","62.065","0.03340520602854116","757"
"21:11:18:787 (H:m:s:ms)","GENERIC","62.045","0.02632843924933388","213"
"21:43:38:181 (H:m:s:ms)","GENERIC","62.057","0.028525167374677748","818"
"21:11:24:848 (H:m:s:ms)","GENERIC","62.111","0.01283291938333367","151"
"21:11:30:909 (H:m:s:ms)","GENERIC","62.105","0.017674270958156865","1090"
"21:11:36:969 (H:m:s:ms)","GENERIC","62.087","0.028126521345217686","1030"
"21:11:43:30 (H:m:s:ms)","GENERIC","62.101","0.03371244187953255","969"
"21:11:49:90 (H:m:s:ms)","GENERIC","62.123","0.03340520602854116","947"
"21:11:55:151 (H:m:s:ms)","GENERIC","62.091","0.028525167374677748","848"
"21:12:1:212 (H:m:s:ms)","GENERIC","62.103","0.02382101869623052","787"
"21:12:7:272 (H:m:s:ms)","GENERIC","62.045","0.022325489610129166","727"
"21:12:13:333 (H:m:s:ms)","GENERIC","62.087","0.01896107401204976","667"
"21:26:21:818 (H:m:s:ms)","GENERIC","62.121","0.04014962095342847","181"
"21:45:45:454 (H:m:s:ms)","GENERIC","62.111","0.01759084415619444","546"
"21:26:19:746 (H:m:s:ms)","OPERA","62.013","0.03731599078491568","289"
"21:45:39:393 (H:m:s:ms)","GENERIC","62.145","0.023909216355254566","643"
"21:45:33:333 (H:m:s:ms)","GENERIC","62.111","0.024795319486762096","666"
"21:45:27:272 (H:m:s:ms)","GENERIC","62.091","0.014856154131040673","727"
"21:26:12:151 (H:m:s:ms)","OPERA","62.011","0.03340520602854116","848"
"21:26:9:696 (H:m:s:ms)","GENERIC","62.095","0.035992395917716476","338"
"21:45:21:212 (H:m:s:ms)","GENERIC","62.149","0.01896107401204976","787"
"21:26:4:556 (H:m:s:ms)","OPERA","62.011","0.02900198643876801","444"
"21:45:15:151 (H:m:s:ms)","GENERIC","62.087","0.027286926813617586","848"
"21:26:3:636 (H:m:s:ms)","GENERIC","62.051","0.04302053552522589","363"
"21:45:9:90 (H:m:s:ms)","GENERIC","62.113","0.024640343507028706","946"
"21:25:57:575 (H:m:s:ms)","GENERIC","62.037","0.042276682612407156","424"
"21:45:3:30 (H:m:s:ms)","GENERIC","62.039","0.01877878368184401","969"
"21:25:56:962 (H:m:s:ms)","OPERA","62.013","0.03645433853175921","1037"
"21:44:56:969 (H:m:s:ms)","GENERIC","62.023","0.022151090099547566","1030"
"21:12:19:393 (H:m:s:ms)","GENERIC","62.097","0.026573413794076385","644"
"21:25:51:515 (H:m:s:ms)","GENERIC","62.163","0.028916463924879926","484"
"21:44:50:909 (H:m:s:ms)","GENERIC","62.047","0.016924192648658954","1090"
"21:12:25:454 (H:m:s:ms)","GENERIC","62.091","0.03301520724498934","545"
"21:25:49:367 (H:m:s:ms)","OPERA","62.013","0.01283291938333367","668"
"21:44:44:848 (H:m:s:ms)","GENERIC","62.089","0.01683846542140446","151"
"21:12:31:515 (H:m:s:ms)","GENERIC","62.109","0.03340520602854116","484"
"21:12:37:575 (H:m:s:ms)","GENERIC","62.117","0.02667084363029861","424"
"21:12:43:636 (H:m:s:ms)","GENERIC","62.093","0.02667084363029861","363"
"21:12:49:696 (H:m:s:ms)","GENERIC","62.045","0.03340520602854116","343"
"21:12:55:757 (H:m:s:ms)","GENERIC","62.131","0.02374745480472383","242"
"21:13:1:818 (H:m:s:ms)","GENERIC","62.097","0.023909216355254566","181"
"21:13:7:878 (H:m:s:ms)","GENERIC","62.079","0.017674270958156865","1121"
"21:13:13:939 (H:m:s:ms)","GENERIC","62.025","0.019097379583886884","1061"
"21:26:15:757 (H:m:s:ms)","GENERIC","62.045","0.04293286782075529","242"
"21:26:58:181 (H:m:s:ms)","GENERIC","62.051","0.03614804700148233","818"
"21:46:52:121 (H:m:s:ms)","GENERIC","62.149","0.014856154131040673","878"
"21:26:57:721 (H:m:s:ms)","OPERA","62.013","0.033268354141931154","278"
"21:46:46:60 (H:m:s:ms)","GENERIC","62.077","0.014856154131040673","939"
"21:26:52:121 (H:m:s:ms)","GENERIC","62.171","0.03250115282212081","878"
"21:46:40:0 (H:m:s:ms)","GENERIC","62.169","0.019317564826177948","1036"
"21:46:33:939 (H:m:s:ms)","GENERIC","62.117","0.019317564826177948","1060"
"21:46:27:878 (H:m:s:ms)","GENERIC","62.091","0.012136684708960769","1121"
"21:26:50:126 (H:m:s:ms)","OPERA","62.011","0.02417772854041459","873"
"21:26:46:60 (H:m:s:ms)","GENERIC","62.099","0.03546066792737559","939"
"21:26:42:531 (H:m:s:ms)","OPERA","62.011","0.02797576997728707","469"
"21:46:21:818 (H:m:s:ms)","GENERIC","62.131","0.02019690138147509","181"
"21:26:40:0 (H:m:s:ms)","GENERIC","62.127","0.031151490705890735","1034"
"21:46:15:757 (H:m:s:ms)","GENERIC","62.075","0.02382101869623052","242"
"21:26:34:936 (H:m:s:ms)","OPERA","62.011","0.018406684291076798","1064"
"21:46:9:696 (H:m:s:ms)","GENERIC","62.079","0.02382101869623052","341"
"21:13:20:0 (H:m:s:ms)","GENERIC","62.053","0.019097379583886884","1038"
"21:26:33:939 (H:m:s:ms)","GENERIC","62.103","0.022151090099547566","1061"
"21:46:3:636 (H:m:s:ms)","GENERIC","62.059","0.023659661692846147","363"
"21:13:26:60 (H:m:s:ms)","GENERIC","62.101","0.02272827914686813","939"
"21:26:27:878 (H:m:s:ms)","GENERIC","62.081","0.023659661692846147","1121"
"21:45:57:575 (H:m:s:ms)","GENERIC","62.069","0.02892570753391548","425"
"21:13:32:121 (H:m:s:ms)","GENERIC","62.159","0.01877878368184401","878"
"21:26:27:341 (H:m:s:ms)","OPERA","62.013","0.024089524396800118","658"
"21:45:51:515 (H:m:s:ms)","GENERIC","62.175","0.02892570753391548","484"
"21:13:38:181 (H:m:s:ms)","GENERIC","62.035","0.014416693852176123","818"
"21:13:44:242 (H:m:s:ms)","GENERIC","62.047","0.02038568531394672","758"
"21:13:50:303 (H:m:s:ms)","GENERIC","62.093","0.028659143637931893","696"
"21:13:56:363 (H:m:s:ms)","GENERIC","62.119","0.024795319486762096","636"
"21:14:2:424 (H:m:s:ms)","GENERIC","62.111","0.014148488305156146","575"
"21:14:8:484 (H:m:s:ms)","GENERIC","62.071","0.026180718469365077","515"
"21:14:14:545 (H:m:s:ms)","GENERIC","62.097","0.026180718469365077","454"
"21:27:35:696 (H:m:s:ms)","OPERA","62.013","0.04332008913810096","303"
"21:47:58:787 (H:m:s:ms)","GENERIC","62.087","0.012320195761372403","212"
"21:27:34:545 (H:m:s:ms)","GENERIC","62.087","0.03743264728304784","454"
"21:47:52:727 (H:m:s:ms)","GENERIC","62.097","0.01683846542140446","272"
"21:27:28:484 (H:m:s:ms)","GENERIC","62.051","0.05722167292577487","515"
"21:47:46:666 (H:m:s:ms)","GENERIC","62.045","0.02892570753391548","333"
"21:27:28:101 (H:m:s:ms)","OPERA","62.013","0.05678024975263983","898"
"21:47:40:606 (H:m:s:ms)","GENERIC","62.083","0.03301520724498934","393"
"21:47:34:545 (H:m:s:ms)","GENERIC","62.059","0.03340520602854116","455"
"21:47:28:484 (H:m:s:ms)","GENERIC","62.083","0.033520393894303425","515"
"21:27:22:424 (H:m:s:ms)","GENERIC","62.069","0.061700985665978286","575"
"21:27:20:506 (H:m:s:ms)","OPERA","62.013","0.02632843924933388","493"
"21:27:16:363 (H:m:s:ms)","GENERIC","62.127","0.032276976123325064","636"
"21:47:22:424 (H:m:s:ms)","GENERIC","62.095","0.033520393894303425","575"
"21:14:20:606 (H:m:s:ms)","GENERIC","62.077","0.027468869987566123","393"
"21:27:12:911 (H:m:s:ms)","OPERA","31.007","0.03136543285068682","1088"
"21:47:16:363 (H:m:s:ms)","GENERIC","62.097","0.02667084363029861","636"
"21:14:26:666 (H:m:s:ms)","GENERIC","62.049","0.03009660039205877","333"
"21:27:10:303 (H:m:s:ms)","GENERIC","62.061","0.029522236262068655","696"
"21:47:10:303 (H:m:s:ms)","GENERIC","62.045","0.027468869987566123","696"
"20:52:19:393 (H:m:s:ms)","GENERIC","62.055","0.01861619510869728","648"
"21:14:32:727 (H:m:s:ms)","GENERIC","62.111","0.01683846542140446","272"
"21:27:5:316 (H:m:s:ms)","OPERA","62.013","0.014148488305156146","683"
"21:47:4:242 (H:m:s:ms)","GENERIC","62.055","0.030223611555628232","757"
"20:52:25:454 (H:m:s:ms)","GENERIC","62.041","0.01896107401204976","545"
"21:14:38:787 (H:m:s:ms)","GENERIC","62.023","0.017067237957020018","212"
"21:27:4:242 (H:m:s:ms)","GENERIC","62.089","0.01877878368184401","757"
"21:46:58:181 (H:m:s:ms)","GENERIC","62.069","0.01898167687207122","818"
"20:52:31:515 (H:m:s:ms)","GENERIC","62.111","0.01896107401204976","484"
"21:14:44:848 (H:m:s:ms)","GENERIC","62.045","0.029501007673251988","151"
"20:52:37:575 (H:m:s:ms)","GENERIC","62.087","0.018406684291076798","424"
"21:14:50:909 (H:m:s:ms)","GENERIC","62.083","0.025172415836211437","1090"
"20:52:43:636 (H:m:s:ms)","GENERIC","62.131","0.019097379583886884","363"
"21:14:56:969 (H:m:s:ms)","GENERIC","62.043","0.026573413794076385","1030"
"20:52:49:696 (H:m:s:ms)","GENERIC","62.061","0.02272827914686813","347"
"21:15:3:30 (H:m:s:ms)","GENERIC","62.059","0.012320195761372403","969"
"20:52:55:757 (H:m:s:ms)","GENERIC","62.143","0.023659661692846147","242"
"21:15:9:90 (H:m:s:ms)","GENERIC","62.107","0.011782513154382395","947"
"20:53:1:818 (H:m:s:ms)","GENERIC","62.061","0.02019690138147509","182"
"21:15:15:151 (H:m:s:ms)","GENERIC","62.073","0.01283291938333367","848"
"20:53:7:878 (H:m:s:ms)","GENERIC","62.085","0.010200319630727865","1121"
"20:53:13:939 (H:m:s:ms)","GENERIC","62.063","0.017808616317600078","1060"
"21:28:13:670 (H:m:s:ms)","OPERA","62.013","0.027607972737961825","329"
"21:49:5:454 (H:m:s:ms)","GENERIC","62.107","0.027663923728039337","545"
"21:28:10:909 (H:m:s:ms)","GENERIC","62.109","0.019298158564770664","1090"
"21:48:59:393 (H:m:s:ms)","GENERIC","62.101","0.01861619510869728","644"
"21:28:6:75 (H:m:s:ms)","OPERA","62.011","0.019097379583886884","924"
"21:48:53:333 (H:m:s:ms)","GENERIC","62.139","0.01861619510869728","666"
"21:28:4:848 (H:m:s:ms)","GENERIC","62.111","0.0284977852431235","152"
"21:48:47:272 (H:m:s:ms)","GENERIC","62.085","0.018406684291076798","727"
"21:27:58:787 (H:m:s:ms)","GENERIC","62.089","0.02742869061157374","212"
"21:48:41:212 (H:m:s:ms)","GENERIC","62.017","0.01144862098680374","787"
"21:48:35:151 (H:m:s:ms)","GENERIC","62.073","0.01144862098680374","848"
"21:48:29:90 (H:m:s:ms)","GENERIC","62.105","0.014148488305156146","945"
"21:27:58:481 (H:m:s:ms)","OPERA","62.011","0.03496430584523589","518"
"21:15:21:212 (H:m:s:ms)","GENERIC","62.105","0.023909216355254566","787"
"21:27:52:727 (H:m:s:ms)","GENERIC","62.103","0.0569712513361703","272"
"21:15:27:272 (H:m:s:ms)","GENERIC","62.049","0.03313247052610638","727"
"21:27:50:886 (H:m:s:ms)","OPERA","62.013","0.052827101184935346","1113"
"21:48:23:30 (H:m:s:ms)","GENERIC","62.053","0.014148488305156146","969"
"20:53:20:0 (H:m:s:ms)","GENERIC","62.031","0.02382101869623052","1041"
"21:15:33:333 (H:m:s:ms)","GENERIC","62.179","0.029281612958248562","666"
"21:27:46:666 (H:m:s:ms)","GENERIC","62.055","0.052770817704320294","333"
"21:48:16:969 (H:m:s:ms)","GENERIC","62.109","0.027468869987566123","1030"
"20:53:26:60 (H:m:s:ms)","GENERIC","62.087","0.028525167374677748","939"
"21:15:39:393 (H:m:s:ms)","GENERIC","62.097","0.029281612958248562","643"
"21:27:43:291 (H:m:s:ms)","OPERA","62.011","0.01683846542140446","708"
"21:48:10:909 (H:m:s:ms)","GENERIC","62.119","0.026511406437235346","1090"
"20:53:32:121 (H:m:s:ms)","GENERIC","62.189","0.028525167374677748","878"
"21:15:45:454 (H:m:s:ms)","GENERIC","62.137","0.03313247052610638","545"
"21:27:40:606 (H:m:s:ms)","GENERIC","62.065","0.045559648075067974","393"
"21:48:4:848 (H:m:s:ms)","GENERIC","62.103","0.01962984601678365","152"
"20:53:38:181 (H:m:s:ms)","GENERIC","62.051","0.028525167374677748","818"
"21:15:51:515 (H:m:s:ms)","GENERIC","62.149","0.02789604402655295","484"
"20:53:44:242 (H:m:s:ms)","GENERIC","62.049","0.024640343507028706","757"
"21:15:57:575 (H:m:s:ms)","GENERIC","62.057","0.027757526102147663","424"
"20:53:50:303 (H:m:s:ms)","GENERIC","62.121","0.024640343507028706","696"
"21:16:3:636 (H:m:s:ms)","GENERIC","62.051","0.023195640308530274","363"
"20:53:56:363 (H:m:s:ms)","GENERIC","62.087","0.027286926813617586","636"
"21:16:9:696 (H:m:s:ms)","GENERIC","62.121","0.01144862098680374","340"
"20:54:2:424 (H:m:s:ms)","GENERIC","62.085","0.027663923728039337","575"
"21:16:15:757 (H:m:s:ms)","GENERIC","62.031","0.026180718469365077","242"
"20:54:8:484 (H:m:s:ms)","GENERIC","62.063","0.023637978560396615","515"
"20:54:14:545 (H:m:s:ms)","GENERIC","62.109","0.017067237957020018","455"
"21:28:51:645 (H:m:s:ms)","OPERA","62.013","0.01861619510869728","354"
"22:4:12:631 (H:m:s:ms)","AMBULANCE","62.061","0.016924192648658954","368"
"21:28:47:272 (H:m:s:ms)","GENERIC","62.099","0.02477637031646758","727"
"22:1:3:157 (H:m:s:ms)","AMBULANCE","62.049","0.01885821966830531","842"
"21:28:44:50 (H:m:s:ms)","OPERA","62.015","0.023554558098297367","950"
"21:50:0:0 (H:m:s:ms)","GENERIC","62.071","0.011782513154382395","1039"
"21:28:41:212 (H:m:s:ms)","GENERIC","62.039","0.035119665052611694","787"
"21:49:53:939 (H:m:s:ms)","GENERIC","62.147","0.014416693852176123","1060"
"21:28:36:455 (H:m:s:ms)","OPERA","31.008","0.027607972737961825","544"
"21:49:47:878 (H:m:s:ms)","GENERIC","62.089","0.012136684708960769","1121"
"21:28:35:151 (H:m:s:ms)","GENERIC","62.077","0.036524124311029076","848"
"21:49:41:818 (H:m:s:ms)","GENERIC","62.031","0.012320195761372403","181"
"21:49:35:757 (H:m:s:ms)","GENERIC","62.111","0.012320195761372403","242"
"21:49:29:696 (H:m:s:ms)","GENERIC","62.093","0.026573413794076385","341"
"21:16:21:818 (H:m:s:ms)","GENERIC","62.119","0.026180718469365077","181"
"21:16:27:878 (H:m:s:ms)","GENERIC","62.065","0.016924192648658954","1121"
"21:28:29:90 (H:m:s:ms)","GENERIC","62.117","0.02811711901966364","944"
"20:54:20:606 (H:m:s:ms)","GENERIC","62.077","0.02289724197360748","393"
"21:16:33:939 (H:m:s:ms)","GENERIC","62.099","0.022325489610129166","1060"
"21:28:28:860 (H:m:s:ms)","OPERA","31.007","0.012528958571212908","139"
"20:54:26:666 (H:m:s:ms)","GENERIC","62.011","0.02789604402655295","333"
"21:16:40:0 (H:m:s:ms)","GENERIC","62.103","0.02382101869623052","1037"
"21:28:23:30 (H:m:s:ms)","GENERIC","62.051","0.029867626831121315","969"
"21:49:23:636 (H:m:s:ms)","GENERIC","62.097","0.02892570753391548","364"
"20:54:32:727 (H:m:s:ms)","GENERIC","62.117","0.023362243536450552","272"
"21:16:46:60 (H:m:s:ms)","GENERIC","62.097","0.028525167374677748","939"
"21:28:21:265 (H:m:s:ms)","OPERA","62.015","0.02900198643876801","734"
"21:49:17:575 (H:m:s:ms)","GENERIC","62.073","0.02892570753391548","424"
"20:54:38:787 (H:m:s:ms)","GENERIC","62.037","0.023637978560396615","212"
"21:16:52:121 (H:m:s:ms)","GENERIC","62.151","0.023195640308530274","878"
"21:28:16:969 (H:m:s:ms)","GENERIC","62.103","0.038634472878482935","1030"
"21:49:11:515 (H:m:s:ms)","GENERIC","62.133","0.03332746930879469","484"
"20:54:44:848 (H:m:s:ms)","GENERIC","62.067","0.027663923728039337","151"
"21:16:58:181 (H:m:s:ms)","GENERIC","62.049","0.017067237957020018","818"
"20:54:50:909 (H:m:s:ms)","GENERIC","62.075","0.008837135479078433","1090"
"21:17:4:242 (H:m:s:ms)","GENERIC","62.083","0.02905947780107767","758"
"20:54:56:969 (H:m:s:ms)","GENERIC","62.031","0.023637978560396615","1030"
"21:17:10:303 (H:m:s:ms)","GENERIC","62.057","0.03301520724498934","696"
"20:55:3:30 (H:m:s:ms)","GENERIC","62.089","0.028126521345217686","969"
"21:17:16:363 (H:m:s:ms)","GENERIC","62.139","0.03301520724498934","636"
"20:55:9:90 (H:m:s:ms)","GENERIC","62.101","0.023177480895246964","951"
"20:55:15:151 (H:m:s:ms)","GENERIC","62.091","0.01816751897753508","848"
"21:29:29:620 (H:m:s:ms)","OPERA","62.015","0.02632843924933388","414"
"21:29:23:636 (H:m:s:ms)","GENERIC","62.101","0.05708213884674111","363"
"21:29:22:25 (H:m:s:ms)","OPERA","62.013","0.05659266957524071","974"
"21:29:17:575 (H:m:s:ms)","GENERIC","62.041","0.052770817704320294","424"
"21:29:14:430 (H:m:s:ms)","OPERA","62.011","0.01683846542140446","570"
"21:29:11:515 (H:m:s:ms)","GENERIC","62.153","0.05562820178474269","484"
"21:29:6:835 (H:m:s:ms)","OPERA","62.015","0.053829770839604135","164"
"21:17:22:424 (H:m:s:ms)","GENERIC","62.071","0.03301520724498934","575"
"21:17:28:484 (H:m:s:ms)","GENERIC","62.035","0.02374745480472383","515"
"20:55:21:212 (H:m:s:ms)","GENERIC","62.117","0.017808616317600078","787"
"21:17:34:545 (H:m:s:ms)","GENERIC","62.089","0.023909216355254566","455"
"20:55:27:272 (H:m:s:ms)","GENERIC","62.081","0.017067237957020018","727"
"21:17:40:606 (H:m:s:ms)","GENERIC","62.049","0.024795319486762096","393"
"21:29:5:454 (H:m:s:ms)","GENERIC","62.143","0.05356251637102119","545"
"20:55:33:333 (H:m:s:ms)","GENERIC","62.175","0.01683846542140446","666"
"21:17:46:666 (H:m:s:ms)","GENERIC","62.035","0.014856154131040673","333"
"21:28:59:393 (H:m:s:ms)","GENERIC","62.119","0.05415102816208133","643"
"20:55:39:393 (H:m:s:ms)","GENERIC","62.087","0.03009660039205877","649"
"21:17:52:727 (H:m:s:ms)","GENERIC","62.115","0.026573413794076385","272"
"21:28:59:240 (H:m:s:ms)","OPERA","62.011","0.05209627064435025","796"
"22:5:47:368 (H:m:s:ms)","AMBULANCE","62.021","0.025682719406725098","631"
"20:55:45:454 (H:m:s:ms)","GENERIC","62.097","0.03434586296041126","545"
"21:17:58:787 (H:m:s:ms)","GENERIC","62.077","0.026180718469365077","212"
"21:28:53:333 (H:m:s:ms)","GENERIC","62.151","0.05430220976489542","666"
"22:4:44:210 (H:m:s:ms)","AMBULANCE","62.113","0.012136684708960769","789"
"20:55:51:515 (H:m:s:ms)","GENERIC","62.159","0.028882707075298122","484"
"21:18:4:848 (H:m:s:ms)","GENERIC","62.127","0.012528958571212908","152"
"20:55:57:575 (H:m:s:ms)","GENERIC","62.059","0.020698802372531775","424"
"21:18:10:909 (H:m:s:ms)","GENERIC","62.093","0.008837135479078433","1090"
"20:56:3:636 (H:m:s:ms)","GENERIC","62.083","0.027054664064139058","363"
"21:18:16:969 (H:m:s:ms)","GENERIC","62.095","0.01144862098680374","1030"
"20:56:9:696 (H:m:s:ms)","GENERIC","62.095","0.033520393894303425","344"
"20:56:15:757 (H:m:s:ms)","GENERIC","62.037","0.0341580744269563","242"
"21:30:0:0 (H:m:s:ms)","GENERIC","62.047","0.038106573206688206","1036"
"21:30:0:0 (H:m:s:ms)","GENERIC","62.033","0.03517170968145139","1036"
"21:30:0:0 (H:m:s:ms)","OPERA","62.011","0.02797576997728707","1036"
"21:29:53:939 (H:m:s:ms)","GENERIC","62.137","0.036262178145209434","1060"
"21:29:52:405 (H:m:s:ms)","OPERA","62.011","0.026180718469365077","594"
"21:29:47:878 (H:m:s:ms)","GENERIC","62.049","0.012528958571212908","1121"
"21:29:44:810 (H:m:s:ms)","OPERA","62.015","0.03674880596833105","189"
"21:29:41:818 (H:m:s:ms)","GENERIC","62.039","0.04465244119170427","181"
"21:18:23:30 (H:m:s:ms)","GENERIC","62.069","0.027468869987566123","969"
"21:18:29:90 (H:m:s:ms)","GENERIC","62.119","0.03404574434861505","950"
"20:56:21:818 (H:m:s:ms)","GENERIC","62.109","0.027607972737961825","181"
"21:18:35:151 (H:m:s:ms)","GENERIC","62.083","0.02374745480472383","848"
"20:56:27:878 (H:m:s:ms)","GENERIC","62.053","0.025682719406725098","1121"
"21:18:41:212 (H:m:s:ms)","GENERIC","62.037","0.01816751897753508","788"
"20:40:0:0 (H:m:s:ms)","OPERA","31.008","0.02742869061157374","1465"
"20:56:33:939 (H:m:s:ms)","GENERIC","62.119","0.027054664064139058","1060"
"21:18:47:272 (H:m:s:ms)","GENERIC","62.097","0.023177480895246964","727"
"20:40:0:0 (H:m:s:ms)","GENERIC","62.035","0.044622997519281164","1465"
"20:56:40:0 (H:m:s:ms)","GENERIC","62.077","0.012320195761372403","1043"
"21:18:53:333 (H:m:s:ms)","GENERIC","62.155","0.019298158564770664","666"
"21:29:37:215 (H:m:s:ms)","OPERA","62.011","0.027468869987566123","784"
"20:40:0:0 (H:m:s:ms)","GENERIC","62.069","0.04944225387068492","1465"
"20:56:46:60 (H:m:s:ms)","GENERIC","62.091","0.017442769815797295","939"
"21:18:59:393 (H:m:s:ms)","GENERIC","62.119","0.02038568531394672","643"
"21:29:35:757 (H:m:s:ms)","GENERIC","62.085","0.036783792720963666","242"
"20:40:6:60 (H:m:s:ms)","GENERIC","62.063","0.0469730833089837","939"
"20:56:52:121 (H:m:s:ms)","GENERIC","62.111","0.01816751897753508","878"
"21:19:5:454 (H:m:s:ms)","GENERIC","62.153","0.028659143637931893","545"
"21:29:29:696 (H:m:s:ms)","GENERIC","62.095","0.03688750892060527","338"
"20:40:7:594 (H:m:s:ms)","OPERA","31.008","0.023177480895246964","406"
"20:56:58:181 (H:m:s:ms)","GENERIC","62.085","0.012528958571212908","818"
"21:19:11:515 (H:m:s:ms)","GENERIC","62.141","0.023362243536450552","484"
"20:40:12:121 (H:m:s:ms)","GENERIC","62.065","0.05508186582917613","878"
"20:57:4:242 (H:m:s:ms)","GENERIC","62.053","0.019097379583886884","758"
"21:19:17:575 (H:m:s:ms)","GENERIC","62.041","0.023637978560396615","424"
"20:40:15:189 (H:m:s:ms)","OPERA","31.009","0.05085820377245071","810"
"20:57:10:303 (H:m:s:ms)","GENERIC","62.047","0.01962984601678365","696"
"20:40:18:181 (H:m:s:ms)","GENERIC","62.091","0.052965646564323794","818"
"20:57:16:363 (H:m:s:ms)","GENERIC","62.131","0.026573413794076385","636"
"20:40:22:784 (H:m:s:ms)","OPERA","31.007","0.029281612958248562","215"
"20:40:24:242 (H:m:s:ms)","GENERIC","62.107","0.03902568365153183","757"
"21:30:12:121 (H:m:s:ms)","GENERIC","62.085","0.02900198643876801","878"
"21:30:54:545 (H:m:s:ms)","GENERIC","62.107","0.01861619510869728","455"
"21:30:48:484 (H:m:s:ms)","GENERIC","62.083","0.019298158564770664","515"
"21:30:42:424 (H:m:s:ms)","GENERIC","62.053","0.03236286063349084","575"
"21:30:36:363 (H:m:s:ms)","GENERIC","62.121","0.04272267527683265","636"
"21:30:31:578 (H:m:s:ms)","AMBULANCE","62.075","0.03313247052610638","421"
"21:30:30:303 (H:m:s:ms)","GENERIC","62.037","0.024795319486762096","696"
"21:30:24:242 (H:m:s:ms)","GENERIC","62.107","0.019317564826177948","757"
"21:19:23:636 (H:m:s:ms)","GENERIC","62.105","0.03434586296041126","364"
"21:30:18:181 (H:m:s:ms)","GENERIC","62.113","0.01816751897753508","818"
"21:19:29:696 (H:m:s:ms)","GENERIC","62.091","0.027607972737961825","339"
"20:57:22:424 (H:m:s:ms)","GENERIC","62.087","0.029281612958248562","575"
"21:19:35:757 (H:m:s:ms)","GENERIC","62.073","0.02632843924933388","242"
"20:57:28:484 (H:m:s:ms)","GENERIC","62.035","0.029281612958248562","515"
"21:19:41:818 (H:m:s:ms)","GENERIC","62.043","0.02892570753391548","181"
"20:40:30:303 (H:m:s:ms)","GENERIC","62.049","0.037039981819805765","696"
"20:57:34:545 (H:m:s:ms)","GENERIC","62.119","0.029281612958248562","455"
"21:19:47:878 (H:m:s:ms)","GENERIC","62.043","0.01885821966830531","1121"
"20:40:30:379 (H:m:s:ms)","OPERA","31.007","0.04293032101369889","620"
"20:57:40:606 (H:m:s:ms)","GENERIC","62.031","0.029281612958248562","393"
"21:19:53:939 (H:m:s:ms)","GENERIC","62.119","0.028882707075298122","1060"
"20:40:36:363 (H:m:s:ms)","GENERIC","62.123","0.04059163577148489","636"
"20:57:46:666 (H:m:s:ms)","GENERIC","62.017","0.03301520724498934","333"
"21:20:0:0 (H:m:s:ms)","GENERIC","62.015","0.02417772854041459","1467"
"20:40:37:974 (H:m:s:ms)","OPERA","31.007","0.03428887166257883","1025"
"20:57:52:727 (H:m:s:ms)","GENERIC","62.107","0.03404574434861505","272"
"21:20:0:0 (H:m:s:ms)","OPERA","62.015","0.055515557361781154","1467"
"21:30:6:60 (H:m:s:ms)","GENERIC","62.039","0.06406170397114917","939"
"20:40:42:424 (H:m:s:ms)","GENERIC","62.087","0.03501144167514401","576"
"20:57:58:787 (H:m:s:ms)","GENERIC","62.083","0.027468869987566123","212"
"21:20:0:0 (H:m:s:ms)","GENERIC","62.061","0.06299050210721913","1467"
"21:30:0:0 (H:m:s:ms)","AMBULANCE","62.069","0.06329704882464361","1036"
"20:40:45:569 (H:m:s:ms)","OPERA","31.007","0.026180718469365077","430"
"20:58:4:848 (H:m:s:ms)","GENERIC","62.127","0.014148488305156146","151"
"21:20:6:60 (H:m:s:ms)","GENERIC","62.057","0.060814395671115996","939"
"20:40:48:484 (H:m:s:ms)","GENERIC","62.073","0.05674479105767622","515"
"20:58:10:909 (H:m:s:ms)","GENERIC","62.081","0.017674270958156865","1090"
"20:40:53:164 (H:m:s:ms)","OPERA","31.008","0.056547655926244854","835"
"20:58:16:969 (H:m:s:ms)","GENERIC","62.075","0.02789604402655295","1030"
"20:40:54:545 (H:m:s:ms)","GENERIC","62.141","0.060420629113755515","454"
"20:41:0:606 (H:m:s:ms)","GENERIC","62.167","0.03313247052610638","393"
"21:31:6:666 (H:m:s:ms)","GENERIC","62.095","0.03846277042221348","333"
"21:31:3:157 (H:m:s:ms)","AMBULANCE","62.061","0.028525167374677748","842"
"21:31:49:90 (H:m:s:ms)","GENERIC","62.091","0.029501007673251988","943"
"21:31:43:30 (H:m:s:ms)","GENERIC","62.111","0.056547655926244854","969"
"21:31:36:969 (H:m:s:ms)","GENERIC","62.093","0.05215428592355851","1030"
"21:31:34:736 (H:m:s:ms)","AMBULANCE","62.097","0.013326505564128456","264"
"21:31:30:909 (H:m:s:ms)","GENERIC","62.119","0.010200319630727865","1090"
"21:31:24:848 (H:m:s:ms)","GENERIC","62.083","0.03332746930879469","151"
"21:31:18:787 (H:m:s:ms)","GENERIC","62.057","0.03434586296041126","212"
"21:31:12:727 (H:m:s:ms)","GENERIC","62.081","0.037039981819805765","272"
"20:58:23:30 (H:m:s:ms)","GENERIC","62.105","0.023362243536450552","969"
"20:58:29:90 (H:m:s:ms)","GENERIC","62.151","0.01683846542140446","953"
"20:41:0:759 (H:m:s:ms)","OPERA","31.008","0.04151660967402111","240"
"20:58:35:151 (H:m:s:ms)","GENERIC","62.097","0.029370060209630167","848"
"20:41:6:666 (H:m:s:ms)","GENERIC","62.049","0.036262178145209434","333"
"20:58:41:212 (H:m:s:ms)","GENERIC","62.033","0.033520393894303425","787"
"20:41:12:727 (H:m:s:ms)","GENERIC","62.029","0.026180718469365077","272"
"20:58:47:272 (H:m:s:ms)","GENERIC","62.107","0.033520393894303425","727"
"20:41:15:949 (H:m:s:ms)","OPERA","31.007","0.02905947780107767","1050"
"20:58:53:333 (H:m:s:ms)","GENERIC","62.181","0.029719040771681686","666"
"20:41:18:787 (H:m:s:ms)","GENERIC","62.043","0.06290058410853125","212"
"20:58:59:393 (H:m:s:ms)","GENERIC","62.105","0.017442769815797295","648"
"20:41:23:544 (H:m:s:ms)","OPERA","31.008","0.05892377202785125","455"
"20:59:5:454 (H:m:s:ms)","GENERIC","62.103","0.012320195761372403","545"
"21:31:0:606 (H:m:s:ms)","GENERIC","62.143","0.027286926813617586","393"
"20:41:24:848 (H:m:s:ms)","GENERIC","62.097","0.06264079395552843","152"
"20:59:11:515 (H:m:s:ms)","GENERIC","62.137","0.026573413794076385","485"
"20:41:30:909 (H:m:s:ms)","GENERIC","62.101","0.016924192648658954","1090"
"20:59:17:575 (H:m:s:ms)","GENERIC","62.053","0.026180718469365077","424"
"20:41:31:139 (H:m:s:ms)","OPERA","31.008","0.02261386949854734","860"
"20:41:36:969 (H:m:s:ms)","GENERIC","62.087","0.04185278208548683","1030"
"20:59:23:636 (H:m:s:ms)","GENERIC","62.075","0.019097379583886884","363"
"20:59:29:696 (H:m:s:ms)","GENERIC","62.071","0.02272827914686813","345"
"20:41:38:734 (H:m:s:ms)","OPERA","31.008","0.03945521855327013","265"
"20:59:35:757 (H:m:s:ms)","GENERIC","62.089","0.03009660039205877","242"
"20:41:43:30 (H:m:s:ms)","GENERIC","62.079","0.0400854635044162","969"
"20:59:41:818 (H:m:s:ms)","GENERIC","62.061","0.027468869987566123","181"
"20:41:49:90 (H:m:s:ms)","GENERIC","62.121","0.026180718469365077","946"
"20:59:47:878 (H:m:s:ms)","GENERIC","62.045","0.01885821966830531","1122"
"20:41:53:924 (H:m:s:ms)","OPERA","31.008","0.026573413794076385","1076"
"20:59:53:939 (H:m:s:ms)","GENERIC","62.111","0.024089524396800118","1060"
"20:41:55:151 (H:m:s:ms)","GENERIC","62.077","0.03790815738477715","848"
"21:0:0:0 (H:m:s:ms)","AMBULANCE","31.025","0.029719040771681686","1471"
"20:42:1:212 (H:m:s:ms)","GENERIC","62.103","0.028556616919717084","787"
"21:0:0:0 (H:m:s:ms)","GENERIC","62.035","0.03886799306314119","1471"
"20:42:1:518 (H:m:s:ms)","OPERA","31.007","0.032011549221216525","481"
"21:0:0:0 (H:m:s:ms)","GENERIC","62.077","0.06377773208299958","1471"
"20:42:7:272 (H:m:s:ms)","GENERIC","62.091","0.058373867845935505","727"
"21:0:6:60 (H:m:s:ms)","GENERIC","62.075","0.06362951325093795","939"
"20:42:9:113 (H:m:s:ms)","OPERA","31.009","0.057146927992691936","924"
"20:42:13:333 (H:m:s:ms)","GENERIC","62.075","0.060987082436488184","666"
"21:0:12:121 (H:m:s:ms)","GENERIC","62.029","0.023659661692846147","878"
"21:0:18:181 (H:m:s:ms)","GENERIC","62.089","0.023659661692846147","818"
"20:42:16:708 (H:m:s:ms)","OPERA","31.007","0.023195640308530274","291"
"21:0:24:242 (H:m:s:ms)","GENERIC","62.121","0.02272827914686813","758"
"20:42:19:393 (H:m:s:ms)","GENERIC","62.047","0.056012387269231294","645"
"21:0:30:303 (H:m:s:ms)","GENERIC","62.041","0.01962984601678365","696"
"20:20:0:0 (H:m:s:ms)","GENERIC","62.033","0.023909216355254566","1459"
"20:42:24:303 (H:m:s:ms)","OPERA","31.008","0.053782267488435766","696"
"21:0:31:578 (H:m:s:ms)","AMBULANCE","31.047","0.020698802372531775","421"
"20:20:0:0 (H:m:s:ms)","GENERIC","62.087","0.04256623402351693","1459"
"20:42:25:454 (H:m:s:ms)","GENERIC","62.023","0.054232342481900835","545"
"21:0:36:363 (H:m:s:ms)","GENERIC","62.129","0.03002256329859999","636"
"20:20:6:60 (H:m:s:ms)","GENERIC","62.089","0.039486392024269346","939"
"20:42:31:515 (H:m:s:ms)","GENERIC","62.097","0.012528958571212908","484"
"21:0:42:424 (H:m:s:ms)","GENERIC","62.065","0.023554558098297367","575"
"20:20:12:121 (H:m:s:ms)","GENERIC","62.081","0.02289724197360748","878"
"20:42:31:898 (H:m:s:ms)","OPERA","31.009","0.02811711901966364","101"
"21:0:48:484 (H:m:s:ms)","GENERIC","62.075","0.023362243536450552","515"
"20:20:18:181 (H:m:s:ms)","GENERIC","62.131","0.019097379583886884","818"
"20:42:37:575 (H:m:s:ms)","GENERIC","62.073","0.028252849517057678","424"
"21:0:54:545 (H:m:s:ms)","GENERIC","62.117","0.02742869061157374","454"
"20:20:24:242 (H:m:s:ms)","GENERIC","62.081","0.027468869987566123","757"
"20:42:39:493 (H:m:s:ms)","OPERA","31.008","0.011782513154382395","545"
"21:1:0:606 (H:m:s:ms)","GENERIC","62.135","0.022325489610129166","393"
"20:20:30:303 (H:m:s:ms)","GENERIC","62.075","0.03434586296041126","696"
"20:42:43:636 (H:m:s:ms)","GENERIC","62.141","0.051784441021563744","363"
"20:20:36:363 (H:m:s:ms)","GENERIC","62.127","0.02417772854041459","636"
"20:42:47:88 (H:m:s:ms)","OPERA","31.009","0.056547655926244854","911"
"20:20:42:424 (H:m:s:ms)","GENERIC","62.131","0.02374745480472383","576"
"20:20:48:484 (H:m:s:ms)","GENERIC","62.083","0.03301520724498934","515"
"21:1:3:157 (H:m:s:ms)","AMBULANCE","31.033","0.030223611555628232","842"
"21:1:6:666 (H:m:s:ms)","GENERIC","62.075","0.058684585257583965","333"
"20:42:49:696 (H:m:s:ms)","GENERIC","62.041","0.05842713914958949","343"
"21:1:12:727 (H:m:s:ms)","GENERIC","62.053","0.051231988319959156","272"
"20:42:54:683 (H:m:s:ms)","OPERA","31.007","0.03043568545972587","317"
"21:1:18:787 (H:m:s:ms)","GENERIC","62.049","0.023195640308530274","212"
"20:20:54:545 (H:m:s:ms)","GENERIC","62.129","0.026180718469365077","455"
"20:42:55:757 (H:m:s:ms)","GENERIC","62.139","0.04067904765502829","242"
"21:1:24:848 (H:m:s:ms)","GENERIC","62.125","0.023195640308530274","151"
"20:21:0:606 (H:m:s:ms)","GENERIC","62.171","0.02019690138147509","393"
"20:43:1:818 (H:m:s:ms)","GENERIC","62.071","0.03697091181949535","181"
"21:1:30:909 (H:m:s:ms)","GENERIC","62.115","0.025682719406725098","1090"
"20:21:6:666 (H:m:s:ms)","GENERIC","62.067","0.028525167374677748","333"
"20:43:2:278 (H:m:s:ms)","OPERA","31.007","0.026573413794076385","721"
"21:1:34:736 (H:m:s:ms)","AMBULANCE","31.049","0.03340520602854116","263"
"20:21:12:727 (H:m:s:ms)","GENERIC","62.049","0.028525167374677748","273"
"20:43:7:878 (H:m:s:ms)","GENERIC","62.091","0.01896107401204976","1122"
"21:1:36:969 (H:m:s:ms)","GENERIC","62.089","0.0600421761643351","1030"
"20:21:18:787 (H:m:s:ms)","GENERIC","62.035","0.02382101869623052","212"
"20:43:9:873 (H:m:s:ms)","OPERA","31.007","0.01861619510869728","164"
"21:1:43:30 (H:m:s:ms)","GENERIC","62.091","0.052827101184935346","969"
"20:21:24:848 (H:m:s:ms)","GENERIC","62.101","0.017067237957020018","151"
"20:43:13:939 (H:m:s:ms)","GENERIC","62.061","0.05335852210627689","1061"
"21:1:49:90 (H:m:s:ms)","GENERIC","62.135","0.018406684291076798","952"
"20:21:30:909 (H:m:s:ms)","GENERIC","62.097","0.016924192648658954","1090"
"20:43:17:468 (H:m:s:ms)","OPERA","31.009","0.051532027938719645","531"
"20:21:36:969 (H:m:s:ms)","GENERIC","62.085","0.02742869061157374","1030"
"20:43:20:0 (H:m:s:ms)","GENERIC","62.021","0.055901530429296555","1040"
"20:21:43:30 (H:m:s:ms)","GENERIC","62.083","0.02742869061157374","969"
"20:21:49:90 (H:m:s:ms)","GENERIC","62.103","0.018406684291076798","946"
"20:43:25:63 (H:m:s:ms)","OPERA","31.008","0.023637978560396615","936"
"20:43:26:60 (H:m:s:ms)","GENERIC","62.071","0.03591983206114762","939"
"20:21:55:151 (H:m:s:ms)","GENERIC","62.105","0.012528958571212908","848"
"20:43:32:121 (H:m:s:ms)","GENERIC","62.173","0.028556616919717084","878"
"20:22:1:212 (H:m:s:ms)","GENERIC","62.103","0.023909216355254566","787"
"20:43:32:658 (H:m:s:ms)","OPERA","31.008","0.029564691373636227","341"
"20:22:7:272 (H:m:s:ms)","GENERIC","62.103","0.0341580744269563","727"
"20:43:38:181 (H:m:s:ms)","GENERIC","62.035","0.051415798952892854","819"
"20:22:13:333 (H:m:s:ms)","GENERIC","62.043","0.03043568545972587","666"
"20:43:40:253 (H:m:s:ms)","OPERA","31.008","0.051532027938719645","746"
"20:22:19:393 (H:m:s:ms)","GENERIC","62.083","0.019317564826177948","645"
"20:43:44:242 (H:m:s:ms)","GENERIC","62.055","0.05578686891690641","757"
"20:22:25:454 (H:m:s:ms)","GENERIC","62.057","0.024640343507028706","545"
"20:43:47:848 (H:m:s:ms)","OPERA","31.009","0.024795319486762096","151"
"20:22:31:515 (H:m:s:ms)","GENERIC","62.089","0.028525167374677748","484"
"20:43:50:303 (H:m:s:ms)","GENERIC","62.135","0.043061613202596945","697"
"20:22:37:575 (H:m:s:ms)","GENERIC","62.077","0.02019690138147509","424"
"20:43:55:443 (H:m:s:ms)","OPERA","31.009","0.04409485567564793","556"
"20:22:43:636 (H:m:s:ms)","GENERIC","62.179","0.01144862098680374","363"
"20:22:49:696 (H:m:s:ms)","GENERIC","62.039","0.023195640308530274","341"
"20:43:56:363 (H:m:s:ms)","GENERIC","62.073","0.04473361814807804","636"
"20:44:2:424 (H:m:s:ms)","GENERIC","62.075","0.01283291938333367","575"
"20:22:55:757 (H:m:s:ms)","GENERIC","62.147","0.02374745480472383","242"
"20:44:3:37 (H:m:s:ms)","OPERA","31.008","0.02374745480472383","962"
"20:23:1:818 (H:m:s:ms)","GENERIC","62.049","0.01283291938333367","181"
"20:44:8:484 (H:m:s:ms)","GENERIC","62.067","0.05567286790762811","515"
"20:23:7:878 (H:m:s:ms)","GENERIC","62.071","0.010200319630727865","1121"
"20:44:10:632 (H:m:s:ms)","OPERA","31.008","0.05692696062654682","367"
"20:23:13:939 (H:m:s:ms)","GENERIC","62.023","0.012528958571212908","1061"
"20:44:14:545 (H:m:s:ms)","GENERIC","62.119","0.060879774902105444","454"
"20:23:20:0 (H:m:s:ms)","GENERIC","62.051","0.014148488305156146","1037"
"20:44:18:227 (H:m:s:ms)","OPERA","31.008","0.028882707075298122","772"
"20:23:26:60 (H:m:s:ms)","GENERIC","62.061","0.014148488305156146","939"
"20:44:20:606 (H:m:s:ms)","GENERIC","62.085","0.05768303169266034","393"
"20:23:32:121 (H:m:s:ms)","GENERIC","62.139","0.014148488305156146","878"
"20:44:25:822 (H:m:s:ms)","OPERA","31.008","0.05597979311444008","177"
"20:23:38:181 (H:m:s:ms)","GENERIC","62.063","0.014148488305156146","818"
"20:44:26:666 (H:m:s:ms)","GENERIC","62.035","0.057702223790701376","333"
"20:23:44:242 (H:m:s:ms)","GENERIC","62.089","0.01144862098680374","758"
"20:23:50:303 (H:m:s:ms)","GENERIC","62.151","0.023362243536450552","696"
"20:44:32:727 (H:m:s:ms)","GENERIC","62.111","0.02272827914686813","272"
"20:44:33:417 (H:m:s:ms)","OPERA","31.007","0.027757526102147663","583"
"20:23:56:363 (H:m:s:ms)","GENERIC","62.067","0.0341580744269563","636"
"20:44:38:787 (H:m:s:ms)","GENERIC","62.049","0.057129878248962866","212"
"20:24:2:424 (H:m:s:ms)","GENERIC","62.039","0.03404574434861505","575"
"20:44:41:12 (H:m:s:ms)","OPERA","31.009","0.05659266957524071","987"
"20:24:8:484 (H:m:s:ms)","GENERIC","62.081","0.028525167374677748","516"
"20:44:44:848 (H:m:s:ms)","GENERIC","62.069","0.057194203693242386","151"
"20:24:14:545 (H:m:s:ms)","GENERIC","62.125","0.02382101869623052","455"
"20:44:48:607 (H:m:s:ms)","OPERA","31.008","0.027839978675241607","392"
"20:24:20:606 (H:m:s:ms)","GENERIC","62.091","0.02905947780107767","393"
"20:44:50:909 (H:m:s:ms)","GENERIC","62.077","0.03404574434861505","1090"
"20:24:26:666 (H:m:s:ms)","GENERIC","62.037","0.026180718469365077","333"
"20:44:56:202 (H:m:s:ms)","OPERA","31.007","0.03340520602854116","797"
"20:24:32:727 (H:m:s:ms)","GENERIC","62.135","0.014148488305156146","272"
"20:44:56:969 (H:m:s:ms)","GENERIC","62.021","0.04293286782075529","1030"
"20:24:38:787 (H:m:s:ms)","GENERIC","62.083","0.019317564826177948","213"
"20:45:3:30 (H:m:s:ms)","GENERIC","62.071","0.03731599078491568","969"
"20:24:44:848 (H:m:s:ms)","GENERIC","62.057","0.01816751897753508","152"
"20:24:50:909 (H:m:s:ms)","GENERIC","62.067","0.008837135479078433","1090"
"20:45:3:797 (H:m:s:ms)","OPERA","31.007","0.04316833015153159","202"
"20:45:9:90 (H:m:s:ms)","GENERIC","62.093","0.04197896556757968","949"
"20:24:56:969 (H:m:s:ms)","GENERIC","62.039","0.011782513154382395","1030"
"20:45:11:392 (H:m:s:ms)","OPERA","31.008","0.036524124311029076","607"
"20:25:3:30 (H:m:s:ms)","GENERIC","62.057","0.019298158564770664","969"
"20:45:15:151 (H:m:s:ms)","GENERIC","62.105","0.03915756723757803","848"
"20:25:9:90 (H:m:s:ms)","GENERIC","62.063","0.02789604402655295","946"
"20:45:21:212 (H:m:s:ms)","GENERIC","62.123","0.01759084415619444","787"
"20:25:15:151 (H:m:s:ms)","GENERIC","62.101","0.0341580744269563","848"
"20:45:26:582 (H:m:s:ms)","OPERA","31.008","0.017808616317600078","417"
"20:25:21:212 (H:m:s:ms)","GENERIC","62.159","0.03043568545972587","787"
"20:45:27:272 (H:m:s:ms)","GENERIC","62.085","0.05403328233428093","727"
"20:25:27:272 (H:m:s:ms)","GENERIC","62.113","0.03043568545972587","727"
"20:45:33:333 (H:m:s:ms)","GENERIC","62.153","0.056882043860341125","666"
"20:25:33:333 (H:m:s:ms)","GENERIC","62.099","0.027839978675241607","666"
"20:45:39:393 (H:m:s:ms)","GENERIC","62.107","0.03313247052610638","645"
"20:25:39:393 (H:m:s:ms)","GENERIC","62.143","0.012320195761372403","643"
"20:45:41:772 (H:m:s:ms)","OPERA","31.007","0.033520393894303425","227"
"20:25:45:454 (H:m:s:ms)","GENERIC","62.049","0.023362243536450552","545"
"20:25:51:515 (H:m:s:ms)","GENERIC","62.141","0.03313247052610638","484"
"20:25:57:575 (H:m:s:ms)","GENERIC","62.055","0.03313247052610638","424"
"20:26:3:636 (H:m:s:ms)","GENERIC","62.095","0.0341580744269563","363"
"20:26:9:696 (H:m:s:ms)","GENERIC","62.085","0.03404574434861505","339"
"20:26:15:757 (H:m:s:ms)","GENERIC","62.051","0.03301520724498934","242"
"20:26:21:818 (H:m:s:ms)","GENERIC","62.145","0.02905947780107767","181"
"20:26:27:878 (H:m:s:ms)","GENERIC","62.049","0.025682719406725098","1121"
"20:26:33:939 (H:m:s:ms)","GENERIC","62.163","0.02667084363029861","1060"
"20:26:40:0 (H:m:s:ms)","GENERIC","62.111","0.026180718469365077","1037"
"20:26:46:60 (H:m:s:ms)","GENERIC","62.097","0.02905947780107767","939"
"20:26:52:121 (H:m:s:ms)","GENERIC","62.125","0.02289724197360748","878"
"20:26:58:181 (H:m:s:ms)","GENERIC","62.133","0.02289724197360748","818"
"20:27:4:242 (H:m:s:ms)","GENERIC","62.051","0.02905947780107767","758"
"20:27:10:303 (H:m:s:ms)","GENERIC","62.055","0.026573413794076385","697"
"20:27:16:363 (H:m:s:ms)","GENERIC","62.117","0.01962984601678365","636"
"20:27:22:424 (H:m:s:ms)","GENERIC","62.051","0.02289724197360748","575"
"20:27:28:484 (H:m:s:ms)","GENERIC","62.057","0.017808616317600078","515"
"20:27:34:545 (H:m:s:ms)","GENERIC","62.085","0.01759084415619444","454"
"20:27:40:606 (H:m:s:ms)","GENERIC","62.035","0.029370060209630167","393"
"20:27:46:666 (H:m:s:ms)","GENERIC","62.057","0.03371244187953255","333"
"20:27:52:727 (H:m:s:ms)","GENERIC","62.073","0.03332746930879469","272"
"20:27:58:787 (H:m:s:ms)","GENERIC","62.103","0.026180718469365077","212"
"20:28:4:848 (H:m:s:ms)","GENERIC","62.109","0.018406684291076798","152"
"20:28:10:909 (H:m:s:ms)","GENERIC","62.075","0.016924192648658954","1090"
"20:28:16:969 (H:m:s:ms)","GENERIC","62.069","0.027663923728039337","1030"
"20:28:23:30 (H:m:s:ms)","GENERIC","62.139","0.028126521345217686","969"
"20:28:29:90 (H:m:s:ms)","GENERIC","62.167","0.023177480895246964","946"
"20:28:35:151 (H:m:s:ms)","GENERIC","62.059","0.017442769815797295","848"
"20:28:41:212 (H:m:s:ms)","GENERIC","62.091","0.01144862098680374","788"
"20:28:47:272 (H:m:s:ms)","GENERIC","62.097","0.019097379583886884","727"
"20:28:53:333 (H:m:s:ms)","GENERIC","62.185","0.019298158564770664","666"
"20:28:59:393 (H:m:s:ms)","GENERIC","62.091","0.01283291938333367","642"
"20:29:5:454 (H:m:s:ms)","GENERIC","62.137","0.02374745480472383","545"
"20:29:11:515 (H:m:s:ms)","GENERIC","62.131","0.03404574434861505","484"
"20:29:17:575 (H:m:s:ms)","GENERIC","62.105","0.0341580744269563","424"
"20:29:23:636 (H:m:s:ms)","GENERIC","62.045","0.023909216355254566","363"
"20:29:29:696 (H:m:s:ms)","GENERIC","62.029","0.02417772854041459","342"
"20:29:35:757 (H:m:s:ms)","GENERIC","62.089","0.02505338544764895","242"
"20:29:41:818 (H:m:s:ms)","GENERIC","62.065","0.014856154131040673","181"
"20:29:47:878 (H:m:s:ms)","GENERIC","62.085","0.025682719406725098","1121"
"20:29:53:939 (H:m:s:ms)","GENERIC","62.113","0.03371244187953255","1061"
"22:9:28:421 (H:m:s:ms)","AMBULANCE","62.103","0.012136684708960769","579"
"22:8:56:842 (H:m:s:ms)","AMBULANCE","62.119","0.01885821966830531","157"
"21:20:7:594 (H:m:s:ms)","OPERA","62.015","0.03009660039205877","405"
"21:20:12:121 (H:m:s:ms)","GENERIC","62.065","0.04043026938805074","878"
"21:20:15:189 (H:m:s:ms)","OPERA","62.015","0.03697091181949535","810"
"21:20:18:181 (H:m:s:ms)","GENERIC","62.123","0.04263383595846344","818"
"21:20:22:784 (H:m:s:ms)","OPERA","62.013","0.024640343507028706","215"
"21:20:24:242 (H:m:s:ms)","GENERIC","62.123","0.03284694089019282","757"
"21:20:30:303 (H:m:s:ms)","GENERIC","62.027","0.028056674786472093","696"
"21:20:30:379 (H:m:s:ms)","OPERA","62.015","0.03551153182631664","620"
"21:20:36:363 (H:m:s:ms)","GENERIC","62.129","0.05818590317298249","636"
"21:20:37:974 (H:m:s:ms)","OPERA","62.015","0.05209627064435025","1025"
"21:20:42:424 (H:m:s:ms)","GENERIC","62.063","0.05263764793393125","576"
"21:20:45:569 (H:m:s:ms)","OPERA","62.015","0.02038568531394672","430"
"21:20:48:484 (H:m:s:ms)","GENERIC","62.075","0.054928226000373025","515"
"21:20:53:164 (H:m:s:ms)","OPERA","31.009","0.054416018131152946","835"
"21:20:54:545 (H:m:s:ms)","GENERIC","62.113","0.05504362439037538","454"
"21:21:0:606 (H:m:s:ms)","GENERIC","62.129","0.027054664064139058","393"
"21:21:0:759 (H:m:s:ms)","OPERA","62.013","0.03468723766884646","240"
"21:21:6:666 (H:m:s:ms)","GENERIC","62.073","0.036502804995868776","333"
"21:21:8:354 (H:m:s:ms)","OPERA","31.008","0.02892570753391548","645"
"21:21:12:727 (H:m:s:ms)","GENERIC","62.071","0.05803144383432226","272"
"21:32:43:636 (H:m:s:ms)","GENERIC","62.049","0.043661167912548","363"
"21:32:31:515 (H:m:s:ms)","GENERIC","62.085","0.017067237957020018","484"
"21:32:25:454 (H:m:s:ms)","GENERIC","62.131","0.017067237957020018","545"
"21:32:19:393 (H:m:s:ms)","GENERIC","62.143","0.029501007673251988","642"
"21:32:13:333 (H:m:s:ms)","GENERIC","62.093","0.056547655926244854","667"
"21:32:7:272 (H:m:s:ms)","GENERIC","62.071","0.060208034003514266","727"
"21:32:6:315 (H:m:s:ms)","AMBULANCE","62.085","0.03313247052610638","684"
"21:32:1:212 (H:m:s:ms)","GENERIC","62.125","0.02789604402655295","787"
"21:21:15:949 (H:m:s:ms)","OPERA","62.013","0.053829770839604135","1050"
"21:31:55:151 (H:m:s:ms)","GENERIC","62.069","0.02289724197360748","848"
"21:21:18:787 (H:m:s:ms)","GENERIC","62.055","0.055695981792275535","212"
"21:21:23:544 (H:m:s:ms)","OPERA","31.009","0.01898167687207122","455"
"21:21:24:848 (H:m:s:ms)","GENERIC","62.097","0.053490749736994886","151"
"21:21:30:909 (H:m:s:ms)","GENERIC","62.105","0.016924192648658954","1090"
"21:21:31:139 (H:m:s:ms)","OPERA","62.015","0.022151090099547566","860"
"21:21:36:969 (H:m:s:ms)","GENERIC","62.087","0.03347365309436332","1030"
"21:21:38:734 (H:m:s:ms)","OPERA","62.015","0.030329692123288732","265"
"21:32:37:894 (H:m:s:ms)","AMBULANCE","62.099","0.03434586296041126","1105"
"21:21:43:30 (H:m:s:ms)","GENERIC","62.111","0.037152323570299","969"
"21:32:37:575 (H:m:s:ms)","GENERIC","62.099","0.030223611555628232","424"
"21:21:46:329 (H:m:s:ms)","OPERA","31.007","0.033520393894303425","670"
"21:33:41:52 (H:m:s:ms)","AMBULANCE","62.101","0.01896107401204976","947"
"21:33:38:181 (H:m:s:ms)","GENERIC","62.055","0.01896107401204976","818"
"21:33:26:60 (H:m:s:ms)","GENERIC","62.093","0.020698802372531775","939"
"21:33:20:0 (H:m:s:ms)","GENERIC","62.073","0.053476122074438595","1036"
"21:33:13:939 (H:m:s:ms)","GENERIC","62.041","0.053999390617190675","1060"
"21:33:9:473 (H:m:s:ms)","AMBULANCE","62.151","0.02038568531394672","563"
"21:33:7:878 (H:m:s:ms)","GENERIC","62.071","0.01885821966830531","1121"
"21:33:1:818 (H:m:s:ms)","GENERIC","62.069","0.028126521345217686","181"
"21:21:49:90 (H:m:s:ms)","GENERIC","62.109","0.0650567012082702","944"
"21:32:55:757 (H:m:s:ms)","GENERIC","62.113","0.028126521345217686","242"
"21:21:53:924 (H:m:s:ms)","OPERA","62.013","0.061783001949301114","1075"
"21:32:49:696 (H:m:s:ms)","GENERIC","62.067","0.03236286063349084","338"
"21:21:55:151 (H:m:s:ms)","GENERIC","62.089","0.06546836935122746","848"
"21:22:1:212 (H:m:s:ms)","GENERIC","62.117","0.027663923728039337","787"
"21:22:1:518 (H:m:s:ms)","OPERA","62.013","0.03732555238553265","481"
"21:22:7:272 (H:m:s:ms)","GENERIC","62.055","0.03347365309436332","727"
"21:22:9:113 (H:m:s:ms)","OPERA","31.008","0.02272827914686813","922"
"21:22:13:333 (H:m:s:ms)","GENERIC","62.085","0.06024974051772964","666"
"21:22:16:708 (H:m:s:ms)","OPERA","62.015","0.058358912892486875","291"
"21:22:19:393 (H:m:s:ms)","GENERIC","62.123","0.06020548665223068","653"
"21:33:32:121 (H:m:s:ms)","GENERIC","62.151","0.01896107401204976","878"
"21:34:38:787 (H:m:s:ms)","GENERIC","62.049","0.018406684291076798","212"
"21:34:32:727 (H:m:s:ms)","GENERIC","62.111","0.022151090099547566","273"
"21:34:26:666 (H:m:s:ms)","GENERIC","62.087","0.01683846542140446","334"
"21:34:20:606 (H:m:s:ms)","GENERIC","62.067","0.027419161722443772","393"
"21:34:14:545 (H:m:s:ms)","GENERIC","62.095","0.042427750789512976","454"
"21:34:12:631 (H:m:s:ms)","AMBULANCE","62.025","0.03371244187953255","368"
"21:34:8:484 (H:m:s:ms)","GENERIC","62.071","0.027663923728039337","515"
"21:34:2:424 (H:m:s:ms)","GENERIC","62.087","0.01861619510869728","575"
"21:22:24:303 (H:m:s:ms)","OPERA","62.015","0.017442769815797295","697"
"21:33:56:363 (H:m:s:ms)","GENERIC","62.127","0.01283291938333367","636"
"21:22:25:454 (H:m:s:ms)","GENERIC","62.113","0.031209436883253238","545"
"21:33:50:303 (H:m:s:ms)","GENERIC","62.091","0.027193688248056822","696"
"21:1:55:151 (H:m:s:ms)","GENERIC","62.079","0.02667084363029861","848"
"21:22:31:515 (H:m:s:ms)","GENERIC","62.097","0.03136543285068682","485"
"21:33:44:242 (H:m:s:ms)","GENERIC","62.061","0.03148040482575562","757"
"21:2:1:212 (H:m:s:ms)","GENERIC","62.093","0.03340520602854116","787"
"21:22:31:898 (H:m:s:ms)","OPERA","62.015","0.019097379583886884","1102"
"21:2:6:315 (H:m:s:ms)","AMBULANCE","31.018","0.03340520602854116","684"
"21:22:37:575 (H:m:s:ms)","GENERIC","62.115","0.05352785621803169","424"
"21:2:7:272 (H:m:s:ms)","GENERIC","62.061","0.04173401956147117","727"
"21:22:39:493 (H:m:s:ms)","OPERA","62.011","0.051532027938719645","540"
"21:2:13:333 (H:m:s:ms)","GENERIC","62.075","0.03075282444785798","666"
"21:22:43:636 (H:m:s:ms)","GENERIC","62.071","0.05571867995922253","363"
"21:2:19:393 (H:m:s:ms)","GENERIC","62.077","0.019097379583886884","648"
"21:22:47:88 (H:m:s:ms)","OPERA","62.013","0.03301520724498934","911"
"21:2:25:454 (H:m:s:ms)","GENERIC","62.065","0.026180718469365077","545"
"21:22:49:696 (H:m:s:ms)","GENERIC","62.051","0.04263383595846344","338"
"21:2:31:515 (H:m:s:ms)","GENERIC","62.123","0.03313247052610638","484"
"21:22:54:683 (H:m:s:ms)","OPERA","62.013","0.02900198643876801","316"
"21:2:37:575 (H:m:s:ms)","GENERIC","62.103","0.028659143637931893","424"
"21:2:37:894 (H:m:s:ms)","AMBULANCE","31.032","0.03593404108869602","105"
"21:35:39:393 (H:m:s:ms)","GENERIC","62.125","0.02289724197360748","642"
"21:35:33:333 (H:m:s:ms)","GENERIC","62.133","0.02905947780107767","666"
"21:35:27:272 (H:m:s:ms)","GENERIC","62.071","0.026573413794076385","727"
"21:35:21:212 (H:m:s:ms)","GENERIC","62.131","0.012320195761372403","787"
"21:35:15:151 (H:m:s:ms)","GENERIC","62.101","0.01683846542140446","848"
"21:35:9:90 (H:m:s:ms)","GENERIC","62.111","0.022151090099547566","945"
"21:35:3:30 (H:m:s:ms)","GENERIC","62.025","0.01861619510869728","969"
"21:22:55:757 (H:m:s:ms)","GENERIC","62.121","0.035992395917716476","242"
"21:34:56:969 (H:m:s:ms)","GENERIC","62.023","0.014416693852176123","1030"
"21:23:1:818 (H:m:s:ms)","GENERIC","62.089","0.024640343507028706","181"
"21:34:50:909 (H:m:s:ms)","GENERIC","62.047","0.012136684708960769","1090"
"21:2:43:636 (H:m:s:ms)","GENERIC","62.113","0.03211383199119589","363"
"21:23:2:278 (H:m:s:ms)","OPERA","62.013","0.024640343507028706","721"
"21:34:44:848 (H:m:s:ms)","GENERIC","62.079","0.0284977852431235","151"
"21:2:49:696 (H:m:s:ms)","GENERIC","62.067","0.029370060209630167","346"
"21:23:7:878 (H:m:s:ms)","GENERIC","62.083","0.027286926813617586","1121"
"21:34:44:210 (H:m:s:ms)","AMBULANCE","62.111","0.018406684291076798","789"
"21:2:55:757 (H:m:s:ms)","GENERIC","62.145","0.026814975610128973","242"
"21:23:9:873 (H:m:s:ms)","OPERA","62.015","0.027663923728039337","162"
"21:3:1:818 (H:m:s:ms)","GENERIC","62.075","0.011782513154382395","181"
"21:23:13:939 (H:m:s:ms)","GENERIC","62.021","0.05708436907790112","1060"
"21:3:7:878 (H:m:s:ms)","GENERIC","62.081","0.025172415836211437","1121"
"21:23:17:468 (H:m:s:ms)","OPERA","62.011","0.051532027938719645","531"
"21:3:9:473 (H:m:s:ms)","AMBULANCE","31.073","0.03313247052610638","569"
"21:23:20:0 (H:m:s:ms)","GENERIC","62.072","0.05341962991515372","1036"
"21:3:13:939 (H:m:s:ms)","GENERIC","62.043","0.060208034003514266","1060"
"21:23:25:63 (H:m:s:ms)","OPERA","31.009","0.02892570753391548","936"
"21:3:20:0 (H:m:s:ms)","GENERIC","62.041","0.05189892580777582","1049"
"21:23:26:60 (H:m:s:ms)","GENERIC","62.095","0.05857696237158124","939"
"21:3:26:60 (H:m:s:ms)","GENERIC","62.095","0.02505338544764895","939"
"21:3:32:121 (H:m:s:ms)","GENERIC","62.177","0.03371244187953255","878"
"21:36:33:939 (H:m:s:ms)","GENERIC","62.105","0.027054664064139058","1060"
"21:36:27:878 (H:m:s:ms)","GENERIC","62.087","0.025682719406725098","1121"
"21:36:21:818 (H:m:s:ms)","GENERIC","62.125","0.028739450552031344","181"
"21:36:18:947 (H:m:s:ms)","AMBULANCE","62.089","0.01877878368184401","1087"
"21:36:15:757 (H:m:s:ms)","GENERIC","62.071","0.022151090099547566","242"
"21:36:9:696 (H:m:s:ms)","GENERIC","62.073","0.02261386949854734","337"
"21:23:32:121 (H:m:s:ms)","GENERIC","62.149","0.05184965349502712","878"
"21:36:3:636 (H:m:s:ms)","GENERIC","62.045","0.023177480895246964","363"
"21:23:32:658 (H:m:s:ms)","OPERA","62.013","0.05232207442057745","341"
"21:35:57:575 (H:m:s:ms)","GENERIC","62.047","0.03136543285068682","424"
"21:3:38:181 (H:m:s:ms)","GENERIC","62.051","0.029719040771681686","818"
"21:23:38:181 (H:m:s:ms)","GENERIC","62.043","0.024620790957961387","818"
"21:35:51:515 (H:m:s:ms)","GENERIC","62.163","0.042427750789512976","484"
"21:3:41:52 (H:m:s:ms)","AMBULANCE","31.052","0.023177480895246964","947"
"21:23:40:253 (H:m:s:ms)","OPERA","62.013","0.033268354141931154","746"
"21:35:47:368 (H:m:s:ms)","AMBULANCE","62.065","0.03371244187953255","631"
"21:3:44:242 (H:m:s:ms)","GENERIC","62.043","0.06040721125708592","757"
"21:23:44:242 (H:m:s:ms)","GENERIC","62.051","0.03401401283323736","757"
"21:35:45:454 (H:m:s:ms)","GENERIC","62.133","0.028126521345217686","545"
"21:3:50:303 (H:m:s:ms)","GENERIC","62.107","0.05678024975263983","696"
"21:23:47:848 (H:m:s:ms)","OPERA","62.011","0.012528958571212908","151"
"21:3:56:363 (H:m:s:ms)","GENERIC","62.101","0.017808616317600078","636"
"21:23:50:303 (H:m:s:ms)","GENERIC","62.087","0.029867626831121315","696"
"21:4:2:424 (H:m:s:ms)","GENERIC","62.099","0.01898167687207122","575"
"21:23:55:443 (H:m:s:ms)","OPERA","62.013","0.029732996871351253","556"
"21:4:8:484 (H:m:s:ms)","GENERIC","62.069","0.014856154131040673","515"
"21:23:56:363 (H:m:s:ms)","GENERIC","62.135","0.030905364852989264","637"
"21:4:12:631 (H:m:s:ms)","AMBULANCE","31.021","0.026573413794076385","368"
"21:24:2:424 (H:m:s:ms)","GENERIC","62.093","0.01962984601678365","575"
"21:4:14:545 (H:m:s:ms)","GENERIC","62.097","0.04411479888482291","454"
"21:4:20:606 (H:m:s:ms)","GENERIC","62.081","0.04332008913810096","393"
"21:37:28:484 (H:m:s:ms)","GENERIC","62.071","0.05528658182988358","516"
"21:37:22:424 (H:m:s:ms)","GENERIC","62.075","0.05768303169266034","575"
"21:37:22:105 (H:m:s:ms)","AMBULANCE","62.095","0.028882707075298122","894"
"21:37:16:363 (H:m:s:ms)","GENERIC","62.115","0.023637978560396615","636"
"21:37:10:303 (H:m:s:ms)","GENERIC","62.045","0.017067237957020018","696"
"21:37:4:242 (H:m:s:ms)","GENERIC","62.075","0.02382101869623052","757"
"21:24:3:37 (H:m:s:ms)","OPERA","62.015","0.019298158564770664","962"
"21:24:8:484 (H:m:s:ms)","GENERIC","62.071","0.029078079996065712","515"
"21:36:58:181 (H:m:s:ms)","GENERIC","62.061","0.053476122074438595","818"
"21:4:26:666 (H:m:s:ms)","GENERIC","62.023","0.02892570753391548","333"
"21:24:10:632 (H:m:s:ms)","OPERA","62.015","0.028814912552269305","368"
"21:36:52:121 (H:m:s:ms)","GENERIC","62.169","0.058102066247875506","878"
"21:4:32:727 (H:m:s:ms)","GENERIC","62.113","0.029370060209630167","272"
"21:24:14:545 (H:m:s:ms)","GENERIC","62.105","0.03593404108869602","454"
"21:36:50:526 (H:m:s:ms)","AMBULANCE","62.069","0.029719040771681686","473"
"21:4:38:787 (H:m:s:ms)","GENERIC","62.031","0.027054664064139058","212"
"21:24:18:227 (H:m:s:ms)","OPERA","62.011","0.033520393894303425","772"
"21:36:46:60 (H:m:s:ms)","GENERIC","62.089","0.029281612958248562","939"
"21:4:44:210 (H:m:s:ms)","AMBULANCE","31.066","0.026573413794076385","789"
"21:24:20:606 (H:m:s:ms)","GENERIC","62.075","0.04857636106545653","393"
"21:36:40:0 (H:m:s:ms)","GENERIC","62.147","0.026573413794076385","1035"
"21:4:44:848 (H:m:s:ms)","GENERIC","62.059","0.05659037006302112","151"
"21:24:25:822 (H:m:s:ms)","OPERA","62.011","0.04332008913810096","177"
"21:4:50:909 (H:m:s:ms)","GENERIC","62.075","0.025172415836211437","1090"
"21:24:26:666 (H:m:s:ms)","GENERIC","62.069","0.043972276781510826","333"
"21:4:56:969 (H:m:s:ms)","GENERIC","62.043","0.03313247052610638","1031"
"21:24:32:727 (H:m:s:ms)","GENERIC","62.119","0.026814975610128973","272"
"21:5:3:30 (H:m:s:ms)","GENERIC","62.075","0.02742869061157374","969"
"21:24:33:417 (H:m:s:ms)","OPERA","62.011","0.03340520602854116","582"
"21:5:9:90 (H:m:s:ms)","GENERIC","62.105","0.02261386949854734","949"
"21:5:15:151 (H:m:s:ms)","GENERIC","62.079","0.02261386949854734","848"
"21:38:25:263 (H:m:s:ms)","AMBULANCE","62.023","0.02905947780107767","736"
"21:38:23:30 (H:m:s:ms)","GENERIC","62.049","0.02905947780107767","969"
"21:38:16:969 (H:m:s:ms)","GENERIC","62.103","0.02905947780107767","1030"
"21:38:10:909 (H:m:s:ms)","GENERIC","62.111","0.025172415836211437","1090"
"21:38:4:848 (H:m:s:ms)","GENERIC","62.097","0.05318705064073123","152"
"21:37:58:787 (H:m:s:ms)","GENERIC","62.085","0.05831753119653372","212"
"21:37:53:684 (H:m:s:ms)","AMBULANCE","62.071","0.029501007673251988","315"
"21:24:38:787 (H:m:s:ms)","GENERIC","62.035","0.0603577599964315","212"
"21:24:41:12 (H:m:s:ms)","OPERA","31.009","0.051482589722911","987"
"21:5:15:789 (H:m:s:ms)","AMBULANCE","31.045","0.05576550281147979","210"
"21:24:44:848 (H:m:s:ms)","GENERIC","62.061","0.05585568544134243","151"
"21:5:21:212 (H:m:s:ms)","GENERIC","62.103","0.054232342481900835","787"
"21:24:48:607 (H:m:s:ms)","OPERA","62.013","0.03332746930879469","392"
"21:37:52:727 (H:m:s:ms)","GENERIC","62.087","0.02289724197360748","272"
"20:45:45:454 (H:m:s:ms)","GENERIC","62.077","0.060420629113755515","545"
"21:5:27:272 (H:m:s:ms)","GENERIC","62.065","0.012528958571212908","727"
"21:24:50:909 (H:m:s:ms)","GENERIC","62.069","0.026573413794076385","1090"
"21:37:46:666 (H:m:s:ms)","GENERIC","62.049","0.02272827914686813","333"
"20:45:49:367 (H:m:s:ms)","OPERA","31.007","0.05189892580777582","673"
"21:5:33:333 (H:m:s:ms)","GENERIC","62.189","0.017808616317600078","666"
"21:24:56:202 (H:m:s:ms)","OPERA","62.015","0.01896107401204976","797"
"21:37:40:606 (H:m:s:ms)","GENERIC","62.081","0.023659661692846147","394"
"20:45:51:515 (H:m:s:ms)","GENERIC","62.171","0.053961482422910975","484"
"21:5:39:393 (H:m:s:ms)","GENERIC","62.077","0.022325489610129166","646"
"21:24:56:969 (H:m:s:ms)","GENERIC","62.037","0.053479281928415855","1030"
"21:37:34:545 (H:m:s:ms)","GENERIC","62.077","0.023659661692846147","454"
"20:45:56:962 (H:m:s:ms)","OPERA","31.007","0.024089524396800118","1038"
"21:5:45:454 (H:m:s:ms)","GENERIC","62.115","0.022325489610129166","545"
"21:25:3:30 (H:m:s:ms)","GENERIC","62.039","0.05085820377245071","969"
"20:45:57:575 (H:m:s:ms)","GENERIC","62.053","0.055470856657993985","424"
"21:5:47:368 (H:m:s:ms)","AMBULANCE","31.037","0.01898167687207122","631"
"21:25:3:797 (H:m:s:ms)","OPERA","31.009","0.051541110738683595","202"
"20:46:3:636 (H:m:s:ms)","GENERIC","62.099","0.055470856657993985","364"
"21:5:51:515 (H:m:s:ms)","GENERIC","62.153","0.0320901276943369","484"
"21:25:9:90 (H:m:s:ms)","GENERIC","62.111","0.051541110738683595","946"
"20:46:4:556 (H:m:s:ms)","OPERA","31.007","0.03043568545972587","443"
"21:5:57:575 (H:m:s:ms)","GENERIC","62.059","0.027419161722443772","424"
"20:46:9:696 (H:m:s:ms)","GENERIC","62.077","0.05879310346025043","343"
"21:6:3:636 (H:m:s:ms)","GENERIC","62.063","0.011782513154382395","363"
"20:46:12:151 (H:m:s:ms)","OPERA","31.008","0.05692696062654682","848"
"20:46:15:757 (H:m:s:ms)","GENERIC","62.019","0.05862026094153115","243"
"21:39:23:636 (H:m:s:ms)","GENERIC","62.101","0.033520393894303425","363"
"21:39:17:575 (H:m:s:ms)","GENERIC","62.059","0.027054664064139058","425"
"21:39:11:515 (H:m:s:ms)","GENERIC","62.147","0.01896107401204976","484"
"21:39:5:454 (H:m:s:ms)","GENERIC","62.119","0.058358912892486875","545"
"21:38:59:393 (H:m:s:ms)","GENERIC","62.117","0.06040721125708592","644"
"21:38:56:842 (H:m:s:ms)","AMBULANCE","62.109","0.023177480895246964","158"
"21:38:53:333 (H:m:s:ms)","GENERIC","62.147","0.019317564826177948","666"
"21:38:47:272 (H:m:s:ms)","GENERIC","62.093","0.024795319486762096","727"
"21:25:11:392 (H:m:s:ms)","OPERA","62.013","0.05111167066519553","607"
"21:25:15:151 (H:m:s:ms)","GENERIC","62.091","0.055515557361781154","848"
"21:6:9:696 (H:m:s:ms)","GENERIC","62.113","0.019298158564770664","343"
"21:25:18:987 (H:m:s:ms)","OPERA","31.007","0.028882707075298122","1050"
"21:6:15:757 (H:m:s:ms)","GENERIC","62.023","0.019097379583886884","242"
"21:25:21:212 (H:m:s:ms)","GENERIC","62.109","0.038725685664509645","787"
"20:46:19:746 (H:m:s:ms)","OPERA","31.009","0.01683846542140446","292"
"21:6:18:947 (H:m:s:ms)","AMBULANCE","31.056","0.01144862098680374","1092"
"21:25:26:582 (H:m:s:ms)","OPERA","62.011","0.028645982307229634","417"
"20:46:21:818 (H:m:s:ms)","GENERIC","62.125","0.03189288744008374","181"
"21:6:21:818 (H:m:s:ms)","GENERIC","62.105","0.028335065105912452","181"
"21:25:27:272 (H:m:s:ms)","GENERIC","62.057","0.03570630007838865","727"
"21:38:41:212 (H:m:s:ms)","GENERIC","62.031","0.02742869061157374","787"
"20:46:27:341 (H:m:s:ms)","OPERA","31.009","0.03236286063349084","658"
"21:6:27:878 (H:m:s:ms)","GENERIC","62.053","0.01885821966830531","1121"
"21:25:33:333 (H:m:s:ms)","GENERIC","62.157","0.027757526102147663","666"
"21:38:35:151 (H:m:s:ms)","GENERIC","62.075","0.052827101184935346","848"
"20:46:27:878 (H:m:s:ms)","GENERIC","62.057","0.019298158564770664","1121"
"21:6:33:939 (H:m:s:ms)","GENERIC","62.113","0.028525167374677748","1060"
"21:25:34:177 (H:m:s:ms)","OPERA","31.007","0.02272827914686813","823"
"21:38:29:90 (H:m:s:ms)","GENERIC","62.109","0.057768896743606746","945"
"20:46:33:939 (H:m:s:ms)","GENERIC","62.123","0.01861619510869728","1060"
"21:6:40:0 (H:m:s:ms)","GENERIC","62.081","0.03404574434861505","1039"
"21:25:39:393 (H:m:s:ms)","GENERIC","62.105","0.06024974051772964","642"
"20:46:34:936 (H:m:s:ms)","OPERA","31.009","0.022325489610129166","1063"
"21:6:46:60 (H:m:s:ms)","GENERIC","62.099","0.027839978675241607","939"
"21:25:41:772 (H:m:s:ms)","OPERA","31.009","0.05678024975263983","228"
"20:46:40:0 (H:m:s:ms)","GENERIC","62.094","0.035068252822856125","1041"
"21:6:50:526 (H:m:s:ms)","AMBULANCE","31.025","0.013326505564128456","473"
"20:46:42:531 (H:m:s:ms)","OPERA","31.007","0.033019549269183726","468"
"21:6:52:121 (H:m:s:ms)","GENERIC","62.133","0.029136884360989795","878"
"20:46:46:60 (H:m:s:ms)","GENERIC","62.097","0.03620570337289113","939"
"20:46:50:126 (H:m:s:ms)","OPERA","31.007","0.019317564826177948","873"
"21:39:35:757 (H:m:s:ms)","GENERIC","62.099","0.05597979311444008","242"
"21:40:12:121 (H:m:s:ms)","GENERIC","62.103","0.03340520602854116","878"
"21:40:6:60 (H:m:s:ms)","GENERIC","62.039","0.06441322745504396","939"
"21:40:0:0 (H:m:s:ms)","AMBULANCE","62.106","0.06456592389494971","1470"
"21:40:0:0 (H:m:s:ms)","GENERIC","62.059","0.05730905818549196","1469"
"21:40:0:0 (H:m:s:ms)","GENERIC","62.033","0.028126521345217686","1469"
"21:39:53:939 (H:m:s:ms)","GENERIC","62.157","0.027663923728039337","1060"
"21:39:47:878 (H:m:s:ms)","GENERIC","62.063","0.016924192648658954","1121"
"21:39:41:818 (H:m:s:ms)","GENERIC","62.033","0.026573413794076385","181"
"21:6:58:181 (H:m:s:ms)","GENERIC","62.065","0.028645982307229634","818"
"21:7:4:242 (H:m:s:ms)","GENERIC","62.059","0.019317564826177948","758"
"20:46:52:121 (H:m:s:ms)","GENERIC","62.093","0.05454472207671981","878"
"21:7:10:303 (H:m:s:ms)","GENERIC","62.043","0.02261386949854734","696"
"20:46:57:721 (H:m:s:ms)","OPERA","31.009","0.054020062418444745","278"
"21:7:16:363 (H:m:s:ms)","GENERIC","62.143","0.018406684291076798","636"
"20:46:58:181 (H:m:s:ms)","GENERIC","62.101","0.05599359893033267","818"
"21:7:22:105 (H:m:s:ms)","AMBULANCE","31.029","0.019097379583886884","894"
"20:47:4:242 (H:m:s:ms)","GENERIC","62.049","0.01816751897753508","759"
"21:7:22:424 (H:m:s:ms)","GENERIC","62.087","0.03156285290832793","576"
"21:39:29:696 (H:m:s:ms)","GENERIC","62.091","0.05516676932620033","339"
"20:47:5:316 (H:m:s:ms)","OPERA","31.008","0.01283291938333367","683"
"21:7:28:484 (H:m:s:ms)","GENERIC","62.041","0.03749727697409513","515"
"21:39:28:421 (H:m:s:ms)","AMBULANCE","62.093","0.023362243536450552","578"
"20:47:10:303 (H:m:s:ms)","GENERIC","62.053","0.057281920056077185","697"
"21:7:34:545 (H:m:s:ms)","GENERIC","62.105","0.024795319486762096","454"
"20:47:12:911 (H:m:s:ms)","OPERA","31.009","0.05892377202785125","1088"
"21:7:40:606 (H:m:s:ms)","GENERIC","62.031","0.02505338544764895","393"
"20:47:16:363 (H:m:s:ms)","GENERIC","62.147","0.0607508251692667","636"
"21:7:46:666 (H:m:s:ms)","GENERIC","62.021","0.023637978560396615","333"
"20:47:20:506 (H:m:s:ms)","OPERA","31.009","0.024089524396800118","493"
"20:47:22:424 (H:m:s:ms)","GENERIC","62.077","0.055810311371990724","575"
"21:7:52:727 (H:m:s:ms)","GENERIC","62.123","0.017442769815797295","272"
"21:7:53:684 (H:m:s:ms)","AMBULANCE","31.02","0.019317564826177948","315"
"20:47:28:101 (H:m:s:ms)","OPERA","31.008","0.056547655926244854","898"
"21:7:58:787 (H:m:s:ms)","GENERIC","62.069","0.059039136902917365","212"
"20:47:28:484 (H:m:s:ms)","GENERIC","62.041","0.05697072979018911","515"
"21:8:4:848 (H:m:s:ms)","GENERIC","62.135","0.05892377202785125","151"
"20:47:34:545 (H:m:s:ms)","GENERIC","62.117","0.0343907914937223","454"
"21:8:10:909 (H:m:s:ms)","GENERIC","62.079","0.012136684708960769","1090"
"20:47:35:696 (H:m:s:ms)","OPERA","31.008","0.024975198493423823","303"
"21:8:16:969 (H:m:s:ms)","GENERIC","62.081","0.014148488305156146","1030"
"20:47:40:606 (H:m:s:ms)","GENERIC","62.021","0.03296227163105488","393"
"21:8:23:30 (H:m:s:ms)","GENERIC","62.087","0.012528958571212908","969"
"20:47:43:291 (H:m:s:ms)","OPERA","31.009","0.028659143637931893","708"
"21:8:25:263 (H:m:s:ms)","AMBULANCE","31.031","0.023909216355254566","736"
"21:40:18:181 (H:m:s:ms)","GENERIC","62.099","0.033520393894303425","818"
"20:47:46:666 (H:m:s:ms)","GENERIC","62.039","0.03856073472527901","333"
"21:8:29:90 (H:m:s:ms)","GENERIC","62.141","0.04256623402351693","946"
"20:47:50:886 (H:m:s:ms)","OPERA","31.008","0.03609956205311852","113"
"21:8:35:151 (H:m:s:ms)","GENERIC","62.095","0.04332008913810096","848"
"20:47:52:727 (H:m:s:ms)","GENERIC","62.091","0.041972286437321225","272"
"20:47:58:481 (H:m:s:ms)","OPERA","31.009","0.023909216355254566","518"
"21:8:41:212 (H:m:s:ms)","GENERIC","62.013","0.029281612958248562","787"
"21:8:47:272 (H:m:s:ms)","GENERIC","62.095","0.017442769815797295","727"
"20:47:58:787 (H:m:s:ms)","GENERIC","62.093","0.05539966671100113","213"
"21:8:53:333 (H:m:s:ms)","GENERIC","62.165","0.01144862098680374","666"
"20:48:4:848 (H:m:s:ms)","GENERIC","62.129","0.05320773132790886","151"
"21:8:56:842 (H:m:s:ms)","AMBULANCE","31.062","0.018406684291076798","157"
"20:30:0:0 (H:m:s:ms)","GENERIC","62.027","0.028882707075298122","1036"
"20:48:6:75 (H:m:s:ms)","OPERA","31.008","0.019317564826177948","924"
"21:8:59:393 (H:m:s:ms)","GENERIC","62.119","0.032743385034059276","646"
"20:30:0:0 (H:m:s:ms)","GENERIC","62.077","0.058009542855665557","1036"
"20:48:10:909 (H:m:s:ms)","GENERIC","62.085","0.01898167687207122","1090"
"21:9:5:454 (H:m:s:ms)","GENERIC","62.127","0.03236286063349084","545"
"20:30:6:60 (H:m:s:ms)","GENERIC","62.071","0.05789955608370611","939"
"20:48:13:670 (H:m:s:ms)","OPERA","31.007","0.017808616317600078","330"
"21:9:11:515 (H:m:s:ms)","GENERIC","62.135","0.028126521345217686","484"
"20:30:12:121 (H:m:s:ms)","GENERIC","62.081","0.033520393894303425","879"
"20:48:16:969 (H:m:s:ms)","GENERIC","62.067","0.028116169927191164","1030"
"21:9:17:575 (H:m:s:ms)","GENERIC","62.037","0.02505338544764895","424"
"20:30:18:181 (H:m:s:ms)","GENERIC","62.111","0.026814975610128973","818"
"20:48:21:265 (H:m:s:ms)","OPERA","31.009","0.028814912552269305","734"
"21:9:23:636 (H:m:s:ms)","GENERIC","62.093","0.01877878368184401","363"
"20:30:24:242 (H:m:s:ms)","GENERIC","62.091","0.027607972737961825","757"
"20:48:23:30 (H:m:s:ms)","GENERIC","62.117","0.03582827771088738","969"
"21:9:28:421 (H:m:s:ms)","AMBULANCE","31.041","0.029370060209630167","578"
"20:30:30:303 (H:m:s:ms)","GENERIC","62.061","0.027468869987566123","697"
"20:48:28:860 (H:m:s:ms)","OPERA","31.009","0.023195640308530274","139"
"20:30:36:363 (H:m:s:ms)","GENERIC","62.129","0.012528958571212908","636"
"20:48:29:90 (H:m:s:ms)","GENERIC","62.165","0.0356351707322468","948"
"20:30:42:424 (H:m:s:ms)","GENERIC","62.109","0.02417772854041459","575"
"20:30:48:484 (H:m:s:ms)","GENERIC","62.079","0.02417772854041459","515"
"21:9:29:696 (H:m:s:ms)","GENERIC","62.081","0.039092352150099464","341"
"21:9:35:757 (H:m:s:ms)","GENERIC","62.083","0.03609956205311852","242"
"20:48:35:151 (H:m:s:ms)","GENERIC","62.087","0.03697091181949535","848"
"21:9:41:818 (H:m:s:ms)","GENERIC","62.051","0.03313247052610638","181"
"20:48:36:455 (H:m:s:ms)","OPERA","31.009","0.02892570753391548","544"
"21:9:47:878 (H:m:s:ms)","GENERIC","62.047","0.025172415836211437","1121"
"20:30:54:545 (H:m:s:ms)","GENERIC","62.135","0.023909216355254566","455"
"20:48:41:212 (H:m:s:ms)","GENERIC","62.055","0.038267707180807964","787"
"21:9:53:939 (H:m:s:ms)","GENERIC","62.103","0.029281612958248562","1060"
"20:31:0:606 (H:m:s:ms)","GENERIC","62.175","0.023909216355254566","394"
"20:48:44:50 (H:m:s:ms)","OPERA","31.008","0.03075282444785798","949"
"21:10:0:0 (H:m:s:ms)","AMBULANCE","31.041","0.019317564826177948","1037"
"20:31:6:666 (H:m:s:ms)","GENERIC","62.053","0.02417772854041459","333"
"20:48:47:272 (H:m:s:ms)","GENERIC","62.113","0.03156285290832793","727"
"21:10:0:0 (H:m:s:ms)","GENERIC","62.037","0.05454472207671981","1038"
"20:31:12:727 (H:m:s:ms)","GENERIC","62.039","0.028882707075298122","272"
"20:48:51:645 (H:m:s:ms)","OPERA","31.007","0.014148488305156146","354"
"21:10:0:0 (H:m:s:ms)","GENERIC","62.075","0.06047614735255036","1038"
"20:31:18:787 (H:m:s:ms)","GENERIC","62.043","0.028882707075298122","212"
"20:48:53:333 (H:m:s:ms)","GENERIC","62.197","0.029522236262068655","666"
"21:10:6:60 (H:m:s:ms)","GENERIC","62.061","0.06251144379625323","939"
"20:31:24:848 (H:m:s:ms)","GENERIC","62.107","0.02417772854041459","152"
"20:48:59:240 (H:m:s:ms)","OPERA","31.008","0.03136543285068682","799"
"21:10:12:121 (H:m:s:ms)","GENERIC","62.047","0.027663923728039337","878"
"20:31:30:909 (H:m:s:ms)","GENERIC","62.113","0.012136684708960769","1090"
"20:48:59:393 (H:m:s:ms)","GENERIC","62.109","0.03816779145960885","646"
"20:31:36:969 (H:m:s:ms)","GENERIC","62.087","0.01898167687207122","1030"
"20:49:5:454 (H:m:s:ms)","GENERIC","62.097","0.05818590317298249","545"
"20:31:43:30 (H:m:s:ms)","GENERIC","62.075","0.017808616317600078","969"
"20:31:49:90 (H:m:s:ms)","GENERIC","62.107","0.017808616317600078","945"
"20:49:6:835 (H:m:s:ms)","OPERA","31.009","0.05184965349502712","164"
"20:49:11:515 (H:m:s:ms)","GENERIC","62.129","0.05239448907994964","484"
"20:31:55:151 (H:m:s:ms)","GENERIC","62.091","0.02289724197360748","848"
"20:49:14:430 (H:m:s:ms)","OPERA","31.009","0.011782513154382395","569"
"20:32:1:212 (H:m:s:ms)","GENERIC","62.103","0.023177480895246964","787"
"20:49:17:575 (H:m:s:ms)","GENERIC","62.069","0.02779339619466639","424"
"20:32:7:272 (H:m:s:ms)","GENERIC","62.107","0.017442769815797295","727"
"20:49:22:25 (H:m:s:ms)","OPERA","31.008","0.03592860464028533","974"
"20:32:13:333 (H:m:s:ms)","GENERIC","62.061","0.01683846542140446","666"
"20:49:23:636 (H:m:s:ms)","GENERIC","62.067","0.036720498338339964","363"
"20:32:19:393 (H:m:s:ms)","GENERIC","62.067","0.03009660039205877","642"
"20:49:29:620 (H:m:s:ms)","OPERA","31.009","0.026814975610128973","419"
"20:32:25:454 (H:m:s:ms)","GENERIC","62.035","0.0341580744269563","545"
"20:49:29:696 (H:m:s:ms)","GENERIC","62.059","0.056703782091290345","343"
"20:32:31:515 (H:m:s:ms)","GENERIC","62.095","0.023362243536450552","484"
"20:49:35:757 (H:m:s:ms)","GENERIC","62.087","0.06010585697264972","242"
"20:32:37:575 (H:m:s:ms)","GENERIC","62.069","0.023362243536450552","424"
"20:49:37:215 (H:m:s:ms)","OPERA","31.009","0.023909216355254566","784"
"20:32:43:636 (H:m:s:ms)","GENERIC","62.155","0.0341580744269563","363"
"20:32:49:696 (H:m:s:ms)","GENERIC","62.043","0.0341580744269563","339"
"20:49:41:818 (H:m:s:ms)","GENERIC","62.055","0.03520709186078024","181"
"20:49:44:810 (H:m:s:ms)","OPERA","31.008","0.03204421684695042","189"
"20:32:55:757 (H:m:s:ms)","GENERIC","62.151","0.024795319486762096","242"
"20:49:47:878 (H:m:s:ms)","GENERIC","62.063","0.02038568531394672","1121"
"20:33:1:818 (H:m:s:ms)","GENERIC","62.061","0.024640343507028706","181"
"20:49:52:405 (H:m:s:ms)","OPERA","31.009","0.011782513154382395","594"
"20:33:7:878 (H:m:s:ms)","GENERIC","62.087","0.01885821966830531","1121"
"20:49:53:939 (H:m:s:ms)","GENERIC","62.119","0.051415798952892854","1060"
"20:33:13:939 (H:m:s:ms)","GENERIC","62.039","0.028882707075298122","1060"
"20:50:0:0 (H:m:s:ms)","OPERA","31.007","0.055930221431272485","1040"
"20:33:20:0 (H:m:s:ms)","GENERIC","62.037","0.03371244187953255","1035"
"20:50:0:0 (H:m:s:ms)","GENERIC","62.023","0.053476122074438595","1040"
"20:33:26:60 (H:m:s:ms)","GENERIC","62.055","0.03340520602854116","939"
"20:50:0:0 (H:m:s:ms)","GENERIC","62.073","0.0553553030665197","1040"
"20:33:32:121 (H:m:s:ms)","GENERIC","62.155","0.024640343507028706","878"
"20:50:6:60 (H:m:s:ms)","GENERIC","62.075","0.0748849351216849","939"
"20:33:38:181 (H:m:s:ms)","GENERIC","62.037","0.024640343507028706","818"
"20:50:12:121 (H:m:s:ms)","GENERIC","62.049","0.0728083009571734","878"
"20:33:44:242 (H:m:s:ms)","GENERIC","62.071","0.027757526102147663","757"
"20:33:50:303 (H:m:s:ms)","GENERIC","62.145","0.02272827914686813","696"
"20:50:18:181 (H:m:s:ms)","GENERIC","62.085","0.01962984601678365","819"
"20:50:24:242 (H:m:s:ms)","GENERIC","62.111","0.027839978675241607","757"
"20:33:56:363 (H:m:s:ms)","GENERIC","62.067","0.029370060209630167","636"
"20:50:30:303 (H:m:s:ms)","GENERIC","62.037","0.027839978675241607","696"
"20:34:2:424 (H:m:s:ms)","GENERIC","62.059","0.03371244187953255","576"
"20:50:36:363 (H:m:s:ms)","GENERIC","62.131","0.027839978675241607","636"
"20:10:0:0 (H:m:s:ms)","GENERIC","31.045","0.023195640308530274","1000"
"20:34:8:484 (H:m:s:ms)","GENERIC","62.079","0.03434586296041126","515"
"20:50:42:424 (H:m:s:ms)","GENERIC","62.069","0.03404574434861505","575"
"20:10:0:0 (H:m:s:ms)","GENERIC","62.057","0.04218312011545498","1040"
"20:34:14:545 (H:m:s:ms)","GENERIC","62.117","0.027839978675241607","454"
"20:50:48:484 (H:m:s:ms)","GENERIC","62.073","0.03340520602854116","516"
"20:10:6:60 (H:m:s:ms)","GENERIC","62.079","0.042480354447574996","940"
"20:34:20:606 (H:m:s:ms)","GENERIC","62.087","0.027054664064139058","393"
"20:50:54:545 (H:m:s:ms)","GENERIC","62.133","0.03340520602854116","455"
"20:10:12:121 (H:m:s:ms)","GENERIC","62.091","0.017808616317600078","879"
"20:34:26:666 (H:m:s:ms)","GENERIC","62.047","0.03340520602854116","333"
"20:51:0:606 (H:m:s:ms)","GENERIC","62.153","0.02374745480472383","393"
"20:10:18:181 (H:m:s:ms)","GENERIC","62.153","0.030223611555628232","818"
"20:34:32:727 (H:m:s:ms)","GENERIC","62.127","0.028525167374677748","272"
"20:51:6:666 (H:m:s:ms)","GENERIC","62.067","0.02417772854041459","333"
"20:10:24:242 (H:m:s:ms)","GENERIC","62.089","0.027839978675241607","758"
"20:34:38:787 (H:m:s:ms)","GENERIC","62.067","0.028659143637931893","212"
"20:51:12:727 (H:m:s:ms)","GENERIC","62.037","0.02505338544764895","272"
"20:10:30:303 (H:m:s:ms)","GENERIC","62.083","0.027839978675241607","696"
"20:34:44:848 (H:m:s:ms)","GENERIC","62.071","0.033520393894303425","152"
"20:10:36:363 (H:m:s:ms)","GENERIC","62.131","0.027468869987566123","636"
"20:34:50:909 (H:m:s:ms)","GENERIC","62.075","0.010200319630727865","1090"
"20:10:42:424 (H:m:s:ms)","GENERIC","62.115","0.012528958571212908","575"
"20:10:48:484 (H:m:s:ms)","GENERIC","62.095","0.01759084415619444","515"
"20:51:18:787 (H:m:s:ms)","GENERIC","62.039","0.014856154131040673","212"
"20:51:24:848 (H:m:s:ms)","GENERIC","62.109","0.026573413794076385","152"
"20:34:56:969 (H:m:s:ms)","GENERIC","62.029","0.01759084415619444","1030"
"20:51:30:909 (H:m:s:ms)","GENERIC","62.095","0.010200319630727865","1090"
"20:35:3:30 (H:m:s:ms)","GENERIC","62.065","0.03009660039205877","969"
"20:51:36:969 (H:m:s:ms)","GENERIC","62.083","0.02374745480472383","1030"
"20:10:54:545 (H:m:s:ms)","GENERIC","62.131","0.01877878368184401","455"
"20:35:9:90 (H:m:s:ms)","GENERIC","62.079","0.03009660039205877","946"
"20:51:43:30 (H:m:s:ms)","GENERIC","62.093","0.027757526102147663","969"
"20:11:0:606 (H:m:s:ms)","GENERIC","62.147","0.024795319486762096","393"
"20:35:15:151 (H:m:s:ms)","GENERIC","62.107","0.01877878368184401","848"
"20:51:49:90 (H:m:s:ms)","GENERIC","62.127","0.02289724197360748","951"
"20:11:6:666 (H:m:s:ms)","GENERIC","62.081","0.02789604402655295","333"
"20:35:21:212 (H:m:s:ms)","GENERIC","62.139","0.014416693852176123","787"
"20:51:55:151 (H:m:s:ms)","GENERIC","62.071","0.02382101869623052","848"
"20:11:12:727 (H:m:s:ms)","GENERIC","62.057","0.028126521345217686","272"
"20:35:27:272 (H:m:s:ms)","GENERIC","62.095","0.019298158564770664","727"
"20:52:1:212 (H:m:s:ms)","GENERIC","62.093","0.024089524396800118","787"
"20:11:18:787 (H:m:s:ms)","GENERIC","62.031","0.028126521345217686","212"
"20:35:33:333 (H:m:s:ms)","GENERIC","62.125","0.01962984601678365","666"
"20:52:7:272 (H:m:s:ms)","GENERIC","62.071","0.023177480895246964","727"
"20:11:24:848 (H:m:s:ms)","GENERIC","62.079","0.019097379583886884","151"
"20:35:39:393 (H:m:s:ms)","GENERIC","62.127","0.020698802372531775","643"
"20:52:13:333 (H:m:s:ms)","GENERIC","62.081","0.019298158564770664","667"
"20:11:30:909 (H:m:s:ms)","GENERIC","62.077","0.017674270958156865","1090"
"20:35:45:454 (H:m:s:ms)","GENERIC","62.057","0.02038568531394672","545"
"20:11:36:969 (H:m:s:ms)","GENERIC","62.089","0.019298158564770664","1030"
"20:35:51:515 (H:m:s:ms)","GENERIC","62.159","0.01283291938333367","484"
"20:11:43:30 (H:m:s:ms)","GENERIC","62.083","0.01283291938333367","970"
"20:11:49:90 (H:m:s:ms)","GENERIC","62.099","0.017808616317600078","948"
"20:0:54:545 (H:m:s:ms)","GENERIC","31.069","0.028659143637931893","455"
"20:1:0:606 (H:m:s:ms)","GENERIC","31.072","0.02742869061157374","393"
"20:1:6:666 (H:m:s:ms)","GENERIC","31.051","0.022151090099547566","333"
"20:1:12:727 (H:m:s:ms)","GENERIC","31.028","0.029370060209630167","272"
"20:1:18:787 (H:m:s:ms)","GENERIC","31.017","0.027054664064139058","212"
"20:1:24:848 (H:m:s:ms)","GENERIC","31.04","0.020698802372531775","152"
"20:1:30:909 (H:m:s:ms)","GENERIC","31.034","0.026511406437235346","1091"
"20:1:36:969 (H:m:s:ms)","GENERIC","31.045","0.03434586296041126","1030"
"20:1:43:30 (H:m:s:ms)","GENERIC","31.042","0.027663923728039337","969"
"20:1:49:90 (H:m:s:ms)","GENERIC","31.044","0.027286926813617586","924"
"20:35:57:575 (H:m:s:ms)","GENERIC","62.049","0.01759084415619444","424"
"20:36:3:636 (H:m:s:ms)","GENERIC","62.113","0.02272827914686813","363"
"20:11:55:151 (H:m:s:ms)","GENERIC","62.119","0.029501007673251988","848"
"20:36:9:696 (H:m:s:ms)","GENERIC","62.089","0.02289724197360748","339"
"20:12:1:212 (H:m:s:ms)","GENERIC","62.095","0.03340520602854116","787"
"20:36:15:757 (H:m:s:ms)","GENERIC","62.035","0.02905947780107767","242"
"20:12:7:272 (H:m:s:ms)","GENERIC","62.083","0.023195640308530274","727"
"20:36:21:818 (H:m:s:ms)","GENERIC","62.139","0.029281612958248562","181"
"20:12:13:333 (H:m:s:ms)","GENERIC","62.051","0.023195640308530274","666"
"20:36:27:878 (H:m:s:ms)","GENERIC","62.057","0.026511406437235346","1121"
"20:12:19:393 (H:m:s:ms)","GENERIC","62.105","0.02374745480472383","643"
"20:36:33:939 (H:m:s:ms)","GENERIC","62.143","0.03009660039205877","1060"
"20:12:25:454 (H:m:s:ms)","GENERIC","62.081","0.01816751897753508","545"
"20:36:40:0 (H:m:s:ms)","GENERIC","62.111","0.023659661692846147","1037"
"20:12:31:515 (H:m:s:ms)","GENERIC","62.089","0.03043568545972587","484"
"20:36:46:60 (H:m:s:ms)","GENERIC","62.107","0.02382101869623052","939"
"20:12:37:575 (H:m:s:ms)","GENERIC","62.083","0.027839978675241607","424"
"20:36:52:121 (H:m:s:ms)","GENERIC","62.105","0.02289724197360748","878"
"20:12:43:636 (H:m:s:ms)","GENERIC","62.191","0.01962984601678365","363"
"20:12:49:696 (H:m:s:ms)","GENERIC","62.055","0.028126521345217686","339"
"20:1:55:151 (H:m:s:ms)","GENERIC","31.062","0.024640343507028706","849"
"20:2:1:212 (H:m:s:ms)","GENERIC","31.053","0.02505338544764895","787"
"20:2:7:272 (H:m:s:ms)","GENERIC","31.034","0.028126521345217686","727"
"20:2:13:333 (H:m:s:ms)","GENERIC","31.035","0.02289724197360748","667"
"20:2:19:393 (H:m:s:ms)","GENERIC","31.061","0.02905947780107767","621"
"20:2:25:454 (H:m:s:ms)","GENERIC","31.054","0.03301520724498934","545"
"20:2:31:515 (H:m:s:ms)","GENERIC","31.044","0.027757526102147663","485"
"20:2:37:575 (H:m:s:ms)","GENERIC","31.05","0.027757526102147663","424"
"20:2:43:636 (H:m:s:ms)","GENERIC","31.085","0.03340520602854116","363"
"20:2:49:696 (H:m:s:ms)","GENERIC","31.038","0.027054664064139058","319"
"20:36:58:181 (H:m:s:ms)","GENERIC","62.119","0.023177480895246964","818"
"20:37:4:242 (H:m:s:ms)","GENERIC","62.049","0.029719040771681686","758"
"20:12:55:757 (H:m:s:ms)","GENERIC","62.127","0.03434586296041126","242"
"20:37:10:303 (H:m:s:ms)","GENERIC","62.047","0.029719040771681686","697"
"20:13:1:818 (H:m:s:ms)","GENERIC","62.053","0.03009660039205877","181"
"20:37:16:363 (H:m:s:ms)","GENERIC","62.131","0.023177480895246964","636"
"20:13:7:878 (H:m:s:ms)","GENERIC","62.075","0.025682719406725098","1121"
"20:37:22:424 (H:m:s:ms)","GENERIC","62.061","0.019298158564770664","576"
"20:13:13:939 (H:m:s:ms)","GENERIC","62.025","0.033520393894303425","1061"
"20:37:28:484 (H:m:s:ms)","GENERIC","62.059","0.02632843924933388","515"
"20:13:20:0 (H:m:s:ms)","GENERIC","62.075","0.02742869061157374","1038"
"20:37:34:545 (H:m:s:ms)","GENERIC","62.099","0.02892570753391548","455"
"20:13:26:60 (H:m:s:ms)","GENERIC","62.069","0.02742869061157374","939"
"20:37:40:606 (H:m:s:ms)","GENERIC","62.029","0.023659661692846147","393"
"20:13:32:121 (H:m:s:ms)","GENERIC","62.119","0.023909216355254566","878"
"20:37:46:666 (H:m:s:ms)","GENERIC","62.053","0.028525167374677748","333"
"20:13:38:181 (H:m:s:ms)","GENERIC","62.055","0.013326505564128456","818"
"20:37:52:727 (H:m:s:ms)","GENERIC","62.079","0.03301520724498934","272"
"20:13:44:242 (H:m:s:ms)","GENERIC","62.093","0.027054664064139058","757"
"20:13:50:303 (H:m:s:ms)","GENERIC","62.157","0.029501007673251988","697"
"20:2:55:757 (H:m:s:ms)","GENERIC","31.056","0.012320195761372403","242"
"20:3:1:818 (H:m:s:ms)","GENERIC","31.027","0.023195640308530274","181"
"20:3:7:878 (H:m:s:ms)","GENERIC","31.047","0.027757526102147663","122"
"20:3:13:939 (H:m:s:ms)","GENERIC","31.024","0.010200319630727865","1061"
"20:3:20:0 (H:m:s:ms)","GENERIC","31.044","0.02374745480472383","1000"
"20:3:26:60 (H:m:s:ms)","GENERIC","31.045","0.027757526102147663","939"
"20:3:32:121 (H:m:s:ms)","GENERIC","31.056","0.02789604402655295","878"
"20:3:38:181 (H:m:s:ms)","GENERIC","31.022","0.03313247052610638","819"
"20:3:44:242 (H:m:s:ms)","GENERIC","31.042","0.029281612958248562","759"
"20:3:50:303 (H:m:s:ms)","GENERIC","31.073","0.029719040771681686","696"
"20:37:58:787 (H:m:s:ms)","GENERIC","62.103","0.02892570753391548","212"
"20:38:4:848 (H:m:s:ms)","GENERIC","62.123","0.01759084415619444","151"
"20:13:56:363 (H:m:s:ms)","GENERIC","62.057","0.022325489610129166","636"
"20:38:10:909 (H:m:s:ms)","GENERIC","62.083","0.017674270958156865","1091"
"20:14:2:424 (H:m:s:ms)","GENERIC","62.029","0.027286926813617586","575"
"20:38:16:969 (H:m:s:ms)","GENERIC","62.063","0.02289724197360748","1030"
"20:14:8:484 (H:m:s:ms)","GENERIC","62.073","0.028525167374677748","515"
"20:38:23:30 (H:m:s:ms)","GENERIC","62.121","0.01898167687207122","970"
"20:14:14:545 (H:m:s:ms)","GENERIC","62.135","0.023659661692846147","454"
"20:38:29:90 (H:m:s:ms)","GENERIC","62.165","0.019317564826177948","945"
"20:14:20:606 (H:m:s:ms)","GENERIC","62.077","0.02272827914686813","394"
"20:38:35:151 (H:m:s:ms)","GENERIC","62.071","0.03043568545972587","848"
"20:14:26:666 (H:m:s:ms)","GENERIC","62.027","0.02289724197360748","333"
"20:38:41:212 (H:m:s:ms)","GENERIC","62.071","0.027607972737961825","787"
"20:14:32:727 (H:m:s:ms)","GENERIC","62.135","0.01898167687207122","272"
"20:38:47:272 (H:m:s:ms)","GENERIC","62.099","0.02632843924933388","727"
"20:14:38:787 (H:m:s:ms)","GENERIC","62.099","0.019317564826177948","212"
"20:38:53:333 (H:m:s:ms)","GENERIC","62.203","0.02632843924933388","666"
"20:14:44:848 (H:m:s:ms)","GENERIC","62.065","0.03043568545972587","151"
"20:14:50:909 (H:m:s:ms)","GENERIC","62.069","0.017674270958156865","1091"
"20:3:56:363 (H:m:s:ms)","GENERIC","31.028","0.029501007673251988","636"
"20:4:2:424 (H:m:s:ms)","GENERIC","31.019","0.030223611555628232","575"
"20:4:8:484 (H:m:s:ms)","GENERIC","31.032","0.027607972737961825","515"
"20:4:14:545 (H:m:s:ms)","GENERIC","31.073","0.019298158564770664","455"
"20:4:20:606 (H:m:s:ms)","GENERIC","31.031","0.02789604402655295","394"
"20:4:26:666 (H:m:s:ms)","GENERIC","31.02","0.02789604402655295","333"
"20:4:32:727 (H:m:s:ms)","GENERIC","31.073","0.028126521345217686","272"
"20:4:38:787 (H:m:s:ms)","GENERIC","31.062","0.023637978560396615","213"
"20:4:44:848 (H:m:s:ms)","GENERIC","31.04","0.023195640308530274","153"
"20:4:50:909 (H:m:s:ms)","GENERIC","31.041","0.01885821966830531","1090"
"20:38:59:393 (H:m:s:ms)","GENERIC","62.101","0.014416693852176123","643"
"20:39:5:454 (H:m:s:ms)","GENERIC","62.117","0.014416693852176123","545"
"20:14:56:969 (H:m:s:ms)","GENERIC","62.035","0.02272827914686813","1030"
"20:39:11:515 (H:m:s:ms)","GENERIC","62.135","0.02038568531394672","484"
"20:15:3:30 (H:m:s:ms)","GENERIC","62.041","0.02272827914686813","969"
"20:39:17:575 (H:m:s:ms)","GENERIC","62.087","0.028659143637931893","424"
"20:15:9:90 (H:m:s:ms)","GENERIC","62.045","0.02289724197360748","947"
"20:39:23:636 (H:m:s:ms)","GENERIC","62.047","0.02789604402655295","363"
"20:15:15:151 (H:m:s:ms)","GENERIC","62.109","0.017808616317600078","848"
"20:39:29:696 (H:m:s:ms)","GENERIC","62.045","0.019097379583886884","339"
"20:15:21:212 (H:m:s:ms)","GENERIC","62.149","0.02374745480472383","787"
"20:39:35:757 (H:m:s:ms)","GENERIC","62.081","0.02019690138147509","242"
"20:15:27:272 (H:m:s:ms)","GENERIC","62.113","0.023195640308530274","727"
"20:39:41:818 (H:m:s:ms)","GENERIC","62.065","0.024089524396800118","181"
"20:15:33:333 (H:m:s:ms)","GENERIC","62.077","0.017442769815797295","667"
"20:39:47:878 (H:m:s:ms)","GENERIC","62.085","0.016924192648658954","1121"
"20:15:39:393 (H:m:s:ms)","GENERIC","62.149","0.023177480895246964","645"
"20:39:53:939 (H:m:s:ms)","GENERIC","62.107","0.02742869061157374","1061"
"20:15:45:454 (H:m:s:ms)","GENERIC","62.049","0.02272827914686813","545"
"20:15:51:515 (H:m:s:ms)","GENERIC","62.131","0.022151090099547566","484"
"20:4:56:969 (H:m:s:ms)","GENERIC","31.024","0.02019690138147509","1030"
"20:5:3:30 (H:m:s:ms)","GENERIC","31.024","0.02019690138147509","969"
"20:5:9:90 (H:m:s:ms)","GENERIC","31.02","0.020698802372531775","932"
"20:5:15:151 (H:m:s:ms)","GENERIC","31.068","0.012320195761372403","848"
"20:5:21:212 (H:m:s:ms)","GENERIC","31.068","0.023637978560396615","788"
"20:5:27:272 (H:m:s:ms)","GENERIC","31.055","0.02505338544764895","728"
"20:5:33:333 (H:m:s:ms)","GENERIC","31.03","0.014148488305156146","666"
"20:5:39:393 (H:m:s:ms)","GENERIC","31.068","0.02667084363029861","631"
"20:5:45:454 (H:m:s:ms)","GENERIC","31.03","0.03340520602854116","545"
"20:5:51:515 (H:m:s:ms)","GENERIC","31.06","0.03301520724498934","484"
"20:15:57:575 (H:m:s:ms)","GENERIC","62.063","0.022325489610129166","424"
"20:16:3:636 (H:m:s:ms)","GENERIC","62.075","0.01898167687207122","363"
"20:16:9:696 (H:m:s:ms)","GENERIC","62.065","0.014856154131040673","342"
"20:16:15:757 (H:m:s:ms)","GENERIC","62.071","0.027054664064139058","242"
"20:16:21:818 (H:m:s:ms)","GENERIC","62.151","0.03340520602854116","181"
"20:16:27:878 (H:m:s:ms)","GENERIC","62.061","0.025682719406725098","1121"
"20:16:33:939 (H:m:s:ms)","GENERIC","62.181","0.029719040771681686","1060"
"20:16:40:0 (H:m:s:ms)","GENERIC","62.101","0.02261386949854734","1039"
"20:16:46:60 (H:m:s:ms)","GENERIC","62.103","0.027286926813617586","939"
"20:16:52:121 (H:m:s:ms)","GENERIC","62.139","0.027286926813617586","878"
"20:5:57:575 (H:m:s:ms)","GENERIC","31.041","0.03332746930879469","425"
"20:6:3:636 (H:m:s:ms)","GENERIC","31.03","0.03332746930879469","363"
"20:6:9:696 (H:m:s:ms)","GENERIC","31.037","0.03301520724498934","330"
"20:6:15:757 (H:m:s:ms)","GENERIC","31.03","0.027757526102147663","243"
"20:6:21:818 (H:m:s:ms)","GENERIC","31.081","0.02789604402655295","181"
"20:6:27:878 (H:m:s:ms)","GENERIC","31.04","0.03313247052610638","122"
"20:6:33:939 (H:m:s:ms)","GENERIC","31.102","0.01885821966830531","1061"
"20:6:40:0 (H:m:s:ms)","GENERIC","31.05","0.020698802372531775","1000"
"20:6:46:60 (H:m:s:ms)","GENERIC","31.053","0.01962984601678365","939"
"20:6:52:121 (H:m:s:ms)","GENERIC","31.074","0.02272827914686813","878"
"20:16:58:181 (H:m:s:ms)","GENERIC","62.135","0.022151090099547566","818"
"20:17:4:242 (H:m:s:ms)","GENERIC","62.067","0.022151090099547566","758"
"20:17:10:303 (H:m:s:ms)","GENERIC","62.053","0.02261386949854734","696"
"20:17:16:363 (H:m:s:ms)","GENERIC","62.109","0.023177480895246964","636"
"20:17:22:424 (H:m:s:ms)","GENERIC","62.057","0.027757526102147663","575"
"20:17:28:484 (H:m:s:ms)","GENERIC","62.035","0.024640343507028706","515"
"20:17:34:545 (H:m:s:ms)","GENERIC","62.077","0.024640343507028706","454"
"20:17:40:606 (H:m:s:ms)","GENERIC","62.045","0.024640343507028706","393"
"20:17:46:666 (H:m:s:ms)","GENERIC","62.055","0.02505338544764895","333"
"20:17:52:727 (H:m:s:ms)","GENERIC","62.069","0.028882707075298122","273"
"20:6:58:181 (H:m:s:ms)","GENERIC","31.062","0.02272827914686813","818"
"20:7:4:242 (H:m:s:ms)","GENERIC","31.041","0.028126521345217686","758"
"20:7:10:303 (H:m:s:ms)","GENERIC","31.02","0.03332746930879469","696"
"20:7:16:363 (H:m:s:ms)","GENERIC","31.049","0.03332746930879469","636"
"20:7:22:424 (H:m:s:ms)","GENERIC","31.037","0.03332746930879469","576"
"20:7:28:484 (H:m:s:ms)","GENERIC","31.018","0.029281612958248562","515"
"20:7:34:545 (H:m:s:ms)","GENERIC","31.032","0.019317564826177948","455"
"20:7:40:606 (H:m:s:ms)","GENERIC","31.03","0.014416693852176123","394"
"20:7:46:666 (H:m:s:ms)","GENERIC","31.032","0.02038568531394672","334"
"20:7:52:727 (H:m:s:ms)","GENERIC","31.037","0.020698802372531775","273"
"20:17:58:787 (H:m:s:ms)","GENERIC","62.089","0.02382101869623052","212"
"20:18:4:848 (H:m:s:ms)","GENERIC","62.103","0.02905947780107767","152"
"20:18:10:909 (H:m:s:ms)","GENERIC","62.075","0.025682719406725098","1090"
"20:18:16:969 (H:m:s:ms)","GENERIC","62.081","0.02667084363029861","1030"
"20:18:23:30 (H:m:s:ms)","GENERIC","62.155","0.012528958571212908","969"
"20:18:29:90 (H:m:s:ms)","GENERIC","62.185","0.013326505564128456","947"
"20:18:35:151 (H:m:s:ms)","GENERIC","62.043","0.027054664064139058","848"
"20:18:41:212 (H:m:s:ms)","GENERIC","62.097","0.029501007673251988","787"
"20:18:47:272 (H:m:s:ms)","GENERIC","62.091","0.022325489610129166","727"
"20:18:53:333 (H:m:s:ms)","GENERIC","62.165","0.022151090099547566","666"
"20:7:58:787 (H:m:s:ms)","GENERIC","31.038","0.014856154131040673","213"
"20:8:4:848 (H:m:s:ms)","GENERIC","31.053","0.014416693852176123","151"
"20:8:10:909 (H:m:s:ms)","GENERIC","31.046","0.025172415836211437","1091"
"20:8:16:969 (H:m:s:ms)","GENERIC","31.051","0.03313247052610638","1030"
"20:8:23:30 (H:m:s:ms)","GENERIC","31.078","0.033520393894303425","969"
"20:8:29:90 (H:m:s:ms)","GENERIC","31.1","0.03340520602854116","944"
"20:8:35:151 (H:m:s:ms)","GENERIC","31.013","0.03340520602854116","848"
"20:8:41:212 (H:m:s:ms)","GENERIC","31.046","0.029501007673251988","787"
"20:8:47:272 (H:m:s:ms)","GENERIC","31.051","0.022325489610129166","727"
"20:8:53:333 (H:m:s:ms)","GENERIC","31.074","0.022151090099547566","666"
"20:18:59:393 (H:m:s:ms)","GENERIC","62.091","0.029370060209630167","644"
"20:19:5:454 (H:m:s:ms)","GENERIC","62.151","0.02667084363029861","545"
"20:19:11:515 (H:m:s:ms)","GENERIC","62.121","0.02019690138147509","485"
"20:19:17:575 (H:m:s:ms)","GENERIC","62.123","0.020698802372531775","424"
"20:19:23:636 (H:m:s:ms)","GENERIC","62.059","0.013326505564128456","363"
"20:19:29:696 (H:m:s:ms)","GENERIC","62.029","0.02417772854041459","340"
"20:19:35:757 (H:m:s:ms)","GENERIC","62.099","0.028882707075298122","242"
"20:19:41:818 (H:m:s:ms)","GENERIC","62.049","0.024089524396800118","181"
"20:19:47:878 (H:m:s:ms)","GENERIC","62.063","0.026511406437235346","1121"
"20:19:53:939 (H:m:s:ms)","GENERIC","62.119","0.0341580744269563","1061"
"20:8:59:393 (H:m:s:ms)","GENERIC","31.046","0.022151090099547566","642"
"20:9:5:454 (H:m:s:ms)","GENERIC","31.088","0.022151090099547566","545"
"20:9:11:515 (H:m:s:ms)","GENERIC","31.056","0.029370060209630167","484"
"20:9:17:575 (H:m:s:ms)","GENERIC","31.073","0.02667084363029861","424"
"20:9:23:636 (H:m:s:ms)","GENERIC","31.033","0.019097379583886884","363"
"20:9:29:696 (H:m:s:ms)","GENERIC","31.022","0.028126521345217686","342"
"20:9:35:757 (H:m:s:ms)","GENERIC","31.057","0.03332746930879469","242"
"20:9:41:818 (H:m:s:ms)","GENERIC","31.018","0.03313247052610638","181"
"20:9:47:878 (H:m:s:ms)","GENERIC","31.024","0.023909216355254566","122"
"20:9:53:939 (H:m:s:ms)","GENERIC","31.068","0.008837135479078433","1061"
"21:41:0:606 (H:m:s:ms)","GENERIC","62.151","0.024640343507028706","393"
"21:40:54:545 (H:m:s:ms)","GENERIC","62.107","0.03404574434861505","454"
"21:40:48:484 (H:m:s:ms)","GENERIC","62.089","0.027468869987566123","515"
"21:40:42:424 (H:m:s:ms)","GENERIC","62.033","0.02019690138147509","575"
"21:40:36:363 (H:m:s:ms)","GENERIC","62.111","0.02019690138147509","636"
"21:40:30:303 (H:m:s:ms)","GENERIC","62.039","0.019097379583886884","696"
"21:40:24:242 (H:m:s:ms)","GENERIC","62.091","0.02789604402655295","758"
"21:41:18:787 (H:m:s:ms)","GENERIC","62.067","0.019097379583886884","212"
"21:41:12:727 (H:m:s:ms)","GENERIC","62.069","0.027757526102147663","272"
"21:41:6:666 (H:m:s:ms)","GENERIC","62.115","0.024640343507028706","333"
