"time (H:m:s:ms)","type","latency","utilisation","waiting"
"21:42:43:636 (H:m:s:ms)","GENERIC","186.164","0.06465641297206272","363"
"21:42:25:454 (H:m:s:ms)","GENERIC","186.163","0.05364679969131398","545"
"21:42:19:393 (H:m:s:ms)","GENERIC","186.135","0.04669769327672032","642"
"21:42:13:333 (H:m:s:ms)","GENERIC","186.095","0.046695574177951484","666"
"21:42:7:272 (H:m:s:ms)","GENERIC","186.155","0.0741612122846966","727"
"21:42:1:212 (H:m:s:ms)","GENERIC","186.147","0.06157850958530438","787"
"21:41:55:151 (H:m:s:ms)","GENERIC","186.135","0.04669099779684652","848"
"21:41:49:90 (H:m:s:ms)","GENERIC","186.131","0.060277829688688306","946"
"21:41:43:30 (H:m:s:ms)","GENERIC","186.143","0.06709700163008916","969"
"21:42:37:575 (H:m:s:ms)","GENERIC","186.159","0.07905495955874939","424"
"21:42:31:515 (H:m:s:ms)","GENERIC","186.131","0.05051337645754137","484"
"21:43:50:303 (H:m:s:ms)","GENERIC","186.209","0.043959592689054375","696"
"21:43:44:242 (H:m:s:ms)","GENERIC","186.156","0.059450850645899236","757"
"21:43:32:121 (H:m:s:ms)","GENERIC","186.173","0.0708654914567979","878"
"20:0:0:0 (H:m:s:ms)","GENERIC","155.109","0.06394638521181942","1484"
"21:43:26:60 (H:m:s:ms)","GENERIC","186.173","0.07808203533509694","939"
"20:0:6:60 (H:m:s:ms)","GENERIC","155.09799999999998","0.0801820470066315","941"
"21:43:20:0 (H:m:s:ms)","GENERIC","186.16500000000002","0.06961215877728522","1037"
"20:0:12:121 (H:m:s:ms)","GENERIC","155.136","0.0654324700215153","879"
"21:43:13:939 (H:m:s:ms)","GENERIC","186.215","0.04622907810593392","1060"
"20:0:18:181 (H:m:s:ms)","GENERIC","155.123","0.055381590170366146","819"
"21:43:7:878 (H:m:s:ms)","GENERIC","186.163","0.06298362804115962","1121"
"20:0:24:242 (H:m:s:ms)","GENERIC","155.113","0.05306846624315682","759"
"21:43:1:818 (H:m:s:ms)","GENERIC","186.195","0.06307415327963943","181"
"20:0:30:303 (H:m:s:ms)","GENERIC","155.10399999999998","0.06393028594224894","697"
"21:42:55:757 (H:m:s:ms)","GENERIC","186.201","0.05654105733813671","242"
"20:0:36:363 (H:m:s:ms)","GENERIC","155.142","0.06302511430054653","636"
"21:42:49:696 (H:m:s:ms)","GENERIC","186.111","0.06478518446079004","341"
"20:0:42:424 (H:m:s:ms)","GENERIC","155.109","0.07877751615506597","575"
"21:10:24:242 (H:m:s:ms)","GENERIC","186.121","0.06303449016836585","758"
"20:0:48:484 (H:m:s:ms)","GENERIC","155.149","0.07065409652083887","516"
"21:10:30:303 (H:m:s:ms)","GENERIC","186.191","0.06428177922490959","696"
"21:10:36:363 (H:m:s:ms)","GENERIC","186.225","0.04919373058881232","636"
"21:10:42:424 (H:m:s:ms)","GENERIC","186.15300000000002","0.07781060640859652","575"
"21:10:48:484 (H:m:s:ms)","GENERIC","186.138","0.04353947510906899","515"
"21:10:54:545 (H:m:s:ms)","GENERIC","186.124","0.045158037719526305","454"
"21:11:0:606 (H:m:s:ms)","GENERIC","186.149","0.07674726013363878","393"
"21:11:6:666 (H:m:s:ms)","GENERIC","186.119","0.06036673934567","333"
"21:43:38:181 (H:m:s:ms)","GENERIC","186.175","0.04406679577290821","818"
"21:11:12:727 (H:m:s:ms)","GENERIC","186.181","0.06196450784075196","272"
"21:11:18:787 (H:m:s:ms)","GENERIC","186.175","0.062713726035084","212"
"21:25:56:962 (H:m:s:ms)","OPERA","155.085","0.0700919792238041","1038"
"21:44:56:969 (H:m:s:ms)","GENERIC","186.237","0.06120200981793451","1030"
"21:44:50:909 (H:m:s:ms)","GENERIC","186.187","0.049031439110773206","1090"
"21:44:44:848 (H:m:s:ms)","GENERIC","186.179","0.0666534622939097","152"
"21:44:38:787 (H:m:s:ms)","GENERIC","186.135","0.06300731858272812","212"
"21:44:32:727 (H:m:s:ms)","GENERIC","186.176","0.06418861312510109","272"
"21:44:26:666 (H:m:s:ms)","GENERIC","186.085","0.06200971276110993","333"
"21:44:20:606 (H:m:s:ms)","GENERIC","186.079","0.0764619064070617","393"
"21:44:14:545 (H:m:s:ms)","GENERIC","186.191","0.06348398181982277","455"
"21:44:8:484 (H:m:s:ms)","GENERIC","186.159","0.06733227451020318","515"
"21:44:2:424 (H:m:s:ms)","GENERIC","186.187","0.07762232031410324","575"
"21:11:24:848 (H:m:s:ms)","GENERIC","186.201","0.07825619620877411","151"
"21:43:56:363 (H:m:s:ms)","GENERIC","186.14600000000002","0.07693877553276834","636"
"21:11:30:909 (H:m:s:ms)","GENERIC","186.14","0.06542397784971121","1090"
"21:11:36:969 (H:m:s:ms)","GENERIC","186.163","0.06711923999528582","1030"
"21:11:43:30 (H:m:s:ms)","GENERIC","186.177","0.06638747013701443","969"
"21:11:49:90 (H:m:s:ms)","GENERIC","186.133","0.04672612297130859","946"
"21:11:55:151 (H:m:s:ms)","GENERIC","186.138","0.046075862622335415","848"
"21:12:1:212 (H:m:s:ms)","GENERIC","186.17","0.06559734934061026","787"
"21:12:7:272 (H:m:s:ms)","GENERIC","186.203","0.04886178116767735","727"
"21:12:13:333 (H:m:s:ms)","GENERIC","186.139","0.050421329457765236","666"
"21:12:19:393 (H:m:s:ms)","GENERIC","186.085","0.059424124113965596","641"
"21:26:33:939 (H:m:s:ms)","GENERIC","186.178","0.052772094633991094","1061"
"21:46:3:636 (H:m:s:ms)","GENERIC","186.162","0.04389756555801323","363"
"21:26:27:878 (H:m:s:ms)","GENERIC","186.174","0.08860108532730333","1121"
"21:45:57:575 (H:m:s:ms)","GENERIC","186.191","0.054608091078409374","424"
"21:45:51:515 (H:m:s:ms)","GENERIC","186.153","0.05593763957534125","484"
"21:45:45:454 (H:m:s:ms)","GENERIC","186.18900000000002","0.06927895581920848","545"
"21:26:21:818 (H:m:s:ms)","GENERIC","186.156","0.1081044682761454","181"
"21:26:19:746 (H:m:s:ms)","OPERA","155.151","0.11006495828383335","290"
"21:45:39:393 (H:m:s:ms)","GENERIC","186.133","0.06759572943824183","645"
"21:26:15:757 (H:m:s:ms)","GENERIC","186.17000000000002","0.10241997179460662","242"
"21:45:33:333 (H:m:s:ms)","GENERIC","186.121","0.06190961553627822","666"
"21:26:12:151 (H:m:s:ms)","OPERA","155.151","0.10098544976972886","848"
"21:45:27:272 (H:m:s:ms)","GENERIC","186.127","0.06197806860276963","727"
"21:26:9:696 (H:m:s:ms)","GENERIC","186.192","0.07842669212332275","342"
"21:45:21:212 (H:m:s:ms)","GENERIC","186.209","0.07791020547190179","787"
"21:26:4:556 (H:m:s:ms)","OPERA","186.15699999999998","0.0733875668029311","445"
"21:45:15:151 (H:m:s:ms)","GENERIC","186.159","0.05046042661022028","848"
"21:12:25:454 (H:m:s:ms)","GENERIC","186.201","0.05362159236940935","545"
"21:26:3:636 (H:m:s:ms)","GENERIC","186.216","0.055824937360433105","363"
"21:45:9:90 (H:m:s:ms)","GENERIC","186.10500000000002","0.07749178225643714","948"
"21:12:31:515 (H:m:s:ms)","GENERIC","186.201","0.06363999228123675","484"
"21:25:57:575 (H:m:s:ms)","GENERIC","186.227","0.0863265115143469","424"
"21:45:3:30 (H:m:s:ms)","GENERIC","186.14100000000002","0.07209432855514092","969"
"21:12:37:575 (H:m:s:ms)","GENERIC","186.16","0.06227937757510144","424"
"21:12:43:636 (H:m:s:ms)","GENERIC","186.169","0.06133919415682693","363"
"21:12:49:696 (H:m:s:ms)","GENERIC","186.112","0.06593328964181727","341"
"21:12:55:757 (H:m:s:ms)","GENERIC","186.203","0.07591626397694495","242"
"21:13:1:818 (H:m:s:ms)","GENERIC","186.206","0.06470680968932581","181"
"21:13:7:878 (H:m:s:ms)","GENERIC","186.175","0.06285069934770819","1122"
"21:13:13:939 (H:m:s:ms)","GENERIC","186.211","0.07640271201385469","1061"
"21:13:20:0 (H:m:s:ms)","GENERIC","186.159","0.06317156883567202","1035"
"21:26:27:341 (H:m:s:ms)","OPERA","186.07999999999998","0.06580795300641319","658"
"21:27:10:303 (H:m:s:ms)","GENERIC","186.10399999999998","0.09854166812333989","696"
"21:47:10:303 (H:m:s:ms)","GENERIC","186.163","0.06903259390008049","696"
"21:27:5:316 (H:m:s:ms)","OPERA","155.14","0.08263120936235746","683"
"21:47:4:242 (H:m:s:ms)","GENERIC","186.16500000000002","0.07007196257976005","758"
"21:27:4:242 (H:m:s:ms)","GENERIC","186.115","0.04982243676990308","758"
"21:46:58:181 (H:m:s:ms)","GENERIC","186.201","0.06715170313988465","818"
"21:46:52:121 (H:m:s:ms)","GENERIC","186.101","0.07832986396633292","878"
"21:46:46:60 (H:m:s:ms)","GENERIC","186.187","0.05581551586585549","939"
"21:26:58:181 (H:m:s:ms)","GENERIC","186.222","0.08914409440702417","818"
"21:26:57:721 (H:m:s:ms)","OPERA","155.168","0.10256756735371358","279"
"21:26:52:121 (H:m:s:ms)","GENERIC","186.126","0.0981986582969643","878"
"21:46:40:0 (H:m:s:ms)","GENERIC","186.099","0.05806553547213575","1038"
"21:26:50:126 (H:m:s:ms)","OPERA","155.151","0.09391257512789626","873"
"21:46:33:939 (H:m:s:ms)","GENERIC","186.147","0.06303449016836585","1061"
"21:26:46:60 (H:m:s:ms)","GENERIC","186.16","0.10431161239658855","939"
"21:46:27:878 (H:m:s:ms)","GENERIC","186.143","0.06372554382570769","1121"
"21:13:26:60 (H:m:s:ms)","GENERIC","186.16500000000002","0.04498022562028712","939"
"21:26:42:531 (H:m:s:ms)","OPERA","186.172","0.10790282056753779","468"
"21:46:21:818 (H:m:s:ms)","GENERIC","186.20999999999998","0.06227301743155648","181"
"21:13:32:121 (H:m:s:ms)","GENERIC","186.163","0.05757476339522372","878"
"21:26:40:0 (H:m:s:ms)","GENERIC","186.112","0.09448738384076723","1036"
"21:46:15:757 (H:m:s:ms)","GENERIC","186.149","0.0687011262889192","242"
"21:13:38:181 (H:m:s:ms)","GENERIC","186.175","0.06411225411652566","819"
"21:26:34:936 (H:m:s:ms)","OPERA","155.151","0.08457103121144852","1063"
"21:46:9:696 (H:m:s:ms)","GENERIC","186.213","0.06461108545250159","343"
"21:13:44:242 (H:m:s:ms)","GENERIC","186.156","0.0612614659944674","758"
"21:13:50:303 (H:m:s:ms)","GENERIC","186.233","0.04424242462491895","696"
"21:13:56:363 (H:m:s:ms)","GENERIC","186.13400000000001","0.06281064841586392","636"
"21:14:2:424 (H:m:s:ms)","GENERIC","186.166","0.06418442819236507","575"
"21:14:8:484 (H:m:s:ms)","GENERIC","186.121","0.06103362336381486","515"
"21:14:14:545 (H:m:s:ms)","GENERIC","186.169","0.06245787196671904","454"
"21:14:20:606 (H:m:s:ms)","GENERIC","186.131","0.06383692501809365","393"
"21:27:46:666 (H:m:s:ms)","GENERIC","186.18","0.08434063086142189","333"
"21:48:16:969 (H:m:s:ms)","GENERIC","186.233","0.07504304373397928","1030"
"21:27:43:291 (H:m:s:ms)","OPERA","186.15699999999998","0.09375256789567164","708"
"21:48:10:909 (H:m:s:ms)","GENERIC","186.12099999999998","0.05169838579499604","1090"
"21:27:40:606 (H:m:s:ms)","GENERIC","186.13400000000001","0.09155190485592418","393"
"21:48:4:848 (H:m:s:ms)","GENERIC","186.14100000000002","0.06620965148963094","152"
"21:27:35:696 (H:m:s:ms)","OPERA","186.155","0.08516746818032142","304"
"21:47:58:787 (H:m:s:ms)","GENERIC","186.109","0.06078568278329936","212"
"21:47:52:727 (H:m:s:ms)","GENERIC","186.197","0.06833841747168246","272"
"21:47:46:666 (H:m:s:ms)","GENERIC","186.177","0.05898177067298091","333"
"21:27:34:545 (H:m:s:ms)","GENERIC","186.212","0.05572586692607247","454"
"21:27:28:484 (H:m:s:ms)","GENERIC","186.188","0.08551933168932899","515"
"21:27:28:101 (H:m:s:ms)","OPERA","186.078","0.06414443116218198","898"
"21:47:40:606 (H:m:s:ms)","GENERIC","186.125","0.049867057023524564","394"
"21:14:26:666 (H:m:s:ms)","GENERIC","186.121","0.06712710892358509","333"
"21:27:22:424 (H:m:s:ms)","GENERIC","186.122","0.0749297686764863","575"
"21:47:34:545 (H:m:s:ms)","GENERIC","186.155","0.04777763872580559","454"
"21:14:32:727 (H:m:s:ms)","GENERIC","186.143","0.06445380612270359","272"
"21:27:20:506 (H:m:s:ms)","OPERA","186.144","0.09102977445035917","493"
"21:47:28:484 (H:m:s:ms)","GENERIC","186.111","0.07416205999810614","515"
"20:52:25:454 (H:m:s:ms)","GENERIC","186.195","0.061916786442676605","545"
"21:14:38:787 (H:m:s:ms)","GENERIC","186.14100000000002","0.07748352059378442","212"
"21:27:16:363 (H:m:s:ms)","GENERIC","186.106","0.09372945542799888","636"
"21:47:22:424 (H:m:s:ms)","GENERIC","186.1","0.07946004402934519","575"
"20:52:31:515 (H:m:s:ms)","GENERIC","186.24099999999999","0.07653065790851475","484"
"21:14:44:848 (H:m:s:ms)","GENERIC","186.173","0.05440700180023716","151"
"21:27:12:911 (H:m:s:ms)","OPERA","155.14","0.09804804995510397","1088"
"21:47:16:363 (H:m:s:ms)","GENERIC","186.14100000000002","0.07020997103052998","636"
"20:52:37:575 (H:m:s:ms)","GENERIC","186.168","0.0697318587160608","424"
"21:14:50:909 (H:m:s:ms)","GENERIC","186.229","0.06543905540656826","1090"
"20:52:43:636 (H:m:s:ms)","GENERIC","186.207","0.054823499644747156","363"
"21:14:56:969 (H:m:s:ms)","GENERIC","186.186","0.06281064841586392","1030"
"20:52:49:696 (H:m:s:ms)","GENERIC","186.11","0.06922466528059355","347"
"21:15:3:30 (H:m:s:ms)","GENERIC","186.129","0.05436325866892717","970"
"20:52:55:757 (H:m:s:ms)","GENERIC","186.18099999999998","0.06504853353482114","242"
"21:15:9:90 (H:m:s:ms)","GENERIC","186.10500000000002","0.0603266855925498","943"
"20:53:1:818 (H:m:s:ms)","GENERIC","186.219","0.07624672085075984","181"
"21:15:15:151 (H:m:s:ms)","GENERIC","186.197","0.06979511386319433","848"
"20:53:7:878 (H:m:s:ms)","GENERIC","186.19299999999998","0.06606948663494831","1121"
"21:15:21:212 (H:m:s:ms)","GENERIC","186.175","0.06484656672769183","787"
"20:53:13:939 (H:m:s:ms)","GENERIC","186.176","0.07584222899037292","1060"
"20:53:20:0 (H:m:s:ms)","GENERIC","186.2","0.051535398893865304","1045"
"21:28:23:30 (H:m:s:ms)","GENERIC","186.124","0.08953883120875439","969"
"21:49:23:636 (H:m:s:ms)","GENERIC","186.206","0.04614904371945166","363"
"21:28:21:265 (H:m:s:ms)","OPERA","186.14600000000002","0.08713057870083364","734"
"21:49:17:575 (H:m:s:ms)","GENERIC","186.131","0.05261708232108817","424"
"21:28:16:969 (H:m:s:ms)","GENERIC","186.204","0.08214005101300001","1030"
"21:49:11:515 (H:m:s:ms)","GENERIC","186.203","0.0628340872813414","485"
"21:28:13:670 (H:m:s:ms)","OPERA","186.14600000000002","0.06840549188722124","329"
"21:49:5:454 (H:m:s:ms)","GENERIC","186.127","0.06469501654071534","545"
"21:28:10:909 (H:m:s:ms)","GENERIC","186.096","0.05597602153009518","1090"
"21:48:59:393 (H:m:s:ms)","GENERIC","186.174","0.06639836072911748","648"
"21:48:53:333 (H:m:s:ms)","GENERIC","186.127","0.06780378368941997","666"
"21:48:47:272 (H:m:s:ms)","GENERIC","186.181","0.06826719076903523","727"
"21:28:6:75 (H:m:s:ms)","OPERA","186.14600000000002","0.08530162220574812","924"
"21:15:27:272 (H:m:s:ms)","GENERIC","186.171","0.06986647494670237","728"
"21:28:4:848 (H:m:s:ms)","GENERIC","186.135","0.08003595166118946","152"
"21:15:33:333 (H:m:s:ms)","GENERIC","186.161","0.06775794847024916","666"
"21:27:58:787 (H:m:s:ms)","GENERIC","186.174","0.07078570846697366","212"
"21:48:41:212 (H:m:s:ms)","GENERIC","186.201","0.06405474029162146","787"
"20:53:26:60 (H:m:s:ms)","GENERIC","186.18099999999998","0.06438159837633203","939"
"21:15:39:393 (H:m:s:ms)","GENERIC","186.103","0.076522942659603","640"
"21:27:58:481 (H:m:s:ms)","OPERA","186.09","0.04615230828366261","518"
"21:48:35:151 (H:m:s:ms)","GENERIC","186.191","0.0693467080074983","848"
"20:53:32:121 (H:m:s:ms)","GENERIC","186.152","0.06224635459662916","878"
"21:15:45:454 (H:m:s:ms)","GENERIC","186.123","0.06363428268287909","545"
"21:27:52:727 (H:m:s:ms)","GENERIC","186.184","0.09958422567824306","272"
"21:48:29:90 (H:m:s:ms)","GENERIC","186.154","0.049989694507424645","948"
"20:53:38:181 (H:m:s:ms)","GENERIC","186.162","0.049696051368440436","818"
"21:15:51:515 (H:m:s:ms)","GENERIC","186.187","0.04792020729743712","484"
"21:27:50:886 (H:m:s:ms)","OPERA","155.151","0.09874026969451499","113"
"21:48:23:30 (H:m:s:ms)","GENERIC","186.11700000000002","0.06489666619195561","970"
"20:53:44:242 (H:m:s:ms)","GENERIC","186.15","0.05667920948643694","758"
"21:15:57:575 (H:m:s:ms)","GENERIC","186.149","0.06266467395113447","424"
"20:53:50:303 (H:m:s:ms)","GENERIC","186.197","0.06388004140401413","696"
"21:16:3:636 (H:m:s:ms)","GENERIC","186.199","0.06712710892358509","363"
"20:53:56:363 (H:m:s:ms)","GENERIC","186.154","0.07010153465331112","636"
"21:16:9:696 (H:m:s:ms)","GENERIC","186.171","0.06307415327963943","338"
"20:54:2:424 (H:m:s:ms)","GENERIC","186.173","0.04403923933590285","575"
"21:16:15:757 (H:m:s:ms)","GENERIC","186.143","0.05219103133421565","242"
"20:54:8:484 (H:m:s:ms)","GENERIC","186.12099999999998","0.07426461650688733","515"
"21:16:21:818 (H:m:s:ms)","GENERIC","186.127","0.07808222637387903","181"
"20:54:14:545 (H:m:s:ms)","GENERIC","186.174","0.06916240514677757","454"
"20:54:20:606 (H:m:s:ms)","GENERIC","186.107","0.04965342024143572","393"
"21:28:59:393 (H:m:s:ms)","GENERIC","186.228","0.084006754654222","642"
"21:28:59:240 (H:m:s:ms)","OPERA","186.079","0.050784619591843536","795"
"21:28:53:333 (H:m:s:ms)","GENERIC","186.138","0.08176009708275572","666"
"21:28:51:645 (H:m:s:ms)","OPERA","155.14","0.10065323665927312","354"
"22:6:18:947 (H:m:s:ms)","AMBULANCE","186.202","0.0629639014856934","1059"
"21:28:47:272 (H:m:s:ms)","GENERIC","186.11","0.09459396960829927","727"
"22:0:31:578 (H:m:s:ms)","AMBULANCE","186.112","0.06507749216627942","421"
"21:28:44:50 (H:m:s:ms)","OPERA","155.14","0.08251194651885414","950"
"21:50:0:0 (H:m:s:ms)","GENERIC","186.205","0.0430010664783536","1037"
"21:49:53:939 (H:m:s:ms)","GENERIC","186.156","0.061878118985813205","1060"
"21:49:47:878 (H:m:s:ms)","GENERIC","186.229","0.06810280561653455","1121"
"21:16:27:878 (H:m:s:ms)","GENERIC","186.118","0.06616943643328412","1121"
"21:16:33:939 (H:m:s:ms)","GENERIC","186.15300000000002","0.046224543571239986","1061"
"21:28:41:212 (H:m:s:ms)","GENERIC","186.164","0.08320801628901418","787"
"20:54:26:666 (H:m:s:ms)","GENERIC","186.18","0.06530674464926026","333"
"21:16:40:0 (H:m:s:ms)","GENERIC","186.115","0.07179756623643538","1034"
"21:28:36:455 (H:m:s:ms)","OPERA","186.144","0.08795455105622961","544"
"20:54:32:727 (H:m:s:ms)","GENERIC","186.176","0.055168407819740965","272"
"21:16:46:60 (H:m:s:ms)","GENERIC","186.172","0.060572673986553256","939"
"21:28:35:151 (H:m:s:ms)","GENERIC","186.11599999999999","0.06756412741825196","848"
"21:49:41:818 (H:m:s:ms)","GENERIC","186.165","0.06329850084534104","181"
"20:54:38:787 (H:m:s:ms)","GENERIC","186.135","0.06183967336362322","212"
"21:16:52:121 (H:m:s:ms)","GENERIC","186.095","0.06598387991549104","878"
"21:28:29:90 (H:m:s:ms)","GENERIC","186.245","0.0819234813096182","947"
"21:49:35:757 (H:m:s:ms)","GENERIC","186.175","0.06593328964181727","242"
"20:54:44:848 (H:m:s:ms)","GENERIC","186.162","0.052484097393031795","152"
"21:16:58:181 (H:m:s:ms)","GENERIC","186.219","0.06570109810708337","818"
"21:28:28:860 (H:m:s:ms)","OPERA","186.14600000000002","0.09443158758214716","139"
"21:49:29:696 (H:m:s:ms)","GENERIC","186.145","0.043787580058123325","341"
"20:54:50:909 (H:m:s:ms)","GENERIC","186.264","0.06899928194549472","1090"
"21:17:4:242 (H:m:s:ms)","GENERIC","186.121","0.07709469173030244","758"
"20:54:56:969 (H:m:s:ms)","GENERIC","186.179","0.06478170595129049","1030"
"21:17:10:303 (H:m:s:ms)","GENERIC","186.109","0.06897963954972712","696"
"20:55:3:30 (H:m:s:ms)","GENERIC","186.101","0.06401235872682601","969"
"21:17:16:363 (H:m:s:ms)","GENERIC","186.131","0.05578375072940403","636"
"20:55:9:90 (H:m:s:ms)","GENERIC","186.147","0.07383719056087013","952"
"21:17:22:424 (H:m:s:ms)","GENERIC","186.132","0.06475459829151299","575"
"20:55:15:151 (H:m:s:ms)","GENERIC","186.141","0.06517048657844486","848"
"20:55:21:212 (H:m:s:ms)","GENERIC","186.176","0.04968989211632239","787"
"21:29:37:215 (H:m:s:ms)","OPERA","186.155","0.0847930970307676","784"
"21:29:35:757 (H:m:s:ms)","GENERIC","186.212","0.05195219824394289","243"
"21:29:29:696 (H:m:s:ms)","GENERIC","186.188","0.09501997679486339","339"
"21:29:29:620 (H:m:s:ms)","OPERA","186.078","0.07480950270189021","415"
"21:29:23:636 (H:m:s:ms)","GENERIC","186.209","0.09398411217315654","363"
"21:29:22:25 (H:m:s:ms)","OPERA","186.143","0.09314487703120268","975"
"21:29:17:575 (H:m:s:ms)","GENERIC","186.17","0.0980891121681597","424"
"21:17:28:484 (H:m:s:ms)","GENERIC","186.15300000000002","0.06391229851610568","515"
"21:17:34:545 (H:m:s:ms)","GENERIC","186.164","0.04833985036334572","454"
"20:55:27:272 (H:m:s:ms)","GENERIC","186.151","0.07629046104334891","727"
"21:17:40:606 (H:m:s:ms)","GENERIC","186.137","0.062088865774379956","393"
"20:55:33:333 (H:m:s:ms)","GENERIC","186.165","0.06290722985639283","666"
"21:17:46:666 (H:m:s:ms)","GENERIC","186.156","0.06314187708629128","333"
"21:29:14:430 (H:m:s:ms)","OPERA","155.14","0.10312802322727492","570"
"20:55:39:393 (H:m:s:ms)","GENERIC","186.137","0.06127364945110571","649"
"21:17:52:727 (H:m:s:ms)","GENERIC","186.154","0.054085373939619534","272"
"21:29:11:515 (H:m:s:ms)","GENERIC","186.198","0.0983873109388254","484"
"20:55:45:454 (H:m:s:ms)","GENERIC","186.152","0.06454679943197132","545"
"21:17:58:787 (H:m:s:ms)","GENERIC","186.125","0.07576124046897627","212"
"21:29:6:835 (H:m:s:ms)","OPERA","186.14600000000002","0.0831408501563755","164"
"20:55:51:515 (H:m:s:ms)","GENERIC","186.18200000000002","0.05484192264969445","484"
"21:18:4:848 (H:m:s:ms)","GENERIC","186.161","0.07798340736420148","151"
"21:29:5:454 (H:m:s:ms)","GENERIC","186.142","0.0542874699725248","545"
"20:55:57:575 (H:m:s:ms)","GENERIC","186.154","0.07812140935507501","424"
"21:18:10:909 (H:m:s:ms)","GENERIC","186.13299999999998","0.0541812301174345","1090"
"20:56:3:636 (H:m:s:ms)","GENERIC","186.237","0.062451183356915026","363"
"21:18:16:969 (H:m:s:ms)","GENERIC","186.189","0.04382478357123283","1031"
"20:56:9:696 (H:m:s:ms)","GENERIC","186.141","0.051489458290908015","347"
"21:18:23:30 (H:m:s:ms)","GENERIC","186.131","0.06440404726899927","970"
"20:56:15:757 (H:m:s:ms)","GENERIC","186.132","0.07893542344758962","242"
"20:56:21:818 (H:m:s:ms)","GENERIC","186.138","0.04878074670997863","182"
"21:30:12:121 (H:m:s:ms)","GENERIC","186.162","0.05087387685291636","878"
"21:30:6:60 (H:m:s:ms)","GENERIC","186.148","0.06131654106609249","939"
"21:30:0:0 (H:m:s:ms)","GENERIC","186.353","0.130438714386559","1035"
"21:30:0:0 (H:m:s:ms)","AMBULANCE","186.26600000000002","0.12198827090783713","1035"
"21:30:0:0 (H:m:s:ms)","GENERIC","186.195","0.09816751439635367","1035"
"21:30:0:0 (H:m:s:ms)","OPERA","186.108","0.06851432347099766","1035"
"21:29:53:939 (H:m:s:ms)","GENERIC","186.196","0.09691418617056803","1060"
"21:29:52:405 (H:m:s:ms)","OPERA","155.151","0.08674476460786969","594"
"21:18:29:90 (H:m:s:ms)","GENERIC","186.209","0.05758404870933791","944"
"21:18:35:151 (H:m:s:ms)","GENERIC","186.12900000000002","0.06428280299818824","849"
"20:56:27:878 (H:m:s:ms)","GENERIC","186.111","0.06573426161081458","1121"
"21:18:41:212 (H:m:s:ms)","GENERIC","186.169","0.0669365568895519","788"
"20:56:33:939 (H:m:s:ms)","GENERIC","186.135","0.052513328128408227","1060"
"21:18:47:272 (H:m:s:ms)","GENERIC","186.119","0.06877988068939839","727"
"20:40:0:0 (H:m:s:ms)","OPERA","155.077","0.060957836214328126","1483"
"20:56:40:0 (H:m:s:ms)","GENERIC","186.093","0.07800426297215356","1043"
"21:18:53:333 (H:m:s:ms)","GENERIC","186.111","0.042217731843806165","666"
"20:40:0:0 (H:m:s:ms)","GENERIC","186.172","0.07582606063724327","1483"
"20:56:46:60 (H:m:s:ms)","GENERIC","186.173","0.050409560747284386","939"
"21:18:59:393 (H:m:s:ms)","GENERIC","186.155","0.0475287579021067","640"
"21:29:47:878 (H:m:s:ms)","GENERIC","186.184","0.09680990373622535","1121"
"20:40:0:0 (H:m:s:ms)","GENERIC","186.298","0.11273193448586546","1483"
"20:56:52:121 (H:m:s:ms)","GENERIC","186.101","0.06193927700378693","878"
"21:19:5:454 (H:m:s:ms)","GENERIC","186.179","0.06975761366644236","545"
"21:29:44:810 (H:m:s:ms)","OPERA","186.155","0.09709462102012334","189"
"20:40:6:60 (H:m:s:ms)","GENERIC","186.192","0.052954363914670226","939"
"20:56:58:181 (H:m:s:ms)","GENERIC","186.257","0.043522896107506724","818"
"21:19:11:515 (H:m:s:ms)","GENERIC","186.195","0.07709071524676223","484"
"21:29:41:818 (H:m:s:ms)","GENERIC","186.164","0.08721142557435552","181"
"20:40:7:594 (H:m:s:ms)","OPERA","155.167","0.10232352041310126","405"
"20:57:4:242 (H:m:s:ms)","GENERIC","186.10899999999998","0.07452333243930014","758"
"21:19:17:575 (H:m:s:ms)","GENERIC","186.13400000000001","0.06342713882567502","424"
"20:40:12:121 (H:m:s:ms)","GENERIC","186.2","0.10965065214003153","878"
"20:57:10:303 (H:m:s:ms)","GENERIC","186.11599999999999","0.0642266795289062","696"
"21:19:23:636 (H:m:s:ms)","GENERIC","186.157","0.06673928535245861","363"
"20:40:15:189 (H:m:s:ms)","OPERA","155.15","0.09156506271894684","810"
"20:57:16:363 (H:m:s:ms)","GENERIC","186.166","0.05416085463310327","636"
"20:40:18:181 (H:m:s:ms)","GENERIC","186.122","0.07460865501786774","818"
"20:57:22:424 (H:m:s:ms)","GENERIC","186.131","0.06405094559896224","575"
"20:40:22:784 (H:m:s:ms)","OPERA","155.151","0.08058378759218557","215"
"20:40:24:242 (H:m:s:ms)","GENERIC","186.124","0.09877453413653428","757"
"21:30:30:303 (H:m:s:ms)","GENERIC","186.156","0.06422200422039342","696"
"21:31:6:666 (H:m:s:ms)","GENERIC","186.105","0.10415675449226938","333"
"21:31:3:157 (H:m:s:ms)","AMBULANCE","186.238","0.1031946387982371","842"
"21:31:0:606 (H:m:s:ms)","GENERIC","186.15","0.06358119161753754","393"
"21:30:54:545 (H:m:s:ms)","GENERIC","186.13299999999998","0.08149642902992736","455"
"21:30:48:484 (H:m:s:ms)","GENERIC","186.131","0.07606296243100391","515"
"21:30:42:424 (H:m:s:ms)","GENERIC","186.163","0.058663158739291225","575"
"21:30:36:363 (H:m:s:ms)","GENERIC","186.219","0.07445257072699565","636"
"21:19:29:696 (H:m:s:ms)","GENERIC","186.131","0.047996637921822315","337"
"21:30:31:578 (H:m:s:ms)","AMBULANCE","186.18","0.08586591853676871","421"
"21:19:35:757 (H:m:s:ms)","GENERIC","186.194","0.0788696050167904","242"
"20:57:28:484 (H:m:s:ms)","GENERIC","186.152","0.06457950498836526","515"
"21:19:41:818 (H:m:s:ms)","GENERIC","186.136","0.06703434409556755","181"
"20:57:34:545 (H:m:s:ms)","GENERIC","186.14600000000002","0.057869763574439945","455"
"21:19:47:878 (H:m:s:ms)","GENERIC","186.159","0.06609242243538933","1121"
"20:40:30:303 (H:m:s:ms)","GENERIC","186.18","0.0670177261481779","696"
"20:57:40:606 (H:m:s:ms)","GENERIC","186.18","0.06927895581920848","393"
"21:19:53:939 (H:m:s:ms)","GENERIC","186.181","0.06394638521181942","1061"
"20:40:30:379 (H:m:s:ms)","OPERA","155.152","0.0935715219422707","620"
"20:57:46:666 (H:m:s:ms)","GENERIC","186.173","0.0588589163900088","333"
"21:20:0:0 (H:m:s:ms)","OPERA","186.18","0.11547201748477888","1470"
"20:40:36:363 (H:m:s:ms)","GENERIC","186.207","0.06442415490712389","636"
"20:57:52:727 (H:m:s:ms)","GENERIC","186.174","0.07091209080774263","272"
"21:20:0:0 (H:m:s:ms)","GENERIC","186.117","0.06354832849738541","1470"
"20:40:37:974 (H:m:s:ms)","OPERA","155.14","0.09250469860130209","1025"
"20:57:58:787 (H:m:s:ms)","GENERIC","186.15800000000002","0.06684448066799972","212"
"21:20:0:0 (H:m:s:ms)","GENERIC","186.29","0.07576551063002479","1470"
"21:30:24:242 (H:m:s:ms)","GENERIC","186.094","0.05919868763703427","757"
"20:40:42:424 (H:m:s:ms)","GENERIC","186.185","0.07936972328899737","575"
"20:58:4:848 (H:m:s:ms)","GENERIC","186.141","0.061381503413473204","151"
"21:20:6:60 (H:m:s:ms)","GENERIC","186.166","0.06431390165930703","939"
"21:30:18:181 (H:m:s:ms)","GENERIC","186.118","0.0776922793208329","818"
"20:40:45:569 (H:m:s:ms)","OPERA","155.14","0.07170681665151027","430"
"20:58:10:909 (H:m:s:ms)","GENERIC","186.096","0.0624848656230758","1091"
"21:20:7:594 (H:m:s:ms)","OPERA","155.14","0.08307739061280309","405"
"20:40:48:484 (H:m:s:ms)","GENERIC","186.14499999999998","0.07738655290327419","515"
"20:58:16:969 (H:m:s:ms)","GENERIC","186.176","0.0478766792679292","1030"
"20:40:54:545 (H:m:s:ms)","GENERIC","186.15800000000002","0.07942663139164523","455"
"20:58:23:30 (H:m:s:ms)","GENERIC","186.14","0.046586108838564344","969"
"20:41:0:606 (H:m:s:ms)","GENERIC","186.167","0.06580928783896306","393"
"20:41:0:759 (H:m:s:ms)","OPERA","155.139","0.08921883923196615","240"
"21:31:24:848 (H:m:s:ms)","GENERIC","186.231","0.06405977345592098","151"
"21:31:18:787 (H:m:s:ms)","GENERIC","186.194","0.062224379629213546","212"
"21:32:6:315 (H:m:s:ms)","AMBULANCE","186.212","0.08131085474121048","684"
"21:32:1:212 (H:m:s:ms)","GENERIC","186.142","0.06072052468685891","787"
"21:31:55:151 (H:m:s:ms)","GENERIC","186.13400000000001","0.05510864734650614","848"
"21:31:49:90 (H:m:s:ms)","GENERIC","186.135","0.06248514972702366","944"
"21:31:43:30 (H:m:s:ms)","GENERIC","186.144","0.047649056139175604","969"
"21:31:36:969 (H:m:s:ms)","GENERIC","186.168","0.08284806917114228","1030"
"21:31:34:736 (H:m:s:ms)","AMBULANCE","186.244","0.0988293837593083","264"
"21:31:30:909 (H:m:s:ms)","GENERIC","186.142","0.0760981448771785","1090"
"20:58:29:90 (H:m:s:ms)","GENERIC","186.167","0.06156768462534853","951"
"20:58:35:151 (H:m:s:ms)","GENERIC","186.127","0.060302544604757626","848"
"20:41:6:666 (H:m:s:ms)","GENERIC","186.151","0.06256269443867181","333"
"20:58:41:212 (H:m:s:ms)","GENERIC","186.182","0.06375790052086727","787"
"20:41:8:354 (H:m:s:ms)","OPERA","155.14","0.08477728336497453","645"
"20:58:47:272 (H:m:s:ms)","GENERIC","186.118","0.05570458729997636","727"
"20:41:12:727 (H:m:s:ms)","GENERIC","186.149","0.0748426378025333","272"
"20:58:53:333 (H:m:s:ms)","GENERIC","186.14600000000002","0.06976460994320646","666"
"20:41:15:949 (H:m:s:ms)","OPERA","155.14","0.07480746376900384","1050"
"20:58:59:393 (H:m:s:ms)","GENERIC","186.161","0.061501701018948786","650"
"20:41:18:787 (H:m:s:ms)","GENERIC","186.184","0.08811558417033218","212"
"20:59:5:454 (H:m:s:ms)","GENERIC","186.189","0.05820003862481973","545"
"20:41:23:544 (H:m:s:ms)","OPERA","155.14","0.08817617918309595","455"
"20:59:11:515 (H:m:s:ms)","GENERIC","186.153","0.06064080828726989","484"
"21:31:12:727 (H:m:s:ms)","GENERIC","186.15800000000002","0.0748502820796987","272"
"20:41:24:848 (H:m:s:ms)","GENERIC","186.251","0.08285927931177191","152"
"20:59:17:575 (H:m:s:ms)","GENERIC","186.119","0.07496232128244934","424"
"20:41:30:909 (H:m:s:ms)","GENERIC","186.107","0.06420544885379875","1090"
"20:59:23:636 (H:m:s:ms)","GENERIC","186.153","0.0738194892687465","363"
"20:41:31:139 (H:m:s:ms)","OPERA","155.139","0.09535836042734037","860"
"20:41:36:969 (H:m:s:ms)","GENERIC","186.15699999999998","0.06379951960438258","1030"
"20:59:29:696 (H:m:s:ms)","GENERIC","186.119","0.04214658348166483","349"
"20:59:35:757 (H:m:s:ms)","GENERIC","186.199","0.045708440418842866","242"
"20:41:38:734 (H:m:s:ms)","OPERA","155.139","0.09343065673547732","265"
"20:59:41:818 (H:m:s:ms)","GENERIC","186.167","0.07505258065181639","181"
"20:41:43:30 (H:m:s:ms)","GENERIC","186.141","0.08029641022900401","969"
"20:59:47:878 (H:m:s:ms)","GENERIC","186.131","0.04274526145610559","1121"
"20:41:46:329 (H:m:s:ms)","OPERA","155.141","0.0890365832644097","670"
"20:59:53:939 (H:m:s:ms)","GENERIC","186.148","0.07666087805354592","1061"
"20:41:49:90 (H:m:s:ms)","GENERIC","186.167","0.09354226865448556","950"
"21:0:0:0 (H:m:s:ms)","AMBULANCE","155.139","0.06210023087093668","1497"
"20:41:53:924 (H:m:s:ms)","OPERA","155.137","0.08776932667511446","1075"
"21:0:0:0 (H:m:s:ms)","GENERIC","186.178","0.09309952478383686","1497"
"20:41:55:151 (H:m:s:ms)","GENERIC","186.177","0.08308797226272141","848"
"21:0:0:0 (H:m:s:ms)","GENERIC","186.312","0.112598428414336","1497"
"20:42:1:212 (H:m:s:ms)","GENERIC","186.195","0.06790644792193602","787"
"21:0:6:60 (H:m:s:ms)","GENERIC","186.193","0.06643907884665344","939"
"20:42:1:518 (H:m:s:ms)","OPERA","155.139","0.08417288572460403","481"
"21:0:12:121 (H:m:s:ms)","GENERIC","186.169","0.049045173434220275","878"
"20:42:7:272 (H:m:s:ms)","GENERIC","186.149","0.06549867384168616","727"
"20:42:9:113 (H:m:s:ms)","OPERA","155.14","0.09503407524204341","926"
"21:0:18:181 (H:m:s:ms)","GENERIC","186.148","0.05029426468508127","818"
"21:0:24:242 (H:m:s:ms)","GENERIC","186.137","0.06720537828668488","757"
"20:42:13:333 (H:m:s:ms)","GENERIC","186.204","0.08381788468038656","666"
"21:0:30:303 (H:m:s:ms)","GENERIC","186.177","0.06757443104485261","696"
"20:42:16:708 (H:m:s:ms)","OPERA","155.141","0.07426009408160775","291"
"21:0:31:578 (H:m:s:ms)","AMBULANCE","155.157","0.09077202696889883","421"
"20:20:0:0 (H:m:s:ms)","GENERIC","186.139","0.06043905692189084","1517"
"20:42:19:393 (H:m:s:ms)","GENERIC","186.123","0.09452233780225956","646"
"21:0:36:363 (H:m:s:ms)","GENERIC","186.219","0.09595343270777805","636"
"20:20:0:0 (H:m:s:ms)","GENERIC","186.262","0.0906932950783842","1518"
"20:42:24:303 (H:m:s:ms)","OPERA","155.14","0.10217499727478406","697"
"21:0:42:424 (H:m:s:ms)","GENERIC","186.181","0.058077690713325775","575"
"20:20:6:60 (H:m:s:ms)","GENERIC","186.154","0.0680586138856861","939"
"20:42:25:454 (H:m:s:ms)","GENERIC","186.165","0.08290683248744173","545"
"21:0:48:484 (H:m:s:ms)","GENERIC","186.145","0.06138794517282285","515"
"20:20:12:121 (H:m:s:ms)","GENERIC","186.187","0.06336931190526497","878"
"20:42:31:515 (H:m:s:ms)","GENERIC","186.24099999999999","0.06710838335828122","484"
"21:0:54:545 (H:m:s:ms)","GENERIC","186.149","0.06177525216865645","455"
"20:20:18:181 (H:m:s:ms)","GENERIC","186.10899999999998","0.04288968691159741","819"
"20:42:31:898 (H:m:s:ms)","OPERA","155.141","0.08285256660054426","101"
"21:1:0:606 (H:m:s:ms)","GENERIC","186.149","0.06712822367795747","394"
"20:20:24:242 (H:m:s:ms)","GENERIC","186.114","0.06691846356629506","758"
"20:42:37:575 (H:m:s:ms)","GENERIC","186.147","0.06638545479258724","424"
"21:1:3:157 (H:m:s:ms)","AMBULANCE","155.163","0.09677596353703043","842"
"20:20:30:303 (H:m:s:ms)","GENERIC","186.16","0.07241277279272422","697"
"20:42:39:493 (H:m:s:ms)","OPERA","155.14","0.08499174444696617","545"
"20:20:36:363 (H:m:s:ms)","GENERIC","186.211","0.07649414823678953","636"
"20:42:43:636 (H:m:s:ms)","GENERIC","186.22899999999998","0.08597818789542462","363"
"20:20:42:424 (H:m:s:ms)","GENERIC","186.194","0.051387119000664505","575"
"20:20:48:484 (H:m:s:ms)","GENERIC","186.165","0.04851002837776593","515"
"21:1:6:666 (H:m:s:ms)","GENERIC","186.135","0.10518009562825041","333"
"21:1:12:727 (H:m:s:ms)","GENERIC","186.175","0.04705584510407501","273"
"20:42:47:88 (H:m:s:ms)","OPERA","155.139","0.10557980769018867","911"
"21:1:18:787 (H:m:s:ms)","GENERIC","186.184","0.06427314918103968","212"
"20:42:49:696 (H:m:s:ms)","GENERIC","186.094","0.10330932345005799","343"
"21:1:24:848 (H:m:s:ms)","GENERIC","186.209","0.0660488155737388","151"
"20:20:54:545 (H:m:s:ms)","GENERIC","186.151","0.07734787986800898","454"
"20:42:54:683 (H:m:s:ms)","OPERA","155.139","0.09053360985873421","316"
"21:1:30:909 (H:m:s:ms)","GENERIC","186.135","0.04624041947904501","1090"
"20:21:0:606 (H:m:s:ms)","GENERIC","186.155","0.06086196248746483","393"
"20:42:55:757 (H:m:s:ms)","GENERIC","186.167","0.07849592449245975","242"
"21:1:34:736 (H:m:s:ms)","AMBULANCE","155.178","0.06076314282637192","263"
"20:21:6:666 (H:m:s:ms)","GENERIC","186.14499999999998","0.06369392655344719","333"
"20:43:1:818 (H:m:s:ms)","GENERIC","186.25400000000002","0.07253405911224166","181"
"21:1:36:969 (H:m:s:ms)","GENERIC","186.19","0.06229728331506196","1030"
"20:21:12:727 (H:m:s:ms)","GENERIC","186.20600000000002","0.055198395383914634","272"
"20:43:2:278 (H:m:s:ms)","OPERA","155.169","0.10719337442788512","721"
"21:1:43:30 (H:m:s:ms)","GENERIC","186.155","0.06602664762933294","969"
"20:21:18:787 (H:m:s:ms)","GENERIC","186.184","0.06765380347204096","212"
"20:43:7:878 (H:m:s:ms)","GENERIC","186.20499999999998","0.0417257431161935","1121"
"21:1:49:90 (H:m:s:ms)","GENERIC","186.128","0.06677193322346833","950"
"20:21:24:848 (H:m:s:ms)","GENERIC","186.185","0.048026037614056424","151"
"20:43:9:873 (H:m:s:ms)","OPERA","155.139","0.07592159246166194","166"
"21:1:55:151 (H:m:s:ms)","GENERIC","186.142","0.06590353057595859","848"
"20:21:30:909 (H:m:s:ms)","GENERIC","186.114","0.0679591284276606","1090"
"20:43:13:939 (H:m:s:ms)","GENERIC","186.147","0.08627758600236421","1060"
"20:21:36:969 (H:m:s:ms)","GENERIC","186.15699999999998","0.06420556170111018","1030"
"20:43:17:468 (H:m:s:ms)","OPERA","155.14","0.0740056779534016","531"
"20:21:43:30 (H:m:s:ms)","GENERIC","186.176","0.06580795300641319","970"
"20:21:49:90 (H:m:s:ms)","GENERIC","186.117","0.06170431500104232","949"
"20:43:20:0 (H:m:s:ms)","GENERIC","186.189","0.08143601841073173","1039"
"20:43:25:63 (H:m:s:ms)","OPERA","155.14","0.10547709666831939","936"
"20:21:55:151 (H:m:s:ms)","GENERIC","186.118","0.046912061684365666","848"
"20:43:26:60 (H:m:s:ms)","GENERIC","186.197","0.09268787952827201","940"
"20:22:1:212 (H:m:s:ms)","GENERIC","186.199","0.04837430333789002","787"
"20:43:32:121 (H:m:s:ms)","GENERIC","186.196","0.07034033595303675","878"
"20:22:7:272 (H:m:s:ms)","GENERIC","186.126","0.06874703126177441","727"
"20:43:32:658 (H:m:s:ms)","OPERA","155.077","0.04595131180320619","341"
"20:22:13:333 (H:m:s:ms)","GENERIC","186.224","0.06637863306773573","667"
"20:43:38:181 (H:m:s:ms)","GENERIC","186.168","0.05441647458107966","818"
"20:22:19:393 (H:m:s:ms)","GENERIC","186.13400000000001","0.05537583083103487","648"
"20:43:40:253 (H:m:s:ms)","OPERA","155.15","0.08697393687532164","746"
"20:22:25:454 (H:m:s:ms)","GENERIC","186.166","0.07107574714615071","545"
"20:43:44:242 (H:m:s:ms)","GENERIC","186.144","0.0819492335722356","757"
"20:22:31:515 (H:m:s:ms)","GENERIC","186.195","0.06132567321780052","485"
"20:43:47:848 (H:m:s:ms)","OPERA","155.151","0.08708216460912832","151"
"20:22:37:575 (H:m:s:ms)","GENERIC","186.164","0.05857910623042218","424"
"20:43:50:303 (H:m:s:ms)","GENERIC","186.19","0.09004261266008567","696"
"20:22:43:636 (H:m:s:ms)","GENERIC","186.228","0.08042856934966512","363"
"20:22:49:696 (H:m:s:ms)","GENERIC","186.106","0.07734643085141052","344"
"20:43:55:443 (H:m:s:ms)","OPERA","155.151","0.08408978199437259","557"
"20:43:56:363 (H:m:s:ms)","GENERIC","186.166","0.09316687943207919","636"
"20:22:55:757 (H:m:s:ms)","GENERIC","186.16899999999998","0.0654324700215153","242"
"20:44:2:424 (H:m:s:ms)","GENERIC","186.175","0.0772475405862609","575"
"20:23:1:818 (H:m:s:ms)","GENERIC","186.238","0.06811089572056948","181"
"20:44:3:37 (H:m:s:ms)","OPERA","155.14","0.10098266045304083","962"
"20:23:7:878 (H:m:s:ms)","GENERIC","186.246","0.05570508825606137","1121"
"20:44:8:484 (H:m:s:ms)","GENERIC","186.111","0.10287175112487605","515"
"20:23:13:939 (H:m:s:ms)","GENERIC","186.182","0.06770580683084497","1061"
"20:44:10:632 (H:m:s:ms)","OPERA","155.139","0.10692078642570835","367"
"20:23:20:0 (H:m:s:ms)","GENERIC","186.204","0.07601140195462816","1039"
"20:44:14:545 (H:m:s:ms)","GENERIC","186.16899999999998","0.08500010679873254","455"
"20:23:26:60 (H:m:s:ms)","GENERIC","186.225","0.07864015703797267","939"
"20:44:18:227 (H:m:s:ms)","OPERA","155.139","0.07922218814047766","772"
"20:23:32:121 (H:m:s:ms)","GENERIC","186.126","0.07897713571306975","878"
"20:44:20:606 (H:m:s:ms)","GENERIC","186.117","0.0812218132365397","393"
"20:23:38:181 (H:m:s:ms)","GENERIC","186.198","0.06774024186105011","818"
"20:44:25:822 (H:m:s:ms)","OPERA","155.139","0.08875101746341046","177"
"20:23:44:242 (H:m:s:ms)","GENERIC","186.138","0.06987848107907324","757"
"20:23:50:303 (H:m:s:ms)","GENERIC","186.129","0.045888724010840494","697"
"20:44:26:666 (H:m:s:ms)","GENERIC","186.222","0.08980380355507447","333"
"20:44:32:727 (H:m:s:ms)","GENERIC","186.16899999999998","0.06149122844585199","272"
"20:23:56:363 (H:m:s:ms)","GENERIC","186.165","0.05837187721698752","636"
"20:44:33:417 (H:m:s:ms)","OPERA","155.14","0.07826988386812975","582"
"20:24:2:424 (H:m:s:ms)","GENERIC","186.15800000000002","0.06725782800476719","576"
"20:44:38:787 (H:m:s:ms)","GENERIC","186.135","0.0894319231457606","212"
"20:24:8:484 (H:m:s:ms)","GENERIC","186.14","0.05430834385090111","515"
"20:44:41:12 (H:m:s:ms)","OPERA","155.139","0.09056359226752925","987"
"20:24:14:545 (H:m:s:ms)","GENERIC","186.178","0.06756569143513014","455"
"20:44:44:848 (H:m:s:ms)","GENERIC","186.148","0.08101897922368942","152"
"20:24:20:606 (H:m:s:ms)","GENERIC","186.122","0.05559576911198496","394"
"20:44:48:607 (H:m:s:ms)","OPERA","155.14","0.07624783906198468","392"
"20:24:26:666 (H:m:s:ms)","GENERIC","186.165","0.04803813516236631","333"
"20:44:50:909 (H:m:s:ms)","GENERIC","186.219","0.06203502518558355","1090"
"20:24:32:727 (H:m:s:ms)","GENERIC","186.209","0.07638825033621317","272"
"20:44:56:202 (H:m:s:ms)","OPERA","155.139","0.05759560531401351","797"
"20:24:38:787 (H:m:s:ms)","GENERIC","186.176","0.0516576971416948","212"
"20:44:56:969 (H:m:s:ms)","GENERIC","186.201","0.05660566275532159","1031"
"20:24:44:848 (H:m:s:ms)","GENERIC","186.14499999999998","0.04570574013432118","151"
"20:24:50:909 (H:m:s:ms)","GENERIC","186.197","0.06517048657844486","1090"
"20:45:3:30 (H:m:s:ms)","GENERIC","186.122","0.07886528281669516","969"
"20:45:3:797 (H:m:s:ms)","OPERA","155.14","0.102326861733822","202"
"20:24:56:969 (H:m:s:ms)","GENERIC","186.216","0.06851432347099766","1030"
"20:45:9:90 (H:m:s:ms)","GENERIC","186.178","0.07175922147250102","948"
"20:25:3:30 (H:m:s:ms)","GENERIC","186.139","0.06256269443867181","969"
"20:45:11:392 (H:m:s:ms)","OPERA","155.15","0.09754150332948355","607"
"20:25:9:90 (H:m:s:ms)","GENERIC","186.131","0.044023934519108146","949"
"20:45:15:151 (H:m:s:ms)","GENERIC","186.201","0.0870443975779995","848"
"20:25:15:151 (H:m:s:ms)","GENERIC","186.159","0.06286764315672254","848"
"20:45:18:987 (H:m:s:ms)","OPERA","155.174","0.0881257489259505","1061"
"20:25:21:212 (H:m:s:ms)","GENERIC","186.197","0.05979726067978915","788"
"20:45:21:212 (H:m:s:ms)","GENERIC","186.202","0.08154608344555621","787"
"20:25:27:272 (H:m:s:ms)","GENERIC","186.175","0.0674180872926786","727"
"20:45:26:582 (H:m:s:ms)","OPERA","155.135","0.083422528935979","417"
"20:25:33:333 (H:m:s:ms)","GENERIC","186.178","0.054320857723107616","666"
"20:45:27:272 (H:m:s:ms)","GENERIC","186.20600000000002","0.0778683083082168","727"
"20:25:39:393 (H:m:s:ms)","GENERIC","186.186","0.06852643731590899","646"
"20:45:33:333 (H:m:s:ms)","GENERIC","186.18099999999998","0.06204720559586999","666"
"20:25:45:454 (H:m:s:ms)","GENERIC","186.139","0.052620562064489534","545"
"20:25:51:515 (H:m:s:ms)","GENERIC","186.184","0.07652226529823533","484"
"20:25:57:575 (H:m:s:ms)","GENERIC","186.183","0.06342713882567502","424"
"20:26:3:636 (H:m:s:ms)","GENERIC","186.212","0.053771974672668345","363"
"20:26:9:696 (H:m:s:ms)","GENERIC","186.184","0.07063990706912919","343"
"20:26:15:757 (H:m:s:ms)","GENERIC","186.15","0.048511879784706176","242"
"20:26:21:818 (H:m:s:ms)","GENERIC","186.172","0.06423881823814243","182"
"20:26:27:878 (H:m:s:ms)","GENERIC","186.12099999999998","0.044219524888719865","1121"
"20:26:33:939 (H:m:s:ms)","GENERIC","186.143","0.07848225869873264","1060"
"20:26:40:0 (H:m:s:ms)","GENERIC","186.138","0.06755298957817371","1040"
"20:26:46:60 (H:m:s:ms)","GENERIC","186.188","0.046658077849671686","939"
"20:26:52:121 (H:m:s:ms)","GENERIC","186.125","0.04845850188381904","878"
"20:26:58:181 (H:m:s:ms)","GENERIC","186.232","0.04654431602114318","819"
"20:27:4:242 (H:m:s:ms)","GENERIC","186.111","0.0811627682543952","758"
"20:27:10:303 (H:m:s:ms)","GENERIC","186.172","0.050699621942940046","696"
"20:27:16:363 (H:m:s:ms)","GENERIC","186.097","0.0764590718991188","636"
"20:27:22:424 (H:m:s:ms)","GENERIC","186.123","0.06385590306407632","575"
"20:27:28:484 (H:m:s:ms)","GENERIC","186.142","0.05348877932624029","515"
"20:27:34:545 (H:m:s:ms)","GENERIC","186.106","0.05527093550524268","454"
"20:27:40:606 (H:m:s:ms)","GENERIC","186.162","0.06871601125160999","393"
"20:27:46:666 (H:m:s:ms)","GENERIC","186.21099999999998","0.06106972010074409","333"
"20:27:52:727 (H:m:s:ms)","GENERIC","186.179","0.053617360261738516","272"
"20:27:58:787 (H:m:s:ms)","GENERIC","186.126","0.06467319426669434","212"
"20:28:4:848 (H:m:s:ms)","GENERIC","186.131","0.04706159706061219","151"
"20:28:10:909 (H:m:s:ms)","GENERIC","186.14","0.06442907214393545","1090"
"20:28:16:969 (H:m:s:ms)","GENERIC","186.24200000000002","0.052388358860757704","1031"
"20:28:23:30 (H:m:s:ms)","GENERIC","186.191","0.06574047739329465","969"
"20:28:29:90 (H:m:s:ms)","GENERIC","186.166","0.05019061999566609","951"
"20:28:35:151 (H:m:s:ms)","GENERIC","186.087","0.06333702435204944","848"
"20:28:41:212 (H:m:s:ms)","GENERIC","186.162","0.06862511784701503","787"
"20:28:47:272 (H:m:s:ms)","GENERIC","186.149","0.07449034602330067","728"
"20:28:53:333 (H:m:s:ms)","GENERIC","186.115","0.061732427571766196","666"
"20:28:59:393 (H:m:s:ms)","GENERIC","186.187","0.066470878610028","647"
"20:29:5:454 (H:m:s:ms)","GENERIC","186.187","0.07490947488170563","545"
"20:29:11:515 (H:m:s:ms)","GENERIC","186.154","0.06917490583357674","484"
"20:29:17:575 (H:m:s:ms)","GENERIC","186.135","0.06570817976311802","424"
"20:29:23:636 (H:m:s:ms)","GENERIC","186.191","0.06103035781225388","363"
"20:29:29:696 (H:m:s:ms)","GENERIC","186.13299999999998","0.06393642381569102","343"
"20:29:35:757 (H:m:s:ms)","GENERIC","186.20499999999998","0.06746343479475578","242"
"20:29:41:818 (H:m:s:ms)","GENERIC","186.165","0.05925723188287674","182"
"20:29:47:878 (H:m:s:ms)","GENERIC","186.13299999999998","0.0785940862723869","1121"
"20:29:53:939 (H:m:s:ms)","GENERIC","186.137","0.060792045679830244","1061"
"21:20:12:121 (H:m:s:ms)","GENERIC","186.16299999999998","0.07203762258821979","878"
"21:20:15:189 (H:m:s:ms)","OPERA","186.14600000000002","0.06631194638088747","810"
"21:20:18:181 (H:m:s:ms)","GENERIC","186.12","0.07718401692472052","818"
"21:20:22:784 (H:m:s:ms)","OPERA","155.14","0.0801514151024321","215"
"21:20:24:242 (H:m:s:ms)","GENERIC","186.098","0.08038002267244057","757"
"21:20:30:303 (H:m:s:ms)","GENERIC","186.166","0.07317626981636573","696"
"21:20:30:379 (H:m:s:ms)","OPERA","155.139","0.0855403557049509","620"
"21:20:36:363 (H:m:s:ms)","GENERIC","186.264","0.057451144577726695","636"
"21:20:37:974 (H:m:s:ms)","OPERA","186.155","0.08379071537779287","1025"
"21:20:42:424 (H:m:s:ms)","GENERIC","186.15","0.09016630326324301","575"
"21:20:45:569 (H:m:s:ms)","OPERA","155.151","0.10285714927944221","430"
"21:20:48:484 (H:m:s:ms)","GENERIC","186.164","0.0891503387553045","515"
"21:20:54:545 (H:m:s:ms)","GENERIC","186.122","0.061522867912626934","454"
"21:21:0:606 (H:m:s:ms)","GENERIC","186.151","0.07935407710440082","393"
"21:21:0:759 (H:m:s:ms)","OPERA","186.14600000000002","0.09850704442463094","240"
"21:21:6:666 (H:m:s:ms)","GENERIC","186.1","0.07805763081763603","333"
"21:21:8:354 (H:m:s:ms)","OPERA","155.14","0.0942029928733527","645"
"21:21:12:727 (H:m:s:ms)","GENERIC","186.172","0.08530044205188816","273"
"21:21:15:949 (H:m:s:ms)","OPERA","155.14","0.09015668296978278","1050"
"21:21:18:787 (H:m:s:ms)","GENERIC","186.198","0.0843972088671198","212"
"21:33:1:818 (H:m:s:ms)","GENERIC","186.194","0.06524982744910443","181"
"21:32:43:636 (H:m:s:ms)","GENERIC","186.17","0.0863231193800065","363"
"21:32:37:894 (H:m:s:ms)","AMBULANCE","186.186","0.0850490266328926","1105"
"21:32:37:575 (H:m:s:ms)","GENERIC","186.176","0.06272813967614868","424"
"21:32:31:515 (H:m:s:ms)","GENERIC","186.142","0.07925850080721362","484"
"21:32:25:454 (H:m:s:ms)","GENERIC","186.186","0.053528090058508","545"
"21:32:19:393 (H:m:s:ms)","GENERIC","186.105","0.06537532819987353","645"
"21:32:13:333 (H:m:s:ms)","GENERIC","186.095","0.06655803924078744","666"
"21:21:23:544 (H:m:s:ms)","OPERA","155.14","0.08634168651549357","455"
"21:32:7:272 (H:m:s:ms)","GENERIC","186.164","0.07130823716237168","727"
"21:21:24:848 (H:m:s:ms)","GENERIC","186.239","0.09180117931264149","152"
"21:21:30:909 (H:m:s:ms)","GENERIC","186.14","0.06184949987769912","1090"
"21:21:31:139 (H:m:s:ms)","OPERA","186.14600000000002","0.09614143000047211","860"
"21:21:36:969 (H:m:s:ms)","GENERIC","186.139","0.06675420815631315","1030"
"21:21:38:734 (H:m:s:ms)","OPERA","155.14","0.08055842519001061","265"
"21:21:43:30 (H:m:s:ms)","GENERIC","186.16","0.08645869745422043","969"
"21:21:46:329 (H:m:s:ms)","OPERA","186.14600000000002","0.08671078455494688","670"
"21:32:55:757 (H:m:s:ms)","GENERIC","186.188","0.07523101505844632","242"
"21:21:49:90 (H:m:s:ms)","GENERIC","186.128","0.08913448330140139","945"
"21:32:49:696 (H:m:s:ms)","GENERIC","186.142","0.07738439492760192","339"
"21:21:53:924 (H:m:s:ms)","OPERA","186.144","0.09312558176813249","1076"
"21:33:56:363 (H:m:s:ms)","GENERIC","186.16","0.05601352743511327","637"
"21:33:50:303 (H:m:s:ms)","GENERIC","186.228","0.07859205601623713","696"
"21:33:41:52 (H:m:s:ms)","AMBULANCE","186.24","0.07371173053154378","947"
"21:33:38:181 (H:m:s:ms)","GENERIC","186.16","0.04459966391417098","818"
"21:33:32:121 (H:m:s:ms)","GENERIC","186.17000000000002","0.07063270901252396","878"
"21:33:26:60 (H:m:s:ms)","GENERIC","186.153","0.08080012858388949","940"
"21:33:20:0 (H:m:s:ms)","GENERIC","186.142","0.0434979794049754","1036"
"21:33:13:939 (H:m:s:ms)","GENERIC","186.23399999999998","0.06751040686256188","1061"
"21:21:55:151 (H:m:s:ms)","GENERIC","186.174","0.07382010370844369","848"
"21:33:9:473 (H:m:s:ms)","AMBULANCE","186.214","0.09417954966537277","561"
"21:22:1:212 (H:m:s:ms)","GENERIC","186.17000000000002","0.06824830451017878","787"
"21:33:7:878 (H:m:s:ms)","GENERIC","186.15800000000002","0.07829282285475854","1121"
"21:22:1:518 (H:m:s:ms)","OPERA","186.155","0.0981233107509336","481"
"21:22:7:272 (H:m:s:ms)","GENERIC","186.188","0.06393240236129176","727"
"21:22:9:113 (H:m:s:ms)","OPERA","186.14600000000002","0.08769941555622769","921"
"21:22:13:333 (H:m:s:ms)","GENERIC","186.113","0.08736089954255853","666"
"21:22:16:708 (H:m:s:ms)","OPERA","155.139","0.10672947544035205","291"
"21:22:19:393 (H:m:s:ms)","GENERIC","186.123","0.09906630593024603","641"
"21:22:24:303 (H:m:s:ms)","OPERA","186.143","0.08732892958271368","697"
"21:22:25:454 (H:m:s:ms)","GENERIC","186.22","0.09542986663013421","545"
"21:33:44:242 (H:m:s:ms)","GENERIC","186.15","0.07576708089882729","758"
"21:34:56:969 (H:m:s:ms)","GENERIC","186.22","0.04243119686093633","1030"
"21:34:50:909 (H:m:s:ms)","GENERIC","186.222","0.05222691990919453","1090"
"21:34:44:848 (H:m:s:ms)","GENERIC","186.165","0.06660927399038402","152"
"21:34:38:787 (H:m:s:ms)","GENERIC","186.128","0.04747838327477444","212"
"21:34:32:727 (H:m:s:ms)","GENERIC","186.168","0.06445553325469873","272"
"21:34:26:666 (H:m:s:ms)","GENERIC","186.098","0.0561916651563881","333"
"21:34:20:606 (H:m:s:ms)","GENERIC","186.124","0.06802211482354013","393"
"21:34:14:545 (H:m:s:ms)","GENERIC","186.211","0.06797445621233665","454"
"21:22:31:515 (H:m:s:ms)","GENERIC","186.164","0.061042768898620266","484"
"21:34:12:631 (H:m:s:ms)","AMBULANCE","186.18200000000002","0.09068271319132941","369"
"21:22:31:898 (H:m:s:ms)","OPERA","155.139","0.08078066823474052","101"
"21:34:8:484 (H:m:s:ms)","GENERIC","186.132","0.07615868083825819","515"
"21:2:1:212 (H:m:s:ms)","GENERIC","186.185","0.0775999009915575","787"
"21:22:37:575 (H:m:s:ms)","GENERIC","186.16899999999998","0.04907901601352209","424"
"21:34:2:424 (H:m:s:ms)","GENERIC","186.173","0.06309633350680499","575"
"21:2:6:315 (H:m:s:ms)","AMBULANCE","155.149","0.09423662446329709","684"
"21:22:39:493 (H:m:s:ms)","OPERA","186.14600000000002","0.09094881879296961","544"
"21:2:7:272 (H:m:s:ms)","GENERIC","186.209","0.07470154548979725","727"
"21:22:43:636 (H:m:s:ms)","GENERIC","186.144","0.09063065805803697","363"
"21:2:13:333 (H:m:s:ms)","GENERIC","186.171","0.07936150884631689","666"
"21:22:47:88 (H:m:s:ms)","OPERA","186.14600000000002","0.08699692232991006","911"
"21:2:19:393 (H:m:s:ms)","GENERIC","186.085","0.062063520407407945","647"
"21:22:49:696 (H:m:s:ms)","GENERIC","186.13400000000001","0.08624571384621267","338"
"21:2:25:454 (H:m:s:ms)","GENERIC","186.171","0.07709469173030244","545"
"21:22:54:683 (H:m:s:ms)","OPERA","155.14","0.07118735965686386","316"
"21:2:31:515 (H:m:s:ms)","GENERIC","186.225","0.07856477262551596","485"
"21:22:55:757 (H:m:s:ms)","GENERIC","186.19","0.08162067602774584","242"
"21:2:37:575 (H:m:s:ms)","GENERIC","186.151","0.046663168789414844","424"
"21:23:1:818 (H:m:s:ms)","GENERIC","186.19299999999998","0.07926623098065741","181"
"21:2:37:894 (H:m:s:ms)","AMBULANCE","155.162","0.06494501412563096","105"
"21:2:43:636 (H:m:s:ms)","GENERIC","186.187","0.06391229851610568","363"
"21:35:51:515 (H:m:s:ms)","GENERIC","186.184","0.09199851037136446","484"
"21:35:47:368 (H:m:s:ms)","AMBULANCE","186.234","0.08675438210335594","632"
"21:35:45:454 (H:m:s:ms)","GENERIC","186.13400000000001","0.0605481034317961","545"
"21:35:39:393 (H:m:s:ms)","GENERIC","186.098","0.0634523643002584","642"
"21:35:33:333 (H:m:s:ms)","GENERIC","186.156","0.051200025512020665","666"
"21:35:27:272 (H:m:s:ms)","GENERIC","186.156","0.07612703086819113","727"
"21:35:21:212 (H:m:s:ms)","GENERIC","186.21800000000002","0.05468901419381809","787"
"21:23:2:278 (H:m:s:ms)","OPERA","155.139","0.09912390599620158","721"
"21:35:15:789 (H:m:s:ms)","AMBULANCE","186.174","0.04515098667933537","210"
"21:23:7:878 (H:m:s:ms)","GENERIC","186.172","0.04863925433024053","1121"
"21:35:15:151 (H:m:s:ms)","GENERIC","186.236","0.07689595044326089","848"
"21:2:49:696 (H:m:s:ms)","GENERIC","186.095","0.06205266643796578","343"
"21:23:9:873 (H:m:s:ms)","OPERA","155.141","0.07494394736556995","159"
"21:35:9:90 (H:m:s:ms)","GENERIC","186.107","0.06424554190260716","945"
"21:2:55:757 (H:m:s:ms)","GENERIC","186.179","0.06903534183336033","242"
"21:23:13:939 (H:m:s:ms)","GENERIC","186.242","0.09529610732981961","1061"
"21:35:3:30 (H:m:s:ms)","GENERIC","186.099","0.044796682193064444","970"
"21:3:1:818 (H:m:s:ms)","GENERIC","186.211","0.06658957299848992","181"
"21:23:17:468 (H:m:s:ms)","OPERA","186.14600000000002","0.09553762151061188","531"
"21:3:7:878 (H:m:s:ms)","GENERIC","186.208","0.059242731393888026","1121"
"21:23:20:0 (H:m:s:ms)","GENERIC","186.211","0.07944158970355775","1034"
"21:3:9:473 (H:m:s:ms)","AMBULANCE","155.15800000000002","0.08214647965752847","566"
"21:23:25:63 (H:m:s:ms)","OPERA","155.121","0.09872880382542083","936"
"21:3:13:939 (H:m:s:ms)","GENERIC","186.216","0.07243920834498944","1062"
"21:23:26:60 (H:m:s:ms)","GENERIC","186.202","0.09326319327041786","940"
"21:3:20:0 (H:m:s:ms)","GENERIC","186.187","0.05588569872045467","1039"
"21:23:32:121 (H:m:s:ms)","GENERIC","186.13","0.04982243676990308","878"
"21:3:26:60 (H:m:s:ms)","GENERIC","186.168","0.07949860722696214","939"
"21:23:32:658 (H:m:s:ms)","OPERA","186.14600000000002","0.06385991889946037","341"
"21:3:32:121 (H:m:s:ms)","GENERIC","186.14100000000002","0.045186231789657486","878"
"21:3:38:181 (H:m:s:ms)","GENERIC","186.187","0.05215619401164641","818"
"21:36:50:526 (H:m:s:ms)","AMBULANCE","186.156","0.09244841193245941","473"
"21:36:46:60 (H:m:s:ms)","GENERIC","186.16","0.06568853669934567","939"
"21:36:40:0 (H:m:s:ms)","GENERIC","186.08499999999998","0.06437155374164766","1035"
"21:36:33:939 (H:m:s:ms)","GENERIC","186.144","0.06358119161753754","1061"
"21:36:27:878 (H:m:s:ms)","GENERIC","186.122","0.05902774049317065","1121"
"21:36:21:818 (H:m:s:ms)","GENERIC","186.176","0.0994103739851578","181"
"21:23:38:181 (H:m:s:ms)","GENERIC","186.184","0.0694305374872493","818"
"21:36:18:947 (H:m:s:ms)","AMBULANCE","186.222","0.0897065183174255","1087"
"21:23:40:253 (H:m:s:ms)","OPERA","155.151","0.09051103739674331","746"
"21:36:15:757 (H:m:s:ms)","GENERIC","186.13","0.06568853669934567","242"
"21:3:41:52 (H:m:s:ms)","AMBULANCE","155.176","0.10078748582811874","948"
"21:23:44:242 (H:m:s:ms)","GENERIC","186.172","0.08434034830748528","758"
"21:36:9:696 (H:m:s:ms)","GENERIC","186.226","0.052058948488545725","338"
"21:3:44:242 (H:m:s:ms)","GENERIC","186.133","0.10648473650075688","757"
"21:23:47:848 (H:m:s:ms)","OPERA","155.152","0.09440822593931376","151"
"21:36:3:636 (H:m:s:ms)","GENERIC","186.168","0.0619491494128383","363"
"21:3:50:303 (H:m:s:ms)","GENERIC","186.215","0.07346004288636566","696"
"21:23:50:303 (H:m:s:ms)","GENERIC","186.254","0.08408258344212798","696"
"21:35:57:575 (H:m:s:ms)","GENERIC","186.189","0.0631798089867023","424"
"21:3:56:363 (H:m:s:ms)","GENERIC","186.126","0.06488742334666965","636"
"21:23:55:443 (H:m:s:ms)","OPERA","155.151","0.06873659712793136","556"
"21:4:2:424 (H:m:s:ms)","GENERIC","186.159","0.046254588230711165","575"
"21:23:56:363 (H:m:s:ms)","GENERIC","186.152","0.0663447439659053","636"
"21:4:8:484 (H:m:s:ms)","GENERIC","186.125","0.06467363219395673","515"
"21:24:2:424 (H:m:s:ms)","GENERIC","186.172","0.050235291925071694","575"
"21:4:12:631 (H:m:s:ms)","AMBULANCE","155.162","0.08850732324422873","368"
"21:24:3:37 (H:m:s:ms)","OPERA","186.14600000000002","0.08380163082433027","962"
"21:4:14:545 (H:m:s:ms)","GENERIC","186.159","0.09507006102208722","455"
"21:24:8:484 (H:m:s:ms)","GENERIC","186.161","0.09310535899118012","515"
"21:4:20:606 (H:m:s:ms)","GENERIC","186.115","0.058997818821763005","393"
"21:4:26:666 (H:m:s:ms)","GENERIC","186.14600000000002","0.06309821118654826","333"
"21:37:46:666 (H:m:s:ms)","GENERIC","186.16899999999998","0.046695574177951484","333"
"21:37:40:606 (H:m:s:ms)","GENERIC","186.15800000000002","0.053046988485095994","393"
"21:37:34:545 (H:m:s:ms)","GENERIC","186.174","0.07497177303622266","454"
"21:37:28:484 (H:m:s:ms)","GENERIC","186.148","0.06928662772573556","515"
"21:37:22:424 (H:m:s:ms)","GENERIC","186.168","0.08712594770810729","576"
"21:37:22:105 (H:m:s:ms)","AMBULANCE","186.15800000000002","0.06170587931105768","894"
"21:24:10:632 (H:m:s:ms)","OPERA","186.141","0.09961670544404196","367"
"21:24:14:545 (H:m:s:ms)","GENERIC","186.236","0.0938431077327135","455"
"21:37:16:363 (H:m:s:ms)","GENERIC","186.11599999999999","0.0641921331475392","637"
"21:4:32:727 (H:m:s:ms)","GENERIC","186.127","0.06450978199514079","272"
"21:24:18:227 (H:m:s:ms)","OPERA","155.137","0.0945257937474296","772"
"21:37:10:303 (H:m:s:ms)","GENERIC","186.128","0.07644155831865737","696"
"21:4:38:787 (H:m:s:ms)","GENERIC","186.167","0.05356345100236352","212"
"21:24:20:606 (H:m:s:ms)","GENERIC","186.178","0.09488801341060576","393"
"21:37:4:242 (H:m:s:ms)","GENERIC","186.124","0.06276934879403498","757"
"21:4:44:210 (H:m:s:ms)","AMBULANCE","155.124","0.07977100193391036","790"
"21:24:25:822 (H:m:s:ms)","OPERA","155.137","0.09142456016472064","177"
"21:36:58:181 (H:m:s:ms)","GENERIC","186.22","0.06904322469938308","818"
"21:4:44:848 (H:m:s:ms)","GENERIC","186.204","0.08960760511381784","152"
"21:24:26:666 (H:m:s:ms)","GENERIC","186.139","0.08558063688213531","334"
"21:36:52:121 (H:m:s:ms)","GENERIC","186.112","0.08411689707847585","878"
"21:4:50:909 (H:m:s:ms)","GENERIC","186.249","0.06571027567351782","1090"
"21:24:32:727 (H:m:s:ms)","GENERIC","186.152","0.08122392984432447","272"
"21:4:56:969 (H:m:s:ms)","GENERIC","186.183","0.05423532547132233","1030"
"21:24:33:417 (H:m:s:ms)","OPERA","155.139","0.10722571817033218","583"
"21:5:3:30 (H:m:s:ms)","GENERIC","186.103","0.048570435418008984","969"
"21:24:38:787 (H:m:s:ms)","GENERIC","186.11599999999999","0.08405923304106848","212"
"21:5:9:90 (H:m:s:ms)","GENERIC","186.16","0.0615986100555078","949"
"21:24:41:12 (H:m:s:ms)","OPERA","155.14","0.0760116021680371","987"
"21:5:15:151 (H:m:s:ms)","GENERIC","186.167","0.05041084640695839","848"
"21:5:15:789 (H:m:s:ms)","AMBULANCE","155.163","0.0841953861849851","210"
"21:38:41:212 (H:m:s:ms)","GENERIC","186.18","0.06495942480016652","787"
"21:38:35:151 (H:m:s:ms)","GENERIC","186.148","0.06637863306773573","848"
"21:38:29:90 (H:m:s:ms)","GENERIC","186.174","0.09310606570912153","946"
"21:38:25:263 (H:m:s:ms)","AMBULANCE","186.234","0.0866468982248154","736"
"21:38:23:30 (H:m:s:ms)","GENERIC","186.102","0.06759316619398709","969"
"21:38:16:969 (H:m:s:ms)","GENERIC","186.221","0.06507869480382134","1030"
"21:38:10:909 (H:m:s:ms)","GENERIC","186.13299999999998","0.06288717103431296","1090"
"21:24:44:848 (H:m:s:ms)","GENERIC","186.21","0.08808490026155345","152"
"21:24:48:607 (H:m:s:ms)","OPERA","186.143","0.0996615573623716","392"
"21:5:21:212 (H:m:s:ms)","GENERIC","186.187","0.0798954159815659","787"
"21:24:50:909 (H:m:s:ms)","GENERIC","186.257","0.08400085970407846","1090"
"21:5:27:272 (H:m:s:ms)","GENERIC","186.151","0.061275202918461","728"
"21:24:56:202 (H:m:s:ms)","OPERA","155.138","0.05401832568706518","797"
"21:38:4:848 (H:m:s:ms)","GENERIC","186.124","0.0661015711919361","152"
"20:45:34:177 (H:m:s:ms)","OPERA","155.139","0.08390279664280292","822"
"21:5:33:333 (H:m:s:ms)","GENERIC","186.16500000000002","0.08019308334271469","666"
"21:24:56:969 (H:m:s:ms)","GENERIC","186.262","0.07586546094343495","1030"
"21:37:58:787 (H:m:s:ms)","GENERIC","186.144","0.08501977874124775","212"
"20:45:39:393 (H:m:s:ms)","GENERIC","186.15699999999998","0.08619518286198152","650"
"21:5:39:393 (H:m:s:ms)","GENERIC","186.141","0.07041963635296909","645"
"21:25:3:30 (H:m:s:ms)","GENERIC","186.1","0.06280755125300437","969"
"21:37:53:684 (H:m:s:ms)","AMBULANCE","186.244","0.08551394871590613","316"
"20:45:41:772 (H:m:s:ms)","OPERA","155.139","0.08807190533395103","227"
"21:5:45:454 (H:m:s:ms)","GENERIC","186.137","0.06505888972384517","545"
"21:25:3:797 (H:m:s:ms)","OPERA","186.14600000000002","0.09403132761814151","203"
"21:37:52:727 (H:m:s:ms)","GENERIC","186.18099999999998","0.0661015711919361","272"
"20:45:45:454 (H:m:s:ms)","GENERIC","186.143","0.07413376850172887","545"
"21:5:47:368 (H:m:s:ms)","AMBULANCE","155.19","0.07929636647782223","631"
"21:25:9:90 (H:m:s:ms)","GENERIC","186.075","0.06529457610643977","944"
"20:45:51:515 (H:m:s:ms)","GENERIC","186.153","0.050734473404631365","484"
"21:5:51:515 (H:m:s:ms)","GENERIC","186.22899999999998","0.06641939722212074","485"
"21:25:11:392 (H:m:s:ms)","OPERA","155.14","0.08152476625781722","607"
"20:45:56:962 (H:m:s:ms)","OPERA","155.077","0.050421329457765236","1037"
"21:5:57:575 (H:m:s:ms)","GENERIC","186.144","0.07720704959819337","424"
"21:25:15:151 (H:m:s:ms)","GENERIC","186.21699999999998","0.06861975757508708","848"
"20:45:57:575 (H:m:s:ms)","GENERIC","186.228","0.08499473534418375","424"
"21:6:3:636 (H:m:s:ms)","GENERIC","186.207","0.07725494141434026","363"
"20:46:3:636 (H:m:s:ms)","GENERIC","186.253","0.04496508465912941","363"
"21:6:9:696 (H:m:s:ms)","GENERIC","186.145","0.04711423356247369","343"
"20:46:4:556 (H:m:s:ms)","OPERA","155.14","0.08671899281242204","443"
"20:46:9:696 (H:m:s:ms)","GENERIC","186.16","0.09942181621514914","347"
"21:39:35:757 (H:m:s:ms)","GENERIC","186.168","0.06139752844619893","242"
"21:39:29:696 (H:m:s:ms)","GENERIC","186.136","0.08197531848020355","339"
"21:39:28:421 (H:m:s:ms)","AMBULANCE","186.254","0.10219430112746679","578"
"21:39:23:636 (H:m:s:ms)","GENERIC","186.2","0.07478332472554966","363"
"21:39:17:575 (H:m:s:ms)","GENERIC","186.15","0.07822818725107823","424"
"21:39:11:515 (H:m:s:ms)","GENERIC","186.234","0.054773075211597085","484"
"21:39:5:454 (H:m:s:ms)","GENERIC","186.128","0.06320427868762983","545"
"21:38:59:393 (H:m:s:ms)","GENERIC","186.174","0.08791627156995105","642"
"21:25:18:987 (H:m:s:ms)","OPERA","186.143","0.08946972275792253","1047"
"21:25:21:212 (H:m:s:ms)","GENERIC","186.219","0.09667926136026009","787"
"21:6:15:757 (H:m:s:ms)","GENERIC","186.127","0.06145677426812249","242"
"21:25:26:582 (H:m:s:ms)","OPERA","186.143","0.08765918498388019","417"
"21:6:18:947 (H:m:s:ms)","AMBULANCE","155.177","0.07895234579234374","1091"
"21:25:27:272 (H:m:s:ms)","GENERIC","186.193","0.09307228036085963","728"
"20:46:12:151 (H:m:s:ms)","OPERA","155.139","0.09201949560296638","848"
"21:6:21:818 (H:m:s:ms)","GENERIC","186.127","0.09034619864322682","181"
"21:25:33:333 (H:m:s:ms)","GENERIC","186.139","0.0631970880987403","666"
"20:46:15:757 (H:m:s:ms)","GENERIC","186.177","0.08430667537768416","242"
"21:6:27:878 (H:m:s:ms)","GENERIC","186.111","0.06256501174816029","1121"
"21:25:34:177 (H:m:s:ms)","OPERA","186.144","0.08798391518660849","822"
"21:38:56:842 (H:m:s:ms)","AMBULANCE","186.246","0.08658109661939237","158"
"20:46:19:746 (H:m:s:ms)","OPERA","155.137","0.09837095769566563","296"
"21:6:33:939 (H:m:s:ms)","GENERIC","186.174","0.06048171800945067","1062"
"21:25:39:393 (H:m:s:ms)","GENERIC","186.086","0.09681900404986227","641"
"21:38:53:333 (H:m:s:ms)","GENERIC","186.07999999999998","0.06276465856699333","666"
"20:46:21:818 (H:m:s:ms)","GENERIC","186.202","0.09295252887348365","181"
"21:6:40:0 (H:m:s:ms)","GENERIC","186.099","0.06610322596797057","1040"
"21:25:41:772 (H:m:s:ms)","OPERA","155.14","0.09524114802662266","227"
"21:38:47:272 (H:m:s:ms)","GENERIC","186.14","0.06886798479084841","727"
"20:46:27:341 (H:m:s:ms)","OPERA","155.077","0.06358371664914639","658"
"21:6:46:60 (H:m:s:ms)","GENERIC","186.163","0.07760188947260029","939"
"21:25:45:454 (H:m:s:ms)","GENERIC","186.118","0.07465193525227956","546"
"20:46:27:878 (H:m:s:ms)","GENERIC","186.16","0.08059123718775918","1121"
"21:6:50:526 (H:m:s:ms)","AMBULANCE","155.15800000000002","0.09591431569320087","473"
"21:25:51:515 (H:m:s:ms)","GENERIC","186.168","0.07457899914137509","484"
"20:46:33:939 (H:m:s:ms)","GENERIC","186.15800000000002","0.07613021728169118","1060"
"21:6:52:121 (H:m:s:ms)","GENERIC","186.117","0.07640045899895555","878"
"20:46:34:936 (H:m:s:ms)","OPERA","155.14","0.08402729688194766","1063"
"21:6:58:181 (H:m:s:ms)","GENERIC","186.236","0.0788928513698824","818"
"20:46:40:0 (H:m:s:ms)","GENERIC","186.121","0.0599170179268875","1043"
"20:46:42:531 (H:m:s:ms)","OPERA","155.136","0.07764889331551268","468"
"21:39:53:939 (H:m:s:ms)","GENERIC","186.172","0.052712689177037926","1060"
"21:40:30:303 (H:m:s:ms)","GENERIC","186.14","0.04465550346877463","696"
"21:40:24:242 (H:m:s:ms)","GENERIC","186.101","0.06784179598934578","758"
"21:40:18:181 (H:m:s:ms)","GENERIC","186.103","0.06384647159478612","818"
"21:40:12:121 (H:m:s:ms)","GENERIC","186.197","0.05555499862990663","878"
"21:40:6:60 (H:m:s:ms)","GENERIC","186.132","0.04890877555060578","939"
"21:40:0:0 (H:m:s:ms)","GENERIC","186.288","0.11858782450166763","1468"
"21:40:0:0 (H:m:s:ms)","AMBULANCE","186.273","0.09622481728957125","1468"
"21:40:0:0 (H:m:s:ms)","GENERIC","186.149","0.07193746874338933","1468"
"21:7:4:242 (H:m:s:ms)","GENERIC","186.102","0.06292472731153022","757"
"21:7:10:303 (H:m:s:ms)","GENERIC","186.097","0.06673928535245861","696"
"20:46:46:60 (H:m:s:ms)","GENERIC","186.231","0.08213835618661686","940"
"21:7:16:363 (H:m:s:ms)","GENERIC","186.133","0.06217987729226593","636"
"20:46:50:126 (H:m:s:ms)","OPERA","155.137","0.07725902178478147","873"
"21:7:22:105 (H:m:s:ms)","AMBULANCE","155.119","0.055593061957252034","894"
"20:46:52:121 (H:m:s:ms)","GENERIC","186.165","0.0738711728265864","878"
"21:7:22:424 (H:m:s:ms)","GENERIC","186.207","0.08526873429133436","575"
"20:46:58:181 (H:m:s:ms)","GENERIC","186.25900000000001","0.06372370847483995","818"
"21:7:28:484 (H:m:s:ms)","GENERIC","186.138","0.06703038060947794","515"
"21:39:47:878 (H:m:s:ms)","GENERIC","186.194","0.0476422539860079","1121"
"20:47:4:242 (H:m:s:ms)","GENERIC","186.115","0.054736674449622894","757"
"21:7:34:545 (H:m:s:ms)","GENERIC","186.145","0.048570435418008984","454"
"21:39:41:818 (H:m:s:ms)","GENERIC","186.15","0.0577126275225359","181"
"20:47:5:316 (H:m:s:ms)","OPERA","155.14","0.08465183498919657","683"
"21:7:40:606 (H:m:s:ms)","GENERIC","186.143","0.07776563614378089","393"
"20:47:10:303 (H:m:s:ms)","GENERIC","186.119","0.09094790029170884","696"
"21:7:46:666 (H:m:s:ms)","GENERIC","186.142","0.05150543020979827","333"
"20:47:12:911 (H:m:s:ms)","OPERA","155.141","0.08021516327889196","1088"
"21:7:52:727 (H:m:s:ms)","GENERIC","186.171","0.052670687541207635","272"
"20:47:16:363 (H:m:s:ms)","GENERIC","186.127","0.08344022045828639","636"
"20:47:20:506 (H:m:s:ms)","OPERA","155.139","0.0910922203266367","493"
"21:7:53:684 (H:m:s:ms)","AMBULANCE","155.19","0.1000931954339559","316"
"21:7:58:787 (H:m:s:ms)","GENERIC","186.16899999999998","0.10757757714231","212"
"20:47:22:424 (H:m:s:ms)","GENERIC","186.119","0.09811639928372694","575"
"21:8:4:848 (H:m:s:ms)","GENERIC","186.145","0.04849673551416012","151"
"20:47:28:101 (H:m:s:ms)","OPERA","155.101","0.05771900853346626","898"
"21:8:10:909 (H:m:s:ms)","GENERIC","186.109","0.06598387991549104","1090"
"20:47:28:484 (H:m:s:ms)","GENERIC","186.215","0.09363300159582504","515"
"21:8:16:969 (H:m:s:ms)","GENERIC","186.171","0.0777439213038399","1030"
"20:47:34:545 (H:m:s:ms)","GENERIC","186.12099999999998","0.062122785175699","455"
"21:8:23:30 (H:m:s:ms)","GENERIC","186.127","0.06593328964181727","969"
"20:47:35:696 (H:m:s:ms)","OPERA","155.14","0.07365891463213085","303"
"21:8:25:263 (H:m:s:ms)","AMBULANCE","155.167","0.07981165798421723","736"
"20:47:40:606 (H:m:s:ms)","GENERIC","186.162","0.07806676242298563","393"
"21:8:29:90 (H:m:s:ms)","GENERIC","186.24200000000002","0.07166048933658833","948"
"21:40:36:363 (H:m:s:ms)","GENERIC","186.231","0.05332163602125602","636"
"20:47:43:291 (H:m:s:ms)","OPERA","155.139","0.0882871495055243","709"
"21:8:35:151 (H:m:s:ms)","GENERIC","186.153","0.05393814567787902","849"
"20:47:46:666 (H:m:s:ms)","GENERIC","186.161","0.07677617410302114","333"
"21:8:41:212 (H:m:s:ms)","GENERIC","186.154","0.06531707390608855","787"
"20:47:50:886 (H:m:s:ms)","OPERA","155.14","0.08931238622423479","114"
"20:47:52:727 (H:m:s:ms)","GENERIC","186.149","0.09523554758738757","272"
"21:8:47:272 (H:m:s:ms)","GENERIC","186.101","0.07662005354747524","727"
"21:8:53:333 (H:m:s:ms)","GENERIC","186.151","0.05093990101299969","666"
"20:47:58:481 (H:m:s:ms)","OPERA","155.085","0.07851587602475647","518"
"21:8:56:842 (H:m:s:ms)","AMBULANCE","155.197","0.09916719730767434","157"
"20:47:58:787 (H:m:s:ms)","GENERIC","186.212","0.0902296566866059","212"
"21:8:59:393 (H:m:s:ms)","GENERIC","186.163","0.0952740354537517","646"
"20:30:0:0 (H:m:s:ms)","GENERIC","186.12","0.06809203916109252","1039"
"20:48:4:848 (H:m:s:ms)","GENERIC","186.097","0.04706159706061219","152"
"21:9:5:454 (H:m:s:ms)","GENERIC","186.168","0.0631758981469201","545"
"20:30:0:0 (H:m:s:ms)","GENERIC","186.257","0.09978794430834032","1039"
"20:48:6:75 (H:m:s:ms)","OPERA","155.139","0.08998450756478425","924"
"21:9:11:515 (H:m:s:ms)","GENERIC","186.165","0.06750325533544713","484"
"20:30:6:60 (H:m:s:ms)","GENERIC","186.172","0.06789374601695729","939"
"20:48:10:909 (H:m:s:ms)","GENERIC","186.093","0.0938402802486287","1090"
"21:9:17:575 (H:m:s:ms)","GENERIC","186.122","0.06569000709311769","424"
"20:30:12:121 (H:m:s:ms)","GENERIC","186.18099999999998","0.061416324736041854","878"
"20:48:13:670 (H:m:s:ms)","OPERA","155.139","0.08609572017023212","329"
"21:9:23:636 (H:m:s:ms)","GENERIC","186.167","0.05805404755470692","363"
"20:30:18:181 (H:m:s:ms)","GENERIC","186.095","0.07764461723598168","819"
"20:48:16:969 (H:m:s:ms)","GENERIC","186.183","0.09287457097375189","1030"
"21:9:28:421 (H:m:s:ms)","AMBULANCE","155.202","0.09878591061530936","578"
"20:30:24:242 (H:m:s:ms)","GENERIC","186.112","0.053968870756265185","757"
"20:48:21:265 (H:m:s:ms)","OPERA","155.14","0.10014963072869719","734"
"21:9:29:696 (H:m:s:ms)","GENERIC","186.174","0.09666429350749453","341"
"20:30:30:303 (H:m:s:ms)","GENERIC","186.149","0.06219172855429344","696"
"20:48:23:30 (H:m:s:ms)","GENERIC","186.162","0.09912849376301036","969"
"20:30:36:363 (H:m:s:ms)","GENERIC","186.23000000000002","0.06972441661804642","636"
"20:48:28:860 (H:m:s:ms)","OPERA","155.139","0.0852500362165919","139"
"20:30:42:424 (H:m:s:ms)","GENERIC","186.189","0.06723159493050657","575"
"20:30:48:484 (H:m:s:ms)","GENERIC","186.162","0.062044655940159114","515"
"21:9:35:757 (H:m:s:ms)","GENERIC","186.2","0.06402324486307952","242"
"21:9:41:818 (H:m:s:ms)","GENERIC","186.15300000000002","0.07632715633953724","181"
"20:48:29:90 (H:m:s:ms)","GENERIC","186.178","0.08816394712599027","949"
"21:9:47:878 (H:m:s:ms)","GENERIC","186.149","0.06782477057053526","1121"
"20:48:35:151 (H:m:s:ms)","GENERIC","186.103","0.0642266795289062","848"
"21:9:53:939 (H:m:s:ms)","GENERIC","186.171","0.06413886923784017","1061"
"20:30:54:545 (H:m:s:ms)","GENERIC","186.155","0.06096275396910638","454"
"20:48:36:455 (H:m:s:ms)","OPERA","155.14","0.09609923917961974","544"
"21:10:0:0 (H:m:s:ms)","AMBULANCE","155.104","0.061672189139775124","1038"
"20:31:0:606 (H:m:s:ms)","GENERIC","186.165","0.047366923439983215","393"
"20:48:41:212 (H:m:s:ms)","GENERIC","186.208","0.08682085823366915","787"
"21:10:0:0 (H:m:s:ms)","GENERIC","186.18","0.07357437170451438","1038"
"20:31:6:666 (H:m:s:ms)","GENERIC","186.149","0.04233003345764082","333"
"20:48:44:50 (H:m:s:ms)","OPERA","155.137","0.0831552424523828","950"
"21:10:0:0 (H:m:s:ms)","GENERIC","186.317","0.09958467811790271","1038"
"20:31:12:727 (H:m:s:ms)","GENERIC","186.19400000000002","0.07137141443894326","272"
"20:48:47:272 (H:m:s:ms)","GENERIC","186.151","0.08469074051503818","727"
"21:10:6:60 (H:m:s:ms)","GENERIC","186.181","0.062226507043887165","939"
"20:31:18:787 (H:m:s:ms)","GENERIC","186.16","0.06684370638084676","212"
"20:48:53:333 (H:m:s:ms)","GENERIC","186.117","0.04588864425693232","666"
"21:10:12:121 (H:m:s:ms)","GENERIC","186.191","0.06590013932433084","879"
"20:31:24:848 (H:m:s:ms)","GENERIC","186.201","0.06514421482033245","152"
"20:48:59:240 (H:m:s:ms)","OPERA","155.077","0.07286543612421738","798"
"21:10:18:181 (H:m:s:ms)","GENERIC","186.14100000000002","0.04646745229924596","818"
"20:31:30:909 (H:m:s:ms)","GENERIC","186.087","0.06207874945020039","1091"
"20:48:59:393 (H:m:s:ms)","GENERIC","186.238","0.09247909907577033","645"
"20:31:36:969 (H:m:s:ms)","GENERIC","186.19","0.06697661543624622","1030"
"20:49:5:454 (H:m:s:ms)","GENERIC","186.199","0.06576316374254709","545"
"20:31:43:30 (H:m:s:ms)","GENERIC","186.159","0.07797895641284468","969"
"20:31:49:90 (H:m:s:ms)","GENERIC","186.156","0.06954866942589395","949"
"20:49:6:835 (H:m:s:ms)","OPERA","155.14","0.09108192926255161","164"
"20:49:11:515 (H:m:s:ms)","GENERIC","186.139","0.08878854838235481","484"
"20:31:55:151 (H:m:s:ms)","GENERIC","186.136","0.0804639820589866","848"
"20:49:14:430 (H:m:s:ms)","OPERA","155.139","0.08664846202408164","570"
"20:32:1:212 (H:m:s:ms)","GENERIC","186.222","0.05315191092283558","787"
"20:49:17:575 (H:m:s:ms)","GENERIC","186.151","0.091222314897954","424"
"20:32:7:272 (H:m:s:ms)","GENERIC","186.144","0.06745748849739353","727"
"20:49:22:25 (H:m:s:ms)","OPERA","155.138","0.08797876987588697","975"
"20:32:13:333 (H:m:s:ms)","GENERIC","186.224","0.04973806885296832","666"
"20:49:23:636 (H:m:s:ms)","GENERIC","186.21099999999998","0.07585829190471455","363"
"20:32:19:393 (H:m:s:ms)","GENERIC","186.142","0.05601622103048965","646"
"20:49:29:620 (H:m:s:ms)","OPERA","155.077","0.06647700026326601","420"
"20:32:25:454 (H:m:s:ms)","GENERIC","186.149","0.04222130337288254","545"
"20:49:29:696 (H:m:s:ms)","GENERIC","186.196","0.09328244330778748","344"
"20:32:31:515 (H:m:s:ms)","GENERIC","186.244","0.05664187072096535","484"
"20:49:35:757 (H:m:s:ms)","GENERIC","186.218","0.07742799945377715","242"
"20:32:37:575 (H:m:s:ms)","GENERIC","186.14600000000002","0.06532175916793691","424"
"20:49:37:215 (H:m:s:ms)","OPERA","155.139","0.09183239488163064","784"
"20:32:43:636 (H:m:s:ms)","GENERIC","186.231","0.04810935341775618","363"
"20:32:49:696 (H:m:s:ms)","GENERIC","186.122","0.06780378368941997","342"
"20:49:41:818 (H:m:s:ms)","GENERIC","186.215","0.08351650206978277","181"
"20:49:44:810 (H:m:s:ms)","OPERA","155.136","0.10839397647001685","190"
"20:32:55:757 (H:m:s:ms)","GENERIC","186.161","0.05050172429920696","242"
"20:49:47:878 (H:m:s:ms)","GENERIC","186.21300000000002","0.10958019822279058","1121"
"20:33:1:818 (H:m:s:ms)","GENERIC","186.235","0.04515098667933537","181"
"20:49:53:939 (H:m:s:ms)","GENERIC","186.129","0.06958606434605472","1060"
"20:33:7:878 (H:m:s:ms)","GENERIC","186.218","0.06638948736540715","1121"
"20:50:0:0 (H:m:s:ms)","OPERA","155.15","0.08892152554697345","1042"
"20:33:13:939 (H:m:s:ms)","GENERIC","186.15699999999998","0.06590353057595859","1060"
"20:50:0:0 (H:m:s:ms)","GENERIC","186.212","0.11210328112523357","1042"
"20:33:20:0 (H:m:s:ms)","GENERIC","186.2","0.048808252882334584","1037"
"20:50:0:0 (H:m:s:ms)","GENERIC","186.226","0.06835708981065149","1042"
"20:33:26:60 (H:m:s:ms)","GENERIC","186.215","0.06374852786642109","939"
"20:50:6:60 (H:m:s:ms)","GENERIC","186.18099999999998","0.06940339022235933","939"
"20:33:32:121 (H:m:s:ms)","GENERIC","186.14","0.0699595963339637","879"
"20:50:12:121 (H:m:s:ms)","GENERIC","186.171","0.04438577612846438","878"
"20:33:38:181 (H:m:s:ms)","GENERIC","186.161","0.05939847275521523","818"
"20:50:18:181 (H:m:s:ms)","GENERIC","186.131","0.0748117548253564","818"
"20:33:44:242 (H:m:s:ms)","GENERIC","186.138","0.05784632937416277","758"
"20:33:50:303 (H:m:s:ms)","GENERIC","186.16","0.08008284295242525","696"
"20:50:24:242 (H:m:s:ms)","GENERIC","186.125","0.06018801514984421","757"
"20:50:30:303 (H:m:s:ms)","GENERIC","186.163","0.07581463793169825","696"
"20:33:56:363 (H:m:s:ms)","GENERIC","186.151","0.06940339022235933","636"
"20:50:36:363 (H:m:s:ms)","GENERIC","186.215","0.06615260785687187","636"
"20:34:2:424 (H:m:s:ms)","GENERIC","186.165","0.08024743784705912","575"
"20:50:42:424 (H:m:s:ms)","GENERIC","186.19400000000002","0.05317777019014279","575"
"20:10:0:0 (H:m:s:ms)","GENERIC","155.124","0.06271603132397852","1001"
"20:34:8:484 (H:m:s:ms)","GENERIC","186.105","0.04786581083633471","515"
"20:50:48:484 (H:m:s:ms)","GENERIC","186.141","0.06768743031971175","515"
"20:10:0:0 (H:m:s:ms)","GENERIC","186.18200000000002","0.08290107932142625","1046"
"20:34:14:545 (H:m:s:ms)","GENERIC","186.19400000000002","0.06778640208370051","454"
"20:50:54:545 (H:m:s:ms)","GENERIC","186.16","0.07004047924911098","454"
"20:10:6:60 (H:m:s:ms)","GENERIC","186.165","0.06162475959433671","940"
"20:34:20:606 (H:m:s:ms)","GENERIC","186.118","0.06270475397054578","393"
"20:51:0:606 (H:m:s:ms)","GENERIC","186.149","0.06786963324142979","393"
"20:10:12:121 (H:m:s:ms)","GENERIC","186.19299999999998","0.06448432311268862","878"
"20:34:26:666 (H:m:s:ms)","GENERIC","186.16899999999998","0.06761381044960788","333"
"20:51:6:666 (H:m:s:ms)","GENERIC","186.14","0.07672308887228524","333"
"20:10:18:181 (H:m:s:ms)","GENERIC","186.123","0.06371516466853311","818"
"20:34:32:727 (H:m:s:ms)","GENERIC","186.209","0.059277575254375374","272"
"20:51:12:727 (H:m:s:ms)","GENERIC","186.147","0.06333003148816739","272"
"20:10:24:242 (H:m:s:ms)","GENERIC","186.102","0.07801760203440726","758"
"20:34:38:787 (H:m:s:ms)","GENERIC","186.168","0.057992265116307014","212"
"20:51:18:787 (H:m:s:ms)","GENERIC","186.168","0.052373212365786063","212"
"20:10:30:303 (H:m:s:ms)","GENERIC","186.148","0.06176514987105615","696"
"20:34:44:848 (H:m:s:ms)","GENERIC","186.135","0.06817942931742585","151"
"20:10:36:363 (H:m:s:ms)","GENERIC","186.243","0.0596222091831967","636"
"20:34:50:909 (H:m:s:ms)","GENERIC","186.209","0.04495044893393183","1090"
"20:10:42:424 (H:m:s:ms)","GENERIC","186.167","0.0645021171564557","575"
"20:10:48:484 (H:m:s:ms)","GENERIC","186.168","0.04585247127071486","515"
"20:51:24:848 (H:m:s:ms)","GENERIC","186.225","0.07814625630627857","152"
"20:51:30:909 (H:m:s:ms)","GENERIC","186.14","0.05348877932624029","1090"
"20:34:56:969 (H:m:s:ms)","GENERIC","186.199","0.06127364945110571","1030"
"20:51:36:969 (H:m:s:ms)","GENERIC","186.178","0.06474293467056343","1030"
"20:35:3:30 (H:m:s:ms)","GENERIC","186.142","0.06487985804890778","969"
"20:51:43:30 (H:m:s:ms)","GENERIC","186.131","0.07957794623055679","970"
"20:10:54:545 (H:m:s:ms)","GENERIC","186.16299999999998","0.07954699671145285","455"
"20:35:9:90 (H:m:s:ms)","GENERIC","186.147","0.07530637460714325","945"
"20:51:49:90 (H:m:s:ms)","GENERIC","186.162","0.05593763957534125","952"
"20:11:0:606 (H:m:s:ms)","GENERIC","186.149","0.04845872913704942","394"
"20:35:15:151 (H:m:s:ms)","GENERIC","186.159","0.06272813967614868","849"
"20:51:55:151 (H:m:s:ms)","GENERIC","186.147","0.07910439486246193","848"
"20:11:6:666 (H:m:s:ms)","GENERIC","186.148","0.05579069490620131","333"
"20:35:21:212 (H:m:s:ms)","GENERIC","186.155","0.076757181990445","787"
"20:52:1:212 (H:m:s:ms)","GENERIC","186.20600000000002","0.0704591728142332","787"
"20:11:12:727 (H:m:s:ms)","GENERIC","186.213","0.06276465856699333","272"
"20:35:27:272 (H:m:s:ms)","GENERIC","186.165","0.06315068258306197","727"
"20:52:7:272 (H:m:s:ms)","GENERIC","186.18","0.05152115568224127","727"
"20:11:18:787 (H:m:s:ms)","GENERIC","186.152","0.04542218876664564","212"
"20:35:33:333 (H:m:s:ms)","GENERIC","186.171","0.06420286614957173","666"
"20:52:13:333 (H:m:s:ms)","GENERIC","186.18099999999998","0.05168846648671238","666"
"20:11:24:848 (H:m:s:ms)","GENERIC","186.172","0.07876998414375447","151"
"20:35:39:393 (H:m:s:ms)","GENERIC","186.188","0.06614627204339492","643"
"20:52:19:393 (H:m:s:ms)","GENERIC","186.103","0.06282683083917379","650"
"20:11:30:909 (H:m:s:ms)","GENERIC","186.082","0.06274057212551398","1090"
"20:35:45:454 (H:m:s:ms)","GENERIC","186.172","0.05376503512206267","545"
"20:11:36:969 (H:m:s:ms)","GENERIC","186.136","0.049919752200627956","1030"
"20:35:51:515 (H:m:s:ms)","GENERIC","186.161","0.045322414378737096","484"
"20:11:43:30 (H:m:s:ms)","GENERIC","186.172","0.07653032139889922","969"
"20:11:49:90 (H:m:s:ms)","GENERIC","186.096","0.06672759126274841","957"
"20:0:54:545 (H:m:s:ms)","GENERIC","155.113","0.07788031827690392","456"
"20:1:0:606 (H:m:s:ms)","GENERIC","155.115","0.07796123133701832","393"
"20:1:6:666 (H:m:s:ms)","GENERIC","155.105","0.06751130126957099","334"
"20:1:12:727 (H:m:s:ms)","GENERIC","155.128","0.06546709215201206","273"
"20:1:18:787 (H:m:s:ms)","GENERIC","155.115","0.06684464294778315","213"
"20:1:24:848 (H:m:s:ms)","GENERIC","155.153","0.06862752161191632","152"
"20:1:30:909 (H:m:s:ms)","GENERIC","155.083","0.06701148487713447","1090"
"20:1:36:969 (H:m:s:ms)","GENERIC","155.119","0.056563852696719874","1031"
"20:1:43:30 (H:m:s:ms)","GENERIC","155.13","0.06794630265187435","969"
"20:1:49:90 (H:m:s:ms)","GENERIC","155.076","0.06671277127602361","926"
"20:35:57:575 (H:m:s:ms)","GENERIC","186.186","0.06495199631779029","425"
"20:36:3:636 (H:m:s:ms)","GENERIC","186.227","0.06151959042118079","363"
"20:11:55:151 (H:m:s:ms)","GENERIC","186.1","0.06878548440207315","848"
"20:36:9:696 (H:m:s:ms)","GENERIC","186.147","0.060371859442326585","339"
"20:12:1:212 (H:m:s:ms)","GENERIC","186.194","0.06919407604900639","787"
"20:36:15:757 (H:m:s:ms)","GENERIC","186.149","0.066840682518015","242"
"20:12:7:272 (H:m:s:ms)","GENERIC","186.102","0.0628446923120569","728"
"20:36:21:818 (H:m:s:ms)","GENERIC","186.15699999999998","0.044907336923788906","181"
"20:12:13:333 (H:m:s:ms)","GENERIC","186.22899999999998","0.058740359764938334","666"
"20:36:27:878 (H:m:s:ms)","GENERIC","186.112","0.06503403136449468","1121"
"20:12:19:393 (H:m:s:ms)","GENERIC","186.124","0.06217026519210237","654"
"20:36:33:939 (H:m:s:ms)","GENERIC","186.168","0.05413251226610543","1060"
"20:12:25:454 (H:m:s:ms)","GENERIC","186.14499999999998","0.06737918494665779","545"
"20:36:40:0 (H:m:s:ms)","GENERIC","186.11","0.051151224300379564","1037"
"20:12:31:515 (H:m:s:ms)","GENERIC","186.168","0.07873600082756996","484"
"20:36:46:60 (H:m:s:ms)","GENERIC","186.195","0.04800782991731791","940"
"20:12:37:575 (H:m:s:ms)","GENERIC","186.164","0.07000123609889775","425"
"20:36:52:121 (H:m:s:ms)","GENERIC","186.13299999999998","0.05939847275521523","878"
"20:12:43:636 (H:m:s:ms)","GENERIC","186.208","0.045046839199797274","363"
"20:12:49:696 (H:m:s:ms)","GENERIC","186.106","0.06907192757809477","351"
"20:1:55:151 (H:m:s:ms)","GENERIC","155.091","0.051733245764685645","849"
"20:2:1:212 (H:m:s:ms)","GENERIC","155.15099999999998","0.06414699446869274","787"
"20:2:7:272 (H:m:s:ms)","GENERIC","155.084","0.07607197046372358","727"
"20:2:13:333 (H:m:s:ms)","GENERIC","155.134","0.0781201659840884","666"
"20:2:19:393 (H:m:s:ms)","GENERIC","155.089","0.0757844364867578","625"
"20:2:25:454 (H:m:s:ms)","GENERIC","155.111","0.06315068258306197","545"
"20:2:31:515 (H:m:s:ms)","GENERIC","155.10999999999999","0.06444578843725443","484"
"20:2:37:575 (H:m:s:ms)","GENERIC","155.108","0.049373159456087855","425"
"20:2:43:636 (H:m:s:ms)","GENERIC","155.124","0.06423881823814243","363"
"20:2:49:696 (H:m:s:ms)","GENERIC","155.082","0.04909110711337594","324"
"20:36:58:181 (H:m:s:ms)","GENERIC","186.264","0.06897873313836045","819"
"20:37:4:242 (H:m:s:ms)","GENERIC","186.132","0.05659985483182997","758"
"20:12:55:757 (H:m:s:ms)","GENERIC","186.173","0.04897623486089746","242"
"20:37:10:303 (H:m:s:ms)","GENERIC","186.135","0.06239621878889359","697"
"20:13:1:818 (H:m:s:ms)","GENERIC","186.186","0.0463330963893387","181"
"20:37:16:363 (H:m:s:ms)","GENERIC","186.10899999999998","0.060513078808547616","636"
"20:13:7:878 (H:m:s:ms)","GENERIC","186.24200000000002","0.05819854762333374","1121"
"20:37:22:424 (H:m:s:ms)","GENERIC","186.15","0.055463507108416805","575"
"20:13:13:939 (H:m:s:ms)","GENERIC","186.18","0.06551998923706329","1061"
"20:37:28:484 (H:m:s:ms)","GENERIC","186.129","0.07898177747576962","516"
"20:13:20:0 (H:m:s:ms)","GENERIC","186.244","0.06969406720439018","1046"
"20:37:34:545 (H:m:s:ms)","GENERIC","186.138","0.05135167834406379","455"
"20:13:26:60 (H:m:s:ms)","GENERIC","186.214","0.048954677982873535","939"
"20:37:40:606 (H:m:s:ms)","GENERIC","186.15699999999998","0.07571289053866022","393"
"20:13:32:121 (H:m:s:ms)","GENERIC","186.1","0.05886411033679965","878"
"20:37:46:666 (H:m:s:ms)","GENERIC","186.173","0.04574876190193576","333"
"20:13:38:181 (H:m:s:ms)","GENERIC","186.179","0.06735220479360855","818"
"20:37:52:727 (H:m:s:ms)","GENERIC","186.172","0.06639836072911748","272"
"20:13:44:242 (H:m:s:ms)","GENERIC","186.14","0.04797504091727276","759"
"20:13:50:303 (H:m:s:ms)","GENERIC","186.111","0.07997910850079408","696"
"20:2:55:757 (H:m:s:ms)","GENERIC","155.121","0.06039637538210019","242"
"20:3:1:818 (H:m:s:ms)","GENERIC","155.151","0.056328910265579034","182"
"20:3:7:878 (H:m:s:ms)","GENERIC","155.144","0.04915846997412646","121"
"20:3:13:939 (H:m:s:ms)","GENERIC","155.132","0.06400166757381434","1061"
"20:3:20:0 (H:m:s:ms)","GENERIC","155.14","0.07734701826216078","1000"
"20:3:26:60 (H:m:s:ms)","GENERIC","155.12199999999999","0.07811536148746322","939"
"20:3:32:121 (H:m:s:ms)","GENERIC","155.091","0.06711200162150874","878"
"20:3:38:181 (H:m:s:ms)","GENERIC","155.142","0.05634100247577808","818"
"20:3:44:242 (H:m:s:ms)","GENERIC","155.133","0.06870080012528419","760"
"20:3:50:303 (H:m:s:ms)","GENERIC","155.109","0.04894464662326417","696"
"20:37:58:787 (H:m:s:ms)","GENERIC","186.154","0.0701822116119652","212"
"20:38:4:848 (H:m:s:ms)","GENERIC","186.111","0.07872459566503008","152"
"20:13:56:363 (H:m:s:ms)","GENERIC","186.123","0.06580808673722162","636"
"20:38:10:909 (H:m:s:ms)","GENERIC","186.115","0.06477538404115564","1090"
"20:14:2:424 (H:m:s:ms)","GENERIC","186.13400000000001","0.0786260282325264","575"
"20:38:16:969 (H:m:s:ms)","GENERIC","186.197","0.061732427571766196","1030"
"20:14:8:484 (H:m:s:ms)","GENERIC","186.138","0.07003425166939048","516"
"20:38:23:30 (H:m:s:ms)","GENERIC","186.184","0.06701148487713447","969"
"20:14:14:545 (H:m:s:ms)","GENERIC","186.171","0.06397812667941925","454"
"20:38:29:90 (H:m:s:ms)","GENERIC","186.141","0.06192209682541223","945"
"20:14:20:606 (H:m:s:ms)","GENERIC","186.075","0.04845872913704942","393"
"20:38:35:151 (H:m:s:ms)","GENERIC","186.085","0.04792180851997905","848"
"20:14:26:666 (H:m:s:ms)","GENERIC","186.16299999999998","0.0693950270135721","333"
"20:38:41:212 (H:m:s:ms)","GENERIC","186.156","0.06363428268287909","787"
"20:14:32:727 (H:m:s:ms)","GENERIC","186.236","0.06833918633217032","272"
"20:38:47:272 (H:m:s:ms)","GENERIC","186.14","0.052927274071248115","727"
"20:14:38:787 (H:m:s:ms)","GENERIC","186.186","0.07025843536366339","212"
"20:38:53:333 (H:m:s:ms)","GENERIC","186.10899999999998","0.06307222927351458","666"
"20:14:44:848 (H:m:s:ms)","GENERIC","186.159","0.06639262998256085","151"
"20:14:50:909 (H:m:s:ms)","GENERIC","186.176","0.07642218773489125","1090"
"20:3:56:363 (H:m:s:ms)","GENERIC","155.088","0.07529025051006048","636"
"20:4:2:424 (H:m:s:ms)","GENERIC","155.12800000000001","0.06904220923226437","576"
"20:4:8:484 (H:m:s:ms)","GENERIC","155.119","0.06038764763244621","515"
"20:4:14:545 (H:m:s:ms)","GENERIC","155.128","0.04912464700687384","456"
"20:4:20:606 (H:m:s:ms)","GENERIC","155.091","0.07222081089329636","393"
"20:4:26:666 (H:m:s:ms)","GENERIC","155.13","0.06852229999157768","333"
"20:4:32:727 (H:m:s:ms)","GENERIC","155.126","0.06442907214393545","273"
"20:4:38:787 (H:m:s:ms)","GENERIC","155.123","0.06614627204339492","212"
"20:4:44:848 (H:m:s:ms)","GENERIC","155.11499999999998","0.062122785175699","153"
"20:4:50:909 (H:m:s:ms)","GENERIC","155.117","0.04733322394372027","1091"
"20:38:59:393 (H:m:s:ms)","GENERIC","186.179","0.06600976504325795","642"
"20:39:5:454 (H:m:s:ms)","GENERIC","186.21","0.06512114429055042","545"
"20:14:56:969 (H:m:s:ms)","GENERIC","186.188","0.07520670293113144","1030"
"20:39:11:515 (H:m:s:ms)","GENERIC","186.141","0.06718456577875898","484"
"20:15:3:30 (H:m:s:ms)","GENERIC","186.124","0.06240312089104481","969"
"20:39:17:575 (H:m:s:ms)","GENERIC","186.149","0.05863082354873638","424"
"20:15:9:90 (H:m:s:ms)","GENERIC","186.114","0.07883099887193872","952"
"20:39:23:636 (H:m:s:ms)","GENERIC","186.203","0.062154638066850315","363"
"20:15:15:151 (H:m:s:ms)","GENERIC","186.17000000000002","0.0754675220366701","848"
"20:39:29:696 (H:m:s:ms)","GENERIC","186.164","0.06789558561936336","339"
"20:15:21:212 (H:m:s:ms)","GENERIC","186.182","0.0763275697715442","787"
"20:39:35:757 (H:m:s:ms)","GENERIC","186.243","0.062130823896515856","242"
"20:15:27:272 (H:m:s:ms)","GENERIC","186.18","0.06029296825070084","727"
"20:39:41:818 (H:m:s:ms)","GENERIC","186.192","0.07214092351098696","181"
"20:15:33:333 (H:m:s:ms)","GENERIC","186.137","0.06479769650855942","666"
"20:39:47:878 (H:m:s:ms)","GENERIC","186.156","0.0704591728142332","1121"
"20:15:39:393 (H:m:s:ms)","GENERIC","186.136","0.05119045831702169","650"
"20:39:53:939 (H:m:s:ms)","GENERIC","186.125","0.0463330963893387","1061"
"20:15:45:454 (H:m:s:ms)","GENERIC","186.118","0.048059541506291895","545"
"20:15:51:515 (H:m:s:ms)","GENERIC","186.176","0.04599522346691472","484"
"20:4:56:969 (H:m:s:ms)","GENERIC","155.119","0.04982072715799261","1030"
"20:5:3:30 (H:m:s:ms)","GENERIC","155.115","0.05272248799828193","970"
"20:5:9:90 (H:m:s:ms)","GENERIC","155.091","0.07839289595481813","938"
"20:5:15:151 (H:m:s:ms)","GENERIC","155.121","0.06029627710154527","848"
"20:5:21:212 (H:m:s:ms)","GENERIC","155.117","0.07698783781043808","788"
"20:5:27:272 (H:m:s:ms)","GENERIC","155.142","0.06750959855094452","727"
"20:5:33:333 (H:m:s:ms)","GENERIC","155.102","0.04363379204364928","666"
"20:5:39:393 (H:m:s:ms)","GENERIC","155.125","0.05978860909293416","636"
"20:5:45:454 (H:m:s:ms)","GENERIC","155.113","0.053214564102628634","546"
"20:5:51:515 (H:m:s:ms)","GENERIC","155.121","0.06927895581920848","484"
"20:15:57:575 (H:m:s:ms)","GENERIC","186.161","0.07612790628170092","424"
"20:16:3:636 (H:m:s:ms)","GENERIC","186.177","0.0645439338486853","363"
"20:16:9:696 (H:m:s:ms)","GENERIC","186.166","0.05194508995141689","344"
"20:16:15:757 (H:m:s:ms)","GENERIC","186.152","0.06808677330853055","242"
"20:16:21:818 (H:m:s:ms)","GENERIC","186.15800000000002","0.06491208862319266","181"
"20:16:27:878 (H:m:s:ms)","GENERIC","186.139","0.06402037872030049","1121"
"20:16:33:939 (H:m:s:ms)","GENERIC","186.144","0.06445544475927838","1060"
"20:16:40:0 (H:m:s:ms)","GENERIC","186.16","0.06707953612760924","1043"
"20:16:46:60 (H:m:s:ms)","GENERIC","186.17499999999998","0.06401924778944704","939"
"20:16:52:121 (H:m:s:ms)","GENERIC","186.128","0.04750837631258532","878"
"20:5:57:575 (H:m:s:ms)","GENERIC","155.11","0.06455361379627605","424"
"20:6:3:636 (H:m:s:ms)","GENERIC","155.119","0.0727186023374871","363"
"20:6:9:696 (H:m:s:ms)","GENERIC","155.123","0.06163946861868289","336"
"20:6:15:757 (H:m:s:ms)","GENERIC","155.105","0.057086818529029956","242"
"20:6:21:818 (H:m:s:ms)","GENERIC","155.109","0.047055437188544796","182"
"20:6:27:878 (H:m:s:ms)","GENERIC","155.144","0.06392979634985017","121"
"20:6:33:939 (H:m:s:ms)","GENERIC","155.102","0.060572481767505314","1061"
"20:6:40:0 (H:m:s:ms)","GENERIC","155.103","0.04470719268407988","1000"
"20:6:46:60 (H:m:s:ms)","GENERIC","155.131","0.08145592010646081","939"
"20:6:52:121 (H:m:s:ms)","GENERIC","155.121","0.06802703867584277","879"
"20:16:58:181 (H:m:s:ms)","GENERIC","186.198","0.043502969811486","818"
"20:17:4:242 (H:m:s:ms)","GENERIC","186.102","0.06373317078570234","758"
"20:17:10:303 (H:m:s:ms)","GENERIC","186.142","0.06289583637821115","696"
"20:17:16:363 (H:m:s:ms)","GENERIC","186.09699999999998","0.07776563614378089","636"
"20:17:22:424 (H:m:s:ms)","GENERIC","186.112","0.0640712265762847","575"
"20:17:28:484 (H:m:s:ms)","GENERIC","186.14","0.06931632928339876","515"
"20:17:34:545 (H:m:s:ms)","GENERIC","186.094","0.05518072664718768","455"
"20:17:40:606 (H:m:s:ms)","GENERIC","186.132","0.06894514816466156","393"
"20:17:46:666 (H:m:s:ms)","GENERIC","186.202","0.07122214271775712","333"
"20:17:52:727 (H:m:s:ms)","GENERIC","186.196","0.050887306397038624","272"
"20:6:58:181 (H:m:s:ms)","GENERIC","155.136","0.05293719714216775","818"
"20:7:4:242 (H:m:s:ms)","GENERIC","155.098","0.05270028007151557","758"
"20:7:10:303 (H:m:s:ms)","GENERIC","155.096","0.05205648100595212","696"
"20:7:16:363 (H:m:s:ms)","GENERIC","155.095","0.0816249213079049","637"
"20:7:22:424 (H:m:s:ms)","GENERIC","155.109","0.06734513265304329","575"
"20:7:28:484 (H:m:s:ms)","GENERIC","155.096","0.0642266795289062","515"
"20:7:34:545 (H:m:s:ms)","GENERIC","155.085","0.05929274621187948","455"
"20:7:40:606 (H:m:s:ms)","GENERIC","155.085","0.06487558844865204","393"
"20:7:46:666 (H:m:s:ms)","GENERIC","155.123","0.07966878197809585","333"
"20:7:52:727 (H:m:s:ms)","GENERIC","155.129","0.043897565558013225","272"
"20:17:58:787 (H:m:s:ms)","GENERIC","186.128","0.053528090058508","213"
"20:18:4:848 (H:m:s:ms)","GENERIC","186.15800000000002","0.06630597572041778","152"
"20:18:10:909 (H:m:s:ms)","GENERIC","186.13400000000001","0.0635060197749945","1090"
"20:18:16:969 (H:m:s:ms)","GENERIC","186.202","0.06060436957339572","1030"
"20:18:23:30 (H:m:s:ms)","GENERIC","186.218","0.08010985462575441","969"
"20:18:29:90 (H:m:s:ms)","GENERIC","186.186","0.057882444596592905","951"
"20:18:35:151 (H:m:s:ms)","GENERIC","186.086","0.07612322816151176","848"
"20:18:41:212 (H:m:s:ms)","GENERIC","186.156","0.06401924778944704","787"
"20:18:47:272 (H:m:s:ms)","GENERIC","186.18","0.05213816214801828","727"
"20:18:53:333 (H:m:s:ms)","GENERIC","186.105","0.07865709892782144","666"
"20:7:58:787 (H:m:s:ms)","GENERIC","155.07999999999998","0.06405612735755016","213"
"20:8:4:848 (H:m:s:ms)","GENERIC","155.13","0.06254278072013057","152"
"20:8:10:909 (H:m:s:ms)","GENERIC","155.093","0.0622883368930057","1091"
"20:8:16:969 (H:m:s:ms)","GENERIC","155.132","0.04788248462580598","1030"
"20:8:23:30 (H:m:s:ms)","GENERIC","155.14","0.05862752226613387","970"
"20:8:29:90 (H:m:s:ms)","GENERIC","155.11","0.0597374612021477","950"
"20:8:35:151 (H:m:s:ms)","GENERIC","155.088","0.047516408774954305","848"
"20:8:41:212 (H:m:s:ms)","GENERIC","155.123","0.06363674606781385","787"
"20:8:47:272 (H:m:s:ms)","GENERIC","155.118","0.06032668559254979","727"
"20:8:53:333 (H:m:s:ms)","GENERIC","155.095","0.07713315281092668","666"
"20:18:59:393 (H:m:s:ms)","GENERIC","186.192","0.06462005598750405","648"
"20:19:5:454 (H:m:s:ms)","GENERIC","186.178","0.06615260785687187","545"
"20:19:11:515 (H:m:s:ms)","GENERIC","186.175","0.06102471795615","484"
"20:19:17:575 (H:m:s:ms)","GENERIC","186.142","0.04359135898206523","425"
"20:19:23:636 (H:m:s:ms)","GENERIC","186.182","0.06580808673722162","364"
"20:19:29:696 (H:m:s:ms)","GENERIC","186.13400000000001","0.0450471829011921","344"
"20:19:35:757 (H:m:s:ms)","GENERIC","186.192","0.041543074847108404","242"
"20:19:41:818 (H:m:s:ms)","GENERIC","186.172","0.05261708232108817","181"
"20:19:47:878 (H:m:s:ms)","GENERIC","186.13","0.05122883118319865","1121"
"20:19:53:939 (H:m:s:ms)","GENERIC","186.137","0.0691317603806115","1061"
"20:8:59:393 (H:m:s:ms)","GENERIC","155.121","0.04339000362452013","649"
"20:9:5:454 (H:m:s:ms)","GENERIC","155.121","0.07198321091693032","545"
"20:9:11:515 (H:m:s:ms)","GENERIC","155.114","0.0757844364867578","484"
"20:9:17:575 (H:m:s:ms)","GENERIC","155.139","0.055891292626747247","425"
"20:9:23:636 (H:m:s:ms)","GENERIC","155.143","0.07013027674151953","363"
"20:9:29:696 (H:m:s:ms)","GENERIC","155.095","0.06651794459832315","349"
"20:9:35:757 (H:m:s:ms)","GENERIC","155.127","0.07673618029686721","243"
"20:9:41:818 (H:m:s:ms)","GENERIC","155.113","0.06294532270493904","181"
"20:9:47:878 (H:m:s:ms)","GENERIC","155.09","0.06198111647172592","122"
"20:9:53:939 (H:m:s:ms)","GENERIC","155.111","0.06372370847483995","1061"
"21:41:18:787 (H:m:s:ms)","GENERIC","186.173","0.0460739625265355","212"
"21:41:12:727 (H:m:s:ms)","GENERIC","186.189","0.048119298535016224","273"
"21:41:6:666 (H:m:s:ms)","GENERIC","186.145","0.07220181339008766","333"
"21:41:0:606 (H:m:s:ms)","GENERIC","186.15300000000002","0.06290230661077445","393"
"21:40:54:545 (H:m:s:ms)","GENERIC","186.148","0.04612451989603949","454"
"21:40:48:484 (H:m:s:ms)","GENERIC","186.171","0.06864786489842647","516"
"21:40:42:424 (H:m:s:ms)","GENERIC","186.163","0.06672107839360295","575"
"21:41:36:969 (H:m:s:ms)","GENERIC","186.18","0.06224377755598888","1030"
"21:41:30:909 (H:m:s:ms)","GENERIC","186.144","0.07675046450809479","1090"
"21:41:24:848 (H:m:s:ms)","GENERIC","186.189","0.06530674464926026","151"
