"time (H:m:s:ms)","type","latency","utilisation","waiting"
"21:42:49:696 (H:m:s:ms)","GENERIC","186.69799999999998","0.14121279839852074","352"
"21:42:31:515 (H:m:s:ms)","GENERIC","93.03999999999999","0.1351676991416724","484"
"21:42:25:454 (H:m:s:ms)","GENERIC","155.756","0.1539454493364785","545"
"21:42:19:393 (H:m:s:ms)","GENERIC","155.415","0.14324628000778308","656"
"21:42:13:333 (H:m:s:ms)","GENERIC","124.189","0.13361333030262837","666"
"21:42:7:272 (H:m:s:ms)","GENERIC","124.595","0.1406087012832266","727"
"21:42:1:212 (H:m:s:ms)","GENERIC","93.248","0.13607129566397289","787"
"21:41:55:151 (H:m:s:ms)","GENERIC","186.429","0.1340968247514031","848"
"21:41:49:90 (H:m:s:ms)","GENERIC","155.474","0.1416520395599192","959"
"21:42:43:636 (H:m:s:ms)","GENERIC","93.378","0.11772957787331796","363"
"21:42:37:575 (H:m:s:ms)","GENERIC","124.575","0.12277740219294267","424"
"21:43:56:363 (H:m:s:ms)","GENERIC","93.186","0.14448533184137102","636"
"21:43:50:303 (H:m:s:ms)","GENERIC","186.762","0.13435689024662045","696"
"21:43:38:181 (H:m:s:ms)","GENERIC","124.618","0.14939492963008982","818"
"20:0:0:0 (H:m:s:ms)","GENERIC","93.489","0.08588058915220494","1133"
"21:43:32:121 (H:m:s:ms)","GENERIC","155.284","0.15531323942221556","878"
"20:0:6:60 (H:m:s:ms)","GENERIC","124.65","0.1362245781236534","940"
"21:43:26:60 (H:m:s:ms)","GENERIC","124.381","0.1408392188477375","939"
"20:0:12:121 (H:m:s:ms)","GENERIC","124.65199999999999","0.14429363740669046","879"
"21:43:20:0 (H:m:s:ms)","GENERIC","155.166","0.145009974159079","1048"
"20:0:18:181 (H:m:s:ms)","GENERIC","124.125","0.14934833501814157","818"
"21:43:13:939 (H:m:s:ms)","GENERIC","187.048","0.15111866086526451","1061"
"20:0:24:242 (H:m:s:ms)","GENERIC","124.32900000000001","0.13636757580130168","760"
"21:43:7:878 (H:m:s:ms)","GENERIC","124.434","0.10093477129420662","1121"
"20:0:30:303 (H:m:s:ms)","GENERIC","31.04","0.10419510078635845","697"
"21:43:1:818 (H:m:s:ms)","GENERIC","93.102","0.13782272191261577","181"
"20:0:36:363 (H:m:s:ms)","GENERIC","93.506","0.1175493298416015","636"
"21:42:55:757 (H:m:s:ms)","GENERIC","155.449","0.16331235664007704","242"
"20:0:42:424 (H:m:s:ms)","GENERIC","124.643","0.1382754166274139","576"
"21:10:18:181 (H:m:s:ms)","GENERIC","155.14600000000002","0.14819362706125275","818"
"20:0:48:484 (H:m:s:ms)","GENERIC","62.072","0.127727330577276","515"
"21:10:24:242 (H:m:s:ms)","GENERIC","124.246","0.13509406477189664","757"
"21:10:30:303 (H:m:s:ms)","GENERIC","124.38900000000001","0.10103737734642616","697"
"21:10:36:363 (H:m:s:ms)","GENERIC","93.344","0.11665497185498533","636"
"21:10:42:424 (H:m:s:ms)","GENERIC","93.264","0.12135840001160175","575"
"21:10:48:484 (H:m:s:ms)","GENERIC","93.141","0.11133715753536164","515"
"21:10:54:545 (H:m:s:ms)","GENERIC","124.432","0.12071312911487671","455"
"21:11:0:606 (H:m:s:ms)","GENERIC","124.523","0.1399037371294439","393"
"21:43:44:242 (H:m:s:ms)","GENERIC","124.413","0.13106086754197507","757"
"21:11:6:666 (H:m:s:ms)","GENERIC","186.309","0.15725616705676168","333"
"21:11:12:727 (H:m:s:ms)","GENERIC","124.62","0.1543276634149587","272"
"21:25:49:367 (H:m:s:ms)","OPERA","186.53300000000002","0.14648745488105652","678"
"21:45:3:30 (H:m:s:ms)","GENERIC","187.017","0.13267045153964496","969"
"21:44:56:969 (H:m:s:ms)","GENERIC","62.039","0.13084310445586578","1030"
"21:44:50:909 (H:m:s:ms)","GENERIC","155.22899999999998","0.11038752547907976","1090"
"21:44:44:848 (H:m:s:ms)","GENERIC","186.227","0.1496877235496653","151"
"21:44:38:787 (H:m:s:ms)","GENERIC","93.338","0.1395721786897555","212"
"21:44:32:727 (H:m:s:ms)","GENERIC","155.285","0.12799680677230518","272"
"21:44:26:666 (H:m:s:ms)","GENERIC","124.18299999999999","0.13525905689585757","333"
"21:44:20:606 (H:m:s:ms)","GENERIC","155.457","0.1646955602445473","393"
"21:44:14:545 (H:m:s:ms)","GENERIC","155.551","0.151956332519515","455"
"21:44:8:484 (H:m:s:ms)","GENERIC","93.325","0.12276559927188739","515"
"21:11:18:787 (H:m:s:ms)","GENERIC","187.012","0.15036057714181333","212"
"21:44:2:424 (H:m:s:ms)","GENERIC","93.274","0.1350795485395331","575"
"21:11:24:848 (H:m:s:ms)","GENERIC","93.34","0.15018269439531381","152"
"21:11:30:909 (H:m:s:ms)","GENERIC","124.297","0.08888254965221606","1091"
"21:11:36:969 (H:m:s:ms)","GENERIC","186.529","0.13847290141730703","1030"
"21:11:43:30 (H:m:s:ms)","GENERIC","124.23400000000001","0.14633787112583704","969"
"21:11:49:90 (H:m:s:ms)","GENERIC","124.37100000000001","0.14635436725152215","957"
"21:11:55:151 (H:m:s:ms)","GENERIC","155.302","0.1457813016631961","848"
"21:12:1:212 (H:m:s:ms)","GENERIC","124.476","0.12651514315442552","787"
"21:12:7:272 (H:m:s:ms)","GENERIC","187.073","0.11614045563157757","727"
"21:12:13:333 (H:m:s:ms)","GENERIC","124.16300000000001","0.12033650183873096","666"
"21:26:27:341 (H:m:s:ms)","OPERA","186.617","0.14621552277325048","658"
"21:46:9:696 (H:m:s:ms)","GENERIC","155.849","0.14680397705071668","356"
"21:26:21:818 (H:m:s:ms)","GENERIC","124.26499999999999","0.17837738770018602","181"
"21:46:3:636 (H:m:s:ms)","GENERIC","124.215","0.13457176772225016","363"
"21:45:57:575 (H:m:s:ms)","GENERIC","93.306","0.12532293661195218","424"
"21:45:51:515 (H:m:s:ms)","GENERIC","186.98499999999999","0.13301706477896688","485"
"21:26:15:757 (H:m:s:ms)","GENERIC","186.214","0.18049391057940362","242"
"21:26:12:151 (H:m:s:ms)","OPERA","93.267","0.15884774695053067","848"
"21:45:45:454 (H:m:s:ms)","GENERIC","186.262","0.13489328810931955","545"
"21:26:9:696 (H:m:s:ms)","GENERIC","124.598","0.18392719798279206","347"
"21:45:39:393 (H:m:s:ms)","GENERIC","93.336","0.1316775654384669","664"
"21:26:4:556 (H:m:s:ms)","OPERA","124.274","0.15513484591270935","444"
"21:45:33:333 (H:m:s:ms)","GENERIC","155.095","0.13566574713346954","667"
"21:26:3:636 (H:m:s:ms)","GENERIC","124.21199999999999","0.17511314134419076","363"
"21:45:27:272 (H:m:s:ms)","GENERIC","93.247","0.14025730841005052","727"
"21:25:57:575 (H:m:s:ms)","GENERIC","93.322","0.16360419120446915","424"
"21:45:21:212 (H:m:s:ms)","GENERIC","155.862","0.14860801068672377","787"
"21:12:19:393 (H:m:s:ms)","GENERIC","124.297","0.13755883219258938","652"
"21:25:56:962 (H:m:s:ms)","OPERA","124.386","0.1415708036941627","1037"
"21:45:15:151 (H:m:s:ms)","GENERIC","155.78900000000002","0.13356165659355632","848"
"21:12:25:454 (H:m:s:ms)","GENERIC","155.793","0.1624169668090207","545"
"21:25:51:515 (H:m:s:ms)","GENERIC","155.797","0.17007259615772","484"
"21:45:9:90 (H:m:s:ms)","GENERIC","93.32300000000001","0.1337407437598777","965"
"21:12:31:515 (H:m:s:ms)","GENERIC","93.108","0.1380348007260733","484"
"21:12:37:575 (H:m:s:ms)","GENERIC","124.524","0.10475437982678241","424"
"21:12:43:636 (H:m:s:ms)","GENERIC","93.362","0.12917073257088246","364"
"21:12:49:696 (H:m:s:ms)","GENERIC","124.384","0.1581302377834122","360"
"21:12:55:757 (H:m:s:ms)","GENERIC","124.34299999999999","0.1547053815950845","242"
"21:13:1:818 (H:m:s:ms)","GENERIC","93.112","0.11777413181071385","181"
"21:13:7:878 (H:m:s:ms)","GENERIC","124.47","0.10652059001355567","1121"
"21:13:13:939 (H:m:s:ms)","GENERIC","124.59299999999999","0.1525397773760483","1061"
"21:26:19:746 (H:m:s:ms)","OPERA","186.513","0.14019511826665043","299"
"21:27:4:242 (H:m:s:ms)","GENERIC","124.313","0.1326728593833528","758"
"21:47:16:363 (H:m:s:ms)","GENERIC","93.265","0.12057620146431591","636"
"21:26:58:181 (H:m:s:ms)","GENERIC","124.143","0.17063973366783292","818"
"21:47:10:303 (H:m:s:ms)","GENERIC","124.541","0.1287471388631157","697"
"21:26:57:721 (H:m:s:ms)","OPERA","93.273","0.15342767654221764","278"
"21:47:4:242 (H:m:s:ms)","GENERIC","155.406","0.14023801622212392","757"
"21:46:58:181 (H:m:s:ms)","GENERIC","93.161","0.1254637603846634","818"
"21:46:52:121 (H:m:s:ms)","GENERIC","124.6","0.14490634007903244","878"
"21:26:52:121 (H:m:s:ms)","GENERIC","124.559","0.1811483580000589","878"
"21:26:50:126 (H:m:s:ms)","OPERA","124.274","0.15027164858913378","874"
"21:26:46:60 (H:m:s:ms)","GENERIC","155.781","0.17515275621925153","939"
"21:46:46:60 (H:m:s:ms)","GENERIC","155.813","0.14503114141191464","939"
"21:26:42:531 (H:m:s:ms)","OPERA","124.27199999999999","0.14590213041915545","468"
"21:46:40:0 (H:m:s:ms)","GENERIC","155.422","0.13618646053988104","1051"
"21:26:40:0 (H:m:s:ms)","GENERIC","155.376","0.17724265281153756","1045"
"21:46:33:939 (H:m:s:ms)","GENERIC","155.449","0.13623350334853918","1061"
"21:13:20:0 (H:m:s:ms)","GENERIC","93.124","0.14472114550656268","1052"
"21:26:34:936 (H:m:s:ms)","OPERA","93.133","0.14649956896287208","1063"
"21:46:27:878 (H:m:s:ms)","GENERIC","155.727","0.09416196417790858","1121"
"21:13:26:60 (H:m:s:ms)","GENERIC","155.524","0.13800617361835527","939"
"21:26:33:939 (H:m:s:ms)","GENERIC","155.454","0.15024169836624396","1061"
"21:46:21:818 (H:m:s:ms)","GENERIC","186.539","0.1548328081285723","182"
"21:13:32:121 (H:m:s:ms)","GENERIC","155.31799999999998","0.14760382808818784","878"
"21:26:27:878 (H:m:s:ms)","GENERIC","124.494","0.13061175275229248","1121"
"21:46:15:757 (H:m:s:ms)","GENERIC","155.174","0.15350088901036543","242"
"21:13:38:181 (H:m:s:ms)","GENERIC","93.357","0.1372719947473471","818"
"21:13:44:242 (H:m:s:ms)","GENERIC","155.645","0.1226533619234706","758"
"21:13:50:303 (H:m:s:ms)","GENERIC","186.744","0.13730142451690042","696"
"21:13:56:363 (H:m:s:ms)","GENERIC","155.511","0.150461160987807","636"
"21:14:2:424 (H:m:s:ms)","GENERIC","93.336","0.13321557259273295","575"
"21:14:8:484 (H:m:s:ms)","GENERIC","187.053","0.13651601117600062","515"
"21:14:14:545 (H:m:s:ms)","GENERIC","186.684","0.15859995310596262","455"
"21:27:40:606 (H:m:s:ms)","GENERIC","124.20500000000001","0.16798380507485122","393"
"21:48:23:30 (H:m:s:ms)","GENERIC","187.088","0.11962720690294444","969"
"21:27:35:696 (H:m:s:ms)","OPERA","93.273","0.14975933542948153","303"
"21:48:16:969 (H:m:s:ms)","GENERIC","62.099","0.120067425302632","1030"
"21:27:34:545 (H:m:s:ms)","GENERIC","155.892","0.15718616610948033","455"
"21:48:10:909 (H:m:s:ms)","GENERIC","124.146","0.1007234859422652","1090"
"21:27:28:484 (H:m:s:ms)","GENERIC","124.592","0.16074820712700139","515"
"21:48:4:848 (H:m:s:ms)","GENERIC","93.292","0.12722861958180048","151"
"21:47:58:787 (H:m:s:ms)","GENERIC","93.104","0.15121616526886425","212"
"21:47:52:727 (H:m:s:ms)","GENERIC","186.732","0.15922862040169836","272"
"21:27:28:101 (H:m:s:ms)","OPERA","93.135","0.14277260200525593","898"
"21:27:22:424 (H:m:s:ms)","GENERIC","124.125","0.16944097884556927","575"
"21:27:20:506 (H:m:s:ms)","OPERA","155.547","0.138713448853558","493"
"21:47:46:666 (H:m:s:ms)","GENERIC","124.54400000000001","0.141072153242008","333"
"21:14:20:606 (H:m:s:ms)","GENERIC","155.491","0.16222042421013333","394"
"21:27:16:363 (H:m:s:ms)","GENERIC","124.43100000000001","0.17319247864956328","636"
"21:47:40:606 (H:m:s:ms)","GENERIC","93.17099999999999","0.13886775521310665","393"
"21:14:26:666 (H:m:s:ms)","GENERIC","93.114","0.14404790579832336","333"
"21:27:12:911 (H:m:s:ms)","OPERA","93.255","0.14761239459619593","88"
"21:47:34:545 (H:m:s:ms)","GENERIC","187.102","0.12514907234940198","455"
"20:52:19:393 (H:m:s:ms)","GENERIC","124.313","0.13761332217341574","687"
"21:14:32:727 (H:m:s:ms)","GENERIC","93.178","0.1365011044441897","272"
"21:27:10:303 (H:m:s:ms)","GENERIC","93.32900000000001","0.17656094667902344","696"
"21:47:28:484 (H:m:s:ms)","GENERIC","93.306","0.13795149091254388","515"
"20:52:25:454 (H:m:s:ms)","GENERIC","124.537","0.1427881899025501","545"
"21:14:38:787 (H:m:s:ms)","GENERIC","124.613","0.13173677098163997","212"
"21:27:5:316 (H:m:s:ms)","OPERA","124.428","0.1624024718078057","683"
"21:47:22:424 (H:m:s:ms)","GENERIC","124.132","0.14658441187657198","576"
"20:52:31:515 (H:m:s:ms)","GENERIC","93.12","0.11923822508023549","484"
"21:14:44:848 (H:m:s:ms)","GENERIC","155.13299999999998","0.1305226965945311","152"
"20:52:37:575 (H:m:s:ms)","GENERIC","124.492","0.0998584189241229","424"
"21:14:50:909 (H:m:s:ms)","GENERIC","155.223","0.12020763238065876","1090"
"20:52:43:636 (H:m:s:ms)","GENERIC","62.081","0.10434380811367061","363"
"21:14:56:969 (H:m:s:ms)","GENERIC","155.56799999999998","0.15685735756210603","1030"
"20:52:49:696 (H:m:s:ms)","GENERIC","124.417","0.1274856145015916","362"
"21:15:3:30 (H:m:s:ms)","GENERIC","124.571","0.14655938055993642","969"
"20:52:55:757 (H:m:s:ms)","GENERIC","155.43599999999998","0.14422889969332728","242"
"21:15:9:90 (H:m:s:ms)","GENERIC","93.295","0.12686781500751754","975"
"20:53:1:818 (H:m:s:ms)","GENERIC","93.13","0.13559042538844637","181"
"21:15:15:151 (H:m:s:ms)","GENERIC","155.755","0.12276300568894641","848"
"20:53:7:878 (H:m:s:ms)","GENERIC","93.281","0.10220626435399097","1122"
"20:53:13:939 (H:m:s:ms)","GENERIC","155.785","0.15242921760555742","1061"
"21:28:16:969 (H:m:s:ms)","GENERIC","62.095","0.15773641254182927","1030"
"21:49:29:696 (H:m:s:ms)","GENERIC","93.143","0.15917200381755417","347"
"21:28:13:670 (H:m:s:ms)","OPERA","124.27199999999999","0.14468459596901315","329"
"21:49:23:636 (H:m:s:ms)","GENERIC","155.24","0.13804329954419942","363"
"21:28:10:909 (H:m:s:ms)","GENERIC","155.177","0.14192883547807636","1090"
"21:49:17:575 (H:m:s:ms)","GENERIC","124.57300000000001","0.14081879998201788","425"
"21:28:6:75 (H:m:s:ms)","OPERA","93.26599999999999","0.1307144485991276","924"
"21:49:11:515 (H:m:s:ms)","GENERIC","124.353","0.1391335813520893","485"
"21:28:4:848 (H:m:s:ms)","GENERIC","93.336","0.16031353090946063","152"
"21:49:5:454 (H:m:s:ms)","GENERIC","155.87199999999999","0.13701252021384727","545"
"21:48:59:393 (H:m:s:ms)","GENERIC","93.1","0.11366148224515181","649"
"21:48:53:333 (H:m:s:ms)","GENERIC","93.142","0.11839513187441048","666"
"21:27:58:787 (H:m:s:ms)","GENERIC","93.114","0.18926011440916546","212"
"21:15:21:212 (H:m:s:ms)","GENERIC","187.105","0.14063451993893886","787"
"21:27:58:481 (H:m:s:ms)","OPERA","155.499","0.17554232590849864","518"
"21:15:27:272 (H:m:s:ms)","GENERIC","124.426","0.14925464474475125","728"
"21:27:52:727 (H:m:s:ms)","GENERIC","186.69299999999998","0.18793549119650788","272"
"21:48:47:272 (H:m:s:ms)","GENERIC","155.401","0.14771477915308537","727"
"20:53:20:0 (H:m:s:ms)","GENERIC","155.192","0.14000140139177694","1056"
"21:15:33:333 (H:m:s:ms)","GENERIC","124.11500000000001","0.13211254493004015","666"
"21:27:50:886 (H:m:s:ms)","OPERA","155.39000000000001","0.13396895105606568","113"
"21:48:41:212 (H:m:s:ms)","GENERIC","124.361","0.1446801997021585","787"
"20:53:26:60 (H:m:s:ms)","GENERIC","93.20400000000001","0.11810867280452801","939"
"21:15:39:393 (H:m:s:ms)","GENERIC","93.354","0.11120217557680073","686"
"21:27:46:666 (H:m:s:ms)","GENERIC","124.53200000000001","0.15658784527513833","333"
"21:48:35:151 (H:m:s:ms)","GENERIC","124.53999999999999","0.13299364303406677","848"
"20:53:32:121 (H:m:s:ms)","GENERIC","93.201","0.1321503229736721","879"
"21:15:45:454 (H:m:s:ms)","GENERIC","155.255","0.13613602655615356","545"
"21:27:43:291 (H:m:s:ms)","OPERA","124.274","0.12271121045016602","708"
"21:48:29:90 (H:m:s:ms)","GENERIC","187.102","0.1379828053270557","957"
"20:53:38:181 (H:m:s:ms)","GENERIC","124.61","0.1494938285075994","818"
"21:15:51:515 (H:m:s:ms)","GENERIC","155.834","0.1484481581938379","484"
"20:53:44:242 (H:m:s:ms)","GENERIC","124.43700000000001","0.14778128944865854","757"
"21:15:57:575 (H:m:s:ms)","GENERIC","93.338","0.1334360894053771","424"
"20:53:50:303 (H:m:s:ms)","GENERIC","186.711","0.15390179929590278","696"
"21:16:3:636 (H:m:s:ms)","GENERIC","124.213","0.13173594779598477","363"
"20:53:56:363 (H:m:s:ms)","GENERIC","155.489","0.17300677512525853","636"
"21:16:9:696 (H:m:s:ms)","GENERIC","155.838","0.14194628125714917","363"
"20:54:2:424 (H:m:s:ms)","GENERIC","93.326","0.15322043452317236","575"
"21:16:15:757 (H:m:s:ms)","GENERIC","186.234","0.14754278672547302","242"
"20:54:8:484 (H:m:s:ms)","GENERIC","93.327","0.124784730480461","515"
"20:54:14:545 (H:m:s:ms)","GENERIC","155.518","0.14690869733793652","454"
"21:28:59:240 (H:m:s:ms)","OPERA","155.388","0.16146275288314238","817"
"21:28:53:333 (H:m:s:ms)","GENERIC","93.154","0.16239839991564373","666"
"21:28:51:645 (H:m:s:ms)","OPERA","93.255","0.1520885313206226","355"
"22:7:53:684 (H:m:s:ms)","AMBULANCE","93.225","0.09633270085403492","315"
"21:28:47:272 (H:m:s:ms)","GENERIC","124.297","0.18041993205744122","727"
"22:5:47:368 (H:m:s:ms)","AMBULANCE","124.577","0.10015530226075373","631"
"21:28:44:50 (H:m:s:ms)","OPERA","93.267","0.14893462767079724","950"
"22:5:15:789 (H:m:s:ms)","AMBULANCE","155.64499999999998","0.09138137185719712","210"
"21:28:41:212 (H:m:s:ms)","GENERIC","124.369","0.18122305179962406","787"
"22:0:31:578 (H:m:s:ms)","AMBULANCE","124.32300000000001","0.10072149722245183","421"
"21:50:0:0 (H:m:s:ms)","GENERIC","93.348","0.14415397369726984","1042"
"21:49:53:939 (H:m:s:ms)","GENERIC","124.14099999999999","0.14442356398749145","1060"
"21:16:21:818 (H:m:s:ms)","GENERIC","124.291","0.14586773552557059","181"
"21:16:27:878 (H:m:s:ms)","GENERIC","93.27799999999999","0.07577408410626889","1121"
"21:28:36:455 (H:m:s:ms)","OPERA","186.53300000000002","0.14931337041376","544"
"20:54:20:606 (H:m:s:ms)","GENERIC","124.338","0.15304101207613313","393"
"21:16:33:939 (H:m:s:ms)","GENERIC","155.441","0.12525833408321915","1060"
"21:28:35:151 (H:m:s:ms)","GENERIC","155.766","0.13896305051615437","848"
"20:54:26:666 (H:m:s:ms)","GENERIC","124.19","0.11040095366010798","333"
"21:16:40:0 (H:m:s:ms)","GENERIC","93.146","0.14143631147267904","1053"
"21:28:29:90 (H:m:s:ms)","GENERIC","187.09","0.18327397102967752","953"
"21:49:47:878 (H:m:s:ms)","GENERIC","93.31","0.10010901398771792","1121"
"20:54:32:727 (H:m:s:ms)","GENERIC","93.218","0.12134522172803967","272"
"21:16:46:60 (H:m:s:ms)","GENERIC","155.79500000000002","0.13620450665445394","939"
"21:28:28:860 (H:m:s:ms)","OPERA","155.49","0.15912427867414905","139"
"21:49:41:818 (H:m:s:ms)","GENERIC","187.006","0.15340863411723257","181"
"20:54:38:787 (H:m:s:ms)","GENERIC","93.356","0.13248342618111214","212"
"21:16:52:121 (H:m:s:ms)","GENERIC","124.543","0.13249926112963012","878"
"21:28:23:30 (H:m:s:ms)","GENERIC","187.139","0.13113054271606636","969"
"21:49:35:757 (H:m:s:ms)","GENERIC","124.57300000000001","0.1576152639855039","242"
"20:54:44:848 (H:m:s:ms)","GENERIC","155.166","0.13723273420508583","151"
"21:16:58:181 (H:m:s:ms)","GENERIC","93.129","0.12176650882990843","818"
"20:54:50:909 (H:m:s:ms)","GENERIC","155.224","0.10430140505617239","1090"
"21:17:4:242 (H:m:s:ms)","GENERIC","124.319","0.12768304467512745","758"
"20:54:56:969 (H:m:s:ms)","GENERIC","124.375","0.14923051783107003","1030"
"21:17:10:303 (H:m:s:ms)","GENERIC","93.34700000000001","0.12709678018478637","696"
"20:55:3:30 (H:m:s:ms)","GENERIC","124.576","0.15500243591907586","969"
"21:17:16:363 (H:m:s:ms)","GENERIC","155.575","0.14529597529377483","636"
"20:55:9:90 (H:m:s:ms)","GENERIC","93.311","0.13649141009543223","963"
"20:55:15:151 (H:m:s:ms)","GENERIC","186.971","0.13800944578047947","848"
"21:29:35:757 (H:m:s:ms)","GENERIC","93.332","0.16899713556785853","242"
"21:29:29:696 (H:m:s:ms)","GENERIC","186.215","0.17242466126769954","365"
"21:29:29:620 (H:m:s:ms)","OPERA","155.388","0.14003602657719577","441"
"21:29:23:636 (H:m:s:ms)","GENERIC","124.207","0.17948608353044423","363"
"21:29:22:25 (H:m:s:ms)","OPERA","124.41","0.16124958976302453","974"
"21:29:17:575 (H:m:s:ms)","GENERIC","124.604","0.16268435569771686","424"
"21:29:14:430 (H:m:s:ms)","OPERA","155.388","0.14419373766928903","569"
"21:17:22:424 (H:m:s:ms)","GENERIC","124.118","0.16203529384176407","575"
"21:17:28:484 (H:m:s:ms)","GENERIC","155.813","0.1543916066523291","515"
"20:55:21:212 (H:m:s:ms)","GENERIC","124.60300000000001","0.14529932040064225","787"
"21:17:34:545 (H:m:s:ms)","GENERIC","124.62700000000001","0.14331186368416968","455"
"20:55:27:272 (H:m:s:ms)","GENERIC","124.429","0.14387577097686416","728"
"21:17:40:606 (H:m:s:ms)","GENERIC","124.19300000000001","0.1265864891563733","393"
"21:29:11:515 (H:m:s:ms)","GENERIC","93.19","0.18336741246247396","484"
"20:55:33:333 (H:m:s:ms)","GENERIC","93.09100000000001","0.13204199704471103","666"
"21:17:46:666 (H:m:s:ms)","GENERIC","124.54599999999999","0.12968452361582336","334"
"21:29:6:835 (H:m:s:ms)","OPERA","186.53300000000002","0.15585138418833783","164"
"20:55:39:393 (H:m:s:ms)","GENERIC","155.868","0.11907078808073371","661"
"21:17:52:727 (H:m:s:ms)","GENERIC","155.537","0.14226255848045724","272"
"21:29:5:454 (H:m:s:ms)","GENERIC","155.85399999999998","0.18312354593208502","545"
"20:55:45:454 (H:m:s:ms)","GENERIC","124.215","0.13540223887880284","545"
"21:17:58:787 (H:m:s:ms)","GENERIC","155.18900000000002","0.13357814773619142","212"
"21:28:59:393 (H:m:s:ms)","GENERIC","155.261","0.12503575646703868","664"
"20:55:51:515 (H:m:s:ms)","GENERIC","155.783","0.15077267546893633","484"
"21:18:4:848 (H:m:s:ms)","GENERIC","93.316","0.12112034232322638","151"
"20:55:57:575 (H:m:s:ms)","GENERIC","62.099","0.14535613336221104","424"
"21:18:10:909 (H:m:s:ms)","GENERIC","93.09299999999999","0.1016734466408844","1091"
"20:56:3:636 (H:m:s:ms)","GENERIC","155.294","0.11619111894017563","363"
"21:18:16:969 (H:m:s:ms)","GENERIC","124.21000000000001","0.12219084617338012","1030"
"20:56:9:696 (H:m:s:ms)","GENERIC","93.295","0.12630416563703312","353"
"20:56:15:757 (H:m:s:ms)","GENERIC","155.168","0.15680028929968143","242"
"21:30:6:60 (H:m:s:ms)","GENERIC","124.46199999999999","0.20996821994143458","939"
"21:30:0:0 (H:m:s:ms)","GENERIC","124.547","0.22150095770417416","1051"
"21:30:0:0 (H:m:s:ms)","AMBULANCE","124.227","0.21184792675499034","1051"
"21:30:0:0 (H:m:s:ms)","GENERIC","124.555","0.19040759220653883","1051"
"21:30:0:0 (H:m:s:ms)","OPERA","155.542","0.15804189211690867","1051"
"21:29:53:939 (H:m:s:ms)","GENERIC","124.191","0.18113512344420388","1061"
"21:29:52:405 (H:m:s:ms)","OPERA","124.274","0.14328728267631705","594"
"21:29:47:878 (H:m:s:ms)","GENERIC","93.316","0.16041505702748488","1121"
"21:18:23:30 (H:m:s:ms)","GENERIC","124.63","0.12520647026433857","969"
"21:18:29:90 (H:m:s:ms)","GENERIC","155.85399999999998","0.15101255782297865","958"
"20:56:21:818 (H:m:s:ms)","GENERIC","155.39600000000002","0.14985842648985637","181"
"21:18:35:151 (H:m:s:ms)","GENERIC","155.778","0.1405653505317663","848"
"20:56:27:878 (H:m:s:ms)","GENERIC","93.30000000000001","0.08482612257237061","1121"
"21:18:41:212 (H:m:s:ms)","GENERIC","124.387","0.13205948596324033","787"
"20:40:0:0 (H:m:s:ms)","OPERA","124.381","0.16850949464149595","1230"
"20:56:33:939 (H:m:s:ms)","GENERIC","155.4","0.14729616571610415","1061"
"21:18:47:272 (H:m:s:ms)","GENERIC","124.303","0.142317450314147","727"
"20:40:0:0 (H:m:s:ms)","GENERIC","124.555","0.19350070741878664","1231"
"20:56:40:0 (H:m:s:ms)","GENERIC","124.275","0.1590613909759076","1049"
"21:18:53:333 (H:m:s:ms)","GENERIC","93.168","0.13241421682282817","667"
"21:29:44:810 (H:m:s:ms)","OPERA","155.547","0.17070778192199365","190"
"20:40:0:0 (H:m:s:ms)","GENERIC","93.328","0.2068016669767647","1231"
"20:56:46:60 (H:m:s:ms)","GENERIC","155.829","0.13772406850567384","939"
"21:18:59:393 (H:m:s:ms)","GENERIC","186.25400000000002","0.12185938862316416","653"
"21:29:41:818 (H:m:s:ms)","GENERIC","155.805","0.16800207435904824","181"
"20:40:6:60 (H:m:s:ms)","GENERIC","93.314","0.18692315245298874","939"
"20:56:52:121 (H:m:s:ms)","GENERIC","155.856","0.13357141654892804","878"
"21:19:5:454 (H:m:s:ms)","GENERIC","124.58500000000001","0.1410738450292166","545"
"21:29:37:215 (H:m:s:ms)","OPERA","155.40699999999998","0.124666444227898","784"
"20:40:7:594 (H:m:s:ms)","OPERA","124.402","0.13473028439989282","405"
"20:56:58:181 (H:m:s:ms)","GENERIC","124.12700000000001","0.12198449434117845","818"
"21:19:11:515 (H:m:s:ms)","GENERIC","93.208","0.14075683994243585","484"
"20:40:12:121 (H:m:s:ms)","GENERIC","124.49799999999999","0.1665438739173595","878"
"20:57:4:242 (H:m:s:ms)","GENERIC","186.582","0.1275971089872915","757"
"21:19:17:575 (H:m:s:ms)","GENERIC","155.804","0.1523024089685751","424"
"20:40:15:189 (H:m:s:ms)","OPERA","93.255","0.15356864916385068","810"
"20:57:10:303 (H:m:s:ms)","GENERIC","62.101","0.11763109209947169","696"
"20:40:18:181 (H:m:s:ms)","GENERIC","186.208","0.18352428035196083","818"
"20:57:16:363 (H:m:s:ms)","GENERIC","93.245","0.12566158043785833","636"
"20:40:22:784 (H:m:s:ms)","OPERA","155.522","0.14945285536666683","215"
"20:40:24:242 (H:m:s:ms)","GENERIC","93.14","0.16138252504871742","759"
"21:30:24:242 (H:m:s:ms)","GENERIC","93.144","0.1336740871908318","758"
"21:31:3:157 (H:m:s:ms)","AMBULANCE","124.495","0.15321117677265317","842"
"21:31:0:606 (H:m:s:ms)","GENERIC","124.533","0.16365075349468713","393"
"21:30:54:545 (H:m:s:ms)","GENERIC","155.596","0.1326643437207245","455"
"21:30:48:484 (H:m:s:ms)","GENERIC","62.109","0.11076363107815597","515"
"21:30:42:424 (H:m:s:ms)","GENERIC","155.651","0.13046472295700226","575"
"21:30:36:363 (H:m:s:ms)","GENERIC","124.578","0.15519194078370072","636"
"21:30:31:578 (H:m:s:ms)","AMBULANCE","186.597","0.12994124487300884","421"
"21:19:23:636 (H:m:s:ms)","GENERIC","155.20499999999998","0.16697405163914655","363"
"21:30:30:303 (H:m:s:ms)","GENERIC","124.411","0.10879058232993712","697"
"21:19:29:696 (H:m:s:ms)","GENERIC","155.187","0.15720834916935836","348"
"20:57:22:424 (H:m:s:ms)","GENERIC","155.16500000000002","0.1500255515581403","575"
"21:19:35:757 (H:m:s:ms)","GENERIC","93.324","0.12345523899895577","242"
"20:57:28:484 (H:m:s:ms)","GENERIC","124.58099999999999","0.1459278807955882","515"
"21:19:41:818 (H:m:s:ms)","GENERIC","155.8","0.1341612171736489","181"
"20:40:30:303 (H:m:s:ms)","GENERIC","93.243","0.09827539948490137","697"
"20:57:34:545 (H:m:s:ms)","GENERIC","187.079","0.14300182168638584","454"
"21:19:47:878 (H:m:s:ms)","GENERIC","124.557","0.11244636522309996","1121"
"20:40:30:379 (H:m:s:ms)","OPERA","93.268","0.1377304544664343","621"
"20:57:40:606 (H:m:s:ms)","GENERIC","124.153","0.14040061018743152","393"
"21:19:53:939 (H:m:s:ms)","GENERIC","124.201","0.1560321073037046","1061"
"20:40:36:363 (H:m:s:ms)","GENERIC","93.376","0.14464368255121168","636"
"20:57:46:666 (H:m:s:ms)","GENERIC","93.338","0.1323462090591081","333"
"21:20:0:0 (H:m:s:ms)","OPERA","124.37299999999999","0.16336574061268738","1135"
"20:40:37:974 (H:m:s:ms)","OPERA","124.392","0.14607750455912913","1025"
"20:57:52:727 (H:m:s:ms)","GENERIC","155.541","0.1496898240435582","272"
"21:20:0:0 (H:m:s:ms)","GENERIC","93.328","0.18857853794039095","1135"
"21:30:18:181 (H:m:s:ms)","GENERIC","124.12700000000001","0.15129949122872227","818"
"20:40:42:424 (H:m:s:ms)","GENERIC","124.43700000000001","0.17808824479168134","575"
"20:57:58:787 (H:m:s:ms)","GENERIC","93.078","0.14593602856816354","212"
"21:20:0:0 (H:m:s:ms)","GENERIC","155.742","0.20058579939138516","1135"
"21:30:12:121 (H:m:s:ms)","GENERIC","186.876","0.13634978247700588","879"
"20:40:45:569 (H:m:s:ms)","OPERA","124.37299999999999","0.16271975967343857","430"
"20:58:4:848 (H:m:s:ms)","GENERIC","93.278","0.11899433019213328","151"
"21:20:6:60 (H:m:s:ms)","GENERIC","155.653","0.19195334028387448","939"
"20:40:48:484 (H:m:s:ms)","GENERIC","62.117","0.17619758640893526","515"
"20:58:10:909 (H:m:s:ms)","GENERIC","155.188","0.08453326696602721","1090"
"20:40:53:164 (H:m:s:ms)","OPERA","124.402","0.12902969495143898","835"
"20:58:16:969 (H:m:s:ms)","GENERIC","93.136","0.1084380693287003","1030"
"20:40:54:545 (H:m:s:ms)","GENERIC","93.237","0.17544064327287645","455"
"20:41:0:606 (H:m:s:ms)","GENERIC","155.731","0.1546724426361551","394"
"21:31:18:787 (H:m:s:ms)","GENERIC","186.988","0.14882282697071816","212"
"21:31:12:727 (H:m:s:ms)","GENERIC","155.851","0.12284531903427198","272"
"21:32:1:212 (H:m:s:ms)","GENERIC","155.659","0.13487426428689692","787"
"21:31:55:151 (H:m:s:ms)","GENERIC","155.32600000000002","0.1563309891155427","849"
"21:31:49:90 (H:m:s:ms)","GENERIC","186.59","0.15686069167176828","977"
"21:31:43:30 (H:m:s:ms)","GENERIC","93.146","0.15568101938774676","969"
"21:31:36:969 (H:m:s:ms)","GENERIC","155.399","0.1694929661306044","1030"
"21:31:34:736 (H:m:s:ms)","AMBULANCE","93.17500000000001","0.12359533975343873","264"
"21:31:30:909 (H:m:s:ms)","GENERIC","186.578","0.0865107901087176","1091"
"21:31:24:848 (H:m:s:ms)","GENERIC","124.596","0.15799366398444392","152"
"20:58:23:30 (H:m:s:ms)","GENERIC","155.85500000000002","0.1294387481564211","970"
"20:58:29:90 (H:m:s:ms)","GENERIC","155.872","0.14014165719364144","976"
"20:41:0:759 (H:m:s:ms)","OPERA","155.514","0.1965336739849377","241"
"20:58:35:151 (H:m:s:ms)","GENERIC","187.043","0.13363108042229008","848"
"20:41:6:666 (H:m:s:ms)","GENERIC","124.154","0.1900355039781092","333"
"20:58:41:212 (H:m:s:ms)","GENERIC","186.762","0.14775039851750724","787"
"20:41:8:354 (H:m:s:ms)","OPERA","155.523","0.15440062664852658","645"
"20:58:47:272 (H:m:s:ms)","GENERIC","155.45499999999998","0.14159907079636264","728"
"20:41:12:727 (H:m:s:ms)","GENERIC","93.348","0.1811575810105556","273"
"20:58:53:333 (H:m:s:ms)","GENERIC","93.186","0.11014380203544916","666"
"20:41:15:949 (H:m:s:ms)","OPERA","124.387","0.14614304454600424","1050"
"20:58:59:393 (H:m:s:ms)","GENERIC","186.219","0.11355250359207314","671"
"20:41:18:787 (H:m:s:ms)","GENERIC","155.82","0.19214044485137224","212"
"20:59:5:454 (H:m:s:ms)","GENERIC","124.57900000000001","0.14463621536189136","545"
"21:31:6:666 (H:m:s:ms)","GENERIC","155.24900000000002","0.1729068628973821","333"
"20:41:23:544 (H:m:s:ms)","OPERA","155.522","0.16146707827322998","455"
"20:59:11:515 (H:m:s:ms)","GENERIC","155.519","0.14512270780904948","484"
"20:41:24:848 (H:m:s:ms)","GENERIC","124.55699999999999","0.18464175177590667","151"
"20:59:17:575 (H:m:s:ms)","GENERIC","187.05599999999998","0.15538468265338978","424"
"20:41:30:909 (H:m:s:ms)","GENERIC","155.453","0.08685162390897944","1090"
"20:41:31:139 (H:m:s:ms)","OPERA","155.523","0.13361932740376994","860"
"20:59:23:636 (H:m:s:ms)","GENERIC","124.17099999999999","0.1532776759832531","363"
"20:59:29:696 (H:m:s:ms)","GENERIC","186.23499999999999","0.14247163803059706","394"
"20:41:36:969 (H:m:s:ms)","GENERIC","124.315","0.1609389098662094","1031"
"20:59:35:757 (H:m:s:ms)","GENERIC","124.595","0.14004211150502882","242"
"20:41:38:734 (H:m:s:ms)","OPERA","155.518","0.14295142622624402","265"
"20:59:41:818 (H:m:s:ms)","GENERIC","155.76100000000002","0.15215596533256417","182"
"20:41:43:30 (H:m:s:ms)","GENERIC","93.138","0.1719528094106221","969"
"20:59:47:878 (H:m:s:ms)","GENERIC","187.066","0.12335969335941604","1121"
"20:41:46:329 (H:m:s:ms)","OPERA","155.505","0.15638368520482265","670"
"20:59:53:939 (H:m:s:ms)","GENERIC","124.203","0.17399946953527548","1060"
"20:41:49:90 (H:m:s:ms)","GENERIC","155.489","0.18508794753454258","985"
"21:0:0:0 (H:m:s:ms)","AMBULANCE","124.24199999999999","0.16498961288327035","1210"
"20:41:53:924 (H:m:s:ms)","OPERA","93.267","0.1498759942907504","75"
"21:0:0:0 (H:m:s:ms)","GENERIC","124.58500000000001","0.1907211298682302","1210"
"20:41:55:151 (H:m:s:ms)","GENERIC","124.21000000000001","0.1718152964459062","848"
"21:0:0:0 (H:m:s:ms)","GENERIC","93.304","0.2015533560241593","1210"
"20:42:1:212 (H:m:s:ms)","GENERIC","155.649","0.1190183818625348","787"
"21:0:6:60 (H:m:s:ms)","GENERIC","93.288","0.18745112291603264","940"
"20:42:1:518 (H:m:s:ms)","OPERA","155.537","0.17246104825636424","481"
"20:42:7:272 (H:m:s:ms)","GENERIC","124.599","0.17040807921004342","727"
"21:0:12:121 (H:m:s:ms)","GENERIC","155.699","0.1487091756575431","878"
"21:0:18:181 (H:m:s:ms)","GENERIC","93.12","0.15154854057449527","818"
"20:42:9:113 (H:m:s:ms)","OPERA","124.387","0.13398635037912093","948"
"21:0:24:242 (H:m:s:ms)","GENERIC","62.025","0.12141498328822187","757"
"20:42:13:333 (H:m:s:ms)","GENERIC","124.20500000000001","0.16456272273096686","666"
"21:0:30:303 (H:m:s:ms)","GENERIC","62.029","0.08921769292789497","696"
"20:20:0:0 (H:m:s:ms)","GENERIC","124.58099999999999","0.1481292447115997","1119"
"20:42:16:708 (H:m:s:ms)","OPERA","93.26599999999999","0.1431283783668995","291"
"21:0:31:578 (H:m:s:ms)","AMBULANCE","155.589","0.11716479205023983","421"
"20:20:0:0 (H:m:s:ms)","GENERIC","93.326","0.17323288382173732","1120"
"20:42:19:393 (H:m:s:ms)","GENERIC","186.529","0.17030171486334336","671"
"21:0:36:363 (H:m:s:ms)","GENERIC","155.837","0.15342935539631755","636"
"20:20:6:60 (H:m:s:ms)","GENERIC","155.743","0.1635472950240817","939"
"20:42:24:303 (H:m:s:ms)","OPERA","155.498","0.14608114782360654","698"
"21:0:42:424 (H:m:s:ms)","GENERIC","186.845","0.1528047052782116","575"
"20:20:12:121 (H:m:s:ms)","GENERIC","93.293","0.137678976920856","878"
"20:42:25:454 (H:m:s:ms)","GENERIC","186.983","0.18208855105294597","545"
"21:0:48:484 (H:m:s:ms)","GENERIC","124.14500000000001","0.13946083811446675","515"
"20:20:18:181 (H:m:s:ms)","GENERIC","155.191","0.13798630536588233","818"
"20:42:31:515 (H:m:s:ms)","GENERIC","124.166","0.1510845401913102","485"
"21:0:54:545 (H:m:s:ms)","GENERIC","124.42699999999999","0.12482820457066829","455"
"20:20:24:242 (H:m:s:ms)","GENERIC","62.075","0.12333537460579794","758"
"20:42:31:898 (H:m:s:ms)","OPERA","155.52","0.17670383408309379","102"
"21:1:0:606 (H:m:s:ms)","GENERIC","124.523","0.13921555801532678","393"
"20:20:30:303 (H:m:s:ms)","GENERIC","93.245","0.10982634832904074","697"
"20:42:37:575 (H:m:s:ms)","GENERIC","62.037","0.1544171292026829","424"
"20:20:36:363 (H:m:s:ms)","GENERIC","155.85500000000002","0.13213561811807867","637"
"20:42:39:493 (H:m:s:ms)","OPERA","93.267","0.1344821501764044","566"
"20:20:42:424 (H:m:s:ms)","GENERIC","155.645","0.15173462135879529","576"
"20:20:48:484 (H:m:s:ms)","GENERIC","93.151","0.13509671971360143","515"
"21:1:3:157 (H:m:s:ms)","AMBULANCE","62.245999999999995","0.14356693431348236","842"
"21:1:6:666 (H:m:s:ms)","GENERIC","124.186","0.18116228948072907","333"
"20:42:43:636 (H:m:s:ms)","GENERIC","93.336","0.15240911511493277","363"
"21:1:12:727 (H:m:s:ms)","GENERIC","93.342","0.14391313548448556","272"
"20:42:47:88 (H:m:s:ms)","OPERA","124.392","0.158745075137381","911"
"21:1:18:787 (H:m:s:ms)","GENERIC","187.041","0.15657196652447955","213"
"20:20:54:545 (H:m:s:ms)","GENERIC","124.406","0.14094753246152167","455"
"20:42:49:696 (H:m:s:ms)","GENERIC","93.247","0.18652218940917528","360"
"21:1:24:848 (H:m:s:ms)","GENERIC","93.318","0.15652746493321784","151"
"20:21:0:606 (H:m:s:ms)","GENERIC","186.97899999999998","0.1546752364275345","393"
"20:42:54:683 (H:m:s:ms)","OPERA","124.41","0.1640492097318763","316"
"21:1:30:909 (H:m:s:ms)","GENERIC","155.415","0.11675969414979319","1090"
"20:21:6:666 (H:m:s:ms)","GENERIC","155.235","0.15716116017009543","333"
"20:42:55:757 (H:m:s:ms)","GENERIC","124.32300000000001","0.1820959198296914","242"
"21:1:34:736 (H:m:s:ms)","AMBULANCE","62.108000000000004","0.14303233545082158","264"
"20:21:12:727 (H:m:s:ms)","GENERIC","187.083","0.16682792700478077","272"
"20:43:1:818 (H:m:s:ms)","GENERIC","124.158","0.1151820787356067","181"
"21:1:36:969 (H:m:s:ms)","GENERIC","186.571","0.18319861226793438","1030"
"20:21:18:787 (H:m:s:ms)","GENERIC","187.10500000000002","0.16331152216406628","212"
"20:43:2:278 (H:m:s:ms)","OPERA","124.40400000000001","0.12557267189285182","721"
"21:1:43:30 (H:m:s:ms)","GENERIC","93.168","0.15062020995037295","969"
"20:21:24:848 (H:m:s:ms)","GENERIC","124.541","0.13702725189729847","151"
"20:43:7:878 (H:m:s:ms)","GENERIC","155.69400000000002","0.14831172886426944","1121"
"21:1:49:90 (H:m:s:ms)","GENERIC","186.672","0.13604844666847","978"
"20:21:30:909 (H:m:s:ms)","GENERIC","124.345","0.10556761490195381","1090"
"20:43:9:873 (H:m:s:ms)","OPERA","93.268","0.1445983416070435","182"
"20:21:36:969 (H:m:s:ms)","GENERIC","186.54500000000002","0.15632577539798853","1030"
"20:43:13:939 (H:m:s:ms)","GENERIC","155.801","0.17297392763784344","1061"
"20:21:43:30 (H:m:s:ms)","GENERIC","93.112","0.1557842878136692","970"
"20:21:49:90 (H:m:s:ms)","GENERIC","124.3","0.1539218033450013","961"
"20:43:17:468 (H:m:s:ms)","OPERA","124.402","0.1357631721314099","531"
"20:43:20:0 (H:m:s:ms)","GENERIC","155.202","0.1592845284377","1057"
"20:21:55:151 (H:m:s:ms)","GENERIC","124.21199999999999","0.15311474219200588","848"
"20:43:25:63 (H:m:s:ms)","OPERA","155.522","0.13767249531402703","936"
"20:22:1:212 (H:m:s:ms)","GENERIC","186.86700000000002","0.13128930417028314","787"
"20:43:26:60 (H:m:s:ms)","GENERIC","124.33","0.17664157377457057","939"
"20:22:7:272 (H:m:s:ms)","GENERIC","187.141","0.13147036808498355","727"
"20:43:32:121 (H:m:s:ms)","GENERIC","155.345","0.15868153685481937","878"
"20:22:13:333 (H:m:s:ms)","GENERIC","93.17500000000001","0.1428145276620363","666"
"20:43:32:658 (H:m:s:ms)","OPERA","124.38199999999999","0.18663037178366473","341"
"20:22:19:393 (H:m:s:ms)","GENERIC","124.269","0.14790024173200766","656"
"20:43:38:181 (H:m:s:ms)","GENERIC","93.345","0.1788489779842978","819"
"20:22:25:454 (H:m:s:ms)","GENERIC","124.561","0.14901243280611026","545"
"20:43:40:253 (H:m:s:ms)","OPERA","124.38","0.1326123930683148","747"
"20:22:31:515 (H:m:s:ms)","GENERIC","124.194","0.13631642330926055","484"
"20:43:44:242 (H:m:s:ms)","GENERIC","155.599","0.16844911974201152","757"
"20:22:37:575 (H:m:s:ms)","GENERIC","93.238","0.1165085561032445","424"
"20:43:47:848 (H:m:s:ms)","OPERA","93.267","0.15634777814612874","151"
"20:22:43:636 (H:m:s:ms)","GENERIC","124.56899999999999","0.11564077003889292","363"
"20:22:49:696 (H:m:s:ms)","GENERIC","155.579","0.15634215532903847","349"
"20:43:50:303 (H:m:s:ms)","GENERIC","186.733","0.19564240168969452","696"
"20:43:55:443 (H:m:s:ms)","OPERA","155.524","0.16332313804806492","556"
"20:22:55:757 (H:m:s:ms)","GENERIC","124.288","0.16477978594447593","243"
"20:43:56:363 (H:m:s:ms)","GENERIC","93.182","0.18908675510357295","636"
"20:23:1:818 (H:m:s:ms)","GENERIC","93.14","0.12661133647068323","181"
"20:44:2:424 (H:m:s:ms)","GENERIC","62.117","0.13311984306412164","576"
"20:23:7:878 (H:m:s:ms)","GENERIC","155.703","0.08885707238140486","1121"
"20:44:8:484 (H:m:s:ms)","GENERIC","124.57","0.13245745705248052","515"
"20:23:13:939 (H:m:s:ms)","GENERIC","155.827","0.13339013695611132","1060"
"20:44:10:632 (H:m:s:ms)","OPERA","155.55","0.1720057856942491","367"
"20:23:20:0 (H:m:s:ms)","GENERIC","155.178","0.14150293664445548","1046"
"20:44:14:545 (H:m:s:ms)","GENERIC","124.396","0.20415793256825104","454"
"20:23:26:60 (H:m:s:ms)","GENERIC","186.63","0.15630702539549365","939"
"20:44:18:227 (H:m:s:ms)","OPERA","124.37299999999999","0.16622116146224367","772"
"20:23:32:121 (H:m:s:ms)","GENERIC","155.362","0.15446766968391998","879"
"20:44:20:606 (H:m:s:ms)","GENERIC","93.212","0.1924180719794132","393"
"20:23:38:181 (H:m:s:ms)","GENERIC","155.833","0.14186387481525567","818"
"20:44:25:822 (H:m:s:ms)","OPERA","155.525","0.14910092964307992","177"
"20:23:44:242 (H:m:s:ms)","GENERIC","155.61700000000002","0.15452573978112324","758"
"20:23:50:303 (H:m:s:ms)","GENERIC","155.59199999999998","0.16753447152063308","696"
"20:44:26:666 (H:m:s:ms)","GENERIC","124.18299999999999","0.17557413859232893","333"
"20:44:32:727 (H:m:s:ms)","GENERIC","155.363","0.13797045556182475","272"
"20:23:56:363 (H:m:s:ms)","GENERIC","155.482","0.15900735405449598","636"
"20:44:38:787 (H:m:s:ms)","GENERIC","124.571","0.11704167858544777","212"
"20:24:2:424 (H:m:s:ms)","GENERIC","93.328","0.13125790262947487","575"
"20:44:41:12 (H:m:s:ms)","OPERA","155.56","0.14199470559546873","987"
"20:24:8:484 (H:m:s:ms)","GENERIC","93.359","0.12344595189523204","515"
"20:44:44:848 (H:m:s:ms)","GENERIC","186.202","0.17361699785587956","151"
"20:24:14:545 (H:m:s:ms)","GENERIC","124.394","0.14457514774358593","454"
"20:44:48:607 (H:m:s:ms)","OPERA","93.267","0.1373772598767376","392"
"20:24:20:606 (H:m:s:ms)","GENERIC","186.628","0.1483311028947779","393"
"20:44:50:909 (H:m:s:ms)","GENERIC","124.19200000000001","0.14174351830683465","1090"
"20:24:26:666 (H:m:s:ms)","GENERIC","124.17699999999999","0.12845912605806326","333"
"20:44:56:202 (H:m:s:ms)","OPERA","124.381","0.15249795200485466","797"
"20:24:32:727 (H:m:s:ms)","GENERIC","124.22","0.15007560753839957","272"
"20:44:56:969 (H:m:s:ms)","GENERIC","155.539","0.17520873821659175","1030"
"20:24:38:787 (H:m:s:ms)","GENERIC","93.30799999999999","0.14415613442441333","212"
"20:45:3:30 (H:m:s:ms)","GENERIC","187.003","0.14752907225427317","969"
"20:24:44:848 (H:m:s:ms)","GENERIC","186.195","0.14003794964146246","152"
"20:24:50:909 (H:m:s:ms)","GENERIC","93.136","0.10245693052501179","1090"
"20:45:3:797 (H:m:s:ms)","OPERA","155.504","0.18038486926865308","202"
"20:45:9:90 (H:m:s:ms)","GENERIC","93.309","0.17559519558026987","991"
"20:24:56:969 (H:m:s:ms)","GENERIC","124.381","0.1293759094280797","1030"
"20:45:11:392 (H:m:s:ms)","OPERA","93.255","0.14362744785485232","607"
"20:25:3:30 (H:m:s:ms)","GENERIC","155.751","0.11445648123075214","970"
"20:45:15:151 (H:m:s:ms)","GENERIC","155.74","0.1692437679940589","848"
"20:25:9:90 (H:m:s:ms)","GENERIC","93.293","0.11393834325436573","961"
"20:45:18:987 (H:m:s:ms)","OPERA","124.386","0.14676375623246163","1090"
"20:25:15:151 (H:m:s:ms)","GENERIC","155.779","0.14549600428634274","848"
"20:45:21:212 (H:m:s:ms)","GENERIC","155.87","0.17471826639190435","787"
"20:25:21:212 (H:m:s:ms)","GENERIC","155.85999999999999","0.15729485766685605","787"
"20:45:26:582 (H:m:s:ms)","OPERA","124.38199999999999","0.14400104978396652","417"
"20:25:27:272 (H:m:s:ms)","GENERIC","124.47200000000001","0.14946836986141765","727"
"20:45:27:272 (H:m:s:ms)","GENERIC","93.245","0.16207696750974002","727"
"20:25:33:333 (H:m:s:ms)","GENERIC","62.073","0.12787774722720183","666"
"20:45:33:333 (H:m:s:ms)","GENERIC","124.083","0.1337798612215552","666"
"20:25:39:393 (H:m:s:ms)","GENERIC","62.097","0.08870301617957306","654"
"20:45:34:177 (H:m:s:ms)","OPERA","155.522","0.14731461892333264","823"
"20:25:45:454 (H:m:s:ms)","GENERIC","186.237","0.13440431929389485","545"
"20:25:51:515 (H:m:s:ms)","GENERIC","124.563","0.16168775012634304","485"
"20:25:57:575 (H:m:s:ms)","GENERIC","124.524","0.13420444662581507","424"
"20:26:3:636 (H:m:s:ms)","GENERIC","155.322","0.1177091044990738","363"
"20:26:9:696 (H:m:s:ms)","GENERIC","93.247","0.13603398843449668","349"
"20:26:15:757 (H:m:s:ms)","GENERIC","186.141","0.15927482316819283","242"
"20:26:21:818 (H:m:s:ms)","GENERIC","155.406","0.15477365824713368","181"
"20:26:27:878 (H:m:s:ms)","GENERIC","93.316","0.08376591205910834","1121"
"20:26:33:939 (H:m:s:ms)","GENERIC","155.39","0.1415286206174736","1061"
"20:26:40:0 (H:m:s:ms)","GENERIC","155.438","0.16228243281131333","1050"
"20:26:46:60 (H:m:s:ms)","GENERIC","124.61","0.15292181242200978","939"
"20:26:52:121 (H:m:s:ms)","GENERIC","155.861","0.14840534052250273","878"
"20:26:58:181 (H:m:s:ms)","GENERIC","62.101","0.12339928479103485","819"
"20:27:4:242 (H:m:s:ms)","GENERIC","186.619","0.13708157245271452","757"
"20:27:10:303 (H:m:s:ms)","GENERIC","93.35300000000001","0.13391910820483732","696"
"20:27:16:363 (H:m:s:ms)","GENERIC","93.223","0.11409585627921401","637"
"20:27:22:424 (H:m:s:ms)","GENERIC","155.131","0.14875646407288692","575"
"20:27:28:484 (H:m:s:ms)","GENERIC","124.596","0.13941559698271871","516"
"20:27:34:545 (H:m:s:ms)","GENERIC","187.055","0.12510468532040908","455"
"20:27:40:606 (H:m:s:ms)","GENERIC","124.149","0.128664499769388","393"
"20:27:46:666 (H:m:s:ms)","GENERIC","155.74","0.12875856810407607","333"
"20:27:52:727 (H:m:s:ms)","GENERIC","155.542","0.13720941703482817","272"
"20:27:58:787 (H:m:s:ms)","GENERIC","124.142","0.13032577263104692","212"
"20:28:4:848 (H:m:s:ms)","GENERIC","155.606","0.11727650792278783","152"
"20:28:10:909 (H:m:s:ms)","GENERIC","124.122","0.11448246319989197","1090"
"20:28:16:969 (H:m:s:ms)","GENERIC","155.279","0.14449493925165907","1030"
"20:28:23:30 (H:m:s:ms)","GENERIC","187.103","0.13794880238650425","969"
"20:28:29:90 (H:m:s:ms)","GENERIC","155.882","0.14648797526054846","955"
"20:28:35:151 (H:m:s:ms)","GENERIC","124.55799999999999","0.1434559675384201","848"
"20:28:41:212 (H:m:s:ms)","GENERIC","155.549","0.1438283508701162","787"
"20:28:47:272 (H:m:s:ms)","GENERIC","186.515","0.14594704736832936","727"
"20:28:53:333 (H:m:s:ms)","GENERIC","93.148","0.1270908387172765","666"
"20:28:59:393 (H:m:s:ms)","GENERIC","186.261","0.10918866926183245","653"
"20:29:5:454 (H:m:s:ms)","GENERIC","124.595","0.13920197442486867","546"
"20:29:11:515 (H:m:s:ms)","GENERIC","93.17","0.13732625641180918","484"
"20:29:17:575 (H:m:s:ms)","GENERIC","155.804","0.13710531857400166","424"
"20:29:23:636 (H:m:s:ms)","GENERIC","93.136","0.13166279269548709","363"
"20:29:29:696 (H:m:s:ms)","GENERIC","155.217","0.12585804795797542","359"
"20:29:35:757 (H:m:s:ms)","GENERIC","93.37","0.12950133756975785","242"
"20:29:41:818 (H:m:s:ms)","GENERIC","124.54400000000001","0.1265940056229742","181"
"20:29:47:878 (H:m:s:ms)","GENERIC","155.776","0.11617907131176765","1121"
"20:29:53:939 (H:m:s:ms)","GENERIC","124.188","0.16723100231552254","1062"
"21:20:7:594 (H:m:s:ms)","OPERA","124.274","0.141895824172738","405"
"21:20:12:121 (H:m:s:ms)","GENERIC","93.291","0.16377369068476647","878"
"21:20:15:189 (H:m:s:ms)","OPERA","155.4","0.14874118580723641","810"
"21:20:18:181 (H:m:s:ms)","GENERIC","155.156","0.1765257291472381","818"
"21:20:22:784 (H:m:s:ms)","OPERA","93.26599999999999","0.14163948190982686","215"
"21:20:24:242 (H:m:s:ms)","GENERIC","93.138","0.1559950191997947","757"
"21:20:30:303 (H:m:s:ms)","GENERIC","93.211","0.10528915660194944","697"
"21:20:30:379 (H:m:s:ms)","OPERA","124.274","0.13874349296990177","620"
"21:20:36:363 (H:m:s:ms)","GENERIC","155.81199999999998","0.15859006049734242","636"
"21:20:37:974 (H:m:s:ms)","OPERA","124.281","0.15959517381922622","1025"
"21:20:42:424 (H:m:s:ms)","GENERIC","93.274","0.18175144170736146","575"
"21:20:45:569 (H:m:s:ms)","OPERA","186.55","0.15086584079354493","430"
"21:20:48:484 (H:m:s:ms)","GENERIC","62.119","0.16548166048544305","515"
"21:20:53:164 (H:m:s:ms)","OPERA","93.273","0.14228627076723904","836"
"21:20:54:545 (H:m:s:ms)","GENERIC","93.255","0.18193812628611256","454"
"21:21:0:606 (H:m:s:ms)","GENERIC","155.745","0.1591800508899595","393"
"21:21:0:759 (H:m:s:ms)","OPERA","155.52100000000002","0.18541133435355162","240"
"21:21:6:666 (H:m:s:ms)","GENERIC","124.186","0.1767569044370122","333"
"21:21:8:354 (H:m:s:ms)","OPERA","186.53300000000002","0.14613523428214828","645"
"21:21:12:727 (H:m:s:ms)","GENERIC","155.838","0.1724936279625853","272"
"21:32:55:757 (H:m:s:ms)","GENERIC","124.31","0.1374308003104813","242"
"21:32:37:894 (H:m:s:ms)","AMBULANCE","93.129","0.1218335414717116","1105"
"21:32:37:575 (H:m:s:ms)","GENERIC","93.348","0.12287899884710216","424"
"21:32:31:515 (H:m:s:ms)","GENERIC","155.111","0.13045275743037713","484"
"21:32:25:454 (H:m:s:ms)","GENERIC","124.537","0.1530281780922437","545"
"21:32:19:393 (H:m:s:ms)","GENERIC","93.146","0.15281907834592523","660"
"21:32:13:333 (H:m:s:ms)","GENERIC","93.17099999999999","0.13544523978204914","666"
"21:32:7:272 (H:m:s:ms)","GENERIC","155.84199999999998","0.15144026566102323","727"
"21:21:15:949 (H:m:s:ms)","OPERA","186.535","0.14744621578045025","1050"
"21:32:6:315 (H:m:s:ms)","AMBULANCE","93.154","0.12233292108551319","684"
"21:21:18:787 (H:m:s:ms)","GENERIC","155.723","0.1757985582577366","212"
"21:21:23:544 (H:m:s:ms)","OPERA","124.274","0.1459029764228874","455"
"21:21:24:848 (H:m:s:ms)","GENERIC","124.602","0.16392662283745504","152"
"21:21:30:909 (H:m:s:ms)","GENERIC","124.305","0.10420698577820883","1090"
"21:21:31:139 (H:m:s:ms)","OPERA","124.274","0.14821069138808085","860"
"21:21:36:969 (H:m:s:ms)","GENERIC","155.406","0.18249559866090437","1030"
"21:21:38:734 (H:m:s:ms)","OPERA","155.524","0.1540671895255706","265"
"21:32:49:696 (H:m:s:ms)","GENERIC","124.376","0.1378489081463298","353"
"21:21:43:30 (H:m:s:ms)","GENERIC","93.16","0.18332477912099898","969"
"21:32:43:636 (H:m:s:ms)","GENERIC","124.621","0.14817247263808117","363"
"21:21:46:329 (H:m:s:ms)","OPERA","186.511","0.14815827838508702","670"
"21:33:56:363 (H:m:s:ms)","GENERIC","155.47899999999998","0.16850697923914143","636"
"21:33:50:303 (H:m:s:ms)","GENERIC","186.75400000000002","0.1690973276896795","696"
"21:33:38:181 (H:m:s:ms)","GENERIC","93.34299999999999","0.14399340144142195","819"
"21:33:32:121 (H:m:s:ms)","GENERIC","124.195","0.1408530135661459","878"
"21:33:26:60 (H:m:s:ms)","GENERIC","155.528","0.12549253527726772","939"
"21:33:20:0 (H:m:s:ms)","GENERIC","155.18","0.12052539449310136","1047"
"21:33:13:939 (H:m:s:ms)","GENERIC","93.332","0.15601567510299952","1061"
"21:33:9:473 (H:m:s:ms)","AMBULANCE","93.289","0.13067453660677955","572"
"21:21:49:90 (H:m:s:ms)","GENERIC","155.479","0.18764550911779723","955"
"21:33:7:878 (H:m:s:ms)","GENERIC","124.44399999999999","0.10910225307579155","1121"
"21:21:53:924 (H:m:s:ms)","OPERA","186.528","0.16188758303865827","1075"
"21:33:1:818 (H:m:s:ms)","GENERIC","93.116","0.12022314285132929","181"
"21:21:55:151 (H:m:s:ms)","GENERIC","124.22800000000001","0.18576586790763866","848"
"21:22:1:212 (H:m:s:ms)","GENERIC","124.478","0.13996916297584958","787"
"21:22:1:518 (H:m:s:ms)","OPERA","155.518","0.17454621455445996","481"
"21:22:7:272 (H:m:s:ms)","GENERIC","187.075","0.17594861828856473","727"
"21:22:9:113 (H:m:s:ms)","OPERA","186.531","0.1433242177973608","933"
"21:22:13:333 (H:m:s:ms)","GENERIC","93.14500000000001","0.16590661806948637","666"
"21:22:16:708 (H:m:s:ms)","OPERA","124.276","0.14916103764327207","292"
"21:22:19:393 (H:m:s:ms)","GENERIC","124.281","0.19089355247029985","651"
"21:33:44:242 (H:m:s:ms)","GENERIC","155.62","0.14242596891122636","757"
"21:34:56:969 (H:m:s:ms)","GENERIC","124.376","0.14858591593509485","1030"
"21:34:50:909 (H:m:s:ms)","GENERIC","124.178","0.09766180861639576","1090"
"21:34:44:848 (H:m:s:ms)","GENERIC","124.15899999999999","0.1429419977505022","152"
"21:34:38:787 (H:m:s:ms)","GENERIC","155.8","0.13080142657684607","212"
"21:34:32:727 (H:m:s:ms)","GENERIC","155.274","0.14721672687534415","272"
"21:34:26:666 (H:m:s:ms)","GENERIC","124.181","0.14210972414684825","334"
"21:34:20:606 (H:m:s:ms)","GENERIC","155.482","0.16142171234006975","393"
"21:34:14:545 (H:m:s:ms)","GENERIC","186.72899999999998","0.19662548304611885","454"
"21:22:24:303 (H:m:s:ms)","OPERA","155.522","0.16946611084557978","696"
"21:34:12:631 (H:m:s:ms)","AMBULANCE","186.551","0.15572803447520459","368"
"21:22:25:454 (H:m:s:ms)","GENERIC","124.549","0.19823299204564818","545"
"21:34:8:484 (H:m:s:ms)","GENERIC","155.791","0.12613893342247778","515"
"21:1:55:151 (H:m:s:ms)","GENERIC","124.208","0.1345326495735289","848"
"21:22:31:515 (H:m:s:ms)","GENERIC","124.106","0.1341991922399465","484"
"21:34:2:424 (H:m:s:ms)","GENERIC","93.29599999999999","0.1280145989471575","575"
"21:2:1:212 (H:m:s:ms)","GENERIC","93.256","0.12360403333924151","787"
"21:22:31:898 (H:m:s:ms)","OPERA","124.39999999999999","0.17932878863597743","101"
"21:2:6:315 (H:m:s:ms)","AMBULANCE","62.126000000000005","0.11190709524230807","684"
"21:22:37:575 (H:m:s:ms)","GENERIC","155.754","0.17250819052281713","424"
"21:2:7:272 (H:m:s:ms)","GENERIC","124.575","0.1437446518063548","727"
"21:22:39:493 (H:m:s:ms)","OPERA","124.276","0.1446753374818568","550"
"21:2:13:333 (H:m:s:ms)","GENERIC","155.186","0.12878411550060473","666"
"21:22:43:636 (H:m:s:ms)","GENERIC","93.37","0.16559572106073314","363"
"21:2:19:393 (H:m:s:ms)","GENERIC","124.311","0.14402014133233113","686"
"21:22:47:88 (H:m:s:ms)","OPERA","124.387","0.12946795465135863","911"
"21:2:25:454 (H:m:s:ms)","GENERIC","124.557","0.15394722073836112","545"
"21:22:49:696 (H:m:s:ms)","GENERIC","124.39099999999999","0.16312356113084236","347"
"21:2:31:515 (H:m:s:ms)","GENERIC","93.124","0.13457999640012966","485"
"21:22:54:683 (H:m:s:ms)","OPERA","124.402","0.13783992102593798","317"
"21:2:37:575 (H:m:s:ms)","GENERIC","93.28399999999999","0.10684455254153992","424"
"21:2:37:894 (H:m:s:ms)","AMBULANCE","62.062","0.13793536800367823","105"
"21:35:51:515 (H:m:s:ms)","GENERIC","124.575","0.16943240162594098","484"
"21:35:47:368 (H:m:s:ms)","AMBULANCE","93.362","0.1362879781530663","631"
"21:35:45:454 (H:m:s:ms)","GENERIC","186.286","0.12745723798759517","545"
"21:35:39:393 (H:m:s:ms)","GENERIC","62.073","0.11747401882120753","653"
"21:35:33:333 (H:m:s:ms)","GENERIC","93.081","0.13158343860318067","666"
"21:35:27:272 (H:m:s:ms)","GENERIC","124.44800000000001","0.13894368295054205","727"
"21:35:21:212 (H:m:s:ms)","GENERIC","187.107","0.17054646332968126","787"
"21:22:55:757 (H:m:s:ms)","GENERIC","155.451","0.17772417570807694","242"
"21:35:15:789 (H:m:s:ms)","AMBULANCE","93.227","0.10610059437816416","210"
"21:23:1:818 (H:m:s:ms)","GENERIC","93.112","0.1445441405952692","181"
"21:35:15:151 (H:m:s:ms)","GENERIC","124.54599999999999","0.15197342158637128","848"
"21:2:43:636 (H:m:s:ms)","GENERIC","155.86","0.14806664065590022","363"
"21:23:2:278 (H:m:s:ms)","OPERA","186.523","0.13603614924765622","721"
"21:35:9:90 (H:m:s:ms)","GENERIC","93.307","0.12321476966722474","961"
"21:2:49:696 (H:m:s:ms)","GENERIC","124.388","0.14760411567110315","367"
"21:23:7:878 (H:m:s:ms)","GENERIC","155.653","0.14381603316475916","1121"
"21:35:3:30 (H:m:s:ms)","GENERIC","124.563","0.15380691151171072","969"
"21:2:55:757 (H:m:s:ms)","GENERIC","93.237","0.1362100321761109","243"
"21:23:9:873 (H:m:s:ms)","OPERA","124.27199999999999","0.14825940212949607","172"
"21:3:1:818 (H:m:s:ms)","GENERIC","124.14","0.11337386112324865","181"
"21:23:13:939 (H:m:s:ms)","GENERIC","124.56899999999999","0.17237071544272656","1060"
"21:3:7:878 (H:m:s:ms)","GENERIC","186.87800000000001","0.11435897861279008","1121"
"21:23:17:468 (H:m:s:ms)","OPERA","155.40699999999998","0.13551621308633666","531"
"21:3:9:473 (H:m:s:ms)","AMBULANCE","62.277","0.1340474763429365","588"
"21:23:20:0 (H:m:s:ms)","GENERIC","155.192","0.15694205983897583","1045"
"21:3:13:939 (H:m:s:ms)","GENERIC","93.346","0.15367064236219286","1061"
"21:23:25:63 (H:m:s:ms)","OPERA","124.276","0.13536178504106938","936"
"21:3:20:0 (H:m:s:ms)","GENERIC","93.122","0.11150897550469037","1066"
"21:23:26:60 (H:m:s:ms)","GENERIC","155.527","0.17150099595287258","939"
"21:3:26:60 (H:m:s:ms)","GENERIC","186.66","0.13227749928361174","939"
"21:3:32:121 (H:m:s:ms)","GENERIC","155.302","0.15214287016827158","878"
"21:36:50:526 (H:m:s:ms)","AMBULANCE","124.286","0.1366354064638743","473"
"21:36:46:60 (H:m:s:ms)","GENERIC","124.56200000000001","0.13125205423516337","939"
"21:36:40:0 (H:m:s:ms)","GENERIC","124.295","0.14504211395726702","1046"
"21:36:33:939 (H:m:s:ms)","GENERIC","155.444","0.12395809522248408","1060"
"21:36:27:878 (H:m:s:ms)","GENERIC","93.28","0.06950044530723677","1121"
"21:36:21:818 (H:m:s:ms)","GENERIC","124.291","0.1935509104800564","181"
"21:23:32:121 (H:m:s:ms)","GENERIC","155.30599999999998","0.15005560377415078","878"
"21:36:18:947 (H:m:s:ms)","AMBULANCE","124.41","0.16778734659024605","1096"
"21:23:32:658 (H:m:s:ms)","OPERA","155.39","0.18906370170408873","341"
"21:36:15:757 (H:m:s:ms)","GENERIC","155.196","0.16022718736623945","242"
"21:3:38:181 (H:m:s:ms)","GENERIC","187.084","0.15170899160006024","818"
"21:23:38:181 (H:m:s:ms)","GENERIC","124.602","0.1798472628673989","818"
"21:36:9:696 (H:m:s:ms)","GENERIC","155.849","0.1377436862896557","347"
"21:3:41:52 (H:m:s:ms)","AMBULANCE","93.307","0.13734806627091806","947"
"21:23:40:253 (H:m:s:ms)","OPERA","93.255","0.14112310323869873","746"
"21:36:3:636 (H:m:s:ms)","GENERIC","155.286","0.1206975361207072","363"
"21:3:44:242 (H:m:s:ms)","GENERIC","124.43299999999999","0.1586997770086778","757"
"21:23:44:242 (H:m:s:ms)","GENERIC","186.798","0.17555850271385698","758"
"21:35:57:575 (H:m:s:ms)","GENERIC","93.314","0.13341723350782683","424"
"21:3:50:303 (H:m:s:ms)","GENERIC","186.743","0.1345892935005458","696"
"21:23:47:848 (H:m:s:ms)","OPERA","186.527","0.15264961890678097","151"
"21:3:56:363 (H:m:s:ms)","GENERIC","155.501","0.1456532755479134","636"
"21:23:50:303 (H:m:s:ms)","GENERIC","186.72199999999998","0.19668229333324902","696"
"21:4:2:424 (H:m:s:ms)","GENERIC","62.115","0.1250601492402645","575"
"21:23:55:443 (H:m:s:ms)","OPERA","186.526","0.16846278473748352","556"
"21:4:8:484 (H:m:s:ms)","GENERIC","187.065","0.12141852127453853","515"
"21:23:56:363 (H:m:s:ms)","GENERIC","124.28","0.2000813225424907","636"
"21:4:12:631 (H:m:s:ms)","AMBULANCE","124.396","0.16034917470783117","368"
"21:24:2:424 (H:m:s:ms)","GENERIC","93.318","0.1430667180233389","575"
"21:4:14:545 (H:m:s:ms)","GENERIC","155.539","0.1883760260582286","455"
"21:4:20:606 (H:m:s:ms)","GENERIC","155.482","0.13483872842207761","394"
"21:37:46:666 (H:m:s:ms)","GENERIC","93.3","0.1180914654917968","333"
"21:37:40:606 (H:m:s:ms)","GENERIC","93.187","0.13374152219731925","393"
"21:37:34:545 (H:m:s:ms)","GENERIC","187.12599999999998","0.1539603898904979","454"
"21:37:28:484 (H:m:s:ms)","GENERIC","155.79899999999998","0.18733651236720236","515"
"21:37:22:424 (H:m:s:ms)","GENERIC","186.187","0.19804538694504928","575"
"21:37:22:105 (H:m:s:ms)","AMBULANCE","155.381","0.17060388323801415","894"
"21:24:8:484 (H:m:s:ms)","GENERIC","93.29899999999999","0.1244553757574039","515"
"21:24:10:632 (H:m:s:ms)","OPERA","124.387","0.1403397633511024","367"
"21:37:16:363 (H:m:s:ms)","GENERIC","124.441","0.14435998382538867","636"
"21:4:26:666 (H:m:s:ms)","GENERIC","155.248","0.12543852760819074","333"
"21:24:14:545 (H:m:s:ms)","GENERIC","186.668","0.1770817566302522","455"
"21:37:10:303 (H:m:s:ms)","GENERIC","93.315","0.1315056044973486","697"
"21:4:32:727 (H:m:s:ms)","GENERIC","124.286","0.13651254863511952","272"
"21:24:18:227 (H:m:s:ms)","OPERA","124.382","0.15000996626985252","772"
"21:37:4:242 (H:m:s:ms)","GENERIC","155.421","0.13164994206506236","758"
"21:4:38:787 (H:m:s:ms)","GENERIC","155.81799999999998","0.12700436149721833","212"
"21:24:20:606 (H:m:s:ms)","GENERIC","186.635","0.17434412573976688","393"
"21:36:58:181 (H:m:s:ms)","GENERIC","124.15700000000001","0.11027290080431923","818"
"21:4:44:210 (H:m:s:ms)","AMBULANCE","124.73599999999999","0.12733770114664159","789"
"21:24:25:822 (H:m:s:ms)","OPERA","124.392","0.1510845624111166","177"
"21:36:52:121 (H:m:s:ms)","GENERIC","187.079","0.16226706475050026","878"
"21:4:44:848 (H:m:s:ms)","GENERIC","155.135","0.17255963673894217","151"
"21:24:26:666 (H:m:s:ms)","GENERIC","93.116","0.17473466877481034","333"
"21:4:50:909 (H:m:s:ms)","GENERIC","186.24","0.10729417219238423","1090"
"21:24:32:727 (H:m:s:ms)","GENERIC","93.156","0.12519894202540668","272"
"21:4:56:969 (H:m:s:ms)","GENERIC","62.069","0.12824883794406094","1030"
"21:24:33:417 (H:m:s:ms)","OPERA","155.526","0.13329741713379872","582"
"21:5:3:30 (H:m:s:ms)","GENERIC","155.805","0.12291088505698164","969"
"21:24:38:787 (H:m:s:ms)","GENERIC","124.605","0.15038894308817702","212"
"21:5:9:90 (H:m:s:ms)","GENERIC","93.311","0.12363889615354565","962"
"21:5:15:151 (H:m:s:ms)","GENERIC","155.76","0.11919126476008189","848"
"21:38:41:212 (H:m:s:ms)","GENERIC","124.355","0.13425124223612486","787"
"21:38:35:151 (H:m:s:ms)","GENERIC","93.316","0.12088137271867615","848"
"21:38:29:90 (H:m:s:ms)","GENERIC","124.59299999999999","0.1653932464339701","955"
"21:38:25:263 (H:m:s:ms)","AMBULANCE","124.199","0.140857459454032","737"
"21:38:23:30 (H:m:s:ms)","GENERIC","124.634","0.13679967488786346","969"
"21:38:16:969 (H:m:s:ms)","GENERIC","93.164","0.1542801291550923","1030"
"21:38:10:909 (H:m:s:ms)","GENERIC","124.126","0.12583992477383968","1090"
"21:24:41:12 (H:m:s:ms)","OPERA","155.547","0.11976754866427572","987"
"21:24:44:848 (H:m:s:ms)","GENERIC","186.183","0.16377539734056354","151"
"21:5:15:789 (H:m:s:ms)","AMBULANCE","93.37299999999999","0.1446385123680567","210"
"21:24:48:607 (H:m:s:ms)","OPERA","124.27199999999999","0.1529333757749892","392"
"21:5:21:212 (H:m:s:ms)","GENERIC","124.59100000000001","0.14918912527194855","787"
"21:24:50:909 (H:m:s:ms)","GENERIC","155.233","0.1457112375563041","1090"
"21:38:4:848 (H:m:s:ms)","GENERIC","124.513","0.10884068389623228","152"
"20:45:39:393 (H:m:s:ms)","GENERIC","93.36","0.175878562364573","680"
"21:5:27:272 (H:m:s:ms)","GENERIC","93.215","0.12915655044647203","727"
"21:24:56:202 (H:m:s:ms)","OPERA","124.274","0.15392653441351734","797"
"21:37:58:787 (H:m:s:ms)","GENERIC","124.168","0.1730138961116398","212"
"20:45:41:772 (H:m:s:ms)","OPERA","93.26599999999999","0.15062879426882778","227"
"21:5:33:333 (H:m:s:ms)","GENERIC","124.113","0.12245246466645299","666"
"21:24:56:969 (H:m:s:ms)","GENERIC","155.55599999999998","0.178175786158664","1030"
"21:37:53:684 (H:m:s:ms)","AMBULANCE","93.203","0.15671594568047317","315"
"20:45:45:454 (H:m:s:ms)","GENERIC","155.24099999999999","0.17975088665377295","545"
"21:5:39:393 (H:m:s:ms)","GENERIC","93.37","0.11090019390837758","657"
"21:25:3:30 (H:m:s:ms)","GENERIC","124.561","0.15338153909023183","969"
"21:37:52:727 (H:m:s:ms)","GENERIC","155.541","0.14673819206387737","273"
"20:45:49:367 (H:m:s:ms)","OPERA","124.38199999999999","0.14602515787099132","706"
"21:5:45:454 (H:m:s:ms)","GENERIC","124.201","0.1340684352088057","545"
"21:25:3:797 (H:m:s:ms)","OPERA","155.386","0.18275403099932527","202"
"20:45:51:515 (H:m:s:ms)","GENERIC","155.8","0.18071455581604984","484"
"21:5:47:368 (H:m:s:ms)","AMBULANCE","93.55","0.1412952129252675","631"
"21:25:9:90 (H:m:s:ms)","GENERIC","124.529","0.17146878623907147","962"
"20:45:56:962 (H:m:s:ms)","OPERA","124.41","0.16714527009042804","1037"
"21:5:51:515 (H:m:s:ms)","GENERIC","124.589","0.17139000401230756","484"
"21:25:11:392 (H:m:s:ms)","OPERA","124.387","0.12768274037040275","607"
"20:45:57:575 (H:m:s:ms)","GENERIC","93.31","0.18410202488136254","424"
"21:5:57:575 (H:m:s:ms)","GENERIC","93.338","0.13466270196133437","424"
"20:46:3:636 (H:m:s:ms)","GENERIC","124.224","0.17839207320118589","363"
"21:6:3:636 (H:m:s:ms)","GENERIC","93.125","0.1282923502908756","363"
"20:46:4:556 (H:m:s:ms)","OPERA","155.52700000000002","0.1574021326049527","445"
"20:46:9:696 (H:m:s:ms)","GENERIC","93.277","0.1837825711775397","379"
"21:39:35:757 (H:m:s:ms)","GENERIC","62.059","0.13163207897113416","242"
"21:39:29:696 (H:m:s:ms)","GENERIC","155.185","0.18112215419261204","355"
"21:39:28:421 (H:m:s:ms)","AMBULANCE","155.19","0.1425680066142492","578"
"21:39:23:636 (H:m:s:ms)","GENERIC","124.214","0.1438208426032358","363"
"21:39:17:575 (H:m:s:ms)","GENERIC","93.344","0.12808203518635178","424"
"21:39:11:515 (H:m:s:ms)","GENERIC","93.188","0.13095072307890804","484"
"21:39:5:454 (H:m:s:ms)","GENERIC","187.129","0.1534595763686737","545"
"21:38:59:393 (H:m:s:ms)","GENERIC","155.207","0.16927820418258369","652"
"21:25:15:151 (H:m:s:ms)","GENERIC","186.98700000000002","0.17286472604121145","848"
"21:25:18:987 (H:m:s:ms)","OPERA","155.388","0.15919436128886522","1061"
"21:6:9:696 (H:m:s:ms)","GENERIC","124.566","0.13574406401169709","350"
"21:25:21:212 (H:m:s:ms)","GENERIC","93.366","0.18490695923999714","787"
"21:6:15:757 (H:m:s:ms)","GENERIC","155.204","0.14598487155399126","242"
"21:25:26:582 (H:m:s:ms)","OPERA","124.274","0.14079493625882505","417"
"20:46:12:151 (H:m:s:ms)","OPERA","93.255","0.1482014968934081","849"
"21:6:18:947 (H:m:s:ms)","AMBULANCE","124.544","0.15996363694992613","1106"
"21:25:27:272 (H:m:s:ms)","GENERIC","155.628","0.17699490121752606","727"
"20:46:15:757 (H:m:s:ms)","GENERIC","124.12100000000001","0.18359177537433707","242"
"21:6:21:818 (H:m:s:ms)","GENERIC","155.392","0.19234495905654714","181"
"21:25:33:333 (H:m:s:ms)","GENERIC","155.115","0.14901305034193335","666"
"21:38:56:842 (H:m:s:ms)","AMBULANCE","155.273","0.12829057458192614","157"
"20:46:19:746 (H:m:s:ms)","OPERA","155.522","0.1504554233010691","317"
"21:6:27:878 (H:m:s:ms)","GENERIC","93.29400000000001","0.09421905181836003","1121"
"21:25:34:177 (H:m:s:ms)","OPERA","93.273","0.15704274791146078","823"
"21:38:53:333 (H:m:s:ms)","GENERIC","93.153","0.13635788282750633","666"
"20:46:21:818 (H:m:s:ms)","GENERIC","124.27099999999999","0.18390085871378473","181"
"21:6:33:939 (H:m:s:ms)","GENERIC","186.54899999999998","0.1514446600298105","1063"
"21:25:39:393 (H:m:s:ms)","GENERIC","93.344","0.17673458850869614","650"
"21:38:47:272 (H:m:s:ms)","GENERIC","124.276","0.1573110103489182","727"
"20:46:27:341 (H:m:s:ms)","OPERA","124.38799999999999","0.16423758141647396","658"
"21:6:40:0 (H:m:s:ms)","GENERIC","124.283","0.1585355337515222","1073"
"21:25:41:772 (H:m:s:ms)","OPERA","124.27199999999999","0.13697701337045304","227"
"20:46:27:878 (H:m:s:ms)","GENERIC","124.53800000000001","0.15115647141592528","1121"
"21:6:46:60 (H:m:s:ms)","GENERIC","124.58000000000001","0.14357995738787274","939"
"21:25:45:454 (H:m:s:ms)","GENERIC","124.203","0.16624390491574587","545"
"20:46:33:939 (H:m:s:ms)","GENERIC","186.529","0.1446814363350901","1060"
"21:6:50:526 (H:m:s:ms)","AMBULANCE","124.38","0.14122447951721184","473"
"20:46:34:936 (H:m:s:ms)","OPERA","124.402","0.1772092195862138","64"
"21:6:52:121 (H:m:s:ms)","GENERIC","155.839","0.17399294271742735","878"
"20:46:40:0 (H:m:s:ms)","GENERIC","155.399","0.18343074126131398","1073"
"20:46:42:531 (H:m:s:ms)","OPERA","124.381","0.15363739005286023","468"
"21:39:53:939 (H:m:s:ms)","GENERIC","124.179","0.163383737888622","1061"
"21:40:36:363 (H:m:s:ms)","GENERIC","155.797","0.12243792750879874","637"
"21:40:30:303 (H:m:s:ms)","GENERIC","93.215","0.10265074591990983","696"
"21:40:24:242 (H:m:s:ms)","GENERIC","93.154","0.11635614493071053","757"
"21:40:18:181 (H:m:s:ms)","GENERIC","155.13400000000001","0.139884626854325","818"
"21:40:12:121 (H:m:s:ms)","GENERIC","155.651","0.14704366332092947","878"
"21:40:6:60 (H:m:s:ms)","GENERIC","124.47200000000001","0.1620438894399224","939"
"21:40:0:0 (H:m:s:ms)","GENERIC","124.565","0.17917237607748007","1158"
"21:40:0:0 (H:m:s:ms)","GENERIC","93.332","0.16437061136882683","1158"
"21:6:58:181 (H:m:s:ms)","GENERIC","93.113","0.13147903190760685","818"
"21:7:4:242 (H:m:s:ms)","GENERIC","186.565","0.1393691218586817","758"
"20:46:46:60 (H:m:s:ms)","GENERIC","124.59","0.18688154220868877","939"
"21:7:10:303 (H:m:s:ms)","GENERIC","93.34299999999999","0.1345793452500344","696"
"20:46:50:126 (H:m:s:ms)","OPERA","155.497","0.1628605610320779","873"
"21:7:16:363 (H:m:s:ms)","GENERIC","155.572","0.13765599366942669","636"
"20:46:52:121 (H:m:s:ms)","GENERIC","124.606","0.18336829784702327","878"
"21:7:22:105 (H:m:s:ms)","AMBULANCE","93.261","0.1433124639268964","894"
"20:46:57:721 (H:m:s:ms)","OPERA","93.268","0.13258342618627947","278"
"21:7:22:424 (H:m:s:ms)","GENERIC","155.147","0.1849143658335667","575"
"21:39:47:878 (H:m:s:ms)","GENERIC","155.79","0.0997082545716523","1121"
"20:46:58:181 (H:m:s:ms)","GENERIC","93.107","0.15163064055194467","818"
"21:7:28:484 (H:m:s:ms)","GENERIC","93.354","0.16801640751419253","515"
"21:39:41:818 (H:m:s:ms)","GENERIC","155.80700000000002","0.13265086316114857","182"
"20:47:4:242 (H:m:s:ms)","GENERIC","124.355","0.12636508447428282","758"
"21:7:34:545 (H:m:s:ms)","GENERIC","187.102","0.13836199047285208","455"
"20:47:5:316 (H:m:s:ms)","OPERA","124.405","0.15321281347940324","683"
"21:7:40:606 (H:m:s:ms)","GENERIC","124.16499999999999","0.1288197637136257","393"
"20:47:10:303 (H:m:s:ms)","GENERIC","93.33699999999999","0.16816772933420668","696"
"21:7:46:666 (H:m:s:ms)","GENERIC","124.55000000000001","0.12748886556877845","333"
"20:47:12:911 (H:m:s:ms)","OPERA","155.52100000000002","0.13048349980227647","88"
"20:47:16:363 (H:m:s:ms)","GENERIC","155.588","0.16105001206392305","636"
"21:7:52:727 (H:m:s:ms)","GENERIC","155.517","0.1621015610952471","272"
"21:7:53:684 (H:m:s:ms)","AMBULANCE","93.344","0.1653527912211028","315"
"20:47:20:506 (H:m:s:ms)","OPERA","155.514","0.16514523443165252","493"
"21:7:58:787 (H:m:s:ms)","GENERIC","124.144","0.18050900117014837","212"
"20:47:22:424 (H:m:s:ms)","GENERIC","93.092","0.18129552185460587","575"
"21:8:4:848 (H:m:s:ms)","GENERIC","93.29599999999999","0.11169650882697539","152"
"20:47:28:101 (H:m:s:ms)","OPERA","62.126999999999995","0.1198140161684463","899"
"21:8:10:909 (H:m:s:ms)","GENERIC","155.168","0.10157389906330845","1090"
"20:47:28:484 (H:m:s:ms)","GENERIC","93.346","0.15394857584141053","516"
"21:8:16:969 (H:m:s:ms)","GENERIC","93.144","0.13357746685004104","1030"
"20:47:34:545 (H:m:s:ms)","GENERIC","93.338","0.1595840615486898","455"
"21:8:23:30 (H:m:s:ms)","GENERIC","93.395","0.13351915500701694","969"
"20:47:35:696 (H:m:s:ms)","OPERA","124.40400000000001","0.1332405685292711","303"
"21:8:25:263 (H:m:s:ms)","AMBULANCE","93.124","0.14712528075538642","737"
"21:40:42:424 (H:m:s:ms)","GENERIC","93.268","0.13648218301923962","576"
"20:47:40:606 (H:m:s:ms)","GENERIC","93.11500000000001","0.15038421811499667","393"
"21:8:29:90 (H:m:s:ms)","GENERIC","155.863","0.16829915752247576","956"
"20:47:43:291 (H:m:s:ms)","OPERA","93.26599999999999","0.1310818028825179","708"
"21:8:35:151 (H:m:s:ms)","GENERIC","124.572","0.1287363846156042","848"
"20:47:46:666 (H:m:s:ms)","GENERIC","93.328","0.16257015906443797","333"
"20:47:50:886 (H:m:s:ms)","OPERA","93.268","0.1490490420592509","113"
"21:8:41:212 (H:m:s:ms)","GENERIC","155.558","0.14897779756120602","787"
"21:8:47:272 (H:m:s:ms)","GENERIC","186.546","0.1588527473996234","727"
"20:47:52:727 (H:m:s:ms)","GENERIC","186.74099999999999","0.18972076490001352","272"
"21:8:53:333 (H:m:s:ms)","GENERIC","93.174","0.13908938949469704","666"
"20:47:58:481 (H:m:s:ms)","OPERA","155.542","0.17002182655090498","519"
"21:8:56:842 (H:m:s:ms)","AMBULANCE","155.222","0.11367618275437381","157"
"20:30:0:0 (H:m:s:ms)","GENERIC","155.802","0.16803032922939165","1047"
"20:47:58:787 (H:m:s:ms)","GENERIC","93.074","0.18991586372007652","213"
"21:8:59:393 (H:m:s:ms)","GENERIC","155.202","0.14586240568245543","660"
"20:30:0:0 (H:m:s:ms)","GENERIC","93.334","0.18395203140372393","1047"
"20:48:4:848 (H:m:s:ms)","GENERIC","93.254","0.1775563772169242","152"
"21:9:5:454 (H:m:s:ms)","GENERIC","155.828","0.1326618457075435","545"
"20:30:6:60 (H:m:s:ms)","GENERIC","93.332","0.16172569831746855","939"
"20:48:6:75 (H:m:s:ms)","OPERA","124.392","0.15235718390324207","924"
"21:9:11:515 (H:m:s:ms)","GENERIC","124.36099999999999","0.1371450639744865","485"
"20:30:12:121 (H:m:s:ms)","GENERIC","93.301","0.13163197525338788","878"
"20:48:10:909 (H:m:s:ms)","GENERIC","124.156","0.16921831397420964","1090"
"21:9:17:575 (H:m:s:ms)","GENERIC","155.802","0.15239443274415876","424"
"20:30:18:181 (H:m:s:ms)","GENERIC","93.138","0.1465751609807557","818"
"20:48:13:670 (H:m:s:ms)","OPERA","93.267","0.16089500885832939","329"
"21:9:23:636 (H:m:s:ms)","GENERIC","93.144","0.15109798244109754","363"
"20:30:24:242 (H:m:s:ms)","GENERIC","62.057","0.12452197548722395","757"
"20:48:16:969 (H:m:s:ms)","GENERIC","62.061","0.1763716380601826","1030"
"21:9:28:421 (H:m:s:ms)","AMBULANCE","93.115","0.13616788988355621","578"
"20:30:30:303 (H:m:s:ms)","GENERIC","93.261","0.10561162699213308","697"
"20:48:23:30 (H:m:s:ms)","GENERIC","93.383","0.1265356600406374","969"
"20:30:36:363 (H:m:s:ms)","GENERIC","124.59299999999999","0.12518167296934113","636"
"20:48:28:860 (H:m:s:ms)","OPERA","93.26599999999999","0.1421649847360474","139"
"20:30:42:424 (H:m:s:ms)","GENERIC","155.632","0.12535525355214563","576"
"20:30:48:484 (H:m:s:ms)","GENERIC","62.131","0.10962433948749395","515"
"21:9:29:696 (H:m:s:ms)","GENERIC","155.193","0.18048504543391203","355"
"21:9:35:757 (H:m:s:ms)","GENERIC","155.84","0.15664663312027147","243"
"20:48:29:90 (H:m:s:ms)","GENERIC","124.62299999999999","0.1730854165968004","971"
"21:9:41:818 (H:m:s:ms)","GENERIC","155.77300000000002","0.1399290660254096","181"
"20:48:35:151 (H:m:s:ms)","GENERIC","155.816","0.12910762038297136","848"
"21:9:47:878 (H:m:s:ms)","GENERIC","124.56299999999999","0.09484100078921942","1121"
"20:30:54:545 (H:m:s:ms)","GENERIC","93.223","0.13593271141810312","454"
"20:48:36:455 (H:m:s:ms)","OPERA","93.26599999999999","0.12673332212938423","544"
"21:9:53:939 (H:m:s:ms)","GENERIC","124.214","0.13616838810344378","1061"
"20:31:0:606 (H:m:s:ms)","GENERIC","93.276","0.14540500195821252","394"
"20:48:41:212 (H:m:s:ms)","GENERIC","124.394","0.16703276886115984","787"
"21:10:0:0 (H:m:s:ms)","AMBULANCE","62.303","0.1258099891582713","1052"
"20:31:6:666 (H:m:s:ms)","GENERIC","186.265","0.13863151009173916","333"
"20:48:47:272 (H:m:s:ms)","GENERIC","124.30699999999999","0.16119661539213773","727"
"21:10:0:0 (H:m:s:ms)","GENERIC","155.792","0.16448507393992576","1052"
"20:31:12:727 (H:m:s:ms)","GENERIC","124.589","0.14200918900060738","273"
"20:48:51:645 (H:m:s:ms)","OPERA","155.522","0.15794676836867652","355"
"21:10:0:0 (H:m:s:ms)","GENERIC","124.517","0.1780642731667524","1052"
"20:31:18:787 (H:m:s:ms)","GENERIC","187.086","0.1631725731531713","212"
"20:48:53:333 (H:m:s:ms)","GENERIC","93.186","0.17060029000469992","666"
"21:10:6:60 (H:m:s:ms)","GENERIC","155.683","0.17534433179248085","939"
"20:31:24:848 (H:m:s:ms)","GENERIC","124.531","0.14994577438193746","152"
"20:48:59:240 (H:m:s:ms)","OPERA","155.504","0.12771906383376683","823"
"21:10:12:121 (H:m:s:ms)","GENERIC","155.689","0.13196018358903874","878"
"20:31:30:909 (H:m:s:ms)","GENERIC","186.6","0.10350884017623707","1091"
"20:48:59:393 (H:m:s:ms)","GENERIC","186.247","0.16069227026641872","670"
"20:31:36:969 (H:m:s:ms)","GENERIC","155.435","0.14402670607122106","1030"
"20:49:5:454 (H:m:s:ms)","GENERIC","124.593","0.18165919138079736","545"
"20:31:43:30 (H:m:s:ms)","GENERIC","93.124","0.14632409578604966","970"
"20:31:49:90 (H:m:s:ms)","GENERIC","124.35","0.14814805028008626","962"
"20:49:6:835 (H:m:s:ms)","OPERA","155.515","0.14843572226371465","164"
"20:49:11:515 (H:m:s:ms)","GENERIC","124.374","0.17615604893731093","484"
"20:31:55:151 (H:m:s:ms)","GENERIC","186.379","0.1500560117467826","849"
"20:49:14:430 (H:m:s:ms)","OPERA","124.381","0.14673611389375799","569"
"20:32:1:212 (H:m:s:ms)","GENERIC","93.24","0.14032698070784727","787"
"20:49:17:575 (H:m:s:ms)","GENERIC","124.584","0.17475689661941046","424"
"20:32:7:272 (H:m:s:ms)","GENERIC","93.38","0.13379827195211044","727"
"20:49:22:25 (H:m:s:ms)","OPERA","155.546","0.13856406248694642","974"
"20:32:13:333 (H:m:s:ms)","GENERIC","124.219","0.13048612272736707","667"
"20:49:23:636 (H:m:s:ms)","GENERIC","155.198","0.1707549936777637","363"
"20:32:19:393 (H:m:s:ms)","GENERIC","155.411","0.14547828631372614","653"
"20:49:29:620 (H:m:s:ms)","OPERA","155.54500000000002","0.1536890425038872","452"
"20:32:25:454 (H:m:s:ms)","GENERIC","187.01","0.15759046416461847","545"
"20:49:29:696 (H:m:s:ms)","GENERIC","155.226","0.18845017225722324","376"
"20:32:31:515 (H:m:s:ms)","GENERIC","93.164","0.12331995420508536","484"
"20:49:35:757 (H:m:s:ms)","GENERIC","93.362","0.1793951660845855","242"
"20:32:37:575 (H:m:s:ms)","GENERIC","124.451","0.12392937233032912","424"
"20:49:37:215 (H:m:s:ms)","OPERA","93.267","0.14763415058467202","784"
"20:32:43:636 (H:m:s:ms)","GENERIC","93.33","0.14462073190665012","363"
"20:32:49:696 (H:m:s:ms)","GENERIC","155.593","0.15571353321095316","349"
"20:49:41:818 (H:m:s:ms)","GENERIC","155.739","0.18294532328038818","181"
"20:49:44:810 (H:m:s:ms)","OPERA","155.514","0.16530025647402397","190"
"20:32:55:757 (H:m:s:ms)","GENERIC","124.298","0.15339746326310105","242"
"20:49:47:878 (H:m:s:ms)","GENERIC","124.56700000000001","0.17027958307460891","1121"
"20:33:1:818 (H:m:s:ms)","GENERIC","155.189","0.13803947477366346","181"
"20:49:52:405 (H:m:s:ms)","OPERA","124.381","0.16263627704105446","594"
"20:33:7:878 (H:m:s:ms)","GENERIC","93.301","0.10363087497787508","1121"
"20:49:53:939 (H:m:s:ms)","GENERIC","124.19800000000001","0.19371996933362085","1061"
"20:33:13:939 (H:m:s:ms)","GENERIC","155.809","0.1378347050186044","1060"
"20:50:0:0 (H:m:s:ms)","OPERA","124.386","0.19400930457202312","1084"
"20:33:20:0 (H:m:s:ms)","GENERIC","93.134","0.1358602564497737","1049"
"20:50:0:0 (H:m:s:ms)","GENERIC","187.103","0.15627965216144651","1084"
"20:33:26:60 (H:m:s:ms)","GENERIC","155.51600000000002","0.13847367821245435","939"
"20:50:0:0 (H:m:s:ms)","GENERIC","93.32","0.17164547139195502","1084"
"20:33:32:121 (H:m:s:ms)","GENERIC","155.382","0.14325562020234414","878"
"20:50:6:60 (H:m:s:ms)","GENERIC","124.518","0.1943862362611332","939"
"20:33:38:181 (H:m:s:ms)","GENERIC","93.34100000000001","0.13623171729004332","818"
"20:50:12:121 (H:m:s:ms)","GENERIC","124.488","0.15361064884699374","878"
"20:33:44:242 (H:m:s:ms)","GENERIC","124.408","0.13730908336020947","757"
"20:33:50:303 (H:m:s:ms)","GENERIC","186.744","0.15969703614382538","696"
"20:50:18:181 (H:m:s:ms)","GENERIC","93.136","0.1501797873600927","819"
"20:50:24:242 (H:m:s:ms)","GENERIC","93.13","0.13076592197606263","758"
"20:33:56:363 (H:m:s:ms)","GENERIC","124.324","0.16802070512432976","636"
"20:50:30:303 (H:m:s:ms)","GENERIC","93.227","0.1059380816335072","696"
"20:34:2:424 (H:m:s:ms)","GENERIC","93.342","0.1511052508944029","575"
"20:50:36:363 (H:m:s:ms)","GENERIC","124.58500000000001","0.11887871897557602","636"
"20:10:0:0 (H:m:s:ms)","GENERIC","93.56","0.1365335992179148","1000"
"20:34:8:484 (H:m:s:ms)","GENERIC","124.572","0.13238825218828826","515"
"20:50:42:424 (H:m:s:ms)","GENERIC","155.634","0.12281997752214098","575"
"20:10:0:0 (H:m:s:ms)","GENERIC","93.31","0.16503192310102605","1050"
"20:34:14:545 (H:m:s:ms)","GENERIC","186.715","0.1579167108048034","455"
"20:50:48:484 (H:m:s:ms)","GENERIC","93.127","0.1268946645349952","515"
"20:10:6:60 (H:m:s:ms)","GENERIC","93.318","0.14839733506366404","939"
"20:34:20:606 (H:m:s:ms)","GENERIC","155.465","0.17170899558275277","393"
"20:50:54:545 (H:m:s:ms)","GENERIC","155.60500000000002","0.14175361532123085","455"
"20:10:12:121 (H:m:s:ms)","GENERIC","93.279","0.11901422042646231","878"
"20:34:26:666 (H:m:s:ms)","GENERIC","93.145","0.12614274793551958","333"
"20:51:0:606 (H:m:s:ms)","GENERIC","155.733","0.15501935455101665","393"
"20:10:18:181 (H:m:s:ms)","GENERIC","93.118","0.14681055603723256","818"
"20:34:32:727 (H:m:s:ms)","GENERIC","93.18599999999999","0.11483068263851406","273"
"20:51:6:666 (H:m:s:ms)","GENERIC","124.168","0.15369967966593598","334"
"20:10:24:242 (H:m:s:ms)","GENERIC","93.158","0.1386056611567206","757"
"20:34:38:787 (H:m:s:ms)","GENERIC","124.553","0.13132501459478857","212"
"20:51:12:727 (H:m:s:ms)","GENERIC","124.553","0.13670579858853574","272"
"20:10:30:303 (H:m:s:ms)","GENERIC","62.079","0.10685319417383858","696"
"20:34:44:848 (H:m:s:ms)","GENERIC","155.174","0.13963146882893676","151"
"20:10:36:363 (H:m:s:ms)","GENERIC","155.81799999999998","0.12142733236302612","636"
"20:34:50:909 (H:m:s:ms)","GENERIC","124.202","0.12264160784211824","1091"
"20:10:42:424 (H:m:s:ms)","GENERIC","93.26","0.13537668921447923","576"
"20:10:48:484 (H:m:s:ms)","GENERIC","93.147","0.12537570305180018","515"
"20:51:18:787 (H:m:s:ms)","GENERIC","187.062","0.1566652750993704","212"
"20:51:24:848 (H:m:s:ms)","GENERIC","93.306","0.1489054381592329","151"
"20:34:56:969 (H:m:s:ms)","GENERIC","93.213","0.14080403787717735","1030"
"20:51:30:909 (H:m:s:ms)","GENERIC","93.19800000000001","0.09990555491405784","1090"
"20:35:3:30 (H:m:s:ms)","GENERIC","124.559","0.1267266618819451","969"
"20:51:36:969 (H:m:s:ms)","GENERIC","155.43200000000002","0.14792964389236002","1030"
"20:10:54:545 (H:m:s:ms)","GENERIC","124.428","0.12862237553030598","454"
"20:35:9:90 (H:m:s:ms)","GENERIC","93.309","0.12740019656425952","966"
"20:51:43:30 (H:m:s:ms)","GENERIC","155.29","0.1469668063328099","969"
"20:11:0:606 (H:m:s:ms)","GENERIC","155.75300000000001","0.1372719620168698","393"
"20:35:15:151 (H:m:s:ms)","GENERIC","124.52199999999999","0.11896792915801725","848"
"20:51:49:90 (H:m:s:ms)","GENERIC","93.196","0.13611874861121664","984"
"20:11:6:666 (H:m:s:ms)","GENERIC","124.158","0.14746690101963683","333"
"20:35:21:212 (H:m:s:ms)","GENERIC","124.601","0.14541515636168487","787"
"20:51:55:151 (H:m:s:ms)","GENERIC","93.127","0.13785085637969","848"
"20:11:12:727 (H:m:s:ms)","GENERIC","124.57499999999999","0.1588657840731628","272"
"20:35:27:272 (H:m:s:ms)","GENERIC","93.272","0.13305285305288886","727"
"20:52:1:212 (H:m:s:ms)","GENERIC","124.454","0.1398637601923399","787"
"20:11:18:787 (H:m:s:ms)","GENERIC","187.127","0.1470140907462505","212"
"20:35:33:333 (H:m:s:ms)","GENERIC","93.063","0.10838708411945197","666"
"20:52:7:272 (H:m:s:ms)","GENERIC","124.583","0.13225423553916812","727"
"20:11:24:848 (H:m:s:ms)","GENERIC","124.555","0.1396438450789161","151"
"20:35:39:393 (H:m:s:ms)","GENERIC","155.87","0.1284861071752197","656"
"20:52:13:333 (H:m:s:ms)","GENERIC","124.18100000000001","0.1279424093466009","666"
"20:11:30:909 (H:m:s:ms)","GENERIC","124.358","0.10014742389608924","1090"
"20:35:45:454 (H:m:s:ms)","GENERIC","155.20999999999998","0.1386632855555639","545"
"20:11:36:969 (H:m:s:ms)","GENERIC","155.446","0.1461757334720566","1030"
"20:35:51:515 (H:m:s:ms)","GENERIC","155.749","0.12817309151937148","484"
"20:11:43:30 (H:m:s:ms)","GENERIC","93.12","0.1448867133350769","969"
"20:11:49:90 (H:m:s:ms)","GENERIC","93.158","0.13951218824097492","955"
"20:0:54:545 (H:m:s:ms)","GENERIC","93.384","0.1515760398346049","455"
"20:1:0:606 (H:m:s:ms)","GENERIC","93.482","0.16528848151797673","393"
"20:1:6:666 (H:m:s:ms)","GENERIC","155.24599999999998","0.14678735540067725","334"
"20:1:12:727 (H:m:s:ms)","GENERIC","93.515","0.153477034025394","273"
"20:1:18:787 (H:m:s:ms)","GENERIC","156.022","0.15863069331470897","213"
"20:1:24:848 (H:m:s:ms)","GENERIC","124.78200000000001","0.15319439187727749","153"
"20:1:30:909 (H:m:s:ms)","GENERIC","93.30199999999999","0.09380837147091743","1090"
"20:1:36:969 (H:m:s:ms)","GENERIC","155.548","0.1357236596329708","1031"
"20:1:43:30 (H:m:s:ms)","GENERIC","124.244","0.14057699561655412","969"
"20:1:49:90 (H:m:s:ms)","GENERIC","124.459","0.14236038563023784","932"
"20:35:57:575 (H:m:s:ms)","GENERIC","93.29599999999999","0.12267301420527749","424"
"20:36:3:636 (H:m:s:ms)","GENERIC","124.253","0.12819436550844163","363"
"20:11:55:151 (H:m:s:ms)","GENERIC","124.214","0.13460082376778912","848"
"20:36:9:696 (H:m:s:ms)","GENERIC","93.261","0.13654951116535297","349"
"20:12:1:212 (H:m:s:ms)","GENERIC","93.266","0.128267003400745","788"
"20:36:15:757 (H:m:s:ms)","GENERIC","155.10500000000002","0.14505927268085922","242"
"20:12:7:272 (H:m:s:ms)","GENERIC","124.63300000000001","0.13468364004211514","727"
"20:36:21:818 (H:m:s:ms)","GENERIC","124.293","0.1472334321894907","182"
"20:12:13:333 (H:m:s:ms)","GENERIC","155.213","0.1323920074885331","666"
"20:36:27:878 (H:m:s:ms)","GENERIC","155.76500000000001","0.08859623312421272","1121"
"20:12:19:393 (H:m:s:ms)","GENERIC","155.366","0.15122281102950716","662"
"20:36:33:939 (H:m:s:ms)","GENERIC","155.393","0.14603188300370082","1061"
"20:12:25:454 (H:m:s:ms)","GENERIC","124.563","0.16120026682175642","546"
"20:36:40:0 (H:m:s:ms)","GENERIC","155.423","0.15485793933352668","1047"
"20:12:31:515 (H:m:s:ms)","GENERIC","124.176","0.12858694731858794","485"
"20:36:46:60 (H:m:s:ms)","GENERIC","155.85500000000002","0.14706374319051937","939"
"20:12:37:575 (H:m:s:ms)","GENERIC","155.691","0.12387877892083665","424"
"20:36:52:121 (H:m:s:ms)","GENERIC","155.892","0.15499332653102804","878"
"20:12:43:636 (H:m:s:ms)","GENERIC","124.599","0.1354526674562036","364"
"20:12:49:696 (H:m:s:ms)","GENERIC","93.256","0.14698371951678227","349"
"20:1:55:151 (H:m:s:ms)","GENERIC","124.277","0.14386522527596696","848"
"20:2:1:212 (H:m:s:ms)","GENERIC","62.232","0.12635147155690993","787"
"20:2:7:272 (H:m:s:ms)","GENERIC","93.553","0.12248025005661257","727"
"20:2:13:333 (H:m:s:ms)","GENERIC","93.123","0.12629083480982156","667"
"20:2:19:393 (H:m:s:ms)","GENERIC","124.37899999999999","0.15143141530700974","629"
"20:2:25:454 (H:m:s:ms)","GENERIC","93.5","0.17099684019131334","545"
"20:2:31:515 (H:m:s:ms)","GENERIC","62.085","0.1375192523291837","485"
"20:2:37:575 (H:m:s:ms)","GENERIC","62.248999999999995","0.10794624823615691","425"
"20:2:43:636 (H:m:s:ms)","GENERIC","93.544","0.1255548367413429","363"
"20:2:49:696 (H:m:s:ms)","GENERIC","93.379","0.13958963044029826","326"
"20:36:58:181 (H:m:s:ms)","GENERIC","62.101","0.12469750332665558","818"
"20:37:4:242 (H:m:s:ms)","GENERIC","124.369","0.1311432717073181","758"
"20:12:55:757 (H:m:s:ms)","GENERIC","124.27799999999999","0.1526052531547519","243"
"20:37:10:303 (H:m:s:ms)","GENERIC","62.113","0.13140540396286687","696"
"20:13:1:818 (H:m:s:ms)","GENERIC","124.156","0.1283168193811116","181"
"20:37:16:363 (H:m:s:ms)","GENERIC","124.388","0.14528228937310425","636"
"20:13:7:878 (H:m:s:ms)","GENERIC","155.731","0.10109238615924564","1122"
"20:37:22:424 (H:m:s:ms)","GENERIC","124.11500000000001","0.16242080941694886","575"
"20:13:13:939 (H:m:s:ms)","GENERIC","187.094","0.14653687844242055","1060"
"20:37:28:484 (H:m:s:ms)","GENERIC","124.58099999999999","0.1579322398393132","515"
"20:13:20:0 (H:m:s:ms)","GENERIC","93.098","0.13892997851922398","1043"
"20:37:34:545 (H:m:s:ms)","GENERIC","155.79","0.14366450392147717","455"
"20:13:26:60 (H:m:s:ms)","GENERIC","186.642","0.1441383951486423","939"
"20:37:40:606 (H:m:s:ms)","GENERIC","124.13300000000001","0.12390863175199533","393"
"20:13:32:121 (H:m:s:ms)","GENERIC","186.435","0.1584465781069901","878"
"20:37:46:666 (H:m:s:ms)","GENERIC","93.312","0.1298863097893649","333"
"20:13:38:181 (H:m:s:ms)","GENERIC","155.833","0.15635209421107094","818"
"20:37:52:727 (H:m:s:ms)","GENERIC","155.55","0.14347030534703273","272"
"20:13:44:242 (H:m:s:ms)","GENERIC","124.465","0.13404582355959888","758"
"20:13:50:303 (H:m:s:ms)","GENERIC","155.588","0.13869796322109743","696"
"20:2:55:757 (H:m:s:ms)","GENERIC","93.256","0.14352050022862037","243"
"20:3:1:818 (H:m:s:ms)","GENERIC","62.075","0.13466478077179803","181"
"20:3:7:878 (H:m:s:ms)","GENERIC","93.475","0.14053862147099824","122"
"20:3:13:939 (H:m:s:ms)","GENERIC","93.536","0.0850055352984234","1061"
"20:3:20:0 (H:m:s:ms)","GENERIC","124.122","0.1300046235343102","1000"
"20:3:26:60 (H:m:s:ms)","GENERIC","124.48","0.14674454028177547","939"
"20:3:32:121 (H:m:s:ms)","GENERIC","62.132999999999996","0.1467384926272036","879"
"20:3:38:181 (H:m:s:ms)","GENERIC","124.783","0.13534048499866283","819"
"20:3:44:242 (H:m:s:ms)","GENERIC","93.399","0.14602989847696835","759"
"20:3:50:303 (H:m:s:ms)","GENERIC","155.721","0.16354859394949","696"
"20:37:58:787 (H:m:s:ms)","GENERIC","155.171","0.139256909199282","212"
"20:38:4:848 (H:m:s:ms)","GENERIC","124.425","0.11862008310468658","152"
"20:13:56:363 (H:m:s:ms)","GENERIC","93.22","0.1490587138588768","636"
"20:38:10:909 (H:m:s:ms)","GENERIC","155.164","0.11444665772848853","1090"
"20:14:2:424 (H:m:s:ms)","GENERIC","62.097","0.13103562835697669","575"
"20:38:16:969 (H:m:s:ms)","GENERIC","62.071","0.1363090759964786","1031"
"20:14:8:484 (H:m:s:ms)","GENERIC","155.845","0.14148442109197365","515"
"20:38:23:30 (H:m:s:ms)","GENERIC","124.622","0.11878730047042207","970"
"20:14:14:545 (H:m:s:ms)","GENERIC","186.71","0.1608004784195249","454"
"20:38:29:90 (H:m:s:ms)","GENERIC","93.4","0.12431696408621873","972"
"20:14:20:606 (H:m:s:ms)","GENERIC","93.21600000000001","0.15717878971051374","393"
"20:38:35:151 (H:m:s:ms)","GENERIC","187.03","0.12250343802490478","848"
"20:14:26:666 (H:m:s:ms)","GENERIC","93.114","0.1405792151746072","333"
"20:38:41:212 (H:m:s:ms)","GENERIC","124.395","0.1276430487980708","787"
"20:14:32:727 (H:m:s:ms)","GENERIC","155.297","0.14214106722383368","273"
"20:38:47:272 (H:m:s:ms)","GENERIC","186.531","0.14360912085075894","727"
"20:14:38:787 (H:m:s:ms)","GENERIC","93.31","0.12761650628070348","212"
"20:38:53:333 (H:m:s:ms)","GENERIC","93.168","0.13487400700311894","666"
"20:14:44:848 (H:m:s:ms)","GENERIC","155.18599999999998","0.1320120478753418","152"
"20:14:50:909 (H:m:s:ms)","GENERIC","124.19200000000001","0.09579320292210482","1091"
"20:3:56:363 (H:m:s:ms)","GENERIC","124.452","0.16411116959424443","637"
"20:4:2:424 (H:m:s:ms)","GENERIC","62.266999999999996","0.1345583189444646","576"
"20:4:8:484 (H:m:s:ms)","GENERIC","124.81200000000001","0.12256071903730885","515"
"20:4:14:545 (H:m:s:ms)","GENERIC","124.47","0.15008745596006395","456"
"20:4:20:606 (H:m:s:ms)","GENERIC","155.584","0.158316157268911","394"
"20:4:26:666 (H:m:s:ms)","GENERIC","93.121","0.14083629709252327","333"
"20:4:32:727 (H:m:s:ms)","GENERIC","62.101","0.1266093107207151","273"
"20:4:38:787 (H:m:s:ms)","GENERIC","62.271","0.12171813491107017","212"
"20:4:44:848 (H:m:s:ms)","GENERIC","155.156","0.1452056413789701","153"
"20:4:50:909 (H:m:s:ms)","GENERIC","155.274","0.10862873307591372","1090"
"20:38:59:393 (H:m:s:ms)","GENERIC","93.05799999999999","0.11716474427733661","663"
"20:39:5:454 (H:m:s:ms)","GENERIC","155.847","0.14438448447369395","545"
"20:14:56:969 (H:m:s:ms)","GENERIC","124.394","0.14120939596295518","1030"
"20:39:11:515 (H:m:s:ms)","GENERIC","124.327","0.1523493540083533","484"
"20:15:3:30 (H:m:s:ms)","GENERIC","155.79500000000002","0.15277740336391202","969"
"20:39:17:575 (H:m:s:ms)","GENERIC","124.561","0.1579461843211038","424"
"20:15:9:90 (H:m:s:ms)","GENERIC","93.285","0.12716234313435062","960"
"20:39:23:636 (H:m:s:ms)","GENERIC","124.157","0.15399940136823576","363"
"20:15:15:151 (H:m:s:ms)","GENERIC","124.56700000000001","0.13537393491907349","848"
"20:39:29:696 (H:m:s:ms)","GENERIC","155.219","0.15274034908158557","381"
"20:15:21:212 (H:m:s:ms)","GENERIC","124.60300000000001","0.15983672452332534","788"
"20:39:35:757 (H:m:s:ms)","GENERIC","124.603","0.13561220291338327","242"
"20:15:27:272 (H:m:s:ms)","GENERIC","124.494","0.14885546241770997","727"
"20:39:41:818 (H:m:s:ms)","GENERIC","124.531","0.13169257189038303","181"
"20:15:33:333 (H:m:s:ms)","GENERIC","93.099","0.1390176489020126","666"
"20:39:47:878 (H:m:s:ms)","GENERIC","93.326","0.07986180217082246","1121"
"20:15:39:393 (H:m:s:ms)","GENERIC","124.59899999999999","0.1279810436654133","650"
"20:39:53:939 (H:m:s:ms)","GENERIC","155.209","0.14246523645917683","1061"
"20:15:45:454 (H:m:s:ms)","GENERIC","186.243","0.13305809525561296","545"
"20:15:51:515 (H:m:s:ms)","GENERIC","155.805","0.14806721997711056","484"
"20:4:56:969 (H:m:s:ms)","GENERIC","62.194","0.13122940502584043","1031"
"20:5:3:30 (H:m:s:ms)","GENERIC","155.96200000000002","0.13858890997101153","970"
"20:5:9:90 (H:m:s:ms)","GENERIC","31.032","0.13648157712581963","939"
"20:5:15:151 (H:m:s:ms)","GENERIC","155.964","0.12232392984101545","849"
"20:5:21:212 (H:m:s:ms)","GENERIC","93.547","0.14084007976786697","787"
"20:5:27:272 (H:m:s:ms)","GENERIC","62.266","0.13354597801195198","727"
"20:5:33:333 (H:m:s:ms)","GENERIC","62.065","0.12068505549270145","666"
"20:5:39:393 (H:m:s:ms)","GENERIC","93.566","0.13048974207501143","643"
"20:5:45:454 (H:m:s:ms)","GENERIC","93.13","0.14197538066636625","546"
"20:5:51:515 (H:m:s:ms)","GENERIC","124.733","0.14794942544980952","485"
"20:15:57:575 (H:m:s:ms)","GENERIC","124.53399999999999","0.14223131896564167","424"
"20:16:3:636 (H:m:s:ms)","GENERIC","124.25399999999999","0.1309341676737125","363"
"20:16:9:696 (H:m:s:ms)","GENERIC","124.506","0.1381735885756621","347"
"20:16:15:757 (H:m:s:ms)","GENERIC","155.129","0.1333823638651521","242"
"20:16:21:818 (H:m:s:ms)","GENERIC","124.277","0.13616741145164232","181"
"20:16:27:878 (H:m:s:ms)","GENERIC","93.30799999999999","0.09441328122769739","1121"
"20:16:33:939 (H:m:s:ms)","GENERIC","155.412","0.13992690257262586","1060"
"20:16:40:0 (H:m:s:ms)","GENERIC","124.32300000000001","0.1443362620181609","1043"
"20:16:46:60 (H:m:s:ms)","GENERIC","124.61","0.14954087188849668","940"
"20:16:52:121 (H:m:s:ms)","GENERIC","93.35","0.1397074295411872","878"
"20:5:57:575 (H:m:s:ms)","GENERIC","31.036","0.1396220865245634","424"
"20:6:3:636 (H:m:s:ms)","GENERIC","124.284","0.13629428097831262","363"
"20:6:9:696 (H:m:s:ms)","GENERIC","124.726","0.14511879256621954","335"
"20:6:15:757 (H:m:s:ms)","GENERIC","155.132","0.15297312365436883","243"
"20:6:21:818 (H:m:s:ms)","GENERIC","93.259","0.15699735210447222","181"
"20:6:27:878 (H:m:s:ms)","GENERIC","93.476","0.1291669408194563","121"
"20:6:33:939 (H:m:s:ms)","GENERIC","93.269","0.10621583051680228","1061"
"20:6:40:0 (H:m:s:ms)","GENERIC","124.396","0.14561252401421831","1000"
"20:6:46:60 (H:m:s:ms)","GENERIC","93.552","0.14129006689465218","939"
"20:6:52:121 (H:m:s:ms)","GENERIC","93.54","0.1429780230115159","878"
"20:16:58:181 (H:m:s:ms)","GENERIC","93.119","0.11668152939268349","818"
"20:17:4:242 (H:m:s:ms)","GENERIC","186.603","0.1324165486044067","758"
"20:17:10:303 (H:m:s:ms)","GENERIC","62.101","0.12305082349138435","696"
"20:17:16:363 (H:m:s:ms)","GENERIC","124.375","0.11148934377916896","636"
"20:17:22:424 (H:m:s:ms)","GENERIC","124.132","0.12077701369364284","575"
"20:17:28:484 (H:m:s:ms)","GENERIC","93.334","0.12655292851648065","515"
"20:17:34:545 (H:m:s:ms)","GENERIC","155.767","0.15626153905492368","454"
"20:17:40:606 (H:m:s:ms)","GENERIC","124.17500000000001","0.1505444577060946","393"
"20:17:46:666 (H:m:s:ms)","GENERIC","186.96699999999998","0.13541148767199834","333"
"20:17:52:727 (H:m:s:ms)","GENERIC","155.505","0.14688960161744094","272"
"20:6:58:181 (H:m:s:ms)","GENERIC","62.063","0.1162201307774455","818"
"20:7:4:242 (H:m:s:ms)","GENERIC","124.404","0.11285833011222685","758"
"20:7:10:303 (H:m:s:ms)","GENERIC","31.042","0.11567746972129395","697"
"20:7:16:363 (H:m:s:ms)","GENERIC","124.52099999999999","0.12991662315201374","636"
"20:7:22:424 (H:m:s:ms)","GENERIC","124.09899999999999","0.1509930550803133","575"
"20:7:28:484 (H:m:s:ms)","GENERIC","124.761","0.14075450344761056","515"
"20:7:34:545 (H:m:s:ms)","GENERIC","156.00799999999998","0.1426871648020645","455"
"20:7:40:606 (H:m:s:ms)","GENERIC","93.129","0.14135584159753745","393"
"20:7:46:666 (H:m:s:ms)","GENERIC","124.705","0.13234197234843845","333"
"20:7:52:727 (H:m:s:ms)","GENERIC","93.359","0.16200872927782325","273"
"20:17:58:787 (H:m:s:ms)","GENERIC","124.132","0.1409168344560804","212"
"20:18:4:848 (H:m:s:ms)","GENERIC","124.43100000000001","0.14417454827662604","151"
"20:18:10:909 (H:m:s:ms)","GENERIC","155.158","0.09314459830638828","1090"
"20:18:16:969 (H:m:s:ms)","GENERIC","93.164","0.12415303530391739","1030"
"20:18:23:30 (H:m:s:ms)","GENERIC","155.835","0.13045523500490547","969"
"20:18:29:90 (H:m:s:ms)","GENERIC","124.619","0.14553523392014686","951"
"20:18:35:151 (H:m:s:ms)","GENERIC","124.53200000000001","0.14312616041853257","848"
"20:18:41:212 (H:m:s:ms)","GENERIC","124.37700000000001","0.14823406978138817","788"
"20:18:47:272 (H:m:s:ms)","GENERIC","155.382","0.16033127076553164","727"
"20:18:53:333 (H:m:s:ms)","GENERIC","93.121","0.13838812751648882","666"
"20:7:58:787 (H:m:s:ms)","GENERIC","62.056","0.14966389330342647","212"
"20:8:4:848 (H:m:s:ms)","GENERIC","124.619","0.11857826237714528","152"
"20:8:10:909 (H:m:s:ms)","GENERIC","155.19400000000002","0.12568342444942304","1090"
"20:8:16:969 (H:m:s:ms)","GENERIC","62.122","0.15015710824107156","1030"
"20:8:23:30 (H:m:s:ms)","GENERIC","124.81","0.130868730373799","970"
"20:8:29:90 (H:m:s:ms)","GENERIC","93.55499999999999","0.14159586890210105","945"
"20:8:35:151 (H:m:s:ms)","GENERIC","93.485","0.13490539741630586","849"
"20:8:41:212 (H:m:s:ms)","GENERIC","124.518","0.12697145207639515","787"
"20:8:47:272 (H:m:s:ms)","GENERIC","155.475","0.13760066316724828","727"
"20:8:53:333 (H:m:s:ms)","GENERIC","62.106","0.12627077073985282","666"
"20:18:59:393 (H:m:s:ms)","GENERIC","124.148","0.13433568749714186","648"
"20:19:5:454 (H:m:s:ms)","GENERIC","155.85399999999998","0.14884787322571236","545"
"20:19:11:515 (H:m:s:ms)","GENERIC","155.481","0.150262463322017","485"
"20:19:17:575 (H:m:s:ms)","GENERIC","155.809","0.15013070106030552","424"
"20:19:23:636 (H:m:s:ms)","GENERIC","155.173","0.15314025805113965","363"
"20:19:29:696 (H:m:s:ms)","GENERIC","124.19300000000001","0.153813072187263","346"
"20:19:35:757 (H:m:s:ms)","GENERIC","93.382","0.13800362009003597","243"
"20:19:41:818 (H:m:s:ms)","GENERIC","124.565","0.13981523218178515","181"
"20:19:47:878 (H:m:s:ms)","GENERIC","124.574","0.10002484279068641","1121"
"20:19:53:939 (H:m:s:ms)","GENERIC","93.145","0.15151212606581224","1061"
"20:8:59:393 (H:m:s:ms)","GENERIC","155.214","0.11443379306617259","643"
"20:9:5:454 (H:m:s:ms)","GENERIC","124.80699999999999","0.13623579071533023","545"
"20:9:11:515 (H:m:s:ms)","GENERIC","62.171","0.13127384510535575","484"
"20:9:17:575 (H:m:s:ms)","GENERIC","156.009","0.14919886955312164","424"
"20:9:23:636 (H:m:s:ms)","GENERIC","124.132","0.14800566313037344","363"
"20:9:29:696 (H:m:s:ms)","GENERIC","93.12700000000001","0.13679185239774508","343"
"20:9:35:757 (H:m:s:ms)","GENERIC","93.59","0.13079426860967577","242"
"20:9:41:818 (H:m:s:ms)","GENERIC","124.73599999999999","0.1488688353183735","182"
"20:9:47:878 (H:m:s:ms)","GENERIC","93.558","0.16553399504764854","121"
"20:9:53:939 (H:m:s:ms)","GENERIC","124.155","0.10530067914403209","1061"
"21:41:24:848 (H:m:s:ms)","GENERIC","155.797","0.1444101866824349","151"
"21:41:18:787 (H:m:s:ms)","GENERIC","187.038","0.14682984224919246","212"
"21:41:12:727 (H:m:s:ms)","GENERIC","124.58099999999999","0.14096591657558755","272"
"21:41:6:666 (H:m:s:ms)","GENERIC","124.16","0.14990336821386213","333"
"21:41:0:606 (H:m:s:ms)","GENERIC","186.977","0.1322199948576448","393"
"21:40:54:545 (H:m:s:ms)","GENERIC","93.245","0.11380702994166961","454"
"21:40:48:484 (H:m:s:ms)","GENERIC","93.109","0.12343614808037921","515"
"21:41:43:30 (H:m:s:ms)","GENERIC","93.13","0.1543682498846328","969"
"21:41:36:969 (H:m:s:ms)","GENERIC","186.511","0.1560937695800002","1030"
"21:41:30:909 (H:m:s:ms)","GENERIC","155.449","0.10826793378980355","1091"
