"time (H:m:s:ms)","type","latency","utilisation","waiting"
"21:42:37:575 (H:m:s:ms)","GENERIC","62.075","0.03294496782322851","424"
"21:42:19:393 (H:m:s:ms)","GENERIC","62.089","0.01411534693017801","640"
"21:42:13:333 (H:m:s:ms)","GENERIC","62.031","0.014467201901937466","666"
"21:42:7:272 (H:m:s:ms)","GENERIC","62.079","0.041299250211827156","727"
"21:42:1:212 (H:m:s:ms)","GENERIC","62.025","0.04300482152333731","788"
"21:41:55:151 (H:m:s:ms)","GENERIC","62.087","0.02495308436450678","848"
"21:41:49:90 (H:m:s:ms)","GENERIC","62.099","0.02695154084529727","942"
"21:41:43:30 (H:m:s:ms)","GENERIC","62.123","0.03213881472751699","969"
"21:41:36:969 (H:m:s:ms)","GENERIC","62.193","0.02970969227262419","1030"
"21:42:31:515 (H:m:s:ms)","GENERIC","62.069","0.03233513673153199","484"
"21:42:25:454 (H:m:s:ms)","GENERIC","62.055","0.011789101950509603","545"
"21:43:44:242 (H:m:s:ms)","GENERIC","62.055","0.03404033697783144","758"
"21:43:38:181 (H:m:s:ms)","GENERIC","62.049","0.0319220593300597","818"
"21:43:26:60 (H:m:s:ms)","GENERIC","62.121","0.06528761084095466","939"
"20:0:0:0 (H:m:s:ms)","GENERIC","31.015","0.03080704585113723","2186"
"21:43:20:0 (H:m:s:ms)","GENERIC","62.059","0.04462828877176331","1036"
"20:0:6:60 (H:m:s:ms)","GENERIC","31.052","0.03243638780717253","940"
"21:43:13:939 (H:m:s:ms)","GENERIC","62.069","0.045332177796320476","1060"
"20:0:12:121 (H:m:s:ms)","GENERIC","31.025","0.024680476512061508","878"
"21:43:7:878 (H:m:s:ms)","GENERIC","62.101","0.04163331998932244","1121"
"20:0:18:181 (H:m:s:ms)","GENERIC","31.03","0.02893401834296342","819"
"21:43:1:818 (H:m:s:ms)","GENERIC","62.081","0.010933792331758936","181"
"20:0:24:242 (H:m:s:ms)","GENERIC","31.028","0.022769597971389915","759"
"21:42:55:757 (H:m:s:ms)","GENERIC","62.123","0.026430110189662147","242"
"20:0:30:303 (H:m:s:ms)","GENERIC","31.058","0.021383915598102075","697"
"21:42:49:696 (H:m:s:ms)","GENERIC","62.077","0.0394661084362871","339"
"20:0:36:363 (H:m:s:ms)","GENERIC","31.071","0.017653865534329138","636"
"21:42:43:636 (H:m:s:ms)","GENERIC","62.121","0.033066155219549115","363"
"20:0:42:424 (H:m:s:ms)","GENERIC","31.057","0.041414229199028485","576"
"21:10:6:60 (H:m:s:ms)","GENERIC","62.161","0.03789891288985736","940"
"20:0:48:484 (H:m:s:ms)","GENERIC","31.022","0.05106084863408137","516"
"21:10:12:121 (H:m:s:ms)","GENERIC","62.047","0.021596577191934283","878"
"21:10:18:181 (H:m:s:ms)","GENERIC","62.093","0.019289345561975618","818"
"21:10:24:242 (H:m:s:ms)","GENERIC","62.059","0.018285993852287435","757"
"21:10:30:303 (H:m:s:ms)","GENERIC","62.079","0.02803925555592647","696"
"21:10:36:363 (H:m:s:ms)","GENERIC","62.085","0.025597325365070568","636"
"21:10:42:424 (H:m:s:ms)","GENERIC","62.121","0.02171736756624691","575"
"21:10:48:484 (H:m:s:ms)","GENERIC","62.055","0.046488861043636795","515"
"21:43:32:121 (H:m:s:ms)","GENERIC","62.051","0.05657515250878991","878"
"21:10:54:545 (H:m:s:ms)","GENERIC","62.089","0.05178119411602921","455"
"21:11:0:606 (H:m:s:ms)","GENERIC","62.057","0.043330590003197125","393"
"21:25:41:772 (H:m:s:ms)","OPERA","62.013","0.061250176233153104","227"
"21:44:50:909 (H:m:s:ms)","GENERIC","62.097","0.011685455220183445","1090"
"21:44:44:848 (H:m:s:ms)","GENERIC","62.053","0.018169396598434313","152"
"21:44:38:787 (H:m:s:ms)","GENERIC","62.083","0.04607835525389593","212"
"21:44:32:727 (H:m:s:ms)","GENERIC","62.149","0.061598389882017844","272"
"21:44:26:666 (H:m:s:ms)","GENERIC","62.087","0.0580969227906567","333"
"21:44:20:606 (H:m:s:ms)","GENERIC","62.123","0.04207780100760503","393"
"21:44:14:545 (H:m:s:ms)","GENERIC","62.055","0.044778784226901375","455"
"21:44:8:484 (H:m:s:ms)","GENERIC","62.047","0.04659125494023093","515"
"21:44:2:424 (H:m:s:ms)","GENERIC","62.089","0.017300916615858072","575"
"21:43:56:363 (H:m:s:ms)","GENERIC","62.093","0.019167140033729182","636"
"21:11:6:666 (H:m:s:ms)","GENERIC","62.045","0.031260336737617155","333"
"21:43:50:303 (H:m:s:ms)","GENERIC","62.063","0.03287311607953583","696"
"21:11:12:727 (H:m:s:ms)","GENERIC","62.049","0.013041813611135286","272"
"21:11:18:787 (H:m:s:ms)","GENERIC","62.149","0.04246928319236255","213"
"21:11:24:848 (H:m:s:ms)","GENERIC","62.061","0.04254000967935824","152"
"21:11:30:909 (H:m:s:ms)","GENERIC","62.079","0.017586160683711834","1090"
"21:11:36:969 (H:m:s:ms)","GENERIC","62.151","0.04445228247897292","1030"
"21:11:43:30 (H:m:s:ms)","GENERIC","62.145","0.04761946290481422","969"
"21:11:49:90 (H:m:s:ms)","GENERIC","62.137","0.03190695860129005","946"
"21:11:55:151 (H:m:s:ms)","GENERIC","62.091","0.021563568181319017","848"
"21:12:1:212 (H:m:s:ms)","GENERIC","62.073","0.041409450626024163","787"
"21:26:19:746 (H:m:s:ms)","OPERA","62.011","0.04907321932178807","287"
"21:45:57:575 (H:m:s:ms)","GENERIC","62.087","0.033485437507700354","424"
"21:26:15:757 (H:m:s:ms)","GENERIC","62.109","0.04067147503579856","242"
"21:45:51:515 (H:m:s:ms)","GENERIC","62.097","0.02456566489288001","484"
"21:45:45:454 (H:m:s:ms)","GENERIC","62.051","0.021382526427968267","545"
"21:45:39:393 (H:m:s:ms)","GENERIC","62.201","0.019325248499262305","642"
"21:26:9:696 (H:m:s:ms)","GENERIC","62.117","0.04347113760534427","339"
"21:26:4:556 (H:m:s:ms)","OPERA","31.009","0.03747677349098634","444"
"21:45:33:333 (H:m:s:ms)","GENERIC","62.073","0.03567975148941581","666"
"21:26:3:636 (H:m:s:ms)","GENERIC","62.077","0.04625551828306448","363"
"21:45:27:272 (H:m:s:ms)","GENERIC","62.115","0.040969065555516306","727"
"21:25:57:575 (H:m:s:ms)","GENERIC","62.123","0.03724772782451258","424"
"21:45:21:212 (H:m:s:ms)","GENERIC","62.067","0.02976470197684087","787"
"21:25:56:962 (H:m:s:ms)","OPERA","62.013","0.021277770990740973","1037"
"21:45:15:151 (H:m:s:ms)","GENERIC","62.095","0.04257972522201556","848"
"21:25:51:515 (H:m:s:ms)","GENERIC","62.093","0.04100960751549685","484"
"21:45:9:90 (H:m:s:ms)","GENERIC","62.065","0.04446773909386227","946"
"21:12:7:272 (H:m:s:ms)","GENERIC","62.049","0.04246548883024732","727"
"21:25:49:367 (H:m:s:ms)","OPERA","62.013","0.03873378932254305","667"
"21:45:3:30 (H:m:s:ms)","GENERIC","62.103","0.024914098438503052","969"
"21:12:13:333 (H:m:s:ms)","GENERIC","62.039","0.015707881641178548","666"
"21:25:45:454 (H:m:s:ms)","GENERIC","62.057","0.06856452661138582","545"
"21:44:56:969 (H:m:s:ms)","GENERIC","62.095","0.021143862567497573","1030"
"21:12:19:393 (H:m:s:ms)","GENERIC","62.115","0.012013851704959524","643"
"21:12:25:454 (H:m:s:ms)","GENERIC","62.075","0.021230296110731326","545"
"21:12:31:515 (H:m:s:ms)","GENERIC","62.075","0.02281448144973978","484"
"21:12:37:575 (H:m:s:ms)","GENERIC","62.079","0.015683859205790126","424"
"21:12:43:636 (H:m:s:ms)","GENERIC","62.119","0.023650624142545946","363"
"21:12:49:696 (H:m:s:ms)","GENERIC","62.061","0.03212592234957482","340"
"21:12:55:757 (H:m:s:ms)","GENERIC","62.171","0.029745061327145238","242"
"21:13:1:818 (H:m:s:ms)","GENERIC","62.125","0.02399321778078239","181"
"21:26:12:151 (H:m:s:ms)","OPERA","62.015","0.030227699562909768","848"
"21:26:57:721 (H:m:s:ms)","OPERA","31.008","0.02839889327050223","278"
"21:47:4:242 (H:m:s:ms)","GENERIC","62.163","0.02916383934062963","758"
"21:26:52:121 (H:m:s:ms)","GENERIC","62.033","0.04352615492136823","878"
"21:46:58:181 (H:m:s:ms)","GENERIC","62.095","0.031775258494705916","818"
"21:26:50:126 (H:m:s:ms)","OPERA","62.013","0.03688419410749364","873"
"21:46:52:121 (H:m:s:ms)","GENERIC","62.063","0.034826698589695164","878"
"21:46:46:60 (H:m:s:ms)","GENERIC","62.145","0.031293837438410986","939"
"21:46:40:0 (H:m:s:ms)","GENERIC","62.057","0.025211081895596673","1039"
"21:26:46:60 (H:m:s:ms)","GENERIC","62.183","0.03364076540796942","939"
"21:26:42:531 (H:m:s:ms)","OPERA","31.009","0.013730475304047536","469"
"21:26:40:0 (H:m:s:ms)","GENERIC","62.087","0.04453510794740263","1033"
"21:46:33:939 (H:m:s:ms)","GENERIC","62.067","0.02678297133123651","1060"
"21:26:34:936 (H:m:s:ms)","OPERA","62.015","0.04412711954922194","1064"
"21:46:27:878 (H:m:s:ms)","GENERIC","62.107","0.010785088418327786","1121"
"21:26:33:939 (H:m:s:ms)","GENERIC","62.103","0.020555154553540112","1061"
"21:46:21:818 (H:m:s:ms)","GENERIC","62.047","0.018411091933897023","181"
"21:13:7:878 (H:m:s:ms)","GENERIC","62.067","0.04163331998932244","1121"
"21:26:27:878 (H:m:s:ms)","GENERIC","62.109","0.02599156790727139","1121"
"21:46:15:757 (H:m:s:ms)","GENERIC","62.075","0.03264284511690354","242"
"21:13:13:939 (H:m:s:ms)","GENERIC","62.049","0.042080571428153794","1061"
"21:26:27:341 (H:m:s:ms)","OPERA","62.015","0.024125556792449907","658"
"21:46:9:696 (H:m:s:ms)","GENERIC","62.115","0.03622760076820812","338"
"21:13:20:0 (H:m:s:ms)","GENERIC","62.11","0.027921511858589456","1036"
"21:26:21:818 (H:m:s:ms)","GENERIC","62.067","0.0496765168568847","181"
"21:46:3:636 (H:m:s:ms)","GENERIC","62.081","0.03706498688598812","363"
"21:13:26:60 (H:m:s:ms)","GENERIC","62.101","0.031395822056548325","939"
"21:13:32:121 (H:m:s:ms)","GENERIC","62.013","0.022662063680701436","878"
"21:13:38:181 (H:m:s:ms)","GENERIC","62.061","0.04396067922723268","818"
"21:13:44:242 (H:m:s:ms)","GENERIC","62.021","0.05771483699611026","757"
"21:13:50:303 (H:m:s:ms)","GENERIC","62.023","0.04453374294904185","696"
"21:13:56:363 (H:m:s:ms)","GENERIC","62.091","0.018885373289955414","636"
"21:14:2:424 (H:m:s:ms)","GENERIC","62.059","0.02534648909447815","575"
"21:27:34:545 (H:m:s:ms)","GENERIC","62.075","0.03800704768798851","454"
"21:48:10:909 (H:m:s:ms)","GENERIC","62.127","0.02488237635478623","1090"
"21:27:28:484 (H:m:s:ms)","GENERIC","62.091","0.03790407124973245","515"
"21:48:4:848 (H:m:s:ms)","GENERIC","62.061","0.04222239388910544","151"
"21:27:28:101 (H:m:s:ms)","OPERA","62.011","0.02896678997711311","898"
"21:47:58:787 (H:m:s:ms)","GENERIC","62.131","0.057690631668432864","212"
"21:27:22:424 (H:m:s:ms)","GENERIC","62.189","0.04507199532249557","575"
"21:47:52:727 (H:m:s:ms)","GENERIC","62.055","0.043730042137454156","272"
"21:47:46:666 (H:m:s:ms)","GENERIC","62.135","0.04469896133491759","333"
"21:47:40:606 (H:m:s:ms)","GENERIC","62.127","0.04664955121320173","393"
"21:27:20:506 (H:m:s:ms)","OPERA","62.013","0.04024016045431845","493"
"21:27:16:363 (H:m:s:ms)","GENERIC","62.089","0.04335750301824288","636"
"21:27:12:911 (H:m:s:ms)","OPERA","31.009","0.0230716809585724","1088"
"21:47:34:545 (H:m:s:ms)","GENERIC","62.081","0.02647190168274398","454"
"21:14:8:484 (H:m:s:ms)","GENERIC","62.097","0.04867796296822222","515"
"21:27:10:303 (H:m:s:ms)","GENERIC","62.081","0.0320675253916141","696"
"21:47:28:484 (H:m:s:ms)","GENERIC","62.109","0.026332453589630208","515"
"21:14:14:545 (H:m:s:ms)","GENERIC","62.093","0.043415991113929575","454"
"21:27:5:316 (H:m:s:ms)","OPERA","62.013","0.030992898839184744","683"
"21:47:22:424 (H:m:s:ms)","GENERIC","62.155","0.02501928764591902","575"
"20:52:7:272 (H:m:s:ms)","GENERIC","62.049","0.02234588273715625","727"
"21:14:20:606 (H:m:s:ms)","GENERIC","62.175","0.04231432282442272","393"
"21:27:4:242 (H:m:s:ms)","GENERIC","62.125","0.024690712284220723","758"
"21:47:16:363 (H:m:s:ms)","GENERIC","62.081","0.02184155406968767","636"
"20:52:13:333 (H:m:s:ms)","GENERIC","62.073","0.02625256753532346","666"
"21:14:26:666 (H:m:s:ms)","GENERIC","62.117","0.0496253536901432","333"
"21:26:58:181 (H:m:s:ms)","GENERIC","62.101","0.03150109547501141","818"
"21:47:10:303 (H:m:s:ms)","GENERIC","62.105","0.019461463307771588","696"
"20:52:19:393 (H:m:s:ms)","GENERIC","62.133","0.022056089910495243","646"
"21:14:32:727 (H:m:s:ms)","GENERIC","62.101","0.05086620355667338","272"
"20:52:25:454 (H:m:s:ms)","GENERIC","62.089","0.02286474795581145","545"
"21:14:38:787 (H:m:s:ms)","GENERIC","62.057","0.04473946705291554","212"
"20:52:31:515 (H:m:s:ms)","GENERIC","62.095","0.022854893604191392","484"
"21:14:44:848 (H:m:s:ms)","GENERIC","62.111","0.034405767833780604","151"
"20:52:37:575 (H:m:s:ms)","GENERIC","62.089","0.01201419060247441","424"
"21:14:50:909 (H:m:s:ms)","GENERIC","62.091","0.011748880351145316","1091"
"20:52:43:636 (H:m:s:ms)","GENERIC","62.125","0.0312816670257652","363"
"21:14:56:969 (H:m:s:ms)","GENERIC","62.109","0.013316875121302871","1030"
"20:52:49:696 (H:m:s:ms)","GENERIC","62.053","0.03492241238532801","345"
"21:15:3:30 (H:m:s:ms)","GENERIC","62.071","0.008849561569497183","969"
"20:52:55:757 (H:m:s:ms)","GENERIC","62.165","0.023501642533740607","242"
"20:53:1:818 (H:m:s:ms)","GENERIC","62.091","0.024099354215810234","181"
"21:28:10:909 (H:m:s:ms)","GENERIC","62.095","0.0477111439620521","1090"
"21:49:17:575 (H:m:s:ms)","GENERIC","62.039","0.026634844880485474","424"
"21:28:6:75 (H:m:s:ms)","OPERA","62.013","0.0457251308090815","924"
"21:49:11:515 (H:m:s:ms)","GENERIC","62.091","0.02829024443036653","484"
"21:28:4:848 (H:m:s:ms)","GENERIC","62.035","0.05127374977200972","151"
"21:49:5:454 (H:m:s:ms)","GENERIC","62.087","0.01951789970277887","545"
"21:27:58:787 (H:m:s:ms)","GENERIC","62.097","0.06234136496742141","212"
"21:48:59:393 (H:m:s:ms)","GENERIC","62.085","0.01581677140328181","640"
"21:27:58:481 (H:m:s:ms)","OPERA","62.013","0.047149006089531924","518"
"21:48:53:333 (H:m:s:ms)","GENERIC","62.039","0.022075915000171933","666"
"21:48:47:272 (H:m:s:ms)","GENERIC","62.077","0.034081875317333823","727"
"21:48:41:212 (H:m:s:ms)","GENERIC","62.087","0.03180886687490848","787"
"21:27:52:727 (H:m:s:ms)","GENERIC","62.079","0.05408190902856596","272"
"21:15:9:90 (H:m:s:ms)","GENERIC","62.035","0.026247715940382305","946"
"21:27:50:886 (H:m:s:ms)","OPERA","31.009","0.03528086343885263","114"
"21:15:15:151 (H:m:s:ms)","GENERIC","62.049","0.028099744037322485","848"
"21:27:46:666 (H:m:s:ms)","GENERIC","62.111","0.04929797026382392","333"
"21:48:35:151 (H:m:s:ms)","GENERIC","62.073","0.018757378706522505","848"
"20:53:7:878 (H:m:s:ms)","GENERIC","62.085","0.020652568837931966","1121"
"21:15:21:212 (H:m:s:ms)","GENERIC","62.085","0.04253011824174848","787"
"21:27:43:291 (H:m:s:ms)","OPERA","62.015","0.04662902785434796","708"
"21:48:29:90 (H:m:s:ms)","GENERIC","62.025","0.010960408048229366","945"
"20:53:13:939 (H:m:s:ms)","GENERIC","62.059","0.02711749479370139","1062"
"21:15:27:272 (H:m:s:ms)","GENERIC","62.089","0.0511357231221498","727"
"21:27:40:606 (H:m:s:ms)","GENERIC","62.101","0.03824259794260643","394"
"21:48:23:30 (H:m:s:ms)","GENERIC","62.053","0.011959985681816476","969"
"20:53:20:0 (H:m:s:ms)","GENERIC","62.111","0.032494160347000985","1040"
"21:15:33:333 (H:m:s:ms)","GENERIC","62.045","0.03183689293051211","667"
"21:27:35:696 (H:m:s:ms)","OPERA","62.015","0.03103604263385158","304"
"21:48:16:969 (H:m:s:ms)","GENERIC","62.061","0.026901863691224073","1030"
"20:53:26:60 (H:m:s:ms)","GENERIC","62.119","0.03174394545529645","939"
"21:15:39:393 (H:m:s:ms)","GENERIC","62.171","0.019223760051240393","642"
"20:53:32:121 (H:m:s:ms)","GENERIC","62.035","0.01822511676710792","878"
"21:15:45:454 (H:m:s:ms)","GENERIC","62.043","0.020521894559375784","545"
"20:53:38:181 (H:m:s:ms)","GENERIC","62.075","0.04167492490383527","818"
"21:15:51:515 (H:m:s:ms)","GENERIC","62.077","0.02305622856487157","484"
"20:53:44:242 (H:m:s:ms)","GENERIC","62.053","0.04901809161902129","757"
"21:15:57:575 (H:m:s:ms)","GENERIC","62.147","0.02921137920147979","424"
"20:53:50:303 (H:m:s:ms)","GENERIC","62.049","0.03348002751808289","696"
"21:16:3:636 (H:m:s:ms)","GENERIC","62.083","0.030073438905689077","363"
"20:53:56:363 (H:m:s:ms)","GENERIC","62.085","0.022077080683650233","636"
"20:54:2:424 (H:m:s:ms)","GENERIC","62.057","0.02655056679590883","575"
"21:28:47:272 (H:m:s:ms)","GENERIC","62.093","0.04848615343121684","727"
"21:28:44:50 (H:m:s:ms)","OPERA","62.015","0.044058333483522776","950"
"22:7:22:105 (H:m:s:ms)","AMBULANCE","62.085","0.02741710494544482","894"
"21:28:41:212 (H:m:s:ms)","GENERIC","62.091","0.050697228512752095","787"
"22:2:37:894 (H:m:s:ms)","AMBULANCE","62.105","0.03227486121839512","1106"
"21:28:36:455 (H:m:s:ms)","OPERA","62.015","0.03002389511531054","544"
"22:1:3:157 (H:m:s:ms)","AMBULANCE","62.095","0.010805973400004883","842"
"21:28:35:151 (H:m:s:ms)","GENERIC","62.067","0.02616728221257465","848"
"21:50:0:0 (H:m:s:ms)","GENERIC","62.117","0.027935171337040265","1036"
"21:28:29:90 (H:m:s:ms)","GENERIC","62.047","0.032909317134291544","943"
"21:49:53:939 (H:m:s:ms)","GENERIC","62.109","0.027899993628025428","1060"
"21:49:47:878 (H:m:s:ms)","GENERIC","62.073","0.005260158822063556","1121"
"21:49:41:818 (H:m:s:ms)","GENERIC","62.053","0.027543560620731555","181"
"21:16:9:696 (H:m:s:ms)","GENERIC","62.097","0.04651230878035469","339"
"21:16:15:757 (H:m:s:ms)","GENERIC","62.101","0.05798576167408067","242"
"21:28:28:860 (H:m:s:ms)","OPERA","62.013","0.021698394711518004","139"
"20:54:8:484 (H:m:s:ms)","GENERIC","62.125","0.037995898038183526","515"
"21:16:21:818 (H:m:s:ms)","GENERIC","62.077","0.044749581465291295","181"
"21:28:23:30 (H:m:s:ms)","GENERIC","62.085","0.020898911077417103","969"
"20:54:14:545 (H:m:s:ms)","GENERIC","62.111","0.03551422389438467","454"
"21:16:27:878 (H:m:s:ms)","GENERIC","62.105","0.01477697359128988","1121"
"21:28:21:265 (H:m:s:ms)","OPERA","31.009","0.020014021076066677","734"
"21:49:35:757 (H:m:s:ms)","GENERIC","62.061","0.04815134673956846","243"
"20:54:20:606 (H:m:s:ms)","GENERIC","62.169","0.04564973385472424","393"
"21:16:33:939 (H:m:s:ms)","GENERIC","62.101","0.02209610696430824","1060"
"21:28:16:969 (H:m:s:ms)","GENERIC","62.073","0.034282921919720814","1030"
"21:49:29:696 (H:m:s:ms)","GENERIC","62.121","0.041392085320578594","338"
"20:54:26:666 (H:m:s:ms)","GENERIC","62.113","0.04927313787653258","333"
"21:16:40:0 (H:m:s:ms)","GENERIC","62.081","0.020163063529893038","1036"
"21:28:13:670 (H:m:s:ms)","OPERA","62.013","0.03385485512453007","329"
"21:49:23:636 (H:m:s:ms)","GENERIC","62.053","0.012281337867134434","363"
"20:54:32:727 (H:m:s:ms)","GENERIC","62.075","0.04956681870301739","272"
"21:16:46:60 (H:m:s:ms)","GENERIC","62.191","0.016094479929097315","939"
"20:54:38:787 (H:m:s:ms)","GENERIC","62.073","0.04241991763160031","213"
"21:16:52:121 (H:m:s:ms)","GENERIC","62.035","0.021310083773730993","878"
"20:54:44:848 (H:m:s:ms)","GENERIC","62.077","0.015823194160234515","151"
"21:16:58:181 (H:m:s:ms)","GENERIC","62.095","0.03271285275838189","818"
"20:54:50:909 (H:m:s:ms)","GENERIC","62.071","0.011685455220183445","1090"
"21:17:4:242 (H:m:s:ms)","GENERIC","62.109","0.034057030528952634","757"
"20:54:56:969 (H:m:s:ms)","GENERIC","62.115","0.02106805157555873","1030"
"20:55:3:30 (H:m:s:ms)","GENERIC","62.051","0.018621932403247173","969"
"21:29:29:620 (H:m:s:ms)","OPERA","62.015","0.027042135629238722","415"
"21:29:23:636 (H:m:s:ms)","GENERIC","62.017","0.023599636497794695","363"
"21:29:17:575 (H:m:s:ms)","GENERIC","62.061","0.04824562192595765","424"
"21:29:14:430 (H:m:s:ms)","OPERA","62.013","0.04571938984550595","569"
"21:29:11:515 (H:m:s:ms)","GENERIC","62.071","0.06124031669102077","484"
"21:29:6:835 (H:m:s:ms)","OPERA","62.015","0.04574448199811691","164"
"21:29:5:454 (H:m:s:ms)","GENERIC","62.071","0.039823789419537105","546"
"21:17:10:303 (H:m:s:ms)","GENERIC","62.085","0.026223637504741482","696"
"21:17:16:363 (H:m:s:ms)","GENERIC","62.107","0.028036252531666583","636"
"20:55:9:90 (H:m:s:ms)","GENERIC","62.055","0.04133347550302187","950"
"21:17:22:424 (H:m:s:ms)","GENERIC","62.177","0.023844473055048724","575"
"20:55:15:151 (H:m:s:ms)","GENERIC","62.017","0.04248681954859832","848"
"21:17:28:484 (H:m:s:ms)","GENERIC","62.085","0.025534448201071074","515"
"21:28:59:393 (H:m:s:ms)","GENERIC","62.089","0.033416865659093374","641"
"20:55:21:212 (H:m:s:ms)","GENERIC","62.109","0.018069142969480777","787"
"21:17:34:545 (H:m:s:ms)","GENERIC","62.067","0.04768835015280535","454"
"21:28:59:240 (H:m:s:ms)","OPERA","31.009","0.028450301403799113","793"
"20:55:27:272 (H:m:s:ms)","GENERIC","62.065","0.018018559688107855","727"
"21:17:40:606 (H:m:s:ms)","GENERIC","62.097","0.04664955121320174","393"
"21:28:53:333 (H:m:s:ms)","GENERIC","62.063","0.03496385055319474","666"
"20:55:33:333 (H:m:s:ms)","GENERIC","62.073","0.022504422151026604","666"
"21:17:46:666 (H:m:s:ms)","GENERIC","62.095","0.031981669107564635","333"
"21:28:51:645 (H:m:s:ms)","OPERA","62.015","0.030915864631143326","354"
"20:55:39:393 (H:m:s:ms)","GENERIC","62.135","0.020259906818097","648"
"21:17:52:727 (H:m:s:ms)","GENERIC","62.065","0.046985307779743204","272"
"20:55:45:454 (H:m:s:ms)","GENERIC","62.041","0.03140547955868965","545"
"21:17:58:787 (H:m:s:ms)","GENERIC","62.083","0.05797161327380279","212"
"20:55:51:515 (H:m:s:ms)","GENERIC","62.083","0.03693099518175627","484"
"21:18:4:848 (H:m:s:ms)","GENERIC","62.043","0.051084899306403635","151"
"20:55:57:575 (H:m:s:ms)","GENERIC","62.167","0.03687032409823004","425"
"20:56:3:636 (H:m:s:ms)","GENERIC","62.103","0.037534646938619416","363"
"21:30:0:0 (H:m:s:ms)","GENERIC","62.071","0.04460605974451758","1035"
"21:30:0:0 (H:m:s:ms)","AMBULANCE","62.069","0.039747917636041505","1035"
"21:30:0:0 (H:m:s:ms)","OPERA","62.015","0.024559776425829783","1035"
"21:29:53:939 (H:m:s:ms)","GENERIC","62.129","0.043475192289367685","1060"
"21:29:52:405 (H:m:s:ms)","OPERA","62.011","0.041326855250496126","595"
"21:29:47:878 (H:m:s:ms)","GENERIC","62.059","0.04151735814626319","1121"
"21:29:44:810 (H:m:s:ms)","OPERA","62.015","0.042265743143197664","190"
"21:29:41:818 (H:m:s:ms)","GENERIC","62.049","0.030646111237465752","181"
"21:18:10:909 (H:m:s:ms)","GENERIC","62.085","0.02453825279721717","1091"
"21:18:16:969 (H:m:s:ms)","GENERIC","62.089","0.02896125554597648","1030"
"20:56:9:696 (H:m:s:ms)","GENERIC","62.071","0.036620851368333145","343"
"21:18:23:30 (H:m:s:ms)","GENERIC","62.097","0.016604191398289433","969"
"20:56:15:757 (H:m:s:ms)","GENERIC","62.087","0.03259063616688367","242"
"21:18:29:90 (H:m:s:ms)","GENERIC","62.037","0.010960408048229366","945"
"20:40:0:0 (H:m:s:ms)","OPERA","31.008","0.02710827569801515","2260"
"20:56:21:818 (H:m:s:ms)","GENERIC","62.069","0.02226257980028222","181"
"21:18:35:151 (H:m:s:ms)","GENERIC","62.071","0.018757378706522505","848"
"20:40:0:0 (H:m:s:ms)","GENERIC","62.025","0.03390323709601755","2260"
"20:56:27:878 (H:m:s:ms)","GENERIC","62.093","0.017923158397835235","1121"
"21:18:41:212 (H:m:s:ms)","GENERIC","62.109","0.021528909041780283","787"
"21:29:37:215 (H:m:s:ms)","OPERA","62.013","0.028935974188412032","784"
"20:40:0:0 (H:m:s:ms)","GENERIC","62.115","0.034372606830971986","2260"
"20:56:33:939 (H:m:s:ms)","GENERIC","62.083","0.024311589969419154","1060"
"21:18:47:272 (H:m:s:ms)","GENERIC","62.079","0.024771650782213297","727"
"21:29:35:757 (H:m:s:ms)","GENERIC","62.075","0.0320006892140747","242"
"20:40:6:60 (H:m:s:ms)","GENERIC","62.103","0.035045895652667414","940"
"20:56:40:0 (H:m:s:ms)","GENERIC","62.047","0.023999585704884138","1041"
"21:18:53:333 (H:m:s:ms)","GENERIC","62.041","0.022128094810226175","666"
"21:29:29:696 (H:m:s:ms)","GENERIC","62.109","0.0303031957811331","339"
"20:40:7:594 (H:m:s:ms)","OPERA","31.009","0.024737156082708323","405"
"20:56:46:60 (H:m:s:ms)","GENERIC","62.177","0.03525129080481771","939"
"21:18:59:393 (H:m:s:ms)","GENERIC","62.099","0.010470982867782612","642"
"20:40:12:121 (H:m:s:ms)","GENERIC","62.037","0.028352763109874717","879"
"20:56:52:121 (H:m:s:ms)","GENERIC","62.045","0.03473716584368373","878"
"21:19:5:454 (H:m:s:ms)","GENERIC","62.069","0.015440282608693614","545"
"20:40:15:189 (H:m:s:ms)","OPERA","31.009","0.043195666715988394","810"
"20:56:58:181 (H:m:s:ms)","GENERIC","62.067","0.02132234431168171","818"
"20:40:18:181 (H:m:s:ms)","GENERIC","62.029","0.046569276526335995","818"
"20:57:4:242 (H:m:s:ms)","GENERIC","62.083","0.034255978649899925","757"
"20:40:22:784 (H:m:s:ms)","OPERA","31.008","0.026935401473032226","215"
"20:40:24:242 (H:m:s:ms)","GENERIC","62.071","0.030180651930495583","758"
"21:30:12:121 (H:m:s:ms)","GENERIC","62.069","0.023660878518151535","878"
"21:31:0:606 (H:m:s:ms)","GENERIC","62.049","0.03230286967289941","394"
"21:30:54:545 (H:m:s:ms)","GENERIC","62.075","0.03788763209925619","455"
"21:30:48:484 (H:m:s:ms)","GENERIC","62.073","0.030232453905348344","515"
"21:30:42:424 (H:m:s:ms)","GENERIC","62.143","0.026958207055336005","575"
"21:30:36:363 (H:m:s:ms)","GENERIC","62.093","0.02413490674543781","636"
"21:30:30:303 (H:m:s:ms)","GENERIC","62.117","0.031820603101353206","696"
"21:30:24:242 (H:m:s:ms)","GENERIC","62.039","0.02834837131750045","757"
"21:19:11:515 (H:m:s:ms)","GENERIC","62.079","0.043212798982811614","485"
"21:30:18:181 (H:m:s:ms)","GENERIC","62.057","0.022747821326438992","818"
"21:19:17:575 (H:m:s:ms)","GENERIC","62.043","0.04215211026281394","425"
"20:57:10:303 (H:m:s:ms)","GENERIC","62.113","0.03549650053898538","696"
"21:19:23:636 (H:m:s:ms)","GENERIC","62.023","0.015889428043865318","363"
"20:57:16:363 (H:m:s:ms)","GENERIC","62.123","0.02193414634017001","636"
"21:19:29:696 (H:m:s:ms)","GENERIC","62.101","0.01815706657492874","337"
"20:40:30:303 (H:m:s:ms)","GENERIC","62.093","0.021459386772955596","696"
"20:57:22:424 (H:m:s:ms)","GENERIC","62.141","0.02501928764591902","575"
"21:19:35:757 (H:m:s:ms)","GENERIC","62.093","0.04302147638292654","242"
"20:40:30:379 (H:m:s:ms)","OPERA","31.008","0.02984617259173817","620"
"20:57:28:484 (H:m:s:ms)","GENERIC","62.065","0.02204016255252445","516"
"21:19:41:818 (H:m:s:ms)","GENERIC","62.047","0.04117708440718772","181"
"20:40:36:363 (H:m:s:ms)","GENERIC","62.121","0.029044911813394192","637"
"20:57:34:545 (H:m:s:ms)","GENERIC","62.055","0.04173774542896343","454"
"21:19:47:878 (H:m:s:ms)","GENERIC","62.065","0.006378879538497831","1121"
"20:40:37:974 (H:m:s:ms)","OPERA","31.008","0.022588857032712704","1025"
"20:57:40:606 (H:m:s:ms)","GENERIC","62.099","0.04664955121320174","393"
"21:19:53:939 (H:m:s:ms)","GENERIC","62.141","0.028131370090265433","1061"
"21:30:6:60 (H:m:s:ms)","GENERIC","62.121","0.043979281907211926","939"
"20:40:42:424 (H:m:s:ms)","GENERIC","62.073","0.030461521623833778","575"
"20:57:46:666 (H:m:s:ms)","GENERIC","62.091","0.05081236976723093","333"
"21:20:0:0 (H:m:s:ms)","OPERA","62.013","0.04918126534530535","2242"
"21:30:0:0 (H:m:s:ms)","GENERIC","62.127","0.04487395871176701","1035"
"20:40:45:569 (H:m:s:ms)","OPERA","31.009","0.045830148403232976","430"
"20:57:52:727 (H:m:s:ms)","GENERIC","62.033","0.06116790817768446","272"
"21:20:0:0 (H:m:s:ms)","GENERIC","62.065","0.05782387970042982","2242"
"20:40:48:484 (H:m:s:ms)","GENERIC","62.039","0.06140625208676333","515"
"20:57:58:787 (H:m:s:ms)","GENERIC","62.107","0.04592327857341728","212"
"20:40:53:164 (H:m:s:ms)","OPERA","31.009","0.05788439199454595","835"
"20:58:4:848 (H:m:s:ms)","GENERIC","62.061","0.029393279864528117","152"
"20:40:54:545 (H:m:s:ms)","GENERIC","62.125","0.05875711296653465","454"
"20:41:0:606 (H:m:s:ms)","GENERIC","62.087","0.014544263122387257","393"
"21:31:12:727 (H:m:s:ms)","GENERIC","62.063","0.023940797897207218","273"
"21:31:6:666 (H:m:s:ms)","GENERIC","62.055","0.0226408006071616","333"
"21:31:55:151 (H:m:s:ms)","GENERIC","62.099","0.021734224846108697","848"
"21:31:49:90 (H:m:s:ms)","GENERIC","62.113","0.03202042364373476","944"
"21:31:43:30 (H:m:s:ms)","GENERIC","62.129","0.047682281622309815","970"
"21:31:36:969 (H:m:s:ms)","GENERIC","62.191","0.04413206842652012","1030"
"21:31:34:736 (H:m:s:ms)","AMBULANCE","62.085","0.016627023741127782","264"
"21:31:30:909 (H:m:s:ms)","GENERIC","62.057","0.011798517719715618","1090"
"21:31:24:848 (H:m:s:ms)","GENERIC","62.055","0.01798278967602609","151"
"21:31:18:787 (H:m:s:ms)","GENERIC","62.133","0.024703754451244262","212"
"20:58:10:909 (H:m:s:ms)","GENERIC","62.093","0.02453825279721717","1090"
"20:58:16:969 (H:m:s:ms)","GENERIC","62.091","0.028888005155320053","1030"
"20:41:0:759 (H:m:s:ms)","OPERA","31.009","0.0250474046149413","240"
"20:58:23:30 (H:m:s:ms)","GENERIC","62.075","0.019249668790543687","969"
"20:41:6:666 (H:m:s:ms)","GENERIC","62.045","0.02366976239494545","333"
"20:58:29:90 (H:m:s:ms)","GENERIC","62.031","0.015502752688234929","949"
"20:41:8:354 (H:m:s:ms)","OPERA","31.008","0.01752587095110587","645"
"20:58:35:151 (H:m:s:ms)","GENERIC","62.077","0.013286550240021384","848"
"20:41:12:727 (H:m:s:ms)","GENERIC","62.023","0.027568839676617437","273"
"20:58:41:212 (H:m:s:ms)","GENERIC","62.127","0.04169517136756079","787"
"20:41:15:949 (H:m:s:ms)","OPERA","31.009","0.039694523541566606","1050"
"20:58:47:272 (H:m:s:ms)","GENERIC","62.065","0.050992536768641794","727"
"20:41:18:787 (H:m:s:ms)","GENERIC","62.109","0.04192868584812458","212"
"20:58:53:333 (H:m:s:ms)","GENERIC","62.035","0.03472678652027261","666"
"21:31:3:157 (H:m:s:ms)","AMBULANCE","62.119","0.019142630712738546","842"
"20:41:23:544 (H:m:s:ms)","OPERA","31.009","0.02176435075007726","455"
"20:58:59:393 (H:m:s:ms)","GENERIC","62.105","0.018658227174550693","652"
"20:41:24:848 (H:m:s:ms)","GENERIC","62.081","0.024772639266562133","152"
"20:59:5:454 (H:m:s:ms)","GENERIC","62.077","0.028662840796699656","545"
"20:41:30:909 (H:m:s:ms)","GENERIC","62.097","0.017697776579573565","1091"
"20:41:31:139 (H:m:s:ms)","OPERA","31.007","0.024077050252055802","861"
"20:59:11:515 (H:m:s:ms)","GENERIC","62.125","0.03405755995514895","484"
"20:59:17:575 (H:m:s:ms)","GENERIC","62.023","0.025746828241498522","424"
"20:41:36:969 (H:m:s:ms)","GENERIC","62.117","0.02762350682951146","1031"
"20:59:23:636 (H:m:s:ms)","GENERIC","62.019","0.023599636497794695","363"
"20:41:38:734 (H:m:s:ms)","OPERA","31.008","0.02129212640282066","265"
"20:59:29:696 (H:m:s:ms)","GENERIC","62.105","0.022343147131082382","344"
"20:41:43:30 (H:m:s:ms)","GENERIC","62.121","0.03580213228676027","970"
"20:59:35:757 (H:m:s:ms)","GENERIC","62.135","0.024604045038810994","242"
"20:41:46:329 (H:m:s:ms)","OPERA","31.008","0.03345793786004523","670"
"20:59:41:818 (H:m:s:ms)","GENERIC","62.057","0.02566097616597655","181"
"20:41:49:90 (H:m:s:ms)","GENERIC","62.089","0.03995559516559034","944"
"20:59:47:878 (H:m:s:ms)","GENERIC","62.103","0.006378879538497831","1121"
"20:41:53:924 (H:m:s:ms)","OPERA","31.009","0.030082989108026127","1076"
"20:59:53:939 (H:m:s:ms)","GENERIC","62.133","0.028023473414568126","1060"
"20:41:55:151 (H:m:s:ms)","GENERIC","62.063","0.0330266439519319","848"
"21:0:0:0 (H:m:s:ms)","AMBULANCE","31.029","0.03968534255051594","2273"
"20:42:1:212 (H:m:s:ms)","GENERIC","62.101","0.01951004590341867","787"
"21:0:0:0 (H:m:s:ms)","GENERIC","62.053","0.0500378467493167","2273"
"20:42:1:518 (H:m:s:ms)","OPERA","31.008","0.04525166889027154","481"
"20:42:7:272 (H:m:s:ms)","GENERIC","62.043","0.0435966819842639","728"
"21:0:0:0 (H:m:s:ms)","GENERIC","62.131","0.05030368468038041","2273"
"21:0:6:60 (H:m:s:ms)","GENERIC","62.135","0.04502994331693166","940"
"20:42:9:113 (H:m:s:ms)","OPERA","31.009","0.018122848967770912","922"
"21:0:12:121 (H:m:s:ms)","GENERIC","62.037","0.02723140023823571","878"
"20:42:13:333 (H:m:s:ms)","GENERIC","62.057","0.026609731398177683","666"
"21:0:18:181 (H:m:s:ms)","GENERIC","62.067","0.025355958227573746","818"
"20:20:0:0 (H:m:s:ms)","GENERIC","62.041","0.03404502103970005","2222"
"20:42:16:708 (H:m:s:ms)","OPERA","31.008","0.023059108616449647","291"
"21:0:24:242 (H:m:s:ms)","GENERIC","62.071","0.018026117785962793","758"
"20:20:0:0 (H:m:s:ms)","GENERIC","62.107","0.03550860980707578","2222"
"20:42:19:393 (H:m:s:ms)","GENERIC","62.129","0.02764760483368703","642"
"21:0:30:303 (H:m:s:ms)","GENERIC","62.099","0.015948446791655486","697"
"20:20:6:60 (H:m:s:ms)","GENERIC","62.109","0.023447597728597076","939"
"20:42:24:303 (H:m:s:ms)","OPERA","31.009","0.026408577262503348","696"
"21:0:31:578 (H:m:s:ms)","AMBULANCE","31.022","0.010324137901779815","421"
"20:20:12:121 (H:m:s:ms)","GENERIC","62.029","0.010744099219500813","878"
"20:42:25:454 (H:m:s:ms)","GENERIC","62.077","0.04040575564557378","545"
"21:0:36:363 (H:m:s:ms)","GENERIC","62.089","0.020773646449080658","636"
"20:20:18:181 (H:m:s:ms)","GENERIC","62.029","0.011486751156790142","818"
"20:42:31:515 (H:m:s:ms)","GENERIC","62.091","0.04326240237570921","484"
"21:0:42:424 (H:m:s:ms)","GENERIC","62.103","0.044606853417655815","575"
"20:20:24:242 (H:m:s:ms)","GENERIC","62.041","0.028105367254219134","758"
"20:42:31:898 (H:m:s:ms)","OPERA","31.007","0.05940929736878883","101"
"21:0:48:484 (H:m:s:ms)","GENERIC","62.069","0.04648886104363661","516"
"20:20:30:303 (H:m:s:ms)","GENERIC","62.079","0.028481473876951095","696"
"20:42:37:575 (H:m:s:ms)","GENERIC","62.089","0.05230821869605157","424"
"20:20:36:363 (H:m:s:ms)","GENERIC","62.153","0.015809803315230447","637"
"20:42:39:493 (H:m:s:ms)","OPERA","31.008","0.042462176610302306","543"
"20:20:42:424 (H:m:s:ms)","GENERIC","62.077","0.024466139676126916","575"
"20:20:48:484 (H:m:s:ms)","GENERIC","62.025","0.03681514769417657","515"
"21:0:54:545 (H:m:s:ms)","GENERIC","62.091","0.024546126337009082","454"
"21:1:0:606 (H:m:s:ms)","GENERIC","62.059","0.03234087901638544","393"
"20:42:43:636 (H:m:s:ms)","GENERIC","62.119","0.05226745047111427","363"
"21:1:3:157 (H:m:s:ms)","AMBULANCE","31.059","0.0315644633929941","842"
"20:42:49:696 (H:m:s:ms)","GENERIC","62.049","0.04001494925755079","338"
"21:1:6:666 (H:m:s:ms)","GENERIC","62.045","0.03215987799016912","333"
"20:20:54:545 (H:m:s:ms)","GENERIC","62.145","0.03235754068933726","455"
"20:42:54:683 (H:m:s:ms)","OPERA","31.008","0.03053241537853132","316"
"21:1:12:727 (H:m:s:ms)","GENERIC","62.033","0.011173019669258278","272"
"20:21:0:606 (H:m:s:ms)","GENERIC","62.081","0.032331331137037116","393"
"20:42:55:757 (H:m:s:ms)","GENERIC","62.147","0.03479700661873625","242"
"21:1:18:787 (H:m:s:ms)","GENERIC","62.139","0.028756304526720202","212"
"20:21:6:666 (H:m:s:ms)","GENERIC","62.057","0.032848876156499354","333"
"20:43:1:818 (H:m:s:ms)","GENERIC","62.077","0.024252083823820242","181"
"21:1:24:848 (H:m:s:ms)","GENERIC","62.047","0.027858817751832327","151"
"20:21:12:727 (H:m:s:ms)","GENERIC","62.029","0.020352651667576802","273"
"20:43:2:278 (H:m:s:ms)","OPERA","31.009","0.04439173677607706","721"
"21:1:30:909 (H:m:s:ms)","GENERIC","62.081","0.006096245078399762","1090"
"20:21:18:787 (H:m:s:ms)","GENERIC","62.097","0.04402890496656511","212"
"20:43:7:878 (H:m:s:ms)","GENERIC","62.069","0.045631038370710766","1121"
"21:1:34:736 (H:m:s:ms)","AMBULANCE","31.023","0.008547445998739365","264"
"20:21:24:848 (H:m:s:ms)","GENERIC","62.053","0.044412920774724314","152"
"20:43:9:873 (H:m:s:ms)","OPERA","31.008","0.028998435276710467","162"
"21:1:36:969 (H:m:s:ms)","GENERIC","62.139","0.041802220022301634","1030"
"20:21:30:909 (H:m:s:ms)","GENERIC","62.091","0.017586160683711834","1090"
"20:43:13:939 (H:m:s:ms)","GENERIC","62.077","0.02963794429094802","1061"
"20:21:36:969 (H:m:s:ms)","GENERIC","62.089","0.044411329825202725","1030"
"20:43:17:468 (H:m:s:ms)","OPERA","31.009","0.0213772872642999","531"
"20:21:43:30 (H:m:s:ms)","GENERIC","62.147","0.052745688417208995","969"
"20:21:49:90 (H:m:s:ms)","GENERIC","62.101","0.0393032737778338","945"
"20:43:20:0 (H:m:s:ms)","GENERIC","62.111","0.03458407548317278","1036"
"20:43:25:63 (H:m:s:ms)","OPERA","31.008","0.03177142793244619","936"
"20:21:55:151 (H:m:s:ms)","GENERIC","62.051","0.029065835944552115","848"
"20:43:26:60 (H:m:s:ms)","GENERIC","62.133","0.03538171275160373","939"
"20:22:1:212 (H:m:s:ms)","GENERIC","62.081","0.024649103664446434","787"
"20:43:32:121 (H:m:s:ms)","GENERIC","62.047","0.030557356394539305","878"
"20:22:7:272 (H:m:s:ms)","GENERIC","62.021","0.01814020302692983","728"
"20:43:32:658 (H:m:s:ms)","OPERA","31.008","0.02587303567155476","341"
"20:22:13:333 (H:m:s:ms)","GENERIC","62.011","0.017631951556393893","666"
"20:43:38:181 (H:m:s:ms)","GENERIC","62.063","0.03320809614661363","818"
"20:22:19:393 (H:m:s:ms)","GENERIC","62.145","0.02010256004054847","641"
"20:43:40:253 (H:m:s:ms)","OPERA","31.008","0.04560972702338125","746"
"20:22:25:454 (H:m:s:ms)","GENERIC","62.057","0.02550419845435937","545"
"20:43:44:242 (H:m:s:ms)","GENERIC","62.055","0.061130555689997826","758"
"20:22:31:515 (H:m:s:ms)","GENERIC","62.065","0.02886082535264376","484"
"20:43:47:848 (H:m:s:ms)","OPERA","31.007","0.045160852265808966","151"
"20:22:37:575 (H:m:s:ms)","GENERIC","62.103","0.02380464213289471","424"
"20:43:50:303 (H:m:s:ms)","GENERIC","62.067","0.04870844307581736","696"
"20:22:43:636 (H:m:s:ms)","GENERIC","62.105","0.033066155219549115","363"
"20:22:49:696 (H:m:s:ms)","GENERIC","62.043","0.035718804460111754","339"
"20:43:55:443 (H:m:s:ms)","OPERA","31.008","0.029633752201850317","556"
"20:43:56:363 (H:m:s:ms)","GENERIC","62.083","0.03141765489879858","636"
"20:22:55:757 (H:m:s:ms)","GENERIC","62.109","0.020887165678426516","242"
"20:44:2:424 (H:m:s:ms)","GENERIC","62.057","0.019434639732068527","575"
"20:23:1:818 (H:m:s:ms)","GENERIC","62.045","0.015498130031465539","181"
"20:44:3:37 (H:m:s:ms)","OPERA","31.009","0.026260418395414625","962"
"20:23:7:878 (H:m:s:ms)","GENERIC","62.071","0.02094889056201039","1121"
"20:44:8:484 (H:m:s:ms)","GENERIC","62.131","0.031243025908454593","515"
"20:23:13:939 (H:m:s:ms)","GENERIC","62.101","0.021843669236572553","1061"
"20:44:10:632 (H:m:s:ms)","OPERA","31.008","0.04428207582471711","367"
"20:23:20:0 (H:m:s:ms)","GENERIC","62.085","0.015064382625037858","1036"
"20:44:14:545 (H:m:s:ms)","GENERIC","62.109","0.0454585518990782","455"
"20:23:26:60 (H:m:s:ms)","GENERIC","62.149","0.03193068615073013","939"
"20:44:18:227 (H:m:s:ms)","OPERA","31.008","0.04220278018699813","773"
"20:23:32:121 (H:m:s:ms)","GENERIC","62.031","0.03315454355005997","878"
"20:44:20:606 (H:m:s:ms)","GENERIC","62.151","0.050136863528176576","393"
"20:23:38:181 (H:m:s:ms)","GENERIC","62.037","0.026216974506863677","818"
"20:44:25:822 (H:m:s:ms)","OPERA","31.009","0.032074246776790175","177"
"20:23:44:242 (H:m:s:ms)","GENERIC","62.061","0.03413299097063171","757"
"20:23:50:303 (H:m:s:ms)","GENERIC","62.047","0.03407717564437867","696"
"20:44:26:666 (H:m:s:ms)","GENERIC","62.109","0.05202864993191481","333"
"20:44:32:727 (H:m:s:ms)","GENERIC","62.065","0.05016809876837905","272"
"20:23:56:363 (H:m:s:ms)","GENERIC","62.117","0.022848877923837066","636"
"20:44:33:417 (H:m:s:ms)","OPERA","31.008","0.05001968124413949","582"
"20:24:2:424 (H:m:s:ms)","GENERIC","62.081","0.026639542448781327","575"
"20:44:38:787 (H:m:s:ms)","GENERIC","62.065","0.0535380452075291","212"
"20:24:8:484 (H:m:s:ms)","GENERIC","62.111","0.028557317194294454","515"
"20:44:41:12 (H:m:s:ms)","OPERA","31.009","0.03862912696063048","987"
"20:24:14:545 (H:m:s:ms)","GENERIC","62.125","0.025142281816840036","455"
"20:44:44:848 (H:m:s:ms)","GENERIC","62.071","0.04478419222762675","152"
"20:24:20:606 (H:m:s:ms)","GENERIC","62.117","0.024697653648524432","393"
"20:44:48:607 (H:m:s:ms)","OPERA","31.009","0.046760052268425306","392"
"20:24:26:666 (H:m:s:ms)","GENERIC","62.095","0.01992482280014347","333"
"20:44:50:909 (H:m:s:ms)","GENERIC","62.065","0.0444345827702806","1090"
"20:24:32:727 (H:m:s:ms)","GENERIC","62.107","0.05946897440835619","272"
"20:44:56:202 (H:m:s:ms)","OPERA","31.008","0.026959619088579686","797"
"20:24:38:787 (H:m:s:ms)","GENERIC","62.101","0.058072528081357794","213"
"20:44:56:969 (H:m:s:ms)","GENERIC","62.117","0.03215925112649829","1030"
"20:24:44:848 (H:m:s:ms)","GENERIC","62.075","0.018169396598434313","152"
"20:24:50:909 (H:m:s:ms)","GENERIC","62.087","0.011748880351145316","1090"
"20:45:3:30 (H:m:s:ms)","GENERIC","62.037","0.024829096259483173","969"
"20:45:3:797 (H:m:s:ms)","OPERA","31.009","0.03135419947674747","202"
"20:24:56:969 (H:m:s:ms)","GENERIC","62.115","0.021103117904322656","1030"
"20:45:9:90 (H:m:s:ms)","GENERIC","62.065","0.03020414790326974","947"
"20:25:3:30 (H:m:s:ms)","GENERIC","62.043","0.018507843731164108","969"
"20:45:11:392 (H:m:s:ms)","OPERA","31.008","0.027915221652138222","607"
"20:25:9:90 (H:m:s:ms)","GENERIC","62.081","0.026170402513006213","946"
"20:45:15:151 (H:m:s:ms)","GENERIC","62.027","0.028561832592160788","848"
"20:25:15:151 (H:m:s:ms)","GENERIC","62.027","0.026324388684348204","848"
"20:45:18:987 (H:m:s:ms)","OPERA","31.009","0.04129184629590881","1049"
"20:25:21:212 (H:m:s:ms)","GENERIC","62.107","0.041392085320578406","787"
"20:45:21:212 (H:m:s:ms)","GENERIC","62.115","0.04939232415663359","788"
"20:25:27:272 (H:m:s:ms)","GENERIC","62.079","0.04579100254303599","727"
"20:45:26:582 (H:m:s:ms)","OPERA","31.008","0.02987027214933504","417"
"20:25:33:333 (H:m:s:ms)","GENERIC","62.065","0.024380260086595107","666"
"20:45:27:272 (H:m:s:ms)","GENERIC","62.071","0.0365350383284209","727"
"20:25:39:393 (H:m:s:ms)","GENERIC","62.107","0.04739133188858865","641"
"20:45:33:333 (H:m:s:ms)","GENERIC","62.083","0.024278102750509005","666"
"20:25:45:454 (H:m:s:ms)","GENERIC","62.043","0.05502088496864233","545"
"20:25:51:515 (H:m:s:ms)","GENERIC","62.127","0.031611140897149906","484"
"20:25:57:575 (H:m:s:ms)","GENERIC","62.117","0.031440684986993955","424"
"20:26:3:636 (H:m:s:ms)","GENERIC","62.123","0.03706498688598812","363"
"20:26:9:696 (H:m:s:ms)","GENERIC","62.105","0.04905494469780734","339"
"20:26:15:757 (H:m:s:ms)","GENERIC","62.079","0.046478092547131734","242"
"20:26:21:818 (H:m:s:ms)","GENERIC","62.037","0.015409683967166935","181"
"20:26:27:878 (H:m:s:ms)","GENERIC","62.095","0.019708550827713448","1121"
"20:26:33:939 (H:m:s:ms)","GENERIC","62.067","0.021415519892047614","1061"
"20:26:40:0 (H:m:s:ms)","GENERIC","62.023","0.014393963145214917","1036"
"20:26:46:60 (H:m:s:ms)","GENERIC","62.115","0.03276858150593548","939"
"20:26:52:121 (H:m:s:ms)","GENERIC","62.059","0.03159805208650172","878"
"20:26:58:181 (H:m:s:ms)","GENERIC","62.031","0.015765289193574575","818"
"20:27:4:242 (H:m:s:ms)","GENERIC","62.077","0.025606716149333433","758"
"20:27:10:303 (H:m:s:ms)","GENERIC","62.107","0.027088486847188616","696"
"20:27:16:363 (H:m:s:ms)","GENERIC","62.099","0.021786378386991316","636"
"20:27:22:424 (H:m:s:ms)","GENERIC","62.091","0.015960197105380786","576"
"20:27:28:484 (H:m:s:ms)","GENERIC","62.087","0.025498429890058894","515"
"20:27:34:545 (H:m:s:ms)","GENERIC","62.043","0.047596658453654704","454"
"20:27:40:606 (H:m:s:ms)","GENERIC","62.103","0.05770418860436528","393"
"20:27:46:666 (H:m:s:ms)","GENERIC","62.095","0.04395038095623239","333"
"20:27:52:727 (H:m:s:ms)","GENERIC","62.089","0.026414414922812757","272"
"20:27:58:787 (H:m:s:ms)","GENERIC","62.143","0.04611430523574658","212"
"20:28:4:848 (H:m:s:ms)","GENERIC","62.089","0.051275960239851974","152"
"20:28:10:909 (H:m:s:ms)","GENERIC","62.095","0.02453825279721717","1090"
"20:28:16:969 (H:m:s:ms)","GENERIC","62.097","0.026584429781538382","1030"
"20:28:23:30 (H:m:s:ms)","GENERIC","62.083","0.01576748280608525","969"
"20:28:29:90 (H:m:s:ms)","GENERIC","62.057","0.02111697866416713","944"
"20:28:35:151 (H:m:s:ms)","GENERIC","62.077","0.019251012945341164","848"
"20:28:41:212 (H:m:s:ms)","GENERIC","62.091","0.028481923337598795","787"
"20:28:47:272 (H:m:s:ms)","GENERIC","62.045","0.029240972246240563","727"
"20:28:53:333 (H:m:s:ms)","GENERIC","62.025","0.019431327528838926","666"
"20:28:59:393 (H:m:s:ms)","GENERIC","62.097","0.0205539643355434","640"
"20:29:5:454 (H:m:s:ms)","GENERIC","62.073","0.018632954584819544","545"
"20:29:11:515 (H:m:s:ms)","GENERIC","62.153","0.024720120477166062","484"
"20:29:17:575 (H:m:s:ms)","GENERIC","62.039","0.025746828241498522","424"
"20:29:23:636 (H:m:s:ms)","GENERIC","62.079","0.019684309601183822","364"
"20:29:29:696 (H:m:s:ms)","GENERIC","62.091","0.029814237328675282","338"
"20:29:35:757 (H:m:s:ms)","GENERIC","62.101","0.03407542529121204","242"
"20:29:41:818 (H:m:s:ms)","GENERIC","62.053","0.021087004751505902","181"
"20:29:47:878 (H:m:s:ms)","GENERIC","62.093","0.010520317644127112","1121"
"20:29:53:939 (H:m:s:ms)","GENERIC","62.107","0.02916776269868953","1060"
"21:20:0:0 (H:m:s:ms)","GENERIC","62.123","0.059738833492989155","2242"
"21:20:6:60 (H:m:s:ms)","GENERIC","62.143","0.05414919601785811","939"
"21:20:7:594 (H:m:s:ms)","OPERA","62.015","0.022856151561939337","405"
"21:20:12:121 (H:m:s:ms)","GENERIC","62.055","0.028167493970267944","878"
"21:20:15:189 (H:m:s:ms)","OPERA","62.011","0.04403165012040569","810"
"21:20:18:181 (H:m:s:ms)","GENERIC","62.077","0.04553697071958681","818"
"21:20:22:784 (H:m:s:ms)","OPERA","62.013","0.023710181770836922","215"
"21:20:24:242 (H:m:s:ms)","GENERIC","62.043","0.03603695769483793","758"
"21:20:30:303 (H:m:s:ms)","GENERIC","62.103","0.028673408444966197","696"
"21:20:30:379 (H:m:s:ms)","OPERA","62.013","0.03537925736339925","620"
"21:20:36:363 (H:m:s:ms)","GENERIC","62.083","0.025860227462393106","636"
"21:20:37:974 (H:m:s:ms)","OPERA","62.013","0.02427781659062581","1026"
"21:20:42:424 (H:m:s:ms)","GENERIC","62.139","0.03172443547015234","575"
"21:20:45:569 (H:m:s:ms)","OPERA","31.009","0.03195667227876746","430"
"21:20:48:484 (H:m:s:ms)","GENERIC","62.057","0.05253129790704202","515"
"21:20:53:164 (H:m:s:ms)","OPERA","31.009","0.04699827033148614","835"
"21:20:54:545 (H:m:s:ms)","GENERIC","62.075","0.056010952487161585","455"
"21:21:0:606 (H:m:s:ms)","GENERIC","62.051","0.04324538991438654","393"
"21:21:0:759 (H:m:s:ms)","OPERA","62.013","0.059347062604087814","240"
"21:21:6:666 (H:m:s:ms)","GENERIC","62.051","0.051292944750301064","333"
"21:32:49:696 (H:m:s:ms)","GENERIC","62.067","0.03700805994385116","338"
"21:32:37:575 (H:m:s:ms)","GENERIC","62.085","0.02057425713038785","425"
"21:32:31:515 (H:m:s:ms)","GENERIC","62.065","0.022854893604191392","484"
"21:32:25:454 (H:m:s:ms)","GENERIC","62.053","0.02127344889631717","545"
"21:32:19:393 (H:m:s:ms)","GENERIC","62.091","0.013351339793840768","641"
"21:32:13:333 (H:m:s:ms)","GENERIC","62.023","0.013369426405857221","666"
"21:32:7:272 (H:m:s:ms)","GENERIC","62.067","0.0514022166572633","727"
"21:32:6:315 (H:m:s:ms)","AMBULANCE","62.095","0.05109153731129805","684"
"21:21:8:354 (H:m:s:ms)","OPERA","62.013","0.041260380393979036","645"
"21:32:1:212 (H:m:s:ms)","GENERIC","62.039","0.04138095976051765","787"
"21:21:12:727 (H:m:s:ms)","GENERIC","62.059","0.04607084844018275","273"
"21:21:15:949 (H:m:s:ms)","OPERA","31.008","0.028189052900079073","1050"
"21:21:18:787 (H:m:s:ms)","GENERIC","62.137","0.0312755527774831","212"
"21:21:23:544 (H:m:s:ms)","OPERA","31.008","0.043033003993591085","455"
"21:21:24:848 (H:m:s:ms)","GENERIC","62.049","0.04639256849068911","151"
"21:21:30:909 (H:m:s:ms)","GENERIC","62.073","0.011964249606624483","1090"
"21:21:31:139 (H:m:s:ms)","OPERA","62.015","0.026117707829132236","860"
"21:32:43:636 (H:m:s:ms)","GENERIC","62.145","0.04377763606416454","363"
"21:21:36:969 (H:m:s:ms)","GENERIC","62.171","0.037795177137397926","1030"
"21:32:37:894 (H:m:s:ms)","AMBULANCE","62.115","0.03111541820656087","1106"
"21:21:38:734 (H:m:s:ms)","OPERA","62.013","0.049121102666790074","266"
"21:33:44:242 (H:m:s:ms)","GENERIC","62.039","0.05041993847639781","757"
"21:33:41:52 (H:m:s:ms)","AMBULANCE","62.061","0.0424741792518415","948"
"21:33:32:121 (H:m:s:ms)","GENERIC","62.045","0.028959568817950934","878"
"21:33:26:60 (H:m:s:ms)","GENERIC","62.105","0.043598036375598656","939"
"21:33:20:0 (H:m:s:ms)","GENERIC","62.077","0.04147800037330591","1034"
"21:33:13:939 (H:m:s:ms)","GENERIC","62.067","0.031554406304124094","1061"
"21:33:9:473 (H:m:s:ms)","AMBULANCE","62.097","0.030710545733096006","560"
"21:33:7:878 (H:m:s:ms)","GENERIC","62.087","0.021984843263788075","1122"
"21:21:43:30 (H:m:s:ms)","GENERIC","62.135","0.05193418931691928","969"
"21:33:1:818 (H:m:s:ms)","GENERIC","62.103","0.025601291775076907","181"
"21:21:46:329 (H:m:s:ms)","OPERA","62.015","0.029806318721023604","670"
"21:32:55:757 (H:m:s:ms)","GENERIC","62.137","0.03209864950256499","242"
"21:21:49:90 (H:m:s:ms)","GENERIC","62.131","0.036110107862636645","944"
"21:21:53:924 (H:m:s:ms)","OPERA","62.015","0.04580410717032413","1075"
"21:21:55:151 (H:m:s:ms)","GENERIC","62.101","0.05008242117389674","848"
"21:22:1:212 (H:m:s:ms)","GENERIC","62.057","0.02467872261801187","787"
"21:22:1:518 (H:m:s:ms)","OPERA","62.015","0.03223013856424006","481"
"21:22:7:272 (H:m:s:ms)","GENERIC","62.065","0.02575240153844436","727"
"21:22:9:113 (H:m:s:ms)","OPERA","31.009","0.024070724737254967","921"
"21:22:13:333 (H:m:s:ms)","GENERIC","62.017","0.026868569149966916","667"
"21:33:38:181 (H:m:s:ms)","GENERIC","62.043","0.04759909022519771","818"
"21:34:44:848 (H:m:s:ms)","GENERIC","62.069","0.027266707380274695","151"
"21:34:38:787 (H:m:s:ms)","GENERIC","62.073","0.047164174264865834","212"
"21:34:32:727 (H:m:s:ms)","GENERIC","62.141","0.04783740129352833","272"
"21:34:26:666 (H:m:s:ms)","GENERIC","62.093","0.03078471323462317","333"
"21:34:20:606 (H:m:s:ms)","GENERIC","62.133","0.041054025426686236","393"
"21:34:14:545 (H:m:s:ms)","GENERIC","62.077","0.05384300326454336","454"
"21:34:12:631 (H:m:s:ms)","AMBULANCE","62.127","0.044219464642668474","369"
"21:34:8:484 (H:m:s:ms)","GENERIC","62.071","0.04656166585143401","515"
"21:22:16:708 (H:m:s:ms)","OPERA","31.008","0.0202888691892254","291"
"21:34:2:424 (H:m:s:ms)","GENERIC","62.083","0.022440601118780462","575"
"21:22:19:393 (H:m:s:ms)","GENERIC","62.101","0.021088029223763648","639"
"21:33:56:363 (H:m:s:ms)","GENERIC","62.087","0.02564893426679022","636"
"21:1:43:30 (H:m:s:ms)","GENERIC","62.143","0.04685315227250605","969"
"21:22:24:303 (H:m:s:ms)","OPERA","31.007","0.041247814973476425","697"
"21:33:50:303 (H:m:s:ms)","GENERIC","62.051","0.034169052640511566","696"
"21:1:49:90 (H:m:s:ms)","GENERIC","62.131","0.031648985852040505","949"
"21:22:25:454 (H:m:s:ms)","GENERIC","62.067","0.051284207181112595","545"
"21:1:55:151 (H:m:s:ms)","GENERIC","62.083","0.0230034259748058","848"
"21:22:31:515 (H:m:s:ms)","GENERIC","62.065","0.04325656102485373","484"
"21:2:1:212 (H:m:s:ms)","GENERIC","62.087","0.028054897134387316","787"
"21:22:31:898 (H:m:s:ms)","OPERA","62.013","0.04782596169146942","101"
"21:2:6:315 (H:m:s:ms)","AMBULANCE","31.057","0.034179394946565134","684"
"21:22:37:575 (H:m:s:ms)","GENERIC","62.077","0.040908442915059184","424"
"21:2:7:272 (H:m:s:ms)","GENERIC","62.043","0.03839886055654733","727"
"21:22:39:493 (H:m:s:ms)","OPERA","31.009","0.021663560225942305","541"
"21:2:13:333 (H:m:s:ms)","GENERIC","62.059","0.02498841388981887","666"
"21:22:43:636 (H:m:s:ms)","GENERIC","62.127","0.029847788928611105","363"
"21:2:19:393 (H:m:s:ms)","GENERIC","62.127","0.020456806415080037","645"
"21:22:49:696 (H:m:s:ms)","GENERIC","62.075","0.026574313094463304","357"
"21:2:25:454 (H:m:s:ms)","GENERIC","62.087","0.032265912954685526","545"
"21:2:31:515 (H:m:s:ms)","GENERIC","62.091","0.043282399407278474","484"
"21:35:45:454 (H:m:s:ms)","GENERIC","62.069","0.042063214263512","545"
"21:35:39:393 (H:m:s:ms)","GENERIC","62.205","0.030530353307753617","640"
"21:35:33:333 (H:m:s:ms)","GENERIC","62.065","0.023024379306719706","666"
"21:35:27:272 (H:m:s:ms)","GENERIC","62.101","0.024785925843274225","728"
"21:35:21:212 (H:m:s:ms)","GENERIC","62.077","0.02391736635675269","787"
"21:35:15:789 (H:m:s:ms)","AMBULANCE","62.085","0.04559468661415616","210"
"21:35:15:151 (H:m:s:ms)","GENERIC","62.083","0.044792198943547294","848"
"21:22:54:683 (H:m:s:ms)","OPERA","62.013","0.026748662177311117","317"
"21:35:9:90 (H:m:s:ms)","GENERIC","62.053","0.04470532339390733","947"
"21:22:55:757 (H:m:s:ms)","GENERIC","62.155","0.03153702703189917","242"
"21:35:3:30 (H:m:s:ms)","GENERIC","62.113","0.018455943364436986","969"
"21:2:37:575 (H:m:s:ms)","GENERIC","62.091","0.03143365367852829","424"
"21:23:1:818 (H:m:s:ms)","GENERIC","62.127","0.02429123397448515","181"
"21:34:56:969 (H:m:s:ms)","GENERIC","62.101","0.018561841427692374","1030"
"21:2:37:894 (H:m:s:ms)","AMBULANCE","31.05","0.040417244896111454","105"
"21:23:2:278 (H:m:s:ms)","OPERA","62.013","0.04459108750532087","721"
"21:34:50:909 (H:m:s:ms)","GENERIC","62.117","0.017623320526718035","1090"
"21:2:43:636 (H:m:s:ms)","GENERIC","62.127","0.040471105158518934","363"
"21:23:7:878 (H:m:s:ms)","GENERIC","62.073","0.04601794635257338","1121"
"21:2:49:696 (H:m:s:ms)","GENERIC","62.053","0.035718804460111754","343"
"21:23:9:873 (H:m:s:ms)","OPERA","62.015","0.029234791356501227","160"
"21:2:55:757 (H:m:s:ms)","GENERIC","62.185","0.030573075278675164","242"
"21:23:13:939 (H:m:s:ms)","GENERIC","62.055","0.03174795612771576","1060"
"21:3:1:818 (H:m:s:ms)","GENERIC","62.111","0.025255782613986224","181"
"21:23:17:468 (H:m:s:ms)","OPERA","62.013","0.02058270498460383","531"
"21:3:7:878 (H:m:s:ms)","GENERIC","62.071","0.041186117761890094","1121"
"21:23:20:0 (H:m:s:ms)","GENERIC","62.097","0.03415233715645062","1033"
"21:3:9:473 (H:m:s:ms)","AMBULANCE","31.037","0.046405143937629956","580"
"21:23:25:63 (H:m:s:ms)","OPERA","62.015","0.034098927553165334","936"
"21:3:13:939 (H:m:s:ms)","GENERIC","62.049","0.04957167855684106","1061"
"21:3:20:0 (H:m:s:ms)","GENERIC","62.113","0.032433711975136","1039"
"21:36:46:60 (H:m:s:ms)","GENERIC","62.167","0.023749729866219385","939"
"21:36:40:0 (H:m:s:ms)","GENERIC","62.067","0.014442115576971054","1035"
"21:36:33:939 (H:m:s:ms)","GENERIC","62.085","0.019859963029195096","1061"
"21:36:27:878 (H:m:s:ms)","GENERIC","62.117","0.018074805134961645","1121"
"21:36:21:818 (H:m:s:ms)","GENERIC","62.063","0.02815107538669587","181"
"21:36:15:757 (H:m:s:ms)","GENERIC","62.097","0.05207737082171765","242"
"21:23:26:60 (H:m:s:ms)","GENERIC","62.099","0.05009557620161606","939"
"21:36:9:696 (H:m:s:ms)","GENERIC","62.121","0.048881158027577996","337"
"21:23:32:121 (H:m:s:ms)","GENERIC","62.029","0.04420511693229858","878"
"21:36:3:636 (H:m:s:ms)","GENERIC","62.073","0.029298924214449962","364"
"21:3:26:60 (H:m:s:ms)","GENERIC","62.117","0.03128272359826649","939"
"21:23:32:658 (H:m:s:ms)","OPERA","62.015","0.04880106943539689","341"
"21:35:57:575 (H:m:s:ms)","GENERIC","62.099","0.029291684510034617","424"
"21:3:32:121 (H:m:s:ms)","GENERIC","62.019","0.017463350249508583","878"
"21:23:38:181 (H:m:s:ms)","GENERIC","62.049","0.05186186739380789","818"
"21:35:51:515 (H:m:s:ms)","GENERIC","62.103","0.03824902599769053","485"
"21:3:38:181 (H:m:s:ms)","GENERIC","62.057","0.04165058189897488","818"
"21:23:40:253 (H:m:s:ms)","OPERA","62.013","0.04578305202265933","746"
"21:35:47:368 (H:m:s:ms)","AMBULANCE","62.137","0.03235140376060669","632"
"21:3:41:52 (H:m:s:ms)","AMBULANCE","31.046","0.04597574181144983","947"
"21:23:44:242 (H:m:s:ms)","GENERIC","62.021","0.04773530622630246","758"
"21:3:44:242 (H:m:s:ms)","GENERIC","62.041","0.04789668219682256","758"
"21:23:47:848 (H:m:s:ms)","OPERA","62.015","0.024716515074748233","151"
"21:3:50:303 (H:m:s:ms)","GENERIC","62.027","0.022337322395157816","696"
"21:23:50:303 (H:m:s:ms)","GENERIC","62.037","0.03145331849232777","696"
"21:3:56:363 (H:m:s:ms)","GENERIC","62.081","0.018639329616338306","636"
"21:23:55:443 (H:m:s:ms)","OPERA","62.015","0.02836711354046465","557"
"21:4:2:424 (H:m:s:ms)","GENERIC","62.057","0.017460132783828537","575"
"21:23:56:363 (H:m:s:ms)","GENERIC","62.081","0.028830320750053498","636"
"21:4:8:484 (H:m:s:ms)","GENERIC","62.111","0.0333972833626071","515"
"21:4:12:631 (H:m:s:ms)","AMBULANCE","31.051","0.03134238590372525","368"
"21:37:40:606 (H:m:s:ms)","GENERIC","62.117","0.0458983867032569","393"
"21:37:34:545 (H:m:s:ms)","GENERIC","62.075","0.03228350801413331","455"
"21:37:28:484 (H:m:s:ms)","GENERIC","62.097","0.029114705239529793","515"
"21:37:22:424 (H:m:s:ms)","GENERIC","62.173","0.0327287001712955","575"
"21:37:22:105 (H:m:s:ms)","AMBULANCE","62.119","0.031956672278767445","894"
"21:37:16:363 (H:m:s:ms)","GENERIC","62.073","0.03314316703597954","636"
"21:24:2:424 (H:m:s:ms)","GENERIC","62.069","0.025088178470617364","575"
"21:24:3:37 (H:m:s:ms)","OPERA","31.009","0.03261918323389108","962"
"21:37:10:303 (H:m:s:ms)","GENERIC","62.095","0.03474762826599301","696"
"21:4:14:545 (H:m:s:ms)","GENERIC","62.097","0.033104950425080146","454"
"21:24:8:484 (H:m:s:ms)","GENERIC","62.087","0.05316683995239626","515"
"21:37:4:242 (H:m:s:ms)","GENERIC","62.143","0.033576454252879084","758"
"21:4:20:606 (H:m:s:ms)","GENERIC","62.191","0.017458992537248957","393"
"21:24:10:632 (H:m:s:ms)","OPERA","62.013","0.04683230392153485","368"
"21:36:58:181 (H:m:s:ms)","GENERIC","62.099","0.026938624135080472","818"
"21:4:26:666 (H:m:s:ms)","GENERIC","62.117","0.03084340160037162","334"
"21:24:14:545 (H:m:s:ms)","GENERIC","62.091","0.05593724839835657","454"
"21:36:52:121 (H:m:s:ms)","GENERIC","62.041","0.04313650769120306","878"
"21:4:32:727 (H:m:s:ms)","GENERIC","62.093","0.04956681870301739","272"
"21:24:18:227 (H:m:s:ms)","OPERA","62.013","0.05117344364685298","772"
"21:36:50:526 (H:m:s:ms)","AMBULANCE","62.045","0.036436338479164596","474"
"21:4:38:787 (H:m:s:ms)","GENERIC","62.071","0.04241991763160031","212"
"21:24:20:606 (H:m:s:ms)","GENERIC","62.157","0.057889806317489384","393"
"21:4:44:210 (H:m:s:ms)","AMBULANCE","31.05","0.035500933019026376","789"
"21:24:25:822 (H:m:s:ms)","OPERA","31.009","0.034066435672669114","177"
"21:4:44:848 (H:m:s:ms)","GENERIC","62.097","0.03494893104865019","151"
"21:24:26:666 (H:m:s:ms)","GENERIC","62.109","0.036702598511019154","333"
"21:4:50:909 (H:m:s:ms)","GENERIC","62.073","0.005874440175572658","1090"
"21:24:32:727 (H:m:s:ms)","GENERIC","62.121","0.02609099626829383","272"
"21:4:56:969 (H:m:s:ms)","GENERIC","62.109","0.01859313462579903","1030"
"21:5:3:30 (H:m:s:ms)","GENERIC","62.053","0.018707446431803578","969"
"21:38:35:151 (H:m:s:ms)","GENERIC","62.067","0.02972185838318946","848"
"21:38:29:90 (H:m:s:ms)","GENERIC","62.027","0.0351337205372463","945"
"21:38:25:263 (H:m:s:ms)","AMBULANCE","62.071","0.024971308056050016","736"
"21:38:23:30 (H:m:s:ms)","GENERIC","62.067","0.02036301764505349","969"
"21:38:16:969 (H:m:s:ms)","GENERIC","62.051","0.026950811738875237","1030"
"21:38:10:909 (H:m:s:ms)","GENERIC","62.107","0.02488237635478623","1090"
"21:38:4:848 (H:m:s:ms)","GENERIC","62.043","0.03698213941418434","151"
"21:24:33:417 (H:m:s:ms)","OPERA","62.013","0.029308333753361997","582"
"21:24:38:787 (H:m:s:ms)","GENERIC","62.057","0.03033861933779967","212"
"21:5:9:90 (H:m:s:ms)","GENERIC","62.039","0.026247715940382305","949"
"21:24:41:12 (H:m:s:ms)","OPERA","31.009","0.04160105530829659","987"
"21:5:15:151 (H:m:s:ms)","GENERIC","62.029","0.031046542890084513","849"
"21:24:44:848 (H:m:s:ms)","GENERIC","62.089","0.05056357646788073","151"
"21:37:58:787 (H:m:s:ms)","GENERIC","62.113","0.050056120015571706","212"
"20:45:34:177 (H:m:s:ms)","OPERA","31.009","0.020262028597425236","822"
"21:5:15:789 (H:m:s:ms)","AMBULANCE","31.014","0.032101779283143846","211"
"21:24:48:607 (H:m:s:ms)","OPERA","62.015","0.04996213986751743","392"
"21:37:53:684 (H:m:s:ms)","AMBULANCE","62.085","0.04565956807661333","315"
"20:45:39:393 (H:m:s:ms)","GENERIC","62.117","0.026747274490768403","643"
"21:5:21:212 (H:m:s:ms)","GENERIC","62.105","0.04521833328633244","787"
"21:24:50:909 (H:m:s:ms)","GENERIC","62.111","0.041297802883543504","1090"
"21:37:52:727 (H:m:s:ms)","GENERIC","62.067","0.06116790817768446","272"
"20:45:41:772 (H:m:s:ms)","OPERA","31.008","0.04447351584395612","227"
"21:5:27:272 (H:m:s:ms)","GENERIC","62.077","0.042239264308829745","727"
"21:24:56:202 (H:m:s:ms)","OPERA","62.011","0.017498045120523657","797"
"21:37:46:666 (H:m:s:ms)","GENERIC","62.125","0.06122323808185928","333"
"20:45:45:454 (H:m:s:ms)","GENERIC","62.067","0.04571166941547264","546"
"21:5:33:333 (H:m:s:ms)","GENERIC","62.055","0.014765506934466209","666"
"21:24:56:969 (H:m:s:ms)","GENERIC","62.111","0.024744854949978932","1030"
"20:45:49:367 (H:m:s:ms)","OPERA","31.008","0.02342549203844628","669"
"21:5:39:393 (H:m:s:ms)","GENERIC","62.151","0.030530353307753617","646"
"21:25:3:30 (H:m:s:ms)","GENERIC","62.091","0.01855065660344978","969"
"20:45:51:515 (H:m:s:ms)","GENERIC","62.101","0.03104085193224646","485"
"21:5:45:454 (H:m:s:ms)","GENERIC","62.033","0.035472841650134854","545"
"21:25:3:797 (H:m:s:ms)","OPERA","62.011","0.04485858387471492","202"
"20:45:56:962 (H:m:s:ms)","OPERA","31.008","0.04580311027857534","1037"
"21:5:47:368 (H:m:s:ms)","AMBULANCE","31.064","0.03695511269455568","631"
"20:45:57:575 (H:m:s:ms)","GENERIC","62.147","0.05500877448901926","424"
"21:5:51:515 (H:m:s:ms)","GENERIC","62.071","0.04219757329113718","484"
"20:46:3:636 (H:m:s:ms)","GENERIC","62.107","0.05216993183341892","363"
"20:46:4:556 (H:m:s:ms)","OPERA","31.008","0.022960095091865994","443"
"21:39:29:696 (H:m:s:ms)","GENERIC","62.119","0.030449565335837227","337"
"21:39:28:421 (H:m:s:ms)","AMBULANCE","62.083","0.027292522803507885","579"
"21:39:23:636 (H:m:s:ms)","GENERIC","62.039","0.020425474951805717","363"
"21:39:17:575 (H:m:s:ms)","GENERIC","62.055","0.026699707153549048","424"
"21:39:11:515 (H:m:s:ms)","GENERIC","62.071","0.03672868887278808","484"
"21:39:5:454 (H:m:s:ms)","GENERIC","62.073","0.028023353587702252","545"
"21:38:59:393 (H:m:s:ms)","GENERIC","62.089","0.02841819095385529","646"
"21:38:56:842 (H:m:s:ms)","AMBULANCE","62.033","0.027748074882903404","157"
"21:25:9:90 (H:m:s:ms)","GENERIC","62.043","0.05803097701095174","944"
"21:25:11:392 (H:m:s:ms)","OPERA","62.015","0.045137175902035184","607"
"21:5:57:575 (H:m:s:ms)","GENERIC","62.173","0.04574836136744171","424"
"21:25:15:151 (H:m:s:ms)","GENERIC","62.065","0.045583282864878776","849"
"21:6:3:636 (H:m:s:ms)","GENERIC","62.097","0.042774524876908825","364"
"21:25:18:987 (H:m:s:ms)","OPERA","62.013","0.04154229706987447","1047"
"20:46:9:696 (H:m:s:ms)","GENERIC","62.079","0.03959809614963941","340"
"21:6:9:696 (H:m:s:ms)","GENERIC","62.081","0.01934059202657265","341"
"21:25:21:212 (H:m:s:ms)","GENERIC","62.073","0.05813986936930947","787"
"20:46:12:151 (H:m:s:ms)","OPERA","31.008","0.05209314005137495","849"
"21:6:15:757 (H:m:s:ms)","GENERIC","62.091","0.02014589028245066","242"
"21:25:26:582 (H:m:s:ms)","OPERA","62.015","0.046716877129815954","417"
"21:38:53:333 (H:m:s:ms)","GENERIC","62.059","0.03918098922605275","666"
"20:46:15:757 (H:m:s:ms)","GENERIC","62.089","0.05383859903060887","242"
"21:6:18:947 (H:m:s:ms)","AMBULANCE","31.036","0.015967759937500662","1091"
"21:25:27:272 (H:m:s:ms)","GENERIC","62.097","0.05577393730837512","727"
"21:38:47:272 (H:m:s:ms)","GENERIC","62.079","0.040964538521207405","727"
"20:46:19:746 (H:m:s:ms)","OPERA","31.009","0.02367009624747916","291"
"21:6:21:818 (H:m:s:ms)","GENERIC","62.079","0.019810183773024004","181"
"21:25:33:333 (H:m:s:ms)","GENERIC","62.045","0.031675301707189026","666"
"21:38:41:212 (H:m:s:ms)","GENERIC","62.085","0.03180886687490848","787"
"20:46:21:818 (H:m:s:ms)","GENERIC","62.043","0.024605386192241615","182"
"21:6:27:878 (H:m:s:ms)","GENERIC","62.109","0.018074805134961645","1122"
"21:25:34:177 (H:m:s:ms)","OPERA","31.009","0.029923854115512617","822"
"20:46:27:341 (H:m:s:ms)","OPERA","31.008","0.03208457261561727","658"
"21:6:33:939 (H:m:s:ms)","GENERIC","62.109","0.01982172868315114","1060"
"21:25:39:393 (H:m:s:ms)","GENERIC","62.187","0.06491951216610241","642"
"20:46:27:878 (H:m:s:ms)","GENERIC","62.089","0.03700768733039684","1121"
"21:6:40:0 (H:m:s:ms)","GENERIC","62.061","0.010262728166138992","1039"
"20:46:33:939 (H:m:s:ms)","GENERIC","62.065","0.02564505656210818","1061"
"21:6:46:60 (H:m:s:ms)","GENERIC","62.191","0.012700864841032862","939"
"20:46:34:936 (H:m:s:ms)","OPERA","31.009","0.026523493271743685","1064"
"20:46:40:0 (H:m:s:ms)","GENERIC","62.037","0.027166113423579257","1039"
"21:39:47:878 (H:m:s:ms)","GENERIC","62.065","0.005705443307345452","1121"
"21:40:24:242 (H:m:s:ms)","GENERIC","62.051","0.015220449038026612","758"
"21:40:18:181 (H:m:s:ms)","GENERIC","62.053","0.016448978873439626","818"
"21:40:12:121 (H:m:s:ms)","GENERIC","62.083","0.015940272935565717","878"
"21:40:6:60 (H:m:s:ms)","GENERIC","62.105","0.026463135272167006","940"
"21:40:0:0 (H:m:s:ms)","GENERIC","62.129","0.048287808907833595","2217"
"21:40:0:0 (H:m:s:ms)","GENERIC","62.067","0.04716503316622881","2217"
"21:40:0:0 (H:m:s:ms)","AMBULANCE","62.089","0.042549863748152034","2217"
"21:39:53:939 (H:m:s:ms)","GENERIC","62.123","0.04126326801788842","1061"
"21:6:50:526 (H:m:s:ms)","AMBULANCE","31.031","0.022903368907832827","473"
"21:6:52:121 (H:m:s:ms)","GENERIC","62.043","0.025702421348514574","878"
"20:46:42:531 (H:m:s:ms)","OPERA","31.008","0.021303385798198078","468"
"21:6:58:181 (H:m:s:ms)","GENERIC","62.081","0.04250907733157368","818"
"20:46:46:60 (H:m:s:ms)","GENERIC","62.155","0.029586585199197074","939"
"21:7:4:242 (H:m:s:ms)","GENERIC","62.101","0.042366886109947266","757"
"20:46:50:126 (H:m:s:ms)","OPERA","31.008","0.03103604263385158","874"
"21:7:10:303 (H:m:s:ms)","GENERIC","62.095","0.020002662994238498","697"
"20:46:52:121 (H:m:s:ms)","GENERIC","62.033","0.03645254442602271","878"
"21:7:16:363 (H:m:s:ms)","GENERIC","62.123","0.028151233515961816","636"
"21:39:41:818 (H:m:s:ms)","GENERIC","62.051","0.025526487590758123","181"
"20:46:57:721 (H:m:s:ms)","OPERA","31.009","0.034642168578344304","278"
"21:7:22:105 (H:m:s:ms)","AMBULANCE","31.059","0.046723312933466765","894"
"21:39:35:757 (H:m:s:ms)","GENERIC","62.071","0.024550060600801175","242"
"20:46:58:181 (H:m:s:ms)","GENERIC","62.053","0.043991558907886516","818"
"21:7:22:424 (H:m:s:ms)","GENERIC","62.159","0.04861312579624782","575"
"20:47:4:242 (H:m:s:ms)","GENERIC","62.091","0.034309937181582234","757"
"21:7:28:484 (H:m:s:ms)","GENERIC","62.073","0.0460489626054659","515"
"20:47:5:316 (H:m:s:ms)","OPERA","31.009","0.0458559024505603","684"
"21:7:34:545 (H:m:s:ms)","GENERIC","62.063","0.02664594497418062","455"
"20:47:10:303 (H:m:s:ms)","GENERIC","62.127","0.04864111734930095","696"
"20:47:12:911 (H:m:s:ms)","OPERA","31.007","0.02843539533530539","88"
"21:7:40:606 (H:m:s:ms)","GENERIC","62.109","0.02931636010773114","393"
"21:7:46:666 (H:m:s:ms)","GENERIC","62.083","0.05003857529183803","333"
"20:47:16:363 (H:m:s:ms)","GENERIC","62.111","0.031834364075629035","636"
"21:7:52:727 (H:m:s:ms)","GENERIC","62.045","0.061309122577508514","272"
"20:47:20:506 (H:m:s:ms)","OPERA","31.009","0.02732382063502569","493"
"21:7:53:684 (H:m:s:ms)","AMBULANCE","31.035","0.049461481855123696","315"
"20:47:22:424 (H:m:s:ms)","GENERIC","62.119","0.02814599587935078","575"
"21:7:58:787 (H:m:s:ms)","GENERIC","62.097","0.05353679232174748","212"
"20:47:28:101 (H:m:s:ms)","OPERA","31.008","0.017736230671287254","899"
"21:8:4:848 (H:m:s:ms)","GENERIC","62.043","0.029234259855143496","152"
"20:47:28:484 (H:m:s:ms)","GENERIC","62.069","0.030342604089758068","516"
"21:8:10:909 (H:m:s:ms)","GENERIC","62.083","0.022821773229381906","1091"
"20:47:34:545 (H:m:s:ms)","GENERIC","62.045","0.03598860850313934","455"
"21:8:16:969 (H:m:s:ms)","GENERIC","62.097","0.027527293517176095","1030"
"21:40:30:303 (H:m:s:ms)","GENERIC","62.131","0.016062847332937776","696"
"20:47:35:696 (H:m:s:ms)","OPERA","31.008","0.04586955561068952","303"
"21:8:23:30 (H:m:s:ms)","GENERIC","62.093","0.023463563728542528","969"
"20:47:40:606 (H:m:s:ms)","GENERIC","62.089","0.061348776322100444","393"
"21:8:25:263 (H:m:s:ms)","AMBULANCE","31.026","0.021821117674126034","736"
"20:47:43:291 (H:m:s:ms)","OPERA","31.009","0.045776512090633714","708"
"20:47:46:666 (H:m:s:ms)","GENERIC","62.111","0.05106422022386011","333"
"21:8:29:90 (H:m:s:ms)","GENERIC","62.019","0.023351506170059738","947"
"21:8:35:151 (H:m:s:ms)","GENERIC","62.085","0.02592777294655432","848"
"20:47:50:886 (H:m:s:ms)","OPERA","31.009","0.030858718771963913","113"
"21:8:41:212 (H:m:s:ms)","GENERIC","62.127","0.0366558441306424","787"
"20:47:52:727 (H:m:s:ms)","GENERIC","62.037","0.0512632152259576","272"
"21:8:47:272 (H:m:s:ms)","GENERIC","62.059","0.034045823947416225","727"
"20:30:0:0 (H:m:s:ms)","GENERIC","62.031","0.049022790628730516","1035"
"20:47:58:481 (H:m:s:ms)","OPERA","31.009","0.047149006089531924","518"
"21:8:53:333 (H:m:s:ms)","GENERIC","62.035","0.026149002238514407","666"
"20:30:0:0 (H:m:s:ms)","GENERIC","62.095","0.0513246010755468","1035"
"20:47:58:787 (H:m:s:ms)","GENERIC","62.119","0.051420912312146815","212"
"21:8:56:842 (H:m:s:ms)","AMBULANCE","31.033","0.024631085107740636","157"
"20:30:6:60 (H:m:s:ms)","GENERIC","62.101","0.04479683362758995","939"
"20:48:4:848 (H:m:s:ms)","GENERIC","62.069","0.03728465073090311","151"
"21:8:59:393 (H:m:s:ms)","GENERIC","62.099","0.025385414656245348","644"
"20:30:12:121 (H:m:s:ms)","GENERIC","62.039","0.017384154373303692","879"
"20:48:6:75 (H:m:s:ms)","OPERA","31.009","0.03108455784058894","924"
"21:9:5:454 (H:m:s:ms)","GENERIC","62.067","0.015014000232477445","545"
"20:30:18:181 (H:m:s:ms)","GENERIC","62.031","0.018252482382503918","818"
"20:48:10:909 (H:m:s:ms)","GENERIC","62.079","0.03376306119561903","1091"
"21:9:11:515 (H:m:s:ms)","GENERIC","62.103","0.043222608830121884","484"
"20:30:24:242 (H:m:s:ms)","GENERIC","62.051","0.017992437101814862","758"
"20:48:13:670 (H:m:s:ms)","OPERA","31.009","0.03214409365397833","329"
"21:9:17:575 (H:m:s:ms)","GENERIC","62.025","0.04136174983149438","424"
"20:30:30:303 (H:m:s:ms)","GENERIC","62.075","0.015910301550676603","697"
"20:48:16:969 (H:m:s:ms)","GENERIC","62.071","0.03374972148129618","1030"
"20:30:36:363 (H:m:s:ms)","GENERIC","62.137","0.019849397372448632","636"
"20:48:21:265 (H:m:s:ms)","OPERA","31.008","0.026637831080750865","734"
"20:30:42:424 (H:m:s:ms)","GENERIC","62.067","0.044715141556685975","575"
"20:30:48:484 (H:m:s:ms)","GENERIC","62.019","0.051074299671057664","515"
"21:9:23:636 (H:m:s:ms)","GENERIC","62.027","0.008052959726291097","363"
"21:9:28:421 (H:m:s:ms)","AMBULANCE","31.047","0.009440560407646367","578"
"20:48:23:30 (H:m:s:ms)","GENERIC","62.063","0.027304594958775266","969"
"21:9:29:696 (H:m:s:ms)","GENERIC","62.101","0.02880787939486669","341"
"20:48:28:860 (H:m:s:ms)","OPERA","31.008","0.021469238654962305","139"
"21:9:35:757 (H:m:s:ms)","GENERIC","62.111","0.04978743831926835","242"
"20:30:54:545 (H:m:s:ms)","GENERIC","62.141","0.03686760841146872","455"
"20:48:29:90 (H:m:s:ms)","GENERIC","62.037","0.033074765722097735","945"
"21:9:41:818 (H:m:s:ms)","GENERIC","62.047","0.04444583454989575","181"
"20:31:0:606 (H:m:s:ms)","GENERIC","62.081","0.022966264060372478","393"
"20:48:35:151 (H:m:s:ms)","GENERIC","62.067","0.030035830423548467","848"
"21:9:47:878 (H:m:s:ms)","GENERIC","62.085","0.015780476466190695","1121"
"20:31:6:666 (H:m:s:ms)","GENERIC","62.049","0.015667516718430446","333"
"20:48:36:455 (H:m:s:ms)","OPERA","31.009","0.0372610914222775","544"
"21:9:53:939 (H:m:s:ms)","GENERIC","62.145","0.04384497306506425","1061"
"20:31:12:727 (H:m:s:ms)","GENERIC","62.017","0.015053629124171946","272"
"20:48:41:212 (H:m:s:ms)","GENERIC","62.109","0.03968644294079312","787"
"21:10:0:0 (H:m:s:ms)","AMBULANCE","31.042","0.04271047531221844","1039"
"20:31:18:787 (H:m:s:ms)","GENERIC","62.095","0.028734160590341944","212"
"20:48:44:50 (H:m:s:ms)","OPERA","31.009","0.024628685442479585","949"
"21:10:0:0 (H:m:s:ms)","GENERIC","62.061","0.05255805241117142","1039"
"20:31:24:848 (H:m:s:ms)","GENERIC","62.067","0.03235553780907184","152"
"20:48:47:272 (H:m:s:ms)","GENERIC","62.079","0.03929945469170553","727"
"21:10:0:0 (H:m:s:ms)","GENERIC","62.133","0.05349464513565385","1039"
"20:31:30:909 (H:m:s:ms)","GENERIC","62.101","0.011964249606624483","1090"
"20:48:51:645 (H:m:s:ms)","OPERA","31.008","0.03622138911793241","354"
"20:31:36:969 (H:m:s:ms)","GENERIC","62.105","0.01822353279788746","1030"
"20:48:53:333 (H:m:s:ms)","GENERIC","62.045","0.037101816991621184","666"
"20:31:43:30 (H:m:s:ms)","GENERIC","62.135","0.028104232003990218","969"
"20:31:49:90 (H:m:s:ms)","GENERIC","62.079","0.03190695860129005","943"
"20:48:59:240 (H:m:s:ms)","OPERA","31.009","0.014736842687357558","795"
"20:48:59:393 (H:m:s:ms)","GENERIC","62.123","0.023819024488722768","642"
"20:31:55:151 (H:m:s:ms)","GENERIC","62.067","0.024635261088491085","848"
"20:49:5:454 (H:m:s:ms)","GENERIC","62.087","0.03527262128219083","545"
"20:32:1:212 (H:m:s:ms)","GENERIC","62.093","0.04307807175494616","787"
"20:49:6:835 (H:m:s:ms)","OPERA","31.009","0.03215511504764416","164"
"20:32:7:272 (H:m:s:ms)","GENERIC","62.021","0.04442641097375239","727"
"20:49:11:515 (H:m:s:ms)","GENERIC","62.145","0.05203431867128763","484"
"20:32:13:333 (H:m:s:ms)","GENERIC","62.035","0.02625256753532346","666"
"20:49:14:430 (H:m:s:ms)","OPERA","31.008","0.04414945353679008","569"
"20:32:19:393 (H:m:s:ms)","GENERIC","62.137","0.020222347316717414","639"
"20:49:17:575 (H:m:s:ms)","GENERIC","62.021","0.044467158286168526","425"
"20:32:25:454 (H:m:s:ms)","GENERIC","62.069","0.021103754786385667","545"
"20:49:23:636 (H:m:s:ms)","GENERIC","62.039","0.013030859716077264","363"
"20:32:31:515 (H:m:s:ms)","GENERIC","62.075","0.022932844774589387","484"
"20:49:29:620 (H:m:s:ms)","OPERA","31.009","0.022563242287517143","415"
"20:32:37:575 (H:m:s:ms)","GENERIC","62.095","0.012161492072407595","424"
"20:49:29:696 (H:m:s:ms)","GENERIC","62.111","0.035315190786328214","339"
"20:32:43:636 (H:m:s:ms)","GENERIC","62.111","0.021551355681512764","364"
"20:32:49:696 (H:m:s:ms)","GENERIC","62.047","0.03298989227111388","336"
"20:49:35:757 (H:m:s:ms)","GENERIC","62.147","0.05263345033500603","242"
"20:49:37:215 (H:m:s:ms)","OPERA","31.007","0.045656363567721625","784"
"20:32:55:757 (H:m:s:ms)","GENERIC","62.129","0.030573075278675216","242"
"20:49:41:818 (H:m:s:ms)","GENERIC","62.071","0.04813873913992336","181"
"20:33:1:818 (H:m:s:ms)","GENERIC","62.063","0.024099354215810234","181"
"20:49:44:810 (H:m:s:ms)","OPERA","31.009","0.027889638421239683","190"
"20:33:7:878 (H:m:s:ms)","GENERIC","62.065","0.04091545031004861","1121"
"20:49:47:878 (H:m:s:ms)","GENERIC","62.121","0.027834924468717798","1121"
"20:33:13:939 (H:m:s:ms)","GENERIC","62.093","0.041557052603890116","1061"
"20:49:52:405 (H:m:s:ms)","OPERA","31.009","0.02566090439421326","594"
"20:33:20:0 (H:m:s:ms)","GENERIC","62.095","0.015492087453880197","1035"
"20:49:53:939 (H:m:s:ms)","GENERIC","62.117","0.0481308755501978","1061"
"20:33:26:60 (H:m:s:ms)","GENERIC","62.143","0.0207734354658327","939"
"20:50:0:0 (H:m:s:ms)","OPERA","31.009","0.05771749116413207","1038"
"20:33:32:121 (H:m:s:ms)","GENERIC","62.045","0.029087219585243147","878"
"20:50:0:0 (H:m:s:ms)","GENERIC","62.035","0.06116688370650196","1038"
"20:33:38:181 (H:m:s:ms)","GENERIC","62.043","0.04756166706480875","818"
"20:50:0:0 (H:m:s:ms)","GENERIC","62.123","0.06196329166974397","1038"
"20:33:44:242 (H:m:s:ms)","GENERIC","62.063","0.043074663763766854","758"
"20:33:50:303 (H:m:s:ms)","GENERIC","62.055","0.024775525183753498","696"
"20:50:6:60 (H:m:s:ms)","GENERIC","62.117","0.04795010878278647","939"
"20:50:12:121 (H:m:s:ms)","GENERIC","62.029","0.023198324163320752","878"
"20:33:56:363 (H:m:s:ms)","GENERIC","62.099","0.02157995305272776","636"
"20:50:18:181 (H:m:s:ms)","GENERIC","62.043","0.021514163086827416","818"
"20:34:2:424 (H:m:s:ms)","GENERIC","62.067","0.010472277196677822","575"
"20:50:24:242 (H:m:s:ms)","GENERIC","62.081","0.04130227171895301","757"
"20:10:0:0 (H:m:s:ms)","GENERIC","31.06","0.02919517541831125","1001"
"20:34:8:484 (H:m:s:ms)","GENERIC","62.121","0.02204345588813546","515"
"20:50:30:303 (H:m:s:ms)","GENERIC","62.115","0.04412635924219713","696"
"20:10:0:0 (H:m:s:ms)","GENERIC","62.039","0.04235183562151734","1038"
"20:34:14:545 (H:m:s:ms)","GENERIC","62.115","0.02310727377259233","454"
"20:50:36:363 (H:m:s:ms)","GENERIC","62.103","0.01830714803969368","636"
"20:10:6:60 (H:m:s:ms)","GENERIC","62.109","0.03592133571117197","940"
"20:34:20:606 (H:m:s:ms)","GENERIC","62.131","0.017631746366831742","394"
"20:50:42:424 (H:m:s:ms)","GENERIC","62.089","0.04152669709378042","575"
"20:10:12:121 (H:m:s:ms)","GENERIC","62.027","0.025686258113025304","879"
"20:34:26:666 (H:m:s:ms)","GENERIC","62.095","0.030941350050140946","333"
"20:50:48:484 (H:m:s:ms)","GENERIC","62.057","0.057858136601635336","515"
"20:10:18:181 (H:m:s:ms)","GENERIC","62.035","0.021514163086827416","819"
"20:34:32:727 (H:m:s:ms)","GENERIC","62.083","0.04248711682261473","272"
"20:50:54:545 (H:m:s:ms)","GENERIC","62.109","0.04584291065024608","454"
"20:10:24:242 (H:m:s:ms)","GENERIC","62.043","0.015015255837211984","757"
"20:34:38:787 (H:m:s:ms)","GENERIC","62.081","0.03446567881899965","212"
"20:51:0:606 (H:m:s:ms)","GENERIC","62.075","0.0288867666721267","393"
"20:10:30:303 (H:m:s:ms)","GENERIC","62.095","0.028305778318690456","697"
"20:34:44:848 (H:m:s:ms)","GENERIC","62.089","0.03122228279857064","152"
"20:10:36:363 (H:m:s:ms)","GENERIC","62.155","0.02634062606156568","636"
"20:34:50:909 (H:m:s:ms)","GENERIC","62.073","0.005874440175572658","1090"
"20:10:42:424 (H:m:s:ms)","GENERIC","62.095","0.022381902577248192","575"
"20:10:48:484 (H:m:s:ms)","GENERIC","62.041","0.046527406391238646","515"
"20:51:6:666 (H:m:s:ms)","GENERIC","62.047","0.023518062584942864","333"
"20:51:12:727 (H:m:s:ms)","GENERIC","62.021","0.014919085781258225","272"
"20:34:56:969 (H:m:s:ms)","GENERIC","62.115","0.013140168061134137","1030"
"20:51:18:787 (H:m:s:ms)","GENERIC","62.121","0.028756304526720202","212"
"20:35:3:30 (H:m:s:ms)","GENERIC","62.043","0.013301723759561845","969"
"20:51:24:848 (H:m:s:ms)","GENERIC","62.055","0.02961575261012562","151"
"20:10:54:545 (H:m:s:ms)","GENERIC","62.137","0.043099803246648645","454"
"20:35:9:90 (H:m:s:ms)","GENERIC","62.073","0.04252804628254926","944"
"20:51:30:909 (H:m:s:ms)","GENERIC","62.095","0.006096245078399762","1090"
"20:11:0:606 (H:m:s:ms)","GENERIC","62.087","0.03239476301800295","393"
"20:35:15:151 (H:m:s:ms)","GENERIC","62.037","0.04369798079005676","848"
"20:51:36:969 (H:m:s:ms)","GENERIC","62.127","0.015255691442455081","1030"
"20:11:6:666 (H:m:s:ms)","GENERIC","62.041","0.035421924065185656","333"
"20:35:21:212 (H:m:s:ms)","GENERIC","62.125","0.04247451979029955","788"
"20:51:43:30 (H:m:s:ms)","GENERIC","62.129","0.02675059703493483","969"
"20:11:12:727 (H:m:s:ms)","GENERIC","62.045","0.01933017759720711","273"
"20:35:27:272 (H:m:s:ms)","GENERIC","62.073","0.04209600410174869","727"
"20:51:49:90 (H:m:s:ms)","GENERIC","62.109","0.0307496279529304","949"
"20:11:18:787 (H:m:s:ms)","GENERIC","62.115","0.04153104310007442","212"
"20:35:33:333 (H:m:s:ms)","GENERIC","62.071","0.021888433083254173","666"
"20:51:55:151 (H:m:s:ms)","GENERIC","62.071","0.024734751589169247","848"
"20:11:24:848 (H:m:s:ms)","GENERIC","62.057","0.04134252311460471","151"
"20:35:39:393 (H:m:s:ms)","GENERIC","62.105","0.026099953511119347","640"
"20:52:1:212 (H:m:s:ms)","GENERIC","62.087","0.019446779091169004","787"
"20:11:30:909 (H:m:s:ms)","GENERIC","62.073","0.006096245078399762","1091"
"20:35:45:454 (H:m:s:ms)","GENERIC","62.057","0.03531809090691411","545"
"20:11:36:969 (H:m:s:ms)","GENERIC","62.093","0.02789350350981765","1030"
"20:35:51:515 (H:m:s:ms)","GENERIC","62.121","0.03354321735924717","484"
"20:11:43:30 (H:m:s:ms)","GENERIC","62.147","0.0431157603282585","969"
"20:11:49:90 (H:m:s:ms)","GENERIC","62.123","0.05301061024655094","951"
"20:0:54:545 (H:m:s:ms)","GENERIC","31.063","0.03236409042542011","456"
"20:1:0:606 (H:m:s:ms)","GENERIC","31.053","0.014850873140944722","393"
"20:1:6:666 (H:m:s:ms)","GENERIC","31.011","0.02049505841742846","334"
"20:1:12:727 (H:m:s:ms)","GENERIC","31.031","0.021111016159146703","273"
"20:1:18:787 (H:m:s:ms)","GENERIC","31.068","0.02957951686425659","213"
"20:1:24:848 (H:m:s:ms)","GENERIC","31.033","0.029687398780495068","153"
"20:1:30:909 (H:m:s:ms)","GENERIC","31.031","0.011798517719715618","1091"
"20:1:36:969 (H:m:s:ms)","GENERIC","31.054","0.02964838299446638","1031"
"20:1:43:30 (H:m:s:ms)","GENERIC","31.076","0.035507503574076685","970"
"20:1:49:90 (H:m:s:ms)","GENERIC","31.072","0.04743695575667142","922"
"20:35:57:575 (H:m:s:ms)","GENERIC","62.131","0.03360554792931184","424"
"20:36:3:636 (H:m:s:ms)","GENERIC","62.115","0.032440552660592606","363"
"20:11:55:151 (H:m:s:ms)","GENERIC","62.047","0.04591142167997741","848"
"20:36:9:696 (H:m:s:ms)","GENERIC","62.093","0.033980255662130095","337"
"20:12:1:212 (H:m:s:ms)","GENERIC","62.077","0.034077310193318555","787"
"20:36:15:757 (H:m:s:ms)","GENERIC","62.091","0.052044973651540115","242"
"20:12:7:272 (H:m:s:ms)","GENERIC","62.039","0.027953675535729135","727"
"20:36:21:818 (H:m:s:ms)","GENERIC","62.039","0.04140564103078795","181"
"20:12:13:333 (H:m:s:ms)","GENERIC","62.029","0.018670352805371628","666"
"20:36:27:878 (H:m:s:ms)","GENERIC","62.081","0.019708550827713448","1121"
"20:12:19:393 (H:m:s:ms)","GENERIC","62.161","0.02346865311150604","644"
"20:36:33:939 (H:m:s:ms)","GENERIC","62.067","0.03142491470984981","1062"
"20:12:25:454 (H:m:s:ms)","GENERIC","62.043","0.03427521905165735","546"
"20:36:40:0 (H:m:s:ms)","GENERIC","62.033","0.03012102161405544","1036"
"20:12:31:515 (H:m:s:ms)","GENERIC","62.075","0.03683017288561484","484"
"20:36:46:60 (H:m:s:ms)","GENERIC","62.135","0.035272269058127276","939"
"20:12:37:575 (H:m:s:ms)","GENERIC","62.113","0.021624971741493342","425"
"20:36:52:121 (H:m:s:ms)","GENERIC","62.045","0.03159805208650172","878"
"20:12:43:636 (H:m:s:ms)","GENERIC","62.105","0.012648606018205279","363"
"20:12:49:696 (H:m:s:ms)","GENERIC","62.067","0.029338693489678304","340"
"20:1:55:151 (H:m:s:ms)","GENERIC","31.031","0.0421690476998267","848"
"20:2:1:212 (H:m:s:ms)","GENERIC","31.036","0.015313386841534566","787"
"20:2:7:272 (H:m:s:ms)","GENERIC","31.014","0.022329445200743946","727"
"20:2:13:333 (H:m:s:ms)","GENERIC","31.011","0.020533158735335757","666"
"20:2:19:393 (H:m:s:ms)","GENERIC","31.083","0.011827140325241093","619"
"20:2:25:454 (H:m:s:ms)","GENERIC","31.017","0.031091935737483953","546"
"20:2:31:515 (H:m:s:ms)","GENERIC","31.047","0.03227967379590826","484"
"20:2:37:575 (H:m:s:ms)","GENERIC","31.066","0.011878263021587477","425"
"20:2:43:636 (H:m:s:ms)","GENERIC","31.058","0.012156966994868401","364"
"20:2:49:696 (H:m:s:ms)","GENERIC","31.049","0.029338693489678304","319"
"20:36:58:181 (H:m:s:ms)","GENERIC","62.037","0.02830942642463004","818"
"20:37:4:242 (H:m:s:ms)","GENERIC","62.089","0.03432857939961505","758"
"20:12:55:757 (H:m:s:ms)","GENERIC","62.093","0.029194643374833757","242"
"20:37:10:303 (H:m:s:ms)","GENERIC","62.117","0.022496232047601976","696"
"20:13:1:818 (H:m:s:ms)","GENERIC","62.039","0.0118473325576041","182"
"20:37:16:363 (H:m:s:ms)","GENERIC","62.095","0.024231101568462848","636"
"20:13:7:878 (H:m:s:ms)","GENERIC","62.071","0.041186117761890094","1121"
"20:37:22:424 (H:m:s:ms)","GENERIC","62.107","0.030611619040929582","575"
"20:13:13:939 (H:m:s:ms)","GENERIC","62.087","0.04330374180606813","1061"
"20:37:28:484 (H:m:s:ms)","GENERIC","62.085","0.026165892649399853","515"
"20:13:20:0 (H:m:s:ms)","GENERIC","62.069","0.0303597634342712","1036"
"20:37:34:545 (H:m:s:ms)","GENERIC","62.039","0.026159416861928166","454"
"20:13:26:60 (H:m:s:ms)","GENERIC","62.155","0.039636150874992046","939"
"20:37:40:606 (H:m:s:ms)","GENERIC","62.095","0.029530638211568972","394"
"20:13:32:121 (H:m:s:ms)","GENERIC","62.037","0.03786013303565594","879"
"20:37:46:666 (H:m:s:ms)","GENERIC","62.111","0.05525776497471516","333"
"20:13:38:181 (H:m:s:ms)","GENERIC","62.047","0.03920990792157315","819"
"20:37:52:727 (H:m:s:ms)","GENERIC","62.063","0.06534953992484148","272"
"20:13:44:242 (H:m:s:ms)","GENERIC","62.061","0.05096900402481186","757"
"20:13:50:303 (H:m:s:ms)","GENERIC","62.051","0.057672175580733516","696"
"20:2:55:757 (H:m:s:ms)","GENERIC","31.049","0.03241896681175364","242"
"20:3:1:818 (H:m:s:ms)","GENERIC","31.019","0.01844019432307625","182"
"20:3:7:878 (H:m:s:ms)","GENERIC","31.035","0.02132828525830133","122"
"20:3:13:939 (H:m:s:ms)","GENERIC","31.036","0.012515212880968109","1061"
"20:3:20:0 (H:m:s:ms)","GENERIC","31.031","0.018480116880288257","1001"
"20:3:26:60 (H:m:s:ms)","GENERIC","31.075","0.031895563107835014","939"
"20:3:32:121 (H:m:s:ms)","GENERIC","31.018","0.037834405825179454","879"
"20:3:38:181 (H:m:s:ms)","GENERIC","31.031","0.039184017311521824","818"
"20:3:44:242 (H:m:s:ms)","GENERIC","31.037","0.03358503776786136","759"
"20:3:50:303 (H:m:s:ms)","GENERIC","31.027","0.024775525183753498","696"
"20:37:58:787 (H:m:s:ms)","GENERIC","62.137","0.045845990896408804","212"
"20:38:4:848 (H:m:s:ms)","GENERIC","62.081","0.023093316648398997","151"
"20:13:56:363 (H:m:s:ms)","GENERIC","62.135","0.042282562125081316","636"
"20:38:10:909 (H:m:s:ms)","GENERIC","62.083","0.02488237635478623","1090"
"20:14:2:424 (H:m:s:ms)","GENERIC","62.083","0.026915385335235797","576"
"20:38:16:969 (H:m:s:ms)","GENERIC","62.081","0.02918063441462796","1030"
"20:14:8:484 (H:m:s:ms)","GENERIC","62.097","0.05003241199300297","515"
"20:38:23:30 (H:m:s:ms)","GENERIC","62.071","0.023238342171902442","969"
"20:14:14:545 (H:m:s:ms)","GENERIC","62.111","0.05329100205135982","455"
"20:38:29:90 (H:m:s:ms)","GENERIC","62.045","0.030136322753345848","944"
"20:14:20:606 (H:m:s:ms)","GENERIC","62.107","0.0510468975735079","393"
"20:38:35:151 (H:m:s:ms)","GENERIC","62.067","0.02956976526122031","848"
"20:14:26:666 (H:m:s:ms)","GENERIC","62.091","0.04927313787653258","334"
"20:38:41:212 (H:m:s:ms)","GENERIC","62.091","0.02160895043320265","788"
"20:14:32:727 (H:m:s:ms)","GENERIC","62.113","0.05328277547924488","272"
"20:38:47:272 (H:m:s:ms)","GENERIC","62.059","0.01730936531804604","727"
"20:14:38:787 (H:m:s:ms)","GENERIC","62.091","0.04776771267279183","212"
"20:38:53:333 (H:m:s:ms)","GENERIC","62.041","0.013098007442861567","666"
"20:14:44:848 (H:m:s:ms)","GENERIC","62.053","0.03941299293973828","152"
"20:14:50:909 (H:m:s:ms)","GENERIC","62.099","0.011853834787804116","1090"
"20:3:56:363 (H:m:s:ms)","GENERIC","31.077","0.023106007506090657","637"
"20:4:2:424 (H:m:s:ms)","GENERIC","31.047","0.02665485211453511","575"
"20:4:8:484 (H:m:s:ms)","GENERIC","31.044","0.03696483989048751","515"
"20:4:14:545 (H:m:s:ms)","GENERIC","31.046","0.03445988161661541","456"
"20:4:20:606 (H:m:s:ms)","GENERIC","31.057","0.034201491708167886","393"
"20:4:26:666 (H:m:s:ms)","GENERIC","31.053","0.049334509593623614","334"
"20:4:32:727 (H:m:s:ms)","GENERIC","31.057","0.052236037637273726","273"
"20:4:38:787 (H:m:s:ms)","GENERIC","31.036","0.032968226223442684","213"
"20:4:44:848 (H:m:s:ms)","GENERIC","31.036","0.0319984215507671","153"
"20:4:50:909 (H:m:s:ms)","GENERIC","31.06","0.005874440175572658","1090"
"20:38:59:393 (H:m:s:ms)","GENERIC","62.113","0.012128068349419003","643"
"20:39:5:454 (H:m:s:ms)","GENERIC","62.079","0.041950663926409844","546"
"20:14:56:969 (H:m:s:ms)","GENERIC","62.109","0.016774708668680027","1030"
"20:39:11:515 (H:m:s:ms)","GENERIC","62.165","0.04619300658756005","484"
"20:15:3:30 (H:m:s:ms)","GENERIC","62.037","0.013322253487604192","970"
"20:39:17:575 (H:m:s:ms)","GENERIC","62.045","0.023771194750397816","424"
"20:15:9:90 (H:m:s:ms)","GENERIC","62.097","0.041301445034441636","944"
"20:39:23:636 (H:m:s:ms)","GENERIC","62.059","0.02035286718063135","363"
"20:15:15:151 (H:m:s:ms)","GENERIC","62.013","0.04257972522201556","848"
"20:39:29:696 (H:m:s:ms)","GENERIC","62.095","0.04440006555435614","339"
"20:15:21:212 (H:m:s:ms)","GENERIC","62.085","0.018205594426076575","787"
"20:39:35:757 (H:m:s:ms)","GENERIC","62.121","0.059711643468058906","242"
"20:15:27:272 (H:m:s:ms)","GENERIC","62.087","0.033958884107205","727"
"20:39:41:818 (H:m:s:ms)","GENERIC","62.069","0.04621229964719596","181"
"20:15:33:333 (H:m:s:ms)","GENERIC","62.049","0.03267527362008667","666"
"20:39:47:878 (H:m:s:ms)","GENERIC","62.113","0.015780476466190695","1121"
"20:15:39:393 (H:m:s:ms)","GENERIC","62.087","0.058567835377025305","642"
"20:39:53:939 (H:m:s:ms)","GENERIC","62.105","0.021063884959787935","1060"
"20:15:45:454 (H:m:s:ms)","GENERIC","62.035","0.06139278456508985","545"
"20:15:51:515 (H:m:s:ms)","GENERIC","62.111","0.02512561586387785","484"
"20:4:56:969 (H:m:s:ms)","GENERIC","31.051","0.013140168061134137","1030"
"20:5:3:30 (H:m:s:ms)","GENERIC","31.024","0.021169190714130877","970"
"20:5:9:90 (H:m:s:ms)","GENERIC","31.057","0.027435708525406884","932"
"20:5:15:151 (H:m:s:ms)","GENERIC","31.015","0.027421297155654275","848"
"20:5:21:212 (H:m:s:ms)","GENERIC","31.041","0.022338086616243216","788"
"20:5:27:272 (H:m:s:ms)","GENERIC","31.053","0.03374840490678979","728"
"20:5:33:333 (H:m:s:ms)","GENERIC","31.018","0.03148703057659814","666"
"20:5:39:393 (H:m:s:ms)","GENERIC","31.039","0.029556495596933085","630"
"20:5:45:454 (H:m:s:ms)","GENERIC","31.026","0.03567292855459293","545"
"20:5:51:515 (H:m:s:ms)","GENERIC","31.056","0.025067034344602564","484"
"20:15:57:575 (H:m:s:ms)","GENERIC","62.113","0.04330810867823448","424"
"20:16:3:636 (H:m:s:ms)","GENERIC","62.109","0.04588725195650334","363"
"20:16:9:696 (H:m:s:ms)","GENERIC","62.129","0.048881158027577996","339"
"20:16:15:757 (H:m:s:ms)","GENERIC","62.059","0.046478092547131734","242"
"20:16:21:818 (H:m:s:ms)","GENERIC","62.045","0.018411091933897023","181"
"20:16:27:878 (H:m:s:ms)","GENERIC","62.117","0.018074805134961645","1122"
"20:16:33:939 (H:m:s:ms)","GENERIC","62.051","0.030427624496638068","1060"
"20:16:40:0 (H:m:s:ms)","GENERIC","62.039","0.025240408710694544","1037"
"20:16:46:60 (H:m:s:ms)","GENERIC","62.105","0.011911171571877318","939"
"20:16:52:121 (H:m:s:ms)","GENERIC","62.079","0.015619702250701303","878"
"20:5:57:575 (H:m:s:ms)","GENERIC","31.061","0.04327412498288534","425"
"20:6:3:636 (H:m:s:ms)","GENERIC","31.05","0.042378378450857276","363"
"20:6:9:696 (H:m:s:ms)","GENERIC","31.071","0.04251744583697765","329"
"20:6:15:757 (H:m:s:ms)","GENERIC","31.022","0.057938418339820066","242"
"20:6:21:818 (H:m:s:ms)","GENERIC","31.03","0.041266481842508064","181"
"20:6:27:878 (H:m:s:ms)","GENERIC","31.073","0.01891526395108443","121"
"20:6:33:939 (H:m:s:ms)","GENERIC","31.026","0.008442953975800638","1061"
"20:6:40:0 (H:m:s:ms)","GENERIC","31.028","0.01045978888085177","1001"
"20:6:46:60 (H:m:s:ms)","GENERIC","31.061","0.012276127651179735","939"
"20:6:52:121 (H:m:s:ms)","GENERIC","31.038","0.018758885228936716","879"
"20:16:58:181 (H:m:s:ms)","GENERIC","62.047","0.04250907733157368","818"
"20:17:4:242 (H:m:s:ms)","GENERIC","62.059","0.05121242267241071","757"
"20:17:10:303 (H:m:s:ms)","GENERIC","62.091","0.03953316706667334","696"
"20:17:16:363 (H:m:s:ms)","GENERIC","62.099","0.04058133092532195","636"
"20:17:22:424 (H:m:s:ms)","GENERIC","62.091","0.03817584809476909","575"
"20:17:28:484 (H:m:s:ms)","GENERIC","62.093","0.03199662477953254","515"
"20:17:34:545 (H:m:s:ms)","GENERIC","62.053","0.032004029427940874","455"
"20:17:40:606 (H:m:s:ms)","GENERIC","62.107","0.0456656054213352","393"
"20:17:46:666 (H:m:s:ms)","GENERIC","62.081","0.06531211911070813","333"
"20:17:52:727 (H:m:s:ms)","GENERIC","62.079","0.0653021024386139","272"
"20:6:58:181 (H:m:s:ms)","GENERIC","31.033","0.03129260251589781","819"
"20:7:4:242 (H:m:s:ms)","GENERIC","31.025","0.029436878821309024","758"
"20:7:10:303 (H:m:s:ms)","GENERIC","31.051","0.014020622665692054","696"
"20:7:16:363 (H:m:s:ms)","GENERIC","31.046","0.037717888039155496","637"
"20:7:22:424 (H:m:s:ms)","GENERIC","31.055","0.042053559228115885","575"
"20:7:28:484 (H:m:s:ms)","GENERIC","31.055","0.026297632805076715","516"
"20:7:34:545 (H:m:s:ms)","GENERIC","31.034","0.04404327121240417","454"
"20:7:40:606 (H:m:s:ms)","GENERIC","31.056","0.05841209003267324","393"
"20:7:46:666 (H:m:s:ms)","GENERIC","31.037","0.06185727754559592","334"
"20:7:52:727 (H:m:s:ms)","GENERIC","31.032","0.06123692750883371","273"
"20:17:58:787 (H:m:s:ms)","GENERIC","62.131","0.051404308674007866","213"
"20:18:4:848 (H:m:s:ms)","GENERIC","62.079","0.03305381972609341","152"
"20:18:10:909 (H:m:s:ms)","GENERIC","62.103","0.0409663366770906","1091"
"20:18:16:969 (H:m:s:ms)","GENERIC","62.087","0.04221034245729456","1030"
"20:18:23:30 (H:m:s:ms)","GENERIC","62.083","0.020451977622690118","969"
"20:18:29:90 (H:m:s:ms)","GENERIC","62.053","0.030785313676472904","945"
"20:18:35:151 (H:m:s:ms)","GENERIC","62.087","0.02652336520644233","849"
"20:18:41:212 (H:m:s:ms)","GENERIC","62.087","0.016191746008216976","787"
"20:18:47:272 (H:m:s:ms)","GENERIC","62.047","0.033668070825949054","727"
"20:18:53:333 (H:m:s:ms)","GENERIC","62.011","0.03172130690746603","666"
"20:7:58:787 (H:m:s:ms)","GENERIC","31.059","0.04601703469425602","212"
"20:8:4:848 (H:m:s:ms)","GENERIC","31.036","0.029393279864528117","152"
"20:8:10:909 (H:m:s:ms)","GENERIC","31.057","0.024667861710341746","1090"
"20:8:16:969 (H:m:s:ms)","GENERIC","31.038","0.028998056538444915","1030"
"20:8:23:30 (H:m:s:ms)","GENERIC","31.035","0.019412426182278397","970"
"20:8:29:90 (H:m:s:ms)","GENERIC","31.02","0.02790381832511312","943"
"20:8:35:151 (H:m:s:ms)","GENERIC","31.045","0.0352084029302889","849"
"20:8:41:212 (H:m:s:ms)","GENERIC","31.046","0.028276082720621085","787"
"20:8:47:272 (H:m:s:ms)","GENERIC","31.027","0.02472215817936252","728"
"20:8:53:333 (H:m:s:ms)","GENERIC","31.016","0.026122510564082057","667"
"20:18:59:393 (H:m:s:ms)","GENERIC","62.083","0.014411131729699498","641"
"20:19:5:454 (H:m:s:ms)","GENERIC","62.061","0.0425004488247879","545"
"20:19:11:515 (H:m:s:ms)","GENERIC","62.129","0.045801936096926274","484"
"20:19:17:575 (H:m:s:ms)","GENERIC","62.045","0.02328121585238137","424"
"20:19:23:636 (H:m:s:ms)","GENERIC","62.093","0.020425474951805717","364"
"20:19:29:696 (H:m:s:ms)","GENERIC","62.103","0.03240365202969864","338"
"20:19:35:757 (H:m:s:ms)","GENERIC","62.079","0.05139015444355938","243"
"20:19:41:818 (H:m:s:ms)","GENERIC","62.053","0.04477159332803187","182"
"20:19:47:878 (H:m:s:ms)","GENERIC","62.073","0.010900234133570963","1122"
"20:19:53:939 (H:m:s:ms)","GENERIC","62.111","0.029368538260336596","1061"
"20:8:59:393 (H:m:s:ms)","GENERIC","31.038","0.02017532338316907","640"
"20:9:5:454 (H:m:s:ms)","GENERIC","31.024","0.04265290464158226","546"
"20:9:11:515 (H:m:s:ms)","GENERIC","31.06","0.04619300658756005","484"
"20:9:17:575 (H:m:s:ms)","GENERIC","31.032","0.023879573422859995","425"
"20:9:23:636 (H:m:s:ms)","GENERIC","31.048","0.012490764586666533","363"
"20:9:29:696 (H:m:s:ms)","GENERIC","31.061","0.027985599972761368","339"
"20:9:35:757 (H:m:s:ms)","GENERIC","31.031","0.03727577628950782","242"
"20:9:41:818 (H:m:s:ms)","GENERIC","31.024","0.026047793229688355","181"
"20:9:47:878 (H:m:s:ms)","GENERIC","31.035","0.008285294359258448","121"
"20:9:53:939 (H:m:s:ms)","GENERIC","31.064","0.027238909199720284","1062"
"21:41:12:727 (H:m:s:ms)","GENERIC","62.053","0.018314829324289066","272"
"21:41:6:666 (H:m:s:ms)","GENERIC","62.061","0.015667516718430446","333"
"21:41:0:606 (H:m:s:ms)","GENERIC","62.065","0.03226470234669252","393"
"21:40:54:545 (H:m:s:ms)","GENERIC","62.071","0.04324362353261765","454"
"21:40:48:484 (H:m:s:ms)","GENERIC","62.089","0.051230845959889325","515"
"21:40:42:424 (H:m:s:ms)","GENERIC","62.125","0.04490858753994234","575"
"21:40:36:363 (H:m:s:ms)","GENERIC","62.109","0.019971046023469347","636"
"21:41:30:909 (H:m:s:ms)","GENERIC","62.039","0.011798517719715618","1090"
"21:41:24:848 (H:m:s:ms)","GENERIC","62.057","0.022279403320082634","151"
"21:41:18:787 (H:m:s:ms)","GENERIC","62.127","0.01956666289465534","213"
