"time (H:m:s:ms)","type","latency","utilisation","waiting"
"21:42:37:575 (H:m:s:ms)","GENERIC","62.043","0.08967087124932933","424"
"21:42:19:393 (H:m:s:ms)","GENERIC","124.379","0.13211477259397086","659"
"21:42:13:333 (H:m:s:ms)","GENERIC","124.461","0.12099613829889085","666"
"21:42:7:272 (H:m:s:ms)","GENERIC","62.073","0.09166509372251337","728"
"21:42:1:212 (H:m:s:ms)","GENERIC","62.101","0.10355999172198042","787"
"21:41:55:151 (H:m:s:ms)","GENERIC","124.215","0.1288630301024333","848"
"21:41:49:90 (H:m:s:ms)","GENERIC","93.18299999999999","0.13375829838911177","966"
"21:41:43:30 (H:m:s:ms)","GENERIC","124.40100000000001","0.11720746540878983","969"
"21:41:36:969 (H:m:s:ms)","GENERIC","62.051","0.10422292629322175","1030"
"21:42:31:515 (H:m:s:ms)","GENERIC","62.141","0.1250362990551662","485"
"21:42:25:454 (H:m:s:ms)","GENERIC","124.58","0.14321996668651155","545"
"21:43:44:242 (H:m:s:ms)","GENERIC","93.297","0.11891314264956283","758"
"21:43:38:181 (H:m:s:ms)","GENERIC","62.071","0.08819965182232357","818"
"21:43:26:60 (H:m:s:ms)","GENERIC","124.219","0.1298916665539539","939"
"20:0:0:0 (H:m:s:ms)","GENERIC","31.027","0.037620330357379196","1092"
"21:43:20:0 (H:m:s:ms)","GENERIC","93.18599999999999","0.11187468227840901","1054"
"20:0:6:60 (H:m:s:ms)","GENERIC","93.537","0.0847305466787587","940"
"21:43:13:939 (H:m:s:ms)","GENERIC","124.581","0.12166659547122018","1061"
"20:0:12:121 (H:m:s:ms)","GENERIC","93.564","0.11534192784281258","878"
"21:43:7:878 (H:m:s:ms)","GENERIC","93.36","0.07393472843543705","1121"
"20:0:18:181 (H:m:s:ms)","GENERIC","93.581","0.12344680374874038","819"
"21:43:1:818 (H:m:s:ms)","GENERIC","124.37299999999999","0.11388474581224937","181"
"20:0:24:242 (H:m:s:ms)","GENERIC","93.252","0.12240476925714874","758"
"21:42:55:757 (H:m:s:ms)","GENERIC","124.32","0.11671166218534848","242"
"20:0:30:303 (H:m:s:ms)","GENERIC","31.047","0.1325164182201689","696"
"21:42:49:696 (H:m:s:ms)","GENERIC","62.101","0.10048371439482467","356"
"20:0:36:363 (H:m:s:ms)","GENERIC","31.036","0.10056309033707748","636"
"21:42:43:636 (H:m:s:ms)","GENERIC","93.188","0.10065754807343474","363"
"20:0:42:424 (H:m:s:ms)","GENERIC","62.101","0.10569558257594404","576"
"21:10:24:242 (H:m:s:ms)","GENERIC","93.16499999999999","0.1323957754302964","757"
"20:0:48:484 (H:m:s:ms)","GENERIC","93.275","0.1045740975771305","516"
"21:10:30:303 (H:m:s:ms)","GENERIC","62.083","0.11512644594854869","696"
"21:10:36:363 (H:m:s:ms)","GENERIC","62.091","0.04477468619385128","637"
"21:10:42:424 (H:m:s:ms)","GENERIC","93.171","0.081904491915771","575"
"21:10:48:484 (H:m:s:ms)","GENERIC","93.2","0.11505715350124507","515"
"21:10:54:545 (H:m:s:ms)","GENERIC","93.11","0.12171789233687076","455"
"21:11:0:606 (H:m:s:ms)","GENERIC","93.089","0.12735747443468057","393"
"21:11:6:666 (H:m:s:ms)","GENERIC","93.123","0.13712254106482596","333"
"21:43:32:121 (H:m:s:ms)","GENERIC","62.117","0.11704017597566481","878"
"21:11:12:727 (H:m:s:ms)","GENERIC","62.079","0.1220256378972718","272"
"21:11:18:787 (H:m:s:ms)","GENERIC","62.195","0.09460901882396734","212"
"21:25:49:367 (H:m:s:ms)","OPERA","93.151","0.10602095983416891","687"
"21:44:50:909 (H:m:s:ms)","GENERIC","62.113","0.07116234779489097","1090"
"21:44:44:848 (H:m:s:ms)","GENERIC","62.071","0.08654115495264218","152"
"21:44:38:787 (H:m:s:ms)","GENERIC","93.247","0.10607200055790918","212"
"21:44:32:727 (H:m:s:ms)","GENERIC","93.09100000000001","0.1152052970308798","272"
"21:44:26:666 (H:m:s:ms)","GENERIC","124.441","0.10607268607492279","333"
"21:44:20:606 (H:m:s:ms)","GENERIC","93.102","0.0938868322201436","393"
"21:44:14:545 (H:m:s:ms)","GENERIC","93.301","0.10452162230448475","455"
"21:44:8:484 (H:m:s:ms)","GENERIC","93.286","0.11098618549143596","515"
"21:44:2:424 (H:m:s:ms)","GENERIC","93.20400000000001","0.10884003787255271","575"
"21:43:56:363 (H:m:s:ms)","GENERIC","62.079","0.12522278115947433","636"
"21:11:24:848 (H:m:s:ms)","GENERIC","93.168","0.1168935944292338","151"
"21:43:50:303 (H:m:s:ms)","GENERIC","93.33","0.13980209878179045","696"
"21:11:30:909 (H:m:s:ms)","GENERIC","93.194","0.061221897018708483","1091"
"21:11:36:969 (H:m:s:ms)","GENERIC","62.077","0.09335980732631685","1030"
"21:11:43:30 (H:m:s:ms)","GENERIC","124.377","0.1027433429520727","969"
"21:11:49:90 (H:m:s:ms)","GENERIC","93.213","0.12504438990858155","951"
"21:11:55:151 (H:m:s:ms)","GENERIC","124.215","0.1262744932101386","848"
"21:12:1:212 (H:m:s:ms)","GENERIC","62.089","0.09867020341026435","787"
"21:12:7:272 (H:m:s:ms)","GENERIC","62.019","0.0946007383131933","727"
"21:12:13:333 (H:m:s:ms)","GENERIC","124.482","0.10611241962839986","666"
"21:12:19:393 (H:m:s:ms)","GENERIC","93.249","0.12172492311341317","649"
"21:26:27:341 (H:m:s:ms)","OPERA","93.151","0.1162959161186878","658"
"21:45:57:575 (H:m:s:ms)","GENERIC","62.061","0.1099485157171705","424"
"21:26:21:818 (H:m:s:ms)","GENERIC","93.372","0.12450258447396303","181"
"21:45:51:515 (H:m:s:ms)","GENERIC","93.101","0.10812608895613404","485"
"21:45:45:454 (H:m:s:ms)","GENERIC","93.11","0.09531887033198809","545"
"21:45:39:393 (H:m:s:ms)","GENERIC","62.097","0.0979018545288724","653"
"21:26:15:757 (H:m:s:ms)","GENERIC","93.20400000000001","0.12158680222098518","242"
"21:26:12:151 (H:m:s:ms)","OPERA","93.151","0.0956330719289413","848"
"21:45:33:333 (H:m:s:ms)","GENERIC","124.253","0.10040002355739554","666"
"21:26:9:696 (H:m:s:ms)","GENERIC","62.135","0.11534666937088205","348"
"21:45:27:272 (H:m:s:ms)","GENERIC","62.033","0.12962350976224335","727"
"21:26:4:556 (H:m:s:ms)","OPERA","62.015","0.1026677266703546","443"
"21:45:21:212 (H:m:s:ms)","GENERIC","124.44200000000001","0.14459877587148112","787"
"21:26:3:636 (H:m:s:ms)","GENERIC","93.196","0.11908044141314676","363"
"21:45:15:151 (H:m:s:ms)","GENERIC","93.294","0.12409055670036437","848"
"21:25:57:575 (H:m:s:ms)","GENERIC","62.059","0.107679768094793","424"
"21:45:9:90 (H:m:s:ms)","GENERIC","93.402","0.11510539364658201","957"
"21:12:25:454 (H:m:s:ms)","GENERIC","124.584","0.13183500142915627","545"
"21:25:56:962 (H:m:s:ms)","OPERA","93.153","0.09986302676383828","1037"
"21:45:3:30 (H:m:s:ms)","GENERIC","93.38","0.1061318732036482","969"
"21:12:31:515 (H:m:s:ms)","GENERIC","93.382","0.13002750405892685","484"
"21:25:51:515 (H:m:s:ms)","GENERIC","62.051","0.1179495460780861","484"
"21:44:56:969 (H:m:s:ms)","GENERIC","93.137","0.1035251695992098","1030"
"21:12:37:575 (H:m:s:ms)","GENERIC","93.104","0.09647536041533418","424"
"21:12:43:636 (H:m:s:ms)","GENERIC","124.30199999999999","0.10448959790744183","363"
"21:12:49:696 (H:m:s:ms)","GENERIC","62.081","0.10724947496033513","345"
"21:12:55:757 (H:m:s:ms)","GENERIC","93.193","0.1110002500168177","242"
"21:13:1:818 (H:m:s:ms)","GENERIC","124.39699999999999","0.10670222482238866","181"
"21:13:7:878 (H:m:s:ms)","GENERIC","93.34","0.0933799772291162","1121"
"21:13:13:939 (H:m:s:ms)","GENERIC","124.577","0.11961082534737216","1061"
"21:13:20:0 (H:m:s:ms)","GENERIC","62.039","0.07189751002532425","1043"
"21:26:19:746 (H:m:s:ms)","OPERA","124.287","0.09644875758639729","300"
"21:27:4:242 (H:m:s:ms)","GENERIC","93.337","0.12280137245912902","758"
"21:47:4:242 (H:m:s:ms)","GENERIC","124.608","0.12439240784498512","758"
"21:26:58:181 (H:m:s:ms)","GENERIC","93.41","0.15978111736888612","818"
"21:46:58:181 (H:m:s:ms)","GENERIC","124.678","0.14547391159801715","818"
"21:26:57:721 (H:m:s:ms)","OPERA","93.149","0.13743234121775813","278"
"21:46:52:121 (H:m:s:ms)","GENERIC","93.284","0.12173888658041442","878"
"21:46:46:60 (H:m:s:ms)","GENERIC","62.037","0.10510495327028728","939"
"21:46:40:0 (H:m:s:ms)","GENERIC","93.12","0.1051747805002115","1045"
"21:26:52:121 (H:m:s:ms)","GENERIC","93.3","0.1384178962448563","878"
"21:26:50:126 (H:m:s:ms)","OPERA","93.149","0.10174746732055377","873"
"21:26:46:60 (H:m:s:ms)","GENERIC","93.10300000000001","0.1334751202858483","939"
"21:46:33:939 (H:m:s:ms)","GENERIC","62.107","0.12800291362490374","1060"
"21:26:42:531 (H:m:s:ms)","OPERA","93.149","0.11363855130735627","468"
"21:46:27:878 (H:m:s:ms)","GENERIC","93.124","0.10530938866059061","1121"
"21:26:40:0 (H:m:s:ms)","GENERIC","93.108","0.12592318011402368","1047"
"21:46:21:818 (H:m:s:ms)","GENERIC","93.342","0.10960988811421224","181"
"21:13:26:60 (H:m:s:ms)","GENERIC","124.253","0.116143714869375","939"
"21:26:34:936 (H:m:s:ms)","OPERA","93.151","0.10152870443973837","1063"
"21:46:15:757 (H:m:s:ms)","GENERIC","93.176","0.07523439991566369","242"
"21:13:32:121 (H:m:s:ms)","GENERIC","62.081","0.12675878112019995","878"
"21:26:33:939 (H:m:s:ms)","GENERIC","93.134","0.09781039204069626","1060"
"21:46:9:696 (H:m:s:ms)","GENERIC","62.099","0.08595907853102154","350"
"21:13:38:181 (H:m:s:ms)","GENERIC","93.142","0.10495488181981154","818"
"21:26:27:878 (H:m:s:ms)","GENERIC","62.057","0.10876447948629812","1121"
"21:46:3:636 (H:m:s:ms)","GENERIC","62.159","0.10197038488710101","363"
"21:13:44:242 (H:m:s:ms)","GENERIC","93.277","0.12314626350072146","757"
"21:13:50:303 (H:m:s:ms)","GENERIC","93.336","0.1256913959672738","696"
"21:13:56:363 (H:m:s:ms)","GENERIC","62.115","0.10194132910214715","636"
"21:14:2:424 (H:m:s:ms)","GENERIC","93.202","0.08860246851793892","575"
"21:14:8:484 (H:m:s:ms)","GENERIC","93.304","0.09032243226180275","515"
"21:14:14:545 (H:m:s:ms)","GENERIC","124.56","0.09391809007815823","454"
"21:14:20:606 (H:m:s:ms)","GENERIC","62.109","0.09219167923167679","393"
"21:27:40:606 (H:m:s:ms)","GENERIC","93.17099999999999","0.1458575464953009","393"
"21:48:10:909 (H:m:s:ms)","GENERIC","62.043","0.037101881175714786","1090"
"21:27:35:696 (H:m:s:ms)","OPERA","93.149","0.10110780898158067","303"
"21:48:4:848 (H:m:s:ms)","GENERIC","124.622","0.137709753085992","151"
"21:27:34:545 (H:m:s:ms)","GENERIC","93.114","0.14320447389835372","455"
"21:47:58:787 (H:m:s:ms)","GENERIC","93.151","0.13084092113861515","212"
"21:27:28:484 (H:m:s:ms)","GENERIC","93.074","0.12496983528694669","515"
"21:47:52:727 (H:m:s:ms)","GENERIC","124.41","0.12628899845239341","272"
"21:47:46:666 (H:m:s:ms)","GENERIC","93.388","0.13689672902950062","333"
"21:47:40:606 (H:m:s:ms)","GENERIC","124.28399999999999","0.10996537185839485","393"
"21:27:28:101 (H:m:s:ms)","OPERA","93.149","0.09189572541896314","898"
"21:27:22:424 (H:m:s:ms)","GENERIC","62.121","0.1352167980935806","575"
"21:27:20:506 (H:m:s:ms)","OPERA","93.153","0.1272312668157603","493"
"21:47:34:545 (H:m:s:ms)","GENERIC","62.029","0.07418563971116443","455"
"21:14:26:666 (H:m:s:ms)","GENERIC","93.255","0.09578303711947155","333"
"21:27:16:363 (H:m:s:ms)","GENERIC","93.214","0.13019272669803778","636"
"21:47:28:484 (H:m:s:ms)","GENERIC","62.091","0.09358341759237973","515"
"21:14:32:727 (H:m:s:ms)","GENERIC","93.083","0.11716951196307006","272"
"21:27:12:911 (H:m:s:ms)","OPERA","93.283","0.08433288314982057","88"
"21:47:22:424 (H:m:s:ms)","GENERIC","62.107","0.10853473704036071","575"
"20:52:25:454 (H:m:s:ms)","GENERIC","93.362","0.12782192414061297","545"
"21:14:38:787 (H:m:s:ms)","GENERIC","124.423","0.10782819406628429","212"
"21:27:10:303 (H:m:s:ms)","GENERIC","62.111","0.11965342903867483","696"
"21:47:16:363 (H:m:s:ms)","GENERIC","93.194","0.10211086343671416","637"
"20:52:31:515 (H:m:s:ms)","GENERIC","62.123","0.10279045484736207","484"
"21:14:44:848 (H:m:s:ms)","GENERIC","62.081","0.10440172756462224","152"
"21:27:5:316 (H:m:s:ms)","OPERA","93.151","0.10405740264766193","683"
"21:47:10:303 (H:m:s:ms)","GENERIC","62.083","0.07321361493931368","696"
"20:52:37:575 (H:m:s:ms)","GENERIC","62.049","0.07935755534719909","424"
"21:14:50:909 (H:m:s:ms)","GENERIC","124.49199999999999","0.0947893125751179","1090"
"20:52:43:636 (H:m:s:ms)","GENERIC","93.179","0.09239092913903622","363"
"21:14:56:969 (H:m:s:ms)","GENERIC","93.099","0.1202076057864322","1030"
"20:52:49:696 (H:m:s:ms)","GENERIC","62.063","0.10028827287135784","351"
"21:15:3:30 (H:m:s:ms)","GENERIC","93.395","0.10839514413840655","969"
"20:52:55:757 (H:m:s:ms)","GENERIC","62.057","0.1000075390221506","242"
"21:15:9:90 (H:m:s:ms)","GENERIC","124.62","0.1064415907218468","955"
"20:53:1:818 (H:m:s:ms)","GENERIC","93.211","0.0969972742122377","181"
"21:15:15:151 (H:m:s:ms)","GENERIC","93.306","0.10430892299636181","848"
"20:53:7:878 (H:m:s:ms)","GENERIC","124.54599999999999","0.10173624143470415","1121"
"21:15:21:212 (H:m:s:ms)","GENERIC","93.225","0.10385522745998502","787"
"20:53:13:939 (H:m:s:ms)","GENERIC","62.109","0.11911509886802005","1060"
"20:53:20:0 (H:m:s:ms)","GENERIC","62.055","0.08091776319668459","1047"
"21:28:16:969 (H:m:s:ms)","GENERIC","124.40899999999999","0.13059438080156646","1030"
"21:49:17:575 (H:m:s:ms)","GENERIC","62.105","0.10750937804759009","424"
"21:28:13:670 (H:m:s:ms)","OPERA","93.149","0.10048794043393464","329"
"21:49:11:515 (H:m:s:ms)","GENERIC","124.586","0.11104349541374975","484"
"21:28:10:909 (H:m:s:ms)","GENERIC","62.037","0.09545654899486573","1090"
"21:49:5:454 (H:m:s:ms)","GENERIC","62.085","0.09568639037578783","545"
"21:28:6:75 (H:m:s:ms)","OPERA","93.151","0.12108392926599967","924"
"21:48:59:393 (H:m:s:ms)","GENERIC","124.53999999999999","0.09035616738147535","651"
"21:28:4:848 (H:m:s:ms)","GENERIC","93.378","0.14642251065681836","151"
"21:48:53:333 (H:m:s:ms)","GENERIC","62.041","0.06342890616586362","666"
"21:48:47:272 (H:m:s:ms)","GENERIC","62.061","0.08342903152447631","727"
"21:48:41:212 (H:m:s:ms)","GENERIC","62.041","0.08438995196462358","788"
"21:27:58:787 (H:m:s:ms)","GENERIC","93.121","0.14503263749855275","212"
"21:15:27:272 (H:m:s:ms)","GENERIC","93.133","0.09875008305355436","727"
"21:27:58:481 (H:m:s:ms)","OPERA","93.149","0.11786920114858292","518"
"21:15:33:333 (H:m:s:ms)","GENERIC","124.232","0.12234041325821292","666"
"21:27:52:727 (H:m:s:ms)","GENERIC","124.394","0.1529220158684523","272"
"21:48:35:151 (H:m:s:ms)","GENERIC","62.101","0.1130723004525169","849"
"20:53:26:60 (H:m:s:ms)","GENERIC","93.158","0.08660577904118905","939"
"21:15:39:393 (H:m:s:ms)","GENERIC","62.111","0.09344151182334429","652"
"21:27:50:886 (H:m:s:ms)","OPERA","93.149","0.12523603382277232","113"
"21:48:29:90 (H:m:s:ms)","GENERIC","124.237","0.11961976777799327","955"
"20:53:32:121 (H:m:s:ms)","GENERIC","93.136","0.09701114637929502","878"
"21:15:45:454 (H:m:s:ms)","GENERIC","93.082","0.07647212664473992","545"
"21:27:46:666 (H:m:s:ms)","GENERIC","93.39","0.15467788582844916","333"
"21:48:23:30 (H:m:s:ms)","GENERIC","93.15700000000001","0.09933080191047543","969"
"20:53:38:181 (H:m:s:ms)","GENERIC","62.061","0.09743524692617526","818"
"21:15:51:515 (H:m:s:ms)","GENERIC","62.057","0.09160860616730207","484"
"21:27:43:291 (H:m:s:ms)","OPERA","93.151","0.12545658768902593","708"
"21:48:16:969 (H:m:s:ms)","GENERIC","93.246","0.08681072278856909","1030"
"20:53:44:242 (H:m:s:ms)","GENERIC","62.051","0.10317950439549102","757"
"21:15:57:575 (H:m:s:ms)","GENERIC","62.065","0.10012746977768697","424"
"20:53:50:303 (H:m:s:ms)","GENERIC","124.593","0.09672774687022517","696"
"21:16:3:636 (H:m:s:ms)","GENERIC","93.18","0.10338850777683402","363"
"20:53:56:363 (H:m:s:ms)","GENERIC","62.089","0.07152904322242165","636"
"21:16:9:696 (H:m:s:ms)","GENERIC","62.141","0.08755747519460613","345"
"20:54:2:424 (H:m:s:ms)","GENERIC","62.063","0.051755127723370514","575"
"21:16:15:757 (H:m:s:ms)","GENERIC","93.21000000000001","0.0857731916123592","242"
"20:54:8:484 (H:m:s:ms)","GENERIC","93.344","0.07383370274795405","515"
"21:16:21:818 (H:m:s:ms)","GENERIC","93.374","0.11433236811790441","181"
"20:54:14:545 (H:m:s:ms)","GENERIC","124.55199999999999","0.0847832473322812","454"
"20:54:20:606 (H:m:s:ms)","GENERIC","93.148","0.0849201945285373","393"
"21:28:53:333 (H:m:s:ms)","GENERIC","124.206","0.1266715539704799","666"
"21:28:51:645 (H:m:s:ms)","OPERA","93.149","0.07988097625402214","354"
"22:8:56:842 (H:m:s:ms)","AMBULANCE","93.186","0.07275271704852794","157"
"21:28:47:272 (H:m:s:ms)","GENERIC","62.087","0.10196915743711844","727"
"22:6:18:947 (H:m:s:ms)","AMBULANCE","62.073","0.06752700186260963","1059"
"21:28:44:50 (H:m:s:ms)","OPERA","93.149","0.09850283915058548","950"
"22:2:37:894 (H:m:s:ms)","AMBULANCE","124.55199999999999","0.09554050032321858","1105"
"21:28:41:212 (H:m:s:ms)","GENERIC","62.033","0.11407929240605126","787"
"21:50:0:0 (H:m:s:ms)","GENERIC","124.49600000000001","0.13924542414045993","1045"
"21:28:36:455 (H:m:s:ms)","OPERA","124.289","0.10276307814370107","544"
"21:49:53:939 (H:m:s:ms)","GENERIC","93.37299999999999","0.13154224002415657","1061"
"21:49:47:878 (H:m:s:ms)","GENERIC","124.287","0.1063864172952301","1121"
"21:49:41:818 (H:m:s:ms)","GENERIC","62.101","0.10150343657739332","181"
"21:16:27:878 (H:m:s:ms)","GENERIC","93.108","0.06343990236531893","1122"
"21:16:33:939 (H:m:s:ms)","GENERIC","62.093","0.09805156729234268","1060"
"21:28:35:151 (H:m:s:ms)","GENERIC","62.103","0.11038772911030556","848"
"20:54:26:666 (H:m:s:ms)","GENERIC","124.411","0.10142835855937954","333"
"21:16:40:0 (H:m:s:ms)","GENERIC","93.098","0.11430641543001925","1045"
"21:28:29:90 (H:m:s:ms)","GENERIC","93.139","0.1378811208588459","953"
"20:54:32:727 (H:m:s:ms)","GENERIC","124.178","0.10905510163099662","272"
"21:16:46:60 (H:m:s:ms)","GENERIC","93.12299999999999","0.10784745482196638","939"
"21:28:28:860 (H:m:s:ms)","OPERA","62.144999999999996","0.11085706970506347","139"
"21:49:35:757 (H:m:s:ms)","GENERIC","62.117","0.09500955283223936","242"
"20:54:38:787 (H:m:s:ms)","GENERIC","93.253","0.11207502284454277","212"
"21:16:52:121 (H:m:s:ms)","GENERIC","93.308","0.11680970302233076","878"
"21:28:23:30 (H:m:s:ms)","GENERIC","93.15700000000001","0.14128956234635878","969"
"21:49:29:696 (H:m:s:ms)","GENERIC","93.402","0.11494193086842808","348"
"20:54:44:848 (H:m:s:ms)","GENERIC","62.083","0.09890826077603045","152"
"21:16:58:181 (H:m:s:ms)","GENERIC","93.4","0.11952512909391565","818"
"21:28:21:265 (H:m:s:ms)","OPERA","93.149","0.11993554470568124","734"
"21:49:23:636 (H:m:s:ms)","GENERIC","93.364","0.0966847074824855","363"
"20:54:50:909 (H:m:s:ms)","GENERIC","93.262","0.07600445341612215","1090"
"21:17:4:242 (H:m:s:ms)","GENERIC","93.355","0.11381533208173776","757"
"20:54:56:969 (H:m:s:ms)","GENERIC","93.09100000000001","0.10679778404839792","1030"
"21:17:10:303 (H:m:s:ms)","GENERIC","62.099","0.11455966238511377","696"
"20:55:3:30 (H:m:s:ms)","GENERIC","124.61","0.11801506512347615","969"
"21:17:16:363 (H:m:s:ms)","GENERIC","124.418","0.1220722547422584","636"
"20:55:9:90 (H:m:s:ms)","GENERIC","93.368","0.12885730863626582","960"
"21:17:22:424 (H:m:s:ms)","GENERIC","62.107","0.1221611171581147","575"
"20:55:15:151 (H:m:s:ms)","GENERIC","93.298","0.1268120903537107","848"
"20:55:21:212 (H:m:s:ms)","GENERIC","93.249","0.12871016741128424","787"
"21:29:29:696 (H:m:s:ms)","GENERIC","93.402","0.13188851189947506","348"
"21:29:29:620 (H:m:s:ms)","OPERA","93.151","0.11052559801027555","424"
"21:29:23:636 (H:m:s:ms)","GENERIC","62.091","0.11044436701957307","363"
"21:29:22:25 (H:m:s:ms)","OPERA","93.153","0.08565810014312261","974"
"21:29:17:575 (H:m:s:ms)","GENERIC","93.122","0.14921705880155303","424"
"21:29:14:430 (H:m:s:ms)","OPERA","93.151","0.13666288251938133","570"
"21:29:11:515 (H:m:s:ms)","GENERIC","93.34","0.1360999537348214","484"
"21:17:28:484 (H:m:s:ms)","GENERIC","62.029","0.08224692944725641","515"
"21:17:34:545 (H:m:s:ms)","GENERIC","62.049","0.05970757486132325","455"
"20:55:27:272 (H:m:s:ms)","GENERIC","93.163","0.12011018295868622","727"
"21:17:40:606 (H:m:s:ms)","GENERIC","93.163","0.09516017627405286","393"
"20:55:33:333 (H:m:s:ms)","GENERIC","93.13300000000001","0.11541102053492604","666"
"21:17:46:666 (H:m:s:ms)","GENERIC","93.374","0.12797282972304777","333"
"21:29:6:835 (H:m:s:ms)","OPERA","124.289","0.09189478033101464","164"
"20:55:39:393 (H:m:s:ms)","GENERIC","62.075","0.10294930404797985","656"
"21:17:52:727 (H:m:s:ms)","GENERIC","93.202","0.12016560290270094","272"
"21:29:5:454 (H:m:s:ms)","GENERIC","62.083","0.12144662206720684","545"
"20:55:45:454 (H:m:s:ms)","GENERIC","93.082","0.11005194039503526","545"
"21:17:58:787 (H:m:s:ms)","GENERIC","62.035","0.10112805669024404","212"
"21:28:59:393 (H:m:s:ms)","GENERIC","93.297","0.14626676156624155","647"
"20:55:51:515 (H:m:s:ms)","GENERIC","124.22200000000001","0.12673782305540027","485"
"21:18:4:848 (H:m:s:ms)","GENERIC","93.372","0.11166258764995027","151"
"21:28:59:240 (H:m:s:ms)","OPERA","93.151","0.1300295855640634","800"
"20:55:57:575 (H:m:s:ms)","GENERIC","93.21","0.13094502660911256","424"
"21:18:10:909 (H:m:s:ms)","GENERIC","93.241","0.07480339777702134","1090"
"20:56:3:636 (H:m:s:ms)","GENERIC","124.236","0.127708160997772","363"
"21:18:16:969 (H:m:s:ms)","GENERIC","93.228","0.10849856863380108","1030"
"20:56:9:696 (H:m:s:ms)","GENERIC","62.117","0.09877686895712096","361"
"21:18:23:30 (H:m:s:ms)","GENERIC","93.13900000000001","0.10708840228211426","969"
"20:56:15:757 (H:m:s:ms)","GENERIC","93.206","0.07264618823491219","243"
"20:56:21:818 (H:m:s:ms)","GENERIC","124.628","0.11243014543983988","181"
"21:30:0:0 (H:m:s:ms)","AMBULANCE","62.103","0.17199666598596983","1044"
"21:30:0:0 (H:m:s:ms)","GENERIC","124.507","0.16658869224114126","1044"
"21:30:0:0 (H:m:s:ms)","GENERIC","93.17099999999999","0.13723343472689922","1044"
"21:30:0:0 (H:m:s:ms)","OPERA","93.151","0.09662989198321625","1044"
"21:29:53:939 (H:m:s:ms)","GENERIC","124.572","0.12071796119819603","1060"
"21:29:52:405 (H:m:s:ms)","OPERA","93.151","0.10306065110577514","594"
"21:29:47:878 (H:m:s:ms)","GENERIC","124.31299999999999","0.11048959167750136","1121"
"21:29:44:810 (H:m:s:ms)","OPERA","62.015","0.10375586481854261","189"
"21:18:29:90 (H:m:s:ms)","GENERIC","93.14","0.10476817788297255","964"
"21:18:35:151 (H:m:s:ms)","GENERIC","93.294","0.11594695722704595","848"
"20:56:27:878 (H:m:s:ms)","GENERIC","93.1","0.08815740294270646","1121"
"21:18:41:212 (H:m:s:ms)","GENERIC","62.031","0.10173527001166562","787"
"20:56:33:939 (H:m:s:ms)","GENERIC","62.119","0.10188827736700039","1060"
"21:18:47:272 (H:m:s:ms)","GENERIC","62.071","0.07503904272892864","727"
"20:40:0:0 (H:m:s:ms)","OPERA","62.144999999999996","0.09839061969255064","1136"
"20:56:40:0 (H:m:s:ms)","GENERIC","93.106","0.10639222716328128","1054"
"21:18:53:333 (H:m:s:ms)","GENERIC","93.116","0.09306381253046021","666"
"20:40:0:0 (H:m:s:ms)","GENERIC","93.15599999999999","0.12531246570850102","1136"
"20:56:46:60 (H:m:s:ms)","GENERIC","93.12100000000001","0.1121171901239235","939"
"21:18:59:393 (H:m:s:ms)","GENERIC","93.295","0.1032559726000396","653"
"21:29:41:818 (H:m:s:ms)","GENERIC","124.576","0.12060917033201361","181"
"20:40:0:0 (H:m:s:ms)","GENERIC","124.513","0.1512982585886468","1136"
"20:56:52:121 (H:m:s:ms)","GENERIC","93.302","0.11362291398733","878"
"21:19:5:454 (H:m:s:ms)","GENERIC","62.103","0.10058590132160493","545"
"21:29:37:215 (H:m:s:ms)","OPERA","124.289","0.09487138736115903","784"
"20:40:6:60 (H:m:s:ms)","GENERIC","124.555","0.16660008768093354","939"
"20:56:58:181 (H:m:s:ms)","GENERIC","93.398","0.13147160247677267","818"
"21:19:11:515 (H:m:s:ms)","GENERIC","93.33","0.09718175065499915","484"
"21:29:35:757 (H:m:s:ms)","GENERIC","62.101","0.12346192814852734","242"
"20:40:7:594 (H:m:s:ms)","OPERA","62.144","0.12129528525499086","405"
"20:57:4:242 (H:m:s:ms)","GENERIC","93.307","0.12067216601893829","758"
"21:19:17:575 (H:m:s:ms)","GENERIC","62.093","0.09690898802597755","424"
"20:40:12:121 (H:m:s:ms)","GENERIC","93.362","0.15593953370858873","879"
"20:57:10:303 (H:m:s:ms)","GENERIC","93.16499999999999","0.10738840491501678","696"
"21:19:23:636 (H:m:s:ms)","GENERIC","124.614","0.12164456317274354","363"
"20:40:15:189 (H:m:s:ms)","OPERA","62.144999999999996","0.12340958725459203","810"
"20:57:16:363 (H:m:s:ms)","GENERIC","124.45400000000001","0.11416550812675884","636"
"20:40:18:181 (H:m:s:ms)","GENERIC","93.34899999999999","0.137667968442786","818"
"20:57:22:424 (H:m:s:ms)","GENERIC","62.071","0.10599345496723346","575"
"20:40:22:784 (H:m:s:ms)","OPERA","62.146","0.08665946359153642","215"
"20:40:24:242 (H:m:s:ms)","GENERIC","124.262","0.13304886688370401","758"
"21:30:18:181 (H:m:s:ms)","GENERIC","124.626","0.11818017783546064","818"
"21:31:3:157 (H:m:s:ms)","AMBULANCE","93.17099999999999","0.11581205965113212","842"
"21:31:0:606 (H:m:s:ms)","GENERIC","93.09100000000001","0.12791452565342992","393"
"21:30:54:545 (H:m:s:ms)","GENERIC","93.098","0.11976120586631733","455"
"21:30:48:484 (H:m:s:ms)","GENERIC","124.35300000000001","0.11490273721948006","515"
"21:30:42:424 (H:m:s:ms)","GENERIC","93.177","0.09535076646281984","575"
"21:30:36:363 (H:m:s:ms)","GENERIC","62.091","0.08107094463611253","636"
"21:30:30:303 (H:m:s:ms)","GENERIC","62.095","0.10893273279176982","696"
"21:19:29:696 (H:m:s:ms)","GENERIC","93.394","0.12578665475553727","348"
"21:30:24:242 (H:m:s:ms)","GENERIC","93.175","0.10375899650286342","757"
"21:19:35:757 (H:m:s:ms)","GENERIC","62.087","0.10216961620461797","242"
"20:57:28:484 (H:m:s:ms)","GENERIC","62.031","0.07181705921855305","515"
"21:19:41:818 (H:m:s:ms)","GENERIC","93.33500000000001","0.12542448862287014","181"
"20:57:34:545 (H:m:s:ms)","GENERIC","62.055","0.06569868763521454","454"
"21:19:47:878 (H:m:s:ms)","GENERIC","124.316","0.08365717791212306","1121"
"20:40:30:303 (H:m:s:ms)","GENERIC","62.085","0.11917247420953177","696"
"20:57:40:606 (H:m:s:ms)","GENERIC","93.161","0.09270569272422187","393"
"21:19:53:939 (H:m:s:ms)","GENERIC","124.57","0.12268133570274886","1060"
"20:40:36:363 (H:m:s:ms)","GENERIC","62.061","0.0870221844798655","636"
"20:57:46:666 (H:m:s:ms)","GENERIC","93.37","0.1139647041500737","333"
"21:20:0:0 (H:m:s:ms)","OPERA","93.136","0.16937238017206133","1136"
"20:40:37:974 (H:m:s:ms)","OPERA","93.284","0.10016676012064644","1025"
"20:57:52:727 (H:m:s:ms)","GENERIC","93.191","0.1428906019675558","272"
"21:20:0:0 (H:m:s:ms)","GENERIC","62.041","0.10915444947788168","1136"
"20:40:42:424 (H:m:s:ms)","GENERIC","93.161","0.12183594705011074","575"
"20:57:58:787 (H:m:s:ms)","GENERIC","124.166","0.14585274185957803","212"
"21:20:0:0 (H:m:s:ms)","GENERIC","124.50800000000001","0.15547565494928298","1136"
"21:30:12:121 (H:m:s:ms)","GENERIC","93.392","0.12127398795487065","878"
"20:40:45:569 (H:m:s:ms)","OPERA","62.144999999999996","0.1057755504106105","430"
"20:58:4:848 (H:m:s:ms)","GENERIC","124.62","0.11852586446675772","151"
"21:20:6:60 (H:m:s:ms)","GENERIC","124.60300000000001","0.1717709805539514","940"
"21:30:6:60 (H:m:s:ms)","GENERIC","93.37899999999999","0.17274767832512844","939"
"20:40:48:484 (H:m:s:ms)","GENERIC","124.27000000000001","0.12347899909381821","515"
"20:58:10:909 (H:m:s:ms)","GENERIC","62.075","0.045233839176125355","1090"
"21:20:7:594 (H:m:s:ms)","OPERA","93.151","0.13132174971705307","405"
"20:40:53:164 (H:m:s:ms)","OPERA","62.144","0.1127205076916345","835"
"20:58:16:969 (H:m:s:ms)","GENERIC","124.419","0.09665221091928877","1030"
"20:40:54:545 (H:m:s:ms)","GENERIC","93.136","0.12449850586988828","454"
"20:58:23:30 (H:m:s:ms)","GENERIC","93.11699999999999","0.11492962706548634","969"
"20:41:0:606 (H:m:s:ms)","GENERIC","62.069","0.1140810999836155","393"
"20:41:0:759 (H:m:s:ms)","OPERA","62.144","0.1354333553632163","240"
"21:31:18:787 (H:m:s:ms)","GENERIC","62.165","0.10907438970587416","212"
"21:31:12:727 (H:m:s:ms)","GENERIC","124.459","0.12454942326549721","272"
"21:32:1:212 (H:m:s:ms)","GENERIC","62.097","0.09845882284074607","787"
"21:31:55:151 (H:m:s:ms)","GENERIC","93.102","0.11984908305377093","848"
"21:31:49:90 (H:m:s:ms)","GENERIC","93.189","0.1118447335692253","952"
"21:31:43:30 (H:m:s:ms)","GENERIC","124.399","0.09000982418012254","969"
"21:31:36:969 (H:m:s:ms)","GENERIC","62.061","0.12217678629345524","1030"
"21:31:34:736 (H:m:s:ms)","AMBULANCE","124.32300000000001","0.11210938079326194","263"
"21:31:30:909 (H:m:s:ms)","GENERIC","93.19800000000001","0.07167518163210056","1090"
"21:31:24:848 (H:m:s:ms)","GENERIC","62.071","0.08479035609716293","151"
"20:58:29:90 (H:m:s:ms)","GENERIC","93.163","0.12534747870871568","959"
"20:58:35:151 (H:m:s:ms)","GENERIC","62.035","0.12215530253214806","848"
"20:41:6:666 (H:m:s:ms)","GENERIC","124.232","0.14188727295032266","333"
"20:58:41:212 (H:m:s:ms)","GENERIC","62.071","0.0939071861302307","787"
"20:41:8:354 (H:m:s:ms)","OPERA","62.144","0.09994044141353563","645"
"20:58:47:272 (H:m:s:ms)","GENERIC","62.043","0.0870269267377513","727"
"20:41:12:727 (H:m:s:ms)","GENERIC","93.271","0.13116951869121793","273"
"20:58:53:333 (H:m:s:ms)","GENERIC","93.1","0.1051957963967081","666"
"20:41:15:949 (H:m:s:ms)","OPERA","62.144","0.1088690358932944","1050"
"20:58:59:393 (H:m:s:ms)","GENERIC","124.55199999999999","0.11990238552465536","655"
"20:41:18:787 (H:m:s:ms)","GENERIC","62.171","0.1244891914413594","212"
"20:59:5:454 (H:m:s:ms)","GENERIC","62.107","0.10079156783033202","546"
"20:41:23:544 (H:m:s:ms)","OPERA","62.144999999999996","0.09996281662904846","455"
"20:59:11:515 (H:m:s:ms)","GENERIC","124.574","0.10154874118642751","484"
"21:31:6:666 (H:m:s:ms)","GENERIC","93.132","0.14387539437206376","333"
"20:41:24:848 (H:m:s:ms)","GENERIC","62.037","0.12183986483334791","151"
"20:59:17:575 (H:m:s:ms)","GENERIC","62.077","0.10545467357744569","424"
"20:41:30:909 (H:m:s:ms)","GENERIC","93.182","0.0569734079622808","1091"
"20:59:23:636 (H:m:s:ms)","GENERIC","93.368","0.11634075038209725","363"
"20:41:31:139 (H:m:s:ms)","OPERA","62.144999999999996","0.09691501158218054","861"
"20:41:36:969 (H:m:s:ms)","GENERIC","62.087","0.11898091677794297","1030"
"20:59:29:696 (H:m:s:ms)","GENERIC","62.121","0.12229023119614427","351"
"20:59:35:757 (H:m:s:ms)","GENERIC","62.089","0.08591525777586773","242"
"20:41:38:734 (H:m:s:ms)","OPERA","62.144","0.09662801052376326","265"
"20:59:41:818 (H:m:s:ms)","GENERIC","93.321","0.09021216639165523","181"
"20:41:43:30 (H:m:s:ms)","GENERIC","93.226","0.12348133865141654","970"
"20:59:47:878 (H:m:s:ms)","GENERIC","93.18299999999999","0.09252354327740622","1121"
"20:41:46:329 (H:m:s:ms)","OPERA","62.144","0.10617476926669366","670"
"20:59:53:939 (H:m:s:ms)","GENERIC","93.292","0.1268726169751899","1061"
"20:41:49:90 (H:m:s:ms)","GENERIC","93.201","0.14679405469838286","955"
"21:0:0:0 (H:m:s:ms)","AMBULANCE","31.048","0.11262456880741822","1130"
"20:41:53:924 (H:m:s:ms)","OPERA","62.144","0.12936805074081073","75"
"21:0:0:0 (H:m:s:ms)","GENERIC","62.033","0.12733169571736025","1130"
"20:41:55:151 (H:m:s:ms)","GENERIC","93.136","0.14884477098828802","848"
"21:0:0:0 (H:m:s:ms)","GENERIC","93.287","0.14810062332967638","1130"
"20:42:1:212 (H:m:s:ms)","GENERIC","62.097","0.09314046977136121","787"
"21:0:6:60 (H:m:s:ms)","GENERIC","93.34899999999999","0.15363179186822323","939"
"20:42:1:518 (H:m:s:ms)","OPERA","62.144999999999996","0.12105308452764639","481"
"21:0:12:121 (H:m:s:ms)","GENERIC","124.60400000000001","0.13657334732737045","879"
"20:42:7:272 (H:m:s:ms)","GENERIC","124.34700000000001","0.1282102821822763","727"
"20:42:9:113 (H:m:s:ms)","OPERA","62.144","0.12127766248138512","931"
"21:0:18:181 (H:m:s:ms)","GENERIC","124.578","0.11814995460624812","818"
"21:0:24:242 (H:m:s:ms)","GENERIC","124.291","0.10271258449067365","757"
"20:42:13:333 (H:m:s:ms)","GENERIC","93.285","0.1522522508026626","666"
"21:0:30:303 (H:m:s:ms)","GENERIC","62.091","0.09934646190345864","696"
"20:42:16:708 (H:m:s:ms)","OPERA","62.146","0.1314384262954664","292"
"21:0:31:578 (H:m:s:ms)","AMBULANCE","93.494","0.11608799440155318","421"
"20:20:0:0 (H:m:s:ms)","GENERIC","62.031","0.10313722577646439","1139"
"20:42:19:393 (H:m:s:ms)","GENERIC","93.303","0.15123476005244837","650"
"21:0:36:363 (H:m:s:ms)","GENERIC","93.18299999999999","0.13219452075416352","636"
"20:20:0:0 (H:m:s:ms)","GENERIC","124.50200000000001","0.14152225366427382","1139"
"20:42:24:303 (H:m:s:ms)","OPERA","62.144","0.09700739380003263","697"
"21:0:42:424 (H:m:s:ms)","GENERIC","93.169","0.09164806501422852","575"
"20:20:6:60 (H:m:s:ms)","GENERIC","93.307","0.15383067419402033","939"
"20:42:25:454 (H:m:s:ms)","GENERIC","124.6","0.1228111933626185","545"
"21:0:48:484 (H:m:s:ms)","GENERIC","93.197","0.1081600273599148","515"
"20:20:12:121 (H:m:s:ms)","GENERIC","124.639","0.130910170172866","878"
"20:42:31:515 (H:m:s:ms)","GENERIC","62.105","0.09387972244339088","484"
"21:0:54:545 (H:m:s:ms)","GENERIC","124.131","0.1061558147313177","455"
"20:20:18:181 (H:m:s:ms)","GENERIC","124.654","0.11498424659093652","818"
"20:42:37:575 (H:m:s:ms)","GENERIC","62.061","0.08918578501596469","424"
"21:1:0:606 (H:m:s:ms)","GENERIC","124.131","0.10563491373098849","393"
"20:20:24:242 (H:m:s:ms)","GENERIC","124.29499999999999","0.12296031344758197","758"
"20:42:39:493 (H:m:s:ms)","OPERA","62.144","0.1058781213087989","548"
"21:1:3:157 (H:m:s:ms)","AMBULANCE","62.144","0.1259312096396564","842"
"20:20:30:303 (H:m:s:ms)","GENERIC","62.109","0.1179608753549396","697"
"20:42:43:636 (H:m:s:ms)","GENERIC","93.169","0.13615274696160795","363"
"20:20:36:363 (H:m:s:ms)","GENERIC","93.15899999999999","0.07705093044904827","636"
"20:42:47:88 (H:m:s:ms)","OPERA","62.144","0.10958142259043445","911"
"20:20:42:424 (H:m:s:ms)","GENERIC","124.235","0.09453472690207093","575"
"20:20:48:484 (H:m:s:ms)","GENERIC","93.181","0.12387826177657234","515"
"21:1:6:666 (H:m:s:ms)","GENERIC","124.21199999999999","0.16625514296343755","333"
"21:1:12:727 (H:m:s:ms)","GENERIC","93.279","0.13657624422356868","273"
"20:42:49:696 (H:m:s:ms)","GENERIC","93.139","0.1422006375142007","347"
"21:1:18:787 (H:m:s:ms)","GENERIC","62.201","0.10139958782310214","212"
"20:42:54:683 (H:m:s:ms)","OPERA","62.144","0.12106948091485618","316"
"21:1:24:848 (H:m:s:ms)","GENERIC","62.053","0.09433353151879083","151"
"20:20:54:545 (H:m:s:ms)","GENERIC","93.134","0.12460228951886194","454"
"20:42:55:757 (H:m:s:ms)","GENERIC","93.189","0.15076478848639457","242"
"21:1:30:909 (H:m:s:ms)","GENERIC","93.186","0.07716392526907506","1090"
"20:21:0:606 (H:m:s:ms)","GENERIC","93.07900000000001","0.095643195138994","393"
"20:43:1:818 (H:m:s:ms)","GENERIC","93.19399999999999","0.11846731750017792","181"
"21:1:34:736 (H:m:s:ms)","AMBULANCE","62.161","0.10778891614262592","264"
"20:21:6:666 (H:m:s:ms)","GENERIC","93.133","0.11470246953473709","333"
"20:43:2:278 (H:m:s:ms)","OPERA","62.144999999999996","0.11012276004113579","721"
"21:1:36:969 (H:m:s:ms)","GENERIC","62.091","0.12291657686852937","1030"
"20:21:12:727 (H:m:s:ms)","GENERIC","124.41499999999999","0.13653426685830605","272"
"20:43:7:878 (H:m:s:ms)","GENERIC","93.32000000000001","0.12822236479366397","1121"
"21:1:43:30 (H:m:s:ms)","GENERIC","124.373","0.11831607505956555","969"
"20:21:18:787 (H:m:s:ms)","GENERIC","62.135","0.11265358409726699","212"
"20:43:9:873 (H:m:s:ms)","OPERA","62.144","0.11707957340956084","177"
"21:1:49:90 (H:m:s:ms)","GENERIC","124.381","0.11970154522165037","963"
"20:21:24:848 (H:m:s:ms)","GENERIC","93.194","0.10870627683900128","152"
"20:43:13:939 (H:m:s:ms)","GENERIC","93.349","0.14530235204837683","1060"
"21:1:55:151 (H:m:s:ms)","GENERIC","124.233","0.11208104950352356","848"
"20:21:30:909 (H:m:s:ms)","GENERIC","62.061","0.0712810755778642","1090"
"20:43:17:468 (H:m:s:ms)","OPERA","62.144999999999996","0.10725572796916623","531"
"20:21:36:969 (H:m:s:ms)","GENERIC","62.097","0.1003352202001418","1030"
"20:43:20:0 (H:m:s:ms)","GENERIC","62.057","0.12791619427364054","1043"
"20:21:43:30 (H:m:s:ms)","GENERIC","93.262","0.11277810611682576","969"
"20:21:49:90 (H:m:s:ms)","GENERIC","93.193","0.13516586128158076","952"
"20:43:25:63 (H:m:s:ms)","OPERA","62.144","0.10321274717067812","936"
"20:43:26:60 (H:m:s:ms)","GENERIC","124.214","0.1502933022484435","939"
"20:21:55:151 (H:m:s:ms)","GENERIC","124.219","0.12441084556554058","848"
"20:43:32:121 (H:m:s:ms)","GENERIC","62.117","0.13205387259248286","878"
"20:22:1:212 (H:m:s:ms)","GENERIC","62.125","0.09653255651802495","787"
"20:43:32:658 (H:m:s:ms)","OPERA","62.144999999999996","0.150326243053366","341"
"20:22:7:272 (H:m:s:ms)","GENERIC","93.189","0.099323115182888","727"
"20:43:38:181 (H:m:s:ms)","GENERIC","62.077","0.12505857876037207","818"
"20:22:13:333 (H:m:s:ms)","GENERIC","93.289","0.1030465961753296","666"
"20:43:40:253 (H:m:s:ms)","OPERA","62.144999999999996","0.10311134424019315","746"
"20:22:19:393 (H:m:s:ms)","GENERIC","93.275","0.11081454529251002","650"
"20:43:44:242 (H:m:s:ms)","GENERIC","93.283","0.13760700928850456","757"
"20:22:25:454 (H:m:s:ms)","GENERIC","93.342","0.11601971136755326","546"
"20:43:47:848 (H:m:s:ms)","OPERA","93.283","0.1211669440922132","151"
"20:22:31:515 (H:m:s:ms)","GENERIC","62.063","0.09184207162858161","484"
"20:43:50:303 (H:m:s:ms)","GENERIC","124.612","0.15134319986969708","696"
"20:22:37:575 (H:m:s:ms)","GENERIC","62.051","0.06570095930773147","424"
"20:43:55:443 (H:m:s:ms)","OPERA","62.144999999999996","0.12216889462918468","556"
"20:22:43:636 (H:m:s:ms)","GENERIC","124.30799999999999","0.10313935098519297","363"
"20:22:49:696 (H:m:s:ms)","GENERIC","62.111","0.10963872385674876","347"
"20:43:56:363 (H:m:s:ms)","GENERIC","62.083","0.12924279451093043","636"
"20:44:2:424 (H:m:s:ms)","GENERIC","93.22200000000001","0.0847273657659857","575"
"20:22:55:757 (H:m:s:ms)","GENERIC","93.173","0.1110002500168177","242"
"20:44:3:37 (H:m:s:ms)","OPERA","62.144","0.10363948691285677","962"
"20:23:1:818 (H:m:s:ms)","GENERIC","124.33500000000001","0.11903094266889055","181"
"20:44:8:484 (H:m:s:ms)","GENERIC","93.346","0.12114996962859556","515"
"20:23:7:878 (H:m:s:ms)","GENERIC","93.35","0.09084104101519173","1121"
"20:44:10:632 (H:m:s:ms)","OPERA","62.144","0.11867107200708113","367"
"20:23:13:939 (H:m:s:ms)","GENERIC","93.307","0.1223985238933087","1061"
"20:44:14:545 (H:m:s:ms)","GENERIC","93.309","0.14577021298030293","454"
"20:23:20:0 (H:m:s:ms)","GENERIC","62.035","0.10276014840451633","1043"
"20:44:18:227 (H:m:s:ms)","OPERA","62.144999999999996","0.12113334053341575","772"
"20:23:26:60 (H:m:s:ms)","GENERIC","124.226","0.1268415613331828","939"
"20:44:20:606 (H:m:s:ms)","GENERIC","62.133","0.13918586902605742","393"
"20:23:32:121 (H:m:s:ms)","GENERIC","62.131","0.13249351310657168","878"
"20:44:25:822 (H:m:s:ms)","OPERA","62.144999999999996","0.088200917784215","177"
"20:23:38:181 (H:m:s:ms)","GENERIC","62.073","0.1014681480688292","819"
"20:44:26:666 (H:m:s:ms)","GENERIC","93.217","0.11488345817431031","333"
"20:23:44:242 (H:m:s:ms)","GENERIC","62.079","0.10052922113632272","758"
"20:23:50:303 (H:m:s:ms)","GENERIC","93.338","0.1130261951654748","696"
"20:44:32:727 (H:m:s:ms)","GENERIC","93.137","0.1181075236713299","272"
"20:44:33:417 (H:m:s:ms)","OPERA","62.144999999999996","0.12422640580960309","582"
"20:23:56:363 (H:m:s:ms)","GENERIC","62.077","0.11347907706348166","636"
"20:44:38:787 (H:m:s:ms)","GENERIC","93.247","0.14376022451873613","212"
"20:24:2:424 (H:m:s:ms)","GENERIC","93.22200000000001","0.10167243312800928","575"
"20:44:41:12 (H:m:s:ms)","OPERA","62.144999999999996","0.10560941263135463","987"
"20:24:8:484 (H:m:s:ms)","GENERIC","93.31","0.08916480729170924","515"
"20:44:44:848 (H:m:s:ms)","GENERIC","62.093","0.12025913225671606","152"
"20:24:14:545 (H:m:s:ms)","GENERIC","124.51599999999999","0.1120572647435875","455"
"20:44:48:607 (H:m:s:ms)","OPERA","62.144999999999996","0.1088215945617901","392"
"20:24:20:606 (H:m:s:ms)","GENERIC","62.137","0.11179940401591411","393"
"20:44:50:909 (H:m:s:ms)","GENERIC","62.051","0.11563159542097896","1090"
"20:24:26:666 (H:m:s:ms)","GENERIC","93.201","0.1017651437610829","333"
"20:44:56:202 (H:m:s:ms)","OPERA","62.144999999999996","0.11568250944644949","798"
"20:24:32:727 (H:m:s:ms)","GENERIC","93.13900000000001","0.11587617827457686","272"
"20:44:56:969 (H:m:s:ms)","GENERIC","93.111","0.1423724497555706","1030"
"20:24:38:787 (H:m:s:ms)","GENERIC","93.219","0.10680233556677937","212"
"20:45:3:30 (H:m:s:ms)","GENERIC","124.574","0.13034636668856542","969"
"20:24:44:848 (H:m:s:ms)","GENERIC","62.111","0.11662483320306712","152"
"20:24:50:909 (H:m:s:ms)","GENERIC","93.268","0.09791783257801463","1090"
"20:45:3:797 (H:m:s:ms)","OPERA","93.283","0.1505208523694969","202"
"20:45:9:90 (H:m:s:ms)","GENERIC","124.62299999999999","0.1491454287585434","957"
"20:24:56:969 (H:m:s:ms)","GENERIC","93.10900000000001","0.12541327867610624","1030"
"20:45:11:392 (H:m:s:ms)","OPERA","62.144999999999996","0.1286775303811192","607"
"20:25:3:30 (H:m:s:ms)","GENERIC","124.576","0.11775984658012272","970"
"20:45:15:151 (H:m:s:ms)","GENERIC","93.313","0.16001886990305317","848"
"20:25:9:90 (H:m:s:ms)","GENERIC","124.586","0.11108458830656168","951"
"20:45:18:987 (H:m:s:ms)","OPERA","62.144","0.13887866790068196","1059"
"20:25:15:151 (H:m:s:ms)","GENERIC","124.566","0.11639858990289459","848"
"20:45:21:212 (H:m:s:ms)","GENERIC","62.065","0.15582414772225442","787"
"20:25:21:212 (H:m:s:ms)","GENERIC","124.469","0.13951829253090103","787"
"20:45:26:582 (H:m:s:ms)","OPERA","62.144999999999996","0.10188089061731449","417"
"20:25:27:272 (H:m:s:ms)","GENERIC","93.209","0.12602753318026938","727"
"20:45:27:272 (H:m:s:ms)","GENERIC","93.179","0.12365965990571313","727"
"20:25:33:333 (H:m:s:ms)","GENERIC","93.114","0.10448625128443541","667"
"20:45:33:333 (H:m:s:ms)","GENERIC","62.027","0.08566232775828929","666"
"20:25:39:393 (H:m:s:ms)","GENERIC","62.047","0.08572149169848038","654"
"20:45:39:393 (H:m:s:ms)","GENERIC","62.063","0.0723256685043166","654"
"20:25:45:454 (H:m:s:ms)","GENERIC","93.098","0.09632234893617263","545"
"20:25:51:515 (H:m:s:ms)","GENERIC","62.035","0.1062795491331743","485"
"20:25:57:575 (H:m:s:ms)","GENERIC","62.071","0.08722252336897034","424"
"20:26:3:636 (H:m:s:ms)","GENERIC","62.041","0.08879042154632741","364"
"20:26:9:696 (H:m:s:ms)","GENERIC","62.079","0.09067071226162733","353"
"20:26:15:757 (H:m:s:ms)","GENERIC","93.16","0.09382592854426211","242"
"20:26:21:818 (H:m:s:ms)","GENERIC","93.382","0.12626828669006257","181"
"20:26:27:878 (H:m:s:ms)","GENERIC","93.102","0.095638251155984","1121"
"20:26:33:939 (H:m:s:ms)","GENERIC","62.131","0.11706731350917671","1060"
"20:26:40:0 (H:m:s:ms)","GENERIC","93.108","0.1109533737428911","1054"
"20:26:46:60 (H:m:s:ms)","GENERIC","93.143","0.11402286782331165","939"
"20:26:52:121 (H:m:s:ms)","GENERIC","93.274","0.09689480794010806","878"
"20:26:58:181 (H:m:s:ms)","GENERIC","93.404","0.10260100040555035","818"
"20:27:4:242 (H:m:s:ms)","GENERIC","62.065","0.10810523772806953","757"
"20:27:10:303 (H:m:s:ms)","GENERIC","62.085","0.10107836077437643","696"
"20:27:16:363 (H:m:s:ms)","GENERIC","124.406","0.12890504023905583","636"
"20:27:22:424 (H:m:s:ms)","GENERIC","62.063","0.12886752868967258","575"
"20:27:28:484 (H:m:s:ms)","GENERIC","93.098","0.1121210674459165","515"
"20:27:34:545 (H:m:s:ms)","GENERIC","62.061","0.09642029891201478","454"
"20:27:40:606 (H:m:s:ms)","GENERIC","124.32","0.08945630988009654","393"
"20:27:46:666 (H:m:s:ms)","GENERIC","93.398","0.11794806561966789","333"
"20:27:52:727 (H:m:s:ms)","GENERIC","124.394","0.13351586612333552","272"
"20:27:58:787 (H:m:s:ms)","GENERIC","93.099","0.12506875145935234","212"
"20:28:4:848 (H:m:s:ms)","GENERIC","93.412","0.10420709653002795","152"
"20:28:10:909 (H:m:s:ms)","GENERIC","62.131","0.0359349734110043","1090"
"20:28:16:969 (H:m:s:ms)","GENERIC","124.411","0.10632530122205827","1030"
"20:28:23:30 (H:m:s:ms)","GENERIC","93.167","0.1161923256865223","969"
"20:28:29:90 (H:m:s:ms)","GENERIC","124.22800000000001","0.10237777703279634","960"
"20:28:35:151 (H:m:s:ms)","GENERIC","62.025","0.09895410440689044","848"
"20:28:41:212 (H:m:s:ms)","GENERIC","62.061","0.08106560391253226","788"
"20:28:47:272 (H:m:s:ms)","GENERIC","62.055","0.07631016849477838","727"
"20:28:53:333 (H:m:s:ms)","GENERIC","93.116","0.10154322827292983","666"
"20:28:59:393 (H:m:s:ms)","GENERIC","124.52199999999999","0.1431179568204739","655"
"20:29:5:454 (H:m:s:ms)","GENERIC","62.111","0.127586401383385","545"
"20:29:11:515 (H:m:s:ms)","GENERIC","93.376","0.11391036415274158","484"
"20:29:17:575 (H:m:s:ms)","GENERIC","62.091","0.10278792650101343","424"
"20:29:23:636 (H:m:s:ms)","GENERIC","124.638","0.11302886601265778","363"
"20:29:29:696 (H:m:s:ms)","GENERIC","62.141","0.12795021438484136","349"
"20:29:35:757 (H:m:s:ms)","GENERIC","62.119","0.09527024416292282","242"
"20:29:41:818 (H:m:s:ms)","GENERIC","93.34700000000001","0.13220950261555695","181"
"20:29:47:878 (H:m:s:ms)","GENERIC","124.28999999999999","0.10369679985158234","1121"
"20:29:53:939 (H:m:s:ms)","GENERIC","93.267","0.14270715678841187","1061"
"21:20:12:121 (H:m:s:ms)","GENERIC","124.626","0.1489141380812217","879"
"21:20:15:189 (H:m:s:ms)","OPERA","93.149","0.10468189587124559","810"
"21:20:18:181 (H:m:s:ms)","GENERIC","124.644","0.13889573100685781","818"
"21:20:22:784 (H:m:s:ms)","OPERA","124.291","0.08752784561858055","215"
"21:20:24:242 (H:m:s:ms)","GENERIC","124.27","0.12381749639800357","758"
"21:20:30:303 (H:m:s:ms)","GENERIC","62.099","0.10303338221822869","696"
"21:20:30:379 (H:m:s:ms)","OPERA","62.144","0.13233166599838248","620"
"21:20:36:363 (H:m:s:ms)","GENERIC","62.089","0.11593349588957942","636"
"21:20:37:974 (H:m:s:ms)","OPERA","93.151","0.0941704119645977","1025"
"21:20:42:424 (H:m:s:ms)","GENERIC","124.243","0.11797243178989078","575"
"21:20:45:569 (H:m:s:ms)","OPERA","93.149","0.10364464235766814","430"
"21:20:48:484 (H:m:s:ms)","GENERIC","124.338","0.13719309684053957","515"
"21:20:53:164 (H:m:s:ms)","OPERA","93.151","0.12455584916815196","835"
"21:20:54:545 (H:m:s:ms)","GENERIC","124.121","0.14379511887547028","454"
"21:21:0:606 (H:m:s:ms)","GENERIC","93.07300000000001","0.10176731113946721","393"
"21:21:0:759 (H:m:s:ms)","OPERA","93.151","0.11639454905875878","240"
"21:21:6:666 (H:m:s:ms)","GENERIC","124.209","0.12660048847017483","333"
"21:21:8:354 (H:m:s:ms)","OPERA","93.151","0.12366666271757129","645"
"21:21:12:727 (H:m:s:ms)","GENERIC","124.434","0.15499112076978241","272"
"21:21:15:949 (H:m:s:ms)","OPERA","93.151","0.12175488852951413","1050"
"21:32:55:757 (H:m:s:ms)","GENERIC","93.181","0.10394082507825148","242"
"21:32:37:894 (H:m:s:ms)","AMBULANCE","93.352","0.10435919367512618","1105"
"21:32:37:575 (H:m:s:ms)","GENERIC","62.037","0.07837327589731762","424"
"21:32:31:515 (H:m:s:ms)","GENERIC","62.145","0.09999996600689609","484"
"21:32:25:454 (H:m:s:ms)","GENERIC","93.34","0.10407874457857197","545"
"21:32:19:393 (H:m:s:ms)","GENERIC","93.221","0.11661125439409561","649"
"21:32:13:333 (H:m:s:ms)","GENERIC","93.295","0.11933980818126723","666"
"21:32:7:272 (H:m:s:ms)","GENERIC","93.199","0.09837127078331653","727"
"21:21:18:787 (H:m:s:ms)","GENERIC","62.179","0.12805326128415687","212"
"21:32:6:315 (H:m:s:ms)","AMBULANCE","62.059","0.06632685303842793","684"
"21:21:23:544 (H:m:s:ms)","OPERA","93.149","0.08295171550936292","455"
"21:21:24:848 (H:m:s:ms)","GENERIC","93.178","0.12125648917104548","151"
"21:21:30:909 (H:m:s:ms)","GENERIC","124.32900000000001","0.06098385985725028","1090"
"21:21:31:139 (H:m:s:ms)","OPERA","93.151","0.09908493397027543","860"
"21:21:36:969 (H:m:s:ms)","GENERIC","93.14500000000001","0.11779220498039024","1030"
"21:21:38:734 (H:m:s:ms)","OPERA","93.153","0.10216471741425527","265"
"21:21:43:30 (H:m:s:ms)","GENERIC","93.223","0.11903231723904337","969"
"21:32:49:696 (H:m:s:ms)","GENERIC","62.105","0.12093922426921094","345"
"21:21:46:329 (H:m:s:ms)","OPERA","93.149","0.10567835576535897","670"
"21:32:43:636 (H:m:s:ms)","GENERIC","93.189","0.14672105687629822","363"
"21:21:49:90 (H:m:s:ms)","GENERIC","93.193","0.13355879350203173","951"
"21:33:50:303 (H:m:s:ms)","GENERIC","93.334","0.11794595328209823","696"
"21:33:44:242 (H:m:s:ms)","GENERIC","62.075","0.11665836579861567","758"
"21:33:38:181 (H:m:s:ms)","GENERIC","62.077","0.07808490734216122","818"
"21:33:32:121 (H:m:s:ms)","GENERIC","62.105","0.11617263457897462","878"
"21:33:26:60 (H:m:s:ms)","GENERIC","124.23400000000001","0.11078692599817148","939"
"21:33:20:0 (H:m:s:ms)","GENERIC","62.031","0.09357658558867638","1046"
"21:33:13:939 (H:m:s:ms)","GENERIC","93.31700000000001","0.14855156274678064","1061"
"21:33:9:473 (H:m:s:ms)","AMBULANCE","124.518","0.12767870586347396","572"
"21:21:53:924 (H:m:s:ms)","OPERA","93.153","0.11486456132482016","1075"
"21:33:7:878 (H:m:s:ms)","GENERIC","124.6","0.09372602611640832","1121"
"21:21:55:151 (H:m:s:ms)","GENERIC","93.12","0.1330124509025748","848"
"21:33:1:818 (H:m:s:ms)","GENERIC","93.21900000000001","0.12005985447444434","181"
"21:22:1:212 (H:m:s:ms)","GENERIC","62.089","0.09550428617497629","787"
"21:22:1:518 (H:m:s:ms)","OPERA","124.291","0.12280144774866363","481"
"21:22:7:272 (H:m:s:ms)","GENERIC","62.039","0.11646290814430542","727"
"21:22:9:113 (H:m:s:ms)","OPERA","93.153","0.09115281577088914","927"
"21:22:13:333 (H:m:s:ms)","GENERIC","124.503","0.12374878676707905","666"
"21:22:16:708 (H:m:s:ms)","OPERA","93.149","0.10321340722749499","291"
"21:22:19:393 (H:m:s:ms)","GENERIC","93.235","0.12871334992407457","647"
"21:22:24:303 (H:m:s:ms)","OPERA","124.287","0.10858694758860239","697"
"21:33:41:52 (H:m:s:ms)","AMBULANCE","93.119","0.08698936489315404","947"
"21:34:44:848 (H:m:s:ms)","GENERIC","62.077","0.11732139631537784","152"
"21:34:44:210 (H:m:s:ms)","AMBULANCE","62.075","0.09884089539305001","790"
"21:34:38:787 (H:m:s:ms)","GENERIC","93.249","0.10589682086471056","212"
"21:34:32:727 (H:m:s:ms)","GENERIC","93.069","0.0956311832072576","272"
"21:34:26:666 (H:m:s:ms)","GENERIC","93.259","0.09715931074606925","333"
"21:34:20:606 (H:m:s:ms)","GENERIC","62.087","0.08319172592373149","393"
"21:34:14:545 (H:m:s:ms)","GENERIC","124.54599999999999","0.13674588469718463","454"
"21:34:12:631 (H:m:s:ms)","AMBULANCE","93.176","0.12652981654911452","368"
"21:22:25:454 (H:m:s:ms)","GENERIC","124.596","0.13212414462359556","545"
"21:34:8:484 (H:m:s:ms)","GENERIC","93.288","0.1022638639484115","515"
"21:22:31:515 (H:m:s:ms)","GENERIC","62.159","0.09376399322242861","484"
"21:34:2:424 (H:m:s:ms)","GENERIC","93.202","0.08482783853462121","575"
"21:2:1:212 (H:m:s:ms)","GENERIC","62.089","0.1054729053613109","787"
"21:22:31:898 (H:m:s:ms)","OPERA","93.283","0.10988489687053418","101"
"21:33:56:363 (H:m:s:ms)","GENERIC","62.083","0.10323048014569017","636"
"21:2:6:315 (H:m:s:ms)","AMBULANCE","31.018","0.07383749435308291","684"
"21:22:37:575 (H:m:s:ms)","GENERIC","62.029","0.09834970747122503","424"
"21:2:7:272 (H:m:s:ms)","GENERIC","93.169","0.11064378256248247","727"
"21:22:39:493 (H:m:s:ms)","OPERA","93.151","0.09847392266957888","546"
"21:2:13:333 (H:m:s:ms)","GENERIC","93.319","0.13612503652037908","666"
"21:22:43:636 (H:m:s:ms)","GENERIC","124.312","0.13314752434059637","363"
"21:2:19:393 (H:m:s:ms)","GENERIC","93.267","0.13528463956697728","657"
"21:22:47:88 (H:m:s:ms)","OPERA","93.151","0.13440936883168247","911"
"21:2:25:454 (H:m:s:ms)","GENERIC","93.364","0.12967387234888383","545"
"21:22:49:696 (H:m:s:ms)","GENERIC","93.159","0.16156131872890792","344"
"21:2:31:515 (H:m:s:ms)","GENERIC","62.143","0.11456732750046453","484"
"21:22:54:683 (H:m:s:ms)","OPERA","93.151","0.1181385751391961","316"
"21:2:37:575 (H:m:s:ms)","GENERIC","62.041","0.08100388671495413","424"
"21:22:55:757 (H:m:s:ms)","GENERIC","62.053","0.1303564407274878","242"
"21:2:37:894 (H:m:s:ms)","AMBULANCE","93.557","0.09950009185598446","105"
"21:2:43:636 (H:m:s:ms)","GENERIC","124.294","0.12458642046237337","364"
"21:35:45:454 (H:m:s:ms)","GENERIC","93.11","0.10323979472160594","545"
"21:35:39:393 (H:m:s:ms)","GENERIC","62.115","0.10318663884393194","650"
"21:35:33:333 (H:m:s:ms)","GENERIC","62.075","0.10122879325064983","666"
"21:35:27:272 (H:m:s:ms)","GENERIC","62.025","0.11870914184147417","727"
"21:35:21:212 (H:m:s:ms)","GENERIC","124.43299999999999","0.14178886390634138","788"
"21:35:15:789 (H:m:s:ms)","AMBULANCE","62.083","0.12249450607923876","210"
"21:35:15:151 (H:m:s:ms)","GENERIC","93.316","0.11196282636951731","848"
"21:23:1:818 (H:m:s:ms)","GENERIC","93.245","0.10599876057542308","181"
"21:35:9:90 (H:m:s:ms)","GENERIC","124.63499999999999","0.11588450682092295","953"
"21:23:2:278 (H:m:s:ms)","OPERA","93.151","0.10362107876601696","721"
"21:35:3:30 (H:m:s:ms)","GENERIC","124.6","0.12650890284286584","969"
"21:2:49:696 (H:m:s:ms)","GENERIC","62.065","0.11117880883189878","351"
"21:23:7:878 (H:m:s:ms)","GENERIC","93.342","0.09498488405075108","1121"
"21:34:56:969 (H:m:s:ms)","GENERIC","93.14099999999999","0.11184164538236778","1030"
"21:2:55:757 (H:m:s:ms)","GENERIC","62.061","0.083200506394581","243"
"21:23:9:873 (H:m:s:ms)","OPERA","124.289","0.10835396893171774","165"
"21:34:50:909 (H:m:s:ms)","GENERIC","93.292","0.07963096298937603","1090"
"21:3:1:818 (H:m:s:ms)","GENERIC","124.37899999999999","0.10452129156600874","181"
"21:23:13:939 (H:m:s:ms)","GENERIC","93.31700000000001","0.13952498914836783","1061"
"21:3:7:878 (H:m:s:ms)","GENERIC","93.32600000000001","0.09344362018279712","1121"
"21:23:17:468 (H:m:s:ms)","OPERA","124.287","0.10223431398366438","531"
"21:3:9:473 (H:m:s:ms)","AMBULANCE","93.451","0.14123456062858966","574"
"21:23:20:0 (H:m:s:ms)","GENERIC","62.045","0.11351970983131142","1040"
"21:3:13:939 (H:m:s:ms)","GENERIC","124.589","0.1553618455295642","1060"
"21:23:25:63 (H:m:s:ms)","OPERA","124.289","0.09370960239873824","936"
"21:3:20:0 (H:m:s:ms)","GENERIC","93.176","0.09135817543165103","1049"
"21:23:26:60 (H:m:s:ms)","GENERIC","124.25800000000001","0.12716408470617052","939"
"21:3:26:60 (H:m:s:ms)","GENERIC","93.141","0.12571257972629457","940"
"21:23:32:121 (H:m:s:ms)","GENERIC","62.089","0.14433009036140018","878"
"21:3:32:121 (H:m:s:ms)","GENERIC","62.095","0.12242917656027436","878"
"21:3:38:181 (H:m:s:ms)","GENERIC","93.128","0.10280294593082612","818"
"21:36:40:0 (H:m:s:ms)","GENERIC","93.114","0.09965887156389296","1044"
"21:36:33:939 (H:m:s:ms)","GENERIC","62.089","0.11549852601563565","1061"
"21:36:27:878 (H:m:s:ms)","GENERIC","93.108","0.09646530752325169","1121"
"21:36:21:818 (H:m:s:ms)","GENERIC","93.35","0.11985071228022619","182"
"21:36:18:947 (H:m:s:ms)","AMBULANCE","62.067","0.08297317874428237","1096"
"21:36:15:757 (H:m:s:ms)","GENERIC","93.19200000000001","0.08036200360537485","242"
"21:23:32:658 (H:m:s:ms)","OPERA","93.151","0.13174303680512198","341"
"21:36:9:696 (H:m:s:ms)","GENERIC","62.121","0.09804582773344672","348"
"21:23:38:181 (H:m:s:ms)","GENERIC","62.077","0.1355366083446335","818"
"21:36:3:636 (H:m:s:ms)","GENERIC","93.21000000000001","0.11649683260037752","363"
"21:3:41:52 (H:m:s:ms)","AMBULANCE","62.066","0.10004650485867705","947"
"21:23:40:253 (H:m:s:ms)","OPERA","93.153","0.1027369825385551","746"
"21:35:57:575 (H:m:s:ms)","GENERIC","93.196","0.10423741813129946","424"
"21:3:44:242 (H:m:s:ms)","GENERIC","93.273","0.14179134473023716","758"
"21:23:44:242 (H:m:s:ms)","GENERIC","62.063","0.12274099526650536","758"
"21:35:51:515 (H:m:s:ms)","GENERIC","93.111","0.12205657820611027","484"
"21:3:50:303 (H:m:s:ms)","GENERIC","93.334","0.13012139016491936","696"
"21:23:47:848 (H:m:s:ms)","OPERA","93.151","0.09921045826463384","151"
"21:35:47:368 (H:m:s:ms)","AMBULANCE","93.219","0.09854465499078743","631"
"21:3:56:363 (H:m:s:ms)","GENERIC","62.095","0.08868584938391044","636"
"21:23:50:303 (H:m:s:ms)","GENERIC","124.595","0.11802773984054267","696"
"21:4:2:424 (H:m:s:ms)","GENERIC","62.059","0.06926191740257398","575"
"21:23:55:443 (H:m:s:ms)","OPERA","93.149","0.10683533136365608","556"
"21:4:8:484 (H:m:s:ms)","GENERIC","93.324","0.08351508634997708","515"
"21:23:56:363 (H:m:s:ms)","GENERIC","62.099","0.11896282328545077","636"
"21:4:12:631 (H:m:s:ms)","AMBULANCE","93.184","0.1053161182935225","369"
"21:24:2:424 (H:m:s:ms)","GENERIC","62.041","0.08955438404780622","575"
"21:4:14:545 (H:m:s:ms)","GENERIC","124.544","0.13593483701233638","455"
"21:24:3:37 (H:m:s:ms)","OPERA","93.151","0.10615744899791657","962"
"21:4:20:606 (H:m:s:ms)","GENERIC","62.115","0.10801648939418775","393"
"21:4:26:666 (H:m:s:ms)","GENERIC","93.255","0.0951164340839598","333"
"21:37:34:545 (H:m:s:ms)","GENERIC","62.021","0.0928430418056084","454"
"21:37:28:484 (H:m:s:ms)","GENERIC","93.098","0.12018366654683099","515"
"21:37:22:424 (H:m:s:ms)","GENERIC","62.115","0.13968034739738366","575"
"21:37:22:105 (H:m:s:ms)","AMBULANCE","62.077","0.1274922771072573","894"
"21:37:16:363 (H:m:s:ms)","GENERIC","124.376","0.12171721699036181","636"
"21:37:10:303 (H:m:s:ms)","GENERIC","62.105","0.10127230891171939","696"
"21:24:8:484 (H:m:s:ms)","GENERIC","93.288","0.12794746604257826","515"
"21:24:10:632 (H:m:s:ms)","OPERA","124.287","0.10411805627214425","367"
"21:37:4:242 (H:m:s:ms)","GENERIC","93.345","0.13317770362805484","758"
"21:4:32:727 (H:m:s:ms)","GENERIC","93.099","0.105591751921132","272"
"21:24:14:545 (H:m:s:ms)","GENERIC","124.574","0.12288692317432841","455"
"21:36:58:181 (H:m:s:ms)","GENERIC","93.42399999999999","0.1383033355924475","819"
"21:4:38:787 (H:m:s:ms)","GENERIC","93.255","0.09943335361511058","212"
"21:24:18:227 (H:m:s:ms)","OPERA","93.151","0.10351372520903092","772"
"21:36:52:121 (H:m:s:ms)","GENERIC","124.52199999999999","0.11945925788849984","878"
"21:4:44:210 (H:m:s:ms)","AMBULANCE","31.045","0.07975150727631392","789"
"21:24:20:606 (H:m:s:ms)","GENERIC","62.099","0.12427485843582889","393"
"21:36:50:526 (H:m:s:ms)","AMBULANCE","62.061","0.0803554377830571","473"
"21:4:44:848 (H:m:s:ms)","GENERIC","62.079","0.09854702212171661","151"
"21:24:25:822 (H:m:s:ms)","OPERA","93.149","0.11025163589193168","177"
"21:36:46:60 (H:m:s:ms)","GENERIC","62.053","0.08509581761477109","939"
"21:4:50:909 (H:m:s:ms)","GENERIC","93.278","0.10836374951518214","1090"
"21:24:26:666 (H:m:s:ms)","GENERIC","93.257","0.1395827935658816","334"
"21:4:56:969 (H:m:s:ms)","GENERIC","62.049","0.1328119895796143","1030"
"21:24:32:727 (H:m:s:ms)","GENERIC","124.13","0.11627902515627338","272"
"21:5:3:30 (H:m:s:ms)","GENERIC","93.377","0.11711111777493924","969"
"21:24:33:417 (H:m:s:ms)","OPERA","124.287","0.10977506372047285","582"
"21:5:9:90 (H:m:s:ms)","GENERIC","124.626","0.12886952593690704","957"
"21:24:38:787 (H:m:s:ms)","GENERIC","93.255","0.1391239139061428","212"
"21:5:15:151 (H:m:s:ms)","GENERIC","124.512","0.12947882288425497","848"
"21:5:15:789 (H:m:s:ms)","AMBULANCE","31.03","0.13536780929268624","210"
"21:38:29:90 (H:m:s:ms)","GENERIC","124.231","0.12696235692439387","952"
"21:38:25:263 (H:m:s:ms)","AMBULANCE","62.107","0.1026899016963792","736"
"21:38:23:30 (H:m:s:ms)","GENERIC","93.173","0.11369010385603188","969"
"21:38:16:969 (H:m:s:ms)","GENERIC","93.234","0.09594460048034568","1030"
"21:38:10:909 (H:m:s:ms)","GENERIC","62.035","0.05421300200852981","1090"
"21:38:4:848 (H:m:s:ms)","GENERIC","124.63","0.11876040047784621","152"
"21:37:58:787 (H:m:s:ms)","GENERIC","93.135","0.14263402812411982","213"
"21:24:41:12 (H:m:s:ms)","OPERA","93.149","0.11736840432865667","987"
"21:24:44:848 (H:m:s:ms)","GENERIC","62.081","0.1423635403020978","153"
"21:5:21:212 (H:m:s:ms)","GENERIC","124.41499999999999","0.11999321419282424","788"
"21:24:48:607 (H:m:s:ms)","OPERA","93.151","0.11053244953500564","392"
"21:5:27:272 (H:m:s:ms)","GENERIC","62.053","0.10099084523829341","727"
"21:24:50:909 (H:m:s:ms)","GENERIC","93.286","0.10564316094910428","1090"
"21:37:53:684 (H:m:s:ms)","AMBULANCE","62.105","0.12320667103668011","315"
"20:45:41:772 (H:m:s:ms)","OPERA","62.144","0.09704245631432014","227"
"21:5:33:333 (H:m:s:ms)","GENERIC","93.102","0.09081193729068959","666"
"21:24:56:202 (H:m:s:ms)","OPERA","93.149","0.0954717541637147","797"
"21:37:52:727 (H:m:s:ms)","GENERIC","93.222","0.12443267958160263","272"
"20:45:45:454 (H:m:s:ms)","GENERIC","93.09","0.1277372570515762","545"
"21:5:39:393 (H:m:s:ms)","GENERIC","62.093","0.0784359246783683","652"
"21:24:56:969 (H:m:s:ms)","GENERIC","124.18","0.11992739240322298","1030"
"21:37:46:666 (H:m:s:ms)","GENERIC","93.394","0.12901842250063678","333"
"20:45:49:367 (H:m:s:ms)","OPERA","62.144999999999996","0.11070148060615596","678"
"21:5:45:454 (H:m:s:ms)","GENERIC","93.076","0.08738228494896026","545"
"21:25:3:30 (H:m:s:ms)","GENERIC","93.404","0.10500826606766188","970"
"21:37:40:606 (H:m:s:ms)","GENERIC","124.28399999999999","0.11840694689496799","393"
"20:45:51:515 (H:m:s:ms)","GENERIC","124.238","0.1471820667694356","484"
"21:5:47:368 (H:m:s:ms)","AMBULANCE","31.026","0.09896389273854499","631"
"21:25:3:797 (H:m:s:ms)","OPERA","93.149","0.12605286176470526","202"
"20:45:56:962 (H:m:s:ms)","OPERA","62.144999999999996","0.1121733172698922","1037"
"21:5:51:515 (H:m:s:ms)","GENERIC","93.139","0.12884230950045836","485"
"21:25:9:90 (H:m:s:ms)","GENERIC","124.62","0.12457996268800815","952"
"20:45:57:575 (H:m:s:ms)","GENERIC","62.083","0.12233694667674738","424"
"21:5:57:575 (H:m:s:ms)","GENERIC","62.075","0.10382578540237813","424"
"21:25:11:392 (H:m:s:ms)","OPERA","62.015","0.10139934489386927","607"
"20:46:3:636 (H:m:s:ms)","GENERIC","62.065","0.08530048339151045","363"
"21:6:3:636 (H:m:s:ms)","GENERIC","124.24799999999999","0.10882463171409264","363"
"20:46:4:556 (H:m:s:ms)","OPERA","62.144999999999996","0.08660731173683299","443"
"21:6:9:696 (H:m:s:ms)","GENERIC","62.131","0.11499139566900729","349"
"20:46:9:696 (H:m:s:ms)","GENERIC","62.099","0.10098134867174462","350"
"20:46:12:151 (H:m:s:ms)","OPERA","93.283","0.09115666463620693","848"
"21:39:29:696 (H:m:s:ms)","GENERIC","93.416","0.09294288420507857","345"
"21:39:23:636 (H:m:s:ms)","GENERIC","93.352","0.0867963556214991","363"
"21:39:17:575 (H:m:s:ms)","GENERIC","62.101","0.10178442375031976","424"
"21:39:11:515 (H:m:s:ms)","GENERIC","62.095","0.10183205720673515","484"
"21:39:5:454 (H:m:s:ms)","GENERIC","62.081","0.10058115446225599","545"
"21:38:59:393 (H:m:s:ms)","GENERIC","62.085","0.12236523355855497","648"
"21:38:56:842 (H:m:s:ms)","AMBULANCE","62.039","0.10041826062535428","157"
"21:38:53:333 (H:m:s:ms)","GENERIC","62.055","0.08921043438937565","666"
"21:25:15:151 (H:m:s:ms)","GENERIC","124.536","0.13121954966141808","848"
"21:25:18:987 (H:m:s:ms)","OPERA","93.149","0.10745964171734906","1059"
"21:6:15:757 (H:m:s:ms)","GENERIC","62.097","0.10035980665424438","242"
"21:25:21:212 (H:m:s:ms)","GENERIC","93.231","0.13058968527170628","787"
"21:6:18:947 (H:m:s:ms)","AMBULANCE","31.029","0.08797650874288765","1099"
"21:25:26:582 (H:m:s:ms)","OPERA","93.149","0.11340235611674475","417"
"20:46:15:757 (H:m:s:ms)","GENERIC","93.194","0.106425439724307","242"
"21:6:21:818 (H:m:s:ms)","GENERIC","124.62100000000001","0.11301578128132395","182"
"21:25:27:272 (H:m:s:ms)","GENERIC","62.027","0.1278788675275332","727"
"20:46:19:746 (H:m:s:ms)","OPERA","62.144999999999996","0.11402157552061634","299"
"21:6:27:878 (H:m:s:ms)","GENERIC","124.161","0.09770622669004643","1121"
"21:25:33:333 (H:m:s:ms)","GENERIC","93.159","0.1018636743184264","666"
"21:38:47:272 (H:m:s:ms)","GENERIC","62.077","0.09098943307597959","728"
"20:46:21:818 (H:m:s:ms)","GENERIC","124.628","0.13094095988783813","181"
"21:6:33:939 (H:m:s:ms)","GENERIC","62.111","0.11107283115842871","1061"
"21:25:34:177 (H:m:s:ms)","OPERA","62.144999999999996","0.11072040635165196","822"
"21:38:41:212 (H:m:s:ms)","GENERIC","93.17","0.0909530376985663","787"
"20:46:27:341 (H:m:s:ms)","OPERA","62.146","0.10768834787293877","658"
"21:6:40:0 (H:m:s:ms)","GENERIC","93.098","0.07501220602936952","1050"
"21:25:39:393 (H:m:s:ms)","GENERIC","62.129","0.12776853001515515","653"
"21:38:35:151 (H:m:s:ms)","GENERIC","62.093","0.09335748661741967","848"
"20:46:27:878 (H:m:s:ms)","GENERIC","93.112","0.11730005561511081","1121"
"21:6:46:60 (H:m:s:ms)","GENERIC","62.103","0.08828872097560257","939"
"21:25:41:772 (H:m:s:ms)","OPERA","93.151","0.09912803206947601","227"
"20:46:33:939 (H:m:s:ms)","GENERIC","62.101","0.1097616722009254","1061"
"21:6:50:526 (H:m:s:ms)","AMBULANCE","31.041","0.09480941415494787","473"
"21:25:45:454 (H:m:s:ms)","GENERIC","93.096","0.1254142522662799","546"
"20:46:34:936 (H:m:s:ms)","OPERA","62.144","0.13774865081025608","64"
"21:6:52:121 (H:m:s:ms)","GENERIC","93.316","0.10912548022684715","878"
"20:46:40:0 (H:m:s:ms)","GENERIC","93.114","0.1390663085394954","1047"
"21:6:58:181 (H:m:s:ms)","GENERIC","124.656","0.11002970738236158","818"
"20:46:42:531 (H:m:s:ms)","OPERA","62.144","0.11900699593618781","468"
"20:46:46:60 (H:m:s:ms)","GENERIC","62.089","0.1278420662254537","939"
"21:39:47:878 (H:m:s:ms)","GENERIC","124.287","0.060436473578054206","1121"
"21:40:24:242 (H:m:s:ms)","GENERIC","124.311","0.11574915794308917","758"
"21:40:18:181 (H:m:s:ms)","GENERIC","62.101","0.11903080539034548","818"
"21:40:12:121 (H:m:s:ms)","GENERIC","124.643","0.14814044129207185","878"
"21:40:6:60 (H:m:s:ms)","GENERIC","93.38900000000001","0.16609021061500556","939"
"21:40:0:0 (H:m:s:ms)","AMBULANCE","124.583","0.15588479334568695","1134"
"21:40:0:0 (H:m:s:ms)","GENERIC","124.50399999999999","0.1387135514316379","1134"
"21:40:0:0 (H:m:s:ms)","GENERIC","62.043","0.11535942414507443","1134"
"21:39:53:939 (H:m:s:ms)","GENERIC","124.596","0.10840300922867317","1061"
"21:7:4:242 (H:m:s:ms)","GENERIC","93.31700000000001","0.1176334203258438","758"
"21:7:10:303 (H:m:s:ms)","GENERIC","93.17500000000001","0.10113333494793739","696"
"20:46:50:126 (H:m:s:ms)","OPERA","62.144999999999996","0.08898768803011664","873"
"21:7:16:363 (H:m:s:ms)","GENERIC","124.444","0.11525161833342287","636"
"20:46:52:121 (H:m:s:ms)","GENERIC","124.50800000000001","0.11391644522288658","878"
"21:7:22:105 (H:m:s:ms)","AMBULANCE","62.283","0.10630165338211002","894"
"20:46:57:721 (H:m:s:ms)","OPERA","62.144999999999996","0.10356229287399762","278"
"21:7:22:424 (H:m:s:ms)","GENERIC","62.087","0.1205903096130748","575"
"20:46:58:181 (H:m:s:ms)","GENERIC","93.392","0.1472333160693552","818"
"21:7:28:484 (H:m:s:ms)","GENERIC","62.027","0.09177041422888381","515"
"21:39:41:818 (H:m:s:ms)","GENERIC","93.337","0.07441855158668809","181"
"20:47:4:242 (H:m:s:ms)","GENERIC","93.303","0.1365204426466978","758"
"21:7:34:545 (H:m:s:ms)","GENERIC","62.057","0.07398577883071876","454"
"21:39:35:757 (H:m:s:ms)","GENERIC","62.103","0.08824086742819852","242"
"20:47:5:316 (H:m:s:ms)","OPERA","62.146","0.10847524512479265","683"
"21:7:40:606 (H:m:s:ms)","GENERIC","124.292","0.10824615179477984","393"
"20:47:10:303 (H:m:s:ms)","GENERIC","62.071","0.12354170126810005","696"
"21:7:46:666 (H:m:s:ms)","GENERIC","93.366","0.13209172488792037","333"
"20:47:16:363 (H:m:s:ms)","GENERIC","124.436","0.1197003157301668","636"
"21:7:52:727 (H:m:s:ms)","GENERIC","124.39","0.12849876096684207","273"
"20:47:20:506 (H:m:s:ms)","OPERA","62.144999999999996","0.1251915734808699","493"
"20:47:22:424 (H:m:s:ms)","GENERIC","62.061","0.13779861966998969","576"
"21:7:53:684 (H:m:s:ms)","AMBULANCE","31.047","0.1095828740844028","315"
"21:7:58:787 (H:m:s:ms)","GENERIC","62.029","0.1294138326517431","212"
"20:47:28:101 (H:m:s:ms)","OPERA","62.144999999999996","0.09586121409127475","898"
"21:8:4:848 (H:m:s:ms)","GENERIC","124.616","0.11001055905652711","152"
"20:47:28:484 (H:m:s:ms)","GENERIC","62.045","0.10351913638913623","515"
"21:8:10:909 (H:m:s:ms)","GENERIC","62.061","0.062204881754164484","1090"
"20:47:34:545 (H:m:s:ms)","GENERIC","62.051","0.09964270686176566","455"
"21:8:16:969 (H:m:s:ms)","GENERIC","124.429","0.10572198704848774","1030"
"20:47:35:696 (H:m:s:ms)","OPERA","62.144999999999996","0.08870309880581664","303"
"21:8:23:30 (H:m:s:ms)","GENERIC","93.12299999999999","0.1224433626848506","969"
"20:47:40:606 (H:m:s:ms)","GENERIC","124.321","0.12850477988024825","393"
"21:8:25:263 (H:m:s:ms)","AMBULANCE","31.041","0.09887805924094785","736"
"20:47:43:291 (H:m:s:ms)","OPERA","93.283","0.11964793684269279","708"
"21:8:29:90 (H:m:s:ms)","GENERIC","93.154","0.12384642433463865","956"
"21:40:30:303 (H:m:s:ms)","GENERIC","62.085","0.12179294063727979","696"
"20:47:46:666 (H:m:s:ms)","GENERIC","93.374","0.14864993096039242","333"
"21:8:35:151 (H:m:s:ms)","GENERIC","62.057","0.08900287519235979","848"
"20:47:50:886 (H:m:s:ms)","OPERA","62.144999999999996","0.11535579128136939","113"
"21:8:41:212 (H:m:s:ms)","GENERIC","62.053","0.07632248946047172","788"
"20:47:52:727 (H:m:s:ms)","GENERIC","93.196","0.15817874433180065","272"
"20:47:58:481 (H:m:s:ms)","OPERA","62.144999999999996","0.13284487076364454","518"
"21:8:47:272 (H:m:s:ms)","GENERIC","62.055","0.07163057536083309","727"
"21:8:53:333 (H:m:s:ms)","GENERIC","62.043","0.08135629628096289","666"
"20:47:58:787 (H:m:s:ms)","GENERIC","93.105","0.1640297782708424","212"
"21:8:56:842 (H:m:s:ms)","AMBULANCE","31.028","0.08659440285399511","157"
"20:48:4:848 (H:m:s:ms)","GENERIC","93.378","0.1588155223441637","151"
"21:8:59:393 (H:m:s:ms)","GENERIC","93.32300000000001","0.12126282894513965","650"
"20:30:0:0 (H:m:s:ms)","GENERIC","62.029","0.1222889268347317","1045"
"20:48:6:75 (H:m:s:ms)","OPERA","62.144","0.13175956217919102","924"
"21:9:5:454 (H:m:s:ms)","GENERIC","62.111","0.09396060123522894","545"
"20:30:0:0 (H:m:s:ms)","GENERIC","93.313","0.1489604816856233","1046"
"20:48:10:909 (H:m:s:ms)","GENERIC","62.095","0.11042341654606422","1090"
"21:9:11:515 (H:m:s:ms)","GENERIC","93.33200000000001","0.11360850813655263","484"
"20:30:6:60 (H:m:s:ms)","GENERIC","93.303","0.14358893891884564","939"
"20:48:13:670 (H:m:s:ms)","OPERA","93.282","0.10600989429989585","330"
"21:9:17:575 (H:m:s:ms)","GENERIC","62.083","0.12873773950765321","424"
"20:30:12:121 (H:m:s:ms)","GENERIC","124.62100000000001","0.1092525520512222","879"
"20:48:16:969 (H:m:s:ms)","GENERIC","124.39099999999999","0.13094036474295334","1030"
"21:9:23:636 (H:m:s:ms)","GENERIC","93.344","0.11273133040311711","363"
"20:30:18:181 (H:m:s:ms)","GENERIC","124.634","0.1293138575200915","818"
"20:48:21:265 (H:m:s:ms)","OPERA","62.144","0.10811047435766441","734"
"21:9:28:421 (H:m:s:ms)","AMBULANCE","62.153999999999996","0.12671043862852246","578"
"20:30:24:242 (H:m:s:ms)","GENERIC","62.019","0.11921311578559071","758"
"20:48:23:30 (H:m:s:ms)","GENERIC","93.137","0.1287138836201611","969"
"21:9:29:696 (H:m:s:ms)","GENERIC","93.382","0.14762183727607653","346"
"20:30:30:303 (H:m:s:ms)","GENERIC","62.093","0.1120459334890565","696"
"20:48:29:90 (H:m:s:ms)","GENERIC","62.053","0.1010525338925551","959"
"20:30:36:363 (H:m:s:ms)","GENERIC","62.045","0.08086782254600142","636"
"20:48:35:151 (H:m:s:ms)","GENERIC","62.013","0.07958385779551357","848"
"20:30:42:424 (H:m:s:ms)","GENERIC","124.239","0.0958808827837975","575"
"20:30:48:484 (H:m:s:ms)","GENERIC","124.271","0.11492268409048166","515"
"21:9:35:757 (H:m:s:ms)","GENERIC","62.077","0.09229434645669223","242"
"21:9:41:818 (H:m:s:ms)","GENERIC","93.33500000000001","0.09906526227050598","181"
"20:48:36:455 (H:m:s:ms)","OPERA","93.283","0.08636004469563051","544"
"21:9:47:878 (H:m:s:ms)","GENERIC","93.18299999999999","0.09106633933046399","1121"
"20:48:41:212 (H:m:s:ms)","GENERIC","93.22999999999999","0.10815070447493604","787"
"21:9:53:939 (H:m:s:ms)","GENERIC","124.542","0.11123952172684945","1061"
"20:30:54:545 (H:m:s:ms)","GENERIC","93.14","0.10518496724294372","454"
"20:48:44:50 (H:m:s:ms)","OPERA","62.144","0.10273100087810931","950"
"21:10:0:0 (H:m:s:ms)","AMBULANCE","62.3","0.10941519523016849","1043"
"20:31:0:606 (H:m:s:ms)","GENERIC","93.07900000000001","0.1029943755093878","393"
"20:48:47:272 (H:m:s:ms)","GENERIC","62.045","0.11534069282959099","727"
"21:10:0:0 (H:m:s:ms)","GENERIC","62.027","0.1294315765465473","1043"
"20:31:6:666 (H:m:s:ms)","GENERIC","93.131","0.11690277112284746","333"
"20:48:51:645 (H:m:s:ms)","OPERA","62.144999999999996","0.09179435804302076","354"
"21:10:0:0 (H:m:s:ms)","GENERIC","124.483","0.1546381933365494","1043"
"20:31:12:727 (H:m:s:ms)","GENERIC","124.437","0.10575409061871283","273"
"20:48:53:333 (H:m:s:ms)","GENERIC","93.104","0.12848282748296427","666"
"21:10:6:60 (H:m:s:ms)","GENERIC","93.369","0.16977987274607784","939"
"20:31:18:787 (H:m:s:ms)","GENERIC","62.153","0.078232682278971","212"
"20:48:59:240 (H:m:s:ms)","OPERA","62.144999999999996","0.10520347492823255","809"
"21:10:12:121 (H:m:s:ms)","GENERIC","93.36","0.12609935745326686","878"
"20:31:24:848 (H:m:s:ms)","GENERIC","62.045","0.07758277117108205","151"
"20:48:59:393 (H:m:s:ms)","GENERIC","124.542","0.14295201815205397","656"
"21:10:18:181 (H:m:s:ms)","GENERIC","93.37700000000001","0.1156606305249246","818"
"20:31:30:909 (H:m:s:ms)","GENERIC","93.184","0.07177799827676018","1090"
"20:49:5:454 (H:m:s:ms)","GENERIC","62.109","0.1199521779173509","545"
"20:31:36:969 (H:m:s:ms)","GENERIC","93.16900000000001","0.09669504860229301","1031"
"20:49:6:835 (H:m:s:ms)","OPERA","62.144999999999996","0.09030896492660237","164"
"20:31:43:30 (H:m:s:ms)","GENERIC","93.227","0.09930302517618869","969"
"20:31:49:90 (H:m:s:ms)","GENERIC","93.201","0.11538814266648979","953"
"20:49:11:515 (H:m:s:ms)","GENERIC","93.348","0.13675815933541158","484"
"20:49:14:430 (H:m:s:ms)","OPERA","62.144999999999996","0.11905284258613974","570"
"20:31:55:151 (H:m:s:ms)","GENERIC","93.12","0.12285091973217963","848"
"20:49:17:575 (H:m:s:ms)","GENERIC","62.069","0.138041588893309","424"
"20:32:1:212 (H:m:s:ms)","GENERIC","62.113","0.10341283302578666","788"
"20:49:22:25 (H:m:s:ms)","OPERA","62.144","0.11077997516826729","974"
"20:32:7:272 (H:m:s:ms)","GENERIC","62.061","0.09166509372251337","727"
"20:49:23:636 (H:m:s:ms)","GENERIC","93.378","0.1346110047619202","363"
"20:32:13:333 (H:m:s:ms)","GENERIC","93.275","0.11453370474951187","666"
"20:49:29:620 (H:m:s:ms)","OPERA","62.144","0.10803076753651987","427"
"20:32:19:393 (H:m:s:ms)","GENERIC","93.295","0.13369692333856784","649"
"20:49:29:696 (H:m:s:ms)","GENERIC","93.362","0.12987508231800748","351"
"20:32:25:454 (H:m:s:ms)","GENERIC","93.33800000000001","0.1488493166918615","545"
"20:49:35:757 (H:m:s:ms)","GENERIC","62.097","0.11409382836052","242"
"20:32:31:515 (H:m:s:ms)","GENERIC","62.083","0.12763919024375447","484"
"20:49:37:215 (H:m:s:ms)","OPERA","62.144999999999996","0.07021327419892323","784"
"20:32:37:575 (H:m:s:ms)","GENERIC","62.059","0.07252077548630752","425"
"20:49:41:818 (H:m:s:ms)","GENERIC","62.065","0.11587549818518139","181"
"20:32:43:636 (H:m:s:ms)","GENERIC","124.29599999999999","0.09246889254342502","363"
"20:32:49:696 (H:m:s:ms)","GENERIC","62.095","0.1045510990337375","347"
"20:49:44:810 (H:m:s:ms)","OPERA","93.283","0.1216338341606096","189"
"20:49:47:878 (H:m:s:ms)","GENERIC","93.169","0.1314242385856533","1122"
"20:32:55:757 (H:m:s:ms)","GENERIC","93.185","0.10651297572982278","242"
"20:49:52:405 (H:m:s:ms)","OPERA","62.144","0.12901384415035005","594"
"20:33:1:818 (H:m:s:ms)","GENERIC","93.175","0.1119048784174285","181"
"20:49:53:939 (H:m:s:ms)","GENERIC","124.49199999999999","0.1515392320725555","1061"
"20:33:7:878 (H:m:s:ms)","GENERIC","93.334","0.09104281357894765","1122"
"20:50:0:0 (H:m:s:ms)","OPERA","93.283","0.14188730529161167","1052"
"20:33:13:939 (H:m:s:ms)","GENERIC","93.307","0.10333146039192674","1060"
"20:50:0:0 (H:m:s:ms)","GENERIC","93.15899999999999","0.15709234048147758","1052"
"20:33:20:0 (H:m:s:ms)","GENERIC","62.053","0.08629980920253075","1045"
"20:50:0:0 (H:m:s:ms)","GENERIC","124.493","0.12037023499129518","1052"
"20:33:26:60 (H:m:s:ms)","GENERIC","124.21000000000001","0.13163769778249193","939"
"20:50:6:60 (H:m:s:ms)","GENERIC","62.079","0.16764850739054446","939"
"20:33:32:121 (H:m:s:ms)","GENERIC","62.117","0.13252401466646838","878"
"20:50:12:121 (H:m:s:ms)","GENERIC","124.60499999999999","0.1415341527196989","878"
"20:33:38:181 (H:m:s:ms)","GENERIC","93.166","0.1012740985243271","818"
"20:50:18:181 (H:m:s:ms)","GENERIC","62.091","0.12309515707562686","819"
"20:33:44:242 (H:m:s:ms)","GENERIC","62.073","0.1060593243166131","758"
"20:33:50:303 (H:m:s:ms)","GENERIC","93.364","0.11010234946131872","696"
"20:50:24:242 (H:m:s:ms)","GENERIC","93.147","0.1325871375587229","758"
"20:50:30:303 (H:m:s:ms)","GENERIC","93.161","0.13385121400848168","697"
"20:33:56:363 (H:m:s:ms)","GENERIC","62.091","0.08275215184051832","636"
"20:50:36:363 (H:m:s:ms)","GENERIC","62.073","0.09666516378733246","636"
"20:34:2:424 (H:m:s:ms)","GENERIC","93.22800000000001","0.08133949072219583","575"
"20:50:42:424 (H:m:s:ms)","GENERIC","93.157","0.0976644537793599","575"
"20:10:0:0 (H:m:s:ms)","GENERIC","62.263000000000005","0.11965531216591851","1001"
"20:34:8:484 (H:m:s:ms)","GENERIC","93.324","0.10937130736495553","515"
"20:50:48:484 (H:m:s:ms)","GENERIC","124.289","0.09955938295256506","515"
"20:10:0:0 (H:m:s:ms)","GENERIC","62.043","0.13305955536254635","1046"
"20:34:14:545 (H:m:s:ms)","GENERIC","124.524","0.09677198276985685","455"
"20:50:54:545 (H:m:s:ms)","GENERIC","93.13","0.10094658410823938","454"
"20:10:6:60 (H:m:s:ms)","GENERIC","93.325","0.13476548803889488","939"
"20:34:20:606 (H:m:s:ms)","GENERIC","62.141","0.08323627324540994","393"
"20:51:0:606 (H:m:s:ms)","GENERIC","93.099","0.11915315477334644","393"
"20:10:12:121 (H:m:s:ms)","GENERIC","124.61500000000001","0.11338760240187747","878"
"20:34:26:666 (H:m:s:ms)","GENERIC","124.377","0.10728505056938559","333"
"20:51:6:666 (H:m:s:ms)","GENERIC","124.207","0.12487496153321564","333"
"20:10:18:181 (H:m:s:ms)","GENERIC","124.66499999999999","0.1239458779782087","818"
"20:34:32:727 (H:m:s:ms)","GENERIC","93.135","0.11399910937426497","272"
"20:51:12:727 (H:m:s:ms)","GENERIC","62.075","0.10110077362307336","272"
"20:10:24:242 (H:m:s:ms)","GENERIC","93.163","0.11913949797423731","757"
"20:34:38:787 (H:m:s:ms)","GENERIC","124.407","0.11431172253595279","212"
"20:51:18:787 (H:m:s:ms)","GENERIC","62.185","0.07532187594390834","212"
"20:10:30:303 (H:m:s:ms)","GENERIC","62.109","0.11648829509153452","696"
"20:34:44:848 (H:m:s:ms)","GENERIC","62.109","0.10994647912143919","151"
"20:10:36:363 (H:m:s:ms)","GENERIC","62.067","0.08086782254600142","636"
"20:34:50:909 (H:m:s:ms)","GENERIC","93.25","0.10850974383244288","1090"
"20:10:42:424 (H:m:s:ms)","GENERIC","124.217","0.09777688842436925","576"
"20:10:48:484 (H:m:s:ms)","GENERIC","124.314","0.09963213358329379","515"
"20:51:24:848 (H:m:s:ms)","GENERIC","93.17399999999999","0.10653063735263694","152"
"20:51:30:909 (H:m:s:ms)","GENERIC","93.182","0.07684540825495532","1090"
"20:34:56:969 (H:m:s:ms)","GENERIC","93.11500000000001","0.14108034827242993","1030"
"20:51:36:969 (H:m:s:ms)","GENERIC","62.095","0.10430843339038201","1030"
"20:35:3:30 (H:m:s:ms)","GENERIC","93.339","0.1163581261575993","969"
"20:51:43:30 (H:m:s:ms)","GENERIC","62.039","0.10077821025302643","969"
"20:10:54:545 (H:m:s:ms)","GENERIC","93.136","0.08994408516257155","456"
"20:35:9:90 (H:m:s:ms)","GENERIC","93.358","0.10831977906441534","951"
"20:51:49:90 (H:m:s:ms)","GENERIC","93.209","0.12830600691379418","961"
"20:11:0:606 (H:m:s:ms)","GENERIC","93.07300000000001","0.1034956379009687","394"
"20:35:15:151 (H:m:s:ms)","GENERIC","93.328","0.11483510761039989","848"
"20:51:55:151 (H:m:s:ms)","GENERIC","93.146","0.12917123751029805","848"
"20:11:6:666 (H:m:s:ms)","GENERIC","124.223","0.139050094446359","334"
"20:35:21:212 (H:m:s:ms)","GENERIC","93.273","0.11402963109811129","788"
"20:52:1:212 (H:m:s:ms)","GENERIC","62.091","0.0981082256965684","787"
"20:11:12:727 (H:m:s:ms)","GENERIC","124.386","0.14348180289316906","272"
"20:35:27:272 (H:m:s:ms)","GENERIC","62.099","0.09303768640344197","727"
"20:52:7:272 (H:m:s:ms)","GENERIC","62.049","0.0787465619943744","727"
"20:11:18:787 (H:m:s:ms)","GENERIC","62.119","0.10562378368306731","212"
"20:35:33:333 (H:m:s:ms)","GENERIC","93.096","0.09056190732197952","666"
"20:52:13:333 (H:m:s:ms)","GENERIC","93.303","0.10978021242777156","666"
"20:11:24:848 (H:m:s:ms)","GENERIC","93.176","0.0943241462131117","152"
"20:35:39:393 (H:m:s:ms)","GENERIC","62.047","0.09643652440540745","650"
"20:52:19:393 (H:m:s:ms)","GENERIC","124.461","0.13700003387046097","654"
"20:11:30:909 (H:m:s:ms)","GENERIC","62.053","0.07145477677501302","1091"
"20:35:45:454 (H:m:s:ms)","GENERIC","93.088","0.09608975773740132","545"
"20:11:36:969 (H:m:s:ms)","GENERIC","62.095","0.09369954284975811","1030"
"20:35:51:515 (H:m:s:ms)","GENERIC","124.19800000000001","0.1126326681293285","484"
"20:11:43:30 (H:m:s:ms)","GENERIC","124.425","0.10670104782865367","969"
"20:11:49:90 (H:m:s:ms)","GENERIC","93.18700000000001","0.11737255386692293","961"
"20:0:54:545 (H:m:s:ms)","GENERIC","62.078","0.1021355942354841","455"
"20:1:0:606 (H:m:s:ms)","GENERIC","62.044","0.1253380191455578","393"
"20:1:6:666 (H:m:s:ms)","GENERIC","62.084","0.1409983181858671","334"
"20:1:12:727 (H:m:s:ms)","GENERIC","93.406","0.12861023865459487","272"
"20:1:18:787 (H:m:s:ms)","GENERIC","31.053","0.09714503634589489","212"
"20:1:24:848 (H:m:s:ms)","GENERIC","62.138999999999996","0.11158583468181399","153"
"20:1:30:909 (H:m:s:ms)","GENERIC","31.023","0.07089743493943722","1091"
"20:1:36:969 (H:m:s:ms)","GENERIC","31.051","0.0871391187355325","1031"
"20:1:43:30 (H:m:s:ms)","GENERIC","31.052","0.0747309920476076","970"
"20:1:49:90 (H:m:s:ms)","GENERIC","93.34","0.09924691614507834","926"
"20:35:57:575 (H:m:s:ms)","GENERIC","62.085","0.10949547777594261","424"
"20:36:3:636 (H:m:s:ms)","GENERIC","62.051","0.08481239477474992","363"
"20:11:55:151 (H:m:s:ms)","GENERIC","93.108","0.10712202995662852","848"
"20:36:9:696 (H:m:s:ms)","GENERIC","62.077","0.0776456248928668","344"
"20:12:1:212 (H:m:s:ms)","GENERIC","62.143","0.10383094520948494","787"
"20:36:15:757 (H:m:s:ms)","GENERIC","93.176","0.07762350584445821","242"
"20:12:7:272 (H:m:s:ms)","GENERIC","93.17099999999999","0.1059028443763235","727"
"20:36:21:818 (H:m:s:ms)","GENERIC","124.643","0.10608128187490884","181"
"20:12:13:333 (H:m:s:ms)","GENERIC","93.297","0.11009430056168151","666"
"20:36:27:878 (H:m:s:ms)","GENERIC","93.116","0.08317693657365476","1121"
"20:12:19:393 (H:m:s:ms)","GENERIC","93.257","0.10331083867887621","654"
"20:36:33:939 (H:m:s:ms)","GENERIC","62.109","0.0986466716362788","1060"
"20:12:25:454 (H:m:s:ms)","GENERIC","93.34","0.12020945250458669","545"
"20:36:40:0 (H:m:s:ms)","GENERIC","93.12","0.08474600977601342","1042"
"20:12:31:515 (H:m:s:ms)","GENERIC","62.075","0.11878309980519744","485"
"20:36:46:60 (H:m:s:ms)","GENERIC","93.12700000000001","0.097337575660609","939"
"20:12:37:575 (H:m:s:ms)","GENERIC","62.065","0.08617241542789943","424"
"20:36:52:121 (H:m:s:ms)","GENERIC","124.49600000000001","0.11827790065548364","879"
"20:12:43:636 (H:m:s:ms)","GENERIC","124.324","0.12070839603402678","363"
"20:12:49:696 (H:m:s:ms)","GENERIC","62.101","0.11682585082643074","350"
"20:1:55:151 (H:m:s:ms)","GENERIC","62.095","0.1191712006512933","848"
"20:2:1:212 (H:m:s:ms)","GENERIC","31.076","0.1012915210551551","787"
"20:2:7:272 (H:m:s:ms)","GENERIC","31.013","0.07779270684094049","727"
"20:2:13:333 (H:m:s:ms)","GENERIC","93.422","0.11019648434299159","666"
"20:2:19:393 (H:m:s:ms)","GENERIC","62.209999999999994","0.1259602830510223","626"
"20:2:25:454 (H:m:s:ms)","GENERIC","62.298","0.13590529098625523","545"
"20:2:31:515 (H:m:s:ms)","GENERIC","31.049","0.1134530483956283","484"
"20:2:37:575 (H:m:s:ms)","GENERIC","62.111000000000004","0.07247645619074666","425"
"20:2:43:636 (H:m:s:ms)","GENERIC","93.292","0.12076731844080167","363"
"20:2:49:696 (H:m:s:ms)","GENERIC","31.044","0.11524476951446484","326"
"20:36:58:181 (H:m:s:ms)","GENERIC","93.394","0.13654196235221316","818"
"20:37:4:242 (H:m:s:ms)","GENERIC","62.055","0.12224625280291686","757"
"20:12:55:757 (H:m:s:ms)","GENERIC","93.173","0.08923565788082793","242"
"20:37:10:303 (H:m:s:ms)","GENERIC","62.085","0.07793474212553239","696"
"20:13:1:818 (H:m:s:ms)","GENERIC","93.19800000000001","0.09895778343808337","181"
"20:37:16:363 (H:m:s:ms)","GENERIC","124.407","0.09134996229662531","636"
"20:13:7:878 (H:m:s:ms)","GENERIC","62.117","0.07314605950262286","1121"
"20:37:22:424 (H:m:s:ms)","GENERIC","62.059","0.11133055026742979","575"
"20:13:13:939 (H:m:s:ms)","GENERIC","124.543","0.11173671042774891","1060"
"20:37:28:484 (H:m:s:ms)","GENERIC","62.063","0.09342429727566162","515"
"20:13:20:0 (H:m:s:ms)","GENERIC","62.025","0.11036163094019734","1046"
"20:37:34:545 (H:m:s:ms)","GENERIC","62.055","0.07496038851323741","454"
"20:13:26:60 (H:m:s:ms)","GENERIC","124.244","0.09956477079768007","939"
"20:37:40:606 (H:m:s:ms)","GENERIC","93.211","0.11647181528018269","394"
"20:13:32:121 (H:m:s:ms)","GENERIC","62.147","0.09395192926744102","878"
"20:37:46:666 (H:m:s:ms)","GENERIC","93.388","0.13669563670884813","333"
"20:13:38:181 (H:m:s:ms)","GENERIC","62.053","0.08643110962700437","818"
"20:37:52:727 (H:m:s:ms)","GENERIC","124.376","0.1364801694484024","272"
"20:13:44:242 (H:m:s:ms)","GENERIC","62.077","0.08927223201292203","757"
"20:13:50:303 (H:m:s:ms)","GENERIC","93.33","0.10399765328953649","696"
"20:2:55:757 (H:m:s:ms)","GENERIC","62.159","0.10553723310220184","242"
"20:3:1:818 (H:m:s:ms)","GENERIC","62.182","0.11836846996033132","181"
"20:3:7:878 (H:m:s:ms)","GENERIC","62.319","0.10061054316053926","121"
"20:3:13:939 (H:m:s:ms)","GENERIC","62.3","0.08473681528683183","1061"
"20:3:20:0 (H:m:s:ms)","GENERIC","31.024","0.1100614667300066","1000"
"20:3:26:60 (H:m:s:ms)","GENERIC","93.19800000000001","0.13168838410942457","940"
"20:3:32:121 (H:m:s:ms)","GENERIC","62.094","0.1256981565221607","878"
"20:3:38:181 (H:m:s:ms)","GENERIC","62.093","0.08082834215486424","818"
"20:3:44:242 (H:m:s:ms)","GENERIC","62.260999999999996","0.10983769187852264","759"
"20:3:50:303 (H:m:s:ms)","GENERIC","93.535","0.11887184122874456","696"
"20:37:58:787 (H:m:s:ms)","GENERIC","62.023","0.12853687108847836","212"
"20:38:4:848 (H:m:s:ms)","GENERIC","93.394","0.10740224181831327","152"
"20:13:56:363 (H:m:s:ms)","GENERIC","62.079","0.10745991137489425","636"
"20:38:10:909 (H:m:s:ms)","GENERIC","62.113","0.05456912365246802","1090"
"20:14:2:424 (H:m:s:ms)","GENERIC","93.22","0.09546842245007262","575"
"20:38:16:969 (H:m:s:ms)","GENERIC","124.393","0.11794874350270237","1030"
"20:14:8:484 (H:m:s:ms)","GENERIC","93.31","0.09663776680153158","515"
"20:38:23:30 (H:m:s:ms)","GENERIC","124.17599999999999","0.12250093764423581","970"
"20:14:14:545 (H:m:s:ms)","GENERIC","124.536","0.09187630901287942","455"
"20:38:29:90 (H:m:s:ms)","GENERIC","124.238","0.11919460267478167","952"
"20:14:20:606 (H:m:s:ms)","GENERIC","62.121","0.09013590751587908","393"
"20:38:35:151 (H:m:s:ms)","GENERIC","62.023","0.1138367321428477","848"
"20:14:26:666 (H:m:s:ms)","GENERIC","93.195","0.09064788820869622","333"
"20:38:41:212 (H:m:s:ms)","GENERIC","62.063","0.07356340104482212","788"
"20:14:32:727 (H:m:s:ms)","GENERIC","93.13900000000001","0.093679033601023","272"
"20:38:47:272 (H:m:s:ms)","GENERIC","62.057","0.08756564064910508","727"
"20:14:38:787 (H:m:s:ms)","GENERIC","93.215","0.10599895363369613","212"
"20:38:53:333 (H:m:s:ms)","GENERIC","124.194","0.11549680162106922","666"
"20:14:44:848 (H:m:s:ms)","GENERIC","62.103","0.11129631658497324","151"
"20:14:50:909 (H:m:s:ms)","GENERIC","93.292","0.08961026365729469","1090"
"20:3:56:363 (H:m:s:ms)","GENERIC","31.037","0.09577600694632919","636"
"20:4:2:424 (H:m:s:ms)","GENERIC","31.036","0.08632139420677061","575"
"20:4:8:484 (H:m:s:ms)","GENERIC","62.257999999999996","0.09543184304264651","515"
"20:4:14:545 (H:m:s:ms)","GENERIC","62.268","0.12414545261800111","456"
"20:4:20:606 (H:m:s:ms)","GENERIC","31.055","0.1078520450416759","394"
"20:4:26:666 (H:m:s:ms)","GENERIC","62.181","0.06477100073976663","334"
"20:4:32:727 (H:m:s:ms)","GENERIC","62.08","0.08997485892922577","272"
"20:4:38:787 (H:m:s:ms)","GENERIC","62.206","0.09828395614809675","213"
"20:4:44:848 (H:m:s:ms)","GENERIC","31.053","0.09666461439797085","155"
"20:4:50:909 (H:m:s:ms)","GENERIC","62.248999999999995","0.10389690335512605","1090"
"20:38:59:393 (H:m:s:ms)","GENERIC","124.52799999999999","0.1261707606850785","650"
"20:39:5:454 (H:m:s:ms)","GENERIC","62.105","0.09915645347403187","545"
"20:14:56:969 (H:m:s:ms)","GENERIC","93.11500000000001","0.13343063799038216","1030"
"20:39:11:515 (H:m:s:ms)","GENERIC","93.364","0.08626264522405501","484"
"20:15:3:30 (H:m:s:ms)","GENERIC","93.33699999999999","0.13198949063251986","969"
"20:39:17:575 (H:m:s:ms)","GENERIC","62.075","0.08800576022454203","424"
"20:15:9:90 (H:m:s:ms)","GENERIC","124.581","0.10916552965976986","957"
"20:39:23:636 (H:m:s:ms)","GENERIC","93.374","0.09726912184293596","363"
"20:15:15:151 (H:m:s:ms)","GENERIC","93.326","0.0900750235547201","849"
"20:39:29:696 (H:m:s:ms)","GENERIC","62.119","0.11008719634619094","347"
"20:15:21:212 (H:m:s:ms)","GENERIC","124.473","0.10525137519411744","787"
"20:39:35:757 (H:m:s:ms)","GENERIC","62.117","0.09331693446011162","242"
"20:15:27:272 (H:m:s:ms)","GENERIC","62.127","0.10409931379547083","727"
"20:39:41:818 (H:m:s:ms)","GENERIC","93.331","0.10371559925130318","181"
"20:15:33:333 (H:m:s:ms)","GENERIC","62.063","0.09242467275242557","666"
"20:39:47:878 (H:m:s:ms)","GENERIC","93.151","0.06319806466348316","1121"
"20:15:39:393 (H:m:s:ms)","GENERIC","62.061","0.0853302494261051","656"
"20:39:53:939 (H:m:s:ms)","GENERIC","124.50399999999999","0.09040158043551565","1060"
"20:15:45:454 (H:m:s:ms)","GENERIC","93.096","0.09464518237788491","545"
"20:15:51:515 (H:m:s:ms)","GENERIC","93.117","0.10757742183865325","485"
"20:4:56:969 (H:m:s:ms)","GENERIC","62.073","0.1278414390223026","1031"
"20:5:3:30 (H:m:s:ms)","GENERIC","93.517","0.09955541572320299","970"
"20:5:9:90 (H:m:s:ms)","GENERIC","93.536","0.09999951817059173","940"
"20:5:15:151 (H:m:s:ms)","GENERIC","62.269","0.12367843545021473","848"
"20:5:21:212 (H:m:s:ms)","GENERIC","62.248999999999995","0.13196157990400256","787"
"20:5:27:272 (H:m:s:ms)","GENERIC","62.169","0.11447429346489577","728"
"20:5:33:333 (H:m:s:ms)","GENERIC","93.202","0.10444933753893614","666"
"20:5:39:393 (H:m:s:ms)","GENERIC","31.028","0.09201300385027178","637"
"20:5:45:454 (H:m:s:ms)","GENERIC","62.067","0.09358159389711965","546"
"20:5:51:515 (H:m:s:ms)","GENERIC","62.096999999999994","0.1107083011937762","484"
"20:15:57:575 (H:m:s:ms)","GENERIC","62.053","0.09333399691562426","424"
"20:16:3:636 (H:m:s:ms)","GENERIC","93.108","0.11697887795308819","363"
"20:16:9:696 (H:m:s:ms)","GENERIC","62.105","0.10599358259093661","352"
"20:16:15:757 (H:m:s:ms)","GENERIC","124.28299999999999","0.08436528269905275","242"
"20:16:21:818 (H:m:s:ms)","GENERIC","93.374","0.12493400470460629","182"
"20:16:27:878 (H:m:s:ms)","GENERIC","93.086","0.09646530752325169","1121"
"20:16:33:939 (H:m:s:ms)","GENERIC","62.149","0.1228628862828703","1061"
"20:16:40:0 (H:m:s:ms)","GENERIC","93.1","0.11923198818161371","1049"
"20:16:46:60 (H:m:s:ms)","GENERIC","62.115","0.10399714846123591","939"
"20:16:52:121 (H:m:s:ms)","GENERIC","124.50399999999999","0.11418987480090897","878"
"20:5:57:575 (H:m:s:ms)","GENERIC","31.016","0.11249763136865716","424"
"20:6:3:636 (H:m:s:ms)","GENERIC","62.089","0.1023496245571608","363"
"20:6:9:696 (H:m:s:ms)","GENERIC","31.067","0.08679247197680666","338"
"20:6:15:757 (H:m:s:ms)","GENERIC","62.134","0.08871666559797399","242"
"20:6:21:818 (H:m:s:ms)","GENERIC","93.566","0.12493400470460629","181"
"20:6:27:878 (H:m:s:ms)","GENERIC","93.113","0.13578185025468545","123"
"20:6:33:939 (H:m:s:ms)","GENERIC","31.084","0.0740829349445606","1061"
"20:6:40:0 (H:m:s:ms)","GENERIC","62.065","0.1062433434187054","1000"
"20:6:46:60 (H:m:s:ms)","GENERIC","31.053","0.10617386541389427","939"
"20:6:52:121 (H:m:s:ms)","GENERIC","62.259","0.12226536558888368","878"
"20:16:58:181 (H:m:s:ms)","GENERIC","62.155","0.12496237322785439","818"
"20:17:4:242 (H:m:s:ms)","GENERIC","93.31700000000001","0.10919827058573353","758"
"20:17:10:303 (H:m:s:ms)","GENERIC","62.089","0.10916494781076709","696"
"20:17:16:363 (H:m:s:ms)","GENERIC","124.39","0.11159204131245125","637"
"20:17:22:424 (H:m:s:ms)","GENERIC","93.331","0.10973659524195144","575"
"20:17:28:484 (H:m:s:ms)","GENERIC","62.101","0.08495735464254948","515"
"20:17:34:545 (H:m:s:ms)","GENERIC","62.077","0.08804840226321234","454"
"20:17:40:606 (H:m:s:ms)","GENERIC","93.213","0.13324614616999483","393"
"20:17:46:666 (H:m:s:ms)","GENERIC","93.404","0.13478553141596242","333"
"20:17:52:727 (H:m:s:ms)","GENERIC","93.235","0.12566609757435357","272"
"20:6:58:181 (H:m:s:ms)","GENERIC","31.083","0.12115605236234434","819"
"20:7:4:242 (H:m:s:ms)","GENERIC","62.287","0.09914756038295398","757"
"20:7:10:303 (H:m:s:ms)","GENERIC","31.049","0.09195458379382225","697"
"20:7:16:363 (H:m:s:ms)","GENERIC","93.382","0.11868370445465047","636"
"20:7:22:424 (H:m:s:ms)","GENERIC","62.305","0.12205926547771946","575"
"20:7:28:484 (H:m:s:ms)","GENERIC","31.059","0.09108434374087696","515"
"20:7:34:545 (H:m:s:ms)","GENERIC","31.036","0.09352627015461083","454"
"20:7:40:606 (H:m:s:ms)","GENERIC","62.171","0.13095421989836048","393"
"20:7:46:666 (H:m:s:ms)","GENERIC","93.556","0.12833252408323773","333"
"20:7:52:727 (H:m:s:ms)","GENERIC","62.217","0.10725044133499181","272"
"20:17:58:787 (H:m:s:ms)","GENERIC","93.115","0.1409530594446568","212"
"20:18:4:848 (H:m:s:ms)","GENERIC","93.414","0.11284325191952715","152"
"20:18:10:909 (H:m:s:ms)","GENERIC","62.147","0.06319346687908763","1091"
"20:18:16:969 (H:m:s:ms)","GENERIC","124.42699999999999","0.10638267060478207","1030"
"20:18:23:30 (H:m:s:ms)","GENERIC","124.19800000000001","0.11868995175553945","970"
"20:18:29:90 (H:m:s:ms)","GENERIC","93.122","0.09960836396123232","956"
"20:18:35:151 (H:m:s:ms)","GENERIC","62.049","0.09072572909220188","849"
"20:18:41:212 (H:m:s:ms)","GENERIC","62.069","0.08746230774273447","787"
"20:18:47:272 (H:m:s:ms)","GENERIC","62.057","0.06303869017097764","727"
"20:18:53:333 (H:m:s:ms)","GENERIC","93.12","0.08229411922428691","666"
"20:7:58:787 (H:m:s:ms)","GENERIC","31.033","0.09966104375566945","212"
"20:8:4:848 (H:m:s:ms)","GENERIC","62.336","0.09115193686598641","151"
"20:8:10:909 (H:m:s:ms)","GENERIC","62.259","0.07503162849349514","1091"
"20:8:16:969 (H:m:s:ms)","GENERIC","93.39099999999999","0.12361314373421246","1030"
"20:8:23:30 (H:m:s:ms)","GENERIC","62.112","0.12491408664974597","970"
"20:8:29:90 (H:m:s:ms)","GENERIC","93.205","0.12506939251827626","950"
"20:8:35:151 (H:m:s:ms)","GENERIC","31.038","0.12210139994290814","849"
"20:8:41:212 (H:m:s:ms)","GENERIC","31.037","0.08238512801268477","787"
"20:8:47:272 (H:m:s:ms)","GENERIC","31.039","0.07438171334266974","727"
"20:8:53:333 (H:m:s:ms)","GENERIC","62.098","0.09714821828594924","666"
"20:18:59:393 (H:m:s:ms)","GENERIC","124.52000000000001","0.11367838678468317","651"
"20:19:5:454 (H:m:s:ms)","GENERIC","62.109","0.09892484808030542","546"
"20:19:11:515 (H:m:s:ms)","GENERIC","124.61","0.09507955506391375","485"
"20:19:17:575 (H:m:s:ms)","GENERIC","62.103","0.10965979174364977","424"
"20:19:23:636 (H:m:s:ms)","GENERIC","93.384","0.10953604847826602","363"
"20:19:29:696 (H:m:s:ms)","GENERIC","93.412","0.11425319915106438","352"
"20:19:35:757 (H:m:s:ms)","GENERIC","62.099","0.10326761220661161","242"
"20:19:41:818 (H:m:s:ms)","GENERIC","93.351","0.10684236035910068","182"
"20:19:47:878 (H:m:s:ms)","GENERIC","93.189","0.0855020822004124","1121"
"20:19:53:939 (H:m:s:ms)","GENERIC","93.28","0.11279553194634714","1060"
"20:8:59:393 (H:m:s:ms)","GENERIC","93.49600000000001","0.12024471376991427","650"
"20:9:5:454 (H:m:s:ms)","GENERIC","31.053","0.10903219932397422","545"
"20:9:11:515 (H:m:s:ms)","GENERIC","93.563","0.09570031109652993","484"
"20:9:17:575 (H:m:s:ms)","GENERIC","62.085","0.09652495889096445","424"
"20:9:23:636 (H:m:s:ms)","GENERIC","62.319","0.10079863400059927","363"
"20:9:29:696 (H:m:s:ms)","GENERIC","62.321","0.11467624732870972","346"
"20:9:35:757 (H:m:s:ms)","GENERIC","31.05","0.10845296654227689","243"
"20:9:41:818 (H:m:s:ms)","GENERIC","62.299","0.11037913764737749","181"
"20:9:47:878 (H:m:s:ms)","GENERIC","93.287","0.11856817215214521","122"
"20:9:53:939 (H:m:s:ms)","GENERIC","93.487","0.0915436942559494","1061"
"21:41:12:727 (H:m:s:ms)","GENERIC","62.055","0.12165536256876616","272"
"21:41:6:666 (H:m:s:ms)","GENERIC","93.095","0.13690317712677405","333"
"21:41:0:606 (H:m:s:ms)","GENERIC","93.10900000000001","0.12722467249303768","394"
"21:40:54:545 (H:m:s:ms)","GENERIC","93.084","0.11686543939441521","455"
"21:40:48:484 (H:m:s:ms)","GENERIC","93.22999999999999","0.112049336768145","515"
"21:40:42:424 (H:m:s:ms)","GENERIC","93.169","0.10659471830700147","576"
"21:40:36:363 (H:m:s:ms)","GENERIC","62.085","0.10123897010635519","636"
"21:41:30:909 (H:m:s:ms)","GENERIC","93.182","0.07725902800539526","1090"
"21:41:24:848 (H:m:s:ms)","GENERIC","93.208","0.1041445892015536","151"
"21:41:18:787 (H:m:s:ms)","GENERIC","62.151","0.08807704350784115","212"
