"time (H:m:s:ms)","type","latency","utilisation","waiting"
"21:42:7:272 (H:m:s:ms)","GENERIC","62.125","0.1891141857514037","737"
"21:41:49:90 (H:m:s:ms)","GENERIC","62.069","0.19140494834667188","952"
"21:41:43:30 (H:m:s:ms)","GENERIC","62.095","0.18948887493767616","982"
"21:41:36:969 (H:m:s:ms)","GENERIC","62.059","0.18990254958671024","1038"
"21:41:30:909 (H:m:s:ms)","GENERIC","62.123","0.19305148880573905","1103"
"21:41:24:848 (H:m:s:ms)","GENERIC","62.053","0.1907113773107735","164"
"21:41:18:787 (H:m:s:ms)","GENERIC","62.053","0.19313163647055365","228"
"21:41:12:727 (H:m:s:ms)","GENERIC","62.101","0.1921274429325549","290"
"21:41:6:666 (H:m:s:ms)","GENERIC","62.041","0.19162043254850142","346"
"21:42:1:212 (H:m:s:ms)","GENERIC","62.047","0.1840102947041181","797"
"21:41:55:151 (H:m:s:ms)","GENERIC","62.025","0.18391446011401769","862"
"21:43:13:939 (H:m:s:ms)","GENERIC","62.053","0.19157565911357163","1076"
"21:43:7:878 (H:m:s:ms)","GENERIC","62.089","0.18772318411434546","1137"
"21:42:55:757 (H:m:s:ms)","GENERIC","62.065","0.18725241480868213","254"
"20:0:0:0 (H:m:s:ms)","GENERIC","31.021","0.016713475933443023","1461"
"21:42:49:696 (H:m:s:ms)","GENERIC","62.109","0.18705229265447507","355"
"20:0:6:60 (H:m:s:ms)","GENERIC","31.052","0.018729520677339656","959"
"21:42:43:636 (H:m:s:ms)","GENERIC","62.111","0.19172383157484693","378"
"20:0:12:121 (H:m:s:ms)","GENERIC","31.05","0.019734099480777194","894"
"21:42:37:575 (H:m:s:ms)","GENERIC","62.059","0.19310375142391306","437"
"20:0:18:181 (H:m:s:ms)","GENERIC","31.017","0.022438352862338747","838"
"21:42:31:515 (H:m:s:ms)","GENERIC","62.035","0.19116494673652146","499"
"20:0:24:242 (H:m:s:ms)","GENERIC","31.065","0.03090818086081449","771"
"21:42:25:454 (H:m:s:ms)","GENERIC","62.069","0.1864776508270615","555"
"20:0:30:303 (H:m:s:ms)","GENERIC","31.063","0.03600931422128515","711"
"21:42:19:393 (H:m:s:ms)","GENERIC","62.087","0.18755806522848323","656"
"20:0:36:363 (H:m:s:ms)","GENERIC","31.054","0.03848461339690907","651"
"21:42:13:333 (H:m:s:ms)","GENERIC","62.089","0.19007824988423397","677"
"20:0:42:424 (H:m:s:ms)","GENERIC","31.074","0.048565039399799156","584"
"21:10:6:60 (H:m:s:ms)","GENERIC","62.099","0.20242967719277632","951"
"20:0:48:484 (H:m:s:ms)","GENERIC","31.06","0.05002306249530683","530"
"21:10:12:121 (H:m:s:ms)","GENERIC","62.077","0.1950151774758141","887"
"21:10:18:181 (H:m:s:ms)","GENERIC","62.029","0.19286170613125359","825"
"21:10:24:242 (H:m:s:ms)","GENERIC","62.087","0.19159172936427765","770"
"21:10:30:303 (H:m:s:ms)","GENERIC","62.101","0.19141649038327585","707"
"21:10:36:363 (H:m:s:ms)","GENERIC","62.141","0.1914236573833426","651"
"21:10:42:424 (H:m:s:ms)","GENERIC","62.075","0.1905570316368524","585"
"21:10:48:484 (H:m:s:ms)","GENERIC","62.073","0.18840207130671943","527"
"21:43:1:818 (H:m:s:ms)","GENERIC","62.085","0.18738395146656886","194"
"21:10:54:545 (H:m:s:ms)","GENERIC","62.089","0.1929013332834593","468"
"21:11:0:606 (H:m:s:ms)","GENERIC","62.055","0.19423672835611583","406"
"21:25:39:393 (H:m:s:ms)","GENERIC","62.079","0.26391669520726474","650"
"21:44:20:606 (H:m:s:ms)","GENERIC","62.089","0.1862128463581328","403"
"21:44:14:545 (H:m:s:ms)","GENERIC","62.045","0.18445037610579387","470"
"21:44:8:484 (H:m:s:ms)","GENERIC","62.069","0.18798309202005548","528"
"21:44:2:424 (H:m:s:ms)","GENERIC","62.021","0.18946287111670362","591"
"21:43:56:363 (H:m:s:ms)","GENERIC","62.091","0.18721772886767854","646"
"21:43:50:303 (H:m:s:ms)","GENERIC","62.049","0.18859316678129917","708"
"21:43:44:242 (H:m:s:ms)","GENERIC","62.085","0.1844722579062105","771"
"21:43:38:181 (H:m:s:ms)","GENERIC","62.071","0.1829586479271337","832"
"21:43:32:121 (H:m:s:ms)","GENERIC","62.055","0.18236737644057427","891"
"21:43:26:60 (H:m:s:ms)","GENERIC","62.101","0.1873797520202514","946"
"21:11:6:666 (H:m:s:ms)","GENERIC","62.121","0.19502435438263022","343"
"21:43:20:0 (H:m:s:ms)","GENERIC","62.161","0.1921235293309037","1041"
"21:11:12:727 (H:m:s:ms)","GENERIC","62.089","0.19677431255201935","286"
"21:11:18:787 (H:m:s:ms)","GENERIC","62.039","0.19641122053386087","218"
"21:11:24:848 (H:m:s:ms)","GENERIC","62.075","0.19241741161772274","165"
"21:11:30:909 (H:m:s:ms)","GENERIC","62.159","0.19447064950388984","1099"
"21:11:36:969 (H:m:s:ms)","GENERIC","62.039","0.19552773144273428","1038"
"21:11:43:30 (H:m:s:ms)","GENERIC","62.123","0.19308304704443613","982"
"21:11:49:90 (H:m:s:ms)","GENERIC","62.047","0.19517696572240256","955"
"21:11:55:151 (H:m:s:ms)","GENERIC","62.035","0.19292874152837608","860"
"21:12:1:212 (H:m:s:ms)","GENERIC","62.039","0.1968468803798479","799"
"21:26:15:757 (H:m:s:ms)","GENERIC","62.053","0.26489343999708304","249"
"21:45:27:272 (H:m:s:ms)","GENERIC","62.097","0.1836560618515182","741"
"21:26:12:151 (H:m:s:ms)","OPERA","62.013","0.26502516181757574","852"
"21:45:21:212 (H:m:s:ms)","GENERIC","62.031","0.18521957371274037","803"
"21:45:15:151 (H:m:s:ms)","GENERIC","62.045","0.18477837406613148","861"
"21:45:9:90 (H:m:s:ms)","GENERIC","62.041","0.18450918738977554","956"
"21:26:4:556 (H:m:s:ms)","OPERA","62.013","0.2658158173949683","447"
"21:26:3:636 (H:m:s:ms)","GENERIC","62.021","0.26437014574037526","376"
"21:45:3:30 (H:m:s:ms)","GENERIC","31.012","0.18477218635963982","984"
"21:25:57:575 (H:m:s:ms)","GENERIC","62.113","0.26704362581736363","440"
"21:44:56:969 (H:m:s:ms)","GENERIC","62.063","0.18476822737975157","1039"
"21:25:56:962 (H:m:s:ms)","OPERA","62.015","0.26657642771738904","1041"
"21:44:50:909 (H:m:s:ms)","GENERIC","62.035","0.18571196099275028","1104"
"21:25:51:515 (H:m:s:ms)","GENERIC","62.037","0.2657440244613695","493"
"21:44:44:848 (H:m:s:ms)","GENERIC","62.079","0.18975316734170194","164"
"21:25:49:367 (H:m:s:ms)","OPERA","62.015","0.2630576170311169","670"
"21:44:38:787 (H:m:s:ms)","GENERIC","62.167","0.1854131035509669","219"
"21:12:7:272 (H:m:s:ms)","GENERIC","62.153","0.19830177817825204","736"
"21:25:45:454 (H:m:s:ms)","GENERIC","62.091","0.26505641022214105","561"
"21:44:32:727 (H:m:s:ms)","GENERIC","62.111","0.18459055122100435","288"
"21:12:13:333 (H:m:s:ms)","GENERIC","62.129","0.19851781402262422","679"
"21:25:41:772 (H:m:s:ms)","OPERA","62.013","0.2636956566623898","231"
"21:44:26:666 (H:m:s:ms)","GENERIC","62.081","0.18718073756534237","347"
"21:12:19:393 (H:m:s:ms)","GENERIC","62.121","0.19677806169716097","660"
"21:12:25:454 (H:m:s:ms)","GENERIC","62.079","0.19708585720451205","559"
"21:12:31:515 (H:m:s:ms)","GENERIC","62.067","0.1970858572045121","499"
"21:12:37:575 (H:m:s:ms)","GENERIC","62.033","0.19425569934354694","438"
"21:12:43:636 (H:m:s:ms)","GENERIC","62.095","0.18782237704410834","371"
"21:12:49:696 (H:m:s:ms)","GENERIC","62.135","0.1862063857474328","354"
"21:12:55:757 (H:m:s:ms)","GENERIC","62.065","0.1845185169772495","254"
"21:13:1:818 (H:m:s:ms)","GENERIC","62.093","0.185502382181385","193"
"21:26:9:696 (H:m:s:ms)","GENERIC","62.057","0.2623291285205606","352"
"21:26:52:121 (H:m:s:ms)","GENERIC","62.061","0.26138125018376845","892"
"21:46:33:939 (H:m:s:ms)","GENERIC","62.111","0.19079719669975556","1074"
"21:26:50:126 (H:m:s:ms)","OPERA","62.013","0.2603588372791805","878"
"21:46:27:878 (H:m:s:ms)","GENERIC","62.043","0.1932122105729355","1135"
"21:26:46:60 (H:m:s:ms)","GENERIC","62.099","0.2630040299528925","966"
"21:46:21:818 (H:m:s:ms)","GENERIC","62.029","0.19328966757533284","195"
"21:46:15:757 (H:m:s:ms)","GENERIC","62.049","0.18738862133751513","249"
"21:46:9:696 (H:m:s:ms)","GENERIC","62.031","0.1876529366571476","353"
"21:26:42:531 (H:m:s:ms)","OPERA","62.013","0.2625643555150998","475"
"21:26:40:0 (H:m:s:ms)","GENERIC","62.051","0.2612370213093894","1047"
"21:26:34:936 (H:m:s:ms)","OPERA","62.015","0.2607441891786351","1081"
"21:46:3:636 (H:m:s:ms)","GENERIC","62.017","0.18987075971153908","379"
"21:26:33:939 (H:m:s:ms)","GENERIC","62.087","0.25798367171721326","1074"
"21:45:57:575 (H:m:s:ms)","GENERIC","62.125","0.18573001120954052","438"
"21:26:27:878 (H:m:s:ms)","GENERIC","62.065","0.2618561979260949","1137"
"21:45:51:515 (H:m:s:ms)","GENERIC","62.035","0.1872317783654523","497"
"21:13:7:878 (H:m:s:ms)","GENERIC","62.063","0.1826996361629661","1138"
"21:26:27:341 (H:m:s:ms)","OPERA","62.013","0.2607360828805292","661"
"21:45:45:454 (H:m:s:ms)","GENERIC","62.055","0.1878355760181577","561"
"21:13:13:939 (H:m:s:ms)","GENERIC","62.045","0.18907264477862498","1070"
"21:26:21:818 (H:m:s:ms)","GENERIC","62.053","0.2606105020859309","411"
"21:45:39:393 (H:m:s:ms)","GENERIC","62.043","0.18669495830479577","653"
"21:13:20:0 (H:m:s:ms)","GENERIC","62.191","0.189942702036487","1042"
"21:26:19:746 (H:m:s:ms)","OPERA","62.011","0.26077058971130856","295"
"21:45:33:333 (H:m:s:ms)","GENERIC","62.103","0.1845478886931502","680"
"21:13:26:60 (H:m:s:ms)","GENERIC","62.095","0.18425375347148815","948"
"21:13:32:121 (H:m:s:ms)","GENERIC","62.065","0.18310186152135752","892"
"21:13:38:181 (H:m:s:ms)","GENERIC","62.103","0.18302980985634926","830"
"21:13:44:242 (H:m:s:ms)","GENERIC","62.095","0.18306595930509365","769"
"21:13:50:303 (H:m:s:ms)","GENERIC","62.025","0.18705964606753528","708"
"21:13:56:363 (H:m:s:ms)","GENERIC","62.121","0.18569510693708016","648"
"21:14:2:424 (H:m:s:ms)","GENERIC","62.055","0.19105068470246997","590"
"21:27:28:484 (H:m:s:ms)","GENERIC","62.101","0.2608660775737812","532"
"21:47:40:606 (H:m:s:ms)","GENERIC","62.067","0.18437834163510072","511"
"21:27:28:101 (H:m:s:ms)","OPERA","31.009","0.2580868779195749","902"
"21:47:34:545 (H:m:s:ms)","GENERIC","62.089","0.18941428261945834","461"
"21:27:22:424 (H:m:s:ms)","GENERIC","62.051","0.26081912259342693","580"
"21:47:28:484 (H:m:s:ms)","GENERIC","62.127","0.18955896511817683","528"
"21:27:20:506 (H:m:s:ms)","OPERA","31.009","0.25948604304674366","498"
"21:47:22:424 (H:m:s:ms)","GENERIC","62.057","0.18758106417148232","587"
"21:47:16:363 (H:m:s:ms)","GENERIC","62.041","0.1902573366240975","651"
"21:47:10:303 (H:m:s:ms)","GENERIC","62.039","0.1903889382984848","710"
"21:27:16:363 (H:m:s:ms)","GENERIC","62.021","0.26333467339988054","639"
"21:27:12:911 (H:m:s:ms)","OPERA","31.009","0.2607382060970943","1090"
"21:27:10:303 (H:m:s:ms)","GENERIC","62.051","0.25908669535841033","708"
"21:47:4:242 (H:m:s:ms)","GENERIC","62.059","0.19532226706011077","774"
"21:14:8:484 (H:m:s:ms)","GENERIC","62.061","0.19078409895242063","528"
"21:27:5:316 (H:m:s:ms)","OPERA","62.013","0.2601260539622685","687"
"21:46:58:181 (H:m:s:ms)","GENERIC","62.057","0.19613788386274292","831"
"21:14:14:545 (H:m:s:ms)","GENERIC","62.029","0.1873807356904113","468"
"21:27:4:242 (H:m:s:ms)","GENERIC","62.049","0.2571879000301352","768"
"21:46:52:121 (H:m:s:ms)","GENERIC","62.101","0.19109216713432056","894"
"20:52:7:272 (H:m:s:ms)","GENERIC","62.181","0.20983597858772943","739"
"21:14:20:606 (H:m:s:ms)","GENERIC","62.053","0.18970688954123094","401"
"21:26:58:181 (H:m:s:ms)","GENERIC","62.089","0.2613317627294179","831"
"21:46:46:60 (H:m:s:ms)","GENERIC","62.063","0.19353837835125434","948"
"20:52:13:333 (H:m:s:ms)","GENERIC","62.161","0.21062727127285064","678"
"21:14:26:666 (H:m:s:ms)","GENERIC","62.097","0.191390201407461","348"
"21:26:57:721 (H:m:s:ms)","OPERA","62.015","0.26059613103283036","283"
"21:46:40:0 (H:m:s:ms)","GENERIC","62.051","0.1908956713686661","1049"
"20:52:19:393 (H:m:s:ms)","GENERIC","62.147","0.20538644642662884","660"
"21:14:32:727 (H:m:s:ms)","GENERIC","62.119","0.18706451117315848","288"
"20:52:25:454 (H:m:s:ms)","GENERIC","62.105","0.20390079283950496","556"
"21:14:38:787 (H:m:s:ms)","GENERIC","62.107","0.1890549548757684","219"
"20:52:31:515 (H:m:s:ms)","GENERIC","62.039","0.20524362410982272","496"
"21:14:44:848 (H:m:s:ms)","GENERIC","62.089","0.1878782777323401","165"
"20:52:37:575 (H:m:s:ms)","GENERIC","62.027","0.20404109267599246","437"
"21:14:50:909 (H:m:s:ms)","GENERIC","62.067","0.18741764883077094","1104"
"20:52:43:636 (H:m:s:ms)","GENERIC","62.079","0.20328802489587733","372"
"21:14:56:969 (H:m:s:ms)","GENERIC","62.107","0.1831443196129531","1039"
"20:52:49:696 (H:m:s:ms)","GENERIC","62.171","0.1978816759134273","362"
"21:15:3:30 (H:m:s:ms)","GENERIC","62.075","0.1804838620819068","982"
"20:52:55:757 (H:m:s:ms)","GENERIC","62.053","0.19734864730765747","250"
"20:53:1:818 (H:m:s:ms)","GENERIC","62.075","0.19630820876354968","196"
"21:28:6:75 (H:m:s:ms)","OPERA","62.015","0.2602385435746754","926"
"21:48:47:272 (H:m:s:ms)","GENERIC","62.067","0.20077400475389484","740"
"21:28:4:848 (H:m:s:ms)","GENERIC","62.089","0.2581820584938582","167"
"21:48:41:212 (H:m:s:ms)","GENERIC","62.161","0.20016506552423088","798"
"21:27:58:787 (H:m:s:ms)","GENERIC","62.073","0.26062878484562507","232"
"21:48:35:151 (H:m:s:ms)","GENERIC","62.105","0.19617586000223627","863"
"21:27:58:481 (H:m:s:ms)","OPERA","31.009","0.26082882486985387","527"
"21:48:29:90 (H:m:s:ms)","GENERIC","62.067","0.19717953264701862","961"
"21:27:52:727 (H:m:s:ms)","GENERIC","62.069","0.26400463364920823","286"
"21:48:23:30 (H:m:s:ms)","GENERIC","62.033","0.19241317187642043","981"
"21:48:16:969 (H:m:s:ms)","GENERIC","62.097","0.18908937380568372","1036"
"21:48:10:909 (H:m:s:ms)","GENERIC","62.029","0.19003660506023412","1105"
"21:27:50:886 (H:m:s:ms)","OPERA","62.013","0.26276554914256073","1115"
"21:15:9:90 (H:m:s:ms)","GENERIC","62.067","0.1812972998639011","958"
"21:27:46:666 (H:m:s:ms)","GENERIC","62.049","0.26028142576351265","342"
"21:15:15:151 (H:m:s:ms)","GENERIC","62.055","0.18170165693958604","861"
"21:27:43:291 (H:m:s:ms)","OPERA","62.013","0.25993342779473966","711"
"21:48:4:848 (H:m:s:ms)","GENERIC","62.113","0.18838122492528603","168"
"20:53:7:878 (H:m:s:ms)","GENERIC","62.051","0.1952945366638779","1138"
"21:15:21:212 (H:m:s:ms)","GENERIC","62.079","0.18610661266593756","801"
"21:27:40:606 (H:m:s:ms)","GENERIC","62.061","0.2589599769420268","402"
"21:47:58:787 (H:m:s:ms)","GENERIC","62.065","0.1874319039528082","222"
"20:53:13:939 (H:m:s:ms)","GENERIC","62.029","0.18988746058614303","1076"
"21:15:27:272 (H:m:s:ms)","GENERIC","62.123","0.18552016484453088","740"
"21:27:35:696 (H:m:s:ms)","OPERA","62.011","0.2582740155390798","309"
"21:47:52:727 (H:m:s:ms)","GENERIC","62.069","0.18882391348709818","287"
"20:53:20:0 (H:m:s:ms)","GENERIC","62.191","0.18930490537763853","1046"
"21:15:33:333 (H:m:s:ms)","GENERIC","62.041","0.1845580671482887","681"
"21:27:34:545 (H:m:s:ms)","GENERIC","62.095","0.2553090938113256","460"
"21:47:46:666 (H:m:s:ms)","GENERIC","62.053","0.1834703548311216","339"
"20:53:26:60 (H:m:s:ms)","GENERIC","62.087","0.18410612039269722","947"
"21:15:39:393 (H:m:s:ms)","GENERIC","62.091","0.1845501388598985","652"
"20:53:32:121 (H:m:s:ms)","GENERIC","62.077","0.1837999344940487","890"
"21:15:45:454 (H:m:s:ms)","GENERIC","62.107","0.18727154215525832","559"
"20:53:38:181 (H:m:s:ms)","GENERIC","62.139","0.18354379565901915","832"
"21:15:51:515 (H:m:s:ms)","GENERIC","62.053","0.18672868915953952","498"
"20:53:44:242 (H:m:s:ms)","GENERIC","62.091","0.1833992622350528","769"
"21:15:57:575 (H:m:s:ms)","GENERIC","62.105","0.1830549269223875","437"
"20:53:50:303 (H:m:s:ms)","GENERIC","62.039","0.18194843120080398","708"
"21:16:3:636 (H:m:s:ms)","GENERIC","31.016","0.1862813691157754","381"
"20:53:56:363 (H:m:s:ms)","GENERIC","62.113","0.17738902273448046","649"
"20:54:2:424 (H:m:s:ms)","GENERIC","62.063","0.17582413048919274","591"
"21:28:44:50 (H:m:s:ms)","OPERA","62.013","0.2581217005742825","958"
"21:49:53:939 (H:m:s:ms)","GENERIC","62.083","0.19471491804228605","1073"
"21:28:41:212 (H:m:s:ms)","GENERIC","62.153","0.25607350398521633","796"
"21:49:47:878 (H:m:s:ms)","GENERIC","62.043","0.19413842982145238","1136"
"21:28:36:455 (H:m:s:ms)","OPERA","62.015","0.25733898923357074","555"
"21:49:41:818 (H:m:s:ms)","GENERIC","62.023","0.19414922482885197","193"
"21:28:35:151 (H:m:s:ms)","GENERIC","62.109","0.2557134595481038","864"
"21:49:35:757 (H:m:s:ms)","GENERIC","62.065","0.19413241901469777","256"
"21:28:29:90 (H:m:s:ms)","GENERIC","62.067","0.25941036327856815","959"
"21:49:29:696 (H:m:s:ms)","GENERIC","62.171","0.19396051794362426","353"
"21:28:28:860 (H:m:s:ms)","OPERA","62.015","0.2565424739557169","141"
"21:49:23:636 (H:m:s:ms)","GENERIC","62.055","0.19631026828213538","371"
"21:49:17:575 (H:m:s:ms)","GENERIC","62.085","0.1962425978707223","438"
"21:49:11:515 (H:m:s:ms)","GENERIC","62.051","0.19614203163435953","497"
"21:16:9:696 (H:m:s:ms)","GENERIC","62.077","0.18619267156826708","355"
"21:16:15:757 (H:m:s:ms)","GENERIC","62.049","0.1854389751342016","251"
"21:28:23:30 (H:m:s:ms)","GENERIC","62.069","0.2583920005439351","978"
"20:54:8:484 (H:m:s:ms)","GENERIC","62.085","0.1759110583524756","527"
"21:16:21:818 (H:m:s:ms)","GENERIC","62.047","0.1846755971221603","196"
"21:28:21:265 (H:m:s:ms)","OPERA","62.011","0.2551865222892043","736"
"20:54:14:545 (H:m:s:ms)","GENERIC","62.021","0.17048528333173515","469"
"21:16:27:878 (H:m:s:ms)","GENERIC","62.065","0.18548694903313806","1136"
"21:28:16:969 (H:m:s:ms)","GENERIC","62.089","0.2551912431901186","1037"
"21:49:5:454 (H:m:s:ms)","GENERIC","62.161","0.19160054295474527","553"
"20:54:20:606 (H:m:s:ms)","GENERIC","62.029","0.17243354432755018","400"
"21:16:33:939 (H:m:s:ms)","GENERIC","62.069","0.18424420362478108","1071"
"21:28:13:670 (H:m:s:ms)","OPERA","62.013","0.2586560057877714","340"
"21:48:59:393 (H:m:s:ms)","GENERIC","62.089","0.19655781460780658","657"
"20:54:26:666 (H:m:s:ms)","GENERIC","62.055","0.17051614568627335","347"
"21:16:40:0 (H:m:s:ms)","GENERIC","62.049","0.18334308175405256","1047"
"21:28:10:909 (H:m:s:ms)","GENERIC","62.029","0.2586873129484178","1100"
"21:48:53:333 (H:m:s:ms)","GENERIC","62.093","0.19622626903486626","679"
"20:54:32:727 (H:m:s:ms)","GENERIC","62.111","0.16472669226847161","288"
"21:16:46:60 (H:m:s:ms)","GENERIC","62.095","0.18441293462377795","951"
"20:54:38:787 (H:m:s:ms)","GENERIC","62.131","0.1675939058169441","219"
"21:16:52:121 (H:m:s:ms)","GENERIC","62.045","0.18178229294490014","894"
"20:54:44:848 (H:m:s:ms)","GENERIC","62.053","0.16070966274283247","166"
"21:16:58:181 (H:m:s:ms)","GENERIC","62.095","0.18694411496317953","829"
"20:54:50:909 (H:m:s:ms)","GENERIC","62.077","0.1615964734987895","1099"
"21:17:4:242 (H:m:s:ms)","GENERIC","62.043","0.18277160986794472","773"
"20:54:56:969 (H:m:s:ms)","GENERIC","62.131","0.16068436469140834","1039"
"20:55:3:30 (H:m:s:ms)","GENERIC","62.097","0.16102981871127334","982"
"21:29:22:25 (H:m:s:ms)","OPERA","31.009","0.2559441807607079","977"
"21:29:17:575 (H:m:s:ms)","GENERIC","62.081","0.2595608862299089","437"
"21:29:14:430 (H:m:s:ms)","OPERA","62.015","0.2554809203947279","577"
"21:29:11:515 (H:m:s:ms)","GENERIC","62.069","0.25199563096025146","499"
"21:29:6:835 (H:m:s:ms)","OPERA","62.013","0.2529811600527789","166"
"21:29:5:454 (H:m:s:ms)","GENERIC","62.173","0.2515672671739547","553"
"21:28:59:393 (H:m:s:ms)","GENERIC","62.073","0.25660758381595705","657"
"21:17:10:303 (H:m:s:ms)","GENERIC","62.065","0.18076244484450102","708"
"21:17:16:363 (H:m:s:ms)","GENERIC","62.023","0.1861503367045719","647"
"20:55:9:90 (H:m:s:ms)","GENERIC","62.105","0.16185202977286184","981"
"21:17:22:424 (H:m:s:ms)","GENERIC","62.041","0.1860382510681403","590"
"20:55:15:151 (H:m:s:ms)","GENERIC","62.091","0.16413601795529234","863"
"21:17:28:484 (H:m:s:ms)","GENERIC","62.095","0.1909187211432743","528"
"21:28:59:240 (H:m:s:ms)","OPERA","31.009","0.2566293800547168","796"
"20:55:21:212 (H:m:s:ms)","GENERIC","62.057","0.16324842296159217","803"
"21:17:34:545 (H:m:s:ms)","GENERIC","62.081","0.19328963571727956","461"
"21:28:53:333 (H:m:s:ms)","GENERIC","62.079","0.2554538757935303","679"
"20:55:27:272 (H:m:s:ms)","GENERIC","62.147","0.16287608467183384","740"
"21:17:40:606 (H:m:s:ms)","GENERIC","62.071","0.19505172923130068","402"
"21:28:51:645 (H:m:s:ms)","OPERA","62.015","0.2554798694264444","359"
"22:2:6:315 (H:m:s:ms)","AMBULANCE","31.012","0.02525381361380533","707"
"20:55:33:333 (H:m:s:ms)","GENERIC","62.025","0.16303340222988938","681"
"21:17:46:666 (H:m:s:ms)","GENERIC","62.059","0.19696810401810594","343"
"21:28:47:272 (H:m:s:ms)","GENERIC","62.087","0.25834727014131387","739"
"21:50:0:0 (H:m:s:ms)","GENERIC","62.135","0.19303644257516492","1045"
"20:55:39:393 (H:m:s:ms)","GENERIC","62.063","0.16078966258464644","660"
"21:17:52:727 (H:m:s:ms)","GENERIC","62.087","0.20177392912517195","287"
"20:55:45:454 (H:m:s:ms)","GENERIC","62.085","0.16088250772256849","561"
"21:17:58:787 (H:m:s:ms)","GENERIC","62.075","0.2022452378141355","222"
"20:55:51:515 (H:m:s:ms)","GENERIC","62.077","0.16692080452267985","500"
"21:18:4:848 (H:m:s:ms)","GENERIC","62.075","0.20231490439074148","169"
"20:55:57:575 (H:m:s:ms)","GENERIC","62.113","0.1671806002567364","438"
"20:56:3:636 (H:m:s:ms)","GENERIC","62.071","0.16761808789224467","379"
"21:30:0:0 (H:m:s:ms)","AMBULANCE","31.009","0.2564423812030845","1043"
"21:29:53:939 (H:m:s:ms)","GENERIC","62.063","0.2568555690041488","1070"
"21:29:52:405 (H:m:s:ms)","OPERA","31.008","0.2550051431564919","603"
"21:29:47:878 (H:m:s:ms)","GENERIC","62.079","0.2575960008823526","1136"
"21:29:44:810 (H:m:s:ms)","OPERA","62.013","0.25869168646677354","203"
"21:29:41:818 (H:m:s:ms)","GENERIC","62.029","0.25911607913197066","188"
"21:29:37:215 (H:m:s:ms)","OPERA","31.009","0.25911565705883327","798"
"21:29:35:757 (H:m:s:ms)","GENERIC","62.073","0.25758545157087215","255"
"21:18:10:909 (H:m:s:ms)","GENERIC","62.031","0.2033077627756396","1106"
"21:18:16:969 (H:m:s:ms)","GENERIC","62.091","0.20126445960835054","1039"
"20:56:9:696 (H:m:s:ms)","GENERIC","62.117","0.16811827753258649","360"
"21:18:23:30 (H:m:s:ms)","GENERIC","62.091","0.20107826467543194","981"
"20:56:15:757 (H:m:s:ms)","GENERIC","62.035","0.16765741544966664","249"
"21:18:29:90 (H:m:s:ms)","GENERIC","62.061","0.20495569084437498","958"
"20:40:0:0 (H:m:s:ms)","OPERA","31.009","0.1708650905183361","1459"
"20:56:21:818 (H:m:s:ms)","GENERIC","62.043","0.16569658103319929","194"
"21:18:35:151 (H:m:s:ms)","GENERIC","62.089","0.20128510372387354","865"
"20:40:0:0 (H:m:s:ms)","GENERIC","62.081","0.17096951133509958","1474"
"20:56:27:878 (H:m:s:ms)","GENERIC","62.043","0.16816425149732442","1134"
"21:18:41:212 (H:m:s:ms)","GENERIC","62.143","0.20097430105795885","797"
"21:29:29:696 (H:m:s:ms)","GENERIC","62.135","0.25821312507794103","365"
"20:40:0:0 (H:m:s:ms)","GENERIC","62.075","0.1712550454538477","1487"
"20:56:33:939 (H:m:s:ms)","GENERIC","62.075","0.16573762621140678","1072"
"21:18:47:272 (H:m:s:ms)","GENERIC","62.101","0.20148681308111824","740"
"21:29:29:620 (H:m:s:ms)","OPERA","62.013","0.25818793797390593","432"
"20:40:6:60 (H:m:s:ms)","GENERIC","62.099","0.16825397818344762","951"
"20:56:40:0 (H:m:s:ms)","GENERIC","62.066","0.1633602486533943","1055"
"21:18:53:333 (H:m:s:ms)","GENERIC","62.059","0.19701052019805934","678"
"21:29:23:636 (H:m:s:ms)","GENERIC","62.093","0.25647974497452874","369"
"20:40:7:594 (H:m:s:ms)","OPERA","31.009","0.17299414335445704","419"
"20:56:46:60 (H:m:s:ms)","GENERIC","62.069","0.16886212246236615","954"
"21:18:59:393 (H:m:s:ms)","GENERIC","62.057","0.19734466947523657","652"
"20:40:12:121 (H:m:s:ms)","GENERIC","62.059","0.17282746946714786","887"
"20:56:52:121 (H:m:s:ms)","GENERIC","62.033","0.16962383047166285","895"
"21:19:5:454 (H:m:s:ms)","GENERIC","62.157","0.19380786018380114","552"
"20:40:15:189 (H:m:s:ms)","OPERA","31.008","0.17451855947890502","833"
"20:56:58:181 (H:m:s:ms)","GENERIC","62.071","0.1754328692821375","830"
"20:40:18:181 (H:m:s:ms)","GENERIC","62.061","0.17224241495936013","833"
"20:57:4:242 (H:m:s:ms)","GENERIC","62.063","0.1746759412504778","772"
"20:40:22:784 (H:m:s:ms)","OPERA","31.007","0.17482075869850439","226"
"20:40:24:242 (H:m:s:ms)","GENERIC","62.107","0.1754670513049941","770"
"21:30:0:0 (H:m:s:ms)","GENERIC","62.125","0.25892081789042243","1072"
"21:30:42:424 (H:m:s:ms)","GENERIC","62.099","0.2463932423799336","585"
"21:30:36:363 (H:m:s:ms)","GENERIC","62.147","0.24839914151760334","651"
"21:30:31:578 (H:m:s:ms)","AMBULANCE","31.012","0.2486472156720406","443"
"21:30:30:303 (H:m:s:ms)","GENERIC","62.137","0.24644444809961488","707"
"21:30:24:242 (H:m:s:ms)","GENERIC","62.085","0.2481097131337223","772"
"21:30:18:181 (H:m:s:ms)","GENERIC","62.031","0.2531660220632082","823"
"21:30:12:121 (H:m:s:ms)","GENERIC","62.097","0.2530639321983613","887"
"21:19:11:515 (H:m:s:ms)","GENERIC","62.079","0.19875595027475895","498"
"21:30:6:60 (H:m:s:ms)","GENERIC","62.077","0.2556838532125025","948"
"21:19:17:575 (H:m:s:ms)","GENERIC","62.065","0.1979630926146583","438"
"20:57:10:303 (H:m:s:ms)","GENERIC","62.053","0.17306682971734444","705"
"21:19:23:636 (H:m:s:ms)","GENERIC","62.091","0.19787673082608956","373"
"20:57:16:363 (H:m:s:ms)","GENERIC","62.025","0.17291773753119916","652"
"21:19:29:696 (H:m:s:ms)","GENERIC","62.115","0.19593719171338336","350"
"20:40:30:303 (H:m:s:ms)","GENERIC","62.065","0.1755846351158849","707"
"20:57:22:424 (H:m:s:ms)","GENERIC","62.031","0.17469436088837392","587"
"21:19:35:757 (H:m:s:ms)","GENERIC","62.083","0.19592860300166823","256"
"20:40:30:379 (H:m:s:ms)","OPERA","31.008","0.17802711841614394","644"
"20:57:28:484 (H:m:s:ms)","GENERIC","62.073","0.1802581310801605","528"
"21:19:41:818 (H:m:s:ms)","GENERIC","62.029","0.1983228027362888","194"
"20:40:36:363 (H:m:s:ms)","GENERIC","62.131","0.17918164372288106","651"
"20:57:34:545 (H:m:s:ms)","GENERIC","62.083","0.1800035248068461","541"
"21:19:47:878 (H:m:s:ms)","GENERIC","62.099","0.19853574577831276","1133"
"20:40:37:974 (H:m:s:ms)","OPERA","31.009","0.18079856706573982","1036"
"20:57:40:606 (H:m:s:ms)","GENERIC","62.085","0.17968151392775578","401"
"21:19:53:939 (H:m:s:ms)","GENERIC","31.023","0.19742065094947644","1092"
"21:30:0:0 (H:m:s:ms)","GENERIC","62.057","0.25912753567770885","1059"
"20:40:42:424 (H:m:s:ms)","GENERIC","62.109","0.1753100447210055","586"
"20:57:46:666 (H:m:s:ms)","GENERIC","62.053","0.1817620248636523","345"
"21:20:0:0 (H:m:s:ms)","OPERA","62.015","0.19659571747978852","1464"
"21:30:0:0 (H:m:s:ms)","OPERA","62.013","0.25933262544474656","1046"
"20:40:45:569 (H:m:s:ms)","OPERA","31.009","0.18076741846918098","437"
"20:57:52:727 (H:m:s:ms)","GENERIC","62.099","0.18481956221927742","287"
"21:20:0:0 (H:m:s:ms)","GENERIC","62.057","0.19652796120640686","1478"
"20:40:48:484 (H:m:s:ms)","GENERIC","62.099","0.17792968340556986","529"
"20:57:58:787 (H:m:s:ms)","GENERIC","62.109","0.18279342120327582","222"
"20:40:53:164 (H:m:s:ms)","OPERA","31.007","0.17673351170140286","841"
"20:58:4:848 (H:m:s:ms)","GENERIC","62.095","0.1834814799967374","168"
"20:40:54:545 (H:m:s:ms)","GENERIC","62.053","0.17880937319406745","472"
"20:41:0:606 (H:m:s:ms)","GENERIC","62.101","0.17954176598710986","407"
"21:31:0:606 (H:m:s:ms)","GENERIC","62.047","0.23860842601154492","404"
"21:30:54:545 (H:m:s:ms)","GENERIC","62.083","0.24103580621288348","471"
"21:31:36:969 (H:m:s:ms)","GENERIC","62.065","0.2227867526855216","1039"
"21:31:34:736 (H:m:s:ms)","AMBULANCE","31.03","0.22683593040571712","281"
"21:31:30:909 (H:m:s:ms)","GENERIC","62.133","0.22430220426856176","1101"
"21:31:24:848 (H:m:s:ms)","GENERIC","62.053","0.22769329896269574","164"
"21:31:18:787 (H:m:s:ms)","GENERIC","62.053","0.23377388487473244","219"
"21:31:12:727 (H:m:s:ms)","GENERIC","62.103","0.23688408450550927","289"
"21:31:6:666 (H:m:s:ms)","GENERIC","31.012","0.23644655462883885","344"
"21:31:3:157 (H:m:s:ms)","AMBULANCE","31.033","0.2385554524955404","854"
"20:58:10:909 (H:m:s:ms)","GENERIC","62.027","0.1861354541728246","1102"
"20:58:16:969 (H:m:s:ms)","GENERIC","62.091","0.1821496744857818","1039"
"20:41:0:759 (H:m:s:ms)","OPERA","31.008","0.18339696099154842","264"
"20:58:23:30 (H:m:s:ms)","GENERIC","62.075","0.18297254331687937","982"
"20:41:6:666 (H:m:s:ms)","GENERIC","62.103","0.18415289239155289","342"
"20:58:29:90 (H:m:s:ms)","GENERIC","62.059","0.1882546587752385","963"
"20:41:8:354 (H:m:s:ms)","OPERA","31.009","0.19007736307773562","653"
"20:58:35:151 (H:m:s:ms)","GENERIC","62.071","0.18422882883393737","862"
"20:41:12:727 (H:m:s:ms)","GENERIC","62.077","0.19136106843729972","289"
"20:58:41:212 (H:m:s:ms)","GENERIC","62.139","0.18445107308398045","795"
"20:41:15:949 (H:m:s:ms)","OPERA","31.008","0.19179033676448654","1057"
"20:58:47:272 (H:m:s:ms)","GENERIC","62.103","0.18389476764111398","741"
"20:41:18:787 (H:m:s:ms)","GENERIC","62.037","0.1927583812308418","220"
"20:58:53:333 (H:m:s:ms)","GENERIC","62.045","0.17839834497755622","679"
"21:30:48:484 (H:m:s:ms)","GENERIC","62.089","0.24478974177505192","528"
"20:41:23:544 (H:m:s:ms)","OPERA","31.009","0.19511110702673418","463"
"20:58:59:393 (H:m:s:ms)","GENERIC","62.035","0.1800326686964533","659"
"20:41:24:848 (H:m:s:ms)","GENERIC","62.017","0.19518310664651314","165"
"20:59:5:454 (H:m:s:ms)","GENERIC","62.129","0.18439094582043217","554"
"20:41:30:909 (H:m:s:ms)","GENERIC","62.113","0.1962418022144068","1101"
"20:41:31:139 (H:m:s:ms)","OPERA","31.008","0.19865773189473337","877"
"20:59:11:515 (H:m:s:ms)","GENERIC","62.081","0.1892654991289369","498"
"20:59:17:575 (H:m:s:ms)","GENERIC","62.047","0.1893947809172758","440"
"20:41:36:969 (H:m:s:ms)","GENERIC","62.053","0.197259002973748","1037"
"20:59:23:636 (H:m:s:ms)","GENERIC","62.091","0.18929997288346317","372"
"20:41:38:734 (H:m:s:ms)","OPERA","31.008","0.20066845859293975","271"
"20:59:29:696 (H:m:s:ms)","GENERIC","62.081","0.18801809245666554","357"
"20:41:43:30 (H:m:s:ms)","GENERIC","62.129","0.19988362810523227","983"
"20:59:35:757 (H:m:s:ms)","GENERIC","62.059","0.18863608648858568","256"
"20:41:46:329 (H:m:s:ms)","OPERA","31.009","0.2023229597244389","676"
"20:59:41:818 (H:m:s:ms)","GENERIC","62.031","0.18695305746376864","195"
"20:41:49:90 (H:m:s:ms)","GENERIC","62.021","0.20203510422706208","956"
"20:59:47:878 (H:m:s:ms)","GENERIC","62.135","0.18725552056785147","1133"
"20:41:53:924 (H:m:s:ms)","OPERA","31.008","0.2037754952878699","1080"
"20:59:53:939 (H:m:s:ms)","GENERIC","62.055","0.18688400774085362","1075"
"20:41:55:151 (H:m:s:ms)","GENERIC","62.051","0.2038435294131667","860"
"21:0:0:0 (H:m:s:ms)","AMBULANCE","31.033","0.18212626678897098","1513"
"20:42:1:212 (H:m:s:ms)","GENERIC","62.043","0.20391612525819278","799"
"21:0:0:0 (H:m:s:ms)","GENERIC","62.087","0.1821817035580989","1527"
"20:42:1:518 (H:m:s:ms)","OPERA","31.009","0.20407633237537542","497"
"20:42:7:272 (H:m:s:ms)","GENERIC","62.199","0.20424810425849332","738"
"21:0:0:0 (H:m:s:ms)","GENERIC","62.063","0.18422826896423636","1540"
"21:0:6:60 (H:m:s:ms)","GENERIC","62.099","0.18482336827310336","960"
"20:42:9:113 (H:m:s:ms)","OPERA","31.007","0.20871984503290764","923"
"21:0:12:121 (H:m:s:ms)","GENERIC","62.059","0.18080525252563348","887"
"20:42:13:333 (H:m:s:ms)","GENERIC","62.153","0.20921484225522646","680"
"21:0:18:181 (H:m:s:ms)","GENERIC","62.041","0.17890490904404666","834"
"20:20:0:0 (H:m:s:ms)","GENERIC","62.067","0.17427586068734205","1467"
"20:42:16:708 (H:m:s:ms)","OPERA","31.008","0.2114401397725401","315"
"21:0:24:242 (H:m:s:ms)","GENERIC","62.093","0.1787985744872967","771"
"20:20:0:0 (H:m:s:ms)","GENERIC","62.059","0.1745479820346765","1483"
"20:42:19:393 (H:m:s:ms)","GENERIC","62.161","0.21199379756795805","658"
"21:0:30:303 (H:m:s:ms)","GENERIC","62.085","0.17880703064522288","707"
"20:20:6:60 (H:m:s:ms)","GENERIC","62.097","0.16969442329863912","951"
"20:42:24:303 (H:m:s:ms)","OPERA","31.009","0.21470851206171473","701"
"21:0:31:578 (H:m:s:ms)","AMBULANCE","31.026","0.1817787747760828","530"
"20:20:12:121 (H:m:s:ms)","GENERIC","62.083","0.16970763721444088","887"
"20:42:25:454 (H:m:s:ms)","GENERIC","62.125","0.2149985333306657","565"
"21:0:36:363 (H:m:s:ms)","GENERIC","62.133","0.18423262197564583","649"
"20:20:18:181 (H:m:s:ms)","GENERIC","62.057","0.16531720066861202","834"
"20:42:31:515 (H:m:s:ms)","GENERIC","62.019","0.2190443758491238","497"
"21:0:42:424 (H:m:s:ms)","GENERIC","62.089","0.18137871745789722","582"
"20:20:24:242 (H:m:s:ms)","GENERIC","62.123","0.1591117912531588","772"
"20:42:31:898 (H:m:s:ms)","OPERA","31.007","0.2205767781170361","117"
"21:0:48:484 (H:m:s:ms)","GENERIC","62.067","0.18137391186996316","528"
"20:20:30:303 (H:m:s:ms)","GENERIC","62.095","0.15868271291980507","707"
"20:42:37:575 (H:m:s:ms)","GENERIC","62.037","0.22171099666456162","438"
"20:20:36:363 (H:m:s:ms)","GENERIC","62.107","0.16192030009242742","649"
"20:42:39:493 (H:m:s:ms)","OPERA","31.008","0.22193371377936075","560"
"20:20:42:424 (H:m:s:ms)","GENERIC","62.135","0.15627692299316015","583"
"20:20:48:484 (H:m:s:ms)","GENERIC","62.123","0.15559748215357977","528"
"21:0:54:545 (H:m:s:ms)","GENERIC","62.083","0.18083239397883466","470"
"21:1:0:606 (H:m:s:ms)","GENERIC","62.071","0.1809323034587854","401"
"20:42:43:636 (H:m:s:ms)","GENERIC","62.087","0.2172806284587251","378"
"21:1:3:157 (H:m:s:ms)","AMBULANCE","31.019","0.18195067129348078","857"
"20:42:47:88 (H:m:s:ms)","OPERA","31.009","0.21758552123428118","923"
"21:1:6:666 (H:m:s:ms)","GENERIC","62.113","0.18162495307030285","343"
"20:20:54:545 (H:m:s:ms)","GENERIC","62.059","0.15616444872164179","471"
"20:42:49:696 (H:m:s:ms)","GENERIC","62.183","0.21772649658899765","354"
"21:1:12:727 (H:m:s:ms)","GENERIC","62.075","0.18198180792682844","288"
"20:21:0:606 (H:m:s:ms)","GENERIC","62.125","0.1556500023550207","407"
"20:42:54:683 (H:m:s:ms)","OPERA","31.009","0.21931088445225902","330"
"21:1:18:787 (H:m:s:ms)","GENERIC","62.051","0.184317521982632","226"
"20:21:6:666 (H:m:s:ms)","GENERIC","62.065","0.1551295127874008","343"
"20:42:55:757 (H:m:s:ms)","GENERIC","62.053","0.2213910713903793","252"
"21:1:24:848 (H:m:s:ms)","GENERIC","62.055","0.1839881014713041","164"
"20:21:12:727 (H:m:s:ms)","GENERIC","62.115","0.1554764721275561","288"
"20:43:1:818 (H:m:s:ms)","GENERIC","62.087","0.22172468887819324","192"
"21:1:30:909 (H:m:s:ms)","GENERIC","62.151","0.183867499046415","1099"
"20:21:18:787 (H:m:s:ms)","GENERIC","62.027","0.1574431163445599","228"
"20:43:2:278 (H:m:s:ms)","OPERA","31.007","0.2237518936026643","738"
"21:1:34:736 (H:m:s:ms)","AMBULANCE","31.07","0.18899887256848338","277"
"20:21:24:848 (H:m:s:ms)","GENERIC","31.019","0.15700307808333258","166"
"20:43:7:878 (H:m:s:ms)","GENERIC","62.041","0.223374191827574","1137"
"21:1:36:969 (H:m:s:ms)","GENERIC","62.023","0.18784101540320794","1037"
"20:21:30:909 (H:m:s:ms)","GENERIC","62.127","0.15626827787717643","1100"
"20:43:9:873 (H:m:s:ms)","OPERA","31.008","0.22713366529675422","178"
"20:21:36:969 (H:m:s:ms)","GENERIC","62.057","0.15888035907248355","1038"
"20:43:13:939 (H:m:s:ms)","GENERIC","62.039","0.22582053955339007","1070"
"20:21:43:30 (H:m:s:ms)","GENERIC","62.121","0.15749890947640652","980"
"20:21:49:90 (H:m:s:ms)","GENERIC","62.039","0.1576829437754287","967"
"20:43:17:468 (H:m:s:ms)","OPERA","31.008","0.2290846349131649","533"
"20:43:20:0 (H:m:s:ms)","GENERIC","62.173","0.2255509101012476","1044"
"20:21:55:151 (H:m:s:ms)","GENERIC","62.019","0.15668622254902093","862"
"20:43:25:63 (H:m:s:ms)","OPERA","31.007","0.22653666528603578","952"
"20:22:1:212 (H:m:s:ms)","GENERIC","62.061","0.15161433694536353","800"
"20:43:26:60 (H:m:s:ms)","GENERIC","62.081","0.22638136323440272","946"
"20:22:7:272 (H:m:s:ms)","GENERIC","62.171","0.15144500645166067","737"
"20:43:32:121 (H:m:s:ms)","GENERIC","62.075","0.22533155518862857","893"
"20:22:13:333 (H:m:s:ms)","GENERIC","62.125","0.1543802382666724","676"
"20:43:32:658 (H:m:s:ms)","OPERA","31.008","0.22702552250973826","371"
"20:22:19:393 (H:m:s:ms)","GENERIC","62.151","0.15280731308226628","657"
"20:43:38:181 (H:m:s:ms)","GENERIC","62.145","0.2284322140416826","832"
"20:22:25:454 (H:m:s:ms)","GENERIC","62.153","0.15145349361170649","555"
"20:43:40:253 (H:m:s:ms)","OPERA","31.008","0.2289117643435627","757"
"20:22:31:515 (H:m:s:ms)","GENERIC","62.025","0.14730519376433254","500"
"20:43:44:242 (H:m:s:ms)","GENERIC","62.089","0.22889521596890497","767"
"20:22:37:575 (H:m:s:ms)","GENERIC","62.051","0.14625408227507608","440"
"20:43:47:848 (H:m:s:ms)","OPERA","31.007","0.23212687673519003","162"
"20:22:43:636 (H:m:s:ms)","GENERIC","62.123","0.14418899672546484","376"
"20:22:49:696 (H:m:s:ms)","GENERIC","62.153","0.142519004516258","357"
"20:43:50:303 (H:m:s:ms)","GENERIC","62.057","0.23419127179357532","707"
"20:43:55:443 (H:m:s:ms)","OPERA","31.008","0.23586456551475843","566"
"20:22:55:757 (H:m:s:ms)","GENERIC","62.063","0.14293230765790763","255"
"20:43:56:363 (H:m:s:ms)","GENERIC","62.095","0.23570804620567162","649"
"20:23:1:818 (H:m:s:ms)","GENERIC","62.067","0.14201815489839878","196"
"20:44:2:424 (H:m:s:ms)","GENERIC","62.051","0.23639646709135087","591"
"20:23:7:878 (H:m:s:ms)","GENERIC","62.059","0.14174081622850598","1138"
"20:44:3:37 (H:m:s:ms)","OPERA","31.008","0.23868703783420164","975"
"20:23:13:939 (H:m:s:ms)","GENERIC","62.041","0.14444932360265308","1075"
"20:44:8:484 (H:m:s:ms)","GENERIC","62.071","0.2386915192465617","529"
"20:23:20:0 (H:m:s:ms)","GENERIC","62.141","0.14380785782524366","1042"
"20:44:10:632 (H:m:s:ms)","OPERA","31.007","0.2388673186341038","376"
"20:23:26:60 (H:m:s:ms)","GENERIC","62.075","0.14298987923191506","947"
"20:44:14:545 (H:m:s:ms)","GENERIC","62.025","0.2356365490510646","469"
"20:23:32:121 (H:m:s:ms)","GENERIC","62.075","0.14240007868272264","892"
"20:44:18:227 (H:m:s:ms)","OPERA","31.009","0.23902023956184187","781"
"20:23:38:181 (H:m:s:ms)","GENERIC","62.139","0.1419141686196121","832"
"20:44:20:606 (H:m:s:ms)","GENERIC","62.037","0.24235327872466494","406"
"20:23:44:242 (H:m:s:ms)","GENERIC","62.085","0.14373593000401205","767"
"20:23:50:303 (H:m:s:ms)","GENERIC","62.061","0.1447695800392193","710"
"20:44:26:666 (H:m:s:ms)","GENERIC","62.069","0.24204968107585031","348"
"20:44:32:727 (H:m:s:ms)","GENERIC","62.119","0.2427102501186624","288"
"20:23:56:363 (H:m:s:ms)","GENERIC","62.065","0.1449361234989404","648"
"20:44:33:417 (H:m:s:ms)","OPERA","31.009","0.2465371214494235","587"
"20:24:2:424 (H:m:s:ms)","GENERIC","62.061","0.14633385812435076","593"
"20:44:38:787 (H:m:s:ms)","GENERIC","62.131","0.2480972611451818","220"
"20:24:8:484 (H:m:s:ms)","GENERIC","62.055","0.1434849679925112","528"
"20:44:41:12 (H:m:s:ms)","OPERA","31.009","0.2512027548543127","992"
"20:24:14:545 (H:m:s:ms)","GENERIC","62.057","0.13999708401604624","470"
"20:44:44:848 (H:m:s:ms)","GENERIC","62.055","0.24996939618984707","165"
"20:24:20:606 (H:m:s:ms)","GENERIC","62.063","0.14240285333480218","401"
"20:44:48:607 (H:m:s:ms)","OPERA","31.009","0.2527475687495413","393"
"20:24:26:666 (H:m:s:ms)","GENERIC","62.109","0.14197672832072047","347"
"20:44:50:909 (H:m:s:ms)","GENERIC","62.089","0.2555525155043042","1102"
"20:24:32:727 (H:m:s:ms)","GENERIC","62.101","0.14412357762954472","287"
"20:44:56:202 (H:m:s:ms)","OPERA","31.009","0.25757731648834337","801"
"20:24:38:787 (H:m:s:ms)","GENERIC","62.141","0.14396474293975775","220"
"20:44:56:969 (H:m:s:ms)","GENERIC","62.133","0.2593750100088334","1041"
"20:24:44:848 (H:m:s:ms)","GENERIC","62.063","0.143936885132023","166"
"20:24:50:909 (H:m:s:ms)","GENERIC","62.077","0.14860070804025216","1106"
"20:45:3:30 (H:m:s:ms)","GENERIC","62.111","0.25675118505552685","983"
"20:45:3:797 (H:m:s:ms)","OPERA","31.008","0.2594895161951871","218"
"20:24:56:969 (H:m:s:ms)","GENERIC","62.165","0.1545417783258293","1039"
"20:45:9:90 (H:m:s:ms)","GENERIC","62.091","0.2568761214434138","956"
"20:25:3:30 (H:m:s:ms)","GENERIC","62.115","0.15574296637258223","983"
"20:45:11:392 (H:m:s:ms)","OPERA","31.008","0.25791537411308824","614"
"20:25:9:90 (H:m:s:ms)","GENERIC","62.063","0.15629495555903267","952"
"20:45:15:151 (H:m:s:ms)","GENERIC","62.103","0.25818710699641895","863"
"20:25:15:151 (H:m:s:ms)","GENERIC","62.099","0.15773896104942747","861"
"20:45:18:987 (H:m:s:ms)","OPERA","31.007","0.25632054451144815","1056"
"20:25:21:212 (H:m:s:ms)","GENERIC","62.023","0.1609071211072035","800"
"20:45:21:212 (H:m:s:ms)","GENERIC","62.039","0.25920093089086593","798"
"20:25:27:272 (H:m:s:ms)","GENERIC","62.157","0.16119775442007397","745"
"20:45:26:582 (H:m:s:ms)","OPERA","31.009","0.25855824285349843","419"
"20:25:33:333 (H:m:s:ms)","GENERIC","62.033","0.1606732620725943","682"
"20:45:27:272 (H:m:s:ms)","GENERIC","62.171","0.2584245905967211","741"
"20:25:39:393 (H:m:s:ms)","GENERIC","62.053","0.16016895095470063","650"
"20:45:33:333 (H:m:s:ms)","GENERIC","62.043","0.2563015819932505","678"
"20:25:45:454 (H:m:s:ms)","GENERIC","62.111","0.16276205794013088","562"
"20:25:51:515 (H:m:s:ms)","GENERIC","62.061","0.16611253731600492","500"
"20:25:57:575 (H:m:s:ms)","GENERIC","62.119","0.16557166278297186","437"
"20:26:3:636 (H:m:s:ms)","GENERIC","62.029","0.16655387095803284","379"
"20:26:9:696 (H:m:s:ms)","GENERIC","62.109","0.16681833455616715","355"
"20:26:15:757 (H:m:s:ms)","GENERIC","62.065","0.1673648794910472","249"
"20:26:21:818 (H:m:s:ms)","GENERIC","62.055","0.1667087330734644","196"
"20:26:27:878 (H:m:s:ms)","GENERIC","62.091","0.16985458295683645","1134"
"20:26:33:939 (H:m:s:ms)","GENERIC","62.069","0.16858062682555353","1072"
"20:26:40:0 (H:m:s:ms)","GENERIC","62.075","0.16753852364501642","1048"
"20:26:46:60 (H:m:s:ms)","GENERIC","62.057","0.17532700343095808","955"
"20:26:52:121 (H:m:s:ms)","GENERIC","62.039","0.17630839150100175","894"
"20:26:58:181 (H:m:s:ms)","GENERIC","62.043","0.18169711457275775","829"
"20:27:4:242 (H:m:s:ms)","GENERIC","62.033","0.18050372006333196","773"
"20:27:10:303 (H:m:s:ms)","GENERIC","62.083","0.18027879371345518","708"
"20:27:16:363 (H:m:s:ms)","GENERIC","62.053","0.185279256439441","648"
"20:27:22:424 (H:m:s:ms)","GENERIC","62.033","0.18619474116980284","586"
"20:27:28:484 (H:m:s:ms)","GENERIC","62.097","0.18650294603315148","528"
"20:27:34:545 (H:m:s:ms)","GENERIC","62.109","0.18484843314179833","464"
"20:27:40:606 (H:m:s:ms)","GENERIC","62.039","0.18673619694221114","401"
"20:27:46:666 (H:m:s:ms)","GENERIC","62.067","0.18580551126104328","339"
"20:27:52:727 (H:m:s:ms)","GENERIC","62.115","0.1881998353526552","285"
"20:27:58:787 (H:m:s:ms)","GENERIC","62.141","0.18785092587524468","221"
"20:28:4:848 (H:m:s:ms)","GENERIC","62.099","0.19050743069973788","167"
"20:28:10:909 (H:m:s:ms)","GENERIC","62.043","0.19298081368491257","1106"
"20:28:16:969 (H:m:s:ms)","GENERIC","62.081","0.18484407671044883","1039"
"20:28:23:30 (H:m:s:ms)","GENERIC","62.019","0.18560472687522353","979"
"20:28:29:90 (H:m:s:ms)","GENERIC","62.071","0.18659717294021172","960"
"20:28:35:151 (H:m:s:ms)","GENERIC","62.069","0.1853702860429962","862"
"20:28:41:212 (H:m:s:ms)","GENERIC","62.151","0.18525369771702402","796"
"20:28:47:272 (H:m:s:ms)","GENERIC","62.105","0.18324451714819726","741"
"20:28:53:333 (H:m:s:ms)","GENERIC","62.097","0.17923798819742195","677"
"20:28:59:393 (H:m:s:ms)","GENERIC","62.063","0.17860549901615774","654"
"20:29:5:454 (H:m:s:ms)","GENERIC","62.075","0.17570431752365434","553"
"20:29:11:515 (H:m:s:ms)","GENERIC","62.031","0.1806479209341992","499"
"20:29:17:575 (H:m:s:ms)","GENERIC","62.079","0.19227365574063265","437"
"20:29:23:636 (H:m:s:ms)","GENERIC","62.063","0.19217897418732666","372"
"20:29:29:696 (H:m:s:ms)","GENERIC","62.051","0.19225399407168378","348"
"20:29:35:757 (H:m:s:ms)","GENERIC","62.047","0.19226656494237385","255"
"20:29:41:818 (H:m:s:ms)","GENERIC","62.051","0.1971307780702669","199"
"20:29:47:878 (H:m:s:ms)","GENERIC","62.121","0.1979126762402539","1136"
"20:29:53:939 (H:m:s:ms)","GENERIC","62.071","0.19369801483488083","1072"
"22:7:53:684 (H:m:s:ms)","AMBULANCE","31.009","0.06809472562420436","329"
"22:5:15:789 (H:m:s:ms)","AMBULANCE","31.008","0.06829903180605368","223"
"22:3:41:52 (H:m:s:ms)","AMBULANCE","31.009","0.05936728402816446","956"
"21:20:0:0 (H:m:s:ms)","GENERIC","62.109","0.19892597144911733","1489"
"21:20:6:60 (H:m:s:ms)","GENERIC","62.089","0.19514004283796685","951"
"21:20:7:594 (H:m:s:ms)","OPERA","62.013","0.1958989575655112","417"
"21:20:12:121 (H:m:s:ms)","GENERIC","62.099","0.1944311441728685","887"
"21:20:15:189 (H:m:s:ms)","OPERA","31.009","0.19875667216177795","823"
"21:20:18:181 (H:m:s:ms)","GENERIC","62.027","0.19542463391329218","832"
"21:20:22:784 (H:m:s:ms)","OPERA","62.013","0.19359759776736693","227"
"21:20:24:242 (H:m:s:ms)","GENERIC","62.085","0.19367532656066624","772"
"21:20:30:303 (H:m:s:ms)","GENERIC","62.119","0.19316179783153944","706"
"21:20:30:379 (H:m:s:ms)","OPERA","62.015","0.19317028676122458","645"
"21:20:36:363 (H:m:s:ms)","GENERIC","62.145","0.19412278963064","651"
"21:20:37:974 (H:m:s:ms)","OPERA","62.013","0.19894113552368953","1034"
"21:20:42:424 (H:m:s:ms)","GENERIC","62.087","0.19487931512668696","585"
"21:20:45:569 (H:m:s:ms)","OPERA","62.013","0.1988730752539808","438"
"21:20:48:484 (H:m:s:ms)","GENERIC","62.083","0.19677044106918903","527"
"21:20:53:164 (H:m:s:ms)","OPERA","31.009","0.19688237396805433","843"
"21:20:54:545 (H:m:s:ms)","GENERIC","62.087","0.19862371949250507","471"
"21:21:0:606 (H:m:s:ms)","GENERIC","62.059","0.1975565103922587","402"
"21:21:0:759 (H:m:s:ms)","OPERA","62.011","0.20295256454534516","258"
"21:21:6:666 (H:m:s:ms)","GENERIC","62.117","0.2073149307566909","350"
"21:32:37:575 (H:m:s:ms)","GENERIC","62.069","0.20041679299863374","436"
"21:32:19:393 (H:m:s:ms)","GENERIC","62.103","0.21352501074360164","656"
"21:32:13:333 (H:m:s:ms)","GENERIC","62.093","0.21574959292965984","678"
"21:32:7:272 (H:m:s:ms)","GENERIC","62.131","0.21563675584928946","736"
"21:32:6:315 (H:m:s:ms)","AMBULANCE","31.013","0.2142228625773461","714"
"21:32:1:212 (H:m:s:ms)","GENERIC","62.041","0.21395086266153837","799"
"21:31:55:151 (H:m:s:ms)","GENERIC","62.023","0.21626391700970607","860"
"21:31:49:90 (H:m:s:ms)","GENERIC","62.065","0.22025511938007647","953"
"21:21:8:354 (H:m:s:ms)","OPERA","31.009","0.2082262096003843","651"
"21:31:43:30 (H:m:s:ms)","GENERIC","62.105","0.22265367881417508","982"
"21:21:12:727 (H:m:s:ms)","GENERIC","62.105","0.21117662498563347","286"
"21:21:15:949 (H:m:s:ms)","OPERA","62.013","0.21282990219255396","1055"
"21:21:18:787 (H:m:s:ms)","GENERIC","62.039","0.21349660588192365","219"
"21:21:23:544 (H:m:s:ms)","OPERA","62.013","0.21651411021208405","461"
"21:21:24:848 (H:m:s:ms)","GENERIC","62.059","0.21638890802040137","164"
"21:21:30:909 (H:m:s:ms)","GENERIC","62.149","0.21718303806769743","1100"
"21:21:31:139 (H:m:s:ms)","OPERA","62.013","0.2186129087124315","876"
"21:32:31:515 (H:m:s:ms)","GENERIC","62.041","0.20216976516276938","500"
"21:21:36:969 (H:m:s:ms)","GENERIC","62.057","0.2177805947469541","1041"
"21:32:25:454 (H:m:s:ms)","GENERIC","62.071","0.20929724670369634","556"
"21:21:38:734 (H:m:s:ms)","OPERA","62.015","0.22040731654712353","270"
"21:33:32:121 (H:m:s:ms)","GENERIC","62.051","0.18066195839193366","890"
"21:33:26:60 (H:m:s:ms)","GENERIC","62.097","0.1863289866011525","946"
"21:33:13:939 (H:m:s:ms)","GENERIC","62.063","0.19112808774351406","1070"
"21:33:9:473 (H:m:s:ms)","AMBULANCE","31.017","0.19014270823333884","597"
"21:33:7:878 (H:m:s:ms)","GENERIC","62.081","0.18937202160951858","1138"
"21:33:1:818 (H:m:s:ms)","GENERIC","62.101","0.19038767924697084","194"
"21:32:55:757 (H:m:s:ms)","GENERIC","62.059","0.19403699628996463","252"
"21:32:49:696 (H:m:s:ms)","GENERIC","62.117","0.19689588766832974","354"
"21:21:43:30 (H:m:s:ms)","GENERIC","62.113","0.2215173192728603","980"
"21:32:43:636 (H:m:s:ms)","GENERIC","62.111","0.19890254968065524","377"
"21:21:46:329 (H:m:s:ms)","OPERA","62.013","0.2225139695394287","675"
"21:32:37:894 (H:m:s:ms)","AMBULANCE","31.019","0.20069323375273931","143"
"21:21:49:90 (H:m:s:ms)","GENERIC","62.065","0.2229136002443017","954"
"21:21:53:924 (H:m:s:ms)","OPERA","62.015","0.22647677060567742","1088"
"21:21:55:151 (H:m:s:ms)","GENERIC","62.047","0.22675995310990962","860"
"21:22:1:212 (H:m:s:ms)","GENERIC","62.043","0.2268280170087647","797"
"21:22:1:518 (H:m:s:ms)","OPERA","31.007","0.22888736390098838","495"
"21:22:7:272 (H:m:s:ms)","GENERIC","62.139","0.23003940225871247","737"
"21:22:9:113 (H:m:s:ms)","OPERA","62.015","0.23122405971849427","923"
"21:22:13:333 (H:m:s:ms)","GENERIC","62.113","0.23219830193654964","678"
"21:33:20:0 (H:m:s:ms)","GENERIC","62.171","0.18856948322600262","1042"
"21:34:26:666 (H:m:s:ms)","GENERIC","62.101","0.1841585607309431","346"
"21:34:20:606 (H:m:s:ms)","GENERIC","62.077","0.18225082047538824","407"
"21:34:14:545 (H:m:s:ms)","GENERIC","62.029","0.1894575210153261","468"
"21:34:12:631 (H:m:s:ms)","AMBULANCE","31.022","0.18869165706304755","414"
"21:34:8:484 (H:m:s:ms)","GENERIC","62.061","0.1876948797066646","529"
"21:34:2:424 (H:m:s:ms)","GENERIC","62.019","0.1876531835611388","591"
"21:33:56:363 (H:m:s:ms)","GENERIC","62.089","0.18243178356886874","646"
"21:33:50:303 (H:m:s:ms)","GENERIC","62.037","0.1830569846293551","709"
"21:22:16:708 (H:m:s:ms)","OPERA","62.015","0.2328095665356688","303"
"21:33:44:242 (H:m:s:ms)","GENERIC","62.101","0.18633687057511594","770"
"21:22:19:393 (H:m:s:ms)","GENERIC","62.117","0.23088445725349316","654"
"21:33:41:52 (H:m:s:ms)","AMBULANCE","31.018","0.18576939938951226","1008"
"21:1:43:30 (H:m:s:ms)","GENERIC","62.121","0.18784130039418367","981"
"21:22:24:303 (H:m:s:ms)","OPERA","62.015","0.23311459492048703","701"
"21:33:38:181 (H:m:s:ms)","GENERIC","62.073","0.1847471476606866","832"
"21:1:49:90 (H:m:s:ms)","GENERIC","62.031","0.1875766602904884","963"
"21:22:25:454 (H:m:s:ms)","GENERIC","31.027","0.23303433984596744","556"
"21:1:55:151 (H:m:s:ms)","GENERIC","62.017","0.18509495287339492","862"
"21:22:31:515 (H:m:s:ms)","GENERIC","62.055","0.23070916404558164","495"
"21:2:1:212 (H:m:s:ms)","GENERIC","62.039","0.18518217173625456","798"
"21:22:31:898 (H:m:s:ms)","OPERA","62.011","0.23086002676161763","1131"
"21:2:6:315 (H:m:s:ms)","AMBULANCE","31.049","0.1857183191747125","697"
"21:22:37:575 (H:m:s:ms)","GENERIC","62.051","0.2254289169836388","440"
"21:2:7:272 (H:m:s:ms)","GENERIC","62.167","0.1859135897914959","738"
"21:22:39:493 (H:m:s:ms)","OPERA","62.013","0.22899058255893825","552"
"21:2:13:333 (H:m:s:ms)","GENERIC","62.145","0.18583660072156108","678"
"21:22:43:636 (H:m:s:ms)","GENERIC","62.095","0.22741421495507128","376"
"21:2:19:393 (H:m:s:ms)","GENERIC","62.127","0.18650566987268613","662"
"21:22:47:88 (H:m:s:ms)","OPERA","31.009","0.2305036797772476","920"
"21:2:25:454 (H:m:s:ms)","GENERIC","62.085","0.1871042281775972","555"
"21:2:31:515 (H:m:s:ms)","GENERIC","62.055","0.18215849684725116","500"
"21:35:21:212 (H:m:s:ms)","GENERIC","62.045","0.19911613668537004","802"
"21:35:15:789 (H:m:s:ms)","AMBULANCE","31.014","0.19814221264532755","284"
"21:35:15:151 (H:m:s:ms)","GENERIC","62.037","0.19605816493162673","860"
"21:35:9:90 (H:m:s:ms)","GENERIC","62.045","0.1914212937305121","956"
"21:35:3:30 (H:m:s:ms)","GENERIC","62.079","0.19046114796033461","1001"
"21:34:56:969 (H:m:s:ms)","GENERIC","62.077","0.19570688102899075","1039"
"21:34:50:909 (H:m:s:ms)","GENERIC","62.041","0.1926078590598752","1105"
"21:22:49:696 (H:m:s:ms)","GENERIC","62.121","0.23058317302248404","354"
"21:34:44:848 (H:m:s:ms)","GENERIC","62.089","0.18680267298025197","166"
"21:22:54:683 (H:m:s:ms)","OPERA","62.015","0.23357225418408487","324"
"21:34:44:210 (H:m:s:ms)","AMBULANCE","31.034","0.19001737006187672","817"
"21:2:37:575 (H:m:s:ms)","GENERIC","62.021","0.18688176207342044","438"
"21:22:55:757 (H:m:s:ms)","GENERIC","62.067","0.23554210991921892","252"
"21:34:38:787 (H:m:s:ms)","GENERIC","62.145","0.18543819841555498","219"
"21:2:37:894 (H:m:s:ms)","AMBULANCE","31.03","0.1918620117965527","129"
"21:23:1:818 (H:m:s:ms)","GENERIC","62.109","0.23527167324333853","194"
"21:34:32:727 (H:m:s:ms)","GENERIC","62.121","0.18507748888246803","286"
"21:2:43:636 (H:m:s:ms)","GENERIC","62.083","0.1911189949248133","373"
"21:23:2:278 (H:m:s:ms)","OPERA","62.013","0.23873643228148486","735"
"21:2:49:696 (H:m:s:ms)","GENERIC","62.155","0.19021145186787633","364"
"21:23:7:878 (H:m:s:ms)","GENERIC","62.069","0.23836320490038543","1137"
"21:2:55:757 (H:m:s:ms)","GENERIC","62.063","0.19100640200007335","254"
"21:23:9:873 (H:m:s:ms)","OPERA","62.013","0.24137458563220807","174"
"21:3:1:818 (H:m:s:ms)","GENERIC","62.079","0.19101879111520462","195"
"21:23:13:939 (H:m:s:ms)","GENERIC","62.049","0.24369829312807223","1067"
"21:3:7:878 (H:m:s:ms)","GENERIC","62.065","0.19049404187056174","1137"
"21:23:17:468 (H:m:s:ms)","OPERA","62.015","0.24439094403525","535"
"21:3:9:473 (H:m:s:ms)","AMBULANCE","31.053","0.1960896476639405","579"
"21:23:20:0 (H:m:s:ms)","GENERIC","62.181","0.24115944126895303","1041"
"21:3:13:939 (H:m:s:ms)","GENERIC","62.037","0.1937403755482904","1075"
"21:3:20:0 (H:m:s:ms)","GENERIC","62.199","0.19428174579861893","1048"
"21:36:18:947 (H:m:s:ms)","AMBULANCE","31.025","0.20333379521994216","1118"
"21:36:15:757 (H:m:s:ms)","GENERIC","62.047","0.20180508833803645","251"
"21:36:9:696 (H:m:s:ms)","GENERIC","62.039","0.2017833229545422","351"
"21:36:3:636 (H:m:s:ms)","GENERIC","62.031","0.20374579706603163","377"
"21:35:57:575 (H:m:s:ms)","GENERIC","62.123","0.19825923931526626","436"
"21:35:51:515 (H:m:s:ms)","GENERIC","62.027","0.19868443131603256","498"
"21:23:25:63 (H:m:s:ms)","OPERA","62.013","0.24067334397884965","943"
"21:35:47:368 (H:m:s:ms)","AMBULANCE","62.129","0.19636287719853684","647"
"21:23:26:60 (H:m:s:ms)","GENERIC","62.103","0.24102600952135925","946"
"21:35:45:454 (H:m:s:ms)","GENERIC","62.071","0.1945977746446074","561"
"21:3:26:60 (H:m:s:ms)","GENERIC","62.079","0.19379400763015348","947"
"21:23:32:121 (H:m:s:ms)","GENERIC","62.061","0.23811697621154532","892"
"21:35:39:393 (H:m:s:ms)","GENERIC","62.061","0.1949569013385201","648"
"21:3:32:121 (H:m:s:ms)","GENERIC","62.073","0.18937079854720185","891"
"21:23:32:658 (H:m:s:ms)","OPERA","62.013","0.2396397318948028","359"
"21:35:33:333 (H:m:s:ms)","GENERIC","62.083","0.1954388043728262","682"
"21:3:38:181 (H:m:s:ms)","GENERIC","62.121","0.18829886683393815","828"
"21:23:38:181 (H:m:s:ms)","GENERIC","62.087","0.24117385699088392","833"
"21:35:27:272 (H:m:s:ms)","GENERIC","62.095","0.19834370403423868","740"
"21:3:41:52 (H:m:s:ms)","AMBULANCE","31.031","0.1884675748812181","958"
"21:23:40:253 (H:m:s:ms)","OPERA","31.009","0.24219084595247609","748"
"21:3:44:242 (H:m:s:ms)","GENERIC","62.085","0.18816513073273972","767"
"21:23:44:242 (H:m:s:ms)","GENERIC","62.103","0.2423609058450262","767"
"21:3:50:303 (H:m:s:ms)","GENERIC","62.023","0.18831874717600533","704"
"21:23:47:848 (H:m:s:ms)","OPERA","62.015","0.2436924703888032","153"
"21:3:56:363 (H:m:s:ms)","GENERIC","62.131","0.18828542495034542","649"
"21:23:50:303 (H:m:s:ms)","GENERIC","62.027","0.24468475054031585","704"
"21:4:2:424 (H:m:s:ms)","GENERIC","62.055","0.18775422088491228","591"
"21:23:55:443 (H:m:s:ms)","OPERA","62.015","0.2475367694298272","563"
"21:4:8:484 (H:m:s:ms)","GENERIC","62.073","0.18281361242361777","528"
"21:4:12:631 (H:m:s:ms)","AMBULANCE","31.061","0.18194245848939508","381"
"21:37:16:363 (H:m:s:ms)","GENERIC","62.031","0.20513961197592584","647"
"21:37:10:303 (H:m:s:ms)","GENERIC","62.043","0.2005197270466646","708"
"21:37:4:242 (H:m:s:ms)","GENERIC","62.055","0.20115533752011175","775"
"21:36:58:181 (H:m:s:ms)","GENERIC","62.069","0.20312063312608114","831"
"21:36:52:121 (H:m:s:ms)","GENERIC","62.081","0.20077569407381357","890"
"21:36:50:526 (H:m:s:ms)","AMBULANCE","31.01","0.2004258008476102","484"
"21:23:56:363 (H:m:s:ms)","GENERIC","62.105","0.24740500684333644","647"
"21:24:2:424 (H:m:s:ms)","GENERIC","62.039","0.24780107021549092","590"
"21:36:46:60 (H:m:s:ms)","GENERIC","31.023","0.20187484985031695","953"
"21:4:14:545 (H:m:s:ms)","GENERIC","62.033","0.1821387793127971","469"
"21:24:3:37 (H:m:s:ms)","OPERA","62.015","0.250810327246411","968"
"21:36:40:0 (H:m:s:ms)","GENERIC","62.051","0.20235185369225858","1046"
"21:4:20:606 (H:m:s:ms)","GENERIC","62.039","0.18450204475875065","400"
"21:24:8:484 (H:m:s:ms)","GENERIC","62.055","0.24982492792042593","528"
"21:36:33:939 (H:m:s:ms)","GENERIC","62.091","0.20332761702236288","1075"
"21:4:26:666 (H:m:s:ms)","GENERIC","62.077","0.1876307289109481","347"
"21:24:10:632 (H:m:s:ms)","OPERA","62.015","0.2505570708954582","373"
"21:36:27:878 (H:m:s:ms)","GENERIC","62.053","0.2033588960721772","1135"
"21:4:32:727 (H:m:s:ms)","GENERIC","62.113","0.1889756143809586","288"
"21:24:14:545 (H:m:s:ms)","GENERIC","62.021","0.24721058945619917","469"
"21:36:21:818 (H:m:s:ms)","GENERIC","31.025","0.20496760626217125","286"
"21:4:38:787 (H:m:s:ms)","GENERIC","62.115","0.1884695334551762","219"
"21:24:18:227 (H:m:s:ms)","OPERA","62.015","0.24748677887453704","777"
"21:4:44:210 (H:m:s:ms)","AMBULANCE","31.047","0.18876637141205402","811"
"21:24:20:606 (H:m:s:ms)","GENERIC","62.065","0.25061046379389784","406"
"21:4:44:848 (H:m:s:ms)","GENERIC","62.073","0.18456777610696276","163"
"21:24:25:822 (H:m:s:ms)","OPERA","31.007","0.25222798446061845","188"
"21:4:50:909 (H:m:s:ms)","GENERIC","62.075","0.19310318538455626","1103"
"21:24:26:666 (H:m:s:ms)","GENERIC","62.117","0.25408646278329483","348"
"21:4:56:969 (H:m:s:ms)","GENERIC","62.123","0.19779401632422738","1039"
"21:5:3:30 (H:m:s:ms)","GENERIC","62.075","0.2004542285160427","981"
"21:38:10:909 (H:m:s:ms)","GENERIC","62.011","0.21011943464031832","1105"
"21:38:4:848 (H:m:s:ms)","GENERIC","62.097","0.21016939732861323","170"
"21:37:58:787 (H:m:s:ms)","GENERIC","62.069","0.21011182329401704","223"
"21:37:53:684 (H:m:s:ms)","AMBULANCE","31.014","0.21149132605588278","380"
"21:37:52:727 (H:m:s:ms)","GENERIC","62.061","0.2108280766748494","284"
"21:37:46:666 (H:m:s:ms)","GENERIC","62.043","0.21108381448539246","343"
"21:37:40:606 (H:m:s:ms)","GENERIC","62.063","0.2066666716129494","403"
"21:24:32:727 (H:m:s:ms)","GENERIC","62.121","0.2549184616245656","289"
"21:24:33:417 (H:m:s:ms)","OPERA","62.015","0.2579314891478863","587"
"21:5:9:90 (H:m:s:ms)","GENERIC","31.029","0.20211402944334547","959"
"21:24:38:787 (H:m:s:ms)","GENERIC","62.125","0.25836483659436843","220"
"21:5:15:151 (H:m:s:ms)","GENERIC","62.073","0.20271987296811922","862"
"21:24:41:12 (H:m:s:ms)","OPERA","62.015","0.26021179796793126","1011"
"21:37:34:545 (H:m:s:ms)","GENERIC","62.105","0.21114618704429394","460"
"20:45:34:177 (H:m:s:ms)","OPERA","31.009","0.2595582872387473","826"
"21:5:15:789 (H:m:s:ms)","AMBULANCE","31.047","0.2055207899859429","232"
"21:24:44:848 (H:m:s:ms)","GENERIC","62.105","0.25723976186942593","163"
"21:37:28:484 (H:m:s:ms)","GENERIC","62.117","0.20414425697207814","529"
"20:45:39:393 (H:m:s:ms)","GENERIC","62.051","0.2591179610539133","651"
"21:5:21:212 (H:m:s:ms)","GENERIC","62.073","0.20481736197559453","804"
"21:24:48:607 (H:m:s:ms)","OPERA","62.015","0.25783402827558677","395"
"21:37:22:424 (H:m:s:ms)","GENERIC","62.057","0.20422519779832737","606"
"20:45:41:772 (H:m:s:ms)","OPERA","31.009","0.2606528217110239","229"
"21:5:27:272 (H:m:s:ms)","GENERIC","62.131","0.20383151115473458","740"
"21:24:50:909 (H:m:s:ms)","GENERIC","62.053","0.2580162775909696","1100"
"21:37:22:105 (H:m:s:ms)","AMBULANCE","31.03","0.20353697387890515","914"
"20:45:45:454 (H:m:s:ms)","GENERIC","62.081","0.2598711079977912","560"
"21:5:33:333 (H:m:s:ms)","GENERIC","62.025","0.20410467498483323","678"
"21:24:56:202 (H:m:s:ms)","OPERA","62.015","0.2610962311645225","799"
"20:45:49:367 (H:m:s:ms)","OPERA","31.008","0.25953692319168314","675"
"21:5:39:393 (H:m:s:ms)","GENERIC","62.077","0.20255138614260385","657"
"21:24:56:969 (H:m:s:ms)","GENERIC","62.095","0.26390108727763534","1041"
"20:45:51:515 (H:m:s:ms)","GENERIC","62.073","0.26233932998112214","494"
"21:5:45:454 (H:m:s:ms)","GENERIC","62.103","0.20204305489945978","560"
"21:25:3:30 (H:m:s:ms)","GENERIC","62.073","0.2611463554777925","983"
"20:45:56:962 (H:m:s:ms)","OPERA","31.007","0.26155197926601714","1041"
"21:5:47:368 (H:m:s:ms)","AMBULANCE","31.042","0.20215875798022173","644"
"20:45:57:575 (H:m:s:ms)","GENERIC","62.131","0.26134164507844965","442"
"21:5:51:515 (H:m:s:ms)","GENERIC","62.073","0.20207933334764777","496"
"20:46:3:636 (H:m:s:ms)","GENERIC","62.055","0.2610959794967385","375"
"20:46:4:556 (H:m:s:ms)","OPERA","31.009","0.26187048021516796","447"
"21:39:5:454 (H:m:s:ms)","GENERIC","62.177","0.20513792586887286","553"
"21:38:59:393 (H:m:s:ms)","GENERIC","62.083","0.20838691079549806","652"
"21:38:56:842 (H:m:s:ms)","AMBULANCE","31.026","0.20810987247117044","191"
"21:38:53:333 (H:m:s:ms)","GENERIC","62.103","0.2078332947395819","678"
"21:38:47:272 (H:m:s:ms)","GENERIC","62.079","0.21042385922233722","740"
"21:38:41:212 (H:m:s:ms)","GENERIC","62.159","0.21080801352891054","796"
"21:38:35:151 (H:m:s:ms)","GENERIC","62.125","0.21314108385503808","863"
"21:38:29:90 (H:m:s:ms)","GENERIC","62.073","0.21495032926896127","955"
"21:25:3:797 (H:m:s:ms)","OPERA","62.013","0.261333789984774","222"
"21:25:9:90 (H:m:s:ms)","GENERIC","62.055","0.25994764065678055","954"
"21:5:57:575 (H:m:s:ms)","GENERIC","62.115","0.1974147948260518","440"
"21:25:11:392 (H:m:s:ms)","OPERA","62.013","0.26180112751776985","610"
"21:6:3:636 (H:m:s:ms)","GENERIC","62.059","0.19812793124416792","478"
"21:25:15:151 (H:m:s:ms)","GENERIC","62.043","0.2631924788844874","861"
"20:46:9:696 (H:m:s:ms)","GENERIC","62.107","0.2584148063150507","358"
"21:6:9:696 (H:m:s:ms)","GENERIC","62.099","0.19343133912359659","358"
"21:25:18:987 (H:m:s:ms)","OPERA","62.013","0.26090812292444693","1050"
"20:46:12:151 (H:m:s:ms)","OPERA","31.009","0.2612525368757318","852"
"21:6:15:757 (H:m:s:ms)","GENERIC","62.035","0.19345514573283715","250"
"21:25:21:212 (H:m:s:ms)","GENERIC","62.063","0.2636382707524858","799"
"21:38:25:263 (H:m:s:ms)","AMBULANCE","31.01","0.21059866999947474","754"
"20:46:15:757 (H:m:s:ms)","GENERIC","62.035","0.2613132718296398","249"
"21:6:18:947 (H:m:s:ms)","AMBULANCE","31.025","0.19650808028240765","1102"
"21:25:26:582 (H:m:s:ms)","OPERA","62.015","0.263101717528557","419"
"21:38:23:30 (H:m:s:ms)","GENERIC","62.047","0.20967416934084016","980"
"20:46:19:746 (H:m:s:ms)","OPERA","31.008","0.25916279758399974","293"
"21:6:21:818 (H:m:s:ms)","GENERIC","62.037","0.1966671524874296","195"
"21:25:27:272 (H:m:s:ms)","GENERIC","62.113","0.2628839759635749","740"
"21:38:16:969 (H:m:s:ms)","GENERIC","62.093","0.20558987705018553","1039"
"20:46:21:818 (H:m:s:ms)","GENERIC","62.063","0.259838983856641","189"
"21:6:27:878 (H:m:s:ms)","GENERIC","62.053","0.1961886170211368","1136"
"21:25:33:333 (H:m:s:ms)","GENERIC","62.063","0.26118983084971564","679"
"20:46:27:341 (H:m:s:ms)","OPERA","31.007","0.2580298243292069","667"
"21:6:33:939 (H:m:s:ms)","GENERIC","62.067","0.19472136732347944","1072"
"21:25:34:177 (H:m:s:ms)","OPERA","62.013","0.2640088141935066","825"
"20:46:27:878 (H:m:s:ms)","GENERIC","62.059","0.25920591938101434","1143"
"21:6:40:0 (H:m:s:ms)","GENERIC","62.055","0.19112469833698087","1051"
"20:46:33:939 (H:m:s:ms)","GENERIC","62.069","0.2572761000520468","1071"
"21:6:46:60 (H:m:s:ms)","GENERIC","62.081","0.19264384304246093","951"
"20:46:34:936 (H:m:s:ms)","OPERA","31.007","0.2593108277400088","1077"
"20:46:40:0 (H:m:s:ms)","GENERIC","62.087","0.25697220604983506","1050"
"21:39:23:636 (H:m:s:ms)","GENERIC","62.075","0.2008642245321127","373"
"21:40:0:0 (H:m:s:ms)","GENERIC","62.057","0.2023110322480494","1518"
"21:40:0:0 (H:m:s:ms)","AMBULANCE","31.019","0.2015929249455571","1505"
"21:39:53:939 (H:m:s:ms)","GENERIC","62.069","0.20382011855957338","1070"
"21:39:47:878 (H:m:s:ms)","GENERIC","62.055","0.20389331024516616","1135"
"21:39:41:818 (H:m:s:ms)","GENERIC","62.023","0.20091003616824946","193"
"21:39:35:757 (H:m:s:ms)","GENERIC","62.065","0.19930060827900747","256"
"21:39:29:696 (H:m:s:ms)","GENERIC","62.157","0.19969939869011147","353"
"21:39:28:421 (H:m:s:ms)","AMBULANCE","31.022","0.19967458929560725","588"
"21:6:50:526 (H:m:s:ms)","AMBULANCE","31.064","0.19363153551111373","532"
"21:6:52:121 (H:m:s:ms)","GENERIC","62.035","0.19599267336552106","894"
"20:46:42:531 (H:m:s:ms)","OPERA","31.009","0.2599166125306528","475"
"21:6:58:181 (H:m:s:ms)","GENERIC","62.085","0.1964124591272335","834"
"20:46:46:60 (H:m:s:ms)","GENERIC","62.057","0.2658589783189155","948"
"21:7:4:242 (H:m:s:ms)","GENERIC","62.063","0.19184788277757853","771"
"20:46:50:126 (H:m:s:ms)","OPERA","31.009","0.26273463055830143","881"
"21:7:10:303 (H:m:s:ms)","GENERIC","62.067","0.18787946943411685","707"
"20:46:52:121 (H:m:s:ms)","GENERIC","62.021","0.26452364333868356","892"
"21:7:16:363 (H:m:s:ms)","GENERIC","62.013","0.1927094491561125","650"
"21:39:17:575 (H:m:s:ms)","GENERIC","62.085","0.20521771960029017","439"
"20:46:57:721 (H:m:s:ms)","OPERA","31.009","0.2660499137860344","284"
"21:7:22:105 (H:m:s:ms)","AMBULANCE","31.037","0.19382292344708654","906"
"21:39:11:515 (H:m:s:ms)","GENERIC","62.049","0.20716962131548886","495"
"20:46:58:181 (H:m:s:ms)","GENERIC","62.061","0.2658933324163539","833"
"21:7:22:424 (H:m:s:ms)","GENERIC","62.027","0.19416737547209262","596"
"20:47:4:242 (H:m:s:ms)","GENERIC","62.049","0.26096276137806773","766"
"21:7:28:484 (H:m:s:ms)","GENERIC","62.077","0.1945724341251868","528"
"20:47:5:316 (H:m:s:ms)","OPERA","31.009","0.2611500481346886","687"
"21:7:34:545 (H:m:s:ms)","GENERIC","31.037","0.19230083987722213","460"
"20:47:10:303 (H:m:s:ms)","GENERIC","62.055","0.26029841021613526","705"
"20:47:12:911 (H:m:s:ms)","OPERA","31.009","0.2601766709925312","1093"
"21:7:40:606 (H:m:s:ms)","GENERIC","62.085","0.18926329819590032","402"
"21:7:46:666 (H:m:s:ms)","GENERIC","62.057","0.18738846670555168","340"
"20:47:16:363 (H:m:s:ms)","GENERIC","62.045","0.2608093435860905","640"
"21:7:52:727 (H:m:s:ms)","GENERIC","62.097","0.19291316334808573","287"
"20:47:20:506 (H:m:s:ms)","OPERA","31.009","0.26075651405338207","497"
"21:7:53:684 (H:m:s:ms)","AMBULANCE","31.014","0.19422082150052622","326"
"20:47:22:424 (H:m:s:ms)","GENERIC","62.041","0.26197787817706686","583"
"21:7:58:787 (H:m:s:ms)","GENERIC","62.091","0.19410502135770522","224"
"20:47:28:101 (H:m:s:ms)","OPERA","31.009","0.2638828463397211","902"
"21:8:4:848 (H:m:s:ms)","GENERIC","62.077","0.19660903364197702","167"
"20:47:28:484 (H:m:s:ms)","GENERIC","62.081","0.26373850887261135","533"
"21:8:10:909 (H:m:s:ms)","GENERIC","62.023","0.1916983640173415","1104"
"20:47:34:545 (H:m:s:ms)","GENERIC","62.083","0.2595702911647506","467"
"21:8:16:969 (H:m:s:ms)","GENERIC","62.093","0.18951027867132142","1037"
"21:40:0:0 (H:m:s:ms)","GENERIC","62.141","0.2045117656876704","1527"
"20:47:35:696 (H:m:s:ms)","OPERA","31.008","0.26258184367916987","305"
"21:8:23:30 (H:m:s:ms)","GENERIC","62.101","0.19575175861182534","979"
"20:47:40:606 (H:m:s:ms)","GENERIC","62.067","0.2572087524932139","402"
"21:8:25:263 (H:m:s:ms)","AMBULANCE","31.049","0.19663230946231408","836"
"20:47:43:291 (H:m:s:ms)","OPERA","31.008","0.258449705251553","713"
"20:47:46:666 (H:m:s:ms)","GENERIC","62.075","0.25809067171731637","340"
"21:8:29:90 (H:m:s:ms)","GENERIC","62.051","0.19777019210035846","958"
"21:8:35:151 (H:m:s:ms)","GENERIC","62.073","0.19535623024736934","864"
"20:47:50:886 (H:m:s:ms)","OPERA","31.008","0.25781695121443143","120"
"21:8:41:212 (H:m:s:ms)","GENERIC","62.135","0.19505945824468485","797"
"20:47:52:727 (H:m:s:ms)","GENERIC","62.107","0.26047749267550224","287"
"21:8:47:272 (H:m:s:ms)","GENERIC","62.103","0.1920300840989844","740"
"20:30:0:0 (H:m:s:ms)","GENERIC","62.081","0.1896013019869448","1050"
"20:47:58:481 (H:m:s:ms)","OPERA","31.008","0.260003152136809","528"
"21:8:53:333 (H:m:s:ms)","GENERIC","62.043","0.1925075011128757","678"
"20:30:0:0 (H:m:s:ms)","GENERIC","62.071","0.1895086742337541","1065"
"20:47:58:787 (H:m:s:ms)","GENERIC","62.123","0.2598330437868121","233"
"21:8:56:842 (H:m:s:ms)","AMBULANCE","31.069","0.19590419060146086","174"
"20:30:6:60 (H:m:s:ms)","GENERIC","62.095","0.1869394213686963","949"
"20:48:4:848 (H:m:s:ms)","GENERIC","62.109","0.2585689329587492","169"
"21:8:59:393 (H:m:s:ms)","GENERIC","62.047","0.19596582819565347","658"
"20:30:12:121 (H:m:s:ms)","GENERIC","62.067","0.18661089073600856","887"
"20:48:6:75 (H:m:s:ms)","OPERA","31.008","0.2597353709515364","928"
"21:9:5:454 (H:m:s:ms)","GENERIC","62.147","0.1953268795027017","552"
"20:30:18:181 (H:m:s:ms)","GENERIC","62.063","0.18553235894463105","832"
"20:48:10:909 (H:m:s:ms)","GENERIC","62.023","0.25866939163228303","1098"
"21:9:11:515 (H:m:s:ms)","GENERIC","62.085","0.19597540644897718","499"
"20:30:24:242 (H:m:s:ms)","GENERIC","62.115","0.18017524279334446","772"
"20:48:13:670 (H:m:s:ms)","OPERA","31.008","0.26158171659988094","336"
"21:9:17:575 (H:m:s:ms)","GENERIC","62.053","0.19558302876176056","438"
"20:30:30:303 (H:m:s:ms)","GENERIC","62.073","0.17925592642418017","707"
"20:48:16:969 (H:m:s:ms)","GENERIC","62.093","0.25567605292938855","1037"
"20:30:36:363 (H:m:s:ms)","GENERIC","62.123","0.1802850092839637","652"
"20:48:21:265 (H:m:s:ms)","OPERA","31.008","0.2556644798245398","737"
"20:30:42:424 (H:m:s:ms)","GENERIC","62.123","0.1798743116125869","585"
"20:30:48:484 (H:m:s:ms)","GENERIC","62.117","0.17750523836064086","526"
"21:9:23:636 (H:m:s:ms)","GENERIC","62.085","0.1956494008914999","372"
"21:9:28:421 (H:m:s:ms)","AMBULANCE","31.048","0.1995697768182031","589"
"20:48:23:30 (H:m:s:ms)","GENERIC","62.057","0.2593505455577556","976"
"21:9:29:696 (H:m:s:ms)","GENERIC","62.099","0.19960355514216147","354"
"20:48:28:860 (H:m:s:ms)","OPERA","31.009","0.26137021160609797","142"
"21:9:35:757 (H:m:s:ms)","GENERIC","62.075","0.20001509454462224","255"
"20:30:54:545 (H:m:s:ms)","GENERIC","62.061","0.1780890632269626","471"
"20:48:29:90 (H:m:s:ms)","GENERIC","62.059","0.26194393610321137","956"
"21:9:41:818 (H:m:s:ms)","GENERIC","62.027","0.20456327100793623","192"
"20:31:0:606 (H:m:s:ms)","GENERIC","62.115","0.17793041971025764","406"
"20:48:35:151 (H:m:s:ms)","GENERIC","62.061","0.25891865917349144","867"
"21:9:47:878 (H:m:s:ms)","GENERIC","62.117","0.20748761971210633","1135"
"20:31:6:666 (H:m:s:ms)","GENERIC","62.085","0.17791756810174084","344"
"20:48:36:455 (H:m:s:ms)","OPERA","31.008","0.2604446304008222","552"
"21:9:53:939 (H:m:s:ms)","GENERIC","62.051","0.20737842363663717","1088"
"20:31:12:727 (H:m:s:ms)","GENERIC","62.097","0.18015762252006434","287"
"20:48:41:212 (H:m:s:ms)","GENERIC","62.137","0.2578333657682061","794"
"21:10:0:0 (H:m:s:ms)","AMBULANCE","31.014","0.20513592136566813","1049"
"20:31:18:787 (H:m:s:ms)","GENERIC","62.021","0.18301095149428928","223"
"20:48:44:50 (H:m:s:ms)","OPERA","31.009","0.25840091723678765","954"
"21:10:0:0 (H:m:s:ms)","GENERIC","62.091","0.20580756056478425","1062"
"20:31:24:848 (H:m:s:ms)","GENERIC","62.027","0.18299903669654816","167"
"20:48:47:272 (H:m:s:ms)","GENERIC","62.101","0.25829268613674944","740"
"21:10:0:0 (H:m:s:ms)","GENERIC","62.059","0.20590524976228897","1075"
"20:31:30:909 (H:m:s:ms)","GENERIC","62.111","0.18148545047641876","1102"
"20:48:51:645 (H:m:s:ms)","OPERA","31.008","0.25548326208217326","358"
"20:31:36:969 (H:m:s:ms)","GENERIC","62.057","0.17912424881036576","1039"
"20:48:53:333 (H:m:s:ms)","GENERIC","62.061","0.25527812212716106","679"
"20:31:43:30 (H:m:s:ms)","GENERIC","62.123","0.18069130434291078","980"
"20:31:49:90 (H:m:s:ms)","GENERIC","62.017","0.17816799546726736","956"
"20:48:59:240 (H:m:s:ms)","OPERA","31.009","0.2569778136900745","801"
"20:48:59:393 (H:m:s:ms)","GENERIC","62.039","0.25754189128749105","661"
"20:31:55:151 (H:m:s:ms)","GENERIC","62.033","0.17709429107324626","862"
"20:49:5:454 (H:m:s:ms)","GENERIC","62.107","0.2534126382769118","554"
"20:32:1:212 (H:m:s:ms)","GENERIC","62.055","0.17718913620978993","805"
"20:49:6:835 (H:m:s:ms)","OPERA","31.008","0.2541244408465333","173"
"20:32:7:272 (H:m:s:ms)","GENERIC","62.189","0.17924291181188826","737"
"20:49:11:515 (H:m:s:ms)","GENERIC","62.067","0.254753474442559","497"
"20:32:13:333 (H:m:s:ms)","GENERIC","62.139","0.18155741983326018","675"
"20:49:14:430 (H:m:s:ms)","OPERA","31.007","0.25719817792832056","574"
"20:32:19:393 (H:m:s:ms)","GENERIC","62.169","0.17889901607658215","650"
"20:49:17:575 (H:m:s:ms)","GENERIC","62.047","0.25748555776633403","439"
"20:32:25:454 (H:m:s:ms)","GENERIC","62.141","0.1760407417881567","556"
"20:49:22:25 (H:m:s:ms)","OPERA","31.009","0.2528838195442695","979"
"20:32:31:515 (H:m:s:ms)","GENERIC","62.019","0.17787049397065835","499"
"20:49:23:636 (H:m:s:ms)","GENERIC","62.091","0.25346274959836923","371"
"20:32:37:575 (H:m:s:ms)","GENERIC","62.035","0.18092764513113113","438"
"20:49:29:620 (H:m:s:ms)","OPERA","31.008","0.25355026356235366","437"
"20:32:43:636 (H:m:s:ms)","GENERIC","62.105","0.18316296259668768","377"
"20:32:49:696 (H:m:s:ms)","GENERIC","62.169","0.18183115592740529","350"
"20:49:29:696 (H:m:s:ms)","GENERIC","62.063","0.25337202734578906","373"
"20:49:35:757 (H:m:s:ms)","GENERIC","62.049","0.24987381652955204","257"
"20:32:55:757 (H:m:s:ms)","GENERIC","62.063","0.183379733350107","252"
"20:49:41:818 (H:m:s:ms)","GENERIC","62.033","0.2521172218308132","186"
"20:33:1:818 (H:m:s:ms)","GENERIC","62.075","0.18272264577818587","194"
"20:49:44:810 (H:m:s:ms)","OPERA","31.007","0.2515529816842618","199"
"20:33:7:878 (H:m:s:ms)","GENERIC","62.049","0.18004513762261606","1138"
"20:49:47:878 (H:m:s:ms)","GENERIC","62.153","0.25020521853889266","1133"
"20:33:13:939 (H:m:s:ms)","GENERIC","62.047","0.18102069390012487","1077"
"20:49:52:405 (H:m:s:ms)","OPERA","31.009","0.2502753251976681","615"
"20:33:20:0 (H:m:s:ms)","GENERIC","62.157","0.18001722299682232","1041"
"20:49:53:939 (H:m:s:ms)","GENERIC","62.061","0.25033070903325905","1074"
"20:33:26:60 (H:m:s:ms)","GENERIC","62.073","0.17866053741117036","946"
"20:50:0:0 (H:m:s:ms)","OPERA","31.008","0.25058285411150555","1044"
"20:33:32:121 (H:m:s:ms)","GENERIC","62.073","0.17540357420401534","890"
"20:50:0:0 (H:m:s:ms)","GENERIC","62.077","0.25233936776170207","1058"
"20:33:38:181 (H:m:s:ms)","GENERIC","62.141","0.1756489615537094","832"
"20:50:0:0 (H:m:s:ms)","GENERIC","62.065","0.2534389220376723","1070"
"20:33:44:242 (H:m:s:ms)","GENERIC","62.079","0.17569351602451866","767"
"20:33:50:303 (H:m:s:ms)","GENERIC","62.075","0.17828599950409513","709"
"20:50:6:60 (H:m:s:ms)","GENERIC","62.097","0.24908189870780773","950"
"20:50:12:121 (H:m:s:ms)","GENERIC","62.049","0.24716183244488346","888"
"20:33:56:363 (H:m:s:ms)","GENERIC","62.073","0.1776728479820726","648"
"20:50:18:181 (H:m:s:ms)","GENERIC","62.057","0.24835186364054096","821"
"20:34:2:424 (H:m:s:ms)","GENERIC","62.057","0.17931513674365618","588"
"20:50:24:242 (H:m:s:ms)","GENERIC","62.107","0.24146729255671043","772"
"20:10:0:0 (H:m:s:ms)","GENERIC","31.028","0.16472314984224493","1010"
"20:34:8:484 (H:m:s:ms)","GENERIC","62.061","0.17714193843500373","528"
"20:50:30:303 (H:m:s:ms)","GENERIC","62.081","0.23792597278087751","707"
"20:10:0:0 (H:m:s:ms)","GENERIC","62.045","0.1650646171931707","1060"
"20:34:14:545 (H:m:s:ms)","GENERIC","62.041","0.17314865662942666","467"
"20:50:36:363 (H:m:s:ms)","GENERIC","62.129","0.23719429130601583","649"
"20:10:6:60 (H:m:s:ms)","GENERIC","62.089","0.16189917661319142","950"
"20:34:20:606 (H:m:s:ms)","GENERIC","62.051","0.1604689629185796","400"
"20:50:42:424 (H:m:s:ms)","GENERIC","62.101","0.23093944549709516","585"
"20:10:12:121 (H:m:s:ms)","GENERIC","62.093","0.16149137222752444","887"
"20:34:26:666 (H:m:s:ms)","GENERIC","62.089","0.16202444861008303","347"
"20:50:48:484 (H:m:s:ms)","GENERIC","62.077","0.23037076694711517","529"
"20:10:18:181 (H:m:s:ms)","GENERIC","62.043","0.15863625141124513","834"
"20:34:32:727 (H:m:s:ms)","GENERIC","62.107","0.1621170978292698","288"
"20:50:54:545 (H:m:s:ms)","GENERIC","62.065","0.2295060035710235","472"
"20:10:24:242 (H:m:s:ms)","GENERIC","62.131","0.1590682550941533","771"
"20:34:38:787 (H:m:s:ms)","GENERIC","62.125","0.16142000843618848","217"
"20:51:0:606 (H:m:s:ms)","GENERIC","62.085","0.22712666888698038","402"
"20:10:30:303 (H:m:s:ms)","GENERIC","62.115","0.15964292886578318","706"
"20:34:44:848 (H:m:s:ms)","GENERIC","62.063","0.1572736340045541","167"
"20:10:36:363 (H:m:s:ms)","GENERIC","62.099","0.16047467593511974","651"
"20:34:50:909 (H:m:s:ms)","GENERIC","62.085","0.16132357451200266","1105"
"20:10:42:424 (H:m:s:ms)","GENERIC","62.147","0.15473146580364933","585"
"20:10:48:484 (H:m:s:ms)","GENERIC","62.123","0.15513469905905","527"
"20:51:6:666 (H:m:s:ms)","GENERIC","62.113","0.22169071316367964","344"
"20:51:12:727 (H:m:s:ms)","GENERIC","62.069","0.22375931847490346","287"
"20:34:56:969 (H:m:s:ms)","GENERIC","62.145","0.16232120863897048","1039"
"20:51:18:787 (H:m:s:ms)","GENERIC","62.051","0.22374484529851651","218"
"20:35:3:30 (H:m:s:ms)","GENERIC","62.105","0.16647956065685782","982"
"20:51:24:848 (H:m:s:ms)","GENERIC","62.037","0.2216196011128589","162"
"20:10:54:545 (H:m:s:ms)","GENERIC","62.073","0.15046468388515757","471"
"20:35:9:90 (H:m:s:ms)","GENERIC","62.071","0.16626105945759492","953"
"20:51:30:909 (H:m:s:ms)","GENERIC","62.127","0.22221631906825645","1100"
"20:11:0:606 (H:m:s:ms)","GENERIC","62.107","0.15341679194770522","403"
"20:35:15:151 (H:m:s:ms)","GENERIC","62.109","0.1685900347697901","861"
"20:51:36:969 (H:m:s:ms)","GENERIC","62.037","0.21865391074267013","1038"
"20:11:6:666 (H:m:s:ms)","GENERIC","62.037","0.15510460722639316","342"
"20:35:21:212 (H:m:s:ms)","GENERIC","62.027","0.16714921126484933","802"
"20:51:43:30 (H:m:s:ms)","GENERIC","62.131","0.21454524622897012","982"
"20:11:12:727 (H:m:s:ms)","GENERIC","62.109","0.15610947621699048","287"
"20:35:27:272 (H:m:s:ms)","GENERIC","62.183","0.16653407208007415","739"
"20:51:49:90 (H:m:s:ms)","GENERIC","62.011","0.21670710797110584","959"
"20:11:18:787 (H:m:s:ms)","GENERIC","62.031","0.1574951496578864","227"
"20:35:33:333 (H:m:s:ms)","GENERIC","62.055","0.16548318602906786","681"
"20:51:55:151 (H:m:s:ms)","GENERIC","62.033","0.2152400351718867","860"
"20:11:24:848 (H:m:s:ms)","GENERIC","62.097","0.1582993475933479","175"
"20:35:39:393 (H:m:s:ms)","GENERIC","62.055","0.16841405084712316","653"
"20:52:1:212 (H:m:s:ms)","GENERIC","62.039","0.21237099213422714","797"
"20:11:30:909 (H:m:s:ms)","GENERIC","62.149","0.15883719499885207","1100"
"20:35:45:454 (H:m:s:ms)","GENERIC","62.097","0.17142352883266382","562"
"20:11:36:969 (H:m:s:ms)","GENERIC","62.065","0.15882185518812175","1038"
"20:35:51:515 (H:m:s:ms)","GENERIC","62.075","0.1745830034336178","497"
"20:11:43:30 (H:m:s:ms)","GENERIC","62.119","0.15956896847858112","980"
"20:11:49:90 (H:m:s:ms)","GENERIC","62.051","0.16083559260252817","961"
"20:0:54:545 (H:m:s:ms)","GENERIC","31.044","0.07029541811550473","470"
"20:1:0:606 (H:m:s:ms)","GENERIC","31.046","0.07075539066658834","406"
"20:1:6:666 (H:m:s:ms)","GENERIC","31.027","0.07498365499626225","343"
"20:1:12:727 (H:m:s:ms)","GENERIC","31.046","0.07797279186890922","287"
"20:1:18:787 (H:m:s:ms)","GENERIC","31.028","0.08005354449388873","227"
"20:1:24:848 (H:m:s:ms)","GENERIC","31.047","0.08160760494283577","166"
"20:1:30:909 (H:m:s:ms)","GENERIC","31.082","0.0871410396957741","1101"
"20:1:36:969 (H:m:s:ms)","GENERIC","31.031","0.09163207497280942","1040"
"20:1:43:30 (H:m:s:ms)","GENERIC","31.06","0.09222649614130786","982"
"20:1:49:90 (H:m:s:ms)","GENERIC","31.026","0.09902378864697814","934"
"20:35:57:575 (H:m:s:ms)","GENERIC","62.133","0.17236411838633148","440"
"20:36:3:636 (H:m:s:ms)","GENERIC","62.037","0.17333139189594735","381"
"20:11:55:151 (H:m:s:ms)","GENERIC","62.033","0.16066974505947565","862"
"20:36:9:696 (H:m:s:ms)","GENERIC","62.099","0.17366685783264574","356"
"20:12:1:212 (H:m:s:ms)","GENERIC","62.061","0.16543561574538726","800"
"20:36:15:757 (H:m:s:ms)","GENERIC","62.043","0.18154910571347618","252"
"20:12:7:272 (H:m:s:ms)","GENERIC","62.155","0.1714490866208179","738"
"20:36:21:818 (H:m:s:ms)","GENERIC","62.071","0.17989107128203627","195"
"20:12:13:333 (H:m:s:ms)","GENERIC","62.105","0.17186376576874066","679"
"20:36:27:878 (H:m:s:ms)","GENERIC","62.077","0.18002428096186004","1135"
"20:12:19:393 (H:m:s:ms)","GENERIC","62.129","0.16967502825937017","656"
"20:36:33:939 (H:m:s:ms)","GENERIC","62.067","0.17980835216313168","1071"
"20:12:25:454 (H:m:s:ms)","GENERIC","62.133","0.16929306866271285","555"
"20:36:40:0 (H:m:s:ms)","GENERIC","62.091","0.1805276371834329","1049"
"20:12:31:515 (H:m:s:ms)","GENERIC","31.015","0.17476889045028468","498"
"20:36:46:60 (H:m:s:ms)","GENERIC","62.055","0.17930405104444685","950"
"20:12:37:575 (H:m:s:ms)","GENERIC","62.045","0.17923042183027296","438"
"20:36:52:121 (H:m:s:ms)","GENERIC","62.025","0.17760413202136172","895"
"20:12:43:636 (H:m:s:ms)","GENERIC","62.119","0.1721521964233392","373"
"20:12:49:696 (H:m:s:ms)","GENERIC","62.137","0.169367718781638","358"
"20:1:55:151 (H:m:s:ms)","GENERIC","31.031","0.1010432913729833","861"
"20:2:1:212 (H:m:s:ms)","GENERIC","31.037","0.10417411977730244","802"
"20:2:7:272 (H:m:s:ms)","GENERIC","31.071","0.10883881770004641","737"
"20:2:13:333 (H:m:s:ms)","GENERIC","31.046","0.10965781534908839","678"
"20:2:19:393 (H:m:s:ms)","GENERIC","31.057","0.11014103040613571","634"
"20:2:25:454 (H:m:s:ms)","GENERIC","31.057","0.1104034597788007","556"
"20:2:31:515 (H:m:s:ms)","GENERIC","31.028","0.12029971862007642","529"
"20:2:37:575 (H:m:s:ms)","GENERIC","31.017","0.12418094614921632","440"
"20:2:43:636 (H:m:s:ms)","GENERIC","31.063","0.12521840136876972","373"
"20:2:49:696 (H:m:s:ms)","GENERIC","31.06","0.12524071053077276","334"
"20:36:58:181 (H:m:s:ms)","GENERIC","62.049","0.1831095441770225","830"
"20:37:4:242 (H:m:s:ms)","GENERIC","62.035","0.17763114130606067","774"
"20:12:55:757 (H:m:s:ms)","GENERIC","62.067","0.17459145844542895","254"
"20:37:10:303 (H:m:s:ms)","GENERIC","62.063","0.17540895109305057","707"
"20:13:1:818 (H:m:s:ms)","GENERIC","62.061","0.17425547270425656","195"
"20:37:16:363 (H:m:s:ms)","GENERIC","62.047","0.1784664384623205","651"
"20:13:7:878 (H:m:s:ms)","GENERIC","62.059","0.17118823602464883","1138"
"20:37:22:424 (H:m:s:ms)","GENERIC","62.045","0.17553353772975114","590"
"20:13:13:939 (H:m:s:ms)","GENERIC","62.035","0.17928687176154348","1070"
"20:37:28:484 (H:m:s:ms)","GENERIC","62.093","0.1752715934273066","528"
"20:13:20:0 (H:m:s:ms)","GENERIC","62.135","0.18026230149650846","1042"
"20:37:34:545 (H:m:s:ms)","GENERIC","62.095","0.170227831254585","464"
"20:13:26:60 (H:m:s:ms)","GENERIC","62.093","0.17942963997471184","947"
"20:37:40:606 (H:m:s:ms)","GENERIC","62.057","0.17125954137899113","402"
"20:13:32:121 (H:m:s:ms)","GENERIC","62.061","0.17972034833524714","890"
"20:37:46:666 (H:m:s:ms)","GENERIC","62.087","0.17024191923185295","341"
"20:13:38:181 (H:m:s:ms)","GENERIC","62.147","0.18307165559128843","832"
"20:37:52:727 (H:m:s:ms)","GENERIC","62.117","0.17122349717774618","286"
"20:13:44:242 (H:m:s:ms)","GENERIC","62.073","0.18304549024440392","769"
"20:13:50:303 (H:m:s:ms)","GENERIC","62.041","0.18253298526986445","708"
"20:2:55:757 (H:m:s:ms)","GENERIC","31.037","0.12724575882216857","255"
"20:3:1:818 (H:m:s:ms)","GENERIC","31.036","0.12804408148302748","196"
"20:3:7:878 (H:m:s:ms)","GENERIC","31.035","0.12845168552242134","138"
"20:3:13:939 (H:m:s:ms)","GENERIC","31.015","0.13516736649025857","1078"
"20:3:20:0 (H:m:s:ms)","GENERIC","31.067","0.1378202286850165","1005"
"20:3:26:60 (H:m:s:ms)","GENERIC","31.055","0.13842287968755512","947"
"20:3:32:121 (H:m:s:ms)","GENERIC","31.036","0.14019753277305974","891"
"20:3:38:181 (H:m:s:ms)","GENERIC","31.074","0.144654152627993","833"
"20:3:44:242 (H:m:s:ms)","GENERIC","31.031","0.144797744501302","772"
"20:3:50:303 (H:m:s:ms)","GENERIC","31.021","0.14634143156373364","705"
"20:37:58:787 (H:m:s:ms)","GENERIC","62.129","0.16981033306590324","222"
"20:38:4:848 (H:m:s:ms)","GENERIC","62.113","0.17100450198969608","169"
"20:13:56:363 (H:m:s:ms)","GENERIC","62.083","0.18249114243812217","646"
"20:38:10:909 (H:m:s:ms)","GENERIC","62.031","0.1732533448121799","1103"
"20:14:2:424 (H:m:s:ms)","GENERIC","62.073","0.18345572413612465","588"
"20:38:16:969 (H:m:s:ms)","GENERIC","62.091","0.17215942611092028","1039"
"20:14:8:484 (H:m:s:ms)","GENERIC","62.061","0.18132664031628126","529"
"20:38:23:30 (H:m:s:ms)","GENERIC","62.035","0.17356508360609954","977"
"20:14:14:545 (H:m:s:ms)","GENERIC","62.067","0.17701282040848104","469"
"20:38:29:90 (H:m:s:ms)","GENERIC","62.059","0.17531077582494278","954"
"20:14:20:606 (H:m:s:ms)","GENERIC","62.073","0.17797039109990934","406"
"20:38:35:151 (H:m:s:ms)","GENERIC","62.063","0.17132602318203902","865"
"20:14:26:666 (H:m:s:ms)","GENERIC","62.101","0.18152058948935518","346"
"20:38:41:212 (H:m:s:ms)","GENERIC","62.131","0.1717323987087673","795"
"20:14:32:727 (H:m:s:ms)","GENERIC","62.091","0.18239193712790755","288"
"20:38:47:272 (H:m:s:ms)","GENERIC","62.101","0.1719968308273492","741"
"20:14:38:787 (H:m:s:ms)","GENERIC","62.137","0.18181781565022825","218"
"20:38:53:333 (H:m:s:ms)","GENERIC","62.085","0.16705439922316018","679"
"20:14:44:848 (H:m:s:ms)","GENERIC","62.065","0.18042468230823663","167"
"20:14:50:909 (H:m:s:ms)","GENERIC","62.059","0.18081724436611812","1101"
"20:3:56:363 (H:m:s:ms)","GENERIC","31.053","0.14668821537250173","647"
"20:4:2:424 (H:m:s:ms)","GENERIC","31.035","0.14816036780082287","587"
"20:4:8:484 (H:m:s:ms)","GENERIC","31.036","0.14877716081825768","528"
"20:4:14:545 (H:m:s:ms)","GENERIC","31.037","0.15020680104505296","469"
"20:4:20:606 (H:m:s:ms)","GENERIC","31.036","0.15158916306981404","407"
"20:4:26:666 (H:m:s:ms)","GENERIC","31.048","0.15846846470700562","346"
"20:4:32:727 (H:m:s:ms)","GENERIC","31.044","0.16224167509568","287"
"20:4:38:787 (H:m:s:ms)","GENERIC","31.066","0.1634733498700563","219"
"20:4:44:848 (H:m:s:ms)","GENERIC","31.033","0.1635938614631014","165"
"20:4:50:909 (H:m:s:ms)","GENERIC","31.023","0.16969402757230043","1104"
"20:38:59:393 (H:m:s:ms)","GENERIC","62.049","0.1671580246167115","654"
"20:39:5:454 (H:m:s:ms)","GENERIC","62.089","0.16569648004360124","553"
"20:14:56:969 (H:m:s:ms)","GENERIC","62.163","0.18167845582247785","1039"
"20:39:11:515 (H:m:s:ms)","GENERIC","62.051","0.1707093986810036","498"
"20:15:3:30 (H:m:s:ms)","GENERIC","62.105","0.18162434033385547","982"
"20:39:17:575 (H:m:s:ms)","GENERIC","62.063","0.17355084672115725","438"
"20:15:9:90 (H:m:s:ms)","GENERIC","62.061","0.18125936679781804","953"
"20:39:23:636 (H:m:s:ms)","GENERIC","62.081","0.17436975553176062","372"
"20:15:15:151 (H:m:s:ms)","GENERIC","62.109","0.18181546570751717","861"
"20:39:29:696 (H:m:s:ms)","GENERIC","62.045","0.17366802746997756","348"
"20:15:21:212 (H:m:s:ms)","GENERIC","62.023","0.186101681380098","801"
"20:39:35:757 (H:m:s:ms)","GENERIC","62.041","0.1736733934584408","256"
"20:15:27:272 (H:m:s:ms)","GENERIC","62.133","0.18488543049279604","740"
"20:39:41:818 (H:m:s:ms)","GENERIC","31.011","0.17464349198180779","197"
"20:15:33:333 (H:m:s:ms)","GENERIC","62.011","0.18245245907042865","680"
"20:39:47:878 (H:m:s:ms)","GENERIC","62.139","0.17535781679721227","1133"
"20:15:39:393 (H:m:s:ms)","GENERIC","62.051","0.18304971674634998","654"
"20:39:53:939 (H:m:s:ms)","GENERIC","62.065","0.17073803355559505","1074"
"20:15:45:454 (H:m:s:ms)","GENERIC","62.119","0.18350190065014987","561"
"20:15:51:515 (H:m:s:ms)","GENERIC","62.059","0.18400893659501322","496"
"20:4:56:969 (H:m:s:ms)","GENERIC","31.073","0.1755053734047642","1040"
"20:5:3:30 (H:m:s:ms)","GENERIC","31.049","0.1792200793278252","983"
"20:5:9:90 (H:m:s:ms)","GENERIC","31.04","0.17970306934289368","940"
"20:5:15:151 (H:m:s:ms)","GENERIC","31.066","0.1822130922556322","862"
"20:5:21:212 (H:m:s:ms)","GENERIC","31.015","0.1818439136081492","804"
"20:5:27:272 (H:m:s:ms)","GENERIC","31.055","0.1785712860375011","741"
"20:5:33:333 (H:m:s:ms)","GENERIC","31.008","0.17715304567481407","680"
"20:5:39:393 (H:m:s:ms)","GENERIC","31.024","0.18041449041617638","640"
"20:5:45:454 (H:m:s:ms)","GENERIC","31.054","0.17891486307817614","561"
"20:5:51:515 (H:m:s:ms)","GENERIC","31.034","0.18429111876219814","497"
"20:15:57:575 (H:m:s:ms)","GENERIC","62.117","0.1835491689695762","437"
"20:16:3:636 (H:m:s:ms)","GENERIC","62.033","0.1841002969762067","378"
"20:16:9:696 (H:m:s:ms)","GENERIC","62.121","0.18365878052372187","355"
"20:16:15:757 (H:m:s:ms)","GENERIC","62.081","0.18412195497407857","248"
"20:16:21:818 (H:m:s:ms)","GENERIC","62.041","0.18387274514428809","194"
"20:16:27:878 (H:m:s:ms)","GENERIC","62.103","0.18596735810312195","1134"
"20:16:33:939 (H:m:s:ms)","GENERIC","62.083","0.18301474345295513","1074"
"20:16:40:0 (H:m:s:ms)","GENERIC","62.051","0.18475236010827062","1046"
"20:16:46:60 (H:m:s:ms)","GENERIC","62.039","0.18375518251265924","953"
"20:16:52:121 (H:m:s:ms)","GENERIC","62.053","0.18375885337747472","894"
"20:5:57:575 (H:m:s:ms)","GENERIC","31.049","0.17894991044836747","439"
"20:6:3:636 (H:m:s:ms)","GENERIC","31.025","0.17993531482064612","383"
"20:6:9:696 (H:m:s:ms)","GENERIC","31.061","0.17985675680203528","344"
"20:6:15:757 (H:m:s:ms)","GENERIC","31.041","0.1843537789323969","251"
"20:6:21:818 (H:m:s:ms)","GENERIC","31.018","0.18432527267045762","196"
"20:6:27:878 (H:m:s:ms)","GENERIC","31.058","0.1832296519606936","135"
"20:6:33:939 (H:m:s:ms)","GENERIC","31.048","0.18201533427566322","1073"
"20:6:40:0 (H:m:s:ms)","GENERIC","31.021","0.18270152051746122","1012"
"20:6:46:60 (H:m:s:ms)","GENERIC","31.022","0.1825770248402662","952"
"20:6:52:121 (H:m:s:ms)","GENERIC","31.029","0.1799087944239294","894"
"20:16:58:181 (H:m:s:ms)","GENERIC","62.045","0.18907172325101018","829"
"20:17:4:242 (H:m:s:ms)","GENERIC","62.043","0.1885160618503759","772"
"20:17:10:303 (H:m:s:ms)","GENERIC","62.079","0.18321866968886955","708"
"20:17:16:363 (H:m:s:ms)","GENERIC","62.065","0.18461080772974844","651"
"20:17:22:424 (H:m:s:ms)","GENERIC","62.027","0.18450623389351822","589"
"20:17:28:484 (H:m:s:ms)","GENERIC","62.077","0.18975433887650903","529"
"20:17:34:545 (H:m:s:ms)","GENERIC","62.113","0.18558763328388847","466"
"20:17:40:606 (H:m:s:ms)","GENERIC","62.017","0.1819133482474095","403"
"20:17:46:666 (H:m:s:ms)","GENERIC","62.055","0.18162498521636694","342"
"20:17:52:727 (H:m:s:ms)","GENERIC","62.101","0.18794892430673782","287"
"20:6:58:181 (H:m:s:ms)","GENERIC","31.023","0.17952561784730342","835"
"20:7:4:242 (H:m:s:ms)","GENERIC","31.023","0.17823144681351466","775"
"20:7:10:303 (H:m:s:ms)","GENERIC","31.043","0.1762912572277649","708"
"20:7:16:363 (H:m:s:ms)","GENERIC","31.033","0.17847888612527021","650"
"20:7:22:424 (H:m:s:ms)","GENERIC","31.017","0.17836389005108091","589"
"20:7:28:484 (H:m:s:ms)","GENERIC","31.032","0.17867738927417445","528"
"20:7:34:545 (H:m:s:ms)","GENERIC","31.052","0.17351041462337288","467"
"20:7:40:606 (H:m:s:ms)","GENERIC","31.016","0.17877419885430826","401"
"20:7:46:666 (H:m:s:ms)","GENERIC","31.027","0.1788335233032691","340"
"20:7:52:727 (H:m:s:ms)","GENERIC","31.044","0.18135583832099775","285"
"20:17:58:787 (H:m:s:ms)","GENERIC","62.153","0.18205415905110886","221"
"20:18:4:848 (H:m:s:ms)","GENERIC","62.081","0.18188721530424154","167"
"20:18:10:909 (H:m:s:ms)","GENERIC","62.037","0.1840849736207413","1104"
"20:18:16:969 (H:m:s:ms)","GENERIC","62.083","0.1773303096518519","1039"
"20:18:23:30 (H:m:s:ms)","GENERIC","62.025","0.17630056651362658","984"
"20:18:29:90 (H:m:s:ms)","GENERIC","62.075","0.17736204834401323","958"
"20:18:35:151 (H:m:s:ms)","GENERIC","62.087","0.17271241489555597","865"
"20:18:41:212 (H:m:s:ms)","GENERIC","62.159","0.17618344388669296","797"
"20:18:47:272 (H:m:s:ms)","GENERIC","62.103","0.17548859164913475","740"
"20:18:53:333 (H:m:s:ms)","GENERIC","62.117","0.17493842450476102","680"
"20:7:58:787 (H:m:s:ms)","GENERIC","31.078","0.1809750297912945","221"
"20:8:4:848 (H:m:s:ms)","GENERIC","31.038","0.18344999433114315","167"
"20:8:10:909 (H:m:s:ms)","GENERIC","31.017","0.18368664976431284","1106"
"20:8:16:969 (H:m:s:ms)","GENERIC","31.036","0.1751438301995943","1037"
"20:8:23:30 (H:m:s:ms)","GENERIC","31.021","0.17425000212344588","979"
"20:8:29:90 (H:m:s:ms)","GENERIC","31.037","0.17499432728673023","957"
"20:8:35:151 (H:m:s:ms)","GENERIC","31.05","0.1744381841974878","863"
"20:8:41:212 (H:m:s:ms)","GENERIC","31.074","0.17317959528037885","796"
"20:8:47:272 (H:m:s:ms)","GENERIC","31.055","0.17380177393431165","739"
"20:8:53:333 (H:m:s:ms)","GENERIC","31.054","0.17274044604330743","679"
"20:18:59:393 (H:m:s:ms)","GENERIC","62.063","0.17499317668463468","655"
"20:19:5:454 (H:m:s:ms)","GENERIC","62.083","0.1761260785726938","553"
"20:19:11:515 (H:m:s:ms)","GENERIC","62.017","0.17882707217347218","495"
"20:19:17:575 (H:m:s:ms)","GENERIC","62.093","0.1794272391334924","437"
"20:19:23:636 (H:m:s:ms)","GENERIC","62.047","0.17964910837615883","371"
"20:19:29:696 (H:m:s:ms)","GENERIC","62.061","0.1785597835505245","351"
"20:19:35:757 (H:m:s:ms)","GENERIC","62.047","0.178811778336188","257"
"20:19:41:818 (H:m:s:ms)","GENERIC","62.055","0.1788850369818807","195"
"20:19:47:878 (H:m:s:ms)","GENERIC","62.115","0.17891031225950665","1133"
"20:19:53:939 (H:m:s:ms)","GENERIC","62.079","0.17878836090315336","1071"
"20:8:59:393 (H:m:s:ms)","GENERIC","31.032","0.17260558130149795","654"
"20:9:5:454 (H:m:s:ms)","GENERIC","31.039","0.17375530143158274","553"
"20:9:11:515 (H:m:s:ms)","GENERIC","31.021","0.17441001885563576","497"
"20:9:17:575 (H:m:s:ms)","GENERIC","31.046","0.17623035888452598","439"
"20:9:23:636 (H:m:s:ms)","GENERIC","31.025","0.17644930347081678","371"
"20:9:29:696 (H:m:s:ms)","GENERIC","31.041","0.17505418207095916","350"
"20:9:35:757 (H:m:s:ms)","GENERIC","31.033","0.17503448814306752","255"
"20:9:41:818 (H:m:s:ms)","GENERIC","31.038","0.1741577780471546","195"
"20:9:47:878 (H:m:s:ms)","GENERIC","31.066","0.17207286133197214","133"
"20:9:53:939 (H:m:s:ms)","GENERIC","31.04","0.16760734431748645","1074"
"21:40:42:424 (H:m:s:ms)","GENERIC","62.115","0.1942199723516144","582"
"21:40:36:363 (H:m:s:ms)","GENERIC","62.151","0.19511167905410212","651"
"21:40:30:303 (H:m:s:ms)","GENERIC","62.157","0.19432714486531916","705"
"21:40:24:242 (H:m:s:ms)","GENERIC","62.087","0.19422560726426336","769"
"21:40:18:181 (H:m:s:ms)","GENERIC","62.017","0.1955473690024244","831"
"21:40:12:121 (H:m:s:ms)","GENERIC","62.085","0.20036921319927814","887"
"21:40:6:60 (H:m:s:ms)","GENERIC","62.063","0.20391508969627184","950"
"21:41:0:606 (H:m:s:ms)","GENERIC","62.055","0.19255836582497857","405"
"21:40:54:545 (H:m:s:ms)","GENERIC","62.089","0.19374064559620435","470"
"21:40:48:484 (H:m:s:ms)","GENERIC","62.103","0.19233127652585888","530"
