"time (H:m:s:ms)","type","latency","utilisation","waiting"
"21:42:37:575 (H:m:s:ms)","GENERIC","156.01","0.06625661465731869","1000"
"21:42:19:393 (H:m:s:ms)","GENERIC","124.701","0.06622522081842824","1202"
"21:42:13:333 (H:m:s:ms)","GENERIC","124.23400000000001","0.06188138590504865","1280"
"21:42:7:272 (H:m:s:ms)","GENERIC","155.66899999999998","0.07784696085172528","1329"
"21:42:1:212 (H:m:s:ms)","GENERIC","124.65100000000001","0.06155852386862956","1291"
"21:41:55:151 (H:m:s:ms)","GENERIC","155.884","0.06363693939327474","1370"
"21:41:49:90 (H:m:s:ms)","GENERIC","155.362","0.06517610572652928","1444"
"21:41:43:30 (H:m:s:ms)","GENERIC","93.25","0.07141257305800394","1351"
"21:41:36:969 (H:m:s:ms)","GENERIC","125.144","0.05318968498823054","1632"
"21:42:31:515 (H:m:s:ms)","GENERIC","124.874","0.05267304461179805","1014"
"21:42:25:454 (H:m:s:ms)","GENERIC","155.25","0.05962604743845497","868"
"21:43:44:242 (H:m:s:ms)","GENERIC","124.929","0.06392642232748634","1098"
"21:43:38:181 (H:m:s:ms)","GENERIC","124.432","0.06307120454220055","1275"
"21:43:26:60 (H:m:s:ms)","GENERIC","93.124","0.06655690937659799","1370"
"20:0:0:0 (H:m:s:ms)","GENERIC","124.339","0.06034976354872344","1914"
"21:43:20:0 (H:m:s:ms)","GENERIC","155.662","0.06122018829964294","1608"
"20:0:6:60 (H:m:s:ms)","GENERIC","125.46900000000001","0.07227058178985617","1419"
"21:43:13:939 (H:m:s:ms)","GENERIC","124.25800000000001","0.0726011486063166","1580"
"20:0:12:121 (H:m:s:ms)","GENERIC","93.099","0.057272912984738265","1275"
"21:43:7:878 (H:m:s:ms)","GENERIC","124.965","0.048769420986107384","1518"
"20:0:18:181 (H:m:s:ms)","GENERIC","125.187","0.06445879725801186","1384"
"21:43:1:818 (H:m:s:ms)","GENERIC","124.814","0.08115117769994284","656"
"20:0:24:242 (H:m:s:ms)","GENERIC","93.694","0.07404952094976147","1264"
"21:42:55:757 (H:m:s:ms)","GENERIC","155.683","0.06378384900317575","880"
"20:0:30:303 (H:m:s:ms)","GENERIC","93.962","0.06350951261275618","1241"
"21:42:49:696 (H:m:s:ms)","GENERIC","125.00800000000001","0.08099454975112824","716"
"20:0:36:363 (H:m:s:ms)","GENERIC","124.43900000000001","0.09177588132392657","1047"
"21:42:43:636 (H:m:s:ms)","GENERIC","124.42099999999999","0.05438544894217347","956"
"20:0:42:424 (H:m:s:ms)","GENERIC","125.381","0.05777519111758334","1018"
"21:10:18:181 (H:m:s:ms)","GENERIC","156.212","0.06393659155492454","1364"
"20:0:48:484 (H:m:s:ms)","GENERIC","124.667","0.0781976424492938","1010"
"21:10:24:242 (H:m:s:ms)","GENERIC","124.731","0.05665186412543633","1274"
"21:10:30:303 (H:m:s:ms)","GENERIC","125.009","0.05235973178699569","1199"
"21:10:36:363 (H:m:s:ms)","GENERIC","124.31","0.071913728346434","1023"
"21:10:42:424 (H:m:s:ms)","GENERIC","156.481","0.06944615486538444","997"
"21:10:48:484 (H:m:s:ms)","GENERIC","155.636","0.07786236840707969","1065"
"21:10:54:545 (H:m:s:ms)","GENERIC","124.979","0.06032113546729915","1076"
"21:11:0:606 (H:m:s:ms)","GENERIC","155.301","0.08030628093844269","961"
"21:43:32:121 (H:m:s:ms)","GENERIC","93.15899999999999","0.05589797166791015","1259"
"21:11:6:666 (H:m:s:ms)","GENERIC","155.816","0.06022457589160455","909"
"21:11:12:727 (H:m:s:ms)","GENERIC","156.156","0.08258961486375158","788"
"21:25:51:515 (H:m:s:ms)","GENERIC","155.372","0.08955282005500938","1057"
"21:44:50:909 (H:m:s:ms)","GENERIC","155.212","0.06816804139617386","1477"
"21:44:44:848 (H:m:s:ms)","GENERIC","156.526","0.06475820731244998","784"
"21:44:38:787 (H:m:s:ms)","GENERIC","155.351","0.09244889486982044","725"
"21:44:32:727 (H:m:s:ms)","GENERIC","124.72200000000001","0.07376856266139863","644"
"21:44:26:666 (H:m:s:ms)","GENERIC","124.47800000000001","0.06805003621999835","829"
"21:44:20:606 (H:m:s:ms)","GENERIC","155.199","0.07346323503283181","733"
"21:44:14:545 (H:m:s:ms)","GENERIC","155.77100000000002","0.05761137473174261","996"
"21:44:8:484 (H:m:s:ms)","GENERIC","156.22","0.06128748952226956","1059"
"21:44:2:424 (H:m:s:ms)","GENERIC","93.136","0.03865492274345913","946"
"21:43:56:363 (H:m:s:ms)","GENERIC","186.966","0.06406243819210863","1247"
"21:11:18:787 (H:m:s:ms)","GENERIC","124.25200000000001","0.04862535837425701","746"
"21:43:50:303 (H:m:s:ms)","GENERIC","124.20500000000001","0.06542556915754957","1254"
"21:11:24:848 (H:m:s:ms)","GENERIC","124.18299999999999","0.07172420899788993","673"
"21:11:30:909 (H:m:s:ms)","GENERIC","93.281","0.066495915671882","1442"
"21:11:36:969 (H:m:s:ms)","GENERIC","125.038","0.06120344254387723","1580"
"21:11:43:30 (H:m:s:ms)","GENERIC","155.93","0.07104710396324772","1648"
"21:11:49:90 (H:m:s:ms)","GENERIC","93.171","0.055068266506966654","1469"
"21:11:55:151 (H:m:s:ms)","GENERIC","155.861","0.0690430218136786","1384"
"21:12:1:212 (H:m:s:ms)","GENERIC","155.987","0.06045179473570181","1270"
"21:12:7:272 (H:m:s:ms)","GENERIC","155.68900000000002","0.07116355147418561","1298"
"21:12:13:333 (H:m:s:ms)","GENERIC","155.324","0.06257289481424656","1316"
"21:26:27:878 (H:m:s:ms)","GENERIC","156.368","0.09540069174103892","2176"
"21:45:57:575 (H:m:s:ms)","GENERIC","156.228","0.061463262341456375","1094"
"21:26:27:341 (H:m:s:ms)","OPERA","155.657","0.06401193227995153","1174"
"21:45:51:515 (H:m:s:ms)","GENERIC","155.42","0.06072280917992871","1064"
"21:45:45:454 (H:m:s:ms)","GENERIC","125.00999999999999","0.060375181602636434","1163"
"21:45:39:393 (H:m:s:ms)","GENERIC","124.715","0.05337092242141328","1279"
"21:26:19:746 (H:m:s:ms)","OPERA","124.51400000000001","0.1084885777616873","793"
"21:26:15:757 (H:m:s:ms)","GENERIC","155.68900000000002","0.12407973754706168","840"
"21:45:33:333 (H:m:s:ms)","GENERIC","124.678","0.07264150594959756","1264"
"21:26:12:151 (H:m:s:ms)","OPERA","155.686","0.12691267450332375","1382"
"21:45:27:272 (H:m:s:ms)","GENERIC","156.151","0.06372828859545447","1235"
"21:26:9:696 (H:m:s:ms)","GENERIC","155.537","0.11482526794213528","737"
"21:45:21:212 (H:m:s:ms)","GENERIC","93.313","0.04412662922633811","1422"
"21:26:4:556 (H:m:s:ms)","OPERA","124.515","0.09871389816993043","893"
"21:45:15:151 (H:m:s:ms)","GENERIC","155.672","0.057689581538479646","1243"
"21:26:3:636 (H:m:s:ms)","GENERIC","124.95","0.07350618786300286","833"
"21:45:9:90 (H:m:s:ms)","GENERIC","155.826","0.07783235400285198","1487"
"21:12:19:393 (H:m:s:ms)","GENERIC","124.756","0.060255276077913186","1212"
"21:25:57:575 (H:m:s:ms)","GENERIC","156.161","0.06813746859746767","1600"
"21:45:3:30 (H:m:s:ms)","GENERIC","155.43599999999998","0.07093669541462798","1517"
"21:12:25:454 (H:m:s:ms)","GENERIC","124.185","0.05955931410404823","885"
"21:25:56:962 (H:m:s:ms)","OPERA","155.664","0.05452161980868653","1545"
"21:44:56:969 (H:m:s:ms)","GENERIC","124.291","0.08014179837235495","1596"
"21:12:31:515 (H:m:s:ms)","GENERIC","156.292","0.0681942373133232","966"
"21:12:37:575 (H:m:s:ms)","GENERIC","124.664","0.058688062330710444","962"
"21:12:43:636 (H:m:s:ms)","GENERIC","124.372","0.049812772415975835","921"
"21:12:49:696 (H:m:s:ms)","GENERIC","124.991","0.07638837709040455","733"
"21:12:55:757 (H:m:s:ms)","GENERIC","155.73000000000002","0.07938299822819138","799"
"21:13:1:818 (H:m:s:ms)","GENERIC","156.231","0.07545999528637956","662"
"21:13:7:878 (H:m:s:ms)","GENERIC","93.571","0.04610815990553415","1529"
"21:13:13:939 (H:m:s:ms)","GENERIC","124.239","0.04952373023463879","1605"
"21:26:21:818 (H:m:s:ms)","GENERIC","125.061","0.08389068418125795","660"
"21:27:5:316 (H:m:s:ms)","OPERA","186.946","0.1010784205107253","1257"
"21:47:4:242 (H:m:s:ms)","GENERIC","156.002","0.04151143412205048","1488"
"21:27:4:242 (H:m:s:ms)","GENERIC","155.911","0.06645266507967627","1473"
"21:46:58:181 (H:m:s:ms)","GENERIC","93.47800000000001","0.05529392940855435","1468"
"21:26:58:181 (H:m:s:ms)","GENERIC","124.66300000000001","0.08460850019588922","1537"
"21:46:52:121 (H:m:s:ms)","GENERIC","93.21000000000001","0.06628537526300401","1147"
"21:46:46:60 (H:m:s:ms)","GENERIC","155.668","0.06387121630044301","1408"
"21:46:40:0 (H:m:s:ms)","GENERIC","156.05","0.06043926296542544","1507"
"21:26:57:721 (H:m:s:ms)","OPERA","155.721","0.09086821045646047","837"
"21:26:52:121 (H:m:s:ms)","GENERIC","124.15700000000001","0.0744157161969209","1129"
"21:26:50:126 (H:m:s:ms)","OPERA","155.695","0.07663014694169065","1505"
"21:46:33:939 (H:m:s:ms)","GENERIC","155.23700000000002","0.045250753065852245","1665"
"21:26:46:60 (H:m:s:ms)","GENERIC","124.481","0.08372698611220487","1516"
"21:46:27:878 (H:m:s:ms)","GENERIC","156.315","0.06818721266638589","1644"
"21:26:42:531 (H:m:s:ms)","OPERA","155.725","0.1014207352792299","1003"
"21:46:21:818 (H:m:s:ms)","GENERIC","124.953","0.04617615129859064","763"
"21:13:20:0 (H:m:s:ms)","GENERIC","124.471","0.05373194722322258","1590"
"21:26:40:0 (H:m:s:ms)","GENERIC","124.697","0.1122592803225986","1435"
"21:46:15:757 (H:m:s:ms)","GENERIC","155.737","0.06954426772027011","912"
"21:13:26:60 (H:m:s:ms)","GENERIC","124.31700000000001","0.07480838292702703","1393"
"21:26:34:936 (H:m:s:ms)","OPERA","124.438","0.1063989730545517","2126"
"21:46:9:696 (H:m:s:ms)","GENERIC","124.451","0.06794781564700675","683"
"21:13:32:121 (H:m:s:ms)","GENERIC","155.401","0.05388707370124913","1249"
"21:26:33:939 (H:m:s:ms)","GENERIC","124.13499999999999","0.07309717999008844","1631"
"21:46:3:636 (H:m:s:ms)","GENERIC","156.308","0.08807882389795264","799"
"21:13:38:181 (H:m:s:ms)","GENERIC","124.38900000000001","0.053414775624942526","1300"
"21:13:44:242 (H:m:s:ms)","GENERIC","124.928","0.057967325715309305","1103"
"21:13:50:303 (H:m:s:ms)","GENERIC","155.25","0.07312465466703728","1270"
"21:13:56:363 (H:m:s:ms)","GENERIC","93.25","0.06980346744853227","1261"
"21:14:2:424 (H:m:s:ms)","GENERIC","93.21000000000001","0.05481951052149013","932"
"21:14:8:484 (H:m:s:ms)","GENERIC","124.821","0.039418395966965496","1105"
"21:14:14:545 (H:m:s:ms)","GENERIC","124.497","0.083564437458664","930"
"21:27:43:291 (H:m:s:ms)","OPERA","155.724","0.08077982305052964","1169"
"21:48:10:909 (H:m:s:ms)","GENERIC","155.292","0.09137790522452355","1326"
"21:27:40:606 (H:m:s:ms)","GENERIC","124.75399999999999","0.08900430070294628","953"
"21:48:4:848 (H:m:s:ms)","GENERIC","155.75","0.06645570639093534","675"
"21:27:35:696 (H:m:s:ms)","OPERA","155.691","0.09369897155572592","828"
"21:47:58:787 (H:m:s:ms)","GENERIC","155.52","0.06977216518344698","748"
"21:27:34:545 (H:m:s:ms)","GENERIC","124.81","0.06962514491795381","990"
"21:47:52:727 (H:m:s:ms)","GENERIC","156.56400000000002","0.08724155754951211","863"
"21:47:46:666 (H:m:s:ms)","GENERIC","124.79599999999999","0.029727599217663284","950"
"21:47:40:606 (H:m:s:ms)","GENERIC","124.774","0.0823594731876702","980"
"21:27:28:484 (H:m:s:ms)","GENERIC","155.716","0.09208579350916954","1651"
"21:27:28:101 (H:m:s:ms)","OPERA","155.705","0.06456289114729058","1408"
"21:27:22:424 (H:m:s:ms)","GENERIC","155.75","0.09337457965455125","1152"
"21:47:34:545 (H:m:s:ms)","GENERIC","156.254","0.08120841476109052","925"
"21:14:20:606 (H:m:s:ms)","GENERIC","124.161","0.07529998666936343","764"
"21:27:20:506 (H:m:s:ms)","OPERA","124.483","0.08996491672393055","980"
"21:47:28:484 (H:m:s:ms)","GENERIC","124.49199999999999","0.07525534677846338","1176"
"21:14:26:666 (H:m:s:ms)","GENERIC","93.24600000000001","0.05256397584128135","850"
"21:27:16:363 (H:m:s:ms)","GENERIC","124.26400000000001","0.08322598535791133","1073"
"21:47:22:424 (H:m:s:ms)","GENERIC","124.55699999999999","0.06607087615022492","1243"
"20:52:19:393 (H:m:s:ms)","GENERIC","124.737","0.05954549033013631","1228"
"21:14:32:727 (H:m:s:ms)","GENERIC","156.067","0.05420803654171306","669"
"21:27:12:911 (H:m:s:ms)","OPERA","124.481","0.0919370813534303","1640"
"21:47:16:363 (H:m:s:ms)","GENERIC","124.362","0.05636843505154088","1112"
"20:52:25:454 (H:m:s:ms)","GENERIC","124.235","0.059984897811242915","876"
"21:14:38:787 (H:m:s:ms)","GENERIC","124.212","0.07807157619805705","659"
"21:27:10:303 (H:m:s:ms)","GENERIC","124.87","0.10371577948472997","1227"
"21:47:10:303 (H:m:s:ms)","GENERIC","156.398","0.07510251685183054","1287"
"20:52:31:515 (H:m:s:ms)","GENERIC","124.847","0.05932737336256471","998"
"21:14:44:848 (H:m:s:ms)","GENERIC","156.527","0.06323481546595978","821"
"20:52:37:575 (H:m:s:ms)","GENERIC","155.956","0.06448970197437619","982"
"21:14:50:909 (H:m:s:ms)","GENERIC","93.13","0.07158606741160961","1520"
"20:52:43:636 (H:m:s:ms)","GENERIC","186.822","0.06057857809283508","948"
"21:14:56:969 (H:m:s:ms)","GENERIC","155.401","0.0766950902392956","1629"
"20:52:49:696 (H:m:s:ms)","GENERIC","156.514","0.0733371472447059","756"
"21:15:3:30 (H:m:s:ms)","GENERIC","155.454","0.06110468539008787","1466"
"20:52:55:757 (H:m:s:ms)","GENERIC","155.662","0.07041852566987757","814"
"21:15:9:90 (H:m:s:ms)","GENERIC","155.92","0.09014455354592904","1576"
"20:53:1:818 (H:m:s:ms)","GENERIC","124.87","0.06815175737725364","692"
"21:15:15:151 (H:m:s:ms)","GENERIC","155.68599999999998","0.045021616002373456","1311"
"20:53:7:878 (H:m:s:ms)","GENERIC","124.953","0.0541683242845679","1537"
"20:53:13:939 (H:m:s:ms)","GENERIC","155.31099999999998","0.07424021492246105","1578"
"21:28:21:265 (H:m:s:ms)","OPERA","155.65800000000002","0.0939313755008291","1280"
"21:49:17:575 (H:m:s:ms)","GENERIC","156.119","0.06619080548929672","989"
"21:28:16:969 (H:m:s:ms)","GENERIC","124.62700000000001","0.10638707936611672","1452"
"21:49:11:515 (H:m:s:ms)","GENERIC","156.533","0.09157734757974274","770"
"21:28:13:670 (H:m:s:ms)","OPERA","124.46000000000001","0.10535255523257801","802"
"21:49:5:454 (H:m:s:ms)","GENERIC","93.151","0.05933097183730525","1106"
"21:28:10:909 (H:m:s:ms)","GENERIC","124.23400000000001","0.09852175261778925","1362"
"21:48:59:393 (H:m:s:ms)","GENERIC","124.179","0.0571680019766555","1063"
"21:28:6:75 (H:m:s:ms)","OPERA","93.262","0.0999987904845357","1414"
"21:48:53:333 (H:m:s:ms)","GENERIC","124.885","0.03534760932400161","1128"
"21:48:47:272 (H:m:s:ms)","GENERIC","124.173","0.07360475280089494","1094"
"21:48:41:212 (H:m:s:ms)","GENERIC","124.71600000000001","0.07595326759526555","1239"
"21:28:4:848 (H:m:s:ms)","GENERIC","124.841","0.07101751150405777","953"
"21:15:21:212 (H:m:s:ms)","GENERIC","155.917","0.07906023645187166","1400"
"21:27:58:787 (H:m:s:ms)","GENERIC","124.363","0.0973959344053216","1115"
"21:15:27:272 (H:m:s:ms)","GENERIC","124.755","0.05724751104560073","1309"
"21:27:58:481 (H:m:s:ms)","OPERA","155.677","0.07489518131516702","938"
"21:48:35:151 (H:m:s:ms)","GENERIC","155.863","0.06260724300068299","1431"
"20:53:20:0 (H:m:s:ms)","GENERIC","155.636","0.06346658439954499","1607"
"21:15:33:333 (H:m:s:ms)","GENERIC","156.03199999999998","0.08751935767838157","1273"
"21:27:52:727 (H:m:s:ms)","GENERIC","156.528","0.10414925176648057","862"
"21:48:29:90 (H:m:s:ms)","GENERIC","124.321","0.0746770351587628","1565"
"20:53:26:60 (H:m:s:ms)","GENERIC","155.42000000000002","0.0774916745579791","1398"
"21:15:39:393 (H:m:s:ms)","GENERIC","156.065","0.06668650847104719","1263"
"21:27:50:886 (H:m:s:ms)","OPERA","186.965","0.10830981806660718","680"
"21:48:23:30 (H:m:s:ms)","GENERIC","124.887","0.04103612537696492","1546"
"20:53:32:121 (H:m:s:ms)","GENERIC","155.352","0.06336990753496016","1243"
"21:15:45:454 (H:m:s:ms)","GENERIC","125.03800000000001","0.04616555769216264","1201"
"21:27:46:666 (H:m:s:ms)","GENERIC","124.71600000000001","0.08134612255052213","898"
"21:48:16:969 (H:m:s:ms)","GENERIC","155.993","0.07259144488134983","1511"
"20:53:38:181 (H:m:s:ms)","GENERIC","155.565","0.07286136881511893","1285"
"21:15:51:515 (H:m:s:ms)","GENERIC","124.27799999999999","0.06025250153464905","1107"
"20:53:44:242 (H:m:s:ms)","GENERIC","124.922","0.07362247541984493","1096"
"21:15:57:575 (H:m:s:ms)","GENERIC","156.258","0.0692068181310938","1069"
"20:53:50:303 (H:m:s:ms)","GENERIC","155.299","0.06402735529237802","1271"
"21:16:3:636 (H:m:s:ms)","GENERIC","156.376","0.08104269170985262","825"
"20:53:56:363 (H:m:s:ms)","GENERIC","93.284","0.05549687904668642","1259"
"21:16:9:696 (H:m:s:ms)","GENERIC","124.486","0.0682398598928258","717"
"20:54:2:424 (H:m:s:ms)","GENERIC","155.461","0.05883742789800756","928"
"21:16:15:757 (H:m:s:ms)","GENERIC","124.666","0.07464009416397188","882"
"20:54:8:484 (H:m:s:ms)","GENERIC","156.22899999999998","0.07513592429996245","1053"
"20:54:14:545 (H:m:s:ms)","GENERIC","155.769","0.061279912904662656","945"
"21:28:59:240 (H:m:s:ms)","OPERA","155.74699999999999","0.1100132449871413","1709"
"22:10:0:0 (H:m:s:ms)","AMBULANCE","124.894","0.055781007194627426","1460"
"21:28:53:333 (H:m:s:ms)","GENERIC","156.348","0.08508605598897905","1082"
"22:6:50:526 (H:m:s:ms)","AMBULANCE","124.845","0.05757828759741338","1021"
"21:28:51:645 (H:m:s:ms)","OPERA","93.238","0.09307093226830711","855"
"22:2:37:894 (H:m:s:ms)","AMBULANCE","93.552","0.0662268379157998","441"
"21:28:47:272 (H:m:s:ms)","GENERIC","124.20599999999999","0.09139463152308179","1122"
"22:1:34:736 (H:m:s:ms)","AMBULANCE","124.859","0.05942174214554554","607"
"21:28:44:50 (H:m:s:ms)","OPERA","93.242","0.0693722827225869","1444"
"21:50:0:0 (H:m:s:ms)","GENERIC","124.987","0.06183889327218447","1690"
"21:28:41:212 (H:m:s:ms)","GENERIC","156.17","0.09759806616728275","1353"
"21:49:53:939 (H:m:s:ms)","GENERIC","156.341","0.07561765835922368","1556"
"21:49:47:878 (H:m:s:ms)","GENERIC","155.429","0.049089071299491","1706"
"21:49:41:818 (H:m:s:ms)","GENERIC","124.78200000000001","0.06176960243728608","492"
"21:16:21:818 (H:m:s:ms)","GENERIC","125.035","0.04266379669722085","756"
"21:16:27:878 (H:m:s:ms)","GENERIC","156.257","0.05237032508604184","1664"
"21:28:36:455 (H:m:s:ms)","OPERA","124.465","0.10400300780408427","1006"
"20:54:20:606 (H:m:s:ms)","GENERIC","124.235","0.06944039937830501","718"
"21:16:33:939 (H:m:s:ms)","GENERIC","155.232","0.060428042951699595","1653"
"21:28:35:151 (H:m:s:ms)","GENERIC","155.91","0.05836901604712517","1506"
"20:54:26:666 (H:m:s:ms)","GENERIC","155.686","0.06428100092325645","886"
"21:16:40:0 (H:m:s:ms)","GENERIC","124.718","0.07160040055498541","1451"
"21:28:29:90 (H:m:s:ms)","GENERIC","124.27799999999999","0.09664396139845736","1551"
"21:49:35:757 (H:m:s:ms)","GENERIC","156.029","0.0751329715652487","875"
"20:54:32:727 (H:m:s:ms)","GENERIC","124.69800000000001","0.05337441796807084","807"
"21:16:46:60 (H:m:s:ms)","GENERIC","155.65800000000002","0.07082200782446338","1499"
"21:28:28:860 (H:m:s:ms)","OPERA","124.46100000000001","0.08984067120636395","642"
"21:49:29:696 (H:m:s:ms)","GENERIC","155.812","0.05060668475991207","884"
"20:54:38:787 (H:m:s:ms)","GENERIC","155.297","0.07571746228364913","692"
"21:16:52:121 (H:m:s:ms)","GENERIC","124.14699999999999","0.05477142951648521","1136"
"21:28:23:30 (H:m:s:ms)","GENERIC","156.371","0.09130308120976191","1537"
"21:49:23:636 (H:m:s:ms)","GENERIC","155.603","0.0465447090136586","845"
"20:54:44:848 (H:m:s:ms)","GENERIC","93.601","0.04088295518740377","775"
"21:16:58:181 (H:m:s:ms)","GENERIC","124.66300000000001","0.05994421432295036","1443"
"20:54:50:909 (H:m:s:ms)","GENERIC","155.308","0.07025945322131369","1521"
"21:17:4:242 (H:m:s:ms)","GENERIC","124.642","0.07683066813337289","1435"
"20:54:56:969 (H:m:s:ms)","GENERIC","155.368","0.09482085191073056","1582"
"21:17:10:303 (H:m:s:ms)","GENERIC","156.303","0.06554684945426138","1276"
"20:55:3:30 (H:m:s:ms)","GENERIC","124.243","0.05521181721783866","1515"
"21:17:16:363 (H:m:s:ms)","GENERIC","124.262","0.05678429835254948","1086"
"20:55:9:90 (H:m:s:ms)","GENERIC","155.945","0.06784524802425257","1522"
"20:55:15:151 (H:m:s:ms)","GENERIC","155.64600000000002","0.07278803937081739","1224"
"21:29:35:757 (H:m:s:ms)","GENERIC","156.155","0.08045846521141949","897"
"21:29:29:696 (H:m:s:ms)","GENERIC","124.543","0.11035452204130998","1239"
"21:29:29:620 (H:m:s:ms)","OPERA","155.743","0.06688656387497148","893"
"21:29:23:636 (H:m:s:ms)","GENERIC","124.367","0.0901667722255316","852"
"21:29:22:25 (H:m:s:ms)","OPERA","155.747","0.09008193220794135","1471"
"21:29:17:575 (H:m:s:ms)","GENERIC","156.107","0.07414945813528276","996"
"21:29:14:430 (H:m:s:ms)","OPERA","124.495","0.09643282808870583","1082"
"21:17:22:424 (H:m:s:ms)","GENERIC","93.27199999999999","0.058696135594209164","1214"
"21:17:28:484 (H:m:s:ms)","GENERIC","124.748","0.07811918141876643","1120"
"20:55:21:212 (H:m:s:ms)","GENERIC","155.871","0.05700152854499102","1377"
"21:17:34:545 (H:m:s:ms)","GENERIC","156.212","0.07621735836113616","926"
"20:55:27:272 (H:m:s:ms)","GENERIC","124.797","0.06262019823171386","1270"
"21:17:40:606 (H:m:s:ms)","GENERIC","124.72399999999999","0.06735036305272016","978"
"21:29:11:515 (H:m:s:ms)","GENERIC","125.106","0.11445414829638079","814"
"20:55:33:333 (H:m:s:ms)","GENERIC","155.983","0.06467462816412688","1204"
"21:17:46:666 (H:m:s:ms)","GENERIC","124.70400000000001","0.054282896327677174","913"
"21:29:6:835 (H:m:s:ms)","OPERA","155.69","0.09664135304583307","759"
"20:55:39:393 (H:m:s:ms)","GENERIC","156.059","0.07477832769552216","1191"
"21:17:52:727 (H:m:s:ms)","GENERIC","125.09100000000001","0.06337372388749532","857"
"21:29:5:454 (H:m:s:ms)","GENERIC","155.397","0.04481811444487534","1125"
"20:55:45:454 (H:m:s:ms)","GENERIC","156.426","0.07386838212258935","1014"
"21:17:58:787 (H:m:s:ms)","GENERIC","124.304","0.08262154369907757","594"
"21:28:59:393 (H:m:s:ms)","GENERIC","93.122","0.06274796148580215","1118"
"20:55:51:515 (H:m:s:ms)","GENERIC","93.178","0.058934263038810386","1034"
"21:18:4:848 (H:m:s:ms)","GENERIC","124.664","0.059075593865730865","776"
"20:55:57:575 (H:m:s:ms)","GENERIC","156.222","0.04201051894393452","1079"
"21:18:10:909 (H:m:s:ms)","GENERIC","155.303","0.0660330757941177","1386"
"20:56:3:636 (H:m:s:ms)","GENERIC","156.317","0.0514928386300677","850"
"21:18:16:969 (H:m:s:ms)","GENERIC","124.679","0.0574866876052626","1593"
"20:56:9:696 (H:m:s:ms)","GENERIC","155.59","0.08060250379333044","695"
"20:56:15:757 (H:m:s:ms)","GENERIC","124.369","0.05345296953368242","744"
"21:30:6:60 (H:m:s:ms)","GENERIC","156.591","0.07467453264799874","1218"
"21:30:0:0 (H:m:s:ms)","GENERIC","125.094","0.13791809083789652","3167"
"21:30:0:0 (H:m:s:ms)","GENERIC","124.277","0.12320804764588264","2566"
"21:30:0:0 (H:m:s:ms)","OPERA","155.712","0.10629892836017389","2092"
"21:30:0:0 (H:m:s:ms)","AMBULANCE","93.563","0.058151303345622185","1620"
"21:29:53:939 (H:m:s:ms)","GENERIC","156.362","0.08942510802510974","1545"
"21:29:52:405 (H:m:s:ms)","OPERA","155.74","0.07319774980806681","1105"
"21:29:47:878 (H:m:s:ms)","GENERIC","124.26400000000001","0.07684733973564564","1679"
"21:18:23:30 (H:m:s:ms)","GENERIC","156.276","0.054311772214501904","1564"
"21:18:29:90 (H:m:s:ms)","GENERIC","186.577","0.07609973108470172","1537"
"20:56:21:818 (H:m:s:ms)","GENERIC","156.463","0.042477254993865156","703"
"21:18:35:151 (H:m:s:ms)","GENERIC","155.949","0.06149109752304393","1509"
"20:56:27:878 (H:m:s:ms)","GENERIC","124.925","0.07856804464935341","1602"
"21:18:41:212 (H:m:s:ms)","GENERIC","93.438","0.07073766756631741","1331"
"20:40:0:0 (H:m:s:ms)","OPERA","124.648","0.09228865224515342","2154"
"20:56:33:939 (H:m:s:ms)","GENERIC","155.204","0.06939248778251332","1614"
"21:18:47:272 (H:m:s:ms)","GENERIC","155.212","0.06706189118100164","1128"
"20:40:0:0 (H:m:s:ms)","GENERIC","125.093","0.09932508035447836","2811"
"20:56:40:0 (H:m:s:ms)","GENERIC","156.088","0.07537597629881494","1519"
"21:18:53:333 (H:m:s:ms)","GENERIC","156.339","0.07914643053460224","1095"
"21:29:44:810 (H:m:s:ms)","OPERA","124.471","0.0805785583583279","632"
"20:40:0:0 (H:m:s:ms)","GENERIC","124.408","0.12063306105735759","3228"
"20:56:46:60 (H:m:s:ms)","GENERIC","155.743","0.06393189326332134","1418"
"21:18:59:393 (H:m:s:ms)","GENERIC","124.142","0.0650008835003545","1042"
"21:29:41:818 (H:m:s:ms)","GENERIC","93.369","0.10117540474636802","522"
"20:40:6:60 (H:m:s:ms)","GENERIC","156.578","0.0790422617434828","1155"
"20:56:52:121 (H:m:s:ms)","GENERIC","93.137","0.05630052301101925","1126"
"21:19:5:454 (H:m:s:ms)","GENERIC","124.32300000000001","0.060741745384566614","1069"
"21:29:37:215 (H:m:s:ms)","OPERA","155.72","0.11446895765983478","1223"
"20:40:7:594 (H:m:s:ms)","OPERA","124.66","0.11281547404114234","879"
"20:56:58:181 (H:m:s:ms)","GENERIC","156.06900000000002","0.04186885968477213","1450"
"21:19:11:515 (H:m:s:ms)","GENERIC","156.535","0.0887864282337334","938"
"20:40:12:121 (H:m:s:ms)","GENERIC","124.101","0.09531648245773733","1325"
"20:57:4:242 (H:m:s:ms)","GENERIC","124.60900000000001","0.06258742276286892","1437"
"21:19:17:575 (H:m:s:ms)","GENERIC","93.441","0.06417397600849932","1006"
"20:40:15:189 (H:m:s:ms)","OPERA","124.694","0.0902209219028412","1341"
"20:57:10:303 (H:m:s:ms)","GENERIC","156.315","0.08380597946513423","1189"
"20:40:18:181 (H:m:s:ms)","GENERIC","156.148","0.09040077846720845","1405"
"20:57:16:363 (H:m:s:ms)","GENERIC","155.481","0.062704693960521","1113"
"20:40:22:784 (H:m:s:ms)","OPERA","124.726","0.10473331370854612","778"
"20:40:24:242 (H:m:s:ms)","GENERIC","124.74799999999999","0.11550112086992094","1232"
"21:30:24:242 (H:m:s:ms)","GENERIC","156.023","0.08385454461319555","1165"
"21:31:3:157 (H:m:s:ms)","AMBULANCE","93.643","0.08192063190041503","1316"
"21:31:0:606 (H:m:s:ms)","GENERIC","155.37900000000002","0.06114971434705499","989"
"21:30:54:545 (H:m:s:ms)","GENERIC","156.458","0.05975131974438393","1086"
"21:30:48:484 (H:m:s:ms)","GENERIC","155.611","0.0805744442472448","1103"
"21:30:42:424 (H:m:s:ms)","GENERIC","156.44","0.07485591906360337","923"
"21:30:36:363 (H:m:s:ms)","GENERIC","124.327","0.08929643353253162","1035"
"21:30:31:578 (H:m:s:ms)","AMBULANCE","93.659","0.07336892911096131","866"
"21:19:23:636 (H:m:s:ms)","GENERIC","124.371","0.06807637057194268","840"
"21:30:30:303 (H:m:s:ms)","GENERIC","125.019","0.0490771586998367","1198"
"21:19:29:696 (H:m:s:ms)","GENERIC","124.521","0.06618307103701164","870"
"20:57:22:424 (H:m:s:ms)","GENERIC","155.68","0.08757466333000043","1188"
"21:19:35:757 (H:m:s:ms)","GENERIC","156.11599999999999","0.08907020499242711","795"
"20:57:28:484 (H:m:s:ms)","GENERIC","124.53200000000001","0.051026772466096805","1145"
"21:19:41:818 (H:m:s:ms)","GENERIC","93.431","0.05869864380484149","528"
"20:40:30:303 (H:m:s:ms)","GENERIC","156.481","0.06379737181904284","1288"
"20:57:34:545 (H:m:s:ms)","GENERIC","156.224","0.08187124490445626","911"
"21:19:47:878 (H:m:s:ms)","GENERIC","155.357","0.05566717552287479","1687"
"20:40:30:379 (H:m:s:ms)","OPERA","93.429","0.09709338581102134","1688"
"20:57:40:606 (H:m:s:ms)","GENERIC","124.747","0.0670445644192115","961"
"21:19:53:939 (H:m:s:ms)","GENERIC","125.00200000000001","0.08976518553709603","1548"
"20:40:36:363 (H:m:s:ms)","GENERIC","124.311","0.0650673426009049","1020"
"20:57:46:666 (H:m:s:ms)","GENERIC","156.094","0.061524626391283935","896"
"21:20:0:0 (H:m:s:ms)","OPERA","155.745","0.05885927368897246","2001"
"20:40:37:974 (H:m:s:ms)","OPERA","124.627","0.10534811149282859","1581"
"20:57:52:727 (H:m:s:ms)","GENERIC","156.599","0.054114688149275704","796"
"21:20:0:0 (H:m:s:ms)","GENERIC","155.365","0.08860756688894951","2515"
"21:30:18:181 (H:m:s:ms)","GENERIC","156.071","0.08183710858813428","1383"
"20:40:42:424 (H:m:s:ms)","GENERIC","125.019","0.10997278229572827","1056"
"20:57:58:787 (H:m:s:ms)","GENERIC","186.53","0.06871482580075623","732"
"21:20:0:0 (H:m:s:ms)","GENERIC","156.482","0.11744061081010684","3102"
"21:30:12:121 (H:m:s:ms)","GENERIC","124.144","0.043850847566666705","1331"
"20:40:45:569 (H:m:s:ms)","OPERA","124.679","0.10590535432769903","940"
"20:58:4:848 (H:m:s:ms)","GENERIC","124.439","0.07817885239537163","853"
"21:20:6:60 (H:m:s:ms)","GENERIC","125.093","0.06301004536031551","1409"
"20:40:48:484 (H:m:s:ms)","GENERIC","124.449","0.10512336587576615","988"
"20:58:10:909 (H:m:s:ms)","GENERIC","155.335","0.07497878380407334","1355"
"20:40:53:164 (H:m:s:ms)","OPERA","93.42","0.10230808419472767","1246"
"20:58:16:969 (H:m:s:ms)","GENERIC","124.67699999999999","0.06646348906155139","1484"
"20:40:54:545 (H:m:s:ms)","GENERIC","156.47899999999998","0.09000181211876743","1166"
"20:41:0:606 (H:m:s:ms)","GENERIC","155.35399999999998","0.056242526980351135","955"
"21:31:18:787 (H:m:s:ms)","GENERIC","93.624","0.06342184473626462","814"
"21:31:12:727 (H:m:s:ms)","GENERIC","156.139","0.08329316642473811","759"
"21:32:1:212 (H:m:s:ms)","GENERIC","124.64","0.06706711063057307","1281"
"21:31:55:151 (H:m:s:ms)","GENERIC","124.59100000000001","0.061358630517697695","1427"
"21:31:49:90 (H:m:s:ms)","GENERIC","155.384","0.05291593116399169","1466"
"21:31:43:30 (H:m:s:ms)","GENERIC","155.968","0.07029079829427852","1627"
"21:31:36:969 (H:m:s:ms)","GENERIC","156.59799999999998","0.09945746873660669","1646"
"21:31:34:736 (H:m:s:ms)","AMBULANCE","93.56","0.09474620158632084","777"
"21:31:30:909 (H:m:s:ms)","GENERIC","124.428","0.0757758059948848","1376"
"21:31:24:848 (H:m:s:ms)","GENERIC","124.223","0.06752958479722562","680"
"20:58:23:30 (H:m:s:ms)","GENERIC","156.314","0.06481322427771123","1543"
"20:58:29:90 (H:m:s:ms)","GENERIC","155.39600000000002","0.0368518399852367","1603"
"20:41:0:759 (H:m:s:ms)","OPERA","124.691","0.11343498260282846","1307"
"20:58:35:151 (H:m:s:ms)","GENERIC","124.62899999999999","0.039508323459549806","1493"
"20:41:6:666 (H:m:s:ms)","GENERIC","124.616","0.056517592798777924","999"
"20:58:41:212 (H:m:s:ms)","GENERIC","156.064","0.03416377605229217","1418"
"20:41:8:354 (H:m:s:ms)","OPERA","93.47","0.088551573507956","1149"
"20:58:47:272 (H:m:s:ms)","GENERIC","124.173","0.06325040936315239","1118"
"20:41:12:727 (H:m:s:ms)","GENERIC","124.813","0.10496833697689631","720"
"20:58:53:333 (H:m:s:ms)","GENERIC","124.87","0.057562979564262484","1084"
"20:41:15:949 (H:m:s:ms)","OPERA","124.685","0.1134541185378022","1611"
"20:58:59:393 (H:m:s:ms)","GENERIC","155.138","0.04774836920890369","1083"
"20:41:18:787 (H:m:s:ms)","GENERIC","124.202","0.10631847976464825","731"
"20:59:5:454 (H:m:s:ms)","GENERIC","124.313","0.07382929804534755","1045"
"21:31:6:666 (H:m:s:ms)","GENERIC","124.63900000000001","0.09296319015986755","948"
"20:41:23:544 (H:m:s:ms)","OPERA","124.625","0.09523868820474754","969"
"20:59:11:515 (H:m:s:ms)","GENERIC","156.534","0.08368937811695688","813"
"20:41:24:848 (H:m:s:ms)","GENERIC","155.328","0.10040989285424491","615"
"20:59:17:575 (H:m:s:ms)","GENERIC","124.806","0.06922856005193168","999"
"20:41:30:909 (H:m:s:ms)","GENERIC","93.211","0.06271358603824158","1431"
"20:41:31:139 (H:m:s:ms)","OPERA","124.691","0.08722957649603606","1770"
"20:59:23:636 (H:m:s:ms)","GENERIC","124.44200000000001","0.044428363985445286","858"
"20:59:29:696 (H:m:s:ms)","GENERIC","124.51599999999999","0.07078667292024245","855"
"20:41:36:969 (H:m:s:ms)","GENERIC","156.586","0.06618938826728213","1555"
"20:59:35:757 (H:m:s:ms)","GENERIC","124.783","0.06037288774744834","763"
"20:41:38:734 (H:m:s:ms)","OPERA","124.652","0.10308986493821597","828"
"20:59:41:818 (H:m:s:ms)","GENERIC","124.783","0.0601959104802945","528"
"20:41:43:30 (H:m:s:ms)","GENERIC","155.95600000000002","0.10814591299672584","1676"
"20:59:47:878 (H:m:s:ms)","GENERIC","124.28399999999999","0.05333769210459321","1679"
"20:41:49:90 (H:m:s:ms)","GENERIC","124.27600000000001","0.04042421972194783","1491"
"20:59:53:939 (H:m:s:ms)","GENERIC","125.00200000000001","0.06306210989921876","1504"
"20:41:55:151 (H:m:s:ms)","GENERIC","124.595","0.06912242687393305","1419"
"21:0:0:0 (H:m:s:ms)","AMBULANCE","124.721","0.08651410493490932","1909"
"20:42:1:212 (H:m:s:ms)","GENERIC","93.374","0.04536039299087783","1322"
"21:0:0:0 (H:m:s:ms)","GENERIC","124.33","0.11250506680233695","2338"
"20:42:1:518 (H:m:s:ms)","OPERA","124.69000000000001","0.06467580712138968","1612"
"21:0:0:0 (H:m:s:ms)","GENERIC","125.072","0.12071035026662309","2934"
"20:42:7:272 (H:m:s:ms)","GENERIC","155.707","0.0835925095710262","1296"
"21:0:6:60 (H:m:s:ms)","GENERIC","125.078","0.06257099372856592","1464"
"20:42:9:113 (H:m:s:ms)","OPERA","93.47500000000001","0.1088610751882423","1371"
"20:42:13:333 (H:m:s:ms)","GENERIC","155.347","0.0981271585937796","1276"
"21:0:12:121 (H:m:s:ms)","GENERIC","93.13","0.05459273700347608","1339"
"21:0:18:181 (H:m:s:ms)","GENERIC","124.82400000000001","0.06118462134799298","1335"
"20:42:16:708 (H:m:s:ms)","OPERA","124.608","0.08971868876722383","840"
"21:0:24:242 (H:m:s:ms)","GENERIC","156.13","0.09114525571675307","1255"
"20:42:19:393 (H:m:s:ms)","GENERIC","156.027","0.0881204862078288","1187"
"21:0:30:303 (H:m:s:ms)","GENERIC","125.005","0.045078313588250554","1241"
"20:20:0:0 (H:m:s:ms)","GENERIC","124.359","0.07820968670422937","1896"
"20:42:24:303 (H:m:s:ms)","OPERA","93.493","0.0961124145633004","1180"
"21:0:31:578 (H:m:s:ms)","AMBULANCE","124.724","0.09529643602504102","884"
"20:20:0:0 (H:m:s:ms)","GENERIC","125.017","0.09162866984131444","2556"
"20:42:25:454 (H:m:s:ms)","GENERIC","93.131","0.09535317197914202","852"
"21:0:36:363 (H:m:s:ms)","GENERIC","124.36","0.1275088195174934","1068"
"20:20:6:60 (H:m:s:ms)","GENERIC","93.614","0.0603545854232239","1202"
"20:42:31:515 (H:m:s:ms)","GENERIC","124.909","0.0756395435657185","982"
"21:0:42:424 (H:m:s:ms)","GENERIC","156.467","0.06790105830060496","967"
"20:20:12:121 (H:m:s:ms)","GENERIC","124.131","0.05961781078754566","1301"
"20:42:31:898 (H:m:s:ms)","OPERA","124.702","0.09930669211922782","1206"
"21:0:48:484 (H:m:s:ms)","GENERIC","155.676","0.07487376352148485","1077"
"20:20:18:181 (H:m:s:ms)","GENERIC","156.25","0.059398447317311476","1306"
"20:42:37:575 (H:m:s:ms)","GENERIC","155.88","0.07787917512581441","950"
"21:0:54:545 (H:m:s:ms)","GENERIC","124.977","0.07997634964294471","1138"
"20:20:24:242 (H:m:s:ms)","GENERIC","156.114","0.08537903376706658","1255"
"20:42:39:493 (H:m:s:ms)","OPERA","124.68900000000001","0.10522479919883772","1019"
"21:1:0:606 (H:m:s:ms)","GENERIC","155.291","0.07128659269932176","911"
"20:20:30:303 (H:m:s:ms)","GENERIC","125.018","0.056823930910936585","1222"
"20:42:43:636 (H:m:s:ms)","GENERIC","155.591","0.09832119081334223","835"
"20:20:36:363 (H:m:s:ms)","GENERIC","124.356","0.07512598375747154","999"
"20:42:47:88 (H:m:s:ms)","OPERA","124.71300000000001","0.1024175441417753","1365"
"20:20:42:424 (H:m:s:ms)","GENERIC","125.054","0.06841909562830725","1000"
"20:20:48:484 (H:m:s:ms)","GENERIC","124.463","0.06009605457255595","1058"
"21:1:3:157 (H:m:s:ms)","AMBULANCE","124.622","0.08862251909375722","1502"
"21:1:6:666 (H:m:s:ms)","GENERIC","124.666","0.07820283517301146","935"
"20:42:49:696 (H:m:s:ms)","GENERIC","125.06","0.1110663034460188","712"
"21:1:12:727 (H:m:s:ms)","GENERIC","124.80699999999999","0.08309554499846498","705"
"20:42:54:683 (H:m:s:ms)","OPERA","124.66600000000001","0.10607388446535791","903"
"21:1:18:787 (H:m:s:ms)","GENERIC","124.238","0.03568105102462167","735"
"20:20:54:545 (H:m:s:ms)","GENERIC","156.476","0.05774704753296948","1084"
"20:42:55:757 (H:m:s:ms)","GENERIC","155.66500000000002","0.09656487211838025","750"
"21:1:24:848 (H:m:s:ms)","GENERIC","186.34","0.07503665735390129","586"
"20:21:0:606 (H:m:s:ms)","GENERIC","124.24199999999999","0.047466779163398344","959"
"20:43:1:818 (H:m:s:ms)","GENERIC","124.864","0.06474967939291601","685"
"21:1:30:909 (H:m:s:ms)","GENERIC","124.458","0.06715700094430739","1537"
"20:21:6:666 (H:m:s:ms)","GENERIC","155.796","0.05370657028244295","936"
"20:43:2:278 (H:m:s:ms)","OPERA","124.74000000000001","0.10239623533092536","1248"
"21:1:34:736 (H:m:s:ms)","AMBULANCE","93.51","0.10378790709568321","685"
"20:21:12:727 (H:m:s:ms)","GENERIC","124.85900000000001","0.062108783545387805","735"
"20:43:7:878 (H:m:s:ms)","GENERIC","124.85300000000001","0.08162833372606612","1486"
"21:1:36:969 (H:m:s:ms)","GENERIC","156.581","0.10110540978040211","1567"
"20:21:18:787 (H:m:s:ms)","GENERIC","124.2","0.07213465581454769","701"
"20:43:9:873 (H:m:s:ms)","OPERA","93.411","0.10853368806070271","737"
"21:1:43:30 (H:m:s:ms)","GENERIC","155.88","0.07039792710598693","1664"
"20:21:24:848 (H:m:s:ms)","GENERIC","155.342","0.06417707808470789","630"
"20:43:13:939 (H:m:s:ms)","GENERIC","155.335","0.08901926443634751","1598"
"21:1:49:90 (H:m:s:ms)","GENERIC","155.40800000000002","0.05449872791481048","1488"
"20:21:30:909 (H:m:s:ms)","GENERIC","124.41999999999999","0.07042489238512453","1529"
"20:43:17:468 (H:m:s:ms)","OPERA","93.463","0.08598047851388078","1003"
"20:21:36:969 (H:m:s:ms)","GENERIC","156.599","0.06280895155170636","1647"
"20:43:20:0 (H:m:s:ms)","GENERIC","155.611","0.11246720837879365","1603"
"20:21:43:30 (H:m:s:ms)","GENERIC","155.961","0.08567006605785102","1585"
"20:21:49:90 (H:m:s:ms)","GENERIC","155.411","0.04922014914823573","1475"
"20:43:25:63 (H:m:s:ms)","OPERA","93.435","0.10185294826687714","1432"
"20:43:26:60 (H:m:s:ms)","GENERIC","124.281","0.09052134668207115","1398"
"20:21:55:151 (H:m:s:ms)","GENERIC","155.818","0.07329917478569692","1405"
"20:43:32:121 (H:m:s:ms)","GENERIC","124.28800000000001","0.05502418231484363","1235"
"20:22:1:212 (H:m:s:ms)","GENERIC","124.727","0.06060579120413137","1289"
"20:43:32:658 (H:m:s:ms)","OPERA","93.481","0.08195767924548565","1204"
"20:22:7:272 (H:m:s:ms)","GENERIC","155.694","0.09315028528839482","1175"
"20:43:38:181 (H:m:s:ms)","GENERIC","124.36699999999999","0.07650810199302488","1305"
"20:22:13:333 (H:m:s:ms)","GENERIC","155.409","0.0815020259847609","1244"
"20:43:40:253 (H:m:s:ms)","OPERA","93.461","0.10139584274852846","1302"
"20:22:19:393 (H:m:s:ms)","GENERIC","156.025","0.06649812215148183","1230"
"20:43:44:242 (H:m:s:ms)","GENERIC","124.938","0.08930802651108549","1092"
"20:22:25:454 (H:m:s:ms)","GENERIC","124.189","0.050018453154503775","900"
"20:43:47:848 (H:m:s:ms)","OPERA","124.70299999999999","0.08783890950969893","628"
"20:22:31:515 (H:m:s:ms)","GENERIC","93.474","0.0445483115861062","1025"
"20:43:50:303 (H:m:s:ms)","GENERIC","124.221","0.10748448579645592","1249"
"20:22:37:575 (H:m:s:ms)","GENERIC","155.934","0.0686711815558175","968"
"20:43:55:443 (H:m:s:ms)","OPERA","124.66199999999999","0.12095197286388551","998"
"20:22:43:636 (H:m:s:ms)","GENERIC","155.647","0.07816161233459824","930"
"20:22:49:696 (H:m:s:ms)","GENERIC","125.00399999999999","0.07873483735931604","803"
"20:43:56:363 (H:m:s:ms)","GENERIC","124.68","0.09218346688053847","1004"
"20:44:2:424 (H:m:s:ms)","GENERIC","93.224","0.061823891985640256","937"
"20:22:55:757 (H:m:s:ms)","GENERIC","155.72","0.07816829097540105","822"
"20:44:3:37 (H:m:s:ms)","OPERA","93.458","0.09703923860402061","1454"
"20:23:1:818 (H:m:s:ms)","GENERIC","124.848","0.0612961979321965","681"
"20:44:8:484 (H:m:s:ms)","GENERIC","156.27","0.08548612174537841","1162"
"20:23:7:878 (H:m:s:ms)","GENERIC","124.914","0.07519149453247208","1525"
"20:44:10:632 (H:m:s:ms)","OPERA","124.69","0.09592829053034022","855"
"20:23:13:939 (H:m:s:ms)","GENERIC","124.247","0.04628422116121143","1601"
"20:44:14:545 (H:m:s:ms)","GENERIC","124.524","0.10567201152882444","803"
"20:23:20:0 (H:m:s:ms)","GENERIC","124.43","0.04774423521587673","1619"
"20:44:18:227 (H:m:s:ms)","OPERA","155.904","0.10546197169932002","1239"
"20:23:26:60 (H:m:s:ms)","GENERIC","155.461","0.07206535850292374","1440"
"20:44:20:606 (H:m:s:ms)","GENERIC","155.252","0.12209521157370569","780"
"20:23:32:121 (H:m:s:ms)","GENERIC","93.194","0.05612252971641136","1251"
"20:44:25:822 (H:m:s:ms)","OPERA","155.917","0.13107498474304188","712"
"20:23:38:181 (H:m:s:ms)","GENERIC","155.536","0.06574247547221143","1293"
"20:44:26:666 (H:m:s:ms)","GENERIC","124.402","0.12790824243667048","755"
"20:23:44:242 (H:m:s:ms)","GENERIC","124.941","0.059285614341487325","1100"
"20:23:50:303 (H:m:s:ms)","GENERIC","155.244","0.06369751700907775","1272"
"20:44:32:727 (H:m:s:ms)","GENERIC","124.34","0.06642908980992532","829"
"20:44:33:417 (H:m:s:ms)","OPERA","124.715","0.10303041776752514","1128"
"20:23:56:363 (H:m:s:ms)","GENERIC","93.57","0.06511796107116029","986"
"20:44:38:787 (H:m:s:ms)","GENERIC","155.352","0.11302129256651232","748"
"20:24:2:424 (H:m:s:ms)","GENERIC","124.293","0.06933202075715299","889"
"20:44:41:12 (H:m:s:ms)","OPERA","93.488","0.10407578627070321","1430"
"20:24:8:484 (H:m:s:ms)","GENERIC","156.175","0.05685444730067229","1058"
"20:44:44:848 (H:m:s:ms)","GENERIC","125.094","0.09728768367491629","677"
"20:24:14:545 (H:m:s:ms)","GENERIC","124.613","0.05634648206452119","1185"
"20:44:48:607 (H:m:s:ms)","OPERA","124.744","0.10055822323138759","914"
"20:24:20:606 (H:m:s:ms)","GENERIC","155.26","0.08201644586227341","773"
"20:44:50:909 (H:m:s:ms)","GENERIC","155.268","0.09422860750972492","1476"
"20:24:26:666 (H:m:s:ms)","GENERIC","155.661","0.0711455444419486","807"
"20:44:56:202 (H:m:s:ms)","OPERA","93.481","0.1021282520239956","1277"
"20:24:32:727 (H:m:s:ms)","GENERIC","155.39","0.045179591912391945","863"
"20:44:56:969 (H:m:s:ms)","GENERIC","155.408","0.10794041136383002","2035"
"20:24:38:787 (H:m:s:ms)","GENERIC","124.303","0.07311766810334305","721"
"20:45:3:30 (H:m:s:ms)","GENERIC","155.41","0.06490132799173538","1478"
"20:24:44:848 (H:m:s:ms)","GENERIC","125.12","0.06810198386961949","742"
"20:24:50:909 (H:m:s:ms)","GENERIC","155.30200000000002","0.07550303933763737","1508"
"20:45:3:797 (H:m:s:ms)","OPERA","155.963","0.10039873014552173","1199"
"20:45:9:90 (H:m:s:ms)","GENERIC","155.859","0.07148975425934294","1545"
"20:24:56:969 (H:m:s:ms)","GENERIC","155.36200000000002","0.07909166890162354","1634"
"20:45:11:392 (H:m:s:ms)","OPERA","155.919","0.10371185541802033","1095"
"20:25:3:30 (H:m:s:ms)","GENERIC","124.285","0.08245750907454913","1401"
"20:45:15:151 (H:m:s:ms)","GENERIC","93.221","0.09502289265422552","1213"
"20:25:9:90 (H:m:s:ms)","GENERIC","155.85500000000002","0.08001751188297665","1520"
"20:45:18:987 (H:m:s:ms)","OPERA","124.72","0.08675396962333165","1493"
"20:25:15:151 (H:m:s:ms)","GENERIC","124.463","0.06429686707749774","1259"
"20:45:21:212 (H:m:s:ms)","GENERIC","124.566","0.1041700334493875","1334"
"20:25:21:212 (H:m:s:ms)","GENERIC","124.633","0.07065358677368329","1458"
"20:45:26:582 (H:m:s:ms)","OPERA","124.66199999999999","0.10069964383977871","879"
"20:25:27:272 (H:m:s:ms)","GENERIC","156.14499999999998","0.07554941069656307","1325"
"20:45:27:272 (H:m:s:ms)","GENERIC","156.107","0.09351380807735203","1322"
"20:25:33:333 (H:m:s:ms)","GENERIC","93.407","0.053785348148085485","1285"
"20:45:33:333 (H:m:s:ms)","GENERIC","155.997","0.08992409799405163","1278"
"20:25:39:393 (H:m:s:ms)","GENERIC","124.67500000000001","0.06569254748584928","1311"
"20:45:39:393 (H:m:s:ms)","GENERIC","155.98700000000002","0.0745670818936642","1247"
"20:25:45:454 (H:m:s:ms)","GENERIC","156.418","0.07022338679323711","1117"
"20:25:51:515 (H:m:s:ms)","GENERIC","155.38","0.05844241178499769","1072"
"20:25:57:575 (H:m:s:ms)","GENERIC","156.279","0.0698728222822136","1100"
"20:26:3:636 (H:m:s:ms)","GENERIC","124.875","0.06560905173139898","861"
"20:26:9:696 (H:m:s:ms)","GENERIC","155.539","0.09532841982932719","735"
"20:26:15:757 (H:m:s:ms)","GENERIC","124.255","0.04416682179104628","831"
"20:26:21:818 (H:m:s:ms)","GENERIC","156.448","0.08170686283736907","780"
"20:26:27:878 (H:m:s:ms)","GENERIC","156.257","0.059947964578539466","1539"
"20:26:33:939 (H:m:s:ms)","GENERIC","155.255","0.04589101879878014","1668"
"20:26:40:0 (H:m:s:ms)","GENERIC","156.055","0.08362773337731842","1511"
"20:26:46:60 (H:m:s:ms)","GENERIC","124.5","0.061774512844912866","1456"
"20:26:52:121 (H:m:s:ms)","GENERIC","124.136","0.056155553798252766","1151"
"20:26:58:181 (H:m:s:ms)","GENERIC","155.998","0.06629274275627535","1437"
"20:27:4:242 (H:m:s:ms)","GENERIC","124.695","0.04828058178927111","1491"
"20:27:10:303 (H:m:s:ms)","GENERIC","156.349","0.06722580549613352","1305"
"20:27:16:363 (H:m:s:ms)","GENERIC","124.322","0.07540872127834566","1129"
"20:27:22:424 (H:m:s:ms)","GENERIC","124.707","0.05452756801287485","1094"
"20:27:28:484 (H:m:s:ms)","GENERIC","155.79399999999998","0.07305777085485908","1129"
"20:27:34:545 (H:m:s:ms)","GENERIC","124.831","0.07304331392644776","977"
"20:27:40:606 (H:m:s:ms)","GENERIC","124.832","0.05238881699561957","988"
"20:27:46:666 (H:m:s:ms)","GENERIC","124.707","0.06376217937646594","933"
"20:27:52:727 (H:m:s:ms)","GENERIC","156.551","0.061144711887396425","987"
"20:27:58:787 (H:m:s:ms)","GENERIC","155.44","0.054285050835697624","754"
"20:28:4:848 (H:m:s:ms)","GENERIC","155.56400000000002","0.06373586563615141","858"
"20:28:10:909 (H:m:s:ms)","GENERIC","155.327","0.06808698755459051","1320"
"20:28:16:969 (H:m:s:ms)","GENERIC","124.71600000000001","0.0852507803468343","1446"
"20:28:23:30 (H:m:s:ms)","GENERIC","156.26600000000002","0.06117073311482886","1563"
"20:28:29:90 (H:m:s:ms)","GENERIC","155.423","0.06563931718716506","1542"
"20:28:35:151 (H:m:s:ms)","GENERIC","187.161","0.055287779966362895","1482"
"20:28:41:212 (H:m:s:ms)","GENERIC","124.72399999999999","0.07810332965507492","1330"
"20:28:47:272 (H:m:s:ms)","GENERIC","155.221","0.09465624755179759","1116"
"20:28:53:333 (H:m:s:ms)","GENERIC","124.806","0.07141624800885915","1131"
"20:28:59:393 (H:m:s:ms)","GENERIC","93.096","0.04543245660982422","1097"
"20:29:5:454 (H:m:s:ms)","GENERIC","124.299","0.07394174276668287","1101"
"20:29:11:515 (H:m:s:ms)","GENERIC","156.488","0.07656708708131676","810"
"20:29:17:575 (H:m:s:ms)","GENERIC","124.707","0.058298771508153165","1020"
"20:29:23:636 (H:m:s:ms)","GENERIC","93.225","0.055995984336911886","848"
"20:29:29:696 (H:m:s:ms)","GENERIC","124.529","0.06403244867008188","903"
"20:29:35:757 (H:m:s:ms)","GENERIC","187.431","0.0880069854507014","791"
"20:29:41:818 (H:m:s:ms)","GENERIC","124.74199999999999","0.06348760078736691","483"
"20:29:47:878 (H:m:s:ms)","GENERIC","124.283","0.04147999511394165","1701"
"20:29:53:939 (H:m:s:ms)","GENERIC","124.969","0.060377466669559704","1600"
"21:20:7:594 (H:m:s:ms)","OPERA","124.515","0.08569928020686769","874"
"21:20:12:121 (H:m:s:ms)","GENERIC","155.18200000000002","0.08118083866854701","1325"
"21:20:15:189 (H:m:s:ms)","OPERA","124.45400000000001","0.09156378117285809","1281"
"21:20:18:181 (H:m:s:ms)","GENERIC","156.159","0.09512732996934613","1344"
"21:20:22:784 (H:m:s:ms)","OPERA","155.705","0.10550372090847875","629"
"21:20:24:242 (H:m:s:ms)","GENERIC","93.419","0.1118501213966437","1258"
"21:20:30:303 (H:m:s:ms)","GENERIC","156.454","0.06779313307147863","1227"
"21:20:30:379 (H:m:s:ms)","OPERA","155.745","0.09775487970845685","1661"
"21:20:36:363 (H:m:s:ms)","GENERIC","155.397","0.06608892280560587","1050"
"21:20:37:974 (H:m:s:ms)","OPERA","155.739","0.09514205274847887","1532"
"21:20:42:424 (H:m:s:ms)","GENERIC","125.036","0.1021030287524827","973"
"21:20:45:569 (H:m:s:ms)","OPERA","93.239","0.09367064886722151","937"
"21:20:48:484 (H:m:s:ms)","GENERIC","124.39099999999999","0.08864493947318379","1092"
"21:20:53:164 (H:m:s:ms)","OPERA","155.686","0.0935587830947482","1318"
"21:20:54:545 (H:m:s:ms)","GENERIC","156.446","0.08318947060991702","1103"
"21:21:0:606 (H:m:s:ms)","GENERIC","155.35899999999998","0.04720509926607411","995"
"21:21:0:759 (H:m:s:ms)","OPERA","155.67","0.09300842404652979","1301"
"21:21:6:666 (H:m:s:ms)","GENERIC","155.905","0.0973024053969671","917"
"21:21:8:354 (H:m:s:ms)","OPERA","155.666","0.10997088220133544","1208"
"21:21:12:727 (H:m:s:ms)","GENERIC","124.797","0.08153095903739105","759"
"21:32:55:757 (H:m:s:ms)","GENERIC","155.781","0.06812706836109013","797"
"21:32:37:894 (H:m:s:ms)","AMBULANCE","124.738","0.10296863950702696","1341"
"21:32:37:575 (H:m:s:ms)","GENERIC","155.98499999999999","0.06666733532366763","990"
"21:32:31:515 (H:m:s:ms)","GENERIC","156.27800000000002","0.07268347300891573","956"
"21:32:25:454 (H:m:s:ms)","GENERIC","124.201","0.0655797403946561","896"
"21:32:19:393 (H:m:s:ms)","GENERIC","124.75399999999999","0.07390472016904555","1210"
"21:32:13:333 (H:m:s:ms)","GENERIC","155.35500000000002","0.0670284747116651","1269"
"21:32:7:272 (H:m:s:ms)","GENERIC","155.75400000000002","0.11055897028627794","1262"
"21:21:15:949 (H:m:s:ms)","OPERA","155.678","0.10054749661385846","1618"
"21:32:6:315 (H:m:s:ms)","AMBULANCE","93.634","0.1037751034050555","1279"
"21:21:18:787 (H:m:s:ms)","GENERIC","124.749","0.10612024406789315","683"
"21:21:23:544 (H:m:s:ms)","OPERA","124.511","0.09866382808053233","1030"
"21:21:24:848 (H:m:s:ms)","GENERIC","124.242","0.10575617984221715","632"
"21:21:30:909 (H:m:s:ms)","GENERIC","124.482","0.0676122716540582","1518"
"21:21:31:139 (H:m:s:ms)","OPERA","155.65","0.09416367071467244","1835"
"21:21:36:969 (H:m:s:ms)","GENERIC","93.596","0.04680856111572803","1634"
"21:21:38:734 (H:m:s:ms)","OPERA","155.68","0.08142508897463166","783"
"21:32:49:696 (H:m:s:ms)","GENERIC","125.02000000000001","0.07715685600309441","721"
"21:21:43:30 (H:m:s:ms)","GENERIC","155.914","0.08591997752167146","1567"
"21:32:43:636 (H:m:s:ms)","GENERIC","124.422","0.07330831635829785","952"
"21:21:49:90 (H:m:s:ms)","GENERIC","124.251","0.06289838889761137","1452"
"21:33:50:303 (H:m:s:ms)","GENERIC","124.232","0.09452702313351882","1267"
"21:33:44:242 (H:m:s:ms)","GENERIC","156.37099999999998","0.09689689850787155","1080"
"21:33:38:181 (H:m:s:ms)","GENERIC","124.361","0.06591999782533899","1291"
"21:33:32:121 (H:m:s:ms)","GENERIC","124.293","0.06488800193617947","1229"
"21:33:26:60 (H:m:s:ms)","GENERIC","155.427","0.08347154586574387","1443"
"21:33:20:0 (H:m:s:ms)","GENERIC","155.67700000000002","0.07313220126735413","1598"
"21:33:13:939 (H:m:s:ms)","GENERIC","155.338","0.096755137028176","1579"
"21:33:9:473 (H:m:s:ms)","AMBULANCE","93.54","0.10265189297840019","1056"
"21:21:53:924 (H:m:s:ms)","OPERA","124.71300000000001","0.10699934025913488","1578"
"21:33:7:878 (H:m:s:ms)","GENERIC","124.976","0.06933118611522932","1511"
"21:21:55:151 (H:m:s:ms)","GENERIC","155.905","0.11007146371732537","1404"
"21:33:1:818 (H:m:s:ms)","GENERIC","156.213","0.07264744852297564","696"
"21:22:1:212 (H:m:s:ms)","GENERIC","124.70400000000001","0.054583187469396055","1293"
"21:22:1:518 (H:m:s:ms)","OPERA","155.72","0.0928098261018511","1434"
"21:22:7:272 (H:m:s:ms)","GENERIC","124.481","0.04430035060094598","1384"
"21:22:9:113 (H:m:s:ms)","OPERA","155.715","0.09393904258255599","1367"
"21:22:13:333 (H:m:s:ms)","GENERIC","155.357","0.12858109272111806","1242"
"21:22:16:708 (H:m:s:ms)","OPERA","155.678","0.12254337097546143","848"
"21:22:19:393 (H:m:s:ms)","GENERIC","124.749","0.08814442469937869","1228"
"21:22:24:303 (H:m:s:ms)","OPERA","124.486","0.07918684616069437","1205"
"21:33:41:52 (H:m:s:ms)","AMBULANCE","93.52199999999999","0.09336563972989388","1669"
"21:34:44:848 (H:m:s:ms)","GENERIC","156.587","0.08776273454051929","1330"
"21:34:44:210 (H:m:s:ms)","AMBULANCE","93.506","0.08044535579261837","1236"
"21:34:38:787 (H:m:s:ms)","GENERIC","124.268","0.06906086762312406","710"
"21:34:32:727 (H:m:s:ms)","GENERIC","124.74000000000001","0.06434767874961506","666"
"21:34:26:666 (H:m:s:ms)","GENERIC","155.672","0.06545834292135151","963"
"21:34:20:606 (H:m:s:ms)","GENERIC","155.178","0.07616192305149795","780"
"21:34:14:545 (H:m:s:ms)","GENERIC","155.7","0.07666404733693603","983"
"21:34:12:631 (H:m:s:ms)","AMBULANCE","124.88199999999999","0.08052628148592864","960"
"21:22:25:454 (H:m:s:ms)","GENERIC","93.12899999999999","0.08908739466522513","859"
"21:34:8:484 (H:m:s:ms)","GENERIC","156.229","0.061527867370081465","1095"
"21:22:31:515 (H:m:s:ms)","GENERIC","156.292","0.05554288512844758","994"
"21:34:2:424 (H:m:s:ms)","GENERIC","155.413","0.058282241781303104","943"
"21:1:55:151 (H:m:s:ms)","GENERIC","155.84699999999998","0.07884340687385476","1425"
"21:22:31:898 (H:m:s:ms)","OPERA","155.67000000000002","0.08067485627188345","1198"
"21:33:56:363 (H:m:s:ms)","GENERIC","124.536","0.08192131271586735","1297"
"21:2:1:212 (H:m:s:ms)","GENERIC","124.674","0.04487703723534899","1334"
"21:22:37:575 (H:m:s:ms)","GENERIC","124.67","0.06542322691690988","1009"
"21:2:6:315 (H:m:s:ms)","AMBULANCE","62.269999999999996","0.0717181433685409","1156"
"21:22:39:493 (H:m:s:ms)","OPERA","155.715","0.10296712997169895","1012"
"21:2:7:272 (H:m:s:ms)","GENERIC","155.659","0.09198243701715784","1285"
"21:22:43:636 (H:m:s:ms)","GENERIC","124.381","0.10995056249838646","823"
"21:2:13:333 (H:m:s:ms)","GENERIC","124.248","0.040221536622930446","1346"
"21:22:47:88 (H:m:s:ms)","OPERA","124.443","0.09717920116775632","1358"
"21:2:19:393 (H:m:s:ms)","GENERIC","156.035","0.06212008227049646","1255"
"21:22:49:696 (H:m:s:ms)","GENERIC","156.47","0.10212565128298601","637"
"21:2:25:454 (H:m:s:ms)","GENERIC","124.19800000000001","0.06014581256712641","871"
"21:22:54:683 (H:m:s:ms)","OPERA","155.715","0.11052757252811637","755"
"21:2:31:515 (H:m:s:ms)","GENERIC","124.862","0.06572142524947634","1017"
"21:22:55:757 (H:m:s:ms)","GENERIC","93.235","0.10268653510142516","684"
"21:2:37:575 (H:m:s:ms)","GENERIC","155.91899999999998","0.05437212164643722","982"
"21:2:37:894 (H:m:s:ms)","AMBULANCE","93.485","0.07816180520494986","1162"
"21:35:45:454 (H:m:s:ms)","GENERIC","125.054","0.05528415549181966","1095"
"21:35:39:393 (H:m:s:ms)","GENERIC","124.703","0.05344830709394983","1286"
"21:35:33:333 (H:m:s:ms)","GENERIC","124.67099999999999","0.05452140457942812","1226"
"21:35:27:272 (H:m:s:ms)","GENERIC","124.793","0.06106037408796597","1242"
"21:35:21:212 (H:m:s:ms)","GENERIC","155.929","0.06603574599139372","1345"
"21:35:15:789 (H:m:s:ms)","AMBULANCE","62.298","0.0805562750944332","1063"
"21:35:15:151 (H:m:s:ms)","GENERIC","124.517","0.0635590512724557","1330"
"21:23:1:818 (H:m:s:ms)","GENERIC","124.873","0.06349588186027284","712"
"21:35:9:90 (H:m:s:ms)","GENERIC","124.57900000000001","0.0522248282240193","1571"
"21:23:2:278 (H:m:s:ms)","OPERA","155.70100000000002","0.09942939843930623","1223"
"21:35:3:30 (H:m:s:ms)","GENERIC","155.447","0.06936034417737152","1515"
"21:2:43:636 (H:m:s:ms)","GENERIC","155.583","0.0650600070171313","969"
"21:23:7:878 (H:m:s:ms)","GENERIC","156.379","0.05573487320391239","1533"
"21:34:56:969 (H:m:s:ms)","GENERIC","155.37","0.08481213014773561","1539"
"21:2:49:696 (H:m:s:ms)","GENERIC","125.035","0.0775136196606344","754"
"21:23:9:873 (H:m:s:ms)","OPERA","155.659","0.10364039828349642","674"
"21:34:50:909 (H:m:s:ms)","GENERIC","155.264","0.07158594754281057","1539"
"21:2:55:757 (H:m:s:ms)","GENERIC","155.689","0.0626798900424976","879"
"21:23:13:939 (H:m:s:ms)","GENERIC","155.374","0.10998610698461846","1593"
"21:3:1:818 (H:m:s:ms)","GENERIC","124.87899999999999","0.04839113244025646","764"
"21:23:17:468 (H:m:s:ms)","OPERA","155.747","0.10397307874476261","1108"
"21:3:7:878 (H:m:s:ms)","GENERIC","124.898","0.07285262356277843","1527"
"21:23:20:0 (H:m:s:ms)","GENERIC","124.464","0.09706698098864769","1598"
"21:3:9:473 (H:m:s:ms)","AMBULANCE","93.506","0.09884467525484408","1101"
"21:23:25:63 (H:m:s:ms)","OPERA","155.72","0.074769111466634","1381"
"21:3:13:939 (H:m:s:ms)","GENERIC","124.217","0.08810598946363678","1623"
"21:23:26:60 (H:m:s:ms)","GENERIC","124.20599999999999","0.07123837898908437","1426"
"21:3:20:0 (H:m:s:ms)","GENERIC","93.212","0.05783658030440901","1633"
"21:23:32:121 (H:m:s:ms)","GENERIC","124.31700000000001","0.09435058520364414","1724"
"21:3:26:60 (H:m:s:ms)","GENERIC","155.437","0.07431987579728891","1498"
"21:3:32:121 (H:m:s:ms)","GENERIC","124.287","0.04833691777400803","1261"
"21:36:40:0 (H:m:s:ms)","GENERIC","124.73400000000001","0.05857213655131092","1475"
"21:36:33:939 (H:m:s:ms)","GENERIC","124.182","0.04962908508700299","1615"
"21:36:27:878 (H:m:s:ms)","GENERIC","124.917","0.05120302511069415","1619"
"21:36:21:818 (H:m:s:ms)","GENERIC","156.437","0.0850008096858355","729"
"21:36:18:947 (H:m:s:ms)","AMBULANCE","93.58500000000001","0.0992502944986921","1581"
"21:36:15:757 (H:m:s:ms)","GENERIC","155.701","0.08035986561571061","869"
"21:23:32:658 (H:m:s:ms)","OPERA","155.709","0.06754848252787257","830"
"21:36:9:696 (H:m:s:ms)","GENERIC","124.423","0.08659206451780115","699"
"21:23:38:181 (H:m:s:ms)","GENERIC","155.555","0.06745227304431496","1283"
"21:36:3:636 (H:m:s:ms)","GENERIC","156.321","0.07687673447019464","805"
"21:3:38:181 (H:m:s:ms)","GENERIC","155.53300000000002","0.07236977644484238","1286"
"21:23:40:253 (H:m:s:ms)","OPERA","155.69","0.11333074988353659","1196"
"21:35:57:575 (H:m:s:ms)","GENERIC","156.192","0.0687154470962518","1071"
"21:3:41:52 (H:m:s:ms)","AMBULANCE","93.521","0.09924393712147597","1358"
"21:23:44:242 (H:m:s:ms)","GENERIC","124.918","0.11795767984707907","1096"
"21:35:51:515 (H:m:s:ms)","GENERIC","124.315","0.0858734205169075","1051"
"21:3:44:242 (H:m:s:ms)","GENERIC","124.945","0.09303318882080765","1115"
"21:23:47:848 (H:m:s:ms)","OPERA","155.74200000000002","0.11809991119742795","626"
"21:35:47:368 (H:m:s:ms)","AMBULANCE","93.589","0.07957260181197819","1293"
"21:3:50:303 (H:m:s:ms)","GENERIC","155.285","0.0576042369893583","1286"
"21:23:50:303 (H:m:s:ms)","GENERIC","124.219","0.10863099238590229","1282"
"21:3:56:363 (H:m:s:ms)","GENERIC","93.525","0.07705004596440426","1127"
"21:23:55:443 (H:m:s:ms)","OPERA","124.471","0.09688341297500173","1119"
"21:4:2:424 (H:m:s:ms)","GENERIC","124.342","0.06631824168970848","895"
"21:23:56:363 (H:m:s:ms)","GENERIC","155.78199999999998","0.11188319888848768","1228"
"21:4:8:484 (H:m:s:ms)","GENERIC","156.217","0.06623263369102098","972"
"21:24:2:424 (H:m:s:ms)","GENERIC","124.287","0.03903633545904697","944"
"21:4:12:631 (H:m:s:ms)","AMBULANCE","93.511","0.08176852740282292","1074"
"21:24:3:37 (H:m:s:ms)","OPERA","155.735","0.07540877467629054","1450"
"21:4:14:545 (H:m:s:ms)","GENERIC","124.524","0.07710920999689819","918"
"21:4:20:606 (H:m:s:ms)","GENERIC","124.179","0.07989185343863735","753"
"21:37:34:545 (H:m:s:ms)","GENERIC","156.154","0.05716578806986408","977"
"21:37:28:484 (H:m:s:ms)","GENERIC","186.964","0.06825195788137171","1143"
"21:37:22:424 (H:m:s:ms)","GENERIC","155.781","0.1042607022019607","1818"
"21:37:22:105 (H:m:s:ms)","AMBULANCE","124.848","0.06482424428539331","1506"
"21:37:16:363 (H:m:s:ms)","GENERIC","93.17599999999999","0.04667056979314123","1107"
"21:37:10:303 (H:m:s:ms)","GENERIC","124.917","0.08812624718589768","1188"
"21:24:8:484 (H:m:s:ms)","GENERIC","124.884","0.09230695139208865","1091"
"21:24:10:632 (H:m:s:ms)","OPERA","124.49600000000001","0.08803924446401705","905"
"21:37:4:242 (H:m:s:ms)","GENERIC","155.96","0.06389587884966655","1436"
"21:4:26:666 (H:m:s:ms)","GENERIC","124.435","0.05306704517211995","896"
"21:24:14:545 (H:m:s:ms)","GENERIC","124.537","0.09685709345512707","870"
"21:36:58:181 (H:m:s:ms)","GENERIC","124.537","0.06603334180824603","1313"
"21:4:32:727 (H:m:s:ms)","GENERIC","93.623","0.06905199375102304","656"
"21:24:18:227 (H:m:s:ms)","OPERA","124.467","0.09712687849487986","1212"
"21:36:52:121 (H:m:s:ms)","GENERIC","124.173","0.09949544320772634","1117"
"21:4:38:787 (H:m:s:ms)","GENERIC","155.312","0.09257903882264135","744"
"21:24:20:606 (H:m:s:ms)","GENERIC","155.205","0.10388560605404043","746"
"21:36:50:526 (H:m:s:ms)","AMBULANCE","124.72","0.11148851969545753","1066"
"21:4:44:210 (H:m:s:ms)","AMBULANCE","124.735","0.08311957090153455","1246"
"21:24:25:822 (H:m:s:ms)","OPERA","155.741","0.0999727772940425","690"
"21:36:46:60 (H:m:s:ms)","GENERIC","155.651","0.08065999876421603","1368"
"21:4:44:848 (H:m:s:ms)","GENERIC","125.037","0.09522852619686242","1188"
"21:24:26:666 (H:m:s:ms)","GENERIC","155.623","0.08773973981800134","916"
"21:4:50:909 (H:m:s:ms)","GENERIC","155.285","0.07699252762102096","1541"
"21:24:32:727 (H:m:s:ms)","GENERIC","124.742","0.05618907535460515","672"
"21:4:56:969 (H:m:s:ms)","GENERIC","124.29400000000001","0.06929903450024272","1659"
"21:24:33:417 (H:m:s:ms)","OPERA","155.763","0.08064183612692137","1082"
"21:5:3:30 (H:m:s:ms)","GENERIC","155.347","0.07490863142297165","1387"
"21:24:38:787 (H:m:s:ms)","GENERIC","155.349","0.09505452745986874","803"
"21:5:9:90 (H:m:s:ms)","GENERIC","155.928","0.06041563161403088","1523"
"21:5:15:151 (H:m:s:ms)","GENERIC","93.246","0.05056219680971117","1300"
"21:38:35:151 (H:m:s:ms)","GENERIC","124.661","0.056900289497478815","1465"
"21:38:29:90 (H:m:s:ms)","GENERIC","155.416","0.10786722173410297","1552"
"21:38:25:263 (H:m:s:ms)","AMBULANCE","124.69200000000001","0.10131815675547128","1208"
"21:38:23:30 (H:m:s:ms)","GENERIC","156.298","0.06493057381716164","1551"
"21:38:16:969 (H:m:s:ms)","GENERIC","124.679","0.06259233883488725","1517"
"21:38:10:909 (H:m:s:ms)","GENERIC","186.348","0.0914655264495201","1330"
"21:38:4:848 (H:m:s:ms)","GENERIC","124.511","0.07512234763606522","647"
"21:24:41:12 (H:m:s:ms)","OPERA","155.69","0.10963780781022629","1500"
"21:24:44:848 (H:m:s:ms)","GENERIC","125.03","0.08866843650106578","784"
"21:5:15:789 (H:m:s:ms)","AMBULANCE","124.80000000000001","0.07686802533125507","1169"
"21:24:48:607 (H:m:s:ms)","OPERA","124.489","0.07622516093938032","933"
"21:5:21:212 (H:m:s:ms)","GENERIC","155.854","0.03445091260929676","1423"
"21:24:50:909 (H:m:s:ms)","GENERIC","155.226","0.10590252567119203","1549"
"21:37:58:787 (H:m:s:ms)","GENERIC","124.28800000000001","0.08413241161226241","704"
"20:45:41:772 (H:m:s:ms)","OPERA","124.685","0.10802720871159466","718"
"21:5:27:272 (H:m:s:ms)","GENERIC","124.77199999999999","0.07161510866474805","1311"
"21:24:56:202 (H:m:s:ms)","OPERA","155.73","0.11920437041454422","1301"
"21:37:52:727 (H:m:s:ms)","GENERIC","125.091","0.057397248628233775","916"
"20:45:45:454 (H:m:s:ms)","GENERIC","156.398","0.09920132552874902","1101"
"21:5:33:333 (H:m:s:ms)","GENERIC","124.62100000000001","0.07630046245436735","1244"
"21:24:56:969 (H:m:s:ms)","GENERIC","186.514","0.11399291382278078","2094"
"21:37:46:666 (H:m:s:ms)","GENERIC","124.735","0.0478072201894574","922"
"20:45:51:515 (H:m:s:ms)","GENERIC","124.25999999999999","0.055329631230471556","1032"
"21:5:39:393 (H:m:s:ms)","GENERIC","156.039","0.07277352484192955","1262"
"21:25:3:30 (H:m:s:ms)","GENERIC","124.285","0.06178022031472595","1524"
"21:37:40:606 (H:m:s:ms)","GENERIC","124.725","0.0481713954433987","989"
"20:45:56:962 (H:m:s:ms)","OPERA","124.689","0.057975320871410885","1509"
"21:5:45:454 (H:m:s:ms)","GENERIC","156.441","0.060569838193933814","1184"
"21:25:3:797 (H:m:s:ms)","OPERA","124.469","0.0838493599161602","1314"
"20:45:57:575 (H:m:s:ms)","GENERIC","156.298","0.09151518678834915","1520"
"21:5:47:368 (H:m:s:ms)","AMBULANCE","124.693","0.09436284881699175","1129"
"21:25:9:90 (H:m:s:ms)","GENERIC","124.55600000000001","0.0654800609873362","1588"
"20:46:3:636 (H:m:s:ms)","GENERIC","124.922","0.07142861166142529","819"
"21:5:51:515 (H:m:s:ms)","GENERIC","155.353","0.11242062996525083","1030"
"21:25:11:392 (H:m:s:ms)","OPERA","155.746","0.10987186812102101","1118"
"20:46:4:556 (H:m:s:ms)","OPERA","124.71000000000001","0.10057929429265129","980"
"21:5:57:575 (H:m:s:ms)","GENERIC","156.163","0.04452518075736901","1079"
"20:46:9:696 (H:m:s:ms)","GENERIC","124.441","0.11812095008627296","616"
"21:6:3:636 (H:m:s:ms)","GENERIC","124.922","0.07098352679865169","799"
"20:46:12:151 (H:m:s:ms)","OPERA","124.653","0.1260307544440003","1363"
"20:46:15:757 (H:m:s:ms)","GENERIC","124.312","0.09316051449392157","781"
"21:39:29:696 (H:m:s:ms)","GENERIC","124.47399999999999","0.07752624783337912","907"
"21:39:28:421 (H:m:s:ms)","AMBULANCE","93.531","0.07094832027810158","1131"
"21:39:23:636 (H:m:s:ms)","GENERIC","155.50300000000001","0.03963533731481135","859"
"21:39:17:575 (H:m:s:ms)","GENERIC","156.15","0.06149960674598441","994"
"21:39:11:515 (H:m:s:ms)","GENERIC","156.53","0.09290773768084587","803"
"21:39:5:454 (H:m:s:ms)","GENERIC","155.453","0.05651916745305161","1076"
"21:38:59:393 (H:m:s:ms)","GENERIC","155.16400000000002","0.087399367870894","997"
"21:38:56:842 (H:m:s:ms)","AMBULANCE","124.81800000000001","0.08169380768865478","655"
"21:25:15:151 (H:m:s:ms)","GENERIC","124.45400000000001","0.10778550486568855","1173"
"21:25:18:987 (H:m:s:ms)","OPERA","155.712","0.10242086843352759","1439"
"21:6:9:696 (H:m:s:ms)","GENERIC","124.449","0.06698098259841241","715"
"21:25:21:212 (H:m:s:ms)","GENERIC","124.542","0.10046766461396413","1392"
"21:6:15:757 (H:m:s:ms)","GENERIC","124.56800000000001","0.05644809995991921","959"
"21:25:26:582 (H:m:s:ms)","OPERA","124.47800000000001","0.090253940862855","828"
"20:46:19:746 (H:m:s:ms)","OPERA","93.481","0.09300544111219025","782"
"21:6:18:947 (H:m:s:ms)","AMBULANCE","124.758","0.09390206884127598","1607"
"21:25:27:272 (H:m:s:ms)","GENERIC","124.809","0.09531150475142118","1321"
"20:46:21:818 (H:m:s:ms)","GENERIC","156.452","0.11261544577606436","739"
"21:6:21:818 (H:m:s:ms)","GENERIC","156.528","0.08918928828873976","729"
"21:25:33:333 (H:m:s:ms)","GENERIC","155.919","0.05939326284698862","1318"
"21:38:53:333 (H:m:s:ms)","GENERIC","156.274","0.0544147718158385","1131"
"20:46:27:341 (H:m:s:ms)","OPERA","124.729","0.06446013577402827","1167"
"21:6:27:878 (H:m:s:ms)","GENERIC","156.272","0.027954146510030108","1698"
"21:25:39:393 (H:m:s:ms)","GENERIC","124.73400000000001","0.053470757726813575","1299"
"21:38:47:272 (H:m:s:ms)","GENERIC","124.203","0.0778432036993796","1125"
"20:46:27:878 (H:m:s:ms)","GENERIC","93.519","0.09525756958947582","2170"
"21:6:33:939 (H:m:s:ms)","GENERIC","155.261","0.05857314504892545","1647"
"21:25:41:772 (H:m:s:ms)","OPERA","155.695","0.07934186143281936","759"
"21:38:41:212 (H:m:s:ms)","GENERIC","156.109","0.06969629530977607","1362"
"20:46:33:939 (H:m:s:ms)","GENERIC","155.212","0.06648820075117459","1654"
"21:6:40:0 (H:m:s:ms)","GENERIC","124.786","0.06889354203495443","1487"
"21:25:45:454 (H:m:s:ms)","GENERIC","156.5","0.07439901493730543","1180"
"20:46:34:936 (H:m:s:ms)","OPERA","124.714","0.09280502858468707","1165"
"21:6:46:60 (H:m:s:ms)","GENERIC","155.71800000000002","0.07014243018456573","1374"
"21:25:49:367 (H:m:s:ms)","OPERA","124.61800000000001","0.08799135296698299","1243"
"20:46:40:0 (H:m:s:ms)","GENERIC","124.747","0.050365256309086136","1566"
"21:6:50:526 (H:m:s:ms)","AMBULANCE","93.545","0.09991901400533","930"
"20:46:42:531 (H:m:s:ms)","OPERA","93.463","0.07213048623508049","978"
"21:6:52:121 (H:m:s:ms)","GENERIC","124.162","0.09378327206392476","1120"
"20:46:46:60 (H:m:s:ms)","GENERIC","124.503","0.07884817949138644","1488"
"20:46:50:126 (H:m:s:ms)","OPERA","62.263999999999996","0.07998655563637258","1426"
"21:39:47:878 (H:m:s:ms)","GENERIC","124.27199999999999","0.05498450398823223","1705"
"21:40:24:242 (H:m:s:ms)","GENERIC","124.725","0.029251077139882967","1360"
"21:40:18:181 (H:m:s:ms)","GENERIC","156.164","0.07651920710429616","1336"
"21:40:12:121 (H:m:s:ms)","GENERIC","124.212","0.05870691676219963","1331"
"21:40:6:60 (H:m:s:ms)","GENERIC","156.56","0.08179476548501269","1395"
"21:40:0:0 (H:m:s:ms)","GENERIC","156.48000000000002","0.11444758722851996","3437"
"21:40:0:0 (H:m:s:ms)","GENERIC","155.364","0.08828080336234029","2838"
"21:40:0:0 (H:m:s:ms)","AMBULANCE","62.257000000000005","0.046403807950945425","2369"
"21:39:53:939 (H:m:s:ms)","GENERIC","124.93","0.07153142905657625","1643"
"21:6:58:181 (H:m:s:ms)","GENERIC","155.978","0.07006543687998486","1381"
"21:7:4:242 (H:m:s:ms)","GENERIC","124.637","0.04043367415808732","1456"
"20:46:52:121 (H:m:s:ms)","GENERIC","93.124","0.07821563580311297","1137"
"21:7:10:303 (H:m:s:ms)","GENERIC","156.339","0.061331464757475265","1276"
"20:46:57:721 (H:m:s:ms)","OPERA","93.459","0.10310857493823244","864"
"21:7:16:363 (H:m:s:ms)","GENERIC","155.426","0.05129854798556324","1098"
"20:46:58:181 (H:m:s:ms)","GENERIC","124.75200000000001","0.09434629048732346","1464"
"21:7:22:105 (H:m:s:ms)","AMBULANCE","124.78299999999999","0.052709877715163625","1554"
"20:47:4:242 (H:m:s:ms)","GENERIC","155.917","0.05338987008135852","1456"
"21:7:22:424 (H:m:s:ms)","GENERIC","155.756","0.08752531881420816","1808"
"21:39:41:818 (H:m:s:ms)","GENERIC","93.441","0.07098233238062054","513"
"20:47:5:316 (H:m:s:ms)","OPERA","124.595","0.09128674184269771","1300"
"21:7:28:484 (H:m:s:ms)","GENERIC","124.548","0.08261008875973545","1205"
"21:39:35:757 (H:m:s:ms)","GENERIC","156.127","0.07659296971246166","806"
"20:47:10:303 (H:m:s:ms)","GENERIC","156.25900000000001","0.09457518848385822","1263"
"21:7:34:545 (H:m:s:ms)","GENERIC","124.837","0.0794906154890945","964"
"20:47:12:911 (H:m:s:ms)","OPERA","124.682","0.08787980869975211","615"
"21:7:40:606 (H:m:s:ms)","GENERIC","156.118","0.05944850092776945","989"
"20:47:16:363 (H:m:s:ms)","GENERIC","93.154","0.08378604235629447","1111"
"21:7:46:666 (H:m:s:ms)","GENERIC","124.705","0.056549178767259636","926"
"20:47:20:506 (H:m:s:ms)","OPERA","124.684","0.08560128709338884","1030"
"20:47:22:424 (H:m:s:ms)","GENERIC","155.9","0.11155077417685778","1266"
"21:7:52:727 (H:m:s:ms)","GENERIC","156.563","0.06231970683056354","862"
"21:7:53:684 (H:m:s:ms)","AMBULANCE","93.492","0.0914094876507954","767"
"20:47:28:101 (H:m:s:ms)","OPERA","62.22","0.05377058307913357","1403"
"21:7:58:787 (H:m:s:ms)","GENERIC","124.28399999999999","0.09255027465538432","737"
"20:47:28:484 (H:m:s:ms)","GENERIC","155.815","0.09284778528777568","1564"
"21:8:4:848 (H:m:s:ms)","GENERIC","186.773","0.05904803102276144","854"
"20:47:34:545 (H:m:s:ms)","GENERIC","124.86","0.08011442359733031","912"
"21:8:10:909 (H:m:s:ms)","GENERIC","155.279","0.07741392241961363","1588"
"20:47:35:696 (H:m:s:ms)","OPERA","124.711","0.10375621985812916","877"
"21:8:16:969 (H:m:s:ms)","GENERIC","124.726","0.08415100294143496","1554"
"20:47:40:606 (H:m:s:ms)","GENERIC","124.752","0.09082096582050142","966"
"21:8:23:30 (H:m:s:ms)","GENERIC","124.914","0.07367061619674246","1529"
"20:47:43:291 (H:m:s:ms)","OPERA","124.747","0.10218372801960116","1187"
"21:8:25:263 (H:m:s:ms)","AMBULANCE","93.468","0.09629189496182514","1224"
"21:40:30:303 (H:m:s:ms)","GENERIC","124.968","0.07483311456154973","1224"
"20:47:46:666 (H:m:s:ms)","GENERIC","93.38","0.09883794409267824","931"
"21:8:29:90 (H:m:s:ms)","GENERIC","155.361","0.11233425828314098","1548"
"20:47:50:886 (H:m:s:ms)","OPERA","124.688","0.09642979835980678","586"
"21:8:35:151 (H:m:s:ms)","GENERIC","155.889","0.059030952209748605","1497"
"20:47:52:727 (H:m:s:ms)","GENERIC","125.112","0.10537842842164202","811"
"20:47:58:481 (H:m:s:ms)","OPERA","124.683","0.08520075520648132","891"
"21:8:41:212 (H:m:s:ms)","GENERIC","124.816","0.06927571401029445","1394"
"21:8:47:272 (H:m:s:ms)","GENERIC","155.214","0.0843636011742386","1124"
"20:47:58:787 (H:m:s:ms)","GENERIC","155.42499999999998","0.10405163802770023","1101"
"21:8:53:333 (H:m:s:ms)","GENERIC","124.924","0.04609108109494291","1150"
"20:48:4:848 (H:m:s:ms)","GENERIC","124.373","0.06117619844253246","833"
"21:8:56:842 (H:m:s:ms)","AMBULANCE","124.631","0.07934745004207412","742"
"20:30:0:0 (H:m:s:ms)","GENERIC","155.459","0.07223040948591283","1397"
"20:48:6:75 (H:m:s:ms)","OPERA","124.655","0.08634009789328351","1424"
"21:8:59:393 (H:m:s:ms)","GENERIC","124.119","0.07768195538606015","1101"
"20:30:0:0 (H:m:s:ms)","GENERIC","156.5","0.09492858650715084","1963"
"20:48:10:909 (H:m:s:ms)","GENERIC","93.178","0.08961786421351162","1358"
"21:9:5:454 (H:m:s:ms)","GENERIC","155.44","0.06252891388859325","1074"
"20:30:6:60 (H:m:s:ms)","GENERIC","124.999","0.07087851381236959","1310"
"20:48:13:670 (H:m:s:ms)","OPERA","93.489","0.08996139339074516","839"
"21:9:11:515 (H:m:s:ms)","GENERIC","125.048","0.07564088034770043","777"
"20:30:12:121 (H:m:s:ms)","GENERIC","124.068","0.04353362692081617","1337"
"20:48:16:969 (H:m:s:ms)","GENERIC","124.708","0.1029216972365256","1482"
"21:9:17:575 (H:m:s:ms)","GENERIC","156.117","0.06761824592030377","981"
"20:30:18:181 (H:m:s:ms)","GENERIC","156.18","0.05351676999092775","1339"
"20:48:21:265 (H:m:s:ms)","OPERA","93.482","0.10915871609978185","1237"
"21:9:23:636 (H:m:s:ms)","GENERIC","124.378","0.05981137543771425","833"
"20:30:24:242 (H:m:s:ms)","GENERIC","124.77600000000001","0.07527781126650415","1263"
"20:48:23:30 (H:m:s:ms)","GENERIC","124.94300000000001","0.08642271811383802","1552"
"21:9:28:421 (H:m:s:ms)","AMBULANCE","124.74600000000001","0.08528420041588033","1098"
"20:30:30:303 (H:m:s:ms)","GENERIC","156.489","0.07628058388201578","1265"
"20:48:28:860 (H:m:s:ms)","OPERA","124.696","0.07026233835499766","659"
"20:30:36:363 (H:m:s:ms)","GENERIC","155.502","0.09016745678159725","1065"
"20:48:29:90 (H:m:s:ms)","GENERIC","124.31","0.06783653649133387","1595"
"20:30:42:424 (H:m:s:ms)","GENERIC","156.454","0.07584526521594717","922"
"20:30:48:484 (H:m:s:ms)","GENERIC","155.689","0.07259506356046867","1060"
"21:9:29:696 (H:m:s:ms)","GENERIC","124.499","0.09059203737841116","821"
"21:9:35:757 (H:m:s:ms)","GENERIC","156.089","0.0706722529338067","840"
"20:48:35:151 (H:m:s:ms)","GENERIC","124.61099999999999","0.05722227213867557","1541"
"21:9:41:818 (H:m:s:ms)","GENERIC","124.743","0.06635234141649159","515"
"20:48:36:455 (H:m:s:ms)","OPERA","155.992","0.09955268587031539","1024"
"21:9:47:878 (H:m:s:ms)","GENERIC","124.28999999999999","0.0467607069919793","1706"
"20:30:54:545 (H:m:s:ms)","GENERIC","93.574","0.05633829679196283","1071"
"20:48:41:212 (H:m:s:ms)","GENERIC","124.77799999999999","0.10300591294826772","1425"
"21:9:53:939 (H:m:s:ms)","GENERIC","156.334","0.07389072550854842","1627"
"20:31:0:606 (H:m:s:ms)","GENERIC","155.368","0.08569163514789618","912"
"20:48:44:50 (H:m:s:ms)","OPERA","124.729","0.09035108819386327","1490"
"21:10:0:0 (H:m:s:ms)","AMBULANCE","93.524","0.08024547769783728","1550"
"20:31:6:666 (H:m:s:ms)","GENERIC","155.906","0.06927098197992032","860"
"20:48:47:272 (H:m:s:ms)","GENERIC","124.176","0.09423878580673062","1151"
"21:10:0:0 (H:m:s:ms)","GENERIC","155.42700000000002","0.11035078662248894","1977"
"20:31:12:727 (H:m:s:ms)","GENERIC","156.22","0.04521246461652671","740"
"20:48:51:645 (H:m:s:ms)","OPERA","124.658","0.09231830802490792","975"
"21:10:0:0 (H:m:s:ms)","GENERIC","156.479","0.1307614543999111","2613"
"20:31:18:787 (H:m:s:ms)","GENERIC","93.16499999999999","0.04957854057602469","711"
"20:48:53:333 (H:m:s:ms)","GENERIC","156.228","0.07896737175899533","1144"
"21:10:6:60 (H:m:s:ms)","GENERIC","156.525","0.07326038870380365","1460"
"20:31:24:848 (H:m:s:ms)","GENERIC","155.293","0.07607816597333021","623"
"20:48:59:240 (H:m:s:ms)","OPERA","93.479","0.05800688875789784","1384"
"21:10:12:121 (H:m:s:ms)","GENERIC","124.154","0.062252647214022024","1278"
"20:31:30:909 (H:m:s:ms)","GENERIC","155.571","0.062484382744790824","1567"
"20:48:59:393 (H:m:s:ms)","GENERIC","124.18","0.08813738037219292","1705"
"20:31:36:969 (H:m:s:ms)","GENERIC","125.041","0.04659779775585733","1598"
"20:49:5:454 (H:m:s:ms)","GENERIC","155.47","0.08623070600900837","1154"
"20:31:43:30 (H:m:s:ms)","GENERIC","93.634","0.08646333679308597","1599"
"20:31:49:90 (H:m:s:ms)","GENERIC","155.413","0.03847147014831982","1477"
"20:49:6:835 (H:m:s:ms)","OPERA","124.685","0.13031213983821532","742"
"20:49:11:515 (H:m:s:ms)","GENERIC","156.482","0.13336579646644137","816"
"20:31:55:151 (H:m:s:ms)","GENERIC","155.824","0.08186384508875356","1371"
"20:49:14:430 (H:m:s:ms)","OPERA","124.745","0.12644028122019998","1134"
"20:32:1:212 (H:m:s:ms)","GENERIC","93.404","0.054250642071626436","1320"
"20:49:17:575 (H:m:s:ms)","GENERIC","156.094","0.11737509423524971","1022"
"20:32:7:272 (H:m:s:ms)","GENERIC","186.834","0.09239922479850257","1292"
"20:49:22:25 (H:m:s:ms)","OPERA","124.75200000000001","0.10598863045769431","1465"
"20:32:13:333 (H:m:s:ms)","GENERIC","155.385","0.08219464393054542","1238"
"20:49:23:636 (H:m:s:ms)","GENERIC","155.483","0.09265243383839991","861"
"20:32:19:393 (H:m:s:ms)","GENERIC","156.033","0.045179354349410165","1219"
"20:49:29:620 (H:m:s:ms)","OPERA","124.679","0.07944864514919091","969"
"20:32:25:454 (H:m:s:ms)","GENERIC","93.118","0.07161261319562028","890"
"20:49:29:696 (H:m:s:ms)","GENERIC","155.779","0.10358421050846331","1280"
"20:32:31:515 (H:m:s:ms)","GENERIC","156.322","0.05458398778299141","1005"
"20:49:35:757 (H:m:s:ms)","GENERIC","156.06799999999998","0.07566377203207372","832"
"20:32:37:575 (H:m:s:ms)","GENERIC","124.603","0.060232460456426835","1015"
"20:49:37:215 (H:m:s:ms)","OPERA","93.399","0.10285481015955358","1281"
"20:32:43:636 (H:m:s:ms)","GENERIC","124.46000000000001","0.045628033554384516","955"
"20:32:49:696 (H:m:s:ms)","GENERIC","125.084","0.07757799817761842","661"
"20:49:41:818 (H:m:s:ms)","GENERIC","124.83099999999999","0.08850755890243829","511"
"20:49:44:810 (H:m:s:ms)","OPERA","124.739","0.08278394610888123","725"
"20:32:55:757 (H:m:s:ms)","GENERIC","155.751","0.04825516888963118","824"
"20:49:47:878 (H:m:s:ms)","GENERIC","124.322","0.08415275877723612","1699"
"20:33:1:818 (H:m:s:ms)","GENERIC","124.84","0.05527723440626831","699"
"20:49:52:405 (H:m:s:ms)","OPERA","124.682","0.09442450301417288","1105"
"20:33:7:878 (H:m:s:ms)","GENERIC","124.908","0.07247603973464614","1535"
"20:49:53:939 (H:m:s:ms)","GENERIC","125.017","0.1093137514300237","1628"
"20:33:13:939 (H:m:s:ms)","GENERIC","155.31400000000002","0.067801911475594","1579"
"20:50:0:0 (H:m:s:ms)","OPERA","93.43299999999999","0.11442705239863923","2635"
"20:33:20:0 (H:m:s:ms)","GENERIC","124.44200000000001","0.06167003223705238","1590"
"20:50:0:0 (H:m:s:ms)","GENERIC","125.031","0.06513933112613907","1636"
"20:33:26:60 (H:m:s:ms)","GENERIC","93.167","0.06045394909124927","1422"
"20:50:0:0 (H:m:s:ms)","GENERIC","124.346","0.09071181922447691","2070"
"20:33:32:121 (H:m:s:ms)","GENERIC","155.367","0.05162358762364787","1251"
"20:50:6:60 (H:m:s:ms)","GENERIC","156.57","0.07286371260672944","1473"
"20:33:38:181 (H:m:s:ms)","GENERIC","124.398","0.06423371921125955","1286"
"20:50:12:121 (H:m:s:ms)","GENERIC","124.131","0.04577271946204715","1342"
"20:33:44:242 (H:m:s:ms)","GENERIC","93.503","0.0581917568522459","1099"
"20:33:50:303 (H:m:s:ms)","GENERIC","124.243","0.07509815443490146","1281"
"20:50:18:181 (H:m:s:ms)","GENERIC","124.81800000000001","0.07374047182688426","1367"
"20:50:24:242 (H:m:s:ms)","GENERIC","124.782","0.06626444203856588","1296"
"20:33:56:363 (H:m:s:ms)","GENERIC","155.951","0.06019072381336567","971"
"20:50:30:303 (H:m:s:ms)","GENERIC","125.013","0.05025882024433136","1230"
"20:34:2:424 (H:m:s:ms)","GENERIC","155.404","0.05404595037757575","922"
"20:50:36:363 (H:m:s:ms)","GENERIC","124.30799999999999","0.0830981361996855","1012"
"20:10:0:0 (H:m:s:ms)","GENERIC","93.938","0.07841271848312437","1620"
"20:34:8:484 (H:m:s:ms)","GENERIC","124.849","0.05600503535299697","1096"
"20:50:42:424 (H:m:s:ms)","GENERIC","93.53999999999999","0.060800663572710904","1005"
"20:10:0:0 (H:m:s:ms)","GENERIC","155.398","0.1106860432184967","2155"
"20:34:14:545 (H:m:s:ms)","GENERIC","155.722","0.07468772637570141","953"
"20:50:48:484 (H:m:s:ms)","GENERIC","124.402","0.06190762629240175","1128"
"20:10:6:60 (H:m:s:ms)","GENERIC","156.573","0.07864279452457619","1157"
"20:34:20:606 (H:m:s:ms)","GENERIC","155.243","0.07579728217092326","786"
"20:50:54:545 (H:m:s:ms)","GENERIC","125.036","0.061860175571059724","1100"
"20:10:12:121 (H:m:s:ms)","GENERIC","93.094","0.04575444110974236","1377"
"20:34:26:666 (H:m:s:ms)","GENERIC","124.46000000000001","0.08218553149643963","885"
"20:51:0:606 (H:m:s:ms)","GENERIC","155.306","0.05718263878857625","968"
"20:10:18:181 (H:m:s:ms)","GENERIC","156.238","0.05782563402998494","1442"
"20:34:32:727 (H:m:s:ms)","GENERIC","155.44","0.06703677969688264","764"
"20:51:6:666 (H:m:s:ms)","GENERIC","155.866","0.05985728372836721","972"
"20:10:24:242 (H:m:s:ms)","GENERIC","124.741","0.08703774199410662","1330"
"20:34:38:787 (H:m:s:ms)","GENERIC","155.37800000000001","0.079966940505938","685"
"20:51:12:727 (H:m:s:ms)","GENERIC","124.76599999999999","0.07810650469319615","747"
"20:10:30:303 (H:m:s:ms)","GENERIC","125.05000000000001","0.04159419487116381","1242"
"20:34:44:848 (H:m:s:ms)","GENERIC","125.045","0.052414988113120904","776"
"20:10:36:363 (H:m:s:ms)","GENERIC","155.511","0.08876450501878339","1076"
"20:34:50:909 (H:m:s:ms)","GENERIC","155.296","0.07746740468441542","1467"
"20:10:42:424 (H:m:s:ms)","GENERIC","156.528","0.09120211330726073","978"
"20:10:48:484 (H:m:s:ms)","GENERIC","124.443","0.06444303093645905","1046"
"20:51:18:787 (H:m:s:ms)","GENERIC","93.18","0.05698575229368033","728"
"20:51:24:848 (H:m:s:ms)","GENERIC","186.32999999999998","0.06191469053445744","623"
"20:34:56:969 (H:m:s:ms)","GENERIC","124.275","0.0700643073051097","1634"
"20:51:30:909 (H:m:s:ms)","GENERIC","124.399","0.07190687201745354","1523"
"20:35:3:30 (H:m:s:ms)","GENERIC","155.365","0.06661840574890532","1475"
"20:51:36:969 (H:m:s:ms)","GENERIC","156.60999999999999","0.07908783239041091","1557"
"20:10:54:545 (H:m:s:ms)","GENERIC","124.971","0.0783732157753941","1167"
"20:35:9:90 (H:m:s:ms)","GENERIC","155.865","0.07399889567546411","1547"
"20:51:43:30 (H:m:s:ms)","GENERIC","155.9","0.06764111295569206","1624"
"20:11:0:606 (H:m:s:ms)","GENERIC","155.348","0.05984807219970132","1001"
"20:35:15:151 (H:m:s:ms)","GENERIC","124.446","0.056655816131260466","1311"
"20:51:49:90 (H:m:s:ms)","GENERIC","124.332","0.06456708669970475","1437"
"20:11:6:666 (H:m:s:ms)","GENERIC","155.94","0.06334943755306133","969"
"20:35:21:212 (H:m:s:ms)","GENERIC","124.549","0.03479792332266477","1431"
"20:51:55:151 (H:m:s:ms)","GENERIC","155.877","0.0320480530521872","1436"
"20:11:12:727 (H:m:s:ms)","GENERIC","156.192","0.0891389870747843","787"
"20:35:27:272 (H:m:s:ms)","GENERIC","124.745","0.07670689898674912","1318"
"20:52:1:212 (H:m:s:ms)","GENERIC","156.01","0.06406632992334196","1279"
"20:11:18:787 (H:m:s:ms)","GENERIC","124.225","0.07315356049463771","753"
"20:35:33:333 (H:m:s:ms)","GENERIC","156.037","0.06882835789619789","1239"
"20:52:7:272 (H:m:s:ms)","GENERIC","124.486","0.05660982950318642","1292"
"20:11:24:848 (H:m:s:ms)","GENERIC","124.265","0.06464794277779835","655"
"20:35:39:393 (H:m:s:ms)","GENERIC","124.719","0.06095415388287987","1254"
"20:52:13:333 (H:m:s:ms)","GENERIC","155.357","0.08016260165306235","1245"
"20:11:30:909 (H:m:s:ms)","GENERIC","93.245","0.059949424298080874","1508"
"20:35:45:454 (H:m:s:ms)","GENERIC","124.997","0.06292086584911089","1146"
"20:11:36:969 (H:m:s:ms)","GENERIC","156.552","0.06827696628695468","1676"
"20:35:51:515 (H:m:s:ms)","GENERIC","124.257","0.06921706572318541","1058"
"20:11:43:30 (H:m:s:ms)","GENERIC","125.131","0.08341232528937968","1365"
"20:11:49:90 (H:m:s:ms)","GENERIC","155.399","0.07540932478113517","1486"
"20:0:54:545 (H:m:s:ms)","GENERIC","94.005","0.05376490032020492","1079"
"20:1:0:606 (H:m:s:ms)","GENERIC","124.309","0.07569337918279039","887"
"20:1:6:666 (H:m:s:ms)","GENERIC","124.925","0.04698236109180061","945"
"20:1:12:727 (H:m:s:ms)","GENERIC","93.785","0.08156143198996207","722"
"20:1:18:787 (H:m:s:ms)","GENERIC","93.138","0.08570995325269007","696"
"20:1:24:848 (H:m:s:ms)","GENERIC","93.206","0.08099599150779858","648"
"20:1:30:909 (H:m:s:ms)","GENERIC","124.55600000000001","0.05373218948874894","1465"
"20:1:36:969 (H:m:s:ms)","GENERIC","125.463","0.05301304363312697","1606"
"20:1:43:30 (H:m:s:ms)","GENERIC","94.084","0.06036081944990377","1354"
"20:1:49:90 (H:m:s:ms)","GENERIC","124.41300000000001","0.03894206372615501","1435"
"20:35:57:575 (H:m:s:ms)","GENERIC","124.779","0.058662672747309574","1090"
"20:36:3:636 (H:m:s:ms)","GENERIC","124.924","0.06630789473340337","846"
"20:11:55:151 (H:m:s:ms)","GENERIC","155.868","0.0590345094286983","1439"
"20:36:9:696 (H:m:s:ms)","GENERIC","124.449","0.09394695766115253","713"
"20:12:1:212 (H:m:s:ms)","GENERIC","124.68299999999999","0.05413072750231707","1286"
"20:36:15:757 (H:m:s:ms)","GENERIC","93.17099999999999","0.0637787900385297","735"
"20:12:7:272 (H:m:s:ms)","GENERIC","124.428","0.0876182980202192","1319"
"20:36:21:818 (H:m:s:ms)","GENERIC","156.447","0.06786672621561099","716"
"20:12:13:333 (H:m:s:ms)","GENERIC","155.327","0.06641308224820024","1335"
"20:36:27:878 (H:m:s:ms)","GENERIC","156.329","0.08023594556524015","1607"
"20:12:19:393 (H:m:s:ms)","GENERIC","124.685","0.040207251933895884","1253"
"20:36:33:939 (H:m:s:ms)","GENERIC","155.213","0.06283907099377253","1639"
"20:12:25:454 (H:m:s:ms)","GENERIC","124.15","0.04640075162536628","900"
"20:36:40:0 (H:m:s:ms)","GENERIC","156.11","0.08151017787232903","1484"
"20:12:31:515 (H:m:s:ms)","GENERIC","156.26500000000001","0.07183761237415011","1012"
"20:36:46:60 (H:m:s:ms)","GENERIC","124.513","0.06644312573317601","1456"
"20:12:37:575 (H:m:s:ms)","GENERIC","155.927","0.07210780533665798","974"
"20:36:52:121 (H:m:s:ms)","GENERIC","93.122","0.0517027986611904","1136"
"20:12:43:636 (H:m:s:ms)","GENERIC","124.419","0.0725970366141828","975"
"20:12:49:696 (H:m:s:ms)","GENERIC","125.018","0.07746667846853747","763"
"20:1:55:151 (H:m:s:ms)","GENERIC","124.882","0.069744663738334","1386"
"20:2:1:212 (H:m:s:ms)","GENERIC","124.921","0.049553895892856116","1289"
"20:2:7:272 (H:m:s:ms)","GENERIC","93.411","0.0832762170516859","1288"
"20:2:13:333 (H:m:s:ms)","GENERIC","124.336","0.04883502190422724","1303"
"20:2:19:393 (H:m:s:ms)","GENERIC","93.68299999999999","0.0747916010337967","1181"
"20:2:25:454 (H:m:s:ms)","GENERIC","124.173","0.07195625604329135","874"
"20:2:31:515 (H:m:s:ms)","GENERIC","93.824","0.06778064971931737","1002"
"20:2:37:575 (H:m:s:ms)","GENERIC","93.581","0.0717025297928579","937"
"20:2:43:636 (H:m:s:ms)","GENERIC","93.383","0.03175037572836688","961"
"20:2:49:696 (H:m:s:ms)","GENERIC","125.436","0.08664389186301472","695"
"20:36:58:181 (H:m:s:ms)","GENERIC","155.99099999999999","0.04906608281851757","1447"
"20:37:4:242 (H:m:s:ms)","GENERIC","124.62299999999999","0.08013285935348086","1435"
"20:12:55:757 (H:m:s:ms)","GENERIC","124.49199999999999","0.06329809274636734","832"
"20:37:10:303 (H:m:s:ms)","GENERIC","156.347","0.0757580535276768","1331"
"20:13:1:818 (H:m:s:ms)","GENERIC","93.437","0.05780216770960942","706"
"20:37:16:363 (H:m:s:ms)","GENERIC","124.326","0.046680966983379535","1117"
"20:13:7:878 (H:m:s:ms)","GENERIC","124.9","0.07186936756514825","1504"
"20:37:22:424 (H:m:s:ms)","GENERIC","155.798","0.054271717442559486","1129"
"20:13:13:939 (H:m:s:ms)","GENERIC","155.334","0.08978445761410683","1596"
"20:37:28:484 (H:m:s:ms)","GENERIC","155.767","0.06501765050397303","1115"
"20:13:20:0 (H:m:s:ms)","GENERIC","155.644","0.08989748822608319","1579"
"20:37:34:545 (H:m:s:ms)","GENERIC","156.28199999999998","0.05729539903341468","974"
"20:13:26:60 (H:m:s:ms)","GENERIC","124.28200000000001","0.06085657470140119","1443"
"20:37:40:606 (H:m:s:ms)","GENERIC","124.777","0.05141594936226691","982"
"20:13:32:121 (H:m:s:ms)","GENERIC","124.315","0.06398881304531233","1238"
"20:37:46:666 (H:m:s:ms)","GENERIC","156.09300000000002","0.049458530899659604","888"
"20:13:38:181 (H:m:s:ms)","GENERIC","124.33099999999999","0.07395109409084044","1298"
"20:37:52:727 (H:m:s:ms)","GENERIC","156.57999999999998","0.06443740198024117","849"
"20:13:44:242 (H:m:s:ms)","GENERIC","156.367","0.058462703345112145","1079"
"20:13:50:303 (H:m:s:ms)","GENERIC","124.159","0.05017164971280132","1272"
"20:2:55:757 (H:m:s:ms)","GENERIC","124.713","0.0788677335642618","759"
"20:3:1:818 (H:m:s:ms)","GENERIC","93.80600000000001","0.058413633443831325","697"
"20:3:7:878 (H:m:s:ms)","GENERIC","125.321","0.07135007157488561","503"
"20:3:13:939 (H:m:s:ms)","GENERIC","93.206","0.07977794579372013","1570"
"20:3:20:0 (H:m:s:ms)","GENERIC","93.414","0.0658591814975051","1541"
"20:3:26:60 (H:m:s:ms)","GENERIC","93.249","0.07476723079869142","1425"
"20:3:32:121 (H:m:s:ms)","GENERIC","93.28099999999999","0.04730025312921006","1238"
"20:3:38:181 (H:m:s:ms)","GENERIC","62.18","0.054341715993583145","1292"
"20:3:44:242 (H:m:s:ms)","GENERIC","93.89099999999999","0.04847527222774503","1101"
"20:3:50:303 (H:m:s:ms)","GENERIC","124.196","0.07279960495164334","1264"
"20:37:58:787 (H:m:s:ms)","GENERIC","155.468","0.0825093276907691","690"
"20:38:4:848 (H:m:s:ms)","GENERIC","93.211","0.05265888703935626","842"
"20:13:56:363 (H:m:s:ms)","GENERIC","93.25999999999999","0.06438215211552832","1183"
"20:38:10:909 (H:m:s:ms)","GENERIC","155.341","0.07790870251693623","1578"
"20:14:2:424 (H:m:s:ms)","GENERIC","93.17","0.05634238416503127","927"
"20:38:16:969 (H:m:s:ms)","GENERIC","156.009","0.05854905149597458","1522"
"20:14:8:484 (H:m:s:ms)","GENERIC","124.852","0.039542689090860686","1071"
"20:38:23:30 (H:m:s:ms)","GENERIC","124.869","0.050425034490018554","1549"
"20:14:14:545 (H:m:s:ms)","GENERIC","155.68","0.05292433547791202","1139"
"20:38:29:90 (H:m:s:ms)","GENERIC","124.328","0.06849884461448129","1543"
"20:14:20:606 (H:m:s:ms)","GENERIC","124.14699999999999","0.07506932471246465","778"
"20:38:35:151 (H:m:s:ms)","GENERIC","124.654","0.05349401700693272","1496"
"20:14:26:666 (H:m:s:ms)","GENERIC","124.452","0.04312275531483538","868"
"20:38:41:212 (H:m:s:ms)","GENERIC","156.01600000000002","0.06558218437901567","1296"
"20:14:32:727 (H:m:s:ms)","GENERIC","124.247","0.06177601784044958","792"
"20:38:47:272 (H:m:s:ms)","GENERIC","124.19800000000001","0.06810274277856447","1136"
"20:14:38:787 (H:m:s:ms)","GENERIC","155.38","0.08210876546284547","674"
"20:38:53:333 (H:m:s:ms)","GENERIC","124.844","0.06686718267216166","1103"
"20:14:44:848 (H:m:s:ms)","GENERIC","125.14","0.055224460923601414","701"
"20:14:50:909 (H:m:s:ms)","GENERIC","155.293","0.0659272924424539","1556"
"20:3:56:363 (H:m:s:ms)","GENERIC","124.89399999999999","0.06581946831751585","1252"
"20:4:2:424 (H:m:s:ms)","GENERIC","93.279","0.03486030047182741","952"
"20:4:8:484 (H:m:s:ms)","GENERIC","125.18299999999999","0.03449968808818299","1150"
"20:4:14:545 (H:m:s:ms)","GENERIC","93.455","0.0831392314382651","1112"
"20:4:20:606 (H:m:s:ms)","GENERIC","155.264","0.08053430993197032","713"
"20:4:26:666 (H:m:s:ms)","GENERIC","93.465","0.07643053704471896","834"
"20:4:32:727 (H:m:s:ms)","GENERIC","124.37","0.07640551230482959","835"
"20:4:38:787 (H:m:s:ms)","GENERIC","93.22399999999999","0.07731762809141966","695"
"20:4:44:848 (H:m:s:ms)","GENERIC","93.991","0.0628763281812255","621"
"20:4:50:909 (H:m:s:ms)","GENERIC","124.3","0.07926481398932488","1506"
"20:38:59:393 (H:m:s:ms)","GENERIC","93.112","0.058550858684415945","1050"
"20:39:5:454 (H:m:s:ms)","GENERIC","124.281","0.07843228788767222","1093"
"20:14:56:969 (H:m:s:ms)","GENERIC","186.453","0.05867103209749315","1645"
"20:39:11:515 (H:m:s:ms)","GENERIC","125.043","0.0771362381033177","798"
"20:15:3:30 (H:m:s:ms)","GENERIC","155.411","0.07656255978423261","1481"
"20:39:17:575 (H:m:s:ms)","GENERIC","156.127","0.05401219491980445","1012"
"20:15:9:90 (H:m:s:ms)","GENERIC","155.8","0.059989846441041994","1540"
"20:39:23:636 (H:m:s:ms)","GENERIC","124.366","0.04382848146902171","854"
"20:15:15:151 (H:m:s:ms)","GENERIC","124.44800000000001","0.06858026799164628","1217"
"20:39:29:696 (H:m:s:ms)","GENERIC","155.758","0.04330062326412743","908"
"20:15:21:212 (H:m:s:ms)","GENERIC","124.583","0.05916911028227453","1367"
"20:39:35:757 (H:m:s:ms)","GENERIC","156.01","0.06429038459584634","806"
"20:15:27:272 (H:m:s:ms)","GENERIC","156.128","0.06937548893583535","1317"
"20:39:41:818 (H:m:s:ms)","GENERIC","124.809","0.04898822846454236","516"
"20:15:33:333 (H:m:s:ms)","GENERIC","124.74199999999999","0.07174667086714921","1272"
"20:39:47:878 (H:m:s:ms)","GENERIC","155.41199999999998","0.042788741284317616","1701"
"20:15:39:393 (H:m:s:ms)","GENERIC","156.019","0.05971300873131641","1233"
"20:39:53:939 (H:m:s:ms)","GENERIC","156.406","0.08505800380783156","1613"
"20:15:45:454 (H:m:s:ms)","GENERIC","125.055","0.06012968159485372","1116"
"20:15:51:515 (H:m:s:ms)","GENERIC","93.122","0.06290759715892849","1073"
"20:4:56:969 (H:m:s:ms)","GENERIC","124.348","0.07080632632871284","1594"
"20:5:3:30 (H:m:s:ms)","GENERIC","124.41199999999999","0.08889660773985489","1456"
"20:5:9:90 (H:m:s:ms)","GENERIC","93.578","0.06158882720989309","1550"
"20:5:15:151 (H:m:s:ms)","GENERIC","93.459","0.04894657736829006","1286"
"20:5:21:212 (H:m:s:ms)","GENERIC","93.594","0.040734725194514036","1401"
"20:5:27:272 (H:m:s:ms)","GENERIC","93.727","0.0400907578952277","1295"
"20:5:33:333 (H:m:s:ms)","GENERIC","93.632","0.068170151827077","1199"
"20:5:39:393 (H:m:s:ms)","GENERIC","93.68100000000001","0.03968278939560402","1248"
"20:5:45:454 (H:m:s:ms)","GENERIC","125.384","0.07592915383411195","1069"
"20:5:51:515 (H:m:s:ms)","GENERIC","124.384","0.0557417752410929","1040"
"20:15:57:575 (H:m:s:ms)","GENERIC","156.26999999999998","0.06729253639102903","1055"
"20:16:3:636 (H:m:s:ms)","GENERIC","156.363","0.06086934709658997","846"
"20:16:9:696 (H:m:s:ms)","GENERIC","124.46000000000001","0.08750043052707168","690"
"20:16:15:757 (H:m:s:ms)","GENERIC","155.453","0.05605638265644128","765"
"20:16:21:818 (H:m:s:ms)","GENERIC","124.936","0.05989724835374224","706"
"20:16:27:878 (H:m:s:ms)","GENERIC","156.26100000000002","0.07724624280221949","1658"
"20:16:33:939 (H:m:s:ms)","GENERIC","124.15","0.06851449340664069","1626"
"20:16:40:0 (H:m:s:ms)","GENERIC","156.078","0.04984768866662344","1543"
"20:16:46:60 (H:m:s:ms)","GENERIC","155.648","0.08129768013811532","1454"
"20:16:52:121 (H:m:s:ms)","GENERIC","93.12","0.06257223516393391","1134"
"20:5:57:575 (H:m:s:ms)","GENERIC","93.82","0.04678244503309389","1068"
"20:6:3:636 (H:m:s:ms)","GENERIC","125.292","0.07416090655508856","819"
"20:6:9:696 (H:m:s:ms)","GENERIC","93.312","0.07066590869995931","619"
"20:6:15:757 (H:m:s:ms)","GENERIC","93.28399999999999","0.052755945370570774","755"
"20:6:21:818 (H:m:s:ms)","GENERIC","93.92","0.038590989190433266","755"
"20:6:27:878 (H:m:s:ms)","GENERIC","125.202","0.06821554062691054","565"
"20:6:33:939 (H:m:s:ms)","GENERIC","124.17099999999999","0.039069917455918673","1640"
"20:6:40:0 (H:m:s:ms)","GENERIC","125.038","0.08826061436356634","1450"
"20:6:46:60 (H:m:s:ms)","GENERIC","124.697","0.05532537722568849","1460"
"20:6:52:121 (H:m:s:ms)","GENERIC","93.093","0.05980118477952305","1114"
"20:16:58:181 (H:m:s:ms)","GENERIC","93.44200000000001","0.0630866413114955","1433"
"20:17:4:242 (H:m:s:ms)","GENERIC","155.947","0.04548034045325889","1436"
"20:17:10:303 (H:m:s:ms)","GENERIC","124.997","0.06543924359290047","1333"
"20:17:16:363 (H:m:s:ms)","GENERIC","124.32900000000001","0.06975285522425789","1108"
"20:17:22:424 (H:m:s:ms)","GENERIC","155.993","0.07005497785678824","1034"
"20:17:28:484 (H:m:s:ms)","GENERIC","155.775","0.0939912486677959","1086"
"20:17:34:545 (H:m:s:ms)","GENERIC","124.76400000000001","0.0705821411199666","970"
"20:17:40:606 (H:m:s:ms)","GENERIC","124.794","0.05587184508657586","954"
"20:17:46:666 (H:m:s:ms)","GENERIC","124.752","0.057286584257996924","879"
"20:17:52:727 (H:m:s:ms)","GENERIC","125.081","0.06713789593384172","905"
"20:6:58:181 (H:m:s:ms)","GENERIC","125.017","0.04658241738306619","1420"
"20:7:4:242 (H:m:s:ms)","GENERIC","124.904","0.06604708039076397","1431"
"20:7:10:303 (H:m:s:ms)","GENERIC","125.274","0.07905132699846472","1300"
"20:7:16:363 (H:m:s:ms)","GENERIC","93.291","0.05033523766982668","1099"
"20:7:22:424 (H:m:s:ms)","GENERIC","93.632","0.07368697427226101","1011"
"20:7:28:484 (H:m:s:ms)","GENERIC","124.792","0.06679469890803492","1078"
"20:7:34:545 (H:m:s:ms)","GENERIC","125.13499999999999","0.056146803053419334","975"
"20:7:40:606 (H:m:s:ms)","GENERIC","93.764","0.0603303761111799","985"
"20:7:46:666 (H:m:s:ms)","GENERIC","125.042","0.06518156022697065","880"
"20:7:52:727 (H:m:s:ms)","GENERIC","93.968","0.05217750335910046","896"
"20:17:58:787 (H:m:s:ms)","GENERIC","124.295","0.07273616430000023","662"
"20:18:4:848 (H:m:s:ms)","GENERIC","155.572","0.05301121881741773","836"
"20:18:10:909 (H:m:s:ms)","GENERIC","124.268","0.08414776788193569","1578"
"20:18:16:969 (H:m:s:ms)","GENERIC","124.655","0.07746963092924844","1451"
"20:18:23:30 (H:m:s:ms)","GENERIC","124.882","0.06974352841841262","1539"
"20:18:29:90 (H:m:s:ms)","GENERIC","155.37","0.05109875354122709","1548"
"20:18:35:151 (H:m:s:ms)","GENERIC","124.644","0.04180825992246085","1493"
"20:18:41:212 (H:m:s:ms)","GENERIC","124.732","0.047579205374308195","1376"
"20:18:47:272 (H:m:s:ms)","GENERIC","124.169","0.07307330780665863","1133"
"20:18:53:333 (H:m:s:ms)","GENERIC","124.862","0.05545003041559509","1122"
"20:7:58:787 (H:m:s:ms)","GENERIC","124.44","0.07459643927191842","662"
"20:8:4:848 (H:m:s:ms)","GENERIC","93.36","0.05185900690851699","841"
"20:8:10:909 (H:m:s:ms)","GENERIC","124.226","0.07505300077720561","1342"
"20:8:16:969 (H:m:s:ms)","GENERIC","93.655","0.06685609701360788","1405"
"20:8:23:30 (H:m:s:ms)","GENERIC","125.226","0.06011824983162482","1524"
"20:8:29:90 (H:m:s:ms)","GENERIC","93.271","0.08187473743896091","1557"
"20:8:35:151 (H:m:s:ms)","GENERIC","93.608","0.06341785198394477","1517"
"20:8:41:212 (H:m:s:ms)","GENERIC","93.711","0.043518226064682274","1435"
"20:8:47:272 (H:m:s:ms)","GENERIC","93.114","0.06743328154805218","1129"
"20:8:53:333 (H:m:s:ms)","GENERIC","125.191","0.06993628715428488","1054"
"20:18:59:393 (H:m:s:ms)","GENERIC","155.144","0.05089283445731703","1062"
"20:19:5:454 (H:m:s:ms)","GENERIC","155.346","0.06133933741190578","1122"
"20:19:11:515 (H:m:s:ms)","GENERIC","156.548","0.0869980696160726","804"
"20:19:17:575 (H:m:s:ms)","GENERIC","156.055","0.06319939333549578","1009"
"20:19:23:636 (H:m:s:ms)","GENERIC","155.586","0.06984990508522287","804"
"20:19:29:696 (H:m:s:ms)","GENERIC","124.544","0.03287906518808422","916"
"20:19:35:757 (H:m:s:ms)","GENERIC","124.757","0.04937008687454598","838"
"20:19:41:818 (H:m:s:ms)","GENERIC","124.725","0.07112660345735054","487"
"20:19:47:878 (H:m:s:ms)","GENERIC","155.42000000000002","0.05443264986926014","1664"
"20:19:53:939 (H:m:s:ms)","GENERIC","156.385","0.06752379862651654","1553"
"20:8:59:393 (H:m:s:ms)","GENERIC","62.088","0.03809314843801763","1117"
"20:9:5:454 (H:m:s:ms)","GENERIC","124.422","0.06359868161662902","1096"
"20:9:11:515 (H:m:s:ms)","GENERIC","125.486","0.09115619436406701","902"
"20:9:17:575 (H:m:s:ms)","GENERIC","125.09400000000001","0.07884639977840374","993"
"20:9:23:636 (H:m:s:ms)","GENERIC","93.334","0.04599286725129501","842"
"20:9:29:696 (H:m:s:ms)","GENERIC","124.732","0.06539064281635723","869"
"20:9:35:757 (H:m:s:ms)","GENERIC","125.074","0.0455457429724093","808"
"20:9:41:818 (H:m:s:ms)","GENERIC","62.349000000000004","0.05208293448351984","524"
"20:9:47:878 (H:m:s:ms)","GENERIC","93.293","0.04943995181812379","679"
"20:9:53:939 (H:m:s:ms)","GENERIC","93.90299999999999","0.05243826792435217","1670"
"21:41:12:727 (H:m:s:ms)","GENERIC","156.154","0.07256727170817091","697"
"21:41:6:666 (H:m:s:ms)","GENERIC","124.638","0.06504224506740143","905"
"21:41:0:606 (H:m:s:ms)","GENERIC","124.21100000000001","0.04527417470780945","992"
"21:40:54:545 (H:m:s:ms)","GENERIC","124.988","0.07556789259588827","1124"
"21:40:48:484 (H:m:s:ms)","GENERIC","155.648","0.05395001805045866","1141"
"21:40:42:424 (H:m:s:ms)","GENERIC","187.89100000000002","0.06898149996304713","1013"
"21:40:36:363 (H:m:s:ms)","GENERIC","124.3","0.058544152042162435","1021"
"21:41:30:909 (H:m:s:ms)","GENERIC","155.594","0.08115147487587146","1489"
"21:41:24:848 (H:m:s:ms)","GENERIC","124.256","0.07691685347208507","626"
"21:41:18:787 (H:m:s:ms)","GENERIC","93.57","0.07660505062261287","714"
