"time (H:m:s:ms)","type","latency","utilisation","waiting"
"21:43:1:818 (H:m:s:ms)","GENERIC","93.30499999999999","0.06062509364094543","2265"
"21:42:43:636 (H:m:s:ms)","GENERIC","62.023","0.09055385138137405","3498"
"21:42:37:575 (H:m:s:ms)","GENERIC","93.12899999999999","0.06890524090827875","3204"
"21:42:31:515 (H:m:s:ms)","GENERIC","93.22999999999999","0.08817922650705803","3145"
"21:42:25:454 (H:m:s:ms)","GENERIC","62.119","0.0719129179220281","3052"
"21:42:19:393 (H:m:s:ms)","GENERIC","93.324","0.059909758634201296","1571"
"21:42:13:333 (H:m:s:ms)","GENERIC","93.18","0.06287997689415206","2995"
"21:42:7:272 (H:m:s:ms)","GENERIC","62.095","0.0537645329190164","3233"
"21:42:1:212 (H:m:s:ms)","GENERIC","93.138","0.06739228383347272","3694"
"21:42:55:757 (H:m:s:ms)","GENERIC","62.065","0.060826932100401354","3143"
"21:42:49:696 (H:m:s:ms)","GENERIC","62.063","0.07747983608655869","1314"
"21:44:8:484 (H:m:s:ms)","GENERIC","62.075","0.06903350635742038","2716"
"21:44:2:424 (H:m:s:ms)","GENERIC","93.237","0.06410069145919073","3264"
"21:43:50:303 (H:m:s:ms)","GENERIC","62.115","0.0643476883811687","2135"
"20:0:0:0 (H:m:s:ms)","GENERIC","62.066","0.06895049852002297","3781"
"21:43:44:242 (H:m:s:ms)","GENERIC","93.322","0.07457802534008925","3304"
"20:0:6:60 (H:m:s:ms)","GENERIC","62.152","0.06489151196944826","2680"
"21:43:38:181 (H:m:s:ms)","GENERIC","62.083","0.07370567109495094","3348"
"20:0:12:121 (H:m:s:ms)","GENERIC","31.028","0.0597194839460586","3033"
"21:43:32:121 (H:m:s:ms)","GENERIC","124.263","0.09509643397651925","2836"
"20:0:18:181 (H:m:s:ms)","GENERIC","62.11","0.09185876424099981","3546"
"21:43:26:60 (H:m:s:ms)","GENERIC","62.093","0.04682288769928655","2331"
"20:0:24:242 (H:m:s:ms)","GENERIC","62.152","0.09063872865089485","1901"
"21:43:20:0 (H:m:s:ms)","GENERIC","62.135","0.07082386558159795","3611"
"20:0:30:303 (H:m:s:ms)","GENERIC","31.013","0.06217662087444794","4026"
"21:43:13:939 (H:m:s:ms)","GENERIC","93.19200000000001","0.06051087063709002","3051"
"20:0:36:363 (H:m:s:ms)","GENERIC","31.027","0.07502083044061826","2827"
"21:43:7:878 (H:m:s:ms)","GENERIC","93.27199999999999","0.12358832499097186","2989"
"20:0:42:424 (H:m:s:ms)","GENERIC","62.072","0.07627819186298951","2625"
"21:10:18:181 (H:m:s:ms)","GENERIC","93.119","0.07242403392777966","3785"
"20:0:48:484 (H:m:s:ms)","GENERIC","62.32","0.08726750408734701","1464"
"21:10:24:242 (H:m:s:ms)","GENERIC","93.19","0.05990951513270424","2090"
"21:10:30:303 (H:m:s:ms)","GENERIC","62.059","0.054113625816930945","4125"
"21:10:36:363 (H:m:s:ms)","GENERIC","93.242","0.10462475702657684","2747"
"21:10:42:424 (H:m:s:ms)","GENERIC","93.131","0.07455201746283419","2851"
"21:10:48:484 (H:m:s:ms)","GENERIC","93.33500000000001","0.06030551817965116","1441"
"21:10:54:545 (H:m:s:ms)","GENERIC","93.143","0.09995304547832629","1701"
"21:11:0:606 (H:m:s:ms)","GENERIC","93.215","0.0925600590614251","2907"
"21:43:56:363 (H:m:s:ms)","GENERIC","62.119","0.07288689868556625","1239"
"21:11:6:666 (H:m:s:ms)","GENERIC","93.154","0.059359485929986036","3469"
"21:11:12:727 (H:m:s:ms)","GENERIC","62.127","0.05466517401417468","1986"
"21:25:51:515 (H:m:s:ms)","GENERIC","62.065","0.0933123984684215","2802"
"21:45:15:151 (H:m:s:ms)","GENERIC","62.131","0.060134093204767994","1916"
"21:45:9:90 (H:m:s:ms)","GENERIC","62.077","0.07238271763687791","3623"
"21:45:3:30 (H:m:s:ms)","GENERIC","93.205","0.08807389561746051","4130"
"21:44:56:969 (H:m:s:ms)","GENERIC","93.16","0.06658512958375566","3906"
"21:44:50:909 (H:m:s:ms)","GENERIC","93.19","0.08631362631440102","3704"
"21:44:44:848 (H:m:s:ms)","GENERIC","93.127","0.07460077698118266","3752"
"21:44:38:787 (H:m:s:ms)","GENERIC","62.061","0.04821852161199348","3209"
"21:44:32:727 (H:m:s:ms)","GENERIC","62.051","0.036443449342783124","3059"
"21:44:26:666 (H:m:s:ms)","GENERIC","62.115","0.06236868922032691","2684"
"21:44:20:606 (H:m:s:ms)","GENERIC","93.339","0.0893613352201232","1841"
"21:11:18:787 (H:m:s:ms)","GENERIC","62.071","0.09513148795220223","2438"
"21:44:14:545 (H:m:s:ms)","GENERIC","93.17999999999999","0.08899671391901964","2652"
"21:11:24:848 (H:m:s:ms)","GENERIC","93.33800000000001","0.07918281334540299","2803"
"21:11:30:909 (H:m:s:ms)","GENERIC","62.085","0.028074742431069378","4449"
"21:11:36:969 (H:m:s:ms)","GENERIC","93.105","0.05959897386942069","3793"
"21:11:43:30 (H:m:s:ms)","GENERIC","62.073","0.05909816774582731","4125"
"21:11:49:90 (H:m:s:ms)","GENERIC","93.147","0.07379762226124612","3191"
"21:11:55:151 (H:m:s:ms)","GENERIC","62.155","0.06191048508342756","1907"
"21:12:1:212 (H:m:s:ms)","GENERIC","93.18599999999999","0.05936779156226978","3814"
"21:12:7:272 (H:m:s:ms)","GENERIC","62.053","0.06249999999999999","3261"
"21:12:13:333 (H:m:s:ms)","GENERIC","62.101","0.061168005879795165","3177"
"21:26:27:878 (H:m:s:ms)","GENERIC","62.119","0.08094426541139932","7341"
"21:46:21:818 (H:m:s:ms)","GENERIC","62.133","0.06803032412093882","1413"
"21:26:27:341 (H:m:s:ms)","OPERA","93.162","0.05136639956604933","3838"
"21:46:15:757 (H:m:s:ms)","GENERIC","62.095","0.031092465967248916","1923"
"21:46:9:696 (H:m:s:ms)","GENERIC","62.101","0.0736569563735987","1145"
"21:46:3:636 (H:m:s:ms)","GENERIC","62.065","0.0740829349445606","2854"
"21:26:19:746 (H:m:s:ms)","OPERA","93.162","0.09472617937571538","3331"
"21:26:15:757 (H:m:s:ms)","GENERIC","62.103","0.10254323203108665","2189"
"21:45:57:575 (H:m:s:ms)","GENERIC","62.053","0.04589145718202436","2924"
"21:26:12:151 (H:m:s:ms)","OPERA","62.153","0.1241558374487805","3521"
"21:45:51:515 (H:m:s:ms)","GENERIC","93.224","0.0604684607265916","2561"
"21:26:9:696 (H:m:s:ms)","GENERIC","93.353","0.12535020094805607","1200"
"21:45:45:454 (H:m:s:ms)","GENERIC","62.057","0.053346222455100456","2256"
"21:26:4:556 (H:m:s:ms)","OPERA","93.162","0.10958174474723355","3631"
"21:45:39:393 (H:m:s:ms)","GENERIC","93.238","0.074805297459357","2559"
"21:26:3:636 (H:m:s:ms)","GENERIC","93.159","0.07948872887193992","2999"
"21:45:33:333 (H:m:s:ms)","GENERIC","62.057","0.07499999999999991","2994"
"21:12:19:393 (H:m:s:ms)","GENERIC","62.083","0.06336741978918514","1758"
"21:25:57:575 (H:m:s:ms)","GENERIC","62.059","0.09046208757442205","6337"
"21:45:27:272 (H:m:s:ms)","GENERIC","93.217","0.07303558990003114","3325"
"21:12:25:454 (H:m:s:ms)","GENERIC","93.128","0.08256974733992674","3281"
"21:25:56:962 (H:m:s:ms)","OPERA","93.162","0.0744616204233233","4191"
"21:45:21:212 (H:m:s:ms)","GENERIC","62.077","0.028510776366115088","2655"
"21:12:31:515 (H:m:s:ms)","GENERIC","93.205","0.08800338334085375","3313"
"21:12:37:575 (H:m:s:ms)","GENERIC","93.09899999999999","0.06868353270568187","3206"
"21:12:43:636 (H:m:s:ms)","GENERIC","93.14099999999999","0.09531264344251497","3448"
"21:12:49:696 (H:m:s:ms)","GENERIC","62.041","0.04527692569068707","1281"
"21:12:55:757 (H:m:s:ms)","GENERIC","62.069","0.051303139706069305","3057"
"21:13:1:818 (H:m:s:ms)","GENERIC","93.267","0.06790234975497508","2067"
"21:13:7:878 (H:m:s:ms)","GENERIC","93.28","0.11961850132226973","2764"
"21:13:13:939 (H:m:s:ms)","GENERIC","93.158","0.07580520598658044","3012"
"21:26:21:818 (H:m:s:ms)","GENERIC","62.131","0.09870602084187703","1567"
"21:27:5:316 (H:m:s:ms)","OPERA","93.16","0.09360268886305219","3448"
"21:47:28:484 (H:m:s:ms)","GENERIC","93.145","0.11154429447367391","2987"
"21:27:4:242 (H:m:s:ms)","GENERIC","62.133","0.05365694780116809","2831"
"21:47:22:424 (H:m:s:ms)","GENERIC","93.154","0.0667508200962431","3549"
"21:26:58:181 (H:m:s:ms)","GENERIC","62.029","0.08055206861576487","2762"
"21:47:16:363 (H:m:s:ms)","GENERIC","62.103","0.08338540040078958","3571"
"21:47:10:303 (H:m:s:ms)","GENERIC","93.25999999999999","0.11478262354964386","2353"
"21:47:4:242 (H:m:s:ms)","GENERIC","62.089","0.0630706199946447","2833"
"21:26:57:721 (H:m:s:ms)","OPERA","93.162","0.07547857683450142","2932"
"21:26:52:121 (H:m:s:ms)","GENERIC","62.093","0.08233438923160394","2970"
"21:26:50:126 (H:m:s:ms)","OPERA","93.162","0.10830611730068727","3636"
"21:46:58:181 (H:m:s:ms)","GENERIC","62.055","0.054083269131959814","2761"
"21:26:46:60 (H:m:s:ms)","GENERIC","93.177","0.10042716181809201","3607"
"21:46:52:121 (H:m:s:ms)","GENERIC","62.073","0.0714638308487005","2980"
"21:26:42:531 (H:m:s:ms)","OPERA","93.162","0.09515477725244188","3228"
"21:46:46:60 (H:m:s:ms)","GENERIC","93.155","0.07216640008879112","3691"
"21:13:20:0 (H:m:s:ms)","GENERIC","93.33500000000001","0.07882469446456554","3416"
"21:26:40:0 (H:m:s:ms)","GENERIC","62.061","0.09999447384886814","3992"
"21:46:40:0 (H:m:s:ms)","GENERIC","93.159","0.06973839137764336","3814"
"21:13:26:60 (H:m:s:ms)","GENERIC","62.139","0.0537645329190164","2299"
"21:26:34:936 (H:m:s:ms)","OPERA","93.158","0.09921765731408103","5226"
"21:46:33:939 (H:m:s:ms)","GENERIC","93.115","0.07788811663277788","2646"
"21:13:32:121 (H:m:s:ms)","GENERIC","93.119","0.08675756754366902","2969"
"21:26:33:939 (H:m:s:ms)","GENERIC","62.083","0.0716343690848571","2830"
"21:46:27:878 (H:m:s:ms)","GENERIC","62.115","0.04690456886324531","3935"
"21:13:38:181 (H:m:s:ms)","GENERIC","62.103","0.07647058823529407","3324"
"21:13:44:242 (H:m:s:ms)","GENERIC","62.045","0.04821852161199348","3081"
"21:13:50:303 (H:m:s:ms)","GENERIC","62.139","0.04902167887781902","2105"
"21:13:56:363 (H:m:s:ms)","GENERIC","62.121","0.05206207048969019","1200"
"21:14:2:424 (H:m:s:ms)","GENERIC","93.211","0.10001321365867652","3004"
"21:14:8:484 (H:m:s:ms)","GENERIC","62.105","0.09395810236483064","2416"
"21:14:14:545 (H:m:s:ms)","GENERIC","93.17","0.08168655236613641","2557"
"21:27:43:291 (H:m:s:ms)","OPERA","93.162","0.09991049906977467","3667"
"21:48:35:151 (H:m:s:ms)","GENERIC","93.176","0.05977470326763908","3336"
"21:27:40:606 (H:m:s:ms)","GENERIC","93.17","0.0990518027111393","2148"
"21:48:29:90 (H:m:s:ms)","GENERIC","62.037","0.0718699468220086","3556"
"21:27:35:696 (H:m:s:ms)","OPERA","93.162","0.11593096018427924","2278"
"21:48:23:30 (H:m:s:ms)","GENERIC","62.133","0.06209315455225037","2440"
"21:27:34:545 (H:m:s:ms)","GENERIC","93.146","0.08836101245432999","2974"
"21:48:16:969 (H:m:s:ms)","GENERIC","62.135","0.08031005006854267","2089"
"21:48:10:909 (H:m:s:ms)","GENERIC","62.137","0.03253737167559103","2607"
"21:48:4:848 (H:m:s:ms)","GENERIC","93.207","0.07618318226160516","3636"
"21:27:28:484 (H:m:s:ms)","GENERIC","93.155","0.1201763544851187","4998"
"21:27:28:101 (H:m:s:ms)","OPERA","93.16","0.06282581018212545","2942"
"21:27:22:424 (H:m:s:ms)","GENERIC","62.051","0.10227167650702404","3577"
"21:47:58:787 (H:m:s:ms)","GENERIC","62.139","0.09999999999999999","2921"
"21:14:20:606 (H:m:s:ms)","GENERIC","93.357","0.07928400395305651","1809"
"21:27:20:506 (H:m:s:ms)","OPERA","93.16","0.09316881123884783","3445"
"21:47:52:727 (H:m:s:ms)","GENERIC","93.119","0.07454192203809595","3217"
"21:14:26:666 (H:m:s:ms)","GENERIC","62.109","0.06236868922032691","2517"
"21:27:16:363 (H:m:s:ms)","GENERIC","93.343","0.1039726340743814","3580"
"21:47:46:666 (H:m:s:ms)","GENERIC","93.179","0.07491758896208804","3350"
"20:52:19:393 (H:m:s:ms)","GENERIC","62.107","0.055384499347290755","1856"
"21:14:32:727 (H:m:s:ms)","GENERIC","62.071","0.04544914740674463","2695"
"21:27:12:911 (H:m:s:ms)","OPERA","93.162","0.08598063048997404","3833"
"21:47:40:606 (H:m:s:ms)","GENERIC","93.17","0.0548472624620201","2407"
"20:52:25:454 (H:m:s:ms)","GENERIC","93.114","0.06662436813225112","3352"
"21:14:38:787 (H:m:s:ms)","GENERIC","62.069","0.05541447881925729","3193"
"21:27:10:303 (H:m:s:ms)","GENERIC","93.28","0.09213504162840018","2808"
"21:47:34:545 (H:m:s:ms)","GENERIC","93.134","0.09130261661340017","2925"
"20:52:31:515 (H:m:s:ms)","GENERIC","93.223","0.09957448365552364","3452"
"21:14:44:848 (H:m:s:ms)","GENERIC","93.101","0.07983142593451116","3142"
"20:52:37:575 (H:m:s:ms)","GENERIC","62.075","0.03666325872806892","3809"
"21:14:50:909 (H:m:s:ms)","GENERIC","93.192","0.07358063501006822","3363"
"20:52:43:636 (H:m:s:ms)","GENERIC","93.15899999999999","0.0811357121610378","3799"
"21:14:56:969 (H:m:s:ms)","GENERIC","93.186","0.07148820193940333","3708"
"20:52:49:696 (H:m:s:ms)","GENERIC","62.081","0.066356047199935","1440"
"21:15:3:30 (H:m:s:ms)","GENERIC","93.229","0.08353165933397606","3529"
"20:52:55:757 (H:m:s:ms)","GENERIC","93.128","0.05265139191927698","3541"
"21:15:9:90 (H:m:s:ms)","GENERIC","62.043","0.060921917523353006","3700"
"20:53:1:818 (H:m:s:ms)","GENERIC","93.235","0.08833706352026434","2047"
"21:15:15:151 (H:m:s:ms)","GENERIC","62.169","0.060134093204767994","1958"
"20:53:7:878 (H:m:s:ms)","GENERIC","93.274","0.11366040149800133","3041"
"20:53:13:939 (H:m:s:ms)","GENERIC","93.17","0.07821584173736038","3290"
"21:28:21:265 (H:m:s:ms)","OPERA","93.16","0.11068051787353067","2953"
"21:49:41:818 (H:m:s:ms)","GENERIC","93.251","0.061382054772659615","2826"
"21:28:16:969 (H:m:s:ms)","GENERIC","62.139","0.0978226701931186","2074"
"21:49:35:757 (H:m:s:ms)","GENERIC","93.203","0.07782679619661198","2356"
"21:28:13:670 (H:m:s:ms)","OPERA","93.162","0.08672792904005833","3442"
"21:49:29:696 (H:m:s:ms)","GENERIC","62.125","0.0608276253029822","1392"
"21:28:10:909 (H:m:s:ms)","GENERIC","62.121","0.09942367984693659","2591"
"21:49:23:636 (H:m:s:ms)","GENERIC","93.269","0.07574137923199784","1907"
"21:28:6:75 (H:m:s:ms)","OPERA","93.16","0.10396765691221424","3158"
"21:49:17:575 (H:m:s:ms)","GENERIC","93.401","0.08035275761643565","2210"
"21:49:11:515 (H:m:s:ms)","GENERIC","62.037","0.07453559924999298","2442"
"21:49:5:454 (H:m:s:ms)","GENERIC","62.043","0.05946492089928542","3479"
"21:28:4:848 (H:m:s:ms)","GENERIC","93.245","0.06312364929775935","3272"
"21:15:21:212 (H:m:s:ms)","GENERIC","62.077","0.046093304980879435","2747"
"21:27:58:787 (H:m:s:ms)","GENERIC","93.32","0.07798214035305243","5600"
"21:15:27:272 (H:m:s:ms)","GENERIC","93.195","0.06377378886287213","3470"
"21:27:58:481 (H:m:s:ms)","OPERA","93.158","0.056942222650461706","3136"
"21:48:59:393 (H:m:s:ms)","GENERIC","62.067","0.053864542037307665","3310"
"20:53:20:0 (H:m:s:ms)","GENERIC","93.313","0.07895917424750011","3669"
"21:15:33:333 (H:m:s:ms)","GENERIC","62.101","0.06373774391990975","3396"
"21:27:52:727 (H:m:s:ms)","GENERIC","93.113","0.10470991881677799","3380"
"21:48:53:333 (H:m:s:ms)","GENERIC","62.033","0.06767191927386414","2950"
"20:53:26:60 (H:m:s:ms)","GENERIC","62.123","0.0537645329190164","2425"
"21:15:39:393 (H:m:s:ms)","GENERIC","62.107","0.05524271728019898","2930"
"21:27:50:886 (H:m:s:ms)","OPERA","93.16","0.10484658242334984","3068"
"21:48:47:272 (H:m:s:ms)","GENERIC","93.244","0.08359604538714882","3500"
"20:53:32:121 (H:m:s:ms)","GENERIC","93.125","0.08376455662730911","3155"
"21:15:45:454 (H:m:s:ms)","GENERIC","62.037","0.05352159976105831","2277"
"21:27:46:666 (H:m:s:ms)","GENERIC","93.165","0.10708950221759732","2866"
"21:48:41:212 (H:m:s:ms)","GENERIC","62.081","0.038590903235088965","1871"
"20:53:38:181 (H:m:s:ms)","GENERIC","62.099","0.0639926526443813","3415"
"21:15:51:515 (H:m:s:ms)","GENERIC","93.20400000000001","0.0604684607265916","2737"
"20:53:44:242 (H:m:s:ms)","GENERIC","93.29599999999999","0.08147022866237169","3181"
"21:15:57:575 (H:m:s:ms)","GENERIC","93.245","0.05914656900964337","3043"
"20:53:50:303 (H:m:s:ms)","GENERIC","62.181","0.055901699437494644","2084"
"21:16:3:636 (H:m:s:ms)","GENERIC","62.041","0.0740829349445606","3174"
"20:53:56:363 (H:m:s:ms)","GENERIC","62.125","0.07231591689755923","1206"
"21:16:9:696 (H:m:s:ms)","GENERIC","93.351","0.09625831731245027","1290"
"20:54:2:424 (H:m:s:ms)","GENERIC","93.199","0.0741992698224139","3142"
"21:16:15:757 (H:m:s:ms)","GENERIC","62.103","0.07105191125498143","2100"
"20:54:8:484 (H:m:s:ms)","GENERIC","62.111","0.08149003006503304","2372"
"20:54:14:545 (H:m:s:ms)","GENERIC","93.17399999999999","0.09099043472493411","2461"
"21:28:59:240 (H:m:s:ms)","OPERA","93.162","0.09754065166577541","5495"
"21:28:53:333 (H:m:s:ms)","GENERIC","62.025","0.10848822290377702","2691"
"21:28:51:645 (H:m:s:ms)","OPERA","93.162","0.12880807748284445","3087"
"22:8:25:263 (H:m:s:ms)","AMBULANCE","31.009","0.07453559924999298","2040"
"21:28:47:272 (H:m:s:ms)","GENERIC","62.049","0.1229430099107172","2879"
"22:7:53:684 (H:m:s:ms)","AMBULANCE","31.011","0.05527092620398818","2023"
"21:28:44:50 (H:m:s:ms)","OPERA","93.162","0.08583804269133875","3869"
"22:7:22:105 (H:m:s:ms)","AMBULANCE","31.009","0.07615773105863906","2188"
"21:28:41:212 (H:m:s:ms)","GENERIC","62.073","0.10464331315835945","1777"
"22:6:50:526 (H:m:s:ms)","AMBULANCE","62.198","0.061833918147777014","1748"
"22:6:18:947 (H:m:s:ms)","AMBULANCE","31.009","0.0668839994898264","2391"
"22:5:15:789 (H:m:s:ms)","AMBULANCE","62.197","0.06586142778578467","1862"
"21:16:21:818 (H:m:s:ms)","GENERIC","62.121","0.07318166133366713","1535"
"21:16:27:878 (H:m:s:ms)","GENERIC","93.132","0.06479666011957014","3994"
"21:28:36:455 (H:m:s:ms)","OPERA","93.162","0.11320720710945299","3292"
"20:54:20:606 (H:m:s:ms)","GENERIC","93.33500000000001","0.07924225524828919","1730"
"21:16:33:939 (H:m:s:ms)","GENERIC","93.095","0.07898876095359983","2689"
"21:28:35:151 (H:m:s:ms)","GENERIC","93.166","0.0644822588756538","3304"
"20:54:26:666 (H:m:s:ms)","GENERIC","62.129","0.05405774106451932","2419"
"21:16:40:0 (H:m:s:ms)","GENERIC","93.118","0.07916452932511013","3885"
"21:28:29:90 (H:m:s:ms)","GENERIC","93.215","0.11257864537559537","3073"
"21:50:0:0 (H:m:s:ms)","GENERIC","62.063","0.045513384792457194","3078"
"20:54:32:727 (H:m:s:ms)","GENERIC","62.061","0.05350233639758172","2495"
"21:16:46:60 (H:m:s:ms)","GENERIC","93.193","0.07890279520003755","3719"
"21:28:28:860 (H:m:s:ms)","OPERA","93.16","0.08673296590579216","3159"
"21:49:53:939 (H:m:s:ms)","GENERIC","93.32","0.09049371101980892","2989"
"20:54:38:787 (H:m:s:ms)","GENERIC","62.105","0.047025412946724014","2770"
"21:16:52:121 (H:m:s:ms)","GENERIC","62.099","0.059553192373917166","2977"
"21:28:23:30 (H:m:s:ms)","GENERIC","62.105","0.08856381069324842","2514"
"21:49:47:878 (H:m:s:ms)","GENERIC","62.075","0.07288689868556626","2626"
"20:54:44:848 (H:m:s:ms)","GENERIC","93.119","0.07947463113389268","2867"
"21:16:58:181 (H:m:s:ms)","GENERIC","62.025","0.028559149146989645","2793"
"20:54:50:909 (H:m:s:ms)","GENERIC","62.095","0.05659615711335891","2931"
"21:17:4:242 (H:m:s:ms)","GENERIC","62.117","0.05346707220945323","2831"
"20:54:56:969 (H:m:s:ms)","GENERIC","93.174","0.0696222906347475","3401"
"21:17:10:303 (H:m:s:ms)","GENERIC","62.075","0.05442681422340347","2245"
"20:55:3:30 (H:m:s:ms)","GENERIC","62.065","0.07124189650612964","4119"
"21:17:16:363 (H:m:s:ms)","GENERIC","62.079","0.08338540040078958","3529"
"20:55:9:90 (H:m:s:ms)","GENERIC","93.108","0.0805265357755763","3289"
"20:55:15:151 (H:m:s:ms)","GENERIC","62.193","0.08302705055739577","1815"
"21:29:35:757 (H:m:s:ms)","GENERIC","62.107","0.07905694150420946","2598"
"21:29:29:696 (H:m:s:ms)","GENERIC","62.121","0.09224712710909055","4379"
"21:29:29:620 (H:m:s:ms)","OPERA","93.162","0.07443024998213346","3409"
"21:29:23:636 (H:m:s:ms)","GENERIC","93.244","0.12564087167343357","2350"
"21:29:22:25 (H:m:s:ms)","OPERA","93.162","0.11653677894733566","3909"
"21:29:17:575 (H:m:s:ms)","GENERIC","93.373","0.11386949253655643","2211"
"21:29:14:430 (H:m:s:ms)","OPERA","93.162","0.09174254844693885","3547"
"21:17:22:424 (H:m:s:ms)","GENERIC","62.057","0.07323605948003531","3452"
"21:17:28:484 (H:m:s:ms)","GENERIC","62.091","0.07905694150420946","2938"
"20:55:21:212 (H:m:s:ms)","GENERIC","62.073","0.06324233363863442","2512"
"21:17:34:545 (H:m:s:ms)","GENERIC","93.123","0.07082188843720078","2760"
"20:55:27:272 (H:m:s:ms)","GENERIC","124.37","0.09444761371707616","2839"
"21:17:40:606 (H:m:s:ms)","GENERIC","93.182","0.06730100491811823","2267"
"21:29:11:515 (H:m:s:ms)","GENERIC","62.047","0.08914542036840817","2404"
"20:55:33:333 (H:m:s:ms)","GENERIC","62.085","0.08149003006503304","2860"
"21:17:46:666 (H:m:s:ms)","GENERIC","93.197","0.0999860642484018","3009"
"21:29:6:835 (H:m:s:ms)","OPERA","93.16","0.1044425181234779","2982"
"20:55:39:393 (H:m:s:ms)","GENERIC","93.244","0.08511602239167124","2714"
"21:17:52:727 (H:m:s:ms)","GENERIC","93.113","0.06381284111398318","3127"
"21:29:5:454 (H:m:s:ms)","GENERIC","93.076","0.07454338531092068","3017"
"20:55:45:454 (H:m:s:ms)","GENERIC","93.133","0.08833042517117598","2066"
"21:17:58:787 (H:m:s:ms)","GENERIC","93.30000000000001","0.06506039872503276","2955"
"21:28:59:393 (H:m:s:ms)","GENERIC","62.043","0.026932271018653833","3138"
"20:55:51:515 (H:m:s:ms)","GENERIC","62.065","0.05717695473046047","2677"
"21:18:4:848 (H:m:s:ms)","GENERIC","93.261","0.0622662072181516","3093"
"20:55:57:575 (H:m:s:ms)","GENERIC","62.105","0.07200632779557327","2995"
"21:18:10:909 (H:m:s:ms)","GENERIC","62.119","0.05247022965453843","2501"
"20:56:3:636 (H:m:s:ms)","GENERIC","93.161","0.06431497683892327","3140"
"21:18:16:969 (H:m:s:ms)","GENERIC","62.141","0.045891457182024274","2054"
"20:56:9:696 (H:m:s:ms)","GENERIC","62.079","0.07551903733496608","1366"
"20:56:15:757 (H:m:s:ms)","GENERIC","62.131","0.030853856599585297","2092"
"21:30:6:60 (H:m:s:ms)","GENERIC","93.178","0.07536268291485451","3151"
"21:30:0:0 (H:m:s:ms)","GENERIC","62.047","0.12533714796484405","11158"
"21:30:0:0 (H:m:s:ms)","GENERIC","93.107","0.1098859276253307","9168"
"21:30:0:0 (H:m:s:ms)","AMBULANCE","31.008","0.07913113611252715","6407"
"21:30:0:0 (H:m:s:ms)","OPERA","93.162","0.07209061621500591","4329"
"21:29:53:939 (H:m:s:ms)","GENERIC","93.322","0.097256283410093","3188"
"21:29:52:405 (H:m:s:ms)","OPERA","93.16","0.07326035112174342","3057"
"21:29:47:878 (H:m:s:ms)","GENERIC","62.105","0.08289311620737896","2618"
"21:18:23:30 (H:m:s:ms)","GENERIC","62.081","0.0709044063669505","2305"
"21:18:29:90 (H:m:s:ms)","GENERIC","62.061","0.06137136624164947","3391"
"20:56:21:818 (H:m:s:ms)","GENERIC","62.101","0.046401777983176545","1639"
"21:18:35:151 (H:m:s:ms)","GENERIC","62.049","0.07524066071475839","3437"
"20:56:27:878 (H:m:s:ms)","GENERIC","62.081","0.06275240528456756","4203"
"21:18:41:212 (H:m:s:ms)","GENERIC","93.321","0.06307392735909188","1740"
"20:40:0:0 (H:m:s:ms)","OPERA","62.155","0.07735983005973196","3930"
"20:56:33:939 (H:m:s:ms)","GENERIC","93.115","0.0880768651739275","2979"
"21:18:47:272 (H:m:s:ms)","GENERIC","93.236","0.08431106999930653","3304"
"20:40:0:0 (H:m:s:ms)","GENERIC","62.091","0.10495463724215727","6406"
"20:56:40:0 (H:m:s:ms)","GENERIC","93.141","0.07310403412422393","4162"
"21:18:53:333 (H:m:s:ms)","GENERIC","62.043","0.06248798423520572","2894"
"21:29:44:810 (H:m:s:ms)","OPERA","93.16","0.11834229349742391","2721"
"20:40:0:0 (H:m:s:ms)","GENERIC","62.105","0.10822194547689477","8484"
"20:56:46:60 (H:m:s:ms)","GENERIC","93.227","0.07170908881418454","4060"
"21:18:59:393 (H:m:s:ms)","GENERIC","62.031","0.06258605187171408","3203"
"21:29:41:818 (H:m:s:ms)","GENERIC","93.257","0.1312573015666826","2741"
"20:40:6:60 (H:m:s:ms)","GENERIC","93.19","0.06694578278632783","2685"
"20:56:52:121 (H:m:s:ms)","GENERIC","93.112","0.07605318029768939","3118"
"21:19:5:454 (H:m:s:ms)","GENERIC","93.076","0.07505500521400241","3289"
"21:29:37:215 (H:m:s:ms)","OPERA","93.158","0.11715402901052287","3410"
"20:40:7:594 (H:m:s:ms)","OPERA","31.01","0.09725006373789777","3217"
"20:56:58:181 (H:m:s:ms)","GENERIC","93.259","0.0615499268995498","2877"
"21:19:11:515 (H:m:s:ms)","GENERIC","62.051","0.050086730334047175","2698"
"20:40:12:121 (H:m:s:ms)","GENERIC","62.077","0.07971341518283415","2959"
"20:57:4:242 (H:m:s:ms)","GENERIC","62.089","0.0713484863811121","2971"
"21:19:17:575 (H:m:s:ms)","GENERIC","93.365","0.07322765572029165","2240"
"20:40:15:189 (H:m:s:ms)","OPERA","62.153999999999996","0.08228286596273628","3587"
"20:57:10:303 (H:m:s:ms)","GENERIC","62.081","0.0625997724346961","2460"
"20:40:18:181 (H:m:s:ms)","GENERIC","93.121","0.11721832332348242","3442"
"20:57:16:363 (H:m:s:ms)","GENERIC","93.353","0.07620288954020032","3750"
"20:40:22:784 (H:m:s:ms)","OPERA","62.155","0.12178927684366193","2898"
"20:40:24:242 (H:m:s:ms)","GENERIC","93.168","0.12047083865045323","1878"
"21:30:24:242 (H:m:s:ms)","GENERIC","93.18","0.06515305446470801","2142"
"21:31:3:157 (H:m:s:ms)","AMBULANCE","93.288","0.11380170487805064","2575"
"21:31:0:606 (H:m:s:ms)","GENERIC","93.191","0.07229076740672095","2648"
"21:30:54:545 (H:m:s:ms)","GENERIC","93.12100000000001","0.06363264133536892","1763"
"21:30:48:484 (H:m:s:ms)","GENERIC","93.32900000000001","0.07900219165307468","1386"
"21:30:42:424 (H:m:s:ms)","GENERIC","93.107","0.08286898652024839","2786"
"21:30:36:363 (H:m:s:ms)","GENERIC","62.055","0.10878296653971263","3217"
"21:30:31:578 (H:m:s:ms)","AMBULANCE","31.022","0.08913074697512893","2890"
"21:19:23:636 (H:m:s:ms)","GENERIC","62.067","0.07071067811865467","2634"
"21:30:30:303 (H:m:s:ms)","GENERIC","62.085","0.06255550465443377","4227"
"21:19:29:696 (H:m:s:ms)","GENERIC","62.133","0.04902167887781895","1399"
"20:57:22:424 (H:m:s:ms)","GENERIC","93.178","0.07160175415749002","3639"
"21:19:35:757 (H:m:s:ms)","GENERIC","93.205","0.08675756754366902","2427"
"20:57:28:484 (H:m:s:ms)","GENERIC","93.135","0.11095820839821965","3139"
"21:19:41:818 (H:m:s:ms)","GENERIC","93.227","0.06723242851045716","2427"
"20:40:30:303 (H:m:s:ms)","GENERIC","62.045","0.06234740350654193","3907"
"20:57:34:545 (H:m:s:ms)","GENERIC","93.14","0.08715137772867124","3022"
"21:19:47:878 (H:m:s:ms)","GENERIC","62.109","0.06615583411729538","2492"
"20:40:30:379 (H:m:s:ms)","OPERA","62.153","0.0984774751650311","6192"
"20:57:40:606 (H:m:s:ms)","GENERIC","93.186","0.0607956211133168","2407"
"21:19:53:939 (H:m:s:ms)","GENERIC","93.304","0.05536544674185896","3302"
"20:40:36:363 (H:m:s:ms)","GENERIC","62.057","0.09999999999999998","2746"
"20:57:46:666 (H:m:s:ms)","GENERIC","93.235","0.09975061508118828","3092"
"21:20:0:0 (H:m:s:ms)","OPERA","93.158","0.07085413733230841","3729"
"20:40:37:974 (H:m:s:ms)","OPERA","62.153999999999996","0.12408533798594888","3873"
"20:57:52:727 (H:m:s:ms)","GENERIC","62.055","0.05343563362602789","3249"
"21:20:0:0 (H:m:s:ms)","GENERIC","62.093","0.09053020214522214","6464"
"21:30:18:181 (H:m:s:ms)","GENERIC","93.105","0.05326655465218361","3954"
"20:40:42:424 (H:m:s:ms)","GENERIC","93.149","0.10593701202002799","2752"
"20:57:58:787 (H:m:s:ms)","GENERIC","93.314","0.07131225698817503","2919"
"21:20:0:0 (H:m:s:ms)","GENERIC","62.055","0.09675563388399959","8703"
"21:30:12:121 (H:m:s:ms)","GENERIC","93.172","0.05918892750457884","3192"
"20:40:45:569 (H:m:s:ms)","OPERA","31.009","0.10426427035933915","2986"
"20:58:4:848 (H:m:s:ms)","GENERIC","93.255","0.07025968691401048","2911"
"21:20:6:60 (H:m:s:ms)","GENERIC","93.19800000000001","0.062136733812691594","2985"
"20:40:48:484 (H:m:s:ms)","GENERIC","93.39500000000001","0.1007681413992924","1352"
"20:58:10:909 (H:m:s:ms)","GENERIC","62.115","0.055154454841734236","2467"
"20:40:54:545 (H:m:s:ms)","GENERIC","93.155","0.0997706692021231","1625"
"20:58:16:969 (H:m:s:ms)","GENERIC","62.149","0.0593813454334342","2019"
"20:41:0:606 (H:m:s:ms)","GENERIC","62.085","0.07071067811865467","2909"
"20:41:0:759 (H:m:s:ms)","OPERA","62.155","0.09049945346788807","5324"
"21:31:18:787 (H:m:s:ms)","GENERIC","62.093","0.0792346199587024","2304"
"21:31:12:727 (H:m:s:ms)","GENERIC","62.087","0.05663927800122454","1661"
"21:32:7:272 (H:m:s:ms)","GENERIC","62.077","0.06249999999999999","3068"
"21:32:1:212 (H:m:s:ms)","GENERIC","93.152","0.05783397151190377","3524"
"21:31:55:151 (H:m:s:ms)","GENERIC","62.115","0.04315373561998061","1794"
"21:31:49:90 (H:m:s:ms)","GENERIC","93.145","0.06411514013298611","2906"
"21:31:43:30 (H:m:s:ms)","GENERIC","93.13","0.0881184188169754","3602"
"21:31:36:969 (H:m:s:ms)","GENERIC","62.055","0.05460922623538711","3514"
"21:31:30:909 (H:m:s:ms)","GENERIC","93.14099999999999","0.057122642140093424","3876"
"21:31:24:848 (H:m:s:ms)","GENERIC","62.073","0.027950849718747364","2622"
"20:58:23:30 (H:m:s:ms)","GENERIC","62.061","0.06236868922032691","2281"
"20:58:29:90 (H:m:s:ms)","GENERIC","62.033","0.07251389151610824","3230"
"20:41:6:666 (H:m:s:ms)","GENERIC","62.069","0.06280055333398597","3307"
"20:58:35:151 (H:m:s:ms)","GENERIC","62.053","0.08381404052084444","3287"
"20:41:8:354 (H:m:s:ms)","OPERA","62.155","0.1036857041646469","3557"
"20:58:41:212 (H:m:s:ms)","GENERIC","62.115","0.07126096406869611","1738"
"20:41:12:727 (H:m:s:ms)","GENERIC","62.179","0.0984118152273368","1743"
"20:58:47:272 (H:m:s:ms)","GENERIC","93.244","0.0886346064475458","3088"
"20:41:15:949 (H:m:s:ms)","OPERA","62.155","0.09857641669568806","3972"
"20:58:53:333 (H:m:s:ms)","GENERIC","93.124","0.08018891351006462","2624"
"20:41:18:787 (H:m:s:ms)","GENERIC","62.093","0.10444401557541924","2495"
"20:58:59:393 (H:m:s:ms)","GENERIC","62.039","0.053864542037307665","3002"
"20:41:23:544 (H:m:s:ms)","OPERA","62.153999999999996","0.09408709437650437","2540"
"20:59:5:454 (H:m:s:ms)","GENERIC","93.09","0.07599742225933848","2969"
"21:31:6:666 (H:m:s:ms)","GENERIC","93.142","0.09489778815066802","3433"
"20:41:24:848 (H:m:s:ms)","GENERIC","62.063","0.08378694461327557","2410"
"20:59:11:515 (H:m:s:ms)","GENERIC","62.035","0.05564123212167517","2336"
"20:41:30:909 (H:m:s:ms)","GENERIC","62.075","0.0446198631033853","4270"
"20:59:17:575 (H:m:s:ms)","GENERIC","93.385","0.09104541546265618","2081"
"20:41:36:969 (H:m:s:ms)","GENERIC","93.161","0.07190050547605076","3639"
"20:41:38:734 (H:m:s:ms)","OPERA","62.155","0.1048104454411677","3171"
"20:59:23:636 (H:m:s:ms)","GENERIC","93.265","0.06920170929316952","1909"
"20:59:29:696 (H:m:s:ms)","GENERIC","62.121","0.049999999999999996","1327"
"20:41:43:30 (H:m:s:ms)","GENERIC","62.089","0.10450139447158915","3996"
"20:59:35:757 (H:m:s:ms)","GENERIC","93.181","0.0741057802513858","2347"
"20:41:46:329 (H:m:s:ms)","OPERA","62.155","0.09023124574059843","3837"
"20:59:41:818 (H:m:s:ms)","GENERIC","93.235","0.06187692410214832","2333"
"20:41:49:90 (H:m:s:ms)","GENERIC","93.149","0.09087528716094259","3143"
"20:59:47:878 (H:m:s:ms)","GENERIC","62.119","0.054556096179854074","2411"
"20:41:53:924 (H:m:s:ms)","OPERA","62.153999999999996","0.09491674294903957","2455"
"20:59:53:939 (H:m:s:ms)","GENERIC","93.296","0.07100427830929042","2697"
"20:41:55:151 (H:m:s:ms)","GENERIC","62.123","0.08218471425733605","1833"
"21:0:0:0 (H:m:s:ms)","AMBULANCE","31.056","0.06152009608430587","4177"
"20:42:1:212 (H:m:s:ms)","GENERIC","62.033","0.05145453764678532","3755"
"21:0:0:0 (H:m:s:ms)","GENERIC","93.095","0.0984417737459266","6688"
"20:42:1:518 (H:m:s:ms)","OPERA","62.153999999999996","0.09240433878839856","6246"
"21:0:0:0 (H:m:s:ms)","GENERIC","62.079","0.11138839713186315","8631"
"20:42:7:272 (H:m:s:ms)","GENERIC","62.023","0.06249999999999999","3049"
"21:0:6:60 (H:m:s:ms)","GENERIC","93.214","0.0705850340253828","2898"
"20:42:9:113 (H:m:s:ms)","OPERA","62.155","0.09865089905058802","3705"
"20:42:13:333 (H:m:s:ms)","GENERIC","62.067","0.09765861322137007","3102"
"21:0:12:121 (H:m:s:ms)","GENERIC","62.103","0.05950988467869319","3127"
"21:0:18:181 (H:m:s:ms)","GENERIC","93.121","0.09172139520087551","3713"
"20:42:16:708 (H:m:s:ms)","OPERA","62.155","0.10155966973462507","2988"
"21:0:24:242 (H:m:s:ms)","GENERIC","93.176","0.0737417472645653","2125"
"20:42:19:393 (H:m:s:ms)","GENERIC","62.095","0.0873941269727736","1604"
"21:0:30:303 (H:m:s:ms)","GENERIC","62.059","0.06204346493098784","4150"
"20:20:0:0 (H:m:s:ms)","GENERIC","93.09899999999999","0.07966641658161888","3748"
"20:42:24:303 (H:m:s:ms)","OPERA","62.153999999999996","0.08309390399203764","3029"
"21:0:31:578 (H:m:s:ms)","AMBULANCE","62.174","0.09484132956020913","2769"
"20:20:0:0 (H:m:s:ms)","GENERIC","62.075","0.09093354857131983","5900"
"20:42:25:454 (H:m:s:ms)","GENERIC","93.11","0.10133632610648215","2957"
"21:0:36:363 (H:m:s:ms)","GENERIC","62.075","0.0980812087168101","3334"
"20:20:6:60 (H:m:s:ms)","GENERIC","93.164","0.05370014659488186","2874"
"20:42:31:515 (H:m:s:ms)","GENERIC","93.207","0.07472955695701344","2344"
"21:0:42:424 (H:m:s:ms)","GENERIC","93.139","0.09980281533781071","2695"
"20:20:12:121 (H:m:s:ms)","GENERIC","93.09","0.06019651874012781","3018"
"20:42:31:898 (H:m:s:ms)","OPERA","62.153999999999996","0.10663556515061721","3998"
"21:0:48:484 (H:m:s:ms)","GENERIC","93.349","0.09021105394631904","1514"
"20:20:18:181 (H:m:s:ms)","GENERIC","93.133","0.07899393202442448","3653"
"20:42:37:575 (H:m:s:ms)","GENERIC","62.091","0.04812916748483762","3288"
"21:0:54:545 (H:m:s:ms)","GENERIC","93.161","0.05268925591610214","1924"
"20:20:24:242 (H:m:s:ms)","GENERIC","93.166","0.08340136498423824","2030"
"20:42:39:493 (H:m:s:ms)","OPERA","62.153999999999996","0.06746874790371081","2575"
"21:1:0:606 (H:m:s:ms)","GENERIC","93.253","0.07958422283880966","2455"
"20:20:30:303 (H:m:s:ms)","GENERIC","62.037","0.027607946754649466","3945"
"20:42:43:636 (H:m:s:ms)","GENERIC","93.136","0.08843962883633462","3528"
"20:20:36:363 (H:m:s:ms)","GENERIC","62.049","0.07905694150420946","3027"
"20:42:47:88 (H:m:s:ms)","OPERA","62.155","0.11055834925895305","3687"
"20:20:42:424 (H:m:s:ms)","GENERIC","93.119","0.07634809812973346","2618"
"20:20:48:484 (H:m:s:ms)","GENERIC","93.429","0.0732329318849592","1434"
"21:1:3:157 (H:m:s:ms)","AMBULANCE","62.301","0.09674854275406054","2534"
"21:1:6:666 (H:m:s:ms)","GENERIC","62.043","0.08434611475239526","3370"
"20:42:49:696 (H:m:s:ms)","GENERIC","62.087","0.10818098797436144","1350"
"21:1:12:727 (H:m:s:ms)","GENERIC","62.149","0.07194290270763336","1734"
"20:42:54:683 (H:m:s:ms)","OPERA","62.155","0.10776723611641915","3123"
"21:1:18:787 (H:m:s:ms)","GENERIC","93.33500000000001","0.06909010610024245","2406"
"20:20:54:545 (H:m:s:ms)","GENERIC","93.12100000000001","0.07474546784290755","1543"
"20:42:55:757 (H:m:s:ms)","GENERIC","62.017","0.10762444962676583","3243"
"21:1:24:848 (H:m:s:ms)","GENERIC","62.073","0.07178527007680614","2408"
"20:21:0:606 (H:m:s:ms)","GENERIC","93.238","0.08126974967301843","2701"
"20:43:1:818 (H:m:s:ms)","GENERIC","93.231","0.07742542844374177","2147"
"21:1:30:909 (H:m:s:ms)","GENERIC","62.095","0.06308211896773407","4023"
"20:21:6:666 (H:m:s:ms)","GENERIC","62.081","0.03695652173913042","3151"
"20:43:2:278 (H:m:s:ms)","OPERA","62.155","0.10916416550767612","3624"
"21:1:34:736 (H:m:s:ms)","AMBULANCE","31.022","0.08841204386592669","2314"
"20:21:12:727 (H:m:s:ms)","GENERIC","62.147","0.03704146747228031","1635"
"20:43:7:878 (H:m:s:ms)","GENERIC","93.239","0.06008386235558616","3002"
"21:1:36:969 (H:m:s:ms)","GENERIC","93.123","0.08523255094685957","3626"
"20:21:18:787 (H:m:s:ms)","GENERIC","62.119","0.07126096406869611","2323"
"20:43:9:873 (H:m:s:ms)","OPERA","62.153999999999996","0.09459567693922655","2401"
"21:1:43:30 (H:m:s:ms)","GENERIC","93.156","0.06887881779420985","3744"
"20:21:24:848 (H:m:s:ms)","GENERIC","62.067","0.05350233639758173","2644"
"20:43:13:939 (H:m:s:ms)","GENERIC","93.184","0.09343602397489796","3090"
"21:1:49:90 (H:m:s:ms)","GENERIC","62.031","0.050651707405950215","3092"
"20:21:30:909 (H:m:s:ms)","GENERIC","62.053","0.04514633055488446","3981"
"20:43:17:468 (H:m:s:ms)","OPERA","62.155","0.09036235079858856","3415"
"20:21:36:969 (H:m:s:ms)","GENERIC","62.093","0.07132015912035604","3547"
"20:43:20:0 (H:m:s:ms)","GENERIC","93.313","0.10128353242725661","3767"
"20:21:43:30 (H:m:s:ms)","GENERIC","93.146","0.07124475198930927","3739"
"20:21:49:90 (H:m:s:ms)","GENERIC","62.077","0.05950012311149901","3121"
"20:43:25:63 (H:m:s:ms)","OPERA","62.153999999999996","0.09267648904417758","3967"
"20:43:26:60 (H:m:s:ms)","GENERIC","62.113","0.07246422496741822","2427"
"20:21:55:151 (H:m:s:ms)","GENERIC","62.107","0.07231591689755923","1824"
"20:43:32:121 (H:m:s:ms)","GENERIC","93.145","0.08952786337619725","3174"
"20:22:1:212 (H:m:s:ms)","GENERIC","62.061","0.06243051693238211","3748"
"20:43:32:658 (H:m:s:ms)","OPERA","62.153999999999996","0.11687452828027362","5192"
"20:22:7:272 (H:m:s:ms)","GENERIC","62.049","0.06277439764744859","3059"
"20:43:38:181 (H:m:s:ms)","GENERIC","93.139","0.07440500238131255","3427"
"20:22:13:333 (H:m:s:ms)","GENERIC","62.085","0.061168005879795165","3170"
"20:43:44:242 (H:m:s:ms)","GENERIC","93.306","0.08235753854953327","3286"
"20:22:19:393 (H:m:s:ms)","GENERIC","62.115","0.07202294697343904","1667"
"20:43:47:848 (H:m:s:ms)","OPERA","62.155","0.11026642155617493","3332"
"20:22:25:454 (H:m:s:ms)","GENERIC","93.096","0.07280437785210671","3211"
"20:43:50:303 (H:m:s:ms)","GENERIC","62.181","0.09225745321345415","2195"
"20:22:31:515 (H:m:s:ms)","GENERIC","93.185","0.08832901932641739","2919"
"20:43:55:443 (H:m:s:ms)","OPERA","31.01","0.09161279360998134","3745"
"20:22:37:575 (H:m:s:ms)","GENERIC","93.161","0.06860201707983872","3356"
"20:43:56:363 (H:m:s:ms)","GENERIC","62.117","0.09535145232411979","1278"
"20:22:43:636 (H:m:s:ms)","GENERIC","93.104","0.07997714169067578","3741"
"20:22:49:696 (H:m:s:ms)","GENERIC","62.093","0.06010407640085652","1388"
"20:44:2:424 (H:m:s:ms)","GENERIC","93.215","0.09780804742665163","2807"
"20:44:3:37 (H:m:s:ms)","OPERA","31.01","0.10447117109148138","3272"
"20:22:55:757 (H:m:s:ms)","GENERIC","62.039","0.04058976588109782","3301"
"20:44:8:484 (H:m:s:ms)","GENERIC","62.101","0.10106300540062137","2368"
"20:23:1:818 (H:m:s:ms)","GENERIC","93.259","0.07239453264604846","2288"
"20:44:10:632 (H:m:s:ms)","OPERA","62.153","0.11878813185678533","2880"
"20:23:7:878 (H:m:s:ms)","GENERIC","93.223","0.09135321472430397","2959"
"20:44:14:545 (H:m:s:ms)","GENERIC","93.192","0.10793165124648305","2542"
"20:23:13:939 (H:m:s:ms)","GENERIC","93.194","0.06456118358878701","3124"
"20:44:18:227 (H:m:s:ms)","OPERA","62.153","0.10587955571239106","3148"
"20:23:20:0 (H:m:s:ms)","GENERIC","93.299","0.08829578099752808","3371"
"20:44:20:606 (H:m:s:ms)","GENERIC","93.321","0.09372523417400903","1678"
"20:23:26:60 (H:m:s:ms)","GENERIC","62.113","0.07156864056624242","2347"
"20:44:25:822 (H:m:s:ms)","OPERA","62.155","0.11248308388865902","2843"
"20:23:32:121 (H:m:s:ms)","GENERIC","124.281","0.10513429362947974","2975"
"20:44:26:666 (H:m:s:ms)","GENERIC","62.123","0.1077592232485452","2435"
"20:23:38:181 (H:m:s:ms)","GENERIC","62.073","0.0657265021682588","3328"
"20:44:32:727 (H:m:s:ms)","GENERIC","62.047","0.07150174823037544","2389"
"20:23:44:242 (H:m:s:ms)","GENERIC","62.077","0.05893773854495425","3004"
"20:23:50:303 (H:m:s:ms)","GENERIC","62.137","0.0571182982939792","2070"
"20:44:33:417 (H:m:s:ms)","OPERA","62.153999999999996","0.09779188501356789","2470"
"20:44:38:787 (H:m:s:ms)","GENERIC","62.119","0.08256589411366846","2865"
"20:23:56:363 (H:m:s:ms)","GENERIC","62.085","0.05273151092940501","1199"
"20:44:41:12 (H:m:s:ms)","OPERA","31.01","0.08582525731941898","4122"
"20:24:2:424 (H:m:s:ms)","GENERIC","93.25","0.10490360534386514","2625"
"20:44:44:848 (H:m:s:ms)","GENERIC","93.125","0.10263609931022515","2840"
"20:24:8:484 (H:m:s:ms)","GENERIC","62.083","0.05659615711335891","2562"
"20:44:48:607 (H:m:s:ms)","OPERA","62.153999999999996","0.0888877672476945","3192"
"20:24:14:545 (H:m:s:ms)","GENERIC","93.17399999999999","0.08012337411268376","2446"
"20:44:50:909 (H:m:s:ms)","GENERIC","62.095","0.09487302746071331","2873"
"20:24:20:606 (H:m:s:ms)","GENERIC","93.361","0.08910664221520574","1627"
"20:44:56:202 (H:m:s:ms)","OPERA","62.155","0.11189063948605855","3659"
"20:24:26:666 (H:m:s:ms)","GENERIC","62.097","0.05381931999189105","2388"
"20:44:56:969 (H:m:s:ms)","GENERIC","93.152","0.09793984386818175","6291"
"20:24:32:727 (H:m:s:ms)","GENERIC","62.059","0.04544914740674463","2397"
"20:45:3:30 (H:m:s:ms)","GENERIC","93.229","0.08504562428420508","3686"
"20:24:38:787 (H:m:s:ms)","GENERIC","62.153","0.05390246011650644","2855"
"20:45:3:797 (H:m:s:ms)","OPERA","62.155","0.10733314984911792","6142"
"20:24:44:848 (H:m:s:ms)","GENERIC","93.143","0.07936349127707988","2815"
"20:24:50:909 (H:m:s:ms)","GENERIC","93.182","0.059121034473118866","2918"
"20:45:9:90 (H:m:s:ms)","GENERIC","62.021","0.059584790191979584","4210"
"20:45:11:392 (H:m:s:ms)","OPERA","62.153","0.09299769237762076","3671"
"20:24:56:969 (H:m:s:ms)","GENERIC","93.172","0.06383895321635863","3478"
"20:45:15:151 (H:m:s:ms)","GENERIC","62.207","0.10104423994133284","2199"
"20:25:3:30 (H:m:s:ms)","GENERIC","93.23","0.08836175209830624","3487"
"20:45:18:987 (H:m:s:ms)","OPERA","62.153999999999996","0.113192770732255","3248"
"20:25:9:90 (H:m:s:ms)","GENERIC","93.13","0.0701448267313543","3323"
"20:45:21:212 (H:m:s:ms)","GENERIC","62.059","0.09969612646187724","2709"
"20:25:15:151 (H:m:s:ms)","GENERIC","62.183","0.07256908563120461","1806"
"20:45:26:582 (H:m:s:ms)","OPERA","62.155","0.10424115462088063","3500"
"20:25:21:212 (H:m:s:ms)","GENERIC","62.087","0.04690456886324531","2527"
"20:45:27:272 (H:m:s:ms)","GENERIC","93.209","0.12753166978238242","3290"
"20:25:27:272 (H:m:s:ms)","GENERIC","93.18799999999999","0.09962582944269224","2833"
"20:45:33:333 (H:m:s:ms)","GENERIC","62.071","0.09395810236483064","2986"
"20:25:33:333 (H:m:s:ms)","GENERIC","62.051","0.09395810236483064","2810"
"20:45:34:177 (H:m:s:ms)","OPERA","62.155","0.11974601604845023","2975"
"20:25:39:393 (H:m:s:ms)","GENERIC","62.059","0.0712609640686961","2799"
"20:45:39:393 (H:m:s:ms)","GENERIC","93.232","0.10269565777836202","2994"
"20:25:45:454 (H:m:s:ms)","GENERIC","62.081","0.05427502004528675","2193"
"20:25:51:515 (H:m:s:ms)","GENERIC","93.224","0.06700179353717273","2475"
"20:25:57:575 (H:m:s:ms)","GENERIC","62.065","0.06211586456259505","2937"
"20:26:3:636 (H:m:s:ms)","GENERIC","93.199","0.05945939200107959","2856"
"20:26:9:696 (H:m:s:ms)","GENERIC","62.089","0.06237373867778002","1276"
"20:26:15:757 (H:m:s:ms)","GENERIC","62.111","0.0515738511009331","1959"
"20:26:21:818 (H:m:s:ms)","GENERIC","62.089","0.06803032412093882","1478"
"20:26:27:878 (H:m:s:ms)","GENERIC","62.095","0.057021552732230175","4067"
"20:26:33:939 (H:m:s:ms)","GENERIC","93.131","0.06670326354149378","2826"
"20:26:40:0 (H:m:s:ms)","GENERIC","93.157","0.07678766226727864","4123"
"20:26:46:60 (H:m:s:ms)","GENERIC","93.195","0.07890279520003755","3843"
"20:26:52:121 (H:m:s:ms)","GENERIC","62.077","0.06051929528225502","3130"
"20:26:58:181 (H:m:s:ms)","GENERIC","62.067","0.0630971473206198","2744"
"20:27:4:242 (H:m:s:ms)","GENERIC","62.099","0.05346707220945323","2923"
"20:27:10:303 (H:m:s:ms)","GENERIC","93.28800000000001","0.08158994211744654","2632"
"20:27:16:363 (H:m:s:ms)","GENERIC","93.40899999999999","0.05385649335445643","3590"
"20:27:22:424 (H:m:s:ms)","GENERIC","62.121","0.06711293026059345","3609"
"20:27:28:484 (H:m:s:ms)","GENERIC","93.132","0.10046451456543584","2964"
"20:27:34:545 (H:m:s:ms)","GENERIC","62.111","0.06373774391990973","3102"
"20:27:40:606 (H:m:s:ms)","GENERIC","93.24199999999999","0.07797355239761193","2312"
"20:27:46:666 (H:m:s:ms)","GENERIC","93.253","0.07465306980942599","3261"
"20:27:52:727 (H:m:s:ms)","GENERIC","93.151","0.05871477283710281","3130"
"20:27:58:787 (H:m:s:ms)","GENERIC","93.30199999999999","0.08245326533987377","2854"
"20:28:4:848 (H:m:s:ms)","GENERIC","93.211","0.07291899075880771","2973"
"20:28:10:909 (H:m:s:ms)","GENERIC","62.119","0.05247022965453843","2417"
"20:28:16:969 (H:m:s:ms)","GENERIC","62.137","0.07461206679898004","1966"
"20:28:23:30 (H:m:s:ms)","GENERIC","62.113","0.07130230854880905","2274"
"20:28:29:90 (H:m:s:ms)","GENERIC","62.037","0.06195771658117694","3280"
"20:28:35:151 (H:m:s:ms)","GENERIC","93.212","0.06762159903673193","2959"
"20:28:41:212 (H:m:s:ms)","GENERIC","62.107","0.04614007206322937","1735"
"20:28:47:272 (H:m:s:ms)","GENERIC","124.368","0.0977065877418684","2696"
"20:28:53:333 (H:m:s:ms)","GENERIC","62.079","0.07498558108224679","2708"
"20:28:59:393 (H:m:s:ms)","GENERIC","62.041","0.06313596195004889","3035"
"20:29:5:454 (H:m:s:ms)","GENERIC","93.13","0.07242690698050203","2998"
"20:29:11:515 (H:m:s:ms)","GENERIC","62.065","0.04729240649425811","2418"
"20:29:17:575 (H:m:s:ms)","GENERIC","93.365","0.07703277757908526","2106"
"20:29:23:636 (H:m:s:ms)","GENERIC","93.25","0.07557837184447495","2405"
"20:29:29:696 (H:m:s:ms)","GENERIC","62.085","0.07502083044061829","1323"
"20:29:35:757 (H:m:s:ms)","GENERIC","93.138","0.06505517534659044","2237"
"20:29:41:818 (H:m:s:ms)","GENERIC","93.217","0.06656911539373399","2419"
"20:29:47:878 (H:m:s:ms)","GENERIC","62.089","0.05261211169542765","2503"
"20:29:53:939 (H:m:s:ms)","GENERIC","93.33","0.08256675124731251","2293"
"21:20:7:594 (H:m:s:ms)","OPERA","93.16","0.09929491242235743","2497"
"21:20:12:121 (H:m:s:ms)","GENERIC","93.162","0.11038021307787274","2923"
"21:20:15:189 (H:m:s:ms)","OPERA","93.162","0.10917186881325901","3672"
"21:20:18:181 (H:m:s:ms)","GENERIC","93.107","0.11865269003498383","3541"
"21:20:22:784 (H:m:s:ms)","OPERA","93.162","0.12570655691500174","2899"
"21:20:24:242 (H:m:s:ms)","GENERIC","93.196","0.10586690107672564","1984"
"21:20:30:303 (H:m:s:ms)","GENERIC","62.071","0.03695652173913042","3923"
"21:20:30:379 (H:m:s:ms)","OPERA","93.16","0.07431351644667723","5845"
"21:20:36:363 (H:m:s:ms)","GENERIC","93.248","0.08024701448236772","2971"
"21:20:37:974 (H:m:s:ms)","OPERA","93.162","0.1027061823094213","3709"
"21:20:42:424 (H:m:s:ms)","GENERIC","93.121","0.10609892141917841","2583"
"21:20:45:569 (H:m:s:ms)","OPERA","93.162","0.11205277819664716","3262"
"21:20:48:484 (H:m:s:ms)","GENERIC","62.067","0.11794788457514195","1486"
"21:20:54:545 (H:m:s:ms)","GENERIC","93.12700000000001","0.05893496004631099","1699"
"21:21:0:606 (H:m:s:ms)","GENERIC","93.212","0.10988435854635388","2473"
"21:21:0:759 (H:m:s:ms)","OPERA","93.162","0.12315495104204732","4877"
"21:21:6:666 (H:m:s:ms)","GENERIC","62.037","0.0538290457148451","3279"
"21:21:8:354 (H:m:s:ms)","OPERA","93.16","0.09133330480405548","3581"
"21:21:12:727 (H:m:s:ms)","GENERIC","62.105","0.0865552540281461","1766"
"21:21:15:949 (H:m:s:ms)","OPERA","93.16","0.09265071040462933","3055"
"21:33:7:878 (H:m:s:ms)","GENERIC","93.251","0.07381118672669731","3666"
"21:32:49:696 (H:m:s:ms)","GENERIC","62.043","0.05659615711335886","1369"
"21:32:43:636 (H:m:s:ms)","GENERIC","62.035","0.09999999999999996","3618"
"21:32:37:894 (H:m:s:ms)","AMBULANCE","31.011","0.0985029872101714","5350"
"21:32:37:575 (H:m:s:ms)","GENERIC","62.075","0.07092783234386633","3286"
"21:32:31:515 (H:m:s:ms)","GENERIC","124.392","0.0943803875467938","2951"
"21:32:25:454 (H:m:s:ms)","GENERIC","62.123","0.05871042139387937","3042"
"21:32:19:393 (H:m:s:ms)","GENERIC","93.318","0.05959330438837781","1543"
"21:21:18:787 (H:m:s:ms)","GENERIC","62.073","0.09283194049144054","2417"
"21:32:13:333 (H:m:s:ms)","GENERIC","93.166","0.06177761313630342","2931"
"21:21:23:544 (H:m:s:ms)","OPERA","93.162","0.08969176154408084","3374"
"21:21:24:848 (H:m:s:ms)","GENERIC","62.069","0.0899386577053566","2582"
"21:21:30:909 (H:m:s:ms)","GENERIC","62.073","0.06280055333398597","4146"
"21:21:31:139 (H:m:s:ms)","OPERA","62.153999999999996","0.11168313725631157","6934"
"21:21:36:969 (H:m:s:ms)","GENERIC","93.09100000000001","0.07971010334231361","3766"
"21:21:38:734 (H:m:s:ms)","OPERA","93.158","0.10673886008807246","3057"
"21:21:43:30 (H:m:s:ms)","GENERIC","62.065","0.09280756017468901","4256"
"21:33:1:818 (H:m:s:ms)","GENERIC","93.29899999999999","0.07918817043496937","2250"
"21:21:46:329 (H:m:s:ms)","OPERA","93.162","0.08809235137832493","3715"
"21:32:55:757 (H:m:s:ms)","GENERIC","62.051","0.06127365766210053","3349"
"21:21:49:90 (H:m:s:ms)","GENERIC","62.067","0.10003117315287491","3292"
"21:34:12:631 (H:m:s:ms)","AMBULANCE","31.012","0.10988908068879229","3721"
"21:34:8:484 (H:m:s:ms)","GENERIC","62.083","0.09395810236483064","2767"
"21:33:56:363 (H:m:s:ms)","GENERIC","62.123","0.03508371911497946","1321"
"21:33:50:303 (H:m:s:ms)","GENERIC","62.119","0.0680303241209388","2268"
"21:33:44:242 (H:m:s:ms)","GENERIC","93.30799999999999","0.08336432808932669","3207"
"21:33:38:181 (H:m:s:ms)","GENERIC","93.131","0.066549816850593","3588"
"21:33:32:121 (H:m:s:ms)","GENERIC","124.243","0.09330031037819035","4022"
"21:33:26:60 (H:m:s:ms)","GENERIC","62.109","0.0541716744479991","2429"
"21:21:53:924 (H:m:s:ms)","OPERA","93.162","0.10529666268319929","4185"
"21:33:20:0 (H:m:s:ms)","GENERIC","93.355","0.08466829195643027","3776"
"21:21:55:151 (H:m:s:ms)","GENERIC","62.135","0.09707671158135041","1960"
"21:33:13:939 (H:m:s:ms)","GENERIC","93.182","0.06674720609491751","3176"
"21:22:1:212 (H:m:s:ms)","GENERIC","93.16799999999999","0.05690862776449937","4047"
"21:22:1:518 (H:m:s:ms)","OPERA","93.162","0.09308593234014342","6842"
"21:22:7:272 (H:m:s:ms)","GENERIC","62.063","0.06277439764744859","3313"
"21:22:9:113 (H:m:s:ms)","OPERA","93.162","0.08805737480450651","3868"
"21:22:13:333 (H:m:s:ms)","GENERIC","62.117","0.07429758147758635","3363"
"21:22:16:708 (H:m:s:ms)","OPERA","93.158","0.08414445929899872","2788"
"21:22:19:393 (H:m:s:ms)","GENERIC","62.069","0.08768479864318778","1631"
"21:22:24:303 (H:m:s:ms)","OPERA","93.16","0.08491769265587604","3103"
"21:34:2:424 (H:m:s:ms)","GENERIC","93.217","0.0790483021193513","3493"
"21:35:9:90 (H:m:s:ms)","GENERIC","62.063","0.07102073860852193","3507"
"21:35:3:30 (H:m:s:ms)","GENERIC","93.238","0.08220203216874103","3690"
"21:34:56:969 (H:m:s:ms)","GENERIC","93.164","0.07238679640335986","3829"
"21:34:50:909 (H:m:s:ms)","GENERIC","62.109","0.08838834764831838","3087"
"21:34:44:848 (H:m:s:ms)","GENERIC","93.113","0.08303545253293063","5979"
"21:34:44:210 (H:m:s:ms)","AMBULANCE","31.02","0.050086730334047175","3647"
"21:34:38:787 (H:m:s:ms)","GENERIC","62.065","0.0639248735846221","3114"
"21:34:32:727 (H:m:s:ms)","GENERIC","62.061","0.04589389937671458","2769"
"21:22:25:454 (H:m:s:ms)","GENERIC","93.138","0.10196209009087766","3066"
"21:34:26:666 (H:m:s:ms)","GENERIC","62.099","0.03621779114001469","2659"
"21:22:31:515 (H:m:s:ms)","GENERIC","124.364","0.102107617905282","2667"
"21:34:20:606 (H:m:s:ms)","GENERIC","93.333","0.09779303929909089","1742"
"21:1:55:151 (H:m:s:ms)","GENERIC","62.143","0.04315373561998061","1821"
"21:22:31:898 (H:m:s:ms)","OPERA","93.162","0.11346710065853313","5194"
"21:34:14:545 (H:m:s:ms)","GENERIC","93.172","0.11153756056028406","2907"
"21:2:1:212 (H:m:s:ms)","GENERIC","93.17399999999999","0.06428013076334756","3569"
"21:22:37:575 (H:m:s:ms)","GENERIC","62.061","0.05950988467869319","3237"
"21:2:6:315 (H:m:s:ms)","AMBULANCE","31.043","0.0955760489373025","2613"
"21:22:39:493 (H:m:s:ms)","OPERA","93.162","0.09126323175551189","3192"
"21:2:7:272 (H:m:s:ms)","GENERIC","62.039","0.08948801796412195","2964"
"21:22:43:636 (H:m:s:ms)","GENERIC","62.043","0.10389941845431883","3503"
"21:2:13:333 (H:m:s:ms)","GENERIC","62.081","0.07119027711391178","3007"
"21:22:47:88 (H:m:s:ms)","OPERA","93.162","0.113265947142335","3606"
"21:2:19:393 (H:m:s:ms)","GENERIC","62.099","0.0730272995011082","1596"
"21:22:49:696 (H:m:s:ms)","GENERIC","62.031","0.11436042807811796","1286"
"21:2:25:454 (H:m:s:ms)","GENERIC","93.12","0.0669922771368561","2958"
"21:22:54:683 (H:m:s:ms)","OPERA","93.158","0.11326506770505666","2682"
"21:2:31:515 (H:m:s:ms)","GENERIC","93.211","0.09965140299950247","2989"
"21:22:55:757 (H:m:s:ms)","GENERIC","62.055","0.09582547567425392","3186"
"21:2:37:575 (H:m:s:ms)","GENERIC","93.10900000000001","0.06350253321048442","3176"
"21:2:37:894 (H:m:s:ms)","AMBULANCE","31.053","0.08243360245129262","5731"
"21:36:3:636 (H:m:s:ms)","GENERIC","62.061","0.06139650845121401","2848"
"21:35:57:575 (H:m:s:ms)","GENERIC","62.059","0.05116237343498195","2846"
"21:35:51:515 (H:m:s:ms)","GENERIC","93.22200000000001","0.09263394248521878","2431"
"21:35:47:368 (H:m:s:ms)","AMBULANCE","31.009","0.08538767857435038","2289"
"21:35:45:454 (H:m:s:ms)","GENERIC","62.059","0.053735172494516134","2115"
"21:35:39:393 (H:m:s:ms)","GENERIC","93.254","0.08516457134172584","2639"
"21:35:33:333 (H:m:s:ms)","GENERIC","62.071","0.06903350635742038","2926"
"21:23:1:818 (H:m:s:ms)","GENERIC","93.281","0.0760853576798281","2228"
"21:35:27:272 (H:m:s:ms)","GENERIC","93.205","0.0789360954840958","2900"
"21:23:2:278 (H:m:s:ms)","OPERA","93.158","0.10256074461660733","3183"
"21:35:21:212 (H:m:s:ms)","GENERIC","62.077","0.05462570607379228","2542"
"21:2:43:636 (H:m:s:ms)","GENERIC","93.149","0.08107893024265259","3614"
"21:23:7:878 (H:m:s:ms)","GENERIC","93.27199999999999","0.113749236871677","3005"
"21:35:15:789 (H:m:s:ms)","AMBULANCE","62.176","0.1085159336823655","3702"
"21:2:49:696 (H:m:s:ms)","GENERIC","62.061","0.07126096406869611","1330"
"21:23:9:873 (H:m:s:ms)","OPERA","93.16","0.1366738563176921","2212"
"21:35:15:151 (H:m:s:ms)","GENERIC","62.135","0.06883718577303655","1838"
"21:2:55:757 (H:m:s:ms)","GENERIC","62.055","0.06109806478102646","3168"
"21:23:13:939 (H:m:s:ms)","GENERIC","93.166","0.10753130518472284","3318"
"21:3:1:818 (H:m:s:ms)","GENERIC","93.251","0.08824603552581553","1905"
"21:23:17:468 (H:m:s:ms)","OPERA","93.162","0.10766478973649289","3527"
"21:3:7:878 (H:m:s:ms)","GENERIC","93.277","0.07540396793812193","2679"
"21:23:20:0 (H:m:s:ms)","GENERIC","93.345","0.12525640960734527","3412"
"21:3:9:473 (H:m:s:ms)","AMBULANCE","31.046","0.0833475050128169","2763"
"21:23:25:63 (H:m:s:ms)","OPERA","93.16","0.11678796907315955","3444"
"21:3:13:939 (H:m:s:ms)","GENERIC","93.164","0.08984939508456108","3092"
"21:23:26:60 (H:m:s:ms)","GENERIC","62.127","0.07247811993048722","2382"
"21:3:20:0 (H:m:s:ms)","GENERIC","93.32300000000001","0.08822006833029562","3386"
"21:23:32:121 (H:m:s:ms)","GENERIC","93.133","0.11115508910809695","5358"
"21:3:26:60 (H:m:s:ms)","GENERIC","62.133","0.055242717280199014","2327"
"21:3:32:121 (H:m:s:ms)","GENERIC","93.115","0.09215023964519384","2979"
"21:36:58:181 (H:m:s:ms)","GENERIC","62.043","0.036443449342783124","2897"
"21:36:52:121 (H:m:s:ms)","GENERIC","62.085","0.10562833952349424","3053"
"21:36:50:526 (H:m:s:ms)","AMBULANCE","62.17","0.10466972247536335","2990"
"21:36:46:60 (H:m:s:ms)","GENERIC","93.161","0.05821770764291716","3809"
"21:36:40:0 (H:m:s:ms)","GENERIC","93.167","0.07310403412422393","4004"
"21:36:33:939 (H:m:s:ms)","GENERIC","93.14099999999999","0.07380524275955505","2592"
"21:23:32:658 (H:m:s:ms)","OPERA","93.16","0.07408609438220416","2557"
"21:36:27:878 (H:m:s:ms)","GENERIC","62.131","0.04541876670494959","4010"
"21:23:38:181 (H:m:s:ms)","GENERIC","93.14099999999999","0.06806117772216559","3380"
"21:36:21:818 (H:m:s:ms)","GENERIC","62.143","0.11454787204840289","1444"
"21:3:38:181 (H:m:s:ms)","GENERIC","62.099","0.07498558108224679","3372"
"21:23:44:242 (H:m:s:ms)","GENERIC","62.057","0.04959156528188477","3078"
"21:36:18:947 (H:m:s:ms)","AMBULANCE","62.195","0.10061268234420367","3712"
"21:3:41:52 (H:m:s:ms)","AMBULANCE","31.055","0.0973551258721125","3029"
"21:23:47:848 (H:m:s:ms)","OPERA","93.162","0.08190116361640876","3070"
"21:36:15:757 (H:m:s:ms)","GENERIC","62.099","0.06131449889940663","1909"
"21:3:44:242 (H:m:s:ms)","GENERIC","62.047","0.09606427205455148","3024"
"21:23:50:303 (H:m:s:ms)","GENERIC","62.127","0.08254320325222993","2177"
"21:36:9:696 (H:m:s:ms)","GENERIC","62.101","0.053511871656327495","1213"
"21:3:50:303 (H:m:s:ms)","GENERIC","62.159","0.0643476883811687","2175"
"21:23:55:443 (H:m:s:ms)","OPERA","93.162","0.08641577882210612","3533"
"21:3:56:363 (H:m:s:ms)","GENERIC","62.119","0.06313453403451318","1258"
"21:23:56:363 (H:m:s:ms)","GENERIC","62.125","0.10007070425637749","1239"
"21:4:2:424 (H:m:s:ms)","GENERIC","93.218","0.09982115572319372","2909"
"21:24:2:424 (H:m:s:ms)","GENERIC","93.212","0.09969403168675206","2899"
"21:4:8:484 (H:m:s:ms)","GENERIC","62.115","0.08838834764831838","2469"
"21:24:3:37 (H:m:s:ms)","OPERA","62.017","0.1126369626571586","2696"
"21:4:12:631 (H:m:s:ms)","AMBULANCE","31.012","0.10772906779630255","3663"
"21:24:8:484 (H:m:s:ms)","GENERIC","62.089","0.0872328171844712","2723"
"21:4:14:545 (H:m:s:ms)","GENERIC","93.16","0.10295171673954467","2379"
"21:4:20:606 (H:m:s:ms)","GENERIC","93.351","0.08121143218273962","1753"
"21:37:53:684 (H:m:s:ms)","AMBULANCE","62.152","0.10524615954430044","3182"
"21:37:52:727 (H:m:s:ms)","GENERIC","93.129","0.07125358104297513","3331"
"21:37:46:666 (H:m:s:ms)","GENERIC","93.179","0.07488831334138496","3449"
"21:37:40:606 (H:m:s:ms)","GENERIC","93.15","0.07099900827051388","2270"
"21:37:34:545 (H:m:s:ms)","GENERIC","93.138","0.10332919376471067","3009"
"21:37:28:484 (H:m:s:ms)","GENERIC","93.17","0.07573106912124562","3042"
"21:24:10:632 (H:m:s:ms)","OPERA","93.16","0.10206020737177389","3385"
"21:24:14:545 (H:m:s:ms)","GENERIC","62.045","0.10637917695948321","2726"
"21:37:22:424 (H:m:s:ms)","GENERIC","62.043","0.11666972890510863","6525"
"21:4:26:666 (H:m:s:ms)","GENERIC","62.121","0.06221729615641524","2637"
"21:24:18:227 (H:m:s:ms)","OPERA","93.158","0.09522707395311453","2924"
"21:37:22:105 (H:m:s:ms)","AMBULANCE","62.194","0.0866086536340193","3710"
"21:4:32:727 (H:m:s:ms)","GENERIC","62.061","0.0450693909432999","2643"
"21:24:20:606 (H:m:s:ms)","GENERIC","93.34100000000001","0.10017414251846728","1717"
"21:37:16:363 (H:m:s:ms)","GENERIC","93.357","0.07891242392346696","3738"
"21:4:38:787 (H:m:s:ms)","GENERIC","62.087","0.04602623443426963","3175"
"21:24:25:822 (H:m:s:ms)","OPERA","93.158","0.10986317965816839","2730"
"21:37:10:303 (H:m:s:ms)","GENERIC","93.268","0.08266569392392561","2604"
"21:4:44:210 (H:m:s:ms)","AMBULANCE","31.048","0.07639880142714368","3361"
"21:24:26:666 (H:m:s:ms)","GENERIC","62.099","0.096441447891937","2505"
"21:37:4:242 (H:m:s:ms)","GENERIC","62.109","0.04494099517519922","2972"
"21:4:44:848 (H:m:s:ms)","GENERIC","93.089","0.09642254305685181","5862"
"21:24:32:727 (H:m:s:ms)","GENERIC","62.061","0.04544914740674463","2540"
"21:4:50:909 (H:m:s:ms)","GENERIC","62.095","0.06903350635742038","3257"
"21:24:33:417 (H:m:s:ms)","OPERA","93.162","0.07935453491273561","3313"
"21:4:56:969 (H:m:s:ms)","GENERIC","93.19","0.08185201827146817","3784"
"21:24:38:787 (H:m:s:ms)","GENERIC","62.061","0.07585044126173805","2982"
"21:5:3:30 (H:m:s:ms)","GENERIC","93.21199999999999","0.08810245259969911","4464"
"21:24:41:12 (H:m:s:ms)","OPERA","93.16","0.08375683399463592","3022"
"21:5:9:90 (H:m:s:ms)","GENERIC","62.033","0.0712609640686961","3591"
"21:5:15:151 (H:m:s:ms)","GENERIC","93.233","0.06955321600402742","1809"
"21:38:53:333 (H:m:s:ms)","GENERIC","62.029","0.0639926526443813","2766"
"21:38:47:272 (H:m:s:ms)","GENERIC","93.234","0.08932883518613816","3140"
"21:38:41:212 (H:m:s:ms)","GENERIC","62.071","0.05590169943749473","1757"
"21:38:35:151 (H:m:s:ms)","GENERIC","93.17","0.09164391819882911","3261"
"21:38:29:90 (H:m:s:ms)","GENERIC","62.053","0.08967199495725794","3389"
"21:38:25:263 (H:m:s:ms)","AMBULANCE","31.015","0.0886383133113148","3654"
"21:38:23:30 (H:m:s:ms)","GENERIC","62.119","0.05361183073782985","2368"
"21:24:44:848 (H:m:s:ms)","GENERIC","93.101","0.09930484713338594","2965"
"21:24:48:607 (H:m:s:ms)","OPERA","93.158","0.08643867409235241","2848"
"21:5:15:789 (H:m:s:ms)","AMBULANCE","31.023","0.09302747213761237","3264"
"21:24:50:909 (H:m:s:ms)","GENERIC","62.105","0.08851437586985753","2992"
"21:5:21:212 (H:m:s:ms)","GENERIC","62.075","0.050086730334047216","2534"
"21:24:56:202 (H:m:s:ms)","OPERA","93.158","0.1039602085153255","3143"
"21:38:16:969 (H:m:s:ms)","GENERIC","62.143","0.05307817439882791","2052"
"20:45:41:772 (H:m:s:ms)","OPERA","62.155","0.10483979988830075","3331"
"21:5:27:272 (H:m:s:ms)","GENERIC","93.193","0.0881131583543166","2977"
"21:24:56:969 (H:m:s:ms)","GENERIC","93.182","0.09649026887012242","5778"
"21:38:10:909 (H:m:s:ms)","GENERIC","62.125","0.06507474335118206","2489"
"20:45:45:454 (H:m:s:ms)","GENERIC","62.077","0.1050144144612499","2179"
"21:5:33:333 (H:m:s:ms)","GENERIC","62.101","0.04999999999999998","3124"
"21:25:3:30 (H:m:s:ms)","GENERIC","93.211","0.08805146638173304","3765"
"21:38:4:848 (H:m:s:ms)","GENERIC","62.087","0.07453559924999298","3206"
"20:45:49:367 (H:m:s:ms)","OPERA","62.155","0.10221127812201318","3739"
"21:5:39:393 (H:m:s:ms)","GENERIC","93.262","0.07094406193440728","2726"
"21:25:3:797 (H:m:s:ms)","OPERA","93.158","0.11637503604472182","5384"
"21:37:58:787 (H:m:s:ms)","GENERIC","93.338","0.10120166441483398","3077"
"20:45:51:515 (H:m:s:ms)","GENERIC","93.23","0.11040100584145153","2564"
"21:5:45:454 (H:m:s:ms)","GENERIC","62.043","0.062474745001603695","2083"
"21:25:9:90 (H:m:s:ms)","GENERIC","93.138","0.06769752730397473","3372"
"20:45:56:962 (H:m:s:ms)","OPERA","62.155","0.07855089750263125","4703"
"21:5:47:368 (H:m:s:ms)","AMBULANCE","62.17","0.10742260716522067","3819"
"21:25:11:392 (H:m:s:ms)","OPERA","93.16","0.10942224314986311","2544"
"20:45:57:575 (H:m:s:ms)","GENERIC","62.107","0.09989466821742021","7472"
"21:5:51:515 (H:m:s:ms)","GENERIC","93.208","0.10815944023478662","2454"
"21:25:15:151 (H:m:s:ms)","GENERIC","62.151","0.10522195603606305","1828"
"20:46:3:636 (H:m:s:ms)","GENERIC","93.175","0.05855836824555911","3719"
"21:5:57:575 (H:m:s:ms)","GENERIC","62.089","0.07117982893585285","2837"
"20:46:4:556 (H:m:s:ms)","OPERA","62.153999999999996","0.07486805180304433","3076"
"21:6:3:636 (H:m:s:ms)","GENERIC","93.151","0.08116010956029052","2807"
"20:46:9:696 (H:m:s:ms)","GENERIC","62.087","0.07801587043243197","1476"
"20:46:15:757 (H:m:s:ms)","GENERIC","62.139","0.05083909448733586","2392"
"21:39:47:878 (H:m:s:ms)","GENERIC","93.351","0.07046786337435773","2411"
"21:39:41:818 (H:m:s:ms)","GENERIC","93.275","0.07917608087760779","2418"
"21:39:35:757 (H:m:s:ms)","GENERIC","93.19200000000001","0.06948877787142424","2194"
"21:39:29:696 (H:m:s:ms)","GENERIC","62.113","0.09518456287708112","1342"
"21:39:28:421 (H:m:s:ms)","AMBULANCE","31.03","0.11295838153760857","2396"
"21:39:23:636 (H:m:s:ms)","GENERIC","62.065","0.08246211251235318","2436"
"21:39:17:575 (H:m:s:ms)","GENERIC","93.383","0.08246313327886802","2162"
"21:39:11:515 (H:m:s:ms)","GENERIC","62.033","0.06108082634459664","2388"
"21:25:18:987 (H:m:s:ms)","OPERA","93.162","0.09462426048815989","3939"
"21:25:21:212 (H:m:s:ms)","GENERIC","62.083","0.09162988818532868","2584"
"21:6:9:696 (H:m:s:ms)","GENERIC","62.087","0.07453559924999299","1167"
"21:25:26:582 (H:m:s:ms)","OPERA","93.16","0.0917422895838056","2548"
"21:6:15:757 (H:m:s:ms)","GENERIC","93.366","0.05913525366298657","1885"
"21:25:27:272 (H:m:s:ms)","GENERIC","93.195","0.11407230236715274","3054"
"20:46:19:746 (H:m:s:ms)","OPERA","62.153999999999996","0.07546499670956026","2732"
"21:6:18:947 (H:m:s:ms)","AMBULANCE","31.052","0.08136992110833521","3123"
"21:25:33:333 (H:m:s:ms)","GENERIC","62.087","0.06903350635742038","3070"
"20:46:21:818 (H:m:s:ms)","GENERIC","62.101","0.08054899685756885","1705"
"21:6:21:818 (H:m:s:ms)","GENERIC","62.109","0.08971576729128504","1455"
"21:25:34:177 (H:m:s:ms)","OPERA","93.158","0.0993716869424895","3582"
"21:39:5:454 (H:m:s:ms)","GENERIC","93.076","0.06734802227488709","3005"
"20:46:27:341 (H:m:s:ms)","OPERA","62.153999999999996","0.06322899032320041","3532"
"21:6:27:878 (H:m:s:ms)","GENERIC","93.112","0.06412720301667953","3927"
"21:25:39:393 (H:m:s:ms)","GENERIC","93.27","0.08728829429371161","2733"
"21:38:59:393 (H:m:s:ms)","GENERIC","62.055","0.0829927347560051","3082"
"20:46:27:878 (H:m:s:ms)","GENERIC","62.079","0.08970160281434462","6762"
"21:6:33:939 (H:m:s:ms)","GENERIC","93.09899999999999","0.08832421406424391","2667"
"21:25:41:772 (H:m:s:ms)","OPERA","93.158","0.07689354780171148","2821"
"21:38:56:842 (H:m:s:ms)","AMBULANCE","62.198","0.08961571062491337","1756"
"20:46:33:939 (H:m:s:ms)","GENERIC","93.119","0.0792632447480553","2644"
"21:6:40:0 (H:m:s:ms)","GENERIC","93.157","0.07342176860766975","3931"
"21:25:45:454 (H:m:s:ms)","GENERIC","62.041","0.09191162606108813","2148"
"20:46:34:936 (H:m:s:ms)","OPERA","62.155","0.11321306646165168","4334"
"21:6:46:60 (H:m:s:ms)","GENERIC","93.207","0.0884850160421133","3748"
"21:25:49:367 (H:m:s:ms)","OPERA","93.158","0.10240550107098564","3387"
"20:46:40:0 (H:m:s:ms)","GENERIC","62.045","0.0716100551598726","3901"
"21:6:50:526 (H:m:s:ms)","AMBULANCE","62.188","0.1279750620899613","2436"
"20:46:42:531 (H:m:s:ms)","OPERA","62.153999999999996","0.09046967834406326","3210"
"21:6:52:121 (H:m:s:ms)","GENERIC","93.104","0.1078964273786777","3022"
"20:46:46:60 (H:m:s:ms)","GENERIC","93.229","0.0844941618997121","3670"
"20:46:50:126 (H:m:s:ms)","OPERA","62.155","0.10371068895318447","3613"
"21:40:0:0 (H:m:s:ms)","GENERIC","62.049","0.09019072383862706","5642"
"21:40:48:484 (H:m:s:ms)","GENERIC","62.087","0.09204467514322719","1570"
"21:40:42:424 (H:m:s:ms)","GENERIC","93.10900000000001","0.07397830550797653","2871"
"21:40:36:363 (H:m:s:ms)","GENERIC","62.047","0.09395810236483065","3130"
"21:40:30:303 (H:m:s:ms)","GENERIC","62.085","0.06339971502920573","4365"
"21:40:24:242 (H:m:s:ms)","GENERIC","93.168","0.08061420323327309","2056"
"21:40:18:181 (H:m:s:ms)","GENERIC","93.119","0.05927914510741915","3765"
"21:40:12:121 (H:m:s:ms)","GENERIC","93.176","0.06482082704198001","3038"
"21:40:6:60 (H:m:s:ms)","GENERIC","93.162","0.07954908000396106","2729"
"21:6:58:181 (H:m:s:ms)","GENERIC","62.041","0.062499999999999986","2943"
"21:7:4:242 (H:m:s:ms)","GENERIC","62.097","0.05365694780116809","2983"
"20:46:52:121 (H:m:s:ms)","GENERIC","62.089","0.10163615430540188","2996"
"21:7:10:303 (H:m:s:ms)","GENERIC","93.305","0.09482719215501459","2302"
"20:46:57:721 (H:m:s:ms)","OPERA","62.155","0.07733084881734077","3115"
"21:7:16:363 (H:m:s:ms)","GENERIC","62.087","0.09999999999999999","3703"
"20:46:58:181 (H:m:s:ms)","GENERIC","62.067","0.07304251412969805","2813"
"21:7:22:105 (H:m:s:ms)","AMBULANCE","31.049","0.06465034984331129","3171"
"20:47:4:242 (H:m:s:ms)","GENERIC","62.087","0.04520764878729861","2911"
"21:7:22:424 (H:m:s:ms)","GENERIC","62.061","0.09861339340646737","6009"
"21:40:0:0 (H:m:s:ms)","GENERIC","93.09899999999999","0.07315512176581686","3668"
"20:47:5:316 (H:m:s:ms)","OPERA","62.153","0.08231849103397622","3106"
"21:7:28:484 (H:m:s:ms)","GENERIC","93.16499999999999","0.0852918811933817","3159"
"21:39:53:939 (H:m:s:ms)","GENERIC","93.334","0.09976051325094637","3058"
"20:47:10:303 (H:m:s:ms)","GENERIC","93.298","0.13306282453955845","2498"
"21:7:34:545 (H:m:s:ms)","GENERIC","93.113","0.07327372673580429","3068"
"20:47:12:911 (H:m:s:ms)","OPERA","62.155","0.13230767862571913","2921"
"21:7:40:606 (H:m:s:ms)","GENERIC","62.037","0.09136250564655357","2734"
"20:47:16:363 (H:m:s:ms)","GENERIC","93.369","0.09772767124115132","3567"
"21:7:46:666 (H:m:s:ms)","GENERIC","93.215","0.10125076838429664","3268"
"20:47:20:506 (H:m:s:ms)","OPERA","62.153","0.10489681436038677","3041"
"20:47:22:424 (H:m:s:ms)","GENERIC","62.085","0.11728030600009436","3679"
"21:7:52:727 (H:m:s:ms)","GENERIC","62.043","0.07101314625486668","3357"
"21:7:53:684 (H:m:s:ms)","AMBULANCE","31.031","0.10220117073839291","2389"
"20:47:28:101 (H:m:s:ms)","OPERA","62.153","0.07758531771270888","3512"
"21:7:58:787 (H:m:s:ms)","GENERIC","93.326","0.11266105103710299","3212"
"20:47:28:484 (H:m:s:ms)","GENERIC","93.14099999999999","0.11451325302798004","5777"
"21:8:4:848 (H:m:s:ms)","GENERIC","93.273","0.07490343841898134","3035"
"20:47:34:545 (H:m:s:ms)","GENERIC","62.091","0.07354021529276424","3259"
"21:8:10:909 (H:m:s:ms)","GENERIC","62.127","0.06010407640085644","2535"
"20:47:35:696 (H:m:s:ms)","OPERA","62.155","0.10335351198543125","3380"
"21:8:16:969 (H:m:s:ms)","GENERIC","62.137","0.06643127545192325","2051"
"20:47:40:606 (H:m:s:ms)","GENERIC","93.208","0.10657846091971242","2366"
"21:8:23:30 (H:m:s:ms)","GENERIC","62.063","0.06254713586080154","2398"
"20:47:43:291 (H:m:s:ms)","OPERA","62.153999999999996","0.10076384985328164","3299"
"21:8:25:263 (H:m:s:ms)","AMBULANCE","31.045","0.08950915105146816","2912"
"21:40:54:545 (H:m:s:ms)","GENERIC","62.079","0.0716100551598726","2057"
"20:47:46:666 (H:m:s:ms)","GENERIC","93.255","0.09851478520086457","3315"
"21:8:29:90 (H:m:s:ms)","GENERIC","93.194","0.10289812178211544","3229"
"20:47:50:886 (H:m:s:ms)","OPERA","62.155","0.10749137468642851","2654"
"21:8:35:151 (H:m:s:ms)","GENERIC","62.059","0.08054565975758796","3395"
"20:47:52:727 (H:m:s:ms)","GENERIC","93.135","0.1165902348779208","3315"
"20:47:58:481 (H:m:s:ms)","OPERA","62.155","0.057278302131321276","3506"
"21:8:41:212 (H:m:s:ms)","GENERIC","62.095","0.06249999999999999","1773"
"21:8:47:272 (H:m:s:ms)","GENERIC","93.24","0.11076685841584019","2993"
"20:47:58:787 (H:m:s:ms)","GENERIC","93.30799999999999","0.10667762024176308","5855"
"21:8:53:333 (H:m:s:ms)","GENERIC","93.118","0.08719531917421355","2718"
"20:48:4:848 (H:m:s:ms)","GENERIC","93.241","0.06715284875024663","3115"
"21:8:56:842 (H:m:s:ms)","AMBULANCE","31.027","0.1120223992877379","2844"
"20:30:0:0 (H:m:s:ms)","GENERIC","93.101","0.07740057944659237","3544"
"20:48:6:75 (H:m:s:ms)","OPERA","93.296","0.10043507301322249","3164"
"21:8:59:393 (H:m:s:ms)","GENERIC","62.037","0.09390211191327534","2698"
"20:30:0:0 (H:m:s:ms)","GENERIC","62.091","0.09884835927551323","5522"
"20:48:10:909 (H:m:s:ms)","GENERIC","62.105","0.09333896730508301","2471"
"21:9:5:454 (H:m:s:ms)","GENERIC","62.047","0.04370056485903379","3033"
"20:30:6:60 (H:m:s:ms)","GENERIC","93.178","0.07003258976156272","2659"
"20:48:13:670 (H:m:s:ms)","OPERA","62.153999999999996","0.10241137457144125","2259"
"21:9:11:515 (H:m:s:ms)","GENERIC","62.045","0.040720550896397756","2541"
"20:30:12:121 (H:m:s:ms)","GENERIC","62.065","0.07137362636549525","3098"
"20:48:16:969 (H:m:s:ms)","GENERIC","62.151","0.09180419083019055","1996"
"21:9:17:575 (H:m:s:ms)","GENERIC","93.373","0.09268903016609524","2024"
"20:30:18:181 (H:m:s:ms)","GENERIC","93.121","0.08530250312546675","3844"
"20:48:21:265 (H:m:s:ms)","OPERA","62.153999999999996","0.08670083909042828","2646"
"21:9:23:636 (H:m:s:ms)","GENERIC","93.265","0.06614500934632934","2059"
"20:30:24:242 (H:m:s:ms)","GENERIC","93.168","0.08066442637368791","2206"
"20:48:23:30 (H:m:s:ms)","GENERIC","62.075","0.07266203529402161","2309"
"21:9:28:421 (H:m:s:ms)","AMBULANCE","31.015","0.0911196634770656","2577"
"20:30:30:303 (H:m:s:ms)","GENERIC","93.164","0.02999053817587059","4272"
"20:48:28:860 (H:m:s:ms)","OPERA","62.155","0.08201565869909717","2568"
"20:30:36:363 (H:m:s:ms)","GENERIC","93.22","0.09227803471160242","3356"
"20:48:29:90 (H:m:s:ms)","GENERIC","93.181","0.10567705857178829","2947"
"20:30:42:424 (H:m:s:ms)","GENERIC","93.14099999999999","0.0635879723861473","2861"
"20:30:48:484 (H:m:s:ms)","GENERIC","93.42099999999999","0.08547155243050358","1391"
"21:9:29:696 (H:m:s:ms)","GENERIC","62.133","0.10364488024982932","1286"
"21:9:35:757 (H:m:s:ms)","GENERIC","93.18","0.06536858661218435","2082"
"20:48:35:151 (H:m:s:ms)","GENERIC","93.19800000000001","0.08189905717417567","3075"
"21:9:41:818 (H:m:s:ms)","GENERIC","62.021","0.07142857142857141","2427"
"20:48:36:455 (H:m:s:ms)","OPERA","62.155","0.11889965796780594","3291"
"21:9:47:878 (H:m:s:ms)","GENERIC","62.123","0.0736569563735987","2388"
"20:30:54:545 (H:m:s:ms)","GENERIC","93.139","0.07892462853968522","1795"
"20:48:41:212 (H:m:s:ms)","GENERIC","62.127","0.11236598407280439","1774"
"21:9:53:939 (H:m:s:ms)","GENERIC","93.296","0.07072352392323362","2644"
"20:31:0:606 (H:m:s:ms)","GENERIC","62.073","0.07071067811865467","3053"
"20:48:44:50 (H:m:s:ms)","OPERA","62.155","0.1122741842137884","2905"
"21:10:0:0 (H:m:s:ms)","AMBULANCE","31.03","0.053864542037307665","3036"
"20:31:6:666 (H:m:s:ms)","GENERIC","62.075","0.05358706676062384","3414"
"20:48:47:272 (H:m:s:ms)","GENERIC","62.053","0.11629086113543448","3026"
"21:10:0:0 (H:m:s:ms)","GENERIC","93.1","0.09500150988561952","5564"
"20:31:12:727 (H:m:s:ms)","GENERIC","62.173","0.0541716744479991","1737"
"20:48:51:645 (H:m:s:ms)","OPERA","62.155","0.10352064688294488","3150"
"21:10:0:0 (H:m:s:ms)","GENERIC","62.063","0.09893653501009798","7748"
"20:31:18:787 (H:m:s:ms)","GENERIC","62.113","0.0792346199587024","2379"
"20:48:53:333 (H:m:s:ms)","GENERIC","62.075","0.09276647735845418","2835"
"21:10:6:60 (H:m:s:ms)","GENERIC","93.212","0.05794692793405168","2801"
"20:31:24:848 (H:m:s:ms)","GENERIC","62.069","0.07178527007680614","2451"
"20:48:59:240 (H:m:s:ms)","OPERA","62.153999999999996","0.04964005230013558","3270"
"21:10:12:121 (H:m:s:ms)","GENERIC","93.15","0.059043582262484906","3006"
"20:31:30:909 (H:m:s:ms)","GENERIC","62.057","0.054113625816930945","4148"
"20:48:59:393 (H:m:s:ms)","GENERIC","93.164","0.089391406724993","5084"
"20:31:36:969 (H:m:s:ms)","GENERIC","93.15299999999999","0.07463163476498744","3549"
"20:49:5:454 (H:m:s:ms)","GENERIC","62.071","0.046217711080908","3116"
"20:31:43:30 (H:m:s:ms)","GENERIC","62.085","0.04830250652099183","3899"
"20:31:49:90 (H:m:s:ms)","GENERIC","93.151","0.051316180846747814","3060"
"20:49:6:835 (H:m:s:ms)","OPERA","62.155","0.073327704811536","3315"
"20:49:11:515 (H:m:s:ms)","GENERIC","62.023","0.08557219888410766","2318"
"20:31:55:151 (H:m:s:ms)","GENERIC","62.111","0.05273151092940501","1830"
"20:49:14:430 (H:m:s:ms)","OPERA","62.153","0.08211560424229547","3411"
"20:32:1:212 (H:m:s:ms)","GENERIC","62.045","0.06346477588219927","3735"
"20:49:17:575 (H:m:s:ms)","GENERIC","93.387","0.08559707754941731","2371"
"20:32:7:272 (H:m:s:ms)","GENERIC","62.037","0.06249999999999999","3109"
"20:49:22:25 (H:m:s:ms)","OPERA","62.155","0.09779860145209383","3966"
"20:32:13:333 (H:m:s:ms)","GENERIC","62.067","0.060894922694567255","3125"
"20:49:23:636 (H:m:s:ms)","GENERIC","93.25","0.1150058106340869","2489"
"20:32:19:393 (H:m:s:ms)","GENERIC","62.099","0.03791180410820374","1596"
"20:49:29:620 (H:m:s:ms)","OPERA","62.155","0.07716263262384371","3445"
"20:32:25:454 (H:m:s:ms)","GENERIC","93.102","0.06773492099334287","3042"
"20:49:29:696 (H:m:s:ms)","GENERIC","62.111","0.10698621080057871","4406"
"20:32:31:515 (H:m:s:ms)","GENERIC","93.187","0.07512771834596747","2384"
"20:49:35:757 (H:m:s:ms)","GENERIC","93.146","0.06417435771902427","2347"
"20:32:37:575 (H:m:s:ms)","GENERIC","93.155","0.06890524090827875","3149"
"20:49:37:215 (H:m:s:ms)","OPERA","62.153999999999996","0.09559158713045175","3057"
"20:32:43:636 (H:m:s:ms)","GENERIC","93.13300000000001","0.06910433481995959","3594"
"20:32:49:696 (H:m:s:ms)","GENERIC","62.089","0.052470229654538396","1329"
"20:49:41:818 (H:m:s:ms)","GENERIC","93.267","0.1059509960135895","2698"
"20:49:44:810 (H:m:s:ms)","OPERA","62.155","0.10759155723101546","3240"
"20:32:55:757 (H:m:s:ms)","GENERIC","62.029","0.051093292518633794","3146"
"20:49:47:878 (H:m:s:ms)","GENERIC","62.111","0.10351848902992229","2514"
"20:33:1:818 (H:m:s:ms)","GENERIC","93.245","0.06811865761413331","2168"
"20:49:52:405 (H:m:s:ms)","OPERA","62.155","0.10313490654957114","3629"
"20:33:7:878 (H:m:s:ms)","GENERIC","93.227","0.10214801159165242","2859"
"20:49:53:939 (H:m:s:ms)","GENERIC","93.309","0.10721677582975812","2981"
"20:33:13:939 (H:m:s:ms)","GENERIC","93.20400000000001","0.06914628601011731","2848"
"20:50:0:0 (H:m:s:ms)","OPERA","62.155","0.104165191433044","8532"
"20:33:20:0 (H:m:s:ms)","GENERIC","93.313","0.09953770120450807","3573"
"20:50:0:0 (H:m:s:ms)","GENERIC","93.09899999999999","0.07788811663277788","3549"
"20:33:26:60 (H:m:s:ms)","GENERIC","62.105","0.04614007206322937","2342"
"20:50:0:0 (H:m:s:ms)","GENERIC","62.091","0.08909106471935103","5623"
"20:33:32:121 (H:m:s:ms)","GENERIC","93.159","0.09141576371753721","2962"
"20:50:6:60 (H:m:s:ms)","GENERIC","93.19800000000001","0.07547959099160213","2456"
"20:33:38:181 (H:m:s:ms)","GENERIC","62.083","0.07498558108224679","3402"
"20:50:12:121 (H:m:s:ms)","GENERIC","93.128","0.06033715597020124","2967"
"20:33:44:242 (H:m:s:ms)","GENERIC","62.073","0.06480760623913123","3130"
"20:33:50:303 (H:m:s:ms)","GENERIC","62.159","0.06540737725975558","2130"
"20:50:18:181 (H:m:s:ms)","GENERIC","93.113","0.07947463113389268","3552"
"20:50:24:242 (H:m:s:ms)","GENERIC","93.166","0.08372617285671634","2024"
"20:33:56:363 (H:m:s:ms)","GENERIC","62.099","0.06247448458762822","1268"
"20:50:30:303 (H:m:s:ms)","GENERIC","62.057","0.07152471250592216","3865"
"20:34:2:424 (H:m:s:ms)","GENERIC","93.205","0.07962242548259019","3167"
"20:50:36:363 (H:m:s:ms)","GENERIC","62.077","0.0883883476483184","2886"
"20:10:0:0 (H:m:s:ms)","GENERIC","31.039","0.04494099517519922","3115"
"20:34:8:484 (H:m:s:ms)","GENERIC","62.091","0.08149003006503304","2691"
"20:50:42:424 (H:m:s:ms)","GENERIC","93.14699999999999","0.08494995117859362","2546"
"20:10:0:0 (H:m:s:ms)","GENERIC","93.107","0.085682329596654","5710"
"20:34:14:545 (H:m:s:ms)","GENERIC","93.196","0.08409442816141935","2701"
"20:50:48:484 (H:m:s:ms)","GENERIC","93.37299999999999","0.0863493837400563","1312"
"20:10:6:60 (H:m:s:ms)","GENERIC","93.15","0.0582798111406789","2795"
"20:34:20:606 (H:m:s:ms)","GENERIC","93.34700000000001","0.09262680134064506","1934"
"20:50:54:545 (H:m:s:ms)","GENERIC","93.17099999999999","0.07569642741281457","1544"
"20:10:12:121 (H:m:s:ms)","GENERIC","93.084","0.07190025236317676","3018"
"20:34:26:666 (H:m:s:ms)","GENERIC","62.111","0.03687464398470347","2861"
"20:51:0:606 (H:m:s:ms)","GENERIC","93.251","0.07352382628815379","2429"
"20:10:18:181 (H:m:s:ms)","GENERIC","62.095","0.07228400267803976","3906"
"20:34:32:727 (H:m:s:ms)","GENERIC","62.043","0.054083269131959814","2845"
"20:51:6:666 (H:m:s:ms)","GENERIC","62.057","0.06234740350654193","3157"
"20:10:24:242 (H:m:s:ms)","GENERIC","93.17","0.08925370758691215","1946"
"20:34:38:787 (H:m:s:ms)","GENERIC","62.137","0.04371678195834396","3139"
"20:51:12:727 (H:m:s:ms)","GENERIC","62.175","0.06285057925349614","1632"
"20:10:30:303 (H:m:s:ms)","GENERIC","62.023","0.06308211896773407","4164"
"20:34:44:848 (H:m:s:ms)","GENERIC","62.077","0.0718699468220086","3303"
"20:10:36:363 (H:m:s:ms)","GENERIC","93.247","0.08448758445734884","3098"
"20:34:50:909 (H:m:s:ms)","GENERIC","93.178","0.08087718793714056","3410"
"20:10:42:424 (H:m:s:ms)","GENERIC","93.12299999999999","0.08252942767693927","2856"
"20:10:48:484 (H:m:s:ms)","GENERIC","93.405","0.07819739854140074","1376"
"20:51:18:787 (H:m:s:ms)","GENERIC","62.083","0.0792346199587024","2278"
"20:51:24:848 (H:m:s:ms)","GENERIC","62.063","0.04640177798317647","2462"
"20:34:56:969 (H:m:s:ms)","GENERIC","93.16","0.07959049750845587","3915"
"20:51:30:909 (H:m:s:ms)","GENERIC","62.089","0.0538290457148451","4098"
"20:35:3:30 (H:m:s:ms)","GENERIC","93.213","0.07475593945082036","4191"
"20:51:36:969 (H:m:s:ms)","GENERIC","93.14099999999999","0.05867054152760519","3591"
"20:10:54:545 (H:m:s:ms)","GENERIC","93.107","0.06388730064643985","1778"
"20:35:9:90 (H:m:s:ms)","GENERIC","93.114","0.06063505461764539","3670"
"20:51:43:30 (H:m:s:ms)","GENERIC","62.091","0.0717276928980322","3862"
"20:11:0:606 (H:m:s:ms)","GENERIC","93.211","0.09035520335353858","2513"
"20:35:15:151 (H:m:s:ms)","GENERIC","62.197","0.07576044462920077","1913"
"20:51:49:90 (H:m:s:ms)","GENERIC","93.131","0.05072727065285466","3061"
"20:11:6:666 (H:m:s:ms)","GENERIC","62.075","0.07112716586514296","3275"
"20:35:21:212 (H:m:s:ms)","GENERIC","62.075","0.06324233363863442","2571"
"20:51:55:151 (H:m:s:ms)","GENERIC","62.125","0.06388765649999399","1842"
"20:11:12:727 (H:m:s:ms)","GENERIC","62.127","0.055242717280199014","1747"
"20:35:27:272 (H:m:s:ms)","GENERIC","93.203","0.07903445366922562","3250"
"20:52:1:212 (H:m:s:ms)","GENERIC","93.154","0.06972778519381966","3670"
"20:11:18:787 (H:m:s:ms)","GENERIC","62.119","0.06126275377421424","2431"
"20:35:33:333 (H:m:s:ms)","GENERIC","62.055","0.05929270612815704","3246"
"20:52:7:272 (H:m:s:ms)","GENERIC","62.025","0.06309714732061981","3171"
"20:11:24:848 (H:m:s:ms)","GENERIC","62.063","0.05488624600025036","2490"
"20:35:39:393 (H:m:s:ms)","GENERIC","93.234","0.07509181269466572","2541"
"20:52:13:333 (H:m:s:ms)","GENERIC","62.077","0.0709557765246933","3317"
"20:11:30:909 (H:m:s:ms)","GENERIC","62.035","0.06234740350654193","4181"
"20:35:45:454 (H:m:s:ms)","GENERIC","62.085","0.07107785619293058","2070"
"20:11:36:969 (H:m:s:ms)","GENERIC","93.117","0.08900678592240494","3595"
"20:35:51:515 (H:m:s:ms)","GENERIC","93.236","0.06758303804288208","2487"
"20:11:43:30 (H:m:s:ms)","GENERIC","93.148","0.06922851957380434","3993"
"20:11:49:90 (H:m:s:ms)","GENERIC","93.187","0.072238849844091","3201"
"20:0:54:545 (H:m:s:ms)","GENERIC","62.076","0.0667438956030239","1646"
"20:1:0:606 (H:m:s:ms)","GENERIC","31.025","0.09055385138137412","2721"
"20:1:6:666 (H:m:s:ms)","GENERIC","31.03","0.05358706676062384","3131"
"20:1:12:727 (H:m:s:ms)","GENERIC","31.054","0.03775951866748303","1577"
"20:1:18:787 (H:m:s:ms)","GENERIC","31.058","0.05659615711335886","2220"
"20:1:24:848 (H:m:s:ms)","GENERIC","31.029","0.05536808647587524","2135"
"20:1:30:909 (H:m:s:ms)","GENERIC","31.016","0.06234740350654193","3800"
"20:1:36:969 (H:m:s:ms)","GENERIC","62.076","0.07368195107984113","3342"
"20:1:43:30 (H:m:s:ms)","GENERIC","31.032","0.03689051251999936","3774"
"20:1:49:90 (H:m:s:ms)","GENERIC","31.037","0.05950012311149901","2983"
"20:35:57:575 (H:m:s:ms)","GENERIC","62.085","0.07200632779557327","2808"
"20:36:3:636 (H:m:s:ms)","GENERIC","93.191","0.053102404087435794","2811"
"20:11:55:151 (H:m:s:ms)","GENERIC","62.125","0.04315373561998061","1836"
"20:36:9:696 (H:m:s:ms)","GENERIC","62.083","0.06503095373213173","1143"
"20:12:1:212 (H:m:s:ms)","GENERIC","62.053","0.07288689868556623","3694"
"20:36:15:757 (H:m:s:ms)","GENERIC","62.125","0.06078625654403848","1943"
"20:12:7:272 (H:m:s:ms)","GENERIC","62.051","0.0537645329190164","3172"
"20:36:21:818 (H:m:s:ms)","GENERIC","62.093","0.07245927975230099","1460"
"20:12:13:333 (H:m:s:ms)","GENERIC","62.087","0.041020154329603375","3148"
"20:36:27:878 (H:m:s:ms)","GENERIC","62.081","0.06383602885711882","3905"
"20:12:19:393 (H:m:s:ms)","GENERIC","62.131","0.054770474625831136","1617"
"20:36:33:939 (H:m:s:ms)","GENERIC","62.113","0.05736991828249308","2789"
"20:12:25:454 (H:m:s:ms)","GENERIC","62.057","0.07148244098377322","3015"
"20:36:40:0 (H:m:s:ms)","GENERIC","62.047","0.07515317691222373","3863"
"20:12:31:515 (H:m:s:ms)","GENERIC","93.168","0.09975757837253835","2921"
"20:36:46:60 (H:m:s:ms)","GENERIC","93.209","0.07175102795736116","3790"
"20:12:37:575 (H:m:s:ms)","GENERIC","62.097","0.05933195312210889","3208"
"20:36:52:121 (H:m:s:ms)","GENERIC","62.077","0.07123454569029379","2959"
"20:12:43:636 (H:m:s:ms)","GENERIC","62.057","0.09999999999999996","3371"
"20:12:49:696 (H:m:s:ms)","GENERIC","62.105","0.066356047199935","1293"
"20:1:55:151 (H:m:s:ms)","GENERIC","31.076","0.06247448458762822","1811"
"20:2:1:212 (H:m:s:ms)","GENERIC","62.143","0.06866213862501451","3592"
"20:2:7:272 (H:m:s:ms)","GENERIC","31.026","0.07211102550927978","2896"
"20:2:13:333 (H:m:s:ms)","GENERIC","31.038","0.061168005879795165","3101"
"20:2:19:393 (H:m:s:ms)","GENERIC","31.063","0.055384499347290755","1587"
"20:2:25:454 (H:m:s:ms)","GENERIC","62.06","0.06692214561524829","3056"
"20:2:31:515 (H:m:s:ms)","GENERIC","62.171","0.06368699579113905","3380"
"20:2:37:575 (H:m:s:ms)","GENERIC","31.038","0.05950988467869319","3487"
"20:2:43:636 (H:m:s:ms)","GENERIC","62.104","0.08341525518740439","3822"
"20:2:49:696 (H:m:s:ms)","GENERIC","62.306","0.072975882340737","1292"
"20:36:58:181 (H:m:s:ms)","GENERIC","62.063","0.04589389937671458","2679"
"20:37:4:242 (H:m:s:ms)","GENERIC","62.087","0.04494099517519922","2901"
"20:12:55:757 (H:m:s:ms)","GENERIC","93.15","0.03510267697863184","3076"
"20:37:10:303 (H:m:s:ms)","GENERIC","93.28999999999999","0.09506669727914985","2636"
"20:13:1:818 (H:m:s:ms)","GENERIC","93.263","0.07967257306103097","2027"
"20:37:16:363 (H:m:s:ms)","GENERIC","93.389","0.07810347992243064","3654"
"20:13:7:878 (H:m:s:ms)","GENERIC","93.209","0.07328899820260198","2659"
"20:37:22:424 (H:m:s:ms)","GENERIC","62.105","0.07323605948003531","3520"
"20:13:13:939 (H:m:s:ms)","GENERIC","62.061","0.09136250564655357","3162"
"20:37:28:484 (H:m:s:ms)","GENERIC","93.124","0.08515720323888067","2889"
"20:13:20:0 (H:m:s:ms)","GENERIC","93.289","0.07084683069883442","3435"
"20:37:34:545 (H:m:s:ms)","GENERIC","93.16","0.09130261661340017","3013"
"20:13:26:60 (H:m:s:ms)","GENERIC","62.103","0.0537645329190164","2329"
"20:37:40:606 (H:m:s:ms)","GENERIC","93.232","0.06593332899502498","2176"
"20:13:32:121 (H:m:s:ms)","GENERIC","93.185","0.0656629780279701","3048"
"20:37:46:666 (H:m:s:ms)","GENERIC","93.267","0.08481788830806865","3360"
"20:13:38:181 (H:m:s:ms)","GENERIC","62.079","0.07264170020722625","3287"
"20:37:52:727 (H:m:s:ms)","GENERIC","93.141","0.07902518316889133","3197"
"20:13:44:242 (H:m:s:ms)","GENERIC","93.316","0.07712817824739786","3137"
"20:13:50:303 (H:m:s:ms)","GENERIC","62.115","0.0680303241209388","2065"
"20:2:55:757 (H:m:s:ms)","GENERIC","62.132999999999996","0.0664701783497622","3400"
"20:3:1:818 (H:m:s:ms)","GENERIC","62.226","0.06663304559607935","2328"
"20:3:7:878 (H:m:s:ms)","GENERIC","31.018","0.09055385138137412","2286"
"20:3:13:939 (H:m:s:ms)","GENERIC","62.161","0.059697955114155696","3089"
"20:3:20:0 (H:m:s:ms)","GENERIC","62.263000000000005","0.08803737804012329","3554"
"20:3:26:60 (H:m:s:ms)","GENERIC","31.049","0.05344572305152208","2397"
"20:3:32:121 (H:m:s:ms)","GENERIC","62.143","0.08983342469214436","3140"
"20:3:38:181 (H:m:s:ms)","GENERIC","31.047","0.051524248405768316","3529"
"20:3:44:242 (H:m:s:ms)","GENERIC","31.04","0.047025412946724014","3171"
"20:3:50:303 (H:m:s:ms)","GENERIC","31.056","0.054886246000250265","2196"
"20:37:58:787 (H:m:s:ms)","GENERIC","93.29400000000001","0.09087142910894026","3074"
"20:38:4:848 (H:m:s:ms)","GENERIC","93.223","0.07025968691401048","3318"
"20:13:56:363 (H:m:s:ms)","GENERIC","62.095","0.06191048508342756","1210"
"20:38:10:909 (H:m:s:ms)","GENERIC","62.113","0.06507474335118206","2584"
"20:14:2:424 (H:m:s:ms)","GENERIC","62.089","0.09395810236483065","2819"
"20:38:16:969 (H:m:s:ms)","GENERIC","62.147","0.04866283478128468","2093"
"20:14:8:484 (H:m:s:ms)","GENERIC","62.067","0.07603453162872775","2598"
"20:38:23:30 (H:m:s:ms)","GENERIC","62.093","0.04513473390183644","2514"
"20:14:14:545 (H:m:s:ms)","GENERIC","93.16","0.06857211522350674","2620"
"20:38:29:90 (H:m:s:ms)","GENERIC","62.031","0.06583787976954066","3784"
"20:14:20:606 (H:m:s:ms)","GENERIC","93.385","0.06350190219585222","1719"
"20:38:35:151 (H:m:s:ms)","GENERIC","93.226","0.09369783989700962","3617"
"20:14:26:666 (H:m:s:ms)","GENERIC","62.081","0.04488711836442319","2581"
"20:38:41:212 (H:m:s:ms)","GENERIC","62.113","0.047598581911649424","1852"
"20:14:32:727 (H:m:s:ms)","GENERIC","62.065","0.036443449342783124","2894"
"20:38:47:272 (H:m:s:ms)","GENERIC","93.22","0.09529344644233838","3195"
"20:14:38:787 (H:m:s:ms)","GENERIC","62.167","0.07186994682200862","3026"
"20:38:53:333 (H:m:s:ms)","GENERIC","93.15","0.08664209645752398","2864"
"20:14:44:848 (H:m:s:ms)","GENERIC","93.155","0.08474692321943549","3298"
"20:14:50:909 (H:m:s:ms)","GENERIC","62.103","0.06373774391990975","3176"
"20:3:56:363 (H:m:s:ms)","GENERIC","31.046","0.07182923343256702","1234"
"20:4:2:424 (H:m:s:ms)","GENERIC","62.212","0.10471260974558236","2773"
"20:4:8:484 (H:m:s:ms)","GENERIC","31.028","0.07126096406869609","2588"
"20:4:14:545 (H:m:s:ms)","GENERIC","62.153999999999996","0.0839706389788372","2562"
"20:4:20:606 (H:m:s:ms)","GENERIC","62.333","0.09540649343676241","1563"
"20:4:26:666 (H:m:s:ms)","GENERIC","31.038","0.07148244098377322","2473"
"20:4:32:727 (H:m:s:ms)","GENERIC","31.036","0.053764532919016395","2556"
"20:4:38:787 (H:m:s:ms)","GENERIC","31.086","0.04821852161199348","2890"
"20:4:44:848 (H:m:s:ms)","GENERIC","62.107","0.08474692321943549","2943"
"20:4:50:909 (H:m:s:ms)","GENERIC","62.14","0.0665447907434096","3166"
"20:38:59:393 (H:m:s:ms)","GENERIC","62.025","0.053864542037307665","3412"
"20:39:5:454 (H:m:s:ms)","GENERIC","93.124","0.08033192153604668","3146"
"20:14:56:969 (H:m:s:ms)","GENERIC","93.182","0.05904755380924796","4563"
"20:39:11:515 (H:m:s:ms)","GENERIC","62.045","0.07566785039081284","2281"
"20:15:3:30 (H:m:s:ms)","GENERIC","93.212","0.07974567556416577","4060"
"20:39:17:575 (H:m:s:ms)","GENERIC","93.377","0.09540649343676241","2098"
"20:15:9:90 (H:m:s:ms)","GENERIC","93.146","0.06556259057441434","3584"
"20:39:23:636 (H:m:s:ms)","GENERIC","93.25","0.09893886595288041","2311"
"20:15:15:151 (H:m:s:ms)","GENERIC","62.171","0.06883718577303655","1885"
"20:39:29:696 (H:m:s:ms)","GENERIC","62.097","0.0552268050859363","1362"
"20:15:21:212 (H:m:s:ms)","GENERIC","62.085","0.04109692781698548","2639"
"20:39:35:757 (H:m:s:ms)","GENERIC","93.145","0.09773681903691427","2281"
"20:15:27:272 (H:m:s:ms)","GENERIC","93.181","0.09963241651926108","3000"
"20:39:41:818 (H:m:s:ms)","GENERIC","93.225","0.07708687041643254","2321"
"20:15:33:333 (H:m:s:ms)","GENERIC","62.045","0.05659615711335891","3271"
"20:39:47:878 (H:m:s:ms)","GENERIC","62.101","0.051864335501885635","2507"
"20:15:39:393 (H:m:s:ms)","GENERIC","93.242","0.07447426425363309","2842"
"20:39:53:939 (H:m:s:ms)","GENERIC","62.095","0.07164149674767145","2988"
"20:15:45:454 (H:m:s:ms)","GENERIC","62.087","0.03640012037089176","2375"
"20:15:51:515 (H:m:s:ms)","GENERIC","62.073","0.05792848472522429","2629"
"20:4:56:969 (H:m:s:ms)","GENERIC","62.163","0.06383895321635863","3627"
"20:5:3:30 (H:m:s:ms)","GENERIC","62.165","0.050244389450655236","4245"
"20:5:9:90 (H:m:s:ms)","GENERIC","31.042","0.05995241892302784","3332"
"20:5:15:151 (H:m:s:ms)","GENERIC","31.079","0.07787867973583297","1791"
"20:5:21:212 (H:m:s:ms)","GENERIC","31.039","0.05531196597705512","2476"
"20:5:27:272 (H:m:s:ms)","GENERIC","93.337","0.09437480966220352","2686"
"20:5:33:333 (H:m:s:ms)","GENERIC","31.029","0.08338540040078961","2753"
"20:5:39:393 (H:m:s:ms)","GENERIC","62.206999999999994","0.08531477879701548","2622"
"20:5:45:454 (H:m:s:ms)","GENERIC","31.046","0.06293967588823667","2034"
"20:5:51:515 (H:m:s:ms)","GENERIC","62.185","0.0532172581426204","2497"
"20:15:57:575 (H:m:s:ms)","GENERIC","62.043","0.05499448326176325","2920"
"20:16:3:636 (H:m:s:ms)","GENERIC","62.087","0.0740829349445606","2918"
"20:16:9:696 (H:m:s:ms)","GENERIC","62.101","0.0512751929120044","1320"
"20:16:15:757 (H:m:s:ms)","GENERIC","62.099","0.06114991335405094","1906"
"20:16:21:818 (H:m:s:ms)","GENERIC","62.089","0.04527692569068701","1527"
"20:16:27:878 (H:m:s:ms)","GENERIC","62.105","0.05531196597705512","3892"
"20:16:33:939 (H:m:s:ms)","GENERIC","93.139","0.07789567809731522","2640"
"20:16:40:0 (H:m:s:ms)","GENERIC","93.128","0.08832269971437504","3644"
"20:16:46:60 (H:m:s:ms)","GENERIC","93.18299999999999","0.06425918402166916","3620"
"20:16:52:121 (H:m:s:ms)","GENERIC","62.081","0.07123454569029379","2992"
"20:5:57:575 (H:m:s:ms)","GENERIC","31.013","0.053078174398827824","2869"
"20:6:3:636 (H:m:s:ms)","GENERIC","62.153999999999996","0.06511167885952346","2819"
"20:6:9:696 (H:m:s:ms)","GENERIC","31.048","0.04410388941153025","1214"
"20:6:15:757 (H:m:s:ms)","GENERIC","31.056","0.061006913384803026","1938"
"20:6:21:818 (H:m:s:ms)","GENERIC","31.046","0.06468137719278672","1446"
"20:6:27:878 (H:m:s:ms)","GENERIC","31.043","0.04541876670494959","3023"
"20:6:33:939 (H:m:s:ms)","GENERIC","62.086","0.08860816665211872","2622"
"20:6:40:0 (H:m:s:ms)","GENERIC","62.14","0.05642781933704973","3865"
"20:6:46:60 (H:m:s:ms)","GENERIC","62.132","0.06411362290373865","3745"
"20:6:52:121 (H:m:s:ms)","GENERIC","31.045","0.07123454569029379","3143"
"20:16:58:181 (H:m:s:ms)","GENERIC","62.059","0.0634675113739305","2616"
"20:17:4:242 (H:m:s:ms)","GENERIC","62.117","0.04494099517519922","2823"
"20:17:10:303 (H:m:s:ms)","GENERIC","93.286","0.10577125500516672","2285"
"20:17:16:363 (H:m:s:ms)","GENERIC","93.425","0.06978841102822803","3410"
"20:17:22:424 (H:m:s:ms)","GENERIC","93.244","0.07167545716190221","3350"
"20:17:28:484 (H:m:s:ms)","GENERIC","93.148","0.07637052120772657","2790"
"20:17:34:545 (H:m:s:ms)","GENERIC","93.184","0.09227499558015513","2908"
"20:17:40:606 (H:m:s:ms)","GENERIC","93.22","0.06704198234250762","2097"
"20:17:46:666 (H:m:s:ms)","GENERIC","93.211","0.08216555087344637","2863"
"20:17:52:727 (H:m:s:ms)","GENERIC","62.081","0.07114582486036496","3151"
"20:6:58:181 (H:m:s:ms)","GENERIC","31.03","0.054083269131959814","2844"
"20:7:4:242 (H:m:s:ms)","GENERIC","31.074","0.04585742149869394","2976"
"20:7:10:303 (H:m:s:ms)","GENERIC","62.25","0.12229001859815555","2459"
"20:7:16:363 (H:m:s:ms)","GENERIC","62.342","0.06165984440853522","3571"
"20:7:22:424 (H:m:s:ms)","GENERIC","62.181","0.07492224261236756","3546"
"20:7:28:484 (H:m:s:ms)","GENERIC","62.117000000000004","0.09211359425531601","2892"
"20:7:34:545 (H:m:s:ms)","GENERIC","62.106","0.0733770846886877","2963"
"20:7:40:606 (H:m:s:ms)","GENERIC","62.168","0.049032558472432396","2418"
"20:7:46:666 (H:m:s:ms)","GENERIC","62.167","0.0573064165830281","3113"
"20:7:52:727 (H:m:s:ms)","GENERIC","62.134","0.07454192203809595","3163"
"20:17:58:787 (H:m:s:ms)","GENERIC","93.28200000000001","0.07393946333135483","2805"
"20:18:4:848 (H:m:s:ms)","GENERIC","93.191","0.05811797476275019","3136"
"20:18:10:909 (H:m:s:ms)","GENERIC","62.113","0.0562854826358942","2480"
"20:18:16:969 (H:m:s:ms)","GENERIC","62.137","0.040718697392634944","2089"
"20:18:23:30 (H:m:s:ms)","GENERIC","62.109","0.04488711836442319","2429"
"20:18:29:90 (H:m:s:ms)","GENERIC","62.033","0.06465034984331129","3473"
"20:18:35:151 (H:m:s:ms)","GENERIC","93.22800000000001","0.1027821237774101","3467"
"20:18:41:212 (H:m:s:ms)","GENERIC","62.093","0.06327642728536433","1832"
"20:18:47:272 (H:m:s:ms)","GENERIC","62.175","0.08949947246964045","2729"
"20:18:53:333 (H:m:s:ms)","GENERIC","62.097","0.04999038738816461","2931"
"20:7:58:787 (H:m:s:ms)","GENERIC","62.269999999999996","0.06727438531818884","3117"
"20:8:4:848 (H:m:s:ms)","GENERIC","62.16","0.07881564044246148","2980"
"20:8:10:909 (H:m:s:ms)","GENERIC","31.05","0.04804873105041967","2471"
"20:8:16:969 (H:m:s:ms)","GENERIC","31.071","0.05551898056733672","1999"
"20:8:23:30 (H:m:s:ms)","GENERIC","31.051","0.05361183073782985","2303"
"20:8:29:90 (H:m:s:ms)","GENERIC","31.021","0.05406404752337319","3359"
"20:8:35:151 (H:m:s:ms)","GENERIC","62.188","0.10276602170747468","3109"
"20:8:41:212 (H:m:s:ms)","GENERIC","31.044","0.0318688719599549","1711"
"20:8:47:272 (H:m:s:ms)","GENERIC","31.061","0.07113019142552199","3551"
"20:8:53:333 (H:m:s:ms)","GENERIC","62.117999999999995","0.08664209645752395","2583"
"20:18:59:393 (H:m:s:ms)","GENERIC","62.045","0.04518864778778951","3321"
"20:19:5:454 (H:m:s:ms)","GENERIC","93.142","0.08256974733992674","3153"
"20:19:11:515 (H:m:s:ms)","GENERIC","62.083","0.06332085671950125","2347"
"20:19:17:575 (H:m:s:ms)","GENERIC","93.357","0.09138576105297982","2165"
"20:19:23:636 (H:m:s:ms)","GENERIC","62.077","0.09055385138137412","2532"
"20:19:29:696 (H:m:s:ms)","GENERIC","62.071","0.066356047199935","1408"
"20:19:35:757 (H:m:s:ms)","GENERIC","62.065","0.0771818064701779","2537"
"20:19:41:818 (H:m:s:ms)","GENERIC","93.235","0.07075462632188292","2181"
"20:19:47:878 (H:m:s:ms)","GENERIC","93.349","0.07782592810813722","2558"
"20:19:53:939 (H:m:s:ms)","GENERIC","93.30799999999999","0.07620168468573248","3260"
"20:8:59:393 (H:m:s:ms)","GENERIC","31.02","0.06258605187171408","2899"
"20:9:5:454 (H:m:s:ms)","GENERIC","31.061","0.05871042139387937","3025"
"20:9:11:515 (H:m:s:ms)","GENERIC","31.055","0.04859308865781353","2472"
"20:9:17:575 (H:m:s:ms)","GENERIC","62.304","0.07698174441426989","2006"
"20:9:23:636 (H:m:s:ms)","GENERIC","62.231","0.07925267563825064","1907"
"20:9:29:696 (H:m:s:ms)","GENERIC","31.032","0.07126096406869611","1320"
"20:9:35:757 (H:m:s:ms)","GENERIC","62.144000000000005","0.09248647696672828","2259"
"20:9:41:818 (H:m:s:ms)","GENERIC","31.031","0.05357142857142855","2560"
"20:9:47:878 (H:m:s:ms)","GENERIC","31.056","0.054556096179854074","1376"
"20:9:53:939 (H:m:s:ms)","GENERIC","62.272","0.09988188378182361","2928"
"21:41:36:969 (H:m:s:ms)","GENERIC","93.10300000000001","0.09054328453795223","3683"
"21:41:30:909 (H:m:s:ms)","GENERIC","62.047","0.04514633055488446","4325"
"21:41:24:848 (H:m:s:ms)","GENERIC","62.079","0.0447562844749204","2908"
"21:41:18:787 (H:m:s:ms)","GENERIC","62.107","0.06126275377421424","2592"
"21:41:12:727 (H:m:s:ms)","GENERIC","62.067","0.0541716744479991","1759"
"21:41:6:666 (H:m:s:ms)","GENERIC","62.049","0.03588603047656342","3513"
"21:41:0:606 (H:m:s:ms)","GENERIC","93.206","0.10624079137220052","2960"
"21:41:55:151 (H:m:s:ms)","GENERIC","62.103","0.06247448458762822","1848"
"21:41:49:90 (H:m:s:ms)","GENERIC","93.123","0.06416034954780325","3018"
"21:41:43:30 (H:m:s:ms)","GENERIC","93.13","0.07088672074566002","4000"
