"time (H:m:s:ms)","type","latency","utilisation","waiting"
"21:42:25:454 (H:m:s:ms)","GENERIC","62.283","0.06967019072739121","759"
"21:42:7:272 (H:m:s:ms)","GENERIC","93.21900000000001","0.05579436573266019","1060"
"21:42:1:212 (H:m:s:ms)","GENERIC","93.421","0.06515024309392076","1228"
"21:41:55:151 (H:m:s:ms)","GENERIC","93.623","0.0422986409246397","1118"
"21:41:49:90 (H:m:s:ms)","GENERIC","62.051","0.030774945495981882","1309"
"21:41:43:30 (H:m:s:ms)","GENERIC","62.117","0.04408871245699628","1284"
"21:41:36:969 (H:m:s:ms)","GENERIC","93.337","0.07492972900124491","1362"
"21:41:30:909 (H:m:s:ms)","GENERIC","62.069","0.0466483641077901","1289"
"21:41:24:848 (H:m:s:ms)","GENERIC","62.037","0.052148621630847325","487"
"21:42:19:393 (H:m:s:ms)","GENERIC","93.135","0.05697878243695194","894"
"21:42:13:333 (H:m:s:ms)","GENERIC","93.571","0.05299664026254695","1026"
"21:43:32:121 (H:m:s:ms)","GENERIC","93.15899999999999","0.05611495144482594","1176"
"21:43:26:60 (H:m:s:ms)","GENERIC","93.312","0.063521558760272","1328"
"21:43:13:939 (H:m:s:ms)","GENERIC","93.599","0.047731888747599226","1291"
"20:0:0:0 (H:m:s:ms)","GENERIC","62.522999999999996","0.06949556806437233","1643"
"21:43:7:878 (H:m:s:ms)","GENERIC","93.138","0.05592856116447055","1276"
"20:0:6:60 (H:m:s:ms)","GENERIC","31.036","0.019555733111567747","1140"
"21:43:1:818 (H:m:s:ms)","GENERIC","93.399","0.06176052632280145","388"
"20:0:12:121 (H:m:s:ms)","GENERIC","62.505","0.07079259102002498","1237"
"21:42:55:757 (H:m:s:ms)","GENERIC","93.385","0.04137718161330516","444"
"20:0:18:181 (H:m:s:ms)","GENERIC","62.333","0.05603324433870506","1013"
"21:42:49:696 (H:m:s:ms)","GENERIC","62.041","0.043895530547435106","807"
"20:0:24:242 (H:m:s:ms)","GENERIC","62.272999999999996","0.054909684738584826","1133"
"21:42:43:636 (H:m:s:ms)","GENERIC","93.292","0.04193178458820185","643"
"20:0:30:303 (H:m:s:ms)","GENERIC","31.04","0.04408871245699628","1055"
"21:42:37:575 (H:m:s:ms)","GENERIC","93.26400000000001","0.04901662828860919","820"
"20:0:36:363 (H:m:s:ms)","GENERIC","31.084","0.05471587667664509","1021"
"21:42:31:515 (H:m:s:ms)","GENERIC","93.429","0.06050837139368756","691"
"20:0:42:424 (H:m:s:ms)","GENERIC","62.242999999999995","0.03918197760769029","814"
"21:10:12:121 (H:m:s:ms)","GENERIC","93.487","0.070854571707304","1186"
"20:0:48:484 (H:m:s:ms)","GENERIC","62.507999999999996","0.059016536991793815","783"
"21:10:18:181 (H:m:s:ms)","GENERIC","93.289","0.0638621797397855","990"
"21:10:24:242 (H:m:s:ms)","GENERIC","62.299","0.045398496238389485","1083"
"21:10:30:303 (H:m:s:ms)","GENERIC","93.57","0.030260670168819906","1083"
"21:10:36:363 (H:m:s:ms)","GENERIC","93.46300000000001","0.047450190083225735","1024"
"21:10:42:424 (H:m:s:ms)","GENERIC","62.103","0.05086064839889025","832"
"21:10:48:484 (H:m:s:ms)","GENERIC","93.577","0.060288314059162136","802"
"21:10:54:545 (H:m:s:ms)","GENERIC","93.11099999999999","0.032551427241637836","650"
"21:43:20:0 (H:m:s:ms)","GENERIC","93.57900000000001","0.0581318987705607","1289"
"21:11:0:606 (H:m:s:ms)","GENERIC","62.099","0.04110330124533989","773"
"21:11:6:666 (H:m:s:ms)","GENERIC","93.47","0.04629903012658014","656"
"21:25:41:772 (H:m:s:ms)","OPERA","93.213","0.058370634508627894","638"
"21:44:38:787 (H:m:s:ms)","GENERIC","62.087","0.03172246153935255","580"
"21:44:32:727 (H:m:s:ms)","GENERIC","62.049","0.05357072414301609","526"
"21:44:26:666 (H:m:s:ms)","GENERIC","93.352","0.05040238048544246","709"
"21:44:20:606 (H:m:s:ms)","GENERIC","93.286","0.0472581034418794","596"
"21:44:14:545 (H:m:s:ms)","GENERIC","93.334","0.06020951313898659","814"
"21:44:8:484 (H:m:s:ms)","GENERIC","93.475","0.05173709342760315","790"
"21:44:2:424 (H:m:s:ms)","GENERIC","62.344","0.05987079477095126","783"
"21:43:56:363 (H:m:s:ms)","GENERIC","93.631","0.056670511946502994","859"
"21:43:50:303 (H:m:s:ms)","GENERIC","62.025","0.04297092411011859","1088"
"21:43:44:242 (H:m:s:ms)","GENERIC","62.041","0.05034483167242277","1093"
"21:11:12:727 (H:m:s:ms)","GENERIC","62.047","0.021655237206491016","723"
"21:43:38:181 (H:m:s:ms)","GENERIC","93.614","0.04235074799708028","1155"
"21:11:18:787 (H:m:s:ms)","GENERIC","62.079","0.05590169943749489","598"
"21:11:24:848 (H:m:s:ms)","GENERIC","62.045","0.05165305807770891","488"
"21:11:30:909 (H:m:s:ms)","GENERIC","62.119","0.04567321067214277","1301"
"21:11:36:969 (H:m:s:ms)","GENERIC","93.348","0.05026069350471816","1396"
"21:11:43:30 (H:m:s:ms)","GENERIC","93.538","0.02828087580918806","1348"
"21:11:49:90 (H:m:s:ms)","GENERIC","93.259","0.04081746557747439","1306"
"21:11:55:151 (H:m:s:ms)","GENERIC","93.638","0.06289625489738038","1103"
"21:12:1:212 (H:m:s:ms)","GENERIC","62.093","0.03905124837953325","1054"
"21:12:7:272 (H:m:s:ms)","GENERIC","93.18900000000001","0.06268796783931677","1030"
"21:26:19:746 (H:m:s:ms)","OPERA","62.232","0.06895523508229486","696"
"21:45:45:454 (H:m:s:ms)","GENERIC","62.033","0.05328541245083316","893"
"21:26:15:757 (H:m:s:ms)","GENERIC","62.117","0.07089950151115054","475"
"21:45:39:393 (H:m:s:ms)","GENERIC","62.115","0.04185080419312027","934"
"21:45:33:333 (H:m:s:ms)","GENERIC","62.063","0.05385164807134523","908"
"21:45:27:272 (H:m:s:ms)","GENERIC","93.315","0.0516993569414531","1169"
"21:26:9:696 (H:m:s:ms)","GENERIC","93.388","0.0857128598188741","532"
"21:26:4:556 (H:m:s:ms)","OPERA","62.015","0.059658633276190386","855"
"21:45:21:212 (H:m:s:ms)","GENERIC","93.241","0.052332584305544855","1184"
"21:26:3:636 (H:m:s:ms)","GENERIC","93.334","0.03148011341222224","681"
"21:45:15:151 (H:m:s:ms)","GENERIC","31.031","0.047876392092064325","1165"
"21:25:57:575 (H:m:s:ms)","GENERIC","62.097","0.06372322954405606","1117"
"21:45:9:90 (H:m:s:ms)","GENERIC","93.33","0.0663163399669541","1381"
"21:25:56:962 (H:m:s:ms)","OPERA","93.22800000000001","0.046507694275425636","1441"
"21:45:3:30 (H:m:s:ms)","GENERIC","93.369","0.04431925608783975","1365"
"21:25:51:515 (H:m:s:ms)","GENERIC","93.441","0.07049361064249948","853"
"21:44:56:969 (H:m:s:ms)","GENERIC","62.063","0.0514198405287299","1396"
"21:12:13:333 (H:m:s:ms)","GENERIC","93.522","0.04226117370055832","1108"
"21:25:49:367 (H:m:s:ms)","OPERA","93.23599999999999","0.07331788035073407","1114"
"21:44:50:909 (H:m:s:ms)","GENERIC","62.111","0.03386062536506653","1465"
"21:12:19:393 (H:m:s:ms)","GENERIC","93.148","0.05854746157797223","902"
"21:25:45:454 (H:m:s:ms)","GENERIC","93.523","0.07386243304085155","914"
"21:44:44:848 (H:m:s:ms)","GENERIC","93.356","0.05329650066584536","509"
"21:12:25:454 (H:m:s:ms)","GENERIC","62.053","0.037730771408906","955"
"21:12:31:515 (H:m:s:ms)","GENERIC","93.393","0.05429096659442004","712"
"21:12:37:575 (H:m:s:ms)","GENERIC","93.119","0.06260106916941016","702"
"21:12:43:636 (H:m:s:ms)","GENERIC","93.268","0.07012071831548557","640"
"21:12:49:696 (H:m:s:ms)","GENERIC","93.254","0.056726244618108296","760"
"21:12:55:757 (H:m:s:ms)","GENERIC","93.393","0.059914311828868805","449"
"21:13:1:818 (H:m:s:ms)","GENERIC","93.309","0.082165046608293","391"
"21:13:7:878 (H:m:s:ms)","GENERIC","62.089","0.05028213743870866","1284"
"21:26:12:151 (H:m:s:ms)","OPERA","93.238","0.09126849367266396","1281"
"21:26:57:721 (H:m:s:ms)","OPERA","93.254","0.04964704711614869","655"
"21:46:52:121 (H:m:s:ms)","GENERIC","62.344","0.06272979886252497","1124"
"21:26:52:121 (H:m:s:ms)","GENERIC","93.61","0.06293531256289232","1304"
"21:46:46:60 (H:m:s:ms)","GENERIC","62.037","0.05015722320420638","1281"
"21:26:50:126 (H:m:s:ms)","OPERA","93.23400000000001","0.06226621656930138","1247"
"21:46:40:0 (H:m:s:ms)","GENERIC","62.103","0.03220335894220492","1400"
"21:46:33:939 (H:m:s:ms)","GENERIC","93.279","0.07070030429980657","1404"
"21:46:27:878 (H:m:s:ms)","GENERIC","93.44","0.05213733618734942","1461"
"21:26:46:60 (H:m:s:ms)","GENERIC","93.232","0.06608623466459378","1281"
"21:26:42:531 (H:m:s:ms)","OPERA","93.23400000000001","0.06208216382143277","835"
"21:26:40:0 (H:m:s:ms)","GENERIC","62.089","0.06228383563805021","1374"
"21:46:21:818 (H:m:s:ms)","GENERIC","93.507","0.027342303932010564","557"
"21:26:34:936 (H:m:s:ms)","OPERA","93.238","0.07693310365849391","1836"
"21:46:15:757 (H:m:s:ms)","GENERIC","62.115","0.03166097186555415","472"
"21:26:33:939 (H:m:s:ms)","GENERIC","93.273","0.05606168385003937","1428"
"21:46:9:696 (H:m:s:ms)","GENERIC","93.419","0.06562842477304306","512"
"21:13:13:939 (H:m:s:ms)","GENERIC","93.553","0.02850635362136663","1327"
"21:26:27:878 (H:m:s:ms)","GENERIC","93.436","0.06490391888096227","1834"
"21:46:3:636 (H:m:s:ms)","GENERIC","93.30199999999999","0.04507117257512115","650"
"21:13:20:0 (H:m:s:ms)","GENERIC","93.571","0.05882629693820321","1301"
"21:26:27:341 (H:m:s:ms)","OPERA","93.23599999999999","0.059536102463572924","995"
"21:45:57:575 (H:m:s:ms)","GENERIC","93.107","0.06167388845261568","754"
"21:13:26:60 (H:m:s:ms)","GENERIC","93.336","0.06692068440412632","1327"
"21:26:21:818 (H:m:s:ms)","GENERIC","93.495","0.07397437955423045","525"
"21:45:51:515 (H:m:s:ms)","GENERIC","62.248999999999995","0.044490032525561454","773"
"21:13:32:121 (H:m:s:ms)","GENERIC","62.027","0.05017331074496813","1135"
"21:13:38:181 (H:m:s:ms)","GENERIC","93.564","0.06623968171539768","1110"
"21:13:44:242 (H:m:s:ms)","GENERIC","93.273","0.055946866348844146","1082"
"21:13:50:303 (H:m:s:ms)","GENERIC","93.19","0.027170394762540146","1104"
"21:13:56:363 (H:m:s:ms)","GENERIC","93.63900000000001","0.05266367256861177","854"
"21:14:2:424 (H:m:s:ms)","GENERIC","93.625","0.0674830003316636","821"
"21:14:8:484 (H:m:s:ms)","GENERIC","93.435","0.041916868466113116","808"
"21:27:34:545 (H:m:s:ms)","GENERIC","93.538","0.07069641110111469","846"
"21:47:58:787 (H:m:s:ms)","GENERIC","93.529","0.05072523173492354","441"
"21:27:28:484 (H:m:s:ms)","GENERIC","93.126","0.07026365111182979","1211"
"21:47:52:727 (H:m:s:ms)","GENERIC","93.53999999999999","0.061124776665990366","641"
"21:27:28:101 (H:m:s:ms)","OPERA","93.23400000000001","0.05732802005126082","1272"
"21:47:46:666 (H:m:s:ms)","GENERIC","62.029","0.0502622968818275","739"
"21:27:22:424 (H:m:s:ms)","GENERIC","93.291","0.06622500900322656","1075"
"21:47:40:606 (H:m:s:ms)","GENERIC","62.049","0.054166666666666766","614"
"21:47:34:545 (H:m:s:ms)","GENERIC","93.548","0.04253322603422729","852"
"21:47:28:484 (H:m:s:ms)","GENERIC","62.075","0.05328541245083333","835"
"21:27:20:506 (H:m:s:ms)","OPERA","93.254","0.07586667397053688","862"
"21:27:16:363 (H:m:s:ms)","GENERIC","93.104","0.08523610471813169","940"
"21:27:12:911 (H:m:s:ms)","OPERA","93.23400000000001","0.09214780994767273","1463"
"21:47:22:424 (H:m:s:ms)","GENERIC","93.371","0.053931363386225194","775"
"21:14:14:545 (H:m:s:ms)","GENERIC","93.366","0.03612209271894154","788"
"21:27:10:303 (H:m:s:ms)","GENERIC","93.656","0.08742256938956583","885"
"21:47:16:363 (H:m:s:ms)","GENERIC","62.095","0.04312943084739155","942"
"21:14:20:606 (H:m:s:ms)","GENERIC","93.30199999999999","0.03948182042360763","614"
"21:27:5:316 (H:m:s:ms)","OPERA","93.266","0.06856679005494073","1048"
"21:47:10:303 (H:m:s:ms)","GENERIC","93.608","0.05579712050046037","884"
"20:52:13:333 (H:m:s:ms)","GENERIC","93.532","0.05597388400281933","1078"
"21:14:26:666 (H:m:s:ms)","GENERIC","93.339","0.065548115517193","692"
"21:27:4:242 (H:m:s:ms)","GENERIC","93.275","0.04529767070504602","1135"
"21:47:4:242 (H:m:s:ms)","GENERIC","93.279","0.05609803500884416","1132"
"20:52:19:393 (H:m:s:ms)","GENERIC","93.131","0.06040707768300786","902"
"21:14:32:727 (H:m:s:ms)","GENERIC","93.153","0.04817383759345928","430"
"21:26:58:181 (H:m:s:ms)","GENERIC","93.37899999999999","0.07405141402723354","1035"
"21:46:58:181 (H:m:s:ms)","GENERIC","93.343","0.06529668979522077","1041"
"20:52:25:454 (H:m:s:ms)","GENERIC","93.229","0.04480370073262929","946"
"21:14:38:787 (H:m:s:ms)","GENERIC","62.127","0.031460858864561646","579"
"20:52:31:515 (H:m:s:ms)","GENERIC","31.037","0.04262218002533133","883"
"21:14:44:848 (H:m:s:ms)","GENERIC","93.342","0.053780079328386125","500"
"20:52:37:575 (H:m:s:ms)","GENERIC","93.113","0.06606391508462","753"
"21:14:50:909 (H:m:s:ms)","GENERIC","93.081","0.038659984299150796","1452"
"20:52:43:636 (H:m:s:ms)","GENERIC","93.28999999999999","0.041590085623684506","657"
"21:14:56:969 (H:m:s:ms)","GENERIC","62.107","0.0514198405287299","1396"
"20:52:49:696 (H:m:s:ms)","GENERIC","93.316","0.044085422929329265","769"
"21:15:3:30 (H:m:s:ms)","GENERIC","93.35900000000001","0.048121181114482936","1335"
"20:52:55:757 (H:m:s:ms)","GENERIC","93.387","0.05314655517679869","439"
"21:15:9:90 (H:m:s:ms)","GENERIC","93.387","0.058360933392563874","1306"
"20:53:1:818 (H:m:s:ms)","GENERIC","93.343","0.0633917056113234","392"
"20:53:7:878 (H:m:s:ms)","GENERIC","93.106","0.04871953483165762","1279"
"21:28:10:909 (H:m:s:ms)","GENERIC","124.27000000000001","0.08198337698152883","1341"
"21:49:5:454 (H:m:s:ms)","GENERIC","62.103","0.03548999615400287","950"
"21:28:6:75 (H:m:s:ms)","OPERA","93.23599999999999","0.08402046725617383","1372"
"21:48:59:393 (H:m:s:ms)","GENERIC","124.615","0.07497682500684578","828"
"21:28:4:848 (H:m:s:ms)","GENERIC","93.162","0.07486986196832325","522"
"21:48:53:333 (H:m:s:ms)","GENERIC","93.443","0.07144902030639179","1032"
"21:27:58:787 (H:m:s:ms)","GENERIC","62.125","0.0721334744028223","797"
"21:48:47:272 (H:m:s:ms)","GENERIC","93.558","0.059677175645870176","920"
"21:27:58:481 (H:m:s:ms)","OPERA","62.013","0.052000784923432415","854"
"21:48:41:212 (H:m:s:ms)","GENERIC","62.093","0.05024937810560468","1167"
"21:48:35:151 (H:m:s:ms)","GENERIC","93.368","0.06664350684819928","1217"
"21:48:29:90 (H:m:s:ms)","GENERIC","62.075","0.05032179505791948","1331"
"21:27:52:727 (H:m:s:ms)","GENERIC","93.473","0.0824638176342286","671"
"21:15:15:151 (H:m:s:ms)","GENERIC","93.351","0.06176052632280145","1096"
"21:27:50:886 (H:m:s:ms)","OPERA","93.211","0.06117735599628093","450"
"21:15:21:212 (H:m:s:ms)","GENERIC","93.225","0.024092526461659408","1196"
"21:27:46:666 (H:m:s:ms)","GENERIC","93.229","0.05629908113024653","733"
"21:48:23:30 (H:m:s:ms)","GENERIC","93.34899999999999","0.056609630112759976","1391"
"20:53:13:939 (H:m:s:ms)","GENERIC","62.137","0.0506359556046887","1300"
"21:15:27:272 (H:m:s:ms)","GENERIC","62.278000000000006","0.05890177695516754","1090"
"21:27:43:291 (H:m:s:ms)","OPERA","62.013","0.07485665595708427","1048"
"21:48:16:969 (H:m:s:ms)","GENERIC","62.041","0.05362378394035273","1261"
"20:53:20:0 (H:m:s:ms)","GENERIC","93.59100000000001","0.05284072596801332","1294"
"21:15:33:333 (H:m:s:ms)","GENERIC","62.051","0.04001952648395532","930"
"21:27:40:606 (H:m:s:ms)","GENERIC","93.33099999999999","0.07975510028369859","576"
"21:48:10:909 (H:m:s:ms)","GENERIC","93.185","0.055855301596686814","1426"
"20:53:26:60 (H:m:s:ms)","GENERIC","93.362","0.05805701485400079","1327"
"21:15:39:393 (H:m:s:ms)","GENERIC","62.139","0.04207984300393304","914"
"21:27:35:696 (H:m:s:ms)","OPERA","93.23599999999999","0.08357788783100156","749"
"21:48:4:848 (H:m:s:ms)","GENERIC","93.195","0.04830934921110181","473"
"20:53:32:121 (H:m:s:ms)","GENERIC","62.067","0.05033912770179674","1140"
"21:15:45:454 (H:m:s:ms)","GENERIC","93.525","0.06054705889650153","903"
"20:53:38:181 (H:m:s:ms)","GENERIC","125.013","0.05602131654585815","1126"
"21:15:51:515 (H:m:s:ms)","GENERIC","93.441","0.052830373655727736","862"
"20:53:44:242 (H:m:s:ms)","GENERIC","93.291","0.03909429277384184","1128"
"21:15:57:575 (H:m:s:ms)","GENERIC","93.137","0.07078654590047563","713"
"20:53:50:303 (H:m:s:ms)","GENERIC","62.061","0.03592727366700854","1094"
"21:16:3:636 (H:m:s:ms)","GENERIC","93.33","0.04012495446148299","676"
"20:53:56:363 (H:m:s:ms)","GENERIC","93.63499999999999","0.06257273710453895","834"
"21:16:9:696 (H:m:s:ms)","GENERIC","93.372","0.06085064776199313","535"
"20:54:2:424 (H:m:s:ms)","GENERIC","93.58","0.04545897213789216","823"
"20:54:8:484 (H:m:s:ms)","GENERIC","62.031","0.04031128874149277","812"
"21:28:47:272 (H:m:s:ms)","GENERIC","93.58200000000001","0.060157563280696394","992"
"22:2:37:894 (H:m:s:ms)","AMBULANCE","62.321","0.04422525427375059","367"
"21:28:44:50 (H:m:s:ms)","OPERA","62.015","0.0732831970793645","1357"
"22:0:31:578 (H:m:s:ms)","AMBULANCE","62.326","0.06635806679631903","731"
"21:28:41:212 (H:m:s:ms)","GENERIC","93.157","0.07235008517841032","1195"
"21:50:0:0 (H:m:s:ms)","GENERIC","62.119","0.0505076272276108","1259"
"21:28:36:455 (H:m:s:ms)","OPERA","93.238","0.08425324873202727","953"
"21:49:53:939 (H:m:s:ms)","GENERIC","93.25","0.047850260990763144","1384"
"21:28:35:151 (H:m:s:ms)","GENERIC","93.322","0.07257272767486389","1206"
"21:49:47:878 (H:m:s:ms)","GENERIC","93.387","0.060816755031625154","1331"
"21:28:29:90 (H:m:s:ms)","GENERIC","62.057","0.07636200984890348","1331"
"21:49:41:818 (H:m:s:ms)","GENERIC","62.035","0.043215725047815935","538"
"21:49:35:757 (H:m:s:ms)","GENERIC","93.473","0.06008014006599113","483"
"21:49:29:696 (H:m:s:ms)","GENERIC","93.147","0.06006159424827415","631"
"21:16:15:757 (H:m:s:ms)","GENERIC","62.109","0.04395471659269371","473"
"21:16:21:818 (H:m:s:ms)","GENERIC","93.499","0.03988712262932899","551"
"21:28:28:860 (H:m:s:ms)","OPERA","93.23599999999999","0.07837412594640249","472"
"20:54:14:545 (H:m:s:ms)","GENERIC","93.342","0.050354772746456375","822"
"21:16:27:878 (H:m:s:ms)","GENERIC","93.44200000000001","0.047175324219297925","1440"
"21:28:23:30 (H:m:s:ms)","GENERIC","62.075","0.07225316451634993","1413"
"20:54:20:606 (H:m:s:ms)","GENERIC","93.282","0.052782397756495354","611"
"21:16:33:939 (H:m:s:ms)","GENERIC","93.277","0.046704117591743755","1409"
"21:28:21:265 (H:m:s:ms)","OPERA","93.211","0.08731332231166476","1066"
"21:49:23:636 (H:m:s:ms)","GENERIC","93.395","0.0646069547839707","786"
"20:54:26:666 (H:m:s:ms)","GENERIC","93.28999999999999","0.05018409550912654","691"
"21:16:40:0 (H:m:s:ms)","GENERIC","62.067","0.03195319928339634","1399"
"21:28:16:969 (H:m:s:ms)","GENERIC","93.25399999999999","0.08616293311792746","1250"
"21:49:17:575 (H:m:s:ms)","GENERIC","93.183","0.05597507688180106","843"
"20:54:32:727 (H:m:s:ms)","GENERIC","93.155","0.04116150816510869","478"
"21:16:46:60 (H:m:s:ms)","GENERIC","93.24799999999999","0.061472897157509095","1272"
"21:28:13:670 (H:m:s:ms)","OPERA","93.238","0.08602081641088172","735"
"21:49:11:515 (H:m:s:ms)","GENERIC","93.28399999999999","0.027683416018194865","862"
"20:54:38:787 (H:m:s:ms)","GENERIC","62.113","0.03230332256533884","559"
"21:16:52:121 (H:m:s:ms)","GENERIC","93.62","0.03224467242529354","1301"
"20:54:44:848 (H:m:s:ms)","GENERIC","93.342","0.05523839066697366","504"
"21:16:58:181 (H:m:s:ms)","GENERIC","62.131","0.07071067811865492","1036"
"20:54:50:909 (H:m:s:ms)","GENERIC","62.091","0.04274124540718124","1454"
"21:17:4:242 (H:m:s:ms)","GENERIC","93.225","0.04982281815422675","1122"
"20:54:56:969 (H:m:s:ms)","GENERIC","62.105","0.04386342439892263","1401"
"21:17:10:303 (H:m:s:ms)","GENERIC","93.668","0.052900050036882244","886"
"20:55:3:30 (H:m:s:ms)","GENERIC","93.40299999999999","0.06424967742256948","1387"
"20:55:9:90 (H:m:s:ms)","GENERIC","62.069","0.05024937810560454","1354"
"21:29:23:636 (H:m:s:ms)","GENERIC","93.38499999999999","0.06731737672889589","783"
"21:29:22:25 (H:m:s:ms)","OPERA","62.013","0.0600939984343148","1315"
"21:29:17:575 (H:m:s:ms)","GENERIC","62.077","0.06291069109213983","867"
"21:29:14:430 (H:m:s:ms)","OPERA","93.238","0.06792464202029108","974"
"21:29:11:515 (H:m:s:ms)","GENERIC","93.30199999999999","0.05915272640347589","857"
"21:29:6:835 (H:m:s:ms)","OPERA","93.254","0.047773546500585094","540"
"21:29:5:454 (H:m:s:ms)","GENERIC","62.081","0.03904891398369489","945"
"21:17:16:363 (H:m:s:ms)","GENERIC","93.11","0.06587633529605048","906"
"21:17:22:424 (H:m:s:ms)","GENERIC","93.289","0.05913524391481228","790"
"20:55:15:151 (H:m:s:ms)","GENERIC","93.379","0.05420566535506594","1118"
"21:17:28:484 (H:m:s:ms)","GENERIC","62.041","0.05243383906624044","878"
"20:55:21:212 (H:m:s:ms)","GENERIC","62.049","0.05058825553063826","1194"
"21:17:34:545 (H:m:s:ms)","GENERIC","62.079","0.05060667106469267","852"
"21:28:59:393 (H:m:s:ms)","GENERIC","93.378","0.08772110306230485","1268"
"20:55:27:272 (H:m:s:ms)","GENERIC","93.397","0.05092015230000769","1019"
"21:17:40:606 (H:m:s:ms)","GENERIC","93.33500000000001","0.05577670945564653","577"
"21:28:59:240 (H:m:s:ms)","OPERA","93.238","0.05258129961931976","1232"
"20:55:33:333 (H:m:s:ms)","GENERIC","93.25","0.024875734400387525","931"
"21:17:46:666 (H:m:s:ms)","GENERIC","62.059","0.04333389067603786","739"
"21:28:53:333 (H:m:s:ms)","GENERIC","93.40700000000001","0.07066772519084202","1035"
"22:5:15:789 (H:m:s:ms)","AMBULANCE","62.321","0.0330412477421869","428"
"20:55:39:393 (H:m:s:ms)","GENERIC","93.146","0.04384396020113948","914"
"21:17:52:727 (H:m:s:ms)","GENERIC","93.491","0.05622920049068479","680"
"21:28:51:645 (H:m:s:ms)","OPERA","93.213","0.053461892326689","763"
"22:4:44:210 (H:m:s:ms)","AMBULANCE","62.321","0.060631281281503815","1054"
"20:55:45:454 (H:m:s:ms)","GENERIC","62.091","0.05170232290628557","895"
"21:17:58:787 (H:m:s:ms)","GENERIC","93.507","0.042597642584932593","463"
"20:55:51:515 (H:m:s:ms)","GENERIC","93.487","0.07068998912400619","844"
"21:18:4:848 (H:m:s:ms)","GENERIC","93.139","0.04296035620133235","500"
"20:55:57:575 (H:m:s:ms)","GENERIC","93.105","0.044130286892243166","789"
"21:18:10:909 (H:m:s:ms)","GENERIC","93.201","0.070726019882933","1410"
"20:56:3:636 (H:m:s:ms)","GENERIC","93.31","0.05364369184187933","676"
"20:56:9:696 (H:m:s:ms)","GENERIC","93.383","0.05551566389537541","562"
"21:30:0:0 (H:m:s:ms)","OPERA","93.238","0.07854779224195635","1796"
"21:30:0:0 (H:m:s:ms)","AMBULANCE","31.019","0.037880720420707975","1391"
"21:29:53:939 (H:m:s:ms)","GENERIC","93.264","0.07411426829391783","1350"
"21:29:52:405 (H:m:s:ms)","OPERA","62.015","0.08131275970111108","999"
"21:29:47:878 (H:m:s:ms)","GENERIC","62.303","0.08727454582575833","349"
"21:29:44:810 (H:m:s:ms)","OPERA","93.23599999999999","0.07452950140942419","631"
"21:29:41:818 (H:m:s:ms)","GENERIC","62.067","0.06732358974117224","546"
"21:29:37:215 (H:m:s:ms)","OPERA","62.011","0.0664915091182266","1159"
"21:18:16:969 (H:m:s:ms)","GENERIC","93.238","0.06411754306452098","1248"
"21:18:23:30 (H:m:s:ms)","GENERIC","93.37299999999999","0.06966707583758734","1391"
"20:56:15:757 (H:m:s:ms)","GENERIC","62.083","0.04427218430916555","471"
"21:18:29:90 (H:m:s:ms)","GENERIC","93.42699999999999","0.05068539552333957","1328"
"20:56:21:818 (H:m:s:ms)","GENERIC","62.075","0.050089919145472825","557"
"21:18:35:151 (H:m:s:ms)","GENERIC","93.326","0.055272218762556856","1223"
"20:40:0:0 (H:m:s:ms)","OPERA","31.008","0.044876373392787376","1921"
"20:56:27:878 (H:m:s:ms)","GENERIC","93.411","0.05119194146768752","1470"
"21:18:41:212 (H:m:s:ms)","GENERIC","93.14099999999999","0.05061839823153622","1196"
"20:40:0:0 (H:m:s:ms)","GENERIC","62.101","0.05749903700387118","2153"
"20:56:33:939 (H:m:s:ms)","GENERIC","93.289","0.05643718534074248","1388"
"21:18:47:272 (H:m:s:ms)","GENERIC","93.56","0.06627420679276075","992"
"21:29:35:757 (H:m:s:ms)","GENERIC","93.467","0.041800075248257955","509"
"20:40:0:0 (H:m:s:ms)","GENERIC","62.119","0.08392036595277634","2443"
"20:56:40:0 (H:m:s:ms)","GENERIC","62.069","0.050307695211874774","1334"
"21:18:53:333 (H:m:s:ms)","GENERIC","93.39500000000001","0.06435473472895557","1038"
"21:29:29:696 (H:m:s:ms)","GENERIC","62.093","0.07328773069474692","1111"
"20:40:6:60 (H:m:s:ms)","GENERIC","62.127","0.03316653871183203","1138"
"20:56:46:60 (H:m:s:ms)","GENERIC","93.25399999999999","0.03324970148917316","1280"
"21:18:59:393 (H:m:s:ms)","GENERIC","93.376","0.05927434870932023","866"
"21:29:29:620 (H:m:s:ms)","OPERA","93.23599999999999","0.053772373125357806","853"
"20:40:7:594 (H:m:s:ms)","OPERA","31.009","0.06213076848609931","778"
"20:56:52:121 (H:m:s:ms)","GENERIC","93.62","0.03926677622980601","1303"
"21:19:5:454 (H:m:s:ms)","GENERIC","62.091","0.0238744004651241","958"
"20:40:12:121 (H:m:s:ms)","GENERIC","93.51599999999999","0.08798651337778186","1193"
"20:56:58:181 (H:m:s:ms)","GENERIC","62.095","0.07071067811865492","1041"
"21:19:11:515 (H:m:s:ms)","GENERIC","62.049","0.051397697964102304","859"
"20:40:15:189 (H:m:s:ms)","OPERA","62.251","0.07540291803011749","1257"
"20:57:4:242 (H:m:s:ms)","GENERIC","93.307","0.06311711562477924","1127"
"20:40:18:181 (H:m:s:ms)","GENERIC","93.353","0.07938863094758628","1024"
"20:57:10:303 (H:m:s:ms)","GENERIC","93.646","0.05979279701263193","882"
"20:40:22:784 (H:m:s:ms)","OPERA","62.25","0.08723478558306097","586"
"20:40:24:242 (H:m:s:ms)","GENERIC","62.043","0.0677579929123812","1025"
"21:30:6:60 (H:m:s:ms)","GENERIC","62.093","0.04394796481193522","1134"
"21:30:48:484 (H:m:s:ms)","GENERIC","93.553","0.07091842072807855","802"
"21:30:42:424 (H:m:s:ms)","GENERIC","62.095","0.046584749531245424","834"
"21:30:36:363 (H:m:s:ms)","GENERIC","62.081","0.05019448075618089","1035"
"21:30:31:578 (H:m:s:ms)","AMBULANCE","31.013","0.04656296089934334","832"
"21:30:30:303 (H:m:s:ms)","GENERIC","93.60499999999999","0.035741247468856055","1082"
"21:30:24:242 (H:m:s:ms)","GENERIC","93.268","0.02811517410917689","1155"
"21:30:18:181 (H:m:s:ms)","GENERIC","93.321","0.054312031141258085","1047"
"21:19:17:575 (H:m:s:ms)","GENERIC","62.077","0.05021924587496331","862"
"21:30:12:121 (H:m:s:ms)","GENERIC","93.537","0.05617545940201112","1193"
"21:19:23:636 (H:m:s:ms)","GENERIC","62.063","0.050462734798124","808"
"20:57:16:363 (H:m:s:ms)","GENERIC","62.099","0.05031766932195671","907"
"21:19:29:696 (H:m:s:ms)","GENERIC","93.173","0.062487140746804705","635"
"20:57:22:424 (H:m:s:ms)","GENERIC","93.281","0.04890601600755143","923"
"21:19:35:757 (H:m:s:ms)","GENERIC","93.477","0.05180452852141818","509"
"20:40:30:303 (H:m:s:ms)","GENERIC","93.53399999999999","0.05886621104176575","1050"
"20:57:28:484 (H:m:s:ms)","GENERIC","62.067","0.04483151667949004","877"
"21:19:41:818 (H:m:s:ms)","GENERIC","93.41","0.034946633393174366","543"
"20:40:30:379 (H:m:s:ms)","OPERA","62.232","0.09211851372544193","1383"
"20:57:34:545 (H:m:s:ms)","GENERIC","93.568","0.05853237811114309","861"
"21:19:47:878 (H:m:s:ms)","GENERIC","93.267","0.07521378350319989","1504"
"20:40:36:363 (H:m:s:ms)","GENERIC","62.087","0.02910654098554323","1034"
"20:57:40:606 (H:m:s:ms)","GENERIC","62.061","0.06009252125773332","593"
"21:19:53:939 (H:m:s:ms)","GENERIC","93.253","0.032020036341737855","1437"
"20:40:37:974 (H:m:s:ms)","OPERA","62.232","0.07475102809536405","1465"
"20:57:46:666 (H:m:s:ms)","GENERIC","93.235","0.044787756326288494","735"
"21:20:0:0 (H:m:s:ms)","OPERA","62.011","0.04333398743619339","1842"
"21:30:0:0 (H:m:s:ms)","GENERIC","62.149","0.1099227488595948","2278"
"20:40:42:424 (H:m:s:ms)","GENERIC","93.286","0.08204515225966853","792"
"20:57:52:727 (H:m:s:ms)","GENERIC","93.489","0.07107517675053547","675"
"21:20:0:0 (H:m:s:ms)","GENERIC","93.108","0.0615145963830788","2059"
"21:30:0:0 (H:m:s:ms)","GENERIC","62.091","0.09349696049817724","2018"
"20:40:45:569 (H:m:s:ms)","OPERA","62.230000000000004","0.06190755200871006","805"
"20:57:58:787 (H:m:s:ms)","GENERIC","93.497","0.04567259006198807","445"
"21:20:0:0 (H:m:s:ms)","GENERIC","93.614","0.0923051712046212","2245"
"20:40:48:484 (H:m:s:ms)","GENERIC","93.569","0.08240597831283583","802"
"20:58:4:848 (H:m:s:ms)","GENERIC","93.135","0.04207622862558668","502"
"20:40:53:164 (H:m:s:ms)","OPERA","62.230000000000004","0.08430458811086636","1206"
"20:58:10:909 (H:m:s:ms)","GENERIC","93.197","0.060194948078530056","1449"
"20:40:54:545 (H:m:s:ms)","GENERIC","62.065","0.06881426346965154","616"
"20:41:0:606 (H:m:s:ms)","GENERIC","62.139","0.05029133531332008","764"
"21:31:3:157 (H:m:s:ms)","AMBULANCE","62.323","0.0825342444614469","1147"
"21:31:0:606 (H:m:s:ms)","GENERIC","62.115","0.050653148145922554","767"
"21:31:43:30 (H:m:s:ms)","GENERIC","62.119","0.037599042760806126","1314"
"21:31:36:969 (H:m:s:ms)","GENERIC","93.34","0.09382970969637136","1360"
"21:31:34:736 (H:m:s:ms)","AMBULANCE","62.289","0.08437398851967237","599"
"21:31:30:909 (H:m:s:ms)","GENERIC","62.083","0.0466483641077901","1290"
"21:31:24:848 (H:m:s:ms)","GENERIC","93.201","0.055944447882881304","467"
"21:31:18:787 (H:m:s:ms)","GENERIC","62.113","0.0339372289732179","601"
"21:31:12:727 (H:m:s:ms)","GENERIC","62.085","0.02895339681043042","717"
"21:31:6:666 (H:m:s:ms)","GENERIC","93.49","0.09238893779976037","633"
"20:58:16:969 (H:m:s:ms)","GENERIC","93.21600000000001","0.06460578364277904","1251"
"20:58:23:30 (H:m:s:ms)","GENERIC","93.35499999999999","0.03956787655943666","1413"
"20:41:0:759 (H:m:s:ms)","OPERA","62.230000000000004","0.06690987389012404","987"
"20:58:29:90 (H:m:s:ms)","GENERIC","93.462","0.05625658226497955","1309"
"20:41:6:666 (H:m:s:ms)","GENERIC","93.458","0.05491239749613507","638"
"20:58:35:151 (H:m:s:ms)","GENERIC","93.341","0.05607725095859799","1201"
"20:41:8:354 (H:m:s:ms)","OPERA","62.251","0.06805833989464442","1086"
"20:58:41:212 (H:m:s:ms)","GENERIC","93.136","0.045886133360581026","1180"
"20:41:12:727 (H:m:s:ms)","GENERIC","62.031","0.05409206742590768","703"
"20:58:47:272 (H:m:s:ms)","GENERIC","93.52","0.05229858328573661","951"
"20:41:15:949 (H:m:s:ms)","OPERA","62.230000000000004","0.06429218688118447","1416"
"20:58:53:333 (H:m:s:ms)","GENERIC","93.411","0.061593991597639064","1036"
"20:41:18:787 (H:m:s:ms)","GENERIC","93.30600000000001","0.08210080058749976","616"
"20:58:59:393 (H:m:s:ms)","GENERIC","93.37","0.07055984966943579","829"
"21:30:54:545 (H:m:s:ms)","GENERIC","93.12700000000001","0.056216750053604825","632"
"20:41:23:544 (H:m:s:ms)","OPERA","31.009","0.0805189737058696","862"
"20:59:5:454 (H:m:s:ms)","GENERIC","62.115","0.04483151667949004","910"
"20:41:24:848 (H:m:s:ms)","GENERIC","93.22200000000001","0.06351234367407316","487"
"20:59:11:515 (H:m:s:ms)","GENERIC","62.041","0.053505250129153054","857"
"20:41:30:909 (H:m:s:ms)","GENERIC","62.133","0.05243383906624028","1283"
"20:41:31:139 (H:m:s:ms)","OPERA","62.232","0.0626998242334959","1427"
"20:59:17:575 (H:m:s:ms)","GENERIC","93.189","0.0341405155046208","844"
"20:59:23:636 (H:m:s:ms)","GENERIC","93.31700000000001","0.04467123917174734","783"
"20:41:36:969 (H:m:s:ms)","GENERIC","93.346","0.03843863723642217","1394"
"20:59:29:696 (H:m:s:ms)","GENERIC","62.061","0.05036283334130551","677"
"20:41:38:734 (H:m:s:ms)","OPERA","62.21","0.06630256163309309","706"
"20:59:35:757 (H:m:s:ms)","GENERIC","124.82","0.08013967702077736","451"
"20:41:43:30 (H:m:s:ms)","GENERIC","62.117","0.06613812702349835","1315"
"20:59:41:818 (H:m:s:ms)","GENERIC","62.109","0.02894408404354486","554"
"20:41:46:329 (H:m:s:ms)","OPERA","62.232","0.07194089618458459","1069"
"20:59:47:878 (H:m:s:ms)","GENERIC","62.031","0.043888678120247854","1400"
"20:41:49:90 (H:m:s:ms)","GENERIC","93.275","0.08183997647944045","1249"
"20:59:53:939 (H:m:s:ms)","GENERIC","93.243","0.0640977292495281","1414"
"20:41:53:924 (H:m:s:ms)","OPERA","62.251999999999995","0.06998946612749939","516"
"21:0:0:0 (H:m:s:ms)","AMBULANCE","31.043","0.03626558621839963","2026"
"20:41:55:151 (H:m:s:ms)","GENERIC","62.151","0.06095043192036454","1145"
"21:0:0:0 (H:m:s:ms)","GENERIC","62.089","0.0566551734671352","2252"
"20:42:1:212 (H:m:s:ms)","GENERIC","62.101","0.0450693909433","1042"
"21:0:0:0 (H:m:s:ms)","GENERIC","62.129","0.08661547336402237","2514"
"20:42:1:518 (H:m:s:ms)","OPERA","62.230999999999995","0.06603217684647086","1173"
"20:42:7:272 (H:m:s:ms)","GENERIC","62.049","0.03790928906654505","1101"
"21:0:6:60 (H:m:s:ms)","GENERIC","62.103","0.03201230714337801","1137"
"21:0:12:121 (H:m:s:ms)","GENERIC","124.93299999999999","0.06514713532851611","1221"
"20:42:9:113 (H:m:s:ms)","OPERA","62.25","0.0465127002130205","1299"
"21:0:18:181 (H:m:s:ms)","GENERIC","93.323","0.0708058972324371","1011"
"20:42:13:333 (H:m:s:ms)","GENERIC","93.54","0.07591318492847306","1032"
"21:0:24:242 (H:m:s:ms)","GENERIC","62.053","0.04349257842870293","1193"
"20:20:0:0 (H:m:s:ms)","GENERIC","62.091","0.036728457520521125","1709"
"20:42:16:708 (H:m:s:ms)","OPERA","31.009","0.08271145331052632","665"
"21:0:30:303 (H:m:s:ms)","GENERIC","62.119","0.05052615720578279","1061"
"20:20:0:0 (H:m:s:ms)","GENERIC","93.602","0.06214982370032197","1998"
"20:42:19:393 (H:m:s:ms)","GENERIC","93.17","0.07298956422916322","906"
"21:0:31:578 (H:m:s:ms)","AMBULANCE","31.053","0.0625277935118268","867"
"20:20:6:60 (H:m:s:ms)","GENERIC","62.099","0.03813758393818343","1138"
"20:42:24:303 (H:m:s:ms)","OPERA","62.232","0.0894887335186067","1096"
"21:0:36:363 (H:m:s:ms)","GENERIC","93.44","0.09416610133455504","1035"
"20:20:12:121 (H:m:s:ms)","GENERIC","93.528","0.06307670387446872","1215"
"20:42:25:454 (H:m:s:ms)","GENERIC","93.259","0.07321305335645732","952"
"21:0:42:424 (H:m:s:ms)","GENERIC","62.089","0.05270462766947314","813"
"20:20:18:181 (H:m:s:ms)","GENERIC","93.341","0.07078108875127193","1016"
"20:42:31:515 (H:m:s:ms)","GENERIC","93.311","0.0479820013838119","835"
"21:0:48:484 (H:m:s:ms)","GENERIC","93.569","0.06004644224333599","812"
"20:20:24:242 (H:m:s:ms)","GENERIC","93.258","0.046905926650904886","1036"
"20:42:31:898 (H:m:s:ms)","OPERA","62.232","0.07096304765623973","864"
"21:0:54:545 (H:m:s:ms)","GENERIC","93.095","0.052044897012834955","646"
"20:20:30:303 (H:m:s:ms)","GENERIC","62.093","0.050132057014408184","1052"
"20:42:37:575 (H:m:s:ms)","GENERIC","93.13499999999999","0.06616359341536614","750"
"20:20:36:363 (H:m:s:ms)","GENERIC","93.488","0.06739069192718511","1030"
"20:42:39:493 (H:m:s:ms)","OPERA","62.224999999999994","0.08657546467050552","942"
"20:20:42:424 (H:m:s:ms)","GENERIC","62.071","0.05270462766947314","815"
"20:20:48:484 (H:m:s:ms)","GENERIC","93.566","0.04562866763486501","794"
"21:1:0:606 (H:m:s:ms)","GENERIC","93.429","0.051991824101252845","750"
"21:1:3:157 (H:m:s:ms)","AMBULANCE","31.053","0.07243940070229421","1256"
"20:42:43:636 (H:m:s:ms)","GENERIC","62.061","0.06709902771442931","640"
"21:1:6:666 (H:m:s:ms)","GENERIC","93.483","0.08028350241023481","636"
"20:42:47:88 (H:m:s:ms)","OPERA","31.007","0.06363778901482069","1320"
"21:1:12:727 (H:m:s:ms)","GENERIC","62.033","0.02946339127832773","719"
"20:20:54:545 (H:m:s:ms)","GENERIC","62.093","0.038674686466281374","631"
"20:42:49:696 (H:m:s:ms)","GENERIC","93.286","0.07362673914513555","776"
"21:1:18:787 (H:m:s:ms)","GENERIC","93.315","0.05905266647823435","596"
"20:21:0:606 (H:m:s:ms)","GENERIC","93.41","0.037405494534957756","751"
"20:42:54:683 (H:m:s:ms)","OPERA","62.230999999999995","0.07481892246292797","722"
"21:1:24:848 (H:m:s:ms)","GENERIC","93.194","0.05180905302131412","480"
"20:21:6:666 (H:m:s:ms)","GENERIC","93.46000000000001","0.0473145987842333","655"
"20:42:55:757 (H:m:s:ms)","GENERIC","93.375","0.06982847806411477","442"
"21:1:30:909 (H:m:s:ms)","GENERIC","62.141","0.040185138846805434","1293"
"20:21:12:727 (H:m:s:ms)","GENERIC","93.177","0.042007850375970573","680"
"20:43:1:818 (H:m:s:ms)","GENERIC","93.305","0.07493817827072478","409"
"21:1:34:736 (H:m:s:ms)","AMBULANCE","31.047","0.05433671823337651","709"
"20:21:18:787 (H:m:s:ms)","GENERIC","62.031","0.041666666666666755","621"
"20:43:2:278 (H:m:s:ms)","OPERA","62.232","0.0898361551417373","1169"
"21:1:36:969 (H:m:s:ms)","GENERIC","93.356","0.07231079155016117","1364"
"20:21:24:848 (H:m:s:ms)","GENERIC","93.214","0.03660248966792604","464"
"20:43:7:878 (H:m:s:ms)","GENERIC","93.108","0.04497195032169385","1282"
"21:1:43:30 (H:m:s:ms)","GENERIC","62.141","0.03803611267951283","1312"
"20:21:30:909 (H:m:s:ms)","GENERIC","62.091","0.03904891398369495","1298"
"20:43:9:873 (H:m:s:ms)","OPERA","62.230999999999995","0.06474335533096047","499"
"20:21:36:969 (H:m:s:ms)","GENERIC","93.34","0.04239211786308818","1391"
"20:43:13:939 (H:m:s:ms)","GENERIC","93.55499999999999","0.07049335404506807","1309"
"20:21:43:30 (H:m:s:ms)","GENERIC","62.117","0.03803611267951283","1311"
"20:21:49:90 (H:m:s:ms)","GENERIC","62.089","0.05034483167242277","1286"
"20:43:17:468 (H:m:s:ms)","OPERA","62.232","0.07399333831793517","975"
"20:43:20:0 (H:m:s:ms)","GENERIC","93.601","0.07756829663707761","1296"
"20:21:55:151 (H:m:s:ms)","GENERIC","62.115","0.05060667106469267","1131"
"20:43:25:63 (H:m:s:ms)","OPERA","62.230999999999995","0.07816409041046565","1275"
"20:22:1:212 (H:m:s:ms)","GENERIC","62.111","0.05038911092686587","1036"
"20:43:26:60 (H:m:s:ms)","GENERIC","93.378","0.0907235504326201","1328"
"20:22:7:272 (H:m:s:ms)","GENERIC","93.18299999999999","0.06306075584950886","1095"
"20:43:32:121 (H:m:s:ms)","GENERIC","93.169","0.058966594309933736","1175"
"20:22:13:333 (H:m:s:ms)","GENERIC","93.568","0.06029059213540261","1064"
"20:43:32:658 (H:m:s:ms)","OPERA","31.009","0.07443711891184808","1081"
"20:22:19:393 (H:m:s:ms)","GENERIC","93.188","0.06266509720428103","930"
"20:43:38:181 (H:m:s:ms)","GENERIC","93.53399999999999","0.05402778747490537","1131"
"20:22:25:454 (H:m:s:ms)","GENERIC","93.257","0.03251664954001852","951"
"20:43:44:242 (H:m:s:ms)","GENERIC","93.297","0.05436697926629558","1108"
"20:22:31:515 (H:m:s:ms)","GENERIC","93.52799999999999","0.05275230819694101","868"
"20:43:47:848 (H:m:s:ms)","OPERA","62.25","0.07834066709006107","585"
"20:22:37:575 (H:m:s:ms)","GENERIC","93.161","0.06772686552243407","698"
"20:43:50:303 (H:m:s:ms)","GENERIC","93.218","0.06811644374611954","1081"
"20:22:43:636 (H:m:s:ms)","GENERIC","62.253","0.06657525152067328","649"
"20:22:49:696 (H:m:s:ms)","GENERIC","93.248","0.042896760556326484","767"
"20:43:55:443 (H:m:s:ms)","OPERA","62.207","0.059869442575906276","926"
"20:43:56:363 (H:m:s:ms)","GENERIC","93.631","0.07196338035181722","851"
"20:22:55:757 (H:m:s:ms)","GENERIC","62.339","0.060631281281503815","465"
"20:44:2:424 (H:m:s:ms)","GENERIC","93.56400000000001","0.052955775835470315","800"
"20:23:1:818 (H:m:s:ms)","GENERIC","62.321","0.061247584980094145","409"
"20:44:3:37 (H:m:s:ms)","OPERA","62.230999999999995","0.0716229794054625","1297"
"20:23:7:878 (H:m:s:ms)","GENERIC","93.142","0.04486253772854911","1281"
"20:44:8:484 (H:m:s:ms)","GENERIC","62.047","0.06302852566284277","808"
"20:23:13:939 (H:m:s:ms)","GENERIC","62.095","0.0506359556046887","1301"
"20:44:10:632 (H:m:s:ms)","OPERA","62.260000000000005","0.0566544802205238","810"
"20:23:20:0 (H:m:s:ms)","GENERIC","93.59299999999999","0.05270849347442762","1295"
"20:44:14:545 (H:m:s:ms)","GENERIC","93.39099999999999","0.06109541672803783","783"
"20:23:26:60 (H:m:s:ms)","GENERIC","93.33","0.06360240316452767","1328"
"20:44:18:227 (H:m:s:ms)","OPERA","31.009","0.07003682014672576","1178"
"20:23:32:121 (H:m:s:ms)","GENERIC","93.193","0.059073676329638156","1172"
"20:44:20:606 (H:m:s:ms)","GENERIC","93.28999999999999","0.06844774426870393","611"
"20:23:38:181 (H:m:s:ms)","GENERIC","93.586","0.07066256726087554","1118"
"20:44:25:822 (H:m:s:ms)","OPERA","62.232","0.0670826166059531","583"
"20:23:44:242 (H:m:s:ms)","GENERIC","93.31","0.06602286870037659","1043"
"20:23:50:303 (H:m:s:ms)","GENERIC","93.225","0.048696442047539736","1057"
"20:44:26:666 (H:m:s:ms)","GENERIC","93.288","0.0621483082938411","705"
"20:44:32:727 (H:m:s:ms)","GENERIC","93.174","0.06499432405740162","522"
"20:23:56:363 (H:m:s:ms)","GENERIC","93.64099999999999","0.06605813924008572","853"
"20:44:33:417 (H:m:s:ms)","OPERA","62.232","0.07581121436656825","995"
"20:24:2:424 (H:m:s:ms)","GENERIC","93.534","0.06521343366050916","822"
"20:44:38:787 (H:m:s:ms)","GENERIC","62.097","0.050675768507284266","560"
"20:24:8:484 (H:m:s:ms)","GENERIC","93.497","0.05607771003844085","779"
"20:44:41:12 (H:m:s:ms)","OPERA","62.224000000000004","0.05989879735424087","1359"
"20:24:14:545 (H:m:s:ms)","GENERIC","93.344","0.06009270253245425","825"
"20:44:44:848 (H:m:s:ms)","GENERIC","93.356","0.07005881265346048","531"
"20:24:20:606 (H:m:s:ms)","GENERIC","93.274","0.05829774810441002","581"
"20:44:48:607 (H:m:s:ms)","OPERA","31.007","0.06484418797446344","770"
"20:24:26:666 (H:m:s:ms)","GENERIC","93.30799999999999","0.04195270630720226","698"
"20:44:50:909 (H:m:s:ms)","GENERIC","93.139","0.056093757340021644","1453"
"20:24:32:727 (H:m:s:ms)","GENERIC","62.083","0.0482167198283533","566"
"20:44:56:202 (H:m:s:ms)","OPERA","62.230999999999995","0.05201995495314967","1243"
"20:24:38:787 (H:m:s:ms)","GENERIC","62.133","0.03803611267951283","555"
"20:44:56:969 (H:m:s:ms)","GENERIC","93.338","0.06770513580668285","1773"
"20:24:44:848 (H:m:s:ms)","GENERIC","62.045","0.03488667323266297","559"
"20:24:50:909 (H:m:s:ms)","GENERIC","62.155","0.05068968775248541","1449"
"20:45:3:30 (H:m:s:ms)","GENERIC","93.384","0.054051547067086154","1415"
"20:45:9:90 (H:m:s:ms)","GENERIC","93.407","0.04478902280482123","1329"
"20:24:56:969 (H:m:s:ms)","GENERIC","62.095","0.0514198405287299","1395"
"20:45:11:392 (H:m:s:ms)","OPERA","31.008","0.06261283133289423","947"
"20:25:3:30 (H:m:s:ms)","GENERIC","62.057","0.050462734798124","1411"
"20:45:15:151 (H:m:s:ms)","GENERIC","93.365","0.07538511572441345","1107"
"20:25:9:90 (H:m:s:ms)","GENERIC","93.41900000000001","0.04435796649399185","1329"
"20:45:18:987 (H:m:s:ms)","OPERA","31.008","0.07988661074168865","1426"
"20:25:15:151 (H:m:s:ms)","GENERIC","93.363","0.05782184826029631","1111"
"20:45:21:212 (H:m:s:ms)","GENERIC","62.049","0.07163051340690693","1193"
"20:25:21:212 (H:m:s:ms)","GENERIC","93.195","0.03072254634655495","1197"
"20:45:26:582 (H:m:s:ms)","OPERA","62.232","0.06548234566971287","825"
"20:25:27:272 (H:m:s:ms)","GENERIC","93.373","0.04733476968985878","1004"
"20:45:27:272 (H:m:s:ms)","GENERIC","93.385","0.06746699511673682","1018"
"20:25:33:333 (H:m:s:ms)","GENERIC","62.103","0.048023431780746376","921"
"20:45:33:333 (H:m:s:ms)","GENERIC","62.089","0.053047737934807195","913"
"20:25:39:393 (H:m:s:ms)","GENERIC","62.147","0.04195402639368521","935"
"20:45:34:177 (H:m:s:ms)","OPERA","31.007","0.06878682448482777","1200"
"20:25:45:454 (H:m:s:ms)","GENERIC","93.595","0.06411975147191606","896"
"20:25:51:515 (H:m:s:ms)","GENERIC","93.418","0.055795162740749006","837"
"20:25:57:575 (H:m:s:ms)","GENERIC","93.08500000000001","0.05930018085827255","793"
"20:26:3:636 (H:m:s:ms)","GENERIC","93.3","0.04882081621643208","652"
"20:26:9:696 (H:m:s:ms)","GENERIC","93.369","0.07045097684341195","512"
"20:26:15:757 (H:m:s:ms)","GENERIC","62.031","0.043823808139729706","473"
"20:26:21:818 (H:m:s:ms)","GENERIC","62.085","0.05015974481593786","554"
"20:26:27:878 (H:m:s:ms)","GENERIC","93.441","0.039036807128306664","1473"
"20:26:33:939 (H:m:s:ms)","GENERIC","62.027","0.050136986558077475","1434"
"20:26:40:0 (H:m:s:ms)","GENERIC","62.041","0.03790928906654508","1369"
"20:26:46:60 (H:m:s:ms)","GENERIC","93.23400000000001","0.054518077172905785","1279"
"20:26:52:121 (H:m:s:ms)","GENERIC","93.634","0.056077883256955605","1270"
"20:26:58:181 (H:m:s:ms)","GENERIC","62.301","0.05343044315484434","1038"
"20:27:4:242 (H:m:s:ms)","GENERIC","93.28699999999999","0.05233196734561685","1134"
"20:27:10:303 (H:m:s:ms)","GENERIC","93.63","0.052926467208753","894"
"20:27:16:363 (H:m:s:ms)","GENERIC","93.084","0.06142008718889259","941"
"20:27:22:424 (H:m:s:ms)","GENERIC","62.075","0.044227503910969045","1026"
"20:27:28:484 (H:m:s:ms)","GENERIC","93.149","0.042325230207252304","882"
"20:27:34:545 (H:m:s:ms)","GENERIC","93.606","0.06065873818259022","850"
"20:27:40:606 (H:m:s:ms)","GENERIC","93.38300000000001","0.05577670945564653","574"
"20:27:46:666 (H:m:s:ms)","GENERIC","62.043","0.04354200605749239","744"
"20:27:52:727 (H:m:s:ms)","GENERIC","93.56","0.05360886104549499","641"
"20:27:58:787 (H:m:s:ms)","GENERIC","93.481","0.04999599897137744","453"
"20:28:4:848 (H:m:s:ms)","GENERIC","93.125","0.053736919458904166","495"
"20:28:10:909 (H:m:s:ms)","GENERIC","124.3","0.07262837102056575","1341"
"20:28:16:969 (H:m:s:ms)","GENERIC","93.282","0.051374396133778456","1263"
"20:28:23:30 (H:m:s:ms)","GENERIC","93.34100000000001","0.05835183617539533","1366"
"20:28:29:90 (H:m:s:ms)","GENERIC","62.089","0.040783266095157616","1353"
"20:28:35:151 (H:m:s:ms)","GENERIC","93.381","0.04521664874768531","1205"
"20:28:41:212 (H:m:s:ms)","GENERIC","93.187","0.060947231436488405","1197"
"20:28:47:272 (H:m:s:ms)","GENERIC","93.501","0.06580900559339058","949"
"20:28:53:333 (H:m:s:ms)","GENERIC","93.39500000000001","0.052525464302379254","1042"
"20:28:59:393 (H:m:s:ms)","GENERIC","93.35900000000001","0.07215540769180921","819"
"20:29:5:454 (H:m:s:ms)","GENERIC","93.202","0.02703136064929065","949"
"20:29:11:515 (H:m:s:ms)","GENERIC","62.023","0.04274124540718134","862"
"20:29:17:575 (H:m:s:ms)","GENERIC","93.139","0.05420812809183272","837"
"20:29:23:636 (H:m:s:ms)","GENERIC","93.34700000000001","0.051760466645625815","785"
"20:29:29:696 (H:m:s:ms)","GENERIC","93.068","0.038170545507714614","634"
"20:29:35:757 (H:m:s:ms)","GENERIC","93.43900000000001","0.052259112540366914","510"
"20:29:41:818 (H:m:s:ms)","GENERIC","62.099","0.04310647473854834","538"
"20:29:47:878 (H:m:s:ms)","GENERIC","62.254","0.07391084959803965","401"
"20:29:53:939 (H:m:s:ms)","GENERIC","93.237","0.058362282639843784","1423"
"22:10:0:0 (H:m:s:ms)","AMBULANCE","62.322","0.04464397105396452","1309"
"22:9:28:421 (H:m:s:ms)","AMBULANCE","62.297","0.078535224130661","788"
"21:20:6:60 (H:m:s:ms)","GENERIC","62.099","0.02635231383473663","1137"
"21:20:7:594 (H:m:s:ms)","OPERA","93.238","0.055455715318736824","818"
"21:20:12:121 (H:m:s:ms)","GENERIC","93.52199999999999","0.0861959858249321","1193"
"21:20:15:189 (H:m:s:ms)","OPERA","62.013","0.08020430571989615","1150"
"21:20:18:181 (H:m:s:ms)","GENERIC","93.304","0.08354077516340364","992"
"21:20:22:784 (H:m:s:ms)","OPERA","93.22800000000001","0.07993390971801835","592"
"21:20:24:242 (H:m:s:ms)","GENERIC","62.039","0.05229987099393813","1214"
"21:20:30:303 (H:m:s:ms)","GENERIC","93.607","0.05590150442312777","1079"
"21:20:30:379 (H:m:s:ms)","OPERA","62.013","0.07657826069713032","1373"
"21:20:36:363 (H:m:s:ms)","GENERIC","62.077","0.0435571867897601","1029"
"21:20:37:974 (H:m:s:ms)","OPERA","93.238","0.06111555124808353","1399"
"21:20:42:424 (H:m:s:ms)","GENERIC","62.099","0.06476878128388601","818"
"21:20:45:569 (H:m:s:ms)","OPERA","93.238","0.07252379363518467","839"
"21:20:48:484 (H:m:s:ms)","GENERIC","93.562","0.07755581106427212","793"
"21:20:53:164 (H:m:s:ms)","OPERA","93.256","0.07321617758032853","1268"
"21:20:54:545 (H:m:s:ms)","GENERIC","93.12100000000001","0.0620681760120423","632"
"21:21:0:606 (H:m:s:ms)","GENERIC","93.412","0.04151150803785897","738"
"21:21:0:759 (H:m:s:ms)","OPERA","93.23599999999999","0.06727701475542462","962"
"21:21:6:666 (H:m:s:ms)","GENERIC","93.515","0.056092346890130394","651"
"21:21:8:354 (H:m:s:ms)","OPERA","62.013","0.07671458464380775","1016"
"21:32:37:894 (H:m:s:ms)","AMBULANCE","62.285","0.07821542646080712","917"
"21:32:25:454 (H:m:s:ms)","GENERIC","62.061","0.02935950088952843","926"
"21:32:19:393 (H:m:s:ms)","GENERIC","93.12","0.07074101415990214","934"
"21:32:13:333 (H:m:s:ms)","GENERIC","93.561","0.051502209964346325","1029"
"21:32:7:272 (H:m:s:ms)","GENERIC","93.235","0.08304360101034779","1062"
"21:32:6:315 (H:m:s:ms)","AMBULANCE","31.018","0.057336000996963926","1078"
"21:32:1:212 (H:m:s:ms)","GENERIC","62.133","0.03710205519913955","1053"
"21:31:55:151 (H:m:s:ms)","GENERIC","62.117","0.03423662172821833","1151"
"21:21:12:727 (H:m:s:ms)","GENERIC","93.213","0.06401619533453644","701"
"21:31:49:90 (H:m:s:ms)","GENERIC","62.045","0.05077257794597683","1279"
"21:21:15:949 (H:m:s:ms)","OPERA","93.238","0.05196162781801562","1497"
"21:21:18:787 (H:m:s:ms)","GENERIC","93.37100000000001","0.06807883243745991","620"
"21:21:23:544 (H:m:s:ms)","OPERA","93.23400000000001","0.07799393413878421","826"
"21:21:24:848 (H:m:s:ms)","GENERIC","93.186","0.06419260170137002","462"
"21:21:30:909 (H:m:s:ms)","GENERIC","62.099","0.053285412450833194","1297"
"21:21:31:139 (H:m:s:ms)","OPERA","93.23599999999999","0.06933149569278588","1403"
"21:21:36:969 (H:m:s:ms)","GENERIC","93.342","0.05622644435068439","1395"
"21:32:37:575 (H:m:s:ms)","GENERIC","93.14699999999999","0.07146911943737574","764"
"21:21:38:734 (H:m:s:ms)","OPERA","62.013","0.07119625567056181","606"
"21:32:31:515 (H:m:s:ms)","GENERIC","93.413","0.05314655517679869","677"
"21:21:43:30 (H:m:s:ms)","GENERIC","62.117","0.06235208780209114","1288"
"21:33:38:181 (H:m:s:ms)","GENERIC","93.59700000000001","0.050320116731652015","1145"
"21:33:32:121 (H:m:s:ms)","GENERIC","93.143","0.031372213964195164","1213"
"21:33:20:0 (H:m:s:ms)","GENERIC","93.56700000000001","0.07040990221641559","1257"
"21:33:13:939 (H:m:s:ms)","GENERIC","93.599","0.062451372282716036","1288"
"21:33:9:473 (H:m:s:ms)","AMBULANCE","62.321","0.05815018878368496","838"
"21:33:7:878 (H:m:s:ms)","GENERIC","62.109","0.041883395900647644","1284"
"21:33:1:818 (H:m:s:ms)","GENERIC","93.34100000000001","0.07221651772772715","410"
"21:32:55:757 (H:m:s:ms)","GENERIC","93.393","0.0504823258526587","448"
"21:21:46:329 (H:m:s:ms)","OPERA","93.238","0.06031003021323375","1113"
"21:32:49:696 (H:m:s:ms)","GENERIC","93.194","0.04997514210300883","754"
"21:21:49:90 (H:m:s:ms)","GENERIC","62.043","0.05750878918854523","1304"
"21:32:43:636 (H:m:s:ms)","GENERIC","93.27199999999999","0.06014458937773417","643"
"21:21:53:924 (H:m:s:ms)","OPERA","93.254","0.06528922484042537","1482"
"21:21:55:151 (H:m:s:ms)","GENERIC","62.109","0.07239677014319736","1131"
"21:22:1:212 (H:m:s:ms)","GENERIC","62.113","0.03710205519913955","1050"
"21:22:1:518 (H:m:s:ms)","OPERA","93.256","0.04786914128103471","1192"
"21:22:7:272 (H:m:s:ms)","GENERIC","93.221","0.07063625526388032","1064"
"21:22:9:113 (H:m:s:ms)","OPERA","62.011","0.08742220039468288","1294"
"21:22:13:333 (H:m:s:ms)","GENERIC","62.091","0.06473060838095117","1114"
"21:22:16:708 (H:m:s:ms)","OPERA","93.23599999999999","0.07927110123474754","619"
"21:33:26:60 (H:m:s:ms)","GENERIC","93.3","0.06942790707826318","1344"
"21:34:38:787 (H:m:s:ms)","GENERIC","62.099","0.03172246153935255","559"
"21:34:32:727 (H:m:s:ms)","GENERIC","93.121","0.04493900502949766","479"
"21:34:26:666 (H:m:s:ms)","GENERIC","93.342","0.041099931658480485","696"
"21:34:20:606 (H:m:s:ms)","GENERIC","93.30199999999999","0.05166357982011782","598"
"21:34:14:545 (H:m:s:ms)","GENERIC","93.356","0.04508140314526799","830"
"21:34:8:484 (H:m:s:ms)","GENERIC","93.487","0.05872113885844527","763"
"21:34:2:424 (H:m:s:ms)","GENERIC","62.141","0.05040923910599374","986"
"21:33:56:363 (H:m:s:ms)","GENERIC","93.65299999999999","0.05182083524119488","865"
"21:22:19:393 (H:m:s:ms)","GENERIC","93.104","0.09069677295949495","854"
"21:33:50:303 (H:m:s:ms)","GENERIC","62.017","0.02909009723556699","1107"
"21:22:24:303 (H:m:s:ms)","OPERA","93.238","0.0837291823614517","1094"
"21:33:44:242 (H:m:s:ms)","GENERIC","93.261","0.06972360220920219","1117"
"21:1:49:90 (H:m:s:ms)","GENERIC","93.255","0.05073442862467051","1285"
"21:22:25:454 (H:m:s:ms)","GENERIC","93.205","0.0654511382330391","955"
"21:33:41:52 (H:m:s:ms)","AMBULANCE","31.026","0.06682485175617867","1258"
"21:1:55:151 (H:m:s:ms)","GENERIC","62.149","0.0508713143628116","1135"
"21:22:31:515 (H:m:s:ms)","GENERIC","93.345","0.09319466079336727","1113"
"21:2:1:212 (H:m:s:ms)","GENERIC","62.103","0.04810470351223454","1030"
"21:22:31:898 (H:m:s:ms)","OPERA","62.013","0.044876373392787376","520"
"21:2:6:315 (H:m:s:ms)","AMBULANCE","31.039","0.07022398460939219","1130"
"21:22:37:575 (H:m:s:ms)","GENERIC","93.13499999999999","0.06958654770528327","710"
"21:2:7:272 (H:m:s:ms)","GENERIC","93.179","0.07774552277899884","1061"
"21:22:39:493 (H:m:s:ms)","OPERA","93.23400000000001","0.0914831970749759","908"
"21:2:13:333 (H:m:s:ms)","GENERIC","93.524","0.06267376314360983","1070"
"21:22:43:636 (H:m:s:ms)","GENERIC","93.256","0.09656933172535341","643"
"21:2:19:393 (H:m:s:ms)","GENERIC","62.081","0.05357072414301609","908"
"21:22:47:88 (H:m:s:ms)","OPERA","93.23400000000001","0.09221252110778522","1285"
"21:2:25:454 (H:m:s:ms)","GENERIC","93.205","0.02716898266147632","955"
"21:22:49:696 (H:m:s:ms)","GENERIC","93.238","0.07014618511511718","746"
"21:2:31:515 (H:m:s:ms)","GENERIC","93.389","0.056956763351365895","706"
"21:2:37:575 (H:m:s:ms)","GENERIC","62.045","0.05044248650140541","644"
"21:35:33:333 (H:m:s:ms)","GENERIC","62.057","0.04250000000000011","922"
"21:35:27:272 (H:m:s:ms)","GENERIC","93.307","0.049153748105951627","1148"
"21:35:21:212 (H:m:s:ms)","GENERIC","62.057","0.02994771526532365","1197"
"21:35:15:789 (H:m:s:ms)","AMBULANCE","62.282","0.07638553339241862","924"
"21:35:15:151 (H:m:s:ms)","GENERIC","93.328","0.06331331721782915","1224"
"21:35:9:90 (H:m:s:ms)","GENERIC","62.321","0.059914311828868805","1157"
"21:35:3:30 (H:m:s:ms)","GENERIC","62.039","0.05062879411351252","1412"
"21:22:54:683 (H:m:s:ms)","OPERA","93.23599999999999","0.06365982606011969","751"
"21:34:56:969 (H:m:s:ms)","GENERIC","93.304","0.04037150574419711","1365"
"21:22:55:757 (H:m:s:ms)","GENERIC","93.389","0.07101193139443937","474"
"21:34:50:909 (H:m:s:ms)","GENERIC","93.167","0.03537348307126408","1467"
"21:2:37:894 (H:m:s:ms)","AMBULANCE","62.268","0.07643936302039198","723"
"21:23:1:818 (H:m:s:ms)","GENERIC","62.061","0.05040923910599374","597"
"21:34:44:848 (H:m:s:ms)","GENERIC","62.057","0.056845574045394996","1009"
"21:2:43:636 (H:m:s:ms)","GENERIC","62.041","0.030548325011355168","643"
"21:23:2:278 (H:m:s:ms)","OPERA","93.254","0.06082854105101598","1059"
"21:34:44:210 (H:m:s:ms)","AMBULANCE","62.259","0.025361269967000305","1265"
"21:2:49:696 (H:m:s:ms)","GENERIC","93.276","0.05746730794421395","763"
"21:23:7:878 (H:m:s:ms)","GENERIC","62.103","0.04178871516877425","1286"
"21:2:55:757 (H:m:s:ms)","GENERIC","93.399","0.05753454579035707","464"
"21:23:9:873 (H:m:s:ms)","OPERA","93.23599999999999","0.07578420124537942","526"
"21:3:1:818 (H:m:s:ms)","GENERIC","93.319","0.07349274055170398","379"
"21:23:13:939 (H:m:s:ms)","GENERIC","93.613","0.08188760956643204","1288"
"21:3:7:878 (H:m:s:ms)","GENERIC","93.124","0.04203524904532935","1281"
"21:23:17:468 (H:m:s:ms)","OPERA","62.011","0.0727243571017892","908"
"21:3:9:473 (H:m:s:ms)","AMBULANCE","31.071","0.06554503495265857","944"
"21:23:20:0 (H:m:s:ms)","GENERIC","93.559","0.0800817970818393","1262"
"21:3:13:939 (H:m:s:ms)","GENERIC","93.587","0.06403622902760761","1302"
"21:23:25:63 (H:m:s:ms)","OPERA","93.238","0.07838807494657193","1338"
"21:3:20:0 (H:m:s:ms)","GENERIC","93.58099999999999","0.05798186768839738","1299"
"21:3:26:60 (H:m:s:ms)","GENERIC","93.37299999999999","0.06369355584377384","1323"
"21:36:27:878 (H:m:s:ms)","GENERIC","93.438","0.05061475605935432","1488"
"21:36:21:818 (H:m:s:ms)","GENERIC","93.495","0.06659564789277107","535"
"21:36:18:947 (H:m:s:ms)","AMBULANCE","62.322","0.05493178591619707","1298"
"21:36:15:757 (H:m:s:ms)","GENERIC","62.119","0.0199380616787275","477"
"21:36:9:696 (H:m:s:ms)","GENERIC","93.425","0.050734278919777345","542"
"21:36:3:636 (H:m:s:ms)","GENERIC","93.324","0.053714235588188365","657"
"21:23:26:60 (H:m:s:ms)","GENERIC","62.023","0.06555279928540414","1303"
"21:35:57:575 (H:m:s:ms)","GENERIC","93.104","0.04525345446589036","713"
"21:23:32:121 (H:m:s:ms)","GENERIC","93.12100000000001","0.03153522235945936","1213"
"21:35:51:515 (H:m:s:ms)","GENERIC","93.328","0.08429834360492652","840"
"21:3:32:121 (H:m:s:ms)","GENERIC","62.043","0.03795099178911912","1174"
"21:23:32:658 (H:m:s:ms)","OPERA","93.22999999999999","0.06163888494780896","1006"
"21:35:47:368 (H:m:s:ms)","AMBULANCE","31.022","0.07346664448184528","1015"
"21:3:38:181 (H:m:s:ms)","GENERIC","93.576","0.06260917338417653","1133"
"21:23:38:181 (H:m:s:ms)","GENERIC","93.606","0.06248348588729051","1136"
"21:35:45:454 (H:m:s:ms)","GENERIC","93.488","0.0591530922708579","839"
"21:3:41:52 (H:m:s:ms)","AMBULANCE","62.263999999999996","0.0714500919217753","1399"
"21:23:40:253 (H:m:s:ms)","OPERA","31.009","0.0762034372336493","1195"
"21:35:39:393 (H:m:s:ms)","GENERIC","62.125","0.05046877520091693","910"
"21:3:44:242 (H:m:s:ms)","GENERIC","62.065","0.055995017425374174","1083"
"21:23:44:242 (H:m:s:ms)","GENERIC","93.267","0.07762418325941381","1099"
"21:3:50:303 (H:m:s:ms)","GENERIC","62.045","0.02874181893360687","1110"
"21:23:47:848 (H:m:s:ms)","OPERA","62.015","0.08279695105170354","557"
"21:3:56:363 (H:m:s:ms)","GENERIC","93.62899999999999","0.05979279701263193","833"
"21:23:50:303 (H:m:s:ms)","GENERIC","62.023","0.06000778521963589","1108"
"21:4:2:424 (H:m:s:ms)","GENERIC","93.594","0.06029073223101477","766"
"21:23:55:443 (H:m:s:ms)","OPERA","62.011","0.06000778521963589","932"
"21:4:8:484 (H:m:s:ms)","GENERIC","93.435","0.05593442856868348","799"
"21:23:56:363 (H:m:s:ms)","GENERIC","93.649","0.07303707272151136","866"
"21:4:12:631 (H:m:s:ms)","AMBULANCE","31.031","0.06634729549534578","792"
"21:4:14:545 (H:m:s:ms)","GENERIC","93.366","0.06890154868707588","749"
"21:37:28:484 (H:m:s:ms)","GENERIC","62.065","0.032644050144499843","921"
"21:37:22:424 (H:m:s:ms)","GENERIC","93.357","0.07407430786828036","1124"
"21:37:22:105 (H:m:s:ms)","AMBULANCE","31.028","0.04301688174429186","1259"
"21:37:16:363 (H:m:s:ms)","GENERIC","93.143","0.06425355959582747","965"
"21:37:10:303 (H:m:s:ms)","GENERIC","93.63","0.06425218094535931","877"
"21:37:4:242 (H:m:s:ms)","GENERIC","93.288","0.056279425777053575","1129"
"21:24:2:424 (H:m:s:ms)","GENERIC","93.584","0.06582742300824362","823"
"21:24:3:37 (H:m:s:ms)","OPERA","62.013","0.07396954745381511","1305"
"21:36:58:181 (H:m:s:ms)","GENERIC","93.409","0.06395644657210212","1018"
"21:4:20:606 (H:m:s:ms)","GENERIC","62.075","0.04237924020083422","625"
"21:24:8:484 (H:m:s:ms)","GENERIC","62.037","0.06050697439533741","803"
"21:36:52:121 (H:m:s:ms)","GENERIC","62.115","0.051867617091349516","1258"
"21:4:26:666 (H:m:s:ms)","GENERIC","93.30199999999999","0.03836597169545315","704"
"21:24:10:632 (H:m:s:ms)","OPERA","62.011","0.07163881032286346","744"
"21:36:46:60 (H:m:s:ms)","GENERIC","93.22399999999999","0.04893010855978638","1274"
"21:4:32:727 (H:m:s:ms)","GENERIC","93.192","0.06678835972436468","558"
"21:24:14:545 (H:m:s:ms)","GENERIC","93.35","0.09137086704221853","795"
"21:36:40:0 (H:m:s:ms)","GENERIC","93.175","0.033310376335594354","1370"
"21:4:38:787 (H:m:s:ms)","GENERIC","93.55199999999999","0.055993854520160355","554"
"21:24:18:227 (H:m:s:ms)","OPERA","93.22800000000001","0.09406330374007298","1172"
"21:36:33:939 (H:m:s:ms)","GENERIC","62.023","0.03790928906654502","1436"
"21:4:44:210 (H:m:s:ms)","AMBULANCE","62.254","0.03812502480945982","1241"
"21:24:20:606 (H:m:s:ms)","GENERIC","62.085","0.0759625216981765","614"
"21:4:44:848 (H:m:s:ms)","GENERIC","93.336","0.05767797685828099","986"
"21:24:25:822 (H:m:s:ms)","OPERA","62.011","0.07252007982406594","556"
"21:4:50:909 (H:m:s:ms)","GENERIC","93.15299999999999","0.06001604288837136","1450"
"21:24:26:666 (H:m:s:ms)","GENERIC","93.332","0.06856549061225208","696"
"21:4:56:969 (H:m:s:ms)","GENERIC","62.113","0.0514198405287299","1395"
"21:24:32:727 (H:m:s:ms)","GENERIC","93.162","0.06494564901421998","557"
"21:5:3:30 (H:m:s:ms)","GENERIC","93.37299999999999","0.02733158654425932","1395"
"21:5:9:90 (H:m:s:ms)","GENERIC","93.393","0.058531639849666105","1313"
"21:38:25:263 (H:m:s:ms)","AMBULANCE","62.323","0.08233489859489014","1039"
"21:38:23:30 (H:m:s:ms)","GENERIC","93.36099999999999","0.05335964019917572","1391"
"21:38:16:969 (H:m:s:ms)","GENERIC","62.057","0.04915614438310075","1263"
"21:38:10:909 (H:m:s:ms)","GENERIC","93.177","0.05194600330493707","1459"
"21:38:4:848 (H:m:s:ms)","GENERIC","93.153","0.07069922766801028","521"
"21:37:58:787 (H:m:s:ms)","GENERIC","93.525","0.07133262832942334","466"
"21:37:53:684 (H:m:s:ms)","AMBULANCE","62.321","0.07553184237493436","539"
"21:24:33:417 (H:m:s:ms)","OPERA","62.015","0.0833557169067669","992"
"21:24:38:787 (H:m:s:ms)","GENERIC","62.117","0.06848178683057654","553"
"21:5:15:151 (H:m:s:ms)","GENERIC","93.369","0.05648508306900137","1116"
"21:24:41:12 (H:m:s:ms)","OPERA","93.23400000000001","0.0686156116198109","1359"
"21:5:15:789 (H:m:s:ms)","AMBULANCE","31.045","0.07547893318843346","923"
"21:24:44:848 (H:m:s:ms)","GENERIC","93.35","0.066587387761475","556"
"21:37:52:727 (H:m:s:ms)","GENERIC","93.484","0.049317264371606516","635"
"20:45:39:393 (H:m:s:ms)","GENERIC","93.136","0.06330900491926862","885"
"21:5:21:212 (H:m:s:ms)","GENERIC","62.037","0.0502622968818275","1193"
"21:24:48:607 (H:m:s:ms)","OPERA","62.013","0.06475900119064325","837"
"21:37:46:666 (H:m:s:ms)","GENERIC","62.037","0.051041100608703704","735"
"20:45:41:772 (H:m:s:ms)","OPERA","31.007","0.06859028471788954","602"
"21:5:27:272 (H:m:s:ms)","GENERIC","93.34100000000001","0.07070466476268239","1169"
"21:24:50:909 (H:m:s:ms)","GENERIC","93.101","0.06320099469255133","1439"
"21:37:40:606 (H:m:s:ms)","GENERIC","62.031","0.05335936864527365","598"
"20:45:45:454 (H:m:s:ms)","GENERIC","93.56299999999999","0.07752975165292146","916"
"21:5:33:333 (H:m:s:ms)","GENERIC","62.057","0.05482928049865339","922"
"21:24:56:202 (H:m:s:ms)","OPERA","93.23599999999999","0.061604313390445885","1134"
"21:37:34:545 (H:m:s:ms)","GENERIC","93.526","0.053427749287714994","863"
"20:45:49:367 (H:m:s:ms)","OPERA","62.230000000000004","0.07873508848374107","1043"
"21:5:39:393 (H:m:s:ms)","GENERIC","62.153","0.03369184368125421","943"
"21:24:56:969 (H:m:s:ms)","GENERIC","62.089","0.0704878824425509","1729"
"20:45:51:515 (H:m:s:ms)","GENERIC","93.455","0.08238829757028215","851"
"21:5:45:454 (H:m:s:ms)","GENERIC","62.081","0.05022200624228745","897"
"21:25:3:30 (H:m:s:ms)","GENERIC","62.037","0.05081972676135896","1412"
"20:45:56:962 (H:m:s:ms)","OPERA","62.230999999999995","0.04665903785723285","1380"
"21:5:47:368 (H:m:s:ms)","AMBULANCE","31.028","0.06193309040001972","1046"
"21:25:3:797 (H:m:s:ms)","OPERA","62.230999999999995","0.06896707960241528","981"
"20:45:57:575 (H:m:s:ms)","GENERIC","93.107","0.0769991769024903","1095"
"21:5:51:515 (H:m:s:ms)","GENERIC","93.455","0.06750662678898699","861"
"20:46:3:636 (H:m:s:ms)","GENERIC","93.29599999999999","0.04507117257512115","651"
"21:5:57:575 (H:m:s:ms)","GENERIC","62.105","0.043924039990220445","715"
"20:46:4:556 (H:m:s:ms)","OPERA","31.009","0.06280818236871076","846"
"20:46:9:696 (H:m:s:ms)","GENERIC","124.666","0.08970974438766931","508"
"21:39:23:636 (H:m:s:ms)","GENERIC","93.381","0.04356690029414487","759"
"21:39:17:575 (H:m:s:ms)","GENERIC","62.073","0.04192950950537214","864"
"21:39:11:515 (H:m:s:ms)","GENERIC","93.28399999999999","0.03697969509370575","856"
"21:39:5:454 (H:m:s:ms)","GENERIC","93.132","0.05779386336813075","943"
"21:38:59:393 (H:m:s:ms)","GENERIC","124.652","0.0938377028748274","743"
"21:38:56:842 (H:m:s:ms)","AMBULANCE","62.323","0.07261359872035206","484"
"21:38:53:333 (H:m:s:ms)","GENERIC","62.093","0.05364779976618887","1043"
"21:38:47:272 (H:m:s:ms)","GENERIC","93.578","0.07299152165669909","994"
"21:25:9:90 (H:m:s:ms)","GENERIC","93.344","0.04671628814966513","1320"
"21:25:11:392 (H:m:s:ms)","OPERA","62.011","0.05798220467553792","1019"
"21:6:3:636 (H:m:s:ms)","GENERIC","93.312","0.04012495446148299","675"
"21:25:15:151 (H:m:s:ms)","GENERIC","93.337","0.06623442015499317","1110"
"21:6:9:696 (H:m:s:ms)","GENERIC","93.384","0.04948578119875332","519"
"21:25:18:987 (H:m:s:ms)","OPERA","93.256","0.07754816304952164","1453"
"20:46:12:151 (H:m:s:ms)","OPERA","62.232","0.09270427750482223","1293"
"21:6:15:757 (H:m:s:ms)","GENERIC","62.101","0.03153596535297492","475"
"21:25:21:212 (H:m:s:ms)","GENERIC","93.235","0.06266537212487445","1195"
"20:46:15:757 (H:m:s:ms)","GENERIC","62.063","0.06649590976400857","470"
"21:6:18:947 (H:m:s:ms)","AMBULANCE","62.271","0.05647485341790457","1536"
"21:25:26:582 (H:m:s:ms)","OPERA","93.23599999999999","0.06862858738334886","749"
"21:38:41:212 (H:m:s:ms)","GENERIC","93.173","0.054114882800292516","1198"
"20:46:21:818 (H:m:s:ms)","GENERIC","93.481","0.05404011082159497","526"
"21:6:21:818 (H:m:s:ms)","GENERIC","62.091","0.060184054875016504","558"
"21:25:27:272 (H:m:s:ms)","GENERIC","93.291","0.08355353180025638","1127"
"21:38:35:151 (H:m:s:ms)","GENERIC","93.346","0.062253630990832906","1218"
"20:46:27:341 (H:m:s:ms)","OPERA","62.230999999999995","0.06017557207146429","1064"
"21:6:27:878 (H:m:s:ms)","GENERIC","93.446","0.04325575556662408","1466"
"21:25:33:333 (H:m:s:ms)","GENERIC","62.047","0.053047737934807195","920"
"21:38:29:90 (H:m:s:ms)","GENERIC","93.40899999999999","0.07410257026758037","1302"
"20:46:27:878 (H:m:s:ms)","GENERIC","93.436","0.07848579526956491","1876"
"21:6:33:939 (H:m:s:ms)","GENERIC","93.319","0.06013698158398182","1408"
"21:25:34:177 (H:m:s:ms)","OPERA","62.011","0.0736899691677047","1198"
"20:46:33:939 (H:m:s:ms)","GENERIC","93.32","0.07071457547670681","1408"
"21:6:40:0 (H:m:s:ms)","GENERIC","93.153","0.0627345084718891","1294"
"21:25:39:393 (H:m:s:ms)","GENERIC","93.148","0.06856888482829399","881"
"20:46:34:936 (H:m:s:ms)","OPERA","31.008","0.08305362164250285","750"
"21:6:46:60 (H:m:s:ms)","GENERIC","93.262","0.05434844971706371","1277"
"20:46:40:0 (H:m:s:ms)","GENERIC","93.118","0.028164445738547313","1403"
"21:6:50:526 (H:m:s:ms)","AMBULANCE","31.021","0.07378350610061905","861"
"20:46:42:531 (H:m:s:ms)","OPERA","62.260000000000005","0.05104545327731247","913"
"20:46:46:60 (H:m:s:ms)","GENERIC","93.262","0.05070334376315862","1280"
"21:39:35:757 (H:m:s:ms)","GENERIC","93.449","0.052031700477875156","504"
"21:40:12:121 (H:m:s:ms)","GENERIC","124.977","0.07795442248996726","1211"
"21:40:6:60 (H:m:s:ms)","GENERIC","62.087","0.044536579846733065","1133"
"21:40:0:0 (H:m:s:ms)","GENERIC","62.153","0.07939876746405414","2297"
"21:40:0:0 (H:m:s:ms)","GENERIC","62.105","0.04736789262836573","2069"
"21:40:0:0 (H:m:s:ms)","AMBULANCE","31.015","0.030096642734321714","1835"
"21:39:53:939 (H:m:s:ms)","GENERIC","93.251","0.05413736706653449","1418"
"21:39:47:878 (H:m:s:ms)","GENERIC","93.381","0.07309461885323755","1343"
"21:39:41:818 (H:m:s:ms)","GENERIC","62.053","0.036474373038901484","545"
"21:6:52:121 (H:m:s:ms)","GENERIC","93.628","0.06591093439806167","1299"
"21:6:58:181 (H:m:s:ms)","GENERIC","93.427","0.07328173613198584","1004"
"20:46:50:126 (H:m:s:ms)","OPERA","31.008","0.052484755619126036","1249"
"21:7:4:242 (H:m:s:ms)","GENERIC","62.039","0.05246998354825105","1134"
"20:46:52:121 (H:m:s:ms)","GENERIC","93.616","0.0682813968864862","1269"
"21:7:10:303 (H:m:s:ms)","GENERIC","93.684","0.060385813020689","887"
"20:46:57:721 (H:m:s:ms)","OPERA","31.008","0.06358735247011782","620"
"21:7:16:363 (H:m:s:ms)","GENERIC","93.1","0.05448904262256087","944"
"20:46:58:181 (H:m:s:ms)","GENERIC","93.391","0.05368661112420965","1029"
"21:7:22:105 (H:m:s:ms)","AMBULANCE","62.266999999999996","0.04947397539929191","1330"
"21:39:29:696 (H:m:s:ms)","GENERIC","93.157","0.07882000942350675","638"
"20:47:4:242 (H:m:s:ms)","GENERIC","93.329","0.04713095447121231","1131"
"21:7:22:424 (H:m:s:ms)","GENERIC","93.34100000000001","0.06213325374325027","1223"
"21:39:28:421 (H:m:s:ms)","AMBULANCE","62.31","0.0730202561770954","930"
"20:47:5:316 (H:m:s:ms)","OPERA","31.007","0.06485469096547174","1060"
"21:7:28:484 (H:m:s:ms)","GENERIC","93.13","0.05125272102812897","790"
"20:47:10:303 (H:m:s:ms)","GENERIC","93.626","0.06662735538779503","878"
"21:7:34:545 (H:m:s:ms)","GENERIC","93.578","0.07072414897280416","833"
"20:47:12:911 (H:m:s:ms)","OPERA","31.008","0.07079129321128153","426"
"21:7:40:606 (H:m:s:ms)","GENERIC","62.053","0.05590169943749491","597"
"20:47:16:363 (H:m:s:ms)","GENERIC","93.102","0.07094500961436781","909"
"20:47:20:506 (H:m:s:ms)","OPERA","62.232","0.06234343283390417","909"
"21:7:46:666 (H:m:s:ms)","GENERIC","93.243","0.037992857613770095","740"
"21:7:52:727 (H:m:s:ms)","GENERIC","93.53399999999999","0.051558610278856394","646"
"20:47:22:424 (H:m:s:ms)","GENERIC","62.257999999999996","0.059133910265728326","910"
"21:7:53:684 (H:m:s:ms)","AMBULANCE","31.066","0.06636824373061964","737"
"20:47:28:101 (H:m:s:ms)","OPERA","62.25","0.034475276553231085","1275"
"21:7:58:787 (H:m:s:ms)","GENERIC","62.115","0.06542891067003999","461"
"20:47:28:484 (H:m:s:ms)","GENERIC","62.079","0.04446349121222603","1302"
"21:8:4:848 (H:m:s:ms)","GENERIC","93.131","0.039466687981619716","497"
"20:47:34:545 (H:m:s:ms)","GENERIC","93.606","0.051653946354279244","832"
"21:8:10:909 (H:m:s:ms)","GENERIC","124.298","0.06245536624919068","1418"
"20:47:35:696 (H:m:s:ms)","OPERA","62.251","0.058098699722842935","752"
"21:8:16:969 (H:m:s:ms)","GENERIC","62.033","0.061445180478875996","1250"
"20:47:40:606 (H:m:s:ms)","GENERIC","62.067","0.05421752777287225","618"
"21:8:23:30 (H:m:s:ms)","GENERIC","62.069","0.03831141868946172","1416"
"21:40:18:181 (H:m:s:ms)","GENERIC","93.312","0.07996077763533302","964"
"20:47:43:291 (H:m:s:ms)","OPERA","62.207","0.06492838745132751","1149"
"21:8:25:263 (H:m:s:ms)","AMBULANCE","31.059","0.05682216549112376","1125"
"20:47:46:666 (H:m:s:ms)","GENERIC","93.225","0.06325957596356765","733"
"21:8:29:90 (H:m:s:ms)","GENERIC","93.44","0.0630123164062633","1307"
"20:47:50:886 (H:m:s:ms)","OPERA","62.230000000000004","0.05822255208275331","533"
"20:47:52:727 (H:m:s:ms)","GENERIC","93.504","0.06579294436696714","637"
"21:8:35:151 (H:m:s:ms)","GENERIC","93.327","0.03925184585531857","1207"
"21:8:41:212 (H:m:s:ms)","GENERIC","93.12","0.06257586127488561","1154"
"20:47:58:481 (H:m:s:ms)","OPERA","31.008","0.05089894839626669","930"
"21:8:47:272 (H:m:s:ms)","GENERIC","93.54","0.06628917021830373","992"
"20:47:58:787 (H:m:s:ms)","GENERIC","62.113","0.07134492789478411","873"
"21:8:53:333 (H:m:s:ms)","GENERIC","93.40700000000001","0.07107055384484579","1031"
"20:30:0:0 (H:m:s:ms)","GENERIC","62.091","0.05099019513592812","1251"
"20:48:4:848 (H:m:s:ms)","GENERIC","62.025","0.050173310744968114","525"
"21:8:56:842 (H:m:s:ms)","AMBULANCE","31.009","0.08248383230912053","589"
"20:30:0:0 (H:m:s:ms)","GENERIC","93.602","0.0826684740992079","1473"
"20:48:6:75 (H:m:s:ms)","OPERA","31.009","0.07164817035076056","1369"
"21:8:59:393 (H:m:s:ms)","GENERIC","93.378","0.0826562222157127","838"
"20:30:6:60 (H:m:s:ms)","GENERIC","62.113","0.026823899883094512","1139"
"20:48:10:909 (H:m:s:ms)","GENERIC","93.182","0.08070454962776111","1417"
"21:9:5:454 (H:m:s:ms)","GENERIC","62.097","0.044130919070163255","912"
"20:30:12:121 (H:m:s:ms)","GENERIC","93.534","0.07080851961349488","1220"
"20:48:13:670 (H:m:s:ms)","OPERA","62.259","0.07744072270665672","767"
"21:9:11:515 (H:m:s:ms)","GENERIC","62.041","0.044876373392787376","858"
"20:30:18:181 (H:m:s:ms)","GENERIC","93.359","0.0782961205222396","1017"
"20:48:16:969 (H:m:s:ms)","GENERIC","62.059","0.08023091404939578","1259"
"21:9:17:575 (H:m:s:ms)","GENERIC","93.183","0.04494896795301488","844"
"20:30:24:242 (H:m:s:ms)","GENERIC","93.268","0.04667902334361017","1049"
"20:48:21:265 (H:m:s:ms)","OPERA","62.230999999999995","0.09308392881014699","1169"
"21:9:23:636 (H:m:s:ms)","GENERIC","62.043","0.050462734798124","806"
"20:30:30:303 (H:m:s:ms)","GENERIC","62.099","0.031891352554706646","1088"
"20:48:23:30 (H:m:s:ms)","GENERIC","93.339","0.075303114543246","1396"
"20:30:36:363 (H:m:s:ms)","GENERIC","93.476","0.05964394672209186","1020"
"20:48:28:860 (H:m:s:ms)","OPERA","31.009","0.06279605702632217","584"
"20:30:42:424 (H:m:s:ms)","GENERIC","62.063","0.05153882032022091","821"
"20:30:48:484 (H:m:s:ms)","GENERIC","93.568","0.05031199531113309","786"
"21:9:28:421 (H:m:s:ms)","AMBULANCE","31.041","0.06402002490049856","1027"
"21:9:29:696 (H:m:s:ms)","GENERIC","93.136","0.06335840432946364","599"
"20:48:29:90 (H:m:s:ms)","GENERIC","93.471","0.07405417813979313","1304"
"21:9:35:757 (H:m:s:ms)","GENERIC","62.109","0.050266826679700935","511"
"20:48:35:151 (H:m:s:ms)","GENERIC","93.371","0.06608507861164463","1174"
"21:9:41:818 (H:m:s:ms)","GENERIC","62.089","0.04310647473854834","538"
"20:30:54:545 (H:m:s:ms)","GENERIC","62.083","0.04426868263083918","617"
"20:48:36:455 (H:m:s:ms)","OPERA","62.211","0.0830632545512274","984"
"21:9:47:878 (H:m:s:ms)","GENERIC","93.248","0.046941802068200505","1418"
"20:31:0:606 (H:m:s:ms)","GENERIC","62.119","0.05045447216917433","754"
"20:48:41:212 (H:m:s:ms)","GENERIC","93.158","0.06884721008215625","1179"
"21:9:53:939 (H:m:s:ms)","GENERIC","93.252","0.039710478453676736","1396"
"20:31:6:666 (H:m:s:ms)","GENERIC","93.46799999999999","0.061902916656719674","643"
"20:48:44:50 (H:m:s:ms)","OPERA","62.230999999999995","0.06664188401939232","1287"
"21:10:0:0 (H:m:s:ms)","AMBULANCE","31.045","0.05055937104039184","1448"
"20:31:12:727 (H:m:s:ms)","GENERIC","93.169","0.023381929465415396","718"
"20:48:47:272 (H:m:s:ms)","GENERIC","93.496","0.08267111107895118","972"
"21:10:0:0 (H:m:s:ms)","GENERIC","62.097","0.06666537138094897","1671"
"20:31:18:787 (H:m:s:ms)","GENERIC","93.291","0.05672925300391664","574"
"20:48:51:645 (H:m:s:ms)","OPERA","31.008","0.08107366133147802","800"
"21:10:0:0 (H:m:s:ms)","GENERIC","62.135","0.08047978994811864","1977"
"20:31:24:848 (H:m:s:ms)","GENERIC","93.214","0.04563450833288516","439"
"20:48:53:333 (H:m:s:ms)","GENERIC","93.40100000000001","0.07002286213241365","1040"
"21:10:6:60 (H:m:s:ms)","GENERIC","62.103","0.02635231383473663","1138"
"20:31:30:909 (H:m:s:ms)","GENERIC","62.111","0.035489996154002855","1300"
"20:48:59:240 (H:m:s:ms)","OPERA","62.230999999999995","0.06658405503904015","1162"
"20:31:36:969 (H:m:s:ms)","GENERIC","93.346","0.04208126319424749","1332"
"20:48:59:393 (H:m:s:ms)","GENERIC","93.358","0.097126540625854","1223"
"20:31:43:30 (H:m:s:ms)","GENERIC","62.121","0.050132057014408184","1285"
"20:31:49:90 (H:m:s:ms)","GENERIC","93.293","0.04183578538067742","1261"
"20:49:5:454 (H:m:s:ms)","GENERIC","62.133","0.04483151667949004","908"
"20:49:6:835 (H:m:s:ms)","OPERA","62.25","0.06499865614342054","532"
"20:31:55:151 (H:m:s:ms)","GENERIC","93.64","0.05671284129914746","1117"
"20:49:11:515 (H:m:s:ms)","GENERIC","62.051","0.06033971595876053","832"
"20:32:1:212 (H:m:s:ms)","GENERIC","62.115","0.04810470351223454","1031"
"20:49:14:430 (H:m:s:ms)","OPERA","62.230999999999995","0.06614868247785917","877"
"20:32:7:272 (H:m:s:ms)","GENERIC","93.189","0.06266123140047344","1094"
"20:49:17:575 (H:m:s:ms)","GENERIC","93.17999999999999","0.0698658631709008","835"
"20:32:13:333 (H:m:s:ms)","GENERIC","124.999","0.07167463709434883","1033"
"20:49:22:25 (H:m:s:ms)","OPERA","31.008","0.05753187365700608","1313"
"20:32:19:393 (H:m:s:ms)","GENERIC","93.134","0.05285017484617745","798"
"20:49:23:636 (H:m:s:ms)","GENERIC","93.345","0.05796889697533298","764"
"20:32:25:454 (H:m:s:ms)","GENERIC","93.249","0.03279564434310315","952"
"20:49:29:620 (H:m:s:ms)","OPERA","62.232","0.04762502654496667","865"
"20:32:31:515 (H:m:s:ms)","GENERIC","93.524","0.07057810880740996","811"
"20:49:29:696 (H:m:s:ms)","GENERIC","93.127","0.07636944379584208","1112"
"20:32:37:575 (H:m:s:ms)","GENERIC","93.155","0.07883689552736423","700"
"20:49:35:757 (H:m:s:ms)","GENERIC","93.45100000000001","0.052259112540366914","510"
"20:32:43:636 (H:m:s:ms)","GENERIC","93.28399999999999","0.060010630830366014","652"
"20:32:49:696 (H:m:s:ms)","GENERIC","93.27","0.04482548113313191","770"
"20:49:37:215 (H:m:s:ms)","OPERA","62.25","0.06453676335408641","1156"
"20:49:41:818 (H:m:s:ms)","GENERIC","62.125","0.06302225830920354","533"
"20:32:55:757 (H:m:s:ms)","GENERIC","93.367","0.0544059411875532","470"
"20:49:44:810 (H:m:s:ms)","OPERA","62.224000000000004","0.06735858603054039","634"
"20:33:1:818 (H:m:s:ms)","GENERIC","93.339","0.054584542542089075","411"
"20:49:47:878 (H:m:s:ms)","GENERIC","93.258","0.07470511523850877","1407"
"20:33:7:878 (H:m:s:ms)","GENERIC","62.091","0.041883395900647644","1285"
"20:49:52:405 (H:m:s:ms)","OPERA","62.232","0.08000161499709953","1031"
"20:33:13:939 (H:m:s:ms)","GENERIC","62.107","0.050358713248056734","1309"
"20:49:53:939 (H:m:s:ms)","GENERIC","93.239","0.07592115786072161","1410"
"20:33:20:0 (H:m:s:ms)","GENERIC","93.595","0.0617625281258589","1289"
"20:50:0:0 (H:m:s:ms)","OPERA","62.230000000000004","0.06386021197598313","1408"
"20:33:26:60 (H:m:s:ms)","GENERIC","93.389","0.07674417464347731","1324"
"20:50:0:0 (H:m:s:ms)","GENERIC","62.091","0.08106912171043168","1630"
"20:33:32:121 (H:m:s:ms)","GENERIC","62.083","0.04387680037458404","1141"
"20:50:0:0 (H:m:s:ms)","GENERIC","62.117","0.09321404886715888","1922"
"20:33:38:181 (H:m:s:ms)","GENERIC","93.574","0.0707230918001806","1118"
"20:50:6:60 (H:m:s:ms)","GENERIC","62.117","0.03201230714337801","1139"
"20:33:44:242 (H:m:s:ms)","GENERIC","93.295","0.05446404442829525","1048"
"20:33:50:303 (H:m:s:ms)","GENERIC","93.224","0.03949004491264193","1086"
"20:50:12:121 (H:m:s:ms)","GENERIC","93.50800000000001","0.07101707881067434","1194"
"20:50:18:181 (H:m:s:ms)","GENERIC","93.327","0.07095829434594367","1015"
"20:33:56:363 (H:m:s:ms)","GENERIC","93.649","0.05979279701263193","834"
"20:50:24:242 (H:m:s:ms)","GENERIC","93.292","0.041739414705929755","1044"
"20:34:2:424 (H:m:s:ms)","GENERIC","93.546","0.05971340318899439","765"
"20:50:30:303 (H:m:s:ms)","GENERIC","62.101","0.02540986338067945","1105"
"20:10:0:0 (H:m:s:ms)","GENERIC","31.05","0.036421567954234034","1231"
"20:34:8:484 (H:m:s:ms)","GENERIC","93.479","0.05490328381481241","789"
"20:50:36:363 (H:m:s:ms)","GENERIC","93.461","0.06498951892086138","1028"
"20:10:0:0 (H:m:s:ms)","GENERIC","62.116","0.06888403855848152","1527"
"20:34:14:545 (H:m:s:ms)","GENERIC","93.352","0.05900843677754389","747"
"20:50:42:424 (H:m:s:ms)","GENERIC","62.075","0.03726779962499658","840"
"20:10:6:60 (H:m:s:ms)","GENERIC","62.087","0.05017331074496816","1132"
"20:34:20:606 (H:m:s:ms)","GENERIC","93.28","0.05207215958449637","613"
"20:50:48:484 (H:m:s:ms)","GENERIC","93.569","0.060186328957110194","814"
"20:10:12:121 (H:m:s:ms)","GENERIC","93.544","0.0714358121255448","1213"
"20:34:26:666 (H:m:s:ms)","GENERIC","93.29599999999999","0.04583389998803276","694"
"20:50:54:545 (H:m:s:ms)","GENERIC","62.061","0.044760963721362644","616"
"20:10:18:181 (H:m:s:ms)","GENERIC","93.328","0.06846133754881406","1013"
"20:34:32:727 (H:m:s:ms)","GENERIC","93.182","0.06499432405740162","523"
"20:51:0:606 (H:m:s:ms)","GENERIC","93.44800000000001","0.045687555468623665","751"
"20:10:24:242 (H:m:s:ms)","GENERIC","62.251","0.04677309522761877","1044"
"20:34:38:787 (H:m:s:ms)","GENERIC","93.524","0.03171481643043927","586"
"20:51:6:666 (H:m:s:ms)","GENERIC","93.495","0.07060723698288236","667"
"20:10:30:303 (H:m:s:ms)","GENERIC","93.531","0.021780691663033903","1102"
"20:34:44:848 (H:m:s:ms)","GENERIC","62.047","0.04259067717695243","541"
"20:10:36:363 (H:m:s:ms)","GENERIC","93.529","0.03819726484415148","1036"
"20:34:50:909 (H:m:s:ms)","GENERIC","62.133","0.042274478344201394","1455"
"20:10:42:424 (H:m:s:ms)","GENERIC","62.077","0.0384147685720537","840"
"20:10:48:484 (H:m:s:ms)","GENERIC","93.572","0.04586587973213863","794"
"20:51:12:727 (H:m:s:ms)","GENERIC","93.167","0.035361400152210024","693"
"20:51:18:787 (H:m:s:ms)","GENERIC","93.322","0.05313570605165133","620"
"20:34:56:969 (H:m:s:ms)","GENERIC","93.33","0.05861839447154182","1285"
"20:51:24:848 (H:m:s:ms)","GENERIC","62.063","0.05030769521187473","489"
"20:35:3:30 (H:m:s:ms)","GENERIC","93.387","0.04366661646132188","1365"
"20:51:30:909 (H:m:s:ms)","GENERIC","62.155","0.04145749028198069","1291"
"20:10:54:545 (H:m:s:ms)","GENERIC","62.105","0.04408265994239426","616"
"20:35:9:90 (H:m:s:ms)","GENERIC","93.409","0.054197472969216995","1330"
"20:51:36:969 (H:m:s:ms)","GENERIC","93.37","0.05050322422432359","1369"
"20:11:0:606 (H:m:s:ms)","GENERIC","93.411","0.0559678468383626","740"
"20:35:15:151 (H:m:s:ms)","GENERIC","93.351","0.04500352830637086","1084"
"20:51:43:30 (H:m:s:ms)","GENERIC","62.127","0.031891352554706646","1338"
"20:11:6:666 (H:m:s:ms)","GENERIC","93.464","0.06570776130523376","632"
"20:35:21:212 (H:m:s:ms)","GENERIC","93.25399999999999","0.05733977198710018","1185"
"20:51:49:90 (H:m:s:ms)","GENERIC","93.263","0.04667899968050054","1269"
"20:11:12:727 (H:m:s:ms)","GENERIC","93.193","0.04759374301540516","667"
"20:35:27:272 (H:m:s:ms)","GENERIC","93.371","0.04480753684171548","1006"
"20:51:55:151 (H:m:s:ms)","GENERIC","62.153","0.04350127712046061","1136"
"20:11:18:787 (H:m:s:ms)","GENERIC","93.335","0.0659818721086104","593"
"20:35:33:333 (H:m:s:ms)","GENERIC","62.099","0.050759851260617404","933"
"20:52:1:212 (H:m:s:ms)","GENERIC","62.099","0.04692081094780858","1043"
"20:11:24:848 (H:m:s:ms)","GENERIC","93.214","0.05363161168049799","439"
"20:35:39:393 (H:m:s:ms)","GENERIC","62.131","0.050239717550270686","910"
"20:52:7:272 (H:m:s:ms)","GENERIC","93.217","0.0537362330036995","1064"
"20:11:30:909 (H:m:s:ms)","GENERIC","62.071","0.03904891398369495","1304"
"20:35:45:454 (H:m:s:ms)","GENERIC","93.558","0.07179303963070563","870"
"20:11:36:969 (H:m:s:ms)","GENERIC","93.354","0.03017755199113562","1407"
"20:35:51:515 (H:m:s:ms)","GENERIC","93.451","0.05498662265985524","849"
"20:11:43:30 (H:m:s:ms)","GENERIC","62.133","0.03767589601450601","1321"
"20:11:49:90 (H:m:s:ms)","GENERIC","93.285","0.03344750177489462","1310"
"20:0:54:545 (H:m:s:ms)","GENERIC","31.062","0.04449498755020338","616"
"20:1:0:606 (H:m:s:ms)","GENERIC","62.344","0.04561353546099916","745"
"20:1:6:666 (H:m:s:ms)","GENERIC","62.453","0.0601700452534777","645"
"20:1:12:727 (H:m:s:ms)","GENERIC","62.158","0.052918429487322054","698"
"20:1:18:787 (H:m:s:ms)","GENERIC","62.329","0.041417612988683836","596"
"20:1:24:848 (H:m:s:ms)","GENERIC","62.184","0.040798753309331644","468"
"20:1:30:909 (H:m:s:ms)","GENERIC","31.03","0.04483151667948985","1299"
"20:1:36:969 (H:m:s:ms)","GENERIC","62.296","0.062473224003243594","1286"
"20:1:43:30 (H:m:s:ms)","GENERIC","62.506","0.041934662674101716","1309"
"20:1:49:90 (H:m:s:ms)","GENERIC","31.028","0.050239717550270575","1275"
"20:35:57:575 (H:m:s:ms)","GENERIC","62.077","0.04400039950102709","754"
"20:36:3:636 (H:m:s:ms)","GENERIC","93.28999999999999","0.04888947696111916","650"
"20:11:55:151 (H:m:s:ms)","GENERIC","62.107","0.05038911092686595","1135"
"20:36:9:696 (H:m:s:ms)","GENERIC","93.365","0.07554741597368841","515"
"20:12:1:212 (H:m:s:ms)","GENERIC","62.089","0.059279528506896835","1038"
"20:36:15:757 (H:m:s:ms)","GENERIC","62.043","0.04404449045534982","470"
"20:12:7:272 (H:m:s:ms)","GENERIC","62.017","0.038224595282348284","1105"
"20:36:21:818 (H:m:s:ms)","GENERIC","62.079","0.050249378105604495","554"
"20:12:13:333 (H:m:s:ms)","GENERIC","93.577","0.05604357993346596","1034"
"20:36:27:878 (H:m:s:ms)","GENERIC","93.417","0.054180503241781156","1483"
"20:12:19:393 (H:m:s:ms)","GENERIC","93.126","0.06571844784418399","854"
"20:36:33:939 (H:m:s:ms)","GENERIC","93.279","0.06361487632205771","1357"
"20:12:25:454 (H:m:s:ms)","GENERIC","62.099","0.031953199283396364","953"
"20:36:40:0 (H:m:s:ms)","GENERIC","62.049","0.03790928906654508","1368"
"20:12:31:515 (H:m:s:ms)","GENERIC","62.089","0.05015235576782515","862"
"20:36:46:60 (H:m:s:ms)","GENERIC","93.25200000000001","0.03995333504432216","1281"
"20:12:37:575 (H:m:s:ms)","GENERIC","93.15100000000001","0.05872050806651619","698"
"20:36:52:121 (H:m:s:ms)","GENERIC","93.618","0.056074400488863814","1272"
"20:12:43:636 (H:m:s:ms)","GENERIC","62.119","0.05065314814592261","664"
"20:12:49:696 (H:m:s:ms)","GENERIC","62.055","0.05385164807134521","779"
"20:1:55:151 (H:m:s:ms)","GENERIC","62.563","0.0505114082450165","1116"
"20:2:1:212 (H:m:s:ms)","GENERIC","31.036","0.03535533905932751","1052"
"20:2:7:272 (H:m:s:ms)","GENERIC","62.153999999999996","0.04827040107864049","1063"
"20:2:13:333 (H:m:s:ms)","GENERIC","62.478","0.06012486338264781","1093"
"20:2:19:393 (H:m:s:ms)","GENERIC","62.111000000000004","0.04961177559743584","905"
"20:2:25:454 (H:m:s:ms)","GENERIC","62.23","0.04123926176861687","946"
"20:2:31:515 (H:m:s:ms)","GENERIC","62.48","0.05339718694483956","859"
"20:2:37:575 (H:m:s:ms)","GENERIC","62.137","0.0800618087235134","644"
"20:2:43:636 (H:m:s:ms)","GENERIC","31.057","0.05030769521187455","661"
"20:2:49:696 (H:m:s:ms)","GENERIC","62.205","0.056851448847562","729"
"20:36:58:181 (H:m:s:ms)","GENERIC","93.389","0.06047952825660371","1027"
"20:37:4:242 (H:m:s:ms)","GENERIC","93.309","0.052060174122059565","1134"
"20:12:55:757 (H:m:s:ms)","GENERIC","62.079","0.04237077658887352","616"
"20:37:10:303 (H:m:s:ms)","GENERIC","93.626","0.05802647152150138","881"
"20:13:1:818 (H:m:s:ms)","GENERIC","93.34299999999999","0.056625193766479696","600"
"20:37:16:363 (H:m:s:ms)","GENERIC","93.086","0.05207462592480749","969"
"20:13:7:878 (H:m:s:ms)","GENERIC","93.158","0.0508571198323766","1279"
"20:37:22:424 (H:m:s:ms)","GENERIC","62.075","0.024001193800653672","972"
"20:13:13:939 (H:m:s:ms)","GENERIC","93.53099999999999","0.046637525809293735","1288"
"20:37:28:484 (H:m:s:ms)","GENERIC","62.091","0.03904891398369489","886"
"20:13:20:0 (H:m:s:ms)","GENERIC","93.58699999999999","0.05571663995225542","1297"
"20:37:34:545 (H:m:s:ms)","GENERIC","62.133","0.05118231048174752","859"
"20:13:26:60 (H:m:s:ms)","GENERIC","93.376","0.06254548792419448","1298"
"20:37:40:606 (H:m:s:ms)","GENERIC","62.079","0.06009252125773332","593"
"20:13:32:121 (H:m:s:ms)","GENERIC","93.179","0.04938424976647011","1098"
"20:37:46:666 (H:m:s:ms)","GENERIC","93.243","0.03389983693536334","746"
"20:13:38:181 (H:m:s:ms)","GENERIC","93.586","0.0626488253912808","1131"
"20:37:52:727 (H:m:s:ms)","GENERIC","93.533","0.07108736376313307","673"
"20:13:44:242 (H:m:s:ms)","GENERIC","93.283","0.03952124431282306","1105"
"20:13:50:303 (H:m:s:ms)","GENERIC","62.063","0.0501523557678253","1084"
"20:2:55:757 (H:m:s:ms)","GENERIC","62.45","0.054472902101478156","586"
"20:3:1:818 (H:m:s:ms)","GENERIC","31.047","0.037966314504548994","527"
"20:3:7:878 (H:m:s:ms)","GENERIC","31.071","0.050551507959645886","282"
"20:3:13:939 (H:m:s:ms)","GENERIC","31.058","0.050358713248056734","1305"
"20:3:20:0 (H:m:s:ms)","GENERIC","62.519999999999996","0.05309123020142395","1282"
"20:3:26:60 (H:m:s:ms)","GENERIC","62.349999999999994","0.05933229818606566","1344"
"20:3:32:121 (H:m:s:ms)","GENERIC","62.137","0.055991570709050524","1174"
"20:3:38:181 (H:m:s:ms)","GENERIC","62.522999999999996","0.05293302732087924","1136"
"20:3:44:242 (H:m:s:ms)","GENERIC","62.25","0.07073932206536487","1076"
"20:3:50:303 (H:m:s:ms)","GENERIC","62.147","0.037276798173661474","1087"
"20:37:58:787 (H:m:s:ms)","GENERIC","62.103","0.040607881008493926","467"
"20:38:4:848 (H:m:s:ms)","GENERIC","93.137","0.05664634082208295","501"
"20:13:56:363 (H:m:s:ms)","GENERIC","93.65700000000001","0.05516302705622542","852"
"20:38:10:909 (H:m:s:ms)","GENERIC","93.211","0.05026248804352989","1429"
"20:14:2:424 (H:m:s:ms)","GENERIC","93.534","0.06580900559339058","835"
"20:38:16:969 (H:m:s:ms)","GENERIC","62.077","0.06403124237432867","1263"
"20:14:8:484 (H:m:s:ms)","GENERIC","93.511","0.06247902761943386","782"
"20:38:23:30 (H:m:s:ms)","GENERIC","93.34299999999999","0.0583293588029711","1395"
"20:14:14:545 (H:m:s:ms)","GENERIC","93.312","0.06257807858842464","790"
"20:38:29:90 (H:m:s:ms)","GENERIC","93.434","0.050020360487588164","1326"
"20:14:20:606 (H:m:s:ms)","GENERIC","93.288","0.04745011053468118","597"
"20:38:35:151 (H:m:s:ms)","GENERIC","93.376","0.07098380427689895","1205"
"20:14:26:666 (H:m:s:ms)","GENERIC","93.32","0.05170915345116352","705"
"20:38:41:212 (H:m:s:ms)","GENERIC","93.166","0.05375175292221658","1185"
"20:14:32:727 (H:m:s:ms)","GENERIC","93.167","0.04481029883440963","481"
"20:38:47:272 (H:m:s:ms)","GENERIC","93.474","0.05919547188141193","992"
"20:14:38:787 (H:m:s:ms)","GENERIC","93.564","0.03552632936765041","554"
"20:38:53:333 (H:m:s:ms)","GENERIC","93.408","0.04534333517301779","1032"
"20:14:44:848 (H:m:s:ms)","GENERIC","62.029","0.050344831672422735","533"
"20:14:50:909 (H:m:s:ms)","GENERIC","62.171","0.0424918292799396","1450"
"20:3:56:363 (H:m:s:ms)","GENERIC","62.59","0.05352436011837416","867"
"20:4:2:424 (H:m:s:ms)","GENERIC","62.489000000000004","0.0450814031452681","826"
"20:4:8:484 (H:m:s:ms)","GENERIC","31.059","0.050249378105604495","794"
"20:4:14:545 (H:m:s:ms)","GENERIC","62.288","0.05845540346062957","824"
"20:4:20:606 (H:m:s:ms)","GENERIC","31.047","0.041231056256176665","622"
"20:4:26:666 (H:m:s:ms)","GENERIC","62.301","0.03009057427541835","701"
"20:4:32:727 (H:m:s:ms)","GENERIC","62.155","0.06021980484456726","559"
"20:4:38:787 (H:m:s:ms)","GENERIC","31.061","0.03172246153935255","580"
"20:4:44:848 (H:m:s:ms)","GENERIC","62.307","0.04834792054497096","528"
"20:4:50:909 (H:m:s:ms)","GENERIC","62.171","0.055856977160940895","1460"
"20:38:59:393 (H:m:s:ms)","GENERIC","93.36099999999999","0.07665643452022813","818"
"20:39:5:454 (H:m:s:ms)","GENERIC","93.2","0.05221309328400001","816"
"20:14:56:969 (H:m:s:ms)","GENERIC","93.328","0.04368550167189007","1389"
"20:39:11:515 (H:m:s:ms)","GENERIC","93.28","0.04457245365836122","852"
"20:15:3:30 (H:m:s:ms)","GENERIC","93.337","0.04249895827237502","1406"
"20:39:17:575 (H:m:s:ms)","GENERIC","93.147","0.06508413887925693","812"
"20:15:9:90 (H:m:s:ms)","GENERIC","93.389","0.04162247576998494","1332"
"20:39:23:636 (H:m:s:ms)","GENERIC","62.039","0.04057693437540333","808"
"20:15:15:151 (H:m:s:ms)","GENERIC","93.347","0.05812290887005822","1101"
"20:39:29:696 (H:m:s:ms)","GENERIC","93.105","0.05036035197043647","667"
"20:15:21:212 (H:m:s:ms)","GENERIC","62.025","0.029588817621618118","1197"
"20:39:35:757 (H:m:s:ms)","GENERIC","93.441","0.05646550713704149","503"
"20:15:27:272 (H:m:s:ms)","GENERIC","93.387","0.04336732363131918","1018"
"20:39:41:818 (H:m:s:ms)","GENERIC","62.111","0.036474373038901484","537"
"20:15:33:333 (H:m:s:ms)","GENERIC","62.099","0.0450693909433","920"
"20:39:47:878 (H:m:s:ms)","GENERIC","93.241","0.06641102011242862","1384"
"20:15:39:393 (H:m:s:ms)","GENERIC","93.17","0.04351300834707324","915"
"20:39:53:939 (H:m:s:ms)","GENERIC","93.239","0.06407305086072314","1387"
"20:15:45:454 (H:m:s:ms)","GENERIC","93.576","0.07118627473159285","867"
"20:15:51:515 (H:m:s:ms)","GENERIC","93.441","0.06338370381871336","850"
"20:4:56:969 (H:m:s:ms)","GENERIC","31.049","0.041231056256176665","1398"
"20:5:3:30 (H:m:s:ms)","GENERIC","62.332","0.04373971677922171","1359"
"20:5:9:90 (H:m:s:ms)","GENERIC","62.357","0.05015400831875888","1319"
"20:5:15:151 (H:m:s:ms)","GENERIC","62.334","0.053123568759618614","1117"
"20:5:21:212 (H:m:s:ms)","GENERIC","31.011","0.04316286808953405","1197"
"20:5:27:272 (H:m:s:ms)","GENERIC","31.031","0.05048762224545745","1030"
"20:5:33:333 (H:m:s:ms)","GENERIC","31.05","0.027414640249326695","936"
"20:5:39:393 (H:m:s:ms)","GENERIC","62.09","0.03843399140091224","898"
"20:5:45:454 (H:m:s:ms)","GENERIC","62.497","0.05692241053088662","869"
"20:5:51:515 (H:m:s:ms)","GENERIC","62.388999999999996","0.07279827735283229","835"
"20:15:57:575 (H:m:s:ms)","GENERIC","93.087","0.05735266599717041","791"
"20:16:3:636 (H:m:s:ms)","GENERIC","62.071","0.05046877520091679","701"
"20:16:9:696 (H:m:s:ms)","GENERIC","93.37","0.05722759057733335","511"
"20:16:15:757 (H:m:s:ms)","GENERIC","62.035","0.04395471659269371","468"
"20:16:21:818 (H:m:s:ms)","GENERIC","93.491","0.046710027115875526","503"
"20:16:27:878 (H:m:s:ms)","GENERIC","93.468","0.043448049051602676","1465"
"20:16:33:939 (H:m:s:ms)","GENERIC","93.283","0.04587678674533005","1409"
"20:16:40:0 (H:m:s:ms)","GENERIC","62.059","0.04410132308140936","1328"
"20:16:46:60 (H:m:s:ms)","GENERIC","93.232","0.039606305653826876","1277"
"20:16:52:121 (H:m:s:ms)","GENERIC","93.619","0.04264021286369381","1298"
"20:5:57:575 (H:m:s:ms)","GENERIC","31.035","0.05029818313381236","708"
"20:6:3:636 (H:m:s:ms)","GENERIC","62.313","0.04268134934112482","695"
"20:6:9:696 (H:m:s:ms)","GENERIC","62.349999999999994","0.0607319647733063","530"
"20:6:15:757 (H:m:s:ms)","GENERIC","31.029","0.03180807345719499","484"
"20:6:21:818 (H:m:s:ms)","GENERIC","62.45","0.04796288318103287","500"
"20:6:27:878 (H:m:s:ms)","GENERIC","62.424","0.056925699954310335","409"
"20:6:33:939 (H:m:s:ms)","GENERIC","62.266","0.05427670322006251","1381"
"20:6:40:0 (H:m:s:ms)","GENERIC","31.034","0.05044248650140542","1295"
"20:6:46:60 (H:m:s:ms)","GENERIC","31.025","0.029083730720387703","1278"
"20:6:52:121 (H:m:s:ms)","GENERIC","31.079","0.05015722320420624","1298"
"20:16:58:181 (H:m:s:ms)","GENERIC","62.033","0.050588255530638254","1263"
"20:17:4:242 (H:m:s:ms)","GENERIC","93.275","0.045261737031088184","1133"
"20:17:10:303 (H:m:s:ms)","GENERIC","93.636","0.0626973231014657","886"
"20:17:16:363 (H:m:s:ms)","GENERIC","93.07","0.05756276661488272","938"
"20:17:22:424 (H:m:s:ms)","GENERIC","93.421","0.03170664850661218","1030"
"20:17:28:484 (H:m:s:ms)","GENERIC","62.107","0.05170232290628577","839"
"20:17:34:545 (H:m:s:ms)","GENERIC","125.081","0.04692734682623762","834"
"20:17:40:606 (H:m:s:ms)","GENERIC","62.093","0.05788518328937428","592"
"20:17:46:666 (H:m:s:ms)","GENERIC","62.027","0.04333389067603786","744"
"20:17:52:727 (H:m:s:ms)","GENERIC","93.504","0.03958794047716772","641"
"20:6:58:181 (H:m:s:ms)","GENERIC","62.158","0.0463260386964444","1187"
"20:7:4:242 (H:m:s:ms)","GENERIC","62.259","0.05609803500884416","1131"
"20:7:10:303 (H:m:s:ms)","GENERIC","62.577","0.05026008014376885","897"
"20:7:16:363 (H:m:s:ms)","GENERIC","62.061","0.05252569818208288","864"
"20:7:22:424 (H:m:s:ms)","GENERIC","62.385999999999996","0.0450797695454268","969"
"20:7:28:484 (H:m:s:ms)","GENERIC","31.055","0.04567321067214296","876"
"20:7:34:545 (H:m:s:ms)","GENERIC","31.067","0.04239276196900964","862"
"20:7:40:606 (H:m:s:ms)","GENERIC","62.308","0.05969048213220252","571"
"20:7:46:666 (H:m:s:ms)","GENERIC","62.208","0.03470709870664798","741"
"20:7:52:727 (H:m:s:ms)","GENERIC","62.456","0.04438422976300698","664"
"20:17:58:787 (H:m:s:ms)","GENERIC","93.475","0.044994847055576166","456"
"20:18:4:848 (H:m:s:ms)","GENERIC","93.133","0.04232552652238863","499"
"20:18:10:909 (H:m:s:ms)","GENERIC","93.209","0.06008966593400022","1462"
"20:18:16:969 (H:m:s:ms)","GENERIC","93.279","0.050313823212385124","1220"
"20:18:23:30 (H:m:s:ms)","GENERIC","93.34100000000001","0.05835183617539533","1391"
"20:18:29:90 (H:m:s:ms)","GENERIC","93.42500000000001","0.01677756629441597","1354"
"20:18:35:151 (H:m:s:ms)","GENERIC","93.363","0.05784759158495641","1192"
"20:18:41:212 (H:m:s:ms)","GENERIC","93.154","0.04219427264846238","1172"
"20:18:47:272 (H:m:s:ms)","GENERIC","93.523","0.06627420679276075","951"
"20:18:53:333 (H:m:s:ms)","GENERIC","93.424","0.02867898394024393","1042"
"20:7:58:787 (H:m:s:ms)","GENERIC","62.432","0.04557487504167415","448"
"20:8:4:848 (H:m:s:ms)","GENERIC","62.091","0.05595686989585381","521"
"20:8:10:909 (H:m:s:ms)","GENERIC","62.147000000000006","0.055937792498594326","1452"
"20:8:16:969 (H:m:s:ms)","GENERIC","31.056","0.06585388898066376","1256"
"20:8:23:30 (H:m:s:ms)","GENERIC","62.323","0.05655235070023614","1396"
"20:8:29:90 (H:m:s:ms)","GENERIC","62.381","0.04441030421933043","1298"
"20:8:35:151 (H:m:s:ms)","GENERIC","62.306","0.07171812877314461","1203"
"20:8:41:212 (H:m:s:ms)","GENERIC","62.12","0.07089833637675598","1180"
"20:8:47:272 (H:m:s:ms)","GENERIC","62.477000000000004","0.052320741578159316","969"
"20:8:53:333 (H:m:s:ms)","GENERIC","62.372","0.06268733150792163","1024"
"20:18:59:393 (H:m:s:ms)","GENERIC","93.35","0.07060886550349692","819"
"20:19:5:454 (H:m:s:ms)","GENERIC","62.085","0.033995024792867","946"
"20:19:11:515 (H:m:s:ms)","GENERIC","93.258","0.04457245365836122","851"
"20:19:17:575 (H:m:s:ms)","GENERIC","93.153","0.06036672316501627","821"
"20:19:23:636 (H:m:s:ms)","GENERIC","62.043","0.030765038652759428","811"
"20:19:29:696 (H:m:s:ms)","GENERIC","93.097","0.07062512855317832","599"
"20:19:35:757 (H:m:s:ms)","GENERIC","93.441","0.06268945724200604","489"
"20:19:41:818 (H:m:s:ms)","GENERIC","93.422","0.035015379477254756","542"
"20:19:47:878 (H:m:s:ms)","GENERIC","31.037","0.03694579241736174","431"
"20:19:53:939 (H:m:s:ms)","GENERIC","93.229","0.04749059350920562","1403"
"20:8:59:393 (H:m:s:ms)","GENERIC","62.352000000000004","0.07064096846671644","820"
"20:9:5:454 (H:m:s:ms)","GENERIC","62.111000000000004","0.05024848697674502","814"
"20:9:11:515 (H:m:s:ms)","GENERIC","62.26","0.03871642396605741","849"
"20:9:17:575 (H:m:s:ms)","GENERIC","62.195","0.06505014869979019","835"
"20:9:23:636 (H:m:s:ms)","GENERIC","31.034","0.0510486910520877","761"
"20:9:29:696 (H:m:s:ms)","GENERIC","62.095","0.07067239794900752","599"
"20:9:35:757 (H:m:s:ms)","GENERIC","62.400999999999996","0.05129361758757596","501"
"20:9:41:818 (H:m:s:ms)","GENERIC","31.043","0.029106540985543227","552"
"20:9:47:878 (H:m:s:ms)","GENERIC","62.315","0.0629908179940854","500"
"20:9:53:939 (H:m:s:ms)","GENERIC","62.214","0.048510151562457034","1371"
"21:41:0:606 (H:m:s:ms)","GENERIC","93.42","0.036889830408967074","750"
"21:40:54:545 (H:m:s:ms)","GENERIC","93.12299999999999","0.055896409867670735","631"
"21:40:48:484 (H:m:s:ms)","GENERIC","93.54299999999999","0.07066591557897328","796"
"21:40:42:424 (H:m:s:ms)","GENERIC","62.079","0.05590169943749491","813"
"21:40:36:363 (H:m:s:ms)","GENERIC","93.489","0.058130385675330354","1028"
"21:40:30:303 (H:m:s:ms)","GENERIC","93.583","0.030961656144840904","1100"
"21:40:24:242 (H:m:s:ms)","GENERIC","93.256","0.04074100747198564","1100"
"21:41:18:787 (H:m:s:ms)","GENERIC","93.388","0.0671022447905616","593"
"21:41:12:727 (H:m:s:ms)","GENERIC","62.075","0.0360205893945619","705"
"21:41:6:666 (H:m:s:ms)","GENERIC","93.501","0.05999543375099187","669"
