"time (H:m:s:ms)","type","latency","utilisation","waiting"
"21:42:25:454 (H:m:s:ms)","GENERIC","62.133","0.031306480830660344","551"
"21:42:7:272 (H:m:s:ms)","GENERIC","62.139","0.04718630608277992","732"
"21:42:1:212 (H:m:s:ms)","GENERIC","62.095","0.03033891581085409","795"
"21:41:55:151 (H:m:s:ms)","GENERIC","62.023","0.035383612025908256","857"
"21:41:49:90 (H:m:s:ms)","GENERIC","62.077","0.01799549578313211","954"
"21:41:43:30 (H:m:s:ms)","GENERIC","62.051","0.0707774808526074","977"
"21:41:36:969 (H:m:s:ms)","GENERIC","62.091","0.03553768872247755","1037"
"21:41:30:909 (H:m:s:ms)","GENERIC","62.077","0.014016711285685823","1099"
"21:41:24:848 (H:m:s:ms)","GENERIC","62.071","0.03104382097715545","158"
"21:42:19:393 (H:m:s:ms)","GENERIC","62.107","0.04123105625617661","643"
"21:42:13:333 (H:m:s:ms)","GENERIC","62.063","0.04123105625617661","668"
"21:43:32:121 (H:m:s:ms)","GENERIC","62.033","0.02395664894066955","884"
"21:43:26:60 (H:m:s:ms)","GENERIC","62.089","0.028528063648142348","949"
"21:43:13:939 (H:m:s:ms)","GENERIC","62.041","0.0425663914368179","1070"
"20:0:0:0 (H:m:s:ms)","GENERIC","31.069","0.017870610245943306","1093"
"21:43:7:878 (H:m:s:ms)","GENERIC","62.069","0.04999999999999997","1129"
"20:0:6:60 (H:m:s:ms)","GENERIC","31.04","0.009969530612958771","953"
"21:43:1:818 (H:m:s:ms)","GENERIC","62.051","0.02372660964528429","189"
"20:0:12:121 (H:m:s:ms)","GENERIC","31.029","0.03552319917958416","894"
"21:42:55:757 (H:m:s:ms)","GENERIC","62.101","0.03726779962499649","251"
"20:0:18:181 (H:m:s:ms)","GENERIC","31.048","0.04527692569068704","825"
"21:42:49:696 (H:m:s:ms)","GENERIC","62.081","0.03548875590720545","345"
"20:0:24:242 (H:m:s:ms)","GENERIC","31.041","0.017750567445242386","766"
"21:42:43:636 (H:m:s:ms)","GENERIC","62.083","0.03726779962499649","374"
"20:0:30:303 (H:m:s:ms)","GENERIC","31.031","0.010412414097938012","712"
"21:42:37:575 (H:m:s:ms)","GENERIC","62.105","0.07084042259127853","428"
"20:0:36:363 (H:m:s:ms)","GENERIC","31.034","0.023809523809523808","644"
"21:42:31:515 (H:m:s:ms)","GENERIC","62.059","0.020745734200754228","493"
"20:0:42:424 (H:m:s:ms)","GENERIC","31.033","0.018408935028645435","584"
"21:10:6:60 (H:m:s:ms)","GENERIC","62.117","0.02656102311584213","946"
"20:0:48:484 (H:m:s:ms)","GENERIC","31.036","0.07072083405093242","526"
"21:10:12:121 (H:m:s:ms)","GENERIC","31.017","0.07079080355865953","906"
"21:10:18:181 (H:m:s:ms)","GENERIC","62.079","0.03335416016031578","823"
"21:10:24:242 (H:m:s:ms)","GENERIC","62.049","0.01832331306431488","761"
"21:10:30:303 (H:m:s:ms)","GENERIC","62.021","0.020824828195876024","707"
"21:10:36:363 (H:m:s:ms)","GENERIC","62.113","0.0707463006287827","646"
"21:10:42:424 (H:m:s:ms)","GENERIC","62.075","0.014658650451451885","582"
"21:10:48:484 (H:m:s:ms)","GENERIC","62.107","0.03553768872247755","524"
"21:43:20:0 (H:m:s:ms)","GENERIC","62.053","0.0707774808526074","1044"
"21:10:54:545 (H:m:s:ms)","GENERIC","62.081","0.010290716253880864","460"
"21:11:0:606 (H:m:s:ms)","GENERIC","62.073","0.05311478659992478","403"
"21:25:39:393 (H:m:s:ms)","GENERIC","62.035","0.059211548204072234","651"
"21:44:38:787 (H:m:s:ms)","GENERIC","62.085","0.07072426979165268","218"
"21:44:32:727 (H:m:s:ms)","GENERIC","62.057","0.009358247477023131","280"
"21:44:26:666 (H:m:s:ms)","GENERIC","62.087","0.020824828195876024","342"
"21:44:20:606 (H:m:s:ms)","GENERIC","62.093","0.0426422967593318","399"
"21:44:14:545 (H:m:s:ms)","GENERIC","62.101","0.03553768872247755","461"
"21:44:8:484 (H:m:s:ms)","GENERIC","62.075","0.042705751519459906","523"
"21:44:2:424 (H:m:s:ms)","GENERIC","62.063","0.030722590239437946","582"
"21:43:56:363 (H:m:s:ms)","GENERIC","62.055","0.02046899907076326","645"
"21:43:50:303 (H:m:s:ms)","GENERIC","62.043","0.0711153848276424","706"
"21:43:44:242 (H:m:s:ms)","GENERIC","62.041","0.048074017006186534","770"
"21:11:6:666 (H:m:s:ms)","GENERIC","62.071","0.03807886552931952","339"
"21:43:38:181 (H:m:s:ms)","GENERIC","62.095","0.03584302194601094","827"
"21:11:12:727 (H:m:s:ms)","GENERIC","62.099","0.017750567445242386","279"
"21:11:18:787 (H:m:s:ms)","GENERIC","62.049","0.009519716382329879","222"
"21:11:24:848 (H:m:s:ms)","GENERIC","62.083","0.036770107646382125","158"
"21:11:30:909 (H:m:s:ms)","GENERIC","62.101","0.02866126646305551","1098"
"21:11:36:969 (H:m:s:ms)","GENERIC","62.089","0.07075129310081966","1038"
"21:11:43:30 (H:m:s:ms)","GENERIC","62.065","0.07074630062878269","976"
"21:11:49:90 (H:m:s:ms)","GENERIC","62.073","0.009458481298851608","953"
"21:11:55:151 (H:m:s:ms)","GENERIC","62.065","0.053051861418804115","857"
"21:12:1:212 (H:m:s:ms)","GENERIC","62.045","0.01099013225945816","795"
"21:26:15:757 (H:m:s:ms)","GENERIC","62.055","0.03726779962499649","252"
"21:45:45:454 (H:m:s:ms)","GENERIC","62.083","0.04291063171347612","557"
"21:26:12:151 (H:m:s:ms)","OPERA","31.01","0.034404277694902896","858"
"21:45:39:393 (H:m:s:ms)","GENERIC","31.013","0.020408163265306097","653"
"21:45:33:333 (H:m:s:ms)","GENERIC","62.065","0.07100226978096956","670"
"21:45:27:272 (H:m:s:ms)","GENERIC","62.051","0.030330870984755405","734"
"21:26:4:556 (H:m:s:ms)","OPERA","62.017","0.05942241957819865","452"
"21:26:3:636 (H:m:s:ms)","GENERIC","62.025","0.05312204623168429","373"
"21:45:21:212 (H:m:s:ms)","GENERIC","62.107","0.026669550017128327","795"
"21:25:57:575 (H:m:s:ms)","GENERIC","62.073","0.05123031572177293","445"
"21:45:15:151 (H:m:s:ms)","GENERIC","62.117","0.018916962597703216","857"
"21:25:56:962 (H:m:s:ms)","OPERA","62.017","0.04719560504807475","1048"
"21:45:9:90 (H:m:s:ms)","GENERIC","62.069","0.012525529485370637","955"
"21:25:51:515 (H:m:s:ms)","GENERIC","62.079","0.026790974238528296","493"
"21:45:3:30 (H:m:s:ms)","GENERIC","62.107","0.013743685418725534","974"
"21:25:49:367 (H:m:s:ms)","OPERA","62.017","0.037505823588786055","676"
"21:44:56:969 (H:m:s:ms)","GENERIC","62.111","0.04123105625617661","1032"
"21:12:7:272 (H:m:s:ms)","GENERIC","62.097","0.04718630608277992","732"
"21:25:45:454 (H:m:s:ms)","GENERIC","62.101","0.037505823588786055","557"
"21:44:50:909 (H:m:s:ms)","GENERIC","62.083","0.03807886552931954","1094"
"21:12:13:333 (H:m:s:ms)","GENERIC","62.089","0.03171049598406741","668"
"21:25:41:772 (H:m:s:ms)","OPERA","62.015","0.04308335863058406","242"
"21:44:44:848 (H:m:s:ms)","GENERIC","62.105","0.0707463006287827","155"
"21:12:19:393 (H:m:s:ms)","GENERIC","62.077","0.03171049598406741","646"
"21:12:25:454 (H:m:s:ms)","GENERIC","62.129","0.031043820977155457","550"
"21:12:31:515 (H:m:s:ms)","GENERIC","62.061","0.0334419997449132","494"
"21:12:37:575 (H:m:s:ms)","GENERIC","62.105","0.02395664894066955","429"
"21:12:43:636 (H:m:s:ms)","GENERIC","62.123","0.018633899812498245","373"
"21:12:49:696 (H:m:s:ms)","GENERIC","62.081","0.014965127846422746","348"
"21:12:55:757 (H:m:s:ms)","GENERIC","62.091","0.018633899812498245","251"
"21:13:1:818 (H:m:s:ms)","GENERIC","62.087","0.023920651483391397","190"
"21:26:9:696 (H:m:s:ms)","GENERIC","62.021","0.03906324100186028","344"
"21:26:52:121 (H:m:s:ms)","GENERIC","62.057","0.08468333824046517","888"
"21:46:52:121 (H:m:s:ms)","GENERIC","62.075","0.07103063757226807","888"
"21:26:50:126 (H:m:s:ms)","OPERA","62.017","0.05040728732631352","883"
"21:46:46:60 (H:m:s:ms)","GENERIC","62.101","0.07551903733496605","948"
"21:26:46:60 (H:m:s:ms)","GENERIC","62.065","0.02970934966215806","947"
"21:46:40:0 (H:m:s:ms)","GENERIC","62.059","0.04757672263062906","1041"
"21:46:33:939 (H:m:s:ms)","GENERIC","62.103","0.024431084085753185","1069"
"21:46:27:878 (H:m:s:ms)","GENERIC","62.017","0.009147707666708391","1131"
"21:26:42:531 (H:m:s:ms)","OPERA","62.017","0.033854346499831316","479"
"21:26:40:0 (H:m:s:ms)","GENERIC","62.071","0.034079749126431774","1040"
"21:26:34:936 (H:m:s:ms)","OPERA","62.015","0.026721495405703406","1083"
"21:46:21:818 (H:m:s:ms)","GENERIC","62.065","0.03644344934278312","192"
"21:26:33:939 (H:m:s:ms)","GENERIC","62.131","0.011978324470334771","1068"
"21:46:15:757 (H:m:s:ms)","GENERIC","62.051","0.02795084971874735","252"
"21:26:27:878 (H:m:s:ms)","GENERIC","62.043","0.030194270753617976","1142"
"21:46:9:696 (H:m:s:ms)","GENERIC","62.041","0.042467194443218316","344"
"21:13:7:878 (H:m:s:ms)","GENERIC","62.121","0.054326686710021985","1128"
"21:26:27:341 (H:m:s:ms)","OPERA","62.017","0.024543467119383513","668"
"21:46:3:636 (H:m:s:ms)","GENERIC","62.039","0.035388740426303696","375"
"21:13:13:939 (H:m:s:ms)","GENERIC","62.065","0.028753604641730015","1069"
"21:26:21:818 (H:m:s:ms)","GENERIC","62.053","0.07291411490445446","191"
"21:45:57:575 (H:m:s:ms)","GENERIC","62.025","0.01099013225945816","433"
"21:13:20:0 (H:m:s:ms)","GENERIC","62.043","0.07086089570872442","1045"
"21:26:19:746 (H:m:s:ms)","OPERA","62.015","0.07291411490445446","299"
"21:45:51:515 (H:m:s:ms)","GENERIC","62.093","0.01099013225945816","493"
"21:13:26:60 (H:m:s:ms)","GENERIC","62.103","0.014196440929223758","950"
"21:13:32:121 (H:m:s:ms)","GENERIC","62.083","0.07106335201775946","975"
"21:13:38:181 (H:m:s:ms)","GENERIC","62.123","0.053359368645273714","826"
"21:13:44:242 (H:m:s:ms)","GENERIC","62.079","0.07133644853010898","769"
"21:13:50:303 (H:m:s:ms)","GENERIC","62.079","0.0707557598434248","705"
"21:13:56:363 (H:m:s:ms)","GENERIC","62.039","0.01023449953538163","646"
"21:14:2:424 (H:m:s:ms)","GENERIC","62.049","0.021576867809990262","585"
"21:27:28:484 (H:m:s:ms)","GENERIC","62.159","0.07456282501644206","529"
"21:47:58:787 (H:m:s:ms)","GENERIC","62.145","0.03537564655040983","216"
"21:27:28:101 (H:m:s:ms)","OPERA","62.015","0.024007648991146366","910"
"21:47:52:727 (H:m:s:ms)","GENERIC","62.063","0.035436499198398426","279"
"21:27:22:424 (H:m:s:ms)","GENERIC","62.153","0.07108882265953277","583"
"21:47:46:666 (H:m:s:ms)","GENERIC","31.022","0.024007648991146366","341"
"21:27:20:506 (H:m:s:ms)","OPERA","62.015","0.05525878446283771","505"
"21:47:40:606 (H:m:s:ms)","GENERIC","62.059","0.01420045395619389","400"
"21:47:34:545 (H:m:s:ms)","GENERIC","62.117","0.02426703296426839","457"
"21:47:28:484 (H:m:s:ms)","GENERIC","62.199","0.023610969762337834","517"
"21:27:16:363 (H:m:s:ms)","GENERIC","62.015","0.03686501308558832","647"
"21:27:12:911 (H:m:s:ms)","OPERA","62.017","0.03262191414829376","1097"
"21:27:10:303 (H:m:s:ms)","GENERIC","62.081","0.07410667115926943","702"
"21:47:22:424 (H:m:s:ms)","GENERIC","62.161","0.017967486705502148","581"
"21:14:8:484 (H:m:s:ms)","GENERIC","31.026","0.014959318595506099","525"
"21:27:5:316 (H:m:s:ms)","OPERA","62.015","0.09958390658882445","692"
"21:47:16:363 (H:m:s:ms)","GENERIC","62.047","0.01455670566963585","645"
"21:14:14:545 (H:m:s:ms)","GENERIC","62.039","0.07080202906510312","457"
"21:27:4:242 (H:m:s:ms)","GENERIC","62.061","0.07080202906510312","761"
"21:47:10:303 (H:m:s:ms)","GENERIC","62.085","0.045961940777125496","701"
"20:52:7:272 (H:m:s:ms)","GENERIC","62.067","0.04755154632461873","732"
"21:14:20:606 (H:m:s:ms)","GENERIC","62.055","0.028607087808984025","400"
"21:26:58:181 (H:m:s:ms)","GENERIC","62.083","0.07298359478413265","821"
"21:47:4:242 (H:m:s:ms)","GENERIC","62.061","0.07079080355865955","760"
"20:52:13:333 (H:m:s:ms)","GENERIC","62.101","0.03807886552931954","668"
"21:14:26:666 (H:m:s:ms)","GENERIC","62.091","0.021576867809990262","340"
"21:26:57:721 (H:m:s:ms)","OPERA","62.017","0.09957597862766283","286"
"21:46:58:181 (H:m:s:ms)","GENERIC","62.107","0.027487370837451067","821"
"20:52:19:393 (H:m:s:ms)","GENERIC","62.055","0.027487370837451067","647"
"21:14:32:727 (H:m:s:ms)","GENERIC","62.049","0.009358247477023131","281"
"20:52:25:454 (H:m:s:ms)","GENERIC","62.099","0.01868032110466636","550"
"21:14:38:787 (H:m:s:ms)","GENERIC","62.095","0.023732781248843537","218"
"20:52:31:515 (H:m:s:ms)","GENERIC","62.057","0.03173730038657453","493"
"21:14:44:848 (H:m:s:ms)","GENERIC","62.117","0.047260555336379066","160"
"20:52:37:575 (H:m:s:ms)","GENERIC","62.067","0.02395664894066955","429"
"21:14:50:909 (H:m:s:ms)","GENERIC","62.137","0.03807886552931954","1092"
"20:52:43:636 (H:m:s:ms)","GENERIC","62.123","0.018633899812498245","374"
"21:14:56:969 (H:m:s:ms)","GENERIC","62.083","0.02460803843372233","1032"
"20:52:49:696 (H:m:s:ms)","GENERIC","62.075","0.023769883285299605","348"
"21:15:3:30 (H:m:s:ms)","GENERIC","62.143","0.03807886552931954","975"
"20:52:55:757 (H:m:s:ms)","GENERIC","62.081","0.05590169943749472","249"
"20:53:1:818 (H:m:s:ms)","GENERIC","62.083","0.047218838104366403","191"
"21:28:6:75 (H:m:s:ms)","OPERA","62.015","0.048209258404413764","937"
"21:49:5:454 (H:m:s:ms)","GENERIC","62.061","0.024007648991146366","556"
"21:28:4:848 (H:m:s:ms)","GENERIC","62.113","0.009477951027050933","158"
"21:48:59:393 (H:m:s:ms)","GENERIC","62.095","0.045961940777125496","652"
"21:27:58:787 (H:m:s:ms)","GENERIC","62.165","0.07132245514712535","225"
"21:48:53:333 (H:m:s:ms)","GENERIC","62.109","0.04757672263062906","671"
"21:27:58:481 (H:m:s:ms)","OPERA","31.01","0.009316949906249122","527"
"21:48:47:272 (H:m:s:ms)","GENERIC","62.117","0.047156772125318","737"
"21:27:52:727 (H:m:s:ms)","GENERIC","62.063","0.09968309411097212","279"
"21:48:41:212 (H:m:s:ms)","GENERIC","62.099","0.06010407640085644","795"
"21:48:35:151 (H:m:s:ms)","GENERIC","62.111","0.036770107646382125","853"
"21:48:29:90 (H:m:s:ms)","GENERIC","62.063","0.010435493610220108","953"
"21:27:50:886 (H:m:s:ms)","OPERA","31.01","0.07452331663313051","121"
"21:15:9:90 (H:m:s:ms)","GENERIC","62.079","0.012525529485370637","957"
"21:27:46:666 (H:m:s:ms)","GENERIC","62.093","0.05303800237087928","335"
"21:15:15:151 (H:m:s:ms)","GENERIC","62.075","0.027358298081622368","857"
"21:27:43:291 (H:m:s:ms)","OPERA","62.019","0.06358448903947958","719"
"21:48:23:30 (H:m:s:ms)","GENERIC","62.053","0.01774437795360272","977"
"20:53:7:878 (H:m:s:ms)","GENERIC","62.087","0.0294627825494395","1129"
"21:15:21:212 (H:m:s:ms)","GENERIC","62.063","0.0355991718732653","795"
"21:27:40:606 (H:m:s:ms)","GENERIC","62.055","0.04895429092477042","400"
"21:48:16:969 (H:m:s:ms)","GENERIC","62.121","0.026541829718487002","1032"
"20:53:13:939 (H:m:s:ms)","GENERIC","62.043","0.01455670566963585","1071"
"21:15:27:272 (H:m:s:ms)","GENERIC","62.035","0.010180137724099432","737"
"21:27:35:696 (H:m:s:ms)","OPERA","62.017","0.0477767120058046","313"
"21:48:10:909 (H:m:s:ms)","GENERIC","62.127","0.01953725037586238","1100"
"20:53:20:0 (H:m:s:ms)","GENERIC","62.067","0.03565482492794939","1047"
"21:15:33:333 (H:m:s:ms)","GENERIC","62.043","0.04757672263062906","671"
"21:27:34:545 (H:m:s:ms)","GENERIC","62.139","0.04123105625617661","457"
"21:48:4:848 (H:m:s:ms)","GENERIC","62.085","0.017824222665564788","157"
"20:53:26:60 (H:m:s:ms)","GENERIC","62.099","0.028392881858447516","950"
"21:15:39:393 (H:m:s:ms)","GENERIC","62.015","0.07079080355865953","651"
"20:53:32:121 (H:m:s:ms)","GENERIC","62.107","0.01845602882529174","887"
"21:15:45:454 (H:m:s:ms)","GENERIC","62.117","0.04264229675933185","556"
"20:53:38:181 (H:m:s:ms)","GENERIC","62.079","0.039528470752104736","828"
"21:15:51:515 (H:m:s:ms)","GENERIC","62.063","0.020254523715591003","495"
"20:53:44:242 (H:m:s:ms)","GENERIC","62.073","0.07211102550927978","769"
"21:15:57:575 (H:m:s:ms)","GENERIC","62.063","0.010204081632653048","435"
"20:53:50:303 (H:m:s:ms)","GENERIC","62.113","0.036157958448779615","706"
"21:16:3:636 (H:m:s:ms)","GENERIC","62.041","0.035388740426303696","373"
"20:53:56:363 (H:m:s:ms)","GENERIC","62.049","0.010623439837421577","645"
"20:54:2:424 (H:m:s:ms)","GENERIC","62.045","0.031237242293814107","582"
"21:28:44:50 (H:m:s:ms)","OPERA","62.015","0.07213685237173616","960"
"22:3:41:52 (H:m:s:ms)","AMBULANCE","31.01","0.04733484652064641","961"
"21:28:41:212 (H:m:s:ms)","GENERIC","62.121","0.08919781792525461","795"
"22:2:37:894 (H:m:s:ms)","AMBULANCE","31.01","0.02395664894066955","115"
"21:28:36:455 (H:m:s:ms)","OPERA","62.015","0.07441718652128092","552"
"21:50:0:0 (H:m:s:ms)","GENERIC","62.027","0.021638145543473757","1046"
"21:28:35:151 (H:m:s:ms)","GENERIC","62.129","0.02338914607665293","853"
"21:49:53:939 (H:m:s:ms)","GENERIC","62.093","0.012870845690233808","1069"
"21:28:29:90 (H:m:s:ms)","GENERIC","62.039","0.071484379083401","952"
"21:49:47:878 (H:m:s:ms)","GENERIC","62.035","0.012499999999999995","1130"
"21:28:28:860 (H:m:s:ms)","OPERA","31.009","0.07554402292605851","149"
"21:49:41:818 (H:m:s:ms)","GENERIC","62.027","0.02854603357837737","188"
"21:49:35:757 (H:m:s:ms)","GENERIC","62.051","0.04733484652064641","247"
"21:49:29:696 (H:m:s:ms)","GENERIC","62.095","0.047156772125318","349"
"21:16:9:696 (H:m:s:ms)","GENERIC","62.019","0.042467194443218316","346"
"21:16:15:757 (H:m:s:ms)","GENERIC","62.055","0.010622957319984968","253"
"21:28:23:30 (H:m:s:ms)","GENERIC","62.069","0.07554402292605851","977"
"20:54:8:484 (H:m:s:ms)","GENERIC","62.045","0.04719386903910639","519"
"21:16:21:818 (H:m:s:ms)","GENERIC","62.065","0.03644344934278312","192"
"21:28:21:265 (H:m:s:ms)","OPERA","31.009","0.07548397772032282","742"
"20:54:14:545 (H:m:s:ms)","GENERIC","62.047","0.035436499198398426","457"
"21:16:27:878 (H:m:s:ms)","GENERIC","62.055","0.026932271018653826","1130"
"21:28:16:969 (H:m:s:ms)","GENERIC","62.099","0.03575806165454558","1034"
"21:49:23:636 (H:m:s:ms)","GENERIC","62.095","0.04755154632461873","373"
"20:54:20:606 (H:m:s:ms)","GENERIC","62.047","0.014777194351801907","400"
"21:16:33:939 (H:m:s:ms)","GENERIC","62.139","0.024431084085753185","1068"
"21:28:13:670 (H:m:s:ms)","OPERA","62.017","0.03217155613425909","338"
"21:49:17:575 (H:m:s:ms)","GENERIC","62.125","0.07076502914752388","428"
"20:54:26:666 (H:m:s:ms)","GENERIC","62.069","0.021576867809990262","340"
"21:16:40:0 (H:m:s:ms)","GENERIC","62.069","0.04757672263062906","1042"
"21:28:10:909 (H:m:s:ms)","GENERIC","62.091","0.05189661050925137","1101"
"21:49:11:515 (H:m:s:ms)","GENERIC","62.117","0.04732360151430263","490"
"20:54:32:727 (H:m:s:ms)","GENERIC","62.061","0.026561023115842144","279"
"21:16:46:60 (H:m:s:ms)","GENERIC","62.045","0.05320244355290457","947"
"20:54:38:787 (H:m:s:ms)","GENERIC","62.093","0.04716083714041448","217"
"21:16:52:121 (H:m:s:ms)","GENERIC","62.043","0.07142857142857142","888"
"20:54:44:848 (H:m:s:ms)","GENERIC","62.115","0.07071958542839829","154"
"21:16:58:181 (H:m:s:ms)","GENERIC","62.079","0.02426703296426839","820"
"20:54:50:909 (H:m:s:ms)","GENERIC","62.119","0.013743685418725534","1094"
"21:17:4:242 (H:m:s:ms)","GENERIC","62.063","0.07071958542839829","760"
"20:54:56:969 (H:m:s:ms)","GENERIC","62.061","0.03807886552931954","1033"
"20:55:3:30 (H:m:s:ms)","GENERIC","62.101","0.018408935028645435","974"
"21:29:23:636 (H:m:s:ms)","GENERIC","62.067","0.0848092654574322","372"
"21:29:22:25 (H:m:s:ms)","OPERA","62.017","0.09960720913199492","983"
"21:29:17:575 (H:m:s:ms)","GENERIC","62.107","0.07072426979165268","428"
"21:29:11:515 (H:m:s:ms)","GENERIC","62.133","0.0547245649932553","491"
"21:29:6:835 (H:m:s:ms)","OPERA","62.015","0.03701058793414139","172"
"21:29:5:454 (H:m:s:ms)","GENERIC","62.057","0.024543467119383513","555"
"21:28:59:393 (H:m:s:ms)","GENERIC","62.083","0.06069121334282084","659"
"21:17:10:303 (H:m:s:ms)","GENERIC","62.095","0.05488624600025029","702"
"21:17:16:363 (H:m:s:ms)","GENERIC","62.025","0.042740727414176234","646"
"20:55:9:90 (H:m:s:ms)","GENERIC","62.043","0.035383612025908256","962"
"21:17:22:424 (H:m:s:ms)","GENERIC","62.137","0.05305735240876697","582"
"20:55:15:151 (H:m:s:ms)","GENERIC","62.107","0.02036027544819889","857"
"21:17:28:484 (H:m:s:ms)","GENERIC","62.135","0.023732781248843537","518"
"21:28:59:240 (H:m:s:ms)","OPERA","31.01","0.047634529964164944","804"
"20:55:21:212 (H:m:s:ms)","GENERIC","62.039","0.026669550017128327","795"
"21:17:34:545 (H:m:s:ms)","GENERIC","62.135","0.02426703296426839","457"
"21:28:53:333 (H:m:s:ms)","GENERIC","62.065","0.042613711978079546","758"
"20:55:27:272 (H:m:s:ms)","GENERIC","62.039","0.010412414097938022","736"
"21:17:40:606 (H:m:s:ms)","GENERIC","62.039","0.014658650451451885","400"
"21:28:51:645 (H:m:s:ms)","OPERA","62.015","0.03333364802909646","364"
"22:6:18:947 (H:m:s:ms)","AMBULANCE","31.01","0.04733484652064641","1064"
"20:55:33:333 (H:m:s:ms)","GENERIC","62.041","0.02871127791859435","726"
"21:17:46:666 (H:m:s:ms)","GENERIC","62.073","0.04719386903910636","335"
"21:28:47:272 (H:m:s:ms)","GENERIC","62.109","0.052745329882809756","736"
"22:5:47:368 (H:m:s:ms)","AMBULANCE","31.009","0.07084042259127853","640"
"20:55:39:393 (H:m:s:ms)","GENERIC","62.061","0.035488755907205446","654"
"21:17:52:727 (H:m:s:ms)","GENERIC","62.067","0.0708329092870135","279"
"20:55:45:454 (H:m:s:ms)","GENERIC","62.099","0.04291063171347612","557"
"21:17:58:787 (H:m:s:ms)","GENERIC","62.155","0.07071958542839829","214"
"20:55:51:515 (H:m:s:ms)","GENERIC","62.043","0.03033891581085409","494"
"21:18:4:848 (H:m:s:ms)","GENERIC","62.121","0.026614430552458438","158"
"20:55:57:575 (H:m:s:ms)","GENERIC","62.043","0.03061224489795918","432"
"20:56:3:636 (H:m:s:ms)","GENERIC","62.053","0.05312204623168429","372"
"21:30:0:0 (H:m:s:ms)","GENERIC","62.047","0.07703474003005081","1061"
"21:30:0:0 (H:m:s:ms)","OPERA","62.016","0.07563296696260889","1051"
"21:30:0:0 (H:m:s:ms)","AMBULANCE","31.028","0.0710410178888556","1044"
"21:29:53:939 (H:m:s:ms)","GENERIC","62.109","0.07189685993741575","1071"
"21:29:52:405 (H:m:s:ms)","OPERA","62.015","0.07743983904599867","603"
"21:29:47:878 (H:m:s:ms)","GENERIC","62.047","0.03186887195995487","1130"
"21:29:41:818 (H:m:s:ms)","GENERIC","62.067","0.08225922556360718","189"
"21:29:37:215 (H:m:s:ms)","OPERA","31.009","0.0744787960861107","794"
"21:18:10:909 (H:m:s:ms)","GENERIC","62.085","0.015291642899327506","1100"
"21:18:16:969 (H:m:s:ms)","GENERIC","62.087","0.009498343184284254","1035"
"20:56:9:696 (H:m:s:ms)","GENERIC","62.029","0.0427920954722136","350"
"21:18:23:30 (H:m:s:ms)","GENERIC","62.073","0.026694134109223475","977"
"20:56:15:757 (H:m:s:ms)","GENERIC","62.033","0.018633899812498245","254"
"21:18:29:90 (H:m:s:ms)","GENERIC","62.035","0.03041752878688848","952"
"20:40:0:0 (H:m:s:ms)","OPERA","31.01","0.04719560504807475","1116"
"20:56:21:818 (H:m:s:ms)","GENERIC","62.063","0.053114786599924774","190"
"21:18:35:151 (H:m:s:ms)","GENERIC","62.129","0.046565731465733194","853"
"20:40:0:0 (H:m:s:ms)","GENERIC","62.075","0.050910813499945064","1127"
"20:56:27:878 (H:m:s:ms)","GENERIC","62.039","0.019039432764659758","1131"
"21:18:41:212 (H:m:s:ms)","GENERIC","62.125","0.045961940777125496","796"
"21:29:35:757 (H:m:s:ms)","GENERIC","62.077","0.023667423260323204","247"
"20:40:0:0 (H:m:s:ms)","GENERIC","62.108","0.05213931161190935","1131"
"20:56:33:939 (H:m:s:ms)","GENERIC","62.119","0.0359349734110043","1065"
"21:18:47:272 (H:m:s:ms)","GENERIC","62.113","0.07075419238623078","736"
"21:29:29:696 (H:m:s:ms)","GENERIC","62.101","0.03394888423804918","357"
"20:40:6:60 (H:m:s:ms)","GENERIC","62.059","0.018269278602143047","946"
"20:56:40:0 (H:m:s:ms)","GENERIC","31.025","0.04718912576484074","1045"
"21:18:53:333 (H:m:s:ms)","GENERIC","62.065","0.02907492861423562","674"
"21:29:29:620 (H:m:s:ms)","OPERA","62.017","0.024543467119383513","422"
"20:40:7:594 (H:m:s:ms)","OPERA","31.009","0.03044820683240686","418"
"20:56:46:60 (H:m:s:ms)","GENERIC","62.015","0.07551903733496605","949"
"21:18:59:393 (H:m:s:ms)","GENERIC","62.095","0.0679153885360305","649"
"20:40:12:121 (H:m:s:ms)","GENERIC","62.075","0.03891336514273969","888"
"20:56:52:121 (H:m:s:ms)","GENERIC","62.033","0.023809523809523808","889"
"21:19:5:454 (H:m:s:ms)","GENERIC","62.055","0.04719560504807475","556"
"20:40:15:189 (H:m:s:ms)","OPERA","31.01","0.07673641302740777","819"
"20:56:58:181 (H:m:s:ms)","GENERIC","62.085","0.03171049598406741","820"
"20:40:18:181 (H:m:s:ms)","GENERIC","62.035","0.0741396405159939","823"
"20:57:4:242 (H:m:s:ms)","GENERIC","62.071","0.035436499198398426","761"
"20:40:22:784 (H:m:s:ms)","OPERA","31.009","0.07423934562714649","223"
"20:40:24:242 (H:m:s:ms)","GENERIC","62.095","0.08820631244114169","762"
"21:30:12:121 (H:m:s:ms)","GENERIC","62.017","0.04718912576484074","885"
"21:30:54:545 (H:m:s:ms)","GENERIC","62.083","0.030872148761642706","461"
"21:30:48:484 (H:m:s:ms)","GENERIC","62.099","0.04252446193142562","522"
"21:30:42:424 (H:m:s:ms)","GENERIC","62.037","0.014658650451451885","582"
"21:30:36:363 (H:m:s:ms)","GENERIC","62.119","0.05255072792041273","640"
"21:30:31:578 (H:m:s:ms)","AMBULANCE","31.024","0.0516684759282724","451"
"21:30:30:303 (H:m:s:ms)","GENERIC","62.045","0.021576867809990262","707"
"21:30:24:242 (H:m:s:ms)","GENERIC","62.069","0.03550113489048477","761"
"21:19:11:515 (H:m:s:ms)","GENERIC","62.119","0.0708329092870135","490"
"21:30:18:181 (H:m:s:ms)","GENERIC","62.089","0.03807886552931952","823"
"21:19:17:575 (H:m:s:ms)","GENERIC","62.105","0.0708329092870135","428"
"20:57:10:303 (H:m:s:ms)","GENERIC","62.123","0.05522680508593621","701"
"21:19:23:636 (H:m:s:ms)","GENERIC","62.071","0.0708329092870135","372"
"20:57:16:363 (H:m:s:ms)","GENERIC","62.055","0.015058877112617665","646"
"21:19:29:696 (H:m:s:ms)","GENERIC","62.085","0.07075419238623078","349"
"20:40:30:303 (H:m:s:ms)","GENERIC","62.057","0.030722590239437946","705"
"20:57:22:424 (H:m:s:ms)","GENERIC","62.105","0.053130316943458815","582"
"21:19:35:757 (H:m:s:ms)","GENERIC","62.059","0.02443108408575319","247"
"20:40:30:379 (H:m:s:ms)","OPERA","31.009","0.038798830682586764","642"
"20:57:28:484 (H:m:s:ms)","GENERIC","62.121","0.023934422775948438","517"
"21:19:41:818 (H:m:s:ms)","GENERIC","62.065","0.04244588192701358","189"
"20:40:36:363 (H:m:s:ms)","GENERIC","62.105","0.023809523809523808","639"
"20:57:34:545 (H:m:s:ms)","GENERIC","62.113","0.02426703296426839","456"
"21:19:47:878 (H:m:s:ms)","GENERIC","62.043","0.03186887195995487","1130"
"20:40:37:974 (H:m:s:ms)","OPERA","31.009","0.052647095924953875","1036"
"20:57:40:606 (H:m:s:ms)","GENERIC","62.029","0.02854603357837737","400"
"21:19:53:939 (H:m:s:ms)","GENERIC","62.119","0.035397378716341424","1069"
"21:30:6:60 (H:m:s:ms)","GENERIC","62.123","0.018269278602143047","946"
"20:40:42:424 (H:m:s:ms)","GENERIC","31.027","0.05479126534420251","585"
"20:57:46:666 (H:m:s:ms)","GENERIC","62.091","0.0471538119921046","336"
"21:20:0:0 (H:m:s:ms)","OPERA","31.01","0.02667968432263685","1111"
"21:30:0:0 (H:m:s:ms)","GENERIC","62.165","0.08127568266176004","1065"
"20:40:45:569 (H:m:s:ms)","OPERA","31.011","0.07593676660438338","439"
"20:57:52:727 (H:m:s:ms)","GENERIC","62.067","0.07075129310081966","280"
"21:20:0:0 (H:m:s:ms)","GENERIC","62.059","0.03765341251980096","1121"
"20:40:48:484 (H:m:s:ms)","GENERIC","62.067","0.08217538390575457","523"
"20:57:58:787 (H:m:s:ms)","GENERIC","62.125","0.0707463006287827","215"
"20:40:53:164 (H:m:s:ms)","OPERA","31.009","0.08242664034195388","846"
"20:58:4:848 (H:m:s:ms)","GENERIC","62.093","0.018005736743359757","158"
"20:40:54:545 (H:m:s:ms)","GENERIC","62.125","0.07368660632226554","461"
"20:41:0:606 (H:m:s:ms)","GENERIC","62.041","0.03547788826234666","405"
"21:31:6:666 (H:m:s:ms)","GENERIC","62.073","0.08942661001106418","339"
"21:31:3:157 (H:m:s:ms)","AMBULANCE","31.018","0.07077137173679907","892"
"21:31:49:90 (H:m:s:ms)","GENERIC","62.065","0.02036027544819889","950"
"21:31:43:30 (H:m:s:ms)","GENERIC","62.055","0.0353887404263037","977"
"21:31:36:969 (H:m:s:ms)","GENERIC","62.077","0.08466987488048587","1037"
"21:31:34:736 (H:m:s:ms)","AMBULANCE","31.023","0.05048375415825996","296"
"21:31:30:909 (H:m:s:ms)","GENERIC","62.087","0.018495561597760904","1100"
"21:31:24:848 (H:m:s:ms)","GENERIC","62.085","0.03839170356332644","158"
"21:31:18:787 (H:m:s:ms)","GENERIC","62.061","0.018027756377319938","223"
"21:31:12:727 (H:m:s:ms)","GENERIC","62.069","0.035682541972971764","279"
"20:58:10:909 (H:m:s:ms)","GENERIC","62.053","0.00976862518793119","1101"
"20:58:16:969 (H:m:s:ms)","GENERIC","62.059","0.008914523251703364","1034"
"20:41:0:759 (H:m:s:ms)","OPERA","31.009","0.042455485412876075","264"
"20:58:23:30 (H:m:s:ms)","GENERIC","62.091","0.009358247477023131","979"
"20:41:6:666 (H:m:s:ms)","GENERIC","62.067","0.07211102550927977","340"
"20:58:29:90 (H:m:s:ms)","GENERIC","62.029","0.020245442522867346","961"
"20:41:8:354 (H:m:s:ms)","OPERA","31.01","0.08608541532705","656"
"20:58:35:151 (H:m:s:ms)","GENERIC","62.089","0.036770107646382125","854"
"20:41:12:727 (H:m:s:ms)","GENERIC","62.109","0.07079859973207771","279"
"20:58:41:212 (H:m:s:ms)","GENERIC","62.109","0.045961940777125496","795"
"20:41:15:949 (H:m:s:ms)","OPERA","31.01","0.05819290472664993","1062"
"20:58:47:272 (H:m:s:ms)","GENERIC","62.125","0.023602849205392504","736"
"20:41:18:787 (H:m:s:ms)","GENERIC","62.053","0.029762191303673528","224"
"20:58:53:333 (H:m:s:ms)","GENERIC","62.099","0.01453746430711781","674"
"21:31:0:606 (H:m:s:ms)","GENERIC","62.087","0.053216832393519944","402"
"20:41:23:544 (H:m:s:ms)","OPERA","31.01","0.02566484098627398","465"
"20:58:59:393 (H:m:s:ms)","GENERIC","62.129","0.033354160160315754","654"
"20:41:24:848 (H:m:s:ms)","GENERIC","62.023","0.04112720244233122","158"
"20:59:5:454 (H:m:s:ms)","GENERIC","62.047","0.04719560504807475","555"
"20:41:30:909 (H:m:s:ms)","GENERIC","62.089","0.010378381319674473","1100"
"20:41:31:139 (H:m:s:ms)","OPERA","31.01","0.01616821774398879","878"
"20:59:11:515 (H:m:s:ms)","GENERIC","62.091","0.0708329092870135","490"
"20:59:17:575 (H:m:s:ms)","GENERIC","62.141","0.07072426979165268","428"
"20:41:36:969 (H:m:s:ms)","GENERIC","62.065","0.04245094186987275","1035"
"20:59:23:636 (H:m:s:ms)","GENERIC","62.077","0.07074125571062172","371"
"20:41:38:734 (H:m:s:ms)","OPERA","31.011","0.04856042277405216","276"
"20:59:29:696 (H:m:s:ms)","GENERIC","62.083","0.07072155919560127","356"
"20:41:43:30 (H:m:s:ms)","GENERIC","62.025","0.04278286720700435","977"
"20:59:35:757 (H:m:s:ms)","GENERIC","62.021","0.04733484652064641","249"
"20:41:46:329 (H:m:s:ms)","OPERA","31.009","0.07900093757181974","679"
"20:59:41:818 (H:m:s:ms)","GENERIC","31.016","0.014373989364401698","190"
"20:41:49:90 (H:m:s:ms)","GENERIC","62.101","0.07607343632504952","949"
"20:59:47:878 (H:m:s:ms)","GENERIC","62.045","0.012499999999999995","1130"
"20:41:53:924 (H:m:s:ms)","OPERA","31.01","0.055204757792889275","90"
"20:59:53:939 (H:m:s:ms)","GENERIC","62.159","0.03573191542435025","1068"
"20:41:55:151 (H:m:s:ms)","GENERIC","62.041","0.07105249386290359","855"
"21:0:0:0 (H:m:s:ms)","AMBULANCE","31.044","0.0710410178888556","1126"
"20:42:1:212 (H:m:s:ms)","GENERIC","62.089","0.020254523715591003","796"
"21:0:0:0 (H:m:s:ms)","GENERIC","62.083","0.07256934113267781","1135"
"20:42:1:518 (H:m:s:ms)","OPERA","31.01","0.07349873713940423","499"
"20:42:7:272 (H:m:s:ms)","GENERIC","62.055","0.07074125571062172","731"
"21:0:0:0 (H:m:s:ms)","GENERIC","62.125","0.07318210224503838","1140"
"21:0:6:60 (H:m:s:ms)","GENERIC","62.103","0.02691452285742253","946"
"20:42:9:113 (H:m:s:ms)","OPERA","31.01","0.0846422736758584","931"
"21:0:12:121 (H:m:s:ms)","GENERIC","62.057","0.02871127791859435","933"
"20:42:13:333 (H:m:s:ms)","GENERIC","62.105","0.0544048005623127","668"
"21:0:18:181 (H:m:s:ms)","GENERIC","62.061","0.06791538853603055","823"
"20:20:0:0 (H:m:s:ms)","GENERIC","62.067","0.015291642899327506","1142"
"20:42:16:708 (H:m:s:ms)","OPERA","31.009","0.07593916453554872","301"
"21:0:24:242 (H:m:s:ms)","GENERIC","62.063","0.0532517023357271","761"
"20:20:0:0 (H:m:s:ms)","GENERIC","62.129","0.030633690732582167","1147"
"20:42:19:393 (H:m:s:ms)","GENERIC","62.065","0.07593916453554872","643"
"21:0:30:303 (H:m:s:ms)","GENERIC","62.029","0.020360275448198843","707"
"20:20:6:60 (H:m:s:ms)","GENERIC","62.043","0.02656102311584213","947"
"20:42:24:303 (H:m:s:ms)","OPERA","31.01","0.03611701817862368","706"
"21:0:31:578 (H:m:s:ms)","AMBULANCE","31.046","0.051211420228853895","433"
"20:20:12:121 (H:m:s:ms)","GENERIC","62.073","0.030441701816686317","889"
"20:42:25:454 (H:m:s:ms)","GENERIC","62.079","0.04493512242258968","551"
"21:0:36:363 (H:m:s:ms)","GENERIC","62.113","0.052647095924953875","645"
"20:20:18:181 (H:m:s:ms)","GENERIC","62.061","0.06791538853603055","824"
"20:42:31:515 (H:m:s:ms)","GENERIC","62.059","0.03173730038657453","494"
"21:0:42:424 (H:m:s:ms)","GENERIC","62.069","0.01420045395619389","587"
"20:20:24:242 (H:m:s:ms)","GENERIC","62.077","0.017750567445242386","762"
"20:42:31:898 (H:m:s:ms)","OPERA","31.009","0.05661613631089763","120"
"21:0:48:484 (H:m:s:ms)","GENERIC","62.093","0.03537564655040983","525"
"20:20:30:303 (H:m:s:ms)","GENERIC","62.093","0.031237242293814107","707"
"20:42:37:575 (H:m:s:ms)","GENERIC","31.024","0.04757672263062906","430"
"20:20:36:363 (H:m:s:ms)","GENERIC","62.091","0.02359693451955318","641"
"20:42:39:493 (H:m:s:ms)","OPERA","31.009","0.08494953613085983","549"
"20:20:42:424 (H:m:s:ms)","GENERIC","62.075","0.0360555127546399","587"
"20:20:48:484 (H:m:s:ms)","GENERIC","62.083","0.03537564655040983","526"
"21:0:54:545 (H:m:s:ms)","GENERIC","62.089","0.010290716253880864","461"
"21:1:0:606 (H:m:s:ms)","GENERIC","62.071","0.01822172467139156","403"
"20:42:43:636 (H:m:s:ms)","GENERIC","62.105","0.07908530686027913","374"
"21:1:3:157 (H:m:s:ms)","AMBULANCE","31.037","0.05082945730460157","854"
"20:42:47:88 (H:m:s:ms)","OPERA","31.01","0.059323570660154326","921"
"21:1:6:666 (H:m:s:ms)","GENERIC","62.077","0.08628907961250616","339"
"20:20:54:545 (H:m:s:ms)","GENERIC","62.137","0.010290716253880864","462"
"20:42:49:696 (H:m:s:ms)","GENERIC","62.077","0.04904835142634988","346"
"21:1:12:727 (H:m:s:ms)","GENERIC","62.099","0.017750567445242386","278"
"20:21:0:606 (H:m:s:ms)","GENERIC","62.049","0.05305346490936178","404"
"20:42:54:683 (H:m:s:ms)","OPERA","31.01","0.048783889539789946","329"
"21:1:18:787 (H:m:s:ms)","GENERIC","62.045","0.009147707666708391","223"
"20:21:6:666 (H:m:s:ms)","GENERIC","62.107","0.045276925690687045","340"
"20:42:55:757 (H:m:s:ms)","GENERIC","62.079","0.07098737904308577","251"
"21:1:24:848 (H:m:s:ms)","GENERIC","62.065","0.046565731465733194","158"
"20:21:12:727 (H:m:s:ms)","GENERIC","62.107","0.053130316943458815","279"
"20:43:1:818 (H:m:s:ms)","GENERIC","62.091","0.047218838104366403","190"
"21:1:30:909 (H:m:s:ms)","GENERIC","62.095","0.02405768462153229","1100"
"20:21:18:787 (H:m:s:ms)","GENERIC","62.025","0.026751168198790837","221"
"20:43:2:278 (H:m:s:ms)","OPERA","31.009","0.0846602397558144","730"
"21:1:34:736 (H:m:s:ms)","AMBULANCE","31.039","0.03384106999700333","276"
"20:21:24:848 (H:m:s:ms)","GENERIC","62.023","0.025643641938735744","159"
"20:43:7:878 (H:m:s:ms)","GENERIC","62.085","0.04999999999999997","1130"
"21:1:36:969 (H:m:s:ms)","GENERIC","62.091","0.0745338388546889","1037"
"20:21:30:909 (H:m:s:ms)","GENERIC","62.069","0.027068631269729287","1099"
"20:43:9:873 (H:m:s:ms)","OPERA","31.01","0.05669831632486161","171"
"20:21:36:969 (H:m:s:ms)","GENERIC","62.079","0.04245094186987275","1037"
"20:43:13:939 (H:m:s:ms)","GENERIC","62.031","0.03935542620419159","1070"
"20:21:43:30 (H:m:s:ms)","GENERIC","62.049","0.07071958542839829","976"
"20:21:49:90 (H:m:s:ms)","GENERIC","62.113","0.027358298081622368","954"
"20:43:17:468 (H:m:s:ms)","OPERA","31.009","0.07637065343280872","545"
"20:43:20:0 (H:m:s:ms)","GENERIC","62.079","0.07904727457301183","1046"
"20:21:55:151 (H:m:s:ms)","GENERIC","62.049","0.017902513789968152","858"
"20:43:25:63 (H:m:s:ms)","OPERA","31.01","0.07878445263828346","945"
"20:22:1:212 (H:m:s:ms)","GENERIC","62.055","0.01099013225945816","796"
"20:43:26:60 (H:m:s:ms)","GENERIC","62.093","0.08220873295647381","950"
"20:22:7:272 (H:m:s:ms)","GENERIC","62.043","0.04732360151430263","733"
"20:43:32:121 (H:m:s:ms)","GENERIC","62.089","0.053297514013319516","887"
"20:22:13:333 (H:m:s:ms)","GENERIC","62.113","0.03171049598406741","669"
"20:43:32:658 (H:m:s:ms)","OPERA","31.01","0.0711226775126751","360"
"20:22:19:393 (H:m:s:ms)","GENERIC","62.095","0.03807886552931954","647"
"20:43:38:181 (H:m:s:ms)","GENERIC","62.057","0.03726779962499649","828"
"20:22:25:454 (H:m:s:ms)","GENERIC","62.055","0.031043820977155457","550"
"20:43:40:253 (H:m:s:ms)","OPERA","31.01","0.06018835522713841","757"
"20:22:31:515 (H:m:s:ms)","GENERIC","62.071","0.0334419997449132","494"
"20:43:44:242 (H:m:s:ms)","GENERIC","62.087","0.06814999820021526","770"
"20:22:37:575 (H:m:s:ms)","GENERIC","62.063","0.023788361315314522","435"
"20:43:47:848 (H:m:s:ms)","OPERA","31.01","0.05635330020898902","159"
"20:22:43:636 (H:m:s:ms)","GENERIC","62.093","0.024999999999999998","373"
"20:22:49:696 (H:m:s:ms)","GENERIC","62.089","0.024359038136190746","348"
"20:43:50:303 (H:m:s:ms)","GENERIC","62.127","0.07582412429557424","705"
"20:43:55:443 (H:m:s:ms)","OPERA","31.01","0.07582412429557424","570"
"20:22:55:757 (H:m:s:ms)","GENERIC","62.069","0.053359368645273714","252"
"20:43:56:363 (H:m:s:ms)","GENERIC","62.057","0.030022260717513422","646"
"20:23:1:818 (H:m:s:ms)","GENERIC","62.095","0.047218838104366403","192"
"20:44:2:424 (H:m:s:ms)","GENERIC","62.043","0.011293848786315614","585"
"20:23:7:878 (H:m:s:ms)","GENERIC","62.085","0.05803495115493376","1130"
"20:44:3:37 (H:m:s:ms)","OPERA","31.01","0.04884957757432913","972"
"20:23:13:939 (H:m:s:ms)","GENERIC","62.045","0.028753604641730015","1071"
"20:44:8:484 (H:m:s:ms)","GENERIC","62.045","0.06676263680417904","518"
"20:23:20:0 (H:m:s:ms)","GENERIC","62.097","0.03395769426801528","1043"
"20:44:10:632 (H:m:s:ms)","OPERA","31.009","0.08477453246700013","376"
"20:23:26:60 (H:m:s:ms)","GENERIC","62.109","0.014196440929223758","950"
"20:44:14:545 (H:m:s:ms)","GENERIC","62.067","0.09966141435641529","456"
"20:23:32:121 (H:m:s:ms)","GENERIC","62.047","0.01776583800443986","888"
"20:44:18:227 (H:m:s:ms)","OPERA","31.009","0.09966141435641529","781"
"20:23:38:181 (H:m:s:ms)","GENERIC","62.065","0.054326686710022054","827"
"20:44:20:606 (H:m:s:ms)","GENERIC","62.043","0.07223974079984463","400"
"20:23:44:242 (H:m:s:ms)","GENERIC","62.091","0.07211102550927978","771"
"20:23:50:303 (H:m:s:ms)","GENERIC","62.121","0.03544541650228429","707"
"20:44:25:822 (H:m:s:ms)","OPERA","31.01","0.04973282085041844","187"
"20:44:26:666 (H:m:s:ms)","GENERIC","62.055","0.05670014446553319","339"
"20:23:56:363 (H:m:s:ms)","GENERIC","62.069","0.01023449953538163","647"
"20:44:32:727 (H:m:s:ms)","GENERIC","62.067","0.01774437795360272","281"
"20:24:2:424 (H:m:s:ms)","GENERIC","62.067","0.012626906806902613","586"
"20:44:33:417 (H:m:s:ms)","OPERA","31.01","0.05040754050465232","593"
"20:24:8:484 (H:m:s:ms)","GENERIC","62.061","0.07071958542839829","520"
"20:44:38:787 (H:m:s:ms)","GENERIC","62.091","0.06654169002186762","219"
"20:24:14:545 (H:m:s:ms)","GENERIC","62.085","0.0708329092870135","462"
"20:44:41:12 (H:m:s:ms)","OPERA","31.01","0.0667359221042952","999"
"20:24:20:606 (H:m:s:ms)","GENERIC","62.063","0.015534552264213656","401"
"20:44:44:848 (H:m:s:ms)","GENERIC","62.117","0.05294583943114099","155"
"20:24:26:666 (H:m:s:ms)","GENERIC","62.063","0.010412414097938012","342"
"20:44:48:607 (H:m:s:ms)","OPERA","31.009","0.03349411505446647","403"
"20:24:32:727 (H:m:s:ms)","GENERIC","62.067","0.026561023115842144","280"
"20:44:50:909 (H:m:s:ms)","GENERIC","62.101","0.0340248349368449","1096"
"20:24:38:787 (H:m:s:ms)","GENERIC","62.105","0.023610969762337834","218"
"20:44:56:202 (H:m:s:ms)","OPERA","31.01","0.07477239124414378","806"
"20:24:44:848 (H:m:s:ms)","GENERIC","62.107","0.023809523809523808","156"
"20:24:50:909 (H:m:s:ms)","GENERIC","62.063","0.027487370837451067","1095"
"20:44:56:969 (H:m:s:ms)","GENERIC","62.045","0.07477239124414378","1041"
"20:45:3:30 (H:m:s:ms)","GENERIC","62.079","0.02426703296426839","975"
"20:24:56:969 (H:m:s:ms)","GENERIC","62.015","0.02426703296426839","1033"
"20:45:3:797 (H:m:s:ms)","OPERA","31.009","0.052953877696345526","220"
"20:25:3:30 (H:m:s:ms)","GENERIC","62.085","0.0360555127546399","976"
"20:45:9:90 (H:m:s:ms)","GENERIC","62.033","0.012525529485370637","957"
"20:25:9:90 (H:m:s:ms)","GENERIC","62.033","0.023739325086353166","956"
"20:45:11:392 (H:m:s:ms)","OPERA","31.01","0.07201592590861168","616"
"20:25:15:151 (H:m:s:ms)","GENERIC","62.119","0.009458481298851608","858"
"20:45:15:151 (H:m:s:ms)","GENERIC","62.127","0.07220089558568932","858"
"20:25:21:212 (H:m:s:ms)","GENERIC","62.085","0.012497596847041144","796"
"20:45:18:987 (H:m:s:ms)","OPERA","31.009","0.02713392796792446","1064"
"20:25:27:272 (H:m:s:ms)","GENERIC","62.049","0.010180137724099432","737"
"20:45:21:212 (H:m:s:ms)","GENERIC","62.051","0.03426239180783239","794"
"20:25:33:333 (H:m:s:ms)","GENERIC","62.063","0.03544541650228429","676"
"20:45:26:582 (H:m:s:ms)","OPERA","31.01","0.03426239180783239","429"
"20:25:39:393 (H:m:s:ms)","GENERIC","62.075","0.07079080355865953","651"
"20:45:27:272 (H:m:s:ms)","GENERIC","62.029","0.03835305700504522","735"
"20:25:45:454 (H:m:s:ms)","GENERIC","62.079","0.028607087808984074","559"
"20:25:51:515 (H:m:s:ms)","GENERIC","62.039","0.020254523715591003","496"
"20:25:57:575 (H:m:s:ms)","GENERIC","62.071","0.030540413172298334","446"
"20:26:3:636 (H:m:s:ms)","GENERIC","62.051","0.01774437795360272","375"
"20:26:9:696 (H:m:s:ms)","GENERIC","62.073","0.042589322787671344","350"
"20:26:15:757 (H:m:s:ms)","GENERIC","62.041","0.02795084971874735","255"
"20:26:21:818 (H:m:s:ms)","GENERIC","62.121","0.05335936864527367","192"
"20:26:27:878 (H:m:s:ms)","GENERIC","62.089","0.009147707666708391","1133"
"20:26:33:939 (H:m:s:ms)","GENERIC","62.077","0.0236674232603232","1069"
"20:26:40:0 (H:m:s:ms)","GENERIC","62.055","0.02263846284534352","1049"
"20:26:46:60 (H:m:s:ms)","GENERIC","62.051","0.0356089876295297","948"
"20:26:52:121 (H:m:s:ms)","GENERIC","62.041","0.024513405097588096","890"
"20:26:58:181 (H:m:s:ms)","GENERIC","62.091","0.03171049598406741","821"
"20:27:4:242 (H:m:s:ms)","GENERIC","62.089","0.035436499198398426","762"
"20:27:10:303 (H:m:s:ms)","GENERIC","62.119","0.03807886552931951","702"
"20:27:16:363 (H:m:s:ms)","GENERIC","62.105","0.04246144627763046","645"
"20:27:22:424 (H:m:s:ms)","GENERIC","62.125","0.017967486705502148","582"
"20:27:28:484 (H:m:s:ms)","GENERIC","62.119","0.04716083714041448","518"
"20:27:34:545 (H:m:s:ms)","GENERIC","62.091","0.03807886552931954","457"
"20:27:40:606 (H:m:s:ms)","GENERIC","31.013","0.04244588192701358","402"
"20:27:46:666 (H:m:s:ms)","GENERIC","62.131","0.04719386903910636","336"
"20:27:52:727 (H:m:s:ms)","GENERIC","62.091","0.07098540227145393","281"
"20:27:58:787 (H:m:s:ms)","GENERIC","62.091","0.07080202906510312","217"
"20:28:4:848 (H:m:s:ms)","GENERIC","62.065","0.01771442148103935","158"
"20:28:10:909 (H:m:s:ms)","GENERIC","62.075","0.015291642899327506","1102"
"20:28:16:969 (H:m:s:ms)","GENERIC","62.069","0.017829046503406727","1035"
"20:28:23:30 (H:m:s:ms)","GENERIC","62.093","0.009969530612958773","978"
"20:28:29:90 (H:m:s:ms)","GENERIC","62.061","0.03041752878688848","955"
"20:28:35:151 (H:m:s:ms)","GENERIC","62.045","0.03839170356332644","854"
"20:28:41:212 (H:m:s:ms)","GENERIC","62.087","0.045961940777125496","795"
"20:28:47:272 (H:m:s:ms)","GENERIC","62.149","0.07072155919560127","737"
"20:28:53:333 (H:m:s:ms)","GENERIC","62.075","0.043612392921353466","675"
"20:28:59:393 (H:m:s:ms)","GENERIC","62.135","0.06010407640085644","652"
"20:29:5:454 (H:m:s:ms)","GENERIC","62.029","0.04736067859257044","556"
"20:29:11:515 (H:m:s:ms)","GENERIC","62.097","0.07076502914752388","492"
"20:29:17:575 (H:m:s:ms)","GENERIC","62.195","0.04722193952467567","428"
"20:29:23:636 (H:m:s:ms)","GENERIC","62.099","0.024382019834207624","374"
"20:29:29:696 (H:m:s:ms)","GENERIC","62.085","0.04720569841078501","354"
"20:29:35:757 (H:m:s:ms)","GENERIC","31.031","0.028332034244176556","312"
"20:29:41:818 (H:m:s:ms)","GENERIC","62.089","0.05305346490936178","193"
"20:29:47:878 (H:m:s:ms)","GENERIC","62.053","0.02499999999999999","1132"
"20:29:53:939 (H:m:s:ms)","GENERIC","62.163","0.023633238786583174","1071"
"22:8:25:263 (H:m:s:ms)","AMBULANCE","31.011","0.07100226978096956","744"
"21:20:0:0 (H:m:s:ms)","GENERIC","62.149","0.03863829114510592","1124"
"21:20:6:60 (H:m:s:ms)","GENERIC","62.117","0.02656102311584213","946"
"21:20:7:594 (H:m:s:ms)","OPERA","62.015","0.07542068115883195","414"
"21:20:12:121 (H:m:s:ms)","GENERIC","62.019","0.08473539814878485","898"
"21:20:15:189 (H:m:s:ms)","OPERA","62.015","0.08473539814878485","820"
"21:20:18:181 (H:m:s:ms)","GENERIC","62.087","0.07423934562714649","823"
"21:20:22:784 (H:m:s:ms)","OPERA","62.015","0.05234918020469057","226"
"21:20:24:242 (H:m:s:ms)","GENERIC","62.055","0.050484980153716226","761"
"21:20:30:303 (H:m:s:ms)","GENERIC","62.031","0.011293848786315614","707"
"21:20:30:379 (H:m:s:ms)","OPERA","62.015","0.07182791241681849","641"
"21:20:36:363 (H:m:s:ms)","GENERIC","62.111","0.023809523809523808","639"
"21:20:37:974 (H:m:s:ms)","OPERA","62.015","0.05303800237087928","1036"
"21:20:42:424 (H:m:s:ms)","GENERIC","62.053","0.06358448903947958","582"
"21:20:45:569 (H:m:s:ms)","OPERA","62.015","0.04853096693514366","442"
"21:20:48:484 (H:m:s:ms)","GENERIC","62.107","0.04237103484995998","525"
"21:20:53:164 (H:m:s:ms)","OPERA","62.017","0.07877867100320327","844"
"21:20:54:545 (H:m:s:ms)","GENERIC","62.075","0.07160491886191024","460"
"21:21:0:606 (H:m:s:ms)","GENERIC","62.079","0.01773894413117333","403"
"21:21:0:759 (H:m:s:ms)","OPERA","62.017","0.029443899478944203","259"
"21:21:6:666 (H:m:s:ms)","GENERIC","62.067","0.055226805085936255","338"
"21:32:43:636 (H:m:s:ms)","GENERIC","62.099","0.03726779962499649","373"
"21:32:31:515 (H:m:s:ms)","GENERIC","62.043","0.030669032739246888","493"
"21:32:25:454 (H:m:s:ms)","GENERIC","62.135","0.03839170356332643","550"
"21:32:19:393 (H:m:s:ms)","GENERIC","62.103","0.018408935028645435","643"
"21:32:13:333 (H:m:s:ms)","GENERIC","62.071","0.02426703296426839","670"
"21:32:7:272 (H:m:s:ms)","GENERIC","62.119","0.08461926506802314","732"
"21:32:6:315 (H:m:s:ms)","AMBULANCE","31.019","0.07135068541772521","732"
"21:32:1:212 (H:m:s:ms)","GENERIC","62.069","0.010204081632653048","797"
"21:21:8:354 (H:m:s:ms)","OPERA","62.015","0.0723560080454431","656"
"21:31:55:151 (H:m:s:ms)","GENERIC","62.047","0.0356089876295297","856"
"21:21:12:727 (H:m:s:ms)","GENERIC","62.089","0.0588793405266903","278"
"21:21:15:949 (H:m:s:ms)","OPERA","62.015","0.04280574341069722","1062"
"21:21:18:787 (H:m:s:ms)","GENERIC","62.053","0.029762191303673528","226"
"21:21:23:544 (H:m:s:ms)","OPERA","31.01","0.02950064242204562","464"
"21:21:24:848 (H:m:s:ms)","GENERIC","62.091","0.04698587585323622","158"
"21:21:30:909 (H:m:s:ms)","GENERIC","62.091","0.027068631269729287","1098"
"21:21:31:139 (H:m:s:ms)","OPERA","31.009","0.0755985606651374","877"
"21:32:37:894 (H:m:s:ms)","AMBULANCE","31.014","0.07474279084213498","145"
"21:21:36:969 (H:m:s:ms)","GENERIC","62.077","0.07075129310081966","1038"
"21:32:37:575 (H:m:s:ms)","GENERIC","62.123","0.02395664894066955","429"
"21:21:38:734 (H:m:s:ms)","OPERA","62.017","0.08474206969991996","274"
"21:33:41:52 (H:m:s:ms)","AMBULANCE","31.012","0.04645669566072867","1015"
"21:33:38:181 (H:m:s:ms)","GENERIC","62.113","0.018633899812498245","826"
"21:33:26:60 (H:m:s:ms)","GENERIC","62.087","0.028392881858447516","950"
"21:33:20:0 (H:m:s:ms)","GENERIC","62.039","0.03395769426801528","1040"
"21:33:13:939 (H:m:s:ms)","GENERIC","62.049","0.0634499089571768","1070"
"21:33:9:473 (H:m:s:ms)","AMBULANCE","31.03","0.051975132481698924","575"
"21:33:7:878 (H:m:s:ms)","GENERIC","62.093","0.02124591463996994","1129"
"21:33:1:818 (H:m:s:ms)","GENERIC","62.071","0.047218838104366403","191"
"21:21:43:30 (H:m:s:ms)","GENERIC","62.059","0.08477453246700013","976"
"21:32:55:757 (H:m:s:ms)","GENERIC","62.099","0.024999999999999998","252"
"21:21:46:329 (H:m:s:ms)","OPERA","62.017","0.07441956155845324","679"
"21:32:49:696 (H:m:s:ms)","GENERIC","62.085","0.023769883285299605","345"
"21:21:49:90 (H:m:s:ms)","GENERIC","62.077","0.030164252216847934","951"
"21:21:53:924 (H:m:s:ms)","OPERA","62.017","0.07305813807791052","1089"
"21:21:55:151 (H:m:s:ms)","GENERIC","62.065","0.07280329699103548","856"
"21:22:1:212 (H:m:s:ms)","GENERIC","62.049","0.010505745041823457","796"
"21:22:1:518 (H:m:s:ms)","OPERA","62.019","0.07171030540002162","499"
"21:22:7:272 (H:m:s:ms)","GENERIC","62.105","0.024382019834207624","732"
"21:22:9:113 (H:m:s:ms)","OPERA","62.015","0.033819085008244494","931"
"21:22:13:333 (H:m:s:ms)","GENERIC","62.077","0.04735975016029564","669"
"21:33:32:121 (H:m:s:ms)","GENERIC","62.035","0.047260555336379094","915"
"21:34:38:787 (H:m:s:ms)","GENERIC","62.091","0.0708329092870135","217"
"21:34:32:727 (H:m:s:ms)","GENERIC","62.049","0.01774437795360272","281"
"21:34:26:666 (H:m:s:ms)","GENERIC","62.097","0.031237242293814107","339"
"21:34:20:606 (H:m:s:ms)","GENERIC","62.085","0.015534552264213656","400"
"21:34:14:545 (H:m:s:ms)","GENERIC","62.083","0.07659203727450178","459"
"21:34:12:631 (H:m:s:ms)","AMBULANCE","31.025","0.052266773307791566","390"
"21:34:8:484 (H:m:s:ms)","GENERIC","62.087","0.04305238354486509","523"
"21:34:2:424 (H:m:s:ms)","GENERIC","62.071","0.021576867809990262","585"
"21:22:16:708 (H:m:s:ms)","OPERA","31.01","0.044802808691717814","301"
"21:33:56:363 (H:m:s:ms)","GENERIC","62.053","0.011241810176537291","645"
"21:22:19:393 (H:m:s:ms)","GENERIC","62.091","0.0224819886757114","644"
"21:33:50:303 (H:m:s:ms)","GENERIC","62.057","0.03544541650228429","706"
"21:1:43:30 (H:m:s:ms)","GENERIC","62.059","0.03565482492794939","977"
"21:22:24:303 (H:m:s:ms)","OPERA","62.017","0.04945438779453841","707"
"21:33:44:242 (H:m:s:ms)","GENERIC","62.063","0.05060281729949731","769"
"21:1:49:90 (H:m:s:ms)","GENERIC","62.081","0.026729438237282976","957"
"21:22:25:454 (H:m:s:ms)","GENERIC","62.143","0.05665923451806803","550"
"21:1:55:151 (H:m:s:ms)","GENERIC","62.045","0.01817965896269784","856"
"21:22:31:515 (H:m:s:ms)","GENERIC","62.041","0.022294666496608787","494"
"21:2:1:212 (H:m:s:ms)","GENERIC","62.057","0.020661690542159758","795"
"21:22:31:898 (H:m:s:ms)","OPERA","62.015","0.032992583510134454","120"
"21:2:6:315 (H:m:s:ms)","AMBULANCE","31.022","0.05173118403695915","698"
"21:22:37:575 (H:m:s:ms)","GENERIC","62.123","0.07074313654502272","428"
"21:2:7:272 (H:m:s:ms)","GENERIC","62.081","0.08488666639732703","731"
"21:22:39:493 (H:m:s:ms)","OPERA","62.017","0.07437459959316235","552"
"21:2:13:333 (H:m:s:ms)","GENERIC","62.099","0.018408935028645435","668"
"21:22:43:636 (H:m:s:ms)","GENERIC","62.105","0.05815889126889622","372"
"21:2:19:393 (H:m:s:ms)","GENERIC","62.057","0.03807886552931954","650"
"21:22:47:88 (H:m:s:ms)","OPERA","31.01","0.05470786357280218","920"
"21:2:25:454 (H:m:s:ms)","GENERIC","62.117","0.012797234521108791","550"
"21:2:31:515 (H:m:s:ms)","GENERIC","62.057","0.022294666496608787","493"
"21:35:33:333 (H:m:s:ms)","GENERIC","62.049","0.07100226978096956","671"
"21:35:27:272 (H:m:s:ms)","GENERIC","62.053","0.01078843390499514","736"
"21:35:21:212 (H:m:s:ms)","GENERIC","62.099","0.024995193694082287","795"
"21:35:15:789 (H:m:s:ms)","AMBULANCE","31.011","0.07546295805274156","241"
"21:35:15:151 (H:m:s:ms)","GENERIC","62.113","0.026729438237282976","857"
"21:35:9:90 (H:m:s:ms)","GENERIC","62.063","0.012525529485370637","953"
"21:35:3:30 (H:m:s:ms)","GENERIC","62.121","0.02426703296426839","974"
"21:22:49:696 (H:m:s:ms)","GENERIC","62.081","0.01737634425549429","348"
"21:34:56:969 (H:m:s:ms)","GENERIC","62.113","0.02426703296426839","1032"
"21:22:54:683 (H:m:s:ms)","OPERA","62.017","0.04904835142634988","327"
"21:34:50:909 (H:m:s:ms)","GENERIC","62.103","0.03807886552931954","1092"
"21:2:37:575 (H:m:s:ms)","GENERIC","62.089","0.07100226978096956","428"
"21:22:55:757 (H:m:s:ms)","GENERIC","62.095","0.07116846927562306","248"
"21:34:44:848 (H:m:s:ms)","GENERIC","62.103","0.05255072792041273","199"
"21:2:37:894 (H:m:s:ms)","AMBULANCE","31.05","0.07489422812677074","121"
"21:23:1:818 (H:m:s:ms)","GENERIC","62.093","0.023609419052183202","190"
"21:34:44:210 (H:m:s:ms)","AMBULANCE","31.02","0.04719386903910639","834"
"21:2:43:636 (H:m:s:ms)","GENERIC","62.143","0.03584302194601094","374"
"21:23:2:278 (H:m:s:ms)","OPERA","62.017","0.052705469667872436","732"
"21:2:49:696 (H:m:s:ms)","GENERIC","62.083","0.023769883285299605","350"
"21:23:7:878 (H:m:s:ms)","GENERIC","62.115","0.039528470752104715","1129"
"21:2:55:757 (H:m:s:ms)","GENERIC","62.089","0.05590169943749472","250"
"21:23:9:873 (H:m:s:ms)","OPERA","31.01","0.061402236505693694","170"
"21:3:1:818 (H:m:s:ms)","GENERIC","62.081","0.07072375210935881","190"
"21:23:13:939 (H:m:s:ms)","GENERIC","62.061","0.05502433677949394","1069"
"21:3:7:878 (H:m:s:ms)","GENERIC","62.107","0.04249182927993988","1128"
"21:23:17:468 (H:m:s:ms)","OPERA","62.017","0.05525878446283771","541"
"21:3:9:473 (H:m:s:ms)","AMBULANCE","31.025","0.08239805086321464","578"
"21:23:20:0 (H:m:s:ms)","GENERIC","62.037","0.05905530337301113","1043"
"21:3:13:939 (H:m:s:ms)","GENERIC","62.057","0.07213477045393307","1069"
"21:3:20:0 (H:m:s:ms)","GENERIC","62.059","0.035488755907205446","1052"
"21:36:27:878 (H:m:s:ms)","GENERIC","62.025","0.011319231422671758","1132"
"21:36:21:818 (H:m:s:ms)","GENERIC","62.049","0.05139665875996922","192"
"21:36:18:947 (H:m:s:ms)","AMBULANCE","31.014","0.049149354422069795","1121"
"21:36:15:757 (H:m:s:ms)","GENERIC","62.065","0.012499999999999997","253"
"21:36:9:696 (H:m:s:ms)","GENERIC","62.035","0.02882990521841938","344"
"21:36:3:636 (H:m:s:ms)","GENERIC","62.023","0.01774437795360272","373"
"21:23:25:63 (H:m:s:ms)","OPERA","62.015","0.07888300123496755","944"
"21:35:57:575 (H:m:s:ms)","GENERIC","62.051","0.020408163265306097","434"
"21:23:26:60 (H:m:s:ms)","GENERIC","62.095","0.07603836018545712","950"
"21:35:51:515 (H:m:s:ms)","GENERIC","62.089","0.04070792187377093","493"
"21:3:26:60 (H:m:s:ms)","GENERIC","62.097","0.028392881858447516","949"
"21:23:32:121 (H:m:s:ms)","GENERIC","31.027","0.04244588192701358","940"
"21:35:47:368 (H:m:s:ms)","AMBULANCE","31.014","0.03103711540889074","692"
"21:3:32:121 (H:m:s:ms)","GENERIC","62.095","0.03553167600887972","888"
"21:23:32:658 (H:m:s:ms)","OPERA","62.017","0.08213519648802553","411"
"21:35:45:454 (H:m:s:ms)","GENERIC","62.095","0.01477719435180193","557"
"21:3:38:181 (H:m:s:ms)","GENERIC","62.093","0.03726779962499649","827"
"21:23:38:181 (H:m:s:ms)","GENERIC","62.131","0.053359368645273714","826"
"21:35:39:393 (H:m:s:ms)","GENERIC","62.033","0.02055511505932379","652"
"21:3:41:52 (H:m:s:ms)","AMBULANCE","31.048","0.04412861828810839","959"
"21:23:40:253 (H:m:s:ms)","OPERA","62.015","0.07098737904308577","756"
"21:3:44:242 (H:m:s:ms)","GENERIC","62.073","0.07459547537610393","770"
"21:23:44:242 (H:m:s:ms)","GENERIC","62.069","0.06796366208940045","770"
"21:3:50:303 (H:m:s:ms)","GENERIC","62.095","0.03544541650228429","706"
"21:23:47:848 (H:m:s:ms)","OPERA","31.009","0.08578714000619655","160"
"21:3:56:363 (H:m:s:ms)","GENERIC","62.051","0.03070349860614491","646"
"21:23:50:303 (H:m:s:ms)","GENERIC","62.065","0.07913119934044918","705"
"21:4:2:424 (H:m:s:ms)","GENERIC","62.043","0.021576867809990262","584"
"21:23:55:443 (H:m:s:ms)","OPERA","31.009","0.07913119934044918","571"
"21:4:8:484 (H:m:s:ms)","GENERIC","62.045","0.035714285714285705","625"
"21:4:12:631 (H:m:s:ms)","AMBULANCE","31.046","0.0791904864851618","377"
"21:37:22:424 (H:m:s:ms)","GENERIC","62.167","0.04027938472460159","614"
"21:37:22:105 (H:m:s:ms)","AMBULANCE","31.019","0.019039432764659765","925"
"21:37:16:363 (H:m:s:ms)","GENERIC","62.033","0.01455670566963585","645"
"21:37:10:303 (H:m:s:ms)","GENERIC","62.075","0.05488624600025029","701"
"21:37:4:242 (H:m:s:ms)","GENERIC","62.063","0.03537564655040983","761"
"21:36:58:181 (H:m:s:ms)","GENERIC","62.095","0.03171049598406741","820"
"21:23:56:363 (H:m:s:ms)","GENERIC","62.045","0.07143863674609946","645"
"21:24:2:424 (H:m:s:ms)","GENERIC","62.063","0.020824828195876024","585"
"21:36:52:121 (H:m:s:ms)","GENERIC","62.069","0.05349323321742794","888"
"21:4:14:545 (H:m:s:ms)","GENERIC","62.035","0.09973508314363908","457"
"21:24:3:37 (H:m:s:ms)","OPERA","62.015","0.05139674935084297","974"
"21:36:50:526 (H:m:s:ms)","AMBULANCE","31.011","0.05953982386568283","494"
"21:4:20:606 (H:m:s:ms)","GENERIC","62.049","0.015534552264213656","399"
"21:24:8:484 (H:m:s:ms)","GENERIC","62.067","0.04967019001791411","524"
"21:36:46:60 (H:m:s:ms)","GENERIC","62.093","0.03644344934278312","948"
"21:4:26:666 (H:m:s:ms)","GENERIC","62.083","0.021576867809990262","340"
"21:24:10:632 (H:m:s:ms)","OPERA","62.017","0.04982368354955571","378"
"21:36:40:0 (H:m:s:ms)","GENERIC","62.071","0.04718912576484074","1040"
"21:4:32:727 (H:m:s:ms)","GENERIC","62.047","0.01794301523828171","280"
"21:24:14:545 (H:m:s:ms)","GENERIC","62.061","0.08473386217388752","462"
"21:36:33:939 (H:m:s:ms)","GENERIC","62.115","0.03542021129563926","1067"
"21:4:38:787 (H:m:s:ms)","GENERIC","62.097","0.04732360151430263","217"
"21:24:18:227 (H:m:s:ms)","OPERA","62.015","0.09961894971847024","780"
"21:4:44:210 (H:m:s:ms)","AMBULANCE","31.03","0.08462442384558068","806"
"21:24:20:606 (H:m:s:ms)","GENERIC","62.069","0.08246778445769012","399"
"21:4:44:848 (H:m:s:ms)","GENERIC","62.115","0.07071958542839829","156"
"21:24:25:822 (H:m:s:ms)","OPERA","62.015","0.06358741790467881","189"
"21:4:50:909 (H:m:s:ms)","GENERIC","62.137","0.04123105625617661","1092"
"21:24:26:666 (H:m:s:ms)","GENERIC","62.107","0.05619240086143935","340"
"21:4:56:969 (H:m:s:ms)","GENERIC","62.075","0.018408935028645435","1032"
"21:5:3:30 (H:m:s:ms)","GENERIC","62.123","0.03171049598406741","974"
"21:38:23:30 (H:m:s:ms)","GENERIC","62.059","0.009358247477023131","979"
"21:38:16:969 (H:m:s:ms)","GENERIC","62.113","0.02661766141532046","1032"
"21:38:10:909 (H:m:s:ms)","GENERIC","62.107","0.01953725037586238","1101"
"21:38:4:848 (H:m:s:ms)","GENERIC","62.095","0.01771442148103935","158"
"21:37:58:787 (H:m:s:ms)","GENERIC","62.159","0.08462185304105807","216"
"21:37:53:684 (H:m:s:ms)","AMBULANCE","31.032","0.08463869538099854","326"
"21:37:52:727 (H:m:s:ms)","GENERIC","62.063","0.07074125571062172","279"
"21:24:32:727 (H:m:s:ms)","GENERIC","62.043","0.009358247477023131","280"
"21:24:33:417 (H:m:s:ms)","OPERA","62.017","0.07138262288155098","590"
"21:5:9:90 (H:m:s:ms)","GENERIC","62.061","0.03546829570193639","958"
"21:24:38:787 (H:m:s:ms)","GENERIC","62.107","0.09963551246286874","217"
"21:5:15:151 (H:m:s:ms)","GENERIC","62.087","0.013422586052118666","857"
"21:24:41:12 (H:m:s:ms)","OPERA","62.017","0.08466195508461734","998"
"21:37:46:666 (H:m:s:ms)","GENERIC","62.099","0.024543467119383513","344"
"20:45:33:333 (H:m:s:ms)","GENERIC","62.051","0.07084042259127853","673"
"21:5:15:789 (H:m:s:ms)","AMBULANCE","31.053","0.038371990873166804","327"
"21:24:44:848 (H:m:s:ms)","GENERIC","62.107","0.08464644517171546","161"
"21:37:40:606 (H:m:s:ms)","GENERIC","62.059","0.04244588192701358","401"
"20:45:34:177 (H:m:s:ms)","OPERA","31.01","0.07544559075635271","833"
"21:5:21:212 (H:m:s:ms)","GENERIC","62.051","0.024995193694082287","795"
"21:24:48:607 (H:m:s:ms)","OPERA","62.017","0.08473798428178167","403"
"21:37:34:545 (H:m:s:ms)","GENERIC","62.131","0.02460803843372233","456"
"20:45:39:393 (H:m:s:ms)","GENERIC","62.079","0.07546468594216348","656"
"21:5:27:272 (H:m:s:ms)","GENERIC","62.031","0.030540413172298334","734"
"21:24:50:909 (H:m:s:ms)","GENERIC","62.119","0.05923438330064466","1092"
"21:37:28:484 (H:m:s:ms)","GENERIC","62.179","0.07072426979165268","518"
"20:45:41:772 (H:m:s:ms)","OPERA","31.01","0.07458913265092416","239"
"21:5:33:333 (H:m:s:ms)","GENERIC","31.016","0.04733484652064641","673"
"21:24:56:202 (H:m:s:ms)","OPERA","62.017","0.04311473663581908","807"
"20:45:45:454 (H:m:s:ms)","GENERIC","62.093","0.028064278359728474","558"
"21:5:39:393 (H:m:s:ms)","GENERIC","62.039","0.0707774808526074","653"
"21:24:56:969 (H:m:s:ms)","GENERIC","62.101","0.039607377934772064","1042"
"20:45:49:367 (H:m:s:ms)","OPERA","31.01","0.027788351105468026","684"
"21:5:45:454 (H:m:s:ms)","GENERIC","62.113","0.01477719435180193","557"
"21:25:3:30 (H:m:s:ms)","GENERIC","62.133","0.027487370837451067","975"
"20:45:51:515 (H:m:s:ms)","GENERIC","62.041","0.038512835511849225","493"
"21:5:47:368 (H:m:s:ms)","AMBULANCE","31.031","0.028064278359728474","642"
"20:45:56:962 (H:m:s:ms)","OPERA","31.009","0.04736067859257044","1049"
"21:5:51:515 (H:m:s:ms)","GENERIC","62.051","0.03857937809372671","494"
"20:45:57:575 (H:m:s:ms)","GENERIC","62.027","0.05598652217223468","446"
"20:46:3:636 (H:m:s:ms)","GENERIC","62.061","0.035388740426303696","374"
"21:39:17:575 (H:m:s:ms)","GENERIC","62.121","0.07072426979165268","428"
"21:39:11:515 (H:m:s:ms)","GENERIC","62.131","0.04716083714041448","490"
"21:39:5:454 (H:m:s:ms)","GENERIC","62.073","0.04719560504807475","556"
"21:38:59:393 (H:m:s:ms)","GENERIC","62.083","0.042486553100868345","649"
"21:38:56:842 (H:m:s:ms)","AMBULANCE","31.009","0.07921238837355377","167"
"21:38:53:333 (H:m:s:ms)","GENERIC","31.045","0.07084042259127853","670"
"21:38:47:272 (H:m:s:ms)","GENERIC","62.113","0.023700449273870727","736"
"21:38:41:212 (H:m:s:ms)","GENERIC","62.101","0.022638462845343505","795"
"21:25:3:797 (H:m:s:ms)","OPERA","31.01","0.03369329005325533","217"
"21:25:9:90 (H:m:s:ms)","GENERIC","62.063","0.0356089876295297","952"
"21:5:57:575 (H:m:s:ms)","GENERIC","62.065","0.03061224489795918","432"
"21:25:11:392 (H:m:s:ms)","OPERA","62.017","0.0789804760505965","616"
"21:6:3:636 (H:m:s:ms)","GENERIC","62.045","0.01826927860214305","374"
"21:25:15:151 (H:m:s:ms)","GENERIC","62.095","0.07547903955561103","857"
"20:46:4:556 (H:m:s:ms)","OPERA","31.01","0.04488205733977408","452"
"21:6:9:696 (H:m:s:ms)","GENERIC","62.027","0.042589322787671344","348"
"21:25:18:987 (H:m:s:ms)","OPERA","62.015","0.03610751860427783","1059"
"20:46:9:696 (H:m:s:ms)","GENERIC","62.043","0.039613492886357446","350"
"21:6:15:757 (H:m:s:ms)","GENERIC","62.047","0.027163343355011017","254"
"21:25:21:212 (H:m:s:ms)","GENERIC","62.081","0.028349834690427927","796"
"21:38:35:151 (H:m:s:ms)","GENERIC","62.129","0.03839170356332644","853"
"20:46:12:151 (H:m:s:ms)","OPERA","31.01","0.037311112651682354","858"
"21:6:18:947 (H:m:s:ms)","AMBULANCE","31.02","0.05459696460690673","1100"
"21:25:26:582 (H:m:s:ms)","OPERA","62.015","0.04938761882543576","429"
"21:38:29:90 (H:m:s:ms)","GENERIC","62.045","0.04539818230735405","954"
"20:46:15:757 (H:m:s:ms)","GENERIC","62.037","0.03607150915023045","252"
"21:6:21:818 (H:m:s:ms)","GENERIC","62.063","0.05932357066015433","192"
"21:25:27:272 (H:m:s:ms)","GENERIC","62.053","0.04834183178290067","736"
"21:38:25:263 (H:m:s:ms)","AMBULANCE","31.016","0.035137578520719186","791"
"20:46:19:746 (H:m:s:ms)","OPERA","31.01","0.07563296696260889","301"
"21:6:27:878 (H:m:s:ms)","GENERIC","62.043","0.011319231422671758","1131"
"21:25:33:333 (H:m:s:ms)","GENERIC","62.051","0.04718912576484074","672"
"20:46:21:818 (H:m:s:ms)","GENERIC","62.079","0.08841649321003713","191"
"21:6:33:939 (H:m:s:ms)","GENERIC","62.135","0.03542021129563926","1066"
"21:25:34:177 (H:m:s:ms)","OPERA","31.009","0.06671336027982072","835"
"20:46:27:341 (H:m:s:ms)","OPERA","31.01","0.0710410178888556","667"
"21:6:40:0 (H:m:s:ms)","GENERIC","62.053","0.04733484652064641","1044"
"20:46:27:878 (H:m:s:ms)","GENERIC","62.053","0.0718425183505693","1143"
"21:6:46:60 (H:m:s:ms)","GENERIC","62.029","0.0441941738241592","949"
"20:46:33:939 (H:m:s:ms)","GENERIC","62.105","0.011978324470334771","1069"
"20:46:34:936 (H:m:s:ms)","OPERA","31.009","0.027202098186969424","84"
"21:39:35:757 (H:m:s:ms)","GENERIC","62.067","0.04733484652064641","248"
"21:40:12:121 (H:m:s:ms)","GENERIC","62.017","0.07100226978096956","1106"
"21:40:6:60 (H:m:s:ms)","GENERIC","62.137","0.017943015238281703","946"
"21:40:0:0 (H:m:s:ms)","GENERIC","62.171","0.03941641925255764","1176"
"21:40:0:0 (H:m:s:ms)","GENERIC","62.041","0.029038285288781596","1172"
"21:40:0:0 (H:m:s:ms)","AMBULANCE","31.016","0.027443123000125164","1162"
"21:39:53:939 (H:m:s:ms)","GENERIC","62.101","0.035397378716341424","1069"
"21:39:47:878 (H:m:s:ms)","GENERIC","62.043","0.02795084971874734","1130"
"21:39:41:818 (H:m:s:ms)","GENERIC","62.047","0.04260136186858169","188"
"21:6:50:526 (H:m:s:ms)","AMBULANCE","31.026","0.05682547932934744","579"
"21:6:52:121 (H:m:s:ms)","GENERIC","62.023","0.07912238505944236","887"
"20:46:40:0 (H:m:s:ms)","GENERIC","62.035","0.01420045395619389","1105"
"21:6:58:181 (H:m:s:ms)","GENERIC","62.077","0.03171049598406741","821"
"20:46:42:531 (H:m:s:ms)","OPERA","31.01","0.07212589021956314","477"
"21:7:4:242 (H:m:s:ms)","GENERIC","62.063","0.07080202906510312","762"
"20:46:46:60 (H:m:s:ms)","GENERIC","62.023","0.07297717535251282","946"
"21:7:10:303 (H:m:s:ms)","GENERIC","62.113","0.0679153885360305","701"
"20:46:50:126 (H:m:s:ms)","OPERA","31.009","0.07287149569590166","883"
"21:7:16:363 (H:m:s:ms)","GENERIC","62.037","0.02833680327750643","646"
"21:39:29:696 (H:m:s:ms)","GENERIC","62.111","0.023602849205392504","348"
"20:46:52:121 (H:m:s:ms)","GENERIC","62.023","0.09974584684914685","888"
"21:7:22:105 (H:m:s:ms)","AMBULANCE","31.045","0.047634529964164944","906"
"21:39:23:636 (H:m:s:ms)","GENERIC","62.077","0.04755154632461873","372"
"20:46:57:721 (H:m:s:ms)","OPERA","31.009","0.09995117121337094","288"
"21:7:22:424 (H:m:s:ms)","GENERIC","62.115","0.059120763389791976","594"
"20:46:58:181 (H:m:s:ms)","GENERIC","62.083","0.0793432016941156","821"
"21:7:28:484 (H:m:s:ms)","GENERIC","62.121","0.07072426979165268","517"
"20:47:4:242 (H:m:s:ms)","GENERIC","62.065","0.03553768872247755","762"
"21:7:34:545 (H:m:s:ms)","GENERIC","62.123","0.04123105625617661","456"
"20:47:5:316 (H:m:s:ms)","OPERA","31.009","0.04268639304569721","693"
"20:47:10:303 (H:m:s:ms)","GENERIC","62.127","0.06004683276261019","701"
"21:7:40:606 (H:m:s:ms)","GENERIC","62.035","0.04260136186858169","400"
"21:7:46:666 (H:m:s:ms)","GENERIC","62.083","0.023809523809523808","335"
"20:47:12:911 (H:m:s:ms)","OPERA","31.009","0.08953433160299609","99"
"21:7:52:727 (H:m:s:ms)","GENERIC","62.065","0.0708329092870135","279"
"20:47:16:363 (H:m:s:ms)","GENERIC","62.073","0.08238020718716633","643"
"21:7:53:684 (H:m:s:ms)","AMBULANCE","31.032","0.08496137007820946","325"
"20:47:20:506 (H:m:s:ms)","OPERA","31.01","0.04907376367787302","504"
"21:7:58:787 (H:m:s:ms)","GENERIC","62.141","0.08487036623911118","216"
"20:47:22:424 (H:m:s:ms)","GENERIC","62.103","0.05841409560803251","582"
"21:8:4:848 (H:m:s:ms)","GENERIC","62.111","0.017824222665564788","158"
"20:47:28:101 (H:m:s:ms)","OPERA","31.01","0.024007648991146366","908"
"21:8:10:909 (H:m:s:ms)","GENERIC","62.073","0.021638145543473757","1100"
"20:47:28:484 (H:m:s:ms)","GENERIC","62.105","0.07446134389037445","527"
"21:8:16:969 (H:m:s:ms)","GENERIC","62.073","0.008914523251703364","1034"
"21:40:18:181 (H:m:s:ms)","GENERIC","62.087","0.05488624600025032","823"
"20:47:34:545 (H:m:s:ms)","GENERIC","62.101","0.0360555127546399","456"
"21:8:23:30 (H:m:s:ms)","GENERIC","62.079","0.026694134109223475","977"
"20:47:35:696 (H:m:s:ms)","OPERA","31.009","0.05923438330064466","314"
"21:8:25:263 (H:m:s:ms)","AMBULANCE","31.017","0.03550446920116203","748"
"20:47:40:606 (H:m:s:ms)","GENERIC","62.037","0.06338099406475524","400"
"20:47:43:291 (H:m:s:ms)","OPERA","31.009","0.04853096693514366","719"
"21:8:29:90 (H:m:s:ms)","GENERIC","62.027","0.0310811800662628","954"
"21:8:35:151 (H:m:s:ms)","GENERIC","62.109","0.015521910488577725","853"
"20:47:46:666 (H:m:s:ms)","GENERIC","62.109","0.05258773254277561","335"
"21:8:41:212 (H:m:s:ms)","GENERIC","62.119","0.05488624600025029","796"
"20:47:50:886 (H:m:s:ms)","OPERA","31.01","0.05421797441218709","122"
"21:8:47:272 (H:m:s:ms)","GENERIC","62.119","0.047287129726117795","736"
"20:30:0:0 (H:m:s:ms)","GENERIC","62.075","0.026840753306535244","1050"
"20:47:52:727 (H:m:s:ms)","GENERIC","62.067","0.07553428738336741","280"
"21:8:53:333 (H:m:s:ms)","GENERIC","62.081","0.04255981518381768","674"
"20:30:0:0 (H:m:s:ms)","GENERIC","62.115","0.0282923105200036","1055"
"20:47:58:481 (H:m:s:ms)","OPERA","31.01","0.07885086874598643","531"
"21:8:56:842 (H:m:s:ms)","AMBULANCE","31.019","0.0821935493823014","256"
"20:30:6:60 (H:m:s:ms)","GENERIC","62.041","0.017744377953602716","946"
"20:47:58:787 (H:m:s:ms)","GENERIC","62.113","0.03553768872247755","216"
"21:8:59:393 (H:m:s:ms)","GENERIC","62.115","0.08420507914708009","651"
"20:30:12:121 (H:m:s:ms)","GENERIC","62.083","0.07089971635974941","890"
"20:48:4:848 (H:m:s:ms)","GENERIC","62.077","0.018005736743359757","158"
"21:9:5:454 (H:m:s:ms)","GENERIC","62.043","0.07074745870793969","553"
"20:30:18:181 (H:m:s:ms)","GENERIC","62.049","0.04596194077712552","823"
"20:48:6:75 (H:m:s:ms)","OPERA","31.01","0.029863705885855345","936"
"21:9:11:515 (H:m:s:ms)","GENERIC","62.111","0.07076502914752388","491"
"20:30:24:242 (H:m:s:ms)","GENERIC","62.091","0.035682541972971764","762"
"20:48:10:909 (H:m:s:ms)","GENERIC","62.047","0.037701793987700793","1100"
"21:9:17:575 (H:m:s:ms)","GENERIC","62.123","0.023610969762337834","428"
"20:30:30:303 (H:m:s:ms)","GENERIC","62.075","0.021576867809990262","709"
"20:48:13:670 (H:m:s:ms)","OPERA","31.009","0.07632550987874721","338"
"20:30:36:363 (H:m:s:ms)","GENERIC","62.093","0.047260555336379066","640"
"20:48:16:969 (H:m:s:ms)","GENERIC","62.047","0.07278542749155961","1033"
"20:30:42:424 (H:m:s:ms)","GENERIC","62.079","0.016677080080157898","630"
"20:30:48:484 (H:m:s:ms)","GENERIC","62.075","0.07072083405093242","526"
"21:9:23:636 (H:m:s:ms)","GENERIC","62.077","0.023661800757151314","372"
"21:9:28:421 (H:m:s:ms)","AMBULANCE","31.046","0.052973531747782826","623"
"20:48:21:265 (H:m:s:ms)","OPERA","31.01","0.02566141083898523","744"
"21:9:29:696 (H:m:s:ms)","GENERIC","62.081","0.0667247333503235","350"
"20:48:23:30 (H:m:s:ms)","GENERIC","62.087","0.021045384987405318","978"
"21:9:35:757 (H:m:s:ms)","GENERIC","62.043","0.02443108408575319","247"
"20:30:54:545 (H:m:s:ms)","GENERIC","62.143","0.021044844678170985","461"
"20:48:28:860 (H:m:s:ms)","OPERA","31.01","0.020424031104842515","148"
"21:9:41:818 (H:m:s:ms)","GENERIC","62.047","0.014373989364401698","189"
"20:31:0:606 (H:m:s:ms)","GENERIC","62.041","0.01822172467139156","406"
"20:48:29:90 (H:m:s:ms)","GENERIC","62.029","0.02085214970600754","958"
"21:9:47:878 (H:m:s:ms)","GENERIC","62.039","0.02499999999999999","1130"
"20:31:6:666 (H:m:s:ms)","GENERIC","62.083","0.03807886552931952","340"
"20:48:35:151 (H:m:s:ms)","GENERIC","62.069","0.036770107646382125","853"
"21:9:53:939 (H:m:s:ms)","GENERIC","62.139","0.023821276949566875","1069"
"20:31:12:727 (H:m:s:ms)","GENERIC","62.105","0.035391844323630524","280"
"20:48:36:455 (H:m:s:ms)","OPERA","31.01","0.04409903631854144","555"
"21:10:0:0 (H:m:s:ms)","AMBULANCE","31.033","0.04719560504807475","1051"
"20:31:18:787 (H:m:s:ms)","GENERIC","62.043","0.026751168198790837","223"
"20:48:41:212 (H:m:s:ms)","GENERIC","62.115","0.04126201887203959","795"
"21:10:0:0 (H:m:s:ms)","GENERIC","62.071","0.0486410674188355","1060"
"20:31:24:848 (H:m:s:ms)","GENERIC","62.025","0.032515476866065866","159"
"20:48:44:50 (H:m:s:ms)","OPERA","31.009","0.07804580086229532","958"
"21:10:0:0 (H:m:s:ms)","GENERIC","62.135","0.05566989333668605","1064"
"20:31:30:909 (H:m:s:ms)","GENERIC","62.077","0.014016711285685823","1101"
"20:48:47:272 (H:m:s:ms)","GENERIC","62.135","0.074354355661461","736"
"20:31:36:969 (H:m:s:ms)","GENERIC","62.063","0.07080202906510312","1039"
"20:48:51:645 (H:m:s:ms)","OPERA","31.01","0.07463296312888804","362"
"20:31:43:30 (H:m:s:ms)","GENERIC","62.031","0.0353887404263037","978"
"20:31:49:90 (H:m:s:ms)","GENERIC","62.099","0.013422586052118666","953"
"20:48:53:333 (H:m:s:ms)","GENERIC","62.113","0.08264769003020378","675"
"20:48:59:240 (H:m:s:ms)","OPERA","31.01","0.02667968432263685","808"
"20:31:55:151 (H:m:s:ms)","GENERIC","62.039","0.03546829570193639","858"
"20:48:59:393 (H:m:s:ms)","GENERIC","62.133","0.034842418224688525","663"
"20:32:1:212 (H:m:s:ms)","GENERIC","62.069","0.01099013225945816","796"
"20:49:5:454 (H:m:s:ms)","GENERIC","62.055","0.047634529964164944","554"
"20:32:7:272 (H:m:s:ms)","GENERIC","62.043","0.023661800757151314","733"
"20:49:6:835 (H:m:s:ms)","OPERA","31.009","0.05459696460690673","173"
"20:32:13:333 (H:m:s:ms)","GENERIC","62.105","0.04123105625617661","668"
"20:49:11:515 (H:m:s:ms)","GENERIC","62.093","0.07554685755360063","492"
"20:32:19:393 (H:m:s:ms)","GENERIC","62.075","0.018408935028645435","645"
"20:49:17:575 (H:m:s:ms)","GENERIC","62.159","0.023610969762337834","428"
"20:32:25:454 (H:m:s:ms)","GENERIC","62.065","0.012797234521108791","551"
"20:49:22:25 (H:m:s:ms)","OPERA","31.01","0.05270614101544053","986"
"20:32:31:515 (H:m:s:ms)","GENERIC","62.069","0.03173730038657453","494"
"20:49:23:636 (H:m:s:ms)","GENERIC","62.095","0.06651688740642445","372"
"20:32:37:575 (H:m:s:ms)","GENERIC","62.075","0.07072738471738016","438"
"20:49:29:620 (H:m:s:ms)","OPERA","31.01","0.0710410178888556","427"
"20:32:43:636 (H:m:s:ms)","GENERIC","62.095","0.05590169943749472","373"
"20:32:49:696 (H:m:s:ms)","GENERIC","62.085","0.02531050608198983","349"
"20:49:29:696 (H:m:s:ms)","GENERIC","62.085","0.09973556819160505","362"
"20:49:35:757 (H:m:s:ms)","GENERIC","62.021","0.04757672263062906","266"
"20:32:55:757 (H:m:s:ms)","GENERIC","62.077","0.03726779962499649","252"
"20:49:37:215 (H:m:s:ms)","OPERA","31.01","0.05067057786302982","794"
"20:33:1:818 (H:m:s:ms)","GENERIC","62.097","0.04716006079987872","192"
"20:49:41:818 (H:m:s:ms)","GENERIC","62.083","0.02303858752509613","191"
"20:33:7:878 (H:m:s:ms)","GENERIC","62.077","0.054326686710021985","1131"
"20:49:47:878 (H:m:s:ms)","GENERIC","62.039","0.02499999999999999","1131"
"20:33:13:939 (H:m:s:ms)","GENERIC","62.029","0.028753604641730015","1071"
"20:49:52:405 (H:m:s:ms)","OPERA","31.01","0.07512742445116713","603"
"20:33:20:0 (H:m:s:ms)","GENERIC","62.093","0.03395769426801528","1046"
"20:49:53:939 (H:m:s:ms)","GENERIC","62.175","0.0747981702185537","1070"
"20:33:26:60 (H:m:s:ms)","GENERIC","62.103","0.042444539519906836","949"
"20:50:0:0 (H:m:s:ms)","OPERA","31.009","0.024007648991146366","1051"
"20:33:32:121 (H:m:s:ms)","GENERIC","62.069","0.01776583800443986","889"
"20:50:0:0 (H:m:s:ms)","GENERIC","62.073","0.03654180372698366","1061"
"20:33:38:181 (H:m:s:ms)","GENERIC","62.055","0.05590169943749472","828"
"20:50:0:0 (H:m:s:ms)","GENERIC","62.115","0.037822700490078964","1065"
"20:33:44:242 (H:m:s:ms)","GENERIC","62.085","0.02748737083745107","770"
"20:33:50:303 (H:m:s:ms)","GENERIC","62.135","0.035714285714285705","705"
"20:50:6:60 (H:m:s:ms)","GENERIC","62.079","0.009969530612958771","946"
"20:50:12:121 (H:m:s:ms)","GENERIC","62.059","0.03061224489795918","888"
"20:33:56:363 (H:m:s:ms)","GENERIC","62.055","0.020796652255228216","646"
"20:50:18:181 (H:m:s:ms)","GENERIC","62.043","0.06010407640085647","823"
"20:34:2:424 (H:m:s:ms)","GENERIC","62.057","0.010412414097938012","585"
"20:50:24:242 (H:m:s:ms)","GENERIC","62.079","0.05305735240876697","761"
"20:10:0:0 (H:m:s:ms)","GENERIC","31.029","0.029305875563793556","1011"
"20:34:8:484 (H:m:s:ms)","GENERIC","62.049","0.023809523809523822","519"
"20:50:30:303 (H:m:s:ms)","GENERIC","62.043","0.020360275448198843","707"
"20:10:0:0 (H:m:s:ms)","GENERIC","62.131","0.0394202144962428","1054"
"20:34:14:545 (H:m:s:ms)","GENERIC","62.087","0.07072083405093242","458"
"20:50:36:363 (H:m:s:ms)","GENERIC","62.105","0.047260555336379066","642"
"20:10:6:60 (H:m:s:ms)","GENERIC","62.059","0.017943015238281703","946"
"20:34:20:606 (H:m:s:ms)","GENERIC","62.053","0.028607087808984025","400"
"20:50:42:424 (H:m:s:ms)","GENERIC","62.053","0.04244588192701358","583"
"20:10:12:121 (H:m:s:ms)","GENERIC","62.073","0.035731915424350266","889"
"20:34:26:666 (H:m:s:ms)","GENERIC","62.061","0.020824828195876024","342"
"20:50:48:484 (H:m:s:ms)","GENERIC","62.071","0.03553768872247755","525"
"20:10:18:181 (H:m:s:ms)","GENERIC","62.079","0.04527692569068704","823"
"20:34:32:727 (H:m:s:ms)","GENERIC","62.069","0.008971507619140855","281"
"20:50:54:545 (H:m:s:ms)","GENERIC","62.105","0.030872148761642706","462"
"20:10:24:242 (H:m:s:ms)","GENERIC","62.067","0.01832331306431488","761"
"20:34:38:787 (H:m:s:ms)","GENERIC","62.093","0.04716083714041448","218"
"20:51:0:606 (H:m:s:ms)","GENERIC","62.049","0.03547788826234666","404"
"20:10:30:303 (H:m:s:ms)","GENERIC","62.077","0.012626906806902613","708"
"20:34:44:848 (H:m:s:ms)","GENERIC","62.113","0.02359693451955318","157"
"20:10:36:363 (H:m:s:ms)","GENERIC","62.079","0.07071958542839829","637"
"20:34:50:909 (H:m:s:ms)","GENERIC","62.081","0.02426703296426839","1095"
"20:10:42:424 (H:m:s:ms)","GENERIC","62.075","0.03171049598406741","584"
"20:10:48:484 (H:m:s:ms)","GENERIC","62.069","0.04245094186987275","522"
"20:51:6:666 (H:m:s:ms)","GENERIC","62.067","0.053445723051522044","337"
"20:51:12:727 (H:m:s:ms)","GENERIC","62.105","0.017750567445242386","279"
"20:34:56:969 (H:m:s:ms)","GENERIC","62.027","0.02460803843372233","1032"
"20:51:18:787 (H:m:s:ms)","GENERIC","62.053","0.008917056066263621","223"
"20:35:3:30 (H:m:s:ms)","GENERIC","62.069","0.03171049598406741","975"
"20:51:24:848 (H:m:s:ms)","GENERIC","62.045","0.036770107646382125","159"
"20:10:54:545 (H:m:s:ms)","GENERIC","62.121","0.02058143250776173","461"
"20:35:9:90 (H:m:s:ms)","GENERIC","62.023","0.035383612025908256","955"
"20:51:30:909 (H:m:s:ms)","GENERIC","62.091","0.020756762639348947","1100"
"20:11:0:606 (H:m:s:ms)","GENERIC","62.057","0.053216832393519944","403"
"20:35:15:151 (H:m:s:ms)","GENERIC","62.141","0.011111996846782421","858"
"20:51:36:969 (H:m:s:ms)","GENERIC","62.077","0.04245094186987275","1036"
"20:11:6:666 (H:m:s:ms)","GENERIC","62.105","0.018879759333741513","339"
"20:35:21:212 (H:m:s:ms)","GENERIC","62.067","0.036320850103613134","796"
"20:51:43:30 (H:m:s:ms)","GENERIC","62.041","0.03565482492794939","977"
"20:11:12:727 (H:m:s:ms)","GENERIC","62.101","0.053130316943458815","279"
"20:35:27:272 (H:m:s:ms)","GENERIC","62.029","0.010412414097938022","737"
"20:51:49:90 (H:m:s:ms)","GENERIC","62.087","0.02837544389655482","955"
"20:11:18:787 (H:m:s:ms)","GENERIC","62.023","0.026542680514388278","221"
"20:35:33:333 (H:m:s:ms)","GENERIC","62.065","0.07100226978096956","673"
"20:51:55:151 (H:m:s:ms)","GENERIC","62.033","0.05320244355290457","856"
"20:11:24:848 (H:m:s:ms)","GENERIC","62.039","0.04072055089639774","158"
"20:35:39:393 (H:m:s:ms)","GENERIC","62.097","0.07072738471738016","650"
"20:52:1:212 (H:m:s:ms)","GENERIC","62.073","0.01099013225945816","795"
"20:11:30:909 (H:m:s:ms)","GENERIC","62.063","0.03113514395902337","1098"
"20:35:45:454 (H:m:s:ms)","GENERIC","62.083","0.028365319815361324","559"
"20:11:36:969 (H:m:s:ms)","GENERIC","62.101","0.07075129310081966","1038"
"20:35:51:515 (H:m:s:ms)","GENERIC","62.043","0.03033891581085409","494"
"20:11:43:30 (H:m:s:ms)","GENERIC","62.057","0.0353887404263037","977"
"20:11:49:90 (H:m:s:ms)","GENERIC","62.125","0.027358298081622368","953"
"20:0:54:545 (H:m:s:ms)","GENERIC","31.056","0.030872148761642706","463"
"20:1:0:606 (H:m:s:ms)","GENERIC","31.027","0.053216832393519944","408"
"20:1:6:666 (H:m:s:ms)","GENERIC","31.048","0.055226805085936255","342"
"20:1:12:727 (H:m:s:ms)","GENERIC","31.051","0.017967486705502148","281"
"20:1:18:787 (H:m:s:ms)","GENERIC","31.018","0.009519716382329879","226"
"20:1:24:848 (H:m:s:ms)","GENERIC","31.021","0.03104382097715545","161"
"20:1:30:909 (H:m:s:ms)","GENERIC","31.03","0.027068631269729287","1100"
"20:1:36:969 (H:m:s:ms)","GENERIC","31.061","0.07080202906510312","1039"
"20:1:43:30 (H:m:s:ms)","GENERIC","31.028","0.07074630062878269","978"
"20:1:49:90 (H:m:s:ms)","GENERIC","31.053","0.026729438237282976","930"
"20:35:57:575 (H:m:s:ms)","GENERIC","31.019","0.030441701816686317","437"
"20:36:3:636 (H:m:s:ms)","GENERIC","62.061","0.053233133860808114","373"
"20:11:55:151 (H:m:s:ms)","GENERIC","62.075","0.05320244355290457","856"
"20:36:9:696 (H:m:s:ms)","GENERIC","62.055","0.015204059816478183","345"
"20:12:1:212 (H:m:s:ms)","GENERIC","62.035","0.03061224489795918","796"
"20:36:15:757 (H:m:s:ms)","GENERIC","62.045","0.010622957319984968","253"
"20:12:7:272 (H:m:s:ms)","GENERIC","62.059","0.07098540227145393","731"
"20:36:21:818 (H:m:s:ms)","GENERIC","62.099","0.03644344934278312","191"
"20:12:13:333 (H:m:s:ms)","GENERIC","62.129","0.018408935028645435","668"
"20:36:27:878 (H:m:s:ms)","GENERIC","62.069","0.01001734606680942","1133"
"20:12:19:393 (H:m:s:ms)","GENERIC","62.095","0.0360555127546399","650"
"20:36:33:939 (H:m:s:ms)","GENERIC","62.091","0.023956648940669543","1068"
"20:12:25:454 (H:m:s:ms)","GENERIC","62.033","0.031043820977155457","551"
"20:36:40:0 (H:m:s:ms)","GENERIC","62.039","0.03807886552931952","1045"
"20:12:31:515 (H:m:s:ms)","GENERIC","62.083","0.022294666496608787","495"
"20:36:46:60 (H:m:s:ms)","GENERIC","62.043","0.07288689868556623","949"
"20:12:37:575 (H:m:s:ms)","GENERIC","62.057","0.012215542042876592","435"
"20:36:52:121 (H:m:s:ms)","GENERIC","62.035","0.023809523809523808","889"
"20:12:43:636 (H:m:s:ms)","GENERIC","62.101","0.053359368645273714","374"
"20:12:49:696 (H:m:s:ms)","GENERIC","62.077","0.03653855720428611","352"
"20:1:55:151 (H:m:s:ms)","GENERIC","31.042","0.01817965896269784","861"
"20:2:1:212 (H:m:s:ms)","GENERIC","31.014","0.01099013225945816","799"
"20:2:7:272 (H:m:s:ms)","GENERIC","31.038","0.0708329092870135","733"
"20:2:13:333 (H:m:s:ms)","GENERIC","31.066","0.018408935028645435","669"
"20:2:19:393 (H:m:s:ms)","GENERIC","31.059","0.02426703296426839","626"
"20:2:25:454 (H:m:s:ms)","GENERIC","31.017","0.025643641938735737","551"
"20:2:31:515 (H:m:s:ms)","GENERIC","31.048","0.013817731550997046","495"
"20:2:37:575 (H:m:s:ms)","GENERIC","31.023","0.015227084274425595","435"
"20:2:43:636 (H:m:s:ms)","GENERIC","31.061","0.053359368645273714","374"
"20:2:49:696 (H:m:s:ms)","GENERIC","31.041","0.03548875590720545","328"
"20:36:58:181 (H:m:s:ms)","GENERIC","62.091","0.03171049598406741","820"
"20:37:4:242 (H:m:s:ms)","GENERIC","62.073","0.07079080355865955","760"
"20:12:55:757 (H:m:s:ms)","GENERIC","62.073","0.03584302194601094","253"
"20:37:10:303 (H:m:s:ms)","GENERIC","62.115","0.05522680508593621","702"
"20:13:1:818 (H:m:s:ms)","GENERIC","62.097","0.02372660964528429","191"
"20:37:16:363 (H:m:s:ms)","GENERIC","62.089","0.028753604641730015","646"
"20:13:7:878 (H:m:s:ms)","GENERIC","62.093","0.054326686710021985","1131"
"20:37:22:424 (H:m:s:ms)","GENERIC","62.119","0.035391844323630524","582"
"20:13:13:939 (H:m:s:ms)","GENERIC","62.055","0.015058877112617665","1072"
"20:37:28:484 (H:m:s:ms)","GENERIC","62.105","0.04722193952467567","518"
"20:13:20:0 (H:m:s:ms)","GENERIC","62.091","0.03565482492794939","1049"
"20:37:34:545 (H:m:s:ms)","GENERIC","62.087","0.018408935028645435","457"
"20:13:26:60 (H:m:s:ms)","GENERIC","62.113","0.042444539519906836","949"
"20:37:40:606 (H:m:s:ms)","GENERIC","62.037","0.02854603357837737","400"
"20:13:32:121 (H:m:s:ms)","GENERIC","62.049","0.01776583800443986","888"
"20:37:46:666 (H:m:s:ms)","GENERIC","62.119","0.02359693451955318","335"
"20:13:38:181 (H:m:s:ms)","GENERIC","62.087","0.03584302194601094","828"
"20:37:52:727 (H:m:s:ms)","GENERIC","62.073","0.07074125571062172","283"
"20:13:44:242 (H:m:s:ms)","GENERIC","62.111","0.0253859103528797","771"
"20:13:50:303 (H:m:s:ms)","GENERIC","62.105","0.030540413172298334","705"
"20:2:55:757 (H:m:s:ms)","GENERIC","31.04","0.018633899812498245","253"
"20:3:1:818 (H:m:s:ms)","GENERIC","31.053","0.04731663802571503","192"
"20:3:7:878 (H:m:s:ms)","GENERIC","31.054","0.04249182927993988","130"
"20:3:13:939 (H:m:s:ms)","GENERIC","31.026","0.015058877112617665","1071"
"20:3:20:0 (H:m:s:ms)","GENERIC","31.048","0.035488755907205446","1009"
"20:3:26:60 (H:m:s:ms)","GENERIC","31.051","0.042589322787671295","950"
"20:3:32:121 (H:m:s:ms)","GENERIC","31.031","0.05315072906367316","889"
"20:3:38:181 (H:m:s:ms)","GENERIC","31.059","0.039528470752104736","828"
"20:3:44:242 (H:m:s:ms)","GENERIC","31.057","0.049216076867444676","772"
"20:3:50:303 (H:m:s:ms)","GENERIC","31.046","0.0711153848276424","706"
"20:37:58:787 (H:m:s:ms)","GENERIC","62.101","0.03553768872247755","216"
"20:38:4:848 (H:m:s:ms)","GENERIC","62.069","0.009477951027050933","159"
"20:13:56:363 (H:m:s:ms)","GENERIC","62.087","0.030482519656215443","646"
"20:38:10:909 (H:m:s:ms)","GENERIC","62.059","0.015291642899327506","1102"
"20:14:2:424 (H:m:s:ms)","GENERIC","62.069","0.020360275448198843","585"
"20:38:16:969 (H:m:s:ms)","GENERIC","62.055","0.02674356975511009","1033"
"20:14:8:484 (H:m:s:ms)","GENERIC","62.073","0.07074630062878269","519"
"20:38:23:30 (H:m:s:ms)","GENERIC","62.087","0.026914522857422542","978"
"20:14:14:545 (H:m:s:ms)","GENERIC","62.081","0.03553768872247755","456"
"20:38:29:90 (H:m:s:ms)","GENERIC","62.043","0.030332853881218938","952"
"20:14:20:606 (H:m:s:ms)","GENERIC","62.077","0.014777194351801907","400"
"20:38:35:151 (H:m:s:ms)","GENERIC","62.055","0.036770107646382125","854"
"20:14:26:666 (H:m:s:ms)","GENERIC","62.053","0.031237242293814107","339"
"20:38:41:212 (H:m:s:ms)","GENERIC","62.105","0.05488624600025029","795"
"20:14:32:727 (H:m:s:ms)","GENERIC","62.065","0.01794301523828171","281"
"20:38:47:272 (H:m:s:ms)","GENERIC","62.137","0.023700449273870727","736"
"20:14:38:787 (H:m:s:ms)","GENERIC","62.113","0.023934422775948438","217"
"20:38:53:333 (H:m:s:ms)","GENERIC","62.093","0.04295755432892909","675"
"20:14:44:848 (H:m:s:ms)","GENERIC","62.101","0.07071958542839829","153"
"20:14:50:909 (H:m:s:ms)","GENERIC","62.049","0.02460803843372233","1094"
"20:3:56:363 (H:m:s:ms)","GENERIC","31.051","0.01023449953538163","646"
"20:4:2:424 (H:m:s:ms)","GENERIC","31.039","0.020360275448198843","586"
"20:4:8:484 (H:m:s:ms)","GENERIC","31.032","0.047153811992104624","520"
"20:4:14:545 (H:m:s:ms)","GENERIC","31.041","0.03537564655040983","458"
"20:4:20:606 (H:m:s:ms)","GENERIC","31.043","0.028607087808984025","401"
"20:4:26:666 (H:m:s:ms)","GENERIC","31.025","0.020824828195876024","342"
"20:4:32:727 (H:m:s:ms)","GENERIC","31.03","0.01794301523828171","281"
"20:4:38:787 (H:m:s:ms)","GENERIC","31.068","0.04722193952467567","218"
"20:4:44:848 (H:m:s:ms)","GENERIC","31.052","0.0471538119921046","156"
"20:4:50:909 (H:m:s:ms)","GENERIC","31.02","0.013743685418725534","1094"
"20:38:59:393 (H:m:s:ms)","GENERIC","62.145","0.03807886552931951","648"
"20:39:5:454 (H:m:s:ms)","GENERIC","62.045","0.02368033929628522","556"
"20:14:56:969 (H:m:s:ms)","GENERIC","62.019","0.02426703296426839","1032"
"20:39:11:515 (H:m:s:ms)","GENERIC","62.093","0.07072426979165268","492"
"20:15:3:30 (H:m:s:ms)","GENERIC","62.107","0.0360555127546399","974"
"20:39:17:575 (H:m:s:ms)","GENERIC","62.179","0.023732781248843537","428"
"20:15:9:90 (H:m:s:ms)","GENERIC","62.041","0.012119772641798573","957"
"20:39:23:636 (H:m:s:ms)","GENERIC","62.099","0.04732360151430263","373"
"20:15:15:151 (H:m:s:ms)","GENERIC","62.099","0.01799549578313211","857"
"20:39:29:696 (H:m:s:ms)","GENERIC","62.089","0.023700449273870727","349"
"20:15:21:212 (H:m:s:ms)","GENERIC","62.105","0.0355991718732653","795"
"20:39:35:757 (H:m:s:ms)","GENERIC","62.039","0.07079080355865953","287"
"20:15:27:272 (H:m:s:ms)","GENERIC","62.075","0.02055511505932379","737"
"20:39:41:818 (H:m:s:ms)","GENERIC","62.081","0.03547788826234666","192"
"20:15:33:333 (H:m:s:ms)","GENERIC","62.043","0.0707557598434248","675"
"20:39:47:878 (H:m:s:ms)","GENERIC","62.043","0.019764235376052364","1131"
"20:15:39:393 (H:m:s:ms)","GENERIC","62.073","0.07072738471738016","652"
"20:39:53:939 (H:m:s:ms)","GENERIC","62.181","0.011910638474783438","1070"
"20:15:45:454 (H:m:s:ms)","GENERIC","62.063","0.028607087808984074","558"
"20:15:51:515 (H:m:s:ms)","GENERIC","62.033","0.020408163265306097","495"
"20:4:56:969 (H:m:s:ms)","GENERIC","31.021","0.04123105625617661","1033"
"20:5:3:30 (H:m:s:ms)","GENERIC","31.057","0.03171049598406741","975"
"20:5:9:90 (H:m:s:ms)","GENERIC","31.027","0.023739325086353166","943"
"20:5:15:151 (H:m:s:ms)","GENERIC","31.046","0.02837544389655482","859"
"20:5:21:212 (H:m:s:ms)","GENERIC","31.053","0.0355991718732653","796"
"20:5:27:272 (H:m:s:ms)","GENERIC","31.044","0.030540413172298334","734"
"20:5:33:333 (H:m:s:ms)","GENERIC","31.021","0.07089083300456858","675"
"20:5:39:393 (H:m:s:ms)","GENERIC","31.04","0.0353887404263037","640"
"20:5:45:454 (H:m:s:ms)","GENERIC","31.035","0.015534552264213677","558"
"20:5:51:515 (H:m:s:ms)","GENERIC","31.025","0.010204081632653048","495"
"20:15:57:575 (H:m:s:ms)","GENERIC","62.059","0.018408935028645435","428"
"20:16:3:636 (H:m:s:ms)","GENERIC","62.053","0.01826927860214305","375"
"20:16:9:696 (H:m:s:ms)","GENERIC","62.085","0.028528063648142386","348"
"20:16:15:757 (H:m:s:ms)","GENERIC","62.027","0.02667968432263685","257"
"20:16:21:818 (H:m:s:ms)","GENERIC","62.121","0.03547788826234666","193"
"20:16:27:878 (H:m:s:ms)","GENERIC","62.109","0.011319231422671758","1133"
"20:16:33:939 (H:m:s:ms)","GENERIC","62.061","0.012540110119126402","1069"
"20:16:40:0 (H:m:s:ms)","GENERIC","62.069","0.03807886552931952","1046"
"20:16:46:60 (H:m:s:ms)","GENERIC","62.037","0.01817965896269784","947"
"20:16:52:121 (H:m:s:ms)","GENERIC","62.051","0.047260555336379066","890"
"20:5:57:575 (H:m:s:ms)","GENERIC","31.021","0.02426703296426839","429"
"20:6:3:636 (H:m:s:ms)","GENERIC","31.035","0.05312204623168429","373"
"20:6:9:696 (H:m:s:ms)","GENERIC","31.038","0.02882990521841938","336"
"20:6:15:757 (H:m:s:ms)","GENERIC","31.013","0.010622957319984968","254"
"20:6:21:818 (H:m:s:ms)","GENERIC","31.054","0.03547788826234666","192"
"20:6:27:878 (H:m:s:ms)","GENERIC","31.066","0.019039432764659758","132"
"20:6:33:939 (H:m:s:ms)","GENERIC","31.028","0.023956648940669543","1070"
"20:6:40:0 (H:m:s:ms)","GENERIC","31.044","0.03807886552931952","1008"
"20:6:46:60 (H:m:s:ms)","GENERIC","31.024","0.03644344934278312","949"
"20:6:52:121 (H:m:s:ms)","GENERIC","31.038","0.047619047619047616","889"
"20:16:58:181 (H:m:s:ms)","GENERIC","62.099","0.013743685418725534","821"
"20:17:4:242 (H:m:s:ms)","GENERIC","62.105","0.07080202906510312","762"
"20:17:10:303 (H:m:s:ms)","GENERIC","62.107","0.0679153885360305","702"
"20:17:16:363 (H:m:s:ms)","GENERIC","62.093","0.014246909138058738","646"
"20:17:22:424 (H:m:s:ms)","GENERIC","62.137","0.017967486705502148","583"
"20:17:28:484 (H:m:s:ms)","GENERIC","62.139","0.07072426979165268","517"
"20:17:34:545 (H:m:s:ms)","GENERIC","62.105","0.03171049598406741","457"
"20:17:40:606 (H:m:s:ms)","GENERIC","62.099","0.014658650451451885","414"
"20:17:46:666 (H:m:s:ms)","GENERIC","62.117","0.07071958542839829","336"
"20:17:52:727 (H:m:s:ms)","GENERIC","62.113","0.07098540227145393","279"
"20:6:58:181 (H:m:s:ms)","GENERIC","31.06","0.03807886552931954","820"
"20:7:4:242 (H:m:s:ms)","GENERIC","31.06","0.07075129310081966","761"
"20:7:10:303 (H:m:s:ms)","GENERIC","31.048","0.0679153885360305","701"
"20:7:16:363 (H:m:s:ms)","GENERIC","31.039","0.01455670566963585","646"
"20:7:22:424 (H:m:s:ms)","GENERIC","31.074","0.053130316943458815","582"
"20:7:28:484 (H:m:s:ms)","GENERIC","31.069","0.04732360151430263","518"
"20:7:34:545 (H:m:s:ms)","GENERIC","31.058","0.0360555127546399","457"
"20:7:40:606 (H:m:s:ms)","GENERIC","31.047","0.05307902422332191","401"
"20:7:46:666 (H:m:s:ms)","GENERIC","31.053","0.07071958542839829","335"
"20:7:52:727 (H:m:s:ms)","GENERIC","31.068","0.07072083405093242","280"
"20:17:58:787 (H:m:s:ms)","GENERIC","62.085","0.07072083405093242","216"
"20:18:4:848 (H:m:s:ms)","GENERIC","62.065","0.017824222665564788","159"
"20:18:10:909 (H:m:s:ms)","GENERIC","62.089","0.018160425051806567","1102"
"20:18:16:969 (H:m:s:ms)","GENERIC","62.081","0.017715635038156548","1035"
"20:18:23:30 (H:m:s:ms)","GENERIC","62.089","0.026561023115842144","978"
"20:18:29:90 (H:m:s:ms)","GENERIC","62.079","0.02058143250776179","958"
"20:18:35:151 (H:m:s:ms)","GENERIC","62.033","0.025643641938735744","853"
"20:18:41:212 (H:m:s:ms)","GENERIC","62.075","0.06010407640085644","796"
"20:18:47:272 (H:m:s:ms)","GENERIC","62.135","0.07080854761617739","738"
"20:18:53:333 (H:m:s:ms)","GENERIC","62.063","0.030033994345183675","675"
"20:7:58:787 (H:m:s:ms)","GENERIC","31.04","0.035436499198398426","217"
"20:8:4:848 (H:m:s:ms)","GENERIC","31.035","0.009128412437638523","158"
"20:8:10:909 (H:m:s:ms)","GENERIC","31.048","0.00976862518793119","1101"
"20:8:16:969 (H:m:s:ms)","GENERIC","31.051","0.017829046503406727","1034"
"20:8:23:30 (H:m:s:ms)","GENERIC","31.046","0.026914522857422542","978"
"20:8:29:90 (H:m:s:ms)","GENERIC","31.038","0.03041752878688848","953"
"20:8:35:151 (H:m:s:ms)","GENERIC","31.027","0.04072055089639774","853"
"20:8:41:212 (H:m:s:ms)","GENERIC","31.041","0.022638462845343505","795"
"20:8:47:272 (H:m:s:ms)","GENERIC","31.064","0.04720569841078501","737"
"20:8:53:333 (H:m:s:ms)","GENERIC","31.028","0.01453746430711781","674"
"20:18:59:393 (H:m:s:ms)","GENERIC","62.129","0.045961940777125496","654"
"20:19:5:454 (H:m:s:ms)","GENERIC","62.025","0.024543467119383513","556"
"20:19:11:515 (H:m:s:ms)","GENERIC","62.117","0.07076502914752388","491"
"20:19:17:575 (H:m:s:ms)","GENERIC","62.183","0.023732781248843537","428"
"20:19:23:636 (H:m:s:ms)","GENERIC","62.107","0.04755154632461873","373"
"20:19:29:696 (H:m:s:ms)","GENERIC","62.093","0.02386222896269379","352"
"20:19:35:757 (H:m:s:ms)","GENERIC","62.103","0.07074995092263706","342"
"20:19:41:818 (H:m:s:ms)","GENERIC","62.091","0.05311478659992478","193"
"20:19:47:878 (H:m:s:ms)","GENERIC","62.061","0.03186887195995487","1132"
"20:19:53:939 (H:m:s:ms)","GENERIC","62.147","0.03573191542435025","1072"
"20:8:59:393 (H:m:s:ms)","GENERIC","31.058","0.06010407640085644","649"
"20:9:5:454 (H:m:s:ms)","GENERIC","31.022","0.024007648991146366","556"
"20:9:11:515 (H:m:s:ms)","GENERIC","31.072","0.07076502914752388","491"
"20:9:17:575 (H:m:s:ms)","GENERIC","31.084","0.04716083714041448","428"
"20:9:23:636 (H:m:s:ms)","GENERIC","31.055","0.04755154632461873","373"
"20:9:29:696 (H:m:s:ms)","GENERIC","31.051","0.07075419238623078","351"
"20:9:35:757 (H:m:s:ms)","GENERIC","31.058","0.035682541972971764","250"
"20:9:41:818 (H:m:s:ms)","GENERIC","31.04","0.03563048203434805","192"
"20:9:47:878 (H:m:s:ms)","GENERIC","31.029","0.02499999999999999","131"
"20:9:53:939 (H:m:s:ms)","GENERIC","31.065","0.023633238786583174","1072"
"21:41:0:606 (H:m:s:ms)","GENERIC","62.093","0.01822172467139156","404"
"21:40:54:545 (H:m:s:ms)","GENERIC","62.095","0.021044844678170985","461"
"21:40:48:484 (H:m:s:ms)","GENERIC","62.091","0.03553768872247755","524"
"21:40:42:424 (H:m:s:ms)","GENERIC","62.017","0.042504253554767064","583"
"21:40:36:363 (H:m:s:ms)","GENERIC","62.109","0.07071958542839829","642"
"21:40:30:303 (H:m:s:ms)","GENERIC","62.059","0.030409618510582853","705"
"21:40:24:242 (H:m:s:ms)","GENERIC","62.083","0.01832331306431488","761"
"21:41:18:787 (H:m:s:ms)","GENERIC","62.065","0.009519716382329879","222"
"21:41:12:727 (H:m:s:ms)","GENERIC","62.049","0.035682541972971764","278"
"21:41:6:666 (H:m:s:ms)","GENERIC","62.093","0.053445723051522044","337"
