"time (H:m:s:ms)","type","latency","utilisation","waiting"
"21:42:43:636 (H:m:s:ms)","GENERIC","62.133","0.1664638093626329","364"
"21:42:25:454 (H:m:s:ms)","GENERIC","62.087","0.16749763386928973","547"
"21:42:19:393 (H:m:s:ms)","GENERIC","62.027","0.17017413184207336","653"
"21:42:13:333 (H:m:s:ms)","GENERIC","62.047","0.16883957941051267","668"
"21:42:7:272 (H:m:s:ms)","GENERIC","62.059","0.16798240160714709","729"
"21:42:1:212 (H:m:s:ms)","GENERIC","62.069","0.1671286889176332","788"
"21:41:55:151 (H:m:s:ms)","GENERIC","62.109","0.16560853665893963","849"
"21:41:49:90 (H:m:s:ms)","GENERIC","62.143","0.1747898651695644","955"
"21:41:43:30 (H:m:s:ms)","GENERIC","62.071","0.1801684309467803","970"
"21:42:37:575 (H:m:s:ms)","GENERIC","62.089","0.1693416538590629","425"
"21:42:31:515 (H:m:s:ms)","GENERIC","31.025","0.16938092002295851","485"
"21:43:50:303 (H:m:s:ms)","GENERIC","62.125","0.1660750628050049","698"
"21:43:44:242 (H:m:s:ms)","GENERIC","62.041","0.16503771356949917","759"
"21:43:32:121 (H:m:s:ms)","GENERIC","62.065","0.16557804183052324","880"
"20:0:0:0 (H:m:s:ms)","GENERIC","31.029","0.01880758170945396","1474"
"21:43:26:60 (H:m:s:ms)","GENERIC","31.009","0.1705533674478952","943"
"20:0:6:60 (H:m:s:ms)","GENERIC","31.04","0.020549485404834315","945"
"21:43:20:0 (H:m:s:ms)","GENERIC","62.069","0.1702501990513369","1051"
"20:0:12:121 (H:m:s:ms)","GENERIC","31.086","0.052130887334210535","881"
"21:43:13:939 (H:m:s:ms)","GENERIC","62.067","0.16263843754904492","1064"
"20:0:18:181 (H:m:s:ms)","GENERIC","31.064","0.054436479913550384","820"
"21:43:7:878 (H:m:s:ms)","GENERIC","62.049","0.16421850088344306","1123"
"20:0:24:242 (H:m:s:ms)","GENERIC","31.061","0.06208898248092263","759"
"21:43:1:818 (H:m:s:ms)","GENERIC","62.097","0.1642254261430709","183"
"20:0:30:303 (H:m:s:ms)","GENERIC","31.052","0.07256045243975785","698"
"21:42:55:757 (H:m:s:ms)","GENERIC","62.045","0.16510277397479117","244"
"20:0:36:363 (H:m:s:ms)","GENERIC","31.04","0.07352664930735903","638"
"21:42:49:696 (H:m:s:ms)","GENERIC","62.027","0.16610857327262138","349"
"20:0:42:424 (H:m:s:ms)","GENERIC","31.054","0.08559007836299647","576"
"21:10:36:363 (H:m:s:ms)","GENERIC","62.065","0.18063125978201222","637"
"20:0:48:484 (H:m:s:ms)","GENERIC","31.038","0.08610690166835042","518"
"21:10:42:424 (H:m:s:ms)","GENERIC","62.099","0.17784815055258946","576"
"21:10:48:484 (H:m:s:ms)","GENERIC","62.105","0.17990669000165574","517"
"21:10:54:545 (H:m:s:ms)","GENERIC","62.123","0.18092769060772665","456"
"21:11:0:606 (H:m:s:ms)","GENERIC","62.053","0.18113945747513038","395"
"21:11:6:666 (H:m:s:ms)","GENERIC","62.093","0.17999886689563338","335"
"21:11:12:727 (H:m:s:ms)","GENERIC","62.047","0.18314846357510536","273"
"21:11:18:787 (H:m:s:ms)","GENERIC","62.059","0.18418980863077625","213"
"21:43:38:181 (H:m:s:ms)","GENERIC","62.067","0.16660443671908298","819"
"21:11:24:848 (H:m:s:ms)","GENERIC","62.095","0.1841965740772913","152"
"21:11:30:909 (H:m:s:ms)","GENERIC","62.093","0.18526079993306035","1095"
"21:25:57:575 (H:m:s:ms)","GENERIC","62.119","0.22819995605119778","427"
"21:44:56:969 (H:m:s:ms)","GENERIC","62.053","0.1614341576946144","1033"
"21:44:50:909 (H:m:s:ms)","GENERIC","62.031","0.16072620860686046","1092"
"21:44:44:848 (H:m:s:ms)","GENERIC","62.099","0.1618090959904289","153"
"21:44:38:787 (H:m:s:ms)","GENERIC","62.073","0.1623720416550889","214"
"21:44:32:727 (H:m:s:ms)","GENERIC","62.145","0.16237155765875153","273"
"21:44:26:666 (H:m:s:ms)","GENERIC","62.061","0.15604610140009717","334"
"21:44:20:606 (H:m:s:ms)","GENERIC","62.085","0.15802941792372","395"
"21:44:14:545 (H:m:s:ms)","GENERIC","62.059","0.15985439261358267","457"
"21:44:8:484 (H:m:s:ms)","GENERIC","62.117","0.15762334425654706","516"
"21:44:2:424 (H:m:s:ms)","GENERIC","62.121","0.1568266519340123","576"
"21:11:36:969 (H:m:s:ms)","GENERIC","62.061","0.18092463546204837","1032"
"21:43:56:363 (H:m:s:ms)","GENERIC","62.099","0.16615915988949012","637"
"21:11:43:30 (H:m:s:ms)","GENERIC","62.017","0.1836761669668706","970"
"21:11:49:90 (H:m:s:ms)","GENERIC","62.175","0.17855319574133793","954"
"21:11:55:151 (H:m:s:ms)","GENERIC","62.089","0.17676008385712583","849"
"21:12:1:212 (H:m:s:ms)","GENERIC","62.091","0.17705492466046166","789"
"21:12:7:272 (H:m:s:ms)","GENERIC","62.097","0.1769742309493387","729"
"21:12:13:333 (H:m:s:ms)","GENERIC","62.061","0.17691259286408273","667"
"21:12:19:393 (H:m:s:ms)","GENERIC","62.069","0.1791997833688961","649"
"21:12:25:454 (H:m:s:ms)","GENERIC","62.109","0.1736541159614467","547"
"21:12:31:515 (H:m:s:ms)","GENERIC","62.097","0.17226107489788842","486"
"21:26:34:936 (H:m:s:ms)","OPERA","62.015","0.2268131916390824","1065"
"21:46:3:636 (H:m:s:ms)","GENERIC","62.063","0.16242317117930372","364"
"21:26:33:939 (H:m:s:ms)","GENERIC","62.133","0.22405527322557525","1062"
"21:45:57:575 (H:m:s:ms)","GENERIC","62.097","0.15673035915794747","426"
"21:45:51:515 (H:m:s:ms)","GENERIC","62.089","0.15603133663039093","486"
"21:45:45:454 (H:m:s:ms)","GENERIC","62.079","0.15564630145199565","546"
"21:26:27:341 (H:m:s:ms)","OPERA","62.013","0.22751740835565473","659"
"21:26:21:818 (H:m:s:ms)","GENERIC","62.113","0.22765726398654984","257"
"21:45:39:393 (H:m:s:ms)","GENERIC","62.055","0.1561993164706519","651"
"21:26:19:746 (H:m:s:ms)","OPERA","31.009","0.22560791569485242","297"
"21:45:33:333 (H:m:s:ms)","GENERIC","62.063","0.1562467433457358","668"
"21:26:15:757 (H:m:s:ms)","GENERIC","62.067","0.2294489238818077","244"
"21:45:27:272 (H:m:s:ms)","GENERIC","62.041","0.15470382681415695","728"
"21:26:12:151 (H:m:s:ms)","OPERA","31.009","0.23070429052224065","849"
"21:45:21:212 (H:m:s:ms)","GENERIC","62.093","0.15221469562179038","789"
"21:26:9:696 (H:m:s:ms)","GENERIC","62.085","0.22847436903907808","347"
"21:45:15:151 (H:m:s:ms)","GENERIC","62.067","0.1619113593376983","849"
"21:12:37:575 (H:m:s:ms)","GENERIC","62.125","0.17183557945464853","425"
"21:26:4:556 (H:m:s:ms)","OPERA","62.013","0.23243831856881933","444"
"21:45:9:90 (H:m:s:ms)","GENERIC","62.083","0.16334599098028965","955"
"21:12:43:636 (H:m:s:ms)","GENERIC","62.107","0.1736999468180973","364"
"21:26:3:636 (H:m:s:ms)","GENERIC","62.091","0.2305414638397634","364"
"21:45:3:30 (H:m:s:ms)","GENERIC","62.043","0.16329898709558277","973"
"21:12:49:696 (H:m:s:ms)","GENERIC","62.061","0.1735736134075012","346"
"21:12:55:757 (H:m:s:ms)","GENERIC","62.055","0.1711707505329264","244"
"21:13:1:818 (H:m:s:ms)","GENERIC","62.093","0.17602897271421664","183"
"21:13:7:878 (H:m:s:ms)","GENERIC","62.083","0.17699874362089224","1123"
"21:13:13:939 (H:m:s:ms)","GENERIC","62.127","0.17703075660155576","1062"
"21:13:20:0 (H:m:s:ms)","GENERIC","62.047","0.18236828125204108","1042"
"21:13:26:60 (H:m:s:ms)","GENERIC","62.035","0.18152846058682637","942"
"21:13:32:121 (H:m:s:ms)","GENERIC","62.111","0.18043954358312303","879"
"21:26:27:878 (H:m:s:ms)","GENERIC","62.087","0.2273639289521115","1123"
"21:27:12:911 (H:m:s:ms)","OPERA","62.015","0.2297900700274065","1090"
"21:47:10:303 (H:m:s:ms)","GENERIC","62.131","0.1712917866427338","698"
"21:27:10:303 (H:m:s:ms)","GENERIC","62.119","0.2284536383608803","698"
"21:47:4:242 (H:m:s:ms)","GENERIC","62.067","0.17071683924263467","759"
"21:27:5:316 (H:m:s:ms)","OPERA","31.009","0.23101338416593226","686"
"21:46:58:181 (H:m:s:ms)","GENERIC","62.061","0.1676749539851749","820"
"21:46:52:121 (H:m:s:ms)","GENERIC","62.129","0.16728559644911473","879"
"21:46:46:60 (H:m:s:ms)","GENERIC","62.159","0.16218056461694685","940"
"21:27:4:242 (H:m:s:ms)","GENERIC","62.037","0.22778189041086241","758"
"21:26:58:181 (H:m:s:ms)","GENERIC","62.033","0.22902669077609522","820"
"21:26:57:721 (H:m:s:ms)","OPERA","62.013","0.22882252511207601","279"
"21:46:40:0 (H:m:s:ms)","GENERIC","62.111","0.15898365569933948","1047"
"21:26:52:121 (H:m:s:ms)","GENERIC","62.111","0.2265645078415041","880"
"21:46:33:939 (H:m:s:ms)","GENERIC","62.093","0.16023352631033264","1063"
"21:26:50:126 (H:m:s:ms)","OPERA","31.009","0.22596669628584534","873"
"21:46:27:878 (H:m:s:ms)","GENERIC","62.103","0.16423544001006343","1122"
"21:13:38:181 (H:m:s:ms)","GENERIC","62.053","0.1809680360039966","819"
"21:26:46:60 (H:m:s:ms)","GENERIC","62.159","0.226185381157552","940"
"21:46:21:818 (H:m:s:ms)","GENERIC","62.031","0.16573036273846695","183"
"21:13:44:242 (H:m:s:ms)","GENERIC","62.055","0.1806598698993292","759"
"21:26:42:531 (H:m:s:ms)","OPERA","31.009","0.22530398153486142","470"
"21:46:15:757 (H:m:s:ms)","GENERIC","62.105","0.16427271364193413","244"
"21:13:50:303 (H:m:s:ms)","GENERIC","62.167","0.18080277740865786","697"
"21:26:40:0 (H:m:s:ms)","GENERIC","62.133","0.22425040338901753","1046"
"21:46:9:696 (H:m:s:ms)","GENERIC","62.061","0.16666719885778716","349"
"21:13:56:363 (H:m:s:ms)","GENERIC","62.095","0.18020329991199524","637"
"21:14:2:424 (H:m:s:ms)","GENERIC","62.089","0.1768810131945692","576"
"21:14:8:484 (H:m:s:ms)","GENERIC","62.155","0.17781934388942816","516"
"21:14:14:545 (H:m:s:ms)","GENERIC","62.059","0.18083611107053846","456"
"21:14:20:606 (H:m:s:ms)","GENERIC","62.065","0.18183202064072643","395"
"21:14:26:666 (H:m:s:ms)","GENERIC","62.093","0.1811501971408816","335"
"21:14:32:727 (H:m:s:ms)","GENERIC","62.161","0.18168770130098394","273"
"21:27:50:886 (H:m:s:ms)","OPERA","62.013","0.2326159780966225","1115"
"21:48:16:969 (H:m:s:ms)","GENERIC","62.115","0.1697278256663921","1032"
"21:27:46:666 (H:m:s:ms)","GENERIC","62.049","0.2338742620435233","334"
"21:48:10:909 (H:m:s:ms)","GENERIC","62.067","0.16950323736572318","1091"
"21:27:43:291 (H:m:s:ms)","OPERA","31.01","0.23443924803613533","708"
"21:48:4:848 (H:m:s:ms)","GENERIC","62.079","0.16870697635939635","153"
"21:27:40:606 (H:m:s:ms)","GENERIC","62.055","0.23251501058934468","395"
"21:47:58:787 (H:m:s:ms)","GENERIC","62.043","0.16701697063113","213"
"21:47:52:727 (H:m:s:ms)","GENERIC","62.123","0.16907032568242827","273"
"21:47:46:666 (H:m:s:ms)","GENERIC","62.019","0.1688728680192984","335"
"21:27:35:696 (H:m:s:ms)","OPERA","62.015","0.23184578610278667","304"
"21:27:34:545 (H:m:s:ms)","GENERIC","62.089","0.23024959571232523","456"
"21:27:28:484 (H:m:s:ms)","GENERIC","62.023","0.23153801511593194","517"
"21:47:40:606 (H:m:s:ms)","GENERIC","62.079","0.171611445218629","396"
"21:14:38:787 (H:m:s:ms)","GENERIC","62.071","0.17783456306035764","213"
"21:27:28:101 (H:m:s:ms)","OPERA","31.009","0.23147203132879665","899"
"21:47:34:545 (H:m:s:ms)","GENERIC","62.111","0.17014626292192594","456"
"21:14:44:848 (H:m:s:ms)","GENERIC","62.057","0.17450471648557306","153"
"21:27:22:424 (H:m:s:ms)","GENERIC","62.075","0.22947221929304742","576"
"21:47:28:484 (H:m:s:ms)","GENERIC","62.043","0.17151143370215938","517"
"20:52:37:575 (H:m:s:ms)","GENERIC","62.153","0.17962492861295745","426"
"21:14:50:909 (H:m:s:ms)","GENERIC","62.019","0.17443957962758952","1091"
"21:27:20:506 (H:m:s:ms)","OPERA","62.015","0.2282317976709765","494"
"21:47:22:424 (H:m:s:ms)","GENERIC","62.069","0.1715125052684767","577"
"20:52:43:636 (H:m:s:ms)","GENERIC","62.091","0.1810734806837122","364"
"21:14:56:969 (H:m:s:ms)","GENERIC","62.057","0.17390735569943627","1031"
"21:27:16:363 (H:m:s:ms)","GENERIC","62.179","0.22830358574276605","638"
"21:47:16:363 (H:m:s:ms)","GENERIC","62.149","0.1702434998602695","638"
"20:52:49:696 (H:m:s:ms)","GENERIC","62.095","0.18045821659205363","348"
"21:15:3:30 (H:m:s:ms)","GENERIC","62.027","0.1723592634805069","970"
"20:52:55:757 (H:m:s:ms)","GENERIC","62.045","0.18374954288034095","243"
"21:15:9:90 (H:m:s:ms)","GENERIC","62.105","0.1720416554200569","951"
"20:53:1:818 (H:m:s:ms)","GENERIC","62.067","0.18299022628318132","183"
"21:15:15:151 (H:m:s:ms)","GENERIC","62.111","0.16716627477233637","850"
"20:53:7:878 (H:m:s:ms)","GENERIC","62.075","0.18272501155790588","1123"
"21:15:21:212 (H:m:s:ms)","GENERIC","62.039","0.16348353104161592","789"
"20:53:13:939 (H:m:s:ms)","GENERIC","62.131","0.18257827021524548","1062"
"21:15:27:272 (H:m:s:ms)","GENERIC","62.019","0.1634922311736846","729"
"20:53:20:0 (H:m:s:ms)","GENERIC","62.045","0.1855176798503099","1045"
"21:15:33:333 (H:m:s:ms)","GENERIC","62.067","0.16461591475467513","668"
"20:53:26:60 (H:m:s:ms)","GENERIC","62.063","0.18568647819304784","940"
"20:53:32:121 (H:m:s:ms)","GENERIC","62.157","0.18611338601253954","880"
"21:28:28:860 (H:m:s:ms)","OPERA","31.008","0.23316068683584348","140"
"21:49:23:636 (H:m:s:ms)","GENERIC","62.113","0.17893257235037408","364"
"21:28:23:30 (H:m:s:ms)","GENERIC","62.067","0.23380707984133617","970"
"21:49:17:575 (H:m:s:ms)","GENERIC","62.043","0.17532678625940154","425"
"21:28:21:265 (H:m:s:ms)","OPERA","62.015","0.2339087151975773","735"
"21:49:11:515 (H:m:s:ms)","GENERIC","62.131","0.17365606193407637","486"
"21:28:16:969 (H:m:s:ms)","GENERIC","62.111","0.2315912765487828","1031"
"21:49:5:454 (H:m:s:ms)","GENERIC","62.067","0.17401344153885304","547"
"21:28:13:670 (H:m:s:ms)","OPERA","62.013","0.2318927390985763","331"
"21:48:59:393 (H:m:s:ms)","GENERIC","62.115","0.17456148099747468","651"
"21:48:53:333 (H:m:s:ms)","GENERIC","62.039","0.17157173254947355","668"
"21:48:47:272 (H:m:s:ms)","GENERIC","62.085","0.17156694839188952","729"
"21:28:10:909 (H:m:s:ms)","GENERIC","62.057","0.2300695825219804","1090"
"21:15:39:393 (H:m:s:ms)","GENERIC","62.083","0.16445368313668382","649"
"21:28:6:75 (H:m:s:ms)","OPERA","31.009","0.2308829646889197","925"
"21:15:45:454 (H:m:s:ms)","GENERIC","62.081","0.16569370561106955","547"
"21:28:4:848 (H:m:s:ms)","GENERIC","62.107","0.23050493132162386","153"
"21:48:41:212 (H:m:s:ms)","GENERIC","62.089","0.1719580550020556","789"
"20:53:38:181 (H:m:s:ms)","GENERIC","62.051","0.17986708472075202","819"
"21:15:51:515 (H:m:s:ms)","GENERIC","62.145","0.16259990173965813","485"
"21:27:58:787 (H:m:s:ms)","GENERIC","62.069","0.23188404042945387","213"
"21:48:35:151 (H:m:s:ms)","GENERIC","62.027","0.17305806354182954","850"
"20:53:44:242 (H:m:s:ms)","GENERIC","62.041","0.1803155011890218","759"
"21:15:57:575 (H:m:s:ms)","GENERIC","62.119","0.16263038689971732","426"
"21:27:58:481 (H:m:s:ms)","OPERA","62.015","0.23159627474704012","519"
"21:48:29:90 (H:m:s:ms)","GENERIC","62.089","0.16753579498364227","956"
"20:53:50:303 (H:m:s:ms)","GENERIC","62.147","0.17679342628076847","697"
"21:16:3:636 (H:m:s:ms)","GENERIC","62.093","0.16245580577007443","364"
"21:27:52:727 (H:m:s:ms)","GENERIC","62.139","0.23394784509523026","273"
"21:48:23:30 (H:m:s:ms)","GENERIC","62.101","0.16562646639974554","971"
"20:53:56:363 (H:m:s:ms)","GENERIC","62.079","0.17197560536110512","637"
"21:16:9:696 (H:m:s:ms)","GENERIC","62.087","0.16300505194297985","345"
"20:54:2:424 (H:m:s:ms)","GENERIC","62.071","0.17034710880159434","575"
"21:16:15:757 (H:m:s:ms)","GENERIC","62.051","0.16300506618936497","243"
"20:54:8:484 (H:m:s:ms)","GENERIC","62.125","0.16532209755189461","516"
"21:16:21:818 (H:m:s:ms)","GENERIC","62.105","0.15785518258193285","183"
"20:54:14:545 (H:m:s:ms)","GENERIC","62.029","0.1653282217083326","456"
"21:16:27:878 (H:m:s:ms)","GENERIC","62.105","0.1564928356983325","1123"
"20:54:20:606 (H:m:s:ms)","GENERIC","62.057","0.16313561614784947","394"
"21:16:33:939 (H:m:s:ms)","GENERIC","62.117","0.1593104747669979","1062"
"20:54:26:666 (H:m:s:ms)","GENERIC","62.099","0.16261403454199705","334"
"20:54:32:727 (H:m:s:ms)","GENERIC","62.177","0.16314483753417217","272"
"21:29:5:454 (H:m:s:ms)","GENERIC","62.063","0.23386602968601455","547"
"21:28:59:393 (H:m:s:ms)","GENERIC","62.113","0.23609721599105962","648"
"21:28:59:240 (H:m:s:ms)","OPERA","31.01","0.23211139789791693","800"
"22:10:0:0 (H:m:s:ms)","AMBULANCE","31.01","0.009003685093942976","1011"
"21:28:53:333 (H:m:s:ms)","GENERIC","62.039","0.23478816493954757","667"
"22:4:12:631 (H:m:s:ms)","AMBULANCE","31.009","0.03364182319874933","372"
"21:28:51:645 (H:m:s:ms)","OPERA","62.013","0.23495772605036172","355"
"22:1:3:157 (H:m:s:ms)","AMBULANCE","31.009","0.025103093220880196","846"
"21:28:47:272 (H:m:s:ms)","GENERIC","62.089","0.23330334852276083","728"
"21:50:0:0 (H:m:s:ms)","GENERIC","62.089","0.18554111683390523","1045"
"21:49:53:939 (H:m:s:ms)","GENERIC","62.095","0.18066068806624797","1064"
"21:49:47:878 (H:m:s:ms)","GENERIC","62.035","0.18037248365311073","1122"
"21:16:40:0 (H:m:s:ms)","GENERIC","62.113","0.16433914939427374","1046"
"21:16:46:60 (H:m:s:ms)","GENERIC","62.161","0.16422969875495275","940"
"21:28:44:50 (H:m:s:ms)","OPERA","62.015","0.23456814119944785","951"
"20:54:38:787 (H:m:s:ms)","GENERIC","62.047","0.15852603671046359","213"
"21:16:52:121 (H:m:s:ms)","GENERIC","62.107","0.1651702929121628","880"
"21:28:41:212 (H:m:s:ms)","GENERIC","62.081","0.23301044250253408","788"
"20:54:44:848 (H:m:s:ms)","GENERIC","62.061","0.15330700566876027","153"
"21:16:58:181 (H:m:s:ms)","GENERIC","62.025","0.1649698720762538","820"
"21:28:36:455 (H:m:s:ms)","OPERA","62.015","0.23531038053213088","545"
"21:49:41:818 (H:m:s:ms)","GENERIC","62.055","0.17687521258289365","183"
"20:54:50:909 (H:m:s:ms)","GENERIC","62.037","0.15316172682688584","1092"
"21:17:4:242 (H:m:s:ms)","GENERIC","62.029","0.1690332987495041","760"
"21:28:35:151 (H:m:s:ms)","GENERIC","62.049","0.23442877958872702","848"
"21:49:35:757 (H:m:s:ms)","GENERIC","62.151","0.17620437438680747","243"
"20:54:56:969 (H:m:s:ms)","GENERIC","62.039","0.15323498088984627","1031"
"21:17:10:303 (H:m:s:ms)","GENERIC","62.107","0.1678585727511733","698"
"21:28:29:90 (H:m:s:ms)","GENERIC","62.093","0.2347600254098882","951"
"21:49:29:696 (H:m:s:ms)","GENERIC","62.099","0.18242654429414035","349"
"20:55:3:30 (H:m:s:ms)","GENERIC","62.057","0.1529598843063733","970"
"21:17:16:363 (H:m:s:ms)","GENERIC","62.155","0.16830663168852114","638"
"20:55:9:90 (H:m:s:ms)","GENERIC","62.061","0.1497939640941152","956"
"21:17:22:424 (H:m:s:ms)","GENERIC","62.069","0.16570063201887106","576"
"20:55:15:151 (H:m:s:ms)","GENERIC","62.097","0.1489378459006878","850"
"21:17:28:484 (H:m:s:ms)","GENERIC","62.029","0.1657983081632163","517"
"20:55:21:212 (H:m:s:ms)","GENERIC","31.011","0.1473830314185956","807"
"21:17:34:545 (H:m:s:ms)","GENERIC","62.105","0.1665193264753802","456"
"20:55:27:272 (H:m:s:ms)","GENERIC","62.047","0.14583485012062777","730"
"20:55:33:333 (H:m:s:ms)","GENERIC","62.033","0.14559733488228735","668"
"21:29:41:818 (H:m:s:ms)","GENERIC","62.039","0.23536577668561806","183"
"21:29:37:215 (H:m:s:ms)","OPERA","31.009","0.23714018144952892","786"
"21:29:35:757 (H:m:s:ms)","GENERIC","62.177","0.23361595605483856","243"
"21:29:29:696 (H:m:s:ms)","GENERIC","62.077","0.2352483376559266","345"
"21:29:29:620 (H:m:s:ms)","OPERA","31.009","0.23476251834297213","420"
"21:29:23:636 (H:m:s:ms)","GENERIC","62.141","0.23853459809890643","365"
"21:29:22:25 (H:m:s:ms)","OPERA","62.015","0.23780847187081816","991"
"21:17:40:606 (H:m:s:ms)","GENERIC","62.051","0.170750134419042","395"
"21:17:46:666 (H:m:s:ms)","GENERIC","62.069","0.16864725594523758","335"
"20:55:39:393 (H:m:s:ms)","GENERIC","62.049","0.1452199377295409","650"
"21:17:52:727 (H:m:s:ms)","GENERIC","62.163","0.1684992795505837","273"
"20:55:45:454 (H:m:s:ms)","GENERIC","62.101","0.14559439375655173","546"
"21:17:58:787 (H:m:s:ms)","GENERIC","62.083","0.16798896034108204","213"
"21:29:17:575 (H:m:s:ms)","GENERIC","62.049","0.23659610911631995","426"
"20:55:51:515 (H:m:s:ms)","GENERIC","62.133","0.14523717976920872","485"
"21:18:4:848 (H:m:s:ms)","GENERIC","62.117","0.16579552093261707","154"
"21:29:14:430 (H:m:s:ms)","OPERA","62.015","0.23730413633686853","571"
"20:55:57:575 (H:m:s:ms)","GENERIC","62.101","0.14514599653383073","426"
"21:18:10:909 (H:m:s:ms)","GENERIC","62.051","0.15955277122096234","1090"
"21:29:11:515 (H:m:s:ms)","GENERIC","62.123","0.2355825317664194","486"
"20:56:3:636 (H:m:s:ms)","GENERIC","62.109","0.144942211235939","364"
"21:18:16:969 (H:m:s:ms)","GENERIC","62.107","0.15835776599276968","1031"
"21:29:6:835 (H:m:s:ms)","OPERA","31.009","0.23556314541645834","166"
"20:56:9:696 (H:m:s:ms)","GENERIC","62.071","0.14636521272568065","346"
"21:18:23:30 (H:m:s:ms)","GENERIC","62.071","0.15260366183290608","970"
"20:56:15:757 (H:m:s:ms)","GENERIC","62.079","0.1465628427763853","244"
"21:18:29:90 (H:m:s:ms)","GENERIC","62.085","0.15363887578103488","950"
"20:56:21:818 (H:m:s:ms)","GENERIC","62.113","0.14239980920872722","183"
"21:18:35:151 (H:m:s:ms)","GENERIC","62.069","0.15447412183516254","849"
"20:56:27:878 (H:m:s:ms)","GENERIC","62.127","0.14331080300582563","1122"
"20:56:33:939 (H:m:s:ms)","GENERIC","62.107","0.1505333994226504","1062"
"21:30:18:181 (H:m:s:ms)","GENERIC","62.107","0.2433056223047346","823"
"21:30:12:121 (H:m:s:ms)","GENERIC","62.131","0.23813454632971875","880"
"21:30:6:60 (H:m:s:ms)","GENERIC","62.049","0.2380542372715766","941"
"21:30:0:0 (H:m:s:ms)","GENERIC","62.105","0.2375992792567807","1048"
"21:30:0:0 (H:m:s:ms)","GENERIC","62.021","0.23408112829428523","1046"
"21:30:0:0 (H:m:s:ms)","AMBULANCE","31.034","0.23139712694011383","1046"
"21:30:0:0 (H:m:s:ms)","OPERA","31.009","0.24070253979175726","1048"
"21:29:53:939 (H:m:s:ms)","GENERIC","62.121","0.23249347430989384","1062"
"21:18:41:212 (H:m:s:ms)","GENERIC","62.079","0.15387968780458772","788"
"21:18:47:272 (H:m:s:ms)","GENERIC","62.095","0.15423589353983214","728"
"20:56:40:0 (H:m:s:ms)","GENERIC","62.077","0.15714592967977864","1045"
"21:18:53:333 (H:m:s:ms)","GENERIC","62.045","0.15402852612781687","667"
"20:56:46:60 (H:m:s:ms)","GENERIC","62.145","0.1631687350987577","940"
"21:18:59:393 (H:m:s:ms)","GENERIC","62.103","0.16075649550515678","647"
"20:40:0:0 (H:m:s:ms)","OPERA","31.008","0.15934040910021482","1503"
"20:56:52:121 (H:m:s:ms)","GENERIC","62.089","0.16147496273189194","879"
"21:19:5:454 (H:m:s:ms)","GENERIC","62.071","0.1599495829952883","547"
"20:40:0:0 (H:m:s:ms)","GENERIC","62.065","0.15926915865824962","1504"
"20:56:58:181 (H:m:s:ms)","GENERIC","62.021","0.16065070451628766","829"
"21:19:11:515 (H:m:s:ms)","GENERIC","62.133","0.1586704288195595","487"
"21:29:52:405 (H:m:s:ms)","OPERA","31.009","0.23148268469878536","597"
"20:40:0:0 (H:m:s:ms)","GENERIC","62.075","0.16207704585437444","1505"
"20:57:4:242 (H:m:s:ms)","GENERIC","62.017","0.16246631828395453","759"
"21:19:17:575 (H:m:s:ms)","GENERIC","62.063","0.1598003342367076","425"
"21:29:47:878 (H:m:s:ms)","GENERIC","62.035","0.23099589514057695","1122"
"20:40:6:60 (H:m:s:ms)","GENERIC","62.077","0.16207712133661875","940"
"20:57:10:303 (H:m:s:ms)","GENERIC","62.087","0.16130571283912576","699"
"21:19:23:636 (H:m:s:ms)","GENERIC","62.133","0.15979276085487587","364"
"21:29:44:810 (H:m:s:ms)","OPERA","62.013","0.23410490923419594","190"
"20:40:7:594 (H:m:s:ms)","OPERA","31.009","0.16225499722266093","407"
"20:57:16:363 (H:m:s:ms)","GENERIC","62.129","0.16132022730030193","637"
"21:19:29:696 (H:m:s:ms)","GENERIC","62.057","0.16327087192087178","344"
"20:40:12:121 (H:m:s:ms)","GENERIC","62.147","0.1636487800807629","879"
"20:57:22:424 (H:m:s:ms)","GENERIC","62.067","0.1622157772759046","576"
"21:19:35:757 (H:m:s:ms)","GENERIC","62.181","0.16507882764040552","243"
"20:40:15:189 (H:m:s:ms)","OPERA","31.01","0.1636428462940989","811"
"20:57:28:484 (H:m:s:ms)","GENERIC","62.061","0.16154010962277768","517"
"20:40:18:181 (H:m:s:ms)","GENERIC","62.077","0.16477945855828852","819"
"20:57:34:545 (H:m:s:ms)","GENERIC","62.117","0.16120040298297011","456"
"20:40:22:784 (H:m:s:ms)","OPERA","31.008","0.16509122570577195","217"
"20:40:24:242 (H:m:s:ms)","GENERIC","62.179","0.1656727104218333","758"
"21:30:31:578 (H:m:s:ms)","AMBULANCE","31.025","0.23939472249362995","450"
"21:31:12:727 (H:m:s:ms)","GENERIC","62.037","0.2357230334307572","273"
"21:31:6:666 (H:m:s:ms)","GENERIC","62.065","0.23611998772042767","335"
"21:31:3:157 (H:m:s:ms)","AMBULANCE","31.018","0.2405594262450141","872"
"21:31:0:606 (H:m:s:ms)","GENERIC","62.045","0.2399720686963366","395"
"21:30:54:545 (H:m:s:ms)","GENERIC","62.113","0.23733551742163364","456"
"21:30:48:484 (H:m:s:ms)","GENERIC","62.095","0.23863739823376187","517"
"21:30:42:424 (H:m:s:ms)","GENERIC","62.095","0.23844694229926522","577"
"21:19:41:818 (H:m:s:ms)","GENERIC","62.051","0.16310403057854636","184"
"21:30:36:363 (H:m:s:ms)","GENERIC","62.051","0.2380812215802673","637"
"21:19:47:878 (H:m:s:ms)","GENERIC","62.049","0.16313970921779683","1123"
"20:57:40:606 (H:m:s:ms)","GENERIC","62.053","0.16708440875824557","395"
"21:19:53:939 (H:m:s:ms)","GENERIC","62.133","0.1629196582312279","1063"
"20:57:46:666 (H:m:s:ms)","GENERIC","62.075","0.16558281698243327","335"
"21:20:0:0 (H:m:s:ms)","OPERA","62.015","0.16426658990789342","1537"
"20:40:30:303 (H:m:s:ms)","GENERIC","62.039","0.16667927043169958","698"
"20:57:52:727 (H:m:s:ms)","GENERIC","62.163","0.1654487781308919","273"
"21:20:0:0 (H:m:s:ms)","GENERIC","62.081","0.17034070609488755","1538"
"20:40:36:363 (H:m:s:ms)","GENERIC","62.095","0.1636174969772208","637"
"20:57:58:787 (H:m:s:ms)","GENERIC","62.071","0.16003871171977618","212"
"21:20:0:0 (H:m:s:ms)","GENERIC","62.021","0.17230098619288398","1540"
"20:40:37:974 (H:m:s:ms)","OPERA","31.009","0.16560739667926921","1027"
"20:58:4:848 (H:m:s:ms)","GENERIC","62.097","0.1579717893042005","153"
"21:20:6:60 (H:m:s:ms)","GENERIC","62.041","0.17115859545703557","941"
"20:40:42:424 (H:m:s:ms)","GENERIC","62.105","0.16736692693597316","576"
"20:58:10:909 (H:m:s:ms)","GENERIC","62.039","0.16420254003053766","1090"
"21:20:7:594 (H:m:s:ms)","OPERA","31.009","0.17292110835740804","407"
"21:30:30:303 (H:m:s:ms)","GENERIC","62.039","0.23900801893925874","698"
"20:40:45:569 (H:m:s:ms)","OPERA","31.009","0.16913304468071022","431"
"20:58:16:969 (H:m:s:ms)","GENERIC","62.075","0.166952115391336","1033"
"21:20:12:121 (H:m:s:ms)","GENERIC","62.123","0.17499542859845274","880"
"21:30:24:242 (H:m:s:ms)","GENERIC","62.141","0.2406303598663816","758"
"20:40:48:484 (H:m:s:ms)","GENERIC","62.073","0.16833613762722885","516"
"20:58:23:30 (H:m:s:ms)","GENERIC","62.093","0.16653264609368815","970"
"21:20:15:189 (H:m:s:ms)","OPERA","31.009","0.1763630347901488","812"
"20:40:53:164 (H:m:s:ms)","OPERA","31.009","0.1717484212801681","836"
"20:58:29:90 (H:m:s:ms)","GENERIC","62.065","0.1691364932960685","954"
"20:40:54:545 (H:m:s:ms)","GENERIC","62.135","0.1718193380865029","456"
"20:58:35:151 (H:m:s:ms)","GENERIC","62.055","0.17512562008674457","849"
"20:41:0:606 (H:m:s:ms)","GENERIC","62.087","0.17347825431453942","394"
"20:41:0:759 (H:m:s:ms)","OPERA","31.008","0.17462844362090932","243"
"21:31:30:909 (H:m:s:ms)","GENERIC","62.041","0.22907301809343794","1090"
"21:31:24:848 (H:m:s:ms)","GENERIC","62.101","0.22939253643352672","153"
"21:32:7:272 (H:m:s:ms)","GENERIC","62.065","0.2202129869174586","729"
"21:32:6:315 (H:m:s:ms)","AMBULANCE","31.009","0.2196990352316872","688"
"21:32:1:212 (H:m:s:ms)","GENERIC","62.083","0.22399819531902518","789"
"21:31:55:151 (H:m:s:ms)","GENERIC","62.103","0.22714135226042273","850"
"21:31:49:90 (H:m:s:ms)","GENERIC","62.165","0.22852066246352595","954"
"21:31:43:30 (H:m:s:ms)","GENERIC","62.049","0.23227688555955056","970"
"21:31:36:969 (H:m:s:ms)","GENERIC","62.049","0.2308998748444904","1031"
"21:31:34:736 (H:m:s:ms)","AMBULANCE","31.025","0.22948981810200939","294"
"20:58:41:212 (H:m:s:ms)","GENERIC","62.095","0.17464712365407295","789"
"20:58:47:272 (H:m:s:ms)","GENERIC","62.105","0.17250934642553448","728"
"20:41:6:666 (H:m:s:ms)","GENERIC","62.113","0.17357347404554968","335"
"20:58:53:333 (H:m:s:ms)","GENERIC","62.067","0.17437527091746907","668"
"20:41:8:354 (H:m:s:ms)","OPERA","31.009","0.17846602986728222","647"
"20:58:59:393 (H:m:s:ms)","GENERIC","62.085","0.1773137265892813","651"
"20:41:12:727 (H:m:s:ms)","GENERIC","62.041","0.1811723505574862","273"
"20:59:5:454 (H:m:s:ms)","GENERIC","62.093","0.17486129727193667","547"
"20:41:15:949 (H:m:s:ms)","OPERA","31.008","0.18309861149487272","1051"
"20:59:11:515 (H:m:s:ms)","GENERIC","62.125","0.17308286461715644","486"
"20:41:18:787 (H:m:s:ms)","GENERIC","62.053","0.18319277540462786","214"
"20:59:17:575 (H:m:s:ms)","GENERIC","62.065","0.17316848017466235","425"
"20:41:23:544 (H:m:s:ms)","OPERA","31.009","0.18335258136970167","456"
"20:59:23:636 (H:m:s:ms)","GENERIC","62.139","0.17415197145728317","364"
"21:31:18:787 (H:m:s:ms)","GENERIC","62.053","0.2325644162033851","214"
"20:41:24:848 (H:m:s:ms)","GENERIC","62.081","0.1833885468939942","153"
"20:59:29:696 (H:m:s:ms)","GENERIC","62.079","0.1749667746888759","464"
"20:41:30:909 (H:m:s:ms)","GENERIC","62.047","0.18482571554736124","1092"
"20:59:35:757 (H:m:s:ms)","GENERIC","62.143","0.17309066420005512","243"
"20:41:31:139 (H:m:s:ms)","OPERA","31.008","0.18854560291293468","863"
"20:41:36:969 (H:m:s:ms)","GENERIC","62.013","0.18629256465090493","1032"
"20:59:41:818 (H:m:s:ms)","GENERIC","62.055","0.17233796055760062","182"
"20:59:47:878 (H:m:s:ms)","GENERIC","62.049","0.17701020247390478","1122"
"20:41:38:734 (H:m:s:ms)","OPERA","31.009","0.18789877790147977","266"
"20:59:53:939 (H:m:s:ms)","GENERIC","62.159","0.17643013142348618","1063"
"20:41:43:30 (H:m:s:ms)","GENERIC","31.022","0.18972708176197242","969"
"21:0:0:0 (H:m:s:ms)","AMBULANCE","31.015","0.1762948783514199","1504"
"20:41:46:329 (H:m:s:ms)","OPERA","31.008","0.19229903786719363","671"
"21:0:0:0 (H:m:s:ms)","GENERIC","62.036","0.1769439639306146","1505"
"20:41:49:90 (H:m:s:ms)","GENERIC","62.117","0.1876056442546536","948"
"21:0:0:0 (H:m:s:ms)","GENERIC","62.061","0.182411298755403","1506"
"20:41:53:924 (H:m:s:ms)","OPERA","31.009","0.19049347661259164","1076"
"21:0:6:60 (H:m:s:ms)","GENERIC","62.067","0.1819794625965033","941"
"20:41:55:151 (H:m:s:ms)","GENERIC","62.063","0.19102783614838867","849"
"21:0:12:121 (H:m:s:ms)","GENERIC","62.119","0.18302251164769265","880"
"20:42:1:212 (H:m:s:ms)","GENERIC","62.091","0.19199856245066477","789"
"21:0:18:181 (H:m:s:ms)","GENERIC","62.075","0.18246405193485785","819"
"20:42:1:518 (H:m:s:ms)","OPERA","31.009","0.19191451396212172","485"
"21:0:24:242 (H:m:s:ms)","GENERIC","62.151","0.1822906880646959","758"
"20:42:7:272 (H:m:s:ms)","GENERIC","62.081","0.18707048697336162","729"
"20:42:9:113 (H:m:s:ms)","OPERA","31.008","0.1883335439838319","925"
"21:0:30:303 (H:m:s:ms)","GENERIC","62.059","0.1845992497509428","697"
"21:0:31:578 (H:m:s:ms)","AMBULANCE","31.042","0.18465158060024592","425"
"20:42:13:333 (H:m:s:ms)","GENERIC","62.085","0.1882470756479142","668"
"21:0:36:363 (H:m:s:ms)","GENERIC","62.081","0.18648101487125365","637"
"20:42:16:708 (H:m:s:ms)","OPERA","31.009","0.18975686690686455","292"
"21:0:42:424 (H:m:s:ms)","GENERIC","62.101","0.1873740249951917","576"
"20:20:0:0 (H:m:s:ms)","GENERIC","62.083","0.1759745035511579","1507"
"20:42:19:393 (H:m:s:ms)","GENERIC","62.037","0.1910979916540211","647"
"21:0:48:484 (H:m:s:ms)","GENERIC","62.091","0.18711229825781184","517"
"20:20:0:0 (H:m:s:ms)","GENERIC","62.085","0.17876880253616398","1508"
"20:42:24:303 (H:m:s:ms)","OPERA","31.009","0.1921959217593755","697"
"21:0:54:545 (H:m:s:ms)","GENERIC","62.129","0.18583340072714366","457"
"20:20:6:60 (H:m:s:ms)","GENERIC","62.069","0.17319696909045934","940"
"20:42:25:454 (H:m:s:ms)","GENERIC","62.115","0.19209880781601707","547"
"21:1:0:606 (H:m:s:ms)","GENERIC","62.067","0.18523253544771726","395"
"20:20:12:121 (H:m:s:ms)","GENERIC","62.177","0.1742642536747691","880"
"20:42:31:515 (H:m:s:ms)","GENERIC","62.067","0.19219160492050757","486"
"21:1:3:157 (H:m:s:ms)","AMBULANCE","31.025","0.18620479674231544","847"
"20:20:18:181 (H:m:s:ms)","GENERIC","62.107","0.17408824601306475","820"
"20:42:31:898 (H:m:s:ms)","OPERA","31.008","0.19713682899458496","104"
"21:1:6:666 (H:m:s:ms)","GENERIC","62.089","0.18498453057981135","334"
"20:20:24:242 (H:m:s:ms)","GENERIC","62.147","0.17472507415545427","759"
"20:42:37:575 (H:m:s:ms)","GENERIC","62.141","0.19616079780670037","426"
"21:1:12:727 (H:m:s:ms)","GENERIC","62.055","0.1850083946818098","274"
"20:20:30:303 (H:m:s:ms)","GENERIC","62.059","0.17549781332848224","698"
"20:42:39:493 (H:m:s:ms)","OPERA","31.009","0.1975256349481208","546"
"20:20:36:363 (H:m:s:ms)","GENERIC","62.067","0.17579578513666533","637"
"20:42:43:636 (H:m:s:ms)","GENERIC","62.097","0.19835466590066306","364"
"20:20:42:424 (H:m:s:ms)","GENERIC","62.133","0.17504973312433242","576"
"20:20:48:484 (H:m:s:ms)","GENERIC","62.079","0.17643990384119693","516"
"21:1:18:787 (H:m:s:ms)","GENERIC","62.057","0.1846430402167201","214"
"21:1:24:848 (H:m:s:ms)","GENERIC","62.083","0.18456523211029233","153"
"20:42:47:88 (H:m:s:ms)","OPERA","31.009","0.1986139523543129","918"
"21:1:30:909 (H:m:s:ms)","GENERIC","62.083","0.18784615022726353","1092"
"20:42:49:696 (H:m:s:ms)","GENERIC","62.119","0.1986654519023557","344"
"21:1:34:736 (H:m:s:ms)","AMBULANCE","31.036","0.18878200615839083","267"
"20:20:54:545 (H:m:s:ms)","GENERIC","62.093","0.1751562768603013","456"
"20:42:54:683 (H:m:s:ms)","OPERA","31.009","0.20030103645227748","317"
"21:1:36:969 (H:m:s:ms)","GENERIC","62.045","0.18425664311983192","1031"
"20:21:0:606 (H:m:s:ms)","GENERIC","62.083","0.1751583207328254","394"
"20:42:55:757 (H:m:s:ms)","GENERIC","62.045","0.20066978543666716","243"
"21:1:43:30 (H:m:s:ms)","GENERIC","62.023","0.17967325412769028","970"
"20:21:6:666 (H:m:s:ms)","GENERIC","62.135","0.1742880339319212","334"
"20:43:1:818 (H:m:s:ms)","GENERIC","62.071","0.1990269604198043","183"
"21:1:49:90 (H:m:s:ms)","GENERIC","62.157","0.17969540223077607","954"
"20:21:12:727 (H:m:s:ms)","GENERIC","31.018","0.17483120615321737","315"
"20:43:7:878 (H:m:s:ms)","GENERIC","62.067","0.1985684093349095","1123"
"21:1:55:151 (H:m:s:ms)","GENERIC","62.087","0.17875450572703888","850"
"20:21:18:787 (H:m:s:ms)","GENERIC","62.059","0.17465187806954308","213"
"20:43:9:873 (H:m:s:ms)","OPERA","31.009","0.2002532577779355","167"
"21:2:1:212 (H:m:s:ms)","GENERIC","62.103","0.18134091116678733","788"
"20:21:24:848 (H:m:s:ms)","GENERIC","62.123","0.17406086109506547","152"
"20:43:13:939 (H:m:s:ms)","GENERIC","62.111","0.20005383100835447","1061"
"21:2:6:315 (H:m:s:ms)","AMBULANCE","31.03","0.18149320785368062","745"
"20:21:30:909 (H:m:s:ms)","GENERIC","62.041","0.174789364248125","1091"
"20:43:17:468 (H:m:s:ms)","OPERA","31.008","0.20215554712836362","532"
"20:21:36:969 (H:m:s:ms)","GENERIC","62.019","0.1747428849567607","1031"
"20:43:20:0 (H:m:s:ms)","GENERIC","62.055","0.20172151326061466","1042"
"20:21:43:30 (H:m:s:ms)","GENERIC","62.125","0.17187916982116389","970"
"20:21:49:90 (H:m:s:ms)","GENERIC","62.085","0.16623429913138296","950"
"20:43:25:63 (H:m:s:ms)","OPERA","31.009","0.20048721203676703","940"
"20:43:26:60 (H:m:s:ms)","GENERIC","62.087","0.2022161191399454","941"
"20:21:55:151 (H:m:s:ms)","GENERIC","62.063","0.16528793898470925","849"
"20:43:32:121 (H:m:s:ms)","GENERIC","62.173","0.20246217385633344","880"
"20:22:1:212 (H:m:s:ms)","GENERIC","62.089","0.1601675605102775","788"
"20:43:32:658 (H:m:s:ms)","OPERA","31.009","0.20355171254489712","344"
"20:22:7:272 (H:m:s:ms)","GENERIC","62.073","0.16329178518796988","728"
"20:43:38:181 (H:m:s:ms)","GENERIC","62.055","0.19936938417196404","820"
"20:22:13:333 (H:m:s:ms)","GENERIC","62.069","0.16338953142232468","667"
"20:43:40:253 (H:m:s:ms)","OPERA","31.009","0.20146226852550084","749"
"20:22:19:393 (H:m:s:ms)","GENERIC","62.071","0.1629636103152198","646"
"20:43:44:242 (H:m:s:ms)","GENERIC","62.033","0.20320036086857418","759"
"20:22:25:454 (H:m:s:ms)","GENERIC","62.107","0.16286898971347533","546"
"20:43:47:848 (H:m:s:ms)","OPERA","31.009","0.20545610386872853","154"
"20:22:31:515 (H:m:s:ms)","GENERIC","62.041","0.16071435338218507","486"
"20:43:50:303 (H:m:s:ms)","GENERIC","62.135","0.20776254168261085","698"
"20:22:37:575 (H:m:s:ms)","GENERIC","62.123","0.15984167729670776","425"
"20:43:55:443 (H:m:s:ms)","OPERA","31.008","0.20939322040706254","557"
"20:22:43:636 (H:m:s:ms)","GENERIC","62.137","0.15353905420762645","365"
"20:22:49:696 (H:m:s:ms)","GENERIC","62.159","0.15332668069587355","343"
"20:43:56:363 (H:m:s:ms)","GENERIC","62.067","0.20935321191587233","638"
"20:44:2:424 (H:m:s:ms)","GENERIC","62.083","0.20928289505089764","576"
"20:22:55:757 (H:m:s:ms)","GENERIC","62.059","0.15261335052054004","244"
"20:44:3:37 (H:m:s:ms)","OPERA","31.008","0.21269852041064746","964"
"20:23:1:818 (H:m:s:ms)","GENERIC","62.067","0.15278437415945217","183"
"20:44:8:484 (H:m:s:ms)","GENERIC","62.111","0.21263481124391284","517"
"20:23:7:878 (H:m:s:ms)","GENERIC","62.073","0.1520296546261243","1124"
"20:44:10:632 (H:m:s:ms)","OPERA","31.009","0.2137741321313847","370"
"20:23:13:939 (H:m:s:ms)","GENERIC","62.127","0.15126207233511238","1062"
"20:44:14:545 (H:m:s:ms)","GENERIC","62.015","0.2135153636903918","455"
"20:23:20:0 (H:m:s:ms)","GENERIC","62.069","0.15459519771997507","1039"
"20:44:18:227 (H:m:s:ms)","OPERA","31.008","0.21490873272998792","772"
"20:23:26:60 (H:m:s:ms)","GENERIC","62.061","0.15584752088044326","941"
"20:44:20:606 (H:m:s:ms)","GENERIC","62.057","0.2191808752436703","395"
"20:23:32:121 (H:m:s:ms)","GENERIC","62.135","0.1560412816015666","879"
"20:44:25:822 (H:m:s:ms)","OPERA","31.009","0.22242914178557777","179"
"20:23:38:181 (H:m:s:ms)","GENERIC","62.063","0.15445014007626803","819"
"20:44:26:666 (H:m:s:ms)","GENERIC","62.097","0.22230946467611373","335"
"20:23:44:242 (H:m:s:ms)","GENERIC","62.053","0.15482208305146353","759"
"20:23:50:303 (H:m:s:ms)","GENERIC","62.135","0.1537504187610952","698"
"20:44:32:727 (H:m:s:ms)","GENERIC","62.191","0.22605126088271724","273"
"20:44:33:417 (H:m:s:ms)","OPERA","31.008","0.22824080310657024","586"
"20:23:56:363 (H:m:s:ms)","GENERIC","62.091","0.15021795750777486","637"
"20:44:38:787 (H:m:s:ms)","GENERIC","62.025","0.2310168809187247","213"
"20:24:2:424 (H:m:s:ms)","GENERIC","31.042","0.14929761257886803","575"
"20:44:41:12 (H:m:s:ms)","OPERA","31.009","0.23152210985044544","989"
"20:24:8:484 (H:m:s:ms)","GENERIC","62.079","0.15059054263411267","516"
"20:44:44:848 (H:m:s:ms)","GENERIC","62.063","0.22873830053718744","152"
"20:24:14:545 (H:m:s:ms)","GENERIC","62.033","0.15205371866175726","456"
"20:44:50:909 (H:m:s:ms)","GENERIC","62.029","0.22554907523033302","1091"
"20:24:20:606 (H:m:s:ms)","GENERIC","62.075","0.15869479681485602","395"
"20:44:56:969 (H:m:s:ms)","GENERIC","62.043","0.2258256601631019","1032"
"20:24:26:666 (H:m:s:ms)","GENERIC","62.081","0.15885924623724199","334"
"20:45:3:30 (H:m:s:ms)","GENERIC","62.075","0.2222040955752154","971"
"20:24:32:727 (H:m:s:ms)","GENERIC","62.181","0.16150595665066486","273"
"20:45:3:797 (H:m:s:ms)","OPERA","31.009","0.2233670947334497","205"
"20:24:38:787 (H:m:s:ms)","GENERIC","62.029","0.16720926813681716","213"
"20:45:9:90 (H:m:s:ms)","GENERIC","62.045","0.22140665490090464","950"
"20:24:44:848 (H:m:s:ms)","GENERIC","62.079","0.172001212136626","153"
"20:24:50:909 (H:m:s:ms)","GENERIC","62.041","0.16617960058361395","1091"
"20:45:11:392 (H:m:s:ms)","OPERA","31.009","0.22271728817295147","608"
"20:45:15:151 (H:m:s:ms)","GENERIC","62.081","0.2219205684283653","849"
"20:24:56:969 (H:m:s:ms)","GENERIC","62.067","0.16003789171328348","1031"
"20:45:21:212 (H:m:s:ms)","GENERIC","62.051","0.21792102216230214","873"
"20:25:3:30 (H:m:s:ms)","GENERIC","62.093","0.15446119009382012","970"
"20:45:26:582 (H:m:s:ms)","OPERA","31.008","0.21670571181028994","424"
"20:25:9:90 (H:m:s:ms)","GENERIC","62.021","0.15599902732748697","948"
"20:45:27:272 (H:m:s:ms)","GENERIC","62.043","0.21826554691620526","729"
"20:25:15:151 (H:m:s:ms)","GENERIC","62.089","0.15648409803979926","850"
"20:45:33:333 (H:m:s:ms)","GENERIC","62.015","0.2144443998647534","667"
"20:25:21:212 (H:m:s:ms)","GENERIC","62.039","0.1593815750702741","789"
"20:45:34:177 (H:m:s:ms)","OPERA","31.009","0.21926555934513914","824"
"20:25:27:272 (H:m:s:ms)","GENERIC","62.047","0.15810928594283225","729"
"20:45:39:393 (H:m:s:ms)","GENERIC","62.041","0.21892876989918048","647"
"20:25:33:333 (H:m:s:ms)","GENERIC","62.017","0.1613406839027554","668"
"20:45:41:772 (H:m:s:ms)","OPERA","31.009","0.22069299178726395","228"
"20:25:39:393 (H:m:s:ms)","GENERIC","62.061","0.1645831996600068","648"
"20:45:45:454 (H:m:s:ms)","GENERIC","62.117","0.22087864410041338","547"
"20:25:45:454 (H:m:s:ms)","GENERIC","62.125","0.16455877021387705","547"
"20:25:51:515 (H:m:s:ms)","GENERIC","62.113","0.1608984853519371","485"
"20:25:57:575 (H:m:s:ms)","GENERIC","62.125","0.16041335383468677","426"
"20:26:3:636 (H:m:s:ms)","GENERIC","62.103","0.16659163330756552","364"
"20:26:9:696 (H:m:s:ms)","GENERIC","62.055","0.16750643735559143","343"
"20:26:15:757 (H:m:s:ms)","GENERIC","62.117","0.16924699525147982","243"
"20:26:21:818 (H:m:s:ms)","GENERIC","62.143","0.1680689445043449","183"
"20:26:27:878 (H:m:s:ms)","GENERIC","62.077","0.16746248784304937","1123"
"20:26:33:939 (H:m:s:ms)","GENERIC","62.113","0.17231439475551788","1062"
"20:26:40:0 (H:m:s:ms)","GENERIC","62.055","0.176608656560994","1039"
"20:26:46:60 (H:m:s:ms)","GENERIC","62.131","0.17409638672475897","940"
"20:26:52:121 (H:m:s:ms)","GENERIC","62.059","0.18015225675254098","879"
"20:26:58:181 (H:m:s:ms)","GENERIC","62.115","0.18047505112119097","820"
"20:27:4:242 (H:m:s:ms)","GENERIC","62.071","0.17964602250116973","777"
"20:27:10:303 (H:m:s:ms)","GENERIC","62.051","0.17677722857692668","698"
"20:27:16:363 (H:m:s:ms)","GENERIC","62.065","0.17791117726499184","637"
"20:27:22:424 (H:m:s:ms)","GENERIC","62.105","0.17771179062200215","576"
"20:27:28:484 (H:m:s:ms)","GENERIC","62.101","0.17832563677779079","517"
"20:27:34:545 (H:m:s:ms)","GENERIC","62.121","0.1790882323004041","456"
"20:27:40:606 (H:m:s:ms)","GENERIC","62.085","0.1838171311470373","395"
"20:27:46:666 (H:m:s:ms)","GENERIC","62.099","0.18513591726315007","334"
"20:27:52:727 (H:m:s:ms)","GENERIC","62.105","0.18436649679485015","273"
"20:27:58:787 (H:m:s:ms)","GENERIC","62.033","0.18321450350478483","213"
"20:28:4:848 (H:m:s:ms)","GENERIC","62.149","0.1830839763030711","153"
"20:28:10:909 (H:m:s:ms)","GENERIC","62.087","0.18199439128707529","1091"
"20:28:16:969 (H:m:s:ms)","GENERIC","62.073","0.18164913107410047","1031"
"20:28:23:30 (H:m:s:ms)","GENERIC","62.109","0.17953101685661835","970"
"20:28:29:90 (H:m:s:ms)","GENERIC","62.047","0.1809589865336196","989"
"20:28:35:151 (H:m:s:ms)","GENERIC","62.025","0.18550222998914723","850"
"20:28:41:212 (H:m:s:ms)","GENERIC","62.111","0.18717030272350796","788"
"20:28:47:272 (H:m:s:ms)","GENERIC","62.107","0.18857912973640337","728"
"20:28:53:333 (H:m:s:ms)","GENERIC","62.085","0.18941803508792404","667"
"20:28:59:393 (H:m:s:ms)","GENERIC","62.105","0.19098044577369966","645"
"20:29:5:454 (H:m:s:ms)","GENERIC","62.089","0.18990715149116766","547"
"20:29:11:515 (H:m:s:ms)","GENERIC","62.093","0.18829941755505344","486"
"20:29:17:575 (H:m:s:ms)","GENERIC","62.099","0.186760582822164","425"
"20:29:23:636 (H:m:s:ms)","GENERIC","62.139","0.18237631799194973","364"
"20:29:29:696 (H:m:s:ms)","GENERIC","62.067","0.18189879896280486","343"
"20:29:35:757 (H:m:s:ms)","GENERIC","62.087","0.18192837204771883","243"
"20:29:41:818 (H:m:s:ms)","GENERIC","62.039","0.17703448208721634","183"
"20:29:47:878 (H:m:s:ms)","GENERIC","62.033","0.17178314674859232","1123"
"20:29:53:939 (H:m:s:ms)","GENERIC","62.121","0.17137485279319836","1062"
"21:20:18:181 (H:m:s:ms)","GENERIC","62.095","0.1787286584197408","819"
"21:20:22:784 (H:m:s:ms)","OPERA","31.009","0.17926765714538903","217"
"21:20:24:242 (H:m:s:ms)","GENERIC","62.133","0.17930813945907365","758"
"21:20:30:303 (H:m:s:ms)","GENERIC","62.061","0.1807963956466232","698"
"21:20:30:379 (H:m:s:ms)","OPERA","31.008","0.18122193276608753","623"
"21:20:36:363 (H:m:s:ms)","GENERIC","62.053","0.17975091020752423","637"
"21:20:37:974 (H:m:s:ms)","OPERA","31.008","0.181020781224608","1027"
"21:20:42:424 (H:m:s:ms)","GENERIC","62.087","0.18137207220094603","576"
"21:20:45:569 (H:m:s:ms)","OPERA","31.009","0.18204231469915017","431"
"21:20:48:484 (H:m:s:ms)","GENERIC","62.111","0.18544225012870014","518"
"21:20:53:164 (H:m:s:ms)","OPERA","31.009","0.18731221521231645","837"
"21:20:54:545 (H:m:s:ms)","GENERIC","62.125","0.18964025452139338","455"
"21:21:0:606 (H:m:s:ms)","GENERIC","62.037","0.1889382717704689","395"
"21:21:0:759 (H:m:s:ms)","OPERA","62.013","0.1904902143581666","244"
"21:21:6:666 (H:m:s:ms)","GENERIC","62.079","0.18635941368674167","335"
"21:21:8:354 (H:m:s:ms)","OPERA","62.013","0.1890918108855972","647"
"21:21:12:727 (H:m:s:ms)","GENERIC","62.043","0.18949698494731868","274"
"21:21:15:949 (H:m:s:ms)","OPERA","62.015","0.1890090873022734","1051"
"21:21:18:787 (H:m:s:ms)","GENERIC","62.057","0.18950318213795173","215"
"21:21:23:544 (H:m:s:ms)","OPERA","31.009","0.19177011922926449","456"
"21:33:7:878 (H:m:s:ms)","GENERIC","62.055","0.20541438850115423","1124"
"21:32:49:696 (H:m:s:ms)","GENERIC","62.029","0.20780492701739617","347"
"21:32:43:636 (H:m:s:ms)","GENERIC","62.125","0.20966363035374513","364"
"21:32:37:894 (H:m:s:ms)","AMBULANCE","31.03","0.21385163245337122","117"
"21:32:37:575 (H:m:s:ms)","GENERIC","62.099","0.21394568559632082","425"
"21:32:31:515 (H:m:s:ms)","GENERIC","62.097","0.2136259417083992","573"
"21:32:25:454 (H:m:s:ms)","GENERIC","62.109","0.21452736612659806","546"
"21:32:19:393 (H:m:s:ms)","GENERIC","62.027","0.21918667460752847","648"
"21:21:24:848 (H:m:s:ms)","GENERIC","62.103","0.19212300490271855","153"
"21:32:13:333 (H:m:s:ms)","GENERIC","62.059","0.22024948504744915","667"
"21:21:30:909 (H:m:s:ms)","GENERIC","31.016","0.19353663373643396","1091"
"21:21:31:139 (H:m:s:ms)","OPERA","62.015","0.1976708761575284","862"
"21:21:36:969 (H:m:s:ms)","GENERIC","62.067","0.20022135724442028","1032"
"21:21:38:734 (H:m:s:ms)","OPERA","62.013","0.20014316858677425","266"
"21:21:43:30 (H:m:s:ms)","GENERIC","62.021","0.19804655171228627","970"
"21:21:46:329 (H:m:s:ms)","OPERA","62.015","0.19807048546005665","671"
"21:21:49:90 (H:m:s:ms)","GENERIC","62.179","0.19432367898580513","954"
"21:33:1:818 (H:m:s:ms)","GENERIC","62.103","0.2062703702858939","183"
"21:21:53:924 (H:m:s:ms)","OPERA","31.008","0.19165179836651644","1077"
"21:32:55:757 (H:m:s:ms)","GENERIC","62.047","0.20895794375859664","244"
"21:21:55:151 (H:m:s:ms)","GENERIC","62.099","0.19156287396996072","849"
"21:34:2:424 (H:m:s:ms)","GENERIC","62.113","0.19848335465338895","576"
"21:33:56:363 (H:m:s:ms)","GENERIC","62.089","0.20255346548317213","637"
"21:33:44:242 (H:m:s:ms)","GENERIC","62.055","0.20286042512053606","759"
"21:33:41:52 (H:m:s:ms)","AMBULANCE","31.032","0.2024754763255631","950"
"21:33:38:181 (H:m:s:ms)","GENERIC","62.059","0.20129610849102483","819"
"21:33:32:121 (H:m:s:ms)","GENERIC","62.063","0.2009585809422357","880"
"21:33:26:60 (H:m:s:ms)","GENERIC","31.018","0.20875476284346425","943"
"21:33:20:0 (H:m:s:ms)","GENERIC","62.071","0.20878521704352238","1042"
"21:22:1:212 (H:m:s:ms)","GENERIC","62.089","0.19306858112073771","789"
"21:33:13:939 (H:m:s:ms)","GENERIC","62.089","0.20842504978196094","1063"
"21:22:1:518 (H:m:s:ms)","OPERA","31.01","0.19326005205682942","485"
"21:33:9:473 (H:m:s:ms)","AMBULANCE","31.012","0.20914245049283497","580"
"21:22:7:272 (H:m:s:ms)","GENERIC","62.075","0.19325964952483365","729"
"21:22:9:113 (H:m:s:ms)","OPERA","62.015","0.19467954868689177","928"
"21:22:13:333 (H:m:s:ms)","GENERIC","62.057","0.19479786855588657","668"
"21:22:16:708 (H:m:s:ms)","OPERA","31.009","0.19617400982706434","292"
"21:22:19:393 (H:m:s:ms)","GENERIC","62.053","0.19647732616842586","648"
"21:22:24:303 (H:m:s:ms)","OPERA","31.008","0.19700947688754247","697"
"21:22:25:454 (H:m:s:ms)","GENERIC","62.115","0.19752542638643938","547"
"21:22:31:515 (H:m:s:ms)","GENERIC","62.105","0.19772585835944287","487"
"21:33:50:303 (H:m:s:ms)","GENERIC","62.117","0.20323143624612333","697"
"21:34:56:969 (H:m:s:ms)","GENERIC","62.041","0.19373164315908273","1031"
"21:34:50:909 (H:m:s:ms)","GENERIC","62.029","0.19507334734553014","1091"
"21:34:44:848 (H:m:s:ms)","GENERIC","62.085","0.20036511678103286","161"
"21:34:44:210 (H:m:s:ms)","AMBULANCE","31.032","0.1996548991490138","797"
"21:34:38:787 (H:m:s:ms)","GENERIC","62.067","0.19531765304354265","213"
"21:34:32:727 (H:m:s:ms)","GENERIC","62.151","0.19703923498119325","273"
"21:34:26:666 (H:m:s:ms)","GENERIC","62.061","0.19637310856186427","334"
"21:34:20:606 (H:m:s:ms)","GENERIC","62.085","0.19620488059143262","395"
"21:22:31:898 (H:m:s:ms)","OPERA","31.009","0.19904344888412984","105"
"21:34:14:545 (H:m:s:ms)","GENERIC","62.053","0.1939808732300649","455"
"21:22:37:575 (H:m:s:ms)","GENERIC","62.115","0.19824506846428028","426"
"21:34:12:631 (H:m:s:ms)","AMBULANCE","31.018","0.1890497536449819","398"
"21:2:7:272 (H:m:s:ms)","GENERIC","62.103","0.18351768870411655","728"
"21:22:39:493 (H:m:s:ms)","OPERA","62.013","0.2023663405801823","547"
"21:34:8:484 (H:m:s:ms)","GENERIC","62.133","0.1937220002863172","517"
"21:2:13:333 (H:m:s:ms)","GENERIC","62.067","0.18303916121831199","667"
"21:22:43:636 (H:m:s:ms)","GENERIC","62.119","0.19842999188381694","364"
"21:2:19:393 (H:m:s:ms)","GENERIC","62.041","0.18268608020822188","651"
"21:22:47:88 (H:m:s:ms)","OPERA","31.008","0.19929620717510832","919"
"21:2:25:454 (H:m:s:ms)","GENERIC","62.099","0.18252429463712294","547"
"21:22:49:696 (H:m:s:ms)","GENERIC","62.041","0.19930576390546592","346"
"21:2:31:515 (H:m:s:ms)","GENERIC","62.089","0.1828508290502229","485"
"21:22:54:683 (H:m:s:ms)","OPERA","31.009","0.2019801025384278","317"
"21:2:37:575 (H:m:s:ms)","GENERIC","62.141","0.18232683041318767","425"
"21:22:55:757 (H:m:s:ms)","GENERIC","62.051","0.20370502440044758","244"
"21:2:37:894 (H:m:s:ms)","AMBULANCE","31.055","0.1841759003577697","110"
"21:23:1:818 (H:m:s:ms)","GENERIC","62.109","0.20375590995478632","183"
"21:2:43:636 (H:m:s:ms)","GENERIC","62.093","0.18156401400531105","364"
"21:23:2:278 (H:m:s:ms)","OPERA","31.009","0.20636455379234456","723"
"21:2:49:696 (H:m:s:ms)","GENERIC","62.075","0.18155763047230597","347"
"21:2:55:757 (H:m:s:ms)","GENERIC","62.049","0.18706103960373147","243"
"21:35:51:515 (H:m:s:ms)","GENERIC","62.103","0.19226025276602515","485"
"21:35:47:368 (H:m:s:ms)","AMBULANCE","31.02","0.18992127519328852","661"
"21:35:45:454 (H:m:s:ms)","GENERIC","62.079","0.18971314420537488","547"
"21:35:39:393 (H:m:s:ms)","GENERIC","62.077","0.18953708378028625","649"
"21:35:33:333 (H:m:s:ms)","GENERIC","62.079","0.1876428080949101","668"
"21:35:27:272 (H:m:s:ms)","GENERIC","62.045","0.19111005815312224","729"
"21:35:21:212 (H:m:s:ms)","GENERIC","62.077","0.1910382955015499","788"
"21:23:7:878 (H:m:s:ms)","GENERIC","62.071","0.20719417703180001","1123"
"21:35:15:789 (H:m:s:ms)","AMBULANCE","31.029","0.1919747149947322","247"
"21:23:9:873 (H:m:s:ms)","OPERA","62.013","0.2085182396551756","167"
"21:35:15:151 (H:m:s:ms)","GENERIC","62.087","0.19190286996823128","886"
"21:3:1:818 (H:m:s:ms)","GENERIC","62.077","0.18685211507007862","183"
"21:23:13:939 (H:m:s:ms)","GENERIC","62.107","0.2088753131485973","1064"
"21:35:9:90 (H:m:s:ms)","GENERIC","62.105","0.19101341237842343","951"
"21:3:7:878 (H:m:s:ms)","GENERIC","62.077","0.18936482175427202","1123"
"21:23:17:468 (H:m:s:ms)","OPERA","62.015","0.2105263505156501","531"
"21:35:3:30 (H:m:s:ms)","GENERIC","62.025","0.1892519144339414","973"
"21:3:9:473 (H:m:s:ms)","AMBULANCE","31.059","0.18927842167549133","696"
"21:23:20:0 (H:m:s:ms)","GENERIC","62.059","0.21054646561566484","1042"
"21:3:13:939 (H:m:s:ms)","GENERIC","62.145","0.1840602471666945","1074"
"21:23:25:63 (H:m:s:ms)","OPERA","31.009","0.2102216156134631","938"
"21:3:20:0 (H:m:s:ms)","GENERIC","62.045","0.18507295620591893","1050"
"21:23:26:60 (H:m:s:ms)","GENERIC","62.035","0.21059100517481752","947"
"21:3:26:60 (H:m:s:ms)","GENERIC","62.053","0.18965993954480975","941"
"21:23:32:121 (H:m:s:ms)","GENERIC","62.087","0.21069658414596354","880"
"21:3:32:121 (H:m:s:ms)","GENERIC","62.135","0.18931777694626545","879"
"21:23:32:658 (H:m:s:ms)","OPERA","31.008","0.21092973300532356","343"
"21:3:38:181 (H:m:s:ms)","GENERIC","62.053","0.1842909465563402","819"
"21:23:38:181 (H:m:s:ms)","GENERIC","62.055","0.20724168123622314","820"
"21:3:41:52 (H:m:s:ms)","AMBULANCE","31.04","0.18953846998109417","951"
"21:3:44:242 (H:m:s:ms)","GENERIC","62.045","0.18900237311237905","759"
"21:36:50:526 (H:m:s:ms)","AMBULANCE","31.023","0.18490639326365224","512"
"21:36:46:60 (H:m:s:ms)","GENERIC","62.161","0.18428616924911537","940"
"21:36:40:0 (H:m:s:ms)","GENERIC","62.131","0.1809184883050684","1045"
"21:36:33:939 (H:m:s:ms)","GENERIC","62.107","0.18037902315063437","1061"
"21:36:27:878 (H:m:s:ms)","GENERIC","62.095","0.1820480174338773","1122"
"21:36:21:818 (H:m:s:ms)","GENERIC","31.024","0.18225362620029395","183"
"21:23:40:253 (H:m:s:ms)","OPERA","62.015","0.21095255815760586","747"
"21:36:18:947 (H:m:s:ms)","AMBULANCE","31.012","0.1813393352103053","1108"
"21:23:44:242 (H:m:s:ms)","GENERIC","62.061","0.2122033379829256","759"
"21:36:15:757 (H:m:s:ms)","GENERIC","62.083","0.18622628719293907","243"
"21:3:50:303 (H:m:s:ms)","GENERIC","62.169","0.19042569190371514","696"
"21:23:47:848 (H:m:s:ms)","OPERA","62.013","0.21687407599647604","153"
"21:36:9:696 (H:m:s:ms)","GENERIC","62.071","0.18834267865438284","346"
"21:3:56:363 (H:m:s:ms)","GENERIC","62.097","0.1880497113386597","637"
"21:23:50:303 (H:m:s:ms)","GENERIC","62.141","0.21686435678724986","697"
"21:36:3:636 (H:m:s:ms)","GENERIC","62.075","0.18758365132972907","364"
"21:4:2:424 (H:m:s:ms)","GENERIC","62.073","0.18634603179920786","576"
"21:23:55:443 (H:m:s:ms)","OPERA","62.013","0.2210584455071638","558"
"21:35:57:575 (H:m:s:ms)","GENERIC","62.099","0.19228552860637552","427"
"21:4:8:484 (H:m:s:ms)","GENERIC","62.137","0.1823661971588776","517"
"21:23:56:363 (H:m:s:ms)","GENERIC","62.085","0.22143729622270208","638"
"21:4:12:631 (H:m:s:ms)","AMBULANCE","31.031","0.1859669036681534","372"
"21:24:2:424 (H:m:s:ms)","GENERIC","62.099","0.21958181454771086","576"
"21:4:14:545 (H:m:s:ms)","GENERIC","62.041","0.19106141367984245","456"
"21:24:3:37 (H:m:s:ms)","OPERA","62.015","0.22142205118357824","964"
"21:4:20:606 (H:m:s:ms)","GENERIC","62.057","0.19189016051340238","395"
"21:24:8:484 (H:m:s:ms)","GENERIC","62.149","0.22326548746945185","516"
"21:4:26:666 (H:m:s:ms)","GENERIC","62.097","0.19170886380395719","335"
"21:24:10:632 (H:m:s:ms)","OPERA","31.009","0.22716479677366125","368"
"21:4:32:727 (H:m:s:ms)","GENERIC","62.167","0.19253408111959514","273"
"21:4:38:787 (H:m:s:ms)","GENERIC","62.053","0.1918906896490915","214"
"21:37:46:666 (H:m:s:ms)","GENERIC","62.027","0.19380387145734967","335"
"21:37:40:606 (H:m:s:ms)","GENERIC","62.071","0.19277144510698735","395"
"21:37:34:545 (H:m:s:ms)","GENERIC","62.093","0.19335490937743743","458"
"21:37:28:484 (H:m:s:ms)","GENERIC","62.029","0.19404476700731796","516"
"21:37:22:424 (H:m:s:ms)","GENERIC","62.077","0.19258114479635982","607"
"21:37:22:105 (H:m:s:ms)","AMBULANCE","31.019","0.19152003288622704","925"
"21:24:14:545 (H:m:s:ms)","GENERIC","62.055","0.22772019146751932","455"
"21:24:18:227 (H:m:s:ms)","OPERA","62.013","0.22895324406760298","772"
"21:37:16:363 (H:m:s:ms)","GENERIC","62.175","0.18900412133028247","638"
"21:4:44:210 (H:m:s:ms)","AMBULANCE","31.015","0.18878723812106835","795"
"21:24:20:606 (H:m:s:ms)","GENERIC","62.075","0.22908268917109612","394"
"21:37:10:303 (H:m:s:ms)","GENERIC","62.133","0.1889899640112736","698"
"21:4:44:848 (H:m:s:ms)","GENERIC","62.053","0.18977347846566564","158"
"21:24:25:822 (H:m:s:ms)","OPERA","31.009","0.22938348877833842","179"
"21:37:4:242 (H:m:s:ms)","GENERIC","62.055","0.191007525535381","759"
"21:4:50:909 (H:m:s:ms)","GENERIC","62.031","0.18863938945884354","1092"
"21:24:26:666 (H:m:s:ms)","GENERIC","62.077","0.22988617765528568","334"
"21:36:58:181 (H:m:s:ms)","GENERIC","62.049","0.189944483327304","821"
"21:4:56:969 (H:m:s:ms)","GENERIC","62.059","0.18871026507388977","1032"
"21:24:32:727 (H:m:s:ms)","GENERIC","62.153","0.228386191084217","273"
"21:36:52:121 (H:m:s:ms)","GENERIC","62.121","0.18996020374630712","879"
"21:5:3:30 (H:m:s:ms)","GENERIC","62.041","0.18109013368786556","970"
"21:24:33:417 (H:m:s:ms)","OPERA","62.015","0.22824666769401356","585"
"21:5:9:90 (H:m:s:ms)","GENERIC","62.083","0.18264855678247138","953"
"21:24:38:787 (H:m:s:ms)","GENERIC","62.065","0.23192750399131432","213"
"21:5:15:151 (H:m:s:ms)","GENERIC","62.113","0.18581098872053034","850"
"21:24:41:12 (H:m:s:ms)","OPERA","62.015","0.23224475029211492","989"
"21:5:15:789 (H:m:s:ms)","AMBULANCE","31.063","0.18709848129735573","212"
"21:24:44:848 (H:m:s:ms)","GENERIC","62.065","0.2379871611775626","152"
"21:5:21:212 (H:m:s:ms)","GENERIC","62.019","0.18829845974162004","791"
"21:5:27:272 (H:m:s:ms)","GENERIC","62.039","0.1882524829529565","728"
"21:38:41:212 (H:m:s:ms)","GENERIC","62.079","0.19635206375431072","788"
"21:38:35:151 (H:m:s:ms)","GENERIC","62.029","0.19659530575043377","849"
"21:38:29:90 (H:m:s:ms)","GENERIC","62.099","0.19687304394821453","951"
"21:38:25:263 (H:m:s:ms)","AMBULANCE","31.019","0.1959443624876137","791"
"21:38:23:30 (H:m:s:ms)","GENERIC","62.091","0.19297262212171215","971"
"21:38:16:969 (H:m:s:ms)","GENERIC","62.109","0.19385616911430062","1031"
"21:38:10:909 (H:m:s:ms)","GENERIC","62.055","0.19430672285211303","1090"
"21:24:48:607 (H:m:s:ms)","OPERA","31.008","0.2413817719748792","394"
"21:24:50:909 (H:m:s:ms)","GENERIC","62.021","0.23915677228813892","1091"
"21:5:33:333 (H:m:s:ms)","GENERIC","62.055","0.1854547790838602","668"
"21:24:56:202 (H:m:s:ms)","OPERA","31.009","0.2412406121571407","798"
"21:5:39:393 (H:m:s:ms)","GENERIC","62.061","0.18532776747530028","649"
"21:24:56:969 (H:m:s:ms)","GENERIC","62.041","0.2413595496344182","1032"
"21:38:4:848 (H:m:s:ms)","GENERIC","62.085","0.19763814777979943","153"
"20:45:49:367 (H:m:s:ms)","OPERA","31.009","0.22081050428372337","675"
"21:5:45:454 (H:m:s:ms)","GENERIC","62.087","0.18547966944028801","546"
"21:25:3:30 (H:m:s:ms)","GENERIC","62.019","0.23414545048530272","972"
"21:37:58:787 (H:m:s:ms)","GENERIC","62.057","0.19585791406744038","213"
"20:45:51:515 (H:m:s:ms)","GENERIC","62.119","0.22108913009953327","486"
"21:5:47:368 (H:m:s:ms)","AMBULANCE","31.052","0.18677679813054324","639"
"21:25:3:797 (H:m:s:ms)","OPERA","31.008","0.23579088147279476","206"
"21:37:53:684 (H:m:s:ms)","AMBULANCE","31.007","0.1966645772553272","319"
"20:45:56:962 (H:m:s:ms)","OPERA","31.009","0.2188370082039781","1038"
"21:5:51:515 (H:m:s:ms)","GENERIC","62.153","0.18705802415550668","485"
"21:25:9:90 (H:m:s:ms)","GENERIC","62.119","0.23303145104798534","954"
"21:37:52:727 (H:m:s:ms)","GENERIC","62.119","0.19434678788083126","274"
"20:45:57:575 (H:m:s:ms)","GENERIC","62.113","0.21937017123885247","427"
"21:5:57:575 (H:m:s:ms)","GENERIC","62.093","0.1870206050442119","425"
"21:25:11:392 (H:m:s:ms)","OPERA","62.013","0.23395923515916583","608"
"20:46:3:636 (H:m:s:ms)","GENERIC","62.111","0.2207858258569402","364"
"21:6:3:636 (H:m:s:ms)","GENERIC","62.097","0.19173039883363072","364"
"21:25:15:151 (H:m:s:ms)","GENERIC","62.107","0.23297447632127533","849"
"20:46:4:556 (H:m:s:ms)","OPERA","31.009","0.22448049851997234","445"
"21:6:9:696 (H:m:s:ms)","GENERIC","62.073","0.19077993647329353","347"
"21:25:21:212 (H:m:s:ms)","GENERIC","62.055","0.2287279320348884","789"
"20:46:9:696 (H:m:s:ms)","GENERIC","62.059","0.22099026017742138","346"
"21:6:15:757 (H:m:s:ms)","GENERIC","62.053","0.18967977455501325","243"
"20:46:12:151 (H:m:s:ms)","OPERA","31.009","0.22346073089975232","849"
"21:6:18:947 (H:m:s:ms)","AMBULANCE","31.03","0.1888469776658069","1218"
"20:46:15:757 (H:m:s:ms)","GENERIC","62.105","0.22038724061968862","244"
"20:46:19:746 (H:m:s:ms)","OPERA","31.01","0.22054385341256624","298"
"21:39:35:757 (H:m:s:ms)","GENERIC","62.167","0.19632610587129593","243"
"21:39:29:696 (H:m:s:ms)","GENERIC","62.097","0.19853793405439998","345"
"21:39:28:421 (H:m:s:ms)","AMBULANCE","31.007","0.19526136129532534","582"
"21:39:23:636 (H:m:s:ms)","GENERIC","62.133","0.19391587541198294","364"
"21:39:17:575 (H:m:s:ms)","GENERIC","62.035","0.19740110950328582","425"
"21:39:11:515 (H:m:s:ms)","GENERIC","62.129","0.20036295931584647","487"
"21:39:5:454 (H:m:s:ms)","GENERIC","62.067","0.20118042207077014","547"
"21:38:59:393 (H:m:s:ms)","GENERIC","62.111","0.2028616008382014","649"
"21:25:26:582 (H:m:s:ms)","OPERA","62.015","0.2288450380719479","425"
"21:25:27:272 (H:m:s:ms)","GENERIC","62.029","0.2299069726270506","728"
"21:6:21:818 (H:m:s:ms)","GENERIC","62.109","0.18903268464345382","183"
"21:25:33:333 (H:m:s:ms)","GENERIC","62.081","0.227671811698954","667"
"21:6:27:878 (H:m:s:ms)","GENERIC","62.121","0.1883540285790153","1123"
"21:25:34:177 (H:m:s:ms)","OPERA","31.01","0.22900020699511064","825"
"20:46:21:818 (H:m:s:ms)","GENERIC","62.121","0.22080483423388966","182"
"21:6:33:939 (H:m:s:ms)","GENERIC","62.097","0.19246779066706426","1062"
"21:25:39:393 (H:m:s:ms)","GENERIC","62.093","0.22771440740302934","650"
"20:46:27:341 (H:m:s:ms)","OPERA","31.008","0.22232881083121778","658"
"21:6:40:0 (H:m:s:ms)","GENERIC","62.097","0.1959502405180714","1045"
"21:25:41:772 (H:m:s:ms)","OPERA","62.013","0.22898402660914333","228"
"21:38:56:842 (H:m:s:ms)","AMBULANCE","31.02","0.19947600182375075","207"
"20:46:27:878 (H:m:s:ms)","GENERIC","62.109","0.222823414254845","1122"
"21:6:46:60 (H:m:s:ms)","GENERIC","62.163","0.19950044926592986","941"
"21:25:45:454 (H:m:s:ms)","GENERIC","62.079","0.22905646597080773","547"
"21:38:53:333 (H:m:s:ms)","GENERIC","62.035","0.19475613383643256","668"
"20:46:33:939 (H:m:s:ms)","GENERIC","62.105","0.22323204616352504","1062"
"21:6:50:526 (H:m:s:ms)","AMBULANCE","31.04","0.19582342691308277","474"
"21:25:49:367 (H:m:s:ms)","OPERA","62.015","0.22803737255299497","675"
"21:38:47:272 (H:m:s:ms)","GENERIC","62.087","0.19563726873280898","728"
"20:46:34:936 (H:m:s:ms)","OPERA","31.01","0.2265661270824905","1066"
"21:6:52:121 (H:m:s:ms)","GENERIC","62.101","0.19603953305805488","879"
"21:25:51:515 (H:m:s:ms)","GENERIC","62.123","0.22837564649394151","486"
"20:46:40:0 (H:m:s:ms)","GENERIC","62.059","0.22505944757941443","1042"
"21:6:58:181 (H:m:s:ms)","GENERIC","62.013","0.19597288364205565","821"
"21:25:56:962 (H:m:s:ms)","OPERA","62.015","0.2282560230294277","1038"
"20:46:42:531 (H:m:s:ms)","OPERA","31.009","0.22657040329315248","469"
"21:7:4:242 (H:m:s:ms)","GENERIC","62.019","0.1951550414304004","759"
"20:46:46:60 (H:m:s:ms)","GENERIC","62.133","0.22586596286921196","941"
"21:7:10:303 (H:m:s:ms)","GENERIC","62.097","0.19011284791797348","698"
"20:46:50:126 (H:m:s:ms)","OPERA","31.008","0.22399179236451205","874"
"20:46:52:121 (H:m:s:ms)","GENERIC","62.069","0.22547066838819932","879"
"21:39:53:939 (H:m:s:ms)","GENERIC","62.113","0.1894156443968314","1064"
"21:40:30:303 (H:m:s:ms)","GENERIC","62.049","0.19357861157252268","698"
"21:40:24:242 (H:m:s:ms)","GENERIC","62.149","0.19357021726943838","759"
"21:40:18:181 (H:m:s:ms)","GENERIC","31.016","0.19277269288958238","819"
"21:40:12:121 (H:m:s:ms)","GENERIC","62.141","0.1904528103359515","879"
"21:40:6:60 (H:m:s:ms)","GENERIC","62.067","0.18997038258780674","941"
"21:40:0:0 (H:m:s:ms)","AMBULANCE","62.063","0.19085919097927195","1609"
"21:40:0:0 (H:m:s:ms)","GENERIC","62.109","0.19168045029917408","1611"
"21:40:0:0 (H:m:s:ms)","GENERIC","62.021","0.18986667355404058","1577"
"21:7:16:363 (H:m:s:ms)","GENERIC","62.135","0.19050957612596944","637"
"21:7:22:105 (H:m:s:ms)","AMBULANCE","31.05","0.1931755048261793","898"
"20:46:57:721 (H:m:s:ms)","OPERA","31.008","0.2248826259316659","278"
"21:7:22:424 (H:m:s:ms)","GENERIC","62.061","0.19720009444124184","580"
"20:46:58:181 (H:m:s:ms)","GENERIC","31.019","0.22576036808905292","865"
"21:7:28:484 (H:m:s:ms)","GENERIC","62.047","0.19865543424354076","517"
"20:47:4:242 (H:m:s:ms)","GENERIC","62.025","0.2280696010505879","758"
"21:7:34:545 (H:m:s:ms)","GENERIC","62.117","0.19936545742647827","455"
"20:47:10:303 (H:m:s:ms)","GENERIC","62.079","0.22957374426210198","698"
"21:7:40:606 (H:m:s:ms)","GENERIC","62.051","0.19708698608900238","395"
"21:39:47:878 (H:m:s:ms)","GENERIC","62.025","0.18999613751755923","1123"
"20:47:12:911 (H:m:s:ms)","OPERA","31.009","0.23059517052854936","1089"
"21:7:46:666 (H:m:s:ms)","GENERIC","62.087","0.19474749929981572","335"
"21:39:41:818 (H:m:s:ms)","GENERIC","62.043","0.19103887402347958","183"
"20:47:16:363 (H:m:s:ms)","GENERIC","62.113","0.23031439092255973","637"
"21:7:52:727 (H:m:s:ms)","GENERIC","62.169","0.19466610426802217","273"
"20:47:20:506 (H:m:s:ms)","OPERA","31.008","0.2321883985195015","493"
"21:7:53:684 (H:m:s:ms)","AMBULANCE","31.017","0.19703266141785572","371"
"20:47:22:424 (H:m:s:ms)","GENERIC","62.073","0.2325785951260441","576"
"21:7:58:787 (H:m:s:ms)","GENERIC","62.085","0.19268287373848708","213"
"20:47:28:101 (H:m:s:ms)","OPERA","31.009","0.23198762327046749","900"
"20:47:28:484 (H:m:s:ms)","GENERIC","62.077","0.23211005646879532","518"
"21:8:4:848 (H:m:s:ms)","GENERIC","62.103","0.19256648089779732","152"
"21:8:10:909 (H:m:s:ms)","GENERIC","62.037","0.19329712321912904","1091"
"20:47:34:545 (H:m:s:ms)","GENERIC","62.121","0.228335860530616","456"
"21:8:16:969 (H:m:s:ms)","GENERIC","62.091","0.19341206164585745","1033"
"20:47:35:696 (H:m:s:ms)","OPERA","31.009","0.22890263079115739","304"
"21:8:23:30 (H:m:s:ms)","GENERIC","62.079","0.19150565950886972","970"
"20:47:40:606 (H:m:s:ms)","GENERIC","62.063","0.22957911219202254","395"
"21:8:25:263 (H:m:s:ms)","AMBULANCE","31.043","0.1936420496667345","740"
"20:47:43:291 (H:m:s:ms)","OPERA","31.008","0.23224509296530338","709"
"21:8:29:90 (H:m:s:ms)","GENERIC","62.079","0.1888977472887953","952"
"20:47:46:666 (H:m:s:ms)","GENERIC","62.087","0.23296340114747108","334"
"21:8:35:151 (H:m:s:ms)","GENERIC","62.075","0.18934835123472377","849"
"20:47:50:886 (H:m:s:ms)","OPERA","31.009","0.2317375993311774","114"
"21:8:41:212 (H:m:s:ms)","GENERIC","62.093","0.18962238407789073","788"
"21:40:36:363 (H:m:s:ms)","GENERIC","62.053","0.19505158037599876","637"
"20:47:52:727 (H:m:s:ms)","GENERIC","62.139","0.23212733490036522","273"
"21:8:47:272 (H:m:s:ms)","GENERIC","62.111","0.1844920571396441","729"
"20:47:58:481 (H:m:s:ms)","OPERA","31.008","0.22836653082794503","519"
"21:8:53:333 (H:m:s:ms)","GENERIC","62.055","0.18390939719399949","668"
"20:47:58:787 (H:m:s:ms)","GENERIC","62.065","0.22819351384434047","214"
"20:48:4:848 (H:m:s:ms)","GENERIC","62.107","0.228228794550026","153"
"21:8:56:842 (H:m:s:ms)","AMBULANCE","31.028","0.18554969850891515","162"
"21:8:59:393 (H:m:s:ms)","GENERIC","62.099","0.18792966268812253","649"
"20:48:6:75 (H:m:s:ms)","OPERA","31.009","0.2292134771899512","925"
"21:9:5:454 (H:m:s:ms)","GENERIC","62.083","0.18367575331959032","547"
"20:48:10:909 (H:m:s:ms)","GENERIC","62.055","0.22590929484507594","1091"
"21:9:11:515 (H:m:s:ms)","GENERIC","62.119","0.1843358083943553","486"
"20:30:0:0 (H:m:s:ms)","GENERIC","62.083","0.1714564861443794","1039"
"20:48:13:670 (H:m:s:ms)","OPERA","31.009","0.2285856449689546","330"
"21:9:17:575 (H:m:s:ms)","GENERIC","62.065","0.1766897566097006","425"
"20:30:0:0 (H:m:s:ms)","GENERIC","62.081","0.17713231941328098","1041"
"20:48:16:969 (H:m:s:ms)","GENERIC","62.067","0.22954951438685106","1032"
"21:9:23:636 (H:m:s:ms)","GENERIC","62.127","0.1766553542541639","364"
"20:30:6:60 (H:m:s:ms)","GENERIC","62.087","0.17606262247356158","941"
"20:48:21:265 (H:m:s:ms)","OPERA","31.008","0.229690907140205","735"
"21:9:28:421 (H:m:s:ms)","AMBULANCE","31.026","0.17665329457718384","637"
"20:30:12:121 (H:m:s:ms)","GENERIC","62.161","0.17956183579052104","879"
"20:48:23:30 (H:m:s:ms)","GENERIC","62.119","0.22984755314870897","970"
"21:9:29:696 (H:m:s:ms)","GENERIC","31.032","0.1811209212125588","346"
"20:30:18:181 (H:m:s:ms)","GENERIC","62.089","0.17788975406966612","819"
"20:48:29:90 (H:m:s:ms)","GENERIC","62.049","0.2260123940541872","952"
"21:9:35:757 (H:m:s:ms)","GENERIC","62.161","0.18480384398384464","242"
"20:30:24:242 (H:m:s:ms)","GENERIC","62.165","0.17559909539668214","760"
"20:48:35:151 (H:m:s:ms)","GENERIC","62.035","0.22885873804095994","849"
"21:9:41:818 (H:m:s:ms)","GENERIC","62.053","0.18571436424840593","183"
"20:30:30:303 (H:m:s:ms)","GENERIC","62.039","0.17261038587146435","698"
"20:48:36:455 (H:m:s:ms)","OPERA","31.009","0.2301961706937566","544"
"20:30:36:363 (H:m:s:ms)","GENERIC","62.081","0.17000811012526387","637"
"20:48:41:212 (H:m:s:ms)","GENERIC","62.091","0.22849337891185478","788"
"20:30:42:424 (H:m:s:ms)","GENERIC","62.119","0.16737429066285167","576"
"20:30:48:484 (H:m:s:ms)","GENERIC","62.087","0.16737429066285167","517"
"21:9:47:878 (H:m:s:ms)","GENERIC","62.063","0.18312239315998893","1123"
"21:9:53:939 (H:m:s:ms)","GENERIC","62.147","0.183137915944641","1063"
"20:48:44:50 (H:m:s:ms)","OPERA","31.009","0.2296890433232784","951"
"21:10:0:0 (H:m:s:ms)","AMBULANCE","31.044","0.18272275506654917","1045"
"20:48:47:272 (H:m:s:ms)","GENERIC","62.099","0.2289514587767771","729"
"21:10:0:0 (H:m:s:ms)","GENERIC","62.025","0.18516212358171605","1046"
"20:30:54:545 (H:m:s:ms)","GENERIC","62.111","0.17206890130938304","456"
"20:48:51:645 (H:m:s:ms)","OPERA","31.008","0.22619974495667172","354"
"21:10:0:0 (H:m:s:ms)","GENERIC","62.067","0.18600096799982718","1047"
"20:31:0:606 (H:m:s:ms)","GENERIC","62.097","0.18419174643774533","394"
"20:48:53:333 (H:m:s:ms)","GENERIC","62.065","0.22662412153228062","667"
"21:10:6:60 (H:m:s:ms)","GENERIC","62.053","0.18627871825694534","940"
"20:31:6:666 (H:m:s:ms)","GENERIC","62.127","0.178583508738504","334"
"20:48:59:240 (H:m:s:ms)","OPERA","31.008","0.22570053677767832","801"
"21:10:12:121 (H:m:s:ms)","GENERIC","62.111","0.18952755636593482","880"
"20:31:12:727 (H:m:s:ms)","GENERIC","62.035","0.175728264354244","274"
"20:48:59:393 (H:m:s:ms)","GENERIC","62.081","0.22556200796215037","649"
"21:10:18:181 (H:m:s:ms)","GENERIC","62.087","0.18751089842487995","819"
"20:31:18:787 (H:m:s:ms)","GENERIC","62.051","0.1777142072722399","214"
"20:49:5:454 (H:m:s:ms)","GENERIC","62.089","0.2242443275423027","546"
"21:10:24:242 (H:m:s:ms)","GENERIC","62.139","0.18609094102577298","759"
"20:31:24:848 (H:m:s:ms)","GENERIC","62.101","0.17711329287050603","152"
"20:49:6:835 (H:m:s:ms)","OPERA","31.008","0.227674749721096","165"
"21:10:30:303 (H:m:s:ms)","GENERIC","62.073","0.18326864883074093","697"
"20:31:30:909 (H:m:s:ms)","GENERIC","62.041","0.1796013779887805","1091"
"20:49:11:515 (H:m:s:ms)","GENERIC","62.129","0.2268176287916059","486"
"20:31:36:969 (H:m:s:ms)","GENERIC","62.021","0.17490225453297512","1032"
"20:49:14:430 (H:m:s:ms)","OPERA","31.008","0.22974923524822446","569"
"20:31:43:30 (H:m:s:ms)","GENERIC","62.127","0.17208596196701903","1037"
"20:31:49:90 (H:m:s:ms)","GENERIC","62.101","0.17219595130567147","951"
"20:49:17:575 (H:m:s:ms)","GENERIC","62.075","0.22947701900541248","425"
"20:49:22:25 (H:m:s:ms)","OPERA","31.009","0.2256204031562821","981"
"20:31:55:151 (H:m:s:ms)","GENERIC","62.053","0.16528863721692363","849"
"20:49:23:636 (H:m:s:ms)","GENERIC","62.157","0.22560724144686933","364"
"20:32:1:212 (H:m:s:ms)","GENERIC","62.089","0.16699095075207712","789"
"20:49:29:620 (H:m:s:ms)","OPERA","31.009","0.22664863389284182","420"
"20:32:7:272 (H:m:s:ms)","GENERIC","62.077","0.1726265041991031","729"
"20:49:29:696 (H:m:s:ms)","GENERIC","62.067","0.22652855188035914","345"
"20:32:13:333 (H:m:s:ms)","GENERIC","62.083","0.17311089005597113","668"
"20:49:35:757 (H:m:s:ms)","GENERIC","62.123","0.22378079237861132","243"
"20:32:19:393 (H:m:s:ms)","GENERIC","62.051","0.17271357356794903","651"
"20:49:37:215 (H:m:s:ms)","OPERA","31.008","0.22631767111618675","784"
"20:32:25:454 (H:m:s:ms)","GENERIC","62.129","0.17316193264124694","547"
"20:49:41:818 (H:m:s:ms)","GENERIC","62.051","0.2287294457830814","182"
"20:32:31:515 (H:m:s:ms)","GENERIC","62.053","0.17355503590499943","486"
"20:49:44:810 (H:m:s:ms)","OPERA","31.008","0.23048902855885678","191"
"20:32:37:575 (H:m:s:ms)","GENERIC","62.133","0.17272871088372424","426"
"20:49:47:878 (H:m:s:ms)","GENERIC","62.031","0.22952016638402073","1122"
"20:32:43:636 (H:m:s:ms)","GENERIC","62.117","0.16749723856878843","364"
"20:32:49:696 (H:m:s:ms)","GENERIC","62.141","0.16675430292492177","343"
"20:49:52:405 (H:m:s:ms)","OPERA","31.009","0.2301950905417786","596"
"20:49:53:939 (H:m:s:ms)","GENERIC","62.145","0.23111373545442296","1062"
"20:32:55:757 (H:m:s:ms)","GENERIC","62.051","0.16918471080459904","244"
"20:50:0:0 (H:m:s:ms)","OPERA","31.009","0.2302420510000161","1043"
"20:33:1:818 (H:m:s:ms)","GENERIC","62.069","0.16837832500163957","184"
"20:50:0:0 (H:m:s:ms)","GENERIC","62.049","0.23023389510324377","1044"
"20:33:7:878 (H:m:s:ms)","GENERIC","62.069","0.17037147551836246","1122"
"20:50:0:0 (H:m:s:ms)","GENERIC","62.061","0.23114492217464633","1045"
"20:33:13:939 (H:m:s:ms)","GENERIC","62.111","0.16886823532668266","1062"
"20:50:6:60 (H:m:s:ms)","GENERIC","62.061","0.22949774153834496","940"
"20:33:20:0 (H:m:s:ms)","GENERIC","62.071","0.17469041795532894","1036"
"20:50:12:121 (H:m:s:ms)","GENERIC","62.135","0.2287164121032224","880"
"20:33:26:60 (H:m:s:ms)","GENERIC","62.087","0.17965904633615992","941"
"20:50:18:181 (H:m:s:ms)","GENERIC","62.069","0.22987813309370334","819"
"20:33:32:121 (H:m:s:ms)","GENERIC","62.157","0.18112771463646193","880"
"20:50:24:242 (H:m:s:ms)","GENERIC","62.159","0.23088941821605363","758"
"20:33:38:181 (H:m:s:ms)","GENERIC","62.055","0.17944673785326637","820"
"20:50:30:303 (H:m:s:ms)","GENERIC","62.047","0.22971863455192332","698"
"20:33:44:242 (H:m:s:ms)","GENERIC","62.041","0.18150970117606846","759"
"20:33:50:303 (H:m:s:ms)","GENERIC","62.133","0.18116131748194836","698"
"20:50:36:363 (H:m:s:ms)","GENERIC","62.093","0.22360072902556996","637"
"20:50:42:424 (H:m:s:ms)","GENERIC","62.095","0.21903881376904863","576"
"20:33:56:363 (H:m:s:ms)","GENERIC","62.077","0.18031121075694603","637"
"20:50:48:484 (H:m:s:ms)","GENERIC","62.079","0.21896080539917576","517"
"20:34:2:424 (H:m:s:ms)","GENERIC","62.089","0.1785753788799647","576"
"20:50:54:545 (H:m:s:ms)","GENERIC","62.141","0.2179035225539789","457"
"20:10:0:0 (H:m:s:ms)","GENERIC","31.045","0.17702265137762702","1002"
"20:34:8:484 (H:m:s:ms)","GENERIC","62.097","0.18047743576109923","517"
"20:51:0:606 (H:m:s:ms)","GENERIC","62.079","0.21827745110483235","394"
"20:10:0:0 (H:m:s:ms)","GENERIC","62.067","0.17708456289100355","1044"
"20:34:14:545 (H:m:s:ms)","GENERIC","62.029","0.1819971408320591","456"
"20:51:6:666 (H:m:s:ms)","GENERIC","62.107","0.21032912328703018","334"
"20:10:6:60 (H:m:s:ms)","GENERIC","62.075","0.1723942528584903","940"
"20:34:20:606 (H:m:s:ms)","GENERIC","62.065","0.182454176892923","394"
"20:51:12:727 (H:m:s:ms)","GENERIC","62.041","0.2106681295734173","272"
"20:10:12:121 (H:m:s:ms)","GENERIC","62.189","0.17764757538428919","879"
"20:34:26:666 (H:m:s:ms)","GENERIC","62.089","0.18247359547910993","334"
"20:51:18:787 (H:m:s:ms)","GENERIC","62.057","0.20991376945435186","214"
"20:10:18:181 (H:m:s:ms)","GENERIC","62.111","0.1823394671180485","819"
"20:34:32:727 (H:m:s:ms)","GENERIC","62.195","0.18485761514510377","272"
"20:51:24:848 (H:m:s:ms)","GENERIC","62.083","0.20961039180612862","153"
"20:10:24:242 (H:m:s:ms)","GENERIC","62.127","0.18397689976807854","758"
"20:34:38:787 (H:m:s:ms)","GENERIC","62.023","0.18322879329767708","214"
"20:51:30:909 (H:m:s:ms)","GENERIC","62.065","0.20604534582390172","1092"
"20:10:30:303 (H:m:s:ms)","GENERIC","62.079","0.18500434875557104","698"
"20:34:44:848 (H:m:s:ms)","GENERIC","62.061","0.18455439931864404","152"
"20:10:36:363 (H:m:s:ms)","GENERIC","62.069","0.18106346057183978","637"
"20:34:50:909 (H:m:s:ms)","GENERIC","62.031","0.1848973325611666","1092"
"20:10:42:424 (H:m:s:ms)","GENERIC","62.123","0.18035073217346115","577"
"20:10:48:484 (H:m:s:ms)","GENERIC","62.081","0.18055189565220742","517"
"20:51:36:969 (H:m:s:ms)","GENERIC","62.029","0.19751119749638324","1032"
"20:51:43:30 (H:m:s:ms)","GENERIC","62.035","0.19677299443249738","970"
"20:34:56:969 (H:m:s:ms)","GENERIC","62.057","0.18482609611515907","1032"
"20:51:49:90 (H:m:s:ms)","GENERIC","62.137","0.19612148140968114","952"
"20:35:3:30 (H:m:s:ms)","GENERIC","62.091","0.17827302571149337","970"
"20:51:55:151 (H:m:s:ms)","GENERIC","62.079","0.1941362976692427","849"
"20:10:54:545 (H:m:s:ms)","GENERIC","62.105","0.1799992273166177","456"
"20:35:9:90 (H:m:s:ms)","GENERIC","62.023","0.17751265712532482","949"
"20:52:1:212 (H:m:s:ms)","GENERIC","62.103","0.19158136283349422","789"
"20:11:0:606 (H:m:s:ms)","GENERIC","62.085","0.17999480780300936","394"
"20:35:15:151 (H:m:s:ms)","GENERIC","62.095","0.1722208511074288","849"
"20:52:7:272 (H:m:s:ms)","GENERIC","62.091","0.1874751851191885","729"
"20:11:6:666 (H:m:s:ms)","GENERIC","62.123","0.17924700764954635","334"
"20:35:21:212 (H:m:s:ms)","GENERIC","62.057","0.17250361446482493","790"
"20:52:13:333 (H:m:s:ms)","GENERIC","62.075","0.1873888802231976","668"
"20:11:12:727 (H:m:s:ms)","GENERIC","62.091","0.17913134399369732","345"
"20:35:27:272 (H:m:s:ms)","GENERIC","62.047","0.17294574341169275","728"
"20:52:19:393 (H:m:s:ms)","GENERIC","62.021","0.1813598293438436","649"
"20:11:18:787 (H:m:s:ms)","GENERIC","62.075","0.1792498858212593","213"
"20:35:33:333 (H:m:s:ms)","GENERIC","62.027","0.1749596294664067","668"
"20:52:25:454 (H:m:s:ms)","GENERIC","62.095","0.17901672952067976","546"
"20:11:24:848 (H:m:s:ms)","GENERIC","62.141","0.1799707394038124","153"
"20:35:39:393 (H:m:s:ms)","GENERIC","62.043","0.1759298949056787","643"
"20:52:31:515 (H:m:s:ms)","GENERIC","62.083","0.18198560599301294","486"
"20:11:30:909 (H:m:s:ms)","GENERIC","62.047","0.17939597805282798","1091"
"20:35:45:454 (H:m:s:ms)","GENERIC","62.121","0.17700992464005497","547"
"20:11:36:969 (H:m:s:ms)","GENERIC","62.037","0.17874151509267436","1031"
"20:35:51:515 (H:m:s:ms)","GENERIC","62.115","0.17700847994842356","486"
"20:11:43:30 (H:m:s:ms)","GENERIC","62.107","0.17261512677441415","970"
"20:11:49:90 (H:m:s:ms)","GENERIC","62.073","0.16686285758937794","950"
"20:0:54:545 (H:m:s:ms)","GENERIC","31.066","0.09912590111975993","458"
"20:1:0:606 (H:m:s:ms)","GENERIC","31.052","0.10422253563880916","396"
"20:1:6:666 (H:m:s:ms)","GENERIC","31.057","0.10686042919085802","335"
"20:1:12:727 (H:m:s:ms)","GENERIC","31.049","0.10825359689763439","274"
"20:1:18:787 (H:m:s:ms)","GENERIC","31.036","0.11192846473874493","213"
"20:1:24:848 (H:m:s:ms)","GENERIC","31.08","0.11322448861531699","153"
"20:1:30:909 (H:m:s:ms)","GENERIC","31.019","0.11372000742515724","1092"
"20:1:36:969 (H:m:s:ms)","GENERIC","31.027","0.1161347110483684","1031"
"20:1:43:30 (H:m:s:ms)","GENERIC","31.048","0.11649112073138056","971"
"20:1:49:90 (H:m:s:ms)","GENERIC","31.036","0.11754631121478988","924"
"20:35:57:575 (H:m:s:ms)","GENERIC","62.133","0.17650069805179017","426"
"20:36:3:636 (H:m:s:ms)","GENERIC","62.097","0.16473759521751902","365"
"20:11:55:151 (H:m:s:ms)","GENERIC","62.051","0.16562081471563572","850"
"20:36:9:696 (H:m:s:ms)","GENERIC","62.057","0.16767987412980387","343"
"20:12:1:212 (H:m:s:ms)","GENERIC","62.091","0.16928776883138924","790"
"20:36:15:757 (H:m:s:ms)","GENERIC","62.127","0.16730220937973184","244"
"20:12:7:272 (H:m:s:ms)","GENERIC","62.077","0.16300123478593734","729"
"20:36:21:818 (H:m:s:ms)","GENERIC","62.127","0.16149970728547444","183"
"20:12:13:333 (H:m:s:ms)","GENERIC","62.057","0.16285662300676976","668"
"20:36:27:878 (H:m:s:ms)","GENERIC","62.091","0.16236540668160576","1122"
"20:12:19:393 (H:m:s:ms)","GENERIC","62.099","0.16301828670671145","654"
"20:36:33:939 (H:m:s:ms)","GENERIC","62.107","0.16032053572146918","1062"
"20:12:25:454 (H:m:s:ms)","GENERIC","62.087","0.16432794903047762","547"
"20:36:40:0 (H:m:s:ms)","GENERIC","62.043","0.159639510677552","1040"
"20:12:31:515 (H:m:s:ms)","GENERIC","62.031","0.16432826969914613","486"
"20:36:46:60 (H:m:s:ms)","GENERIC","62.129","0.16556183213264608","941"
"20:12:37:575 (H:m:s:ms)","GENERIC","62.107","0.16806574763195545","425"
"20:36:52:121 (H:m:s:ms)","GENERIC","62.057","0.16494433092479222","879"
"20:12:43:636 (H:m:s:ms)","GENERIC","62.163","0.16720067530115207","364"
"20:12:49:696 (H:m:s:ms)","GENERIC","62.175","0.16719411836293596","345"
"20:1:55:151 (H:m:s:ms)","GENERIC","31.021","0.1181576859193477","849"
"20:2:1:212 (H:m:s:ms)","GENERIC","31.052","0.12172940747618753","789"
"20:2:7:272 (H:m:s:ms)","GENERIC","31.04","0.1307285695770886","729"
"20:2:13:333 (H:m:s:ms)","GENERIC","31.028","0.13108361495292994","668"
"20:2:19:393 (H:m:s:ms)","GENERIC","31.063","0.13562220844120368","623"
"20:2:25:454 (H:m:s:ms)","GENERIC","31.035","0.13770795619304113","546"
"20:2:31:515 (H:m:s:ms)","GENERIC","31.019","0.13947719517732304","486"
"20:2:37:575 (H:m:s:ms)","GENERIC","31.051","0.1395218645664725","426"
"20:2:43:636 (H:m:s:ms)","GENERIC","31.094","0.1437478559920771","364"
"20:2:49:696 (H:m:s:ms)","GENERIC","31.082","0.14403510503602407","322"
"20:36:58:181 (H:m:s:ms)","GENERIC","62.115","0.16599791119994547","947"
"20:37:4:242 (H:m:s:ms)","GENERIC","31.011","0.1698749596441357","763"
"20:12:55:757 (H:m:s:ms)","GENERIC","62.059","0.16602035537629742","243"
"20:37:10:303 (H:m:s:ms)","GENERIC","62.057","0.16454314389886246","698"
"20:13:1:818 (H:m:s:ms)","GENERIC","62.075","0.16595088092630633","183"
"20:37:16:363 (H:m:s:ms)","GENERIC","62.089","0.16440304745982592","638"
"20:13:7:878 (H:m:s:ms)","GENERIC","62.089","0.16614701103740345","1123"
"20:37:22:424 (H:m:s:ms)","GENERIC","62.087","0.16445588615417395","576"
"20:13:13:939 (H:m:s:ms)","GENERIC","62.149","0.1598848273191599","1062"
"20:37:28:484 (H:m:s:ms)","GENERIC","62.091","0.16648680421682913","516"
"20:13:20:0 (H:m:s:ms)","GENERIC","62.065","0.1573127002270038","1041"
"20:37:34:545 (H:m:s:ms)","GENERIC","62.119","0.1673327186958695","456"
"20:13:26:60 (H:m:s:ms)","GENERIC","62.037","0.1590253774731719","940"
"20:37:40:606 (H:m:s:ms)","GENERIC","62.081","0.16827419400812202","395"
"20:13:32:121 (H:m:s:ms)","GENERIC","62.127","0.15451704505853478","880"
"20:37:46:666 (H:m:s:ms)","GENERIC","62.103","0.1698026062775127","334"
"20:13:38:181 (H:m:s:ms)","GENERIC","62.073","0.15407364087876615","821"
"20:37:52:727 (H:m:s:ms)","GENERIC","62.123","0.1694692837476788","274"
"20:13:44:242 (H:m:s:ms)","GENERIC","62.039","0.16045618649861026","759"
"20:13:50:303 (H:m:s:ms)","GENERIC","62.127","0.1604350076058837","697"
"20:2:55:757 (H:m:s:ms)","GENERIC","31.036","0.14712153661513078","244"
"20:3:1:818 (H:m:s:ms)","GENERIC","31.047","0.1478790576802744","183"
"20:3:7:878 (H:m:s:ms)","GENERIC","31.048","0.15496323997705705","122"
"20:3:13:939 (H:m:s:ms)","GENERIC","31.071","0.15571879588305604","1061"
"20:3:20:0 (H:m:s:ms)","GENERIC","31.034","0.15934880479921332","1001"
"20:3:26:60 (H:m:s:ms)","GENERIC","31.024","0.16578343815025573","940"
"20:3:32:121 (H:m:s:ms)","GENERIC","31.055","0.16849237272884923","880"
"20:3:38:181 (H:m:s:ms)","GENERIC","31.045","0.17449386954182425","820"
"20:3:44:242 (H:m:s:ms)","GENERIC","31.017","0.17484296543565236","760"
"20:3:50:303 (H:m:s:ms)","GENERIC","31.058","0.18053764387748064","698"
"20:37:58:787 (H:m:s:ms)","GENERIC","62.049","0.16744454300936268","213"
"20:38:4:848 (H:m:s:ms)","GENERIC","62.125","0.16968131973416756","153"
"20:13:56:363 (H:m:s:ms)","GENERIC","62.109","0.15803290946507192","637"
"20:38:10:909 (H:m:s:ms)","GENERIC","62.075","0.16737348312427916","1092"
"20:14:2:424 (H:m:s:ms)","GENERIC","62.087","0.1579461496375996","647"
"20:38:16:969 (H:m:s:ms)","GENERIC","62.065","0.16808609475114342","1032"
"20:14:8:484 (H:m:s:ms)","GENERIC","62.061","0.15984489051168596","516"
"20:38:23:30 (H:m:s:ms)","GENERIC","62.129","0.16423070455852998","970"
"20:14:14:545 (H:m:s:ms)","GENERIC","62.049","0.16354895301931818","456"
"20:38:29:90 (H:m:s:ms)","GENERIC","62.037","0.15850138496887722","947"
"20:14:20:606 (H:m:s:ms)","GENERIC","62.067","0.16918127400739502","395"
"20:38:35:151 (H:m:s:ms)","GENERIC","62.021","0.16129225581631","850"
"20:14:26:666 (H:m:s:ms)","GENERIC","62.071","0.16853876392122685","335"
"20:38:41:212 (H:m:s:ms)","GENERIC","62.089","0.16216524448300945","788"
"20:14:32:727 (H:m:s:ms)","GENERIC","62.163","0.1762718619759863","272"
"20:38:47:272 (H:m:s:ms)","GENERIC","62.097","0.15993351326023367","729"
"20:14:38:787 (H:m:s:ms)","GENERIC","62.047","0.17627079911477572","214"
"20:38:53:333 (H:m:s:ms)","GENERIC","62.075","0.16301723402641277","668"
"20:14:44:848 (H:m:s:ms)","GENERIC","62.097","0.17466208735800712","152"
"20:14:50:909 (H:m:s:ms)","GENERIC","62.061","0.17231706492853716","1092"
"20:3:56:363 (H:m:s:ms)","GENERIC","31.059","0.18058709294844064","637"
"20:4:2:424 (H:m:s:ms)","GENERIC","31.042","0.1807645130162561","579"
"20:4:8:484 (H:m:s:ms)","GENERIC","31.03","0.18618507833080145","516"
"20:4:14:545 (H:m:s:ms)","GENERIC","31.021","0.19002064150354955","457"
"20:4:20:606 (H:m:s:ms)","GENERIC","31.033","0.19262381756915767","394"
"20:4:26:666 (H:m:s:ms)","GENERIC","31.033","0.19253947565846108","334"
"20:4:32:727 (H:m:s:ms)","GENERIC","31.075","0.20347840295298528","273"
"20:4:38:787 (H:m:s:ms)","GENERIC","31.037","0.2036724984906897","213"
"20:4:44:848 (H:m:s:ms)","GENERIC","31.057","0.2074103698643656","154"
"20:4:50:909 (H:m:s:ms)","GENERIC","31.043","0.20746750381239537","1092"
"20:38:59:393 (H:m:s:ms)","GENERIC","62.093","0.16579282118475386","645"
"20:39:5:454 (H:m:s:ms)","GENERIC","62.095","0.16549271555737954","546"
"20:14:56:969 (H:m:s:ms)","GENERIC","62.047","0.17380754333280224","1032"
"20:39:11:515 (H:m:s:ms)","GENERIC","62.113","0.16359193783254886","486"
"20:15:3:30 (H:m:s:ms)","GENERIC","62.075","0.17834694808840756","970"
"20:39:17:575 (H:m:s:ms)","GENERIC","62.093","0.16282583859566618","425"
"20:15:9:90 (H:m:s:ms)","GENERIC","62.021","0.17854988903559973","949"
"20:39:23:636 (H:m:s:ms)","GENERIC","62.159","0.1654092684294069","364"
"20:15:15:151 (H:m:s:ms)","GENERIC","62.073","0.17390968607032792","850"
"20:39:29:696 (H:m:s:ms)","GENERIC","62.075","0.16416037487347843","344"
"20:15:21:212 (H:m:s:ms)","GENERIC","62.033","0.16946921627000341","789"
"20:39:35:757 (H:m:s:ms)","GENERIC","62.105","0.1604536269735779","244"
"20:15:27:272 (H:m:s:ms)","GENERIC","31.025","0.16880766504131775","729"
"20:39:41:818 (H:m:s:ms)","GENERIC","62.045","0.16055199611995294","182"
"20:15:33:333 (H:m:s:ms)","GENERIC","62.025","0.1672618031382658","668"
"20:39:47:878 (H:m:s:ms)","GENERIC","62.033","0.15903180748642512","1123"
"20:15:39:393 (H:m:s:ms)","GENERIC","62.081","0.17024378939002802","648"
"20:39:53:939 (H:m:s:ms)","GENERIC","62.131","0.15925752819228903","1063"
"20:15:45:454 (H:m:s:ms)","GENERIC","62.111","0.1705387579215235","546"
"20:15:51:515 (H:m:s:ms)","GENERIC","62.103","0.17598325504399537","485"
"20:4:56:969 (H:m:s:ms)","GENERIC","31.017","0.20878093883284132","1031"
"20:5:3:30 (H:m:s:ms)","GENERIC","31.031","0.20925055382901084","970"
"20:5:9:90 (H:m:s:ms)","GENERIC","31.013","0.20927359600028095","936"
"20:5:15:151 (H:m:s:ms)","GENERIC","31.032","0.2053725240018062","849"
"20:5:21:212 (H:m:s:ms)","GENERIC","31.026","0.20150951476816792","789"
"20:5:27:272 (H:m:s:ms)","GENERIC","31.02","0.2004789184929882","841"
"20:5:33:333 (H:m:s:ms)","GENERIC","31.013","0.1993600109061862","668"
"20:5:39:393 (H:m:s:ms)","GENERIC","31.055","0.20327469777422721","639"
"20:5:45:454 (H:m:s:ms)","GENERIC","31.05","0.19937756707685259","547"
"20:5:51:515 (H:m:s:ms)","GENERIC","31.044","0.20065527529551408","486"
"20:15:57:575 (H:m:s:ms)","GENERIC","62.107","0.17582831079819816","426"
"20:16:3:636 (H:m:s:ms)","GENERIC","62.107","0.17583175644093743","364"
"20:16:9:696 (H:m:s:ms)","GENERIC","62.057","0.1759825222700349","344"
"20:16:15:757 (H:m:s:ms)","GENERIC","62.093","0.17592270613015606","244"
"20:16:21:818 (H:m:s:ms)","GENERIC","62.141","0.1757626429850941","183"
"20:16:27:878 (H:m:s:ms)","GENERIC","62.059","0.17380797703994608","1122"
"20:16:33:939 (H:m:s:ms)","GENERIC","62.117","0.17887947888716713","1062"
"20:16:40:0 (H:m:s:ms)","GENERIC","62.067","0.18169008273025455","1041"
"20:16:46:60 (H:m:s:ms)","GENERIC","62.147","0.1865305646844291","940"
"20:16:52:121 (H:m:s:ms)","GENERIC","62.071","0.1872760293321295","880"
"20:5:57:575 (H:m:s:ms)","GENERIC","31.05","0.19667649568452295","428"
"20:6:3:636 (H:m:s:ms)","GENERIC","31.054","0.19573538700184454","366"
"20:6:9:696 (H:m:s:ms)","GENERIC","31.037","0.19502403063886103","343"
"20:6:15:757 (H:m:s:ms)","GENERIC","31.045","0.19463420210558757","243"
"20:6:21:818 (H:m:s:ms)","GENERIC","31.062","0.1901932262224367","183"
"20:6:27:878 (H:m:s:ms)","GENERIC","31.032","0.18955929328103263","122"
"20:6:33:939 (H:m:s:ms)","GENERIC","31.056","0.19074899245100668","1063"
"20:6:40:0 (H:m:s:ms)","GENERIC","31.041","0.19572069600710684","1001"
"20:6:46:60 (H:m:s:ms)","GENERIC","31.076","0.2005426958292198","940"
"20:6:52:121 (H:m:s:ms)","GENERIC","31.038","0.19896449277544614","879"
"20:16:58:181 (H:m:s:ms)","GENERIC","62.117","0.1925914763444945","820"
"20:17:4:242 (H:m:s:ms)","GENERIC","62.075","0.1876385475961136","759"
"20:17:10:303 (H:m:s:ms)","GENERIC","62.047","0.18668745646997362","698"
"20:17:16:363 (H:m:s:ms)","GENERIC","62.061","0.18670115266889084","637"
"20:17:22:424 (H:m:s:ms)","GENERIC","62.125","0.1858196586631837","576"
"20:17:28:484 (H:m:s:ms)","GENERIC","62.111","0.1865054981648087","516"
"20:17:34:545 (H:m:s:ms)","GENERIC","62.127","0.18680580152854195","456"
"20:17:40:606 (H:m:s:ms)","GENERIC","62.099","0.18777841901908465","395"
"20:17:46:666 (H:m:s:ms)","GENERIC","62.091","0.18894079349379236","335"
"20:17:52:727 (H:m:s:ms)","GENERIC","62.089","0.19064702647156045","274"
"20:6:58:181 (H:m:s:ms)","GENERIC","31.062","0.2006549724458639","819"
"20:7:4:242 (H:m:s:ms)","GENERIC","31.032","0.20636401121977432","759"
"20:7:10:303 (H:m:s:ms)","GENERIC","31.019","0.2021435127575079","698"
"20:7:16:363 (H:m:s:ms)","GENERIC","31.028","0.20205400168473422","638"
"20:7:22:424 (H:m:s:ms)","GENERIC","31.074","0.19959330477018555","576"
"20:7:28:484 (H:m:s:ms)","GENERIC","31.058","0.1998955469669352","517"
"20:7:34:545 (H:m:s:ms)","GENERIC","31.07","0.1996167381263628","455"
"20:7:40:606 (H:m:s:ms)","GENERIC","31.044","0.19972537353225125","394"
"20:7:46:666 (H:m:s:ms)","GENERIC","31.037","0.1981782333391615","334"
"20:7:52:727 (H:m:s:ms)","GENERIC","31.048","0.1989765259989824","273"
"20:17:58:787 (H:m:s:ms)","GENERIC","62.023","0.19094773461066877","213"
"20:18:4:848 (H:m:s:ms)","GENERIC","62.167","0.19081724073089573","153"
"20:18:10:909 (H:m:s:ms)","GENERIC","62.085","0.19160236853516466","1092"
"20:18:16:969 (H:m:s:ms)","GENERIC","62.089","0.1917204913974049","1032"
"20:18:23:30 (H:m:s:ms)","GENERIC","62.103","0.18915030995702162","970"
"20:18:29:90 (H:m:s:ms)","GENERIC","31.033","0.18739383834638645","1015"
"20:18:35:151 (H:m:s:ms)","GENERIC","62.037","0.18881371235502162","849"
"20:18:41:212 (H:m:s:ms)","GENERIC","62.129","0.1903444031207521","788"
"20:18:47:272 (H:m:s:ms)","GENERIC","62.117","0.18526998345115678","729"
"20:18:53:333 (H:m:s:ms)","GENERIC","62.073","0.1878398767077207","667"
"20:7:58:787 (H:m:s:ms)","GENERIC","31.017","0.19711711568919832","214"
"20:8:4:848 (H:m:s:ms)","GENERIC","31.091","0.19561008139401898","153"
"20:8:10:909 (H:m:s:ms)","GENERIC","31.05","0.19560987146820374","1092"
"20:8:16:969 (H:m:s:ms)","GENERIC","31.052","0.19663241073035537","1031"
"20:8:23:30 (H:m:s:ms)","GENERIC","31.057","0.1946235526918265","971"
"20:8:29:90 (H:m:s:ms)","GENERIC","31.037","0.19359253973482848","1044"
"20:8:35:151 (H:m:s:ms)","GENERIC","31.021","0.1967981834277117","850"
"20:8:41:212 (H:m:s:ms)","GENERIC","31.059","0.1918301722937649","788"
"20:8:47:272 (H:m:s:ms)","GENERIC","31.066","0.19164687422907326","728"
"20:8:53:333 (H:m:s:ms)","GENERIC","31.031","0.1891212257855614","667"
"20:18:59:393 (H:m:s:ms)","GENERIC","62.107","0.1880917201686665","649"
"20:19:5:454 (H:m:s:ms)","GENERIC","62.075","0.18600361474477592","546"
"20:19:11:515 (H:m:s:ms)","GENERIC","62.095","0.18692628716040072","486"
"20:19:17:575 (H:m:s:ms)","GENERIC","62.099","0.1867989571709809","425"
"20:19:23:636 (H:m:s:ms)","GENERIC","62.127","0.18322110869824135","365"
"20:19:29:696 (H:m:s:ms)","GENERIC","62.065","0.18289902752785706","343"
"20:19:35:757 (H:m:s:ms)","GENERIC","62.071","0.17488444321763136","243"
"20:19:41:818 (H:m:s:ms)","GENERIC","62.039","0.16926556418926492","182"
"20:19:47:878 (H:m:s:ms)","GENERIC","62.045","0.17017015888391662","1122"
"20:19:53:939 (H:m:s:ms)","GENERIC","62.113","0.17464460553116393","1063"
"20:8:59:393 (H:m:s:ms)","GENERIC","31.056","0.19172917806799245","645"
"20:9:5:454 (H:m:s:ms)","GENERIC","31.039","0.19166361861180659","547"
"20:9:11:515 (H:m:s:ms)","GENERIC","31.058","0.18661300314558138","485"
"20:9:17:575 (H:m:s:ms)","GENERIC","31.046","0.18657039969228548","426"
"20:9:23:636 (H:m:s:ms)","GENERIC","31.063","0.1843551787991785","365"
"20:9:29:696 (H:m:s:ms)","GENERIC","31.029","0.18449102430734932","345"
"20:9:35:757 (H:m:s:ms)","GENERIC","31.03","0.17796606468796913","244"
"20:9:41:818 (H:m:s:ms)","GENERIC","31.029","0.17767910663816872","183"
"20:9:47:878 (H:m:s:ms)","GENERIC","31.031","0.17886717492023857","122"
"20:9:53:939 (H:m:s:ms)","GENERIC","31.055","0.17769451297863392","1062"
"21:41:18:787 (H:m:s:ms)","GENERIC","62.035","0.18816236713239134","214"
"21:41:12:727 (H:m:s:ms)","GENERIC","62.029","0.18950536810636023","275"
"21:41:6:666 (H:m:s:ms)","GENERIC","62.059","0.18950763682531493","335"
"21:41:0:606 (H:m:s:ms)","GENERIC","62.055","0.18929951058240962","395"
"21:40:54:545 (H:m:s:ms)","GENERIC","62.103","0.19141199525354388","456"
"21:40:48:484 (H:m:s:ms)","GENERIC","62.093","0.1916214941417533","517"
"21:40:42:424 (H:m:s:ms)","GENERIC","62.107","0.19369915751770092","578"
"21:41:36:969 (H:m:s:ms)","GENERIC","62.039","0.1841136623303231","1031"
"21:41:30:909 (H:m:s:ms)","GENERIC","62.045","0.18525686343576972","1090"
"21:41:24:848 (H:m:s:ms)","GENERIC","62.091","0.18506501962105099","154"
