"time (H:m:s:ms)","type","latency","utilisation","waiting"
"21:42:19:393 (H:m:s:ms)","GENERIC","62.095","0.07072426979165267","653"
"21:42:1:212 (H:m:s:ms)","GENERIC","62.117","0.024757898027482645","787"
"21:41:55:151 (H:m:s:ms)","GENERIC","62.109","0.04761904761904763","849"
"21:41:49:90 (H:m:s:ms)","GENERIC","62.075","0.04811649850969825","951"
"21:41:43:30 (H:m:s:ms)","GENERIC","62.075","0.030341898664572528","970"
"21:41:36:969 (H:m:s:ms)","GENERIC","62.049","0.017885649267056027","1031"
"21:41:30:909 (H:m:s:ms)","GENERIC","62.077","0.012304019216861174","1092"
"21:41:24:848 (H:m:s:ms)","GENERIC","62.055","0.03952847075210473","152"
"21:41:18:787 (H:m:s:ms)","GENERIC","62.063","0.04249182927993987","213"
"21:42:13:333 (H:m:s:ms)","GENERIC","62.049","0.028588477365230233","667"
"21:42:7:272 (H:m:s:ms)","GENERIC","62.033","0.01037286710037711","728"
"21:43:26:60 (H:m:s:ms)","GENERIC","62.081","0.012619829538492383","940"
"21:43:20:0 (H:m:s:ms)","GENERIC","62.141","0.03577129853411206","1038"
"21:43:7:878 (H:m:s:ms)","GENERIC","62.073","0.023705128275880807","1121"
"20:0:0:0 (H:m:s:ms)","GENERIC","31.059","0.018495561597760907","1086"
"21:43:1:818 (H:m:s:ms)","GENERIC","62.089","0.05413726253945863","183"
"20:0:6:60 (H:m:s:ms)","GENERIC","31.048","0.07075915990571405","946"
"21:42:55:757 (H:m:s:ms)","GENERIC","62.053","0.024189695210401582","243"
"20:0:12:121 (H:m:s:ms)","GENERIC","31.042","0.05321683239351998","880"
"21:42:49:696 (H:m:s:ms)","GENERIC","62.033","0.03545588768484175","345"
"20:0:18:181 (H:m:s:ms)","GENERIC","31.046","0.012163172259675547","820"
"21:42:43:636 (H:m:s:ms)","GENERIC","62.087","0.047437824804919364","363"
"20:0:24:242 (H:m:s:ms)","GENERIC","31.026","0.053057352408767015","759"
"21:42:37:575 (H:m:s:ms)","GENERIC","62.021","0.04716083714041451","425"
"20:0:30:303 (H:m:s:ms)","GENERIC","31.066","0.05099019513592782","698"
"21:42:31:515 (H:m:s:ms)","GENERIC","62.123","0.01780705950536842","485"
"20:0:36:363 (H:m:s:ms)","GENERIC","31.065","0.03033393050395552","640"
"21:42:25:454 (H:m:s:ms)","GENERIC","62.061","0.03553167600887972","546"
"20:0:42:424 (H:m:s:ms)","GENERIC","31.037","0.026602939090027825","576"
"21:10:12:121 (H:m:s:ms)","GENERIC","62.017","0.04739788710418419","880"
"20:0:48:484 (H:m:s:ms)","GENERIC","31.014","0.024257499131236513","518"
"21:10:18:181 (H:m:s:ms)","GENERIC","62.087","0.011880755721809204","819"
"21:10:24:242 (H:m:s:ms)","GENERIC","62.055","0.03545588768484175","758"
"21:10:30:303 (H:m:s:ms)","GENERIC","62.085","0.05099019513592782","696"
"21:10:36:363 (H:m:s:ms)","GENERIC","62.091","0.0304218230627109","636"
"21:10:42:424 (H:m:s:ms)","GENERIC","62.027","0.027284561826233997","576"
"21:10:48:484 (H:m:s:ms)","GENERIC","62.015","0.04999999999999999","516"
"21:10:54:545 (H:m:s:ms)","GENERIC","62.141","0.027284561826234014","455"
"21:43:13:939 (H:m:s:ms)","GENERIC","62.053","0.07078368864726106","1061"
"21:11:0:606 (H:m:s:ms)","GENERIC","62.095","0.035083719114979456","395"
"21:11:6:666 (H:m:s:ms)","GENERIC","62.067","0.03952847075210473","334"
"21:25:45:454 (H:m:s:ms)","GENERIC","62.091","0.025061399399833668","546"
"21:44:32:727 (H:m:s:ms)","GENERIC","62.079","0.028588477365230233","321"
"21:44:26:666 (H:m:s:ms)","GENERIC","62.089","0.05309310266899466","334"
"21:44:20:606 (H:m:s:ms)","GENERIC","62.061","0.05892556509887898","487"
"21:44:14:545 (H:m:s:ms)","GENERIC","62.061","0.07453559924999298","454"
"21:44:8:484 (H:m:s:ms)","GENERIC","62.073","0.020247055543613026","515"
"21:44:2:424 (H:m:s:ms)","GENERIC","62.081","0.023847532356074737","576"
"21:43:56:363 (H:m:s:ms)","GENERIC","62.043","0.020234204419018974","638"
"21:43:50:303 (H:m:s:ms)","GENERIC","62.105","0.02443108408575319","697"
"21:43:44:242 (H:m:s:ms)","GENERIC","31.021","0.0355991718732653","813"
"21:43:38:181 (H:m:s:ms)","GENERIC","62.033","0.047323601514302656","819"
"21:11:12:727 (H:m:s:ms)","GENERIC","62.091","0.017727943842420876","275"
"21:43:32:121 (H:m:s:ms)","GENERIC","62.049","0.07905694150420946","879"
"21:11:18:787 (H:m:s:ms)","GENERIC","31.023","0.07243558228002941","213"
"21:11:24:848 (H:m:s:ms)","GENERIC","62.037","0.010212946879277448","152"
"21:11:30:909 (H:m:s:ms)","GENERIC","62.125","0.013743685418725535","1091"
"21:11:36:969 (H:m:s:ms)","GENERIC","62.063","0.05305043932359117","1031"
"21:11:43:30 (H:m:s:ms)","GENERIC","62.095","0.030453591208073092","970"
"21:11:49:90 (H:m:s:ms)","GENERIC","62.079","0.009882117688026182","949"
"21:11:55:151 (H:m:s:ms)","GENERIC","62.077","0.023809523809523815","850"
"21:12:1:212 (H:m:s:ms)","GENERIC","62.113","0.024757898027482645","788"
"21:12:7:272 (H:m:s:ms)","GENERIC","62.017","0.030396100119823445","728"
"21:26:21:818 (H:m:s:ms)","GENERIC","62.015","0.07686355907534315","182"
"21:45:39:393 (H:m:s:ms)","GENERIC","62.057","0.013743685418725537","649"
"21:26:19:746 (H:m:s:ms)","OPERA","62.015","0.07953463586324304","291"
"21:45:33:333 (H:m:s:ms)","GENERIC","62.073","0.0355259556274907","667"
"21:45:27:272 (H:m:s:ms)","GENERIC","62.035","0.039528470752104736","728"
"21:45:21:212 (H:m:s:ms)","GENERIC","62.117","0.05331121644472734","787"
"21:26:12:151 (H:m:s:ms)","OPERA","62.015","0.06934711364548553","849"
"21:26:9:696 (H:m:s:ms)","GENERIC","62.045","0.053122857130071026","339"
"21:45:15:151 (H:m:s:ms)","GENERIC","62.073","0.026565158471729442","850"
"21:26:4:556 (H:m:s:ms)","OPERA","62.015","0.03891929782618357","444"
"21:45:9:90 (H:m:s:ms)","GENERIC","62.115","0.07072426979165268","948"
"21:26:3:636 (H:m:s:ms)","GENERIC","62.071","0.030396100119823445","365"
"21:45:3:30 (H:m:s:ms)","GENERIC","62.043","0.031043820977155457","970"
"21:25:57:575 (H:m:s:ms)","GENERIC","62.121","0.07141992117774261","431"
"21:44:56:969 (H:m:s:ms)","GENERIC","62.049","0.010271485783694904","1031"
"21:25:56:962 (H:m:s:ms)","OPERA","62.015","0.07083290928701348","1044"
"21:44:50:909 (H:m:s:ms)","GENERIC","62.095","0.038078865529319515","1090"
"21:12:13:333 (H:m:s:ms)","GENERIC","62.053","0.0432342937059128","667"
"21:25:51:515 (H:m:s:ms)","GENERIC","62.053","0.03870443060485896","485"
"21:44:44:848 (H:m:s:ms)","GENERIC","62.135","0.012330483215451446","152"
"21:12:19:393 (H:m:s:ms)","GENERIC","62.097","0.07072236486827899","643"
"21:25:49:367 (H:m:s:ms)","OPERA","62.017","0.027720202202825093","670"
"21:44:38:787 (H:m:s:ms)","GENERIC","62.071","0.009822956424159044","212"
"21:12:25:454 (H:m:s:ms)","GENERIC","62.071","0.027443123000125136","546"
"21:12:31:515 (H:m:s:ms)","GENERIC","62.105","0.02686057469435319","484"
"21:12:37:575 (H:m:s:ms)","GENERIC","62.085","0.024845199749997687","425"
"21:12:43:636 (H:m:s:ms)","GENERIC","62.129","0.02415948169054038","364"
"21:12:49:696 (H:m:s:ms)","GENERIC","62.051","0.027284561826233997","341"
"21:12:55:757 (H:m:s:ms)","GENERIC","62.111","0.024189695210401582","243"
"21:13:1:818 (H:m:s:ms)","GENERIC","62.077","0.05331121644472734","182"
"21:13:7:878 (H:m:s:ms)","GENERIC","62.049","0.024757898027482645","1121"
"21:26:15:757 (H:m:s:ms)","GENERIC","62.069","0.062808298348385","243"
"21:26:58:181 (H:m:s:ms)","GENERIC","62.097","0.031298544275728486","818"
"21:46:46:60 (H:m:s:ms)","GENERIC","62.061","0.025643641938735737","940"
"21:26:57:721 (H:m:s:ms)","OPERA","62.015","0.027711521415099014","279"
"21:46:40:0 (H:m:s:ms)","GENERIC","62.021","0.02373278124884355","1038"
"21:26:52:121 (H:m:s:ms)","GENERIC","62.125","0.0722083827543735","878"
"21:46:33:939 (H:m:s:ms)","GENERIC","62.063","0.026860574694353174","1061"
"21:46:27:878 (H:m:s:ms)","GENERIC","62.101","0.07905694150420946","1124"
"21:46:21:818 (H:m:s:ms)","GENERIC","62.045","0.03036165263645725","182"
"21:26:50:126 (H:m:s:ms)","OPERA","62.017","0.0771585804692783","874"
"21:26:46:60 (H:m:s:ms)","GENERIC","62.041","0.043705692931573115","940"
"21:26:42:531 (H:m:s:ms)","OPERA","62.015","0.07696150134617726","470"
"21:46:15:757 (H:m:s:ms)","GENERIC","62.081","0.03613034267827888","243"
"21:26:40:0 (H:m:s:ms)","GENERIC","62.037","0.07355366724541951","1036"
"21:46:9:696 (H:m:s:ms)","GENERIC","62.033","0.04716083714041451","340"
"21:26:34:936 (H:m:s:ms)","OPERA","62.017","0.023181246501039653","1066"
"21:46:3:636 (H:m:s:ms)","GENERIC","62.061","0.031118601301131373","364"
"21:13:13:939 (H:m:s:ms)","GENERIC","62.029","0.07100226978096956","1061"
"21:26:33:939 (H:m:s:ms)","GENERIC","62.033","0.01092919548958599","1061"
"21:45:57:575 (H:m:s:ms)","GENERIC","62.137","0.026602939090027845","424"
"21:13:20:0 (H:m:s:ms)","GENERIC","62.133","0.03063884063783242","1039"
"21:26:27:878 (H:m:s:ms)","GENERIC","62.069","0.06857756441643757","1124"
"21:45:51:515 (H:m:s:ms)","GENERIC","62.045","0.04716083714041451","485"
"21:13:26:60 (H:m:s:ms)","GENERIC","62.079","0.02684517210423728","940"
"21:26:27:341 (H:m:s:ms)","OPERA","62.015","0.047323601514302656","659"
"21:45:45:454 (H:m:s:ms)","GENERIC","62.067","0.042442239865553254","546"
"21:13:32:121 (H:m:s:ms)","GENERIC","62.069","0.07905694150420946","880"
"21:13:38:181 (H:m:s:ms)","GENERIC","62.035","0.023610969762337848","819"
"21:13:44:242 (H:m:s:ms)","GENERIC","62.087","0.03551531878613404","760"
"21:13:50:303 (H:m:s:ms)","GENERIC","62.101","0.04724989736215964","697"
"21:13:56:363 (H:m:s:ms)","GENERIC","62.079","0.010647942749998992","637"
"21:14:2:424 (H:m:s:ms)","GENERIC","62.081","0.03554081096315156","576"
"21:14:8:484 (H:m:s:ms)","GENERIC","62.059","0.020595708320579286","516"
"21:27:35:696 (H:m:s:ms)","OPERA","62.017","0.07229152889355418","305"
"21:47:52:727 (H:m:s:ms)","GENERIC","62.097","0.0475073093791308","273"
"21:27:34:545 (H:m:s:ms)","GENERIC","62.105","0.015457274521730485","455"
"21:47:46:666 (H:m:s:ms)","GENERIC","62.065","0.05398648734939624","334"
"21:27:28:484 (H:m:s:ms)","GENERIC","62.057","0.074375591667155","517"
"21:47:40:606 (H:m:s:ms)","GENERIC","62.061","0.035599171873265306","393"
"21:27:28:101 (H:m:s:ms)","OPERA","62.019","0.07072426979165267","899"
"21:47:34:545 (H:m:s:ms)","GENERIC","62.119","0.04288271604784541","455"
"21:47:28:484 (H:m:s:ms)","GENERIC","62.071","0.04722522866246626","516"
"21:47:22:424 (H:m:s:ms)","GENERIC","62.085","0.03571428571428571","576"
"21:27:22:424 (H:m:s:ms)","GENERIC","62.103","0.05887141292228845","576"
"21:27:20:506 (H:m:s:ms)","OPERA","62.017","0.06655411226599015","495"
"21:27:16:363 (H:m:s:ms)","GENERIC","62.035","0.05282848048526422","637"
"21:47:16:363 (H:m:s:ms)","GENERIC","62.021","0.07073277175397553","637"
"21:14:14:545 (H:m:s:ms)","GENERIC","62.069","0.030460123814258947","455"
"21:27:12:911 (H:m:s:ms)","OPERA","62.017","0.042597362481027565","1089"
"21:47:10:303 (H:m:s:ms)","GENERIC","62.055","0.07074313654502272","698"
"21:14:20:606 (H:m:s:ms)","GENERIC","62.065","0.03575087411518771","394"
"21:27:10:303 (H:m:s:ms)","GENERIC","62.037","0.05893944852315316","699"
"21:47:4:242 (H:m:s:ms)","GENERIC","62.067","0.07075419238623079","758"
"20:52:13:333 (H:m:s:ms)","GENERIC","62.059","0.0432342937059128","667"
"21:14:26:666 (H:m:s:ms)","GENERIC","62.079","0.01807897922438981","333"
"21:27:5:316 (H:m:s:ms)","OPERA","62.015","0.05613249221745195","685"
"21:46:58:181 (H:m:s:ms)","GENERIC","62.107","0.018495561597760907","819"
"20:52:19:393 (H:m:s:ms)","GENERIC","62.107","0.023883709691197613","649"
"21:14:32:727 (H:m:s:ms)","GENERIC","62.105","0.035557692413821215","272"
"21:27:4:242 (H:m:s:ms)","GENERIC","62.035","0.030669032739246888","759"
"21:46:52:121 (H:m:s:ms)","GENERIC","62.105","0.028588477365230274","878"
"20:52:25:454 (H:m:s:ms)","GENERIC","62.057","0.07072049836425705","546"
"21:14:38:787 (H:m:s:ms)","GENERIC","62.107","0.027284561826234014","212"
"20:52:31:515 (H:m:s:ms)","GENERIC","62.083","0.009822956424159044","486"
"21:14:44:848 (H:m:s:ms)","GENERIC","62.109","0.012330483215451446","152"
"20:52:37:575 (H:m:s:ms)","GENERIC","62.083","0.03553167600887972","425"
"21:14:50:909 (H:m:s:ms)","GENERIC","62.075","0.024608038433722355","1091"
"20:52:43:636 (H:m:s:ms)","GENERIC","62.101","0.023636424339471395","366"
"21:14:56:969 (H:m:s:ms)","GENERIC","62.063","0.020960121664941926","1030"
"20:52:49:696 (H:m:s:ms)","GENERIC","62.083","0.018125118921547966","347"
"21:15:3:30 (H:m:s:ms)","GENERIC","62.027","0.021676984577377212","970"
"20:52:55:757 (H:m:s:ms)","GENERIC","62.095","0.0369911231955218","243"
"21:15:9:90 (H:m:s:ms)","GENERIC","62.103","0.033441999744913214","945"
"20:53:1:818 (H:m:s:ms)","GENERIC","62.079","0.05548668479328271","181"
"20:53:7:878 (H:m:s:ms)","GENERIC","62.051","0.023705128275880807","1122"
"21:28:13:670 (H:m:s:ms)","OPERA","62.015","0.0411192659835363","330"
"21:48:59:393 (H:m:s:ms)","GENERIC","62.129","0.035413015017830105","644"
"21:28:10:909 (H:m:s:ms)","GENERIC","62.095","0.029943421481478365","1091"
"21:48:53:333 (H:m:s:ms)","GENERIC","62.043","0.018385053823191066","667"
"21:28:6:75 (H:m:s:ms)","OPERA","62.017","0.02533614369252377","925"
"21:48:47:272 (H:m:s:ms)","GENERIC","62.031","0.07243558228002941","729"
"21:28:4:848 (H:m:s:ms)","GENERIC","62.057","0.00911086233569578","153"
"21:48:41:212 (H:m:s:ms)","GENERIC","62.021","0.07076502914752386","788"
"21:27:58:787 (H:m:s:ms)","GENERIC","62.045","0.07453559924999298","213"
"21:48:35:151 (H:m:s:ms)","GENERIC","62.105","0.035771298534112046","848"
"21:48:29:90 (H:m:s:ms)","GENERIC","62.111","0.05304803849111767","948"
"21:48:23:30 (H:m:s:ms)","GENERIC","62.083","0.03893933986791651","970"
"21:27:58:481 (H:m:s:ms)","OPERA","62.017","0.10263159742155521","521"
"21:15:15:151 (H:m:s:ms)","GENERIC","62.041","0.010068207469698495","849"
"21:27:52:727 (H:m:s:ms)","GENERIC","62.079","0.07441834705572509","273"
"21:15:21:212 (H:m:s:ms)","GENERIC","62.101","0.05548668479328271","789"
"21:27:50:886 (H:m:s:ms)","OPERA","62.015","0.05208723055752485","115"
"21:48:16:969 (H:m:s:ms)","GENERIC","62.089","0.05316812475342645","1032"
"20:53:13:939 (H:m:s:ms)","GENERIC","62.063","0.04757672263062906","1062"
"21:15:27:272 (H:m:s:ms)","GENERIC","62.031","0.049999999999999996","728"
"21:27:46:666 (H:m:s:ms)","GENERIC","62.099","0.05208723055752485","333"
"21:48:10:909 (H:m:s:ms)","GENERIC","62.093","0.02405768462153231","1090"
"20:53:20:0 (H:m:s:ms)","GENERIC","62.099","0.033441999744913214","1042"
"21:15:33:333 (H:m:s:ms)","GENERIC","62.065","0.01184198520916358","667"
"21:27:43:291 (H:m:s:ms)","OPERA","62.015","0.042174541410740646","709"
"21:48:4:848 (H:m:s:ms)","GENERIC","62.063","0.018879759333741513","152"
"20:53:26:60 (H:m:s:ms)","GENERIC","62.077","0.04656573146573319","940"
"21:15:39:393 (H:m:s:ms)","GENERIC","62.091","0.038078865529319515","641"
"21:27:40:606 (H:m:s:ms)","GENERIC","62.087","0.0787037251900486","394"
"21:47:58:787 (H:m:s:ms)","GENERIC","62.063","0.05892556509887898","213"
"20:53:32:121 (H:m:s:ms)","GENERIC","62.061","0.012287490066540367","879"
"21:15:45:454 (H:m:s:ms)","GENERIC","62.081","0.028308015204269593","546"
"20:53:38:181 (H:m:s:ms)","GENERIC","62.047","0.0355991718732653","873"
"21:15:51:515 (H:m:s:ms)","GENERIC","62.049","0.04716083714041451","485"
"20:53:44:242 (H:m:s:ms)","GENERIC","62.059","0.05305972547158699","759"
"21:15:57:575 (H:m:s:ms)","GENERIC","62.131","0.009822956424159044","425"
"20:53:50:303 (H:m:s:ms)","GENERIC","62.059","0.04730385101646224","697"
"21:16:3:636 (H:m:s:ms)","GENERIC","62.065","0.030396100119823445","364"
"20:53:56:363 (H:m:s:ms)","GENERIC","62.099","0.03038760272869309","637"
"21:16:9:696 (H:m:s:ms)","GENERIC","62.039","0.07083290928701348","341"
"20:54:2:424 (H:m:s:ms)","GENERIC","62.067","0.03577129853411205","576"
"20:54:8:484 (H:m:s:ms)","GENERIC","62.069","0.01044800401256836","515"
"21:28:51:645 (H:m:s:ms)","OPERA","62.015","0.07148895377031733","355"
"22:0:31:578 (H:m:s:ms)","AMBULANCE","31.009","0.03621779114001471","428"
"21:28:47:272 (H:m:s:ms)","GENERIC","62.061","0.07159462880565923","727"
"21:50:0:0 (H:m:s:ms)","GENERIC","62.081","0.07114582486036497","1039"
"21:28:44:50 (H:m:s:ms)","OPERA","62.017","0.07684995792095482","951"
"21:49:53:939 (H:m:s:ms)","GENERIC","62.027","0.05313031694345886","1062"
"21:28:41:212 (H:m:s:ms)","GENERIC","31.015","0.05592314415146564","788"
"21:49:47:878 (H:m:s:ms)","GENERIC","62.087","0.03551036930426097","1122"
"21:28:36:455 (H:m:s:ms)","OPERA","62.015","0.053621748528988766","545"
"21:49:41:818 (H:m:s:ms)","GENERIC","31.014","0.047221939524675696","182"
"21:28:35:151 (H:m:s:ms)","GENERIC","62.119","0.025959559911944378","849"
"21:49:35:757 (H:m:s:ms)","GENERIC","62.101","0.025959559911944378","242"
"21:49:29:696 (H:m:s:ms)","GENERIC","62.033","0.030872148761642716","341"
"21:49:23:636 (H:m:s:ms)","GENERIC","62.109","0.04247734995872001","365"
"21:16:15:757 (H:m:s:ms)","GENERIC","62.077","0.03707632316738255","243"
"21:16:21:818 (H:m:s:ms)","GENERIC","62.031","0.03036165263645725","182"
"21:28:29:90 (H:m:s:ms)","GENERIC","62.109","0.08050898707016864","945"
"20:54:14:545 (H:m:s:ms)","GENERIC","62.055","0.03621779114001471","455"
"21:16:27:878 (H:m:s:ms)","GENERIC","62.049","0.06373774391990976","1122"
"21:28:28:860 (H:m:s:ms)","OPERA","62.017","0.08872131952924163","140"
"20:54:20:606 (H:m:s:ms)","GENERIC","62.095","0.01845602882529174","394"
"21:16:33:939 (H:m:s:ms)","GENERIC","62.033","0.027284561826233997","1061"
"21:28:23:30 (H:m:s:ms)","GENERIC","62.089","0.07144353013645713","970"
"21:49:17:575 (H:m:s:ms)","GENERIC","62.163","0.04656573146573319","424"
"20:54:26:666 (H:m:s:ms)","GENERIC","62.081","0.05316812475342645","333"
"21:16:40:0 (H:m:s:ms)","GENERIC","62.047","0.07076502914752386","1038"
"21:28:21:265 (H:m:s:ms)","OPERA","62.015","0.05033937752593211","736"
"21:49:11:515 (H:m:s:ms)","GENERIC","62.051","0.010212946879277448","486"
"20:54:32:727 (H:m:s:ms)","GENERIC","62.139","0.017722708251142152","272"
"21:16:46:60 (H:m:s:ms)","GENERIC","62.041","0.031306480830660344","940"
"21:28:16:969 (H:m:s:ms)","GENERIC","62.121","0.040937898564264004","1031"
"21:49:5:454 (H:m:s:ms)","GENERIC","62.049","0.07100226978096956","547"
"20:54:38:787 (H:m:s:ms)","GENERIC","62.133","0.02686057469435319","212"
"21:16:52:121 (H:m:s:ms)","GENERIC","62.103","0.028588477365230274","879"
"20:54:44:848 (H:m:s:ms)","GENERIC","62.087","0.01092919548958599","153"
"21:16:58:181 (H:m:s:ms)","GENERIC","62.079","0.05331121644472734","818"
"20:54:50:909 (H:m:s:ms)","GENERIC","62.079","0.07074313654502272","1091"
"21:17:4:242 (H:m:s:ms)","GENERIC","62.035","0.030396100119823445","758"
"20:54:56:969 (H:m:s:ms)","GENERIC","62.077","0.030532241359769847","1031"
"21:17:10:303 (H:m:s:ms)","GENERIC","62.055","0.07100226978096956","697"
"20:55:3:30 (H:m:s:ms)","GENERIC","62.035","0.047213143644377654","970"
"20:55:9:90 (H:m:s:ms)","GENERIC","62.109","0.05213796454541329","952"
"21:29:29:620 (H:m:s:ms)","OPERA","62.015","0.023610969762337848","415"
"21:29:23:636 (H:m:s:ms)","GENERIC","62.075","0.08213149994867125","364"
"21:29:22:25 (H:m:s:ms)","OPERA","62.017","0.08437378627048778","975"
"21:29:17:575 (H:m:s:ms)","GENERIC","62.143","0.08437378627048778","426"
"21:29:14:430 (H:m:s:ms)","OPERA","62.015","0.07337197626767054","572"
"21:29:11:515 (H:m:s:ms)","GENERIC","62.047","0.03104782357411334","485"
"21:29:6:835 (H:m:s:ms)","OPERA","62.017","0.045193397824230784","167"
"21:17:16:363 (H:m:s:ms)","GENERIC","62.021","0.023833916076791823","637"
"21:17:22:424 (H:m:s:ms)","GENERIC","62.117","0.0354454165022843","575"
"20:55:15:151 (H:m:s:ms)","GENERIC","62.045","0.026565158471729442","850"
"21:17:28:484 (H:m:s:ms)","GENERIC","62.055","0.0712179752590594","516"
"20:55:21:212 (H:m:s:ms)","GENERIC","62.083","0.05413726253945863","788"
"21:17:34:545 (H:m:s:ms)","GENERIC","62.109","0.015457274521730485","455"
"21:29:5:454 (H:m:s:ms)","GENERIC","62.079","0.03868996743662254","546"
"20:55:27:272 (H:m:s:ms)","GENERIC","62.043","0.04249182927993987","728"
"21:17:40:606 (H:m:s:ms)","GENERIC","62.073","0.032515476866065866","393"
"21:28:59:393 (H:m:s:ms)","GENERIC","62.095","0.029968738940810088","643"
"20:55:33:333 (H:m:s:ms)","GENERIC","62.071","0.01184198520916358","667"
"21:17:46:666 (H:m:s:ms)","GENERIC","62.105","0.03677010764638212","334"
"21:28:59:240 (H:m:s:ms)","OPERA","62.015","0.023610969762337848","795"
"22:3:41:52 (H:m:s:ms)","AMBULANCE","31.012","0.05331121644472733","951"
"20:55:39:393 (H:m:s:ms)","GENERIC","62.087","0.012242353409940803","649"
"21:17:52:727 (H:m:s:ms)","GENERIC","62.075","0.07077203229776259","273"
"21:28:53:333 (H:m:s:ms)","GENERIC","31.037","0.08811375315554783","669"
"22:3:9:473 (H:m:s:ms)","AMBULANCE","31.012","0.07114582486036497","535"
"20:55:45:454 (H:m:s:ms)","GENERIC","62.061","0.014563431025910028","546"
"21:17:58:787 (H:m:s:ms)","GENERIC","62.057","0.04249182927993987","213"
"20:55:51:515 (H:m:s:ms)","GENERIC","31.021","0.023732781248843548","526"
"21:18:4:848 (H:m:s:ms)","GENERIC","62.053","0.07905694150420946","153"
"20:55:57:575 (H:m:s:ms)","GENERIC","62.135","0.026602939090027845","424"
"21:18:10:909 (H:m:s:ms)","GENERIC","62.095","0.03893933986791651","1097"
"20:56:3:636 (H:m:s:ms)","GENERIC","62.063","0.09999999999999996","364"
"20:56:9:696 (H:m:s:ms)","GENERIC","62.109","0.04724989736215964","567"
"21:30:0:0 (H:m:s:ms)","GENERIC","62.053","0.06584994854373408","1040"
"21:30:0:0 (H:m:s:ms)","AMBULANCE","31.012","0.0588452534784644","1041"
"21:30:0:0 (H:m:s:ms)","OPERA","62.019","0.023610969762337848","1038"
"21:29:53:939 (H:m:s:ms)","GENERIC","62.039","0.07077604305618221","1061"
"21:29:52:405 (H:m:s:ms)","OPERA","62.015","0.06404513258991561","595"
"21:29:47:878 (H:m:s:ms)","GENERIC","62.097","0.04960621602678026","1122"
"21:29:44:810 (H:m:s:ms)","OPERA","62.017","0.02559856544742914","191"
"21:29:41:818 (H:m:s:ms)","GENERIC","62.089","0.07141992117774261","182"
"21:18:16:969 (H:m:s:ms)","GENERIC","62.141","0.017722708251142152","1031"
"21:18:23:30 (H:m:s:ms)","GENERIC","62.103","0.03893933986791651","969"
"20:56:15:757 (H:m:s:ms)","GENERIC","62.087","0.03613034267827888","243"
"21:18:29:90 (H:m:s:ms)","GENERIC","62.105","0.05309310266899466","946"
"20:56:21:818 (H:m:s:ms)","GENERIC","62.029","0.02028856498582976","183"
"21:18:35:151 (H:m:s:ms)","GENERIC","62.111","0.016038456414354897","849"
"20:40:0:0 (H:m:s:ms)","OPERA","31.01","0.044721359549995725","1110"
"20:56:27:878 (H:m:s:ms)","GENERIC","62.053","0.03577129853411205","1122"
"21:18:41:212 (H:m:s:ms)","GENERIC","62.039","0.04716083714041451","795"
"20:40:0:0 (H:m:s:ms)","GENERIC","62.055","0.05740116181948516","1111"
"20:56:33:939 (H:m:s:ms)","GENERIC","62.035","0.018189707884156008","1061"
"21:18:47:272 (H:m:s:ms)","GENERIC","62.069","0.07453559924999298","728"
"21:29:37:215 (H:m:s:ms)","OPERA","62.017","0.08050898707016853","785"
"20:40:0:0 (H:m:s:ms)","GENERIC","62.087","0.060803035517142334","1112"
"20:56:40:0 (H:m:s:ms)","GENERIC","62.074","0.07083290928701348","1044"
"21:18:53:333 (H:m:s:ms)","GENERIC","31.023","0.023934422775948445","676"
"21:29:35:757 (H:m:s:ms)","GENERIC","62.067","0.03893933986791648","243"
"20:40:6:60 (H:m:s:ms)","GENERIC","62.075","0.0333359905403472","940"
"20:56:46:60 (H:m:s:ms)","GENERIC","62.049","0.03413621137715327","940"
"21:18:59:393 (H:m:s:ms)","GENERIC","62.083","0.05307147663908605","644"
"21:29:29:696 (H:m:s:ms)","GENERIC","62.043","0.04240583163113741","340"
"20:40:7:594 (H:m:s:ms)","OPERA","31.01","0.07803212714474185","406"
"20:56:52:121 (H:m:s:ms)","GENERIC","62.079","0.015457274521730485","879"
"21:19:5:454 (H:m:s:ms)","GENERIC","62.083","0.04249182927993987","545"
"20:40:12:121 (H:m:s:ms)","GENERIC","62.071","0.08808371355972656","879"
"20:56:58:181 (H:m:s:ms)","GENERIC","62.051","0.05331121644472734","818"
"21:19:11:515 (H:m:s:ms)","GENERIC","62.067","0.03577129853411205","486"
"20:40:15:189 (H:m:s:ms)","OPERA","31.009","0.05881931959785451","812"
"20:57:4:242 (H:m:s:ms)","GENERIC","62.039","0.03544228745760863","760"
"20:40:18:181 (H:m:s:ms)","GENERIC","62.093","0.04382493159633983","819"
"20:57:10:303 (H:m:s:ms)","GENERIC","62.079","0.018810165178689598","697"
"20:40:22:784 (H:m:s:ms)","OPERA","31.009","0.04273187947561294","218"
"20:40:24:242 (H:m:s:ms)","GENERIC","62.041","0.050073100245690984","785"
"21:30:12:121 (H:m:s:ms)","GENERIC","62.053","0.02074573420075422","879"
"21:30:54:545 (H:m:s:ms)","GENERIC","62.109","0.01780705950536842","455"
"21:30:48:484 (H:m:s:ms)","GENERIC","62.031","0.047179174676670876","516"
"21:30:42:424 (H:m:s:ms)","GENERIC","62.021","0.027284561826233997","576"
"21:30:36:363 (H:m:s:ms)","GENERIC","62.101","0.10153083087880083","636"
"21:30:31:578 (H:m:s:ms)","AMBULANCE","31.012","0.07720830382229145","479"
"21:30:30:303 (H:m:s:ms)","GENERIC","62.091","0.03162277660168377","697"
"21:30:24:242 (H:m:s:ms)","GENERIC","62.059","0.018125118921547966","758"
"21:19:17:575 (H:m:s:ms)","GENERIC","62.121","0.04656573146573319","425"
"21:30:18:181 (H:m:s:ms)","GENERIC","62.085","0.012619829538492383","819"
"21:19:23:636 (H:m:s:ms)","GENERIC","62.059","0.05316812475342645","363"
"20:57:16:363 (H:m:s:ms)","GENERIC","62.039","0.07090927301841417","638"
"21:19:29:696 (H:m:s:ms)","GENERIC","62.053","0.02338914607665297","340"
"20:57:22:424 (H:m:s:ms)","GENERIC","62.131","0.023705128275880807","575"
"21:19:35:757 (H:m:s:ms)","GENERIC","62.053","0.016038456414354897","242"
"20:40:30:303 (H:m:s:ms)","GENERIC","62.103","0.05099019513592782","697"
"20:57:28:484 (H:m:s:ms)","GENERIC","62.061","0.04789803985782951","516"
"21:19:41:818 (H:m:s:ms)","GENERIC","62.105","0.01818970788415601","182"
"20:40:30:379 (H:m:s:ms)","OPERA","31.01","0.05194358976910342","622"
"20:57:34:545 (H:m:s:ms)","GENERIC","62.127","0.014741134218990199","455"
"21:19:47:878 (H:m:s:ms)","GENERIC","62.081","0.0288025311182293","1122"
"20:40:36:363 (H:m:s:ms)","GENERIC","62.129","0.03677010764638212","636"
"20:57:40:606 (H:m:s:ms)","GENERIC","62.069","0.07076502914752388","395"
"21:19:53:939 (H:m:s:ms)","GENERIC","62.021","0.07083290928701348","1061"
"20:40:37:974 (H:m:s:ms)","OPERA","31.011","0.04367165635433494","1026"
"20:57:46:666 (H:m:s:ms)","GENERIC","62.141","0.035083719114979456","334"
"21:20:0:0 (H:m:s:ms)","OPERA","62.018","0.07076502914752386","1114"
"21:30:6:60 (H:m:s:ms)","GENERIC","62.117","0.0333359905403472","941"
"20:40:42:424 (H:m:s:ms)","GENERIC","62.041","0.025783293137379353","576"
"20:57:52:727 (H:m:s:ms)","GENERIC","62.097","0.0475073093791308","274"
"21:20:0:0 (H:m:s:ms)","GENERIC","62.065","0.10227861170018926","1115"
"21:30:0:0 (H:m:s:ms)","GENERIC","62.089","0.07597090976059613","1042"
"20:40:45:569 (H:m:s:ms)","OPERA","31.011","0.04808427485683296","431"
"20:57:58:787 (H:m:s:ms)","GENERIC","62.079","0.09999999999999996","212"
"21:20:0:0 (H:m:s:ms)","GENERIC","62.081","0.10478786868636547","1116"
"20:40:48:484 (H:m:s:ms)","GENERIC","62.061","0.09168322745920703","516"
"20:58:4:848 (H:m:s:ms)","GENERIC","62.069","0.07905694150420946","153"
"20:40:53:164 (H:m:s:ms)","OPERA","31.01","0.09170927387628898","837"
"20:58:10:909 (H:m:s:ms)","GENERIC","62.107","0.03893933986791651","1093"
"20:40:54:545 (H:m:s:ms)","GENERIC","62.191","0.05409167633369485","455"
"20:41:0:606 (H:m:s:ms)","GENERIC","62.097","0.07693092581620718","394"
"21:31:6:666 (H:m:s:ms)","GENERIC","62.077","0.04078071647630403","334"
"21:31:3:157 (H:m:s:ms)","AMBULANCE","31.021","0.047606274743655363","878"
"21:31:49:90 (H:m:s:ms)","GENERIC","62.071","0.01822172467139156","948"
"21:31:43:30 (H:m:s:ms)","GENERIC","62.077","0.011063996792219607","971"
"21:31:36:969 (H:m:s:ms)","GENERIC","62.057","0.050070745587434816","1032"
"21:31:34:736 (H:m:s:ms)","AMBULANCE","31.016","0.03817832405697266","321"
"21:31:30:909 (H:m:s:ms)","GENERIC","62.095","0.014163943093313293","1091"
"21:31:24:848 (H:m:s:ms)","GENERIC","62.047","0.03577129853411205","153"
"21:31:18:787 (H:m:s:ms)","GENERIC","62.039","0.07114582486036497","213"
"21:31:12:727 (H:m:s:ms)","GENERIC","31.032","0.07243558228002941","272"
"20:58:16:969 (H:m:s:ms)","GENERIC","62.135","0.05316812475342645","1031"
"20:58:23:30 (H:m:s:ms)","GENERIC","62.113","0.03577129853411206","970"
"20:41:0:759 (H:m:s:ms)","OPERA","31.009","0.08044160711646035","243"
"20:58:29:90 (H:m:s:ms)","GENERIC","62.099","0.07256908563120464","952"
"20:41:6:666 (H:m:s:ms)","GENERIC","62.075","0.02946278254943948","334"
"20:58:35:151 (H:m:s:ms)","GENERIC","62.077","0.028667538173074235","849"
"20:41:8:354 (H:m:s:ms)","OPERA","31.01","0.07644648566891014","646"
"20:58:41:212 (H:m:s:ms)","GENERIC","62.019","0.07905694150420946","788"
"20:41:12:727 (H:m:s:ms)","GENERIC","62.091","0.07540168424394739","273"
"20:58:47:272 (H:m:s:ms)","GENERIC","62.085","0.030460123814258947","727"
"20:41:15:949 (H:m:s:ms)","OPERA","31.009","0.05746882514178653","1052"
"20:58:53:333 (H:m:s:ms)","GENERIC","62.053","0.027284561826234014","668"
"20:41:18:787 (H:m:s:ms)","GENERIC","62.105","0.06389118996513582","212"
"20:58:59:393 (H:m:s:ms)","GENERIC","62.083","0.03587108436997062","649"
"21:31:0:606 (H:m:s:ms)","GENERIC","62.065","0.046565731465733194","396"
"20:41:23:544 (H:m:s:ms)","OPERA","31.009","0.04534818636231815","457"
"20:59:5:454 (H:m:s:ms)","GENERIC","62.091","0.07114582486036497","546"
"20:41:24:848 (H:m:s:ms)","GENERIC","62.081","0.02683632902338953","152"
"20:59:11:515 (H:m:s:ms)","GENERIC","62.097","0.020425893758554897","485"
"20:41:30:909 (H:m:s:ms)","GENERIC","62.079","0.028327886186626586","1091"
"20:41:31:139 (H:m:s:ms)","OPERA","31.009","0.0549383774195813","863"
"20:59:17:575 (H:m:s:ms)","GENERIC","62.087","0.07114582486036494","424"
"20:59:23:636 (H:m:s:ms)","GENERIC","62.035","0.04247734995872001","364"
"20:41:36:969 (H:m:s:ms)","GENERIC","62.085","0.053102697198015615","1031"
"20:59:29:696 (H:m:s:ms)","GENERIC","62.069","0.07072426979165268","347"
"20:41:38:734 (H:m:s:ms)","OPERA","31.009","0.05802819994131454","267"
"20:59:35:757 (H:m:s:ms)","GENERIC","62.053","0.025959559911944378","243"
"20:41:43:30 (H:m:s:ms)","GENERIC","62.073","0.038543416498179044","970"
"20:59:41:818 (H:m:s:ms)","GENERIC","62.139","0.026602939090027845","181"
"20:41:46:329 (H:m:s:ms)","OPERA","31.01","0.05385710288402331","671"
"20:59:47:878 (H:m:s:ms)","GENERIC","62.037","0.023673579536173987","1122"
"20:41:49:90 (H:m:s:ms)","GENERIC","62.081","0.04836734288706115","947"
"20:59:53:939 (H:m:s:ms)","GENERIC","62.031","0.07072426979165267","1062"
"20:41:53:924 (H:m:s:ms)","OPERA","31.009","0.030088536303180057","1077"
"21:0:0:0 (H:m:s:ms)","AMBULANCE","31.024","0.07072426979165267","1169"
"20:41:55:151 (H:m:s:ms)","GENERIC","62.045","0.07462553655238469","849"
"21:0:0:0 (H:m:s:ms)","GENERIC","62.049","0.09955477280490758","1170"
"20:42:1:212 (H:m:s:ms)","GENERIC","62.091","0.03571428571428571","787"
"21:0:0:0 (H:m:s:ms)","GENERIC","62.065","0.10144200245691232","1170"
"20:42:1:518 (H:m:s:ms)","OPERA","31.01","0.046934277009938796","482"
"20:42:7:272 (H:m:s:ms)","GENERIC","62.045","0.031118601301131373","728"
"21:0:6:60 (H:m:s:ms)","GENERIC","62.095","0.035083719114979456","940"
"21:0:12:121 (H:m:s:ms)","GENERIC","31.011","0.024080968320944293","880"
"20:42:9:113 (H:m:s:ms)","OPERA","31.01","0.037114428620815695","924"
"21:0:18:181 (H:m:s:ms)","GENERIC","62.101","0.04268749491621888","819"
"20:42:13:333 (H:m:s:ms)","GENERIC","62.069","0.04767888805550997","667"
"21:0:24:242 (H:m:s:ms)","GENERIC","62.049","0.05310009389370333","758"
"20:20:0:0 (H:m:s:ms)","GENERIC","62.055","0.07100226978096956","1113"
"20:42:16:708 (H:m:s:ms)","OPERA","31.009","0.08252446557592436","292"
"21:0:30:303 (H:m:s:ms)","GENERIC","62.091","0.019999999999999987","696"
"20:20:0:0 (H:m:s:ms)","GENERIC","62.115","0.08967841342604659","1113"
"20:42:19:393 (H:m:s:ms)","GENERIC","62.119","0.08460745460227148","645"
"21:0:31:578 (H:m:s:ms)","AMBULANCE","31.053","0.05109090357660073","424"
"20:20:6:60 (H:m:s:ms)","GENERIC","62.075","0.0333359905403472","940"
"20:42:24:303 (H:m:s:ms)","OPERA","31.01","0.052524949386531385","697"
"21:0:36:363 (H:m:s:ms)","GENERIC","62.101","0.06601509712690884","638"
"20:20:12:121 (H:m:s:ms)","GENERIC","62.077","0.05344572305152207","880"
"20:42:25:454 (H:m:s:ms)","GENERIC","62.053","0.03540432411970981","546"
"21:0:42:424 (H:m:s:ms)","GENERIC","62.013","0.018189707884156008","576"
"20:20:18:181 (H:m:s:ms)","GENERIC","62.087","0.011880755721809204","819"
"20:42:31:515 (H:m:s:ms)","GENERIC","62.075","0.01818970788415601","485"
"21:0:48:484 (H:m:s:ms)","GENERIC","62.029","0.07081390544093999","516"
"20:20:24:242 (H:m:s:ms)","GENERIC","62.031","0.053251702335727145","759"
"20:42:31:898 (H:m:s:ms)","OPERA","31.01","0.029661520895611387","111"
"21:0:54:545 (H:m:s:ms)","GENERIC","62.161","0.026602939090027845","455"
"20:20:30:303 (H:m:s:ms)","GENERIC","62.131","0.04472135954999577","697"
"20:42:37:575 (H:m:s:ms)","GENERIC","62.079","0.047213143644377696","425"
"20:20:36:363 (H:m:s:ms)","GENERIC","62.117","0.03033393050395552","637"
"20:42:39:493 (H:m:s:ms)","OPERA","31.01","0.06650932828756355","545"
"20:20:42:424 (H:m:s:ms)","GENERIC","62.059","0.00982295642415904","576"
"20:20:48:484 (H:m:s:ms)","GENERIC","62.031","0.07905694150420946","516"
"21:1:0:606 (H:m:s:ms)","GENERIC","62.107","0.05675088779310954","394"
"21:1:3:157 (H:m:s:ms)","AMBULANCE","31.043","0.09033553607996321","844"
"20:42:43:636 (H:m:s:ms)","GENERIC","62.085","0.06648179119137682","365"
"21:1:6:666 (H:m:s:ms)","GENERIC","62.057","0.08528408517943278","334"
"20:42:47:88 (H:m:s:ms)","OPERA","31.011","0.04817846177279881","913"
"21:1:12:727 (H:m:s:ms)","GENERIC","62.089","0.026602939090027845","272"
"20:20:54:545 (H:m:s:ms)","GENERIC","62.153","0.01780705950536842","455"
"20:42:49:696 (H:m:s:ms)","GENERIC","62.063","0.020528409099875827","342"
"21:1:18:787 (H:m:s:ms)","GENERIC","62.085","0.053057352408767015","223"
"20:21:0:606 (H:m:s:ms)","GENERIC","62.067","0.05675088779310954","394"
"20:42:54:683 (H:m:s:ms)","OPERA","31.009","0.05026783042082047","318"
"21:1:24:848 (H:m:s:ms)","GENERIC","62.051","0.020701074223282136","153"
"20:21:6:666 (H:m:s:ms)","GENERIC","62.061","0.0441941738241592","334"
"20:42:55:757 (H:m:s:ms)","GENERIC","62.081","0.05965327329823469","242"
"21:1:30:909 (H:m:s:ms)","GENERIC","62.117","0.036055512754639876","1091"
"20:21:12:727 (H:m:s:ms)","GENERIC","62.087","0.027284561826234014","273"
"20:43:1:818 (H:m:s:ms)","GENERIC","62.095","0.018495561597760907","182"
"21:1:34:736 (H:m:s:ms)","AMBULANCE","31.023","0.05912567480172143","268"
"20:21:18:787 (H:m:s:ms)","GENERIC","62.133","0.03571428571428571","213"
"20:43:7:878 (H:m:s:ms)","GENERIC","62.057","0.023705128275880807","1121"
"21:1:36:969 (H:m:s:ms)","GENERIC","62.075","0.0588443287071585","1031"
"20:21:24:848 (H:m:s:ms)","GENERIC","62.059","0.03952847075210473","152"
"20:43:9:873 (H:m:s:ms)","OPERA","31.01","0.052714300447341156","165"
"21:1:43:30 (H:m:s:ms)","GENERIC","62.085","0.05318671385423468","971"
"20:21:30:909 (H:m:s:ms)","GENERIC","62.055","0.015855247992033705","1092"
"20:43:13:939 (H:m:s:ms)","GENERIC","62.051","0.08492917841369989","1061"
"20:21:36:969 (H:m:s:ms)","GENERIC","62.075","0.05305043932359117","1031"
"20:43:17:468 (H:m:s:ms)","OPERA","31.009","0.07459859328326242","533"
"20:21:43:30 (H:m:s:ms)","GENERIC","62.073","0.030341898664572528","971"
"20:21:49:90 (H:m:s:ms)","GENERIC","62.077","0.018879759333741513","947"
"20:43:20:0 (H:m:s:ms)","GENERIC","62.083","0.04754600918626546","1040"
"20:43:26:60 (H:m:s:ms)","GENERIC","62.097","0.020360275448198868","940"
"20:21:55:151 (H:m:s:ms)","GENERIC","62.055","0.0245134050975881","849"
"20:43:32:121 (H:m:s:ms)","GENERIC","62.037","0.03952847075210473","879"
"20:22:1:212 (H:m:s:ms)","GENERIC","62.075","0.014010240828499786","787"
"20:43:32:658 (H:m:s:ms)","OPERA","31.009","0.08088854204880637","343"
"20:22:7:272 (H:m:s:ms)","GENERIC","62.059","0.012330483215451458","728"
"20:43:38:181 (H:m:s:ms)","GENERIC","62.055","0.014189563939922874","820"
"20:22:13:333 (H:m:s:ms)","GENERIC","62.095","0.014741134218990176","667"
"20:43:40:253 (H:m:s:ms)","OPERA","31.009","0.049170340108902554","748"
"20:22:19:393 (H:m:s:ms)","GENERIC","62.093","0.04715798039339901","642"
"20:43:44:242 (H:m:s:ms)","GENERIC","62.045","0.06692357637496547","758"
"20:22:25:454 (H:m:s:ms)","GENERIC","62.075","0.03537497546131852","546"
"20:43:47:848 (H:m:s:ms)","OPERA","31.01","0.053188492697208385","152"
"20:22:31:515 (H:m:s:ms)","GENERIC","62.087","0.018810165178689598","485"
"20:43:50:303 (H:m:s:ms)","GENERIC","62.037","0.05257412654144744","697"
"20:22:37:575 (H:m:s:ms)","GENERIC","62.097","0.01776583800443986","425"
"20:43:55:443 (H:m:s:ms)","OPERA","31.009","0.06650932828756353","557"
"20:22:43:636 (H:m:s:ms)","GENERIC","62.055","0.07073277175397553","364"
"20:22:49:696 (H:m:s:ms)","GENERIC","62.041","0.0353805030049041","341"
"20:43:56:363 (H:m:s:ms)","GENERIC","62.097","0.05594815481951106","637"
"20:44:2:424 (H:m:s:ms)","GENERIC","62.055","0.023847532356074737","576"
"20:22:55:757 (H:m:s:ms)","GENERIC","62.079","0.024189695210401582","243"
"20:44:3:37 (H:m:s:ms)","OPERA","31.009","0.05277761518350482","963"
"20:23:1:818 (H:m:s:ms)","GENERIC","62.107","0.05548668479328271","186"
"20:44:8:484 (H:m:s:ms)","GENERIC","62.067","0.051421105741032355","515"
"20:23:7:878 (H:m:s:ms)","GENERIC","62.093","0.012821820969367867","1121"
"20:44:10:632 (H:m:s:ms)","OPERA","31.009","0.0734651849589225","368"
"20:23:13:939 (H:m:s:ms)","GENERIC","62.019","0.07078368864726106","1062"
"20:44:14:545 (H:m:s:ms)","GENERIC","31.025","0.07679932950831528","456"
"20:23:20:0 (H:m:s:ms)","GENERIC","62.051","0.03475864303027552","1038"
"20:44:18:227 (H:m:s:ms)","OPERA","31.01","0.07679932950831528","774"
"20:23:26:60 (H:m:s:ms)","GENERIC","62.107","0.05675088779310954","940"
"20:44:20:606 (H:m:s:ms)","GENERIC","62.099","0.10043680873685248","394"
"20:23:32:121 (H:m:s:ms)","GENERIC","62.037","0.07905694150420946","879"
"20:44:25:822 (H:m:s:ms)","OPERA","31.01","0.07526051843089263","178"
"20:23:38:181 (H:m:s:ms)","GENERIC","62.043","0.02837912787984575","819"
"20:44:26:666 (H:m:s:ms)","GENERIC","62.089","0.04266207633761983","333"
"20:23:44:242 (H:m:s:ms)","GENERIC","62.033","0.01775765939306702","759"
"20:23:50:303 (H:m:s:ms)","GENERIC","62.039","0.07136508394594354","697"
"20:44:32:727 (H:m:s:ms)","GENERIC","62.163","0.05304803849111767","272"
"20:44:33:417 (H:m:s:ms)","OPERA","31.009","0.060940542198386696","584"
"20:23:56:363 (H:m:s:ms)","GENERIC","62.081","0.03038760272869309","637"
"20:44:38:787 (H:m:s:ms)","GENERIC","62.153","0.03538274329755282","212"
"20:24:2:424 (H:m:s:ms)","GENERIC","62.047","0.024189695210401572","576"
"20:44:41:12 (H:m:s:ms)","OPERA","31.009","0.02975655891996854","989"
"20:24:8:484 (H:m:s:ms)","GENERIC","62.095","0.020378499376211105","516"
"20:44:44:848 (H:m:s:ms)","GENERIC","62.077","0.031100026972647524","152"
"20:24:14:545 (H:m:s:ms)","GENERIC","62.029","0.0103728671003771","455"
"20:44:48:607 (H:m:s:ms)","OPERA","31.009","0.07339424439212007","393"
"20:24:20:606 (H:m:s:ms)","GENERIC","62.119","0.03575087411518771","394"
"20:44:50:909 (H:m:s:ms)","GENERIC","62.091","0.08000638205177278","1090"
"20:24:26:666 (H:m:s:ms)","GENERIC","62.099","0.035557692413821215","334"
"20:44:56:202 (H:m:s:ms)","OPERA","31.01","0.06045382429991458","804"
"20:24:32:727 (H:m:s:ms)","GENERIC","62.115","0.01785714285714286","272"
"20:44:56:969 (H:m:s:ms)","GENERIC","62.069","0.05140023537973496","1037"
"20:24:38:787 (H:m:s:ms)","GENERIC","62.193","0.01780705950536842","214"
"20:45:3:30 (H:m:s:ms)","GENERIC","62.045","0.04730385101646224","971"
"20:24:44:848 (H:m:s:ms)","GENERIC","62.055","0.02140474866253094","152"
"20:24:50:909 (H:m:s:ms)","GENERIC","62.127","0.03542021129563926","1092"
"20:45:9:90 (H:m:s:ms)","GENERIC","62.093","0.03538251457376194","949"
"20:45:11:392 (H:m:s:ms)","OPERA","31.01","0.04251855370351256","615"
"20:24:56:969 (H:m:s:ms)","GENERIC","62.043","0.030532241359769847","1031"
"20:45:15:151 (H:m:s:ms)","GENERIC","62.045","0.07464298696667057","849"
"20:25:3:30 (H:m:s:ms)","GENERIC","62.043","0.021676984577377212","971"
"20:45:18:987 (H:m:s:ms)","OPERA","31.01","0.09974306933522203","1054"
"20:25:9:90 (H:m:s:ms)","GENERIC","62.067","0.03063884063783242","949"
"20:45:21:212 (H:m:s:ms)","GENERIC","62.077","0.07303202894857662","787"
"20:25:15:151 (H:m:s:ms)","GENERIC","62.045","0.009405082589344799","850"
"20:45:26:582 (H:m:s:ms)","OPERA","31.01","0.0301009605284667","418"
"20:25:21:212 (H:m:s:ms)","GENERIC","62.095","0.036991123195521815","788"
"20:45:27:272 (H:m:s:ms)","GENERIC","62.055","0.037791577923590385","729"
"20:25:27:272 (H:m:s:ms)","GENERIC","62.095","0.02837912787984575","728"
"20:45:33:333 (H:m:s:ms)","GENERIC","62.071","0.012010986142258626","667"
"20:25:33:333 (H:m:s:ms)","GENERIC","62.093","0.01184198520916358","667"
"20:45:34:177 (H:m:s:ms)","OPERA","31.009","0.07161903497990504","824"
"20:25:39:393 (H:m:s:ms)","GENERIC","62.057","0.02426703296426836","644"
"20:45:39:393 (H:m:s:ms)","GENERIC","62.067","0.07728656857684425","650"
"20:25:45:454 (H:m:s:ms)","GENERIC","62.061","0.028497254661571134","546"
"20:25:51:515 (H:m:s:ms)","GENERIC","62.049","0.027358298081622337","485"
"20:25:57:575 (H:m:s:ms)","GENERIC","62.181","0.026602939090027845","424"
"20:26:3:636 (H:m:s:ms)","GENERIC","62.017","0.07453559924999298","364"
"20:26:9:696 (H:m:s:ms)","GENERIC","62.089","0.04723243353647769","342"
"20:26:15:757 (H:m:s:ms)","GENERIC","62.115","0.05419551401741829","243"
"20:26:21:818 (H:m:s:ms)","GENERIC","62.043","0.010765278994944607","182"
"20:26:27:878 (H:m:s:ms)","GENERIC","62.021","0.024189695210401572","1122"
"20:26:33:939 (H:m:s:ms)","GENERIC","62.037","0.009094853942078004","1062"
"20:26:40:0 (H:m:s:ms)","GENERIC","62.043","0.023610969762337848","1038"
"20:26:46:60 (H:m:s:ms)","GENERIC","62.057","0.021676984577377212","940"
"20:26:52:121 (H:m:s:ms)","GENERIC","62.103","0.028964242362612188","879"
"20:26:58:181 (H:m:s:ms)","GENERIC","62.107","0.036991123195521815","818"
"20:27:4:242 (H:m:s:ms)","GENERIC","62.043","0.031118601301131373","759"
"20:27:10:303 (H:m:s:ms)","GENERIC","62.075","0.035614119010736835","698"
"20:27:16:363 (H:m:s:ms)","GENERIC","62.087","0.023636424339471395","637"
"20:27:22:424 (H:m:s:ms)","GENERIC","62.095","0.012821820969367867","576"
"20:27:28:484 (H:m:s:ms)","GENERIC","62.087","0.025051058970741263","516"
"20:27:34:545 (H:m:s:ms)","GENERIC","62.121","0.04262981395763162","454"
"20:27:40:606 (H:m:s:ms)","GENERIC","62.127","0.032515476866065866","393"
"20:27:46:666 (H:m:s:ms)","GENERIC","62.083","0.035083719114979456","334"
"20:27:52:727 (H:m:s:ms)","GENERIC","62.063","0.012271733559691763","274"
"20:27:58:787 (H:m:s:ms)","GENERIC","62.059","0.07453559924999298","213"
"20:28:4:848 (H:m:s:ms)","GENERIC","62.049","0.07073649907190485","154"
"20:28:10:909 (H:m:s:ms)","GENERIC","62.131","0.036991123195521815","1091"
"20:28:16:969 (H:m:s:ms)","GENERIC","62.111","0.01785714285714286","1031"
"20:28:23:30 (H:m:s:ms)","GENERIC","62.105","0.036991123195521815","969"
"20:28:29:90 (H:m:s:ms)","GENERIC","62.119","0.07256908563120464","947"
"20:28:35:151 (H:m:s:ms)","GENERIC","62.125","0.03893933986791648","849"
"20:28:41:212 (H:m:s:ms)","GENERIC","62.063","0.02072268819310958","788"
"20:28:47:272 (H:m:s:ms)","GENERIC","62.041","0.03034353795949111","728"
"20:28:53:333 (H:m:s:ms)","GENERIC","62.101","0.009094853942078006","667"
"20:28:59:393 (H:m:s:ms)","GENERIC","62.079","0.035413015017830105","644"
"20:29:5:454 (H:m:s:ms)","GENERIC","62.077","0.07114582486036497","546"
"20:29:11:515 (H:m:s:ms)","GENERIC","62.053","0.0473755680118397","485"
"20:29:17:575 (H:m:s:ms)","GENERIC","62.025","0.07288689868556622","424"
"20:29:23:636 (H:m:s:ms)","GENERIC","62.023","0.028588477365230274","364"
"20:29:29:696 (H:m:s:ms)","GENERIC","62.057","0.0708329092870135","342"
"20:29:35:757 (H:m:s:ms)","GENERIC","62.057","0.016038456414354897","243"
"20:29:41:818 (H:m:s:ms)","GENERIC","62.143","0.027284561826234014","182"
"20:29:47:878 (H:m:s:ms)","GENERIC","62.021","0.015152088925840156","1122"
"20:29:53:939 (H:m:s:ms)","GENERIC","62.035","0.02373278124884355","1062"
"22:8:25:263 (H:m:s:ms)","AMBULANCE","31.012","0.07453559924999298","740"
"22:6:18:947 (H:m:s:ms)","AMBULANCE","31.009","0.03868996743662254","1072"
"22:4:44:210 (H:m:s:ms)","AMBULANCE","31.012","0.03868996743662254","794"
"21:20:6:60 (H:m:s:ms)","GENERIC","62.105","0.04779069592801465","942"
"21:20:7:594 (H:m:s:ms)","OPERA","62.017","0.0849606545521327","406"
"21:20:12:121 (H:m:s:ms)","GENERIC","62.033","0.09955720352505887","879"
"21:20:15:189 (H:m:s:ms)","OPERA","62.019","0.08469476915273183","811"
"21:20:18:181 (H:m:s:ms)","GENERIC","62.087","0.04857732293984544","819"
"21:20:22:784 (H:m:s:ms)","OPERA","62.017","0.04867572137726419","217"
"21:20:24:242 (H:m:s:ms)","GENERIC","62.047","0.050506156582433695","758"
"21:20:30:303 (H:m:s:ms)","GENERIC","62.083","0.05999999999999997","697"
"21:20:30:379 (H:m:s:ms)","OPERA","62.017","0.07607319385834292","622"
"21:20:36:363 (H:m:s:ms)","GENERIC","62.097","0.07142857142857138","637"
"21:20:37:974 (H:m:s:ms)","OPERA","62.015","0.07224732411280395","1026"
"21:20:42:424 (H:m:s:ms)","GENERIC","62.019","0.02952143893833508","575"
"21:20:45:569 (H:m:s:ms)","OPERA","62.015","0.05430235956159919","431"
"21:20:48:484 (H:m:s:ms)","GENERIC","62.029","0.06851467688449103","516"
"21:20:53:164 (H:m:s:ms)","OPERA","62.017","0.08634352152610503","837"
"21:20:54:545 (H:m:s:ms)","GENERIC","62.123","0.07289075542458714","455"
"21:21:0:606 (H:m:s:ms)","GENERIC","62.081","0.07693092581620718","395"
"21:21:0:759 (H:m:s:ms)","OPERA","62.017","0.08044160711646035","244"
"21:21:6:666 (H:m:s:ms)","GENERIC","62.071","0.029017475577466905","335"
"21:21:8:354 (H:m:s:ms)","OPERA","62.015","0.037433326392033665","646"
"21:32:43:636 (H:m:s:ms)","GENERIC","62.105","0.04727284867894279","364"
"21:32:31:515 (H:m:s:ms)","GENERIC","62.109","0.026602939090027845","485"
"21:32:25:454 (H:m:s:ms)","GENERIC","62.061","0.02693227101865381","546"
"21:32:19:393 (H:m:s:ms)","GENERIC","62.095","0.07081578943327435","643"
"21:32:13:333 (H:m:s:ms)","GENERIC","62.035","0.018860258284566327","668"
"21:32:7:272 (H:m:s:ms)","GENERIC","62.017","0.032261840933041894","728"
"21:32:6:315 (H:m:s:ms)","AMBULANCE","31.028","0.03921035031681691","697"
"21:32:1:212 (H:m:s:ms)","GENERIC","62.109","0.024757898027482645","787"
"21:21:12:727 (H:m:s:ms)","GENERIC","31.013","0.04251693146009845","329"
"21:31:55:151 (H:m:s:ms)","GENERIC","62.105","0.04761904761904763","849"
"21:21:15:949 (H:m:s:ms)","OPERA","62.019","0.0787965072409395","1051"
"21:21:18:787 (H:m:s:ms)","GENERIC","62.029","0.08866885336680784","213"
"21:21:23:544 (H:m:s:ms)","OPERA","62.017","0.08863804629437691","457"
"21:21:24:848 (H:m:s:ms)","GENERIC","62.035","0.08631585597067008","152"
"21:21:30:909 (H:m:s:ms)","GENERIC","62.117","0.025846770698784716","1091"
"21:21:31:139 (H:m:s:ms)","OPERA","62.015","0.02771913142339178","863"
"21:21:36:969 (H:m:s:ms)","GENERIC","62.057","0.03558991446792643","1031"
"21:32:37:894 (H:m:s:ms)","AMBULANCE","31.01","0.04303662632880512","111"
"21:21:38:734 (H:m:s:ms)","OPERA","62.015","0.05003596817580745","267"
"21:32:37:575 (H:m:s:ms)","GENERIC","31.009","0.023610969762337848","425"
"21:21:43:30 (H:m:s:ms)","GENERIC","62.085","0.039729229387157464","970"
"21:33:41:52 (H:m:s:ms)","AMBULANCE","31.015","0.10192074043516733","1004"
"21:33:38:181 (H:m:s:ms)","GENERIC","62.035","0.020542971567389812","819"
"21:33:26:60 (H:m:s:ms)","GENERIC","62.073","0.04656573146573319","940"
"21:33:20:0 (H:m:s:ms)","GENERIC","62.16","0.030033994345183748","1038"
"21:33:13:939 (H:m:s:ms)","GENERIC","62.045","0.053041627801268705","1062"
"21:33:9:473 (H:m:s:ms)","AMBULANCE","31.016","0.03426295587827637","574"
"21:33:7:878 (H:m:s:ms)","GENERIC","62.055","0.024757898027482645","1121"
"21:33:1:818 (H:m:s:ms)","GENERIC","62.089","0.036991123195521815","186"
"21:21:46:329 (H:m:s:ms)","OPERA","62.017","0.05050916000400757","671"
"21:32:55:757 (H:m:s:ms)","GENERIC","62.077","0.0369911231955218","242"
"21:21:49:90 (H:m:s:ms)","GENERIC","62.067","0.06653504792444684","946"
"21:32:49:696 (H:m:s:ms)","GENERIC","62.023","0.017877918545516246","339"
"21:21:53:924 (H:m:s:ms)","OPERA","62.017","0.08465840208821003","1076"
"21:21:55:151 (H:m:s:ms)","GENERIC","62.091","0.07439792614118308","849"
"21:22:1:212 (H:m:s:ms)","GENERIC","62.105","0.024105305632519745","787"
"21:22:1:518 (H:m:s:ms)","OPERA","62.017","0.07459405037829983","482"
"21:22:7:272 (H:m:s:ms)","GENERIC","62.021","0.021404748662530962","728"
"21:22:9:113 (H:m:s:ms)","OPERA","62.015","0.05174796932523879","924"
"21:22:13:333 (H:m:s:ms)","GENERIC","62.049","0.050800748435586074","667"
"21:22:16:708 (H:m:s:ms)","OPERA","62.017","0.05065605958774127","292"
"21:33:32:121 (H:m:s:ms)","GENERIC","62.047","0.06373774391990976","879"
"21:34:38:787 (H:m:s:ms)","GENERIC","62.075","0.026602939090027845","212"
"21:34:32:727 (H:m:s:ms)","GENERIC","62.067","0.05309310266899466","273"
"21:34:26:666 (H:m:s:ms)","GENERIC","62.079","0.01785714285714286","336"
"21:34:20:606 (H:m:s:ms)","GENERIC","62.065","0.03539950564626572","394"
"21:34:14:545 (H:m:s:ms)","GENERIC","62.069","0.07453559924999298","456"
"21:34:12:631 (H:m:s:ms)","AMBULANCE","31.01","0.04907530207907662","372"
"21:34:8:484 (H:m:s:ms)","GENERIC","62.063","0.030567749064316658","516"
"21:34:2:424 (H:m:s:ms)","GENERIC","62.083","0.0236398575828023","576"
"21:22:19:393 (H:m:s:ms)","GENERIC","62.097","0.08463654081559671","643"
"21:33:56:363 (H:m:s:ms)","GENERIC","62.051","0.010647942749998992","638"
"21:22:24:303 (H:m:s:ms)","OPERA","62.017","0.0847264934881952","697"
"21:33:50:303 (H:m:s:ms)","GENERIC","62.111","0.04724989736215964","697"
"21:1:49:90 (H:m:s:ms)","GENERIC","62.103","0.04724989736215964","953"
"21:22:25:454 (H:m:s:ms)","GENERIC","62.071","0.05446835372918122","546"
"21:33:44:242 (H:m:s:ms)","GENERIC","62.097","0.1241808174432566","763"
"21:1:55:151 (H:m:s:ms)","GENERIC","62.063","0.025643641938735733","849"
"21:22:31:515 (H:m:s:ms)","GENERIC","62.103","0.0730472383580309","493"
"21:2:1:212 (H:m:s:ms)","GENERIC","62.099","0.023705128275880807","788"
"21:22:31:898 (H:m:s:ms)","OPERA","62.017","0.07076502914752386","109"
"21:2:6:315 (H:m:s:ms)","AMBULANCE","31.054","0.052623725820251696","686"
"21:22:37:575 (H:m:s:ms)","GENERIC","62.089","0.07083290928701348","432"
"21:2:7:272 (H:m:s:ms)","GENERIC","62.015","0.056047988671116905","727"
"21:22:39:493 (H:m:s:ms)","OPERA","62.017","0.07684995792095482","543"
"21:2:13:333 (H:m:s:ms)","GENERIC","62.053","0.04422340265697054","667"
"21:22:43:636 (H:m:s:ms)","GENERIC","62.121","0.038543189898106414","364"
"21:2:19:393 (H:m:s:ms)","GENERIC","62.097","0.023883709691197613","648"
"21:22:47:88 (H:m:s:ms)","OPERA","62.015","0.03114367523418103","913"
"21:2:25:454 (H:m:s:ms)","GENERIC","62.069","0.07079901129253144","546"
"21:22:49:696 (H:m:s:ms)","GENERIC","62.029","0.04078069799251101","339"
"21:2:31:515 (H:m:s:ms)","GENERIC","62.093","0.018810165178689598","485"
"21:2:37:575 (H:m:s:ms)","GENERIC","62.085","0.03539950564626572","425"
"21:35:33:333 (H:m:s:ms)","GENERIC","62.067","0.01184198520916358","667"
"21:35:27:272 (H:m:s:ms)","GENERIC","62.029","0.05432668671002206","728"
"21:35:21:212 (H:m:s:ms)","GENERIC","62.109","0.03893933986791651","790"
"21:35:15:789 (H:m:s:ms)","AMBULANCE","31.009","0.07569215399100752","219"
"21:35:15:151 (H:m:s:ms)","GENERIC","62.077","0.026565158471729442","849"
"21:35:9:90 (H:m:s:ms)","GENERIC","62.115","0.05213796454541329","946"
"21:35:3:30 (H:m:s:ms)","GENERIC","62.051","0.012797234521108793","970"
"21:22:54:683 (H:m:s:ms)","OPERA","62.015","0.038025248994620724","318"
"21:34:56:969 (H:m:s:ms)","GENERIC","62.065","0.05310009389370333","1030"
"21:22:55:757 (H:m:s:ms)","GENERIC","62.093","0.01880906004238853","242"
"21:34:50:909 (H:m:s:ms)","GENERIC","62.085","0.0359349734110043","1091"
"21:2:37:894 (H:m:s:ms)","AMBULANCE","31.022","0.04514640574552556","213"
"21:23:1:818 (H:m:s:ms)","GENERIC","62.085","0.036991123195521815","184"
"21:34:44:848 (H:m:s:ms)","GENERIC","62.135","0.04080585934955509","206"
"21:2:43:636 (H:m:s:ms)","GENERIC","62.115","0.02415948169054038","364"
"21:23:7:878 (H:m:s:ms)","GENERIC","62.057","0.023705128275880807","1122"
"21:34:44:210 (H:m:s:ms)","AMBULANCE","31.015","0.03558117389744548","843"
"21:2:49:696 (H:m:s:ms)","GENERIC","62.067","0.05310009389370333","346"
"21:23:9:873 (H:m:s:ms)","OPERA","62.015","0.052714300447341156","161"
"21:2:55:757 (H:m:s:ms)","GENERIC","62.115","0.0369911231955218","243"
"21:23:13:939 (H:m:s:ms)","GENERIC","62.033","0.05279128861595757","1062"
"21:3:1:818 (H:m:s:ms)","GENERIC","62.073","0.018495561597760907","182"
"21:23:17:468 (H:m:s:ms)","OPERA","62.017","0.033495853515645116","533"
"21:3:7:878 (H:m:s:ms)","GENERIC","62.051","0.012052652816259873","1121"
"21:23:20:0 (H:m:s:ms)","GENERIC","62.147","0.07612445693023605","1036"
"21:3:9:473 (H:m:s:ms)","AMBULANCE","31.036","0.02407277159763866","571"
"21:23:25:63 (H:m:s:ms)","OPERA","31.01","0.08615462623976239","939"
"21:3:13:939 (H:m:s:ms)","GENERIC","62.045","0.07383132148702645","1061"
"21:23:26:60 (H:m:s:ms)","GENERIC","62.077","0.07344206486521852","940"
"21:3:20:0 (H:m:s:ms)","GENERIC","62.118","0.07256908563120464","1041"
"21:3:26:60 (H:m:s:ms)","GENERIC","62.077","0.04656573146573319","939"
"21:36:27:878 (H:m:s:ms)","GENERIC","62.087","0.03952847075210473","1123"
"21:36:21:818 (H:m:s:ms)","GENERIC","62.031","0.0256538337820592","182"
"21:36:18:947 (H:m:s:ms)","AMBULANCE","62.019","0.029585580248199947","1157"
"21:36:15:757 (H:m:s:ms)","GENERIC","62.071","0.01806517133913944","243"
"21:36:9:696 (H:m:s:ms)","GENERIC","62.047","0.02373278124884355","341"
"21:36:3:636 (H:m:s:ms)","GENERIC","62.071","0.020340079175403324","364"
"21:23:32:121 (H:m:s:ms)","GENERIC","62.059","0.08838834764831839","879"
"21:35:57:575 (H:m:s:ms)","GENERIC","62.121","0.009822956424159044","425"
"21:23:32:658 (H:m:s:ms)","OPERA","62.017","0.09140110665477572","343"
"21:35:51:515 (H:m:s:ms)","GENERIC","62.045","0.07350076833424365","486"
"21:3:32:121 (H:m:s:ms)","GENERIC","62.073","0.08838834764831839","879"
"21:23:38:181 (H:m:s:ms)","GENERIC","62.029","0.047323601514302656","820"
"21:35:47:368 (H:m:s:ms)","AMBULANCE","31.028","0.04715806750493243","641"
"21:3:38:181 (H:m:s:ms)","GENERIC","31.017","0.029482268437980352","848"
"21:23:40:253 (H:m:s:ms)","OPERA","62.017","0.05596728347754525","747"
"21:35:45:454 (H:m:s:ms)","GENERIC","62.077","0.042568691819768634","546"
"21:3:41:52 (H:m:s:ms)","AMBULANCE","31.011","0.05542304283019803","951"
"21:23:44:242 (H:m:s:ms)","GENERIC","62.093","0.06093499575577343","761"
"21:35:39:393 (H:m:s:ms)","GENERIC","62.061","0.027487370837451074","644"
"21:3:44:242 (H:m:s:ms)","GENERIC","62.073","0.07067281425886096","759"
"21:23:47:848 (H:m:s:ms)","OPERA","62.015","0.061019135853570786","152"
"21:3:50:303 (H:m:s:ms)","GENERIC","62.081","0.02546626714238124","697"
"21:23:50:303 (H:m:s:ms)","GENERIC","62.111","0.056725921848366154","697"
"21:3:56:363 (H:m:s:ms)","GENERIC","62.089","0.030033994345183744","638"
"21:23:55:443 (H:m:s:ms)","OPERA","62.015","0.05338500306597801","558"
"21:4:2:424 (H:m:s:ms)","GENERIC","62.081","0.024189695210401572","575"
"21:23:56:363 (H:m:s:ms)","GENERIC","62.063","0.038244523148437654","637"
"21:4:8:484 (H:m:s:ms)","GENERIC","62.063","0.01044800401256836","515"
"21:24:2:424 (H:m:s:ms)","GENERIC","62.085","0.024189695210401572","576"
"21:4:12:631 (H:m:s:ms)","AMBULANCE","31.039","0.025834980362586683","419"
"21:4:14:545 (H:m:s:ms)","GENERIC","62.053","0.045193397824230784","455"
"21:37:22:424 (H:m:s:ms)","GENERIC","62.097","0.05389089401308277","600"
"21:37:22:105 (H:m:s:ms)","AMBULANCE","31.019","0.04811649850969825","919"
"21:37:16:363 (H:m:s:ms)","GENERIC","62.035","0.04727284867894279","637"
"21:37:10:303 (H:m:s:ms)","GENERIC","62.041","0.017807059505368417","697"
"21:37:4:242 (H:m:s:ms)","GENERIC","62.051","0.030396100119823445","758"
"21:36:58:181 (H:m:s:ms)","GENERIC","62.097","0.018495561597760907","818"
"21:24:3:37 (H:m:s:ms)","OPERA","62.017","0.033633964230223454","963"
"21:24:8:484 (H:m:s:ms)","GENERIC","62.059","0.025724578459155385","516"
"21:36:52:121 (H:m:s:ms)","GENERIC","62.109","0.06009333553372486","879"
"21:4:20:606 (H:m:s:ms)","GENERIC","62.083","0.04072055089639774","394"
"21:24:10:632 (H:m:s:ms)","OPERA","62.017","0.07143018021228616","368"
"21:36:50:526 (H:m:s:ms)","AMBULANCE","31.012","0.04694381777754713","476"
"21:4:26:666 (H:m:s:ms)","GENERIC","62.081","0.01785714285714286","333"
"21:24:14:545 (H:m:s:ms)","GENERIC","62.077","0.0767596653490859","455"
"21:36:46:60 (H:m:s:ms)","GENERIC","62.051","0.02034007917540334","940"
"21:4:32:727 (H:m:s:ms)","GENERIC","62.121","0.035377879921712416","272"
"21:24:18:227 (H:m:s:ms)","OPERA","62.015","0.0767596653490859","774"
"21:36:40:0 (H:m:s:ms)","GENERIC","62.025","0.07072426979165267","1037"
"21:4:38:787 (H:m:s:ms)","GENERIC","62.117","0.02686057469435319","213"
"21:24:20:606 (H:m:s:ms)","GENERIC","62.053","0.10045565674323483","393"
"21:36:33:939 (H:m:s:ms)","GENERIC","62.051","0.026602939090027825","1061"
"21:4:44:210 (H:m:s:ms)","AMBULANCE","31.049","0.07076502914752386","793"
"21:24:25:822 (H:m:s:ms)","OPERA","62.015","0.07526051843089263","178"
"21:4:44:848 (H:m:s:ms)","GENERIC","62.095","0.07673454352575794","156"
"21:24:26:666 (H:m:s:ms)","GENERIC","62.067","0.042514819316217776","335"
"21:4:50:909 (H:m:s:ms)","GENERIC","62.069","0.01840893502864541","1091"
"21:24:32:727 (H:m:s:ms)","GENERIC","62.087","0.05304803849111767","272"
"21:4:56:969 (H:m:s:ms)","GENERIC","62.073","0.030532241359769847","1031"
"21:24:33:417 (H:m:s:ms)","OPERA","62.015","0.07073193405023841","583"
"21:5:3:30 (H:m:s:ms)","GENERIC","62.027","0.021676984577377212","970"
"21:5:9:90 (H:m:s:ms)","GENERIC","62.109","0.04145319465299115","951"
"21:38:23:30 (H:m:s:ms)","GENERIC","62.077","0.05413726253945863","970"
"21:38:16:969 (H:m:s:ms)","GENERIC","62.105","0.05304803849111767","1031"
"21:38:10:909 (H:m:s:ms)","GENERIC","62.087","0.05331121644472734","1093"
"21:38:4:848 (H:m:s:ms)","GENERIC","62.067","0.07905694150420946","152"
"21:37:58:787 (H:m:s:ms)","GENERIC","62.051","0.08445314220163053","213"
"21:37:53:684 (H:m:s:ms)","AMBULANCE","31.01","0.0565575580113031","329"
"21:37:52:727 (H:m:s:ms)","GENERIC","62.089","0.04796193513842229","274"
"21:24:38:787 (H:m:s:ms)","GENERIC","62.089","0.05052913623889128","212"
"21:24:41:12 (H:m:s:ms)","OPERA","62.015","0.05052913623889128","988"
"21:5:15:151 (H:m:s:ms)","GENERIC","62.033","0.010068207469698495","850"
"21:24:44:848 (H:m:s:ms)","GENERIC","62.127","0.05598560596168648","153"
"21:5:15:789 (H:m:s:ms)","AMBULANCE","31.051","0.03684034904452839","232"
"21:24:48:607 (H:m:s:ms)","OPERA","62.017","0.0384987197535265","393"
"21:37:46:666 (H:m:s:ms)","GENERIC","62.085","0.05675088779310954","334"
"20:45:41:772 (H:m:s:ms)","OPERA","31.009","0.0407166097803953","228"
"21:5:21:212 (H:m:s:ms)","GENERIC","62.095","0.05331121644472734","788"
"21:24:50:909 (H:m:s:ms)","GENERIC","62.073","0.039565215447693765","1091"
"21:37:40:606 (H:m:s:ms)","GENERIC","62.077","0.02338914607665297","394"
"20:45:45:454 (H:m:s:ms)","GENERIC","62.053","0.049486855574631186","546"
"21:5:27:272 (H:m:s:ms)","GENERIC","62.037","0.04249182927993987","728"
"21:24:56:202 (H:m:s:ms)","OPERA","62.017","0.07737831756217968","804"
"21:37:34:545 (H:m:s:ms)","GENERIC","62.105","0.028588477365230274","455"
"20:45:49:367 (H:m:s:ms)","OPERA","31.01","0.04841819568121544","670"
"21:5:33:333 (H:m:s:ms)","GENERIC","62.065","0.012287490066540367","668"
"21:24:56:969 (H:m:s:ms)","GENERIC","62.061","0.07154334022604976","1038"
"21:37:28:484 (H:m:s:ms)","GENERIC","62.059","0.025051058970741263","516"
"20:45:51:515 (H:m:s:ms)","GENERIC","62.069","0.07442933156351629","538"
"21:5:39:393 (H:m:s:ms)","GENERIC","62.101","0.023597802524037387","648"
"21:25:3:30 (H:m:s:ms)","GENERIC","62.039","0.03413621137715327","970"
"20:45:56:962 (H:m:s:ms)","OPERA","31.01","0.02028856498582976","1044"
"21:5:45:454 (H:m:s:ms)","GENERIC","62.067","0.04248970344943157","547"
"21:25:3:797 (H:m:s:ms)","OPERA","31.009","0.04150165192972758","205"
"20:45:57:575 (H:m:s:ms)","GENERIC","62.147","0.03329323018677636","431"
"21:5:47:368 (H:m:s:ms)","AMBULANCE","31.056","0.08213784900271577","633"
"21:25:9:90 (H:m:s:ms)","GENERIC","62.105","0.07072426979165268","946"
"20:46:3:636 (H:m:s:ms)","GENERIC","62.045","0.011147333248304381","364"
"21:5:51:515 (H:m:s:ms)","GENERIC","31.022","0.07686355907534315","485"
"20:46:4:556 (H:m:s:ms)","OPERA","31.009","0.07160124261587797","445"
"21:5:57:575 (H:m:s:ms)","GENERIC","62.143","0.01092919548958599","424"
"20:46:9:696 (H:m:s:ms)","GENERIC","62.109","0.08514438015285267","346"
"20:46:12:151 (H:m:s:ms)","OPERA","31.009","0.06696917401994502","849"
"21:39:17:575 (H:m:s:ms)","GENERIC","62.157","0.04656573146573319","426"
"21:39:11:515 (H:m:s:ms)","GENERIC","62.047","0.010212946879277448","485"
"21:39:5:454 (H:m:s:ms)","GENERIC","62.063","0.04724989736215964","546"
"21:38:59:393 (H:m:s:ms)","GENERIC","62.117","0.08239477650944893","643"
"21:38:56:842 (H:m:s:ms)","AMBULANCE","31.032","0.09118883254804067","162"
"21:38:53:333 (H:m:s:ms)","GENERIC","62.059","0.05327297817920102","669"
"21:38:47:272 (H:m:s:ms)","GENERIC","62.049","0.03621779114001471","728"
"21:38:41:212 (H:m:s:ms)","GENERIC","62.025","0.039999999999999925","789"
"21:25:11:392 (H:m:s:ms)","OPERA","62.015","0.08464287431609344","614"
"21:25:15:151 (H:m:s:ms)","GENERIC","62.059","0.05394698012882371","849"
"21:6:3:636 (H:m:s:ms)","GENERIC","62.071","0.0103728671003771","364"
"21:25:18:987 (H:m:s:ms)","OPERA","62.015","0.07539890486319817","1049"
"21:6:9:696 (H:m:s:ms)","GENERIC","31.025","0.03036165263645725","346"
"21:25:21:212 (H:m:s:ms)","GENERIC","62.107","0.0882222885774376","789"
"20:46:15:757 (H:m:s:ms)","GENERIC","62.101","0.05039065873720003","243"
"21:6:15:757 (H:m:s:ms)","GENERIC","62.083","0.019180762811991107","243"
"21:25:26:582 (H:m:s:ms)","OPERA","62.017","0.05808750996202667","418"
"20:46:19:746 (H:m:s:ms)","OPERA","31.01","0.05397276732527232","293"
"21:6:18:947 (H:m:s:ms)","AMBULANCE","31.009","0.030524011821979335","1097"
"21:25:27:272 (H:m:s:ms)","GENERIC","62.023","0.05917575235741972","729"
"21:38:35:151 (H:m:s:ms)","GENERIC","62.105","0.025959559911944378","848"
"20:46:21:818 (H:m:s:ms)","GENERIC","62.047","0.05217899535696673","182"
"21:6:21:818 (H:m:s:ms)","GENERIC","62.035","0.02647228272894163","182"
"21:25:33:333 (H:m:s:ms)","GENERIC","62.067","0.035374337093508325","667"
"21:38:29:90 (H:m:s:ms)","GENERIC","62.111","0.09485982440597654","948"
"20:46:27:341 (H:m:s:ms)","OPERA","31.01","0.07072426979165267","659"
"21:6:27:878 (H:m:s:ms)","GENERIC","62.045","0.07905694150420946","1122"
"21:25:34:177 (H:m:s:ms)","OPERA","62.017","0.05871558844313089","824"
"21:38:25:263 (H:m:s:ms)","AMBULANCE","31.017","0.09537984908636982","764"
"20:46:27:878 (H:m:s:ms)","GENERIC","62.037","0.08085901011762404","1123"
"21:6:33:939 (H:m:s:ms)","GENERIC","62.047","0.026602939090027825","1061"
"21:25:39:393 (H:m:s:ms)","GENERIC","62.075","0.04856681919258346","643"
"20:46:33:939 (H:m:s:ms)","GENERIC","62.027","0.026860574694353174","1060"
"21:6:40:0 (H:m:s:ms)","GENERIC","62.055","0.04716083714041451","1039"
"21:25:41:772 (H:m:s:ms)","OPERA","62.017","0.023605723892844144","229"
"20:46:34:936 (H:m:s:ms)","OPERA","31.01","0.03968403829481815","64"
"21:6:46:60 (H:m:s:ms)","GENERIC","62.041","0.021676984577377212","940"
"20:46:40:0 (H:m:s:ms)","GENERIC","62.061","0.07072426979165267","1041"
"21:6:50:526 (H:m:s:ms)","AMBULANCE","31.057","0.03213204082574049","519"
"20:46:42:531 (H:m:s:ms)","OPERA","31.01","0.08683619084730783","469"
"20:46:46:60 (H:m:s:ms)","GENERIC","62.063","0.06351756342187798","940"
"21:39:29:696 (H:m:s:ms)","GENERIC","62.029","0.04925939068174489","343"
"21:40:6:60 (H:m:s:ms)","GENERIC","62.123","0.07075915990571405","940"
"21:40:0:0 (H:m:s:ms)","GENERIC","62.075","0.0795950166662753","1139"
"21:40:0:0 (H:m:s:ms)","GENERIC","62.059","0.0770898610281239","1139"
"21:40:0:0 (H:m:s:ms)","AMBULANCE","31.023","0.02043563214454916","1138"
"21:39:53:939 (H:m:s:ms)","GENERIC","62.031","0.07083290928701348","1062"
"21:39:47:878 (H:m:s:ms)","GENERIC","62.087","0.011990483784605563","1122"
"21:39:41:818 (H:m:s:ms)","GENERIC","62.107","0.02373278124884355","187"
"21:39:35:757 (H:m:s:ms)","GENERIC","62.081","0.028667538173074235","243"
"21:6:52:121 (H:m:s:ms)","GENERIC","62.085","0.02775379412691493","880"
"21:6:58:181 (H:m:s:ms)","GENERIC","62.057","0.05413726253945863","818"
"20:46:50:126 (H:m:s:ms)","OPERA","31.009","0.06068447531043611","874"
"21:7:4:242 (H:m:s:ms)","GENERIC","62.033","0.030396100119823445","759"
"20:46:52:121 (H:m:s:ms)","GENERIC","62.079","0.049426781899677946","878"
"21:7:10:303 (H:m:s:ms)","GENERIC","62.071","0.018189707884156005","697"
"20:46:57:721 (H:m:s:ms)","OPERA","31.01","0.0493306353745091","279"
"21:7:16:363 (H:m:s:ms)","GENERIC","62.023","0.047437824804919364","636"
"20:46:58:181 (H:m:s:ms)","GENERIC","62.065","0.05282929704647832","819"
"21:7:22:105 (H:m:s:ms)","AMBULANCE","31.025","0.030814457351084772","899"
"21:39:28:421 (H:m:s:ms)","AMBULANCE","31.009","0.05222295413461843","592"
"20:47:4:242 (H:m:s:ms)","GENERIC","62.039","0.02140474866253094","760"
"21:7:22:424 (H:m:s:ms)","GENERIC","62.133","0.046934277009938796","580"
"21:39:23:636 (H:m:s:ms)","GENERIC","62.091","0.035445416502284305","365"
"20:47:5:316 (H:m:s:ms)","OPERA","31.009","0.0517479693252388","686"
"21:7:28:484 (H:m:s:ms)","GENERIC","62.049","0.030694438580639166","516"
"20:47:10:303 (H:m:s:ms)","GENERIC","62.081","0.07075259376412438","697"
"21:7:34:545 (H:m:s:ms)","GENERIC","62.113","0.04288271604784541","455"
"20:47:12:911 (H:m:s:ms)","OPERA","31.009","0.08808209112456648","90"
"21:7:40:606 (H:m:s:ms)","GENERIC","62.061","0.011694573038326486","394"
"20:47:16:363 (H:m:s:ms)","GENERIC","62.055","0.08485200386641364","637"
"20:47:20:506 (H:m:s:ms)","OPERA","31.01","0.05291796948039608","494"
"21:7:46:666 (H:m:s:ms)","GENERIC","62.125","0.03677010764638212","333"
"21:7:52:727 (H:m:s:ms)","GENERIC","62.091","0.0475073093791308","273"
"20:47:22:424 (H:m:s:ms)","GENERIC","62.117","0.04018323680227299","575"
"21:7:53:684 (H:m:s:ms)","AMBULANCE","31.034","0.07100429053630371","416"
"20:47:28:101 (H:m:s:ms)","OPERA","31.009","0.04716083714041451","899"
"21:7:58:787 (H:m:s:ms)","GENERIC","62.077","0.10000286956397031","213"
"20:47:28:484 (H:m:s:ms)","GENERIC","62.057","0.048375716913596135","517"
"21:8:4:848 (H:m:s:ms)","GENERIC","62.059","0.02660841619675999","152"
"20:47:34:545 (H:m:s:ms)","GENERIC","62.137","0.014741134218990199","455"
"21:8:10:909 (H:m:s:ms)","GENERIC","62.107","0.03577129853411206","1095"
"20:47:35:696 (H:m:s:ms)","OPERA","31.01","0.027711521415099014","305"
"21:8:16:969 (H:m:s:ms)","GENERIC","62.141","0.035377879921712416","1031"
"20:47:40:606 (H:m:s:ms)","GENERIC","62.083","0.028165004795918862","394"
"21:8:23:30 (H:m:s:ms)","GENERIC","62.099","0.02405768462153231","970"
"21:40:12:121 (H:m:s:ms)","GENERIC","62.075","0.04739788710418419","879"
"20:47:43:291 (H:m:s:ms)","OPERA","31.009","0.0496975116154921","709"
"21:8:25:263 (H:m:s:ms)","AMBULANCE","31.045","0.05277901735555715","740"
"20:47:46:666 (H:m:s:ms)","GENERIC","62.127","0.06611863655898041","334"
"21:8:29:90 (H:m:s:ms)","GENERIC","62.099","0.0706236400177187","951"
"20:47:50:886 (H:m:s:ms)","OPERA","31.009","0.05089053347845107","115"
"20:47:52:727 (H:m:s:ms)","GENERIC","62.087","0.031407552497460085","273"
"21:8:35:151 (H:m:s:ms)","GENERIC","62.089","0.0369911231955218","849"
"21:8:41:212 (H:m:s:ms)","GENERIC","62.029","0.030460123814258947","788"
"20:47:58:481 (H:m:s:ms)","OPERA","31.01","0.010765278994944607","520"
"21:8:47:272 (H:m:s:ms)","GENERIC","62.077","0.04249182927993987","728"
"20:47:58:787 (H:m:s:ms)","GENERIC","62.075","0.07967937660935898","215"
"21:8:53:333 (H:m:s:ms)","GENERIC","62.067","0.05331121644472733","700"
"20:30:0:0 (H:m:s:ms)","GENERIC","62.075","0.07114582486036497","1036"
"20:48:4:848 (H:m:s:ms)","GENERIC","62.069","0.027332587007087333","152"
"21:8:56:842 (H:m:s:ms)","AMBULANCE","31.046","0.07082070993009523","160"
"20:30:0:0 (H:m:s:ms)","GENERIC","62.099","0.08896677664261576","1036"
"20:48:6:75 (H:m:s:ms)","OPERA","31.009","0.054413086721245264","926"
"21:8:59:393 (H:m:s:ms)","GENERIC","62.081","0.05879360407513002","646"
"20:30:6:60 (H:m:s:ms)","GENERIC","62.069","0.035083719114979456","940"
"20:48:10:909 (H:m:s:ms)","GENERIC","62.109","0.05903373583088277","1091"
"21:9:5:454 (H:m:s:ms)","GENERIC","62.089","0.03621779114001471","546"
"20:30:12:121 (H:m:s:ms)","GENERIC","62.071","0.03563048203434806","880"
"20:48:13:670 (H:m:s:ms)","OPERA","31.01","0.058953563348042005","330"
"21:9:11:515 (H:m:s:ms)","GENERIC","62.091","0.024037008503093288","486"
"20:30:18:181 (H:m:s:ms)","GENERIC","62.085","0.0236181926316975","819"
"20:48:16:969 (H:m:s:ms)","GENERIC","62.127","0.050317120703869865","1032"
"21:9:17:575 (H:m:s:ms)","GENERIC","62.103","0.07126096406869609","425"
"20:30:24:242 (H:m:s:ms)","GENERIC","62.035","0.03539184432363053","759"
"20:48:21:265 (H:m:s:ms)","OPERA","31.01","0.02955610728222939","735"
"21:9:23:636 (H:m:s:ms)","GENERIC","62.047","0.028964242362612188","364"
"20:30:30:303 (H:m:s:ms)","GENERIC","62.115","0.05999999999999997","697"
"20:48:23:30 (H:m:s:ms)","GENERIC","62.119","0.05813581919249479","970"
"20:30:36:363 (H:m:s:ms)","GENERIC","62.125","0.0304218230627109","637"
"20:48:28:860 (H:m:s:ms)","OPERA","31.009","0.06405802065440971","140"
"20:30:42:424 (H:m:s:ms)","GENERIC","62.053","0.018189707884156008","576"
"20:30:48:484 (H:m:s:ms)","GENERIC","62.047","0.024257499131236513","516"
"21:9:28:421 (H:m:s:ms)","AMBULANCE","31.047","0.04601993100647772","693"
"21:9:29:696 (H:m:s:ms)","GENERIC","62.065","0.05026402046482512","342"
"20:48:29:90 (H:m:s:ms)","GENERIC","62.103","0.080705861847285","951"
"21:9:35:757 (H:m:s:ms)","GENERIC","62.049","0.024189695210401582","243"
"20:48:35:151 (H:m:s:ms)","GENERIC","62.097","0.024189695210401582","849"
"21:9:41:818 (H:m:s:ms)","GENERIC","62.119","0.009094853942078006","181"
"20:30:54:545 (H:m:s:ms)","GENERIC","62.173","0.009822956424159044","455"
"20:48:36:455 (H:m:s:ms)","OPERA","31.01","0.05278907909738466","545"
"21:9:47:878 (H:m:s:ms)","GENERIC","62.057","0.011836789768086994","1122"
"20:31:0:606 (H:m:s:ms)","GENERIC","62.083","0.036770107646382125","394"
"20:48:41:212 (H:m:s:ms)","GENERIC","62.037","0.05582089009067046","789"
"21:9:53:939 (H:m:s:ms)","GENERIC","62.023","0.07083290928701348","1062"
"20:31:6:666 (H:m:s:ms)","GENERIC","62.061","0.0441941738241592","334"
"20:48:44:50 (H:m:s:ms)","OPERA","31.01","0.03825879138548496","951"
"21:10:0:0 (H:m:s:ms)","AMBULANCE","31.055","0.047323601514302656","1043"
"20:31:12:727 (H:m:s:ms)","GENERIC","62.089","0.009822956424159044","273"
"20:48:47:272 (H:m:s:ms)","GENERIC","62.079","0.07596236771280787","727"
"21:10:0:0 (H:m:s:ms)","GENERIC","62.057","0.08789629206220316","1043"
"20:31:18:787 (H:m:s:ms)","GENERIC","62.129","0.05413726253945863","212"
"20:48:51:645 (H:m:s:ms)","OPERA","31.01","0.10073423293816355","355"
"21:10:0:0 (H:m:s:ms)","GENERIC","62.075","0.08956957827936073","1044"
"20:31:24:848 (H:m:s:ms)","GENERIC","62.075","0.012979779955972184","152"
"20:48:53:333 (H:m:s:ms)","GENERIC","62.067","0.0755533639891519","667"
"21:10:6:60 (H:m:s:ms)","GENERIC","62.097","0.03156726701725658","940"
"20:31:30:909 (H:m:s:ms)","GENERIC","62.061","0.013743685418725535","1092"
"20:48:59:240 (H:m:s:ms)","OPERA","31.009","0.020542971567389812","800"
"20:31:36:969 (H:m:s:ms)","GENERIC","62.075","0.08498365855987974","1031"
"20:48:59:393 (H:m:s:ms)","GENERIC","62.075","0.04090973487109569","647"
"20:31:43:30 (H:m:s:ms)","GENERIC","62.061","0.035585482020231846","970"
"20:31:49:90 (H:m:s:ms)","GENERIC","62.077","0.07136508394594354","947"
"20:49:5:454 (H:m:s:ms)","GENERIC","62.097","0.07243558228002941","545"
"20:49:6:835 (H:m:s:ms)","OPERA","31.009","0.10073423293816355","167"
"20:31:55:151 (H:m:s:ms)","GENERIC","62.055","0.07142857142857141","849"
"20:49:11:515 (H:m:s:ms)","GENERIC","62.081","0.07135653065329073","486"
"20:32:1:212 (H:m:s:ms)","GENERIC","62.079","0.024757898027482645","788"
"20:49:14:430 (H:m:s:ms)","OPERA","31.009","0.02563064634474936","571"
"20:32:7:272 (H:m:s:ms)","GENERIC","62.057","0.031118601301131373","728"
"20:49:17:575 (H:m:s:ms)","GENERIC","62.069","0.04336362350866604","425"
"20:32:13:333 (H:m:s:ms)","GENERIC","62.083","0.03091454904346093","667"
"20:49:22:25 (H:m:s:ms)","OPERA","31.009","0.04195064905066816","976"
"20:32:19:393 (H:m:s:ms)","GENERIC","62.109","0.023883709691197613","643"
"20:49:23:636 (H:m:s:ms)","GENERIC","62.021","0.025502679179706885","364"
"20:32:25:454 (H:m:s:ms)","GENERIC","62.069","0.07079901129253144","546"
"20:49:29:620 (H:m:s:ms)","OPERA","31.009","0.07072426979165267","421"
"20:32:31:515 (H:m:s:ms)","GENERIC","62.077","0.01092919548958599","485"
"20:49:29:696 (H:m:s:ms)","GENERIC","62.061","0.07876103598555337","346"
"20:32:37:575 (H:m:s:ms)","GENERIC","62.083","0.053150729063673165","425"
"20:49:35:757 (H:m:s:ms)","GENERIC","62.053","0.07075270527132131","242"
"20:32:43:636 (H:m:s:ms)","GENERIC","62.069","0.023833916076791823","365"
"20:32:49:696 (H:m:s:ms)","GENERIC","62.045","0.03558117389744548","339"
"20:49:37:215 (H:m:s:ms)","OPERA","31.01","0.07436185088097357","786"
"20:49:41:818 (H:m:s:ms)","GENERIC","62.159","0.0300450103194211","182"
"20:32:55:757 (H:m:s:ms)","GENERIC","62.063","0.04770461142401647","243"
"20:49:44:810 (H:m:s:ms)","OPERA","31.01","0.03594169768097823","190"
"20:33:1:818 (H:m:s:ms)","GENERIC","62.105","0.018495561597760907","182"
"20:49:47:878 (H:m:s:ms)","GENERIC","62.025","0.03289833985727524","1122"
"20:33:7:878 (H:m:s:ms)","GENERIC","62.079","0.024105305632519745","1121"
"20:49:52:405 (H:m:s:ms)","OPERA","31.01","0.07169716014651338","596"
"20:33:13:939 (H:m:s:ms)","GENERIC","62.031","0.02443108408575319","1062"
"20:49:53:939 (H:m:s:ms)","GENERIC","62.043","0.08811415300809007","1061"
"20:33:20:0 (H:m:s:ms)","GENERIC","62.065","0.024660966430902938","1035"
"20:50:0:0 (H:m:s:ms)","OPERA","31.009","0.04716083714041451","1043"
"20:33:26:60 (H:m:s:ms)","GENERIC","62.117","0.06108082634459659","940"
"20:50:0:0 (H:m:s:ms)","GENERIC","62.047","0.08781628465872128","1043"
"20:33:32:121 (H:m:s:ms)","GENERIC","62.019","0.07905694150420946","879"
"20:50:0:0 (H:m:s:ms)","GENERIC","62.071","0.09558017519017731","1044"
"20:33:38:181 (H:m:s:ms)","GENERIC","62.047","0.01433090713181267","820"
"20:50:6:60 (H:m:s:ms)","GENERIC","62.089","0.03156726701725658","940"
"20:33:44:242 (H:m:s:ms)","GENERIC","62.031","0.035714285714285705","759"
"20:33:50:303 (H:m:s:ms)","GENERIC","62.029","0.07136508394594354","697"
"20:50:12:121 (H:m:s:ms)","GENERIC","62.061","0.023934422775948445","901"
"20:50:18:181 (H:m:s:ms)","GENERIC","62.107","0.014907119849998549","819"
"20:33:56:363 (H:m:s:ms)","GENERIC","62.089","0.020481726826291957","637"
"20:50:24:242 (H:m:s:ms)","GENERIC","31.022","0.0531838315272626","759"
"20:34:2:424 (H:m:s:ms)","GENERIC","62.049","0.011923766178037368","576"
"20:50:30:303 (H:m:s:ms)","GENERIC","62.097","0.04472135954999577","698"
"20:10:0:0 (H:m:s:ms)","GENERIC","31.018","0.07100226978096956","1001"
"20:34:8:484 (H:m:s:ms)","GENERIC","62.083","0.010189249688105553","516"
"20:50:36:363 (H:m:s:ms)","GENERIC","62.119","0.04656573146573319","637"
"20:10:0:0 (H:m:s:ms)","GENERIC","62.117","0.07973548601548344","1043"
"20:34:14:545 (H:m:s:ms)","GENERIC","62.039","0.023610969762337848","516"
"20:50:42:424 (H:m:s:ms)","GENERIC","62.029","0.026602939090027825","576"
"20:10:6:60 (H:m:s:ms)","GENERIC","62.075","0.013422586052118643","941"
"20:34:20:606 (H:m:s:ms)","GENERIC","62.107","0.036770107646382125","393"
"20:50:48:484 (H:m:s:ms)","GENERIC","62.043","0.07081390544093999","516"
"20:10:12:121 (H:m:s:ms)","GENERIC","62.075","0.03563048203434806","880"
"20:34:26:666 (H:m:s:ms)","GENERIC","62.091","0.035377879921712416","333"
"20:50:54:545 (H:m:s:ms)","GENERIC","62.179","0.01780705950536842","455"
"20:10:18:181 (H:m:s:ms)","GENERIC","62.085","0.03538733484782954","819"
"20:34:32:727 (H:m:s:ms)","GENERIC","62.139","0.035445416502284305","273"
"20:51:0:606 (H:m:s:ms)","GENERIC","62.111","0.06108082634459659","395"
"20:10:24:242 (H:m:s:ms)","GENERIC","62.031","0.03568254197297177","759"
"20:34:38:787 (H:m:s:ms)","GENERIC","62.169","0.01092919548958599","212"
"20:51:6:666 (H:m:s:ms)","GENERIC","62.073","0.03644344934278312","334"
"20:10:30:303 (H:m:s:ms)","GENERIC","62.143","0.019999999999999987","696"
"20:34:44:848 (H:m:s:ms)","GENERIC","62.059","0.030669032739246888","152"
"20:10:36:363 (H:m:s:ms)","GENERIC","62.115","0.03677010764638212","637"
"20:34:50:909 (H:m:s:ms)","GENERIC","62.105","0.0317104959840674","1091"
"20:10:42:424 (H:m:s:ms)","GENERIC","62.069","0.027284561826233997","576"
"20:10:48:484 (H:m:s:ms)","GENERIC","62.017","0.07094272836976585","516"
"20:51:12:727 (H:m:s:ms)","GENERIC","62.091","0.026602939090027845","272"
"20:51:18:787 (H:m:s:ms)","GENERIC","62.087","0.05548668479328271","213"
"20:34:56:969 (H:m:s:ms)","GENERIC","62.053","0.010271485783694904","1033"
"20:51:24:848 (H:m:s:ms)","GENERIC","62.065","0.06373774391990976","152"
"20:35:3:30 (H:m:s:ms)","GENERIC","62.051","0.03413621137715327","969"
"20:51:30:909 (H:m:s:ms)","GENERIC","62.095","0.014163943093313293","1091"
"20:10:54:545 (H:m:s:ms)","GENERIC","62.131","0.018810165178689598","455"
"20:35:9:90 (H:m:s:ms)","GENERIC","62.075","0.04145319465299115","947"
"20:51:36:969 (H:m:s:ms)","GENERIC","62.091","0.017885649267056027","1031"
"20:11:0:606 (H:m:s:ms)","GENERIC","62.057","0.06108082634459659","394"
"20:35:15:151 (H:m:s:ms)","GENERIC","62.057","0.026565158471729442","849"
"20:51:43:30 (H:m:s:ms)","GENERIC","62.071","0.011063996792219607","970"
"20:11:6:666 (H:m:s:ms)","GENERIC","62.077","0.0482106112650395","334"
"20:35:21:212 (H:m:s:ms)","GENERIC","62.091","0.04545626677752047","788"
"20:51:49:90 (H:m:s:ms)","GENERIC","62.095","0.027332587007087333","952"
"20:11:12:727 (H:m:s:ms)","GENERIC","62.101","0.026602939090027845","273"
"20:35:27:272 (H:m:s:ms)","GENERIC","62.073","0.021245914639969936","728"
"20:51:55:151 (H:m:s:ms)","GENERIC","62.049","0.0482106112650395","849"
"20:11:18:787 (H:m:s:ms)","GENERIC","62.123","0.05331121644472734","213"
"20:35:33:333 (H:m:s:ms)","GENERIC","62.077","0.03543127007631308","667"
"20:52:1:212 (H:m:s:ms)","GENERIC","62.103","0.0354454165022843","787"
"20:11:24:848 (H:m:s:ms)","GENERIC","62.045","0.03952847075210473","152"
"20:35:39:393 (H:m:s:ms)","GENERIC","62.059","0.02426703296426836","644"
"20:52:7:272 (H:m:s:ms)","GENERIC","62.031","0.021404748662530962","728"
"20:11:30:909 (H:m:s:ms)","GENERIC","62.047","0.023833916076791837","1092"
"20:35:45:454 (H:m:s:ms)","GENERIC","62.047","0.014563431025910028","547"
"20:11:36:969 (H:m:s:ms)","GENERIC","62.089","0.053189679561305055","1031"
"20:35:51:515 (H:m:s:ms)","GENERIC","62.067","0.0708085476161774","486"
"20:11:43:30 (H:m:s:ms)","GENERIC","62.079","0.030638840637832412","971"
"20:11:49:90 (H:m:s:ms)","GENERIC","62.071","0.026882266459508197","949"
"20:0:54:545 (H:m:s:ms)","GENERIC","31.058","0.027284561826234014","456"
"20:1:0:606 (H:m:s:ms)","GENERIC","31.021","0.036770107646382125","395"
"20:1:6:666 (H:m:s:ms)","GENERIC","31.039","0.02946278254943948","334"
"20:1:12:727 (H:m:s:ms)","GENERIC","31.058","0.01818970788415601","273"
"20:1:18:787 (H:m:s:ms)","GENERIC","31.056","0.036991123195521815","216"
"20:1:24:848 (H:m:s:ms)","GENERIC","31.021","0.04999999999999998","154"
"20:1:30:909 (H:m:s:ms)","GENERIC","31.025","0.023833916076791837","1091"
"20:1:36:969 (H:m:s:ms)","GENERIC","31.043","0.04249182927993987","1032"
"20:1:43:30 (H:m:s:ms)","GENERIC","31.048","0.011063996792219607","971"
"20:1:49:90 (H:m:s:ms)","GENERIC","31.043","0.018879759333741513","923"
"20:35:57:575 (H:m:s:ms)","GENERIC","62.161","0.018810165178689598","424"
"20:36:3:636 (H:m:s:ms)","GENERIC","62.033","0.0207457342007542","364"
"20:11:55:151 (H:m:s:ms)","GENERIC","62.065","0.07079080355865953","849"
"20:36:9:696 (H:m:s:ms)","GENERIC","62.103","0.0712609640686961","342"
"20:12:1:212 (H:m:s:ms)","GENERIC","62.075","0.024105305632519745","788"
"20:36:15:757 (H:m:s:ms)","GENERIC","62.115","0.03707632316738255","243"
"20:12:7:272 (H:m:s:ms)","GENERIC","62.073","0.030532241359769847","728"
"20:36:21:818 (H:m:s:ms)","GENERIC","62.043","0.030532241359769847","182"
"20:12:13:333 (H:m:s:ms)","GENERIC","62.091","0.023610969762337848","667"
"20:36:27:878 (H:m:s:ms)","GENERIC","62.027","0.08838834764831839","1122"
"20:12:19:393 (H:m:s:ms)","GENERIC","62.071","0.07081578943327435","645"
"20:36:33:939 (H:m:s:ms)","GENERIC","62.019","0.018810165178689598","1062"
"20:12:25:454 (H:m:s:ms)","GENERIC","62.089","0.07072049836425705","546"
"20:36:40:0 (H:m:s:ms)","GENERIC","62.051","0.023610969762337848","1036"
"20:12:31:515 (H:m:s:ms)","GENERIC","62.081","0.026602939090027845","485"
"20:36:46:60 (H:m:s:ms)","GENERIC","62.069","0.025643641938735737","940"
"20:12:37:575 (H:m:s:ms)","GENERIC","62.105","0.05329751401331953","425"
"20:36:52:121 (H:m:s:ms)","GENERIC","62.077","0.028964242362612188","878"
"20:12:43:636 (H:m:s:ms)","GENERIC","62.039","0.047437824804919364","364"
"20:12:49:696 (H:m:s:ms)","GENERIC","62.043","0.017807059505368417","343"
"20:1:55:151 (H:m:s:ms)","GENERIC","31.041","0.07079080355865953","850"
"20:2:1:212 (H:m:s:ms)","GENERIC","31.043","0.0354454165022843","788"
"20:2:7:272 (H:m:s:ms)","GENERIC","31.031","0.02034007917540334","728"
"20:2:13:333 (H:m:s:ms)","GENERIC","31.039","0.042629813957631574","667"
"20:2:19:393 (H:m:s:ms)","GENERIC","31.037","0.047297973056781975","622"
"20:2:25:454 (H:m:s:ms)","GENERIC","31.043","0.07079901129253144","546"
"20:2:31:515 (H:m:s:ms)","GENERIC","31.045","0.01092919548958599","484"
"20:2:37:575 (H:m:s:ms)","GENERIC","31.054","0.05329751401331953","426"
"20:2:43:636 (H:m:s:ms)","GENERIC","31.024","0.07073277175397553","366"
"20:2:49:696 (H:m:s:ms)","GENERIC","31.021","0.03558117389744548","322"
"20:36:58:181 (H:m:s:ms)","GENERIC","62.085","0.05413726253945863","819"
"20:37:4:242 (H:m:s:ms)","GENERIC","62.039","0.018189707884156008","759"
"20:12:55:757 (H:m:s:ms)","GENERIC","62.097","0.035771298534112046","243"
"20:37:10:303 (H:m:s:ms)","GENERIC","62.073","0.018189707884156005","697"
"20:13:1:818 (H:m:s:ms)","GENERIC","62.103","0.036991123195521815","183"
"20:37:16:363 (H:m:s:ms)","GENERIC","62.073","0.07090927301841417","637"
"20:13:7:878 (H:m:s:ms)","GENERIC","62.115","0.012821820969367867","1122"
"20:37:22:424 (H:m:s:ms)","GENERIC","62.101","0.023705128275880807","576"
"20:13:13:939 (H:m:s:ms)","GENERIC","62.035","0.04724989736215964","1062"
"20:37:28:484 (H:m:s:ms)","GENERIC","62.075","0.07093659140387278","516"
"20:13:20:0 (H:m:s:ms)","GENERIC","62.035","0.03577129853411206","1041"
"20:37:34:545 (H:m:s:ms)","GENERIC","62.135","0.04247734995872001","455"
"20:13:26:60 (H:m:s:ms)","GENERIC","62.091","0.03564226716542754","940"
"20:37:40:606 (H:m:s:ms)","GENERIC","62.105","0.02036027544819889","394"
"20:13:32:121 (H:m:s:ms)","GENERIC","62.043","0.06373774391990976","879"
"20:37:46:666 (H:m:s:ms)","GENERIC","62.105","0.04656573146573319","334"
"20:13:38:181 (H:m:s:ms)","GENERIC","62.049","0.014563431025910028","819"
"20:37:52:727 (H:m:s:ms)","GENERIC","62.079","0.07095577652469331","273"
"20:13:44:242 (H:m:s:ms)","GENERIC","62.035","0.035714285714285705","759"
"20:13:50:303 (H:m:s:ms)","GENERIC","62.057","0.03051712087786925","697"
"20:2:55:757 (H:m:s:ms)","GENERIC","31.047","0.012979779955972189","243"
"20:3:1:818 (H:m:s:ms)","GENERIC","31.048","0.05331121644472734","183"
"20:3:7:878 (H:m:s:ms)","GENERIC","31.067","0.023705128275880807","122"
"20:3:13:939 (H:m:s:ms)","GENERIC","31.019","0.07453559924999298","1062"
"20:3:20:0 (H:m:s:ms)","GENERIC","31.013","0.03577129853411206","1001"
"20:3:26:60 (H:m:s:ms)","GENERIC","31.042","0.040720550896397735","941"
"20:3:32:121 (H:m:s:ms)","GENERIC","31.03","0.012287490066540367","880"
"20:3:38:181 (H:m:s:ms)","GENERIC","31.026","0.02837912787984575","820"
"20:3:44:242 (H:m:s:ms)","GENERIC","31.027","0.03539540177932977","760"
"20:3:50:303 (H:m:s:ms)","GENERIC","31.027","0.02546626714238124","698"
"20:37:58:787 (H:m:s:ms)","GENERIC","62.069","0.018810165178689598","214"
"20:38:4:848 (H:m:s:ms)","GENERIC","62.059","0.026882266459508197","153"
"20:13:56:363 (H:m:s:ms)","GENERIC","62.075","0.020481726826291957","637"
"20:38:10:909 (H:m:s:ms)","GENERIC","62.113","0.036991123195521815","1090"
"20:14:2:424 (H:m:s:ms)","GENERIC","62.045","0.035401798132010436","576"
"20:38:16:969 (H:m:s:ms)","GENERIC","62.123","0.07079901129253148","1030"
"20:14:8:484 (H:m:s:ms)","GENERIC","62.105","0.020378499376211105","516"
"20:38:23:30 (H:m:s:ms)","GENERIC","62.111","0.03577129853411206","969"
"20:14:14:545 (H:m:s:ms)","GENERIC","62.037","0.04249182927993987","455"
"20:38:29:90 (H:m:s:ms)","GENERIC","62.109","0.05304803849111767","945"
"20:14:20:606 (H:m:s:ms)","GENERIC","62.115","0.046565731465733194","393"
"20:38:35:151 (H:m:s:ms)","GENERIC","62.107","0.020128613420650726","849"
"20:14:26:666 (H:m:s:ms)","GENERIC","62.111","0.01807897922438981","333"
"20:38:41:212 (H:m:s:ms)","GENERIC","62.049","0.0531838315272626","787"
"20:14:32:727 (H:m:s:ms)","GENERIC","62.099","0.01807897922438981","272"
"20:38:47:272 (H:m:s:ms)","GENERIC","62.063","0.03034353795949111","728"
"20:14:38:787 (H:m:s:ms)","GENERIC","62.183","0.01818970788415601","213"
"20:38:53:333 (H:m:s:ms)","GENERIC","62.085","0.01818970788415601","666"
"20:14:44:848 (H:m:s:ms)","GENERIC","62.057","0.020340079175403324","152"
"20:14:50:909 (H:m:s:ms)","GENERIC","62.123","0.07084042259127853","1091"
"20:3:56:363 (H:m:s:ms)","GENERIC","31.038","0.03032535424530603","637"
"20:4:2:424 (H:m:s:ms)","GENERIC","31.031","0.011923766178037368","576"
"20:4:8:484 (H:m:s:ms)","GENERIC","31.059","0.030567749064316658","515"
"20:4:14:545 (H:m:s:ms)","GENERIC","31.022","0.028327886186626586","456"
"20:4:20:606 (H:m:s:ms)","GENERIC","31.054","0.04072055089639774","393"
"20:4:26:666 (H:m:s:ms)","GENERIC","31.055","0.035445416502284305","334"
"20:4:32:727 (H:m:s:ms)","GENERIC","31.058","0.05304803849111767","272"
"20:4:38:787 (H:m:s:ms)","GENERIC","31.083","0.026602939090027845","213"
"20:4:44:848 (H:m:s:ms)","GENERIC","31.037","0.031118601301131373","153"
"20:4:50:909 (H:m:s:ms)","GENERIC","31.059","0.07100226978096956","1091"
"20:38:59:393 (H:m:s:ms)","GENERIC","62.065","0.018133574678265856","642"
"20:39:5:454 (H:m:s:ms)","GENERIC","62.083","0.03621779114001471","546"
"20:14:56:969 (H:m:s:ms)","GENERIC","62.049","0.010765278994944606","1030"
"20:39:11:515 (H:m:s:ms)","GENERIC","62.063","0.030341898664572528","486"
"20:15:3:30 (H:m:s:ms)","GENERIC","62.035","0.021676984577377212","970"
"20:39:17:575 (H:m:s:ms)","GENERIC","62.047","0.07126096406869609","425"
"20:15:9:90 (H:m:s:ms)","GENERIC","62.063","0.05213796454541329","949"
"20:39:23:636 (H:m:s:ms)","GENERIC","62.017","0.04247734995872001","364"
"20:15:15:151 (H:m:s:ms)","GENERIC","62.043","0.026565158471729442","850"
"20:39:29:696 (H:m:s:ms)","GENERIC","62.059","0.030872148761642716","341"
"20:15:21:212 (H:m:s:ms)","GENERIC","62.107","0.05331121644472734","788"
"20:39:35:757 (H:m:s:ms)","GENERIC","62.047","0.024189695210401582","243"
"20:15:27:272 (H:m:s:ms)","GENERIC","62.107","0.014563431025910028","728"
"20:39:41:818 (H:m:s:ms)","GENERIC","62.159","0.01780705950536842","182"
"20:15:33:333 (H:m:s:ms)","GENERIC","62.093","0.012287490066540367","667"
"20:39:47:878 (H:m:s:ms)","GENERIC","62.023","0.03265382350275556","1122"
"20:15:39:393 (H:m:s:ms)","GENERIC","62.069","0.0317104959840674","647"
"20:39:53:939 (H:m:s:ms)","GENERIC","62.043","0.053251702335727145","1061"
"20:15:45:454 (H:m:s:ms)","GENERIC","62.065","0.04248970344943157","546"
"20:15:51:515 (H:m:s:ms)","GENERIC","62.029","0.0708085476161774","485"
"20:4:56:969 (H:m:s:ms)","GENERIC","31.036","0.020288564985829757","1031"
"20:5:3:30 (H:m:s:ms)","GENERIC","31.02","0.025643641938735737","971"
"20:5:9:90 (H:m:s:ms)","GENERIC","31.032","0.04145319465299115","934"
"20:5:15:151 (H:m:s:ms)","GENERIC","31.017","0.010068207469698495","849"
"20:5:21:212 (H:m:s:ms)","GENERIC","31.055","0.0288025311182293","789"
"20:5:27:272 (H:m:s:ms)","GENERIC","31.045","0.039528470752104736","729"
"20:5:33:333 (H:m:s:ms)","GENERIC","31.049","0.03543127007631308","667"
"20:5:39:393 (H:m:s:ms)","GENERIC","31.046","0.036055512754639876","632"
"20:5:45:454 (H:m:s:ms)","GENERIC","31.036","0.042568691819768634","546"
"20:5:51:515 (H:m:s:ms)","GENERIC","31.023","0.035377096193115395","485"
"20:15:57:575 (H:m:s:ms)","GENERIC","62.185","0.009822956424159044","424"
"20:16:3:636 (H:m:s:ms)","GENERIC","62.023","0.012330483215451446","364"
"20:16:9:696 (H:m:s:ms)","GENERIC","62.087","0.02429563289518878","342"
"20:16:15:757 (H:m:s:ms)","GENERIC","62.097","0.020908221818514084","243"
"20:16:21:818 (H:m:s:ms)","GENERIC","62.037","0.010765278994944607","183"
"20:16:27:878 (H:m:s:ms)","GENERIC","62.027","0.012287490066540367","1122"
"20:16:33:939 (H:m:s:ms)","GENERIC","62.055","0.027284561826233997","1061"
"20:16:40:0 (H:m:s:ms)","GENERIC","62.045","0.02373278124884355","1039"
"20:16:46:60 (H:m:s:ms)","GENERIC","62.045","0.02263846284534353","941"
"20:16:52:121 (H:m:s:ms)","GENERIC","62.127","0.014741134218990199","879"
"20:5:57:575 (H:m:s:ms)","GENERIC","31.084","0.01818970788415601","425"
"20:6:3:636 (H:m:s:ms)","GENERIC","31.008","0.031118601301131373","364"
"20:6:9:696 (H:m:s:ms)","GENERIC","31.049","0.04796193513842229","331"
"20:6:15:757 (H:m:s:ms)","GENERIC","31.045","0.017807059505368417","243"
"20:6:21:818 (H:m:s:ms)","GENERIC","31.013","0.02096012166494193","183"
"20:6:27:878 (H:m:s:ms)","GENERIC","31.022","0.0236398575828023","122"
"20:6:33:939 (H:m:s:ms)","GENERIC","31.033","0.026602939090027825","1062"
"20:6:40:0 (H:m:s:ms)","GENERIC","31.022","0.047221939524675696","1001"
"20:6:46:60 (H:m:s:ms)","GENERIC","31.017","0.012797234521108793","940"
"20:6:52:121 (H:m:s:ms)","GENERIC","31.064","0.028964242362612188","879"
"20:16:58:181 (H:m:s:ms)","GENERIC","62.115","0.05331121644472734","819"
"20:17:4:242 (H:m:s:ms)","GENERIC","62.043","0.035377096193115395","758"
"20:17:10:303 (H:m:s:ms)","GENERIC","62.089","0.017807059505368417","698"
"20:17:16:363 (H:m:s:ms)","GENERIC","62.105","0.07073277175397553","636"
"20:17:22:424 (H:m:s:ms)","GENERIC","62.089","0.0354454165022843","577"
"20:17:28:484 (H:m:s:ms)","GENERIC","62.071","0.07093659140387278","517"
"20:17:34:545 (H:m:s:ms)","GENERIC","62.111","0.014294238682615137","455"
"20:17:40:606 (H:m:s:ms)","GENERIC","62.119","0.02338914607665297","394"
"20:17:46:666 (H:m:s:ms)","GENERIC","62.063","0.02684517210423728","334"
"20:17:52:727 (H:m:s:ms)","GENERIC","62.055","0.04796193513842229","273"
"20:6:58:181 (H:m:s:ms)","GENERIC","31.061","0.05548668479328271","819"
"20:7:4:242 (H:m:s:ms)","GENERIC","31.027","0.07072155919560129","758"
"20:7:10:303 (H:m:s:ms)","GENERIC","31.053","0.017807059505368417","697"
"20:7:16:363 (H:m:s:ms)","GENERIC","31.063","0.07079901129253148","637"
"20:7:22:424 (H:m:s:ms)","GENERIC","31.039","0.023705128275880807","577"
"20:7:28:484 (H:m:s:ms)","GENERIC","31.03","0.07076722405181651","516"
"20:7:34:545 (H:m:s:ms)","GENERIC","31.055","0.028360628686888642","456"
"20:7:40:606 (H:m:s:ms)","GENERIC","31.056","0.03508371911497946","393"
"20:7:46:666 (H:m:s:ms)","GENERIC","31.025","0.03677010764638212","334"
"20:7:52:727 (H:m:s:ms)","GENERIC","31.038","0.0355205089444278","275"
"20:17:58:787 (H:m:s:ms)","GENERIC","62.073","0.07453559924999298","213"
"20:18:4:848 (H:m:s:ms)","GENERIC","62.049","0.09999999999999998","153"
"20:18:10:909 (H:m:s:ms)","GENERIC","62.143","0.03893933986791651","1090"
"20:18:16:969 (H:m:s:ms)","GENERIC","62.095","0.07256908563120464","1032"
"20:18:23:30 (H:m:s:ms)","GENERIC","62.093","0.05413726253945863","970"
"20:18:29:90 (H:m:s:ms)","GENERIC","62.107","0.04262981395763162","949"
"20:18:35:151 (H:m:s:ms)","GENERIC","62.141","0.024189695210401582","849"
"20:18:41:212 (H:m:s:ms)","GENERIC","62.061","0.011104384583093851","788"
"20:18:47:272 (H:m:s:ms)","GENERIC","31.015","0.03868996743662254","728"
"20:18:53:333 (H:m:s:ms)","GENERIC","62.109","0.027284561826234014","666"
"20:7:58:787 (H:m:s:ms)","GENERIC","31.038","0.05342117851610521","213"
"20:8:4:848 (H:m:s:ms)","GENERIC","31.029","0.07905694150420946","153"
"20:8:10:909 (H:m:s:ms)","GENERIC","31.079","0.03893933986791651","1091"
"20:8:16:969 (H:m:s:ms)","GENERIC","31.047","0.07073277175397553","1031"
"20:8:23:30 (H:m:s:ms)","GENERIC","31.039","0.05331121644472734","970"
"20:8:29:90 (H:m:s:ms)","GENERIC","31.046","0.05316812475342645","946"
"20:8:35:151 (H:m:s:ms)","GENERIC","31.075","0.020128613420650726","849"
"20:8:41:212 (H:m:s:ms)","GENERIC","31.025","0.04999999999999999","788"
"20:8:47:272 (H:m:s:ms)","GENERIC","31.039","0.04811649850969825","765"
"20:8:53:333 (H:m:s:ms)","GENERIC","31.059","0.026602939090027845","667"
"20:18:59:393 (H:m:s:ms)","GENERIC","62.069","0.05337822303034774","645"
"20:19:5:454 (H:m:s:ms)","GENERIC","62.061","0.07136508394594354","546"
"20:19:11:515 (H:m:s:ms)","GENERIC","62.067","0.07074995092263706","486"
"20:19:17:575 (H:m:s:ms)","GENERIC","62.039","0.03644344934278311","425"
"20:19:23:636 (H:m:s:ms)","GENERIC","62.021","0.014741134218990199","364"
"20:19:29:696 (H:m:s:ms)","GENERIC","62.057","0.0708329092870135","342"
"20:19:35:757 (H:m:s:ms)","GENERIC","62.073","0.035771298534112046","242"
"20:19:41:818 (H:m:s:ms)","GENERIC","62.123","0.02686057469435319","182"
"20:19:47:878 (H:m:s:ms)","GENERIC","62.021","0.023802140317218445","1122"
"20:19:53:939 (H:m:s:ms)","GENERIC","62.037","0.01775056744524239","1062"
"20:8:59:393 (H:m:s:ms)","GENERIC","31.035","0.017792741010115923","643"
"20:9:5:454 (H:m:s:ms)","GENERIC","31.037","0.07100226978096956","545"
"20:9:11:515 (H:m:s:ms)","GENERIC","31.033","0.030453591208073092","485"
"20:9:17:575 (H:m:s:ms)","GENERIC","31.032","0.07551903733496602","424"
"20:9:23:636 (H:m:s:ms)","GENERIC","31.01","0.015457274521730485","364"
"20:9:29:696 (H:m:s:ms)","GENERIC","31.032","0.030872148761642716","342"
"20:9:35:757 (H:m:s:ms)","GENERIC","31.042","0.024189695210401582","243"
"20:9:41:818 (H:m:s:ms)","GENERIC","31.055","0.01092919548958599","182"
"20:9:47:878 (H:m:s:ms)","GENERIC","31.022","0.03551036930426097","123"
"20:9:53:939 (H:m:s:ms)","GENERIC","31.023","0.023610969762337848","1063"
"21:40:54:545 (H:m:s:ms)","GENERIC","62.091","0.01818970788415601","455"
"21:40:48:484 (H:m:s:ms)","GENERIC","62.049","0.0474878187619584","516"
"21:40:42:424 (H:m:s:ms)","GENERIC","62.039","0.0103728671003771","577"
"21:40:36:363 (H:m:s:ms)","GENERIC","62.111","0.03677010764638212","636"
"21:40:30:303 (H:m:s:ms)","GENERIC","62.087","0.04472135954999577","697"
"21:40:24:242 (H:m:s:ms)","GENERIC","62.053","0.05304978786837912","758"
"21:40:18:181 (H:m:s:ms)","GENERIC","62.067","0.012163172259675547","819"
"21:41:12:727 (H:m:s:ms)","GENERIC","62.071","0.05331121644472733","273"
"21:41:6:666 (H:m:s:ms)","GENERIC","62.089","0.021245914639969932","334"
"21:41:0:606 (H:m:s:ms)","GENERIC","62.059","0.020360275448198868","394"
