"time (H:m:s:ms)","type","latency","utilisation","waiting"
"21:42:31:515 (H:m:s:ms)","GENERIC","93.514","0.04593165849336315","1054"
"21:42:13:333 (H:m:s:ms)","GENERIC","93.685","0.021222580924818633","1205"
"21:42:7:272 (H:m:s:ms)","GENERIC","93.472","0.04535828632404035","1225"
"21:42:1:212 (H:m:s:ms)","GENERIC","124.601","0.04621675901112835","1305"
"21:41:55:151 (H:m:s:ms)","GENERIC","93.824","0.033916977213836214","1199"
"21:41:49:90 (H:m:s:ms)","GENERIC","124.28","0.01535160398597194","1623"
"21:41:43:30 (H:m:s:ms)","GENERIC","62.438","0.04314860955132188","1280"
"21:41:36:969 (H:m:s:ms)","GENERIC","93.781","0.03441622705111972","1354"
"21:41:30:909 (H:m:s:ms)","GENERIC","93.723","0.04233213458807374","1640"
"21:42:25:454 (H:m:s:ms)","GENERIC","93.855","0.04730461985713261","637"
"21:42:19:393 (H:m:s:ms)","GENERIC","93.397","0.06127863343284505","1072"
"21:43:38:181 (H:m:s:ms)","GENERIC","93.827","0.036176980471203275","1422"
"21:43:32:121 (H:m:s:ms)","GENERIC","93.286","0.041368139353359624","1290"
"21:43:20:0 (H:m:s:ms)","GENERIC","93.45400000000001","0.025638555160606244","1699"
"20:0:0:0 (H:m:s:ms)","GENERIC","62.563","0.04658979437275555","2905"
"21:43:13:939 (H:m:s:ms)","GENERIC","62.121","0.05228129047119369","1554"
"20:0:6:60 (H:m:s:ms)","GENERIC","93.274","0.04608015159796088","1657"
"21:43:7:878 (H:m:s:ms)","GENERIC","93.269","0.04858138909002214","1597"
"20:0:12:121 (H:m:s:ms)","GENERIC","93.11500000000001","0.051656494901436326","1208"
"21:43:1:818 (H:m:s:ms)","GENERIC","125.53399999999999","0.016662860582548452","882"
"20:0:18:181 (H:m:s:ms)","GENERIC","94.242","0.041494820673678094","1319"
"21:42:55:757 (H:m:s:ms)","GENERIC","93.686","0.029592627559910493","866"
"20:0:24:242 (H:m:s:ms)","GENERIC","62.269","0.053489285659149885","1447"
"21:42:49:696 (H:m:s:ms)","GENERIC","62.053","0.020052991023276137","924"
"20:0:30:303 (H:m:s:ms)","GENERIC","93.481","0.060588660047253697","1332"
"21:42:43:636 (H:m:s:ms)","GENERIC","93.66","0.04155774326485236","941"
"20:0:36:363 (H:m:s:ms)","GENERIC","93.42699999999999","0.029122973394877825","1060"
"21:42:37:575 (H:m:s:ms)","GENERIC","93.758","0.04303624341200676","1049"
"20:0:42:424 (H:m:s:ms)","GENERIC","93.253","0.025939348206215823","1226"
"21:10:6:60 (H:m:s:ms)","GENERIC","124.261","0.029546786227043414","1690"
"20:0:48:484 (H:m:s:ms)","GENERIC","62.493","0.04446467531244104","1019"
"21:10:12:121 (H:m:s:ms)","GENERIC","93.106","0.043055719137481935","1216"
"21:10:18:181 (H:m:s:ms)","GENERIC","125.257","0.053139390175501004","1275"
"21:10:24:242 (H:m:s:ms)","GENERIC","93.348","0.0476586556600416","1481"
"21:10:30:303 (H:m:s:ms)","GENERIC","93.297","0.05309857395107923","1374"
"21:10:36:363 (H:m:s:ms)","GENERIC","93.304","0.041207945553543915","1086"
"21:10:42:424 (H:m:s:ms)","GENERIC","93.151","0.033797480530262596","1262"
"21:10:48:484 (H:m:s:ms)","GENERIC","93.509","0.0335477515516455","1154"
"21:43:26:60 (H:m:s:ms)","GENERIC","124.436","0.04490817616833805","1554"
"21:10:54:545 (H:m:s:ms)","GENERIC","62.067","0.04106829455563409","731"
"21:11:0:606 (H:m:s:ms)","GENERIC","93.231","0.04599768681003594","1087"
"21:25:45:454 (H:m:s:ms)","GENERIC","125.15899999999999","0.06653118620205115","996"
"21:44:44:848 (H:m:s:ms)","GENERIC","124.887","0.04672668050695561","776"
"21:44:38:787 (H:m:s:ms)","GENERIC","93.382","0.03939591069657175","614"
"21:44:32:727 (H:m:s:ms)","GENERIC","62.079","0.041106382927914936","902"
"21:44:26:666 (H:m:s:ms)","GENERIC","62.077","0.041076061134849504","782"
"21:44:20:606 (H:m:s:ms)","GENERIC","93.47200000000001","0.03342027952392391","821"
"21:44:14:545 (H:m:s:ms)","GENERIC","93.25","0.04998910294081413","1089"
"21:44:8:484 (H:m:s:ms)","GENERIC","62.419","0.04482288610515939","1242"
"21:44:2:424 (H:m:s:ms)","GENERIC","93.812","0.04812667711152488","1061"
"21:43:56:363 (H:m:s:ms)","GENERIC","93.229","0.04501931441521522","1199"
"21:43:50:303 (H:m:s:ms)","GENERIC","93.887","0.04447892459586049","870"
"21:11:6:666 (H:m:s:ms)","GENERIC","124.674","0.04274280480724371","850"
"21:43:44:242 (H:m:s:ms)","GENERIC","93.559","0.0445961164461443","1195"
"21:11:12:727 (H:m:s:ms)","GENERIC","93.792","0.03316795332598469","765"
"21:11:18:787 (H:m:s:ms)","GENERIC","93.285","0.023945647987272545","996"
"21:11:24:848 (H:m:s:ms)","GENERIC","124.435","0.018247956766741378","923"
"21:11:30:909 (H:m:s:ms)","GENERIC","93.739","0.04688454300815736","1684"
"21:11:36:969 (H:m:s:ms)","GENERIC","93.848","0.052293610210689526","1378"
"21:11:43:30 (H:m:s:ms)","GENERIC","124.94","0.031732475830666726","1608"
"21:11:49:90 (H:m:s:ms)","GENERIC","93.202","0.01770249912813288","1692"
"21:11:55:151 (H:m:s:ms)","GENERIC","62.111","0.04198412398355675","1227"
"21:12:1:212 (H:m:s:ms)","GENERIC","93.383","0.029848271920144876","1380"
"21:26:21:818 (H:m:s:ms)","GENERIC","93.57","0.0630612977403225","832"
"21:45:51:515 (H:m:s:ms)","GENERIC","93.14","0.059650772211856704","852"
"21:26:19:746 (H:m:s:ms)","OPERA","93.72","0.054732176758199295","860"
"21:45:45:454 (H:m:s:ms)","GENERIC","93.593","0.036862141879953327","930"
"21:45:39:393 (H:m:s:ms)","GENERIC","124.38499999999999","0.03936545089212095","1348"
"21:45:33:333 (H:m:s:ms)","GENERIC","93.39","0.029511530420284277","1468"
"21:26:12:151 (H:m:s:ms)","OPERA","93.372","0.05132534117719779","1447"
"21:26:9:696 (H:m:s:ms)","GENERIC","124.215","0.03967655595630068","675"
"21:45:27:272 (H:m:s:ms)","GENERIC","124.587","0.050756120342968516","1373"
"21:26:4:556 (H:m:s:ms)","OPERA","93.336","0.04811747681136327","1148"
"21:45:21:212 (H:m:s:ms)","GENERIC","93.74799999999999","0.04864255844085594","1166"
"21:26:3:636 (H:m:s:ms)","GENERIC","93.58","0.043704747224589294","645"
"21:45:15:151 (H:m:s:ms)","GENERIC","93.2","0.03978721340996431","1412"
"21:25:57:575 (H:m:s:ms)","GENERIC","93.294","0.057861206512562116","1768"
"21:45:9:90 (H:m:s:ms)","GENERIC","93.47800000000001","0.028360110190227335","1513"
"21:25:56:962 (H:m:s:ms)","OPERA","93.36500000000001","0.027526932163349258","1765"
"21:45:3:30 (H:m:s:ms)","GENERIC","125.637","0.058477555123011116","1328"
"21:12:7:272 (H:m:s:ms)","GENERIC","93.41300000000001","0.032692226591069504","1348"
"21:25:51:515 (H:m:s:ms)","GENERIC","124.199","0.052982063836048976","987"
"21:44:56:969 (H:m:s:ms)","GENERIC","93.194","0.04192578432835762","1482"
"21:12:13:333 (H:m:s:ms)","GENERIC","93.678","0.020712448987225542","1224"
"21:25:49:367 (H:m:s:ms)","OPERA","93.363","0.04826595805887962","1377"
"21:44:50:909 (H:m:s:ms)","GENERIC","93.79899999999999","0.03866699737507665","1468"
"21:12:19:393 (H:m:s:ms)","GENERIC","93.47399999999999","0.0496189757706701","1044"
"21:12:25:454 (H:m:s:ms)","GENERIC","93.82300000000001","0.034598281725212586","645"
"21:12:31:515 (H:m:s:ms)","GENERIC","125.03","0.027006070745824624","1142"
"21:12:37:575 (H:m:s:ms)","GENERIC","125.368","0.04316644381545309","1065"
"21:12:43:636 (H:m:s:ms)","GENERIC","93.656","0.031985145409237525","965"
"21:12:49:696 (H:m:s:ms)","GENERIC","62.075","0.041117717186958024","962"
"21:12:55:757 (H:m:s:ms)","GENERIC","125.224","0.06178418441261996","855"
"21:13:1:818 (H:m:s:ms)","GENERIC","125.547","0.03331028955172412","897"
"21:26:15:757 (H:m:s:ms)","GENERIC","124.672","0.05565810906922232","935"
"21:26:58:181 (H:m:s:ms)","GENERIC","124.545","0.053834182169518394","1490"
"21:46:58:181 (H:m:s:ms)","GENERIC","93.34700000000001","0.033378158205534456","1544"
"21:26:57:721 (H:m:s:ms)","OPERA","62.363","0.04157164192597754","986"
"21:46:52:121 (H:m:s:ms)","GENERIC","124.38300000000001","0.026394096529140525","1370"
"21:26:52:121 (H:m:s:ms)","GENERIC","124.456","0.043441259436851204","1377"
"21:46:46:60 (H:m:s:ms)","GENERIC","125.137","0.018986107791668184","1714"
"21:46:40:0 (H:m:s:ms)","GENERIC","93.886","0.0235873179410668","1285"
"21:46:33:939 (H:m:s:ms)","GENERIC","124.875","0.02838443647536002","1847"
"21:26:50:126 (H:m:s:ms)","OPERA","62.358000000000004","0.049002689912799","1477"
"21:26:46:60 (H:m:s:ms)","GENERIC","93.551","0.04638729192674448","1689"
"21:26:42:531 (H:m:s:ms)","OPERA","93.747","0.0444745839727325","1097"
"21:46:27:878 (H:m:s:ms)","GENERIC","124.539","0.05595679665474339","1737"
"21:26:40:0 (H:m:s:ms)","GENERIC","62.125","0.051319018670882684","1298"
"21:46:21:818 (H:m:s:ms)","GENERIC","93.593","0.05751894870636045","784"
"21:26:34:936 (H:m:s:ms)","OPERA","62.33","0.04783434085864027","2451"
"21:46:15:757 (H:m:s:ms)","GENERIC","93.519","0.04065105238237072","996"
"21:13:7:878 (H:m:s:ms)","GENERIC","93.22800000000001","0.02894397974014744","1640"
"21:26:33:939 (H:m:s:ms)","GENERIC","93.499","0.030178118333563687","1880"
"21:46:9:696 (H:m:s:ms)","GENERIC","93.14","0.03797106718146245","629"
"21:13:13:939 (H:m:s:ms)","GENERIC","93.764","0.020954688366880643","1603"
"21:26:27:878 (H:m:s:ms)","GENERIC","124.566","0.04345859432109756","2340"
"21:46:3:636 (H:m:s:ms)","GENERIC","93.556","0.04270334775363462","698"
"21:13:20:0 (H:m:s:ms)","GENERIC","93.438","0.06010205265790802","1726"
"21:26:27:341 (H:m:s:ms)","OPERA","62.359","0.029017480678792246","1227"
"21:45:57:575 (H:m:s:ms)","GENERIC","124.483","0.03071377477328897","1030"
"21:13:26:60 (H:m:s:ms)","GENERIC","124.433","0.06396319576511232","1559"
"21:13:32:121 (H:m:s:ms)","GENERIC","93.289","0.030920207296295073","1330"
"21:13:38:181 (H:m:s:ms)","GENERIC","93.795","0.03753206545602037","1411"
"21:13:44:242 (H:m:s:ms)","GENERIC","125.086","0.04343330539384397","1221"
"21:13:50:303 (H:m:s:ms)","GENERIC","93.897","0.04991350980941025","873"
"21:13:56:363 (H:m:s:ms)","GENERIC","93.27000000000001","0.03850756740573442","1236"
"21:14:2:424 (H:m:s:ms)","GENERIC","93.873","0.01752134224810406","1133"
"21:27:35:696 (H:m:s:ms)","OPERA","124.753","0.05676322274841505","972"
"21:48:4:848 (H:m:s:ms)","GENERIC","124.414","0.023102545766700622","863"
"21:27:34:545 (H:m:s:ms)","GENERIC","124.245","0.03375101198125862","1185"
"21:47:58:787 (H:m:s:ms)","GENERIC","93.251","0.028251261255323217","945"
"21:27:28:484 (H:m:s:ms)","GENERIC","125.131","0.05130752734879541","1592"
"21:47:52:727 (H:m:s:ms)","GENERIC","124.249","0.02021478054171805","735"
"21:27:28:101 (H:m:s:ms)","OPERA","62.303","0.019249553979413504","1614"
"21:47:46:666 (H:m:s:ms)","GENERIC","124.696","0.03676359995961801","981"
"21:47:40:606 (H:m:s:ms)","GENERIC","62.119","0.04760952285695234","701"
"21:47:34:545 (H:m:s:ms)","GENERIC","93.136","0.03446294281070176","1250"
"21:27:22:424 (H:m:s:ms)","GENERIC","93.23","0.03557196120682986","1176"
"21:27:20:506 (H:m:s:ms)","OPERA","93.307","0.041363648524768565","1194"
"21:27:16:363 (H:m:s:ms)","GENERIC","124.351","0.03579573583353713","1201"
"21:47:28:484 (H:m:s:ms)","GENERIC","93.593","0.05769549082423365","997"
"21:14:8:484 (H:m:s:ms)","GENERIC","93.332","0.04229333647186024","1052"
"21:27:12:911 (H:m:s:ms)","OPERA","62.335","0.04621973499219515","790"
"21:47:22:424 (H:m:s:ms)","GENERIC","93.291","0.03922279001553191","1185"
"21:14:14:545 (H:m:s:ms)","GENERIC","93.238","0.04238236440299492","1137"
"21:27:10:303 (H:m:s:ms)","GENERIC","93.555","0.059784917424736975","1415"
"21:47:16:363 (H:m:s:ms)","GENERIC","93.22","0.031705655191969245","1294"
"20:52:7:272 (H:m:s:ms)","GENERIC","124.816","0.04339780157898807","1334"
"21:14:20:606 (H:m:s:ms)","GENERIC","93.564","0.04219927242946011","802"
"21:27:5:316 (H:m:s:ms)","OPERA","93.692","0.04848940701913728","1348"
"21:47:10:303 (H:m:s:ms)","GENERIC","93.509","0.02921878122664234","1442"
"20:52:13:333 (H:m:s:ms)","GENERIC","125.25200000000001","0.03292179359596443","1180"
"21:14:26:666 (H:m:s:ms)","GENERIC","93.244","0.04025964363138652","793"
"21:27:4:242 (H:m:s:ms)","GENERIC","62.127","0.023656435853521812","815"
"21:47:4:242 (H:m:s:ms)","GENERIC","62.111","0.029829312224887886","818"
"20:52:19:393 (H:m:s:ms)","GENERIC","93.455","0.03976766960913678","1073"
"21:14:32:727 (H:m:s:ms)","GENERIC","125.517","0.018838684141519603","917"
"20:52:25:454 (H:m:s:ms)","GENERIC","93.799","0.03985371055236167","637"
"21:14:38:787 (H:m:s:ms)","GENERIC","93.363","0.04367582284716221","602"
"20:52:31:515 (H:m:s:ms)","GENERIC","93.60300000000001","0.05071997175642363","945"
"21:14:44:848 (H:m:s:ms)","GENERIC","93.505","0.04761084748633864","747"
"20:52:37:575 (H:m:s:ms)","GENERIC","125.422","0.03964578702512607","1036"
"21:14:50:909 (H:m:s:ms)","GENERIC","93.675","0.05810494388519706","1440"
"20:52:43:636 (H:m:s:ms)","GENERIC","93.627","0.04578314936921646","827"
"21:14:56:969 (H:m:s:ms)","GENERIC","93.201","0.04580328852648908","1534"
"20:52:49:696 (H:m:s:ms)","GENERIC","125.274","0.04922126768251264","922"
"21:15:3:30 (H:m:s:ms)","GENERIC","93.90299999999999","0.03453954761646994","1351"
"20:52:55:757 (H:m:s:ms)","GENERIC","93.714","0.0458317782527175","869"
"20:53:1:818 (H:m:s:ms)","GENERIC","125.488","0.01876781723764494","883"
"21:28:13:670 (H:m:s:ms)","OPERA","62.013","0.0612085628356497","985"
"21:49:11:515 (H:m:s:ms)","GENERIC","93.217","0.03237792619325365","1223"
"21:28:10:909 (H:m:s:ms)","GENERIC","93.614","0.057505955814056126","1666"
"21:49:5:454 (H:m:s:ms)","GENERIC","93.56","0.04498013924172692","1126"
"21:28:6:75 (H:m:s:ms)","OPERA","93.361","0.04163370207443046","1576"
"21:48:59:393 (H:m:s:ms)","GENERIC","125.191","0.032625526884436956","1348"
"21:28:4:848 (H:m:s:ms)","GENERIC","93.292","0.022297359444658764","800"
"21:48:53:333 (H:m:s:ms)","GENERIC","125.59299999999999","0.029701269234915985","1328"
"21:27:58:787 (H:m:s:ms)","GENERIC","93.335","0.033411143442888765","897"
"21:48:47:272 (H:m:s:ms)","GENERIC","93.231","0.034933612685156386","1379"
"21:48:41:212 (H:m:s:ms)","GENERIC","124.738","0.046021785105854245","1450"
"21:48:35:151 (H:m:s:ms)","GENERIC","93.176","0.031075813760334546","1578"
"21:27:58:481 (H:m:s:ms)","OPERA","124.719","0.04270449426088518","1841"
"21:15:9:90 (H:m:s:ms)","GENERIC","124.90899999999999","0.04115280247626682","1485"
"21:27:52:727 (H:m:s:ms)","GENERIC","62.119","0.04272720079595891","713"
"21:15:15:151 (H:m:s:ms)","GENERIC","124.255","0.03923250565566794","1389"
"21:27:50:886 (H:m:s:ms)","OPERA","31.008","0.0442586189453684","755"
"21:48:29:90 (H:m:s:ms)","GENERIC","93.795","0.023123133916582994","1263"
"20:53:7:878 (H:m:s:ms)","GENERIC","93.255","0.02944762864860587","1619"
"21:15:21:212 (H:m:s:ms)","GENERIC","93.721","0.0447221353178166","1194"
"21:27:46:666 (H:m:s:ms)","GENERIC","93.386","0.044665093420122697","934"
"21:48:23:30 (H:m:s:ms)","GENERIC","62.049","0.0470200420431701","1632"
"20:53:13:939 (H:m:s:ms)","GENERIC","62.123","0.023567252571831426","1579"
"21:15:27:272 (H:m:s:ms)","GENERIC","124.632","0.03431746231265663","1414"
"21:27:43:291 (H:m:s:ms)","OPERA","124.754","0.037491041132932265","1387"
"21:48:16:969 (H:m:s:ms)","GENERIC","93.628","0.03862642525181989","1693"
"20:53:20:0 (H:m:s:ms)","GENERIC","124.878","0.04681424063599789","1611"
"21:15:33:333 (H:m:s:ms)","GENERIC","93.197","0.03748554899362087","1161"
"21:27:40:606 (H:m:s:ms)","GENERIC","93.913","0.05081144456712098","683"
"21:48:10:909 (H:m:s:ms)","GENERIC","62.079","0.04380324508338833","1721"
"20:53:26:60 (H:m:s:ms)","GENERIC","124.492","0.02365009332157921","1562"
"21:15:39:393 (H:m:s:ms)","GENERIC","93.176","0.03446138125658154","1380"
"20:53:32:121 (H:m:s:ms)","GENERIC","62.073","0.05376947519350582","1290"
"21:15:45:454 (H:m:s:ms)","GENERIC","93.655","0.04576404214468728","956"
"20:53:38:181 (H:m:s:ms)","GENERIC","93.84700000000001","0.04157795228189926","1436"
"21:15:51:515 (H:m:s:ms)","GENERIC","93.158","0.03732790464834037","950"
"20:53:44:242 (H:m:s:ms)","GENERIC","62.015","0.03446171175424492","1264"
"21:15:57:575 (H:m:s:ms)","GENERIC","124.444","0.03541544715006833","1037"
"20:53:50:303 (H:m:s:ms)","GENERIC","93.87899999999999","0.04293824309198786","863"
"21:16:3:636 (H:m:s:ms)","GENERIC","93.49000000000001","0.05781173045315384","673"
"20:53:56:363 (H:m:s:ms)","GENERIC","93.247","0.029996457891968604","1232"
"20:54:2:424 (H:m:s:ms)","GENERIC","125.628","0.04362640289424708","1096"
"21:28:51:645 (H:m:s:ms)","OPERA","62.394","0.045179342523240046","904"
"22:7:53:684 (H:m:s:ms)","AMBULANCE","62.448","0.06162131619566898","853"
"21:28:47:272 (H:m:s:ms)","GENERIC","124.408","0.06315122512060682","1333"
"22:4:12:631 (H:m:s:ms)","AMBULANCE","31.008","0.0358638284725478","685"
"21:28:44:50 (H:m:s:ms)","OPERA","62.436","0.07135266565651087","1560"
"22:3:9:473 (H:m:s:ms)","AMBULANCE","31.009","0.030942497491987676","946"
"21:28:41:212 (H:m:s:ms)","GENERIC","93.387","0.058047535963946295","1340"
"21:50:0:0 (H:m:s:ms)","GENERIC","124.495","0.049649360253529944","1721"
"21:28:36:455 (H:m:s:ms)","OPERA","62.331","0.04752750464561372","1147"
"21:49:53:939 (H:m:s:ms)","GENERIC","125.162","0.06035392482001332","1647"
"21:28:35:151 (H:m:s:ms)","GENERIC","93.141","0.0371892550502541","1529"
"21:49:47:878 (H:m:s:ms)","GENERIC","93.476","0.04472899741751719","1706"
"21:49:41:818 (H:m:s:ms)","GENERIC","125.345","0.037106108612114","794"
"21:49:35:757 (H:m:s:ms)","GENERIC","124.981","0.035389091594272","924"
"21:16:9:696 (H:m:s:ms)","GENERIC","93.173","0.028049121129400667","667"
"21:16:15:757 (H:m:s:ms)","GENERIC","124.629","0.04166851502717177","942"
"21:28:29:90 (H:m:s:ms)","GENERIC","93.847","0.03884311287169617","1210"
"20:54:8:484 (H:m:s:ms)","GENERIC","93.304","0.04646859879452925","1032"
"21:16:21:818 (H:m:s:ms)","GENERIC","125.059","0.0500488654529556","876"
"21:28:28:860 (H:m:s:ms)","OPERA","93.433","0.03879636504764597","825"
"20:54:14:545 (H:m:s:ms)","GENERIC","93.24000000000001","0.0395533989278695","1072"
"21:16:27:878 (H:m:s:ms)","GENERIC","124.604","0.06150803149458088","1783"
"21:28:23:30 (H:m:s:ms)","GENERIC","93.37","0.060437378951739285","1515"
"21:49:29:696 (H:m:s:ms)","GENERIC","93.147","0.03980557555984597","683"
"20:54:20:606 (H:m:s:ms)","GENERIC","93.483","0.0316538643276235","841"
"21:16:33:939 (H:m:s:ms)","GENERIC","93.492","0.04595384219722305","1824"
"21:28:21:265 (H:m:s:ms)","OPERA","62.394","0.05789163563213375","1264"
"21:49:23:636 (H:m:s:ms)","GENERIC","93.687","0.05790942104642338","988"
"20:54:26:666 (H:m:s:ms)","GENERIC","124.319","0.0377290938417831","772"
"21:16:40:0 (H:m:s:ms)","GENERIC","93.881","0.04714454068644064","1287"
"21:28:16:969 (H:m:s:ms)","GENERIC","93.696","0.049273550268364594","1696"
"21:49:17:575 (H:m:s:ms)","GENERIC","93.898","0.03532411823854792","740"
"20:54:32:727 (H:m:s:ms)","GENERIC","93.756","0.04070020052868608","905"
"21:16:46:60 (H:m:s:ms)","GENERIC","125.065","0.04034325214282431","1679"
"20:54:38:787 (H:m:s:ms)","GENERIC","93.396","0.04168085520529769","616"
"21:16:52:121 (H:m:s:ms)","GENERIC","124.41499999999999","0.024403569683833552","1363"
"20:54:44:848 (H:m:s:ms)","GENERIC","124.844","0.052043683992234475","730"
"21:16:58:181 (H:m:s:ms)","GENERIC","124.55","0.049299139314229204","1571"
"20:54:50:909 (H:m:s:ms)","GENERIC","93.736","0.049080461381500774","1438"
"21:17:4:242 (H:m:s:ms)","GENERIC","62.113","0.029423619870291014","816"
"20:54:56:969 (H:m:s:ms)","GENERIC","93.146","0.03212155572794103","1512"
"20:55:3:30 (H:m:s:ms)","GENERIC","125.634","0.05069343139285543","1323"
"21:29:29:620 (H:m:s:ms)","OPERA","62.364999999999995","0.05724775511476911","1006"
"21:29:23:636 (H:m:s:ms)","GENERIC","93.69","0.040714119948793044","979"
"21:29:22:25 (H:m:s:ms)","OPERA","93.79299999999999","0.049392508196668426","1564"
"21:29:17:575 (H:m:s:ms)","GENERIC","62.123","0.049435301481354915","692"
"21:29:14:430 (H:m:s:ms)","OPERA","93.441","0.039506748172357886","1153"
"21:29:11:515 (H:m:s:ms)","GENERIC","93.174","0.04619730315654158","1163"
"21:29:6:835 (H:m:s:ms)","OPERA","93.363","0.05226116655684456","811"
"21:17:10:303 (H:m:s:ms)","GENERIC","125.026","0.028162315699568","1426"
"21:17:16:363 (H:m:s:ms)","GENERIC","93.21600000000001","0.04104621789194014","1208"
"20:55:9:90 (H:m:s:ms)","GENERIC","93.44800000000001","0.0365591264256732","1507"
"21:17:22:424 (H:m:s:ms)","GENERIC","124.40100000000001","0.04850598372852296","1176"
"20:55:15:151 (H:m:s:ms)","GENERIC","124.185","0.055072631721338444","1415"
"21:17:28:484 (H:m:s:ms)","GENERIC","93.686","0.024604394982878964","1034"
"21:29:5:454 (H:m:s:ms)","GENERIC","93.56700000000001","0.03756125262530409","1098"
"20:55:21:212 (H:m:s:ms)","GENERIC","93.765","0.04361808543585264","1194"
"21:17:34:545 (H:m:s:ms)","GENERIC","124.21600000000001","0.03385228818909882","1190"
"21:28:59:393 (H:m:s:ms)","GENERIC","125.175","0.057030742869471844","1855"
"20:55:27:272 (H:m:s:ms)","GENERIC","93.343","0.05024028147227027","1433"
"21:17:40:606 (H:m:s:ms)","GENERIC","93.87700000000001","0.03770213172772548","671"
"21:28:59:240 (H:m:s:ms)","OPERA","62.361000000000004","0.03144446111731612","1421"
"20:55:33:333 (H:m:s:ms)","GENERIC","124.338","0.03420647652995335","1208"
"21:17:46:666 (H:m:s:ms)","GENERIC","93.337","0.05192948576522097","951"
"21:28:53:333 (H:m:s:ms)","GENERIC","93.885","0.057666467483791985","1270"
"22:8:56:842 (H:m:s:ms)","AMBULANCE","31.009","0.040949227009900016","436"
"20:55:39:393 (H:m:s:ms)","GENERIC","93.263","0.03699214829763866","1364"
"21:17:52:727 (H:m:s:ms)","GENERIC","93.189","0.025222704021282173","689"
"20:55:45:454 (H:m:s:ms)","GENERIC","93.577","0.05787652726222081","1013"
"21:17:58:787 (H:m:s:ms)","GENERIC","124.459","0.07192654219784021","851"
"20:55:51:515 (H:m:s:ms)","GENERIC","93.136","0.023072454948548655","973"
"21:18:4:848 (H:m:s:ms)","GENERIC","124.52600000000001","0.044403927964767456","805"
"20:55:57:575 (H:m:s:ms)","GENERIC","93.312","0.05778120056828021","1025"
"20:56:3:636 (H:m:s:ms)","GENERIC","125.013","0.04910063031195928","632"
"21:30:0:0 (H:m:s:ms)","GENERIC","93.306","0.078803654612476","2971"
"21:30:0:0 (H:m:s:ms)","AMBULANCE","93.75","0.050034660406814646","2300"
"21:30:0:0 (H:m:s:ms)","OPERA","62.432","0.021910435583228263","1678"
"21:29:53:939 (H:m:s:ms)","GENERIC","93.578","0.05092481683629656","1718"
"21:29:52:405 (H:m:s:ms)","OPERA","93.724","0.06322651693848517","1255"
"21:29:47:878 (H:m:s:ms)","GENERIC","93.52000000000001","0.0703024186313215","1681"
"21:29:44:810 (H:m:s:ms)","OPERA","93.375","0.06254162242367708","807"
"21:29:41:818 (H:m:s:ms)","GENERIC","93.757","0.049068178607835085","722"
"21:18:10:909 (H:m:s:ms)","GENERIC","125.076","0.017304624387936143","1738"
"21:18:16:969 (H:m:s:ms)","GENERIC","125.299","0.02543060170427875","1749"
"20:56:9:696 (H:m:s:ms)","GENERIC","93.16","0.04760300689236205","661"
"21:18:23:30 (H:m:s:ms)","GENERIC","93.393","0.040034665331937655","1601"
"20:56:15:757 (H:m:s:ms)","GENERIC","93.33500000000001","0.046114420381758704","922"
"21:18:29:90 (H:m:s:ms)","GENERIC","62.111","0.035970509814263925","1237"
"20:40:0:0 (H:m:s:ms)","OPERA","62.363","0.03143556867822454","4164"
"20:56:21:818 (H:m:s:ms)","GENERIC","93.549","0.051231905755013386","818"
"21:18:35:151 (H:m:s:ms)","GENERIC","124.345","0.03197470059586362","1556"
"20:40:0:0 (H:m:s:ms)","GENERIC","62.495000000000005","0.04491005305857959","4565"
"20:56:27:878 (H:m:s:ms)","GENERIC","93.249","0.04161423882291406","1786"
"21:18:41:212 (H:m:s:ms)","GENERIC","93.435","0.04458398721972512","1413"
"21:29:37:215 (H:m:s:ms)","OPERA","93.341","0.05082615784371569","1478"
"20:40:0:0 (H:m:s:ms)","GENERIC","124.547","0.06441565191073624","5268"
"20:56:33:939 (H:m:s:ms)","GENERIC","124.922","0.0452181117776476","1798"
"21:18:47:272 (H:m:s:ms)","GENERIC","93.196","0.04825553895362206","1328"
"21:29:35:757 (H:m:s:ms)","GENERIC","125.048","0.04811532210016062","886"
"20:40:6:60 (H:m:s:ms)","GENERIC","124.285","0.019687278499522457","1766"
"20:56:40:0 (H:m:s:ms)","GENERIC","62.116","0.03530834384434922","1280"
"21:18:53:333 (H:m:s:ms)","GENERIC","125.53399999999999","0.038652191913359085","1363"
"21:29:29:696 (H:m:s:ms)","GENERIC","93.115","0.0710173914541335","1276"
"20:40:7:594 (H:m:s:ms)","OPERA","62.37","0.032580895982874246","1057"
"20:56:46:60 (H:m:s:ms)","GENERIC","125.07300000000001","0.044619747904058496","1702"
"21:18:59:393 (H:m:s:ms)","GENERIC","93.62","0.035696581674828205","1308"
"20:40:12:121 (H:m:s:ms)","GENERIC","93.082","0.04676731633692889","1221"
"20:56:52:121 (H:m:s:ms)","GENERIC","93.22800000000001","0.03938615848426735","1356"
"21:19:5:454 (H:m:s:ms)","GENERIC","93.56099999999999","0.033526042016031994","1145"
"20:40:15:189 (H:m:s:ms)","OPERA","62.361000000000004","0.05459264254967112","1394"
"20:56:58:181 (H:m:s:ms)","GENERIC","124.644","0.01972437963747135","1571"
"20:40:18:181 (H:m:s:ms)","GENERIC","125.18","0.05413129524621523","1291"
"20:57:4:242 (H:m:s:ms)","GENERIC","62.117","0.03530834384434922","819"
"20:40:24:242 (H:m:s:ms)","GENERIC","124.648","0.023395214297947605","1483"
"20:40:30:303 (H:m:s:ms)","GENERIC","93.309","0.04248307279654245","1380"
"21:30:12:121 (H:m:s:ms)","GENERIC","93.116","0.04527647683896339","1189"
"21:31:0:606 (H:m:s:ms)","GENERIC","124.337","0.04947936786559029","1073"
"21:30:54:545 (H:m:s:ms)","GENERIC","124.982","0.04638559527314693","749"
"21:30:48:484 (H:m:s:ms)","GENERIC","93.56700000000001","0.039175934708111315","1089"
"21:30:42:424 (H:m:s:ms)","GENERIC","93.15","0.03724073175428467","1265"
"21:30:36:363 (H:m:s:ms)","GENERIC","124.467","0.05062436620353592","1065"
"21:30:30:303 (H:m:s:ms)","GENERIC","124.483","0.047695089808256555","1358"
"21:30:24:242 (H:m:s:ms)","GENERIC","93.331","0.02761840369952334","1471"
"21:19:11:515 (H:m:s:ms)","GENERIC","93.148","0.02940759386597105","1217"
"21:30:18:181 (H:m:s:ms)","GENERIC","93.632","0.04637292724503783","1310"
"21:19:17:575 (H:m:s:ms)","GENERIC","125.55199999999999","0.043657456873104884","718"
"20:57:10:303 (H:m:s:ms)","GENERIC","93.551","0.03713853566847529","1421"
"21:19:23:636 (H:m:s:ms)","GENERIC","93.67099999999999","0.04814242657692881","858"
"20:57:16:363 (H:m:s:ms)","GENERIC","93.217","0.036850096895274784","1253"
"21:19:29:696 (H:m:s:ms)","GENERIC","62.093","0.03646552361707011","613"
"20:40:30:379 (H:m:s:ms)","OPERA","93.763","0.06299234482057801","1941"
"20:57:22:424 (H:m:s:ms)","GENERIC","93.247","0.0447733393691228","1177"
"21:19:35:757 (H:m:s:ms)","GENERIC","93.533","0.04233750696019542","821"
"20:40:36:363 (H:m:s:ms)","GENERIC","93.258","0.027939553533985192","1095"
"20:57:28:484 (H:m:s:ms)","GENERIC","93.67699999999999","0.03698025650329023","1047"
"21:19:41:818 (H:m:s:ms)","GENERIC","93.811","0.04125580702560411","716"
"20:40:37:974 (H:m:s:ms)","OPERA","62.361999999999995","0.04266194024851572","1580"
"20:57:34:545 (H:m:s:ms)","GENERIC","124.213","0.030683842959564302","1206"
"21:19:47:878 (H:m:s:ms)","GENERIC","93.493","0.023482875714734164","1691"
"20:40:42:424 (H:m:s:ms)","GENERIC","93.233","0.03801311217207345","1298"
"20:57:40:606 (H:m:s:ms)","GENERIC","93.899","0.03770311052702139","680"
"21:19:53:939 (H:m:s:ms)","GENERIC","125.148","0.03605373340936639","1645"
"21:30:6:60 (H:m:s:ms)","GENERIC","93.21","0.021253697948078073","1720"
"20:40:45:569 (H:m:s:ms)","OPERA","62.358000000000004","0.03469519815640123","1139"
"20:57:46:666 (H:m:s:ms)","GENERIC","124.667","0.03079138232900576","983"
"21:20:0:0 (H:m:s:ms)","OPERA","62.359","0.03274015034275857","3181"
"21:30:0:0 (H:m:s:ms)","GENERIC","93.592","0.09469767569484444","3407"
"20:40:48:484 (H:m:s:ms)","GENERIC","93.62899999999999","0.051439443584093074","1109"
"20:57:52:727 (H:m:s:ms)","GENERIC","93.215","0.043090944426453386","717"
"21:20:0:0 (H:m:s:ms)","GENERIC","93.356","0.04207813760490363","3855"
"20:40:53:164 (H:m:s:ms)","OPERA","93.777","0.06363524457763185","1490"
"20:57:58:787 (H:m:s:ms)","GENERIC","124.576","0.04028491333835425","943"
"20:40:54:545 (H:m:s:ms)","GENERIC","93.47800000000001","0.07424661958562916","783"
"20:58:4:848 (H:m:s:ms)","GENERIC","93.266","0.029259437476641774","833"
"20:41:0:606 (H:m:s:ms)","GENERIC","124.39099999999999","0.03226092540435101","1088"
"20:41:0:759 (H:m:s:ms)","OPERA","62.358000000000004","0.04799265392566883","1564"
"21:31:12:727 (H:m:s:ms)","GENERIC","62.139","0.0430331482911935","758"
"21:31:6:666 (H:m:s:ms)","GENERIC","93.382","0.04976073789400292","919"
"21:31:55:151 (H:m:s:ms)","GENERIC","93.749","0.03051591604057522","1207"
"21:31:49:90 (H:m:s:ms)","GENERIC","93.108","0.05013662087477555","1610"
"21:31:43:30 (H:m:s:ms)","GENERIC","93.455","0.04930467599369667","1716"
"21:31:36:969 (H:m:s:ms)","GENERIC","93.807","0.040322312207912846","1374"
"21:31:34:736 (H:m:s:ms)","AMBULANCE","62.495999999999995","0.03935220292149305","921"
"21:31:30:909 (H:m:s:ms)","GENERIC","62.079","0.029302800607008073","1660"
"21:31:24:848 (H:m:s:ms)","GENERIC","93.24600000000001","0.04136118933806941","900"
"21:31:18:787 (H:m:s:ms)","GENERIC","93.313","0.030750200455127216","910"
"20:58:10:909 (H:m:s:ms)","GENERIC","125.009","0.052062837744453264","1743"
"20:58:16:969 (H:m:s:ms)","GENERIC","93.679","0.03796180204452863","1727"
"20:41:6:666 (H:m:s:ms)","GENERIC","124.735","0.02949943754643258","890"
"20:58:23:30 (H:m:s:ms)","GENERIC","124.838","0.03217745725829811","1614"
"20:41:8:354 (H:m:s:ms)","OPERA","62.334","0.0470865424600295","1249"
"20:58:29:90 (H:m:s:ms)","GENERIC","62.147","0.025862667617592313","1282"
"20:41:12:727 (H:m:s:ms)","GENERIC","125.411","0.049478373894223875","754"
"20:58:35:151 (H:m:s:ms)","GENERIC","124.316","0.012012579949834958","1633"
"20:41:15:949 (H:m:s:ms)","OPERA","62.363","0.0455903149244241","1722"
"20:58:41:212 (H:m:s:ms)","GENERIC","93.428","0.038633341551764705","1348"
"20:41:18:787 (H:m:s:ms)","GENERIC","93.32","0.06174597785107864","947"
"20:58:47:272 (H:m:s:ms)","GENERIC","62.067","0.032832585461003594","1363"
"20:41:23:544 (H:m:s:ms)","OPERA","62.367999999999995","0.05637687525453477","1054"
"20:58:53:333 (H:m:s:ms)","GENERIC","125.444","0.03503080998341777","1326"
"21:31:3:157 (H:m:s:ms)","AMBULANCE","62.45","0.06624880376783869","1284"
"20:41:24:848 (H:m:s:ms)","GENERIC","124.539","0.03768091663508177","883"
"20:58:59:393 (H:m:s:ms)","GENERIC","93.624","0.05012550827630461","1354"
"20:41:30:909 (H:m:s:ms)","GENERIC","93.693","0.041653518502326556","1618"
"20:59:5:454 (H:m:s:ms)","GENERIC","93.595","0.04466662753552121","1193"
"20:41:31:139 (H:m:s:ms)","OPERA","62.370000000000005","0.05095230248883038","2078"
"20:41:36:969 (H:m:s:ms)","GENERIC","93.852","0.030605340438118685","1399"
"20:59:11:515 (H:m:s:ms)","GENERIC","124.336","0.02509326369571894","1263"
"20:59:17:575 (H:m:s:ms)","GENERIC","93.828","0.05781867149799394","736"
"20:41:38:734 (H:m:s:ms)","OPERA","62.358000000000004","0.04212530430833643","882"
"20:59:23:636 (H:m:s:ms)","GENERIC","93.736","0.035846801630927946","989"
"20:41:43:30 (H:m:s:ms)","GENERIC","93.439","0.0552866236291674","1581"
"20:59:29:696 (H:m:s:ms)","GENERIC","62.071","0.03106274711231255","677"
"20:41:46:329 (H:m:s:ms)","OPERA","62.358999999999995","0.05990865626707254","1248"
"20:59:35:757 (H:m:s:ms)","GENERIC","93.64","0.03580564505612986","922"
"20:41:49:90 (H:m:s:ms)","GENERIC","124.337","0.04772371538788812","1663"
"20:59:41:818 (H:m:s:ms)","GENERIC","93.784","0.05796763822720712","792"
"20:41:53:924 (H:m:s:ms)","OPERA","62.368","0.05912493911693141","1741"
"20:59:47:878 (H:m:s:ms)","GENERIC","93.473","0.05621738824478232","1679"
"20:41:55:151 (H:m:s:ms)","GENERIC","93.791","0.0626070759193671","1203"
"20:59:53:939 (H:m:s:ms)","GENERIC","125.226","0.05360052246356262","1706"
"20:42:1:212 (H:m:s:ms)","GENERIC","93.398","0.031762646878760896","1375"
"21:0:0:0 (H:m:s:ms)","AMBULANCE","62.397000000000006","0.031964861854233556","3478"
"20:42:1:518 (H:m:s:ms)","OPERA","62.357","0.04019772462489905","1736"
"21:0:0:0 (H:m:s:ms)","GENERIC","93.318","0.0669091777791905","4190"
"20:42:7:272 (H:m:s:ms)","GENERIC","93.419","0.038931494834819134","1350"
"20:42:9:113 (H:m:s:ms)","OPERA","62.366","0.05931401631725373","1526"
"21:0:0:0 (H:m:s:ms)","GENERIC","125.044","0.08233744907264882","4645"
"21:0:6:60 (H:m:s:ms)","GENERIC","93.197","0.02842542576841597","1713"
"20:42:13:333 (H:m:s:ms)","GENERIC","93.652","0.06155147625808125","1162"
"21:0:12:121 (H:m:s:ms)","GENERIC","93.16300000000001","0.039283243222888745","1236"
"20:42:16:708 (H:m:s:ms)","OPERA","62.358000000000004","0.05330495781606083","933"
"21:0:18:181 (H:m:s:ms)","GENERIC","93.67","0.038791790176123","1337"
"20:20:0:0 (H:m:s:ms)","GENERIC","124.511","0.05705262748727743","3431"
"20:42:19:393 (H:m:s:ms)","GENERIC","93.37100000000001","0.06292603156634767","995"
"21:0:24:242 (H:m:s:ms)","GENERIC","93.37","0.0432083023975991","1508"
"20:20:0:0 (H:m:s:ms)","GENERIC","93.63","0.06788689090375452","4026"
"20:42:24:303 (H:m:s:ms)","OPERA","31.008","0.06374268907004417","1292"
"21:0:30:303 (H:m:s:ms)","GENERIC","93.298","0.048259721581164185","1378"
"20:20:6:60 (H:m:s:ms)","GENERIC","124.357","0.03383641004686706","1635"
"20:42:25:454 (H:m:s:ms)","GENERIC","93.805","0.05832381363134925","630"
"21:0:31:578 (H:m:s:ms)","AMBULANCE","62.513000000000005","0.061055733963721326","1116"
"20:20:12:121 (H:m:s:ms)","GENERIC","93.179","0.026839806767402954","1240"
"20:42:31:515 (H:m:s:ms)","GENERIC","125.028","0.03683322531847828","1090"
"21:0:36:363 (H:m:s:ms)","GENERIC","93.296","0.05552438068143571","1088"
"20:20:18:181 (H:m:s:ms)","GENERIC","93.655","0.034023407452267104","1380"
"20:42:31:898 (H:m:s:ms)","OPERA","62.369","0.04416953501855792","1329"
"21:0:42:424 (H:m:s:ms)","GENERIC","124.36500000000001","0.03046492969207866","1284"
"20:20:24:242 (H:m:s:ms)","GENERIC","93.374","0.0456448444329937","1454"
"20:42:37:575 (H:m:s:ms)","GENERIC","125.31","0.03313967762449209","1014"
"21:0:48:484 (H:m:s:ms)","GENERIC","93.562","0.03058221669913143","1116"
"20:20:30:303 (H:m:s:ms)","GENERIC","93.264","0.043324584104066824","1373"
"20:42:39:493 (H:m:s:ms)","OPERA","62.43","0.043837485124430774","1148"
"20:20:36:363 (H:m:s:ms)","GENERIC","93.299","0.05198311659883636","1071"
"20:42:43:636 (H:m:s:ms)","GENERIC","125.246","0.03927944290112964","911"
"20:20:42:424 (H:m:s:ms)","GENERIC","124.288","0.03538338491065124","1243"
"20:20:48:484 (H:m:s:ms)","GENERIC","93.531","0.03854018683928789","1157"
"21:0:54:545 (H:m:s:ms)","GENERIC","93.531","0.04585904636508419","762"
"21:1:0:606 (H:m:s:ms)","GENERIC","124.422","0.05757957171044935","1044"
"20:42:47:88 (H:m:s:ms)","OPERA","31.008","0.04888020549514396","1515"
"21:1:3:157 (H:m:s:ms)","AMBULANCE","62.403999999999996","0.06809499224076264","1537"
"20:42:49:696 (H:m:s:ms)","GENERIC","93.636","0.06532402537090234","853"
"21:1:6:666 (H:m:s:ms)","GENERIC","93.438","0.056864447642565784","929"
"20:20:54:545 (H:m:s:ms)","GENERIC","62.498999999999995","0.04699335349571387","774"
"20:42:54:683 (H:m:s:ms)","OPERA","62.304","0.060441644383535845","944"
"21:1:12:727 (H:m:s:ms)","GENERIC","93.776","0.0415260537631098","756"
"20:21:0:606 (H:m:s:ms)","GENERIC","124.427","0.03793647977798512","1037"
"20:42:55:757 (H:m:s:ms)","GENERIC","93.732","0.0629396953898012","807"
"21:1:18:787 (H:m:s:ms)","GENERIC","124.6","0.024871641839094072","902"
"20:21:6:666 (H:m:s:ms)","GENERIC","93.47200000000001","0.03567135846868906","912"
"20:43:1:818 (H:m:s:ms)","GENERIC","125.509","0.034551086335959616","848"
"21:1:24:848 (H:m:s:ms)","GENERIC","93.27799999999999","0.02594390956021674","907"
"20:21:12:727 (H:m:s:ms)","GENERIC","93.706","0.03849513582797596","750"
"20:43:2:278 (H:m:s:ms)","OPERA","93.75","0.06069360004218824","1379"
"21:1:30:909 (H:m:s:ms)","GENERIC","93.72800000000001","0.041651089454203656","1680"
"20:21:18:787 (H:m:s:ms)","GENERIC","124.60900000000001","0.016177550127055417","975"
"20:43:7:878 (H:m:s:ms)","GENERIC","62.093","0.04097888555245977","1608"
"21:1:34:736 (H:m:s:ms)","AMBULANCE","62.371","0.05162095677686165","826"
"20:21:24:848 (H:m:s:ms)","GENERIC","93.21600000000001","0.03432020429295761","899"
"20:43:9:873 (H:m:s:ms)","OPERA","93.721","0.05109131608323154","799"
"21:1:36:969 (H:m:s:ms)","GENERIC","62.123","0.05123223940047116","1356"
"20:21:30:909 (H:m:s:ms)","GENERIC","93.73400000000001","0.029484760837293383","1692"
"20:43:13:939 (H:m:s:ms)","GENERIC","125.388","0.04186986321735913","1557"
"20:21:36:969 (H:m:s:ms)","GENERIC","93.846","0.04144584890133771","1375"
"20:43:17:468 (H:m:s:ms)","OPERA","62.370999999999995","0.04468002283543926","1114"
"20:21:43:30 (H:m:s:ms)","GENERIC","93.463","0.02665957619146089","1627"
"20:21:49:90 (H:m:s:ms)","GENERIC","93.234","0.015516614219988028","1690"
"20:43:20:0 (H:m:s:ms)","GENERIC","93.419","0.05792809414831102","1675"
"20:43:25:63 (H:m:s:ms)","OPERA","62.358000000000004","0.055409230257316616","1578"
"20:21:55:151 (H:m:s:ms)","GENERIC","93.824","0.024766148795369793","1236"
"20:43:26:60 (H:m:s:ms)","GENERIC","124.47","0.05944187540059193","1538"
"20:22:1:212 (H:m:s:ms)","GENERIC","93.343","0.03645270922057206","1382"
"20:43:32:121 (H:m:s:ms)","GENERIC","93.271","0.07887814941255841","1840"
"20:22:7:272 (H:m:s:ms)","GENERIC","62.069","0.03592117268415699","1341"
"20:43:32:658 (H:m:s:ms)","OPERA","62.363","0.05802501357270099","915"
"20:22:13:333 (H:m:s:ms)","GENERIC","93.694","0.021697426894648923","1243"
"20:43:38:181 (H:m:s:ms)","GENERIC","93.848","0.034417415017028205","1372"
"20:22:19:393 (H:m:s:ms)","GENERIC","93.423","0.04922647110363848","1084"
"20:43:40:253 (H:m:s:ms)","OPERA","62.361000000000004","0.06451860151170188","1317"
"20:22:25:454 (H:m:s:ms)","GENERIC","93.837","0.05246215780044604","636"
"20:43:44:242 (H:m:s:ms)","GENERIC","93.557","0.064044762160448","1263"
"20:22:31:515 (H:m:s:ms)","GENERIC","124.97399999999999","0.03201361628115064","1132"
"20:43:47:848 (H:m:s:ms)","OPERA","93.719","0.04680152438385941","686"
"20:22:37:575 (H:m:s:ms)","GENERIC","93.768","0.04787601013862342","1064"
"20:43:50:303 (H:m:s:ms)","GENERIC","93.875","0.05681255607247558","862"
"20:22:43:636 (H:m:s:ms)","GENERIC","93.643","0.04533262025607345","852"
"20:22:49:696 (H:m:s:ms)","GENERIC","125.181","0.063714249648437","923"
"20:43:55:443 (H:m:s:ms)","OPERA","31.008","0.05448254565211668","1183"
"20:43:56:363 (H:m:s:ms)","GENERIC","93.282","0.04053346039151211","1201"
"20:22:55:757 (H:m:s:ms)","GENERIC","125.2","0.07245090792702244","852"
"20:44:2:424 (H:m:s:ms)","GENERIC","125.554","0.029055342352769957","1069"
"20:23:1:818 (H:m:s:ms)","GENERIC","125.44","0.02636561958315208","905"
"20:44:3:37 (H:m:s:ms)","OPERA","93.755","0.041596485791056105","1533"
"20:23:7:878 (H:m:s:ms)","GENERIC","124.28399999999999","0.03447243343254518","1647"
"20:44:8:484 (H:m:s:ms)","GENERIC","93.313","0.06854386613025666","1022"
"20:23:13:939 (H:m:s:ms)","GENERIC","93.70400000000001","0.024119141792372043","1601"
"20:44:10:632 (H:m:s:ms)","OPERA","62.358000000000004","0.06727610045024501","975"
"20:23:20:0 (H:m:s:ms)","GENERIC","124.88300000000001","0.046807953454216185","1679"
"20:44:14:545 (H:m:s:ms)","GENERIC","93.263","0.036506891159140624","1100"
"20:23:26:60 (H:m:s:ms)","GENERIC","93.268","0.03291562982628876","1578"
"20:44:18:227 (H:m:s:ms)","OPERA","62.358999999999995","0.06124941348956238","1365"
"20:23:32:121 (H:m:s:ms)","GENERIC","93.325","0.054047165642898465","1291"
"20:44:20:606 (H:m:s:ms)","GENERIC","93.48","0.06019633285750806","869"
"20:23:38:181 (H:m:s:ms)","GENERIC","93.783","0.045660060002695145","1437"
"20:44:25:822 (H:m:s:ms)","OPERA","93.667","0.03207008206868545","827"
"20:23:44:242 (H:m:s:ms)","GENERIC","93.601","0.05141437207267133","1214"
"20:23:50:303 (H:m:s:ms)","GENERIC","93.859","0.04601518266935334","875"
"20:44:26:666 (H:m:s:ms)","GENERIC","93.223","0.04043891059553952","770"
"20:44:32:727 (H:m:s:ms)","GENERIC","62.127","0.02805418038433909","903"
"20:23:56:363 (H:m:s:ms)","GENERIC","93.241","0.03300212298440822","1233"
"20:44:33:417 (H:m:s:ms)","OPERA","31.008","0.04150486371706746","1200"
"20:24:2:424 (H:m:s:ms)","GENERIC","93.782","0.04364735198317344","1080"
"20:44:38:787 (H:m:s:ms)","GENERIC","124.775","0.061596385072669284","577"
"20:24:8:484 (H:m:s:ms)","GENERIC","93.26","0.027881719780289606","1055"
"20:44:41:12 (H:m:s:ms)","OPERA","93.762","0.06379342652460171","1652"
"20:24:14:545 (H:m:s:ms)","GENERIC","124.461","0.016892588171265186","1137"
"20:44:44:848 (H:m:s:ms)","GENERIC","124.901","0.05421451824871056","763"
"20:24:20:606 (H:m:s:ms)","GENERIC","93.549","0.04814322486400356","847"
"20:44:48:607 (H:m:s:ms)","OPERA","62.358000000000004","0.05221540763841079","1051"
"20:24:26:666 (H:m:s:ms)","GENERIC","93.208","0.03146023905583174","789"
"20:44:50:909 (H:m:s:ms)","GENERIC","93.736","0.04012439681704564","1495"
"20:24:32:727 (H:m:s:ms)","GENERIC","125.488","0.024161200365901803","927"
"20:44:56:202 (H:m:s:ms)","OPERA","62.372","0.05054112691019176","1386"
"20:24:38:787 (H:m:s:ms)","GENERIC","124.735","0.04533354376831712","571"
"20:44:56:969 (H:m:s:ms)","GENERIC","93.17","0.056129675412016695","2034"
"20:24:44:848 (H:m:s:ms)","GENERIC","93.43","0.025621967906410855","806"
"20:24:50:909 (H:m:s:ms)","GENERIC","93.703","0.053319149335548016","1465"
"20:45:3:30 (H:m:s:ms)","GENERIC","93.89099999999999","0.05166362537649899","1341"
"20:45:9:90 (H:m:s:ms)","GENERIC","93.432","0.03291336760427905","1471"
"20:24:56:969 (H:m:s:ms)","GENERIC","62.131","0.048142583367880486","1489"
"20:45:11:392 (H:m:s:ms)","OPERA","62.331","0.04540093061889502","1206"
"20:25:3:30 (H:m:s:ms)","GENERIC","93.914","0.03677769897407075","1347"
"20:45:15:151 (H:m:s:ms)","GENERIC","93.175","0.05982477766426325","1410"
"20:25:9:90 (H:m:s:ms)","GENERIC","93.509","0.041364333610829","1530"
"20:45:18:987 (H:m:s:ms)","OPERA","93.757","0.05381051792713313","1814"
"20:25:15:151 (H:m:s:ms)","GENERIC","93.235","0.029183057403942426","1425"
"20:45:21:212 (H:m:s:ms)","GENERIC","93.774","0.04859884522283034","1165"
"20:25:21:212 (H:m:s:ms)","GENERIC","93.80799999999999","0.04946689771305284","1152"
"20:45:26:582 (H:m:s:ms)","OPERA","62.394999999999996","0.06471080640658529","990"
"20:25:27:272 (H:m:s:ms)","GENERIC","124.62700000000001","0.058828261772173096","1382"
"20:45:27:272 (H:m:s:ms)","GENERIC","93.33","0.06354848526981688","1385"
"20:25:33:333 (H:m:s:ms)","GENERIC","62.083","0.04114253678777383","1165"
"20:45:33:333 (H:m:s:ms)","GENERIC","124.328","0.03681958528270805","1143"
"20:25:39:393 (H:m:s:ms)","GENERIC","93.227","0.034853282938615344","1372"
"20:45:34:177 (H:m:s:ms)","OPERA","62.358000000000004","0.040423312577948206","1542"
"20:25:45:454 (H:m:s:ms)","GENERIC","93.63300000000001","0.04494377315605911","887"
"20:25:51:515 (H:m:s:ms)","GENERIC","124.16499999999999","0.04458826557816122","977"
"20:25:57:575 (H:m:s:ms)","GENERIC","62.045","0.025754350401939012","1074"
"20:26:3:636 (H:m:s:ms)","GENERIC","62.029","0.030942497491987676","663"
"20:26:9:696 (H:m:s:ms)","GENERIC","93.175","0.030041992597997523","668"
"20:26:15:757 (H:m:s:ms)","GENERIC","124.548","0.03562388916197552","949"
"20:26:21:818 (H:m:s:ms)","GENERIC","93.66","0.039472511067573865","883"
"20:26:27:878 (H:m:s:ms)","GENERIC","93.318","0.049120803555449025","1783"
"20:26:33:939 (H:m:s:ms)","GENERIC","124.868","0.04946047833111751","1799"
"20:26:40:0 (H:m:s:ms)","GENERIC","93.836","0.0317635634412199","1282"
"20:26:46:60 (H:m:s:ms)","GENERIC","125.126","0.04855305581613785","1652"
"20:26:52:121 (H:m:s:ms)","GENERIC","93.2","0.024390001803371572","1366"
"20:26:58:181 (H:m:s:ms)","GENERIC","93.412","0.04137231682486272","1544"
"20:27:4:242 (H:m:s:ms)","GENERIC","62.147","0.03530834384434922","817"
"20:27:10:303 (H:m:s:ms)","GENERIC","125.071","0.028104072973105246","1438"
"20:27:16:363 (H:m:s:ms)","GENERIC","93.201","0.031980351439684467","1208"
"20:27:22:424 (H:m:s:ms)","GENERIC","93.191","0.03133766037109374","1187"
"20:27:28:484 (H:m:s:ms)","GENERIC","93.57","0.03357937643132939","1034"
"20:27:34:545 (H:m:s:ms)","GENERIC","124.322","0.021398026834078127","1219"
"20:27:40:606 (H:m:s:ms)","GENERIC","93.923","0.047529003495822626","672"
"20:27:46:666 (H:m:s:ms)","GENERIC","93.30799999999999","0.03361681406058987","983"
"20:27:52:727 (H:m:s:ms)","GENERIC","124.179","0.031965455463929614","720"
"20:27:58:787 (H:m:s:ms)","GENERIC","93.281","0.05095059901822971","896"
"20:28:4:848 (H:m:s:ms)","GENERIC","93.224","0.029153419625984514","795"
"20:28:10:909 (H:m:s:ms)","GENERIC","124.957","0.05993901973963491","1691"
"20:28:16:969 (H:m:s:ms)","GENERIC","125.22999999999999","0.037049078182496566","1678"
"20:28:23:30 (H:m:s:ms)","GENERIC","124.789","0.029690030756827423","1589"
"20:28:29:90 (H:m:s:ms)","GENERIC","93.799","0.02758356198337623","1250"
"20:28:35:151 (H:m:s:ms)","GENERIC","93.162","0.04242107819981524","1558"
"20:28:41:212 (H:m:s:ms)","GENERIC","124.724","0.04922561293363543","1355"
"20:28:47:272 (H:m:s:ms)","GENERIC","93.208","0.038629897528078785","1317"
"20:28:53:333 (H:m:s:ms)","GENERIC","125.564","0.04797183502297232","1375"
"20:28:59:393 (H:m:s:ms)","GENERIC","125.136","0.025214448350690175","1313"
"20:29:5:454 (H:m:s:ms)","GENERIC","93.564","0.035770591048189596","1162"
"20:29:11:515 (H:m:s:ms)","GENERIC","93.206","0.028618449301878825","1226"
"20:29:17:575 (H:m:s:ms)","GENERIC","93.845","0.03982478458143572","668"
"20:29:23:636 (H:m:s:ms)","GENERIC","125.22800000000001","0.03774896708903249","942"
"20:29:29:696 (H:m:s:ms)","GENERIC","124.113","0.04780617010806282","654"
"20:29:35:757 (H:m:s:ms)","GENERIC","93.59100000000001","0.04459223845355565","922"
"20:29:41:818 (H:m:s:ms)","GENERIC","93.787","0.03513171760765004","715"
"20:29:47:878 (H:m:s:ms)","GENERIC","93.462","0.026732255886480993","1676"
"20:29:53:939 (H:m:s:ms)","GENERIC","125.15","0.04214469010143678","1656"
"21:20:0:0 (H:m:s:ms)","GENERIC","93.57300000000001","0.04913869251894998","4278"
"21:20:6:60 (H:m:s:ms)","GENERIC","93.18","0.03386132785161576","1646"
"21:20:7:594 (H:m:s:ms)","OPERA","62.368","0.04239862269492349","1084"
"21:20:12:121 (H:m:s:ms)","GENERIC","93.098","0.048868049629207745","1203"
"21:20:15:189 (H:m:s:ms)","OPERA","93.77799999999999","0.053252714587027225","1397"
"21:20:18:181 (H:m:s:ms)","GENERIC","93.664","0.0668918582930393","1297"
"21:20:24:242 (H:m:s:ms)","GENERIC","62.059","0.04142717538147136","1425"
"21:20:30:303 (H:m:s:ms)","GENERIC","93.34","0.04410263945279114","1333"
"21:20:30:379 (H:m:s:ms)","OPERA","93.434","0.055718713623369866","1821"
"21:20:36:363 (H:m:s:ms)","GENERIC","93.293","0.045707832128360465","1043"
"21:20:37:974 (H:m:s:ms)","OPERA","93.651","0.050233414281526445","1690"
"21:20:42:424 (H:m:s:ms)","GENERIC","62.107","0.0475649898796089","1254"
"21:20:45:569 (H:m:s:ms)","OPERA","62.332","0.04992544777977289","979"
"21:20:48:484 (H:m:s:ms)","GENERIC","125.04400000000001","0.044832227436260794","1109"
"21:20:53:164 (H:m:s:ms)","OPERA","62.396","0.06594068249136092","1382"
"21:20:54:545 (H:m:s:ms)","GENERIC","93.50800000000001","0.06916288734145977","760"
"21:21:0:606 (H:m:s:ms)","GENERIC","93.237","0.05813691249605998","980"
"21:21:0:759 (H:m:s:ms)","OPERA","62.394999999999996","0.06658304127517475","1384"
"21:21:6:666 (H:m:s:ms)","GENERIC","93.37899999999999","0.030110192732944845","891"
"21:21:8:354 (H:m:s:ms)","OPERA","62.015","0.03733243490620177","1204"
"21:32:49:696 (H:m:s:ms)","GENERIC","125.181","0.03685797672185874","951"
"21:32:37:575 (H:m:s:ms)","GENERIC","125.44800000000001","0.05050353741549051","1067"
"21:32:31:515 (H:m:s:ms)","GENERIC","93.554","0.023150939957860047","1121"
"21:32:25:454 (H:m:s:ms)","GENERIC","93.851","0.05244037569463427","642"
"21:32:19:393 (H:m:s:ms)","GENERIC","93.45","0.04210375027140219","1094"
"21:32:13:333 (H:m:s:ms)","GENERIC","93.73","0.030811013251102998","1210"
"21:32:7:272 (H:m:s:ms)","GENERIC","93.462","0.06857649031172218","1294"
"21:32:6:315 (H:m:s:ms)","AMBULANCE","62.468","0.06236003077226202","1304"
"21:21:12:727 (H:m:s:ms)","GENERIC","93.76","0.028191778116112228","734"
"21:32:1:212 (H:m:s:ms)","GENERIC","93.295","0.036400248671935996","1357"
"21:21:15:949 (H:m:s:ms)","OPERA","93.724","0.05037019161939156","1638"
"21:21:18:787 (H:m:s:ms)","GENERIC","93.287","0.06841412735001086","900"
"21:21:23:544 (H:m:s:ms)","OPERA","93.693","0.07128817004201848","1046"
"21:21:24:848 (H:m:s:ms)","GENERIC","93.264","0.05421719953730409","868"
"21:21:30:909 (H:m:s:ms)","GENERIC","93.717","0.03228126543100575","1615"
"21:21:31:139 (H:m:s:ms)","OPERA","124.718","0.037174615827447834","2054"
"21:21:36:969 (H:m:s:ms)","GENERIC","62.093","0.03267580654449609","1383"
"21:32:43:636 (H:m:s:ms)","GENERIC","93.652","0.02899086779692252","1010"
"21:21:38:734 (H:m:s:ms)","OPERA","62.335","0.04143334697831805","915"
"21:32:37:894 (H:m:s:ms)","AMBULANCE","31.008","0.05900701228223492","1169"
"21:21:43:30 (H:m:s:ms)","GENERIC","62.037","0.04394352160244875","1537"
"21:33:44:242 (H:m:s:ms)","GENERIC","93.514","0.0667515552860603","1242"
"21:33:41:52 (H:m:s:ms)","AMBULANCE","62.504000000000005","0.05779899175559505","1379"
"21:33:32:121 (H:m:s:ms)","GENERIC","93.259","0.042083945622208324","1312"
"21:33:26:60 (H:m:s:ms)","GENERIC","124.509","0.028595889378084393","1588"
"21:33:20:0 (H:m:s:ms)","GENERIC","93.455","0.051151301719995004","1683"
"21:33:13:939 (H:m:s:ms)","GENERIC","93.78999999999999","0.056806650787116886","1583"
"21:33:9:473 (H:m:s:ms)","AMBULANCE","62.44","0.05938956177015914","1197"
"21:33:7:878 (H:m:s:ms)","GENERIC","124.325","0.037865939172883445","1657"
"21:21:46:329 (H:m:s:ms)","OPERA","62.358000000000004","0.04190697727688375","1262"
"21:33:1:818 (H:m:s:ms)","GENERIC","93.84","0.029194513214851715","907"
"21:21:49:90 (H:m:s:ms)","GENERIC","124.21000000000001","0.034894190548442686","1638"
"21:32:55:757 (H:m:s:ms)","GENERIC","125.311","0.03717050560221455","898"
"21:21:53:924 (H:m:s:ms)","OPERA","62.429","0.04785538961518157","1657"
"21:21:55:151 (H:m:s:ms)","GENERIC","62.123","0.05677090539637875","1208"
"21:22:1:212 (H:m:s:ms)","GENERIC","93.401","0.03336223379138551","1321"
"21:22:1:518 (H:m:s:ms)","OPERA","93.337","0.049693308430641146","1671"
"21:22:7:272 (H:m:s:ms)","GENERIC","93.485","0.04316317166023619","1314"
"21:22:9:113 (H:m:s:ms)","OPERA","93.372","0.05667140465296298","1544"
"21:22:13:333 (H:m:s:ms)","GENERIC","93.648","0.06450312420642497","1197"
"21:22:16:708 (H:m:s:ms)","OPERA","93.437","0.0577832511067306","864"
"21:33:38:181 (H:m:s:ms)","GENERIC","93.83099999999999","0.03215129527227207","1438"
"21:34:44:210 (H:m:s:ms)","AMBULANCE","62.399","0.03986953446429549","1426"
"21:34:38:787 (H:m:s:ms)","GENERIC","93.394","0.051157773149215","585"
"21:34:32:727 (H:m:s:ms)","GENERIC","93.774","0.05111840225545538","928"
"21:34:26:666 (H:m:s:ms)","GENERIC","124.297","0.042479855900964814","788"
"21:34:20:606 (H:m:s:ms)","GENERIC","124.906","0.048226147771898105","829"
"21:34:14:545 (H:m:s:ms)","GENERIC","93.244","0.05099383583577816","1109"
"21:34:12:631 (H:m:s:ms)","AMBULANCE","62.427","0.05274708949470718","995"
"21:34:8:484 (H:m:s:ms)","GENERIC","93.57900000000001","0.029094824385865165","1279"
"21:22:19:393 (H:m:s:ms)","GENERIC","124.85900000000001","0.06260578603984636","1050"
"21:34:2:424 (H:m:s:ms)","GENERIC","93.804","0.029128778699868085","1119"
"21:22:24:303 (H:m:s:ms)","OPERA","62.392","0.07189326752037774","1413"
"21:33:56:363 (H:m:s:ms)","GENERIC","93.299","0.04921730719315694","1229"
"21:1:43:30 (H:m:s:ms)","GENERIC","93.466","0.0329895545070778","1598"
"21:22:25:454 (H:m:s:ms)","GENERIC","93.839","0.06399685270428367","641"
"21:33:50:303 (H:m:s:ms)","GENERIC","93.889","0.046155397185922695","881"
"21:1:49:90 (H:m:s:ms)","GENERIC","93.19","0.04487283427870889","1528"
"21:22:31:515 (H:m:s:ms)","GENERIC","93.567","0.059438832078624874","1607"
"21:1:55:151 (H:m:s:ms)","GENERIC","93.83","0.05295149126059022","1209"
"21:22:31:898 (H:m:s:ms)","OPERA","31.008","0.042771802432599496","689"
"21:2:1:212 (H:m:s:ms)","GENERIC","93.327","0.020806761580269485","1388"
"21:22:37:575 (H:m:s:ms)","GENERIC","125.436","0.05105404527802705","1014"
"21:2:6:315 (H:m:s:ms)","AMBULANCE","62.394","0.038841706393428696","1274"
"21:22:39:493 (H:m:s:ms)","OPERA","93.36699999999999","0.055829553774468195","1187"
"21:2:7:272 (H:m:s:ms)","GENERIC","124.777","0.05574212944049027","1360"
"21:22:43:636 (H:m:s:ms)","GENERIC","93.63","0.05104309188071218","900"
"21:2:13:333 (H:m:s:ms)","GENERIC","93.68","0.0290500242338263","1187"
"21:22:47:88 (H:m:s:ms)","OPERA","93.761","0.06284246586083672","1632"
"21:2:19:393 (H:m:s:ms)","GENERIC","93.422","0.061187222436466994","1031"
"21:22:49:696 (H:m:s:ms)","GENERIC","93.674","0.0710761545149109","918"
"21:2:25:454 (H:m:s:ms)","GENERIC","93.809","0.03123039853392899","635"
"21:2:31:515 (H:m:s:ms)","GENERIC","125.00800000000001","0.04376689496758414","1114"
"21:35:39:393 (H:m:s:ms)","GENERIC","93.247","0.048353207129032245","1371"
"21:35:33:333 (H:m:s:ms)","GENERIC","62.428","0.032715294390554844","1395"
"21:35:27:272 (H:m:s:ms)","GENERIC","93.267","0.05133623499954258","1406"
"21:35:21:212 (H:m:s:ms)","GENERIC","93.689","0.038341629277550464","1213"
"21:35:15:789 (H:m:s:ms)","AMBULANCE","62.433","0.06102088049167265","1481"
"21:35:15:151 (H:m:s:ms)","GENERIC","124.26400000000001","0.0420985312320634","1387"
"21:35:9:90 (H:m:s:ms)","GENERIC","93.525","0.048511306689697734","1482"
"21:22:54:683 (H:m:s:ms)","OPERA","124.665","0.061974161360982556","982"
"21:35:3:30 (H:m:s:ms)","GENERIC","93.923","0.04459481967833245","1344"
"21:22:55:757 (H:m:s:ms)","GENERIC","125.322","0.03980883486416813","924"
"21:34:56:969 (H:m:s:ms)","GENERIC","93.148","0.03145315412747931","1491"
"21:2:37:575 (H:m:s:ms)","GENERIC","125.426","0.034098024601694324","1024"
"21:23:1:818 (H:m:s:ms)","GENERIC","93.827","0.025594896353609144","907"
"21:34:50:909 (H:m:s:ms)","GENERIC","93.74000000000001","0.029656044678998003","1509"
"21:2:37:894 (H:m:s:ms)","AMBULANCE","62.488","0.053285677090633435","1374"
"21:23:2:278 (H:m:s:ms)","OPERA","93.304","0.03608286637150919","1425"
"21:34:44:848 (H:m:s:ms)","GENERIC","93.515","0.05711804113660022","1410"
"21:2:43:636 (H:m:s:ms)","GENERIC","93.648","0.024672620454045256","959"
"21:23:7:878 (H:m:s:ms)","GENERIC","93.22","0.016466557575033663","1645"
"21:2:49:696 (H:m:s:ms)","GENERIC","125.21000000000001","0.05160901338260276","887"
"21:23:9:873 (H:m:s:ms)","OPERA","62.364000000000004","0.046538893379395964","717"
"21:2:55:757 (H:m:s:ms)","GENERIC","125.263","0.04763874308470273","918"
"21:23:13:939 (H:m:s:ms)","GENERIC","93.83500000000001","0.0469607053892582","1581"
"21:3:1:818 (H:m:s:ms)","GENERIC","93.855","0.03310112181250851","886"
"21:23:17:468 (H:m:s:ms)","OPERA","31.008","0.03954609538818028","1140"
"21:3:7:878 (H:m:s:ms)","GENERIC","93.202","0.03494679714335232","1631"
"21:23:20:0 (H:m:s:ms)","GENERIC","93.537","0.05273204791174368","1658"
"21:3:9:473 (H:m:s:ms)","AMBULANCE","62.388999999999996","0.06728101906281471","1119"
"21:23:25:63 (H:m:s:ms)","OPERA","124.759","0.04674170225596641","1655"
"21:3:13:939 (H:m:s:ms)","GENERIC","125.36699999999999","0.06435610236636514","1563"
"21:3:20:0 (H:m:s:ms)","GENERIC","93.488","0.05957817184737356","1663"
"21:36:33:939 (H:m:s:ms)","GENERIC","93.541","0.031091975702364754","1810"
"21:36:27:878 (H:m:s:ms)","GENERIC","93.269","0.041850055059618314","1805"
"21:36:21:818 (H:m:s:ms)","GENERIC","93.544","0.06875484740879005","798"
"21:36:18:947 (H:m:s:ms)","AMBULANCE","62.507999999999996","0.06434353573987059","1700"
"21:36:15:757 (H:m:s:ms)","GENERIC","93.357","0.03805633199358739","947"
"21:36:9:696 (H:m:s:ms)","GENERIC","93.141","0.03204073327235204","665"
"21:23:26:60 (H:m:s:ms)","GENERIC","93.237","0.03721553710854544","1570"
"21:36:3:636 (H:m:s:ms)","GENERIC","93.577","0.06201455847342051","666"
"21:23:32:121 (H:m:s:ms)","GENERIC","124.53","0.048760020966160125","1316"
"21:35:57:575 (H:m:s:ms)","GENERIC","93.291","0.021335764848601342","1093"
"21:3:26:60 (H:m:s:ms)","GENERIC","93.216","0.050269603253578266","1551"
"21:23:32:658 (H:m:s:ms)","OPERA","93.372","0.06529777579505375","1381"
"21:35:51:515 (H:m:s:ms)","GENERIC","93.127","0.05210170969032206","910"
"21:3:32:121 (H:m:s:ms)","GENERIC","93.327","0.03647697981157337","1301"
"21:23:38:181 (H:m:s:ms)","GENERIC","93.805","0.030260498826721986","1424"
"21:35:47:368 (H:m:s:ms)","AMBULANCE","62.462","0.06664199477695554","1171"
"21:3:38:181 (H:m:s:ms)","GENERIC","93.868","0.025182048146074238","1429"
"21:23:40:253 (H:m:s:ms)","OPERA","62.358000000000004","0.05242939760539094","1314"
"21:35:45:454 (H:m:s:ms)","GENERIC","93.641","0.057689088964620654","895"
"21:3:41:52 (H:m:s:ms)","AMBULANCE","62.355000000000004","0.03876750937439997","1619"
"21:23:44:242 (H:m:s:ms)","GENERIC","125.064","0.06672540176042763","1251"
"21:3:44:242 (H:m:s:ms)","GENERIC","93.57300000000001","0.04081249437513504","1253"
"21:23:47:848 (H:m:s:ms)","OPERA","93.722","0.055776551092508696","884"
"21:3:50:303 (H:m:s:ms)","GENERIC","93.887","0.03764421586163537","864"
"21:23:50:303 (H:m:s:ms)","GENERIC","93.899","0.04455070472026499","871"
"21:3:56:363 (H:m:s:ms)","GENERIC","93.288","0.029026204111027996","1190"
"21:23:55:443 (H:m:s:ms)","OPERA","124.68299999999999","0.04956326483292237","1121"
"21:4:2:424 (H:m:s:ms)","GENERIC","93.877","0.011810423416975201","1078"
"21:23:56:363 (H:m:s:ms)","GENERIC","124.467","0.0429466315474205","1233"
"21:4:8:484 (H:m:s:ms)","GENERIC","93.35300000000001","0.04447206515745674","1015"
"21:4:12:631 (H:m:s:ms)","AMBULANCE","62.426","0.06587363164278667","939"
"21:37:28:484 (H:m:s:ms)","GENERIC","93.64699999999999","0.05109446665151998","988"
"21:37:22:424 (H:m:s:ms)","GENERIC","93.2","0.04786410924732062","1834"
"21:37:22:105 (H:m:s:ms)","AMBULANCE","62.492999999999995","0.022944917439705993","1554"
"21:37:16:363 (H:m:s:ms)","GENERIC","93.22","0.03440274221081362","1287"
"21:37:10:303 (H:m:s:ms)","GENERIC","93.61099999999999","0.039507539557784715","1422"
"21:37:4:242 (H:m:s:ms)","GENERIC","62.123","0.04109569339698616","817"
"21:24:2:424 (H:m:s:ms)","GENERIC","93.84899999999999","0.0209523664843253","1124"
"21:24:3:37 (H:m:s:ms)","OPERA","62.432","0.029746938895069436","1683"
"21:36:58:181 (H:m:s:ms)","GENERIC","124.63900000000001","0.033610708045702826","1543"
"21:4:14:545 (H:m:s:ms)","GENERIC","93.208","0.06505255347867318","1027"
"21:24:8:484 (H:m:s:ms)","GENERIC","93.33800000000001","0.040174604934683195","1059"
"21:36:52:121 (H:m:s:ms)","GENERIC","93.233","0.05480277604084841","1356"
"21:4:20:606 (H:m:s:ms)","GENERIC","93.546","0.029671831340937385","816"
"21:24:10:632 (H:m:s:ms)","OPERA","93.363","0.042140634132990934","1007"
"21:36:50:526 (H:m:s:ms)","AMBULANCE","62.503","0.06427494698207896","809"
"21:4:26:666 (H:m:s:ms)","GENERIC","93.144","0.029392902115733244","758"
"21:24:14:545 (H:m:s:ms)","GENERIC","93.225","0.045684957466855775","1127"
"21:36:46:60 (H:m:s:ms)","GENERIC","93.593","0.0434508833093059","1714"
"21:4:32:727 (H:m:s:ms)","GENERIC","93.788","0.05171336698099587","878"
"21:24:18:227 (H:m:s:ms)","OPERA","93.36500000000001","0.04471544085615194","1501"
"21:36:40:0 (H:m:s:ms)","GENERIC","62.123","0.04119306781840742","1277"
"21:4:38:787 (H:m:s:ms)","GENERIC","93.369","0.035405435498266226","581"
"21:24:20:606 (H:m:s:ms)","GENERIC","93.46600000000001","0.028802759395882938","894"
"21:4:44:210 (H:m:s:ms)","AMBULANCE","31.031","0.056974460156836514","1898"
"21:24:25:822 (H:m:s:ms)","OPERA","93.399","0.039420661899685155","893"
"21:4:44:848 (H:m:s:ms)","GENERIC","93.456","0.036870201497502184","734"
"21:24:26:666 (H:m:s:ms)","GENERIC","93.217","0.04468600560494722","795"
"21:4:50:909 (H:m:s:ms)","GENERIC","93.759","0.0284700072100678","1462"
"21:24:32:727 (H:m:s:ms)","GENERIC","93.801","0.04142914554018508","946"
"21:4:56:969 (H:m:s:ms)","GENERIC","93.164","0.039693623365848446","1484"
"21:5:3:30 (H:m:s:ms)","GENERIC","93.895","0.04473003322800445","1319"
"21:38:25:263 (H:m:s:ms)","AMBULANCE","62.46","0.05876908860995427","1355"
"21:38:23:30 (H:m:s:ms)","GENERIC","62.057","0.02786456137458406","1604"
"21:38:16:969 (H:m:s:ms)","GENERIC","93.664","0.04575188426361984","1714"
"21:38:10:909 (H:m:s:ms)","GENERIC","93.568","0.05039734180816738","1688"
"21:38:4:848 (H:m:s:ms)","GENERIC","93.273","0.04106512532020921","786"
"21:37:58:787 (H:m:s:ms)","GENERIC","93.31400000000001","0.0715811181812539","923"
"21:37:53:684 (H:m:s:ms)","AMBULANCE","62.429","0.05220630232219084","1010"
"21:24:33:417 (H:m:s:ms)","OPERA","62.358000000000004","0.04660995257992415","1310"
"21:24:38:787 (H:m:s:ms)","GENERIC","124.636","0.057392264616219754","588"
"21:5:9:90 (H:m:s:ms)","GENERIC","124.902","0.03862350149570707","1440"
"21:24:41:12 (H:m:s:ms)","OPERA","62.357","0.0661515332636196","1611"
"21:5:15:151 (H:m:s:ms)","GENERIC","93.207","0.03256809696276747","1382"
"21:24:44:848 (H:m:s:ms)","GENERIC","93.475","0.06173079198802625","755"
"21:37:52:727 (H:m:s:ms)","GENERIC","124.27199999999999","0.040885500437769715","696"
"20:45:39:393 (H:m:s:ms)","GENERIC","93.243","0.04538881452810486","1347"
"21:5:15:789 (H:m:s:ms)","AMBULANCE","62.388","0.04361295119610324","1336"
"21:24:48:607 (H:m:s:ms)","OPERA","62.344","0.0638421983076623","1010"
"21:37:46:666 (H:m:s:ms)","GENERIC","62.015","0.02572041393597142","971"
"20:45:41:772 (H:m:s:ms)","OPERA","62.368","0.04994323130064478","917"
"21:5:21:212 (H:m:s:ms)","GENERIC","93.815","0.03767201944831064","1174"
"21:24:50:909 (H:m:s:ms)","GENERIC","93.72999999999999","0.05709218852817362","1497"
"21:37:40:606 (H:m:s:ms)","GENERIC","62.145","0.02266656757806324","683"
"20:45:45:454 (H:m:s:ms)","GENERIC","62.097","0.05364958605283441","940"
"21:5:27:272 (H:m:s:ms)","GENERIC","124.599","0.05136188667926155","1341"
"21:24:56:202 (H:m:s:ms)","OPERA","124.75999999999999","0.04874671327793345","1449"
"21:37:34:545 (H:m:s:ms)","GENERIC","93.174","0.023907519618287576","1209"
"20:45:49:367 (H:m:s:ms)","OPERA","62.357","0.05855993969613044","1370"
"21:5:33:333 (H:m:s:ms)","GENERIC","93.282","0.04422778947922368","1117"
"21:24:56:969 (H:m:s:ms)","GENERIC","62.125","0.04014505056290027","2147"
"20:45:51:515 (H:m:s:ms)","GENERIC","93.132","0.051470395618811775","854"
"21:5:39:393 (H:m:s:ms)","GENERIC","124.36699999999999","0.04147118339167864","1315"
"21:25:3:30 (H:m:s:ms)","GENERIC","93.878","0.05097982723316321","1344"
"20:45:56:962 (H:m:s:ms)","OPERA","62.361000000000004","0.035035112342410205","1743"
"21:5:45:454 (H:m:s:ms)","GENERIC","125.08","0.05497390449627418","915"
"21:25:9:90 (H:m:s:ms)","GENERIC","93.50399999999999","0.027416884941391134","1527"
"20:45:57:575 (H:m:s:ms)","GENERIC","124.44200000000001","0.056765527934571944","1752"
"21:5:47:368 (H:m:s:ms)","AMBULANCE","62.411","0.06407475285578215","1163"
"20:46:3:636 (H:m:s:ms)","GENERIC","93.564","0.051858722293497","635"
"21:5:51:515 (H:m:s:ms)","GENERIC","93.142","0.05646910862449385","908"
"20:46:4:556 (H:m:s:ms)","OPERA","62.370000000000005","0.05927120550793122","1150"
"20:46:9:696 (H:m:s:ms)","GENERIC","93.155","0.04505381010415556","665"
"21:39:23:636 (H:m:s:ms)","GENERIC","125.178","0.04532143344680157","927"
"21:39:17:575 (H:m:s:ms)","GENERIC","93.875","0.043693367165976896","731"
"21:39:11:515 (H:m:s:ms)","GENERIC","124.309","0.028375764611212946","1119"
"21:39:5:454 (H:m:s:ms)","GENERIC","93.624","0.028188917865029323","1154"
"21:38:59:393 (H:m:s:ms)","GENERIC","93.569","0.05753744417700495","1239"
"21:38:56:842 (H:m:s:ms)","AMBULANCE","62.477","0.04315840288342819","816"
"21:38:53:333 (H:m:s:ms)","GENERIC","125.521","0.03512940852933155","1321"
"21:38:47:272 (H:m:s:ms)","GENERIC","93.176","0.05410072358618236","1347"
"21:25:11:392 (H:m:s:ms)","OPERA","124.65299999999999","0.03339010639674773","1291"
"21:25:15:151 (H:m:s:ms)","GENERIC","124.29400000000001","0.05800852936433258","1379"
"21:5:57:575 (H:m:s:ms)","GENERIC","124.46199999999999","0.020085827854843263","1033"
"21:25:18:987 (H:m:s:ms)","OPERA","124.756","0.06770720446013206","1741"
"21:6:3:636 (H:m:s:ms)","GENERIC","93.549","0.05838784148952387","622"
"21:25:21:212 (H:m:s:ms)","GENERIC","93.736","0.06621268760947101","1196"
"20:46:12:151 (H:m:s:ms)","OPERA","62.357","0.04934934009860239","1551"
"21:6:9:696 (H:m:s:ms)","GENERIC","62.115","0.0412113449241321","630"
"21:25:26:582 (H:m:s:ms)","OPERA","93.682","0.06572785694054133","1029"
"20:46:15:757 (H:m:s:ms)","GENERIC","124.649","0.05072888638902953","934"
"21:6:15:757 (H:m:s:ms)","GENERIC","124.647","0.028694669817142946","890"
"21:25:27:272 (H:m:s:ms)","GENERIC","124.501","0.06663947433983775","1366"
"21:38:41:212 (H:m:s:ms)","GENERIC","93.351","0.04533640724150869","1344"
"20:46:19:746 (H:m:s:ms)","OPERA","93.689","0.047103528056420436","1025"
"21:6:18:947 (H:m:s:ms)","AMBULANCE","62.365","0.05084879185190312","1620"
"21:25:33:333 (H:m:s:ms)","GENERIC","93.588","0.030962553302599432","1447"
"21:38:35:151 (H:m:s:ms)","GENERIC","124.281","0.04173621696983301","1542"
"20:46:21:818 (H:m:s:ms)","GENERIC","125.143","0.04613679790582937","832"
"21:6:21:818 (H:m:s:ms)","GENERIC","93.581","0.05597901063831092","787"
"21:25:34:177 (H:m:s:ms)","OPERA","124.725","0.05447586871997791","1508"
"21:38:29:90 (H:m:s:ms)","GENERIC","62.081","0.055765754784631756","1269"
"20:46:27:341 (H:m:s:ms)","OPERA","62.43","0.02168893475253546","1378"
"21:6:27:878 (H:m:s:ms)","GENERIC","124.59100000000001","0.05276425287369384","1740"
"21:25:39:393 (H:m:s:ms)","GENERIC","93.19500000000001","0.07293568141906037","1381"
"20:46:27:878 (H:m:s:ms)","GENERIC","93.292","0.050136767466057705","2529"
"21:6:33:939 (H:m:s:ms)","GENERIC","124.83699999999999","0.05883705102944341","1786"
"21:25:41:772 (H:m:s:ms)","OPERA","62.393","0.07496435661428673","867"
"20:46:33:939 (H:m:s:ms)","GENERIC","93.489","0.044624223341248666","1822"
"21:6:40:0 (H:m:s:ms)","GENERIC","62.123","0.03530834384434922","1271"
"20:46:34:936 (H:m:s:ms)","OPERA","62.358000000000004","0.04983845562329684","1535"
"21:6:46:60 (H:m:s:ms)","GENERIC","125.095","0.04579931830926169","1632"
"20:46:40:0 (H:m:s:ms)","GENERIC","93.836","0.03169510049081896","1288"
"20:46:42:531 (H:m:s:ms)","OPERA","62.43","0.03899950343512913","1130"
"21:39:35:757 (H:m:s:ms)","GENERIC","93.49000000000001","0.04582549169971001","766"
"21:40:18:181 (H:m:s:ms)","GENERIC","125.16499999999999","0.04402369453455764","1292"
"21:40:12:121 (H:m:s:ms)","GENERIC","93.196","0.03385275992785825","1208"
"21:40:6:60 (H:m:s:ms)","GENERIC","93.215","0.025257296180778665","1693"
"21:40:0:0 (H:m:s:ms)","GENERIC","93.521","0.08522855941475906","3416"
"21:40:0:0 (H:m:s:ms)","GENERIC","124.561","0.05981394042224207","3001"
"21:39:53:939 (H:m:s:ms)","GENERIC","93.569","0.041919624949700994","1701"
"21:39:47:878 (H:m:s:ms)","GENERIC","93.443","0.062121089944878936","1635"
"21:39:41:818 (H:m:s:ms)","GENERIC","93.733","0.04941212685858315","736"
"21:6:50:526 (H:m:s:ms)","AMBULANCE","62.429","0.06726542870482771","1254"
"21:6:52:121 (H:m:s:ms)","GENERIC","93.161","0.06740589310367646","1341"
"20:46:46:60 (H:m:s:ms)","GENERIC","62.029","0.03131426019031844","1714"
"21:6:58:181 (H:m:s:ms)","GENERIC","124.669","0.04427107899629406","1537"
"20:46:50:126 (H:m:s:ms)","OPERA","62.335","0.05528688919999277","1444"
"21:7:4:242 (H:m:s:ms)","GENERIC","62.107","0.029673933100950206","814"
"20:46:52:121 (H:m:s:ms)","GENERIC","93.252","0.05929548484696271","1369"
"21:7:10:303 (H:m:s:ms)","GENERIC","93.562","0.05110156151869706","1348"
"20:46:57:721 (H:m:s:ms)","OPERA","62.434","0.05335916859375531","914"
"21:7:16:363 (H:m:s:ms)","GENERIC","93.229","0.03450689364363901","1209"
"21:39:29:696 (H:m:s:ms)","GENERIC","93.113","0.041149224427603014","655"
"20:46:58:181 (H:m:s:ms)","GENERIC","93.346","0.05426750238906473","1503"
"21:7:22:105 (H:m:s:ms)","AMBULANCE","62.370000000000005","0.039648016661783546","1476"
"21:39:28:421 (H:m:s:ms)","AMBULANCE","62.381","0.05362246099190429","1166"
"20:47:4:242 (H:m:s:ms)","GENERIC","62.117","0.041013119082601225","817"
"21:7:22:424 (H:m:s:ms)","GENERIC","124.36699999999999","0.05452346268801637","1743"
"20:47:5:316 (H:m:s:ms)","OPERA","62.358999999999995","0.04562065975724694","1428"
"21:7:28:484 (H:m:s:ms)","GENERIC","93.62","0.048895781986136866","866"
"20:47:10:303 (H:m:s:ms)","GENERIC","93.53","0.03746555960914562","1433"
"21:7:34:545 (H:m:s:ms)","GENERIC","124.314","0.03259948322622536","1149"
"20:47:12:911 (H:m:s:ms)","OPERA","93.818","0.044481721337395336","1747"
"20:47:16:363 (H:m:s:ms)","GENERIC","93.25999999999999","0.05538038771355929","1220"
"21:7:40:606 (H:m:s:ms)","GENERIC","62.137","0.03705601551396085","658"
"21:7:46:666 (H:m:s:ms)","GENERIC","93.423","0.03972103542442181","945"
"20:47:20:506 (H:m:s:ms)","OPERA","62.363","0.053890332691646455","1211"
"21:7:52:727 (H:m:s:ms)","GENERIC","124.22","0.03225793572603385","702"
"20:47:22:424 (H:m:s:ms)","GENERIC","124.28200000000001","0.05396166572270313","1178"
"21:7:53:684 (H:m:s:ms)","AMBULANCE","62.41","0.05315787277508889","896"
"20:47:28:101 (H:m:s:ms)","OPERA","62.369","0.045680826998301935","1538"
"21:7:58:787 (H:m:s:ms)","GENERIC","124.45400000000001","0.07303558950591506","845"
"20:47:28:484 (H:m:s:ms)","GENERIC","125.12700000000001","0.06516583290954298","1696"
"21:8:4:848 (H:m:s:ms)","GENERIC","93.292","0.03758272652794162","763"
"20:47:34:545 (H:m:s:ms)","GENERIC","124.31200000000001","0.025557595661133737","1229"
"21:8:10:909 (H:m:s:ms)","GENERIC","93.546","0.043943247678668036","1668"
"20:47:35:696 (H:m:s:ms)","OPERA","93.787","0.04364674269863323","994"
"21:8:16:969 (H:m:s:ms)","GENERIC","125.303","0.03293532144224704","1706"
"21:40:24:242 (H:m:s:ms)","GENERIC","93.343","0.052461311467914044","1421"
"20:47:40:606 (H:m:s:ms)","GENERIC","62.167","0.047831445804339116","681"
"21:8:23:30 (H:m:s:ms)","GENERIC","93.40299999999999","0.03334878548429007","1576"
"20:47:43:291 (H:m:s:ms)","OPERA","62.331","0.039811807388577605","1343"
"21:8:25:263 (H:m:s:ms)","AMBULANCE","62.425","0.044813531536901104","1299"
"20:47:46:666 (H:m:s:ms)","GENERIC","93.379","0.039018979216763165","953"
"20:47:50:886 (H:m:s:ms)","OPERA","62.357","0.03542810215726701","854"
"21:8:29:90 (H:m:s:ms)","GENERIC","93.881","0.05548708501774448","1191"
"21:8:35:151 (H:m:s:ms)","GENERIC","93.223","0.030625422639198593","1554"
"20:47:52:727 (H:m:s:ms)","GENERIC","93.13","0.040691841643280165","722"
"21:8:41:212 (H:m:s:ms)","GENERIC","93.42099999999999","0.043851499484735865","1348"
"20:47:58:481 (H:m:s:ms)","OPERA","62.373000000000005","0.03765062980834658","1090"
"21:8:47:272 (H:m:s:ms)","GENERIC","93.215","0.046074036036902744","1333"
"20:30:0:0 (H:m:s:ms)","GENERIC","93.326","0.05050091803467148","1710"
"20:47:58:787 (H:m:s:ms)","GENERIC","124.441","0.08953691901853028","1442"
"21:8:53:333 (H:m:s:ms)","GENERIC","93.809","0.04789492319889303","1377"
"20:30:0:0 (H:m:s:ms)","GENERIC","93.475","0.06601362448640459","2305"
"20:48:4:848 (H:m:s:ms)","GENERIC","124.494","0.045281909791007935","820"
"21:8:56:842 (H:m:s:ms)","AMBULANCE","62.402","0.06427594485923374","787"
"20:30:6:60 (H:m:s:ms)","GENERIC","93.184","0.04128681457007728","1551"
"20:48:6:75 (H:m:s:ms)","OPERA","93.71000000000001","0.0537891789568655","1626"
"21:8:59:393 (H:m:s:ms)","GENERIC","93.656","0.061530184182754535","1321"
"20:30:12:121 (H:m:s:ms)","GENERIC","124.174","0.04414047435727975","1136"
"20:48:10:909 (H:m:s:ms)","GENERIC","93.494","0.038135225982833844","1742"
"21:9:5:454 (H:m:s:ms)","GENERIC","62.029","0.039674602380793685","1174"
"20:30:18:181 (H:m:s:ms)","GENERIC","125.268","0.05312350788283068","1303"
"20:48:13:670 (H:m:s:ms)","OPERA","93.79","0.04415577228270851","975"
"21:9:11:515 (H:m:s:ms)","GENERIC","124.38300000000001","0.04779992151037638","1198"
"20:30:24:242 (H:m:s:ms)","GENERIC","124.634","0.022075463971697407","1415"
"20:48:16:969 (H:m:s:ms)","GENERIC","93.706","0.05355629230401213","1683"
"21:9:17:575 (H:m:s:ms)","GENERIC","62.105","0.03156095293238149","723"
"20:30:30:303 (H:m:s:ms)","GENERIC","124.511","0.04039280014395178","1338"
"20:48:21:265 (H:m:s:ms)","OPERA","62.369","0.05024832678752041","1384"
"20:30:36:363 (H:m:s:ms)","GENERIC","124.455","0.038510000977351334","1053"
"20:48:23:30 (H:m:s:ms)","GENERIC","93.411","0.04325366260737221","1600"
"20:30:42:424 (H:m:s:ms)","GENERIC","93.214","0.04797716690940759","1167"
"20:30:48:484 (H:m:s:ms)","GENERIC","93.517","0.05111437608488713","968"
"21:9:23:636 (H:m:s:ms)","GENERIC","93.72800000000001","0.034346097355703195","931"
"21:9:28:421 (H:m:s:ms)","AMBULANCE","62.384","0.0583110504923675","1164"
"20:48:28:860 (H:m:s:ms)","OPERA","93.68900000000001","0.03920661001088047","818"
"21:9:29:696 (H:m:s:ms)","GENERIC","93.145","0.060114485509193384","669"
"20:48:29:90 (H:m:s:ms)","GENERIC","93.807","0.03747311070590874","1265"
"21:9:35:757 (H:m:s:ms)","GENERIC","125.027","0.05323563826769149","910"
"20:30:54:545 (H:m:s:ms)","GENERIC","93.50200000000001","0.03278586485239665","739"
"20:48:35:151 (H:m:s:ms)","GENERIC","93.166","0.03508749251451089","1568"
"21:9:41:818 (H:m:s:ms)","GENERIC","93.834","0.05770930567473821","689"
"20:31:0:606 (H:m:s:ms)","GENERIC","124.432","0.04543581367559731","1023"
"20:48:36:455 (H:m:s:ms)","OPERA","62.433","0.04796849533593407","1121"
"21:9:47:878 (H:m:s:ms)","GENERIC","62.045","0.042664497579855444","1721"
"20:31:6:666 (H:m:s:ms)","GENERIC","93.385","0.041633694870090415","849"
"20:48:41:212 (H:m:s:ms)","GENERIC","93.458","0.06302107156334705","1358"
"21:9:53:939 (H:m:s:ms)","GENERIC","125.196","0.04816937869828362","1635"
"20:31:12:727 (H:m:s:ms)","GENERIC","93.74","0.035807414206932585","728"
"20:48:44:50 (H:m:s:ms)","OPERA","31.007","0.06298093675206715","1643"
"21:10:0:0 (H:m:s:ms)","AMBULANCE","62.388000000000005","0.045972253493875334","1663"
"20:31:18:787 (H:m:s:ms)","GENERIC","93.368","0.03153047473556022","933"
"20:48:47:272 (H:m:s:ms)","GENERIC","93.219","0.05476595566222461","1343"
"21:10:0:0 (H:m:s:ms)","GENERIC","124.549","0.06750691859803577","2366"
"20:31:24:848 (H:m:s:ms)","GENERIC","93.276","0.0315189055597726","857"
"20:48:51:645 (H:m:s:ms)","OPERA","62.334","0.06087875702648428","954"
"21:10:0:0 (H:m:s:ms)","GENERIC","125.05799999999999","0.07721687717558226","2784"
"20:31:30:909 (H:m:s:ms)","GENERIC","93.731","0.05122543383533836","1594"
"20:48:53:333 (H:m:s:ms)","GENERIC","125.453","0.06089571557325712","1399"
"20:31:36:969 (H:m:s:ms)","GENERIC","62.109","0.05424673569288139","1333"
"20:48:59:240 (H:m:s:ms)","OPERA","62.399","0.047715862025156916","2095"
"20:31:43:30 (H:m:s:ms)","GENERIC","93.543","0.02775221778520338","1551"
"20:31:49:90 (H:m:s:ms)","GENERIC","124.316","0.026379117811630128","1576"
"20:48:59:393 (H:m:s:ms)","GENERIC","93.674","0.04219164860843298","1301"
"20:49:5:454 (H:m:s:ms)","GENERIC","125.08","0.04694255068193926","1161"
"20:31:55:151 (H:m:s:ms)","GENERIC","93.797","0.037559756194875824","1190"
"20:49:6:835 (H:m:s:ms)","OPERA","62.36","0.055884648611048006","857"
"20:32:1:212 (H:m:s:ms)","GENERIC","93.404","0.02615847634719135","1314"
"20:49:11:515 (H:m:s:ms)","GENERIC","93.277","0.05169859111653214","1136"
"20:32:7:272 (H:m:s:ms)","GENERIC","93.487","0.02630973048688528","1301"
"20:49:14:430 (H:m:s:ms)","OPERA","93.754","0.04996373902570938","1190"
"20:32:13:333 (H:m:s:ms)","GENERIC","62.095","0.04105038230455289","1147"
"20:49:17:575 (H:m:s:ms)","GENERIC","93.876","0.054085618083408296","721"
"20:32:19:393 (H:m:s:ms)","GENERIC","93.399","0.05297981083377341","1012"
"20:49:22:25 (H:m:s:ms)","OPERA","62.392","0.06528344806149626","1677"
"20:32:25:454 (H:m:s:ms)","GENERIC","93.819","0.038841427612208275","637"
"20:49:23:636 (H:m:s:ms)","GENERIC","93.715","0.06611490268601687","909"
"20:32:31:515 (H:m:s:ms)","GENERIC","124.99600000000001","0.047612054549544404","1041"
"20:49:29:620 (H:m:s:ms)","OPERA","31.007","0.03086449672316555","1116"
"20:32:37:575 (H:m:s:ms)","GENERIC","125.42","0.03345004537747344","1031"
"20:49:29:696 (H:m:s:ms)","GENERIC","62.061","0.04064400631557615","1381"
"20:32:43:636 (H:m:s:ms)","GENERIC","125.201","0.023973313621409257","922"
"20:32:49:696 (H:m:s:ms)","GENERIC","125.292","0.04234674717330767","866"
"20:49:35:757 (H:m:s:ms)","GENERIC","93.549","0.021667766526305997","932"
"20:49:37:215 (H:m:s:ms)","OPERA","62.362","0.03832604355877731","1429"
"20:32:55:757 (H:m:s:ms)","GENERIC","125.19","0.07096256946574357","809"
"20:49:41:818 (H:m:s:ms)","GENERIC","93.837","0.054167411678991736","671"
"20:33:1:818 (H:m:s:ms)","GENERIC","93.81","0.0258402987924166","867"
"20:49:44:810 (H:m:s:ms)","OPERA","93.787","0.04821277104492379","851"
"20:33:7:878 (H:m:s:ms)","GENERIC","62.087","0.042214769879003196","1617"
"20:49:47:878 (H:m:s:ms)","GENERIC","93.53","0.04407078845269061","1668"
"20:33:13:939 (H:m:s:ms)","GENERIC","125.39699999999999","0.04014281734652951","1542"
"20:49:52:405 (H:m:s:ms)","OPERA","62.364999999999995","0.06820389496340784","1196"
"20:33:20:0 (H:m:s:ms)","GENERIC","124.84100000000001","0.054931059201194225","1534"
"20:49:53:939 (H:m:s:ms)","GENERIC","125.112","0.06403081510762619","1695"
"20:33:26:60 (H:m:s:ms)","GENERIC","93.28399999999999","0.05059610045032398","1541"
"20:50:0:0 (H:m:s:ms)","OPERA","93.751","0.05030755363977464","1622"
"20:33:32:121 (H:m:s:ms)","GENERIC","93.343","0.05524603026080013","1270"
"20:50:0:0 (H:m:s:ms)","GENERIC","124.55199999999999","0.06667391070554965","2232"
"20:33:38:181 (H:m:s:ms)","GENERIC","93.775","0.03657271464083728","1403"
"20:50:0:0 (H:m:s:ms)","GENERIC","62.069","0.0756294418431945","2617"
"20:33:44:242 (H:m:s:ms)","GENERIC","93.57900000000001","0.03285388417044608","1232"
"20:33:50:303 (H:m:s:ms)","GENERIC","93.875","0.04948427433982503","866"
"20:50:6:60 (H:m:s:ms)","GENERIC","62.061","0.053142017971413914","1684"
"20:50:12:121 (H:m:s:ms)","GENERIC","93.082","0.0391945273665113","1218"
"20:33:56:363 (H:m:s:ms)","GENERIC","124.481","0.035996076325495965","1209"
"20:50:18:181 (H:m:s:ms)","GENERIC","125.241","0.05878484082966734","1251"
"20:34:2:424 (H:m:s:ms)","GENERIC","62.109","0.030908508693099232","1075"
"20:50:24:242 (H:m:s:ms)","GENERIC","124.60900000000001","0.03157452949640106","1393"
"20:10:0:0 (H:m:s:ms)","GENERIC","93.49600000000001","0.052859283719885464","1687"
"20:34:8:484 (H:m:s:ms)","GENERIC","93.27199999999999","0.052743217496304666","1020"
"20:50:30:303 (H:m:s:ms)","GENERIC","124.515","0.03936339090139405","1334"
"20:10:0:0 (H:m:s:ms)","GENERIC","93.667","0.0630905485448889","2395"
"20:34:14:545 (H:m:s:ms)","GENERIC","93.269","0.030540254258827424","1094"
"20:50:36:363 (H:m:s:ms)","GENERIC","93.214","0.030213665867935672","1062"
"20:10:6:60 (H:m:s:ms)","GENERIC","124.257","0.04774489401548494","1742"
"20:34:20:606 (H:m:s:ms)","GENERIC","124.90700000000001","0.04613720755974896","807"
"20:50:42:424 (H:m:s:ms)","GENERIC","93.245","0.019584514368202247","1252"
"20:10:12:121 (H:m:s:ms)","GENERIC","93.12899999999999","0.031957302888805744","1249"
"20:34:26:666 (H:m:s:ms)","GENERIC","93.264","0.04440319168280726","769"
"20:50:48:484 (H:m:s:ms)","GENERIC","93.569","0.030462616692269375","1066"
"20:10:18:181 (H:m:s:ms)","GENERIC","125.243","0.06157013793262451","1284"
"20:34:32:727 (H:m:s:ms)","GENERIC","125.505","0.025750870610112338","897"
"20:50:54:545 (H:m:s:ms)","GENERIC","93.505","0.05008768060890449","763"
"20:10:24:242 (H:m:s:ms)","GENERIC","93.30199999999999","0.03330895276235949","1456"
"20:34:38:787 (H:m:s:ms)","GENERIC","93.381","0.028937799826575343","602"
"20:51:0:606 (H:m:s:ms)","GENERIC","93.176","0.04947936786559029","1043"
"20:10:30:303 (H:m:s:ms)","GENERIC","93.229","0.057880085495948225","1378"
"20:34:44:848 (H:m:s:ms)","GENERIC","93.41499999999999","0.031896193275727895","787"
"20:10:36:363 (H:m:s:ms)","GENERIC","124.527","0.052573434575361726","1074"
"20:34:50:909 (H:m:s:ms)","GENERIC","93.73","0.043662368777176996","1459"
"20:10:42:424 (H:m:s:ms)","GENERIC","93.135","0.03412971498371531","1283"
"20:10:48:484 (H:m:s:ms)","GENERIC","125.021","0.026190079040328808","1127"
"20:51:6:666 (H:m:s:ms)","GENERIC","124.773","0.016105712804497057","903"
"20:51:12:727 (H:m:s:ms)","GENERIC","125.479","0.048050664351343544","712"
"20:34:56:969 (H:m:s:ms)","GENERIC","93.211","0.043224493320267725","1511"
"20:51:18:787 (H:m:s:ms)","GENERIC","93.294","0.027215352307911438","912"
"20:35:3:30 (H:m:s:ms)","GENERIC","125.661","0.047433416417520025","1327"
"20:51:24:848 (H:m:s:ms)","GENERIC","124.452","0.03268893934620225","872"
"20:10:54:545 (H:m:s:ms)","GENERIC","93.474","0.020766251686119414","1270"
"20:35:9:90 (H:m:s:ms)","GENERIC","93.50200000000001","0.03776938068119309","1506"
"20:51:30:909 (H:m:s:ms)","GENERIC","125.37","0.056571462232087436","1587"
"20:11:0:606 (H:m:s:ms)","GENERIC","124.499","0.061486742360941087","1037"
"20:35:15:151 (H:m:s:ms)","GENERIC","124.25800000000001","0.05035895731127836","1410"
"20:51:36:969 (H:m:s:ms)","GENERIC","62.129","0.02228046837104941","1375"
"20:11:6:666 (H:m:s:ms)","GENERIC","93.41499999999999","0.0347092819726698","922"
"20:35:21:212 (H:m:s:ms)","GENERIC","93.742","0.037369091852793565","1164"
"20:51:43:30 (H:m:s:ms)","GENERIC","93.47200000000001","0.03177774124822351","1558"
"20:11:12:727 (H:m:s:ms)","GENERIC","125.47800000000001","0.04922255154703852","750"
"20:35:27:272 (H:m:s:ms)","GENERIC","93.387","0.054102590520263956","1409"
"20:51:49:90 (H:m:s:ms)","GENERIC","93.24799999999999","0.04568291776969813","1535"
"20:11:18:787 (H:m:s:ms)","GENERIC","93.37899999999999","0.03197067631409124","939"
"20:35:33:333 (H:m:s:ms)","GENERIC","93.154","0.031512661164998255","1148"
"20:51:55:151 (H:m:s:ms)","GENERIC","93.777","0.03454543819479684","1194"
"20:11:24:848 (H:m:s:ms)","GENERIC","124.439","0.02892250490907671","921"
"20:35:39:393 (H:m:s:ms)","GENERIC","93.205","0.04214111239499934","1357"
"20:52:1:212 (H:m:s:ms)","GENERIC","93.4","0.020727899511441793","1356"
"20:11:30:909 (H:m:s:ms)","GENERIC","125.315","0.02768685027399042","1664"
"20:35:45:454 (H:m:s:ms)","GENERIC","93.58500000000001","0.043171391121633707","992"
"20:11:36:969 (H:m:s:ms)","GENERIC","93.855","0.031516768266996224","1356"
"20:35:51:515 (H:m:s:ms)","GENERIC","93.093","0.04827726684866417","933"
"20:11:43:30 (H:m:s:ms)","GENERIC","93.51","0.024720848017980142","1616"
"20:11:49:90 (H:m:s:ms)","GENERIC","93.158","0.03908038553633015","1628"
"20:0:54:545 (H:m:s:ms)","GENERIC","31.062","0.0361116057262739","579"
"20:1:0:606 (H:m:s:ms)","GENERIC","62.233000000000004","0.0512916889866011","1039"
"20:1:6:666 (H:m:s:ms)","GENERIC","62.331","0.0420187793613206","919"
"20:1:12:727 (H:m:s:ms)","GENERIC","62.715999999999994","0.05912019849808125","711"
"20:1:18:787 (H:m:s:ms)","GENERIC","62.37","0.03179325610300796","864"
"20:1:24:848 (H:m:s:ms)","GENERIC","93.355","0.024204833161995724","844"
"20:1:30:909 (H:m:s:ms)","GENERIC","94.34","0.03762769385986394","1621"
"20:1:36:969 (H:m:s:ms)","GENERIC","94.535","0.04511704431919705","1371"
"20:1:43:30 (H:m:s:ms)","GENERIC","93.912","0.03486311985741721","1541"
"20:1:49:90 (H:m:s:ms)","GENERIC","62.147000000000006","0.03412533482908774","1509"
"20:35:57:575 (H:m:s:ms)","GENERIC","93.22200000000001","0.04210986420450923","1060"
"20:36:3:636 (H:m:s:ms)","GENERIC","93.509","0.04327061460622261","683"
"20:11:55:151 (H:m:s:ms)","GENERIC","93.84","0.03689810744752994","1222"
"20:36:9:696 (H:m:s:ms)","GENERIC","62.101","0.0343756318077718","642"
"20:12:1:212 (H:m:s:ms)","GENERIC","124.65100000000001","0.02328149689264809","1371"
"20:36:15:757 (H:m:s:ms)","GENERIC","93.39699999999999","0.054788336538220926","936"
"20:12:7:272 (H:m:s:ms)","GENERIC","62.055","0.03600857951035983","1292"
"20:36:21:818 (H:m:s:ms)","GENERIC","62.107","0.02759197115879869","876"
"20:12:13:333 (H:m:s:ms)","GENERIC","93.75","0.042526869219148174","1192"
"20:36:27:878 (H:m:s:ms)","GENERIC","124.47399999999999","0.04312923818405691","1784"
"20:12:19:393 (H:m:s:ms)","GENERIC","93.439","0.06378619440184975","1035"
"20:36:33:939 (H:m:s:ms)","GENERIC","124.851","0.026540368139475145","1813"
"20:12:25:454 (H:m:s:ms)","GENERIC","93.855","0.04684559780089349","622"
"20:36:40:0 (H:m:s:ms)","GENERIC","93.83","0.04456573895638309","1286"
"20:12:31:515 (H:m:s:ms)","GENERIC","93.5","0.036643211073509756","1058"
"20:36:46:60 (H:m:s:ms)","GENERIC","125.074","0.02880183188574496","1668"
"20:12:37:575 (H:m:s:ms)","GENERIC","125.39099999999999","0.04142630383096901","1052"
"20:36:52:121 (H:m:s:ms)","GENERIC","124.386","0.027520852238254283","1327"
"20:12:43:636 (H:m:s:ms)","GENERIC","93.677","0.02851307844136783","1002"
"20:12:49:696 (H:m:s:ms)","GENERIC","93.608","0.04413069397484455","943"
"20:1:55:151 (H:m:s:ms)","GENERIC","62.733999999999995","0.0470039573973486","1189"
"20:2:1:212 (H:m:s:ms)","GENERIC","62.278999999999996","0.050184750245399694","1329"
"20:2:7:272 (H:m:s:ms)","GENERIC","62.444","0.03182310750673494","1260"
"20:2:13:333 (H:m:s:ms)","GENERIC","62.617000000000004","0.023109559752126942","1199"
"20:2:19:393 (H:m:s:ms)","GENERIC","62.448","0.05483738552338003","1015"
"20:2:25:454 (H:m:s:ms)","GENERIC","62.797","0.038714273783341774","635"
"20:2:31:515 (H:m:s:ms)","GENERIC","62.57","0.04492088297627143","1045"
"20:2:37:575 (H:m:s:ms)","GENERIC","94.318","0.04607971149359271","1020"
"20:2:43:636 (H:m:s:ms)","GENERIC","62.614000000000004","0.040969163327904914","876"
"20:2:49:696 (H:m:s:ms)","GENERIC","62.639","0.04274084714902168","887"
"20:36:58:181 (H:m:s:ms)","GENERIC","124.637","0.04829590396579344","1510"
"20:37:4:242 (H:m:s:ms)","GENERIC","62.129","0.029423619870291014","816"
"20:12:55:757 (H:m:s:ms)","GENERIC","93.676","0.04372943077931953","841"
"20:37:10:303 (H:m:s:ms)","GENERIC","93.541","0.02653397365671411","1426"
"20:13:1:818 (H:m:s:ms)","GENERIC","125.429","0.025803591642536552","889"
"20:37:16:363 (H:m:s:ms)","GENERIC","93.195","0.028105027366389066","1280"
"20:13:7:878 (H:m:s:ms)","GENERIC","124.377","0.054260763000658144","1618"
"20:37:22:424 (H:m:s:ms)","GENERIC","93.194","0.04591671074093857","1168"
"20:13:13:939 (H:m:s:ms)","GENERIC","62.067","0.017951243595960467","1585"
"20:37:28:484 (H:m:s:ms)","GENERIC","93.618","0.04138736887777087","946"
"20:13:20:0 (H:m:s:ms)","GENERIC","93.468","0.05142503552320162","1595"
"20:37:34:545 (H:m:s:ms)","GENERIC","93.166","0.02714515109941086","1226"
"20:13:26:60 (H:m:s:ms)","GENERIC","124.404","0.0482410263144753","1534"
"20:37:40:606 (H:m:s:ms)","GENERIC","62.187","0.03745497032201769","676"
"20:13:32:121 (H:m:s:ms)","GENERIC","93.32300000000001","0.051915549866057925","1298"
"20:37:46:666 (H:m:s:ms)","GENERIC","93.334","0.05286477918529006","972"
"20:13:38:181 (H:m:s:ms)","GENERIC","93.78","0.02746429450071591","1430"
"20:37:52:727 (H:m:s:ms)","GENERIC","93.126","0.03662278832451652","728"
"20:13:44:242 (H:m:s:ms)","GENERIC","62.532","0.05280678302246719","1266"
"20:13:50:303 (H:m:s:ms)","GENERIC","93.839","0.043884638004777585","860"
"20:2:55:757 (H:m:s:ms)","GENERIC","62.644999999999996","0.0513302562998133","812"
"20:3:1:818 (H:m:s:ms)","GENERIC","62.727999999999994","0.03969935684825449","858"
"20:3:7:878 (H:m:s:ms)","GENERIC","62.162","0.02703973035807171","618"
"20:3:13:939 (H:m:s:ms)","GENERIC","62.747","0.03403189883925667","1547"
"20:3:20:0 (H:m:s:ms)","GENERIC","62.446","0.04035996026558792","1599"
"20:3:26:60 (H:m:s:ms)","GENERIC","93.45400000000001","0.05010641257008358","1526"
"20:3:32:121 (H:m:s:ms)","GENERIC","31.061","0.029160592175990235","1309"
"20:3:38:181 (H:m:s:ms)","GENERIC","62.744","0.03381188300771465","1413"
"20:3:44:242 (H:m:s:ms)","GENERIC","62.515","0.043630431665955934","1651"
"20:3:50:303 (H:m:s:ms)","GENERIC","62.801","0.04450130551502252","864"
"20:37:58:787 (H:m:s:ms)","GENERIC","124.47200000000001","0.03604133012326619","943"
"20:38:4:848 (H:m:s:ms)","GENERIC","124.453","0.04267018170297493","823"
"20:13:56:363 (H:m:s:ms)","GENERIC","93.28","0.03676102041043252","1203"
"20:38:10:909 (H:m:s:ms)","GENERIC","124.977","0.04381165021112344","1763"
"20:14:2:424 (H:m:s:ms)","GENERIC","125.495","0.027218223513946527","1057"
"20:38:16:969 (H:m:s:ms)","GENERIC","93.721","0.034742944392513936","1733"
"20:14:8:484 (H:m:s:ms)","GENERIC","124.431","0.04683427602309844","1004"
"20:38:23:30 (H:m:s:ms)","GENERIC","93.408","0.04129717713109709","1587"
"20:14:14:545 (H:m:s:ms)","GENERIC","62.051","0.02607901232230886","1068"
"20:38:29:90 (H:m:s:ms)","GENERIC","93.895","0.043478354650389885","1261"
"20:14:20:606 (H:m:s:ms)","GENERIC","62.095","0.024532669073132847","860"
"20:38:35:151 (H:m:s:ms)","GENERIC","124.29499999999999","0.04270161364617032","1581"
"20:14:26:666 (H:m:s:ms)","GENERIC","93.186","0.033399170860156265","749"
"20:38:41:212 (H:m:s:ms)","GENERIC","93.428","0.05408835206003972","1338"
"20:14:32:727 (H:m:s:ms)","GENERIC","93.806","0.03944137341917123","863"
"20:38:47:272 (H:m:s:ms)","GENERIC","62.061","0.04396968652757616","1391"
"20:14:38:787 (H:m:s:ms)","GENERIC","93.328","0.036927427774474414","601"
"20:38:53:333 (H:m:s:ms)","GENERIC","93.803","0.05138012883690075","1406"
"20:14:44:848 (H:m:s:ms)","GENERIC","93.503","0.037116674185812555","733"
"20:14:50:909 (H:m:s:ms)","GENERIC","93.80499999999999","0.04381670823271027","1465"
"20:3:56:363 (H:m:s:ms)","GENERIC","93.416","0.0379154102873157","1199"
"20:4:2:424 (H:m:s:ms)","GENERIC","62.78","0.030410583553592194","1064"
"20:4:8:484 (H:m:s:ms)","GENERIC","62.226","0.05778510776836826","1018"
"20:4:14:545 (H:m:s:ms)","GENERIC","62.239999999999995","0.0370531259645579","1012"
"20:4:20:606 (H:m:s:ms)","GENERIC","93.87899999999999","0.045868230977696725","832"
"20:4:26:666 (H:m:s:ms)","GENERIC","62.244","0.03705015000972819","769"
"20:4:32:727 (H:m:s:ms)","GENERIC","62.755","0.02348954472676375","894"
"20:4:38:787 (H:m:s:ms)","GENERIC","62.363","0.046879335551148156","579"
"20:4:44:848 (H:m:s:ms)","GENERIC","62.457","0.051977614249931234","766"
"20:4:50:909 (H:m:s:ms)","GENERIC","62.672","0.05317071915044119","1425"
"20:38:59:393 (H:m:s:ms)","GENERIC","125.2","0.0620069269453879","1283"
"20:39:5:454 (H:m:s:ms)","GENERIC","93.562","0.04380059754350484","1190"
"20:14:56:969 (H:m:s:ms)","GENERIC","93.14099999999999","0.05788613332139384","1478"
"20:39:11:515 (H:m:s:ms)","GENERIC","124.33500000000001","0.04532928401453129","1264"
"20:15:3:30 (H:m:s:ms)","GENERIC","93.93100000000001","0.05992779006685081","1312"
"20:39:17:575 (H:m:s:ms)","GENERIC","93.82300000000001","0.04891898205140504","706"
"20:15:9:90 (H:m:s:ms)","GENERIC","93.465","0.029372945360628015","1479"
"20:39:23:636 (H:m:s:ms)","GENERIC","125.25","0.03302220907148482","1039"
"20:15:15:151 (H:m:s:ms)","GENERIC","93.211","0.04154600516376503","1411"
"20:39:29:696 (H:m:s:ms)","GENERIC","93.06099999999999","0.05789925489977183","687"
"20:15:21:212 (H:m:s:ms)","GENERIC","62.135","0.0470200420431702","1179"
"20:39:35:757 (H:m:s:ms)","GENERIC","93.565","0.042565235759081665","986"
"20:15:27:272 (H:m:s:ms)","GENERIC","93.316","0.05894588214560962","1351"
"20:39:41:818 (H:m:s:ms)","GENERIC","93.81200000000001","0.030046183329408685","815"
"20:15:33:333 (H:m:s:ms)","GENERIC","93.191","0.035238916032119566","1111"
"20:39:47:878 (H:m:s:ms)","GENERIC","124.924","0.02249201879485991","1714"
"20:15:39:393 (H:m:s:ms)","GENERIC","124.422","0.029757655905238864","1310"
"20:39:53:939 (H:m:s:ms)","GENERIC","93.555","0.028906675834204195","1717"
"20:15:45:454 (H:m:s:ms)","GENERIC","93.57300000000001","0.045827631599156475","958"
"20:15:51:515 (H:m:s:ms)","GENERIC","62.041","0.04115897137721176","870"
"20:4:56:969 (H:m:s:ms)","GENERIC","62.113","0.040294691310458514","1433"
"20:5:3:30 (H:m:s:ms)","GENERIC","62.846000000000004","0.038784131261279636","1329"
"20:5:9:90 (H:m:s:ms)","GENERIC","93.872","0.027934850134232837","1502"
"20:5:15:151 (H:m:s:ms)","GENERIC","62.137","0.04165017845778528","1446"
"20:5:21:212 (H:m:s:ms)","GENERIC","62.658","0.04439252328750396","1191"
"20:5:27:272 (H:m:s:ms)","GENERIC","62.314","0.0405665387571691","1381"
"20:5:33:333 (H:m:s:ms)","GENERIC","62.114000000000004","0.038525201244513425","1142"
"20:5:39:393 (H:m:s:ms)","GENERIC","62.208","0.05770162988358278","1332"
"20:5:45:454 (H:m:s:ms)","GENERIC","62.515","0.043066660025016995","991"
"20:5:51:515 (H:m:s:ms)","GENERIC","62.047","0.05122293046817678","898"
"20:15:57:575 (H:m:s:ms)","GENERIC","124.41","0.03343129453662351","1015"
"20:16:3:636 (H:m:s:ms)","GENERIC","62.429","0.030882680568143278","968"
"20:16:9:696 (H:m:s:ms)","GENERIC","93.15","0.02625257579663853","634"
"20:16:15:757 (H:m:s:ms)","GENERIC","124.62899999999999","0.05407642875416347","872"
"20:16:21:818 (H:m:s:ms)","GENERIC","125.084","0.04676109112400036","787"
"20:16:27:878 (H:m:s:ms)","GENERIC","62.047","0.016231087980799815","1754"
"20:16:33:939 (H:m:s:ms)","GENERIC","93.488","0.026846176150439098","1785"
"20:16:40:0 (H:m:s:ms)","GENERIC","93.858","0.03917531414631878","1239"
"20:16:46:60 (H:m:s:ms)","GENERIC","125.118","0.041300210205319314","1595"
"20:16:52:121 (H:m:s:ms)","GENERIC","93.184","0.03251605191031054","1333"
"20:5:57:575 (H:m:s:ms)","GENERIC","93.36","0.030311362843750803","1032"
"20:6:3:636 (H:m:s:ms)","GENERIC","62.449","0.02436108650849133","1108"
"20:6:9:696 (H:m:s:ms)","GENERIC","62.17","0.03489484481168334","639"
"20:6:15:757 (H:m:s:ms)","GENERIC","62.272999999999996","0.04844034865595147","920"
"20:6:21:818 (H:m:s:ms)","GENERIC","94.075","0.03962434976890448","862"
"20:6:27:878 (H:m:s:ms)","GENERIC","93.492","0.05547101818100696","724"
"20:6:33:939 (H:m:s:ms)","GENERIC","62.397999999999996","0.04011137821539918","1776"
"20:6:40:0 (H:m:s:ms)","GENERIC","62.823","0.04719008020337387","1242"
"20:6:46:60 (H:m:s:ms)","GENERIC","94.017","0.05524636865521725","1650"
"20:6:52:121 (H:m:s:ms)","GENERIC","62.17","0.03708142759678093","1328"
"20:16:58:181 (H:m:s:ms)","GENERIC","93.421","0.04554904840430637","1439"
"20:17:4:242 (H:m:s:ms)","GENERIC","62.171","0.04109569339698616","815"
"20:17:10:303 (H:m:s:ms)","GENERIC","93.525","0.02310302163550051","1385"
"20:17:16:363 (H:m:s:ms)","GENERIC","93.235","0.03675794365104192","1211"
"20:17:22:424 (H:m:s:ms)","GENERIC","93.19200000000001","0.03276778744601447","1151"
"20:17:28:484 (H:m:s:ms)","GENERIC","93.553","0.047609523804532206","915"
"20:17:34:545 (H:m:s:ms)","GENERIC","124.32","0.02689612678925863","1186"
"20:17:40:606 (H:m:s:ms)","GENERIC","62.147","0.03640859596423896","654"
"20:17:46:666 (H:m:s:ms)","GENERIC","93.399","0.045119489056305924","904"
"20:17:52:727 (H:m:s:ms)","GENERIC","93.136","0.02138595943509502","695"
"20:6:58:181 (H:m:s:ms)","GENERIC","93.618","0.0375781808944509","1474"
"20:7:4:242 (H:m:s:ms)","GENERIC","31.097","0.029829312224887886","823"
"20:7:10:303 (H:m:s:ms)","GENERIC","94.062","0.035372990052546224","1391"
"20:7:16:363 (H:m:s:ms)","GENERIC","62.243","0.04320114473793102","1235"
"20:7:22:424 (H:m:s:ms)","GENERIC","93.29599999999999","0.04190664534834273","1167"
"20:7:28:484 (H:m:s:ms)","GENERIC","62.569","0.037093399595298844","988"
"20:7:34:545 (H:m:s:ms)","GENERIC","62.149","0.047132823649164705","1211"
"20:7:40:606 (H:m:s:ms)","GENERIC","62.811","0.046613582260596524","673"
"20:7:46:666 (H:m:s:ms)","GENERIC","62.352000000000004","0.03142227045433482","955"
"20:7:52:727 (H:m:s:ms)","GENERIC","62.077","0.028894821506882377","704"
"20:17:58:787 (H:m:s:ms)","GENERIC","124.513","0.053296409609066585","855"
"20:18:4:848 (H:m:s:ms)","GENERIC","124.39","0.053287536419316314","785"
"20:18:10:909 (H:m:s:ms)","GENERIC","124.951","0.03660372544374048","1685"
"20:18:16:969 (H:m:s:ms)","GENERIC","125.295","0.02536112361981848","1728"
"20:18:23:30 (H:m:s:ms)","GENERIC","93.435","0.02288939762684113","1566"
"20:18:29:90 (H:m:s:ms)","GENERIC","62.131","0.04092180027337447","1215"
"20:18:35:151 (H:m:s:ms)","GENERIC","124.334","0.02259677153895307","1597"
"20:18:41:212 (H:m:s:ms)","GENERIC","93.417","0.05495567213914867","1354"
"20:18:47:272 (H:m:s:ms)","GENERIC","93.202","0.05446347660277992","1358"
"20:18:53:333 (H:m:s:ms)","GENERIC","93.827","0.02728647338233353","1338"
"20:7:58:787 (H:m:s:ms)","GENERIC","62.209","0.046117817612610836","898"
"20:8:4:848 (H:m:s:ms)","GENERIC","93.32600000000001","0.043656596820101486","775"
"20:8:10:909 (H:m:s:ms)","GENERIC","62.465999999999994","0.05085082469657021","1694"
"20:8:16:969 (H:m:s:ms)","GENERIC","62.622","0.04980980408568807","1724"
"20:8:23:30 (H:m:s:ms)","GENERIC","62.409000000000006","0.04732414019284218","1616"
"20:8:29:90 (H:m:s:ms)","GENERIC","62.815","0.038714273783341774","1224"
"20:8:35:151 (H:m:s:ms)","GENERIC","93.279","0.03464092675601406","1621"
"20:8:41:212 (H:m:s:ms)","GENERIC","93.82400000000001","0.058223692679232816","1461"
"20:8:47:272 (H:m:s:ms)","GENERIC","62.146","0.029013265013494584","1382"
"20:8:53:333 (H:m:s:ms)","GENERIC","94.46","0.03302572710946256","1358"
"20:18:59:393 (H:m:s:ms)","GENERIC","93.659","0.04955967493288563","1312"
"20:19:5:454 (H:m:s:ms)","GENERIC","93.611","0.03981827080442933","1164"
"20:19:11:515 (H:m:s:ms)","GENERIC","124.342","0.02289431212468128","1197"
"20:19:17:575 (H:m:s:ms)","GENERIC","93.858","0.033060337368332804","718"
"20:19:23:636 (H:m:s:ms)","GENERIC","125.257","0.03847197151943993","953"
"20:19:29:696 (H:m:s:ms)","GENERIC","93.066","0.0332585808527243","663"
"20:19:35:757 (H:m:s:ms)","GENERIC","93.537","0.049103179361727874","909"
"20:19:41:818 (H:m:s:ms)","GENERIC","125.394","0.05016606187235059","701"
"20:19:47:878 (H:m:s:ms)","GENERIC","93.463","0.031142815097323806","1727"
"20:19:53:939 (H:m:s:ms)","GENERIC","93.621","0.059962498687223545","1689"
"20:8:59:393 (H:m:s:ms)","GENERIC","62.531","0.04216794519332442","1349"
"20:9:5:454 (H:m:s:ms)","GENERIC","94.151","0.04380399977110032","1248"
"20:9:11:515 (H:m:s:ms)","GENERIC","62.14","0.028560105713604546","1216"
"20:9:17:575 (H:m:s:ms)","GENERIC","62.795","0.04226227426119287","756"
"20:9:23:636 (H:m:s:ms)","GENERIC","94.199","0.0280989140020869","984"
"20:9:29:696 (H:m:s:ms)","GENERIC","62.054","0.03719948131879531","637"
"20:9:35:757 (H:m:s:ms)","GENERIC","62.539","0.030589104329903475","922"
"20:9:41:818 (H:m:s:ms)","GENERIC","94.30199999999999","0.04509720602145275","791"
"20:9:47:878 (H:m:s:ms)","GENERIC","62.445","0.04582450705389308","670"
"20:9:53:939 (H:m:s:ms)","GENERIC","94.22","0.06078441888085709","1642"
"21:41:6:666 (H:m:s:ms)","GENERIC","124.691","0.03488325256437918","907"
"21:41:0:606 (H:m:s:ms)","GENERIC","62.097","0.04121670622973126","1025"
"21:40:54:545 (H:m:s:ms)","GENERIC","93.518","0.03852651018122467","710"
"21:40:48:484 (H:m:s:ms)","GENERIC","124.915","0.039669225549622385","1072"
"21:40:42:424 (H:m:s:ms)","GENERIC","93.159","0.05009631798270777","1187"
"21:40:36:363 (H:m:s:ms)","GENERIC","93.273","0.04718536664486703","1052"
"21:40:30:303 (H:m:s:ms)","GENERIC","93.34","0.020816582397849413","1347"
"21:41:24:848 (H:m:s:ms)","GENERIC","124.42699999999999","0.023065308679341773","855"
"21:41:18:787 (H:m:s:ms)","GENERIC","93.27","0.025228319154596574","912"
"21:41:12:727 (H:m:s:ms)","GENERIC","93.878","0.039499368467303814","730"
