"time (H:m:s:ms)","type","latency","utilisation","waiting"
"21:42:19:393 (H:m:s:ms)","GENERIC","124.481","0.0997618207603314","676"
"21:42:1:212 (H:m:s:ms)","GENERIC","93.48400000000001","0.04233839345676971","807"
"21:41:55:151 (H:m:s:ms)","GENERIC","93.267","0.06033400980133256","878"
"21:41:49:90 (H:m:s:ms)","GENERIC","93.436","0.028750515506797185","984"
"21:41:43:30 (H:m:s:ms)","GENERIC","93.28999999999999","0.03141092571848134","1003"
"21:41:36:969 (H:m:s:ms)","GENERIC","125.164","0.030610711423739015","1060"
"21:41:30:909 (H:m:s:ms)","GENERIC","125.045","0.04440225678684736","1130"
"21:41:24:848 (H:m:s:ms)","GENERIC","124.851","0.05584670623410831","197"
"21:41:18:787 (H:m:s:ms)","GENERIC","93.473","0.04555859721260251","234"
"21:42:13:333 (H:m:s:ms)","GENERIC","93.145","0.04218037087255602","697"
"21:42:7:272 (H:m:s:ms)","GENERIC","124.259","0.05886756736629646","765"
"21:43:26:60 (H:m:s:ms)","GENERIC","124.779","0.062060804278163365","962"
"21:43:20:0 (H:m:s:ms)","GENERIC","93.19","0.02603371029479203","1083"
"21:43:7:878 (H:m:s:ms)","GENERIC","93.64500000000001","0.06507617415487864","1144"
"20:0:0:0 (H:m:s:ms)","GENERIC","62.502","0.0635450679915544","1482"
"21:43:1:818 (H:m:s:ms)","GENERIC","125.161","0.036487512862648605","212"
"20:0:6:60 (H:m:s:ms)","GENERIC","93.193","0.028768070456788936","980"
"21:42:55:757 (H:m:s:ms)","GENERIC","93.198","0.03879999791217158","279"
"20:0:12:121 (H:m:s:ms)","GENERIC","93.312","0.04262946191896785","921"
"21:42:49:696 (H:m:s:ms)","GENERIC","124.209","0.05431170676473776","380"
"20:0:18:181 (H:m:s:ms)","GENERIC","62.287","0.04520889523118989","861"
"21:42:43:636 (H:m:s:ms)","GENERIC","124.227","0.042273985580741906","394"
"20:0:24:242 (H:m:s:ms)","GENERIC","62.135999999999996","0.05160704512634076","806"
"21:42:37:575 (H:m:s:ms)","GENERIC","93.213","0.0337771304145506","457"
"20:0:30:303 (H:m:s:ms)","GENERIC","93.378","0.03314135399670031","727"
"21:42:31:515 (H:m:s:ms)","GENERIC","93.312","0.04972271074377231","519"
"20:0:36:363 (H:m:s:ms)","GENERIC","62.206","0.0418019018705854","677"
"21:42:25:454 (H:m:s:ms)","GENERIC","93.298","0.043400751049975816","576"
"20:0:42:424 (H:m:s:ms)","GENERIC","94.075","0.03772766841703857","603"
"21:10:6:60 (H:m:s:ms)","GENERIC","93.166","0.03233197931573602","978"
"20:0:48:484 (H:m:s:ms)","GENERIC","93.91","0.06287526650362717","550"
"21:10:12:121 (H:m:s:ms)","GENERIC","124.39699999999999","0.02463656536945788","923"
"21:10:18:181 (H:m:s:ms)","GENERIC","93.292","0.060066977393717094","862"
"21:10:24:242 (H:m:s:ms)","GENERIC","124.301","0.06164252155896019","801"
"21:10:30:303 (H:m:s:ms)","GENERIC","93.298","0.04420987052179841","728"
"21:10:36:363 (H:m:s:ms)","GENERIC","93.391","0.038068872995642794","659"
"21:10:42:424 (H:m:s:ms)","GENERIC","125.129","0.05319895459098944","604"
"21:10:48:484 (H:m:s:ms)","GENERIC","93.489","0.04734978743515529","551"
"21:43:13:939 (H:m:s:ms)","GENERIC","124.50200000000001","0.06386241643041693","1091"
"21:10:54:545 (H:m:s:ms)","GENERIC","62.101","0.019994694512344414","500"
"21:11:0:606 (H:m:s:ms)","GENERIC","93.394","0.06725322237395816","427"
"21:25:39:393 (H:m:s:ms)","GENERIC","124.673","0.07949754692865468","677"
"21:44:32:727 (H:m:s:ms)","GENERIC","62.049","0.05578749768504759","316"
"21:44:26:666 (H:m:s:ms)","GENERIC","93.242","0.045462405791989735","371"
"21:44:20:606 (H:m:s:ms)","GENERIC","62.053","0.05028617085831703","428"
"21:44:14:545 (H:m:s:ms)","GENERIC","93.231","0.03202120427775809","487"
"21:44:8:484 (H:m:s:ms)","GENERIC","93.236","0.05002557952968125","545"
"21:44:2:424 (H:m:s:ms)","GENERIC","124.857","0.04797677856309584","617"
"21:43:56:363 (H:m:s:ms)","GENERIC","124.706","0.029391221606321946","684"
"21:43:50:303 (H:m:s:ms)","GENERIC","124.568","0.06098626954954816","727"
"21:43:44:242 (H:m:s:ms)","GENERIC","124.582","0.06008015852626486","782"
"21:43:38:181 (H:m:s:ms)","GENERIC","93.16799999999999","0.04224566435173596","851"
"21:11:6:666 (H:m:s:ms)","GENERIC","93.151","0.04991342429408026","361"
"21:43:32:121 (H:m:s:ms)","GENERIC","93.249","0.04471996584544545","912"
"21:11:12:727 (H:m:s:ms)","GENERIC","93.606","0.0507204281147927","310"
"21:11:18:787 (H:m:s:ms)","GENERIC","124.87899999999999","0.0419261916980331","237"
"21:11:24:848 (H:m:s:ms)","GENERIC","93.515","0.06428319170291949","189"
"21:11:30:909 (H:m:s:ms)","GENERIC","125.084","0.032788273695518365","1135"
"21:11:36:969 (H:m:s:ms)","GENERIC","125.1","0.031066005623488113","1062"
"21:11:43:30 (H:m:s:ms)","GENERIC","124.53200000000001","0.037926628572087964","1006"
"21:11:49:90 (H:m:s:ms)","GENERIC","124.798","0.029673228197058327","982"
"21:11:55:151 (H:m:s:ms)","GENERIC","93.273","0.06522028730021628","877"
"21:12:1:212 (H:m:s:ms)","GENERIC","93.456","0.05524367487992954","811"
"21:26:15:757 (H:m:s:ms)","GENERIC","124.494","0.0855865238182067","274"
"21:45:39:393 (H:m:s:ms)","GENERIC","93.287","0.043038806364256756","676"
"21:26:12:151 (H:m:s:ms)","OPERA","124.43","0.06942844500803555","885"
"21:45:33:333 (H:m:s:ms)","GENERIC","124.419","0.04076961022517769","702"
"21:45:27:272 (H:m:s:ms)","GENERIC","93.328","0.044233598689314015","749"
"21:45:21:212 (H:m:s:ms)","GENERIC","124.662","0.027412655160841758","810"
"21:26:4:556 (H:m:s:ms)","OPERA","62.013","0.06052769636099651","479"
"21:26:3:636 (H:m:s:ms)","GENERIC","93.312","0.03377587667674704","402"
"21:45:15:151 (H:m:s:ms)","GENERIC","93.593","0.025413606554653675","872"
"21:25:57:575 (H:m:s:ms)","GENERIC","93.576","0.06372341525616532","500"
"21:45:9:90 (H:m:s:ms)","GENERIC","124.451","0.06489554532179598","977"
"21:25:56:962 (H:m:s:ms)","OPERA","93.241","0.05116376793325127","1078"
"21:45:3:30 (H:m:s:ms)","GENERIC","124.656","0.0564897516368541","999"
"21:25:51:515 (H:m:s:ms)","GENERIC","93.294","0.05474672104011254","525"
"21:44:56:969 (H:m:s:ms)","GENERIC","93.202","0.05908742629459742","1053"
"21:25:49:367 (H:m:s:ms)","OPERA","93.24","0.053205732231170526","699"
"21:44:50:909 (H:m:s:ms)","GENERIC","124.44","0.04966247220436183","1133"
"21:12:7:272 (H:m:s:ms)","GENERIC","93.169","0.03763990754612682","773"
"21:25:45:454 (H:m:s:ms)","GENERIC","124.872","0.07927174602433487","584"
"21:44:44:848 (H:m:s:ms)","GENERIC","124.521","0.042393092680006364","191"
"21:12:13:333 (H:m:s:ms)","GENERIC","124.12","0.01784149527779298","700"
"21:25:41:772 (H:m:s:ms)","OPERA","93.231","0.09364150801245066","256"
"21:44:38:787 (H:m:s:ms)","GENERIC","125.115","0.06511587150073106","238"
"21:12:19:393 (H:m:s:ms)","GENERIC","124.441","0.05802281146544128","677"
"21:12:25:454 (H:m:s:ms)","GENERIC","124.61699999999999","0.0353832376798785","580"
"21:12:31:515 (H:m:s:ms)","GENERIC","124.548","0.05289032084430246","528"
"21:12:37:575 (H:m:s:ms)","GENERIC","93.26400000000001","0.028365066628283666","463"
"21:12:43:636 (H:m:s:ms)","GENERIC","124.217","0.037319284911034145","396"
"21:12:49:696 (H:m:s:ms)","GENERIC","93.222","0.05275572384953025","380"
"21:12:55:757 (H:m:s:ms)","GENERIC","124.307","0.04667787182580321","282"
"21:13:1:818 (H:m:s:ms)","GENERIC","125.151","0.07388641191485937","215"
"21:26:9:696 (H:m:s:ms)","GENERIC","93.265","0.06141252433518131","372"
"21:26:52:121 (H:m:s:ms)","GENERIC","93.44200000000001","0.07255314294056057","912"
"21:46:46:60 (H:m:s:ms)","GENERIC","124.643","0.03419510399802324","978"
"21:26:50:126 (H:m:s:ms)","OPERA","93.21","0.06630708620387293","909"
"21:46:40:0 (H:m:s:ms)","GENERIC","93.568","0.049770306606867445","1071"
"21:26:46:60 (H:m:s:ms)","GENERIC","93.288","0.06416799091376657","976"
"21:46:33:939 (H:m:s:ms)","GENERIC","93.346","0.04333609345327145","1082"
"21:46:27:878 (H:m:s:ms)","GENERIC","93.40100000000001","0.06189360242991223","1148"
"21:46:21:818 (H:m:s:ms)","GENERIC","93.255","0.030883673708261238","227"
"21:26:42:531 (H:m:s:ms)","OPERA","93.257","0.05164954811900605","506"
"21:26:40:0 (H:m:s:ms)","GENERIC","124.929","0.07097375698265004","1067"
"21:26:34:936 (H:m:s:ms)","OPERA","93.259","0.08050885968422943","1119"
"21:46:15:757 (H:m:s:ms)","GENERIC","124.51599999999999","0.026881714102819573","277"
"21:26:33:939 (H:m:s:ms)","GENERIC","93.336","0.0559486348509605","1083"
"21:46:9:696 (H:m:s:ms)","GENERIC","124.451","0.07144346622793324","376"
"21:26:27:878 (H:m:s:ms)","GENERIC","93.467","0.06338879767148531","1181"
"21:46:3:636 (H:m:s:ms)","GENERIC","93.285","0.04496909098685316","399"
"21:13:7:878 (H:m:s:ms)","GENERIC","125.138","0.060575053017327615","146"
"21:26:27:341 (H:m:s:ms)","OPERA","124.457","0.04272774565372503","693"
"21:45:57:575 (H:m:s:ms)","GENERIC","125.071","0.046227325029794326","459"
"21:13:13:939 (H:m:s:ms)","GENERIC","93.22500000000001","0.03657845381868623","1090"
"21:26:21:818 (H:m:s:ms)","GENERIC","124.32300000000001","0.03575549155342397","226"
"21:45:51:515 (H:m:s:ms)","GENERIC","124.634","0.03720965973302267","525"
"21:13:20:0 (H:m:s:ms)","GENERIC","93.16","0.0398392004312754","1081"
"21:26:19:746 (H:m:s:ms)","OPERA","93.259","0.06535182671555215","329"
"21:45:45:454 (H:m:s:ms)","GENERIC","124.85","0.0734281112245079","579"
"21:13:26:60 (H:m:s:ms)","GENERIC","93.471","0.05122986416647885","964"
"21:13:32:121 (H:m:s:ms)","GENERIC","93.18","0.037562104919485695","915"
"21:13:38:181 (H:m:s:ms)","GENERIC","124.138","0.05688946326222267","851"
"21:13:44:242 (H:m:s:ms)","GENERIC","124.604","0.06012571522678283","785"
"21:13:50:303 (H:m:s:ms)","GENERIC","124.592","0.056853504708626636","733"
"21:13:56:363 (H:m:s:ms)","GENERIC","93.359","0.03857172376134835","682"
"21:14:2:424 (H:m:s:ms)","GENERIC","124.862","0.05580242516122534","611"
"21:27:28:484 (H:m:s:ms)","GENERIC","93.202","0.09131991151398035","570"
"21:47:52:727 (H:m:s:ms)","GENERIC","93.37899999999999","0.026063003004034833","296"
"21:27:28:101 (H:m:s:ms)","OPERA","93.232","0.06834484879704968","929"
"21:47:46:666 (H:m:s:ms)","GENERIC","124.50999999999999","0.022705685776186212","371"
"21:27:22:424 (H:m:s:ms)","GENERIC","93.247","0.08924630970230453","612"
"21:47:40:606 (H:m:s:ms)","GENERIC","93.208","0.03636533471484841","439"
"21:27:20:506 (H:m:s:ms)","OPERA","93.227","0.0921045145193426","517"
"21:47:34:545 (H:m:s:ms)","GENERIC","93.691","0.032579572034781235","486"
"21:47:28:484 (H:m:s:ms)","GENERIC","124.49","0.06413612473424267","547"
"21:47:22:424 (H:m:s:ms)","GENERIC","124.376","0.02589043929565331","613"
"21:27:16:363 (H:m:s:ms)","GENERIC","93.216","0.06478947406889345","686"
"21:27:12:911 (H:m:s:ms)","OPERA","93.21799999999999","0.06067411436296752","1124"
"21:27:10:303 (H:m:s:ms)","GENERIC","62.293","0.06906910130299966","827"
"21:47:16:363 (H:m:s:ms)","GENERIC","124.253","0.05918166985038836","683"
"21:14:8:484 (H:m:s:ms)","GENERIC","93.2","0.04749354854411167","557"
"21:27:5:316 (H:m:s:ms)","OPERA","124.451","0.0774824103520332","715"
"21:47:10:303 (H:m:s:ms)","GENERIC","124.475","0.07208063348276798","735"
"21:14:14:545 (H:m:s:ms)","GENERIC","124.362","0.023040340928991487","492"
"21:27:4:242 (H:m:s:ms)","GENERIC","93.38","0.06031152500501799","792"
"21:47:4:242 (H:m:s:ms)","GENERIC","93.348","0.04511097519670067","793"
"20:52:7:272 (H:m:s:ms)","GENERIC","124.201","0.06502796764230884","771"
"21:14:20:606 (H:m:s:ms)","GENERIC","93.292","0.025267041065403898","433"
"21:26:58:181 (H:m:s:ms)","GENERIC","93.138","0.07156772558389947","850"
"21:46:58:181 (H:m:s:ms)","GENERIC","124.195","0.045718499798777026","847"
"20:52:13:333 (H:m:s:ms)","GENERIC","93.157","0.0559882098272333","699"
"21:14:26:666 (H:m:s:ms)","GENERIC","93.2","0.05923151658128001","371"
"21:26:57:721 (H:m:s:ms)","OPERA","62.011","0.08060125241637442","313"
"21:46:52:121 (H:m:s:ms)","GENERIC","124.715","0.0613925627778676","913"
"20:52:19:393 (H:m:s:ms)","GENERIC","124.35499999999999","0.06053732282579076","685"
"21:14:32:727 (H:m:s:ms)","GENERIC","124.58","0.05922937471961771","317"
"20:52:25:454 (H:m:s:ms)","GENERIC","93.336","0.05951266596559876","571"
"21:14:38:787 (H:m:s:ms)","GENERIC","125.07","0.024575633228233026","239"
"20:52:31:515 (H:m:s:ms)","GENERIC","124.65899999999999","0.062331283164250795","517"
"21:14:44:848 (H:m:s:ms)","GENERIC","124.494","0.0614597098301269","188"
"20:52:37:575 (H:m:s:ms)","GENERIC","93.265","0.06309298447650045","460"
"21:14:50:909 (H:m:s:ms)","GENERIC","93.19800000000001","0.058561682383492505","1134"
"20:52:43:636 (H:m:s:ms)","GENERIC","93.171","0.041470144692116864","400"
"21:14:56:969 (H:m:s:ms)","GENERIC","93.251","0.05858914345376107","1052"
"20:52:49:696 (H:m:s:ms)","GENERIC","124.24000000000001","0.06362276622691992","387"
"21:15:3:30 (H:m:s:ms)","GENERIC","124.623","0.057409958299547835","999"
"20:52:55:757 (H:m:s:ms)","GENERIC","93.17699999999999","0.051792768256606884","284"
"20:53:1:818 (H:m:s:ms)","GENERIC","93.63","0.05429242558313727","215"
"21:28:6:75 (H:m:s:ms)","OPERA","93.231","0.08069069534485074","953"
"21:48:59:393 (H:m:s:ms)","GENERIC","93.46000000000001","0.05485776757847405","676"
"21:28:4:848 (H:m:s:ms)","GENERIC","124.159","0.05650759630241259","187"
"21:48:53:333 (H:m:s:ms)","GENERIC","93.31","0.05353433120551454","689"
"21:27:58:787 (H:m:s:ms)","GENERIC","93.297","0.07495682541062224","280"
"21:48:47:272 (H:m:s:ms)","GENERIC","125.036","0.016300471084340906","748"
"21:27:58:481 (H:m:s:ms)","OPERA","93.212","0.05296345358386383","554"
"21:48:41:212 (H:m:s:ms)","GENERIC","125.024","0.0592783380212229","825"
"21:27:52:727 (H:m:s:ms)","GENERIC","93.40700000000001","0.06164192890173641","295"
"21:48:35:151 (H:m:s:ms)","GENERIC","93.215","0.0393202415382645","885"
"21:48:29:90 (H:m:s:ms)","GENERIC","93.22","0.05465028073247777","984"
"21:48:23:30 (H:m:s:ms)","GENERIC","124.74","0.06324953188504073","989"
"21:27:50:886 (H:m:s:ms)","OPERA","93.236","0.07541009187737077","144"
"21:15:9:90 (H:m:s:ms)","GENERIC","124.431","0.02590391482851345","981"
"21:27:46:666 (H:m:s:ms)","GENERIC","93.307","0.0877106186189065","360"
"21:15:15:151 (H:m:s:ms)","GENERIC","125.081","0.032598904176462974","873"
"21:27:43:291 (H:m:s:ms)","OPERA","124.452","0.08257998731853418","748"
"21:48:16:969 (H:m:s:ms)","GENERIC","93.141","0.04703041305661823","1056"
"20:53:7:878 (H:m:s:ms)","GENERIC","125.136","0.04374450215271079","1147"
"21:15:21:212 (H:m:s:ms)","GENERIC","93.323","0.03800085001607233","810"
"21:27:40:606 (H:m:s:ms)","GENERIC","93.233","0.09451174938841256","435"
"21:48:10:909 (H:m:s:ms)","GENERIC","93.461","0.05611688041389094","1121"
"20:53:13:939 (H:m:s:ms)","GENERIC","93.239","0.08657457589763273","1097"
"21:15:27:272 (H:m:s:ms)","GENERIC","93.571","0.03596810773903644","750"
"21:27:35:696 (H:m:s:ms)","OPERA","93.235","0.09975477352394652","334"
"21:48:4:848 (H:m:s:ms)","GENERIC","93.117","0.043586503666845876","188"
"20:53:20:0 (H:m:s:ms)","GENERIC","93.202","0.05748144260966073","1091"
"21:15:33:333 (H:m:s:ms)","GENERIC","124.352","0.029845479589766168","706"
"21:27:34:545 (H:m:s:ms)","GENERIC","93.67099999999999","0.05830051994422718","479"
"21:47:58:787 (H:m:s:ms)","GENERIC","124.43299999999999","0.039680685778009955","246"
"20:53:26:60 (H:m:s:ms)","GENERIC","93.46","0.045197622699770144","963"
"21:15:39:393 (H:m:s:ms)","GENERIC","93.378","0.05398885949816103","682"
"20:53:32:121 (H:m:s:ms)","GENERIC","93.15299999999999","0.03638709841553474","914"
"21:15:45:454 (H:m:s:ms)","GENERIC","93.5","0.02868058118236923","589"
"20:53:38:181 (H:m:s:ms)","GENERIC","93.078","0.05471420706432351","853"
"21:15:51:515 (H:m:s:ms)","GENERIC","124.685","0.06374199870629808","523"
"20:53:44:242 (H:m:s:ms)","GENERIC","124.583","0.060057186279558944","786"
"21:15:57:575 (H:m:s:ms)","GENERIC","93.589","0.029358231517702737","460"
"20:53:50:303 (H:m:s:ms)","GENERIC","124.517","0.06152356752560605","729"
"21:16:3:636 (H:m:s:ms)","GENERIC","124.599","0.03199282218662167","401"
"20:53:56:363 (H:m:s:ms)","GENERIC","124.69800000000001","0.05768207808591667","686"
"20:54:2:424 (H:m:s:ms)","GENERIC","124.83500000000001","0.05246769557022775","619"
"21:28:47:272 (H:m:s:ms)","GENERIC","93.565","0.030868866807192315","751"
"22:1:3:157 (H:m:s:ms)","AMBULANCE","62.295","0.055958579920424606","866"
"21:28:41:212 (H:m:s:ms)","GENERIC","125.054","0.08007968424717829","829"
"21:50:0:0 (H:m:s:ms)","GENERIC","93.358","0.04895581122901114","1080"
"21:28:36:455 (H:m:s:ms)","OPERA","93.256","0.0801182486932309","574"
"21:49:53:939 (H:m:s:ms)","GENERIC","124.512","0.04478062177673407","1099"
"21:28:35:151 (H:m:s:ms)","GENERIC","62.067","0.03767991237249487","887"
"21:49:47:878 (H:m:s:ms)","GENERIC","93.449","0.0544012395637866","1157"
"21:28:29:90 (H:m:s:ms)","GENERIC","93.265","0.04320665431460515","977"
"21:49:41:818 (H:m:s:ms)","GENERIC","62.313","0.03254408208489744","226"
"21:28:28:860 (H:m:s:ms)","OPERA","93.21","0.08452222606146163","179"
"21:49:35:757 (H:m:s:ms)","GENERIC","93.135","0.03472175682608614","274"
"21:49:29:696 (H:m:s:ms)","GENERIC","124.512","0.028947460912257163","384"
"21:49:23:636 (H:m:s:ms)","GENERIC","93.2","0.04200123332194629","399"
"21:16:9:696 (H:m:s:ms)","GENERIC","93.25200000000001","0.051851175914088284","375"
"21:16:15:757 (H:m:s:ms)","GENERIC","124.56299999999999","0.06515120531222651","277"
"21:28:23:30 (H:m:s:ms)","GENERIC","124.732","0.08487600085416028","990"
"20:54:8:484 (H:m:s:ms)","GENERIC","124.25999999999999","0.04582945123952401","556"
"21:16:21:818 (H:m:s:ms)","GENERIC","93.223","0.03872540482555938","226"
"21:28:21:265 (H:m:s:ms)","OPERA","93.231","0.053215531894222436","768"
"20:54:14:545 (H:m:s:ms)","GENERIC","124.33500000000001","0.06397077819935962","488"
"21:16:27:878 (H:m:s:ms)","GENERIC","124.702","0.03561320220887131","1150"
"21:28:16:969 (H:m:s:ms)","GENERIC","93.10900000000001","0.08174729933363921","1055"
"21:49:17:575 (H:m:s:ms)","GENERIC","124.428","0.022932377619924157","471"
"20:54:20:606 (H:m:s:ms)","GENERIC","124.562","0.03508186845391089","431"
"21:16:33:939 (H:m:s:ms)","GENERIC","93.365","0.0406074998801937","1082"
"21:28:13:670 (H:m:s:ms)","OPERA","93.231","0.08659719842958888","357"
"21:49:11:515 (H:m:s:ms)","GENERIC","124.291","0.0269585717556739","528"
"20:54:26:666 (H:m:s:ms)","GENERIC","93.229","0.05871296637961168","378"
"21:16:40:0 (H:m:s:ms)","GENERIC","93.544","0.04191648500574899","1070"
"21:28:10:909 (H:m:s:ms)","GENERIC","93.531","0.07657060751931517","1121"
"21:49:5:454 (H:m:s:ms)","GENERIC","125.03999999999999","0.019444242305296098","574"
"20:54:32:727 (H:m:s:ms)","GENERIC","93.363","0.07154533548401125","321"
"21:16:46:60 (H:m:s:ms)","GENERIC","124.643","0.039109079644725625","978"
"20:54:38:787 (H:m:s:ms)","GENERIC","125.061","0.05682037455796274","241"
"21:16:52:121 (H:m:s:ms)","GENERIC","124.763","0.03947636236749941","913"
"20:54:44:848 (H:m:s:ms)","GENERIC","124.503","0.04593133736860458","192"
"21:16:58:181 (H:m:s:ms)","GENERIC","93.126","0.027914396937162193","851"
"20:54:50:909 (H:m:s:ms)","GENERIC","93.235","0.04423044564758402","1134"
"21:17:4:242 (H:m:s:ms)","GENERIC","124.66900000000001","0.04008163811090342","795"
"20:54:56:969 (H:m:s:ms)","GENERIC","124.435","0.03166592667962203","1055"
"20:55:3:30 (H:m:s:ms)","GENERIC","124.604","0.041259620548168376","1002"
"21:29:23:636 (H:m:s:ms)","GENERIC","93.214","0.07534885706925258","400"
"21:29:22:25 (H:m:s:ms)","OPERA","93.213","0.07001929188175945","1007"
"21:29:17:575 (H:m:s:ms)","GENERIC","124.37299999999999","0.08472775753210687","470"
"21:29:14:430 (H:m:s:ms)","OPERA","124.43","0.08353735980909997","600"
"21:29:11:515 (H:m:s:ms)","GENERIC","124.279","0.07751114450623721","528"
"21:29:6:835 (H:m:s:ms)","OPERA","93.235","0.0718343608276584","197"
"21:29:5:454 (H:m:s:ms)","GENERIC","93.601","0.042185914192914675","573"
"21:17:10:303 (H:m:s:ms)","GENERIC","93.37299999999999","0.053522482144399475","946"
"21:17:16:363 (H:m:s:ms)","GENERIC","124.30099999999999","0.033823503495294796","689"
"20:55:9:90 (H:m:s:ms)","GENERIC","93.264","0.03871891372236078","989"
"21:17:22:424 (H:m:s:ms)","GENERIC","124.418","0.023946329458918024","615"
"20:55:15:151 (H:m:s:ms)","GENERIC","125.124","0.02627868725264532","874"
"21:17:28:484 (H:m:s:ms)","GENERIC","124.424","0.07181231736522432","552"
"21:28:59:393 (H:m:s:ms)","GENERIC","124.773","0.07097284771173765","713"
"20:55:21:212 (H:m:s:ms)","GENERIC","124.571","0.036610246577096904","867"
"21:17:34:545 (H:m:s:ms)","GENERIC","93.621","0.05355210810459013","486"
"21:28:59:240 (H:m:s:ms)","OPERA","93.232","0.039349415748993526","828"
"20:55:27:272 (H:m:s:ms)","GENERIC","93.17","0.052065157524905196","765"
"21:17:40:606 (H:m:s:ms)","GENERIC","124.38","0.053498012347762254","440"
"21:28:53:333 (H:m:s:ms)","GENERIC","124.63","0.07050849065991423","686"
"22:8:56:842 (H:m:s:ms)","AMBULANCE","62.324","0.05626677445740477","192"
"20:55:33:333 (H:m:s:ms)","GENERIC","124.393","0.07355482903855719","707"
"21:17:46:666 (H:m:s:ms)","GENERIC","93.298","0.033993208255310575","369"
"21:28:51:645 (H:m:s:ms)","OPERA","62.011","0.050724122778648496","389"
"22:4:44:210 (H:m:s:ms)","AMBULANCE","93.55799999999999","0.05568618589432225","815"
"20:55:39:393 (H:m:s:ms)","GENERIC","124.69200000000001","0.043745034928545146","683"
"21:17:52:727 (H:m:s:ms)","GENERIC","93.354","0.054603613821699315","296"
"20:55:45:454 (H:m:s:ms)","GENERIC","124.842","0.0642090705522003","590"
"21:17:58:787 (H:m:s:ms)","GENERIC","124.55699999999999","0.04879150000662745","243"
"20:55:51:515 (H:m:s:ms)","GENERIC","124.674","0.047449334302835273","527"
"21:18:4:848 (H:m:s:ms)","GENERIC","93.118","0.045290304273479305","192"
"20:55:57:575 (H:m:s:ms)","GENERIC","93.634","0.026160388238763422","461"
"20:56:3:636 (H:m:s:ms)","GENERIC","93.323","0.05119614365545169","399"
"21:30:0:0 (H:m:s:ms)","OPERA","93.214","0.07258396176665459","1106"
"21:30:0:0 (H:m:s:ms)","AMBULANCE","93.599","0.059684699436411075","1073"
"21:29:53:939 (H:m:s:ms)","GENERIC","93.284","0.08461346455385516","1098"
"21:29:52:405 (H:m:s:ms)","OPERA","93.212","0.08146006686890224","627"
"21:29:47:878 (H:m:s:ms)","GENERIC","93.479","0.0697682251937065","1160"
"21:29:44:810 (H:m:s:ms)","OPERA","124.40899999999999","0.05487660904342723","229"
"21:29:41:818 (H:m:s:ms)","GENERIC","93.37","0.06136417199404955","230"
"21:29:37:215 (H:m:s:ms)","OPERA","124.436","0.07299284432628471","810"
"21:18:10:909 (H:m:s:ms)","GENERIC","93.50200000000001","0.05126598120120952","1125"
"21:18:16:969 (H:m:s:ms)","GENERIC","93.088","0.04687274064152842","1056"
"20:56:9:696 (H:m:s:ms)","GENERIC","93.207","0.04121240729295197","384"
"21:18:23:30 (H:m:s:ms)","GENERIC","93.4","0.06762882477517564","992"
"20:56:15:757 (H:m:s:ms)","GENERIC","93.277","0.05590331530754086","279"
"21:18:29:90 (H:m:s:ms)","GENERIC","93.286","0.059398901450906046","979"
"20:40:0:0 (H:m:s:ms)","OPERA","62.206","0.07680439162485653","1542"
"20:56:21:818 (H:m:s:ms)","GENERIC","124.35300000000001","0.03866347864404291","228"
"21:18:35:151 (H:m:s:ms)","GENERIC","93.22999999999999","0.019295126914212354","889"
"20:40:0:0 (H:m:s:ms)","GENERIC","93.34100000000001","0.08921932757303486","1588"
"20:56:27:878 (H:m:s:ms)","GENERIC","93.371","0.05934640592220181","1151"
"21:18:41:212 (H:m:s:ms)","GENERIC","93.587","0.03829028472091135","828"
"21:29:35:757 (H:m:s:ms)","GENERIC","93.143","0.04811424983347171","274"
"20:40:0:0 (H:m:s:ms)","GENERIC","93.53399999999999","0.10374026544405399","1623"
"20:56:33:939 (H:m:s:ms)","GENERIC","93.624","0.035449356918833747","1086"
"21:18:47:272 (H:m:s:ms)","GENERIC","125.03899999999999","0.04463414366559219","748"
"21:29:29:696 (H:m:s:ms)","GENERIC","93.282","0.0719449070930093","409"
"20:40:6:60 (H:m:s:ms)","GENERIC","93.157","0.03163161712440933","978"
"20:56:40:0 (H:m:s:ms)","GENERIC","124.90700000000001","0.05578160185442023","1074"
"21:18:53:333 (H:m:s:ms)","GENERIC","124.649","0.022328930485108305","692"
"21:29:29:620 (H:m:s:ms)","OPERA","124.462","0.05824467376857127","450"
"20:40:7:594 (H:m:s:ms)","OPERA","93.435","0.06604257451922652","443"
"20:56:46:60 (H:m:s:ms)","GENERIC","124.635","0.03355792136761757","983"
"21:18:59:393 (H:m:s:ms)","GENERIC","93.456","0.04271636692038043","681"
"20:40:12:121 (H:m:s:ms)","GENERIC","124.40899999999999","0.06453363859360475","923"
"20:56:52:121 (H:m:s:ms)","GENERIC","124.714","0.057166878475802874","916"
"21:19:5:454 (H:m:s:ms)","GENERIC","93.607","0.026294479039384765","573"
"20:40:15:189 (H:m:s:ms)","OPERA","93.478","0.0705309862806425","844"
"20:56:58:181 (H:m:s:ms)","GENERIC","124.144","0.05281204686739992","849"
"20:40:18:181 (H:m:s:ms)","GENERIC","124.587","0.0767677421878085","862"
"20:57:4:242 (H:m:s:ms)","GENERIC","93.339","0.03932224057700016","799"
"20:40:22:784 (H:m:s:ms)","OPERA","93.42699999999999","0.07129831039110028","248"
"20:40:24:242 (H:m:s:ms)","GENERIC","93.13900000000001","0.07256662530723831","800"
"21:30:6:60 (H:m:s:ms)","GENERIC","124.247","0.023720038685811018","977"
"21:30:48:484 (H:m:s:ms)","GENERIC","93.518","0.02838167093441897","555"
"21:30:42:424 (H:m:s:ms)","GENERIC","125.139","0.04361419483467221","604"
"21:30:36:363 (H:m:s:ms)","GENERIC","93.34","0.062005520115110464","660"
"21:30:31:578 (H:m:s:ms)","AMBULANCE","31.033","0.06788698385208972","453"
"21:30:30:303 (H:m:s:ms)","GENERIC","93.266","0.051606444545703886","728"
"21:30:24:242 (H:m:s:ms)","GENERIC","124.309","0.05612014896636691","796"
"21:30:18:181 (H:m:s:ms)","GENERIC","93.316","0.04885452414877306","861"
"21:19:11:515 (H:m:s:ms)","GENERIC","124.337","0.019383174262089936","530"
"21:30:12:121 (H:m:s:ms)","GENERIC","124.37899999999999","0.02781465391843098","926"
"21:19:17:575 (H:m:s:ms)","GENERIC","93.243","0.04105826098215688","476"
"20:57:10:303 (H:m:s:ms)","GENERIC","93.529","0.044953204627052754","742"
"21:19:23:636 (H:m:s:ms)","GENERIC","93.186","0.03609346371814548","402"
"20:57:16:363 (H:m:s:ms)","GENERIC","124.273","0.05988239803950858","686"
"21:19:29:696 (H:m:s:ms)","GENERIC","124.494","0.045738099022349925","376"
"20:40:30:303 (H:m:s:ms)","GENERIC","62.089","0.04192627457812117","729"
"20:57:22:424 (H:m:s:ms)","GENERIC","93.22999999999999","0.06972128719727336","615"
"21:19:35:757 (H:m:s:ms)","GENERIC","93.16499999999999","0.055022091710265925","275"
"20:40:30:379 (H:m:s:ms)","OPERA","93.425","0.06359024570082299","690"
"20:57:28:484 (H:m:s:ms)","GENERIC","93.227","0.06781184073195871","548"
"21:19:41:818 (H:m:s:ms)","GENERIC","93.374","0.049819103757694716","227"
"20:40:36:363 (H:m:s:ms)","GENERIC","124.553","0.053609949350752695","675"
"20:57:34:545 (H:m:s:ms)","GENERIC","93.626","0.06703779567997324","485"
"21:19:47:878 (H:m:s:ms)","GENERIC","93.506","0.04739885643494311","1158"
"20:40:37:974 (H:m:s:ms)","OPERA","62.235","0.06525470538953379","1065"
"20:57:40:606 (H:m:s:ms)","GENERIC","124.398","0.051293160456455725","441"
"21:19:53:939 (H:m:s:ms)","GENERIC","93.247","0.052754939572178805","1103"
"21:30:0:0 (H:m:s:ms)","GENERIC","125.024","0.09838777530724437","1182"
"20:40:42:424 (H:m:s:ms)","GENERIC","93.726","0.0640078489708295","603"
"20:57:46:666 (H:m:s:ms)","GENERIC","124.484","0.01257836215022614","373"
"21:20:0:0 (H:m:s:ms)","OPERA","93.237","0.04352947102999328","1541"
"21:30:0:0 (H:m:s:ms)","GENERIC","124.605","0.09160445890300749","1148"
"20:40:45:569 (H:m:s:ms)","OPERA","93.404","0.08154380279722565","474"
"20:57:52:727 (H:m:s:ms)","GENERIC","124.598","0.04505268672226481","294"
"21:20:0:0 (H:m:s:ms)","GENERIC","124.674","0.07269762018921776","1586"
"20:40:48:484 (H:m:s:ms)","GENERIC","93.47200000000001","0.08248917242347731","552"
"20:57:58:787 (H:m:s:ms)","GENERIC","124.48599999999999","0.05216757516161972","248"
"20:40:53:164 (H:m:s:ms)","OPERA","62.263999999999996","0.07934970566107412","877"
"20:58:4:848 (H:m:s:ms)","GENERIC","124.106","0.06075335397958419","193"
"20:40:54:545 (H:m:s:ms)","GENERIC","124.987","0.06503646371412172","499"
"20:41:0:606 (H:m:s:ms)","GENERIC","93.386","0.05905728856912765","429"
"21:31:3:157 (H:m:s:ms)","AMBULANCE","62.263000000000005","0.08271689847219817","946"
"21:31:0:606 (H:m:s:ms)","GENERIC","93.448","0.06268796783931657","421"
"21:31:43:30 (H:m:s:ms)","GENERIC","124.525","0.04175035711443451","1000"
"21:31:36:969 (H:m:s:ms)","GENERIC","125.148","0.061413587229457334","1060"
"21:31:34:736 (H:m:s:ms)","AMBULANCE","93.581","0.07436640786766582","298"
"21:31:30:909 (H:m:s:ms)","GENERIC","125.035","0.05196381803771706","1134"
"21:31:24:848 (H:m:s:ms)","GENERIC","124.946","0.057224924388955566","196"
"21:31:18:787 (H:m:s:ms)","GENERIC","124.892","0.06636258282202821","235"
"21:31:12:727 (H:m:s:ms)","GENERIC","93.613","0.021424064222076936","309"
"21:31:6:666 (H:m:s:ms)","GENERIC","124.154","0.07478817935558531","367"
"20:58:10:909 (H:m:s:ms)","GENERIC","124.87899999999999","0.05821821096021738","1123"
"20:58:16:969 (H:m:s:ms)","GENERIC","62.093","0.05041451486479956","1059"
"20:41:0:759 (H:m:s:ms)","OPERA","93.456","0.09242183736109215","313"
"20:58:23:30 (H:m:s:ms)","GENERIC","93.438","0.05107995172765447","995"
"20:41:6:666 (H:m:s:ms)","GENERIC","93.11","0.029047988439126756","365"
"20:58:29:90 (H:m:s:ms)","GENERIC","124.458","0.02615592503607922","988"
"20:41:8:354 (H:m:s:ms)","OPERA","62.206","0.05887661714747271","679"
"20:58:35:151 (H:m:s:ms)","GENERIC","93.225","0.0291743455069768","888"
"20:41:12:727 (H:m:s:ms)","GENERIC","125.09700000000001","0.07847986417532864","310"
"20:58:41:212 (H:m:s:ms)","GENERIC","125.101","0.07342949002671524","829"
"20:41:15:949 (H:m:s:ms)","OPERA","93.476","0.08587384546555969","1090"
"20:58:47:272 (H:m:s:ms)","GENERIC","125.02799999999999","0.02296776151429426","749"
"20:41:18:787 (H:m:s:ms)","GENERIC","93.493","0.08808816890448881","238"
"20:58:53:333 (H:m:s:ms)","GENERIC","124.622","0.040090725887479514","690"
"21:30:54:545 (H:m:s:ms)","GENERIC","93.543","0.03564598070666424","498"
"20:41:23:544 (H:m:s:ms)","OPERA","93.479","0.07792036780964283","489"
"20:58:59:393 (H:m:s:ms)","GENERIC","93.439","0.03091769989058421","693"
"20:41:24:848 (H:m:s:ms)","GENERIC","93.532","0.08023135467147745","199"
"20:59:5:454 (H:m:s:ms)","GENERIC","93.601","0.03040483766449568","575"
"20:41:30:909 (H:m:s:ms)","GENERIC","62.125","0.03648239522119878","1134"
"20:41:31:139 (H:m:s:ms)","OPERA","62.233999999999995","0.06337479970058667","941"
"20:59:11:515 (H:m:s:ms)","GENERIC","93.213","0.027983296026761504","530"
"20:59:17:575 (H:m:s:ms)","GENERIC","93.22999999999999","0.041988191640393066","471"
"20:41:36:969 (H:m:s:ms)","GENERIC","93.626","0.043497400757408065","1062"
"20:59:23:636 (H:m:s:ms)","GENERIC","124.289","0.027276880677262298","402"
"20:41:38:734 (H:m:s:ms)","OPERA","62.237","0.05643844046894416","299"
"20:59:29:696 (H:m:s:ms)","GENERIC","93.53","0.055727804747736163","421"
"20:41:43:30 (H:m:s:ms)","GENERIC","93.334","0.06271824568075697","1009"
"20:59:35:757 (H:m:s:ms)","GENERIC","93.21000000000001","0.03899241611186351","276"
"20:41:46:329 (H:m:s:ms)","OPERA","31.008","0.07994604218325056","709"
"20:59:41:818 (H:m:s:ms)","GENERIC","93.402","0.05446043193960673","227"
"20:41:49:90 (H:m:s:ms)","GENERIC","93.412","0.08373568602525064","989"
"20:59:47:878 (H:m:s:ms)","GENERIC","124.82300000000001","0.029230199861571146","1162"
"20:41:53:924 (H:m:s:ms)","OPERA","93.45","0.08572753858148661","1111"
"20:59:53:939 (H:m:s:ms)","GENERIC","93.271","0.05096843678943387","1101"
"20:41:55:151 (H:m:s:ms)","GENERIC","124.452","0.0880509090381001","879"
"21:0:0:0 (H:m:s:ms)","AMBULANCE","62.236000000000004","0.04059871900626635","1631"
"20:42:1:212 (H:m:s:ms)","GENERIC","93.486","0.043975300448222766","811"
"21:0:0:0 (H:m:s:ms)","GENERIC","124.691","0.06978512726212883","1675"
"20:42:1:518 (H:m:s:ms)","OPERA","62.21","0.0698416113370999","535"
"20:42:7:272 (H:m:s:ms)","GENERIC","124.22200000000001","0.06706106094273205","769"
"21:0:0:0 (H:m:s:ms)","GENERIC","124.941","0.08270968105817385","1710"
"21:0:6:60 (H:m:s:ms)","GENERIC","93.174","0.047608224754508384","986"
"20:42:9:113 (H:m:s:ms)","OPERA","93.446","0.0933874796661595","958"
"21:0:12:121 (H:m:s:ms)","GENERIC","124.37","0.057315930246315414","916"
"20:42:13:333 (H:m:s:ms)","GENERIC","124.179","0.07823666245196231","700"
"21:0:18:181 (H:m:s:ms)","GENERIC","93.303","0.030082503433066347","864"
"20:20:0:0 (H:m:s:ms)","GENERIC","93.64099999999999","0.060880555776610515","1508"
"20:42:16:708 (H:m:s:ms)","OPERA","62.253","0.07222169865101616","322"
"21:0:24:242 (H:m:s:ms)","GENERIC","124.245","0.04242795730918429","803"
"20:20:0:0 (H:m:s:ms)","GENERIC","93.57","0.07321270662092792","1540"
"20:42:19:393 (H:m:s:ms)","GENERIC","93.22500000000001","0.08388391616182936","683"
"21:0:30:303 (H:m:s:ms)","GENERIC","124.44200000000001","0.02964708925157006","732"
"20:20:6:60 (H:m:s:ms)","GENERIC","124.229","0.030012961008344947","977"
"20:42:24:303 (H:m:s:ms)","OPERA","62.227000000000004","0.0830081604778391","728"
"21:0:31:578 (H:m:s:ms)","AMBULANCE","62.253","0.06974351488308876","462"
"20:20:12:121 (H:m:s:ms)","GENERIC","124.42500000000001","0.03865110626977913","924"
"20:42:25:454 (H:m:s:ms)","GENERIC","93.293","0.07514760726330746","578"
"21:0:36:363 (H:m:s:ms)","GENERIC","62.358000000000004","0.08662473600592424","662"
"20:20:18:181 (H:m:s:ms)","GENERIC","93.311","0.03550770849058022","863"
"20:42:31:515 (H:m:s:ms)","GENERIC","93.34","0.05367628541045095","525"
"21:0:42:424 (H:m:s:ms)","GENERIC","93.69200000000001","0.028968677915737467","607"
"20:20:24:242 (H:m:s:ms)","GENERIC","124.167","0.0797699121124694","799"
"20:42:31:898 (H:m:s:ms)","OPERA","93.424","0.08664279614655207","172"
"21:0:48:484 (H:m:s:ms)","GENERIC","93.49799999999999","0.04186648929095629","556"
"20:20:30:303 (H:m:s:ms)","GENERIC","93.30799999999999","0.035667483640466985","728"
"20:42:37:575 (H:m:s:ms)","GENERIC","124.419","0.05928913345396331","460"
"20:20:36:363 (H:m:s:ms)","GENERIC","124.468","0.07442157732890038","675"
"20:42:39:493 (H:m:s:ms)","OPERA","93.479","0.10102087234632894","577"
"20:20:42:424 (H:m:s:ms)","GENERIC","125.191","0.07181557439743692","603"
"20:20:48:484 (H:m:s:ms)","GENERIC","124.911","0.05463378955080615","553"
"21:0:54:545 (H:m:s:ms)","GENERIC","124.964","0.0416213767627333","503"
"21:1:0:606 (H:m:s:ms)","GENERIC","93.399","0.06120929626567487","431"
"20:42:43:636 (H:m:s:ms)","GENERIC","124.194","0.09350077753759053","396"
"21:1:3:157 (H:m:s:ms)","AMBULANCE","62.269000000000005","0.09057444218306242","883"
"20:42:47:88 (H:m:s:ms)","OPERA","62.211","0.05968884555346706","946"
"21:1:6:666 (H:m:s:ms)","GENERIC","93.112","0.09091024964144567","366"
"20:20:54:545 (H:m:s:ms)","GENERIC","125.024","0.02590869600784147","500"
"20:42:49:696 (H:m:s:ms)","GENERIC","124.21100000000001","0.07003390602891756","381"
"21:1:12:727 (H:m:s:ms)","GENERIC","125.084","0.05761560122162134","311"
"20:21:0:606 (H:m:s:ms)","GENERIC","93.357","0.06121128089271088","430"
"20:42:54:683 (H:m:s:ms)","OPERA","62.227000000000004","0.06716179059150071","353"
"21:1:18:787 (H:m:s:ms)","GENERIC","124.936","0.023709228694649975","237"
"20:21:6:666 (H:m:s:ms)","GENERIC","124.166","0.044250304114858106","364"
"20:42:55:757 (H:m:s:ms)","GENERIC","124.274","0.05489670013898425","283"
"21:1:24:848 (H:m:s:ms)","GENERIC","93.487","0.05158184386937319","201"
"20:21:12:727 (H:m:s:ms)","GENERIC","125.144","0.041357197382649175","310"
"20:43:1:818 (H:m:s:ms)","GENERIC","93.648","0.04310639147896265","214"
"21:1:30:909 (H:m:s:ms)","GENERIC","93.598","0.05181928733468428","1135"
"20:21:18:787 (H:m:s:ms)","GENERIC","93.526","0.04454177713800704","237"
"20:43:2:278 (H:m:s:ms)","OPERA","93.479","0.0637200683040072","758"
"21:1:34:736 (H:m:s:ms)","AMBULANCE","62.265","0.07227886026143425","300"
"20:21:24:848 (H:m:s:ms)","GENERIC","93.462","0.0448109295308311","194"
"20:43:7:878 (H:m:s:ms)","GENERIC","125.168","0.06850053031558967","1146"
"21:1:36:969 (H:m:s:ms)","GENERIC","125.101","0.06549858796349046","1062"
"20:21:30:909 (H:m:s:ms)","GENERIC","124.976","0.03705545500464992","1135"
"20:43:9:873 (H:m:s:ms)","OPERA","62.232","0.08049220264817337","198"
"20:21:36:969 (H:m:s:ms)","GENERIC","125.09100000000001","0.04862373674878558","1061"
"20:43:13:939 (H:m:s:ms)","GENERIC","93.286","0.06778843751651016","1088"
"20:21:43:30 (H:m:s:ms)","GENERIC","93.327","0.0545436895518972","1015"
"20:21:49:90 (H:m:s:ms)","GENERIC","93.43900000000001","0.03627286565520857","990"
"20:43:17:468 (H:m:s:ms)","OPERA","62.233000000000004","0.08391606807754881","567"
"20:43:20:0 (H:m:s:ms)","GENERIC","93.247","0.07422212259078305","1091"
"20:21:55:151 (H:m:s:ms)","GENERIC","124.48400000000001","0.07252581258208471","877"
"20:43:25:63 (H:m:s:ms)","OPERA","93.461","0.08167476583259602","967"
"20:22:1:212 (H:m:s:ms)","GENERIC","124.957","0.0658809018238055","809"
"20:43:26:60 (H:m:s:ms)","GENERIC","124.83699999999999","0.10570394997041724","961"
"20:22:7:272 (H:m:s:ms)","GENERIC","124.223","0.05591053276794071","770"
"20:43:32:121 (H:m:s:ms)","GENERIC","93.182","0.038486135638975266","915"
"20:22:13:333 (H:m:s:ms)","GENERIC","93.167","0.0487931285428831","700"
"20:43:32:658 (H:m:s:ms)","OPERA","62.214","0.05700216571873415","414"
"20:22:19:393 (H:m:s:ms)","GENERIC","93.169","0.05889598201434017","680"
"20:43:38:181 (H:m:s:ms)","GENERIC","93.068","0.036065088769580006","854"
"20:22:25:454 (H:m:s:ms)","GENERIC","93.34","0.05424580169559101","575"
"20:43:40:253 (H:m:s:ms)","OPERA","62.227999999999994","0.06405747339246973","782"
"20:22:31:515 (H:m:s:ms)","GENERIC","124.622","0.04621720127792002","529"
"20:43:44:242 (H:m:s:ms)","GENERIC","124.57300000000001","0.06588599148068172","788"
"20:22:37:575 (H:m:s:ms)","GENERIC","124.43299999999999","0.02612839181857994","461"
"20:43:47:848 (H:m:s:ms)","OPERA","93.46000000000001","0.07516084857847077","191"
"20:22:43:636 (H:m:s:ms)","GENERIC","93.168","0.03457714279695069","397"
"20:22:49:696 (H:m:s:ms)","GENERIC","124.231","0.04793870862215339","384"
"20:43:50:303 (H:m:s:ms)","GENERIC","93.27","0.07715352274572665","725"
"20:43:56:363 (H:m:s:ms)","GENERIC","124.71600000000001","0.05812645470040708","684"
"20:22:55:757 (H:m:s:ms)","GENERIC","124.298","0.04240850480002868","283"
"20:44:2:424 (H:m:s:ms)","GENERIC","124.799","0.06481690225524515","616"
"20:23:1:818 (H:m:s:ms)","GENERIC","93.68599999999999","0.0340137290190214","215"
"20:44:3:37 (H:m:s:ms)","OPERA","62.227000000000004","0.0858425150152188","992"
"20:23:7:878 (H:m:s:ms)","GENERIC","125.17","0.06118335054207289","1145"
"20:44:8:484 (H:m:s:ms)","GENERIC","93.12899999999999","0.06537037280402871","556"
"20:23:13:939 (H:m:s:ms)","GENERIC","124.491","0.05582434158695188","1090"
"20:44:10:632 (H:m:s:ms)","OPERA","62.215","0.04616875248034022","404"
"20:23:20:0 (H:m:s:ms)","GENERIC","124.349","0.040917859802642204","1083"
"20:44:14:545 (H:m:s:ms)","GENERIC","93.16","0.05107094341205692","490"
"20:23:26:60 (H:m:s:ms)","GENERIC","124.803","0.03208421614204731","962"
"20:44:18:227 (H:m:s:ms)","OPERA","93.431","0.05866911651741504","809"
"20:23:32:121 (H:m:s:ms)","GENERIC","124.30600000000001","0.05523217648304708","914"
"20:44:20:606 (H:m:s:ms)","GENERIC","93.452","0.06178043244575083","430"
"20:23:38:181 (H:m:s:ms)","GENERIC","124.197","0.031891867135687944","853"
"20:44:25:822 (H:m:s:ms)","OPERA","93.467","0.06241871682630857","216"
"20:23:44:242 (H:m:s:ms)","GENERIC","93.38300000000001","0.05958357649877228","785"
"20:23:50:303 (H:m:s:ms)","GENERIC","93.262","0.0364445463200944","733"
"20:44:26:666 (H:m:s:ms)","GENERIC","62.013","0.06846288027625289","374"
"20:44:32:727 (H:m:s:ms)","GENERIC","93.557","0.05334671523654097","302"
"20:23:56:363 (H:m:s:ms)","GENERIC","124.72200000000001","0.04360566536550494","679"
"20:44:33:417 (H:m:s:ms)","OPERA","93.473","0.08006961634542252","621"
"20:24:2:424 (H:m:s:ms)","GENERIC","93.495","0.06199395110263997","621"
"20:44:38:787 (H:m:s:ms)","GENERIC","93.565","0.0664712471955634","240"
"20:24:8:484 (H:m:s:ms)","GENERIC","124.25399999999999","0.0429685728274557","557"
"20:44:41:12 (H:m:s:ms)","OPERA","93.45","0.08563383263486755","1017"
"20:24:14:545 (H:m:s:ms)","GENERIC","93.194","0.026580306097091312","492"
"20:44:44:848 (H:m:s:ms)","GENERIC","93.281","0.09620073854251114","184"
"20:24:20:606 (H:m:s:ms)","GENERIC","93.487","0.057228319487948605","429"
"20:44:48:607 (H:m:s:ms)","OPERA","62.252","0.08263590064211486","425"
"20:24:26:666 (H:m:s:ms)","GENERIC","124.40299999999999","0.030784025196525934","375"
"20:44:50:909 (H:m:s:ms)","GENERIC","93.209","0.07735038379845276","1135"
"20:24:32:727 (H:m:s:ms)","GENERIC","93.59","0.03273265206414958","301"
"20:44:56:202 (H:m:s:ms)","OPERA","62.236000000000004","0.05723285693602003","841"
"20:24:38:787 (H:m:s:ms)","GENERIC","93.508","0.024078718587896734","241"
"20:44:56:969 (H:m:s:ms)","GENERIC","124.41300000000001","0.06951109951334028","1094"
"20:24:44:848 (H:m:s:ms)","GENERIC","93.289","0.07355154191087124","190"
"20:24:50:909 (H:m:s:ms)","GENERIC","93.218","0.041704999800959326","1134"
"20:45:3:30 (H:m:s:ms)","GENERIC","124.583","0.055861296906473665","999"
"20:45:3:797 (H:m:s:ms)","OPERA","62.228","0.0877265317169984","263"
"20:24:56:969 (H:m:s:ms)","GENERIC","124.44999999999999","0.05074475640774734","1054"
"20:45:9:90 (H:m:s:ms)","GENERIC","62.053","0.054294067861863915","985"
"20:25:3:30 (H:m:s:ms)","GENERIC","124.59899999999999","0.0547641159853711","1002"
"20:45:11:392 (H:m:s:ms)","OPERA","62.237","0.06674129739101732","643"
"20:25:9:90 (H:m:s:ms)","GENERIC","124.445","0.05901003007198923","980"
"20:45:15:151 (H:m:s:ms)","GENERIC","93.66799999999999","0.05376651632952603","874"
"20:25:15:151 (H:m:s:ms)","GENERIC","125.18299999999999","0.030016899062191855","873"
"20:45:18:987 (H:m:s:ms)","OPERA","93.431","0.06687312680951799","1088"
"20:25:21:212 (H:m:s:ms)","GENERIC","93.301","0.04716751514197273","816"
"20:45:21:212 (H:m:s:ms)","GENERIC","124.485","0.06517837995553737","814"
"20:25:27:272 (H:m:s:ms)","GENERIC","93.175","0.0228831083591307","764"
"20:45:26:582 (H:m:s:ms)","OPERA","93.458","0.06831448815241241","457"
"20:25:33:333 (H:m:s:ms)","GENERIC","93.206","0.03440513996160389","706"
"20:45:27:272 (H:m:s:ms)","GENERIC","93.162","0.06789293623813548","765"
"20:25:39:393 (H:m:s:ms)","GENERIC","124.651","0.05489973841534446","683"
"20:45:33:333 (H:m:s:ms)","GENERIC","93.233","0.04197734134111945","708"
"20:25:45:454 (H:m:s:ms)","GENERIC","124.889","0.04671195406819859","588"
"20:25:51:515 (H:m:s:ms)","GENERIC","93.345","0.05805742552742439","526"
"20:25:57:575 (H:m:s:ms)","GENERIC","93.589","0.031066778247103275","461"
"20:26:3:636 (H:m:s:ms)","GENERIC","124.572","0.04230360493586398","402"
"20:26:9:696 (H:m:s:ms)","GENERIC","93.24199999999999","0.04389048845530034","374"
"20:26:15:757 (H:m:s:ms)","GENERIC","93.247","0.023645871806264995","280"
"20:26:21:818 (H:m:s:ms)","GENERIC","93.21799999999999","0.05364243830843815","229"
"20:26:27:878 (H:m:s:ms)","GENERIC","93.33500000000001","0.05341491957580139","1146"
"20:26:33:939 (H:m:s:ms)","GENERIC","124.251","0.06270503430649237","1085"
"20:26:40:0 (H:m:s:ms)","GENERIC","93.436","0.02333157129530405","1073"
"20:26:46:60 (H:m:s:ms)","GENERIC","93.359","0.04286141079984577","980"
"20:26:52:121 (H:m:s:ms)","GENERIC","124.809","0.047546832788888826","919"
"20:26:58:181 (H:m:s:ms)","GENERIC","93.092","0.05607727517298502","847"
"20:27:4:242 (H:m:s:ms)","GENERIC","124.601","0.032697263894501956","794"
"20:27:10:303 (H:m:s:ms)","GENERIC","93.563","0.07076510172265586","740"
"20:27:16:363 (H:m:s:ms)","GENERIC","124.19900000000001","0.036383588801103345","687"
"20:27:22:424 (H:m:s:ms)","GENERIC","93.19","0.05553746428284444","616"
"20:27:28:484 (H:m:s:ms)","GENERIC","124.403","0.05377197951872238","553"
"20:27:34:545 (H:m:s:ms)","GENERIC","93.575","0.014518648135543304","487"
"20:27:40:606 (H:m:s:ms)","GENERIC","93.229","0.054301018377222766","440"
"20:27:46:666 (H:m:s:ms)","GENERIC","93.499","0.05794913537194984","368"
"20:27:52:727 (H:m:s:ms)","GENERIC","93.348","0.03643106965168434","349"
"20:27:58:787 (H:m:s:ms)","GENERIC","93.301","0.05761465186862996","248"
"20:28:4:848 (H:m:s:ms)","GENERIC","93.1","0.05214012620037336","197"
"20:28:10:909 (H:m:s:ms)","GENERIC","124.787","0.07195523660552246","1121"
"20:28:16:969 (H:m:s:ms)","GENERIC","93.151","0.048027175583330646","1062"
"20:28:23:30 (H:m:s:ms)","GENERIC","124.792","0.07172092221069529","994"
"20:28:29:90 (H:m:s:ms)","GENERIC","124.389","0.04232986778344894","983"
"20:28:35:151 (H:m:s:ms)","GENERIC","124.395","0.03284283412999637","890"
"20:28:41:212 (H:m:s:ms)","GENERIC","125.07300000000001","0.04418382685638527","832"
"20:28:47:272 (H:m:s:ms)","GENERIC","93.581","0.02005108572315341","749"
"20:28:53:333 (H:m:s:ms)","GENERIC","124.458","0.03209206743885577","752"
"20:28:59:393 (H:m:s:ms)","GENERIC","93.456","0.056497708224268466","685"
"20:29:5:454 (H:m:s:ms)","GENERIC","125.05","0.03580638297351384","577"
"20:29:11:515 (H:m:s:ms)","GENERIC","124.36699999999999","0.031383385537690336","530"
"20:29:17:575 (H:m:s:ms)","GENERIC","93.255","0.026214687661154732","473"
"20:29:23:636 (H:m:s:ms)","GENERIC","124.25","0.0421597698841447","404"
"20:29:29:696 (H:m:s:ms)","GENERIC","93.57900000000001","0.02922587244945673","370"
"20:29:35:757 (H:m:s:ms)","GENERIC","124.235","0.026235453784087783","276"
"20:29:41:818 (H:m:s:ms)","GENERIC","93.35900000000001","0.03586091377830285","227"
"20:29:47:878 (H:m:s:ms)","GENERIC","124.905","0.01699813301674282","1161"
"20:29:53:939 (H:m:s:ms)","GENERIC","124.511","0.05527661517566072","1099"
"21:20:0:0 (H:m:s:ms)","GENERIC","124.99600000000001","0.08405662418140988","1619"
"21:20:6:60 (H:m:s:ms)","GENERIC","93.181","0.04142006276373392","976"
"21:20:7:594 (H:m:s:ms)","OPERA","93.25999999999999","0.0692407263971759","437"
"21:20:12:121 (H:m:s:ms)","GENERIC","93.21199999999999","0.06240489671083552","922"
"21:20:15:189 (H:m:s:ms)","OPERA","124.458","0.057894702126544614","846"
"21:20:18:181 (H:m:s:ms)","GENERIC","124.60300000000001","0.05704037831888487","864"
"21:20:22:784 (H:m:s:ms)","OPERA","124.412","0.06890548413467382","251"
"21:20:24:242 (H:m:s:ms)","GENERIC","93.166","0.07197030664739539","800"
"21:20:30:303 (H:m:s:ms)","GENERIC","93.259","0.03396728561026817","733"
"21:20:30:379 (H:m:s:ms)","OPERA","124.399","0.07240301915353026","688"
"21:20:36:363 (H:m:s:ms)","GENERIC","93.405","0.033080655809324","660"
"21:20:37:974 (H:m:s:ms)","OPERA","93.234","0.05711766514449104","1060"
"21:20:42:424 (H:m:s:ms)","GENERIC","62.147","0.05998496412391753","604"
"21:20:45:569 (H:m:s:ms)","OPERA","124.432","0.07001693555493939","469"
"21:20:48:484 (H:m:s:ms)","GENERIC","93.50999999999999","0.08143441276018713","554"
"21:20:53:164 (H:m:s:ms)","OPERA","93.25999999999999","0.0902714210743946","869"
"21:20:54:545 (H:m:s:ms)","GENERIC","93.575","0.08178729499955226","500"
"21:21:0:606 (H:m:s:ms)","GENERIC","93.408","0.04261341627588979","435"
"21:21:0:759 (H:m:s:ms)","OPERA","124.477","0.08465973317986154","319"
"21:21:6:666 (H:m:s:ms)","GENERIC","124.156","0.030027168581264183","367"
"21:32:37:894 (H:m:s:ms)","AMBULANCE","93.58500000000001","0.07560466967698334","166"
"21:32:25:454 (H:m:s:ms)","GENERIC","93.354","0.04186912521050683","578"
"21:32:19:393 (H:m:s:ms)","GENERIC","93.245","0.030837612003787165","672"
"21:32:13:333 (H:m:s:ms)","GENERIC","93.157","0.03559684262191059","696"
"21:32:7:272 (H:m:s:ms)","GENERIC","124.228","0.10082058392940196","764"
"21:32:6:315 (H:m:s:ms)","AMBULANCE","62.257000000000005","0.07627640790449305","750"
"21:32:1:212 (H:m:s:ms)","GENERIC","93.45","0.044109732066051774","809"
"21:31:55:151 (H:m:s:ms)","GENERIC","124.539","0.0582013957829646","874"
"21:21:8:354 (H:m:s:ms)","OPERA","124.48599999999999","0.08268425298053703","679"
"21:31:49:90 (H:m:s:ms)","GENERIC","124.84","0.03138001820859442","973"
"21:21:12:727 (H:m:s:ms)","GENERIC","93.599","0.08314196413313224","310"
"21:21:15:949 (H:m:s:ms)","OPERA","93.231","0.05855129114642619","1079"
"21:21:18:787 (H:m:s:ms)","GENERIC","93.489","0.05876242540108954","237"
"21:21:23:544 (H:m:s:ms)","OPERA","124.443","0.04860783035475536","496"
"21:21:24:848 (H:m:s:ms)","GENERIC","124.896","0.06962472128073632","199"
"21:21:30:909 (H:m:s:ms)","GENERIC","125.07900000000001","0.03895561468422395","1133"
"21:21:31:139 (H:m:s:ms)","OPERA","93.235","0.07062423783741284","941"
"21:32:37:575 (H:m:s:ms)","GENERIC","124.37299999999999","0.03595251352812806","457"
"21:21:36:969 (H:m:s:ms)","GENERIC","125.076","0.042400010751472234","1063"
"21:32:31:515 (H:m:s:ms)","GENERIC","124.608","0.05948636020801697","519"
"21:21:38:734 (H:m:s:ms)","OPERA","93.262","0.05982936071492873","299"
"21:33:38:181 (H:m:s:ms)","GENERIC","124.146","0.05308081130220087","849"
"21:33:32:121 (H:m:s:ms)","GENERIC","124.34899999999999","0.03838861496051082","912"
"21:33:20:0 (H:m:s:ms)","GENERIC","93.21600000000001","0.031611096046655116","1077"
"21:33:13:939 (H:m:s:ms)","GENERIC","93.24600000000001","0.06645751592140364","1088"
"21:33:9:473 (H:m:s:ms)","AMBULANCE","62.322","0.08103709561963582","589"
"21:33:7:878 (H:m:s:ms)","GENERIC","93.656","0.06524965488488371","1145"
"21:33:1:818 (H:m:s:ms)","GENERIC","93.648","0.028705669920613616","214"
"21:32:55:757 (H:m:s:ms)","GENERIC","124.303","0.04167533538623452","279"
"21:21:43:30 (H:m:s:ms)","GENERIC","93.31","0.056825582389583254","1006"
"21:32:49:696 (H:m:s:ms)","GENERIC","124.223","0.060115006040849656","379"
"21:21:46:329 (H:m:s:ms)","OPERA","124.46000000000001","0.060442027057131455","704"
"21:32:43:636 (H:m:s:ms)","GENERIC","93.181","0.03134164550471339","393"
"21:21:49:90 (H:m:s:ms)","GENERIC","93.446","0.061839252625338695","987"
"21:21:53:924 (H:m:s:ms)","OPERA","93.21","0.06268934141614751","1105"
"21:21:55:151 (H:m:s:ms)","GENERIC","93.275","0.07761724647203734","880"
"21:22:1:212 (H:m:s:ms)","GENERIC","124.825","0.04970114845677789","809"
"21:22:1:518 (H:m:s:ms)","OPERA","124.439","0.06617955863692968","544"
"21:22:7:272 (H:m:s:ms)","GENERIC","124.232","0.07495133099801665","769"
"21:22:9:113 (H:m:s:ms)","OPERA","93.238","0.0930852984527249","955"
"21:22:13:333 (H:m:s:ms)","GENERIC","124.18799999999999","0.06440306986333505","699"
"21:33:26:60 (H:m:s:ms)","GENERIC","93.45400000000001","0.05278871288212421","960"
"21:34:32:727 (H:m:s:ms)","GENERIC","124.57499999999999","0.021865970018548196","317"
"21:34:26:666 (H:m:s:ms)","GENERIC","93.227","0.04396940494338756","371"
"21:34:20:606 (H:m:s:ms)","GENERIC","124.55","0.05589061663844426","426"
"21:34:14:545 (H:m:s:ms)","GENERIC","93.239","0.05416554972302477","485"
"21:34:12:631 (H:m:s:ms)","AMBULANCE","62.295","0.06435070265553602","391"
"21:34:8:484 (H:m:s:ms)","GENERIC","62.249","0.05212887890366298","561"
"21:34:2:424 (H:m:s:ms)","GENERIC","93.458","0.045824816716450695","612"
"21:33:56:363 (H:m:s:ms)","GENERIC","93.407","0.04018842392779073","680"
"21:22:16:708 (H:m:s:ms)","OPERA","124.411","0.06706550259633651","329"
"21:33:50:303 (H:m:s:ms)","GENERIC","93.264","0.06791494496625353","731"
"21:22:19:393 (H:m:s:ms)","GENERIC","124.39500000000001","0.0796615638843823","676"
"21:33:44:242 (H:m:s:ms)","GENERIC","124.64","0.06685777211231121","784"
"21:1:43:30 (H:m:s:ms)","GENERIC","62.254000000000005","0.0509433404495133","1007"
"21:22:24:303 (H:m:s:ms)","OPERA","124.435","0.09542146682397183","735"
"21:33:41:52 (H:m:s:ms)","AMBULANCE","62.343","0.0686534822383619","987"
"21:1:49:90 (H:m:s:ms)","GENERIC","93.483","0.046198611393362427","986"
"21:22:25:454 (H:m:s:ms)","GENERIC","93.299","0.09488330106894956","581"
"21:1:55:151 (H:m:s:ms)","GENERIC","124.438","0.060807737764931466","879"
"21:22:31:515 (H:m:s:ms)","GENERIC","93.311","0.03674381829168667","523"
"21:2:1:212 (H:m:s:ms)","GENERIC","93.453","0.051779207256577656","809"
"21:22:31:898 (H:m:s:ms)","OPERA","124.45400000000001","0.07287351762819974","176"
"21:2:6:315 (H:m:s:ms)","AMBULANCE","62.283","0.07588036139723657","724"
"21:22:37:575 (H:m:s:ms)","GENERIC","62.067","0.050857971461928185","460"
"21:2:7:272 (H:m:s:ms)","GENERIC","124.199","0.07254023328547521","770"
"21:22:39:493 (H:m:s:ms)","OPERA","124.40899999999999","0.07702337595749623","571"
"21:2:13:333 (H:m:s:ms)","GENERIC","93.11","0.04554682829755753","699"
"21:22:43:636 (H:m:s:ms)","GENERIC","93.145","0.06391891309327022","396"
"21:2:19:393 (H:m:s:ms)","GENERIC","93.26400000000001","0.04441942993142625","674"
"21:22:47:88 (H:m:s:ms)","OPERA","124.432","0.0658149691714002","946"
"21:2:25:454 (H:m:s:ms)","GENERIC","124.58","0.05330919824471758","575"
"21:2:31:515 (H:m:s:ms)","GENERIC","93.299","0.038219167854225425","523"
"21:35:27:272 (H:m:s:ms)","GENERIC","93.326","0.0326417697586919","750"
"21:35:21:212 (H:m:s:ms)","GENERIC","93.339","0.05683720823912351","808"
"21:35:15:789 (H:m:s:ms)","AMBULANCE","62.29","0.06961572777339035","268"
"21:35:15:151 (H:m:s:ms)","GENERIC","125.136","0.03014503206226234","871"
"21:35:9:90 (H:m:s:ms)","GENERIC","124.487","0.06381680709778062","974"
"21:35:3:30 (H:m:s:ms)","GENERIC","93.387","0.06576603364465486","994"
"21:34:56:969 (H:m:s:ms)","GENERIC","124.381","0.035490941644027545","1053"
"21:22:49:696 (H:m:s:ms)","GENERIC","124.233","0.06583268299340668","381"
"21:34:50:909 (H:m:s:ms)","GENERIC","93.177","0.02850493456082559","1132"
"21:22:54:683 (H:m:s:ms)","OPERA","124.452","0.04934571492811354","354"
"21:34:44:848 (H:m:s:ms)","GENERIC","124.508","0.06887088060392188","268"
"21:2:37:575 (H:m:s:ms)","GENERIC","124.453","0.05739857211200074","461"
"21:22:55:757 (H:m:s:ms)","GENERIC","124.28299999999999","0.05878638219321186","280"
"21:34:44:210 (H:m:s:ms)","AMBULANCE","62.271","0.04508155962162508","868"
"21:2:37:894 (H:m:s:ms)","AMBULANCE","62.244","0.06342365542418256","182"
"21:23:1:818 (H:m:s:ms)","GENERIC","125.13499999999999","0.04710477791761185","213"
"21:34:38:787 (H:m:s:ms)","GENERIC","93.625","0.031826384028438376","237"
"21:2:43:636 (H:m:s:ms)","GENERIC","124.186","0.04675137445361426","397"
"21:23:2:278 (H:m:s:ms)","OPERA","124.464","0.08564096273115523","758"
"21:2:49:696 (H:m:s:ms)","GENERIC","124.318","0.06489843807659741","386"
"21:23:7:878 (H:m:s:ms)","GENERIC","125.144","0.03692651580977947","1145"
"21:2:55:757 (H:m:s:ms)","GENERIC","93.21600000000001","0.048109259611458205","284"
"21:23:9:873 (H:m:s:ms)","OPERA","93.232","0.05366895469041","201"
"21:3:1:818 (H:m:s:ms)","GENERIC","125.12899999999999","0.05209955753715699","220"
"21:23:13:939 (H:m:s:ms)","GENERIC","124.437","0.07380925003660427","1090"
"21:3:7:878 (H:m:s:ms)","GENERIC","125.13","0.05866260883741549","1147"
"21:23:17:468 (H:m:s:ms)","OPERA","124.481","0.07317059153652813","568"
"21:3:9:473 (H:m:s:ms)","AMBULANCE","93.517","0.07087989568487855","668"
"21:23:20:0 (H:m:s:ms)","GENERIC","93.181","0.08188581968395654","1080"
"21:3:13:939 (H:m:s:ms)","GENERIC","93.247","0.07244252776184539","1094"
"21:3:20:0 (H:m:s:ms)","GENERIC","124.334","0.03595618886736814","1093"
"21:36:21:818 (H:m:s:ms)","GENERIC","93.22999999999999","0.06615162192203702","224"
"21:36:18:947 (H:m:s:ms)","AMBULANCE","93.562","0.052438046510826244","1127"
"21:36:15:757 (H:m:s:ms)","GENERIC","62.059","0.026000392461716204","278"
"21:36:9:696 (H:m:s:ms)","GENERIC","93.256","0.0482765145727866","371"
"21:36:3:636 (H:m:s:ms)","GENERIC","124.576","0.03447742814064795","398"
"21:35:57:575 (H:m:s:ms)","GENERIC","125.041","0.0400093357601143","458"
"21:23:25:63 (H:m:s:ms)","OPERA","124.482","0.07293148361379075","971"
"21:35:51:515 (H:m:s:ms)","GENERIC","93.34299999999999","0.05407907741679888","523"
"21:23:26:60 (H:m:s:ms)","GENERIC","124.795","0.07661545868470562","959"
"21:35:47:368 (H:m:s:ms)","AMBULANCE","62.263","0.06314382740816803","711"
"21:3:26:60 (H:m:s:ms)","GENERIC","124.774","0.06352553185142984","962"
"21:23:32:121 (H:m:s:ms)","GENERIC","93.189","0.034818357071597986","914"
"21:35:45:454 (H:m:s:ms)","GENERIC","124.876","0.053184523936681875","583"
"21:3:32:121 (H:m:s:ms)","GENERIC","93.192","0.03024647109474227","917"
"21:23:32:658 (H:m:s:ms)","OPERA","124.40299999999999","0.052589213501671055","411"
"21:35:39:393 (H:m:s:ms)","GENERIC","124.654","0.06123909977991245","672"
"21:3:38:181 (H:m:s:ms)","GENERIC","62.053","0.03657645518482781","857"
"21:23:38:181 (H:m:s:ms)","GENERIC","124.195","0.026018658229153904","855"
"21:35:33:333 (H:m:s:ms)","GENERIC","124.35499999999999","0.035147425001145795","703"
"21:3:41:52 (H:m:s:ms)","AMBULANCE","93.463","0.06964231241576843","982"
"21:23:40:253 (H:m:s:ms)","OPERA","124.47900000000001","0.08145232883381573","777"
"21:3:44:242 (H:m:s:ms)","GENERIC","124.577","0.09264865488850921","786"
"21:23:44:242 (H:m:s:ms)","GENERIC","124.628","0.09145879490823028","783"
"21:3:50:303 (H:m:s:ms)","GENERIC","124.53800000000001","0.05441202520436795","737"
"21:23:47:848 (H:m:s:ms)","OPERA","124.45400000000001","0.07825809193158303","187"
"21:3:56:363 (H:m:s:ms)","GENERIC","124.689","0.0637727947099593","690"
"21:23:50:303 (H:m:s:ms)","GENERIC","124.554","0.08630509178955455","729"
"21:4:2:424 (H:m:s:ms)","GENERIC","93.464","0.05729706489832067","615"
"21:23:55:443 (H:m:s:ms)","OPERA","62.231","0.08138562077335408","584"
"21:4:8:484 (H:m:s:ms)","GENERIC","93.19","0.05606755060220098","558"
"21:4:12:631 (H:m:s:ms)","AMBULANCE","93.43299999999999","0.07936427549046461","470"
"21:37:22:424 (H:m:s:ms)","GENERIC","124.4","0.07498909874937397","648"
"21:37:22:105 (H:m:s:ms)","AMBULANCE","62.354","0.04740815823587279","932"
"21:37:16:363 (H:m:s:ms)","GENERIC","93.24199999999999","0.027568791957330318","683"
"21:37:10:303 (H:m:s:ms)","GENERIC","124.50800000000001","0.06017994148527001","734"
"21:37:4:242 (H:m:s:ms)","GENERIC","124.651","0.03016232370563215","795"
"21:36:58:181 (H:m:s:ms)","GENERIC","124.179","0.026420533400028094","846"
"21:23:56:363 (H:m:s:ms)","GENERIC","93.404","0.07293499887036596","681"
"21:24:2:424 (H:m:s:ms)","GENERIC","124.83000000000001","0.058004225142805746","617"
"21:36:52:121 (H:m:s:ms)","GENERIC","93.405","0.0560943932995551","922"
"21:4:14:545 (H:m:s:ms)","GENERIC","93.194","0.06922156511116163","495"
"21:24:3:37 (H:m:s:ms)","OPERA","93.22","0.08295572432925397","998"
"21:36:46:60 (H:m:s:ms)","GENERIC","93.321","0.04373594156704251","978"
"21:4:20:606 (H:m:s:ms)","GENERIC","93.284","0.054451887872181956","432"
"21:24:8:484 (H:m:s:ms)","GENERIC","124.6","0.08344717989301316","602"
"21:36:40:0 (H:m:s:ms)","GENERIC","124.971","0.05922741232426636","1068"
"21:4:26:666 (H:m:s:ms)","GENERIC","124.384","0.04295947701531236","379"
"21:24:10:632 (H:m:s:ms)","OPERA","124.43199999999999","0.07547401420996684","406"
"21:36:33:939 (H:m:s:ms)","GENERIC","124.65299999999999","0.03955941445667065","1082"
"21:4:32:727 (H:m:s:ms)","GENERIC","62.269000000000005","0.03548890971331731","316"
"21:24:14:545 (H:m:s:ms)","GENERIC","124.34700000000001","0.052648588514283425","489"
"21:36:27:878 (H:m:s:ms)","GENERIC","93.409","0.06304637319128582","1148"
"21:4:38:787 (H:m:s:ms)","GENERIC","93.605","0.05303304148991056","242"
"21:24:18:227 (H:m:s:ms)","OPERA","93.257","0.07191714446613132","809"
"21:4:44:210 (H:m:s:ms)","AMBULANCE","62.260000000000005","0.06750065000433621","871"
"21:24:20:606 (H:m:s:ms)","GENERIC","93.293","0.09793969282768027","423"
"21:4:44:848 (H:m:s:ms)","GENERIC","124.509","0.05126616330484214","191"
"21:24:25:822 (H:m:s:ms)","OPERA","124.47","0.08307949741905234","209"
"21:4:50:909 (H:m:s:ms)","GENERIC","124.386","0.05699238842105064","1137"
"21:24:26:666 (H:m:s:ms)","GENERIC","93.196","0.05675069342120786","374"
"21:4:56:969 (H:m:s:ms)","GENERIC","124.411","0.03754162094926262","1054"
"21:5:3:30 (H:m:s:ms)","GENERIC","124.562","0.06213461955137617","1001"
"21:38:23:30 (H:m:s:ms)","GENERIC","93.398","0.03506956698834857","993"
"21:38:16:969 (H:m:s:ms)","GENERIC","93.13499999999999","0.03527068620486055","1057"
"21:38:10:909 (H:m:s:ms)","GENERIC","124.842","0.039646639894879675","1124"
"21:38:4:848 (H:m:s:ms)","GENERIC","93.159","0.035453938706649646","190"
"21:37:58:787 (H:m:s:ms)","GENERIC","93.294","0.06644704058617971","243"
"21:37:53:684 (H:m:s:ms)","AMBULANCE","93.59","0.07525967292905503","339"
"21:37:52:727 (H:m:s:ms)","GENERIC","62.071","0.04437924579118158","292"
"21:24:32:727 (H:m:s:ms)","GENERIC","93.377","0.06513457655681289","314"
"21:24:33:417 (H:m:s:ms)","OPERA","93.258","0.08084460176416046","612"
"21:5:9:90 (H:m:s:ms)","GENERIC","124.434","0.04304515190996994","987"
"21:24:38:787 (H:m:s:ms)","GENERIC","93.615","0.07447774515557906","240"
"21:5:15:151 (H:m:s:ms)","GENERIC","93.654","0.03898586885755552","874"
"21:24:41:12 (H:m:s:ms)","OPERA","124.482","0.08643934999179191","1021"
"21:37:46:666 (H:m:s:ms)","GENERIC","124.477","0.06214021523904663","366"
"20:45:34:177 (H:m:s:ms)","OPERA","93.481","0.08119110435068157","851"
"21:5:15:789 (H:m:s:ms)","AMBULANCE","62.217","0.07473655886517405","372"
"21:24:44:848 (H:m:s:ms)","GENERIC","124.489","0.09709401429573801","192"
"21:37:40:606 (H:m:s:ms)","GENERIC","93.2","0.047370828054385944","437"
"20:45:39:393 (H:m:s:ms)","GENERIC","124.68299999999999","0.09374081949915454","680"
"21:5:21:212 (H:m:s:ms)","GENERIC","62.311","0.04203772441542327","814"
"21:24:48:607 (H:m:s:ms)","OPERA","93.237","0.08452387983874549","423"
"21:37:34:545 (H:m:s:ms)","GENERIC","93.673","0.056121965269499766","484"
"20:45:41:772 (H:m:s:ms)","OPERA","62.208","0.07783113943038897","263"
"21:5:27:272 (H:m:s:ms)","GENERIC","93.398","0.057012937253929336","783"
"21:24:50:909 (H:m:s:ms)","GENERIC","93.21000000000001","0.06426297370943417","1135"
"21:37:28:484 (H:m:s:ms)","GENERIC","93.241","0.0374080694005428","547"
"20:45:45:454 (H:m:s:ms)","GENERIC","93.5","0.07539000537910578","586"
"21:5:33:333 (H:m:s:ms)","GENERIC","93.221","0.05390971467360324","709"
"21:24:56:202 (H:m:s:ms)","OPERA","124.47800000000001","0.06425312506923926","835"
"20:45:49:367 (H:m:s:ms)","OPERA","93.426","0.09786526422934437","704"
"21:5:39:393 (H:m:s:ms)","GENERIC","124.656","0.05653680313974823","688"
"21:24:56:969 (H:m:s:ms)","GENERIC","93.239","0.06903807326004234","1092"
"20:45:51:515 (H:m:s:ms)","GENERIC","124.63499999999999","0.09073974880802442","524"
"21:5:45:454 (H:m:s:ms)","GENERIC","93.473","0.053503222377454605","586"
"21:25:3:30 (H:m:s:ms)","GENERIC","124.612","0.06245701736107268","1000"
"20:45:56:962 (H:m:s:ms)","OPERA","93.444","0.059371097785947964","1069"
"21:5:47:368 (H:m:s:ms)","AMBULANCE","93.495","0.08225026754552445","670"
"20:45:57:575 (H:m:s:ms)","GENERIC","93.59","0.06704250048842943","495"
"21:5:51:515 (H:m:s:ms)","GENERIC","93.348","0.0862296166693552","520"
"20:46:3:636 (H:m:s:ms)","GENERIC","93.328","0.06535529936936987","404"
"20:46:4:556 (H:m:s:ms)","OPERA","93.453","0.08074743120463933","477"
"21:39:17:575 (H:m:s:ms)","GENERIC","124.39699999999999","0.04690826362733706","469"
"21:39:11:515 (H:m:s:ms)","GENERIC","124.381","0.04453535709669529","525"
"21:39:5:454 (H:m:s:ms)","GENERIC","93.608","0.04489592958273823","572"
"21:38:59:393 (H:m:s:ms)","GENERIC","124.781","0.05347168276768896","676"
"21:38:56:842 (H:m:s:ms)","AMBULANCE","62.257999999999996","0.033922902670738414","242"
"21:38:53:333 (H:m:s:ms)","GENERIC","124.613","0.029157809588449383","688"
"21:38:47:272 (H:m:s:ms)","GENERIC","125.003","0.04377147719083706","746"
"21:38:41:212 (H:m:s:ms)","GENERIC","93.56200000000001","0.054348351870669914","828"
"21:25:3:797 (H:m:s:ms)","OPERA","124.46600000000001","0.08919829921555762","270"
"21:25:9:90 (H:m:s:ms)","GENERIC","124.404","0.03607052166031369","975"
"21:5:57:575 (H:m:s:ms)","GENERIC","125.113","0.03902818361808845","461"
"21:25:11:392 (H:m:s:ms)","OPERA","124.452","0.06729989782832084","637"
"21:6:3:636 (H:m:s:ms)","GENERIC","124.667","0.04708976033318963","400"
"21:25:15:151 (H:m:s:ms)","GENERIC","125.094","0.04784172473161983","873"
"20:46:9:696 (H:m:s:ms)","GENERIC","124.374","0.06558063027576684","383"
"21:6:9:696 (H:m:s:ms)","GENERIC","93.238","0.0649526037309893","380"
"21:25:18:987 (H:m:s:ms)","OPERA","93.264","0.0604013209497621","1080"
"20:46:12:151 (H:m:s:ms)","OPERA","62.254","0.06100850447503065","882"
"21:6:15:757 (H:m:s:ms)","GENERIC","124.434","0.054164979360100986","275"
"21:25:21:212 (H:m:s:ms)","GENERIC","93.338","0.06816203857827739","808"
"21:38:35:151 (H:m:s:ms)","GENERIC","124.37299999999999","0.037030539659236424","884"
"20:46:15:757 (H:m:s:ms)","GENERIC","124.428","0.04790660499468726","283"
"21:6:18:947 (H:m:s:ms)","AMBULANCE","62.278999999999996","0.07741803140252268","1252"
"21:25:26:582 (H:m:s:ms)","OPERA","93.271","0.06336109594142038","448"
"21:38:29:90 (H:m:s:ms)","GENERIC","62.121","0.0678199384294777","980"
"20:46:19:746 (H:m:s:ms)","OPERA","62.254","0.05101557216954534","336"
"21:6:21:818 (H:m:s:ms)","GENERIC","93.25","0.07869482915247636","230"
"21:25:27:272 (H:m:s:ms)","GENERIC","93.34","0.07300853824586763","748"
"21:38:25:263 (H:m:s:ms)","AMBULANCE","62.306","0.06928256485463745","760"
"20:46:21:818 (H:m:s:ms)","GENERIC","93.259","0.05187965378548495","230"
"21:6:27:878 (H:m:s:ms)","GENERIC","93.391","0.034916731007003966","1151"
"21:25:33:333 (H:m:s:ms)","GENERIC","124.459","0.0740163727978503","706"
"20:46:27:341 (H:m:s:ms)","OPERA","62.253","0.055906384729671445","696"
"21:6:33:939 (H:m:s:ms)","GENERIC","93.376","0.027725469302997262","1086"
"21:25:34:177 (H:m:s:ms)","OPERA","93.257","0.0890108357885578","852"
"20:46:27:878 (H:m:s:ms)","GENERIC","62.355999999999995","0.07580477337035055","188"
"21:6:40:0 (H:m:s:ms)","GENERIC","124.917","0.05609064882151065","1081"
"20:46:33:939 (H:m:s:ms)","GENERIC","93.27600000000001","0.04383848669366288","1170"
"21:6:46:60 (H:m:s:ms)","GENERIC","124.583","0.021815670224672873","984"
"20:46:34:936 (H:m:s:ms)","OPERA","62.207","0.06578487095724118","1207"
"20:46:40:0 (H:m:s:ms)","GENERIC","93.496","0.07415782976991854","1073"
"21:39:29:696 (H:m:s:ms)","GENERIC","93.212","0.08123098917678065","372"
"21:40:6:60 (H:m:s:ms)","GENERIC","124.245","0.032572380924631904","975"
"21:40:0:0 (H:m:s:ms)","GENERIC","124.99700000000001","0.06313939732329024","1594"
"21:40:0:0 (H:m:s:ms)","GENERIC","93.375","0.053955997500835164","1565"
"21:40:0:0 (H:m:s:ms)","AMBULANCE","93.61","0.041547110970118165","1504"
"21:39:53:939 (H:m:s:ms)","GENERIC","93.32300000000001","0.04861960216759633","1097"
"21:39:47:878 (H:m:s:ms)","GENERIC","93.446","0.047508727773854516","1156"
"21:39:41:818 (H:m:s:ms)","GENERIC","93.326","0.0433667300472686","215"
"21:39:35:757 (H:m:s:ms)","GENERIC","124.21000000000001","0.04244601758893043","274"
"21:6:50:526 (H:m:s:ms)","AMBULANCE","62.281","0.04533632549159302","544"
"21:6:52:121 (H:m:s:ms)","GENERIC","124.684","0.05270235682456176","916"
"20:46:42:531 (H:m:s:ms)","OPERA","93.44800000000001","0.07555934565643416","504"
"21:6:58:181 (H:m:s:ms)","GENERIC","124.172","0.07978861428046193","848"
"20:46:46:60 (H:m:s:ms)","GENERIC","124.55099999999999","0.07932364906078188","983"
"21:7:4:242 (H:m:s:ms)","GENERIC","93.355","0.03022333051995527","795"
"20:46:50:126 (H:m:s:ms)","OPERA","62.214","0.0744175991894295","908"
"21:7:10:303 (H:m:s:ms)","GENERIC","93.53800000000001","0.04998202868315639","742"
"20:46:52:121 (H:m:s:ms)","GENERIC","93.429","0.07805425599529647","916"
"21:7:16:363 (H:m:s:ms)","GENERIC","124.249","0.05715639955404852","687"
"21:39:28:421 (H:m:s:ms)","AMBULANCE","93.596","0.0744540516137856","618"
"20:46:57:721 (H:m:s:ms)","OPERA","93.447","0.09578555612154539","309"
"21:7:22:105 (H:m:s:ms)","AMBULANCE","62.283","0.07081906717265521","931"
"21:39:23:636 (H:m:s:ms)","GENERIC","93.17699999999999","0.0434858880781155","401"
"20:46:58:181 (H:m:s:ms)","GENERIC","93.089","0.09003045902281685","850"
"21:7:22:424 (H:m:s:ms)","GENERIC","93.259","0.07346480954534879","653"
"20:47:4:242 (H:m:s:ms)","GENERIC","124.61600000000001","0.017997538260527496","799"
"21:7:28:484 (H:m:s:ms)","GENERIC","93.223","0.04866844422966389","550"
"20:47:5:316 (H:m:s:ms)","OPERA","62.207","0.05027717163873202","719"
"21:7:34:545 (H:m:s:ms)","GENERIC","125.118","0.03432810454300715","483"
"20:47:10:303 (H:m:s:ms)","GENERIC","124.995","0.058043578080864744","740"
"20:47:12:911 (H:m:s:ms)","OPERA","62.227000000000004","0.055385870300417354","1125"
"21:7:40:606 (H:m:s:ms)","GENERIC","93.194","0.016901676798928147","443"
"21:7:46:666 (H:m:s:ms)","GENERIC","124.50200000000001","0.04403640141138225","367"
"20:47:16:363 (H:m:s:ms)","GENERIC","124.28399999999999","0.05395792132226512","686"
"21:7:52:727 (H:m:s:ms)","GENERIC","93.338","0.04159572835258011","295"
"20:47:20:506 (H:m:s:ms)","OPERA","62.234","0.059575099169549596","524"
"21:7:53:684 (H:m:s:ms)","AMBULANCE","62.253","0.06808092998367242","361"
"20:47:22:424 (H:m:s:ms)","GENERIC","93.211","0.06777262666758761","613"
"21:7:58:787 (H:m:s:ms)","GENERIC","124.513","0.06246355943685195","248"
"20:47:28:101 (H:m:s:ms)","OPERA","93.425","0.05996925164189825","933"
"21:8:4:848 (H:m:s:ms)","GENERIC","93.12899999999999","0.030221429725658","193"
"20:47:28:484 (H:m:s:ms)","GENERIC","124.439","0.083785272249282","579"
"21:8:10:909 (H:m:s:ms)","GENERIC","124.869","0.03797468828212583","1123"
"20:47:34:545 (H:m:s:ms)","GENERIC","125.089","0.02804588179412781","488"
"21:8:16:969 (H:m:s:ms)","GENERIC","124.116","0.05603990076063825","1055"
"21:40:12:121 (H:m:s:ms)","GENERIC","124.33600000000001","0.039560606617083535","920"
"20:47:35:696 (H:m:s:ms)","OPERA","93.448","0.0758875247428714","339"
"21:8:23:30 (H:m:s:ms)","GENERIC","93.479","0.046915779471658904","994"
"20:47:40:606 (H:m:s:ms)","GENERIC","124.362","0.07769738935003731","442"
"21:8:25:263 (H:m:s:ms)","AMBULANCE","62.235","0.0847392355104602","778"
"20:47:43:291 (H:m:s:ms)","OPERA","62.21","0.05879227132662493","743"
"20:47:46:666 (H:m:s:ms)","GENERIC","124.51400000000001","0.08499728379817968","375"
"21:8:29:90 (H:m:s:ms)","GENERIC","124.43299999999999","0.08799485643036482","984"
"21:8:35:151 (H:m:s:ms)","GENERIC","124.439","0.05591583608681912","888"
"20:47:50:886 (H:m:s:ms)","OPERA","62.228","0.08532591324037767","147"
"21:8:41:212 (H:m:s:ms)","GENERIC","125.04599999999999","0.04388658685552451","826"
"20:47:52:727 (H:m:s:ms)","GENERIC","124.646","0.06377636945539535","296"
"21:8:47:272 (H:m:s:ms)","GENERIC","93.562","0.03198215046518925","751"
"20:30:0:0 (H:m:s:ms)","GENERIC","93.34299999999999","0.041023436211381076","1079"
"20:47:58:481 (H:m:s:ms)","OPERA","93.47200000000001","0.06632346397286759","553"
"21:8:53:333 (H:m:s:ms)","GENERIC","93.347","0.026216953945880576","691"
"20:30:0:0 (H:m:s:ms)","GENERIC","93.554","0.05428967442308675","1111"
"20:47:58:787 (H:m:s:ms)","GENERIC","93.279","0.07768522730925498","284"
"21:8:56:842 (H:m:s:ms)","AMBULANCE","62.25","0.07829079337073883","196"
"20:30:6:60 (H:m:s:ms)","GENERIC","124.286","0.03368900536468758","976"
"20:48:4:848 (H:m:s:ms)","GENERIC","124.121","0.05080511407143902","188"
"21:8:59:393 (H:m:s:ms)","GENERIC","124.74199999999999","0.10647252851986543","676"
"20:30:12:121 (H:m:s:ms)","GENERIC","124.45400000000001","0.05464404459869848","923"
"20:48:6:75 (H:m:s:ms)","OPERA","93.455","0.06908164204144528","966"
"21:9:5:454 (H:m:s:ms)","GENERIC","93.59299999999999","0.025561049792863895","575"
"20:30:18:181 (H:m:s:ms)","GENERIC","124.569","0.04184088992915358","861"
"20:48:10:909 (H:m:s:ms)","GENERIC","93.44399999999999","0.06535112757342505","1122"
"21:9:11:515 (H:m:s:ms)","GENERIC","124.392","0.03549961209398954","529"
"20:30:24:242 (H:m:s:ms)","GENERIC","93.118","0.047318372662240454","799"
"20:48:13:670 (H:m:s:ms)","OPERA","93.454","0.07433918272624845","363"
"21:9:17:575 (H:m:s:ms)","GENERIC","93.242","0.03207597976981274","472"
"20:30:30:303 (H:m:s:ms)","GENERIC","62.091","0.03397636913484977","730"
"20:48:16:969 (H:m:s:ms)","GENERIC","93.145","0.07318170744456416","1058"
"20:30:36:363 (H:m:s:ms)","GENERIC","124.49000000000001","0.07103649420372228","672"
"20:48:21:265 (H:m:s:ms)","OPERA","93.474","0.06452279545031626","768"
"20:30:42:424 (H:m:s:ms)","GENERIC","93.646","0.029814018713918106","603"
"20:30:48:484 (H:m:s:ms)","GENERIC","124.839","0.04820317144617322","552"
"21:9:23:636 (H:m:s:ms)","GENERIC","124.275","0.06390507193268875","399"
"21:9:28:421 (H:m:s:ms)","AMBULANCE","93.459","0.09021191194657092","608"
"20:48:23:30 (H:m:s:ms)","GENERIC","93.487","0.0630930200012935","993"
"21:9:29:696 (H:m:s:ms)","GENERIC","62.254000000000005","0.07377621088197045","380"
"20:48:28:860 (H:m:s:ms)","OPERA","93.5","0.09168386314776082","170"
"21:9:35:757 (H:m:s:ms)","GENERIC","124.21600000000001","0.03711477234654948","276"
"20:30:54:545 (H:m:s:ms)","GENERIC","124.937","0.055293923870619856","498"
"20:48:29:90 (H:m:s:ms)","GENERIC","93.312","0.09338611614513595","986"
"21:9:41:818 (H:m:s:ms)","GENERIC","93.373","0.03844346301718536","230"
"20:31:0:606 (H:m:s:ms)","GENERIC","93.386","0.052019301056381015","430"
"20:48:35:151 (H:m:s:ms)","GENERIC","93.208","0.04759122360880414","889"
"21:9:47:878 (H:m:s:ms)","GENERIC","124.83000000000001","0.05836082080229781","1164"
"20:31:6:666 (H:m:s:ms)","GENERIC","93.126","0.06517816181781076","362"
"20:48:36:455 (H:m:s:ms)","OPERA","62.228","0.07241173198050757","580"
"21:9:53:939 (H:m:s:ms)","GENERIC","124.467","0.06317782188925804","1101"
"20:31:12:727 (H:m:s:ms)","GENERIC","93.583","0.03608309513504657","308"
"20:48:41:212 (H:m:s:ms)","GENERIC","125.062","0.084407015700745","832"
"21:10:0:0 (H:m:s:ms)","AMBULANCE","62.34","0.039479192166894446","1120"
"20:31:18:787 (H:m:s:ms)","GENERIC","93.496","0.045361752590790456","237"
"20:48:47:272 (H:m:s:ms)","GENERIC","125.02199999999999","0.01696096351721565","749"
"21:10:0:0 (H:m:s:ms)","GENERIC","93.40899999999999","0.06611609033723348","1165"
"20:31:24:848 (H:m:s:ms)","GENERIC","93.481","0.06319862740878553","197"
"20:48:51:645 (H:m:s:ms)","OPERA","62.267","0.040127611260925566","388"
"21:10:0:0 (H:m:s:ms)","GENERIC","93.486","0.07469351191730951","1198"
"20:31:30:909 (H:m:s:ms)","GENERIC","125.017","0.050047752145686804","1132"
"20:48:53:333 (H:m:s:ms)","GENERIC","124.63","0.07210004622502482","690"
"20:31:36:969 (H:m:s:ms)","GENERIC","125.065","0.04658786905777728","1061"
"20:48:59:240 (H:m:s:ms)","OPERA","62.227999999999994","0.08037148277363002","884"
"20:31:43:30 (H:m:s:ms)","GENERIC","124.598","0.02400841356754996","1015"
"20:31:49:90 (H:m:s:ms)","GENERIC","93.46600000000001","0.03797992083252841","984"
"20:48:59:393 (H:m:s:ms)","GENERIC","124.825","0.05334238190706765","697"
"20:49:5:454 (H:m:s:ms)","GENERIC","62.119","0.04053315174684229","576"
"20:31:55:151 (H:m:s:ms)","GENERIC","124.497","0.044866838206283975","878"
"20:49:6:835 (H:m:s:ms)","OPERA","62.254","0.0493306806081891","207"
"20:32:1:212 (H:m:s:ms)","GENERIC","93.489","0.04045783402982453","811"
"20:49:11:515 (H:m:s:ms)","GENERIC","124.366","0.07859967067747249","531"
"20:32:7:272 (H:m:s:ms)","GENERIC","124.25","0.06267585900579664","770"
"20:49:14:430 (H:m:s:ms)","OPERA","62.214","0.0936913089017241","606"
"20:32:13:333 (H:m:s:ms)","GENERIC","124.169","0.03906310516291508","698"
"20:49:17:575 (H:m:s:ms)","GENERIC","124.463","0.0724183724230257","476"
"20:32:19:393 (H:m:s:ms)","GENERIC","93.208","0.07184488663921508","677"
"20:49:22:25 (H:m:s:ms)","OPERA","62.204","0.06413161866953113","1007"
"20:32:25:454 (H:m:s:ms)","GENERIC","93.322","0.028831588253910564","581"
"20:49:23:636 (H:m:s:ms)","GENERIC","62.061","0.060064893765589884","404"
"20:32:31:515 (H:m:s:ms)","GENERIC","124.58099999999999","0.05365816530430675","524"
"20:49:29:620 (H:m:s:ms)","OPERA","93.406","0.058905236327172907","462"
"20:32:37:575 (H:m:s:ms)","GENERIC","124.43299999999999","0.040232107914779346","460"
"20:49:29:696 (H:m:s:ms)","GENERIC","93.376","0.08674705517658002","429"
"20:32:43:636 (H:m:s:ms)","GENERIC","62.099","0.04326918328582362","397"
"20:32:49:696 (H:m:s:ms)","GENERIC","124.195","0.03830346407599179","382"
"20:49:35:757 (H:m:s:ms)","GENERIC","124.218","0.02798095585688686","279"
"20:49:37:215 (H:m:s:ms)","OPERA","93.43599999999999","0.06887491110568403","820"
"20:32:55:757 (H:m:s:ms)","GENERIC","124.275","0.04849647910177516","282"
"20:49:41:818 (H:m:s:ms)","GENERIC","124.668","0.07023340589776915","234"
"20:33:1:818 (H:m:s:ms)","GENERIC","125.162","0.04183281766530482","214"
"20:49:44:810 (H:m:s:ms)","OPERA","93.463","0.08193425470709839","229"
"20:33:7:878 (H:m:s:ms)","GENERIC","93.652","0.060027374019468026","1145"
"20:49:47:878 (H:m:s:ms)","GENERIC","93.533","0.08518244281847187","1164"
"20:33:13:939 (H:m:s:ms)","GENERIC","93.271","0.02644274731831921","1094"
"20:49:52:405 (H:m:s:ms)","OPERA","62.227999999999994","0.0678366478957159","635"
"20:33:20:0 (H:m:s:ms)","GENERIC","93.241","0.038541863156626145","1083"
"20:49:53:939 (H:m:s:ms)","GENERIC","124.536","0.06532555165971521","1103"
"20:33:26:60 (H:m:s:ms)","GENERIC","93.469","0.04341859480786321","962"
"20:50:0:0 (H:m:s:ms)","OPERA","93.401","0.06996963722851089","1086"
"20:33:32:121 (H:m:s:ms)","GENERIC","93.176","0.04151446654297379","915"
"20:50:0:0 (H:m:s:ms)","GENERIC","124.655","0.07666175370312803","1135"
"20:33:38:181 (H:m:s:ms)","GENERIC","124.128","0.023707828206450253","855"
"20:50:0:0 (H:m:s:ms)","GENERIC","93.527","0.08344456509561397","1171"
"20:33:44:242 (H:m:s:ms)","GENERIC","124.563","0.0705650556797914","784"
"20:33:50:303 (H:m:s:ms)","GENERIC","124.489","0.03650116771579411","730"
"20:50:6:60 (H:m:s:ms)","GENERIC","124.256","0.05115051487861067","979"
"20:50:12:121 (H:m:s:ms)","GENERIC","93.225","0.02995486365403163","926"
"20:33:56:363 (H:m:s:ms)","GENERIC","124.67099999999999","0.058681552029020895","680"
"20:50:18:181 (H:m:s:ms)","GENERIC","124.584","0.05124205586031284","864"
"20:34:2:424 (H:m:s:ms)","GENERIC","124.906","0.06509927097434214","610"
"20:50:24:242 (H:m:s:ms)","GENERIC","124.225","0.038731199351030955","804"
"20:10:0:0 (H:m:s:ms)","GENERIC","62.260999999999996","0.034926197556330064","1040"
"20:34:8:484 (H:m:s:ms)","GENERIC","93.15","0.024903589997006387","560"
"20:50:30:303 (H:m:s:ms)","GENERIC","93.28399999999999","0.028240590972018233","732"
"20:10:0:0 (H:m:s:ms)","GENERIC","125.061","0.05221805065958913","1111"
"20:34:14:545 (H:m:s:ms)","GENERIC","124.31899999999999","0.022440698515412666","490"
"20:50:36:363 (H:m:s:ms)","GENERIC","93.28200000000001","0.05650306223056983","768"
"20:10:6:60 (H:m:s:ms)","GENERIC","93.191","0.04566450821827749","974"
"20:34:20:606 (H:m:s:ms)","GENERIC","93.323","0.04187209766114303","434"
"20:50:42:424 (H:m:s:ms)","GENERIC","125.205","0.05993249268464232","608"
"20:10:12:121 (H:m:s:ms)","GENERIC","124.34299999999999","0.03593074676857179","923"
"20:34:26:666 (H:m:s:ms)","GENERIC","124.4","0.02526514347478695","377"
"20:50:48:484 (H:m:s:ms)","GENERIC","93.46799999999999","0.0319091925180708","563"
"20:10:18:181 (H:m:s:ms)","GENERIC","124.548","0.06104330483363614","857"
"20:34:32:727 (H:m:s:ms)","GENERIC","93.55799999999999","0.026748213749025265","301"
"20:50:54:545 (H:m:s:ms)","GENERIC","93.54899999999999","0.032791610607520706","506"
"20:10:24:242 (H:m:s:ms)","GENERIC","124.217","0.07479161183423604","796"
"20:34:38:787 (H:m:s:ms)","GENERIC","93.551","0.03314226186366708","239"
"20:51:0:606 (H:m:s:ms)","GENERIC","124.777","0.03264723484295312","433"
"20:10:30:303 (H:m:s:ms)","GENERIC","93.251","0.044814705305496604","727"
"20:34:44:848 (H:m:s:ms)","GENERIC","124.491","0.0390106180152988","193"
"20:10:36:363 (H:m:s:ms)","GENERIC","124.434","0.04865826000934299","673"
"20:34:50:909 (H:m:s:ms)","GENERIC","93.207","0.03864690605856725","1134"
"20:10:42:424 (H:m:s:ms)","GENERIC","93.657","0.03211403481635017","603"
"20:10:48:484 (H:m:s:ms)","GENERIC","124.853","0.0377969466504225","554"
"20:51:6:666 (H:m:s:ms)","GENERIC","93.113","0.07080556794734856","367"
"20:51:12:727 (H:m:s:ms)","GENERIC","93.588","0.06268988414418032","310"
"20:34:56:969 (H:m:s:ms)","GENERIC","62.057","0.05762215285808052","1051"
"20:51:18:787 (H:m:s:ms)","GENERIC","124.91","0.019675595176968385","240"
"20:35:3:30 (H:m:s:ms)","GENERIC","124.53999999999999","0.0464212765144064","1001"
"20:51:24:848 (H:m:s:ms)","GENERIC","124.839","0.04842418664463666","201"
"20:10:54:545 (H:m:s:ms)","GENERIC","125.006","0.022403152257681996","498"
"20:35:9:90 (H:m:s:ms)","GENERIC","93.271","0.04965849862043188","979"
"20:51:30:909 (H:m:s:ms)","GENERIC","125.082","0.024012406344616384","1138"
"20:11:0:606 (H:m:s:ms)","GENERIC","93.388","0.05552441848369389","429"
"20:35:15:151 (H:m:s:ms)","GENERIC","93.696","0.040949738885095","873"
"20:51:36:969 (H:m:s:ms)","GENERIC","93.611","0.044122837066632656","1064"
"20:11:6:666 (H:m:s:ms)","GENERIC","124.172","0.04013942859953174","363"
"20:35:21:212 (H:m:s:ms)","GENERIC","93.26","0.07281157274519055","808"
"20:51:43:30 (H:m:s:ms)","GENERIC","93.25","0.06498708265680678","1005"
"20:11:12:727 (H:m:s:ms)","GENERIC","125.18","0.05691336173891921","311"
"20:35:27:272 (H:m:s:ms)","GENERIC","93.124","0.0621525952898229","764"
"20:51:49:90 (H:m:s:ms)","GENERIC","124.813","0.030918415588238515","991"
"20:11:18:787 (H:m:s:ms)","GENERIC","93.5","0.05132866038067165","237"
"20:35:33:333 (H:m:s:ms)","GENERIC","124.472","0.057167464889757456","706"
"20:51:55:151 (H:m:s:ms)","GENERIC","124.46600000000001","0.04989391882893544","881"
"20:11:24:848 (H:m:s:ms)","GENERIC","124.90100000000001","0.06820696339850443","192"
"20:35:39:393 (H:m:s:ms)","GENERIC","93.376","0.05188372340516403","684"
"20:52:1:212 (H:m:s:ms)","GENERIC","124.834","0.03826626458569994","810"
"20:11:30:909 (H:m:s:ms)","GENERIC","93.50999999999999","0.036303898178403314","1132"
"20:35:45:454 (H:m:s:ms)","GENERIC","93.512","0.05078430289147935","581"
"20:11:36:969 (H:m:s:ms)","GENERIC","93.574","0.042961643009740334","1062"
"20:35:51:515 (H:m:s:ms)","GENERIC","124.658","0.06012661444997647","525"
"20:11:43:30 (H:m:s:ms)","GENERIC","93.307","0.039396434093353236","1012"
"20:11:49:90 (H:m:s:ms)","GENERIC","124.805","0.04378260279058323","974"
"20:0:54:545 (H:m:s:ms)","GENERIC","62.504999999999995","0.05622843262599448","497"
"20:1:0:606 (H:m:s:ms)","GENERIC","93.667","0.029986631202829822","424"
"20:1:6:666 (H:m:s:ms)","GENERIC","62.089","0.047277421804330824","363"
"20:1:12:727 (H:m:s:ms)","GENERIC","94.082","0.0454836790354644","307"
"20:1:18:787 (H:m:s:ms)","GENERIC","93.894","0.024053728861435086","236"
"20:1:24:848 (H:m:s:ms)","GENERIC","93.839","0.06772754436330254","194"
"20:1:30:909 (H:m:s:ms)","GENERIC","62.507","0.05917178656138852","1133"
"20:1:36:969 (H:m:s:ms)","GENERIC","62.537","0.055285459759103976","1059"
"20:1:43:30 (H:m:s:ms)","GENERIC","93.576","0.0559971764077733","1006"
"20:1:49:90 (H:m:s:ms)","GENERIC","93.826","0.05765192478561622","957"
"20:35:57:575 (H:m:s:ms)","GENERIC","93.567","0.05154405574794303","460"
"20:36:3:636 (H:m:s:ms)","GENERIC","124.588","0.03329240379513823","401"
"20:11:55:151 (H:m:s:ms)","GENERIC","124.41999999999999","0.07492136595952","876"
"20:36:9:696 (H:m:s:ms)","GENERIC","93.203","0.05894186013667759","377"
"20:12:1:212 (H:m:s:ms)","GENERIC","124.87700000000001","0.04331968569947184","809"
"20:36:15:757 (H:m:s:ms)","GENERIC","93.205","0.0342726391673839","281"
"20:12:7:272 (H:m:s:ms)","GENERIC","93.187","0.05592979749157397","766"
"20:36:21:818 (H:m:s:ms)","GENERIC","93.22","0.02854925072431707","229"
"20:12:13:333 (H:m:s:ms)","GENERIC","124.197","0.03745858849153599","698"
"20:36:27:878 (H:m:s:ms)","GENERIC","93.293","0.05713496007485091","1170"
"20:12:19:393 (H:m:s:ms)","GENERIC","93.206","0.05679100034694882","677"
"20:36:33:939 (H:m:s:ms)","GENERIC","93.173","0.05649601703486361","1085"
"20:12:25:454 (H:m:s:ms)","GENERIC","93.368","0.05618966744712821","572"
"20:36:40:0 (H:m:s:ms)","GENERIC","93.452","0.030404443784061725","1070"
"20:12:31:515 (H:m:s:ms)","GENERIC","124.67699999999999","0.07269153473963494","523"
"20:36:46:60 (H:m:s:ms)","GENERIC","124.61500000000001","0.04399306025662104","980"
"20:12:37:575 (H:m:s:ms)","GENERIC","62.099","0.032513099190951536","458"
"20:36:52:121 (H:m:s:ms)","GENERIC","93.437","0.04274584735270709","918"
"20:12:43:636 (H:m:s:ms)","GENERIC","93.196","0.04134670662820661","397"
"20:12:49:696 (H:m:s:ms)","GENERIC","124.202","0.05572296294419593","379"
"20:1:55:151 (H:m:s:ms)","GENERIC","93.394","0.07217055697615728","877"
"20:2:1:212 (H:m:s:ms)","GENERIC","62.473","0.07180382999587583","810"
"20:2:7:272 (H:m:s:ms)","GENERIC","93.181","0.061341835137913886","769"
"20:2:13:333 (H:m:s:ms)","GENERIC","62.120999999999995","0.03848369189501356","698"
"20:2:19:393 (H:m:s:ms)","GENERIC","62.155","0.07117755897891506","657"
"20:2:25:454 (H:m:s:ms)","GENERIC","62.306","0.05719285907070897","568"
"20:2:31:515 (H:m:s:ms)","GENERIC","62.296","0.05813249063854872","522"
"20:2:37:575 (H:m:s:ms)","GENERIC","93.34","0.03640299698707751","459"
"20:2:43:636 (H:m:s:ms)","GENERIC","93.17","0.04115641113970236","396"
"20:2:49:696 (H:m:s:ms)","GENERIC","93.14500000000001","0.06722477307787884","359"
"20:36:58:181 (H:m:s:ms)","GENERIC","124.119","0.0514542474479852","847"
"20:37:4:242 (H:m:s:ms)","GENERIC","124.588","0.056619790143650206","795"
"20:12:55:757 (H:m:s:ms)","GENERIC","93.14699999999999","0.030498073250591354","281"
"20:37:10:303 (H:m:s:ms)","GENERIC","93.559","0.03182024265614865","742"
"20:13:1:818 (H:m:s:ms)","GENERIC","93.701","0.0342933077064555","213"
"20:37:16:363 (H:m:s:ms)","GENERIC","124.3","0.04533846013314069","687"
"20:13:7:878 (H:m:s:ms)","GENERIC","125.163","0.07523209566829998","1144"
"20:37:22:424 (H:m:s:ms)","GENERIC","93.239","0.03632072467206834","616"
"20:13:13:939 (H:m:s:ms)","GENERIC","124.521","0.06504248404115827","1093"
"20:37:28:484 (H:m:s:ms)","GENERIC","124.45400000000001","0.0754546093554983","551"
"20:13:20:0 (H:m:s:ms)","GENERIC","93.249","0.04235599977255593","1081"
"20:37:34:545 (H:m:s:ms)","GENERIC","125.037","0.06337214501675091","485"
"20:13:26:60 (H:m:s:ms)","GENERIC","93.469","0.05311741516764668","963"
"20:37:40:606 (H:m:s:ms)","GENERIC","124.434","0.05654722617331976","439"
"20:13:32:121 (H:m:s:ms)","GENERIC","124.355","0.05425050632458838","912"
"20:37:46:666 (H:m:s:ms)","GENERIC","93.26599999999999","0.04844440412085085","364"
"20:13:38:181 (H:m:s:ms)","GENERIC","124.214","0.03216786626241182","850"
"20:37:52:727 (H:m:s:ms)","GENERIC","62.306","0.04878256106968437","294"
"20:13:44:242 (H:m:s:ms)","GENERIC","124.594","0.06119763859752721","785"
"20:13:50:303 (H:m:s:ms)","GENERIC","124.544","0.038980905437746974","733"
"20:2:55:757 (H:m:s:ms)","GENERIC","93.23400000000001","0.06104475125049389","280"
"20:3:1:818 (H:m:s:ms)","GENERIC","94.107","0.04380098845762989","214"
"20:3:7:878 (H:m:s:ms)","GENERIC","62.568","0.054074087403808764","144"
"20:3:13:939 (H:m:s:ms)","GENERIC","93.479","0.0554613001307698","1093"
"20:3:20:0 (H:m:s:ms)","GENERIC","62.187","0.043370210569291065","1044"
"20:3:26:60 (H:m:s:ms)","GENERIC","93.735","0.06719618268491423","959"
"20:3:32:121 (H:m:s:ms)","GENERIC","93.249","0.057496544771218266","909"
"20:3:38:181 (H:m:s:ms)","GENERIC","62.099000000000004","0.04350501295053409","852"
"20:3:44:242 (H:m:s:ms)","GENERIC","93.606","0.04218166047014178","789"
"20:3:50:303 (H:m:s:ms)","GENERIC","93.509","0.05765936310238105","732"
"20:37:58:787 (H:m:s:ms)","GENERIC","124.518","0.05518679890002707","248"
"20:38:4:848 (H:m:s:ms)","GENERIC","62.053","0.034801021696368624","194"
"20:13:56:363 (H:m:s:ms)","GENERIC","93.44200000000001","0.06769826869309631","677"
"20:38:10:909 (H:m:s:ms)","GENERIC","93.435","0.06415878807468953","1124"
"20:14:2:424 (H:m:s:ms)","GENERIC","124.813","0.05470978704216537","613"
"20:38:16:969 (H:m:s:ms)","GENERIC","124.168","0.05894357066755374","1057"
"20:14:8:484 (H:m:s:ms)","GENERIC","124.28800000000001","0.030116390938430396","554"
"20:38:23:30 (H:m:s:ms)","GENERIC","93.418","0.07071841709505179","993"
"20:14:14:545 (H:m:s:ms)","GENERIC","124.362","0.03558342404108184","489"
"20:38:29:90 (H:m:s:ms)","GENERIC","93.3","0.05102685556502748","985"
"20:14:20:606 (H:m:s:ms)","GENERIC","124.805","0.06345047761454047","439"
"20:38:35:151 (H:m:s:ms)","GENERIC","93.252","0.032974127227453805","893"
"20:14:26:666 (H:m:s:ms)","GENERIC","124.408","0.026280101102313696","373"
"20:38:41:212 (H:m:s:ms)","GENERIC","93.606","0.05883160679435595","835"
"20:14:32:727 (H:m:s:ms)","GENERIC","62.115","0.038674686466281256","300"
"20:38:47:272 (H:m:s:ms)","GENERIC","93.583","0.027934103701310428","750"
"20:14:38:787 (H:m:s:ms)","GENERIC","125.01499999999999","0.04952827876553316","237"
"20:38:53:333 (H:m:s:ms)","GENERIC","62.27","0.047376318215843156","733"
"20:14:44:848 (H:m:s:ms)","GENERIC","93.309","0.039254538305213","189"
"20:14:50:909 (H:m:s:ms)","GENERIC","93.198","0.05405067253292393","1131"
"20:3:56:363 (H:m:s:ms)","GENERIC","62.421","0.03241152115765368","680"
"20:4:2:424 (H:m:s:ms)","GENERIC","62.391000000000005","0.030471872579284156","617"
"20:4:8:484 (H:m:s:ms)","GENERIC","93.247","0.06707314037207993","552"
"20:4:14:545 (H:m:s:ms)","GENERIC","93.328","0.0523191669232238","489"
"20:4:20:606 (H:m:s:ms)","GENERIC","62.376999999999995","0.05414053380996615","428"
"20:4:26:666 (H:m:s:ms)","GENERIC","62.187","0.04051645795459275","372"
"20:4:32:727 (H:m:s:ms)","GENERIC","93.987","0.04374130961968034","300"
"20:4:38:787 (H:m:s:ms)","GENERIC","62.501000000000005","0.03958492814587736","239"
"20:4:44:848 (H:m:s:ms)","GENERIC","62.287","0.02674469222549906","194"
"20:4:50:909 (H:m:s:ms)","GENERIC","62.197","0.030949561222762517","1132"
"20:38:59:393 (H:m:s:ms)","GENERIC","124.782","0.0605890784597349","675"
"20:39:5:454 (H:m:s:ms)","GENERIC","125.08500000000001","0.041120282779638605","578"
"20:14:56:969 (H:m:s:ms)","GENERIC","93.258","0.06724532264094993","1051"
"20:39:11:515 (H:m:s:ms)","GENERIC","124.374","0.050503816156381824","533"
"20:15:3:30 (H:m:s:ms)","GENERIC","93.306","0.0417551486422956","999"
"20:39:17:575 (H:m:s:ms)","GENERIC","62.073","0.040447496832313426","476"
"20:15:9:90 (H:m:s:ms)","GENERIC","124.416","0.058060578537453104","975"
"20:39:23:636 (H:m:s:ms)","GENERIC","124.29400000000001","0.047019423788456166","403"
"20:15:15:151 (H:m:s:ms)","GENERIC","93.648","0.032130524580732296","872"
"20:39:29:696 (H:m:s:ms)","GENERIC","93.515","0.03946248006089437","368"
"20:15:21:212 (H:m:s:ms)","GENERIC","93.343","0.05340862026629093","812"
"20:39:35:757 (H:m:s:ms)","GENERIC","124.184","0.038399749341957785","278"
"20:15:27:272 (H:m:s:ms)","GENERIC","93.14","0.04520194945821149","762"
"20:39:41:818 (H:m:s:ms)","GENERIC","124.721","0.042539186953545985","232"
"20:15:33:333 (H:m:s:ms)","GENERIC","124.387","0.028970523229053788","707"
"20:39:47:878 (H:m:s:ms)","GENERIC","124.93","0.04627712906288235","1161"
"20:15:39:393 (H:m:s:ms)","GENERIC","93.395","0.05444960378695432","681"
"20:39:53:939 (H:m:s:ms)","GENERIC","93.294","0.037286838442533075","1101"
"20:15:45:454 (H:m:s:ms)","GENERIC","124.819","0.06067641412035775","587"
"20:15:51:515 (H:m:s:ms)","GENERIC","124.65","0.039185355351980075","525"
"20:4:56:969 (H:m:s:ms)","GENERIC","62.230000000000004","0.043547901643784775","1055"
"20:5:3:30 (H:m:s:ms)","GENERIC","62.301","0.05392052431295455","1000"
"20:5:9:90 (H:m:s:ms)","GENERIC","62.209","0.05530371242549132","967"
"20:5:15:151 (H:m:s:ms)","GENERIC","94.065","0.04127289156559326","872"
"20:5:21:212 (H:m:s:ms)","GENERIC","62.263","0.04676403601161883","814"
"20:5:27:272 (H:m:s:ms)","GENERIC","93.17","0.03754390023521481","762"
"20:5:33:333 (H:m:s:ms)","GENERIC","93.428","0.06162200181432058","708"
"20:5:39:393 (H:m:s:ms)","GENERIC","93.666","0.05138862615501643","668"
"20:5:45:454 (H:m:s:ms)","GENERIC","62.468","0.056443802886479155","588"
"20:5:51:515 (H:m:s:ms)","GENERIC","62.313","0.06127583308478018","526"
"20:15:57:575 (H:m:s:ms)","GENERIC","125.069","0.023400650447493343","458"
"20:16:3:636 (H:m:s:ms)","GENERIC","93.368","0.05692807278562728","402"
"20:16:9:696 (H:m:s:ms)","GENERIC","93.256","0.03675732699750812","376"
"20:16:15:757 (H:m:s:ms)","GENERIC","93.275","0.026933600927809106","276"
"20:16:21:818 (H:m:s:ms)","GENERIC","124.381","0.03577105867547567","226"
"20:16:27:878 (H:m:s:ms)","GENERIC","93.598","0.025332431092008376","145"
"20:16:33:939 (H:m:s:ms)","GENERIC","93.12299999999999","0.07067946865969359","1081"
"20:16:40:0 (H:m:s:ms)","GENERIC","124.82300000000001","0.018623719188068728","1073"
"20:16:46:60 (H:m:s:ms)","GENERIC","93.322","0.04537508056369077","980"
"20:16:52:121 (H:m:s:ms)","GENERIC","93.42099999999999","0.0519952379429277","916"
"20:5:57:575 (H:m:s:ms)","GENERIC","94.072","0.06621183583933421","460"
"20:6:3:636 (H:m:s:ms)","GENERIC","62.328","0.041969129071935854","402"
"20:6:9:696 (H:m:s:ms)","GENERIC","93.383","0.03774858352736578","366"
"20:6:15:757 (H:m:s:ms)","GENERIC","62.22","0.05230409231226606","271"
"20:6:21:818 (H:m:s:ms)","GENERIC","93.357","0.057602813301866694","227"
"20:6:27:878 (H:m:s:ms)","GENERIC","62.251999999999995","0.05217461668204148","191"
"20:6:33:939 (H:m:s:ms)","GENERIC","62.105000000000004","0.06007637013163293","1086"
"20:6:40:0 (H:m:s:ms)","GENERIC","62.433","0.05492707905064408","1037"
"20:6:46:60 (H:m:s:ms)","GENERIC","62.30500000000001","0.02415571704527845","983"
"20:6:52:121 (H:m:s:ms)","GENERIC","93.781","0.07310319201621361","919"
"20:16:58:181 (H:m:s:ms)","GENERIC","93.112","0.02822190124321605","850"
"20:17:4:242 (H:m:s:ms)","GENERIC","93.30199999999999","0.04775555650064327","789"
"20:17:10:303 (H:m:s:ms)","GENERIC","125.06899999999999","0.06064030406007015","738"
"20:17:16:363 (H:m:s:ms)","GENERIC","93.131","0.055342828874627194","687"
"20:17:22:424 (H:m:s:ms)","GENERIC","124.361","0.03864862962981051","612"
"20:17:28:484 (H:m:s:ms)","GENERIC","124.47800000000001","0.05688372609019822","547"
"20:17:34:545 (H:m:s:ms)","GENERIC","125.036","0.07929117183186059","484"
"20:17:40:606 (H:m:s:ms)","GENERIC","93.257","0.05488991591055743","438"
"20:17:46:666 (H:m:s:ms)","GENERIC","93.381","0.061713724774366076","368"
"20:17:52:727 (H:m:s:ms)","GENERIC","124.985","0.04977702620974636","314"
"20:6:58:181 (H:m:s:ms)","GENERIC","62.101","0.04248651927123285","850"
"20:7:4:242 (H:m:s:ms)","GENERIC","93.58699999999999","0.022494722031374214","797"
"20:7:10:303 (H:m:s:ms)","GENERIC","93.941","0.030228888412130492","739"
"20:7:16:363 (H:m:s:ms)","GENERIC","62.143","0.04117077551806649","685"
"20:7:22:424 (H:m:s:ms)","GENERIC","62.183","0.023644732467889527","614"
"20:7:28:484 (H:m:s:ms)","GENERIC","93.412","0.06043551531627121","542"
"20:7:34:545 (H:m:s:ms)","GENERIC","62.531000000000006","0.05623114271190061","484"
"20:7:40:606 (H:m:s:ms)","GENERIC","93.38499999999999","0.03326599425616842","440"
"20:7:46:666 (H:m:s:ms)","GENERIC","93.328","0.07230417656321289","361"
"20:7:52:727 (H:m:s:ms)","GENERIC","93.937","0.06280826878318796","310"
"20:17:58:787 (H:m:s:ms)","GENERIC","93.295","0.05388094000521832","245"
"20:18:4:848 (H:m:s:ms)","GENERIC","124.106","0.02794132318825588","192"
"20:18:10:909 (H:m:s:ms)","GENERIC","124.774","0.06363135269378585","1121"
"20:18:16:969 (H:m:s:ms)","GENERIC","93.151","0.05086123652947147","1057"
"20:18:23:30 (H:m:s:ms)","GENERIC","93.44800000000001","0.06395075084775999","991"
"20:18:29:90 (H:m:s:ms)","GENERIC","62.091","0.03771616503700852","981"
"20:18:35:151 (H:m:s:ms)","GENERIC","124.427","0.02230036964336043","889"
"20:18:41:212 (H:m:s:ms)","GENERIC","93.589","0.06564742599473863","829"
"20:18:47:272 (H:m:s:ms)","GENERIC","125.032","0.03810790003447306","747"
"20:18:53:333 (H:m:s:ms)","GENERIC","124.434","0.03253766657114501","707"
"20:7:58:787 (H:m:s:ms)","GENERIC","93.461","0.02650265800966715","249"
"20:8:4:848 (H:m:s:ms)","GENERIC","93.105","0.031148088296621832","192"
"20:8:10:909 (H:m:s:ms)","GENERIC","93.792","0.05680533203258045","1125"
"20:8:16:969 (H:m:s:ms)","GENERIC","62.08","0.0524655863595452","1055"
"20:8:23:30 (H:m:s:ms)","GENERIC","62.423","0.04503937956722442","993"
"20:8:29:90 (H:m:s:ms)","GENERIC","93.381","0.03943511379425677","978"
"20:8:35:151 (H:m:s:ms)","GENERIC","62.191","0.03360001933713083","885"
"20:8:41:212 (H:m:s:ms)","GENERIC","93.99","0.06163284328084713","828"
"20:8:47:272 (H:m:s:ms)","GENERIC","93.989","0.029802617425531242","747"
"20:8:53:333 (H:m:s:ms)","GENERIC","93.375","0.03462608299410852","709"
"20:18:59:393 (H:m:s:ms)","GENERIC","62.085","0.04093299651969826","687"
"20:19:5:454 (H:m:s:ms)","GENERIC","93.63300000000001","0.03621537960360309","575"
"20:19:11:515 (H:m:s:ms)","GENERIC","93.23400000000001","0.03947697255631036","528"
"20:19:17:575 (H:m:s:ms)","GENERIC","93.215","0.019202738149278545","471"
"20:19:23:636 (H:m:s:ms)","GENERIC","124.249","0.06155161270930898","400"
"20:19:29:696 (H:m:s:ms)","GENERIC","125.06","0.026511980002754485","364"
"20:19:35:757 (H:m:s:ms)","GENERIC","93.147","0.05162835705145915","274"
"20:19:41:818 (H:m:s:ms)","GENERIC","93.348","0.05272063898758342","229"
"20:19:47:878 (H:m:s:ms)","GENERIC","124.825","0.04625808525435254","1157"
"20:19:53:939 (H:m:s:ms)","GENERIC","93.294","0.07058578604507894","1096"
"20:8:59:393 (H:m:s:ms)","GENERIC","93.739","0.02739112270123337","685"
"20:9:5:454 (H:m:s:ms)","GENERIC","31.072","0.050479949570517386","572"
"20:9:11:515 (H:m:s:ms)","GENERIC","62.188","0.024321202558803674","526"
"20:9:17:575 (H:m:s:ms)","GENERIC","62.177","0.0421652672011885","467"
"20:9:23:636 (H:m:s:ms)","GENERIC","62.119","0.025866937351239804","403"
"20:9:29:696 (H:m:s:ms)","GENERIC","62.498000000000005","0.04567364915223525","368"
"20:9:35:757 (H:m:s:ms)","GENERIC","93.149","0.04559758947803158","275"
"20:9:41:818 (H:m:s:ms)","GENERIC","93.599","0.05838638785574986","225"
"20:9:47:878 (H:m:s:ms)","GENERIC","93.778","0.030014349392552306","160"
"20:9:53:939 (H:m:s:ms)","GENERIC","93.47","0.058358521950652664","1098"
"21:40:54:545 (H:m:s:ms)","GENERIC","124.984","0.045263661736628526","496"
"21:40:48:484 (H:m:s:ms)","GENERIC","93.52","0.06273164826016936","549"
"21:40:42:424 (H:m:s:ms)","GENERIC","125.161","0.025079061791712952","604"
"21:40:36:363 (H:m:s:ms)","GENERIC","93.358","0.032609166841891926","659"
"21:40:30:303 (H:m:s:ms)","GENERIC","93.26400000000001","0.038340726913072436","726"
"21:40:24:242 (H:m:s:ms)","GENERIC","124.281","0.058213830766772626","890"
"21:40:18:181 (H:m:s:ms)","GENERIC","124.604","0.055197313380212595","859"
"21:41:12:727 (H:m:s:ms)","GENERIC","62.137","0.034049029644809076","308"
"21:41:6:666 (H:m:s:ms)","GENERIC","124.178","0.03553307062615366","362"
"21:41:0:606 (H:m:s:ms)","GENERIC","124.765","0.03638846785378847","427"
