"time (H:m:s:ms)","type","latency","utilisation","waiting"
"21:43:1:818 (H:m:s:ms)","GENERIC","62.045","0.16759127132421106","183"
"21:42:43:636 (H:m:s:ms)","GENERIC","62.049","0.15998770422953212","365"
"21:42:37:575 (H:m:s:ms)","GENERIC","62.067","0.16011691136313938","426"
"21:42:31:515 (H:m:s:ms)","GENERIC","62.147","0.16189408206791642","486"
"21:42:25:454 (H:m:s:ms)","GENERIC","62.039","0.1621085857198838","547"
"21:42:19:393 (H:m:s:ms)","GENERIC","62.027","0.16227364661259075","646"
"21:42:13:333 (H:m:s:ms)","GENERIC","62.043","0.1626999437092668","668"
"21:42:7:272 (H:m:s:ms)","GENERIC","62.049","0.16273940114598698","730"
"21:42:1:212 (H:m:s:ms)","GENERIC","62.041","0.16685695442143794","789"
"21:42:55:757 (H:m:s:ms)","GENERIC","62.043","0.16328283973038504","243"
"21:42:49:696 (H:m:s:ms)","GENERIC","62.051","0.16126316092258514","343"
"21:44:8:484 (H:m:s:ms)","GENERIC","62.133","0.16318539737909923","516"
"21:44:2:424 (H:m:s:ms)","GENERIC","62.045","0.16280459271078052","577"
"21:43:50:303 (H:m:s:ms)","GENERIC","62.089","0.1638252832824209","699"
"20:0:0:0 (H:m:s:ms)","GENERIC","31.046","0.020593058880945085","2424"
"21:43:44:242 (H:m:s:ms)","GENERIC","62.057","0.16339380038188828","761"
"20:0:6:60 (H:m:s:ms)","GENERIC","31.049","0.036917447519786525","941"
"21:43:38:181 (H:m:s:ms)","GENERIC","62.073","0.1639669432811634","821"
"20:0:12:121 (H:m:s:ms)","GENERIC","31.036","0.03778921840287428","882"
"21:43:32:121 (H:m:s:ms)","GENERIC","62.109","0.1637096138192712","879"
"20:0:18:181 (H:m:s:ms)","GENERIC","31.062","0.039100364327805365","819"
"21:43:26:60 (H:m:s:ms)","GENERIC","62.115","0.16160877781325525","941"
"20:0:24:242 (H:m:s:ms)","GENERIC","31.047","0.04278077257891693","761"
"21:43:20:0 (H:m:s:ms)","GENERIC","62.141","0.16590007544041707","1039"
"20:0:30:303 (H:m:s:ms)","GENERIC","31.052","0.04571702574052932","700"
"21:43:13:939 (H:m:s:ms)","GENERIC","62.159","0.1672095878566507","1062"
"20:0:36:363 (H:m:s:ms)","GENERIC","31.04","0.052240521763116124","640"
"21:43:7:878 (H:m:s:ms)","GENERIC","62.061","0.16768115716046453","1123"
"20:0:42:424 (H:m:s:ms)","GENERIC","31.053","0.06074218709640241","578"
"21:10:36:363 (H:m:s:ms)","GENERIC","62.059","0.17175369083730627","639"
"20:0:48:484 (H:m:s:ms)","GENERIC","31.064","0.06159429377395121","518"
"21:10:42:424 (H:m:s:ms)","GENERIC","62.123","0.16862323481850636","578"
"21:10:48:484 (H:m:s:ms)","GENERIC","62.085","0.16827959071353077","517"
"21:10:54:545 (H:m:s:ms)","GENERIC","62.071","0.16914606817058817","455"
"21:11:0:606 (H:m:s:ms)","GENERIC","62.093","0.1696020154475935","396"
"21:11:6:666 (H:m:s:ms)","GENERIC","62.127","0.1693625530078739","335"
"21:11:12:727 (H:m:s:ms)","GENERIC","62.099","0.16944995370167307","273"
"21:11:18:787 (H:m:s:ms)","GENERIC","62.065","0.1718173751239917","215"
"21:43:56:363 (H:m:s:ms)","GENERIC","62.113","0.16578537081095832","637"
"21:11:24:848 (H:m:s:ms)","GENERIC","62.075","0.17189527105304153","154"
"21:11:30:909 (H:m:s:ms)","GENERIC","62.099","0.1701932101122345","1090"
"21:25:57:575 (H:m:s:ms)","GENERIC","62.077","0.21867729326173088","426"
"21:45:15:151 (H:m:s:ms)","GENERIC","62.083","0.1576668257865435","850"
"21:45:9:90 (H:m:s:ms)","GENERIC","62.077","0.15397809464453466","949"
"21:45:3:30 (H:m:s:ms)","GENERIC","62.087","0.15305296308371266","971"
"21:44:56:969 (H:m:s:ms)","GENERIC","62.065","0.15583126189053903","1032"
"21:44:50:909 (H:m:s:ms)","GENERIC","62.131","0.15548983359434582","1092"
"21:44:44:848 (H:m:s:ms)","GENERIC","62.193","0.1550048504509833","152"
"21:44:38:787 (H:m:s:ms)","GENERIC","62.051","0.153277359755132","215"
"21:44:32:727 (H:m:s:ms)","GENERIC","62.119","0.15701168238209692","275"
"21:44:26:666 (H:m:s:ms)","GENERIC","62.031","0.15891148867858063","335"
"21:44:20:606 (H:m:s:ms)","GENERIC","31.018","0.1587038190598891","460"
"21:11:36:969 (H:m:s:ms)","GENERIC","62.085","0.16965480603927333","1032"
"21:44:14:545 (H:m:s:ms)","GENERIC","62.099","0.16323036068331345","457"
"21:11:43:30 (H:m:s:ms)","GENERIC","62.173","0.17295295440135716","970"
"21:11:49:90 (H:m:s:ms)","GENERIC","62.125","0.1741238770878955","951"
"21:11:55:151 (H:m:s:ms)","GENERIC","62.045","0.17460425203688332","850"
"21:12:1:212 (H:m:s:ms)","GENERIC","62.037","0.17748798302991747","790"
"21:12:7:272 (H:m:s:ms)","GENERIC","62.037","0.17695670635428204","730"
"21:12:13:333 (H:m:s:ms)","GENERIC","62.061","0.175980130241578","668"
"21:12:19:393 (H:m:s:ms)","GENERIC","62.019","0.17639014899315683","647"
"21:12:25:454 (H:m:s:ms)","GENERIC","62.041","0.16933892556150176","547"
"21:12:31:515 (H:m:s:ms)","GENERIC","62.141","0.16608642398554546","486"
"21:26:34:936 (H:m:s:ms)","OPERA","62.013","0.22099024158382724","1067"
"21:46:21:818 (H:m:s:ms)","GENERIC","62.079","0.15268063034102747","184"
"21:26:33:939 (H:m:s:ms)","GENERIC","62.039","0.2170890247591781","1063"
"21:46:15:757 (H:m:s:ms)","GENERIC","62.023","0.15332284508452557","244"
"21:46:9:696 (H:m:s:ms)","GENERIC","62.101","0.15148579821902727","343"
"21:46:3:636 (H:m:s:ms)","GENERIC","62.083","0.15186168492234164","365"
"21:26:27:341 (H:m:s:ms)","OPERA","31.009","0.2119667767970022","659"
"21:26:21:818 (H:m:s:ms)","GENERIC","62.045","0.2152693389307685","184"
"21:45:57:575 (H:m:s:ms)","GENERIC","62.075","0.14708248044323555","426"
"21:26:19:746 (H:m:s:ms)","OPERA","31.009","0.21313073186164383","289"
"21:45:51:515 (H:m:s:ms)","GENERIC","62.013","0.15097761300657092","487"
"21:26:15:757 (H:m:s:ms)","GENERIC","62.055","0.21746013713376663","244"
"21:45:45:454 (H:m:s:ms)","GENERIC","62.151","0.15099731886786175","546"
"21:26:12:151 (H:m:s:ms)","OPERA","31.009","0.21548077025967846","849"
"21:45:39:393 (H:m:s:ms)","GENERIC","62.111","0.15534581805618541","645"
"21:26:9:696 (H:m:s:ms)","GENERIC","62.107","0.21341312498839796","342"
"21:45:33:333 (H:m:s:ms)","GENERIC","62.145","0.15535872405322815","669"
"21:12:37:575 (H:m:s:ms)","GENERIC","62.087","0.16537946744973278","427"
"21:26:4:556 (H:m:s:ms)","OPERA","31.009","0.21497017505155486","444"
"21:45:27:272 (H:m:s:ms)","GENERIC","62.115","0.15405549084398126","729"
"21:12:43:636 (H:m:s:ms)","GENERIC","62.029","0.16337554450959826","365"
"21:26:3:636 (H:m:s:ms)","GENERIC","62.075","0.213928061222834","365"
"21:45:21:212 (H:m:s:ms)","GENERIC","62.061","0.1571121423168006","790"
"21:12:49:696 (H:m:s:ms)","GENERIC","62.107","0.16037987705179732","346"
"21:12:55:757 (H:m:s:ms)","GENERIC","62.029","0.16232667477264345","243"
"21:13:1:818 (H:m:s:ms)","GENERIC","62.043","0.16312727958397444","184"
"21:13:7:878 (H:m:s:ms)","GENERIC","62.041","0.16318514990520522","1124"
"21:13:13:939 (H:m:s:ms)","GENERIC","62.125","0.1626765516717408","1061"
"21:13:20:0 (H:m:s:ms)","GENERIC","62.171","0.1620221135014413","1041"
"21:13:26:60 (H:m:s:ms)","GENERIC","62.107","0.15989957393395482","941"
"21:13:32:121 (H:m:s:ms)","GENERIC","62.101","0.1584852081515933","879"
"21:26:27:878 (H:m:s:ms)","GENERIC","62.113","0.2146420096725687","1122"
"21:27:12:911 (H:m:s:ms)","OPERA","62.015","0.21795220629883044","1088"
"21:47:28:484 (H:m:s:ms)","GENERIC","62.055","0.14404929658956409","517"
"21:27:10:303 (H:m:s:ms)","GENERIC","62.047","0.2161361184123597","699"
"21:47:22:424 (H:m:s:ms)","GENERIC","62.063","0.1428077858261279","578"
"21:27:5:316 (H:m:s:ms)","OPERA","31.009","0.21750630572811744","684"
"21:47:16:363 (H:m:s:ms)","GENERIC","62.089","0.14324100924283176","638"
"21:47:10:303 (H:m:s:ms)","GENERIC","62.093","0.14379594749238178","698"
"21:47:4:242 (H:m:s:ms)","GENERIC","62.077","0.1433135396377737","759"
"21:27:4:242 (H:m:s:ms)","GENERIC","62.077","0.21483038416340408","759"
"21:26:58:181 (H:m:s:ms)","GENERIC","62.047","0.21736473809276266","820"
"21:26:57:721 (H:m:s:ms)","OPERA","31.009","0.21742574791612812","279"
"21:46:58:181 (H:m:s:ms)","GENERIC","62.089","0.14310191482771492","820"
"21:26:52:121 (H:m:s:ms)","GENERIC","62.133","0.21743084940663013","880"
"21:46:52:121 (H:m:s:ms)","GENERIC","62.129","0.14493014119002978","880"
"21:26:50:126 (H:m:s:ms)","OPERA","31.008","0.21736415781854823","874"
"21:46:46:60 (H:m:s:ms)","GENERIC","62.089","0.14443759247092922","941"
"21:13:38:181 (H:m:s:ms)","GENERIC","62.035","0.16046876427114357","820"
"21:26:46:60 (H:m:s:ms)","GENERIC","62.051","0.217411851117035","941"
"21:46:40:0 (H:m:s:ms)","GENERIC","62.067","0.14677168951965314","1040"
"21:13:44:242 (H:m:s:ms)","GENERIC","62.101","0.15910715200766068","759"
"21:26:42:531 (H:m:s:ms)","OPERA","62.013","0.2179874674036698","469"
"21:46:33:939 (H:m:s:ms)","GENERIC","62.043","0.15064539098703586","1063"
"21:13:50:303 (H:m:s:ms)","GENERIC","62.103","0.16181948001362306","699"
"21:26:40:0 (H:m:s:ms)","GENERIC","62.066","0.2167671440239046","1039"
"21:46:27:878 (H:m:s:ms)","GENERIC","62.127","0.15432770749770974","1121"
"21:13:56:363 (H:m:s:ms)","GENERIC","62.117","0.16348106137179771","637"
"21:14:2:424 (H:m:s:ms)","GENERIC","62.079","0.16233257561583123","577"
"21:14:8:484 (H:m:s:ms)","GENERIC","62.123","0.16531579809210215","516"
"21:14:14:545 (H:m:s:ms)","GENERIC","62.051","0.16615095269105606","458"
"21:14:20:606 (H:m:s:ms)","GENERIC","62.101","0.1658398310309175","395"
"21:14:26:666 (H:m:s:ms)","GENERIC","62.069","0.1675092343568608","335"
"21:14:32:727 (H:m:s:ms)","GENERIC","62.137","0.16718635394640108","274"
"21:27:50:886 (H:m:s:ms)","OPERA","31.008","0.21337600054362835","114"
"21:48:35:151 (H:m:s:ms)","GENERIC","62.117","0.1404587154973772","850"
"21:27:46:666 (H:m:s:ms)","GENERIC","62.085","0.21512666659367202","336"
"21:48:29:90 (H:m:s:ms)","GENERIC","62.069","0.14208852890169468","948"
"21:27:43:291 (H:m:s:ms)","OPERA","31.009","0.21483970942034553","709"
"21:48:23:30 (H:m:s:ms)","GENERIC","62.033","0.1415171097295972","971"
"21:27:40:606 (H:m:s:ms)","GENERIC","62.037","0.2139327113551437","395"
"21:48:16:969 (H:m:s:ms)","GENERIC","62.137","0.13757551779107252","1033"
"21:48:10:909 (H:m:s:ms)","GENERIC","62.121","0.13681648540866218","1092"
"21:48:4:848 (H:m:s:ms)","GENERIC","62.131","0.13563196700445515","153"
"21:27:35:696 (H:m:s:ms)","OPERA","31.009","0.21522954937928254","304"
"21:27:34:545 (H:m:s:ms)","GENERIC","62.103","0.21304596446307997","455"
"21:27:28:484 (H:m:s:ms)","GENERIC","62.053","0.21627421682118428","517"
"21:47:58:787 (H:m:s:ms)","GENERIC","62.073","0.1403220876249258","215"
"21:14:38:787 (H:m:s:ms)","GENERIC","62.053","0.16678213216230486","215"
"21:27:28:101 (H:m:s:ms)","OPERA","31.009","0.2148260250025694","898"
"21:47:52:727 (H:m:s:ms)","GENERIC","62.103","0.14526485139845846","274"
"21:14:44:848 (H:m:s:ms)","GENERIC","62.157","0.16619194500122747","152"
"21:27:22:424 (H:m:s:ms)","GENERIC","62.085","0.2144728646440448","577"
"21:47:46:666 (H:m:s:ms)","GENERIC","62.089","0.14685521517977737","335"
"20:52:31:515 (H:m:s:ms)","GENERIC","62.107","0.19149172952093688","487"
"21:14:50:909 (H:m:s:ms)","GENERIC","62.105","0.16327589011589835","1091"
"21:27:20:506 (H:m:s:ms)","OPERA","31.009","0.21139313062930512","494"
"21:47:40:606 (H:m:s:ms)","GENERIC","62.065","0.14709651552554026","396"
"20:52:37:575 (H:m:s:ms)","GENERIC","62.079","0.18844761729181966","426"
"21:14:56:969 (H:m:s:ms)","GENERIC","62.087","0.1637273980583063","1031"
"21:27:16:363 (H:m:s:ms)","GENERIC","62.051","0.2150899004525692","638"
"21:47:34:545 (H:m:s:ms)","GENERIC","62.091","0.1428712836938436","457"
"20:52:43:636 (H:m:s:ms)","GENERIC","62.025","0.1906389516393668","364"
"21:15:3:30 (H:m:s:ms)","GENERIC","62.075","0.16047206515067824","971"
"20:52:49:696 (H:m:s:ms)","GENERIC","62.071","0.18859215648443772","348"
"21:15:9:90 (H:m:s:ms)","GENERIC","62.081","0.1597067523295577","948"
"20:52:55:757 (H:m:s:ms)","GENERIC","62.067","0.18809832359542394","244"
"21:15:15:151 (H:m:s:ms)","GENERIC","62.085","0.1592060106635228","850"
"20:53:1:818 (H:m:s:ms)","GENERIC","62.055","0.18831961431775376","183"
"21:15:21:212 (H:m:s:ms)","GENERIC","62.085","0.15532749545938496","789"
"20:53:7:878 (H:m:s:ms)","GENERIC","62.043","0.1866136017968917","1123"
"21:15:27:272 (H:m:s:ms)","GENERIC","62.133","0.1595073116349939","727"
"20:53:13:939 (H:m:s:ms)","GENERIC","62.099","0.18454855012116553","1061"
"21:15:33:333 (H:m:s:ms)","GENERIC","62.111","0.15871597289004258","668"
"20:53:20:0 (H:m:s:ms)","GENERIC","62.201","0.18454869964609547","1046"
"20:53:26:60 (H:m:s:ms)","GENERIC","62.117","0.18204830554234816","941"
"21:28:29:90 (H:m:s:ms)","GENERIC","62.049","0.20514010167124355","947"
"21:49:41:818 (H:m:s:ms)","GENERIC","62.167","0.14220506469636027","182"
"21:28:23:30 (H:m:s:ms)","GENERIC","62.045","0.20810964121474426","970"
"21:49:35:757 (H:m:s:ms)","GENERIC","62.085","0.1371798858710327","245"
"21:28:21:265 (H:m:s:ms)","OPERA","62.015","0.2069092632184022","735"
"21:49:29:696 (H:m:s:ms)","GENERIC","62.061","0.13706419907988807","344"
"21:28:16:969 (H:m:s:ms)","GENERIC","62.107","0.21063951104404996","1032"
"21:49:23:636 (H:m:s:ms)","GENERIC","62.075","0.1378479808884662","366"
"21:28:13:670 (H:m:s:ms)","OPERA","31.009","0.21211751934054818","330"
"21:49:17:575 (H:m:s:ms)","GENERIC","62.063","0.1379374827332631","425"
"21:49:11:515 (H:m:s:ms)","GENERIC","62.135","0.13522939360879072","486"
"21:49:5:454 (H:m:s:ms)","GENERIC","62.109","0.13597832265519613","548"
"21:28:10:909 (H:m:s:ms)","GENERIC","62.085","0.2102324031092278","1092"
"21:15:39:393 (H:m:s:ms)","GENERIC","62.087","0.1631498949033472","642"
"21:28:6:75 (H:m:s:ms)","OPERA","62.015","0.21179798642952843","925"
"21:15:45:454 (H:m:s:ms)","GENERIC","62.135","0.16101705928935822","546"
"21:28:4:848 (H:m:s:ms)","GENERIC","62.115","0.20963163913105373","153"
"21:48:59:393 (H:m:s:ms)","GENERIC","62.083","0.13717156263996724","644"
"20:53:32:121 (H:m:s:ms)","GENERIC","62.073","0.17839770803015711","880"
"21:15:51:515 (H:m:s:ms)","GENERIC","62.083","0.16062892847803364","486"
"21:27:58:787 (H:m:s:ms)","GENERIC","62.039","0.20983387360269293","216"
"21:48:53:333 (H:m:s:ms)","GENERIC","62.111","0.13814197469332995","668"
"20:53:38:181 (H:m:s:ms)","GENERIC","62.043","0.1768927798284013","820"
"21:15:57:575 (H:m:s:ms)","GENERIC","62.083","0.16380851783565062","426"
"21:27:58:481 (H:m:s:ms)","OPERA","31.008","0.20987577711277025","519"
"21:48:47:272 (H:m:s:ms)","GENERIC","62.077","0.137924785150882","729"
"20:53:44:242 (H:m:s:ms)","GENERIC","62.087","0.17705816421741502","760"
"21:16:3:636 (H:m:s:ms)","GENERIC","62.083","0.163471475733054","365"
"21:27:52:727 (H:m:s:ms)","GENERIC","62.097","0.21367539254050866","274"
"21:48:41:212 (H:m:s:ms)","GENERIC","62.077","0.13832159172994443","789"
"20:53:50:303 (H:m:s:ms)","GENERIC","62.137","0.1738069411723344","699"
"21:16:9:696 (H:m:s:ms)","GENERIC","62.111","0.16388170924323867","340"
"20:53:56:363 (H:m:s:ms)","GENERIC","62.151","0.17218758024485256","636"
"21:16:15:757 (H:m:s:ms)","GENERIC","62.055","0.16502597112288114","244"
"20:54:2:424 (H:m:s:ms)","GENERIC","62.045","0.1727061641215669","577"
"21:16:21:818 (H:m:s:ms)","GENERIC","62.031","0.16091149234670105","184"
"20:54:8:484 (H:m:s:ms)","GENERIC","62.093","0.17606700304771994","515"
"21:16:27:878 (H:m:s:ms)","GENERIC","62.103","0.16106330110512218","1121"
"20:54:14:545 (H:m:s:ms)","GENERIC","62.045","0.17543167100625232","457"
"21:16:33:939 (H:m:s:ms)","GENERIC","62.035","0.160630049721578","1063"
"20:54:20:606 (H:m:s:ms)","GENERIC","62.081","0.17536263814527486","395"
"20:54:26:666 (H:m:s:ms)","GENERIC","62.069","0.17812127931176036","335"
"21:29:6:835 (H:m:s:ms)","OPERA","62.015","0.20938898496883662","165"
"22:34:12:631 (H:m:s:ms)","AMBULANCE","62.051","0.016753247335853847","371"
"21:29:5:454 (H:m:s:ms)","GENERIC","62.083","0.20659580829921959","547"
"22:6:18:947 (H:m:s:ms)","AMBULANCE","31.009","0.0620258434356323","1060"
"21:28:59:393 (H:m:s:ms)","GENERIC","62.073","0.20928446258674008","645"
"22:4:44:210 (H:m:s:ms)","AMBULANCE","31.009","0.0739662098324127","793"
"21:28:59:240 (H:m:s:ms)","OPERA","31.009","0.20738660329614889","796"
"22:4:12:631 (H:m:s:ms)","AMBULANCE","31.028","0.06262966952358995","370"
"21:28:53:333 (H:m:s:ms)","GENERIC","62.121","0.20780788672142847","668"
"22:3:41:52 (H:m:s:ms)","AMBULANCE","31.01","0.047684050875883","954"
"21:28:51:645 (H:m:s:ms)","OPERA","62.015","0.20718808401731495","355"
"22:3:9:473 (H:m:s:ms)","AMBULANCE","31.01","0.03608378066846902","538"
"22:0:31:578 (H:m:s:ms)","AMBULANCE","31.009","0.03345344901280512","427"
"22:0:0:0 (H:m:s:ms)","AMBULANCE","31.009","0.024530273226033968","2326"
"21:16:40:0 (H:m:s:ms)","GENERIC","62.051","0.1579512746015791","1037"
"21:16:46:60 (H:m:s:ms)","GENERIC","62.063","0.1590320161856565","941"
"21:28:47:272 (H:m:s:ms)","GENERIC","62.049","0.20855948440831726","728"
"20:54:32:727 (H:m:s:ms)","GENERIC","62.117","0.179262605751553","274"
"21:16:52:121 (H:m:s:ms)","GENERIC","62.117","0.1585532794375415","880"
"21:28:44:50 (H:m:s:ms)","OPERA","31.009","0.20565152973566336","950"
"20:54:38:787 (H:m:s:ms)","GENERIC","62.063","0.17659906160605868","214"
"21:16:58:181 (H:m:s:ms)","GENERIC","62.031","0.15855543860491894","820"
"21:28:41:212 (H:m:s:ms)","GENERIC","62.063","0.2039110224315096","789"
"21:50:0:0 (H:m:s:ms)","GENERIC","62.061","0.1378890580087081","1039"
"20:54:44:848 (H:m:s:ms)","GENERIC","62.123","0.1758803833482534","152"
"21:17:4:242 (H:m:s:ms)","GENERIC","62.087","0.15622284110033488","759"
"21:28:36:455 (H:m:s:ms)","OPERA","62.015","0.20600083330351715","545"
"21:49:53:939 (H:m:s:ms)","GENERIC","62.097","0.13810887153925944","1062"
"20:54:50:909 (H:m:s:ms)","GENERIC","62.061","0.17450540659817004","1092"
"21:17:10:303 (H:m:s:ms)","GENERIC","62.029","0.1546803497416707","698"
"21:28:35:151 (H:m:s:ms)","GENERIC","62.123","0.20377681206263484","849"
"21:49:47:878 (H:m:s:ms)","GENERIC","62.135","0.14066629860148835","1122"
"20:54:56:969 (H:m:s:ms)","GENERIC","62.053","0.17767980375956777","1031"
"21:17:16:363 (H:m:s:ms)","GENERIC","62.037","0.15801687135888176","639"
"20:55:3:30 (H:m:s:ms)","GENERIC","62.073","0.1730558737645615","971"
"21:17:22:424 (H:m:s:ms)","GENERIC","62.103","0.15903033117049606","577"
"20:55:9:90 (H:m:s:ms)","GENERIC","62.065","0.17195877837109583","954"
"21:17:28:484 (H:m:s:ms)","GENERIC","62.041","0.1604562023943499","517"
"20:55:15:151 (H:m:s:ms)","GENERIC","62.073","0.1748035857220303","850"
"21:17:34:545 (H:m:s:ms)","GENERIC","62.099","0.16047934023650398","455"
"20:55:21:212 (H:m:s:ms)","GENERIC","62.059","0.1747840184008257","790"
"20:55:27:272 (H:m:s:ms)","GENERIC","62.115","0.17641753063056817","728"
"21:29:44:810 (H:m:s:ms)","OPERA","31.009","0.20672386448850594","190"
"21:29:41:818 (H:m:s:ms)","GENERIC","62.137","0.2046455069351885","183"
"21:29:37:215 (H:m:s:ms)","OPERA","31.009","0.20645381947569377","784"
"21:29:35:757 (H:m:s:ms)","GENERIC","62.087","0.20516171066279126","245"
"21:29:29:696 (H:m:s:ms)","GENERIC","62.059","0.20647678285814824","342"
"21:29:29:620 (H:m:s:ms)","OPERA","31.01","0.20634439749508707","416"
"21:29:23:636 (H:m:s:ms)","GENERIC","62.071","0.20790599619666922","367"
"21:17:40:606 (H:m:s:ms)","GENERIC","62.037","0.1621982459118203","396"
"21:17:46:666 (H:m:s:ms)","GENERIC","62.065","0.16242347507061383","335"
"20:55:33:333 (H:m:s:ms)","GENERIC","62.111","0.1759639150961007","668"
"21:17:52:727 (H:m:s:ms)","GENERIC","62.093","0.16240963892004848","274"
"20:55:39:393 (H:m:s:ms)","GENERIC","62.093","0.17651809585421593","652"
"21:17:58:787 (H:m:s:ms)","GENERIC","62.031","0.15941061270086695","214"
"21:29:22:25 (H:m:s:ms)","OPERA","62.015","0.20764537497341592","974"
"20:55:45:454 (H:m:s:ms)","GENERIC","62.117","0.17413960252072985","546"
"21:18:4:848 (H:m:s:ms)","GENERIC","62.109","0.15902411789872598","152"
"21:29:17:575 (H:m:s:ms)","GENERIC","62.085","0.20816772299169262","426"
"20:55:51:515 (H:m:s:ms)","GENERIC","62.051","0.17732301610012355","486"
"21:18:10:909 (H:m:s:ms)","GENERIC","62.079","0.15895582584042214","1091"
"21:29:14:430 (H:m:s:ms)","OPERA","62.015","0.21048205751131133","571"
"23:34:12:631 (H:m:s:ms)","AMBULANCE","62.135","0.006162750908453656","371"
"20:55:57:575 (H:m:s:ms)","GENERIC","62.105","0.17947865147733413","426"
"21:18:16:969 (H:m:s:ms)","GENERIC","62.083","0.16089403764499016","1032"
"21:29:11:515 (H:m:s:ms)","GENERIC","62.115","0.20976375823357554","486"
"23:4:12:631 (H:m:s:ms)","AMBULANCE","62.093","0.024532669073132764","371"
"20:56:3:636 (H:m:s:ms)","GENERIC","62.079","0.180143127981177","365"
"21:18:23:30 (H:m:s:ms)","GENERIC","31.017","0.16604336112384244","971"
"20:56:9:696 (H:m:s:ms)","GENERIC","62.111","0.1796010610117466","351"
"21:18:29:90 (H:m:s:ms)","GENERIC","62.055","0.16694191939672307","948"
"20:56:15:757 (H:m:s:ms)","GENERIC","62.067","0.17915617302149947","244"
"21:18:35:151 (H:m:s:ms)","GENERIC","62.125","0.16657113267348353","851"
"20:56:21:818 (H:m:s:ms)","GENERIC","62.045","0.178845024807437","184"
"20:56:27:878 (H:m:s:ms)","GENERIC","62.115","0.18024634593984198","1122"
"21:30:24:242 (H:m:s:ms)","GENERIC","62.099","0.20013503268907598","759"
"21:30:18:181 (H:m:s:ms)","GENERIC","62.131","0.19929001439806465","819"
"21:30:12:121 (H:m:s:ms)","GENERIC","62.075","0.1981616523917979","880"
"21:30:6:60 (H:m:s:ms)","GENERIC","62.093","0.20299060721535683","939"
"21:30:0:0 (H:m:s:ms)","GENERIC","62.063","0.2049091777128283","1039"
"21:30:0:0 (H:m:s:ms)","GENERIC","62.059","0.20170143878948804","1037"
"21:30:0:0 (H:m:s:ms)","AMBULANCE","31.016","0.20487334754454017","1064"
"21:30:0:0 (H:m:s:ms)","OPERA","31.009","0.20520379452167614","1064"
"21:18:41:212 (H:m:s:ms)","GENERIC","62.049","0.1644675118293281","789"
"21:18:47:272 (H:m:s:ms)","GENERIC","62.037","0.16488140376149166","729"
"20:56:33:939 (H:m:s:ms)","GENERIC","62.065","0.176705935045472","1063"
"21:18:53:333 (H:m:s:ms)","GENERIC","62.131","0.1644596839362791","668"
"20:56:40:0 (H:m:s:ms)","GENERIC","62.051","0.1764766057982132","1047"
"21:18:59:393 (H:m:s:ms)","GENERIC","62.063","0.16219110081200278","644"
"20:40:0:0 (H:m:s:ms)","OPERA","31.009","0.140646942953092","2349"
"20:56:46:60 (H:m:s:ms)","GENERIC","62.087","0.17649246595378265","942"
"21:19:5:454 (H:m:s:ms)","GENERIC","62.093","0.16228230130040353","547"
"20:40:0:0 (H:m:s:ms)","GENERIC","62.095","0.14464122048542605","2351"
"20:56:52:121 (H:m:s:ms)","GENERIC","62.083","0.178969220074517","880"
"21:19:11:515 (H:m:s:ms)","GENERIC","62.095","0.15990645312933588","486"
"21:29:53:939 (H:m:s:ms)","GENERIC","62.085","0.20265123205228125","1063"
"20:40:0:0 (H:m:s:ms)","GENERIC","62.105","0.14470533677439637","2354"
"20:56:58:181 (H:m:s:ms)","GENERIC","62.029","0.17974702858531977","821"
"21:19:17:575 (H:m:s:ms)","GENERIC","62.091","0.1576809886465067","426"
"21:29:52:405 (H:m:s:ms)","OPERA","31.009","0.20243835559589882","595"
"20:40:6:60 (H:m:s:ms)","GENERIC","62.101","0.14520615189278147","940"
"20:57:4:242 (H:m:s:ms)","GENERIC","62.101","0.17770057180475882","759"
"21:19:23:636 (H:m:s:ms)","GENERIC","62.073","0.15745368237581153","366"
"21:29:47:878 (H:m:s:ms)","GENERIC","62.107","0.20475838314828973","1123"
"20:40:12:121 (H:m:s:ms)","GENERIC","62.097","0.14055774462748222","880"
"20:57:10:303 (H:m:s:ms)","GENERIC","62.017","0.1768649558552278","697"
"21:19:29:696 (H:m:s:ms)","GENERIC","62.069","0.1583413462494908","341"
"20:40:15:189 (H:m:s:ms)","OPERA","31.009","0.14144747885526493","812"
"20:57:16:363 (H:m:s:ms)","GENERIC","62.019","0.17569897417823344","638"
"21:19:35:757 (H:m:s:ms)","GENERIC","62.109","0.15649879140620526","244"
"20:40:18:181 (H:m:s:ms)","GENERIC","62.095","0.1464208874586603","819"
"20:57:22:424 (H:m:s:ms)","GENERIC","62.119","0.17208282313481493","578"
"20:40:22:784 (H:m:s:ms)","OPERA","31.009","0.147877406569932","218"
"20:57:28:484 (H:m:s:ms)","GENERIC","62.067","0.17254721951305366","517"
"20:40:24:242 (H:m:s:ms)","GENERIC","62.133","0.14980959595734702","759"
"20:40:30:303 (H:m:s:ms)","GENERIC","62.125","0.149003804999225","698"
"21:30:36:363 (H:m:s:ms)","GENERIC","62.043","0.1991247895661444","638"
"21:31:18:787 (H:m:s:ms)","GENERIC","62.065","0.19617528232852782","214"
"21:31:12:727 (H:m:s:ms)","GENERIC","62.089","0.20041823501175385","273"
"21:31:6:666 (H:m:s:ms)","GENERIC","62.161","0.2011818668354325","335"
"21:31:3:157 (H:m:s:ms)","AMBULANCE","31.033","0.20254852266741974","848"
"21:31:0:606 (H:m:s:ms)","GENERIC","62.085","0.20254770866920785","395"
"21:30:54:545 (H:m:s:ms)","GENERIC","62.093","0.20104289522035498","455"
"21:30:48:484 (H:m:s:ms)","GENERIC","62.071","0.20113696013064936","516"
"21:19:41:818 (H:m:s:ms)","GENERIC","62.131","0.15610265986565472","182"
"21:30:42:424 (H:m:s:ms)","GENERIC","62.091","0.19791218548352113","576"
"21:19:47:878 (H:m:s:ms)","GENERIC","62.093","0.1576213688894989","1122"
"20:57:34:545 (H:m:s:ms)","GENERIC","62.107","0.17251177666419923","455"
"21:19:53:939 (H:m:s:ms)","GENERIC","62.087","0.15501132514380725","1062"
"20:57:40:606 (H:m:s:ms)","GENERIC","62.067","0.17140239469002053","396"
"21:20:0:0 (H:m:s:ms)","OPERA","62.015","0.15460631488310891","2417"
"20:40:30:379 (H:m:s:ms)","OPERA","31.009","0.1504947021519198","624"
"20:57:46:666 (H:m:s:ms)","GENERIC","62.077","0.16853002977008574","335"
"21:20:0:0 (H:m:s:ms)","GENERIC","62.059","0.1552468905865855","2420"
"20:40:36:363 (H:m:s:ms)","GENERIC","62.057","0.15016376923053706","639"
"20:57:52:727 (H:m:s:ms)","GENERIC","62.091","0.16811904608923847","274"
"21:20:0:0 (H:m:s:ms)","GENERIC","62.071","0.15531790354189992","2422"
"20:40:37:974 (H:m:s:ms)","OPERA","31.009","0.15158299160973204","1027"
"20:57:58:787 (H:m:s:ms)","GENERIC","62.043","0.16829264988400192","215"
"21:20:6:60 (H:m:s:ms)","GENERIC","62.101","0.1551203748780373","939"
"20:40:42:424 (H:m:s:ms)","GENERIC","62.139","0.15006724560459014","577"
"20:58:4:848 (H:m:s:ms)","GENERIC","62.105","0.16901504751131846","153"
"21:20:7:594 (H:m:s:ms)","OPERA","31.009","0.1565555162118266","407"
"21:30:31:578 (H:m:s:ms)","AMBULANCE","31.014","0.20166530556665624","473"
"20:40:45:569 (H:m:s:ms)","OPERA","31.009","0.15107204539773725","432"
"20:58:10:909 (H:m:s:ms)","GENERIC","62.121","0.16905529829831886","1092"
"21:20:12:121 (H:m:s:ms)","GENERIC","62.073","0.15783625879538385","880"
"21:30:30:303 (H:m:s:ms)","GENERIC","62.095","0.19844173819606906","698"
"20:40:48:484 (H:m:s:ms)","GENERIC","62.107","0.1552257146679422","517"
"20:58:16:969 (H:m:s:ms)","GENERIC","62.051","0.1712582722328643","1032"
"21:20:15:189 (H:m:s:ms)","OPERA","31.009","0.16136913766427294","812"
"20:40:53:164 (H:m:s:ms)","OPERA","31.009","0.15786235564362813","837"
"20:58:23:30 (H:m:s:ms)","GENERIC","62.069","0.17304235155832887","971"
"20:40:54:545 (H:m:s:ms)","GENERIC","62.071","0.160495951907048","455"
"20:58:29:90 (H:m:s:ms)","GENERIC","62.095","0.17621404089654596","956"
"20:41:0:606 (H:m:s:ms)","GENERIC","62.097","0.1632443910078557","396"
"20:41:6:666 (H:m:s:ms)","GENERIC","62.097","0.16166945079133915","335"
"21:31:34:736 (H:m:s:ms)","AMBULANCE","31.028","0.19617058377425792","292"
"21:31:30:909 (H:m:s:ms)","GENERIC","62.099","0.19344950610666953","1091"
"21:32:13:333 (H:m:s:ms)","GENERIC","62.057","0.19353436262137907","668"
"21:32:7:272 (H:m:s:ms)","GENERIC","62.045","0.19350104624219577","730"
"21:32:6:315 (H:m:s:ms)","AMBULANCE","31.009","0.1932082336558006","686"
"21:32:1:212 (H:m:s:ms)","GENERIC","62.037","0.1916362347094","790"
"21:31:55:151 (H:m:s:ms)","GENERIC","62.079","0.19104281874417917","850"
"21:31:49:90 (H:m:s:ms)","GENERIC","62.115","0.18836214426870576","947"
"21:31:43:30 (H:m:s:ms)","GENERIC","62.127","0.19041068104059194","970"
"21:31:36:969 (H:m:s:ms)","GENERIC","62.061","0.19119121922045892","1032"
"20:58:35:151 (H:m:s:ms)","GENERIC","62.137","0.175813886435194","850"
"20:58:41:212 (H:m:s:ms)","GENERIC","62.047","0.17385053718852944","789"
"20:41:8:354 (H:m:s:ms)","OPERA","31.009","0.16396302880438834","648"
"20:58:47:272 (H:m:s:ms)","GENERIC","62.047","0.1736744164892687","730"
"20:41:12:727 (H:m:s:ms)","GENERIC","62.103","0.16267271984897533","273"
"20:58:53:333 (H:m:s:ms)","GENERIC","62.149","0.1734932104326862","668"
"20:41:15:949 (H:m:s:ms)","OPERA","31.009","0.16547684585791028","1052"
"20:58:59:393 (H:m:s:ms)","GENERIC","62.077","0.17024615015637354","651"
"20:41:18:787 (H:m:s:ms)","GENERIC","62.109","0.16577792779626627","214"
"20:59:5:454 (H:m:s:ms)","GENERIC","62.089","0.16950850299346634","548"
"20:41:23:544 (H:m:s:ms)","OPERA","31.009","0.16616574410432897","457"
"20:59:11:515 (H:m:s:ms)","GENERIC","62.087","0.16618383445315593","486"
"20:41:24:848 (H:m:s:ms)","GENERIC","62.099","0.1667429638867254","154"
"20:59:17:575 (H:m:s:ms)","GENERIC","62.069","0.16282602271133853","427"
"21:31:24:848 (H:m:s:ms)","GENERIC","62.069","0.19375130490986936","153"
"20:41:30:909 (H:m:s:ms)","GENERIC","62.097","0.16829730822420783","1091"
"20:59:23:636 (H:m:s:ms)","GENERIC","62.049","0.1629440465253862","366"
"20:41:36:969 (H:m:s:ms)","GENERIC","62.121","0.16910425676324983","1032"
"20:59:29:696 (H:m:s:ms)","GENERIC","62.067","0.16223938427411994","348"
"20:41:38:734 (H:m:s:ms)","OPERA","31.009","0.17074251638396007","267"
"20:41:43:30 (H:m:s:ms)","GENERIC","62.153","0.17475577039128082","970"
"20:59:35:757 (H:m:s:ms)","GENERIC","62.119","0.1626452181340334","244"
"20:59:41:818 (H:m:s:ms)","GENERIC","62.103","0.1600495915439024","183"
"20:41:46:329 (H:m:s:ms)","OPERA","31.009","0.1747720035853167","672"
"20:59:47:878 (H:m:s:ms)","GENERIC","62.073","0.16172065097814678","1123"
"20:41:49:90 (H:m:s:ms)","GENERIC","62.163","0.17478044870514248","948"
"20:59:53:939 (H:m:s:ms)","GENERIC","62.103","0.15868509219975727","1062"
"20:41:53:924 (H:m:s:ms)","OPERA","31.008","0.17441959186371808","1079"
"21:0:0:0 (H:m:s:ms)","AMBULANCE","31.053","0.15471386186723393","2381"
"20:41:55:151 (H:m:s:ms)","GENERIC","62.053","0.17468849156540794","851"
"21:0:0:0 (H:m:s:ms)","GENERIC","62.069","0.15652207270950008","2425"
"20:42:1:212 (H:m:s:ms)","GENERIC","62.061","0.17419703625530844","789"
"21:0:0:0 (H:m:s:ms)","GENERIC","62.077","0.15694057880879458","2426"
"20:42:1:518 (H:m:s:ms)","OPERA","31.009","0.17648351057369746","485"
"21:0:6:60 (H:m:s:ms)","GENERIC","62.123","0.15693595189666817","939"
"20:42:7:272 (H:m:s:ms)","GENERIC","62.041","0.174384104540944","730"
"21:0:12:121 (H:m:s:ms)","GENERIC","62.081","0.15841916390341065","880"
"20:42:9:113 (H:m:s:ms)","OPERA","31.009","0.17634376586012812","924"
"21:0:18:181 (H:m:s:ms)","GENERIC","62.105","0.16106331184580835","819"
"20:42:13:333 (H:m:s:ms)","GENERIC","62.075","0.17558868651796067","668"
"20:42:16:708 (H:m:s:ms)","OPERA","31.009","0.17600730839135728","292"
"21:0:24:242 (H:m:s:ms)","GENERIC","62.087","0.1612330480047501","760"
"21:0:30:303 (H:m:s:ms)","GENERIC","62.115","0.15819642082721727","698"
"20:42:19:393 (H:m:s:ms)","GENERIC","62.025","0.17291860491739172","646"
"21:0:31:578 (H:m:s:ms)","AMBULANCE","31.047","0.1620971986182748","424"
"20:42:24:303 (H:m:s:ms)","OPERA","31.009","0.1766291587532202","698"
"21:0:36:363 (H:m:s:ms)","GENERIC","62.057","0.16104203584483814","639"
"20:20:0:0 (H:m:s:ms)","GENERIC","62.117","0.16761116091246694","2442"
"20:42:25:454 (H:m:s:ms)","GENERIC","62.045","0.17843818012655216","547"
"21:0:42:424 (H:m:s:ms)","GENERIC","62.145","0.1646497089597059","576"
"20:20:0:0 (H:m:s:ms)","GENERIC","62.119","0.16889322958225386","2444"
"20:42:31:515 (H:m:s:ms)","GENERIC","62.091","0.1793427255135891","486"
"21:0:48:484 (H:m:s:ms)","GENERIC","62.095","0.1614944445241631","517"
"20:20:6:60 (H:m:s:ms)","GENERIC","62.093","0.1689892131013115","939"
"20:42:31:898 (H:m:s:ms)","OPERA","31.008","0.1827127386255069","105"
"21:0:54:545 (H:m:s:ms)","GENERIC","62.061","0.15774469226219098","455"
"20:20:12:121 (H:m:s:ms)","GENERIC","62.093","0.16493560404899701","880"
"20:42:37:575 (H:m:s:ms)","GENERIC","62.071","0.18235372573289535","426"
"21:1:0:606 (H:m:s:ms)","GENERIC","62.097","0.15126789563680498","396"
"20:20:18:181 (H:m:s:ms)","GENERIC","62.125","0.1644130171689034","819"
"20:42:39:493 (H:m:s:ms)","OPERA","31.009","0.18271503984075152","545"
"21:1:3:157 (H:m:s:ms)","AMBULANCE","31.066","0.15297492466775775","844"
"20:20:24:242 (H:m:s:ms)","GENERIC","62.111","0.16294090517552542","760"
"20:42:43:636 (H:m:s:ms)","GENERIC","62.027","0.18271510928720258","365"
"21:1:6:666 (H:m:s:ms)","GENERIC","62.109","0.15248667949009995","335"
"20:20:30:303 (H:m:s:ms)","GENERIC","62.107","0.16292557062778032","699"
"20:42:47:88 (H:m:s:ms)","OPERA","31.009","0.18252869081774256","912"
"20:20:36:363 (H:m:s:ms)","GENERIC","62.075","0.16384565185627417","638"
"20:42:49:696 (H:m:s:ms)","GENERIC","62.045","0.18250944784942646","344"
"20:20:42:424 (H:m:s:ms)","GENERIC","62.123","0.1615007579306879","577"
"20:20:48:484 (H:m:s:ms)","GENERIC","62.107","0.1596393201348897","517"
"21:1:12:727 (H:m:s:ms)","GENERIC","62.101","0.1539701299303781","273"
"21:1:18:787 (H:m:s:ms)","GENERIC","62.083","0.15747916239667714","214"
"20:42:54:683 (H:m:s:ms)","OPERA","31.009","0.18244112828774356","317"
"21:1:24:848 (H:m:s:ms)","GENERIC","62.083","0.1564280853328918","153"
"20:42:55:757 (H:m:s:ms)","GENERIC","62.079","0.18719206634178384","244"
"21:1:30:909 (H:m:s:ms)","GENERIC","62.097","0.15553065573551367","1091"
"20:20:54:545 (H:m:s:ms)","GENERIC","62.087","0.16362145092960215","455"
"20:43:1:818 (H:m:s:ms)","GENERIC","62.065","0.1882288703641155","184"
"21:1:34:736 (H:m:s:ms)","AMBULANCE","31.042","0.15692243353512073","266"
"20:21:0:606 (H:m:s:ms)","GENERIC","62.071","0.159796169029159","396"
"20:43:2:278 (H:m:s:ms)","OPERA","31.009","0.1889307448756591","722"
"21:1:36:969 (H:m:s:ms)","GENERIC","62.105","0.15827692467343502","1032"
"20:21:6:666 (H:m:s:ms)","GENERIC","62.087","0.15924393167573264","336"
"20:43:7:878 (H:m:s:ms)","GENERIC","62.055","0.1881612784258989","1124"
"21:1:43:30 (H:m:s:ms)","GENERIC","62.193","0.1600384027453618","970"
"20:21:12:727 (H:m:s:ms)","GENERIC","62.107","0.15538711135049482","273"
"20:43:9:873 (H:m:s:ms)","OPERA","31.009","0.1910499633493211","164"
"21:1:49:90 (H:m:s:ms)","GENERIC","62.137","0.16108155399276644","954"
"20:21:18:787 (H:m:s:ms)","GENERIC","62.107","0.15501554023727562","214"
"20:43:13:939 (H:m:s:ms)","GENERIC","62.085","0.18745175502381994","1061"
"21:1:55:151 (H:m:s:ms)","GENERIC","62.041","0.16243894185666194","849"
"20:21:24:848 (H:m:s:ms)","GENERIC","62.135","0.15398014438122593","153"
"20:43:17:468 (H:m:s:ms)","OPERA","31.01","0.18812685171077453","532"
"21:2:1:212 (H:m:s:ms)","GENERIC","62.043","0.15868779702459865","789"
"20:21:30:909 (H:m:s:ms)","GENERIC","62.073","0.15612919979274104","1091"
"20:43:20:0 (H:m:s:ms)","GENERIC","62.197","0.19100283329005244","1039"
"20:21:36:969 (H:m:s:ms)","GENERIC","62.127","0.1596487712047793","1032"
"20:43:25:63 (H:m:s:ms)","OPERA","31.009","0.1924437800753568","938"
"20:21:43:30 (H:m:s:ms)","GENERIC","62.113","0.16162870963653056","970"
"20:21:49:90 (H:m:s:ms)","GENERIC","62.181","0.15980020181900756","949"
"20:43:26:60 (H:m:s:ms)","GENERIC","62.109","0.19310177955523242","941"
"20:43:32:121 (H:m:s:ms)","GENERIC","62.059","0.19319310283746943","879"
"20:21:55:151 (H:m:s:ms)","GENERIC","62.077","0.1597654673205759","851"
"20:43:32:658 (H:m:s:ms)","OPERA","31.008","0.19597873105221658","344"
"20:22:1:212 (H:m:s:ms)","GENERIC","62.041","0.16040115797513432","790"
"20:43:38:181 (H:m:s:ms)","GENERIC","62.033","0.19602271213754532","821"
"20:22:7:272 (H:m:s:ms)","GENERIC","62.057","0.1603111995066555","730"
"20:43:40:253 (H:m:s:ms)","OPERA","31.009","0.19631088159494317","747"
"20:22:13:333 (H:m:s:ms)","GENERIC","62.089","0.1595744054203881","668"
"20:43:44:242 (H:m:s:ms)","GENERIC","62.089","0.1946964504481304","759"
"20:22:19:393 (H:m:s:ms)","GENERIC","62.047","0.15522388854434405","646"
"20:43:47:848 (H:m:s:ms)","OPERA","31.009","0.19569980653590122","152"
"20:22:25:454 (H:m:s:ms)","GENERIC","62.029","0.15562633038939577","546"
"20:43:50:303 (H:m:s:ms)","GENERIC","62.125","0.19515194661072877","698"
"20:22:31:515 (H:m:s:ms)","GENERIC","62.085","0.1556305659233875","487"
"20:43:55:443 (H:m:s:ms)","OPERA","31.008","0.196525125229706","558"
"20:22:37:575 (H:m:s:ms)","GENERIC","62.093","0.15467755242492348","426"
"20:43:56:363 (H:m:s:ms)","GENERIC","62.171","0.19655796855810248","637"
"20:22:43:636 (H:m:s:ms)","GENERIC","62.055","0.15394076012877256","365"
"20:22:49:696 (H:m:s:ms)","GENERIC","62.013","0.15353225025125664","344"
"20:44:2:424 (H:m:s:ms)","GENERIC","62.041","0.1970079508883486","577"
"20:44:3:37 (H:m:s:ms)","OPERA","31.009","0.19856403201461553","963"
"20:22:55:757 (H:m:s:ms)","GENERIC","62.057","0.15797361468177434","243"
"20:44:8:484 (H:m:s:ms)","GENERIC","62.099","0.1986254096594048","516"
"20:23:1:818 (H:m:s:ms)","GENERIC","62.059","0.15808826497184963","184"
"20:44:10:632 (H:m:s:ms)","OPERA","31.009","0.20188641792352688","367"
"20:23:7:878 (H:m:s:ms)","GENERIC","62.041","0.15784181572804745","1123"
"20:44:14:545 (H:m:s:ms)","GENERIC","62.061","0.2041118318739334","458"
"20:23:13:939 (H:m:s:ms)","GENERIC","62.087","0.15356848118786764","1061"
"20:44:18:227 (H:m:s:ms)","OPERA","31.009","0.20669093792461338","772"
"20:23:20:0 (H:m:s:ms)","GENERIC","62.169","0.15336771209651356","1039"
"20:44:20:606 (H:m:s:ms)","GENERIC","62.073","0.2069900521379922","395"
"20:23:26:60 (H:m:s:ms)","GENERIC","62.101","0.1485906380279977","941"
"20:44:25:822 (H:m:s:ms)","OPERA","31.009","0.20956760117640919","180"
"20:23:32:121 (H:m:s:ms)","GENERIC","62.051","0.1493538901357911","879"
"20:44:26:666 (H:m:s:ms)","GENERIC","62.051","0.21123257948489915","334"
"20:23:38:181 (H:m:s:ms)","GENERIC","62.025","0.15416408334679377","820"
"20:44:32:727 (H:m:s:ms)","GENERIC","62.101","0.2117750178331168","274"
"20:23:44:242 (H:m:s:ms)","GENERIC","62.083","0.1543413421084373","760"
"20:23:50:303 (H:m:s:ms)","GENERIC","62.111","0.15481190160148384","698"
"20:44:33:417 (H:m:s:ms)","OPERA","31.008","0.21424434797217318","583"
"20:44:38:787 (H:m:s:ms)","GENERIC","62.077","0.21277206885337233","214"
"20:23:56:363 (H:m:s:ms)","GENERIC","62.155","0.1544153530055532","637"
"20:44:41:12 (H:m:s:ms)","OPERA","31.009","0.21307676471007406","988"
"20:24:2:424 (H:m:s:ms)","GENERIC","62.045","0.15581791496867053","578"
"20:44:44:848 (H:m:s:ms)","GENERIC","62.113","0.21368148122590996","152"
"20:24:8:484 (H:m:s:ms)","GENERIC","62.127","0.15602174888392434","516"
"20:44:48:607 (H:m:s:ms)","OPERA","31.009","0.21416795318893603","395"
"20:24:14:545 (H:m:s:ms)","GENERIC","62.035","0.1567766856433122","457"
"20:44:50:909 (H:m:s:ms)","GENERIC","62.057","0.21204920258673388","1092"
"20:24:20:606 (H:m:s:ms)","GENERIC","62.061","0.15441572766713213","395"
"20:44:56:202 (H:m:s:ms)","OPERA","31.009","0.21254131929512948","798"
"20:24:26:666 (H:m:s:ms)","GENERIC","62.027","0.1553373117971946","336"
"20:44:56:969 (H:m:s:ms)","GENERIC","62.031","0.21362187836571625","1032"
"20:24:32:727 (H:m:s:ms)","GENERIC","62.063","0.15724550571386398","273"
"20:45:3:30 (H:m:s:ms)","GENERIC","62.055","0.20914823396185062","971"
"20:24:38:787 (H:m:s:ms)","GENERIC","62.083","0.155094208543763","214"
"20:45:3:797 (H:m:s:ms)","OPERA","31.009","0.2101325261997958","204"
"20:24:44:848 (H:m:s:ms)","GENERIC","62.083","0.150794509006561","153"
"20:24:50:909 (H:m:s:ms)","GENERIC","62.069","0.15100537455101506","1092"
"20:45:9:90 (H:m:s:ms)","GENERIC","62.061","0.20963448579376498","950"
"20:45:11:392 (H:m:s:ms)","OPERA","31.009","0.21183105788478473","608"
"20:24:56:969 (H:m:s:ms)","GENERIC","62.031","0.15163289592468882","1031"
"20:45:15:151 (H:m:s:ms)","GENERIC","62.089","0.21170386317089196","851"
"20:25:3:30 (H:m:s:ms)","GENERIC","62.051","0.14957228172702106","971"
"20:45:18:987 (H:m:s:ms)","OPERA","31.009","0.2077823396138803","1053"
"20:25:9:90 (H:m:s:ms)","GENERIC","62.081","0.150659657395737","948"
"20:45:21:212 (H:m:s:ms)","GENERIC","62.041","0.20828866955630448","790"
"20:25:15:151 (H:m:s:ms)","GENERIC","62.123","0.15404705290162066","851"
"20:45:26:582 (H:m:s:ms)","OPERA","31.008","0.20751897336189515","418"
"20:25:21:212 (H:m:s:ms)","GENERIC","62.051","0.150658410585419","790"
"20:45:27:272 (H:m:s:ms)","GENERIC","62.129","0.20804031505745949","728"
"20:25:27:272 (H:m:s:ms)","GENERIC","62.123","0.15138289833397522","728"
"20:45:33:333 (H:m:s:ms)","GENERIC","62.133","0.2055782467627038","668"
"20:25:33:333 (H:m:s:ms)","GENERIC","62.115","0.15010081459047656","668"
"20:45:34:177 (H:m:s:ms)","OPERA","31.009","0.20721800792515285","823"
"20:25:39:393 (H:m:s:ms)","GENERIC","62.125","0.1519725569443542","644"
"20:45:39:393 (H:m:s:ms)","GENERIC","62.097","0.20569350483884905","646"
"20:25:45:454 (H:m:s:ms)","GENERIC","62.105","0.1504227309797494","547"
"20:25:51:515 (H:m:s:ms)","GENERIC","62.043","0.15099421991986084","486"
"20:25:57:575 (H:m:s:ms)","GENERIC","62.081","0.15092530477636254","426"
"20:26:3:636 (H:m:s:ms)","GENERIC","62.053","0.15226618943957276","365"
"20:26:9:696 (H:m:s:ms)","GENERIC","62.103","0.15213915605037","343"
"20:26:15:757 (H:m:s:ms)","GENERIC","62.017","0.15203405029017578","245"
"20:26:21:818 (H:m:s:ms)","GENERIC","62.081","0.15520392206732822","184"
"20:26:27:878 (H:m:s:ms)","GENERIC","62.151","0.1560547260877746","1121"
"20:26:33:939 (H:m:s:ms)","GENERIC","62.085","0.15609781990530974","1063"
"20:26:40:0 (H:m:s:ms)","GENERIC","62.045","0.1524197046812382","1039"
"20:26:46:60 (H:m:s:ms)","GENERIC","62.079","0.1522471427673124","941"
"20:26:52:121 (H:m:s:ms)","GENERIC","62.083","0.15294674906452393","881"
"20:26:58:181 (H:m:s:ms)","GENERIC","62.065","0.15013131755478787","821"
"20:27:4:242 (H:m:s:ms)","GENERIC","62.067","0.15049859605000895","759"
"20:27:10:303 (H:m:s:ms)","GENERIC","62.073","0.1456598340310773","698"
"20:27:16:363 (H:m:s:ms)","GENERIC","62.013","0.1501804867996237","638"
"20:27:22:424 (H:m:s:ms)","GENERIC","62.075","0.15025529961646364","577"
"20:27:28:484 (H:m:s:ms)","GENERIC","62.107","0.14961339935384363","518"
"20:27:34:545 (H:m:s:ms)","GENERIC","62.135","0.15177838089084916","455"
"20:27:40:606 (H:m:s:ms)","GENERIC","62.033","0.1524823418381911","396"
"20:27:46:666 (H:m:s:ms)","GENERIC","62.123","0.1523211959780902","336"
"20:27:52:727 (H:m:s:ms)","GENERIC","62.083","0.15247695330475702","274"
"20:27:58:787 (H:m:s:ms)","GENERIC","62.035","0.14685564037542428","214"
"20:28:4:848 (H:m:s:ms)","GENERIC","62.043","0.14756416558088395","152"
"20:28:10:909 (H:m:s:ms)","GENERIC","62.113","0.14858212949679372","1092"
"20:28:16:969 (H:m:s:ms)","GENERIC","62.119","0.14985961697442235","1032"
"20:28:23:30 (H:m:s:ms)","GENERIC","62.023","0.14997729927304446","971"
"20:28:29:90 (H:m:s:ms)","GENERIC","62.055","0.15090823891865157","948"
"20:28:35:151 (H:m:s:ms)","GENERIC","62.115","0.15027518183291405","850"
"20:28:41:212 (H:m:s:ms)","GENERIC","62.071","0.14533512352117406","790"
"20:28:47:272 (H:m:s:ms)","GENERIC","62.039","0.14577539083338822","729"
"20:28:53:333 (H:m:s:ms)","GENERIC","62.099","0.14769403670417178","668"
"20:28:59:393 (H:m:s:ms)","GENERIC","62.075","0.14662625161240644","645"
"20:29:5:454 (H:m:s:ms)","GENERIC","62.099","0.14515459277004314","547"
"20:29:11:515 (H:m:s:ms)","GENERIC","62.113","0.14612822076074544","486"
"20:29:17:575 (H:m:s:ms)","GENERIC","62.073","0.1422659016788933","427"
"20:29:23:636 (H:m:s:ms)","GENERIC","62.051","0.14258402756466676","366"
"20:29:29:696 (H:m:s:ms)","GENERIC","62.103","0.1430162621369808","343"
"20:29:35:757 (H:m:s:ms)","GENERIC","62.087","0.14055862630711416","244"
"20:29:41:818 (H:m:s:ms)","GENERIC","62.093","0.14010146489969885","183"
"20:29:47:878 (H:m:s:ms)","GENERIC","62.061","0.14024583318602013","1123"
"20:29:53:939 (H:m:s:ms)","GENERIC","62.093","0.1378639327624196","1063"
"24:34:12:631 (H:m:s:ms)","AMBULANCE","62.169","0.015605125677691628","371"
"24:4:12:631 (H:m:s:ms)","AMBULANCE","62.129","0.005916509002067356","371"
"21:20:18:181 (H:m:s:ms)","GENERIC","62.123","0.16149636231993825","818"
"21:20:22:784 (H:m:s:ms)","OPERA","62.015","0.16182297324054945","217"
"21:20:24:242 (H:m:s:ms)","GENERIC","62.081","0.16396977004842084","759"
"21:20:30:303 (H:m:s:ms)","GENERIC","62.095","0.15966114163568051","699"
"21:20:30:379 (H:m:s:ms)","OPERA","31.008","0.16269022563523458","625"
"21:20:36:363 (H:m:s:ms)","GENERIC","62.045","0.1624005460952719","638"
"21:20:37:974 (H:m:s:ms)","OPERA","31.009","0.16311247089847733","1027"
"21:20:42:424 (H:m:s:ms)","GENERIC","62.105","0.16255172759521738","576"
"21:20:45:569 (H:m:s:ms)","OPERA","31.009","0.16341767704937757","432"
"21:20:48:484 (H:m:s:ms)","GENERIC","62.075","0.16639966813630483","517"
"21:20:53:164 (H:m:s:ms)","OPERA","62.015","0.16723046208882456","837"
"21:20:54:545 (H:m:s:ms)","GENERIC","62.083","0.1689365451992326","456"
"21:21:0:606 (H:m:s:ms)","GENERIC","62.091","0.1660926040764844","396"
"21:21:0:759 (H:m:s:ms)","OPERA","31.009","0.1676142388639523","243"
"21:21:6:666 (H:m:s:ms)","GENERIC","62.143","0.16709184740765876","335"
"21:21:8:354 (H:m:s:ms)","OPERA","31.009","0.16926723997202037","647"
"21:21:12:727 (H:m:s:ms)","GENERIC","62.087","0.16875368193015008","273"
"21:21:15:949 (H:m:s:ms)","OPERA","31.009","0.1716436732344277","1051"
"21:21:18:787 (H:m:s:ms)","GENERIC","62.057","0.17776192872688812","215"
"21:21:23:544 (H:m:s:ms)","OPERA","62.015","0.18151365059976338","457"
"21:33:9:473 (H:m:s:ms)","AMBULANCE","31.017","0.18873151219369197","621"
"21:32:55:757 (H:m:s:ms)","GENERIC","62.029","0.18641897297201784","243"
"21:32:49:696 (H:m:s:ms)","GENERIC","62.071","0.18685914236342976","341"
"21:32:43:636 (H:m:s:ms)","GENERIC","62.045","0.18719367728230593","364"
"21:32:37:894 (H:m:s:ms)","AMBULANCE","31.025","0.1872275149690998","116"
"21:32:37:575 (H:m:s:ms)","GENERIC","62.085","0.1871868161384197","437"
"21:32:31:515 (H:m:s:ms)","GENERIC","62.163","0.18996286650685296","487"
"21:32:25:454 (H:m:s:ms)","GENERIC","62.023","0.1916750575250134","546"
"21:21:24:848 (H:m:s:ms)","GENERIC","62.071","0.18158593385376975","153"
"21:32:19:393 (H:m:s:ms)","GENERIC","62.013","0.1953127313404486","643"
"21:21:30:909 (H:m:s:ms)","GENERIC","62.093","0.1818521079218303","1091"
"21:21:36:969 (H:m:s:ms)","GENERIC","62.071","0.18525493925275846","1032"
"21:21:38:734 (H:m:s:ms)","OPERA","31.009","0.18634829537386718","267"
"21:21:43:30 (H:m:s:ms)","GENERIC","62.149","0.1877897159760156","970"
"21:21:46:329 (H:m:s:ms)","OPERA","31.009","0.18911082280109057","672"
"21:21:49:90 (H:m:s:ms)","GENERIC","62.121","0.18477352732539554","946"
"21:21:53:924 (H:m:s:ms)","OPERA","31.009","0.185339518552595","1077"
"21:33:7:878 (H:m:s:ms)","GENERIC","62.061","0.18845964237429294","1123"
"21:21:55:151 (H:m:s:ms)","GENERIC","62.071","0.18540674857259526","850"
"21:33:1:818 (H:m:s:ms)","GENERIC","62.029","0.18846423006181115","184"
"21:22:1:212 (H:m:s:ms)","GENERIC","62.033","0.1836330910128207","790"
"21:34:8:484 (H:m:s:ms)","GENERIC","62.147","0.1838833387181834","516"
"21:34:2:424 (H:m:s:ms)","GENERIC","62.055","0.18425790003766696","577"
"21:33:50:303 (H:m:s:ms)","GENERIC","62.079","0.1883431611487256","699"
"21:33:44:242 (H:m:s:ms)","GENERIC","62.073","0.1919732023541094","760"
"21:33:41:52 (H:m:s:ms)","AMBULANCE","31.018","0.19343056772466088","1001"
"21:33:38:181 (H:m:s:ms)","GENERIC","62.055","0.1920201425687821","821"
"21:33:32:121 (H:m:s:ms)","GENERIC","62.117","0.19121550550498265","880"
"21:33:26:60 (H:m:s:ms)","GENERIC","62.109","0.19053484303375298","941"
"21:22:1:518 (H:m:s:ms)","OPERA","31.009","0.18568273646793484","486"
"21:33:20:0 (H:m:s:ms)","GENERIC","62.147","0.1887465949370662","1039"
"21:22:7:272 (H:m:s:ms)","GENERIC","62.039","0.18287690724255565","730"
"21:33:13:939 (H:m:s:ms)","GENERIC","62.145","0.18814059466292324","1061"
"21:22:9:113 (H:m:s:ms)","OPERA","31.009","0.1855805935968046","924"
"21:22:13:333 (H:m:s:ms)","GENERIC","62.061","0.18845286806707537","668"
"21:22:16:708 (H:m:s:ms)","OPERA","31.008","0.18999876582074732","292"
"21:22:19:393 (H:m:s:ms)","GENERIC","62.025","0.18741149679693592","643"
"21:22:24:303 (H:m:s:ms)","OPERA","31.01","0.1862005609261826","698"
"21:22:25:454 (H:m:s:ms)","GENERIC","62.023","0.18687940558621485","546"
"21:22:31:515 (H:m:s:ms)","GENERIC","62.159","0.18704964364099988","486"
"21:22:31:898 (H:m:s:ms)","OPERA","31.009","0.189548219873648","105"
"21:33:56:363 (H:m:s:ms)","GENERIC","62.113","0.18762857255700385","637"
"21:35:9:90 (H:m:s:ms)","GENERIC","62.069","0.1848145794920149","949"
"21:35:3:30 (H:m:s:ms)","GENERIC","62.091","0.18297598596893355","971"
"21:34:56:969 (H:m:s:ms)","GENERIC","62.073","0.18779193453156376","1031"
"21:34:50:909 (H:m:s:ms)","GENERIC","62.129","0.18674147865092403","1092"
"21:34:44:848 (H:m:s:ms)","GENERIC","62.193","0.1877451663030706","179"
"21:34:44:210 (H:m:s:ms)","AMBULANCE","31.016","0.18418044613767973","816"
"21:34:38:787 (H:m:s:ms)","GENERIC","62.063","0.1831028912055111","215"
"21:34:32:727 (H:m:s:ms)","GENERIC","62.129","0.182243139793792","274"
"21:22:37:575 (H:m:s:ms)","GENERIC","62.097","0.18925259340842535","427"
"21:34:26:666 (H:m:s:ms)","GENERIC","62.037","0.17942884742301457","335"
"21:22:39:493 (H:m:s:ms)","OPERA","62.015","0.19031185384546098","543"
"21:34:20:606 (H:m:s:ms)","GENERIC","62.105","0.18071176210481552","558"
"21:2:6:315 (H:m:s:ms)","AMBULANCE","31.047","0.15808136929742728","731"
"21:22:43:636 (H:m:s:ms)","GENERIC","62.031","0.18884244993231042","364"
"21:34:14:545 (H:m:s:ms)","GENERIC","62.081","0.18511945258362486","457"
"21:2:7:272 (H:m:s:ms)","GENERIC","62.039","0.16239450677611325","729"
"21:22:47:88 (H:m:s:ms)","OPERA","31.009","0.18874808403240054","912"
"21:2:13:333 (H:m:s:ms)","GENERIC","62.055","0.16244017874391978","668"
"21:22:49:696 (H:m:s:ms)","GENERIC","62.089","0.19087959943475405","339"
"21:2:19:393 (H:m:s:ms)","GENERIC","62.019","0.16232636258952537","654"
"21:22:54:683 (H:m:s:ms)","OPERA","31.009","0.1923159977923516","318"
"21:2:25:454 (H:m:s:ms)","GENERIC","62.063","0.16348071315418858","547"
"21:22:55:757 (H:m:s:ms)","GENERIC","62.017","0.19679277785996113","243"
"21:2:31:515 (H:m:s:ms)","GENERIC","62.127","0.16568011664488447","486"
"21:23:1:818 (H:m:s:ms)","GENERIC","62.027","0.19635513114438544","184"
"21:2:37:575 (H:m:s:ms)","GENERIC","62.075","0.164944060745126","427"
"21:23:2:278 (H:m:s:ms)","OPERA","31.008","0.19726958556905588","722"
"21:2:37:894 (H:m:s:ms)","AMBULANCE","31.055","0.16618705225950886","111"
"21:23:7:878 (H:m:s:ms)","GENERIC","62.053","0.1972007775235164","1123"
"21:2:43:636 (H:m:s:ms)","GENERIC","62.037","0.16592100264134202","365"
"21:2:49:696 (H:m:s:ms)","GENERIC","62.087","0.16511594474697203","353"
"21:36:9:696 (H:m:s:ms)","GENERIC","62.115","0.1796791907750849","341"
"21:36:3:636 (H:m:s:ms)","GENERIC","62.079","0.17932287373517394","366"
"21:35:57:575 (H:m:s:ms)","GENERIC","62.073","0.18006624202347424","426"
"21:35:51:515 (H:m:s:ms)","GENERIC","62.033","0.18292379636042888","487"
"21:35:45:454 (H:m:s:ms)","GENERIC","62.157","0.18344024847601242","546"
"21:35:39:393 (H:m:s:ms)","GENERIC","62.099","0.18112023756739237","643"
"21:35:33:333 (H:m:s:ms)","GENERIC","62.147","0.18117518892192533","668"
"21:23:9:873 (H:m:s:ms)","OPERA","31.008","0.1986779897709551","163"
"21:35:27:272 (H:m:s:ms)","GENERIC","62.125","0.1855771151496234","728"
"21:23:13:939 (H:m:s:ms)","GENERIC","62.131","0.20170725892987787","1062"
"21:35:21:212 (H:m:s:ms)","GENERIC","62.061","0.1855827784839457","789"
"21:2:55:757 (H:m:s:ms)","GENERIC","62.051","0.16541896236677378","243"
"21:23:17:468 (H:m:s:ms)","OPERA","31.009","0.2022970195010465","532"
"21:35:15:789 (H:m:s:ms)","AMBULANCE","31.008","0.18577267974293174","214"
"21:3:1:818 (H:m:s:ms)","GENERIC","62.053","0.1672979059250462","184"
"21:23:20:0 (H:m:s:ms)","GENERIC","62.155","0.20387576993010845","1037"
"21:35:15:151 (H:m:s:ms)","GENERIC","62.091","0.18405299790586035","850"
"21:3:7:878 (H:m:s:ms)","GENERIC","62.045","0.169394219814091","1123"
"21:23:25:63 (H:m:s:ms)","OPERA","62.015","0.20066671891088225","937"
"21:3:9:473 (H:m:s:ms)","AMBULANCE","31.038","0.17079387722654213","571"
"21:23:26:60 (H:m:s:ms)","GENERIC","62.117","0.20082781788609141","941"
"21:3:13:939 (H:m:s:ms)","GENERIC","62.111","0.17076590441701292","1062"
"21:23:32:121 (H:m:s:ms)","GENERIC","62.123","0.20114498404366782","880"
"21:3:20:0 (H:m:s:ms)","GENERIC","62.185","0.17449588585920675","1043"
"21:23:32:658 (H:m:s:ms)","OPERA","62.013","0.20256088760221305","343"
"21:3:26:60 (H:m:s:ms)","GENERIC","62.119","0.17665852323774048","941"
"21:23:38:181 (H:m:s:ms)","GENERIC","62.051","0.2025593866480442","820"
"21:3:32:121 (H:m:s:ms)","GENERIC","62.083","0.1735034212569309","880"
"21:23:40:253 (H:m:s:ms)","OPERA","31.009","0.2041629216565567","747"
"21:3:38:181 (H:m:s:ms)","GENERIC","62.035","0.17339884295876212","820"
"21:3:41:52 (H:m:s:ms)","AMBULANCE","31.037","0.17641846705391787","950"
"21:37:4:242 (H:m:s:ms)","GENERIC","62.069","0.18129205847859328","759"
"21:36:58:181 (H:m:s:ms)","GENERIC","62.069","0.1801239593522462","821"
"21:36:52:121 (H:m:s:ms)","GENERIC","62.147","0.1829541227277365","880"
"21:36:50:526 (H:m:s:ms)","AMBULANCE","31.01","0.1829865825666443","479"
"21:36:46:60 (H:m:s:ms)","GENERIC","62.065","0.18110956622935348","941"
"21:36:40:0 (H:m:s:ms)","GENERIC","62.065","0.17932033567465122","1038"
"21:23:44:242 (H:m:s:ms)","GENERIC","62.091","0.2032676530799854","759"
"21:36:33:939 (H:m:s:ms)","GENERIC","62.039","0.18048200435452752","1063"
"21:23:47:848 (H:m:s:ms)","OPERA","31.009","0.20642555567400905","152"
"21:36:27:878 (H:m:s:ms)","GENERIC","62.123","0.1842463588862263","1122"
"21:3:44:242 (H:m:s:ms)","GENERIC","62.081","0.1765717011409004","760"
"21:23:50:303 (H:m:s:ms)","GENERIC","62.085","0.20479702243689918","699"
"21:36:21:818 (H:m:s:ms)","GENERIC","62.055","0.1809078860689642","183"
"21:3:50:303 (H:m:s:ms)","GENERIC","62.123","0.17767558417311005","698"
"21:23:55:443 (H:m:s:ms)","OPERA","31.009","0.2059309851939966","558"
"21:36:18:947 (H:m:s:ms)","AMBULANCE","31.018","0.18043372523495058","1120"
"21:3:56:363 (H:m:s:ms)","GENERIC","62.129","0.1793479061991492","637"
"21:23:56:363 (H:m:s:ms)","GENERIC","62.105","0.206174347054019","637"
"21:36:15:757 (H:m:s:ms)","GENERIC","62.045","0.18034304636735854","244"
"21:4:2:424 (H:m:s:ms)","GENERIC","62.059","0.17931926877656612","577"
"21:24:2:424 (H:m:s:ms)","GENERIC","62.077","0.20607084067925657","577"
"21:4:8:484 (H:m:s:ms)","GENERIC","62.105","0.17981765649727532","516"
"21:24:3:37 (H:m:s:ms)","OPERA","62.015","0.20863183571794033","964"
"21:4:14:545 (H:m:s:ms)","GENERIC","62.047","0.18029081786828324","457"
"21:24:8:484 (H:m:s:ms)","GENERIC","62.137","0.2114609802222777","515"
"21:4:20:606 (H:m:s:ms)","GENERIC","62.095","0.1799443471728874","395"
"21:24:10:632 (H:m:s:ms)","OPERA","31.009","0.21203962494806478","368"
"21:4:26:666 (H:m:s:ms)","GENERIC","62.087","0.17868763309682953","335"
"21:24:14:545 (H:m:s:ms)","GENERIC","62.063","0.2148802056853462","457"
"21:4:32:727 (H:m:s:ms)","GENERIC","62.117","0.18043210522926878","274"
"21:4:38:787 (H:m:s:ms)","GENERIC","62.053","0.17647295523266274","215"
"21:37:58:787 (H:m:s:ms)","GENERIC","62.055","0.18076726056360412","215"
"21:37:53:684 (H:m:s:ms)","AMBULANCE","31.023","0.18076859235544057","318"
"21:37:52:727 (H:m:s:ms)","GENERIC","62.097","0.1761362285753796","274"
"21:37:46:666 (H:m:s:ms)","GENERIC","62.093","0.1764210031759224","336"
"21:37:40:606 (H:m:s:ms)","GENERIC","62.051","0.17633025451096437","396"
"21:37:34:545 (H:m:s:ms)","GENERIC","62.101","0.1768066850810544","456"
"21:24:18:227 (H:m:s:ms)","OPERA","31.009","0.21682375380563898","773"
"21:24:20:606 (H:m:s:ms)","GENERIC","62.103","0.2173146589024841","395"
"21:37:28:484 (H:m:s:ms)","GENERIC","62.059","0.17992475526205337","517"
"21:4:44:210 (H:m:s:ms)","AMBULANCE","31.031","0.1770339374128469","792"
"21:24:25:822 (H:m:s:ms)","OPERA","62.013","0.21999813543754487","180"
"21:37:22:424 (H:m:s:ms)","GENERIC","62.067","0.17876045818572767","579"
"21:4:44:848 (H:m:s:ms)","GENERIC","62.139","0.17725741854415578","155"
"21:24:26:666 (H:m:s:ms)","GENERIC","62.053","0.22046495656279014","333"
"21:37:22:105 (H:m:s:ms)","AMBULANCE","31.028","0.17803629218148181","896"
"21:4:50:909 (H:m:s:ms)","GENERIC","62.079","0.17576077232940568","1092"
"21:24:32:727 (H:m:s:ms)","GENERIC","62.147","0.2204612753663693","274"
"21:37:16:363 (H:m:s:ms)","GENERIC","62.069","0.17917928861916843","638"
"21:4:56:969 (H:m:s:ms)","GENERIC","62.071","0.17602782027378172","1032"
"21:24:33:417 (H:m:s:ms)","OPERA","31.009","0.22191689832742525","583"
"21:37:10:303 (H:m:s:ms)","GENERIC","62.071","0.17892305709835862","698"
"21:5:3:30 (H:m:s:ms)","GENERIC","62.081","0.17244116114142635","971"
"21:24:38:787 (H:m:s:ms)","GENERIC","62.065","0.22241225742436832","214"
"21:5:9:90 (H:m:s:ms)","GENERIC","62.079","0.17561241998496527","952"
"21:24:41:12 (H:m:s:ms)","OPERA","31.009","0.22475510219412467","987"
"21:5:15:151 (H:m:s:ms)","GENERIC","62.075","0.17334429356508674","850"
"21:24:44:848 (H:m:s:ms)","GENERIC","62.177","0.22493419020035774","152"
"21:5:15:789 (H:m:s:ms)","AMBULANCE","31.022","0.17410178276579172","271"
"21:24:48:607 (H:m:s:ms)","OPERA","31.009","0.22509214342942893","395"
"21:5:21:212 (H:m:s:ms)","GENERIC","62.077","0.17358141350073322","789"
"21:5:27:272 (H:m:s:ms)","GENERIC","62.125","0.16953214903947866","728"
"21:38:56:842 (H:m:s:ms)","AMBULANCE","31.01","0.17035738570353767","162"
"21:38:53:333 (H:m:s:ms)","GENERIC","62.113","0.16790115248719256","668"
"21:38:47:272 (H:m:s:ms)","GENERIC","62.063","0.16820431608569883","730"
"21:38:41:212 (H:m:s:ms)","GENERIC","62.067","0.17159490699264163","789"
"21:38:35:151 (H:m:s:ms)","GENERIC","62.109","0.1728918300830663","851"
"21:38:29:90 (H:m:s:ms)","GENERIC","62.049","0.1735613612425355","948"
"21:38:25:263 (H:m:s:ms)","AMBULANCE","31.023","0.1772966057516644","774"
"21:24:50:909 (H:m:s:ms)","GENERIC","62.115","0.22434625756831056","1092"
"21:24:56:202 (H:m:s:ms)","OPERA","31.009","0.22492886038879994","798"
"21:5:33:333 (H:m:s:ms)","GENERIC","62.105","0.16798493025956354","668"
"21:24:56:969 (H:m:s:ms)","GENERIC","62.093","0.2250169842533937","1033"
"21:5:39:393 (H:m:s:ms)","GENERIC","62.081","0.1710953772228241","648"
"21:25:3:30 (H:m:s:ms)","GENERIC","62.081","0.22225723009211232","971"
"21:38:23:30 (H:m:s:ms)","GENERIC","62.029","0.17343055396028853","972"
"20:45:45:454 (H:m:s:ms)","GENERIC","62.113","0.2031244525475288","546"
"21:5:45:454 (H:m:s:ms)","GENERIC","62.129","0.16838083173788754","547"
"21:25:3:797 (H:m:s:ms)","OPERA","62.013","0.22427521389581342","204"
"21:38:16:969 (H:m:s:ms)","GENERIC","62.125","0.17543917736093642","1032"
"20:45:49:367 (H:m:s:ms)","OPERA","31.009","0.20018180466537377","670"
"21:5:47:368 (H:m:s:ms)","AMBULANCE","31.034","0.17083184994426012","643"
"21:25:9:90 (H:m:s:ms)","GENERIC","62.077","0.2230709250977808","947"
"21:38:10:909 (H:m:s:ms)","GENERIC","62.101","0.17465855266413338","1092"
"20:45:51:515 (H:m:s:ms)","GENERIC","62.043","0.2011766857055404","486"
"21:5:51:515 (H:m:s:ms)","GENERIC","62.075","0.17237343250129633","486"
"21:25:11:392 (H:m:s:ms)","OPERA","31.009","0.22450759555106914","608"
"21:38:4:848 (H:m:s:ms)","GENERIC","62.119","0.17658960184928443","152"
"20:45:56:962 (H:m:s:ms)","OPERA","31.009","0.2021845167205689","1038"
"21:5:57:575 (H:m:s:ms)","GENERIC","62.093","0.17257991016207266","426"
"21:25:15:151 (H:m:s:ms)","GENERIC","62.091","0.22368636446747567","850"
"20:45:57:575 (H:m:s:ms)","GENERIC","62.107","0.20531218144590044","426"
"21:6:3:636 (H:m:s:ms)","GENERIC","62.083","0.17238917964708575","364"
"21:25:18:987 (H:m:s:ms)","OPERA","31.009","0.2233814163997364","1047"
"20:46:3:636 (H:m:s:ms)","GENERIC","62.069","0.20176431917868257","365"
"21:6:9:696 (H:m:s:ms)","GENERIC","62.105","0.17181567385996543","344"
"21:25:21:212 (H:m:s:ms)","GENERIC","62.069","0.22340588893550498","790"
"20:46:4:556 (H:m:s:ms)","OPERA","31.009","0.2040073567653494","445"
"21:6:15:757 (H:m:s:ms)","GENERIC","62.059","0.1720738083919505","244"
"20:46:9:696 (H:m:s:ms)","GENERIC","62.107","0.20092423449566488","344"
"21:6:18:947 (H:m:s:ms)","AMBULANCE","31.022","0.17175518455854158","1095"
"20:46:12:151 (H:m:s:ms)","OPERA","31.009","0.20225925020511537","849"
"20:46:15:757 (H:m:s:ms)","GENERIC","62.055","0.20229088416426758","244"
"21:39:53:939 (H:m:s:ms)","GENERIC","62.085","0.1600419615747424","1062"
"21:39:47:878 (H:m:s:ms)","GENERIC","62.119","0.15965467485879198","1123"
"21:39:41:818 (H:m:s:ms)","GENERIC","62.155","0.16651007900314108","182"
"21:39:35:757 (H:m:s:ms)","GENERIC","62.079","0.1672972999423243","244"
"21:39:29:696 (H:m:s:ms)","GENERIC","62.057","0.16792348719130246","343"
"21:39:28:421 (H:m:s:ms)","AMBULANCE","31.025","0.1663026721583306","614"
"21:39:23:636 (H:m:s:ms)","GENERIC","62.057","0.16883204333696653","366"
"21:39:17:575 (H:m:s:ms)","GENERIC","62.073","0.16923572866245706","426"
"21:25:26:582 (H:m:s:ms)","OPERA","31.009","0.22066092688292815","420"
"21:25:27:272 (H:m:s:ms)","GENERIC","62.127","0.2211153865410784","728"
"21:6:21:818 (H:m:s:ms)","GENERIC","62.037","0.1722866820880464","184"
"21:25:33:333 (H:m:s:ms)","GENERIC","62.127","0.22009050102832395","668"
"21:6:27:878 (H:m:s:ms)","GENERIC","62.107","0.17608203442484727","1122"
"21:25:34:177 (H:m:s:ms)","OPERA","31.008","0.22254031566497284","823"
"20:46:19:746 (H:m:s:ms)","OPERA","31.009","0.20322104465349267","293"
"21:6:33:939 (H:m:s:ms)","GENERIC","62.047","0.17609672824951111","1063"
"21:25:39:393 (H:m:s:ms)","GENERIC","62.093","0.220918610280934","643"
"20:46:21:818 (H:m:s:ms)","GENERIC","62.057","0.2035396222958562","183"
"21:6:40:0 (H:m:s:ms)","GENERIC","62.035","0.17173994888380698","1041"
"21:25:41:772 (H:m:s:ms)","OPERA","31.009","0.221504580387573","228"
"21:39:11:515 (H:m:s:ms)","GENERIC","62.127","0.1689674976284464","487"
"20:46:27:341 (H:m:s:ms)","OPERA","31.009","0.204989049593658","659"
"21:6:46:60 (H:m:s:ms)","GENERIC","62.077","0.17008507398664485","941"
"21:25:45:454 (H:m:s:ms)","GENERIC","62.149","0.22083466931431733","546"
"21:39:5:454 (H:m:s:ms)","GENERIC","62.091","0.16977049097777785","547"
"20:46:27:878 (H:m:s:ms)","GENERIC","62.127","0.20605489936109056","1122"
"21:6:50:526 (H:m:s:ms)","AMBULANCE","31.066","0.16964154113032762","566"
"21:25:49:367 (H:m:s:ms)","OPERA","31.009","0.22130152077069756","669"
"21:38:59:393 (H:m:s:ms)","GENERIC","62.083","0.169644365818179","646"
"20:46:33:939 (H:m:s:ms)","GENERIC","62.089","0.20544415977554156","1064"
"21:6:52:121 (H:m:s:ms)","GENERIC","62.097","0.1704766375609715","880"
"21:25:51:515 (H:m:s:ms)","GENERIC","62.059","0.22271427620519382","485"
"20:46:34:936 (H:m:s:ms)","OPERA","31.008","0.20753750966918513","1070"
"21:6:58:181 (H:m:s:ms)","GENERIC","62.015","0.1682975880777002","821"
"21:25:56:962 (H:m:s:ms)","OPERA","31.009","0.21819583531671657","1038"
"20:46:40:0 (H:m:s:ms)","GENERIC","62.047","0.20553251501633735","1040"
"21:7:4:242 (H:m:s:ms)","GENERIC","62.101","0.16998198798424155","759"
"20:46:42:531 (H:m:s:ms)","OPERA","31.008","0.2073668870246334","469"
"21:7:10:303 (H:m:s:ms)","GENERIC","62.023","0.16520896361931503","698"
"20:46:46:60 (H:m:s:ms)","GENERIC","62.085","0.20425593069004713","941"
"20:46:50:126 (H:m:s:ms)","OPERA","31.009","0.20432678906315122","874"
"21:40:0:0 (H:m:s:ms)","GENERIC","62.061","0.16059421993779788","2398"
"21:40:48:484 (H:m:s:ms)","GENERIC","62.049","0.15834065455421342","517"
"21:40:42:424 (H:m:s:ms)","GENERIC","62.089","0.1578085286920585","576"
"21:40:36:363 (H:m:s:ms)","GENERIC","62.039","0.1559348190588038","638"
"21:40:30:303 (H:m:s:ms)","GENERIC","62.081","0.1569645424622183","698"
"21:40:24:242 (H:m:s:ms)","GENERIC","62.123","0.16130604453840594","759"
"21:40:18:181 (H:m:s:ms)","GENERIC","62.135","0.15753032751965762","819"
"21:40:12:121 (H:m:s:ms)","GENERIC","62.061","0.15759084454915243","881"
"21:40:6:60 (H:m:s:ms)","GENERIC","62.099","0.1613371611087154","940"
"21:7:16:363 (H:m:s:ms)","GENERIC","62.025","0.16424392274284638","637"
"21:7:22:105 (H:m:s:ms)","AMBULANCE","31.061","0.16804963481282084","897"
"20:46:52:121 (H:m:s:ms)","GENERIC","62.077","0.20494640605436612","880"
"21:7:22:424 (H:m:s:ms)","GENERIC","62.119","0.1724888451651076","580"
"20:46:57:721 (H:m:s:ms)","OPERA","31.009","0.20607150795061716","279"
"21:7:28:484 (H:m:s:ms)","GENERIC","62.047","0.1746097700729247","518"
"20:46:58:181 (H:m:s:ms)","GENERIC","62.049","0.2062704649448854","820"
"21:7:34:545 (H:m:s:ms)","GENERIC","62.093","0.17286369798321213","456"
"20:47:4:242 (H:m:s:ms)","GENERIC","62.099","0.20691697862503688","760"
"21:7:40:606 (H:m:s:ms)","GENERIC","62.051","0.17323473705911388","395"
"21:40:0:0 (H:m:s:ms)","GENERIC","62.053","0.16011727160383973","2396"
"20:47:5:316 (H:m:s:ms)","OPERA","31.009","0.2089508193078469","684"
"21:7:46:666 (H:m:s:ms)","GENERIC","62.061","0.17545195347842255","335"
"21:40:0:0 (H:m:s:ms)","AMBULANCE","31.022","0.1578494083403416","2393"
"20:47:10:303 (H:m:s:ms)","GENERIC","62.031","0.20704141574578477","698"
"21:7:52:727 (H:m:s:ms)","GENERIC","62.093","0.1712811844617168","274"
"20:47:12:911 (H:m:s:ms)","OPERA","31.009","0.20957668925188708","1088"
"21:7:53:684 (H:m:s:ms)","AMBULANCE","31.024","0.1717272774507629","318"
"20:47:16:363 (H:m:s:ms)","GENERIC","62.043","0.20991210598577115","637"
"21:7:58:787 (H:m:s:ms)","GENERIC","62.021","0.17131568325328927","215"
"20:47:20:506 (H:m:s:ms)","OPERA","31.009","0.20874490523567577","495"
"20:47:22:424 (H:m:s:ms)","GENERIC","62.109","0.21189012675499552","577"
"21:8:4:848 (H:m:s:ms)","GENERIC","62.103","0.16972061226255467","152"
"21:8:10:909 (H:m:s:ms)","GENERIC","62.095","0.16741849896048838","1092"
"20:47:28:101 (H:m:s:ms)","OPERA","31.009","0.21022444853660788","899"
"21:8:16:969 (H:m:s:ms)","GENERIC","62.059","0.16750794871758437","1031"
"20:47:28:484 (H:m:s:ms)","GENERIC","62.085","0.21071085402275908","518"
"21:8:23:30 (H:m:s:ms)","GENERIC","62.073","0.16502374909683987","1133"
"20:47:34:545 (H:m:s:ms)","GENERIC","62.121","0.2092394141186827","455"
"21:8:25:263 (H:m:s:ms)","AMBULANCE","31.037","0.16628579896218615","739"
"20:47:35:696 (H:m:s:ms)","OPERA","31.009","0.21007285519898578","304"
"21:8:29:90 (H:m:s:ms)","GENERIC","62.075","0.16430349726252066","954"
"20:47:40:606 (H:m:s:ms)","GENERIC","62.063","0.2097319515792866","395"
"21:8:35:151 (H:m:s:ms)","GENERIC","62.129","0.16375997289717295","850"
"20:47:43:291 (H:m:s:ms)","OPERA","31.009","0.21174943755218453","710"
"21:8:41:212 (H:m:s:ms)","GENERIC","62.035","0.1647647147688519","788"
"21:40:54:545 (H:m:s:ms)","GENERIC","62.107","0.16250436480514152","455"
"20:47:46:666 (H:m:s:ms)","GENERIC","62.091","0.2138827703360027","336"
"21:8:47:272 (H:m:s:ms)","GENERIC","62.039","0.16397972174943573","728"
"20:47:50:886 (H:m:s:ms)","OPERA","31.009","0.21395269759259078","113"
"21:8:53:333 (H:m:s:ms)","GENERIC","62.145","0.16445474250864148","668"
"20:47:52:727 (H:m:s:ms)","GENERIC","62.093","0.2139805384440084","274"
"20:47:58:481 (H:m:s:ms)","OPERA","31.01","0.21115279251172808","519"
"21:8:56:842 (H:m:s:ms)","AMBULANCE","31.045","0.16582377372406465","266"
"21:8:59:393 (H:m:s:ms)","GENERIC","62.069","0.16498149485097313","648"
"20:47:58:787 (H:m:s:ms)","GENERIC","62.031","0.21114200033060795","215"
"21:9:5:454 (H:m:s:ms)","GENERIC","62.099","0.16625504190841248","547"
"20:48:4:848 (H:m:s:ms)","GENERIC","62.087","0.2091919547503172","152"
"21:9:11:515 (H:m:s:ms)","GENERIC","62.097","0.16872394993489917","486"
"20:30:0:0 (H:m:s:ms)","GENERIC","62.111","0.13785292137802502","1048"
"20:48:6:75 (H:m:s:ms)","OPERA","31.009","0.21013677928323496","925"
"21:9:17:575 (H:m:s:ms)","GENERIC","62.077","0.16821042741708642","426"
"20:30:0:0 (H:m:s:ms)","GENERIC","62.119","0.13837601501757682","1049"
"20:48:10:909 (H:m:s:ms)","GENERIC","62.129","0.20994757868254116","1092"
"21:9:23:636 (H:m:s:ms)","GENERIC","62.055","0.16820167424995","366"
"20:30:6:60 (H:m:s:ms)","GENERIC","62.097","0.14106419846039647","939"
"20:48:13:670 (H:m:s:ms)","OPERA","31.009","0.2116789529210386","330"
"21:9:28:421 (H:m:s:ms)","AMBULANCE","31.06","0.170635178580735","581"
"20:30:12:121 (H:m:s:ms)","GENERIC","62.093","0.14538008625677767","880"
"20:48:16:969 (H:m:s:ms)","GENERIC","62.075","0.2117015304184562","1033"
"21:9:29:696 (H:m:s:ms)","GENERIC","62.077","0.17182126562502695","346"
"20:30:18:181 (H:m:s:ms)","GENERIC","62.107","0.14824055482739895","819"
"20:48:21:265 (H:m:s:ms)","OPERA","31.009","0.20873332898185085","735"
"21:9:35:757 (H:m:s:ms)","GENERIC","62.129","0.17056886268007862","244"
"20:30:24:242 (H:m:s:ms)","GENERIC","62.127","0.1479992738892696","759"
"20:48:23:30 (H:m:s:ms)","GENERIC","62.047","0.20883776087788397","971"
"21:9:41:818 (H:m:s:ms)","GENERIC","62.117","0.17112026202615954","183"
"20:30:30:303 (H:m:s:ms)","GENERIC","62.119","0.14722978977166148","699"
"20:48:29:90 (H:m:s:ms)","GENERIC","62.095","0.2107873371057943","950"
"20:30:36:363 (H:m:s:ms)","GENERIC","62.071","0.14804682580377115","639"
"20:48:35:151 (H:m:s:ms)","GENERIC","62.139","0.2104798660717961","850"
"20:30:42:424 (H:m:s:ms)","GENERIC","62.129","0.1477497005611762","577"
"20:30:48:484 (H:m:s:ms)","GENERIC","62.115","0.14874381858330588","516"
"21:9:47:878 (H:m:s:ms)","GENERIC","62.085","0.17055092221111523","1123"
"21:9:53:939 (H:m:s:ms)","GENERIC","62.093","0.17087306356854923","1062"
"20:48:36:455 (H:m:s:ms)","OPERA","31.008","0.21098302758986992","545"
"21:10:0:0 (H:m:s:ms)","AMBULANCE","31.035","0.17342377457093688","1043"
"20:48:41:212 (H:m:s:ms)","GENERIC","62.033","0.2072123770751211","790"
"21:10:0:0 (H:m:s:ms)","GENERIC","62.061","0.17414723041886","1045"
"20:30:54:545 (H:m:s:ms)","GENERIC","62.083","0.15054841221757148","456"
"20:48:44:50 (H:m:s:ms)","OPERA","31.009","0.21015592638030245","950"
"21:10:0:0 (H:m:s:ms)","GENERIC","62.065","0.17452590615135466","1047"
"20:31:0:606 (H:m:s:ms)","GENERIC","62.085","0.14728673293916322","396"
"20:48:47:272 (H:m:s:ms)","GENERIC","62.033","0.21110277411900819","729"
"21:10:6:60 (H:m:s:ms)","GENERIC","62.113","0.17502460459882868","939"
"20:31:6:666 (H:m:s:ms)","GENERIC","62.095","0.1456739539843582","335"
"20:48:51:645 (H:m:s:ms)","OPERA","31.009","0.20860064319925714","354"
"21:10:12:121 (H:m:s:ms)","GENERIC","62.077","0.17110501589350832","880"
"20:31:12:727 (H:m:s:ms)","GENERIC","62.111","0.1459273111080079","273"
"20:48:53:333 (H:m:s:ms)","GENERIC","62.137","0.2095396246153739","669"
"21:10:18:181 (H:m:s:ms)","GENERIC","62.119","0.17306294839550787","819"
"20:31:18:787 (H:m:s:ms)","GENERIC","62.113","0.14636788043666737","214"
"20:48:59:240 (H:m:s:ms)","OPERA","31.009","0.20847715557774982","799"
"21:10:24:242 (H:m:s:ms)","GENERIC","62.067","0.17306692752500494","760"
"20:31:24:848 (H:m:s:ms)","GENERIC","62.117","0.1454870521828461","153"
"20:48:59:393 (H:m:s:ms)","GENERIC","62.097","0.20872404701687436","648"
"21:10:30:303 (H:m:s:ms)","GENERIC","62.101","0.17234515005947476","698"
"20:31:30:909 (H:m:s:ms)","GENERIC","62.089","0.14872133149575545","1091"
"20:49:5:454 (H:m:s:ms)","GENERIC","62.083","0.20719662620786436","548"
"20:31:36:969 (H:m:s:ms)","GENERIC","62.123","0.1441970203280412","1032"
"20:49:6:835 (H:m:s:ms)","OPERA","31.009","0.20865877538047584","165"
"20:31:43:30 (H:m:s:ms)","GENERIC","62.129","0.14820132948083128","970"
"20:31:49:90 (H:m:s:ms)","GENERIC","62.183","0.14808741223989122","949"
"20:49:11:515 (H:m:s:ms)","GENERIC","62.099","0.20862281447327577","486"
"20:49:14:430 (H:m:s:ms)","OPERA","31.009","0.20989189934384736","570"
"20:31:55:151 (H:m:s:ms)","GENERIC","62.069","0.14829414500936225","850"
"20:49:17:575 (H:m:s:ms)","GENERIC","62.073","0.20736214452344545","426"
"20:32:1:212 (H:m:s:ms)","GENERIC","62.049","0.14798402244631256","790"
"20:49:22:25 (H:m:s:ms)","OPERA","31.009","0.20659637594393232","975"
"20:32:7:272 (H:m:s:ms)","GENERIC","62.045","0.14886394047783574","730"
"20:49:23:636 (H:m:s:ms)","GENERIC","62.045","0.2065495614343082","366"
"20:32:13:333 (H:m:s:ms)","GENERIC","62.085","0.15012092394915266","668"
"20:49:29:696 (H:m:s:ms)","GENERIC","62.085","0.20378662522658414","343"
"20:32:19:393 (H:m:s:ms)","GENERIC","62.051","0.1479973679329648","645"
"20:49:35:757 (H:m:s:ms)","GENERIC","62.105","0.20156900185600063","245"
"20:32:25:454 (H:m:s:ms)","GENERIC","62.025","0.15099121112914127","547"
"20:49:37:215 (H:m:s:ms)","OPERA","31.009","0.20421311184906124","784"
"20:32:31:515 (H:m:s:ms)","GENERIC","62.079","0.15079915869315863","487"
"20:49:41:818 (H:m:s:ms)","GENERIC","62.103","0.2031690634263421","182"
"20:32:37:575 (H:m:s:ms)","GENERIC","62.075","0.14844613741897572","427"
"20:49:44:810 (H:m:s:ms)","OPERA","31.008","0.20239745164510933","191"
"20:32:43:636 (H:m:s:ms)","GENERIC","62.043","0.14748240243243546","365"
"20:32:49:696 (H:m:s:ms)","GENERIC","62.021","0.14824544281333568","342"
"20:49:47:878 (H:m:s:ms)","GENERIC","62.061","0.20112173114012344","1123"
"20:49:52:405 (H:m:s:ms)","OPERA","31.008","0.19889105837727408","595"
"20:32:55:757 (H:m:s:ms)","GENERIC","62.069","0.1494023623384493","243"
"20:49:53:939 (H:m:s:ms)","GENERIC","62.111","0.19913096647510412","1063"
"20:33:1:818 (H:m:s:ms)","GENERIC","62.063","0.15088182368661665","184"
"20:50:0:0 (H:m:s:ms)","OPERA","31.009","0.1981853364895254","1041"
"20:33:7:878 (H:m:s:ms)","GENERIC","62.043","0.15033364452807657","1123"
"20:50:0:0 (H:m:s:ms)","GENERIC","62.084","0.198790729238992","1042"
"20:33:13:939 (H:m:s:ms)","GENERIC","62.073","0.1503906491182505","1061"
"20:50:0:0 (H:m:s:ms)","GENERIC","62.087","0.20291460082350002","1044"
"20:33:20:0 (H:m:s:ms)","GENERIC","62.181","0.15194703569447982","1039"
"20:50:6:60 (H:m:s:ms)","GENERIC","62.111","0.20293532268120532","940"
"20:33:26:60 (H:m:s:ms)","GENERIC","62.107","0.15176237553159955","942"
"20:50:12:121 (H:m:s:ms)","GENERIC","62.087","0.20084675631441978","880"
"20:33:32:121 (H:m:s:ms)","GENERIC","62.043","0.15324290190684053","880"
"20:50:18:181 (H:m:s:ms)","GENERIC","62.093","0.20395869698882213","818"
"20:33:38:181 (H:m:s:ms)","GENERIC","62.033","0.15745374793184308","820"
"20:50:24:242 (H:m:s:ms)","GENERIC","62.109","0.20249443133982395","759"
"20:33:44:242 (H:m:s:ms)","GENERIC","62.085","0.15764728530521088","760"
"20:33:50:303 (H:m:s:ms)","GENERIC","62.109","0.15764727084084626","698"
"20:50:30:303 (H:m:s:ms)","GENERIC","62.115","0.2040561394535219","699"
"20:50:36:363 (H:m:s:ms)","GENERIC","62.067","0.20220892249850517","638"
"20:33:56:363 (H:m:s:ms)","GENERIC","62.169","0.1606822826686968","637"
"20:50:42:424 (H:m:s:ms)","GENERIC","62.159","0.20479427671945885","576"
"20:34:2:424 (H:m:s:ms)","GENERIC","62.043","0.16249476414693248","578"
"20:50:48:484 (H:m:s:ms)","GENERIC","62.111","0.20528701239551606","516"
"20:10:0:0 (H:m:s:ms)","GENERIC","31.053","0.14062070505638083","1003"
"20:34:8:484 (H:m:s:ms)","GENERIC","62.113","0.1662990389840666","516"
"20:50:54:545 (H:m:s:ms)","GENERIC","62.063","0.2044422141676741","454"
"20:10:0:0 (H:m:s:ms)","GENERIC","62.101","0.14560105257628853","1048"
"20:34:14:545 (H:m:s:ms)","GENERIC","62.051","0.16878431770266777","458"
"20:51:0:606 (H:m:s:ms)","GENERIC","62.103","0.19648433218735442","396"
"20:10:6:60 (H:m:s:ms)","GENERIC","62.093","0.14466251027578164","939"
"20:34:20:606 (H:m:s:ms)","GENERIC","62.065","0.16835835894403942","395"
"20:51:6:666 (H:m:s:ms)","GENERIC","62.099","0.19605101431012062","336"
"20:10:12:121 (H:m:s:ms)","GENERIC","62.083","0.1444454761393026","881"
"20:34:26:666 (H:m:s:ms)","GENERIC","62.043","0.1693586512844528","336"
"20:51:12:727 (H:m:s:ms)","GENERIC","62.103","0.19677064224491173","272"
"20:10:18:181 (H:m:s:ms)","GENERIC","62.127","0.14330696439782306","819"
"20:34:32:727 (H:m:s:ms)","GENERIC","62.085","0.16854221811686015","274"
"20:51:18:787 (H:m:s:ms)","GENERIC","62.101","0.1997882456478685","214"
"20:10:24:242 (H:m:s:ms)","GENERIC","62.101","0.14459658598614075","760"
"20:34:38:787 (H:m:s:ms)","GENERIC","62.087","0.17023732704975897","215"
"20:51:24:848 (H:m:s:ms)","GENERIC","62.081","0.1960305831159181","153"
"20:10:30:303 (H:m:s:ms)","GENERIC","62.103","0.143812644098114","699"
"20:34:44:848 (H:m:s:ms)","GENERIC","62.097","0.1702455601222727","152"
"20:10:36:363 (H:m:s:ms)","GENERIC","62.087","0.14373496362204816","639"
"20:34:50:909 (H:m:s:ms)","GENERIC","62.055","0.17031358801892377","1092"
"20:10:42:424 (H:m:s:ms)","GENERIC","62.123","0.14412279686025345","577"
"20:10:48:484 (H:m:s:ms)","GENERIC","62.107","0.14756629135611904","517"
"20:51:30:909 (H:m:s:ms)","GENERIC","62.089","0.19802083389528863","1091"
"20:51:36:969 (H:m:s:ms)","GENERIC","62.105","0.1973446770888926","1038"
"20:34:56:969 (H:m:s:ms)","GENERIC","62.023","0.17181991021205098","1032"
"20:51:43:30 (H:m:s:ms)","GENERIC","62.177","0.1966756574265098","969"
"20:35:3:30 (H:m:s:ms)","GENERIC","62.049","0.17253148705957683","970"
"20:51:49:90 (H:m:s:ms)","GENERIC","62.149","0.1966893876713403","952"
"20:10:54:545 (H:m:s:ms)","GENERIC","62.091","0.1478142812730834","455"
"20:35:9:90 (H:m:s:ms)","GENERIC","62.063","0.1745070186438856","947"
"20:51:55:151 (H:m:s:ms)","GENERIC","62.055","0.19714423717832388","850"
"20:11:0:606 (H:m:s:ms)","GENERIC","62.053","0.1468376035023495","396"
"20:35:15:151 (H:m:s:ms)","GENERIC","62.107","0.1692907642763635","851"
"20:52:1:212 (H:m:s:ms)","GENERIC","62.055","0.19933379069731347","789"
"20:11:6:666 (H:m:s:ms)","GENERIC","62.079","0.14685113802727565","336"
"20:35:21:212 (H:m:s:ms)","GENERIC","62.053","0.16678987208598978","790"
"20:52:7:272 (H:m:s:ms)","GENERIC","62.043","0.1954451073739209","730"
"20:11:12:727 (H:m:s:ms)","GENERIC","62.099","0.14571599598949458","273"
"20:35:27:272 (H:m:s:ms)","GENERIC","62.121","0.16757193558928507","729"
"20:52:13:333 (H:m:s:ms)","GENERIC","62.065","0.19318266818828866","668"
"20:11:18:787 (H:m:s:ms)","GENERIC","62.111","0.1457367971034934","214"
"20:35:33:333 (H:m:s:ms)","GENERIC","62.131","0.16657138390914975","669"
"20:52:19:393 (H:m:s:ms)","GENERIC","62.015","0.1942139114587627","650"
"20:11:24:848 (H:m:s:ms)","GENERIC","62.151","0.1456011697806661","154"
"20:35:39:393 (H:m:s:ms)","GENERIC","62.113","0.167851266225771","646"
"20:52:25:454 (H:m:s:ms)","GENERIC","62.065","0.1925004216275722","547"
"20:11:30:909 (H:m:s:ms)","GENERIC","62.091","0.14113440624856732","1091"
"20:35:45:454 (H:m:s:ms)","GENERIC","62.111","0.16740393759267824","546"
"20:11:36:969 (H:m:s:ms)","GENERIC","62.109","0.14318396281108398","1033"
"20:35:51:515 (H:m:s:ms)","GENERIC","62.047","0.1655645704922055","486"
"20:11:43:30 (H:m:s:ms)","GENERIC","62.129","0.14389187499496903","970"
"20:11:49:90 (H:m:s:ms)","GENERIC","62.163","0.14449325668809448","950"
"20:0:54:545 (H:m:s:ms)","GENERIC","31.055","0.06401401817319713","456"
"20:1:0:606 (H:m:s:ms)","GENERIC","31.029","0.06705489058055683","397"
"20:1:6:666 (H:m:s:ms)","GENERIC","31.039","0.06779807596096499","337"
"20:1:12:727 (H:m:s:ms)","GENERIC","31.058","0.0719405289740488","273"
"20:1:18:787 (H:m:s:ms)","GENERIC","31.057","0.07459664779893521","215"
"20:1:24:848 (H:m:s:ms)","GENERIC","31.065","0.07646257069493982","155"
"20:1:30:909 (H:m:s:ms)","GENERIC","31.059","0.08630007707783402","1091"
"20:1:36:969 (H:m:s:ms)","GENERIC","31.046","0.08723143617744121","1033"
"20:1:43:30 (H:m:s:ms)","GENERIC","31.064","0.09613968844535256","971"
"20:1:49:90 (H:m:s:ms)","GENERIC","31.076","0.09672317542607133","929"
"20:35:57:575 (H:m:s:ms)","GENERIC","62.091","0.16408725519225353","426"
"20:36:3:636 (H:m:s:ms)","GENERIC","62.063","0.16672452575425425","365"
"20:11:55:151 (H:m:s:ms)","GENERIC","62.055","0.14501722571959016","851"
"20:36:9:696 (H:m:s:ms)","GENERIC","62.093","0.1677439273918202","342"
"20:12:1:212 (H:m:s:ms)","GENERIC","62.051","0.14487577644165886","790"
"20:36:15:757 (H:m:s:ms)","GENERIC","62.037","0.16815332553084752","244"
"20:12:7:272 (H:m:s:ms)","GENERIC","62.065","0.14295720373129123","729"
"20:36:21:818 (H:m:s:ms)","GENERIC","62.067","0.16771638478472634","184"
"20:12:13:333 (H:m:s:ms)","GENERIC","62.087","0.1429469799148869","668"
"20:36:27:878 (H:m:s:ms)","GENERIC","62.133","0.16909093912176704","1122"
"20:12:19:393 (H:m:s:ms)","GENERIC","62.043","0.13793105762821056","651"
"20:36:33:939 (H:m:s:ms)","GENERIC","62.103","0.16580021016163934","1063"
"20:12:25:454 (H:m:s:ms)","GENERIC","31.026","0.1384632944522728","576"
"20:36:40:0 (H:m:s:ms)","GENERIC","62.041","0.16549244916396916","1039"
"20:12:31:515 (H:m:s:ms)","GENERIC","62.097","0.13683519497676006","487"
"20:36:46:60 (H:m:s:ms)","GENERIC","62.087","0.1611326344710723","941"
"20:12:37:575 (H:m:s:ms)","GENERIC","62.109","0.1354495406570111","426"
"20:36:52:121 (H:m:s:ms)","GENERIC","62.077","0.16196351899626737","880"
"20:12:43:636 (H:m:s:ms)","GENERIC","62.067","0.13459189863048773","365"
"20:12:49:696 (H:m:s:ms)","GENERIC","62.029","0.13468865947765665","345"
"20:1:55:151 (H:m:s:ms)","GENERIC","31.021","0.09697489687703653","852"
"20:2:1:212 (H:m:s:ms)","GENERIC","31.024","0.09723432111839048","791"
"20:2:7:272 (H:m:s:ms)","GENERIC","31.036","0.09927094313473406","731"
"20:2:13:333 (H:m:s:ms)","GENERIC","31.042","0.10006710172414061","669"
"20:2:19:393 (H:m:s:ms)","GENERIC","31.026","0.10434934839589978","627"
"20:2:25:454 (H:m:s:ms)","GENERIC","31.032","0.10607365930823814","612"
"20:2:31:515 (H:m:s:ms)","GENERIC","31.051","0.11312415036734214","488"
"20:2:37:575 (H:m:s:ms)","GENERIC","31.054","0.11345183663614898","427"
"20:2:43:636 (H:m:s:ms)","GENERIC","31.026","0.11388851106684167","366"
"20:2:49:696 (H:m:s:ms)","GENERIC","31.017","0.11452317859460279","327"
"20:36:58:181 (H:m:s:ms)","GENERIC","62.065","0.16148183162564522","821"
"20:37:4:242 (H:m:s:ms)","GENERIC","62.081","0.16325130244998234","759"
"20:12:55:757 (H:m:s:ms)","GENERIC","62.049","0.13553064527288688","243"
"20:37:10:303 (H:m:s:ms)","GENERIC","62.049","0.16242090575418916","699"
"20:13:1:818 (H:m:s:ms)","GENERIC","62.053","0.141355774091814","184"
"20:37:16:363 (H:m:s:ms)","GENERIC","62.033","0.16155590790245047","639"
"20:13:7:878 (H:m:s:ms)","GENERIC","62.053","0.14113139550928053","1123"
"20:37:22:424 (H:m:s:ms)","GENERIC","62.091","0.16266779114612048","577"
"20:13:13:939 (H:m:s:ms)","GENERIC","62.107","0.14208695466900575","1061"
"20:37:28:484 (H:m:s:ms)","GENERIC","62.105","0.15901880279686295","518"
"20:13:20:0 (H:m:s:ms)","GENERIC","62.153","0.146489377289966","1041"
"20:37:34:545 (H:m:s:ms)","GENERIC","62.141","0.15932651294814545","456"
"20:13:26:60 (H:m:s:ms)","GENERIC","62.091","0.1464729254253304","941"
"20:37:40:606 (H:m:s:ms)","GENERIC","62.049","0.158200601732297","395"
"20:13:32:121 (H:m:s:ms)","GENERIC","62.067","0.14747509714694965","880"
"20:37:46:666 (H:m:s:ms)","GENERIC","62.109","0.1596172306159884","335"
"20:13:38:181 (H:m:s:ms)","GENERIC","62.033","0.14812362229881565","821"
"20:37:52:727 (H:m:s:ms)","GENERIC","62.095","0.15980533199912195","273"
"20:13:44:242 (H:m:s:ms)","GENERIC","62.089","0.14634963177200044","760"
"20:13:50:303 (H:m:s:ms)","GENERIC","62.107","0.14627928997599363","699"
"20:2:55:757 (H:m:s:ms)","GENERIC","31.03","0.11568855513256554","243"
"20:3:1:818 (H:m:s:ms)","GENERIC","31.03","0.11683311337971479","185"
"20:3:7:878 (H:m:s:ms)","GENERIC","31.034","0.11833929298530675","124"
"20:3:13:939 (H:m:s:ms)","GENERIC","31.067","0.11893767843291649","1062"
"20:3:20:0 (H:m:s:ms)","GENERIC","31.073","0.12160109686080497","1002"
"20:3:26:60 (H:m:s:ms)","GENERIC","31.048","0.12766509300324683","942"
"20:3:32:121 (H:m:s:ms)","GENERIC","31.045","0.1279005435629295","881"
"20:3:38:181 (H:m:s:ms)","GENERIC","31.021","0.12851533249509176","821"
"20:3:44:242 (H:m:s:ms)","GENERIC","31.045","0.12942379947628588","763"
"20:3:50:303 (H:m:s:ms)","GENERIC","31.064","0.13178531496768903","699"
"20:37:58:787 (H:m:s:ms)","GENERIC","62.023","0.15931230301052351","214"
"20:38:4:848 (H:m:s:ms)","GENERIC","62.065","0.16192307238159406","152"
"20:13:56:363 (H:m:s:ms)","GENERIC","62.143","0.14517570130562615","637"
"20:38:10:909 (H:m:s:ms)","GENERIC","62.125","0.16582553886247672","1091"
"20:14:2:424 (H:m:s:ms)","GENERIC","62.053","0.1478069901353295","578"
"20:38:16:969 (H:m:s:ms)","GENERIC","62.095","0.16576622164363056","1032"
"20:14:8:484 (H:m:s:ms)","GENERIC","62.137","0.1523353324365701","516"
"20:38:23:30 (H:m:s:ms)","GENERIC","62.029","0.16404439656437328","971"
"20:14:14:545 (H:m:s:ms)","GENERIC","62.039","0.15339686991194157","457"
"20:38:29:90 (H:m:s:ms)","GENERIC","62.075","0.16398129348425683","946"
"20:14:20:606 (H:m:s:ms)","GENERIC","62.077","0.15342334963904944","395"
"20:38:35:151 (H:m:s:ms)","GENERIC","62.125","0.16274510285184388","851"
"20:14:26:666 (H:m:s:ms)","GENERIC","31.016","0.15287598962675658","372"
"20:38:41:212 (H:m:s:ms)","GENERIC","62.051","0.15923487250489213","789"
"20:14:32:727 (H:m:s:ms)","GENERIC","62.065","0.15436329394732162","273"
"20:38:47:272 (H:m:s:ms)","GENERIC","62.031","0.15889226473955842","730"
"20:14:38:787 (H:m:s:ms)","GENERIC","62.077","0.15434931259975335","215"
"20:38:53:333 (H:m:s:ms)","GENERIC","62.117","0.16065458287257792","669"
"20:14:44:848 (H:m:s:ms)","GENERIC","62.075","0.15381438093109895","152"
"20:14:50:909 (H:m:s:ms)","GENERIC","62.089","0.15494646081817431","1092"
"20:3:56:363 (H:m:s:ms)","GENERIC","31.069","0.13458439915145415","638"
"20:4:2:424 (H:m:s:ms)","GENERIC","31.032","0.13601591054010786","579"
"20:4:8:484 (H:m:s:ms)","GENERIC","31.064","0.13720225668571023","516"
"20:4:14:545 (H:m:s:ms)","GENERIC","31.032","0.13911673547039857","458"
"20:4:20:606 (H:m:s:ms)","GENERIC","31.042","0.14086142291934792","395"
"20:4:26:666 (H:m:s:ms)","GENERIC","31.062","0.140911682689162","430"
"20:4:32:727 (H:m:s:ms)","GENERIC","31.044","0.1411934365332548","275"
"20:4:38:787 (H:m:s:ms)","GENERIC","31.041","0.1428872248827857","215"
"20:4:44:848 (H:m:s:ms)","GENERIC","31.042","0.14491813745676368","154"
"20:4:50:909 (H:m:s:ms)","GENERIC","31.049","0.1449138756450821","1093"
"20:38:59:393 (H:m:s:ms)","GENERIC","62.091","0.15757069898264228","645"
"20:39:5:454 (H:m:s:ms)","GENERIC","62.085","0.15605260186834036","548"
"20:14:56:969 (H:m:s:ms)","GENERIC","62.041","0.15514072940483103","1032"
"20:39:11:515 (H:m:s:ms)","GENERIC","62.093","0.1519744397419619","486"
"20:15:3:30 (H:m:s:ms)","GENERIC","62.065","0.15029189075694432","972"
"20:39:17:575 (H:m:s:ms)","GENERIC","62.079","0.14818956066345543","426"
"20:15:9:90 (H:m:s:ms)","GENERIC","62.097","0.15505666308924454","949"
"20:39:23:636 (H:m:s:ms)","GENERIC","62.045","0.14849595081504804","366"
"20:15:15:151 (H:m:s:ms)","GENERIC","62.139","0.15636518380761297","850"
"20:39:29:696 (H:m:s:ms)","GENERIC","62.101","0.1479163174248728","342"
"20:15:21:212 (H:m:s:ms)","GENERIC","62.065","0.15861102717824194","789"
"20:39:35:757 (H:m:s:ms)","GENERIC","62.095","0.14896704874818884","244"
"20:15:27:272 (H:m:s:ms)","GENERIC","62.135","0.1603153673168187","728"
"20:39:41:818 (H:m:s:ms)","GENERIC","62.095","0.14441868849445555","182"
"20:15:33:333 (H:m:s:ms)","GENERIC","62.091","0.16018031674380914","668"
"20:39:47:878 (H:m:s:ms)","GENERIC","62.055","0.14441110334277743","1123"
"20:15:39:393 (H:m:s:ms)","GENERIC","62.145","0.1623640026994496","644"
"20:39:53:939 (H:m:s:ms)","GENERIC","62.101","0.14209321760594884","1062"
"20:15:45:454 (H:m:s:ms)","GENERIC","62.097","0.16362080400217616","546"
"20:15:51:515 (H:m:s:ms)","GENERIC","62.021","0.16316661167304214","487"
"20:4:56:969 (H:m:s:ms)","GENERIC","31.015","0.1449311732844461","1032"
"20:5:3:30 (H:m:s:ms)","GENERIC","31.029","0.14500552330462604","971"
"20:5:9:90 (H:m:s:ms)","GENERIC","31.059","0.14739033295110662","938"
"20:5:15:151 (H:m:s:ms)","GENERIC","31.073","0.14933593675762927","851"
"20:5:21:212 (H:m:s:ms)","GENERIC","31.038","0.14846282799869387","790"
"20:5:27:272 (H:m:s:ms)","GENERIC","31.069","0.1493888449253793","729"
"20:5:33:333 (H:m:s:ms)","GENERIC","31.049","0.1491719455202799","669"
"20:5:39:393 (H:m:s:ms)","GENERIC","31.074","0.14834795507804702","636"
"20:5:45:454 (H:m:s:ms)","GENERIC","31.054","0.1474796726808956","547"
"20:5:51:515 (H:m:s:ms)","GENERIC","31.013","0.14750513375982213","487"
"20:15:57:575 (H:m:s:ms)","GENERIC","62.081","0.16440075321139883","426"
"20:16:3:636 (H:m:s:ms)","GENERIC","62.061","0.1644624991225308","365"
"20:16:9:696 (H:m:s:ms)","GENERIC","62.127","0.16853111229913295","342"
"20:16:15:757 (H:m:s:ms)","GENERIC","62.019","0.16902095617181426","244"
"20:16:21:818 (H:m:s:ms)","GENERIC","62.095","0.16628884018788403","184"
"20:16:27:878 (H:m:s:ms)","GENERIC","62.167","0.16810657870093504","1122"
"20:16:33:939 (H:m:s:ms)","GENERIC","62.073","0.1685572825812399","1063"
"20:16:40:0 (H:m:s:ms)","GENERIC","62.049","0.1675147396638733","1039"
"20:16:46:60 (H:m:s:ms)","GENERIC","62.067","0.16793941926922","941"
"20:16:52:121 (H:m:s:ms)","GENERIC","62.075","0.16747608479482598","881"
"20:5:57:575 (H:m:s:ms)","GENERIC","31.048","0.14602454878918805","426"
"20:6:3:636 (H:m:s:ms)","GENERIC","31.039","0.1451677428710029","366"
"20:6:9:696 (H:m:s:ms)","GENERIC","31.068","0.14697355935478523","338"
"20:6:15:757 (H:m:s:ms)","GENERIC","31.024","0.1468694903473272","244"
"20:6:21:818 (H:m:s:ms)","GENERIC","31.039","0.14646337733688797","185"
"20:6:27:878 (H:m:s:ms)","GENERIC","31.093","0.15056303925922654","122"
"20:6:33:939 (H:m:s:ms)","GENERIC","31.032","0.14576519419913467","1064"
"20:6:40:0 (H:m:s:ms)","GENERIC","31.028","0.14682105639251516","1003"
"20:6:46:60 (H:m:s:ms)","GENERIC","31.031","0.1427789539173642","941"
"20:6:52:121 (H:m:s:ms)","GENERIC","31.036","0.14374807572319478","881"
"20:16:58:181 (H:m:s:ms)","GENERIC","62.065","0.16698844271936336","821"
"20:17:4:242 (H:m:s:ms)","GENERIC","62.065","0.1691793986426933","759"
"20:17:10:303 (H:m:s:ms)","GENERIC","62.067","0.1684846071610564","699"
"20:17:16:363 (H:m:s:ms)","GENERIC","62.031","0.16850074485738903","638"
"20:17:22:424 (H:m:s:ms)","GENERIC","62.071","0.16892548087217324","578"
"20:17:28:484 (H:m:s:ms)","GENERIC","62.087","0.16792233675742754","518"
"20:17:34:545 (H:m:s:ms)","GENERIC","62.113","0.16847910993972215","456"
"20:17:40:606 (H:m:s:ms)","GENERIC","62.027","0.16809818002637755","395"
"20:17:46:666 (H:m:s:ms)","GENERIC","62.115","0.1683247021283892","335"
"20:17:52:727 (H:m:s:ms)","GENERIC","62.087","0.16869021669641143","274"
"20:6:58:181 (H:m:s:ms)","GENERIC","31.027","0.14383667547176468","821"
"20:7:4:242 (H:m:s:ms)","GENERIC","31.035","0.14480398632556798","759"
"20:7:10:303 (H:m:s:ms)","GENERIC","31.032","0.14744857715136037","699"
"20:7:16:363 (H:m:s:ms)","GENERIC","31.031","0.15183756670085477","639"
"20:7:22:424 (H:m:s:ms)","GENERIC","31.038","0.15030653955203582","578"
"20:7:28:484 (H:m:s:ms)","GENERIC","31.036","0.15180868604066564","518"
"20:7:34:545 (H:m:s:ms)","GENERIC","31.05","0.1490068978509912","456"
"20:7:40:606 (H:m:s:ms)","GENERIC","31.015","0.1498364277558777","395"
"20:7:46:666 (H:m:s:ms)","GENERIC","31.062","0.15008365751566916","335"
"20:7:52:727 (H:m:s:ms)","GENERIC","31.052","0.14974537846816396","274"
"20:17:58:787 (H:m:s:ms)","GENERIC","62.053","0.16821365931546295","215"
"20:18:4:848 (H:m:s:ms)","GENERIC","62.031","0.1651783643086631","153"
"20:18:10:909 (H:m:s:ms)","GENERIC","62.115","0.1693178863155444","1092"
"20:18:16:969 (H:m:s:ms)","GENERIC","62.125","0.16878059531017722","1032"
"20:18:23:30 (H:m:s:ms)","GENERIC","62.035","0.17096205789273","971"
"20:18:29:90 (H:m:s:ms)","GENERIC","62.037","0.16952032764990382","948"
"20:18:35:151 (H:m:s:ms)","GENERIC","62.105","0.1688114524610899","850"
"20:18:41:212 (H:m:s:ms)","GENERIC","62.077","0.16809044582712382","789"
"20:18:47:272 (H:m:s:ms)","GENERIC","62.055","0.16804037046544812","730"
"20:18:53:333 (H:m:s:ms)","GENERIC","62.093","0.17081239683086596","668"
"20:7:58:787 (H:m:s:ms)","GENERIC","31.04","0.14963552792838558","215"
"20:8:4:848 (H:m:s:ms)","GENERIC","31.029","0.1508738900319999","153"
"20:8:10:909 (H:m:s:ms)","GENERIC","31.06","0.14987548385676902","1092"
"20:8:16:969 (H:m:s:ms)","GENERIC","31.063","0.15052208547362522","1033"
"20:8:23:30 (H:m:s:ms)","GENERIC","31.014","0.15310743901128446","972"
"20:8:29:90 (H:m:s:ms)","GENERIC","31.02","0.148385842065405","950"
"20:8:35:151 (H:m:s:ms)","GENERIC","31.057","0.1485928407908792","851"
"20:8:41:212 (H:m:s:ms)","GENERIC","31.034","0.14803545220281455","789"
"20:8:47:272 (H:m:s:ms)","GENERIC","31.033","0.14749106001519666","729"
"20:8:53:333 (H:m:s:ms)","GENERIC","31.053","0.14707420664587736","668"
"20:18:59:393 (H:m:s:ms)","GENERIC","62.075","0.1688106194942864","646"
"20:19:5:454 (H:m:s:ms)","GENERIC","62.105","0.1668080165206243","547"
"20:19:11:515 (H:m:s:ms)","GENERIC","62.117","0.16927362327853468","486"
"20:19:17:575 (H:m:s:ms)","GENERIC","62.055","0.17013410019629313","425"
"20:19:23:636 (H:m:s:ms)","GENERIC","62.055","0.1697460595884649","366"
"20:19:29:696 (H:m:s:ms)","GENERIC","62.103","0.16983684384839035","345"
"20:19:35:757 (H:m:s:ms)","GENERIC","62.085","0.17071099887748692","244"
"20:19:41:818 (H:m:s:ms)","GENERIC","62.101","0.1739296533859222","183"
"20:19:47:878 (H:m:s:ms)","GENERIC","62.061","0.1708080468499356","1123"
"20:19:53:939 (H:m:s:ms)","GENERIC","62.085","0.16742370076620952","1063"
"20:8:59:393 (H:m:s:ms)","GENERIC","31.051","0.14509815047158564","646"
"20:9:5:454 (H:m:s:ms)","GENERIC","31.061","0.1440657600063333","548"
"20:9:11:515 (H:m:s:ms)","GENERIC","31.057","0.14347933781074249","487"
"20:9:17:575 (H:m:s:ms)","GENERIC","31.026","0.14273045806880844","426"
"20:9:23:636 (H:m:s:ms)","GENERIC","31.033","0.14212303618717437","366"
"20:9:29:696 (H:m:s:ms)","GENERIC","31.055","0.14367051500346056","344"
"20:9:35:757 (H:m:s:ms)","GENERIC","31.036","0.14259454209247213","244"
"20:9:41:818 (H:m:s:ms)","GENERIC","31.055","0.14196767530810436","183"
"20:9:47:878 (H:m:s:ms)","GENERIC","31.03","0.14029360869658536","122"
"20:9:53:939 (H:m:s:ms)","GENERIC","31.048","0.1404480455609707","1063"
"21:41:36:969 (H:m:s:ms)","GENERIC","62.063","0.16667870357131764","1032"
"21:41:30:909 (H:m:s:ms)","GENERIC","62.117","0.1624437783851602","1091"
"21:41:24:848 (H:m:s:ms)","GENERIC","62.077","0.16235909427367684","154"
"21:41:18:787 (H:m:s:ms)","GENERIC","62.075","0.16292586845322876","214"
"21:41:12:727 (H:m:s:ms)","GENERIC","62.091","0.16247892515045484","273"
"21:41:6:666 (H:m:s:ms)","GENERIC","62.167","0.16283293889808287","335"
"21:41:0:606 (H:m:s:ms)","GENERIC","62.065","0.16221752206959406","396"
"21:41:55:151 (H:m:s:ms)","GENERIC","62.069","0.16742124313162934","850"
"21:41:49:90 (H:m:s:ms)","GENERIC","62.109","0.16944643029642775","949"
"21:41:43:30 (H:m:s:ms)","GENERIC","62.117","0.1703655879869799","970"
