"time (H:m:s:ms)","type","latency","utilisation","waiting"
"21:42:25:454 (H:m:s:ms)","GENERIC","93.176","0.3332037827879205","2314"
"21:42:7:272 (H:m:s:ms)","GENERIC","62.027","0.3357653022963182","2442"
"21:42:1:212 (H:m:s:ms)","GENERIC","62.061","0.3321732063014643","3863"
"21:41:55:151 (H:m:s:ms)","GENERIC","93.348","0.3344826341758234","2570"
"21:41:49:90 (H:m:s:ms)","GENERIC","93.34700000000001","0.3393625769571541","3762"
"21:41:43:30 (H:m:s:ms)","GENERIC","62.253","0.34286879933569203","2222"
"21:41:36:969 (H:m:s:ms)","GENERIC","93.137","0.34155177201426445","4300"
"21:41:30:909 (H:m:s:ms)","GENERIC","62.081","0.3390590431147242","4071"
"21:41:24:848 (H:m:s:ms)","GENERIC","93.361","0.3396607427429246","1619"
"21:42:19:393 (H:m:s:ms)","GENERIC","93.34700000000001","0.33493137749020563","2074"
"21:42:13:333 (H:m:s:ms)","GENERIC","93.31","0.33752974361662086","2377"
"21:43:32:121 (H:m:s:ms)","GENERIC","93.126","0.34336272618572394","2477"
"21:43:26:60 (H:m:s:ms)","GENERIC","62.057","0.3420235494082845","3672"
"21:43:13:939 (H:m:s:ms)","GENERIC","93.339","0.3357219820381252","2898"
"20:0:0:0 (H:m:s:ms)","GENERIC","31.065","0.04859126579037739","5521"
"21:43:7:878 (H:m:s:ms)","GENERIC","93.144","0.3355212934595221","5103"
"20:0:6:60 (H:m:s:ms)","GENERIC","62.131","0.07027931796148625","4380"
"21:43:1:818 (H:m:s:ms)","GENERIC","93.256","0.33894474928660284","2909"
"20:0:12:121 (H:m:s:ms)","GENERIC","62.128","0.07770784639061563","4175"
"21:42:55:757 (H:m:s:ms)","GENERIC","62.097","0.33850357914150686","2765"
"20:0:18:181 (H:m:s:ms)","GENERIC","62.188","0.08698742319097491","4697"
"21:42:49:696 (H:m:s:ms)","GENERIC","93.141","0.33563302004674966","3291"
"20:0:24:242 (H:m:s:ms)","GENERIC","31.029","0.09991784888078618","4403"
"21:42:43:636 (H:m:s:ms)","GENERIC","93.34","0.33343638654927144","2922"
"20:0:30:303 (H:m:s:ms)","GENERIC","62.561","0.10692568395275773","3896"
"21:42:37:575 (H:m:s:ms)","GENERIC","93.619","0.33392605162211486","4333"
"20:0:36:363 (H:m:s:ms)","GENERIC","62.373999999999995","0.11776120189489313","4182"
"21:42:31:515 (H:m:s:ms)","GENERIC","93.475","0.3320736481887914","3364"
"20:0:42:424 (H:m:s:ms)","GENERIC","62.419","0.12974423024007667","4005"
"21:10:18:181 (H:m:s:ms)","GENERIC","93.185","0.29713376270975583","3954"
"20:0:48:484 (H:m:s:ms)","GENERIC","31.053","0.13666809114547843","4393"
"21:10:24:242 (H:m:s:ms)","GENERIC","93.155","0.2973217772265065","2792"
"21:10:30:303 (H:m:s:ms)","GENERIC","93.55799999999999","0.2960196044863605","3870"
"21:10:36:363 (H:m:s:ms)","GENERIC","62.091","0.2961390244605567","3362"
"21:10:42:424 (H:m:s:ms)","GENERIC","93.463","0.29641192501886493","3021"
"21:10:48:484 (H:m:s:ms)","GENERIC","93.268","0.30061759760924767","2967"
"21:10:54:545 (H:m:s:ms)","GENERIC","93.486","0.3007885624240859","2615"
"21:11:0:606 (H:m:s:ms)","GENERIC","93.32900000000001","0.30059139340771823","3418"
"21:43:20:0 (H:m:s:ms)","GENERIC","93.173","0.33775264917523895","4302"
"21:11:6:666 (H:m:s:ms)","GENERIC","62.051","0.3002462183682273","2734"
"21:11:12:727 (H:m:s:ms)","GENERIC","62.145","0.3005666479321257","2600"
"21:25:45:454 (H:m:s:ms)","GENERIC","62.073","0.3452758621416571","2450"
"21:44:38:787 (H:m:s:ms)","GENERIC","93.166","0.3605639546317769","1974"
"21:44:32:727 (H:m:s:ms)","GENERIC","93.292","0.358348652574245","3356"
"21:44:26:666 (H:m:s:ms)","GENERIC","62.025","0.35711721295005355","2364"
"21:44:20:606 (H:m:s:ms)","GENERIC","62.071","0.3567011550752438","3296"
"21:44:14:545 (H:m:s:ms)","GENERIC","93.43299999999999","0.3541775483343446","2145"
"21:44:8:484 (H:m:s:ms)","GENERIC","93.387","0.33819793983549357","2869"
"21:44:2:424 (H:m:s:ms)","GENERIC","93.485","0.3408630297726674","3454"
"21:43:56:363 (H:m:s:ms)","GENERIC","62.033","0.3400448318804352","2482"
"21:43:50:303 (H:m:s:ms)","GENERIC","93.58500000000001","0.3440151664987573","2342"
"21:43:44:242 (H:m:s:ms)","GENERIC","93.673","0.34228916582675095","2668"
"21:11:18:787 (H:m:s:ms)","GENERIC","62.057","0.3027735516317593","3317"
"21:43:38:181 (H:m:s:ms)","GENERIC","93.348","0.34055512751047656","1849"
"21:11:24:848 (H:m:s:ms)","GENERIC","124.719","0.30102384800438814","2141"
"21:11:30:909 (H:m:s:ms)","GENERIC","93.4","0.3000444787235624","4068"
"21:11:36:969 (H:m:s:ms)","GENERIC","93.103","0.3033315747285092","4385"
"21:11:43:30 (H:m:s:ms)","GENERIC","62.105","0.30383320052123575","2916"
"21:11:49:90 (H:m:s:ms)","GENERIC","93.39699999999999","0.30093194801341605","3537"
"21:11:55:151 (H:m:s:ms)","GENERIC","93.388","0.3000673776055172","2038"
"21:12:1:212 (H:m:s:ms)","GENERIC","62.095","0.29783896875054006","3454"
"21:12:7:272 (H:m:s:ms)","GENERIC","93.285","0.2981050332443078","3888"
"21:12:13:333 (H:m:s:ms)","GENERIC","93.27","0.30160733262462003","2805"
"21:26:27:341 (H:m:s:ms)","OPERA","124.385","0.34066959057680485","2628"
"21:45:45:454 (H:m:s:ms)","GENERIC","93.577","0.36837130455938843","2287"
"21:26:21:818 (H:m:s:ms)","GENERIC","93.461","0.33946566502591585","3011"
"21:45:39:393 (H:m:s:ms)","GENERIC","93.075","0.3710173381783781","3589"
"21:45:33:333 (H:m:s:ms)","GENERIC","62.103","0.37202874089999305","4157"
"21:45:27:272 (H:m:s:ms)","GENERIC","93.527","0.37338896733499427","3030"
"21:26:15:757 (H:m:s:ms)","GENERIC","93.215","0.3443224178824579","3198"
"21:26:12:151 (H:m:s:ms)","OPERA","62.29","0.34426074181688177","2266"
"21:45:21:212 (H:m:s:ms)","GENERIC","93.358","0.3749636272997062","3392"
"21:30:32:0 (H:m:s:ms)","GENERIC","93.416","0.3316654854866434","92947"
"21:45:15:151 (H:m:s:ms)","GENERIC","93.63900000000001","0.375133630653359","2017"
"21:30:32:0 (H:m:s:ms)","GENERIC","62.067","0.33135637985344113","26389"
"21:45:9:90 (H:m:s:ms)","GENERIC","62.131","0.3738028762103219","2478"
"21:25:57:575 (H:m:s:ms)","GENERIC","62.037","0.349892834632354","2548"
"21:45:3:30 (H:m:s:ms)","GENERIC","62.107","0.37344317466538257","3526"
"21:30:32:0 (H:m:s:ms)","OPERA","93.29599999999999","0.33036294281175066","73520"
"21:44:56:969 (H:m:s:ms)","GENERIC","31.008","0.36273805937152825","2323"
"21:12:19:393 (H:m:s:ms)","GENERIC","93.399","0.3000586089937214","3079"
"21:25:51:515 (H:m:s:ms)","GENERIC","93.223","0.34510049296588596","3740"
"21:44:50:909 (H:m:s:ms)","GENERIC","62.093","0.3637674323305297","4465"
"21:12:25:454 (H:m:s:ms)","GENERIC","93.125","0.30270750246432715","2802"
"21:25:49:367 (H:m:s:ms)","OPERA","31.009","0.34369177871688805","3087"
"21:44:44:848 (H:m:s:ms)","GENERIC","93.388","0.36283805065098057","2548"
"21:12:31:515 (H:m:s:ms)","GENERIC","93.487","0.30198033664754104","3417"
"21:12:37:575 (H:m:s:ms)","GENERIC","93.616","0.3002462434179708","4040"
"21:12:43:636 (H:m:s:ms)","GENERIC","93.29599999999999","0.2985963331295883","3788"
"21:12:49:696 (H:m:s:ms)","GENERIC","93.121","0.2988436367380644","3335"
"21:12:55:757 (H:m:s:ms)","GENERIC","62.099","0.2965860875217627","2677"
"21:13:1:818 (H:m:s:ms)","GENERIC","93.278","0.2985067206026922","2560"
"21:13:7:878 (H:m:s:ms)","GENERIC","93.156","0.29723857978117146","4384"
"21:13:13:939 (H:m:s:ms)","GENERIC","93.31700000000001","0.2984993734583954","3651"
"21:26:19:746 (H:m:s:ms)","OPERA","62.015","0.3396098523107415","3172"
"21:30:32:0 (H:m:s:ms)","GENERIC","93.419","0.33771113166888694","141639"
"21:46:52:121 (H:m:s:ms)","GENERIC","62.081","0.36987516289704375","2590"
"21:26:58:181 (H:m:s:ms)","GENERIC","93.368","0.33298395443056533","2542"
"21:46:46:60 (H:m:s:ms)","GENERIC","62.105","0.3705060906754506","4237"
"21:26:57:721 (H:m:s:ms)","OPERA","31.009","0.3330496473455229","5183"
"21:46:40:0 (H:m:s:ms)","GENERIC","62.071","0.35392431496095705","4013"
"21:46:33:939 (H:m:s:ms)","GENERIC","93.612","0.35782237421935115","2708"
"21:46:27:878 (H:m:s:ms)","GENERIC","93.336","0.35821708875221325","3570"
"21:26:52:121 (H:m:s:ms)","GENERIC","62.077","0.3321911656013773","2910"
"21:26:50:126 (H:m:s:ms)","OPERA","93.321","0.33243273504782067","5101"
"21:26:46:60 (H:m:s:ms)","GENERIC","93.175","0.33477951560522173","3988"
"21:46:21:818 (H:m:s:ms)","GENERIC","93.495","0.3588315749757143","3121"
"21:30:32:0 (H:m:s:ms)","OPERA","62.212","0.3345742499346579","127940"
"21:46:15:757 (H:m:s:ms)","GENERIC","93.225","0.35897019537532976","3247"
"21:26:40:0 (H:m:s:ms)","GENERIC","93.50800000000001","0.332618093963474","3693"
"21:46:9:696 (H:m:s:ms)","GENERIC","93.34","0.35683821250759906","1349"
"21:13:20:0 (H:m:s:ms)","GENERIC","93.131","0.3028619807787002","3475"
"21:30:32:0 (H:m:s:ms)","OPERA","93.22200000000001","0.3340734506394468","118375"
"21:46:3:636 (H:m:s:ms)","GENERIC","62.077","0.3576687219974039","2510"
"21:13:26:60 (H:m:s:ms)","GENERIC","62.117","0.30151142284711024","3700"
"21:26:33:939 (H:m:s:ms)","GENERIC","93.632","0.33738771217422625","2425"
"21:45:57:575 (H:m:s:ms)","GENERIC","93.35","0.37048853629963857","1281"
"21:13:32:121 (H:m:s:ms)","GENERIC","93.144","0.301358811997582","2923"
"21:26:27:878 (H:m:s:ms)","GENERIC","93.351","0.34124628688224035","3999"
"21:45:51:515 (H:m:s:ms)","GENERIC","93.238","0.3757053327185113","3312"
"21:13:38:181 (H:m:s:ms)","GENERIC","62.087","0.3032077702504074","1818"
"21:13:44:242 (H:m:s:ms)","GENERIC","62.217","0.30321583606670377","2748"
"21:13:50:303 (H:m:s:ms)","GENERIC","93.60900000000001","0.30859293616902445","2885"
"21:13:56:363 (H:m:s:ms)","GENERIC","62.051","0.3059099761377383","2981"
"21:14:2:424 (H:m:s:ms)","GENERIC","62.171","0.31086989838831436","3161"
"21:14:8:484 (H:m:s:ms)","GENERIC","62.051","0.31056037072642917","3735"
"21:14:14:545 (H:m:s:ms)","GENERIC","93.383","0.30834538716144627","2791"
"21:27:40:606 (H:m:s:ms)","GENERIC","93.514","0.33057182252511114","3446"
"21:47:58:787 (H:m:s:ms)","GENERIC","93.15700000000001","0.367620146262724","2984"
"21:27:35:696 (H:m:s:ms)","OPERA","62.015","0.33184951785335964","4894"
"21:47:52:727 (H:m:s:ms)","GENERIC","93.259","0.3669409918564546","3350"
"21:27:34:545 (H:m:s:ms)","GENERIC","62.069","0.3315866070409068","2250"
"21:47:46:666 (H:m:s:ms)","GENERIC","93.252","0.365330293117998","2967"
"21:27:28:484 (H:m:s:ms)","GENERIC","93.131","0.33388304921568224","7058"
"21:47:40:606 (H:m:s:ms)","GENERIC","62.061","0.3664090024141498","3477"
"21:47:34:545 (H:m:s:ms)","GENERIC","93.35300000000001","0.36904029493277585","2921"
"21:47:28:484 (H:m:s:ms)","GENERIC","93.128","0.36904479352866804","2193"
"21:30:1:0 (H:m:s:ms)","OPERA","62.251999999999995","0.32017948947934277","41537"
"21:30:32:0 (H:m:s:ms)","GENERIC","93.244","0.3309056776329162","39324"
"21:27:20:506 (H:m:s:ms)","OPERA","93.29","0.32999210736901574","2422"
"21:47:22:424 (H:m:s:ms)","GENERIC","62.063","0.3676537763788144","3912"
"21:14:20:606 (H:m:s:ms)","GENERIC","124.511","0.3080788161151171","1852"
"21:27:16:363 (H:m:s:ms)","GENERIC","62.051","0.3292946076605013","2860"
"21:47:16:363 (H:m:s:ms)","GENERIC","93.45100000000001","0.3728977243901833","3564"
"21:14:26:666 (H:m:s:ms)","GENERIC","93.347","0.30807238746468363","3149"
"21:30:1:0 (H:m:s:ms)","OPERA","93.24600000000001","0.3259972122109552","24320"
"21:47:10:303 (H:m:s:ms)","GENERIC","93.24000000000001","0.3640808295809226","3625"
"20:52:19:393 (H:m:s:ms)","GENERIC","93.363","0.32536087318319157","3561"
"21:14:32:727 (H:m:s:ms)","GENERIC","93.27799999999999","0.31975255309054895","3168"
"21:27:10:303 (H:m:s:ms)","GENERIC","93.277","0.33029818563515867","2306"
"21:47:4:242 (H:m:s:ms)","GENERIC","93.35300000000001","0.36372993302890105","2823"
"20:52:25:454 (H:m:s:ms)","GENERIC","93.136","0.32446993742730557","2265"
"21:14:38:787 (H:m:s:ms)","GENERIC","93.176","0.3212435230337984","2229"
"21:27:5:316 (H:m:s:ms)","OPERA","31.01","0.3326399728524952","3760"
"21:46:58:181 (H:m:s:ms)","GENERIC","124.61699999999999","0.36942683213929484","4074"
"20:52:31:515 (H:m:s:ms)","GENERIC","93.483","0.32296185030574287","2929"
"21:14:44:848 (H:m:s:ms)","GENERIC","93.408","0.32437156404098816","3823"
"20:52:37:575 (H:m:s:ms)","GENERIC","93.641","0.3208148120039056","3623"
"21:14:50:909 (H:m:s:ms)","GENERIC","62.101","0.3249071579059224","3919"
"20:52:43:636 (H:m:s:ms)","GENERIC","93.31700000000001","0.324914829354242","3801"
"21:14:56:969 (H:m:s:ms)","GENERIC","62.035","0.323999224591492","2463"
"20:52:49:696 (H:m:s:ms)","GENERIC","93.112","0.324542974205204","3120"
"21:15:3:30 (H:m:s:ms)","GENERIC","62.095","0.34115699874595773","3597"
"20:52:55:757 (H:m:s:ms)","GENERIC","62.121","0.32458412594630104","2637"
"21:15:9:90 (H:m:s:ms)","GENERIC","62.127","0.34187211020402064","2755"
"20:53:1:818 (H:m:s:ms)","GENERIC","93.249","0.32298029120294164","2394"
"21:15:15:151 (H:m:s:ms)","GENERIC","93.623","0.34666271165437756","2278"
"20:53:7:878 (H:m:s:ms)","GENERIC","93.162","0.31968988359122996","4557"
"20:53:13:939 (H:m:s:ms)","GENERIC","93.339","0.31702648640611525","3517"
"21:28:16:969 (H:m:s:ms)","GENERIC","62.043","0.3426544962635873","4793"
"21:49:5:454 (H:m:s:ms)","GENERIC","93.474","0.35500857317600015","3361"
"21:28:13:670 (H:m:s:ms)","OPERA","62.298","0.34187824081201595","3665"
"21:48:59:393 (H:m:s:ms)","GENERIC","62.019","0.35250899994344015","2791"
"21:28:10:909 (H:m:s:ms)","GENERIC","62.037","0.33872705852999746","3395"
"21:48:53:333 (H:m:s:ms)","GENERIC","93.19200000000001","0.3546268050703521","4028"
"21:30:1:0 (H:m:s:ms)","OPERA","93.197","0.3292659404029829","70900"
"21:48:47:272 (H:m:s:ms)","GENERIC","62.041","0.3568954591814805","3301"
"21:28:4:848 (H:m:s:ms)","GENERIC","93.325","0.3366928558093528","2049"
"21:48:41:212 (H:m:s:ms)","GENERIC","93.57499999999999","0.36288372388907536","3948"
"21:48:35:151 (H:m:s:ms)","GENERIC","93.425","0.36215840212110906","4109"
"21:48:29:90 (H:m:s:ms)","GENERIC","62.115","0.36372106159608514","2867"
"21:27:58:787 (H:m:s:ms)","GENERIC","93.144","0.33568677292672155","5001"
"21:15:21:212 (H:m:s:ms)","GENERIC","93.332","0.34770193866946936","3193"
"21:30:32:0 (H:m:s:ms)","OPERA","62.254000000000005","0.33344025525444104","101095"
"21:15:27:272 (H:m:s:ms)","GENERIC","62.157","0.3484960212358467","2995"
"21:27:52:727 (H:m:s:ms)","GENERIC","93.39","0.33499556999395386","3133"
"21:48:23:30 (H:m:s:ms)","GENERIC","93.55","0.361893870232065","4673"
"20:53:20:0 (H:m:s:ms)","GENERIC","93.155","0.32015754786274087","3526"
"21:15:33:333 (H:m:s:ms)","GENERIC","62.095","0.34783943506331916","3733"
"21:30:1:0 (H:m:s:ms)","OPERA","124.356","0.32672318279113804","59691"
"21:48:16:969 (H:m:s:ms)","GENERIC","62.029","0.3625553512471113","2520"
"20:53:26:60 (H:m:s:ms)","GENERIC","62.111","0.32027476780538755","3474"
"21:15:39:393 (H:m:s:ms)","GENERIC","62.065","0.34711053394380875","4317"
"21:30:32:0 (H:m:s:ms)","GENERIC","93.287","0.3286868420381544","75688"
"21:48:10:909 (H:m:s:ms)","GENERIC","93.394","0.3659459160622887","4468"
"20:53:32:121 (H:m:s:ms)","GENERIC","124.17699999999999","0.3210958308495136","2126"
"21:15:45:454 (H:m:s:ms)","GENERIC","93.584","0.3456105970252961","3268"
"21:30:32:0 (H:m:s:ms)","OPERA","93.268","0.3321378614999681","61447"
"21:48:4:848 (H:m:s:ms)","GENERIC","62.055","0.3676173834861577","1682"
"20:53:38:181 (H:m:s:ms)","GENERIC","62.309","0.31894427816441606","2126"
"21:15:51:515 (H:m:s:ms)","GENERIC","93.211","0.34438886786124473","3116"
"20:53:44:242 (H:m:s:ms)","GENERIC","93.687","0.32148079339883595","2596"
"21:15:57:575 (H:m:s:ms)","GENERIC","93.33500000000001","0.3437105718904311","1438"
"20:53:50:303 (H:m:s:ms)","GENERIC","62.113","0.3183537914144151","2561"
"21:16:3:636 (H:m:s:ms)","GENERIC","62.055","0.34214180300226493","2495"
"20:53:56:363 (H:m:s:ms)","GENERIC","93.293","0.31847765762057806","3209"
"21:16:9:696 (H:m:s:ms)","GENERIC","124.681","0.34364796044874013","2705"
"20:54:2:424 (H:m:s:ms)","GENERIC","62.133","0.317650753926275","2724"
"21:16:15:757 (H:m:s:ms)","GENERIC","93.203","0.34400947208830496","2295"
"20:54:8:484 (H:m:s:ms)","GENERIC","62.027","0.3183162211497298","3349"
"20:54:14:545 (H:m:s:ms)","GENERIC","93.355","0.31931335736954036","3304"
"21:28:53:333 (H:m:s:ms)","GENERIC","93.148","0.3426289926857355","1829"
"22:6:50:526 (H:m:s:ms)","AMBULANCE","31.011","0.29422800793176895","2250"
"21:28:51:645 (H:m:s:ms)","OPERA","31.009","0.343361509578928","4907"
"22:4:12:631 (H:m:s:ms)","AMBULANCE","62.316","0.3038464814536228","2013"
"21:28:47:272 (H:m:s:ms)","GENERIC","93.218","0.34232587599082054","2095"
"21:50:0:0 (H:m:s:ms)","GENERIC","93.268","0.3685785088591171","2780"
"21:30:32:0 (H:m:s:ms)","OPERA","93.227","0.3361515274213986","132399"
"21:49:53:939 (H:m:s:ms)","GENERIC","93.292","0.36368459200983105","5994"
"21:28:41:212 (H:m:s:ms)","GENERIC","93.634","0.33872771518795786","3173"
"21:49:47:878 (H:m:s:ms)","GENERIC","62.057","0.3636835390765222","2668"
"21:28:36:455 (H:m:s:ms)","OPERA","93.325","0.3432032589792637","1381"
"21:49:41:818 (H:m:s:ms)","GENERIC","93.11","0.36372923283633884","3004"
"21:49:35:757 (H:m:s:ms)","GENERIC","62.065","0.3682183462774122","2672"
"21:49:29:696 (H:m:s:ms)","GENERIC","93.65700000000001","0.36415946108801717","3002"
"21:16:21:818 (H:m:s:ms)","GENERIC","93.449","0.3448521408660191","2931"
"21:16:27:878 (H:m:s:ms)","GENERIC","93.369","0.3423237425323866","3913"
"21:28:35:151 (H:m:s:ms)","GENERIC","93.47800000000001","0.3420803651794465","4252"
"20:54:20:606 (H:m:s:ms)","GENERIC","93.286","0.31776519404808456","2810"
"21:16:33:939 (H:m:s:ms)","GENERIC","62.167","0.3420855537224046","2344"
"21:28:29:90 (H:m:s:ms)","GENERIC","62.127","0.34426907843255145","2627"
"20:54:26:666 (H:m:s:ms)","GENERIC","93.364","0.31529057001352306","2924"
"21:16:40:0 (H:m:s:ms)","GENERIC","93.511","0.3420337220677608","4333"
"21:28:28:860 (H:m:s:ms)","OPERA","93.25","0.34411524653402975","2491"
"21:49:23:636 (H:m:s:ms)","GENERIC","93.195","0.3636275566177028","3192"
"20:54:32:727 (H:m:s:ms)","GENERIC","62.233999999999995","0.31633104510553595","3280"
"21:16:46:60 (H:m:s:ms)","GENERIC","93.17099999999999","0.3421864412059546","4151"
"21:28:23:30 (H:m:s:ms)","GENERIC","93.521","0.3441279387489372","4296"
"21:49:17:575 (H:m:s:ms)","GENERIC","93.38900000000001","0.34926774974667285","2097"
"20:54:38:787 (H:m:s:ms)","GENERIC","93.16","0.3146357777893781","2372"
"21:16:52:121 (H:m:s:ms)","GENERIC","93.14099999999999","0.3433344757579461","2170"
"21:30:1:0 (H:m:s:ms)","OPERA","62.248999999999995","0.3315120159921956","72350"
"21:49:11:515 (H:m:s:ms)","GENERIC","93.28800000000001","0.3470597382339934","3937"
"20:54:44:848 (H:m:s:ms)","GENERIC","62.125","0.3154931234160988","3408"
"21:16:58:181 (H:m:s:ms)","GENERIC","93.306","0.3432496981271408","4544"
"20:54:50:909 (H:m:s:ms)","GENERIC","62.083","0.31326791278680455","4377"
"21:17:4:242 (H:m:s:ms)","GENERIC","93.378","0.3445624278201681","2623"
"20:54:56:969 (H:m:s:ms)","GENERIC","62.033","0.3158753204986352","3663"
"21:17:10:303 (H:m:s:ms)","GENERIC","93.286","0.34317804577393274","3618"
"20:55:3:30 (H:m:s:ms)","GENERIC","93.184","0.3121803775286776","3808"
"21:17:16:363 (H:m:s:ms)","GENERIC","93.391","0.34213376925649325","3856"
"20:55:9:90 (H:m:s:ms)","GENERIC","62.157","0.31070574250503735","2671"
"20:55:15:151 (H:m:s:ms)","GENERIC","62.103","0.3077391324416169","2390"
"21:29:29:696 (H:m:s:ms)","GENERIC","62.137","0.3380558439186655","3967"
"21:30:1:0 (H:m:s:ms)","OPERA","93.258","0.32289957216068055","41092"
"21:29:23:636 (H:m:s:ms)","GENERIC","93.17500000000001","0.3385681043756916","3648"
"21:29:22:25 (H:m:s:ms)","OPERA","62.335","0.339080792211985","5014"
"21:29:17:575 (H:m:s:ms)","GENERIC","93.425","0.341604165016243","1200"
"21:29:14:430 (H:m:s:ms)","OPERA","93.274","0.34181892667814784","4110"
"21:29:11:515 (H:m:s:ms)","GENERIC","93.342","0.34172378683877896","1735"
"21:17:22:424 (H:m:s:ms)","GENERIC","93.23","0.34160301289427386","2435"
"21:17:28:484 (H:m:s:ms)","GENERIC","93.149","0.34124512622668324","2737"
"20:55:21:212 (H:m:s:ms)","GENERIC","93.352","0.30983501228628846","3564"
"21:17:34:545 (H:m:s:ms)","GENERIC","62.091","0.34132743922987274","3837"
"20:55:27:272 (H:m:s:ms)","GENERIC","93.515","0.31197162901203424","2808"
"21:17:40:606 (H:m:s:ms)","GENERIC","93.53","0.33790367489621054","3514"
"21:30:1:0 (H:m:s:ms)","OPERA","62.207","0.32259236507269323","33247"
"20:55:33:333 (H:m:s:ms)","GENERIC","62.065","0.3108092209205553","4315"
"21:17:46:666 (H:m:s:ms)","GENERIC","93.25800000000001","0.3537322378061079","2701"
"21:29:5:454 (H:m:s:ms)","GENERIC","93.453","0.3404322912912763","2899"
"20:55:39:393 (H:m:s:ms)","GENERIC","93.113","0.3095127567589261","3865"
"21:17:52:727 (H:m:s:ms)","GENERIC","62.089","0.35237850802924625","3808"
"21:28:59:393 (H:m:s:ms)","GENERIC","62.031","0.34152100848029393","3309"
"22:7:53:684 (H:m:s:ms)","AMBULANCE","31.008","0.301480694951618","1545"
"20:55:45:454 (H:m:s:ms)","GENERIC","93.602","0.3110454210646277","2298"
"21:17:58:787 (H:m:s:ms)","GENERIC","93.13499999999999","0.35529565995513124","3355"
"21:28:59:240 (H:m:s:ms)","OPERA","62.183","0.341429389561328","2015"
"22:7:22:105 (H:m:s:ms)","AMBULANCE","62.317","0.2988853460364427","2987"
"20:55:51:515 (H:m:s:ms)","GENERIC","93.19","0.31294967395548223","3540"
"21:18:4:848 (H:m:s:ms)","GENERIC","62.029","0.35558044907144726","2385"
"20:55:57:575 (H:m:s:ms)","GENERIC","93.344","0.3149636185493277","3035"
"21:18:10:909 (H:m:s:ms)","GENERIC","93.369","0.3527803825920874","3946"
"20:56:3:636 (H:m:s:ms)","GENERIC","93.31","0.3146508341446419","2689"
"21:18:16:969 (H:m:s:ms)","GENERIC","93.267","0.3481607792160459","3915"
"20:56:9:696 (H:m:s:ms)","GENERIC","62.357","0.31451727868147794","2771"
"20:56:15:757 (H:m:s:ms)","GENERIC","62.093","0.314364435076061","3350"
"21:30:0:0 (H:m:s:ms)","GENERIC","93.26599999999999","0.32234379038747296","15571"
"21:34:45:0 (H:m:s:ms)","GENERIC","62.029","0.34937302036124107","72427"
"21:30:0:0 (H:m:s:ms)","AMBULANCE","31.023","0.3217949027442397","10340"
"21:30:0:0 (H:m:s:ms)","OPERA","62.182","0.3387746780541136","6540"
"21:29:53:939 (H:m:s:ms)","GENERIC","62.065","0.3399641587773627","3025"
"21:29:52:405 (H:m:s:ms)","OPERA","62.309","0.3398419687730246","6499"
"21:29:47:878 (H:m:s:ms)","GENERIC","93.268","0.33921389329087065","2241"
"21:29:44:810 (H:m:s:ms)","OPERA","93.218","0.338603245405745","6914"
"21:18:23:30 (H:m:s:ms)","GENERIC","62.089","0.3445305012833354","4495"
"21:18:29:90 (H:m:s:ms)","GENERIC","62.113","0.3449781179471541","3624"
"20:56:21:818 (H:m:s:ms)","GENERIC","93.467","0.3160165375545789","3290"
"21:18:35:151 (H:m:s:ms)","GENERIC","62.091","0.34248611204808466","4285"
"20:56:27:878 (H:m:s:ms)","GENERIC","93.36099999999999","0.315360815464788","4038"
"21:18:41:212 (H:m:s:ms)","GENERIC","93.637","0.34445201068347514","3880"
"20:40:0:0 (H:m:s:ms)","OPERA","62.253","0.28864627282289895","3927"
"20:56:33:939 (H:m:s:ms)","GENERIC","93.604","0.31441689907904175","2787"
"21:18:47:272 (H:m:s:ms)","GENERIC","93.23","0.34260062471460295","3254"
"20:40:0:0 (H:m:s:ms)","GENERIC","93.34899999999999","0.2902265069885966","6637"
"20:56:40:0 (H:m:s:ms)","GENERIC","93.525","0.31067030993952754","4158"
"21:18:53:333 (H:m:s:ms)","GENERIC","62.049","0.33884158508504114","4318"
"21:29:41:818 (H:m:s:ms)","GENERIC","93.088","0.3375898030862183","3463"
"20:40:0:0 (H:m:s:ms)","GENERIC","93.28399999999999","0.2932308290969435","8862"
"20:56:46:60 (H:m:s:ms)","GENERIC","93.134","0.3111453610859178","3653"
"21:18:59:393 (H:m:s:ms)","GENERIC","93.236","0.34058048865677015","3638"
"21:29:37:215 (H:m:s:ms)","OPERA","62.015","0.3380743471628708","6848"
"20:40:6:60 (H:m:s:ms)","GENERIC","93.143","0.2955023467365528","3743"
"20:56:52:121 (H:m:s:ms)","GENERIC","93.153","0.31529332417527967","2370"
"21:19:5:454 (H:m:s:ms)","GENERIC","93.453","0.3409674658154267","3172"
"21:29:35:757 (H:m:s:ms)","GENERIC","93.157","0.3379324123956668","2065"
"20:40:7:594 (H:m:s:ms)","OPERA","62.265","0.2990115805509426","2360"
"20:56:58:181 (H:m:s:ms)","GENERIC","93.36","0.3136493854526421","4340"
"21:19:11:515 (H:m:s:ms)","GENERIC","62.055","0.3402960774613679","3828"
"20:40:12:121 (H:m:s:ms)","GENERIC","62.103","0.3008709279647258","3617"
"20:57:4:242 (H:m:s:ms)","GENERIC","93.378","0.3154199283331002","2496"
"21:19:17:575 (H:m:s:ms)","GENERIC","62.091","0.33928153341328215","1705"
"20:40:15:189 (H:m:s:ms)","OPERA","62.260000000000005","0.30413910060337224","3320"
"20:57:10:303 (H:m:s:ms)","GENERIC","93.248","0.31380482332579107","3291"
"20:40:18:181 (H:m:s:ms)","GENERIC","62.039","0.3026157459112814","4309"
"20:57:16:363 (H:m:s:ms)","GENERIC","93.371","0.3149444978369512","3469"
"20:40:22:784 (H:m:s:ms)","OPERA","31.009","0.30341229385025764","4190"
"20:40:24:242 (H:m:s:ms)","GENERIC","93.197","0.30406112789870704","3188"
"21:30:18:181 (H:m:s:ms)","GENERIC","93.145","0.33687389372511506","3457"
"21:31:0:606 (H:m:s:ms)","GENERIC","93.385","0.32818091139570277","2052"
"21:30:54:545 (H:m:s:ms)","GENERIC","93.5","0.33250659694973606","3580"
"21:34:45:0 (H:m:s:ms)","GENERIC","93.25399999999999","0.33258808779313404","33713"
"21:30:42:424 (H:m:s:ms)","GENERIC","93.449","0.33314418952908653","2590"
"21:30:36:363 (H:m:s:ms)","GENERIC","93.407","0.3347773857469412","1617"
"21:30:31:578 (H:m:s:ms)","AMBULANCE","62.29","0.3317642172997804","2977"
"21:30:30:303 (H:m:s:ms)","GENERIC","93.576","0.33897704785160304","4316"
"21:19:23:636 (H:m:s:ms)","GENERIC","93.161","0.33866889200740974","4164"
"21:30:24:242 (H:m:s:ms)","GENERIC","93.197","0.3414062765315852","1761"
"21:19:29:696 (H:m:s:ms)","GENERIC","62.121","0.33814446026501643","3006"
"20:57:22:424 (H:m:s:ms)","GENERIC","93.224","0.3132941392428532","3334"
"21:19:35:757 (H:m:s:ms)","GENERIC","93.17","0.33598444551863005","3261"
"20:57:28:484 (H:m:s:ms)","GENERIC","93.145","0.3135790871321551","2429"
"21:19:41:818 (H:m:s:ms)","GENERIC","62.033","0.3295845428016969","3245"
"20:40:30:303 (H:m:s:ms)","GENERIC","93.574","0.3028278118782584","3557"
"20:57:34:545 (H:m:s:ms)","GENERIC","93.371","0.3106236050412804","3486"
"21:19:47:878 (H:m:s:ms)","GENERIC","62.065","0.3297755837089623","2607"
"20:40:30:379 (H:m:s:ms)","OPERA","93.5","0.30526819571298314","4670"
"20:57:40:606 (H:m:s:ms)","GENERIC","93.546","0.3063948811770938","3643"
"21:19:53:939 (H:m:s:ms)","GENERIC","93.31099999999999","0.32881693516500915","3732"
"20:40:36:363 (H:m:s:ms)","GENERIC","62.057","0.3058516781530814","4159"
"21:2:38:0 (H:m:s:ms)","GENERIC","93.268","0.31032929722867403","26951"
"21:20:0:0 (H:m:s:ms)","OPERA","62.209","0.3310771816689027","5064"
"20:40:37:974 (H:m:s:ms)","OPERA","62.221000000000004","0.30861919769065943","4571"
"20:57:52:727 (H:m:s:ms)","GENERIC","93.50399999999999","0.2960129762639185","4167"
"21:20:0:0 (H:m:s:ms)","GENERIC","93.262","0.3338080709366509","8176"
"21:30:12:121 (H:m:s:ms)","GENERIC","62.113","0.3371159204167093","3653"
"20:40:42:424 (H:m:s:ms)","GENERIC","93.477","0.30535940352334184","3038"
"20:57:58:787 (H:m:s:ms)","GENERIC","93.154","0.2949327200658382","2797"
"21:20:0:0 (H:m:s:ms)","GENERIC","93.274","0.3353753455200028","10358"
"21:30:6:60 (H:m:s:ms)","GENERIC","124.265","0.33720570198710886","2765"
"20:40:45:569 (H:m:s:ms)","OPERA","62.254000000000005","0.3080596471573889","3902"
"20:58:4:848 (H:m:s:ms)","GENERIC","93.38499999999999","0.2932355028319067","2210"
"21:20:6:60 (H:m:s:ms)","GENERIC","93.16","0.33872299274305373","3915"
"20:40:48:484 (H:m:s:ms)","GENERIC","93.272","0.3109067468684091","2646"
"20:58:10:909 (H:m:s:ms)","GENERIC","93.42","0.291611441031989","4479"
"20:40:53:164 (H:m:s:ms)","OPERA","31.009","0.30966620020094265","2847"
"21:2:38:0 (H:m:s:ms)","GENERIC","93.239","0.30838294651593706","18738"
"20:40:54:545 (H:m:s:ms)","GENERIC","62.083","0.3102529202779","3029"
"20:41:0:606 (H:m:s:ms)","GENERIC","62.051","0.3106513395003365","1642"
"21:31:12:727 (H:m:s:ms)","GENERIC","93.64699999999999","0.3256997792675761","2381"
"21:31:6:666 (H:m:s:ms)","GENERIC","93.263","0.32844847710806996","3294"
"21:31:55:151 (H:m:s:ms)","GENERIC","93.387","0.3446811613636034","2605"
"21:31:49:90 (H:m:s:ms)","GENERIC","62.045","0.3466487588636426","3326"
"21:34:45:0 (H:m:s:ms)","GENERIC","62.107","0.34677212926603956","12711"
"21:31:36:969 (H:m:s:ms)","GENERIC","93.133","0.3437383030378286","4179"
"21:31:34:736 (H:m:s:ms)","AMBULANCE","62.305","0.34279425050146645","1596"
"21:31:30:909 (H:m:s:ms)","GENERIC","93.45","0.3407061498996965","1954"
"21:31:24:848 (H:m:s:ms)","GENERIC","62.053","0.33634550640381694","2040"
"21:31:18:787 (H:m:s:ms)","GENERIC","93.137","0.3322189486861533","2832"
"20:58:23:30 (H:m:s:ms)","GENERIC","93.54899999999999","0.2945974850856597","4259"
"20:58:29:90 (H:m:s:ms)","GENERIC","93.45","0.29375989224666554","2609"
"20:41:0:759 (H:m:s:ms)","OPERA","93.446","0.31448771065007664","3046"
"20:58:35:151 (H:m:s:ms)","GENERIC","62.105","0.2916446935213713","4427"
"20:41:6:666 (H:m:s:ms)","GENERIC","31.031","0.31373956844133105","2527"
"20:58:41:212 (H:m:s:ms)","GENERIC","93.648","0.29047440730830837","3222"
"20:41:8:354 (H:m:s:ms)","OPERA","62.29","0.3162598469016129","1425"
"20:58:47:272 (H:m:s:ms)","GENERIC","93.23","0.28576019011258047","3771"
"20:41:12:727 (H:m:s:ms)","GENERIC","93.651","0.3128655613323873","2725"
"20:58:53:333 (H:m:s:ms)","GENERIC","93.196","0.285152997379963","4428"
"20:41:15:949 (H:m:s:ms)","OPERA","62.289","0.31668969934308705","7028"
"20:58:59:393 (H:m:s:ms)","GENERIC","62.075","0.284941911621325","2905"
"20:41:18:787 (H:m:s:ms)","GENERIC","93.143","0.3168528075662312","2296"
"20:59:5:454 (H:m:s:ms)","GENERIC","93.453","0.28490503696326425","2679"
"21:31:3:157 (H:m:s:ms)","AMBULANCE","31.029","0.3276408180109641","1767"
"20:41:24:848 (H:m:s:ms)","GENERIC","93.39099999999999","0.316905411922566","3083"
"21:1:35:0 (H:m:s:ms)","GENERIC","93.346","0.29902377191944185","17984"
"20:41:30:909 (H:m:s:ms)","GENERIC","93.37","0.31771177943875384","4340"
"20:59:17:575 (H:m:s:ms)","GENERIC","93.37899999999999","0.28603607285104693","2056"
"20:41:31:139 (H:m:s:ms)","OPERA","62.324","0.3182596055598727","7147"
"20:41:36:969 (H:m:s:ms)","GENERIC","93.075","0.322175442105073","4234"
"20:59:23:636 (H:m:s:ms)","GENERIC","62.059","0.28783175254080123","3620"
"20:59:29:696 (H:m:s:ms)","GENERIC","62.137","0.2900142040534665","2982"
"20:41:38:734 (H:m:s:ms)","OPERA","62.188","0.32393496671615646","5541"
"20:59:35:757 (H:m:s:ms)","GENERIC","62.053","0.29325759734043844","3059"
"20:41:43:30 (H:m:s:ms)","GENERIC","62.075","0.3231071755437257","3389"
"20:59:41:818 (H:m:s:ms)","GENERIC","93.096","0.2920920954052603","3646"
"20:41:49:90 (H:m:s:ms)","GENERIC","93.411","0.3198447237621138","4209"
"20:59:47:878 (H:m:s:ms)","GENERIC","62.053","0.2913484958613524","2711"
"20:41:53:924 (H:m:s:ms)","OPERA","31.009","0.32111822158266695","5282"
"21:4:45:0 (H:m:s:ms)","GENERIC","93.337","0.3155632158528152","23151"
"20:41:55:151 (H:m:s:ms)","GENERIC","62.131","0.32112124398729996","2604"
"21:0:0:0 (H:m:s:ms)","AMBULANCE","62.288","0.2928092557010829","3573"
"20:42:1:212 (H:m:s:ms)","GENERIC","62.113","0.3201959110740071","4120"
"21:0:0:0 (H:m:s:ms)","GENERIC","93.298","0.29376467898846814","6801"
"20:42:1:518 (H:m:s:ms)","OPERA","31.009","0.3218980599998521","8937"
"21:0:0:0 (H:m:s:ms)","GENERIC","93.292","0.29499600448073265","9131"
"20:42:7:272 (H:m:s:ms)","GENERIC","31.032","0.3218764490183012","1421"
"21:0:6:60 (H:m:s:ms)","GENERIC","62.065","0.29624643713618964","3773"
"20:42:9:113 (H:m:s:ms)","OPERA","62.182","0.32421527443231735","4367"
"20:42:13:333 (H:m:s:ms)","GENERIC","93.39","0.3238209386203509","1936"
"21:0:12:121 (H:m:s:ms)","GENERIC","62.099","0.29678363237068045","3653"
"21:0:18:181 (H:m:s:ms)","GENERIC","62.021","0.29794754174039423","4357"
"20:42:16:708 (H:m:s:ms)","OPERA","62.301","0.32516221183886834","4959"
"21:0:24:242 (H:m:s:ms)","GENERIC","62.041","0.29918836873254934","3605"
"20:42:19:393 (H:m:s:ms)","GENERIC","93.381","0.32525997798773265","3236"
"21:0:30:303 (H:m:s:ms)","GENERIC","93.556","0.2994285162030178","3913"
"20:20:0:0 (H:m:s:ms)","GENERIC","62.045","0.29220034883761836","4822"
"20:42:24:303 (H:m:s:ms)","OPERA","62.228","0.32697871956252683","4527"
"21:0:31:578 (H:m:s:ms)","AMBULANCE","62.244","0.3022052641717508","2228"
"20:20:0:0 (H:m:s:ms)","GENERIC","93.319","0.29204671994743203","6746"
"20:42:25:454 (H:m:s:ms)","GENERIC","62.075","0.32826115333883277","2725"
"21:0:36:363 (H:m:s:ms)","GENERIC","93.41","0.30165874225270756","3783"
"20:20:6:60 (H:m:s:ms)","GENERIC","93.145","0.2920383642903208","3408"
"20:42:31:515 (H:m:s:ms)","GENERIC","93.43299999999999","0.3279203248523673","3534"
"21:0:42:424 (H:m:s:ms)","GENERIC","93.483","0.2963439237828675","2659"
"20:20:12:121 (H:m:s:ms)","GENERIC","62.131","0.2922294325940553","3596"
"20:42:31:898 (H:m:s:ms)","OPERA","31.009","0.3290187300827191","5542"
"21:0:48:484 (H:m:s:ms)","GENERIC","62.065","0.29740465782792985","3939"
"20:20:18:181 (H:m:s:ms)","GENERIC","93.235","0.28894760525907326","4500"
"20:42:37:575 (H:m:s:ms)","GENERIC","93.627","0.33035731842055843","4359"
"21:0:54:545 (H:m:s:ms)","GENERIC","93.5","0.29947452739750513","3280"
"20:20:24:242 (H:m:s:ms)","GENERIC","93.179","0.29202433941253336","3424"
"20:42:39:493 (H:m:s:ms)","OPERA","31.009","0.3311837959861127","2756"
"21:1:0:606 (H:m:s:ms)","GENERIC","62.041","0.29787447682365137","1502"
"20:20:30:303 (H:m:s:ms)","GENERIC","93.61699999999999","0.29236464816541646","3670"
"20:42:43:636 (H:m:s:ms)","GENERIC","93.357","0.33085895141908467","1516"
"20:20:36:363 (H:m:s:ms)","GENERIC","93.404","0.2923877650782265","3059"
"20:42:47:88 (H:m:s:ms)","OPERA","62.213","0.3303582163429115","2789"
"20:20:42:424 (H:m:s:ms)","GENERIC","124.853","0.2946056114433202","2683"
"20:20:48:484 (H:m:s:ms)","GENERIC","62.043","0.2927413263455916","3187"
"21:1:3:157 (H:m:s:ms)","AMBULANCE","62.263999999999996","0.2997962716653399","2218"
"21:1:6:666 (H:m:s:ms)","GENERIC","93.273","0.3000029622998361","3204"
"20:42:49:696 (H:m:s:ms)","GENERIC","93.159","0.33386350091135736","3443"
"21:1:12:727 (H:m:s:ms)","GENERIC","62.149","0.30004396800842287","2574"
"20:42:54:683 (H:m:s:ms)","OPERA","62.217","0.3314787317720464","2379"
"21:1:18:787 (H:m:s:ms)","GENERIC","93.121","0.30149880393485623","2960"
"20:20:54:545 (H:m:s:ms)","GENERIC","93.516","0.2927184632339221","2783"
"20:42:55:757 (H:m:s:ms)","GENERIC","62.137","0.3321599794520949","2342"
"21:1:24:848 (H:m:s:ms)","GENERIC","62.340999999999994","0.30062887962826196","2925"
"20:21:0:606 (H:m:s:ms)","GENERIC","93.398","0.29923062393797994","3297"
"20:43:1:818 (H:m:s:ms)","GENERIC","62.135","0.3314437411200259","2598"
"21:1:30:909 (H:m:s:ms)","GENERIC","93.394","0.2994135769306369","4862"
"20:21:6:666 (H:m:s:ms)","GENERIC","93.482","0.29991603513830767","3151"
"20:43:2:278 (H:m:s:ms)","OPERA","62.314","0.3327629526276636","2225"
"21:1:34:736 (H:m:s:ms)","AMBULANCE","62.251000000000005","0.2927828637236697","2985"
"20:21:12:727 (H:m:s:ms)","GENERIC","93.633","0.2972391377291645","2683"
"20:43:7:878 (H:m:s:ms)","GENERIC","62.101","0.33242261847945664","5048"
"21:1:36:969 (H:m:s:ms)","GENERIC","93.093","0.3043181604809041","4333"
"20:21:18:787 (H:m:s:ms)","GENERIC","93.151","0.3003733377105187","2425"
"20:43:9:873 (H:m:s:ms)","OPERA","31.009","0.3332622334458755","7644"
"21:1:43:30 (H:m:s:ms)","GENERIC","62.089","0.30474215843699703","3401"
"20:21:24:848 (H:m:s:ms)","GENERIC","93.40700000000001","0.30056770198039207","2872"
"20:43:13:939 (H:m:s:ms)","GENERIC","62.051","0.3343051116542396","2364"
"21:1:49:90 (H:m:s:ms)","GENERIC","62.101","0.30532013971202754","5060"
"20:21:30:909 (H:m:s:ms)","GENERIC","62.039","0.3015637168873539","4262"
"20:43:17:468 (H:m:s:ms)","OPERA","31.009","0.3348973457205106","7578"
"20:21:36:969 (H:m:s:ms)","GENERIC","93.067","0.3007713463697603","4046"
"20:43:20:0 (H:m:s:ms)","GENERIC","93.178","0.33452661028671643","3888"
"20:21:43:30 (H:m:s:ms)","GENERIC","62.119","0.30037463428300437","2863"
"20:21:49:90 (H:m:s:ms)","GENERIC","93.35300000000001","0.29898538400254043","4044"
"20:43:25:63 (H:m:s:ms)","OPERA","93.483","0.338078729721187","2446"
"20:43:26:60 (H:m:s:ms)","GENERIC","93.144","0.3382622667944061","3601"
"20:21:55:151 (H:m:s:ms)","GENERIC","93.396","0.29825738406000546","2678"
"20:43:32:121 (H:m:s:ms)","GENERIC","93.179","0.33976534227746524","2522"
"20:22:1:212 (H:m:s:ms)","GENERIC","62.091","0.297704364431681","3158"
"20:43:32:658 (H:m:s:ms)","OPERA","62.166","0.3413747725668851","8887"
"20:22:7:272 (H:m:s:ms)","GENERIC","93.42","0.2999445337088305","3554"
"20:43:38:181 (H:m:s:ms)","GENERIC","93.2","0.34223052409107063","2354"
"20:22:13:333 (H:m:s:ms)","GENERIC","62.143","0.30163368420108266","3117"
"20:43:40:253 (H:m:s:ms)","OPERA","31.009","0.3444502937522441","6950"
"20:22:19:393 (H:m:s:ms)","GENERIC","62.061","0.298470125294929","3738"
"20:43:44:242 (H:m:s:ms)","GENERIC","93.68299999999999","0.3492585464460723","2629"
"20:22:25:454 (H:m:s:ms)","GENERIC","93.149","0.29867057122149365","3760"
"20:43:47:848 (H:m:s:ms)","OPERA","31.009","0.34961385345144536","6317"
"20:22:31:515 (H:m:s:ms)","GENERIC","93.475","0.2983173628842219","3262"
"20:43:50:303 (H:m:s:ms)","GENERIC","93.592","0.3495837684119999","2585"
"20:22:37:575 (H:m:s:ms)","GENERIC","93.643","0.2995758879114195","4734"
"20:43:55:443 (H:m:s:ms)","OPERA","62.150999999999996","0.34908737016322017","1296"
"20:22:43:636 (H:m:s:ms)","GENERIC","31.021","0.2992684878252621","3462"
"20:22:49:696 (H:m:s:ms)","GENERIC","93.137","0.3039007971491222","3472"
"20:43:56:363 (H:m:s:ms)","GENERIC","93.339","0.3481940958215157","2176"
"20:44:2:424 (H:m:s:ms)","GENERIC","62.113","0.3474471883822593","3203"
"20:22:55:757 (H:m:s:ms)","GENERIC","62.137","0.30337421400294085","2534"
"20:44:3:37 (H:m:s:ms)","OPERA","62.223","0.34849863582021734","6839"
"20:23:1:818 (H:m:s:ms)","GENERIC","93.29299999999999","0.30560030698507873","2597"
"20:44:8:484 (H:m:s:ms)","GENERIC","62.043","0.34923563347374675","2534"
"20:23:7:878 (H:m:s:ms)","GENERIC","62.123","0.3058704743606939","4629"
"20:44:10:632 (H:m:s:ms)","OPERA","31.009","0.34989146088974915","5438"
"20:23:13:939 (H:m:s:ms)","GENERIC","62.045","0.30515617102676","3760"
"20:44:14:545 (H:m:s:ms)","GENERIC","31.019","0.3487467060766113","3935"
"20:23:20:0 (H:m:s:ms)","GENERIC","93.125","0.30805983408886584","3861"
"20:44:18:227 (H:m:s:ms)","OPERA","62.339","0.35057581689916556","4958"
"20:23:26:60 (H:m:s:ms)","GENERIC","93.116","0.3071450070664574","3425"
"20:44:20:606 (H:m:s:ms)","GENERIC","93.259","0.3499989883469655","1431"
"20:23:32:121 (H:m:s:ms)","GENERIC","93.172","0.3105359690496896","2294"
"20:44:25:822 (H:m:s:ms)","OPERA","62.19","0.34854734490695793","4040"
"20:23:38:181 (H:m:s:ms)","GENERIC","93.386","0.3124408881484514","2976"
"20:44:26:666 (H:m:s:ms)","GENERIC","93.42","0.3487788738864118","2262"
"20:23:44:242 (H:m:s:ms)","GENERIC","93.657","0.31208399227671835","2609"
"20:23:50:303 (H:m:s:ms)","GENERIC","62.115","0.3131270568406111","3130"
"20:44:32:727 (H:m:s:ms)","GENERIC","62.117","0.348588395014001","1785"
"20:44:33:417 (H:m:s:ms)","OPERA","62.324","0.3481382290955984","3372"
"20:23:56:363 (H:m:s:ms)","GENERIC","62.053","0.30983197580327926","3420"
"20:44:38:787 (H:m:s:ms)","GENERIC","93.17","0.3459766868763491","2474"
"20:24:2:424 (H:m:s:ms)","GENERIC","93.437","0.30882858584422346","3237"
"20:44:41:12 (H:m:s:ms)","OPERA","62.187","0.3465152831169539","6284"
"20:24:8:484 (H:m:s:ms)","GENERIC","93.33500000000001","0.3084683382607135","3673"
"20:44:44:848 (H:m:s:ms)","GENERIC","93.446","0.3478653863362021","3057"
"20:24:14:545 (H:m:s:ms)","GENERIC","62.057","0.30487525915147595","2859"
"20:44:48:607 (H:m:s:ms)","OPERA","62.216","0.3489954467236347","2214"
"20:24:20:606 (H:m:s:ms)","GENERIC","93.334","0.3059445530643886","3461"
"20:44:50:909 (H:m:s:ms)","GENERIC","62.109","0.34898586281733573","3912"
"20:24:26:666 (H:m:s:ms)","GENERIC","62.087","0.3047664365423381","2801"
"20:44:56:202 (H:m:s:ms)","OPERA","62.287","0.34855000125168273","1474"
"20:24:32:727 (H:m:s:ms)","GENERIC","62.123","0.3029003367492669","2956"
"20:44:56:969 (H:m:s:ms)","GENERIC","93.218","0.35032383662643446","3808"
"20:24:38:787 (H:m:s:ms)","GENERIC","93.17","0.3017447970145624","2640"
"20:45:3:30 (H:m:s:ms)","GENERIC","62.107","0.3468716037616265","3847"
"20:24:44:848 (H:m:s:ms)","GENERIC","93.426","0.29996240589588147","4585"
"20:24:50:909 (H:m:s:ms)","GENERIC","93.527","0.29893632677173254","4585"
"20:45:3:797 (H:m:s:ms)","OPERA","62.235","0.3479394345609565","3628"
"20:45:9:90 (H:m:s:ms)","GENERIC","62.169","0.34616875414993403","2632"
"20:24:56:969 (H:m:s:ms)","GENERIC","93.276","0.29957292448951384","4209"
"20:45:11:392 (H:m:s:ms)","OPERA","93.518","0.3462947743254105","1578"
"20:25:3:30 (H:m:s:ms)","GENERIC","93.17999999999999","0.30036415520039766","4071"
"20:45:15:151 (H:m:s:ms)","GENERIC","93.572","0.3460193192119415","1871"
"20:25:9:90 (H:m:s:ms)","GENERIC","93.587","0.2997078385536498","2377"
"20:45:18:987 (H:m:s:ms)","OPERA","62.195","0.34595194492646664","2041"
"20:25:15:151 (H:m:s:ms)","GENERIC","93.602","0.30221040547584554","2178"
"20:45:21:212 (H:m:s:ms)","GENERIC","93.348","0.34774107910212004","2270"
"20:25:21:212 (H:m:s:ms)","GENERIC","93.356","0.3041236424747155","3317"
"20:45:26:582 (H:m:s:ms)","OPERA","31.01","0.34564463464844775","2039"
"20:25:27:272 (H:m:s:ms)","GENERIC","93.499","0.3058217057837722","2769"
"20:45:27:272 (H:m:s:ms)","GENERIC","93.497","0.3455004056811117","3036"
"20:25:33:333 (H:m:s:ms)","GENERIC","62.037","0.30581570649791345","4261"
"20:45:33:333 (H:m:s:ms)","GENERIC","62.043","0.341843167560844","2009"
"20:25:39:393 (H:m:s:ms)","GENERIC","62.063","0.3049096108133117","3761"
"20:45:34:177 (H:m:s:ms)","OPERA","62.230000000000004","0.3421741051787058","2614"
"20:25:45:454 (H:m:s:ms)","GENERIC","62.137","0.3016103616760064","2333"
"20:25:51:515 (H:m:s:ms)","GENERIC","62.057","0.29982672364430524","3231"
"20:25:57:575 (H:m:s:ms)","GENERIC","93.576","0.30255195928989626","3681"
"20:26:3:636 (H:m:s:ms)","GENERIC","93.306","0.29882599159888223","3740"
"20:26:9:696 (H:m:s:ms)","GENERIC","93.54400000000001","0.29792055014524893","4249"
"20:26:15:757 (H:m:s:ms)","GENERIC","93.24799999999999","0.2988799130400213","3365"
"20:26:21:818 (H:m:s:ms)","GENERIC","93.515","0.2958840745048267","2698"
"20:26:27:878 (H:m:s:ms)","GENERIC","93.38900000000001","0.2976251583809896","3506"
"20:26:33:939 (H:m:s:ms)","GENERIC","93.606","0.2989602642618189","2218"
"20:26:40:0 (H:m:s:ms)","GENERIC","93.509","0.29467404132358715","3625"
"20:26:46:60 (H:m:s:ms)","GENERIC","93.1","0.29599142890682045","3845"
"20:26:52:121 (H:m:s:ms)","GENERIC","93.149","0.2991954381633121","3108"
"20:26:58:181 (H:m:s:ms)","GENERIC","62.099","0.2995936668152445","4682"
"20:27:4:242 (H:m:s:ms)","GENERIC","93.598","0.3006947129674186","1924"
"20:27:10:303 (H:m:s:ms)","GENERIC","93.3","0.30161616794941687","4178"
"20:27:16:363 (H:m:s:ms)","GENERIC","93.417","0.30001970619921303","4063"
"20:27:22:424 (H:m:s:ms)","GENERIC","93.232","0.30134032300576824","3719"
"20:27:28:484 (H:m:s:ms)","GENERIC","93.095","0.30167946563781656","2485"
"20:27:34:545 (H:m:s:ms)","GENERIC","93.337","0.30109347199978936","3033"
"20:27:40:606 (H:m:s:ms)","GENERIC","93.519","0.2997931156788388","2429"
"20:27:46:666 (H:m:s:ms)","GENERIC","31.015","0.29853869974966024","3656"
"20:27:52:727 (H:m:s:ms)","GENERIC","62.079","0.29718820691225334","3353"
"20:27:58:787 (H:m:s:ms)","GENERIC","93.146","0.29674989748133773","2779"
"20:28:4:848 (H:m:s:ms)","GENERIC","31.015","0.29310783843905164","3604"
"20:28:10:909 (H:m:s:ms)","GENERIC","93.444","0.29411999741797296","4578"
"20:28:16:969 (H:m:s:ms)","GENERIC","93.245","0.29589895252396436","3242"
"20:28:23:30 (H:m:s:ms)","GENERIC","62.125","0.29637692600727705","3317"
"20:28:29:90 (H:m:s:ms)","GENERIC","93.428","0.2954770711084955","3571"
"20:28:35:151 (H:m:s:ms)","GENERIC","62.079","0.29184248497774107","4217"
"20:28:41:212 (H:m:s:ms)","GENERIC","93.59","0.29347771430174957","2052"
"20:28:47:272 (H:m:s:ms)","GENERIC","62.051","0.2939042657965552","2956"
"20:28:53:333 (H:m:s:ms)","GENERIC","62.025","0.296102712299851","4474"
"20:28:59:393 (H:m:s:ms)","GENERIC","62.031","0.29528331815690995","4161"
"20:29:5:454 (H:m:s:ms)","GENERIC","93.404","0.2961188301049884","3586"
"20:29:11:515 (H:m:s:ms)","GENERIC","62.023","0.29665250738406695","4633"
"20:29:17:575 (H:m:s:ms)","GENERIC","62.043","0.29750623726048553","2946"
"20:29:23:636 (H:m:s:ms)","GENERIC","62.035","0.2969724873949691","3871"
"20:29:29:696 (H:m:s:ms)","GENERIC","62.137","0.29589288100313643","2671"
"20:29:35:757 (H:m:s:ms)","GENERIC","93.173","0.2979350716096169","3133"
"20:29:41:818 (H:m:s:ms)","GENERIC","93.13","0.29797235306016834","3429"
"20:29:47:878 (H:m:s:ms)","GENERIC","62.061","0.2981919461278896","2670"
"20:29:53:939 (H:m:s:ms)","GENERIC","62.077","0.29717999735941775","4167"
"21:20:7:594 (H:m:s:ms)","OPERA","31.009","0.3326580055990936","3070"
"21:20:12:121 (H:m:s:ms)","GENERIC","62.101","0.3337492595528192","3643"
"21:20:15:189 (H:m:s:ms)","OPERA","62.262","0.32306609120182234","2999"
"21:20:18:181 (H:m:s:ms)","GENERIC","93.181","0.32218790057598456","4579"
"21:20:22:784 (H:m:s:ms)","OPERA","62.015","0.3241494862138682","2256"
"21:20:24:242 (H:m:s:ms)","GENERIC","93.185","0.32725323231315717","4784"
"21:20:30:303 (H:m:s:ms)","GENERIC","62.087","0.32633484579464944","4272"
"21:20:30:379 (H:m:s:ms)","OPERA","62.015","0.32546416878271456","5949"
"21:20:36:363 (H:m:s:ms)","GENERIC","93.422","0.32448401903141855","3000"
"21:20:37:974 (H:m:s:ms)","OPERA","62.233000000000004","0.30384915853230443","2109"
"21:20:42:424 (H:m:s:ms)","GENERIC","93.463","0.3053867227420092","2275"
"21:20:45:569 (H:m:s:ms)","OPERA","93.206","0.30742772115503936","2780"
"21:20:48:484 (H:m:s:ms)","GENERIC","62.039","0.30902895262864527","2215"
"21:20:53:164 (H:m:s:ms)","OPERA","93.23400000000001","0.30822099097078803","3933"
"21:20:54:545 (H:m:s:ms)","GENERIC","93.488","0.31095350058233295","2814"
"21:21:0:606 (H:m:s:ms)","GENERIC","93.332","0.31110219440005304","1786"
"21:21:0:759 (H:m:s:ms)","OPERA","124.40700000000001","0.31593516709784003","2588"
"21:21:6:666 (H:m:s:ms)","GENERIC","93.275","0.31555431771365167","3380"
"21:21:8:354 (H:m:s:ms)","OPERA","93.272","0.3174019238037585","3131"
"21:21:12:727 (H:m:s:ms)","GENERIC","93.658","0.3172215797294055","2610"
"21:32:49:696 (H:m:s:ms)","GENERIC","93.175","0.3390056889771678","3235"
"21:32:37:575 (H:m:s:ms)","GENERIC","93.639","0.34755897031229066","3987"
"21:32:31:515 (H:m:s:ms)","GENERIC","93.465","0.34855259063861715","2562"
"21:32:25:454 (H:m:s:ms)","GENERIC","93.197","0.3482344105783401","2126"
"21:36:20:0 (H:m:s:ms)","GENERIC","62.093","0.34301577163484637","8821"
"21:34:45:0 (H:m:s:ms)","GENERIC","93.256","0.3477430530458659","22513"
"21:32:7:272 (H:m:s:ms)","GENERIC","62.206","0.3407587865148496","4360"
"21:32:6:315 (H:m:s:ms)","AMBULANCE","62.266000000000005","0.3384771651950861","3638"
"21:21:15:949 (H:m:s:ms)","OPERA","62.194","0.31878642937210544","3372"
"21:32:1:212 (H:m:s:ms)","GENERIC","93.464","0.3399047680112346","4209"
"21:21:18:787 (H:m:s:ms)","GENERIC","93.125","0.31892242830226813","2686"
"21:21:23:544 (H:m:s:ms)","OPERA","31.009","0.3169840519705093","6620"
"21:21:24:848 (H:m:s:ms)","GENERIC","62.059","0.31745379793124817","2994"
"21:21:30:909 (H:m:s:ms)","GENERIC","93.412","0.31947071501212965","4906"
"21:21:31:139 (H:m:s:ms)","OPERA","93.226","0.3196642640874676","8653"
"21:21:36:969 (H:m:s:ms)","GENERIC","93.117","0.3215161960642113","3973"
"21:21:38:734 (H:m:s:ms)","OPERA","93.324","0.32290857220095576","4791"
"21:34:45:0 (H:m:s:ms)","GENERIC","93.30000000000001","0.33687497288890855","27478"
"21:21:43:30 (H:m:s:ms)","GENERIC","62.119","0.32242949599612614","3279"
"21:32:37:894 (H:m:s:ms)","AMBULANCE","31.012","0.3475926867489033","4763"
"21:21:46:329 (H:m:s:ms)","OPERA","62.278999999999996","0.3242091685059303","5736"
"21:33:44:242 (H:m:s:ms)","GENERIC","93.68299999999999","0.3337118804326256","2941"
"21:33:41:52 (H:m:s:ms)","AMBULANCE","62.272","0.3301928123869121","2368"
"21:33:32:121 (H:m:s:ms)","GENERIC","124.134","0.3365508405338962","2365"
"21:34:45:0 (H:m:s:ms)","GENERIC","62.295","0.32955497637254777","32267"
"21:33:20:0 (H:m:s:ms)","GENERIC","93.153","0.3358790080028245","3317"
"21:34:45:0 (H:m:s:ms)","GENERIC","62.035","0.3380544181291565","29883"
"21:33:9:473 (H:m:s:ms)","AMBULANCE","62.326","0.33221097210351785","1757"
"21:33:7:878 (H:m:s:ms)","GENERIC","93.14","0.33013105645526797","4158"
"21:21:49:90 (H:m:s:ms)","GENERIC","62.067","0.32673418401878385","4343"
"21:33:1:818 (H:m:s:ms)","GENERIC","93.24000000000001","0.3340237602932048","2281"
"21:21:53:924 (H:m:s:ms)","OPERA","62.176","0.32566565724705765","4620"
"21:32:55:757 (H:m:s:ms)","GENERIC","93.614","0.3351622239588288","1942"
"21:21:55:151 (H:m:s:ms)","GENERIC","62.095","0.32596364038937714","2606"
"21:22:1:212 (H:m:s:ms)","GENERIC","62.081","0.32427096032350483","3854"
"21:22:1:518 (H:m:s:ms)","OPERA","93.245","0.3269716619012893","7927"
"21:22:7:272 (H:m:s:ms)","GENERIC","93.354","0.32693926464193057","1922"
"21:22:9:113 (H:m:s:ms)","OPERA","62.3","0.3278964899256803","4761"
"21:22:13:333 (H:m:s:ms)","GENERIC","93.232","0.32888614263289545","1831"
"21:22:16:708 (H:m:s:ms)","OPERA","62.184","0.3303968983563852","3441"
"21:22:19:393 (H:m:s:ms)","GENERIC","93.417","0.33248168252559196","3186"
"21:38:26:0 (H:m:s:ms)","GENERIC","93.334","0.3504297225764886","60790"
"21:34:44:210 (H:m:s:ms)","AMBULANCE","31.021","0.34428903090050905","3748"
"21:34:38:787 (H:m:s:ms)","GENERIC","93.152","0.33283629930847614","2702"
"21:34:45:0 (H:m:s:ms)","GENERIC","62.065","0.3472298317271465","18494"
"21:34:45:0 (H:m:s:ms)","GENERIC","62.033","0.34594897259395346","15537"
"21:34:20:606 (H:m:s:ms)","GENERIC","93.243","0.3369476686820273","2171"
"21:38:26:0 (H:m:s:ms)","GENERIC","93.391","0.34429994182767504","11418"
"21:34:12:631 (H:m:s:ms)","AMBULANCE","62.288","0.33673833919253476","2110"
"21:34:8:484 (H:m:s:ms)","GENERIC","62.059","0.334270234117326","2860"
"21:22:24:303 (H:m:s:ms)","OPERA","62.015","0.333617820862582","2404"
"21:34:2:424 (H:m:s:ms)","GENERIC","62.133","0.3325367894035936","4021"
"21:22:25:454 (H:m:s:ms)","GENERIC","93.18","0.3347156425372431","2430"
"21:33:56:363 (H:m:s:ms)","GENERIC","93.283","0.33379972349226733","2580"
"21:1:55:151 (H:m:s:ms)","GENERIC","62.117","0.30467600652599136","2834"
"21:22:31:515 (H:m:s:ms)","GENERIC","93.501","0.33320589246519444","3341"
"21:33:50:303 (H:m:s:ms)","GENERIC","93.57300000000001","0.33537470500874095","2662"
"21:2:1:212 (H:m:s:ms)","GENERIC","62.115","0.3042250800354276","3974"
"21:22:31:898 (H:m:s:ms)","OPERA","93.38900000000001","0.33550834549055913","6623"
"21:2:6:315 (H:m:s:ms)","AMBULANCE","31.067","0.3037998048360526","2552"
"21:22:37:575 (H:m:s:ms)","GENERIC","93.623","0.3362448135372308","4439"
"21:4:45:0 (H:m:s:ms)","GENERIC","93.309","0.3171949380929686","33721"
"21:22:39:493 (H:m:s:ms)","OPERA","62.017","0.3357560881467024","11376"
"21:2:13:333 (H:m:s:ms)","GENERIC","93.25999999999999","0.3103707097278702","3001"
"21:22:43:636 (H:m:s:ms)","GENERIC","93.358","0.33762728845665085","3471"
"21:2:19:393 (H:m:s:ms)","GENERIC","93.403","0.3104744196367981","2821"
"21:22:47:88 (H:m:s:ms)","OPERA","31.01","0.3365100885354986","1427"
"21:2:25:454 (H:m:s:ms)","GENERIC","93.144","0.31254039791770954","1827"
"21:22:49:696 (H:m:s:ms)","GENERIC","93.123","0.3407153142145369","3360"
"21:2:31:515 (H:m:s:ms)","GENERIC","93.469","0.3136413301851535","3684"
"21:22:54:683 (H:m:s:ms)","OPERA","93.268","0.3426739006407791","3155"
"21:2:37:575 (H:m:s:ms)","GENERIC","62.139","0.31533022238967606","3879"
"21:2:37:894 (H:m:s:ms)","AMBULANCE","31.069","0.30694779496422075","4668"
"21:35:39:393 (H:m:s:ms)","GENERIC","93.12","0.34404477561435076","3689"
"21:35:33:333 (H:m:s:ms)","GENERIC","62.087","0.3438761712209226","4510"
"21:35:27:272 (H:m:s:ms)","GENERIC","93.537","0.34489020461033976","3013"
"21:35:21:212 (H:m:s:ms)","GENERIC","62.085","0.34293229045573864","3763"
"21:35:15:789 (H:m:s:ms)","AMBULANCE","31.028","0.33313690670720075","2810"
"21:35:15:151 (H:m:s:ms)","GENERIC","93.625","0.33372174194763016","1566"
"21:35:9:90 (H:m:s:ms)","GENERIC","62.143","0.3288740817875524","2732"
"21:22:55:757 (H:m:s:ms)","GENERIC","62.105","0.3426651175273646","2142"
"21:35:3:30 (H:m:s:ms)","GENERIC","93.168","0.32877671301414074","4008"
"21:23:1:818 (H:m:s:ms)","GENERIC","93.253","0.3439413106199937","2245"
"21:39:29:0 (H:m:s:ms)","GENERIC","62.023","0.33121505898403336","16584"
"21:2:43:636 (H:m:s:ms)","GENERIC","93.32","0.31538295749427064","3471"
"21:23:2:278 (H:m:s:ms)","OPERA","62.274","0.3451276483935325","9162"
"21:34:50:909 (H:m:s:ms)","GENERIC","62.087","0.33157385471267375","4223"
"21:2:49:696 (H:m:s:ms)","GENERIC","93.146","0.31575964728981565","2573"
"21:23:7:878 (H:m:s:ms)","GENERIC","62.061","0.34519950263047766","4705"
"21:39:29:0 (H:m:s:ms)","GENERIC","62.059","0.33132727434489007","17255"
"21:2:55:757 (H:m:s:ms)","GENERIC","93.614","0.31365174956411185","2409"
"21:23:9:873 (H:m:s:ms)","OPERA","93.367","0.3445351817593069","5915"
"21:3:1:818 (H:m:s:ms)","GENERIC","93.263","0.3160155867188377","2445"
"21:23:13:939 (H:m:s:ms)","GENERIC","124.666","0.34625695444938703","2115"
"21:3:7:878 (H:m:s:ms)","GENERIC","93.148","0.3143551614140812","4782"
"21:23:17:468 (H:m:s:ms)","OPERA","62.248000000000005","0.34686435762249673","7824"
"21:3:9:473 (H:m:s:ms)","AMBULANCE","62.239999999999995","0.3150329465639929","1463"
"21:23:20:0 (H:m:s:ms)","GENERIC","93.166","0.3463091085399873","3492"
"21:3:13:939 (H:m:s:ms)","GENERIC","93.327","0.31489535935902707","3814"
"21:23:25:63 (H:m:s:ms)","OPERA","93.19","0.3484926517690681","9317"
"21:3:20:0 (H:m:s:ms)","GENERIC","62.077","0.31341713011151967","4322"
"21:23:26:60 (H:m:s:ms)","GENERIC","31.02","0.348841788297013","1879"
"21:3:26:60 (H:m:s:ms)","GENERIC","62.121","0.31467322708893825","3906"
"21:3:32:121 (H:m:s:ms)","GENERIC","93.166","0.31753427046766824","3324"
"21:36:33:939 (H:m:s:ms)","GENERIC","62.145","0.34950833745774945","2306"
"21:36:27:878 (H:m:s:ms)","GENERIC","62.047","0.3502848552728519","2780"
"21:36:21:818 (H:m:s:ms)","GENERIC","93.483","0.35041252709363646","2513"
"21:36:18:947 (H:m:s:ms)","AMBULANCE","62.307","0.34063199082414913","2781"
"21:36:15:757 (H:m:s:ms)","GENERIC","93.229","0.3456002915711076","3373"
"21:40:1:0 (H:m:s:ms)","GENERIC","93.45","0.33622386642093505","41486"
"21:23:32:121 (H:m:s:ms)","GENERIC","93.131","0.3481031187780549","2659"
"21:40:1:0 (H:m:s:ms)","GENERIC","93.37700000000001","0.33987256602891036","58108"
"21:23:32:658 (H:m:s:ms)","OPERA","93.235","0.3494807123104236","2803"
"21:40:1:0 (H:m:s:ms)","GENERIC","93.348","0.34011937666972925","51934"
"21:3:38:181 (H:m:s:ms)","GENERIC","93.375","0.32007046417149815","1896"
"21:23:38:181 (H:m:s:ms)","GENERIC","93.36500000000001","0.35098351969783376","2130"
"21:35:51:515 (H:m:s:ms)","GENERIC","62.181","0.3422577127612192","2634"
"21:3:41:52 (H:m:s:ms)","AMBULANCE","62.266000000000005","0.32143104628736974","2473"
"21:23:40:253 (H:m:s:ms)","OPERA","93.562","0.353610883842879","2170"
"21:35:47:368 (H:m:s:ms)","AMBULANCE","62.324","0.3424464987945102","1847"
"21:3:44:242 (H:m:s:ms)","GENERIC","93.683","0.32287787060309053","2916"
"21:23:44:242 (H:m:s:ms)","GENERIC","93.711","0.3530879679283144","2553"
"21:35:45:454 (H:m:s:ms)","GENERIC","93.592","0.3409805281119077","2308"
"21:3:50:303 (H:m:s:ms)","GENERIC","93.639","0.32404220173379444","3098"
"21:23:47:848 (H:m:s:ms)","OPERA","62.294","0.3540687372360079","5330"
"21:3:56:363 (H:m:s:ms)","GENERIC","62.037","0.32212860278009553","2714"
"21:23:50:303 (H:m:s:ms)","GENERIC","62.111","0.35367002014249915","2275"
"21:4:2:424 (H:m:s:ms)","GENERIC","93.525","0.3223635569995689","3580"
"21:23:55:443 (H:m:s:ms)","OPERA","62.237","0.35401858641934164","1956"
"21:4:8:484 (H:m:s:ms)","GENERIC","62.027","0.3213000639108243","3629"
"21:23:56:363 (H:m:s:ms)","GENERIC","62.057","0.35377521720669536","2670"
"21:4:12:631 (H:m:s:ms)","AMBULANCE","62.296","0.31632863890890367","1912"
"21:24:2:424 (H:m:s:ms)","GENERIC","93.525","0.35031459785445485","3167"
"21:4:14:545 (H:m:s:ms)","GENERIC","93.381","0.320904447094474","2838"
"21:4:20:606 (H:m:s:ms)","GENERIC","93.259","0.3178143785742936","2365"
"21:37:28:484 (H:m:s:ms)","GENERIC","93.134","0.35484566290537667","2241"
"21:37:22:424 (H:m:s:ms)","GENERIC","93.252","0.35532990398349085","5136"
"21:37:22:105 (H:m:s:ms)","AMBULANCE","62.260999999999996","0.3528072105937658","3409"
"21:37:16:363 (H:m:s:ms)","GENERIC","93.409","0.35010106975144156","3175"
"21:37:10:303 (H:m:s:ms)","GENERIC","93.276","0.3496873031989961","3911"
"21:40:1:0 (H:m:s:ms)","GENERIC","62.085","0.3353434732863312","27795"
"21:24:3:37 (H:m:s:ms)","OPERA","62.2","0.35176026979784636","6355"
"21:24:8:484 (H:m:s:ms)","GENERIC","93.413","0.3518087269151837","1696"
"21:36:58:181 (H:m:s:ms)","GENERIC","93.304","0.3526704560102486","3835"
"21:8:26:0 (H:m:s:ms)","GENERIC","62.059","0.31018344417449123","10205"
"21:24:10:632 (H:m:s:ms)","OPERA","62.015","0.3517149747606934","6824"
"21:36:52:121 (H:m:s:ms)","GENERIC","62.087","0.3508532692102392","2197"
"21:4:32:727 (H:m:s:ms)","GENERIC","93.244","0.31570397755495805","2119"
"21:24:14:545 (H:m:s:ms)","GENERIC","62.065","0.35193019431573475","1617"
"21:36:50:526 (H:m:s:ms)","AMBULANCE","31.012","0.34661335925581493","2482"
"21:4:38:787 (H:m:s:ms)","GENERIC","93.158","0.3137039595767458","2442"
"21:24:18:227 (H:m:s:ms)","OPERA","62.24","0.3503608314051629","1604"
"21:36:46:60 (H:m:s:ms)","GENERIC","93.158","0.3453528247028103","3381"
"21:4:44:210 (H:m:s:ms)","AMBULANCE","62.236999999999995","0.3129524399687786","2255"
"21:24:20:606 (H:m:s:ms)","GENERIC","62.035","0.34973653331048027","1716"
"21:36:40:0 (H:m:s:ms)","GENERIC","93.491","0.3450114041502328","3588"
"21:4:44:848 (H:m:s:ms)","GENERIC","93.422","0.31394647112527285","4968"
"21:24:25:822 (H:m:s:ms)","OPERA","62.31","0.3512820028193047","1374"
"21:4:50:909 (H:m:s:ms)","GENERIC","62.087","0.3164421804311743","4626"
"21:24:26:666 (H:m:s:ms)","GENERIC","93.39","0.35161063973027645","1898"
"21:4:56:969 (H:m:s:ms)","GENERIC","62.047","0.3151501729915247","2876"
"21:24:32:727 (H:m:s:ms)","GENERIC","93.306","0.3521999375729588","1791"
"21:5:3:30 (H:m:s:ms)","GENERIC","93.17399999999999","0.3126866380961988","3815"
"21:24:33:417 (H:m:s:ms)","OPERA","93.16","0.3533474449159664","4360"
"21:5:9:90 (H:m:s:ms)","GENERIC","62.139","0.31158936098765005","2884"
"21:5:15:151 (H:m:s:ms)","GENERIC","93.60300000000001","0.31535535020782635","1962"
"21:38:25:263 (H:m:s:ms)","AMBULANCE","93.274","0.34184733379732624","2562"
"21:38:23:30 (H:m:s:ms)","GENERIC","93.54599999999999","0.34763005071351644","4716"
"21:38:16:969 (H:m:s:ms)","GENERIC","93.256","0.34710752190182714","5854"
"21:38:10:909 (H:m:s:ms)","GENERIC","93.384","0.3534857763890735","4507"
"21:40:1:0 (H:m:s:ms)","GENERIC","93.375","0.3375283501736789","36251"
"21:37:58:787 (H:m:s:ms)","GENERIC","93.16300000000001","0.3572205365952139","3076"
"21:37:53:684 (H:m:s:ms)","AMBULANCE","31.017","0.3582436327285344","1962"
"21:24:38:787 (H:m:s:ms)","GENERIC","93.16","0.3523005426817659","2347"
"21:24:41:12 (H:m:s:ms)","OPERA","62.015","0.3522314052527914","5268"
"21:5:15:789 (H:m:s:ms)","AMBULANCE","62.299","0.31729535125785835","3028"
"21:24:44:848 (H:m:s:ms)","GENERIC","93.419","0.35372294444994345","1225"
"21:5:21:212 (H:m:s:ms)","GENERIC","93.35","0.31654419081407564","3788"
"21:24:48:607 (H:m:s:ms)","OPERA","31.009","0.35360914755684164","3713"
"21:37:52:727 (H:m:s:ms)","GENERIC","62.208","0.3564321342420132","2938"
"20:45:39:393 (H:m:s:ms)","GENERIC","62.063","0.3409237426250367","3904"
"21:5:27:272 (H:m:s:ms)","GENERIC","93.58","0.3167001807157012","2473"
"21:24:50:909 (H:m:s:ms)","GENERIC","93.511","0.3523236366327051","4666"
"21:37:46:666 (H:m:s:ms)","GENERIC","93.228","0.36094474137095994","2441"
"20:45:41:772 (H:m:s:ms)","OPERA","62.237","0.34197537185370064","1856"
"21:5:33:333 (H:m:s:ms)","GENERIC","93.262","0.312944846688007","4049"
"21:24:56:202 (H:m:s:ms)","OPERA","62.260999999999996","0.3520749379731037","1609"
"21:37:40:606 (H:m:s:ms)","GENERIC","93.498","0.34996055725625136","3364"
"20:45:45:454 (H:m:s:ms)","GENERIC","93.598","0.3442542964153815","1990"
"21:5:39:393 (H:m:s:ms)","GENERIC","62.063","0.3146073769327693","3061"
"21:24:56:969 (H:m:s:ms)","GENERIC","93.221","0.3519834949545236","2641"
"21:37:34:545 (H:m:s:ms)","GENERIC","62.075","0.3533137509676889","3590"
"20:45:49:367 (H:m:s:ms)","OPERA","62.286","0.34207198490529767","2508"
"21:5:45:454 (H:m:s:ms)","GENERIC","62.093","0.31486835881157066","2817"
"21:25:3:30 (H:m:s:ms)","GENERIC","93.156","0.3500681856595573","4098"
"20:45:51:515 (H:m:s:ms)","GENERIC","62.097","0.3417954781571231","3102"
"21:5:47:368 (H:m:s:ms)","AMBULANCE","62.3","0.3161179207078227","2385"
"21:30:1:0 (H:m:s:ms)","OPERA","62.135999999999996","0.334578674952849","89372"
"20:45:56:962 (H:m:s:ms)","OPERA","62.189","0.3420482844316772","3048"
"21:5:51:515 (H:m:s:ms)","GENERIC","93.19800000000001","0.31472349555030554","1838"
"21:25:9:90 (H:m:s:ms)","GENERIC","62.137","0.35253794394448834","2856"
"20:45:57:575 (H:m:s:ms)","GENERIC","93.55","0.3408384378414172","5620"
"21:5:57:575 (H:m:s:ms)","GENERIC","62.315","0.31619577904495294","1612"
"20:46:3:636 (H:m:s:ms)","GENERIC","62.049","0.33995591400180436","2779"
"21:6:3:636 (H:m:s:ms)","GENERIC","93.316","0.314481642648605","2213"
"20:46:9:696 (H:m:s:ms)","GENERIC","124.545","0.34076172688521605","1306"
"20:46:12:151 (H:m:s:ms)","OPERA","62.283","0.3448760638307405","3207"
"21:39:23:636 (H:m:s:ms)","GENERIC","93.191","0.3397962682247028","3443"
"21:40:1:0 (H:m:s:ms)","GENERIC","62.129","0.3336750203635518","19398"
"21:39:11:515 (H:m:s:ms)","GENERIC","62.029","0.33609559236704084","3402"
"21:39:5:454 (H:m:s:ms)","GENERIC","93.453","0.35752538847498255","3007"
"21:38:59:393 (H:m:s:ms)","GENERIC","93.262","0.356508308537284","2857"
"21:38:56:842 (H:m:s:ms)","AMBULANCE","62.266999999999996","0.3558843291917671","2151"
"21:38:53:333 (H:m:s:ms)","GENERIC","93.206","0.3556585179662167","3804"
"21:38:47:272 (H:m:s:ms)","GENERIC","93.20400000000001","0.3606637443058208","3215"
"21:25:11:392 (H:m:s:ms)","OPERA","31.009","0.35027313225812756","1350"
"21:25:15:151 (H:m:s:ms)","GENERIC","62.137","0.34969875348681306","2292"
"21:6:9:696 (H:m:s:ms)","GENERIC","93.269","0.3127995473405912","4208"
"21:25:18:987 (H:m:s:ms)","OPERA","93.21900000000001","0.3482882197175802","3816"
"21:6:15:757 (H:m:s:ms)","GENERIC","93.199","0.3126696180421963","3346"
"21:25:21:212 (H:m:s:ms)","GENERIC","93.38","0.3466911217505699","1596"
"20:46:15:757 (H:m:s:ms)","GENERIC","93.233","0.3463731778729489","3059"
"21:6:18:947 (H:m:s:ms)","AMBULANCE","93.505","0.3163673166171641","2384"
"21:25:26:582 (H:m:s:ms)","OPERA","62.253","0.34398945593480296","1253"
"20:46:19:746 (H:m:s:ms)","OPERA","93.483","0.34415478153386764","1136"
"21:6:21:818 (H:m:s:ms)","GENERIC","93.457","0.3189953288271385","3044"
"21:25:27:272 (H:m:s:ms)","GENERIC","93.596","0.34295358999184355","2736"
"21:38:41:212 (H:m:s:ms)","GENERIC","93.62","0.3648884248301644","3936"
"20:46:21:818 (H:m:s:ms)","GENERIC","93.485","0.3439038022308495","3199"
"21:6:27:878 (H:m:s:ms)","GENERIC","93.368","0.318934623298446","3182"
"21:25:33:333 (H:m:s:ms)","GENERIC","93.297","0.3419291438337939","2465"
"21:38:35:151 (H:m:s:ms)","GENERIC","62.057","0.36668939637305165","4344"
"20:46:27:341 (H:m:s:ms)","OPERA","31.01","0.3438403029012005","4424"
"21:6:33:939 (H:m:s:ms)","GENERIC","93.628","0.31950832435828147","2783"
"21:30:1:0 (H:m:s:ms)","OPERA","62.25","0.3213136377509248","38538"
"21:38:29:90 (H:m:s:ms)","GENERIC","62.133","0.3680723160056357","3597"
"20:46:27:878 (H:m:s:ms)","GENERIC","93.354","0.3447855394108647","6133"
"21:6:40:0 (H:m:s:ms)","GENERIC","62.103","0.3142080354198816","4040"
"21:25:39:393 (H:m:s:ms)","GENERIC","62.063","0.3446989440960569","4428"
"20:46:33:939 (H:m:s:ms)","GENERIC","93.578","0.3427233941154974","2405"
"21:6:46:60 (H:m:s:ms)","GENERIC","93.156","0.3155507152536383","3159"
"21:25:41:772 (H:m:s:ms)","OPERA","62.017","0.34481507997654853","3243"
"20:46:34:936 (H:m:s:ms)","OPERA","62.22","0.3428532795065155","4397"
"21:6:50:526 (H:m:s:ms)","AMBULANCE","93.538","0.31572661528320906","1480"
"20:46:40:0 (H:m:s:ms)","GENERIC","93.513","0.3395421701564204","3638"
"21:6:52:121 (H:m:s:ms)","GENERIC","93.196","0.3178916085886263","2811"
"20:46:42:531 (H:m:s:ms)","OPERA","31.009","0.33921696708121635","3028"
"20:46:46:60 (H:m:s:ms)","GENERIC","62.079","0.3408722124085391","3125"
"21:39:35:757 (H:m:s:ms)","GENERIC","93.158","0.340220485383073","3299"
"21:40:12:121 (H:m:s:ms)","GENERIC","62.119","0.33432552382968106","3167"
"21:40:6:60 (H:m:s:ms)","GENERIC","62.075","0.3335736424059093","3941"
"21:40:0:0 (H:m:s:ms)","GENERIC","93.317","0.3345839569465053","6911"
"21:40:0:0 (H:m:s:ms)","GENERIC","93.268","0.33446586613261126","4978"
"21:40:0:0 (H:m:s:ms)","AMBULANCE","31.037","0.33170114384248633","2733"
"21:39:53:939 (H:m:s:ms)","GENERIC","93.348","0.34039065435260624","3268"
"21:39:47:878 (H:m:s:ms)","GENERIC","62.065","0.3385041909221357","2620"
"21:39:41:818 (H:m:s:ms)","GENERIC","62.057","0.3386254126159422","3344"
"21:6:58:181 (H:m:s:ms)","GENERIC","93.325","0.31924034655788486","4311"
"21:7:4:242 (H:m:s:ms)","GENERIC","93.386","0.3211597405371466","3012"
"20:46:50:126 (H:m:s:ms)","OPERA","62.267","0.3437315904154362","5438"
"21:7:10:303 (H:m:s:ms)","GENERIC","93.292","0.319599605578724","3672"
"20:46:52:121 (H:m:s:ms)","GENERIC","62.103","0.34580849497803107","2641"
"21:7:16:363 (H:m:s:ms)","GENERIC","93.381","0.3199544913612485","4071"
"20:46:57:721 (H:m:s:ms)","OPERA","62.191","0.3452057436336832","6211"
"21:7:22:105 (H:m:s:ms)","AMBULANCE","62.236999999999995","0.3204363856160862","4549"
"20:46:58:181 (H:m:s:ms)","GENERIC","93.383","0.3461247807540179","2410"
"21:7:22:424 (H:m:s:ms)","GENERIC","62.025","0.3202854385111154","7262"
"21:39:29:696 (H:m:s:ms)","GENERIC","62.137","0.34021932722817233","20268"
"20:47:4:242 (H:m:s:ms)","GENERIC","62.354","0.345376372208093","1657"
"21:7:28:484 (H:m:s:ms)","GENERIC","93.149","0.3200360131094939","2342"
"21:39:28:421 (H:m:s:ms)","AMBULANCE","31.013","0.33192573656490676","3401"
"20:47:5:316 (H:m:s:ms)","OPERA","62.299","0.34596372415631504","5007"
"21:7:34:545 (H:m:s:ms)","GENERIC","93.362","0.3184474863772888","4036"
"20:47:10:303 (H:m:s:ms)","GENERIC","93.316","0.34542376116422896","2648"
"21:7:40:606 (H:m:s:ms)","GENERIC","62.117","0.31535119947210916","3745"
"20:47:12:911 (H:m:s:ms)","OPERA","62.173","0.3459885574808655","3615"
"21:7:46:666 (H:m:s:ms)","GENERIC","93.252","0.3141608576099182","2907"
"20:47:16:363 (H:m:s:ms)","GENERIC","93.383","0.34531679631935464","4105"
"20:47:20:506 (H:m:s:ms)","OPERA","62.312","0.3452374938813922","3088"
"21:7:52:727 (H:m:s:ms)","GENERIC","93.512","0.31150448359251726","3645"
"21:7:53:684 (H:m:s:ms)","AMBULANCE","31.041","0.3133097294285026","1367"
"20:47:22:424 (H:m:s:ms)","GENERIC","93.28800000000001","0.3440041252859988","1736"
"21:7:58:787 (H:m:s:ms)","GENERIC","93.18299999999999","0.3126754306707984","3549"
"20:47:28:101 (H:m:s:ms)","OPERA","62.293","0.3462042578055664","3778"
"21:8:4:848 (H:m:s:ms)","GENERIC","93.385","0.31167486735456673","1673"
"20:47:28:484 (H:m:s:ms)","GENERIC","93.133","0.3453749656829527","5604"
"21:8:10:909 (H:m:s:ms)","GENERIC","93.4","0.30850808273119706","4436"
"20:47:34:545 (H:m:s:ms)","GENERIC","93.349","0.34661127878504383","1855"
"21:10:1:0 (H:m:s:ms)","GENERIC","62.053","0.30645368705445913","20828"
"20:47:35:696 (H:m:s:ms)","OPERA","93.332","0.3501360381593238","2008"
"21:8:23:30 (H:m:s:ms)","GENERIC","93.544","0.30711073696507896","3610"
"20:47:40:606 (H:m:s:ms)","GENERIC","62.127","0.3468138337151634","3592"
"21:8:25:263 (H:m:s:ms)","AMBULANCE","62.307","0.3082470369328242","4566"
"21:40:18:181 (H:m:s:ms)","GENERIC","93.20400000000001","0.3359206544759491","4257"
"20:47:43:291 (H:m:s:ms)","OPERA","62.212","0.3472674473434043","3181"
"21:8:29:90 (H:m:s:ms)","GENERIC","62.093","0.31004988378124626","3336"
"20:47:46:666 (H:m:s:ms)","GENERIC","124.447","0.348314351024389","2982"
"21:8:35:151 (H:m:s:ms)","GENERIC","93.469","0.3065688475372799","3645"
"20:47:50:886 (H:m:s:ms)","OPERA","62.329","0.3490159090055495","2511"
"20:47:52:727 (H:m:s:ms)","GENERIC","62.075","0.3484525073990708","3582"
"21:8:41:212 (H:m:s:ms)","GENERIC","93.676","0.3058199757011842","3722"
"21:8:47:272 (H:m:s:ms)","GENERIC","93.23400000000001","0.2992494101657284","3753"
"20:47:58:481 (H:m:s:ms)","OPERA","62.195","0.3493464354786039","3658"
"21:8:53:333 (H:m:s:ms)","GENERIC","62.041","0.3010023484807649","4393"
"20:47:58:787 (H:m:s:ms)","GENERIC","124.185","0.35099489636522135","6153"
"21:8:56:842 (H:m:s:ms)","AMBULANCE","62.219","0.3046768469546299","1796"
"20:30:0:0 (H:m:s:ms)","GENERIC","62.063","0.2970063588715401","4782"
"20:48:4:848 (H:m:s:ms)","GENERIC","93.335","0.3512716726073411","2119"
"21:10:1:0 (H:m:s:ms)","GENERIC","93.25","0.306474078715312","13225"
"20:30:0:0 (H:m:s:ms)","GENERIC","93.27600000000001","0.29845747286962593","6659"
"20:48:6:75 (H:m:s:ms)","OPERA","62.203","0.3522739537824179","3313"
"21:9:5:454 (H:m:s:ms)","GENERIC","93.461","0.3047050432023853","3339"
"20:30:6:60 (H:m:s:ms)","GENERIC","93.141","0.29661062293030604","3460"
"20:48:10:909 (H:m:s:ms)","GENERIC","93.462","0.35254177451986196","3602"
"21:9:11:515 (H:m:s:ms)","GENERIC","93.354","0.30344156640620956","2775"
"20:30:12:121 (H:m:s:ms)","GENERIC","62.115","0.29715770980256906","3406"
"20:48:13:670 (H:m:s:ms)","OPERA","31.01","0.35250797389627386","3173"
"21:9:17:575 (H:m:s:ms)","GENERIC","93.361","0.3035194140984981","1843"
"20:30:18:181 (H:m:s:ms)","GENERIC","62.065","0.29099090227511193","4807"
"20:48:16:969 (H:m:s:ms)","GENERIC","124.483","0.35400551145120507","1947"
"21:9:23:636 (H:m:s:ms)","GENERIC","93.15700000000001","0.3045813545003976","3510"
"20:30:24:242 (H:m:s:ms)","GENERIC","62.039","0.2912667830282636","4073"
"20:48:21:265 (H:m:s:ms)","OPERA","62.299","0.3554073022299638","2740"
"21:9:28:421 (H:m:s:ms)","AMBULANCE","62.271","0.3009037335255154","1392"
"20:30:30:303 (H:m:s:ms)","GENERIC","93.586","0.2942434069834401","3454"
"20:48:23:30 (H:m:s:ms)","GENERIC","62.135","0.35461023643003736","4345"
"20:30:36:363 (H:m:s:ms)","GENERIC","93.395","0.29343069723782733","3595"
"20:48:28:860 (H:m:s:ms)","OPERA","62.227999999999994","0.35327053652393486","930"
"20:30:42:424 (H:m:s:ms)","GENERIC","93.469","0.292021009417844","3179"
"20:30:48:484 (H:m:s:ms)","GENERIC","62.049","0.2917421100898292","3883"
"21:9:29:696 (H:m:s:ms)","GENERIC","62.125","0.3014815889487094","3217"
"21:9:35:757 (H:m:s:ms)","GENERIC","93.16","0.301444486955227","2458"
"20:48:29:90 (H:m:s:ms)","GENERIC","62.059","0.35238022726049306","3701"
"21:9:41:818 (H:m:s:ms)","GENERIC","62.043","0.30085993813937145","3345"
"20:48:35:151 (H:m:s:ms)","GENERIC","62.111","0.35245999443726755","3909"
"21:9:47:878 (H:m:s:ms)","GENERIC","62.053","0.2989902709464126","2551"
"20:30:54:545 (H:m:s:ms)","GENERIC","93.51","0.29356056625657223","3119"
"20:48:36:455 (H:m:s:ms)","OPERA","62.164","0.3532177511006054","2368"
"21:9:53:939 (H:m:s:ms)","GENERIC","93.298","0.30252391131014017","2924"
"20:31:0:606 (H:m:s:ms)","GENERIC","31.03","0.2903486952594912","1769"
"20:48:41:212 (H:m:s:ms)","GENERIC","62.145","0.34977354632114604","3408"
"21:10:0:0 (H:m:s:ms)","AMBULANCE","93.441","0.3027895053692556","2415"
"20:31:6:666 (H:m:s:ms)","GENERIC","62.071","0.2898151130209387","4205"
"20:48:44:50 (H:m:s:ms)","OPERA","31.009","0.34938592966488485","3594"
"21:10:0:0 (H:m:s:ms)","GENERIC","93.27799999999999","0.30491261507055945","5729"
"20:31:12:727 (H:m:s:ms)","GENERIC","62.153","0.2874769564180856","2624"
"20:48:47:272 (H:m:s:ms)","GENERIC","124.332","0.3486272084206099","2283"
"21:10:0:0 (H:m:s:ms)","GENERIC","93.333","0.3058621647111501","7685"
"20:31:18:787 (H:m:s:ms)","GENERIC","93.147","0.287899269738809","3084"
"20:48:51:645 (H:m:s:ms)","OPERA","31.01","0.3475246539981977","4867"
"21:10:6:60 (H:m:s:ms)","GENERIC","93.164","0.30431613888410686","3721"
"20:31:24:848 (H:m:s:ms)","GENERIC","93.40100000000001","0.2908624352821287","2917"
"20:48:53:333 (H:m:s:ms)","GENERIC","93.179","0.34610496846688654","2814"
"21:10:12:121 (H:m:s:ms)","GENERIC","62.091","0.3039556811736967","3747"
"20:31:30:909 (H:m:s:ms)","GENERIC","93.36099999999999","0.2918582382354999","4500"
"20:48:59:240 (H:m:s:ms)","OPERA","62.266999999999996","0.34525779956196145","2901"
"20:31:36:969 (H:m:s:ms)","GENERIC","93.057","0.29659577833927586","3815"
"20:48:59:393 (H:m:s:ms)","GENERIC","93.32","0.3453946760044443","5810"
"20:31:43:30 (H:m:s:ms)","GENERIC","62.095","0.2956875626636877","3266"
"20:31:49:90 (H:m:s:ms)","GENERIC","93.36699999999999","0.2919542462656658","5092"
"20:49:5:454 (H:m:s:ms)","GENERIC","93.443","0.34204863925584517","3550"
"20:49:6:835 (H:m:s:ms)","OPERA","31.01","0.3429323704486048","716"
"20:31:55:151 (H:m:s:ms)","GENERIC","62.123","0.2890836910256194","2585"
"20:49:11:515 (H:m:s:ms)","GENERIC","124.661","0.34305742632515507","2481"
"20:32:1:212 (H:m:s:ms)","GENERIC","62.099","0.2889678161417521","3588"
"20:49:14:430 (H:m:s:ms)","OPERA","31.009","0.344098936822621","2423"
"20:32:7:272 (H:m:s:ms)","GENERIC","93.33800000000001","0.28962184794704315","2574"
"20:49:17:575 (H:m:s:ms)","GENERIC","93.364","0.344539061643039","2895"
"20:32:13:333 (H:m:s:ms)","GENERIC","93.622","0.29088365546056283","2795"
"20:49:22:25 (H:m:s:ms)","OPERA","31.009","0.34190331119516904","4463"
"20:32:19:393 (H:m:s:ms)","GENERIC","62.057","0.290439261364363","2875"
"20:49:23:636 (H:m:s:ms)","GENERIC","93.14500000000001","0.3406422875731982","3977"
"20:32:25:454 (H:m:s:ms)","GENERIC","93.196","0.289275839739945","2482"
"20:49:29:620 (H:m:s:ms)","OPERA","62.248000000000005","0.3422551298768168","3626"
"20:32:31:515 (H:m:s:ms)","GENERIC","93.427","0.2902914331841696","3719"
"20:49:29:696 (H:m:s:ms)","GENERIC","93.65100000000001","0.3424460933449098","6552"
"20:32:37:575 (H:m:s:ms)","GENERIC","93.627","0.2917139549148602","4520"
"20:49:35:757 (H:m:s:ms)","GENERIC","93.158","0.3420076470579962","1176"
"20:32:43:636 (H:m:s:ms)","GENERIC","62.025","0.29242638356413486","3872"
"20:32:49:696 (H:m:s:ms)","GENERIC","93.127","0.294811120626279","3299"
"20:49:37:215 (H:m:s:ms)","OPERA","62.269000000000005","0.34259167475373076","5565"
"20:49:41:818 (H:m:s:ms)","GENERIC","62.069","0.3406652606531743","3230"
"20:32:55:757 (H:m:s:ms)","GENERIC","93.619","0.29677780085675987","1901"
"20:49:44:810 (H:m:s:ms)","OPERA","62.366","0.340193098995536","4726"
"20:33:1:818 (H:m:s:ms)","GENERIC","93.328","0.29789156549905593","2499"
"20:49:47:878 (H:m:s:ms)","GENERIC","62.069","0.33880370558589834","2111"
"20:33:7:878 (H:m:s:ms)","GENERIC","62.113","0.29864795280728795","4692"
"20:49:53:939 (H:m:s:ms)","GENERIC","93.39","0.3375512892371227","4251"
"20:33:13:939 (H:m:s:ms)","GENERIC","62.047","0.2975633382328278","3948"
"20:50:0:0 (H:m:s:ms)","OPERA","62.275","0.33909533209388604","9409"
"20:33:20:0 (H:m:s:ms)","GENERIC","93.149","0.29794602468680614","3812"
"20:50:0:0 (H:m:s:ms)","GENERIC","93.297","0.33762764209347407","2602"
"20:33:26:60 (H:m:s:ms)","GENERIC","93.125","0.29966124337097044","3550"
"20:50:0:0 (H:m:s:ms)","GENERIC","62.087","0.33768839466891565","3941"
"20:33:32:121 (H:m:s:ms)","GENERIC","93.17399999999999","0.3028605859272946","3939"
"20:50:6:60 (H:m:s:ms)","GENERIC","62.055","0.3379199264779703","2739"
"20:33:38:181 (H:m:s:ms)","GENERIC","93.338","0.3061330053781761","4086"
"20:50:12:121 (H:m:s:ms)","GENERIC","93.15700000000001","0.33486565730867196","3752"
"20:33:44:242 (H:m:s:ms)","GENERIC","93.681","0.30410009649583214","2833"
"20:33:50:303 (H:m:s:ms)","GENERIC","93.55799999999999","0.30683148243619385","2053"
"20:50:18:181 (H:m:s:ms)","GENERIC","93.157","0.33531924517765893","3563"
"20:50:24:242 (H:m:s:ms)","GENERIC","93.23","0.33712633295476085","1970"
"20:33:56:363 (H:m:s:ms)","GENERIC","93.291","0.3052655772782774","3325"
"20:50:30:303 (H:m:s:ms)","GENERIC","93.592","0.33703430779699955","3544"
"20:34:2:424 (H:m:s:ms)","GENERIC","62.097","0.3067336899984395","3226"
"20:50:36:363 (H:m:s:ms)","GENERIC","62.067","0.3354161018891938","3650"
"20:10:0:0 (H:m:s:ms)","GENERIC","62.233","0.30484018717473643","4637"
"20:34:8:484 (H:m:s:ms)","GENERIC","62.049","0.30702014833890096","3352"
"20:50:42:424 (H:m:s:ms)","GENERIC","93.489","0.3340923429509655","3023"
"20:10:0:0 (H:m:s:ms)","GENERIC","31.035","0.306804440153569","6486"
"20:34:14:545 (H:m:s:ms)","GENERIC","62.047","0.30736791337871455","3730"
"20:50:48:484 (H:m:s:ms)","GENERIC","93.309","0.33624402961128796","1526"
"20:10:6:60 (H:m:s:ms)","GENERIC","62.051","0.3051251212844134","4017"
"20:34:20:606 (H:m:s:ms)","GENERIC","93.328","0.3063794706504266","2918"
"20:50:54:545 (H:m:s:ms)","GENERIC","93.472","0.33463954192012035","3043"
"20:10:12:121 (H:m:s:ms)","GENERIC","62.121","0.30595571645909897","3396"
"20:34:26:666 (H:m:s:ms)","GENERIC","93.399","0.30596895276512714","2208"
"20:51:0:606 (H:m:s:ms)","GENERIC","93.352","0.3341664243819337","1267"
"20:10:18:181 (H:m:s:ms)","GENERIC","93.221","0.3047529637441445","4273"
"20:34:32:727 (H:m:s:ms)","GENERIC","62.113","0.30647772255456884","1965"
"20:51:6:666 (H:m:s:ms)","GENERIC","93.255","0.33513137099335183","3256"
"20:10:24:242 (H:m:s:ms)","GENERIC","62.043","0.3047529637441445","3320"
"20:34:38:787 (H:m:s:ms)","GENERIC","93.17","0.30558598736183185","2343"
"20:51:12:727 (H:m:s:ms)","GENERIC","93.672","0.3335463580058774","2901"
"20:10:30:303 (H:m:s:ms)","GENERIC","93.596","0.30220040264627634","3676"
"20:34:44:848 (H:m:s:ms)","GENERIC","62.117","0.3040024322516923","3199"
"20:10:36:363 (H:m:s:ms)","GENERIC","93.42","0.3030886346997349","3535"
"20:34:50:909 (H:m:s:ms)","GENERIC","62.123","0.305025401942802","3613"
"20:10:42:424 (H:m:s:ms)","GENERIC","93.481","0.30355873097787067","2917"
"20:10:48:484 (H:m:s:ms)","GENERIC","62.228","0.30782408394208305","3772"
"20:51:18:787 (H:m:s:ms)","GENERIC","93.109","0.33105188293728205","2820"
"20:51:24:848 (H:m:s:ms)","GENERIC","93.369","0.33085633872771664","2798"
"20:34:56:969 (H:m:s:ms)","GENERIC","93.258","0.30861803974497765","4590"
"20:51:30:909 (H:m:s:ms)","GENERIC","62.059","0.3288550266134066","3404"
"20:35:3:30 (H:m:s:ms)","GENERIC","62.111","0.3080939356649163","3651"
"20:51:36:969 (H:m:s:ms)","GENERIC","62.061","0.33043740975989266","4573"
"20:10:54:545 (H:m:s:ms)","GENERIC","93.48","0.3092360173287793","3412"
"20:35:9:90 (H:m:s:ms)","GENERIC","93.616","0.305778836936136","2330"
"20:51:43:30 (H:m:s:ms)","GENERIC","62.067","0.32988980475607005","3494"
"20:11:0:606 (H:m:s:ms)","GENERIC","93.631","0.3065008423161638","2904"
"20:35:15:151 (H:m:s:ms)","GENERIC","93.58500000000001","0.3093482177715867","1974"
"20:51:49:90 (H:m:s:ms)","GENERIC","93.416","0.32943798009112396","3020"
"20:11:6:666 (H:m:s:ms)","GENERIC","62.083","0.30811083676522893","3522"
"20:35:21:212 (H:m:s:ms)","GENERIC","62.083","0.31055533123203216","3341"
"20:51:55:151 (H:m:s:ms)","GENERIC","93.404","0.3237402107974849","1780"
"20:11:12:727 (H:m:s:ms)","GENERIC","93.658","0.3058813489524321","2440"
"20:35:27:272 (H:m:s:ms)","GENERIC","93.544","0.31085561116573734","2584"
"20:52:1:212 (H:m:s:ms)","GENERIC","62.119","0.3235030554872728","3514"
"20:11:18:787 (H:m:s:ms)","GENERIC","93.10000000000001","0.3052041043059461","2253"
"20:35:33:333 (H:m:s:ms)","GENERIC","62.019","0.30877248310557043","4203"
"20:52:7:272 (H:m:s:ms)","GENERIC","93.221","0.3229030521259645","3288"
"20:11:24:848 (H:m:s:ms)","GENERIC","93.429","0.30529768951343067","3010"
"20:35:39:393 (H:m:s:ms)","GENERIC","93.111","0.3086750526559871","4479"
"20:52:13:333 (H:m:s:ms)","GENERIC","62.257000000000005","0.3252929927907755","2407"
"20:11:30:909 (H:m:s:ms)","GENERIC","62.035","0.30561647922350527","4589"
"20:35:45:454 (H:m:s:ms)","GENERIC","93.64699999999999","0.3081488794558924","1819"
"20:11:36:969 (H:m:s:ms)","GENERIC","62.061","0.3099989927034932","3594"
"20:35:51:515 (H:m:s:ms)","GENERIC","93.14699999999999","0.30456143293978116","3595"
"20:11:43:30 (H:m:s:ms)","GENERIC","62.135","0.3106792538395789","2917"
"20:11:49:90 (H:m:s:ms)","GENERIC","93.351","0.3117068279826372","3845"
"20:0:54:545 (H:m:s:ms)","GENERIC","62.427","0.1495011765081245","4422"
"20:1:0:606 (H:m:s:ms)","GENERIC","62.564","0.15748222788922228","4207"
"20:1:6:666 (H:m:s:ms)","GENERIC","62.451","0.1623183331151524","4019"
"20:1:12:727 (H:m:s:ms)","GENERIC","62.592","0.1709319685645548","3033"
"20:1:18:787 (H:m:s:ms)","GENERIC","31.048","0.1770802028846281","3936"
"20:1:24:848 (H:m:s:ms)","GENERIC","62.382000000000005","0.1811199014056066","3373"
"20:1:30:909 (H:m:s:ms)","GENERIC","31.028","0.1857885193318012","5198"
"20:1:36:969 (H:m:s:ms)","GENERIC","31.04","0.19086129024239679","4886"
"20:1:43:30 (H:m:s:ms)","GENERIC","31.067","0.19489893977605705","3294"
"20:1:49:90 (H:m:s:ms)","GENERIC","62.326","0.19708801829848768","5255"
"20:35:57:575 (H:m:s:ms)","GENERIC","93.563","0.3044213141229106","3423"
"20:36:3:636 (H:m:s:ms)","GENERIC","93.324","0.304142524142144","2951"
"20:11:55:151 (H:m:s:ms)","GENERIC","62.113","0.31114676165850225","2120"
"20:36:9:696 (H:m:s:ms)","GENERIC","93.535","0.309452081302954","3293"
"20:12:1:212 (H:m:s:ms)","GENERIC","62.075","0.3092405579198571","3467"
"20:36:15:757 (H:m:s:ms)","GENERIC","93.253","0.3092435970588356","3394"
"20:12:7:272 (H:m:s:ms)","GENERIC","93.407","0.3113890332137251","2721"
"20:36:21:818 (H:m:s:ms)","GENERIC","93.507","0.30892442735356446","3254"
"20:12:13:333 (H:m:s:ms)","GENERIC","62.157","0.30951587729000407","3037"
"20:36:27:878 (H:m:s:ms)","GENERIC","93.343","0.30588089221593934","3606"
"20:12:19:393 (H:m:s:ms)","GENERIC","31.025","0.30784564159825134","3436"
"20:36:33:939 (H:m:s:ms)","GENERIC","93.582","0.3041629694111536","2313"
"20:12:25:454 (H:m:s:ms)","GENERIC","93.211","0.30754644530147873","2594"
"20:36:40:0 (H:m:s:ms)","GENERIC","93.519","0.30097929120643613","3998"
"20:12:31:515 (H:m:s:ms)","GENERIC","93.452","0.3053041599264499","2043"
"20:36:46:60 (H:m:s:ms)","GENERIC","93.112","0.3018841941657798","3809"
"20:12:37:575 (H:m:s:ms)","GENERIC","93.659","0.3072394130129011","4340"
"20:36:52:121 (H:m:s:ms)","GENERIC","93.147","0.30359184660109423","2571"
"20:12:43:636 (H:m:s:ms)","GENERIC","62.069","0.30558618019186845","3257"
"20:12:49:696 (H:m:s:ms)","GENERIC","62.069","0.3067403034597895","2913"
"20:1:55:151 (H:m:s:ms)","GENERIC","31.053","0.19947757010526643","2818"
"20:2:1:212 (H:m:s:ms)","GENERIC","31.036","0.20445448418491283","3824"
"20:2:7:272 (H:m:s:ms)","GENERIC","62.39","0.20895323835356452","3762"
"20:2:13:333 (H:m:s:ms)","GENERIC","31.09","0.2135541007268514","2478"
"20:2:19:393 (H:m:s:ms)","GENERIC","31.056","0.21664897170353584","3919"
"20:2:25:454 (H:m:s:ms)","GENERIC","62.123999999999995","0.22189988480545741","3006"
"20:2:31:515 (H:m:s:ms)","GENERIC","62.471000000000004","0.22551444577256202","3724"
"20:2:37:575 (H:m:s:ms)","GENERIC","62.578","0.23369440660024185","3573"
"20:2:43:636 (H:m:s:ms)","GENERIC","31.039","0.23747453214348604","2136"
"20:2:49:696 (H:m:s:ms)","GENERIC","62.082","0.24292294904788775","3365"
"20:36:58:181 (H:m:s:ms)","GENERIC","93.344","0.305412535128518","3616"
"20:37:4:242 (H:m:s:ms)","GENERIC","62.129","0.3042619642771379","4842"
"20:12:55:757 (H:m:s:ms)","GENERIC","62.145","0.30744591203912774","2293"
"20:37:10:303 (H:m:s:ms)","GENERIC","62.095","0.3048833217140625","3847"
"20:13:1:818 (H:m:s:ms)","GENERIC","93.279","0.3094455762873066","2717"
"20:37:16:363 (H:m:s:ms)","GENERIC","62.053","0.3056919957362669","4028"
"20:13:7:878 (H:m:s:ms)","GENERIC","93.212","0.3094035003651972","4880"
"20:37:22:424 (H:m:s:ms)","GENERIC","93.255","0.3084609756497253","3394"
"20:13:13:939 (H:m:s:ms)","GENERIC","62.029","0.30769424833420767","4607"
"20:37:28:484 (H:m:s:ms)","GENERIC","93.14","0.31073010415884433","2188"
"20:13:20:0 (H:m:s:ms)","GENERIC","62.057","0.3095422785463542","3648"
"20:37:34:545 (H:m:s:ms)","GENERIC","93.34100000000001","0.30757493687837656","3069"
"20:13:26:60 (H:m:s:ms)","GENERIC","62.059","0.30987171393680035","4448"
"20:37:40:606 (H:m:s:ms)","GENERIC","62.127","0.30506999753391506","2202"
"20:13:32:121 (H:m:s:ms)","GENERIC","93.187","0.3140399737809282","2359"
"20:37:46:666 (H:m:s:ms)","GENERIC","93.262","0.30605149438737256","3735"
"20:13:38:181 (H:m:s:ms)","GENERIC","93.38","0.31504746001488243","3482"
"20:37:52:727 (H:m:s:ms)","GENERIC","62.073","0.3096564832414005","3177"
"20:13:44:242 (H:m:s:ms)","GENERIC","93.619","0.31708896046464485","2680"
"20:13:50:303 (H:m:s:ms)","GENERIC","62.135","0.3166134796816598","2734"
"20:2:55:757 (H:m:s:ms)","GENERIC","62.562","0.2455049352090495","2793"
"20:3:1:818 (H:m:s:ms)","GENERIC","62.252","0.25114218940054306","2827"
"20:3:7:878 (H:m:s:ms)","GENERIC","62.177","0.2545599192348689","4421"
"20:3:13:939 (H:m:s:ms)","GENERIC","31.019","0.2547168537357394","5024"
"20:3:20:0 (H:m:s:ms)","GENERIC","62.132999999999996","0.25894736274434105","4692"
"20:3:26:60 (H:m:s:ms)","GENERIC","62.07","0.259999051563084","4897"
"20:3:32:121 (H:m:s:ms)","GENERIC","62.078","0.26278324217717863","3009"
"20:3:38:181 (H:m:s:ms)","GENERIC","62.331","0.2646213948900566","4525"
"20:3:44:242 (H:m:s:ms)","GENERIC","31.067","0.2675788677745883","2251"
"20:3:50:303 (H:m:s:ms)","GENERIC","62.587","0.2689093552539295","2855"
"20:37:58:787 (H:m:s:ms)","GENERIC","93.144","0.3093400481860037","2323"
"20:38:4:848 (H:m:s:ms)","GENERIC","62.32","0.30828539078492967","2860"
"20:13:56:363 (H:m:s:ms)","GENERIC","93.293","0.3153880194698546","3218"
"20:38:10:909 (H:m:s:ms)","GENERIC","93.452","0.3068448819802987","4604"
"20:14:2:424 (H:m:s:ms)","GENERIC","124.803","0.3176610084706609","3104"
"20:38:16:969 (H:m:s:ms)","GENERIC","93.257","0.30719340873578593","3858"
"20:14:8:484 (H:m:s:ms)","GENERIC","62.033","0.316367849489425","3249"
"20:38:23:30 (H:m:s:ms)","GENERIC","93.584","0.3075364843626941","3474"
"20:14:14:545 (H:m:s:ms)","GENERIC","93.418","0.315583852095169","3164"
"20:38:29:90 (H:m:s:ms)","GENERIC","62.053","0.30656887843501845","3177"
"20:14:20:606 (H:m:s:ms)","GENERIC","93.328","0.31721282008999047","3012"
"20:38:35:151 (H:m:s:ms)","GENERIC","93.508","0.3036653594888318","4209"
"20:14:26:666 (H:m:s:ms)","GENERIC","62.085","0.31601771559443587","3212"
"20:38:41:212 (H:m:s:ms)","GENERIC","93.604","0.300017984368034","2744"
"20:14:32:727 (H:m:s:ms)","GENERIC","62.133","0.3156744357509866","2889"
"20:38:47:272 (H:m:s:ms)","GENERIC","93.21600000000001","0.2987586748449431","2977"
"20:14:38:787 (H:m:s:ms)","GENERIC","93.19200000000001","0.31697989584856723","1958"
"20:38:53:333 (H:m:s:ms)","GENERIC","93.187","0.297129752889364","4186"
"20:14:44:848 (H:m:s:ms)","GENERIC","93.441","0.31812346209932557","2978"
"20:14:50:909 (H:m:s:ms)","GENERIC","62.087","0.3189908513017746","4153"
"20:3:56:363 (H:m:s:ms)","GENERIC","62.272000000000006","0.27000046504936925","3849"
"20:4:2:424 (H:m:s:ms)","GENERIC","62.395","0.27354832097224574","2568"
"20:4:8:484 (H:m:s:ms)","GENERIC","31.022","0.27403957707507487","3746"
"20:4:14:545 (H:m:s:ms)","GENERIC","62.403999999999996","0.2773818292410878","2957"
"20:4:20:606 (H:m:s:ms)","GENERIC","62.292","0.27810845011916346","3004"
"20:4:26:666 (H:m:s:ms)","GENERIC","31.036","0.2804122874682005","3244"
"20:4:32:727 (H:m:s:ms)","GENERIC","31.069","0.2812820460755287","2770"
"20:4:38:787 (H:m:s:ms)","GENERIC","62.1","0.28238705306847184","2420"
"20:4:44:848 (H:m:s:ms)","GENERIC","62.36","0.28397624024408963","4388"
"20:4:50:909 (H:m:s:ms)","GENERIC","31.037","0.28423274157409756","4670"
"20:38:59:393 (H:m:s:ms)","GENERIC","62.047","0.2954122524392998","3535"
"20:39:5:454 (H:m:s:ms)","GENERIC","93.435","0.2942146287742281","3454"
"20:14:56:969 (H:m:s:ms)","GENERIC","93.339","0.3166438025477527","3743"
"20:39:11:515 (H:m:s:ms)","GENERIC","93.318","0.2924655961274915","4915"
"20:15:3:30 (H:m:s:ms)","GENERIC","62.091","0.3141692217796081","3408"
"20:39:17:575 (H:m:s:ms)","GENERIC","93.319","0.2924623305052815","2508"
"20:15:9:90 (H:m:s:ms)","GENERIC","93.639","0.3135559909477916","2099"
"20:39:23:636 (H:m:s:ms)","GENERIC","93.12700000000001","0.29287857402196676","3951"
"20:15:15:151 (H:m:s:ms)","GENERIC","93.59899999999999","0.31353950897490174","1732"
"20:39:29:696 (H:m:s:ms)","GENERIC","62.145","0.2924281069370183","2960"
"20:15:21:212 (H:m:s:ms)","GENERIC","62.101","0.31317286244768217","3183"
"20:39:35:757 (H:m:s:ms)","GENERIC","93.184","0.2919273085792676","3836"
"20:15:27:272 (H:m:s:ms)","GENERIC","93.517","0.3116554799574816","3054"
"20:39:41:818 (H:m:s:ms)","GENERIC","62.083","0.2910858622544691","3175"
"20:15:33:333 (H:m:s:ms)","GENERIC","62.027","0.31284222782811305","4325"
"20:39:47:878 (H:m:s:ms)","GENERIC","62.071","0.2901729439936916","2735"
"20:15:39:393 (H:m:s:ms)","GENERIC","93.111","0.31278192583305714","3287"
"20:39:53:939 (H:m:s:ms)","GENERIC","93.361","0.28926746293267597","4006"
"20:15:45:454 (H:m:s:ms)","GENERIC","93.606","0.313692936942821","1851"
"20:15:51:515 (H:m:s:ms)","GENERIC","62.041","0.3119023641918093","2726"
"20:4:56:969 (H:m:s:ms)","GENERIC","62.295","0.28606007018529356","4042"
"20:5:3:30 (H:m:s:ms)","GENERIC","62.113","0.28800598351280043","4108"
"20:5:9:90 (H:m:s:ms)","GENERIC","62.538","0.2865939782377868","2590"
"20:5:15:151 (H:m:s:ms)","GENERIC","31.072","0.2888036449643532","2043"
"20:5:21:212 (H:m:s:ms)","GENERIC","31.047","0.2899402948612808","3463"
"20:5:27:272 (H:m:s:ms)","GENERIC","62.512","0.2894061267117882","2734"
"20:5:33:333 (H:m:s:ms)","GENERIC","31.017","0.28676394971888863","4340"
"20:5:39:393 (H:m:s:ms)","GENERIC","31.037","0.2854689263153852","4266"
"20:5:45:454 (H:m:s:ms)","GENERIC","62.563","0.28381193385208414","3568"
"20:5:51:515 (H:m:s:ms)","GENERIC","62.102999999999994","0.2841940265620912","3450"
"20:15:57:575 (H:m:s:ms)","GENERIC","62.129","0.31115211047554525","3359"
"20:16:3:636 (H:m:s:ms)","GENERIC","93.332","0.31131932051912675","3075"
"20:16:9:696 (H:m:s:ms)","GENERIC","93.507","0.31084800735934404","4048"
"20:16:15:757 (H:m:s:ms)","GENERIC","62.165","0.3094240499876327","2951"
"20:16:21:818 (H:m:s:ms)","GENERIC","93.511","0.3102418450909577","2898"
"20:16:27:878 (H:m:s:ms)","GENERIC","93.385","0.30996005141225125","3687"
"20:16:33:939 (H:m:s:ms)","GENERIC","93.614","0.31049576613090335","2577"
"20:16:40:0 (H:m:s:ms)","GENERIC","62.075","0.3058478930716821","3851"
"20:16:46:60 (H:m:s:ms)","GENERIC","62.057","0.30728593186575004","3551"
"20:16:52:121 (H:m:s:ms)","GENERIC","93.14","0.30911464084623297","1833"
"20:5:57:575 (H:m:s:ms)","GENERIC","31.066","0.2870384758067194","3542"
"20:6:3:636 (H:m:s:ms)","GENERIC","62.308","0.28857469907062727","3732"
"20:6:9:696 (H:m:s:ms)","GENERIC","31.048","0.28864611585739625","3710"
"20:6:15:757 (H:m:s:ms)","GENERIC","31.085","0.2876559101770981","3196"
"20:6:21:818 (H:m:s:ms)","GENERIC","62.462","0.2884257059408194","3029"
"20:6:27:878 (H:m:s:ms)","GENERIC","31.052","0.2900816943796023","3038"
"20:6:33:939 (H:m:s:ms)","GENERIC","31.05","0.28967333502853787","1992"
"20:6:40:0 (H:m:s:ms)","GENERIC","62.456","0.28794993710854283","2581"
"20:6:46:60 (H:m:s:ms)","GENERIC","62.088","0.28993189710054756","3942"
"20:6:52:121 (H:m:s:ms)","GENERIC","62.090999999999994","0.2933087919799508","3263"
"20:16:58:181 (H:m:s:ms)","GENERIC","93.36699999999999","0.30942843924913205","4587"
"20:17:4:242 (H:m:s:ms)","GENERIC","125.056","0.31387732840115695","2677"
"20:17:10:303 (H:m:s:ms)","GENERIC","93.256","0.31224059281607025","3625"
"20:17:16:363 (H:m:s:ms)","GENERIC","93.465","0.315521858661291","3004"
"20:17:22:424 (H:m:s:ms)","GENERIC","62.033","0.316483554916756","3986"
"20:17:28:484 (H:m:s:ms)","GENERIC","93.101","0.3171883221998366","2484"
"20:17:34:545 (H:m:s:ms)","GENERIC","93.31","0.31687225018580195","3931"
"20:17:40:606 (H:m:s:ms)","GENERIC","62.121","0.3127562091061238","3079"
"20:17:46:666 (H:m:s:ms)","GENERIC","62.109","0.3121458996819604","3400"
"20:17:52:727 (H:m:s:ms)","GENERIC","93.524","0.3100639489010687","3888"
"20:6:58:181 (H:m:s:ms)","GENERIC","62.313","0.2950500521743744","4184"
"20:7:4:242 (H:m:s:ms)","GENERIC","62.528999999999996","0.2953276508377149","2502"
"20:7:10:303 (H:m:s:ms)","GENERIC","31.031","0.29554322502187885","3877"
"20:7:16:363 (H:m:s:ms)","GENERIC","62.4","0.2967328093416227","3792"
"20:7:22:424 (H:m:s:ms)","GENERIC","31.021","0.297619665995966","3997"
"20:7:28:484 (H:m:s:ms)","GENERIC","62.077","0.2997571701471087","2675"
"20:7:34:545 (H:m:s:ms)","GENERIC","62.278000000000006","0.3016938540509127","2891"
"20:7:40:606 (H:m:s:ms)","GENERIC","62.471999999999994","0.30156909542384647","2833"
"20:7:46:666 (H:m:s:ms)","GENERIC","31.049","0.3008655728948574","2461"
"20:7:52:727 (H:m:s:ms)","GENERIC","31.047","0.29690923006556985","3811"
"20:17:58:787 (H:m:s:ms)","GENERIC","93.111","0.3103226101744646","2529"
"20:18:4:848 (H:m:s:ms)","GENERIC","62.257000000000005","0.30925916627830413","3766"
"20:18:10:909 (H:m:s:ms)","GENERIC","62.087","0.30656620796430245","4390"
"20:18:16:969 (H:m:s:ms)","GENERIC","93.247","0.3075974792410383","3696"
"20:18:23:30 (H:m:s:ms)","GENERIC","93.525","0.3060152137094334","3832"
"20:18:29:90 (H:m:s:ms)","GENERIC","62.051","0.30532818255523564","3359"
"20:18:35:151 (H:m:s:ms)","GENERIC","93.46799999999999","0.30081504508094686","3402"
"20:18:41:212 (H:m:s:ms)","GENERIC","93.581","0.30205540560865163","2606"
"20:18:47:272 (H:m:s:ms)","GENERIC","93.21600000000001","0.2962026992865332","3357"
"20:18:53:333 (H:m:s:ms)","GENERIC","93.15","0.29714894587792784","4287"
"20:7:58:787 (H:m:s:ms)","GENERIC","62.09","0.2964893946194322","2658"
"20:8:4:848 (H:m:s:ms)","GENERIC","31.053","0.2946328702616384","3133"
"20:8:10:909 (H:m:s:ms)","GENERIC","62.405","0.2944690174213989","3725"
"20:8:16:969 (H:m:s:ms)","GENERIC","62.242000000000004","0.2965839170482375","3201"
"20:8:23:30 (H:m:s:ms)","GENERIC","62.49","0.2984814565226676","3156"
"20:8:29:90 (H:m:s:ms)","GENERIC","31.03","0.29802196810104237","3133"
"20:8:35:151 (H:m:s:ms)","GENERIC","31.03","0.29838571425235727","3471"
"20:8:41:212 (H:m:s:ms)","GENERIC","62.528999999999996","0.3015130631916898","2788"
"20:8:47:272 (H:m:s:ms)","GENERIC","62.197","0.30128238907926735","3379"
"20:8:53:333 (H:m:s:ms)","GENERIC","31.016","0.3012311049912168","4304"
"20:18:59:393 (H:m:s:ms)","GENERIC","62.037","0.29915913068097105","3338"
"20:19:5:454 (H:m:s:ms)","GENERIC","93.417","0.2994878483938628","1573"
"20:19:11:515 (H:m:s:ms)","GENERIC","93.29599999999999","0.3004909283215592","3843"
"20:19:17:575 (H:m:s:ms)","GENERIC","93.36099999999999","0.29944823913854757","2430"
"20:19:23:636 (H:m:s:ms)","GENERIC","93.107","0.2978055023237259","3385"
"20:19:29:696 (H:m:s:ms)","GENERIC","62.133","0.29552020430759024","2684"
"20:19:35:757 (H:m:s:ms)","GENERIC","62.091","0.2965676573905165","2772"
"20:19:41:818 (H:m:s:ms)","GENERIC","62.097","0.29288325406674814","3285"
"20:19:47:878 (H:m:s:ms)","GENERIC","62.051","0.2909481791483445","2393"
"20:19:53:939 (H:m:s:ms)","GENERIC","93.306","0.29151925103361453","3704"
"20:8:59:393 (H:m:s:ms)","GENERIC","62.259","0.3013386863054492","4278"
"20:9:5:454 (H:m:s:ms)","GENERIC","62.378","0.30354909030011296","3478"
"20:9:11:515 (H:m:s:ms)","GENERIC","62.318","0.30476268211117535","4729"
"20:9:17:575 (H:m:s:ms)","GENERIC","62.344","0.30128636547955967","2633"
"20:9:23:636 (H:m:s:ms)","GENERIC","62.122","0.3008671171450707","4197"
"20:9:29:696 (H:m:s:ms)","GENERIC","31.061","0.30016689500517824","3035"
"20:9:35:757 (H:m:s:ms)","GENERIC","31.055","0.30164470385639514","3335"
"20:9:41:818 (H:m:s:ms)","GENERIC","31.058","0.3019523551420403","3511"
"20:9:47:878 (H:m:s:ms)","GENERIC","31.028","0.3031843956435347","1618"
"20:9:53:939 (H:m:s:ms)","GENERIC","62.312","0.3042163279942648","3315"
"21:41:0:606 (H:m:s:ms)","GENERIC","93.344","0.34238836502865505","1605"
"21:40:54:545 (H:m:s:ms)","GENERIC","93.532","0.3418402471081622","3089"
"21:40:48:484 (H:m:s:ms)","GENERIC","93.282","0.3423872090236896","2017"
"21:40:42:424 (H:m:s:ms)","GENERIC","124.827","0.3436462470564486","2445"
"21:40:36:363 (H:m:s:ms)","GENERIC","124.697","0.33932567451785417","3175"
"21:40:30:303 (H:m:s:ms)","GENERIC","62.099","0.3391558338375395","4649"
"21:40:24:242 (H:m:s:ms)","GENERIC","93.205","0.33940059215767104","3568"
"21:41:18:787 (H:m:s:ms)","GENERIC","93.153","0.3418231749891428","2915"
"21:41:12:727 (H:m:s:ms)","GENERIC","93.646","0.3402249842614723","2761"
"21:41:6:666 (H:m:s:ms)","GENERIC","93.281","0.342459951112117","3292"
