"time (H:m:s:ms)","type","latency","utilisation","waiting"
"21:42:25:454 (H:m:s:ms)","GENERIC","62.065","0.05014771080925138","545"
"21:42:7:272 (H:m:s:ms)","GENERIC","62.159","0.02513114844091378","727"
"21:42:1:212 (H:m:s:ms)","GENERIC","62.051","0.05087131436281179","787"
"21:41:55:151 (H:m:s:ms)","GENERIC","31.013","0.05055937104039186","848"
"21:41:49:90 (H:m:s:ms)","GENERIC","62.053","0.05012153967965671","943"
"21:41:43:30 (H:m:s:ms)","GENERIC","62.075","0.05011098792790975","970"
"21:41:36:969 (H:m:s:ms)","GENERIC","62.087","0.020074178728038485","1030"
"21:41:30:909 (H:m:s:ms)","GENERIC","62.111","0.021508440872146022","1091"
"21:41:24:848 (H:m:s:ms)","GENERIC","62.049","0.01178605248432509","152"
"21:42:19:393 (H:m:s:ms)","GENERIC","62.103","0.025769410160110386","641"
"21:42:13:333 (H:m:s:ms)","GENERIC","62.093","0.019436506316151042","666"
"21:43:32:121 (H:m:s:ms)","GENERIC","62.097","0.02501999200639374","878"
"21:43:26:60 (H:m:s:ms)","GENERIC","62.049","0.02357022603955167","939"
"21:43:13:939 (H:m:s:ms)","GENERIC","62.029","0.017045025075329033","1060"
"20:0:0:0 (H:m:s:ms)","GENERIC","31.094","0.03028796974231041","1420"
"21:43:7:878 (H:m:s:ms)","GENERIC","62.031","0.017179606773406953","1122"
"20:0:6:60 (H:m:s:ms)","GENERIC","31.059","0.018844693835667847","941"
"21:43:1:818 (H:m:s:ms)","GENERIC","62.187","0.030128326362124994","181"
"20:0:12:121 (H:m:s:ms)","GENERIC","31.06","0.01323456050204998","879"
"21:42:55:757 (H:m:s:ms)","GENERIC","62.123","0.022422706745122846","242"
"20:0:18:181 (H:m:s:ms)","GENERIC","31.084","0.01653862379696405","818"
"21:42:49:696 (H:m:s:ms)","GENERIC","62.043","0.02523136739906203","337"
"20:0:24:242 (H:m:s:ms)","GENERIC","31.043","0.03349245260401924","759"
"21:42:43:636 (H:m:s:ms)","GENERIC","62.067","0.01888723879385762","363"
"20:0:30:303 (H:m:s:ms)","GENERIC","31.021","0.025094339957859223","709"
"21:42:37:575 (H:m:s:ms)","GENERIC","62.071","0.021497821402984573","424"
"20:0:36:363 (H:m:s:ms)","GENERIC","31.014","0.022703164393304113","637"
"21:42:31:515 (H:m:s:ms)","GENERIC","62.051","0.026034165586355542","485"
"20:0:42:424 (H:m:s:ms)","GENERIC","31.042","0.01653862379696405","581"
"21:10:12:121 (H:m:s:ms)","GENERIC","62.051","0.021646125954690308","878"
"20:0:48:484 (H:m:s:ms)","GENERIC","31.064","0.051135075225986995","515"
"21:10:18:181 (H:m:s:ms)","GENERIC","62.129","0.014553270492771617","818"
"21:10:24:242 (H:m:s:ms)","GENERIC","62.059","0.05004723666617983","758"
"21:10:30:303 (H:m:s:ms)","GENERIC","62.097","0.033479497249975516","697"
"21:10:36:363 (H:m:s:ms)","GENERIC","62.061","0.015135442928869335","636"
"21:10:42:424 (H:m:s:ms)","GENERIC","62.097","0.015327942790339649","575"
"21:10:48:484 (H:m:s:ms)","GENERIC","62.195","0.02576941016011038","515"
"21:10:54:545 (H:m:s:ms)","GENERIC","62.099","0.017179606773406932","454"
"21:43:20:0 (H:m:s:ms)","GENERIC","62.063","0.02145285310370277","1034"
"21:11:0:606 (H:m:s:ms)","GENERIC","62.043","0.025103093220880217","393"
"21:11:6:666 (H:m:s:ms)","GENERIC","62.041","0.02152553378543782","334"
"21:25:45:454 (H:m:s:ms)","GENERIC","62.127","0.02752872616111785","545"
"21:44:38:787 (H:m:s:ms)","GENERIC","62.063","0.05024937810560461","212"
"21:44:32:727 (H:m:s:ms)","GENERIC","62.031","0.05007432492334711","272"
"21:44:26:666 (H:m:s:ms)","GENERIC","62.085","0.020833333333333343","333"
"21:44:20:606 (H:m:s:ms)","GENERIC","62.137","0.033793125168323467","394"
"21:44:14:545 (H:m:s:ms)","GENERIC","62.017","0.03535533905932745","454"
"21:44:8:484 (H:m:s:ms)","GENERIC","62.115","0.015023130314433294","515"
"21:44:2:424 (H:m:s:ms)","GENERIC","62.053","0.00645476233612184","597"
"21:43:56:363 (H:m:s:ms)","GENERIC","62.061","0.025063694370746844","636"
"21:43:50:303 (H:m:s:ms)","GENERIC","62.129","0.01669547682933961","696"
"21:43:44:242 (H:m:s:ms)","GENERIC","62.039","0.015193271441666132","867"
"21:11:12:727 (H:m:s:ms)","GENERIC","62.101","0.030304576336566493","272"
"21:43:38:181 (H:m:s:ms)","GENERIC","62.067","0.006668645201717736","818"
"21:11:18:787 (H:m:s:ms)","GENERIC","62.049","0.05003696858176048","227"
"21:11:24:848 (H:m:s:ms)","GENERIC","62.049","0.011786052484325092","152"
"21:11:30:909 (H:m:s:ms)","GENERIC","62.107","0.02160786252390806","1090"
"21:11:36:969 (H:m:s:ms)","GENERIC","62.105","0.016847092906522424","1030"
"21:11:43:30 (H:m:s:ms)","GENERIC","62.103","0.050041631980568345","969"
"21:11:49:90 (H:m:s:ms)","GENERIC","62.031","0.010069228858561855","943"
"21:11:55:151 (H:m:s:ms)","GENERIC","62.085","0.020155644370746406","848"
"21:12:1:212 (H:m:s:ms)","GENERIC","62.047","0.05087131436281179","787"
"21:12:7:272 (H:m:s:ms)","GENERIC","62.113","0.009178090425177176","728"
"21:26:21:818 (H:m:s:ms)","GENERIC","62.129","0.034894422536224594","181"
"21:45:45:454 (H:m:s:ms)","GENERIC","62.107","0.025769410160110386","546"
"21:26:19:746 (H:m:s:ms)","OPERA","31.009","0.03525839146795905","288"
"21:45:39:393 (H:m:s:ms)","GENERIC","62.049","0.006301814358099932","641"
"21:45:33:333 (H:m:s:ms)","GENERIC","62.081","0.016688946661760486","667"
"21:45:27:272 (H:m:s:ms)","GENERIC","62.079","0.010034662148993595","727"
"21:26:12:151 (H:m:s:ms)","OPERA","31.009","0.04382834213706905","849"
"21:26:9:696 (H:m:s:ms)","GENERIC","62.099","0.04061906953777452","337"
"21:45:21:212 (H:m:s:ms)","GENERIC","62.057","0.02239903468354907","788"
"21:26:4:556 (H:m:s:ms)","OPERA","62.015","0.025729196159944984","445"
"21:45:15:151 (H:m:s:ms)","GENERIC","31.029","0.05055937104039186","849"
"21:26:3:636 (H:m:s:ms)","GENERIC","62.095","0.017636944220766212","363"
"21:45:9:90 (H:m:s:ms)","GENERIC","62.097","0.008362218457494667","944"
"21:25:57:575 (H:m:s:ms)","GENERIC","62.097","0.050714456293648166","425"
"21:45:3:30 (H:m:s:ms)","GENERIC","62.055","0.01929309868903375","970"
"21:25:56:962 (H:m:s:ms)","OPERA","31.009","0.050051626239875704","1037"
"21:44:56:969 (H:m:s:ms)","GENERIC","62.045","0.01912245807363112","1030"
"21:12:13:333 (H:m:s:ms)","GENERIC","62.083","0.02501848429088024","666"
"21:25:51:515 (H:m:s:ms)","GENERIC","62.049","0.010209903230489042","485"
"21:44:50:909 (H:m:s:ms)","GENERIC","62.075","0.020085550908083373","1090"
"21:12:19:393 (H:m:s:ms)","GENERIC","62.125","0.02795084971874738","640"
"21:25:49:367 (H:m:s:ms)","OPERA","31.008","0.02135723270461699","666"
"21:44:44:848 (H:m:s:ms)","GENERIC","62.061","0.05042353697714445","152"
"21:12:25:454 (H:m:s:ms)","GENERIC","62.101","0.01710469751811074","546"
"21:12:31:515 (H:m:s:ms)","GENERIC","62.079","0.031991511219750995","484"
"21:12:37:575 (H:m:s:ms)","GENERIC","62.105","0.037514464802852344","425"
"21:12:43:636 (H:m:s:ms)","GENERIC","62.049","0.037592222703057065","363"
"21:12:49:696 (H:m:s:ms)","GENERIC","62.035","0.05001291155605785","339"
"21:12:55:757 (H:m:s:ms)","GENERIC","62.071","0.05099019513592793","242"
"21:13:1:818 (H:m:s:ms)","GENERIC","62.133","0.020191979828206946","181"
"21:13:7:878 (H:m:s:ms)","GENERIC","62.065","0.021453874776222476","1121"
"21:26:15:757 (H:m:s:ms)","GENERIC","62.081","0.02651373414555539","242"
"21:26:58:181 (H:m:s:ms)","GENERIC","62.093","0.052646404081274786","818"
"21:46:52:121 (H:m:s:ms)","GENERIC","62.117","0.03334447891349361","878"
"21:26:57:721 (H:m:s:ms)","OPERA","62.013","0.07054714035032943","278"
"21:46:46:60 (H:m:s:ms)","GENERIC","62.107","0.025836661573923385","941"
"21:26:52:121 (H:m:s:ms)","GENERIC","62.077","0.060166938888424726","878"
"21:46:40:0 (H:m:s:ms)","GENERIC","62.017","0.02026408819368299","1035"
"21:46:33:939 (H:m:s:ms)","GENERIC","62.061","0.030123711865056104","1061"
"21:46:27:878 (H:m:s:ms)","GENERIC","62.065","0.02095381826780029","1121"
"21:26:50:126 (H:m:s:ms)","OPERA","31.008","0.04208825263289411","873"
"21:26:46:60 (H:m:s:ms)","GENERIC","62.069","0.0560036316330033","940"
"21:26:42:531 (H:m:s:ms)","OPERA","62.013","0.07060916520452114","468"
"21:46:21:818 (H:m:s:ms)","GENERIC","62.099","0.023584952830141514","181"
"21:26:40:0 (H:m:s:ms)","GENERIC","62.025","0.05005665724197311","1034"
"21:46:15:757 (H:m:s:ms)","GENERIC","62.047","0.00839557486203912","243"
"21:26:34:936 (H:m:s:ms)","OPERA","31.009","0.0389619100622066","84"
"21:46:9:696 (H:m:s:ms)","GENERIC","62.101","0.03162277660168367","342"
"21:13:13:939 (H:m:s:ms)","GENERIC","62.041","0.018823928330127575","1061"
"21:26:33:939 (H:m:s:ms)","GENERIC","62.061","0.02018509391924958","1079"
"21:46:3:636 (H:m:s:ms)","GENERIC","62.091","0.01710469751811074","363"
"21:13:20:0 (H:m:s:ms)","GENERIC","62.017","0.02501848429088024","1035"
"21:26:27:878 (H:m:s:ms)","GENERIC","62.033","0.03531179782290296","1122"
"21:45:57:575 (H:m:s:ms)","GENERIC","62.079","0.008426561840065298","425"
"21:13:26:60 (H:m:s:ms)","GENERIC","62.085","0.010340464581257133","940"
"21:26:27:341 (H:m:s:ms)","OPERA","62.015","0.025025813119937852","659"
"21:45:51:515 (H:m:s:ms)","GENERIC","62.055","0.006461420092388371","485"
"21:13:32:121 (H:m:s:ms)","GENERIC","62.113","0.0250738554046257","878"
"21:13:38:181 (H:m:s:ms)","GENERIC","62.027","0.019071739298223044","818"
"21:13:44:242 (H:m:s:ms)","GENERIC","62.047","0.026000392461716194","758"
"21:13:50:303 (H:m:s:ms)","GENERIC","62.079","0.033347747748421475","696"
"21:13:56:363 (H:m:s:ms)","GENERIC","62.045","0.014419650057404748","637"
"21:14:2:424 (H:m:s:ms)","GENERIC","62.063","0.018933771619945","575"
"21:14:8:484 (H:m:s:ms)","GENERIC","62.129","0.025086655372483956","516"
"21:27:35:696 (H:m:s:ms)","OPERA","31.009","0.020866406251020174","303"
"21:47:58:787 (H:m:s:ms)","GENERIC","62.043","0.016982669051098524","212"
"21:27:34:545 (H:m:s:ms)","GENERIC","62.075","0.010158187609519944","455"
"21:47:52:727 (H:m:s:ms)","GENERIC","62.067","0.014436824804327241","272"
"21:27:28:484 (H:m:s:ms)","GENERIC","62.097","0.05633160055473356","515"
"21:47:46:666 (H:m:s:ms)","GENERIC","62.045","0.007663971395169823","333"
"21:27:28:101 (H:m:s:ms)","OPERA","31.009","0.05055937104039186","898"
"21:47:40:606 (H:m:s:ms)","GENERIC","62.089","0.050066839985281476","393"
"21:47:34:545 (H:m:s:ms)","GENERIC","62.101","0.020015740845201413","454"
"21:47:28:484 (H:m:s:ms)","GENERIC","62.125","0.037751206493070275","515"
"21:27:22:424 (H:m:s:ms)","GENERIC","62.063","0.05360107089639101","576"
"21:27:20:506 (H:m:s:ms)","OPERA","62.015","0.052448397636205235","493"
"21:27:16:363 (H:m:s:ms)","GENERIC","62.061","0.02965508034138775","637"
"21:47:22:424 (H:m:s:ms)","GENERIC","62.047","0.025016523465121922","632"
"21:14:14:545 (H:m:s:ms)","GENERIC","62.057","0.025086655372484005","454"
"21:27:12:911 (H:m:s:ms)","OPERA","62.017","0.035534280179869836","1088"
"21:47:16:363 (H:m:s:ms)","GENERIC","62.049","0.010507417725743444","637"
"21:14:20:606 (H:m:s:ms)","GENERIC","62.125","0.05121969142940497","394"
"21:27:10:303 (H:m:s:ms)","GENERIC","31.011","0.0559111498541947","697"
"21:47:10:303 (H:m:s:ms)","GENERIC","62.055","0.0072420570245242295","696"
"20:52:13:333 (H:m:s:ms)","GENERIC","62.065","0.008388623287373352","666"
"21:14:26:666 (H:m:s:ms)","GENERIC","62.119","0.05003558719311748","335"
"21:27:5:316 (H:m:s:ms)","OPERA","31.009","0.05585240183493041","684"
"21:47:4:242 (H:m:s:ms)","GENERIC","62.057","0.05000826377990949","757"
"20:52:19:393 (H:m:s:ms)","GENERIC","62.117","0.05026682667970091","646"
"21:14:32:727 (H:m:s:ms)","GENERIC","62.047","0.008784104611578848","273"
"21:27:4:242 (H:m:s:ms)","GENERIC","62.069","0.025016523465121922","757"
"21:46:58:181 (H:m:s:ms)","GENERIC","62.099","0.014563365016821787","818"
"20:52:25:454 (H:m:s:ms)","GENERIC","62.097","0.03355449314949345","547"
"21:14:38:787 (H:m:s:ms)","GENERIC","31.014","0.01685312368013061","212"
"20:52:31:515 (H:m:s:ms)","GENERIC","62.087","0.0343187671366233","484"
"21:14:44:848 (H:m:s:ms)","GENERIC","62.065","0.017897230485838383","151"
"20:52:37:575 (H:m:s:ms)","GENERIC","62.103","0.007931646398081088","425"
"21:14:50:909 (H:m:s:ms)","GENERIC","62.069","0.030057101578182806","1091"
"20:52:43:636 (H:m:s:ms)","GENERIC","62.035","0.037510258163980646","364"
"21:14:56:969 (H:m:s:ms)","GENERIC","62.035","0.02670001170411739","1030"
"20:52:49:696 (H:m:s:ms)","GENERIC","31.029","0.014695993980469247","469"
"21:15:3:30 (H:m:s:ms)","GENERIC","62.059","0.025294127765319144","969"
"20:52:55:757 (H:m:s:ms)","GENERIC","62.061","0.007985957062499244","242"
"21:15:9:90 (H:m:s:ms)","GENERIC","62.073","0.015023130314433326","944"
"20:53:1:818 (H:m:s:ms)","GENERIC","62.087","0.03341825916099572","181"
"20:53:7:878 (H:m:s:ms)","GENERIC","62.063","0.02515384760593733","1122"
"21:28:13:670 (H:m:s:ms)","OPERA","62.015","0.046510716931725274","329"
"21:49:5:454 (H:m:s:ms)","GENERIC","62.075","0.025294127765319165","546"
"21:28:10:909 (H:m:s:ms)","GENERIC","62.155","0.05960174700618777","1090"
"21:48:59:393 (H:m:s:ms)","GENERIC","62.049","0.02516586986212006","641"
"21:28:6:75 (H:m:s:ms)","OPERA","31.008","0.05060925513381975","925"
"21:48:53:333 (H:m:s:ms)","GENERIC","62.065","0.030013770944034807","666"
"21:28:4:848 (H:m:s:ms)","GENERIC","62.039","0.0073017869235640605","152"
"21:48:47:272 (H:m:s:ms)","GENERIC","62.077","0.02511312274967747","727"
"21:27:58:787 (H:m:s:ms)","GENERIC","62.079","0.03349245260401924","212"
"21:48:41:212 (H:m:s:ms)","GENERIC","62.025","0.05220153254455289","787"
"21:48:35:151 (H:m:s:ms)","GENERIC","62.025","0.050014170327619276","849"
"21:48:29:90 (H:m:s:ms)","GENERIC","62.085","0.050106219876591834","945"
"21:27:58:481 (H:m:s:ms)","OPERA","31.009","0.03569916961868559","519"
"21:15:15:151 (H:m:s:ms)","GENERIC","62.019","0.025018484290880227","850"
"21:27:52:727 (H:m:s:ms)","GENERIC","62.069","0.05140303908512558","272"
"21:15:21:212 (H:m:s:ms)","GENERIC","62.057","0.014932689789032673","787"
"21:27:50:886 (H:m:s:ms)","OPERA","31.009","0.05488325989107763","114"
"21:48:23:30 (H:m:s:ms)","GENERIC","62.077","0.019436506316151018","969"
"20:53:13:939 (H:m:s:ms)","GENERIC","62.061","0.02164177464823197","1061"
"21:15:27:272 (H:m:s:ms)","GENERIC","62.061","0.010034662148993595","727"
"21:27:46:666 (H:m:s:ms)","GENERIC","62.071","0.0543830451069845","334"
"21:48:16:969 (H:m:s:ms)","GENERIC","62.075","0.02502169197805071","1030"
"20:53:20:0 (H:m:s:ms)","GENERIC","62.039","0.02152553378543782","1040"
"21:15:33:333 (H:m:s:ms)","GENERIC","62.075","0.025086655372484005","666"
"21:27:43:291 (H:m:s:ms)","OPERA","31.009","0.07124725931269985","708"
"21:48:10:909 (H:m:s:ms)","GENERIC","62.117","0.0072630372505119","1090"
"20:53:26:60 (H:m:s:ms)","GENERIC","62.127","0.037267799624996635","939"
"21:15:39:393 (H:m:s:ms)","GENERIC","62.019","0.033388760623347294","640"
"21:27:40:606 (H:m:s:ms)","GENERIC","62.051","0.05408233352540672","394"
"21:48:4:848 (H:m:s:ms)","GENERIC","62.035","0.05005665724197311","152"
"20:53:32:121 (H:m:s:ms)","GENERIC","62.119","0.025018484290880296","878"
"21:15:45:454 (H:m:s:ms)","GENERIC","62.141","0.02004560177382558","545"
"20:53:38:181 (H:m:s:ms)","GENERIC","62.033","0.009049011310310617","818"
"21:15:51:515 (H:m:s:ms)","GENERIC","62.065","0.02161466264898719","484"
"20:53:44:242 (H:m:s:ms)","GENERIC","62.067","0.014396888836247432","758"
"21:15:57:575 (H:m:s:ms)","GENERIC","62.111","0.01671347593344301","424"
"20:53:50:303 (H:m:s:ms)","GENERIC","62.049","0.02158955491031765","696"
"21:16:3:636 (H:m:s:ms)","GENERIC","62.087","0.05033173972424023","363"
"20:53:56:363 (H:m:s:ms)","GENERIC","62.029","0.02151809351672082","636"
"21:16:9:696 (H:m:s:ms)","GENERIC","62.107","0.014142135623730982","337"
"20:54:2:424 (H:m:s:ms)","GENERIC","62.067","0.0067814237263448636","575"
"20:54:8:484 (H:m:s:ms)","GENERIC","62.103","0.03334447891349361","515"
"21:28:51:645 (H:m:s:ms)","OPERA","31.009","0.03550954591820191","354"
"22:5:15:789 (H:m:s:ms)","AMBULANCE","31.011","0.05000924470748413","212"
"21:28:47:272 (H:m:s:ms)","GENERIC","62.049","0.03550954591820191","727"
"22:4:44:210 (H:m:s:ms)","AMBULANCE","31.011","0.050083140935020955","793"
"21:28:44:50 (H:m:s:ms)","OPERA","62.013","0.04431527805683305","951"
"21:50:0:0 (H:m:s:ms)","GENERIC","62.107","0.028473604855539292","1036"
"21:28:41:212 (H:m:s:ms)","GENERIC","62.063","0.04420244238663688","787"
"21:49:53:939 (H:m:s:ms)","GENERIC","62.047","0.021646125954690308","1061"
"21:28:36:455 (H:m:s:ms)","OPERA","31.009","0.0558513227260182","544"
"21:49:47:878 (H:m:s:ms)","GENERIC","62.045","0.008872499038500715","1122"
"21:28:35:151 (H:m:s:ms)","GENERIC","62.017","0.05005665724197317","849"
"21:49:41:818 (H:m:s:ms)","GENERIC","62.067","0.008688567549813044","181"
"21:49:35:757 (H:m:s:ms)","GENERIC","62.133","0.012956538921581164","242"
"21:49:29:696 (H:m:s:ms)","GENERIC","62.015","0.00645476233612184","339"
"21:16:15:757 (H:m:s:ms)","GENERIC","62.095","0.020074178728038485","242"
"21:16:21:818 (H:m:s:ms)","GENERIC","62.151","0.020953818267800267","181"
"21:28:29:90 (H:m:s:ms)","GENERIC","62.063","0.060429382219535276","943"
"20:54:14:545 (H:m:s:ms)","GENERIC","62.045","0.00839818515447767","455"
"21:16:27:878 (H:m:s:ms)","GENERIC","62.025","0.016896562584161754","1122"
"21:28:28:860 (H:m:s:ms)","OPERA","31.009","0.06224532142325489","139"
"20:54:20:606 (H:m:s:ms)","GENERIC","62.099","0.05270462766947303","393"
"21:16:33:939 (H:m:s:ms)","GENERIC","62.071","0.020191979828206957","1061"
"21:28:23:30 (H:m:s:ms)","GENERIC","62.063","0.06224532142325489","970"
"21:49:23:636 (H:m:s:ms)","GENERIC","62.129","0.020024014801763374","363"
"20:54:26:666 (H:m:s:ms)","GENERIC","62.111","0.051538820320220786","333"
"21:16:40:0 (H:m:s:ms)","GENERIC","62.037","0.030078661837265954","1033"
"21:28:21:265 (H:m:s:ms)","OPERA","62.015","0.05630003319524926","734"
"21:49:17:575 (H:m:s:ms)","GENERIC","62.091","0.01929309868903375","424"
"20:54:32:727 (H:m:s:ms)","GENERIC","62.051","0.02503855052405554","272"
"21:16:46:60 (H:m:s:ms)","GENERIC","62.053","0.022321428571428686","939"
"21:28:16:969 (H:m:s:ms)","GENERIC","62.069","0.0416538689517072","1030"
"21:49:11:515 (H:m:s:ms)","GENERIC","62.095","0.0448454134902457","484"
"20:54:38:787 (H:m:s:ms)","GENERIC","31.024","0.008900003901372446","291"
"21:16:52:121 (H:m:s:ms)","GENERIC","62.077","0.017800007802744863","879"
"20:54:44:848 (H:m:s:ms)","GENERIC","62.067","0.007347996990234623","152"
"21:16:58:181 (H:m:s:ms)","GENERIC","62.069","0.016695476829339667","818"
"20:54:50:909 (H:m:s:ms)","GENERIC","62.091","0.010042775454041687","1090"
"21:17:4:242 (H:m:s:ms)","GENERIC","62.063","0.025066028507204144","758"
"20:54:56:969 (H:m:s:ms)","GENERIC","62.051","0.00658807845868415","1030"
"21:17:10:303 (H:m:s:ms)","GENERIC","62.043","0.03352411390554465","705"
"20:55:3:30 (H:m:s:ms)","GENERIC","62.029","0.025294127765319144","969"
"20:55:9:90 (H:m:s:ms)","GENERIC","62.109","0.009911311600042466","949"
"21:29:29:620 (H:m:s:ms)","OPERA","31.008","0.05024937810560461","413"
"21:29:23:636 (H:m:s:ms)","GENERIC","62.147","0.02885971527630071","364"
"21:29:22:25 (H:m:s:ms)","OPERA","62.015","0.01934489217644988","975"
"21:29:17:575 (H:m:s:ms)","GENERIC","62.089","0.05043161866874061","424"
"21:29:14:430 (H:m:s:ms)","OPERA","62.015","0.05438633585506925","571"
"21:29:11:515 (H:m:s:ms)","GENERIC","62.113","0.05456785807399694","484"
"21:29:6:835 (H:m:s:ms)","OPERA","62.017","0.051037794477230065","165"
"21:17:16:363 (H:m:s:ms)","GENERIC","62.067","0.02186520672556767","636"
"21:17:22:424 (H:m:s:ms)","GENERIC","62.077","0.01284135970336253","575"
"20:55:15:151 (H:m:s:ms)","GENERIC","62.047","0.025186724586117374","849"
"21:17:28:484 (H:m:s:ms)","GENERIC","62.085","0.012687627749922622","515"
"20:55:21:212 (H:m:s:ms)","GENERIC","62.071","0.02239903468354907","788"
"21:17:34:545 (H:m:s:ms)","GENERIC","62.071","0.020141224745292043","454"
"21:29:5:454 (H:m:s:ms)","GENERIC","62.103","0.009178090425177176","545"
"20:55:27:272 (H:m:s:ms)","GENERIC","62.075","0.030103986446980653","727"
"21:17:40:606 (H:m:s:ms)","GENERIC","62.051","0.016866127115895642","394"
"21:28:59:393 (H:m:s:ms)","GENERIC","62.065","0.03158682767263889","641"
"20:55:33:333 (H:m:s:ms)","GENERIC","62.047","0.025086655372484005","667"
"21:17:46:666 (H:m:s:ms)","GENERIC","62.085","0.030510067150546574","333"
"21:28:59:240 (H:m:s:ms)","OPERA","62.013","0.019405218370325075","794"
"22:8:56:842 (H:m:s:ms)","AMBULANCE","31.011","0.05003696858176045","160"
"20:55:39:393 (H:m:s:ms)","GENERIC","62.041","0.03334719879276419","647"
"21:17:52:727 (H:m:s:ms)","GENERIC","62.079","0.02152960638857969","272"
"21:28:53:333 (H:m:s:ms)","GENERIC","31.022","0.03018038854172764","667"
"22:7:22:105 (H:m:s:ms)","AMBULANCE","31.011","0.05003696858176045","898"
"20:55:45:454 (H:m:s:ms)","GENERIC","62.149","0.010358793457695569","545"
"21:17:58:787 (H:m:s:ms)","GENERIC","62.067","0.016807845659048144","212"
"20:55:51:515 (H:m:s:ms)","GENERIC","62.093","0.014316830273949423","484"
"21:18:4:848 (H:m:s:ms)","GENERIC","62.041","0.021482070607445135","152"
"20:55:57:575 (H:m:s:ms)","GENERIC","62.061","0.02512468905280228","424"
"21:18:10:909 (H:m:s:ms)","GENERIC","62.171","0.03064412668032815","1090"
"20:56:3:636 (H:m:s:ms)","GENERIC","62.097","0.010038399649768423","363"
"20:56:9:696 (H:m:s:ms)","GENERIC","62.107","0.014142135623730982","344"
"21:30:0:0 (H:m:s:ms)","GENERIC","62.067","0.03044981149976885","1052"
"21:30:0:0 (H:m:s:ms)","OPERA","62.015","0.028982041317670616","1051"
"21:30:0:0 (H:m:s:ms)","AMBULANCE","31.027","0.014610021493139122","1045"
"21:29:53:939 (H:m:s:ms)","GENERIC","62.045","0.034170495689742786","1108"
"21:29:52:405 (H:m:s:ms)","OPERA","62.015","0.04039176330970329","594"
"21:29:47:878 (H:m:s:ms)","GENERIC","62.025","0.028315200606430974","1122"
"21:29:44:810 (H:m:s:ms)","OPERA","62.017","0.03017987989338903","190"
"21:29:41:818 (H:m:s:ms)","GENERIC","62.081","0.03017030040836143","181"
"21:18:16:969 (H:m:s:ms)","GENERIC","62.077","0.05153882032022087","1031"
"21:18:23:30 (H:m:s:ms)","GENERIC","62.065","0.022422706745122846","969"
"20:56:15:757 (H:m:s:ms)","GENERIC","62.093","0.00857959065008807","242"
"21:18:29:90 (H:m:s:ms)","GENERIC","62.059","0.03340414658439455","942"
"20:56:21:818 (H:m:s:ms)","GENERIC","62.141","0.020953818267800267","181"
"21:18:35:151 (H:m:s:ms)","GENERIC","62.029","0.05012738874149379","848"
"20:40:0:0 (H:m:s:ms)","OPERA","31.008","0.012936812246883396","1460"
"20:56:27:878 (H:m:s:ms)","GENERIC","62.035","0.011792476415070774","1121"
"21:18:41:212 (H:m:s:ms)","GENERIC","62.075","0.02242270674512285","787"
"20:40:0:0 (H:m:s:ms)","GENERIC","62.053","0.023819093180463567","1460"
"20:56:33:939 (H:m:s:ms)","GENERIC","62.117","0.014746746169902073","1061"
"21:18:47:272 (H:m:s:ms)","GENERIC","62.053","0.05002518891847458","727"
"21:29:37:215 (H:m:s:ms)","OPERA","62.015","0.030097708955918814","784"
"20:40:0:0 (H:m:s:ms)","GENERIC","62.126","0.03840376933393686","1460"
"20:56:40:0 (H:m:s:ms)","GENERIC","62.065","0.05182615568632459","1039"
"21:18:53:333 (H:m:s:ms)","GENERIC","62.019","0.025120644132331126","684"
"21:29:35:757 (H:m:s:ms)","GENERIC","62.135","0.02503285152534196","243"
"20:40:6:60 (H:m:s:ms)","GENERIC","62.149","0.025272859377696667","939"
"20:56:46:60 (H:m:s:ms)","GENERIC","62.061","0.01722444104928224","939"
"21:18:59:393 (H:m:s:ms)","GENERIC","62.075","0.02145285310370277","638"
"21:29:29:696 (H:m:s:ms)","GENERIC","62.035","0.05061157610151755","337"
"20:40:7:594 (H:m:s:ms)","OPERA","31.009","0.056410330910290504","406"
"20:56:52:121 (H:m:s:ms)","GENERIC","62.121","0.013017082793177764","879"
"21:19:5:454 (H:m:s:ms)","GENERIC","62.087","0.03337497399083476","545"
"20:40:12:121 (H:m:s:ms)","GENERIC","31.023","0.07098751963870835","878"
"20:56:58:181 (H:m:s:ms)","GENERIC","62.031","0.008390805278737132","819"
"21:19:11:515 (H:m:s:ms)","GENERIC","62.131","0.013975424859373742","485"
"20:40:18:181 (H:m:s:ms)","GENERIC","62.097","0.03758324094593229","819"
"20:57:4:242 (H:m:s:ms)","GENERIC","62.045","0.02213702489044669","758"
"20:40:22:784 (H:m:s:ms)","OPERA","31.009","0.04171400158857392","215"
"20:57:10:303 (H:m:s:ms)","GENERIC","31.011","0.03342695186688604","696"
"20:40:24:242 (H:m:s:ms)","GENERIC","62.053","0.03807811565849562","758"
"20:40:30:303 (H:m:s:ms)","GENERIC","62.103","0.05004723666617993","696"
"21:30:12:121 (H:m:s:ms)","GENERIC","62.079","0.02145285310370277","878"
"21:30:54:545 (H:m:s:ms)","GENERIC","62.079","0.05001928640380313","454"
"21:30:48:484 (H:m:s:ms)","GENERIC","62.187","0.02534484387624258","516"
"21:30:42:424 (H:m:s:ms)","GENERIC","62.085","0.011938721928474772","576"
"21:30:36:363 (H:m:s:ms)","GENERIC","62.045","0.03477768459842023","636"
"21:30:31:578 (H:m:s:ms)","AMBULANCE","31.019","0.06051087545269567","459"
"21:30:30:303 (H:m:s:ms)","GENERIC","62.065","0.050423536977144565","696"
"21:30:24:242 (H:m:s:ms)","GENERIC","62.067","0.0072153753182300695","983"
"21:19:17:575 (H:m:s:ms)","GENERIC","62.107","0.018811118630051436","424"
"21:30:18:181 (H:m:s:ms)","GENERIC","62.131","0.03513641844631534","819"
"21:19:23:636 (H:m:s:ms)","GENERIC","62.123","0.020024014801763374","364"
"20:57:16:363 (H:m:s:ms)","GENERIC","62.081","0.009672305280992194","636"
"21:19:29:696 (H:m:s:ms)","GENERIC","62.035","0.02510793358335961","335"
"20:57:22:424 (H:m:s:ms)","GENERIC","62.067","0.012586207918105701","576"
"21:19:35:757 (H:m:s:ms)","GENERIC","62.147","0.025294127765319165","242"
"20:40:30:379 (H:m:s:ms)","OPERA","31.009","0.0706480550865979","621"
"20:57:28:484 (H:m:s:ms)","GENERIC","62.061","0.014099045403340112","515"
"21:19:41:818 (H:m:s:ms)","GENERIC","62.101","0.025013433638798627","181"
"20:40:36:363 (H:m:s:ms)","GENERIC","62.055","0.016702073292197306","636"
"20:57:34:545 (H:m:s:ms)","GENERIC","62.099","0.05099019513592806","455"
"21:19:47:878 (H:m:s:ms)","GENERIC","62.041","0.021589554910317714","1122"
"20:40:37:974 (H:m:s:ms)","OPERA","31.009","0.052648484796277546","1025"
"20:57:40:606 (H:m:s:ms)","GENERIC","62.061","0.03334447891349364","393"
"21:19:53:939 (H:m:s:ms)","GENERIC","62.065","0.050033046930243845","1138"
"20:40:42:424 (H:m:s:ms)","GENERIC","62.131","0.052607446960296","575"
"20:57:46:666 (H:m:s:ms)","GENERIC","62.085","0.014553270492771615","333"
"21:20:0:0 (H:m:s:ms)","OPERA","31.01","0.03370624736026122","1445"
"21:30:6:60 (H:m:s:ms)","GENERIC","62.139","0.030143830530162206","939"
"20:40:45:569 (H:m:s:ms)","OPERA","31.009","0.02543575800014599","431"
"20:57:52:727 (H:m:s:ms)","GENERIC","62.073","0.05005665724197318","272"
"21:20:0:0 (H:m:s:ms)","GENERIC","62.055","0.0349820136553694","1445"
"21:30:0:0 (H:m:s:ms)","GENERIC","62.133","0.05839245778736703","1052"
"20:40:48:484 (H:m:s:ms)","GENERIC","62.165","0.03184341651896389","515"
"20:57:58:787 (H:m:s:ms)","GENERIC","62.041","0.03361569131809629","213"
"21:20:0:0 (H:m:s:ms)","GENERIC","62.123","0.040288483258690576","1445"
"20:40:53:164 (H:m:s:ms)","OPERA","31.009","0.04207003247690073","836"
"20:58:4:848 (H:m:s:ms)","GENERIC","62.027","0.0334182591609958","152"
"20:40:54:545 (H:m:s:ms)","GENERIC","62.141","0.035925106386080236","454"
"20:58:10:909 (H:m:s:ms)","GENERIC","62.139","0.011792476415070757","1090"
"20:41:0:606 (H:m:s:ms)","GENERIC","62.045","0.02523136739906203","393"
"20:41:0:759 (H:m:s:ms)","OPERA","31.009","0.0563919508449981","240"
"21:31:6:666 (H:m:s:ms)","GENERIC","62.031","0.05589633856135347","333"
"21:31:3:157 (H:m:s:ms)","AMBULANCE","31.025","0.05587500845385519","880"
"21:31:49:90 (H:m:s:ms)","GENERIC","62.065","0.018933771619945","942"
"21:31:43:30 (H:m:s:ms)","GENERIC","62.083","0.050041631980568345","969"
"21:31:36:969 (H:m:s:ms)","GENERIC","62.101","0.03196430965438178","1030"
"21:31:34:736 (H:m:s:ms)","AMBULANCE","31.01","0.05581466951150438","275"
"21:31:30:909 (H:m:s:ms)","GENERIC","62.087","0.05001928640380333","1091"
"21:31:24:848 (H:m:s:ms)","GENERIC","62.059","0.02165523720649101","151"
"21:31:18:787 (H:m:s:ms)","GENERIC","62.039","0.02516586986212006","238"
"21:31:12:727 (H:m:s:ms)","GENERIC","62.095","0.01431931567618713","272"
"20:58:16:969 (H:m:s:ms)","GENERIC","62.099","0.055901699437494866","1030"
"20:58:23:30 (H:m:s:ms)","GENERIC","62.051","0.05024937810560453","969"
"20:41:6:666 (H:m:s:ms)","GENERIC","62.077","0.02507385540462563","333"
"20:58:29:90 (H:m:s:ms)","GENERIC","62.073","0.022088065851523227","949"
"20:41:8:354 (H:m:s:ms)","OPERA","31.009","0.05583484248679179","645"
"20:58:35:151 (H:m:s:ms)","GENERIC","62.069","0.018875603246535123","848"
"20:41:12:727 (H:m:s:ms)","GENERIC","62.069","0.0705847806788501","272"
"20:58:41:212 (H:m:s:ms)","GENERIC","62.041","0.012704931690339758","787"
"20:41:15:949 (H:m:s:ms)","OPERA","31.009","0.06005412767085203","1050"
"20:58:47:272 (H:m:s:ms)","GENERIC","62.067","0.03605551275463981","727"
"20:41:18:787 (H:m:s:ms)","GENERIC","62.059","0.03442258293694226","213"
"20:58:53:333 (H:m:s:ms)","GENERIC","62.035","0.02018509391924958","667"
"20:41:23:544 (H:m:s:ms)","OPERA","31.009","0.05077174758023682","456"
"20:58:59:393 (H:m:s:ms)","GENERIC","31.041","0.0072153753182300695","647"
"21:31:0:606 (H:m:s:ms)","GENERIC","62.019","0.05001291155605785","393"
"20:41:24:848 (H:m:s:ms)","GENERIC","62.055","0.05096961148238068","152"
"20:59:5:454 (H:m:s:ms)","GENERIC","62.081","0.05013367022218186","546"
"20:41:30:909 (H:m:s:ms)","GENERIC","62.091","0.02534484387624271","1090"
"20:59:11:515 (H:m:s:ms)","GENERIC","62.127","0.03480102169636861","484"
"20:41:31:139 (H:m:s:ms)","OPERA","31.009","0.05605714799890594","861"
"20:41:36:969 (H:m:s:ms)","GENERIC","62.087","0.02008247457670413","1030"
"20:59:17:575 (H:m:s:ms)","GENERIC","62.089","0.006431032896344588","424"
"20:59:23:636 (H:m:s:ms)","GENERIC","62.101","0.018844693835667847","363"
"20:41:38:734 (H:m:s:ms)","OPERA","31.009","0.026507397330351783","265"
"20:59:29:696 (H:m:s:ms)","GENERIC","62.039","0.025073855404625655","343"
"20:41:43:30 (H:m:s:ms)","GENERIC","62.109","0.05293790946652244","969"
"20:59:35:757 (H:m:s:ms)","GENERIC","62.129","0.05013367022218186","242"
"20:41:46:329 (H:m:s:ms)","OPERA","31.009","0.05596538626691087","671"
"20:59:41:818 (H:m:s:ms)","GENERIC","62.133","0.010577835620812402","181"
"20:41:49:90 (H:m:s:ms)","GENERIC","62.037","0.03560041733291747","944"
"20:59:47:878 (H:m:s:ms)","GENERIC","62.065","0.05050762722761068","1121"
"20:41:53:924 (H:m:s:ms)","OPERA","31.008","0.030280707808884175","76"
"20:59:53:939 (H:m:s:ms)","GENERIC","62.051","0.021646125954690308","1061"
"20:41:55:151 (H:m:s:ms)","GENERIC","62.103","0.026154550662664665","848"
"21:0:0:0 (H:m:s:ms)","AMBULANCE","31.033","0.05001291155605785","1449"
"20:42:1:212 (H:m:s:ms)","GENERIC","62.077","0.01912245807363112","787"
"21:0:0:0 (H:m:s:ms)","GENERIC","62.025","0.054737117773240834","1450"
"20:42:1:518 (H:m:s:ms)","OPERA","31.008","0.03148701237760832","482"
"21:0:0:0 (H:m:s:ms)","GENERIC","62.107","0.06229611784624012","1450"
"20:42:7:272 (H:m:s:ms)","GENERIC","62.073","0.008718891351753513","727"
"20:42:9:113 (H:m:s:ms)","OPERA","31.009","0.021233990799418942","921"
"21:0:6:60 (H:m:s:ms)","GENERIC","62.151","0.01676923173729153","939"
"21:0:12:121 (H:m:s:ms)","GENERIC","62.049","0.02145285310370277","878"
"20:42:13:333 (H:m:s:ms)","GENERIC","62.057","0.025535775139156346","666"
"21:0:18:181 (H:m:s:ms)","GENERIC","62.113","0.05270462766947303","819"
"20:42:16:708 (H:m:s:ms)","OPERA","31.009","0.030077534067725967","291"
"21:0:24:242 (H:m:s:ms)","GENERIC","62.065","0.03335105074193714","757"
"20:20:0:0 (H:m:s:ms)","GENERIC","62.059","0.02006446879843237","1452"
"20:42:19:393 (H:m:s:ms)","GENERIC","62.109","0.035424422149012695","642"
"21:0:30:303 (H:m:s:ms)","GENERIC","62.113","0.025094339957859223","696"
"20:20:0:0 (H:m:s:ms)","GENERIC","62.145","0.03611711895302802","1453"
"20:42:24:303 (H:m:s:ms)","OPERA","31.009","0.05635425229576399","696"
"21:0:31:578 (H:m:s:ms)","AMBULANCE","31.056","0.03540565102847346","424"
"20:20:6:60 (H:m:s:ms)","GENERIC","62.125","0.006860937833862678","939"
"20:42:25:454 (H:m:s:ms)","GENERIC","62.105","0.054285385659476736","546"
"21:0:36:363 (H:m:s:ms)","GENERIC","62.059","0.028928367440287244","636"
"20:20:12:121 (H:m:s:ms)","GENERIC","62.105","0.014099045403340112","878"
"20:42:31:515 (H:m:s:ms)","GENERIC","62.083","0.030123711865056104","484"
"21:0:42:424 (H:m:s:ms)","GENERIC","62.125","0.022991914185509513","575"
"20:20:18:181 (H:m:s:ms)","GENERIC","62.133","0.023570226039551598","818"
"20:42:31:898 (H:m:s:ms)","OPERA","31.01","0.03906610427119481","101"
"21:0:48:484 (H:m:s:ms)","GENERIC","62.181","0.009316949906249124","516"
"20:20:24:242 (H:m:s:ms)","GENERIC","62.057","0.05004723666617983","758"
"20:42:37:575 (H:m:s:ms)","GENERIC","62.097","0.007347996990234624","425"
"21:0:54:545 (H:m:s:ms)","GENERIC","62.115","0.050173310744967954","454"
"20:20:30:303 (H:m:s:ms)","GENERIC","62.071","0.050014170327619276","697"
"20:42:39:493 (H:m:s:ms)","OPERA","31.01","0.05055224615893666","541"
"20:20:36:363 (H:m:s:ms)","GENERIC","62.027","0.008718968296952642","636"
"20:42:43:636 (H:m:s:ms)","GENERIC","62.041","0.051557459979742405","363"
"20:20:42:424 (H:m:s:ms)","GENERIC","62.089","0.010904292351290834","576"
"20:20:48:484 (H:m:s:ms)","GENERIC","62.155","0.02534484387624258","515"
"21:1:0:606 (H:m:s:ms)","GENERIC","62.055","0.05005665724197311","393"
"21:1:3:157 (H:m:s:ms)","AMBULANCE","31.053","0.07074901879355902","845"
"20:42:47:88 (H:m:s:ms)","OPERA","31.009","0.05174899325571422","911"
"21:1:6:666 (H:m:s:ms)","GENERIC","62.063","0.05456627094476714","334"
"20:42:49:696 (H:m:s:ms)","GENERIC","62.033","0.052260120041541076","506"
"21:1:12:727 (H:m:s:ms)","GENERIC","62.109","0.05001486988880482","274"
"20:20:54:545 (H:m:s:ms)","GENERIC","62.131","0.016724436914989316","455"
"20:42:54:683 (H:m:s:ms)","OPERA","31.009","0.05213243705805029","317"
"21:1:18:787 (H:m:s:ms)","GENERIC","62.041","0.0072153753182300695","212"
"20:21:0:606 (H:m:s:ms)","GENERIC","62.013","0.012936812246883396","394"
"20:42:55:757 (H:m:s:ms)","GENERIC","62.077","0.0799832142934462","243"
"21:1:24:848 (H:m:s:ms)","GENERIC","62.045","0.009491201618513087","152"
"20:21:6:666 (H:m:s:ms)","GENERIC","62.085","0.016945467628681873","333"
"20:43:1:818 (H:m:s:ms)","GENERIC","62.101","0.020191979828206946","181"
"21:1:30:909 (H:m:s:ms)","GENERIC","62.105","0.02534484387624271","1090"
"20:21:12:727 (H:m:s:ms)","GENERIC","62.087","0.021450986976142408","272"
"20:43:2:278 (H:m:s:ms)","OPERA","31.008","0.027591582792331225","721"
"21:1:34:736 (H:m:s:ms)","AMBULANCE","31.039","0.045319100148257234","359"
"20:21:18:787 (H:m:s:ms)","GENERIC","62.097","0.02152553378543782","212"
"20:43:7:878 (H:m:s:ms)","GENERIC","62.049","0.017179606773406953","1122"
"21:1:36:969 (H:m:s:ms)","GENERIC","62.089","0.039046211717657396","1030"
"20:21:24:848 (H:m:s:ms)","GENERIC","62.075","0.017087195722325563","152"
"20:43:9:873 (H:m:s:ms)","OPERA","31.009","0.053024091687403414","162"
"21:1:43:30 (H:m:s:ms)","GENERIC","62.103","0.021618208500602264","970"
"20:21:30:909 (H:m:s:ms)","GENERIC","62.117","0.025153847605937397","1090"
"20:43:13:939 (H:m:s:ms)","GENERIC","62.063","0.05081377394505063","1060"
"20:21:36:969 (H:m:s:ms)","GENERIC","62.071","0.030123711865056104","1031"
"20:43:17:468 (H:m:s:ms)","OPERA","31.008","0.02637245109631031","532"
"20:21:43:30 (H:m:s:ms)","GENERIC","62.119","0.021618208500602264","969"
"20:21:49:90 (H:m:s:ms)","GENERIC","62.031","0.019474684362652275","944"
"20:43:20:0 (H:m:s:ms)","GENERIC","62.055","0.026207897524140725","1035"
"20:43:25:63 (H:m:s:ms)","OPERA","31.01","0.026207897524140725","936"
"20:21:55:151 (H:m:s:ms)","GENERIC","62.081","0.030011571842281756","848"
"20:43:26:60 (H:m:s:ms)","GENERIC","62.133","0.03919080576363703","939"
"20:22:1:212 (H:m:s:ms)","GENERIC","62.079","0.03334832995985132","787"
"20:43:32:121 (H:m:s:ms)","GENERIC","62.111","0.04224734287704253","878"
"20:22:7:272 (H:m:s:ms)","GENERIC","62.071","0.02513114844091378","727"
"20:43:32:658 (H:m:s:ms)","OPERA","31.009","0.034166666666666734","341"
"20:22:13:333 (H:m:s:ms)","GENERIC","62.045","0.00855234875905536","666"
"20:43:38:181 (H:m:s:ms)","GENERIC","62.055","0.018098022620621233","819"
"20:22:19:393 (H:m:s:ms)","GENERIC","62.121","0.02795084971874738","641"
"20:43:40:253 (H:m:s:ms)","OPERA","31.009","0.053212788701309084","746"
"20:22:25:454 (H:m:s:ms)","GENERIC","62.119","0.0074404761904761805","545"
"20:43:44:242 (H:m:s:ms)","GENERIC","62.091","0.05591011100583561","758"
"20:22:31:515 (H:m:s:ms)","GENERIC","62.109","0.011439589045541121","484"
"20:43:47:848 (H:m:s:ms)","OPERA","31.009","0.030929993458067327","153"
"20:22:37:575 (H:m:s:ms)","GENERIC","62.105","0.025021691978050698","424"
"20:43:50:303 (H:m:s:ms)","GENERIC","62.057","0.024848393135326302","696"
"20:22:43:636 (H:m:s:ms)","GENERIC","62.069","0.025015384616840778","364"
"20:22:49:696 (H:m:s:ms)","GENERIC","62.049","0.0343187671366233","338"
"20:43:55:443 (H:m:s:ms)","OPERA","31.009","0.03805238807592747","556"
"20:43:56:363 (H:m:s:ms)","GENERIC","62.027","0.04034593977087923","636"
"20:22:55:757 (H:m:s:ms)","GENERIC","62.083","0.05024937810560453","243"
"20:44:2:424 (H:m:s:ms)","GENERIC","62.059","0.012774005157202417","575"
"20:23:1:818 (H:m:s:ms)","GENERIC","62.141","0.020191979828206946","181"
"20:44:3:37 (H:m:s:ms)","OPERA","31.009","0.05178572738287006","963"
"20:23:7:878 (H:m:s:ms)","GENERIC","62.033","0.012535549307470138","1122"
"20:44:8:484 (H:m:s:ms)","GENERIC","62.087","0.05738518140797439","515"
"20:23:13:939 (H:m:s:ms)","GENERIC","62.083","0.014623517280499269","1061"
"20:44:10:632 (H:m:s:ms)","OPERA","31.009","0.057270243661116854","368"
"20:23:20:0 (H:m:s:ms)","GENERIC","62.081","0.021646125954690308","1035"
"20:44:14:545 (H:m:s:ms)","GENERIC","62.027","0.05085801113042721","455"
"20:23:26:60 (H:m:s:ms)","GENERIC","62.089","0.05005665724197322","939"
"20:44:18:227 (H:m:s:ms)","OPERA","31.008","0.02659342356166627","772"
"20:23:32:121 (H:m:s:ms)","GENERIC","62.091","0.02501999200639374","878"
"20:44:20:606 (H:m:s:ms)","GENERIC","62.103","0.03436789997637581","393"
"20:23:38:181 (H:m:s:ms)","GENERIC","62.105","0.019071739298223044","818"
"20:44:25:822 (H:m:s:ms)","OPERA","31.009","0.05541969708720261","178"
"20:23:44:242 (H:m:s:ms)","GENERIC","62.067","0.014396888836247432","757"
"20:23:50:303 (H:m:s:ms)","GENERIC","62.087","0.05008643048801884","697"
"20:44:26:666 (H:m:s:ms)","GENERIC","62.127","0.05612497500398577","333"
"20:44:32:727 (H:m:s:ms)","GENERIC","62.067","0.017179606773406953","272"
"20:23:56:363 (H:m:s:ms)","GENERIC","62.049","0.01359959483189987","636"
"20:44:33:417 (H:m:s:ms)","OPERA","31.01","0.052837806501888414","582"
"20:24:2:424 (H:m:s:ms)","GENERIC","62.055","0.0067814237263448636","575"
"20:44:38:787 (H:m:s:ms)","GENERIC","62.065","0.05276238271848924","382"
"20:24:8:484 (H:m:s:ms)","GENERIC","62.099","0.05002971768464455","516"
"20:44:41:12 (H:m:s:ms)","OPERA","31.009","0.03015323580197425","987"
"20:24:14:545 (H:m:s:ms)","GENERIC","62.033","0.05153882032022087","455"
"20:44:44:848 (H:m:s:ms)","GENERIC","62.079","0.03007627911870956","152"
"20:24:20:606 (H:m:s:ms)","GENERIC","62.129","0.020030840419244394","394"
"20:44:48:607 (H:m:s:ms)","OPERA","31.008","0.05268201743419111","392"
"20:24:26:666 (H:m:s:ms)","GENERIC","62.147","0.05001928640380313","333"
"20:44:50:909 (H:m:s:ms)","GENERIC","62.073","0.050670485828000655","1090"
"20:24:32:727 (H:m:s:ms)","GENERIC","31.028","0.009316949906249141","272"
"20:44:56:202 (H:m:s:ms)","OPERA","31.009","0.050670485828000655","797"
"20:24:38:787 (H:m:s:ms)","GENERIC","62.057","0.012535549307470138","214"
"20:44:56:969 (H:m:s:ms)","GENERIC","62.045","0.05064438607252709","1030"
"20:24:44:848 (H:m:s:ms)","GENERIC","62.069","0.02719918966379974","151"
"20:24:50:909 (H:m:s:ms)","GENERIC","62.051","0.0131761569173683","1090"
"20:45:3:30 (H:m:s:ms)","GENERIC","62.025","0.009399363602226728","969"
"20:45:3:797 (H:m:s:ms)","OPERA","31.009","0.019258003630000825","202"
"20:24:56:969 (H:m:s:ms)","GENERIC","62.049","0.014784345430423892","1031"
"20:45:9:90 (H:m:s:ms)","GENERIC","62.111","0.01955573311156771","945"
"20:25:3:30 (H:m:s:ms)","GENERIC","62.031","0.025094339957859223","969"
"20:45:11:392 (H:m:s:ms)","OPERA","31.009","0.03928215423239668","615"
"20:25:9:90 (H:m:s:ms)","GENERIC","62.069","0.012804922857351266","944"
"20:45:15:151 (H:m:s:ms)","GENERIC","62.065","0.04227929955706421","848"
"20:25:15:151 (H:m:s:ms)","GENERIC","62.089","0.02507385540462563","848"
"20:45:18:987 (H:m:s:ms)","OPERA","31.008","0.04227929955706421","1057"
"20:25:21:212 (H:m:s:ms)","GENERIC","62.093","0.02239903468354907","787"
"20:45:21:212 (H:m:s:ms)","GENERIC","62.085","0.04076036710570619","787"
"20:25:27:272 (H:m:s:ms)","GENERIC","62.093","0.02006932429798719","728"
"20:45:26:582 (H:m:s:ms)","OPERA","31.009","0.054701808307110286","418"
"20:25:33:333 (H:m:s:ms)","GENERIC","62.043","0.016866127115895642","666"
"20:45:27:272 (H:m:s:ms)","GENERIC","62.073","0.0582159745557759","727"
"20:25:39:393 (H:m:s:ms)","GENERIC","62.065","0.012525987554039608","641"
"20:45:33:333 (H:m:s:ms)","GENERIC","62.041","0.03334447891349364","667"
"20:25:45:454 (H:m:s:ms)","GENERIC","62.207","0.030121497338266506","546"
"20:25:51:515 (H:m:s:ms)","GENERIC","62.089","0.02161466264898719","485"
"20:25:57:575 (H:m:s:ms)","GENERIC","62.081","0.008426561840065298","425"
"20:26:3:636 (H:m:s:ms)","GENERIC","62.097","0.03382890974861232","364"
"20:26:9:696 (H:m:s:ms)","GENERIC","62.127","0.022360679774997946","338"
"20:26:15:757 (H:m:s:ms)","GENERIC","62.069","0.030197526495077755","242"
"20:26:21:818 (H:m:s:ms)","GENERIC","62.135","0.03064412668032815","181"
"20:26:27:878 (H:m:s:ms)","GENERIC","31.008","0.008784104611578848","134"
"20:26:33:939 (H:m:s:ms)","GENERIC","62.123","0.014746746169902073","1061"
"20:26:40:0 (H:m:s:ms)","GENERIC","62.025","0.01023356721386073","1036"
"20:26:46:60 (H:m:s:ms)","GENERIC","62.043","0.02338961945969607","939"
"20:26:52:121 (H:m:s:ms)","GENERIC","62.099","0.010671873729054756","878"
"20:26:58:181 (H:m:s:ms)","GENERIC","62.071","0.02501921599053903","818"
"20:27:4:242 (H:m:s:ms)","GENERIC","62.039","0.02213702489044669","759"
"20:27:10:303 (H:m:s:ms)","GENERIC","62.079","0.021566931015923285","696"
"20:27:16:363 (H:m:s:ms)","GENERIC","62.065","0.009491201618513084","637"
"20:27:22:424 (H:m:s:ms)","GENERIC","62.087","0.006907461113255877","576"
"20:27:28:484 (H:m:s:ms)","GENERIC","62.103","0.014099045403340112","515"
"20:27:34:545 (H:m:s:ms)","GENERIC","62.065","0.030053099266301904","454"
"20:27:40:606 (H:m:s:ms)","GENERIC","62.023","0.0500297176846446","393"
"20:27:46:666 (H:m:s:ms)","GENERIC","62.099","0.011439589045541121","333"
"20:27:52:727 (H:m:s:ms)","GENERIC","62.115","0.020191979828206984","272"
"20:27:58:787 (H:m:s:ms)","GENERIC","62.053","0.03340414658439457","212"
"20:28:4:848 (H:m:s:ms)","GENERIC","62.041","0.016835875742536886","152"
"20:28:10:909 (H:m:s:ms)","GENERIC","62.109","0.016007810593582125","1091"
"20:28:16:969 (H:m:s:ms)","GENERIC","62.091","0.045069390943299946","1031"
"20:28:23:30 (H:m:s:ms)","GENERIC","62.057","0.03655285366576887","970"
"20:28:29:90 (H:m:s:ms)","GENERIC","62.117","0.051538820320220814","942"
"20:28:35:151 (H:m:s:ms)","GENERIC","62.115","0.025253813613805375","850"
"20:28:41:212 (H:m:s:ms)","GENERIC","62.023","0.03480102169636858","788"
"20:28:47:272 (H:m:s:ms)","GENERIC","62.045","0.02505033984458206","727"
"20:28:53:333 (H:m:s:ms)","GENERIC","62.075","0.055901699437494866","666"
"20:28:59:393 (H:m:s:ms)","GENERIC","62.141","0.01682091159937464","640"
"20:29:5:454 (H:m:s:ms)","GENERIC","62.107","0.01699673171197601","545"
"20:29:11:515 (H:m:s:ms)","GENERIC","62.083","0.019436506316151056","484"
"20:29:17:575 (H:m:s:ms)","GENERIC","62.079","0.05000629841912201","425"
"20:29:23:636 (H:m:s:ms)","GENERIC","62.047","0.00632079871851765","363"
"20:29:29:696 (H:m:s:ms)","GENERIC","62.027","0.013078337027630274","338"
"20:29:35:757 (H:m:s:ms)","GENERIC","62.105","0.025025813119937883","243"
"20:29:41:818 (H:m:s:ms)","GENERIC","62.097","0.016847092906522424","181"
"20:29:47:878 (H:m:s:ms)","GENERIC","62.053","0.016322025072249925","1121"
"20:29:53:939 (H:m:s:ms)","GENERIC","62.059","0.05012738874149379","1060"
"22:10:0:0 (H:m:s:ms)","AMBULANCE","31.01","0.02145285310370277","1009"
"21:20:6:60 (H:m:s:ms)","GENERIC","62.147","0.052201532544552814","939"
"21:20:7:594 (H:m:s:ms)","OPERA","31.009","0.05483264779418434","406"
"21:20:12:121 (H:m:s:ms)","GENERIC","62.065","0.02733371150024974","879"
"21:20:18:181 (H:m:s:ms)","GENERIC","62.129","0.014553270492771617","818"
"21:20:22:784 (H:m:s:ms)","OPERA","62.015","0.05205497835787402","215"
"21:20:24:242 (H:m:s:ms)","GENERIC","62.067","0.05438633585506933","759"
"21:20:30:303 (H:m:s:ms)","GENERIC","62.079","0.05009756106837957","696"
"21:20:30:379 (H:m:s:ms)","OPERA","62.015","0.05159902761374444","621"
"21:20:36:363 (H:m:s:ms)","GENERIC","62.061","0.016134795711537853","636"
"21:20:37:974 (H:m:s:ms)","OPERA","31.009","0.03704249418303987","1026"
"21:20:42:424 (H:m:s:ms)","GENERIC","62.087","0.03458523954302467","576"
"21:20:45:569 (H:m:s:ms)","OPERA","31.009","0.03530487274258973","430"
"21:20:48:484 (H:m:s:ms)","GENERIC","62.201","0.03537033870144348","515"
"21:20:53:164 (H:m:s:ms)","OPERA","31.009","0.050879890533964106","836"
"21:20:54:545 (H:m:s:ms)","GENERIC","62.085","0.053393539251737655","454"
"21:21:0:606 (H:m:s:ms)","GENERIC","62.031","0.02523136739906203","393"
"21:21:0:759 (H:m:s:ms)","OPERA","31.01","0.05046273479812406","241"
"21:21:6:666 (H:m:s:ms)","GENERIC","62.027","0.02516586986212006","333"
"21:21:8:354 (H:m:s:ms)","OPERA","62.015","0.055875008453855145","646"
"21:21:12:727 (H:m:s:ms)","GENERIC","62.101","0.05049428014147631","272"
"21:32:43:636 (H:m:s:ms)","GENERIC","62.057","0.03006157389179856","363"
"21:32:31:515 (H:m:s:ms)","GENERIC","62.055","0.02002065049595024","484"
"21:32:25:454 (H:m:s:ms)","GENERIC","62.079","0.03338876062334734","545"
"21:32:19:393 (H:m:s:ms)","GENERIC","62.095","0.03125000000000001","642"
"21:32:13:333 (H:m:s:ms)","GENERIC","62.107","0.02501848429088024","666"
"21:32:7:272 (H:m:s:ms)","GENERIC","62.143","0.03557716840253451","727"
"21:32:6:315 (H:m:s:ms)","AMBULANCE","31.029","0.030770626910970197","692"
"21:32:1:212 (H:m:s:ms)","GENERIC","62.069","0.017800007802744915","787"
"21:21:15:949 (H:m:s:ms)","OPERA","62.015","0.05072812765673786","1050"
"21:31:55:151 (H:m:s:ms)","GENERIC","62.067","0.034166666666666734","855"
"21:21:18:787 (H:m:s:ms)","GENERIC","31.015","0.05122704814873065","212"
"21:21:23:544 (H:m:s:ms)","OPERA","62.015","0.05109663074362798","455"
"21:21:24:848 (H:m:s:ms)","GENERIC","62.051","0.0524153903324775","152"
"21:21:30:909 (H:m:s:ms)","GENERIC","62.091","0.025913077843162345","1090"
"21:21:31:139 (H:m:s:ms)","OPERA","62.013","0.056697979293203936","861"
"21:21:36:969 (H:m:s:ms)","GENERIC","62.119","0.030055045917848192","1030"
"21:21:38:734 (H:m:s:ms)","OPERA","31.009","0.058422076669004515","266"
"21:32:37:894 (H:m:s:ms)","AMBULANCE","31.022","0.043631117393566336","138"
"21:21:43:30 (H:m:s:ms)","GENERIC","62.097","0.07072883710017626","969"
"21:32:37:575 (H:m:s:ms)","GENERIC","62.067","0.037514464802852344","425"
"21:21:46:329 (H:m:s:ms)","OPERA","62.013","0.07094911219667493","670"
"21:33:41:52 (H:m:s:ms)","AMBULANCE","31.033","0.019661193890336524","952"
"21:33:38:181 (H:m:s:ms)","GENERIC","62.063","0.018098022620621233","819"
"21:33:26:60 (H:m:s:ms)","GENERIC","62.043","0.020019227445844962","939"
"21:33:20:0 (H:m:s:ms)","GENERIC","62.046","0.00855234875905536","1033"
"21:33:13:939 (H:m:s:ms)","GENERIC","62.025","0.023770774018301084","1061"
"21:33:9:473 (H:m:s:ms)","AMBULANCE","31.009","0.029025746168597082","565"
"21:33:7:878 (H:m:s:ms)","GENERIC","62.047","0.02515384760593733","1122"
"21:33:1:818 (H:m:s:ms)","GENERIC","62.171","0.02042941778688544","181"
"21:21:49:90 (H:m:s:ms)","GENERIC","62.055","0.0550287118915121","944"
"21:32:55:757 (H:m:s:ms)","GENERIC","62.107","0.020833333333333353","242"
"21:21:53:924 (H:m:s:ms)","OPERA","62.015","0.025708466225789237","1076"
"21:32:49:696 (H:m:s:ms)","GENERIC","62.043","0.025025813119937852","337"
"21:21:55:151 (H:m:s:ms)","GENERIC","62.075","0.024684457884887556","849"
"21:22:1:212 (H:m:s:ms)","GENERIC","62.065","0.03462660445540565","788"
"21:22:1:518 (H:m:s:ms)","OPERA","62.013","0.06073109388597266","483"
"21:22:7:272 (H:m:s:ms)","GENERIC","62.127","0.01671590360308377","727"
"21:22:9:113 (H:m:s:ms)","OPERA","62.015","0.05265285276437528","920"
"21:22:13:333 (H:m:s:ms)","GENERIC","62.097","0.05264605840368106","666"
"21:22:16:708 (H:m:s:ms)","OPERA","31.009","0.02366250654623606","291"
"21:22:19:393 (H:m:s:ms)","GENERIC","62.105","0.02651731035502178","649"
"21:33:32:121 (H:m:s:ms)","GENERIC","62.107","0.050097561068379634","878"
"21:34:38:787 (H:m:s:ms)","GENERIC","62.041","0.05011608425272731","213"
"21:34:32:727 (H:m:s:ms)","GENERIC","31.011","0.03352411390554465","274"
"21:34:26:666 (H:m:s:ms)","GENERIC","62.093","0.05000889917244749","333"
"21:34:20:606 (H:m:s:ms)","GENERIC","62.139","0.020030840419244394","394"
"21:34:14:545 (H:m:s:ms)","GENERIC","62.023","0.023553415429519126","455"
"21:34:12:631 (H:m:s:ms)","AMBULANCE","31.019","0.024345235204530816","406"
"21:34:8:484 (H:m:s:ms)","GENERIC","62.123","0.017800007802744863","516"
"21:34:2:424 (H:m:s:ms)","GENERIC","62.059","0.018933771619945","575"
"21:22:24:303 (H:m:s:ms)","OPERA","31.009","0.03980154522769893","697"
"21:33:56:363 (H:m:s:ms)","GENERIC","62.073","0.02145098697614235","636"
"21:22:25:454 (H:m:s:ms)","GENERIC","62.093","0.06054018236398863","545"
"21:33:50:303 (H:m:s:ms)","GENERIC","62.113","0.033347747748421475","696"
"21:1:49:90 (H:m:s:ms)","GENERIC","62.023","0.01691006839794387","949"
"21:22:31:515 (H:m:s:ms)","GENERIC","62.073","0.011439589045541121","484"
"21:33:44:242 (H:m:s:ms)","GENERIC","62.045","0.01145093884486185","759"
"21:1:55:151 (H:m:s:ms)","GENERIC","62.099","0.03022775911517132","848"
"21:22:31:898 (H:m:s:ms)","OPERA","62.015","0.051354363271891794","1102"
"21:2:1:212 (H:m:s:ms)","GENERIC","62.053","0.05038911092686614","787"
"21:22:37:575 (H:m:s:ms)","GENERIC","62.089","0.05451430921128753","424"
"21:2:6:315 (H:m:s:ms)","AMBULANCE","31.026","0.05351863192262972","686"
"21:22:39:493 (H:m:s:ms)","OPERA","62.015","0.03984517499745364","540"
"21:2:7:272 (H:m:s:ms)","GENERIC","62.099","0.024807159591377862","727"
"21:22:43:636 (H:m:s:ms)","GENERIC","62.059","0.04175530987055968","363"
"21:2:13:333 (H:m:s:ms)","GENERIC","62.075","0.03480102169636858","667"
"21:22:47:88 (H:m:s:ms)","OPERA","62.015","0.03538250527538643","912"
"21:2:19:393 (H:m:s:ms)","GENERIC","62.123","0.033377893323520945","644"
"21:22:49:696 (H:m:s:ms)","GENERIC","62.041","0.04192597027602843","338"
"21:2:25:454 (H:m:s:ms)","GENERIC","62.095","0.016777246574746725","547"
"21:22:54:683 (H:m:s:ms)","OPERA","62.013","0.03440964131881585","316"
"21:2:31:515 (H:m:s:ms)","GENERIC","62.081","0.020757268546966023","484"
"21:2:37:575 (H:m:s:ms)","GENERIC","62.097","0.012543327686241997","424"
"21:35:33:333 (H:m:s:ms)","GENERIC","62.095","0.050007431076804144","666"
"21:35:27:272 (H:m:s:ms)","GENERIC","62.077","0.010034662148993595","728"
"21:35:21:212 (H:m:s:ms)","GENERIC","62.043","0.015703971279218045","787"
"21:35:15:789 (H:m:s:ms)","AMBULANCE","31.019","0.0713476790565976","457"
"21:35:15:151 (H:m:s:ms)","GENERIC","62.019","0.05000924470748413","1071"
"21:35:9:90 (H:m:s:ms)","GENERIC","62.077","0.015023130314433326","942"
"21:35:3:30 (H:m:s:ms)","GENERIC","62.061","0.05004723666617993","969"
"21:22:55:757 (H:m:s:ms)","GENERIC","62.089","0.010191874210828532","243"
"21:34:56:969 (H:m:s:ms)","GENERIC","62.041","0.010416666666666703","1031"
"21:23:1:818 (H:m:s:ms)","GENERIC","62.147","0.010833333333333335","181"
"21:34:50:909 (H:m:s:ms)","GENERIC","62.077","0.030057101578182806","1090"
"21:2:37:894 (H:m:s:ms)","AMBULANCE","31.044","0.02211765193887501","108"
"21:23:2:278 (H:m:s:ms)","OPERA","62.015","0.05123418321993077","721"
"21:34:44:848 (H:m:s:ms)","GENERIC","62.063","0.05470700112544445","198"
"21:2:43:636 (H:m:s:ms)","GENERIC","62.037","0.02009224290247538","364"
"21:23:7:878 (H:m:s:ms)","GENERIC","62.053","0.02515384760593733","1122"
"21:34:44:210 (H:m:s:ms)","AMBULANCE","31.017","0.021951296326887845","836"
"21:2:49:696 (H:m:s:ms)","GENERIC","31.023","0.01813279310919981","392"
"21:23:9:873 (H:m:s:ms)","OPERA","31.009","0.035538167796611564","160"
"21:2:55:757 (H:m:s:ms)","GENERIC","62.055","0.03560001560548975","243"
"21:23:13:939 (H:m:s:ms)","GENERIC","62.041","0.03315871563659569","1060"
"21:3:1:818 (H:m:s:ms)","GENERIC","62.111","0.030128326362124994","181"
"21:23:17:468 (H:m:s:ms)","OPERA","62.015","0.05448959863584596","532"
"21:3:7:878 (H:m:s:ms)","GENERIC","62.077","0.02515384760593733","1121"
"21:23:20:0 (H:m:s:ms)","GENERIC","62.031","0.05444384681789193","1034"
"21:3:9:473 (H:m:s:ms)","AMBULANCE","31.016","0.02809750671283108","655"
"21:23:25:63 (H:m:s:ms)","OPERA","31.009","0.054394661517559444","936"
"21:3:13:939 (H:m:s:ms)","GENERIC","62.055","0.025011278161914327","1061"
"21:23:26:60 (H:m:s:ms)","GENERIC","62.061","0.05589540497434376","940"
"21:3:20:0 (H:m:s:ms)","GENERIC","62.025","0.007428683560490318","1039"
"21:3:26:60 (H:m:s:ms)","GENERIC","62.105","0.025113122749677495","939"
"21:36:33:939 (H:m:s:ms)","GENERIC","31.023","0.025120644132331126","1061"
"21:36:27:878 (H:m:s:ms)","GENERIC","62.043","0.007796539819898649","1121"
"21:36:21:818 (H:m:s:ms)","GENERIC","62.107","0.03896099738325207","181"
"21:36:18:947 (H:m:s:ms)","AMBULANCE","31.034","0.029597838346982205","1093"
"21:36:15:757 (H:m:s:ms)","GENERIC","62.065","0.020295088233878864","242"
"21:36:9:696 (H:m:s:ms)","GENERIC","62.093","0.04242640687119266","337"
"21:23:32:121 (H:m:s:ms)","GENERIC","62.119","0.0250738554046257","878"
"21:36:3:636 (H:m:s:ms)","GENERIC","62.097","0.03355449314949345","364"
"21:23:32:658 (H:m:s:ms)","OPERA","62.015","0.03548200712697008","342"
"21:35:57:575 (H:m:s:ms)","GENERIC","62.077","0.01671347593344301","424"
"21:3:32:121 (H:m:s:ms)","GENERIC","62.115","0.025165869862120126","878"
"21:23:38:181 (H:m:s:ms)","GENERIC","62.043","0.009049011310310617","819"
"21:35:51:515 (H:m:s:ms)","GENERIC","62.045","0.014409775099324675","485"
"21:3:38:181 (H:m:s:ms)","GENERIC","62.021","0.018098022620621233","818"
"21:23:40:253 (H:m:s:ms)","OPERA","62.015","0.011464005805570346","746"
"21:35:45:454 (H:m:s:ms)","GENERIC","62.119","0.010358793457695569","545"
"21:3:41:52 (H:m:s:ms)","AMBULANCE","31.021","0.053212788701309084","947"
"21:23:44:242 (H:m:s:ms)","GENERIC","62.049","0.026196158411966486","759"
"21:35:39:393 (H:m:s:ms)","GENERIC","62.037","0.0191224580736311","640"
"21:3:44:242 (H:m:s:ms)","GENERIC","62.053","0.06335184687814512","758"
"21:23:47:848 (H:m:s:ms)","OPERA","62.015","0.03551840941747104","152"
"21:3:50:303 (H:m:s:ms)","GENERIC","62.063","0.03339095365867922","697"
"21:23:50:303 (H:m:s:ms)","GENERIC","62.095","0.030078135539243937","697"
"21:3:56:363 (H:m:s:ms)","GENERIC","62.035","0.014419650057404748","636"
"21:23:55:443 (H:m:s:ms)","OPERA","62.015","0.03795316437194236","556"
"21:4:2:424 (H:m:s:ms)","GENERIC","62.057","0.025769410160110483","576"
"21:23:56:363 (H:m:s:ms)","GENERIC","62.053","0.04257089471205327","637"
"21:4:8:484 (H:m:s:ms)","GENERIC","62.121","0.02083333333333334","516"
"21:24:2:424 (H:m:s:ms)","GENERIC","62.075","0.00658807845868415","576"
"21:4:12:631 (H:m:s:ms)","AMBULANCE","31.025","0.0326501729882356","371"
"21:4:14:545 (H:m:s:ms)","GENERIC","62.061","0.030217969037079663","454"
"21:37:28:484 (H:m:s:ms)","GENERIC","62.111","0.01323456050204998","516"
"21:37:22:424 (H:m:s:ms)","GENERIC","62.043","0.02606294385358467","624"
"21:37:22:105 (H:m:s:ms)","AMBULANCE","31.015","0.01813279310919981","943"
"21:37:16:363 (H:m:s:ms)","GENERIC","62.057","0.007466344894516337","636"
"21:37:10:303 (H:m:s:ms)","GENERIC","62.039","0.01813279310919981","697"
"21:37:4:242 (H:m:s:ms)","GENERIC","62.077","0.05007432492334711","758"
"21:24:3:37 (H:m:s:ms)","OPERA","62.015","0.034312029908278203","962"
"21:24:8:484 (H:m:s:ms)","GENERIC","62.131","0.047301296885157995","515"
"21:36:58:181 (H:m:s:ms)","GENERIC","62.095","0.02501921599053903","818"
"21:4:20:606 (H:m:s:ms)","GENERIC","62.111","0.05030769521187458","394"
"21:24:10:632 (H:m:s:ms)","OPERA","62.015","0.060431268326293794","368"
"21:36:52:121 (H:m:s:ms)","GENERIC","62.093","0.05362677609383393","879"
"21:4:26:666 (H:m:s:ms)","GENERIC","62.103","0.053400023408234604","334"
"21:24:14:545 (H:m:s:ms)","GENERIC","62.039","0.06044380351872574","455"
"21:36:50:526 (H:m:s:ms)","AMBULANCE","31.019","0.07231782692014645","511"
"21:4:32:727 (H:m:s:ms)","GENERIC","62.047","0.02515384760593733","272"
"21:24:18:227 (H:m:s:ms)","OPERA","62.015","0.06002949295061019","772"
"21:36:46:60 (H:m:s:ms)","GENERIC","62.085","0.05153882032022093","940"
"21:4:38:787 (H:m:s:ms)","GENERIC","62.033","0.019813472591777716","251"
"21:24:20:606 (H:m:s:ms)","GENERIC","62.131","0.0725154010481088","393"
"21:36:40:0 (H:m:s:ms)","GENERIC","62.029","0.025294127765319127","1035"
"21:4:44:210 (H:m:s:ms)","AMBULANCE","31.025","0.05005665724197311","792"
"21:24:25:822 (H:m:s:ms)","OPERA","62.015","0.062236294024800076","177"
"21:4:44:848 (H:m:s:ms)","GENERIC","62.065","0.0624959546999281","154"
"21:24:26:666 (H:m:s:ms)","GENERIC","62.113","0.0599942942035527","333"
"21:4:50:909 (H:m:s:ms)","GENERIC","62.083","0.0072048875496623374","1091"
"21:24:32:727 (H:m:s:ms)","GENERIC","62.033","0.03352411390554465","302"
"21:4:56:969 (H:m:s:ms)","GENERIC","62.045","0.012543327686242015","1031"
"21:24:33:417 (H:m:s:ms)","OPERA","62.015","0.03836262334330361","582"
"21:5:3:30 (H:m:s:ms)","GENERIC","62.041","0.01722444104928224","970"
"21:5:9:90 (H:m:s:ms)","GENERIC","62.091","0.01895464453327251","947"
"21:38:25:263 (H:m:s:ms)","AMBULANCE","31.021","0.07132510453098012","754"
"21:38:23:30 (H:m:s:ms)","GENERIC","62.073","0.05099019513592793","969"
"21:38:16:969 (H:m:s:ms)","GENERIC","62.061","0.025086655372484005","1030"
"21:38:10:909 (H:m:s:ms)","GENERIC","62.135","0.023584952830141514","1090"
"21:38:4:848 (H:m:s:ms)","GENERIC","62.029","0.01904399147004411","152"
"21:37:58:787 (H:m:s:ms)","GENERIC","62.057","0.03013405285403118","212"
"21:37:53:684 (H:m:s:ms)","AMBULANCE","31.033","0.03355595210659102","319"
"21:24:38:787 (H:m:s:ms)","GENERIC","62.025","0.03140094808633041","212"
"21:24:41:12 (H:m:s:ms)","OPERA","62.015","0.031083839969712056","987"
"21:5:15:151 (H:m:s:ms)","GENERIC","62.029","0.025186724586117374","849"
"21:24:44:848 (H:m:s:ms)","GENERIC","62.059","0.05319976131079856","152"
"21:5:15:789 (H:m:s:ms)","AMBULANCE","31.017","0.05609504836373906","214"
"21:24:48:607 (H:m:s:ms)","OPERA","62.013","0.05358877723466305","392"
"21:37:52:727 (H:m:s:ms)","GENERIC","62.065","0.022321428571428707","272"
"20:45:34:177 (H:m:s:ms)","OPERA","31.008","0.037536718807342905","823"
"21:5:21:212 (H:m:s:ms)","GENERIC","62.063","0.024807935695446134","788"
"21:24:50:909 (H:m:s:ms)","GENERIC","62.069","0.02420371559265314","1090"
"21:37:46:666 (H:m:s:ms)","GENERIC","62.055","0.021448566672150653","333"
"20:45:39:393 (H:m:s:ms)","GENERIC","62.057","0.021406678244523324","643"
"21:5:27:272 (H:m:s:ms)","GENERIC","62.063","0.030103986446980653","727"
"21:24:56:202 (H:m:s:ms)","OPERA","62.015","0.05206814515082647","798"
"21:37:40:606 (H:m:s:ms)","GENERIC","62.065","0.050007431076804144","394"
"20:45:41:772 (H:m:s:ms)","OPERA","31.009","0.022119229658845007","228"
"21:5:33:333 (H:m:s:ms)","GENERIC","62.059","0.050066839985281476","666"
"21:24:56:969 (H:m:s:ms)","GENERIC","62.025","0.05750683139070783","1031"
"21:37:34:545 (H:m:s:ms)","GENERIC","62.091","0.030119341707579718","454"
"20:45:45:454 (H:m:s:ms)","GENERIC","62.175","0.03508171805898067","545"
"21:5:39:393 (H:m:s:ms)","GENERIC","62.025","0.05000924470748416","646"
"21:25:3:30 (H:m:s:ms)","GENERIC","62.077","0.010135505321052516","969"
"20:45:49:367 (H:m:s:ms)","OPERA","31.009","0.045031312475060634","676"
"21:5:45:454 (H:m:s:ms)","GENERIC","62.139","0.0201817888676697","545"
"21:25:3:797 (H:m:s:ms)","OPERA","31.009","0.0163966278237034","203"
"20:45:51:515 (H:m:s:ms)","GENERIC","62.111","0.03989462627663185","484"
"21:5:47:368 (H:m:s:ms)","AMBULANCE","31.034","0.021112538435228288","668"
"21:25:9:90 (H:m:s:ms)","GENERIC","62.063","0.013122446215342483","943"
"20:45:56:962 (H:m:s:ms)","OPERA","31.009","0.018276426832884447","1037"
"21:5:51:515 (H:m:s:ms)","GENERIC","62.083","0.009003162717710152","485"
"20:45:57:575 (H:m:s:ms)","GENERIC","62.057","0.024955834103048778","424"
"21:5:57:575 (H:m:s:ms)","GENERIC","62.087","0.017083333333333357","424"
"20:46:3:636 (H:m:s:ms)","GENERIC","62.095","0.03338876062334734","364"
"20:46:4:556 (H:m:s:ms)","OPERA","31.009","0.03853561718588026","444"
"21:39:23:636 (H:m:s:ms)","GENERIC","62.147","0.006860937833862678","363"
"21:39:17:575 (H:m:s:ms)","GENERIC","62.081","0.006945879098822847","425"
"21:39:11:515 (H:m:s:ms)","GENERIC","62.101","0.019436506316151056","484"
"21:39:5:454 (H:m:s:ms)","GENERIC","62.093","0.01740051084818431","545"
"21:38:59:393 (H:m:s:ms)","GENERIC","62.053","0.022127508822823553","641"
"21:38:56:842 (H:m:s:ms)","AMBULANCE","31.017","0.020867406519398914","203"
"21:38:53:333 (H:m:s:ms)","GENERIC","62.055","0.00849304974992873","667"
"21:38:47:272 (H:m:s:ms)","GENERIC","62.061","0.03162277660168367","727"
"21:25:11:392 (H:m:s:ms)","OPERA","31.009","0.05189872897257812","614"
"21:25:15:151 (H:m:s:ms)","GENERIC","62.021","0.05287147174445868","850"
"21:6:3:636 (H:m:s:ms)","GENERIC","62.091","0.05014771080925138","363"
"21:25:18:987 (H:m:s:ms)","OPERA","62.013","0.05287147174445868","1051"
"21:6:9:696 (H:m:s:ms)","GENERIC","62.111","0.022360679774997946","342"
"21:25:21:212 (H:m:s:ms)","GENERIC","62.055","0.052216085048717054","788"
"20:46:9:696 (H:m:s:ms)","GENERIC","62.123","0.04088136639216515","340"
"21:6:15:757 (H:m:s:ms)","GENERIC","62.097","0.010577835620812402","242"
"21:25:26:582 (H:m:s:ms)","OPERA","31.008","0.05203675776550258","417"
"20:46:12:151 (H:m:s:ms)","OPERA","31.009","0.049582251230397806","848"
"21:6:18:947 (H:m:s:ms)","AMBULANCE","31.034","0.05117000328348973","1094"
"21:25:27:272 (H:m:s:ms)","GENERIC","62.063","0.05828689225756717","728"
"21:38:41:212 (H:m:s:ms)","GENERIC","62.041","0.019057397535509616","787"
"20:46:15:757 (H:m:s:ms)","GENERIC","62.081","0.04564728736590221","242"
"21:6:21:818 (H:m:s:ms)","GENERIC","62.145","0.052191678018891845","181"
"21:25:33:333 (H:m:s:ms)","GENERIC","62.093","0.01989992322709928","667"
"21:38:35:151 (H:m:s:ms)","GENERIC","62.041","0.04242640687119266","848"
"20:46:19:746 (H:m:s:ms)","OPERA","31.009","0.0393606824086449","291"
"21:6:27:878 (H:m:s:ms)","GENERIC","62.017","0.02152960638857962","1122"
"21:25:34:177 (H:m:s:ms)","OPERA","62.013","0.0235067548829188","822"
"21:38:29:90 (H:m:s:ms)","GENERIC","62.071","0.053682387548370986","945"
"20:46:21:818 (H:m:s:ms)","GENERIC","62.143","0.03284489227703034","181"
"21:6:33:939 (H:m:s:ms)","GENERIC","62.091","0.02146324494253933","1060"
"21:25:39:393 (H:m:s:ms)","GENERIC","62.027","0.021047195552186943","641"
"20:46:27:341 (H:m:s:ms)","OPERA","31.009","0.017045025075329033","658"
"21:6:40:0 (H:m:s:ms)","GENERIC","62.051","0.030078661837265954","1039"
"21:25:41:772 (H:m:s:ms)","OPERA","31.008","0.025243811903899835","227"
"20:46:27:878 (H:m:s:ms)","GENERIC","62.051","0.030219603489082543","1121"
"21:6:46:60 (H:m:s:ms)","GENERIC","62.057","0.05153882032022093","940"
"20:46:33:939 (H:m:s:ms)","GENERIC","62.129","0.01083333333333334","1060"
"21:6:50:526 (H:m:s:ms)","AMBULANCE","31.052","0.07201688802499048","476"
"20:46:40:0 (H:m:s:ms)","GENERIC","62.055","0.025657046277166102","1037"
"20:46:42:531 (H:m:s:ms)","OPERA","31.01","0.056582120346956026","468"
"21:39:35:757 (H:m:s:ms)","GENERIC","62.137","0.008718891351753513","242"
"21:40:12:121 (H:m:s:ms)","GENERIC","62.097","0.030013770944034807","878"
"21:40:6:60 (H:m:s:ms)","GENERIC","62.129","0.025609845714702498","939"
"21:40:0:0 (H:m:s:ms)","GENERIC","62.153","0.050768497066571515","1497"
"21:40:0:0 (H:m:s:ms)","GENERIC","62.089","0.04422070865859993","1497"
"21:40:0:0 (H:m:s:ms)","AMBULANCE","31.015","0.037510258163980646","1497"
"21:39:53:939 (H:m:s:ms)","GENERIC","62.033","0.050083140935020955","1061"
"21:39:47:878 (H:m:s:ms)","GENERIC","62.027","0.008872499038500715","1121"
"21:39:41:818 (H:m:s:ms)","GENERIC","62.063","0.05000924470748413","182"
"21:6:52:121 (H:m:s:ms)","GENERIC","62.099","0.059018777656135446","878"
"21:6:58:181 (H:m:s:ms)","GENERIC","62.043","0.02501921599053903","819"
"20:46:46:60 (H:m:s:ms)","GENERIC","62.053","0.052561230522048384","940"
"21:7:4:242 (H:m:s:ms)","GENERIC","62.053","0.05007432492334711","757"
"20:46:50:126 (H:m:s:ms)","OPERA","31.01","0.03667445295647549","873"
"21:7:10:303 (H:m:s:ms)","GENERIC","62.031","0.05001291155605785","696"
"20:46:52:121 (H:m:s:ms)","GENERIC","62.125","0.04729434553130743","879"
"21:7:16:363 (H:m:s:ms)","GENERIC","62.085","0.015703971279218045","637"
"20:46:57:721 (H:m:s:ms)","OPERA","31.008","0.04171416341078783","278"
"21:7:22:105 (H:m:s:ms)","AMBULANCE","31.046","0.025025813119937852","897"
"21:39:29:696 (H:m:s:ms)","GENERIC","62.029","0.04230646948971832","337"
"20:46:58:181 (H:m:s:ms)","GENERIC","62.029","0.026693113170275225","818"
"21:7:22:424 (H:m:s:ms)","GENERIC","62.071","0.028071650243896552","579"
"21:39:28:421 (H:m:s:ms)","AMBULANCE","31.026","0.020083243469263285","590"
"20:47:4:242 (H:m:s:ms)","GENERIC","62.025","0.027147033930931957","760"
"21:7:28:484 (H:m:s:ms)","GENERIC","62.071","0.025375255499845244","515"
"20:47:5:316 (H:m:s:ms)","OPERA","31.009","0.057011891776743394","683"
"21:7:34:545 (H:m:s:ms)","GENERIC","62.085","0.030041962757600287","455"
"20:47:10:303 (H:m:s:ms)","GENERIC","62.107","0.05071356232218294","697"
"21:7:40:606 (H:m:s:ms)","GENERIC","62.061","0.01416666666666669","393"
"20:47:12:911 (H:m:s:ms)","OPERA","31.009","0.020157643084305524","1089"
"20:47:16:363 (H:m:s:ms)","GENERIC","62.071","0.024518969866042316","637"
"21:7:46:666 (H:m:s:ms)","GENERIC","62.085","0.02160786252390796","333"
"21:7:52:727 (H:m:s:ms)","GENERIC","62.083","0.05005665724197318","273"
"20:47:20:506 (H:m:s:ms)","OPERA","31.009","0.052448397636205235","493"
"21:7:53:684 (H:m:s:ms)","AMBULANCE","31.024","0.07074901879355901","316"
"20:47:22:424 (H:m:s:ms)","GENERIC","62.083","0.05167339974867673","575"
"21:7:58:787 (H:m:s:ms)","GENERIC","62.049","0.06024807133742776","212"
"20:47:28:101 (H:m:s:ms)","OPERA","31.009","0.01273197855148951","898"
"21:8:4:848 (H:m:s:ms)","GENERIC","62.043","0.0073017869235640605","152"
"20:47:28:484 (H:m:s:ms)","GENERIC","62.073","0.039779895629717114","515"
"21:8:10:909 (H:m:s:ms)","GENERIC","62.159","0.008161012536124966","1090"
"20:47:34:545 (H:m:s:ms)","GENERIC","62.095","0.010125192656391805","454"
"21:8:16:969 (H:m:s:ms)","GENERIC","62.079","0.055901699437494866","1030"
"20:47:35:696 (H:m:s:ms)","OPERA","31.009","0.019602377755317524","304"
"21:8:23:30 (H:m:s:ms)","GENERIC","62.057","0.022422706745122846","969"
"21:40:18:181 (H:m:s:ms)","GENERIC","62.135","0.05030769521187458","818"
"20:47:40:606 (H:m:s:ms)","GENERIC","62.057","0.05270676329517954","393"
"21:8:25:263 (H:m:s:ms)","AMBULANCE","31.027","0.027993515939827306","739"
"20:47:43:291 (H:m:s:ms)","OPERA","31.009","0.0705978307274098","709"
"21:8:29:90 (H:m:s:ms)","GENERIC","62.059","0.02374205332496204","948"
"20:47:46:666 (H:m:s:ms)","GENERIC","62.079","0.05056741894792329","333"
"20:47:50:886 (H:m:s:ms)","OPERA","31.008","0.020180130965764907","113"
"21:8:35:151 (H:m:s:ms)","GENERIC","62.051","0.04242640687119266","848"
"21:8:41:212 (H:m:s:ms)","GENERIC","62.061","0.037592222703057065","787"
"20:47:52:727 (H:m:s:ms)","GENERIC","62.081","0.05338887697890318","273"
"21:8:47:272 (H:m:s:ms)","GENERIC","62.063","0.05000629841912201","727"
"20:47:58:481 (H:m:s:ms)","OPERA","31.009","0.034166666666666734","518"
"21:8:53:333 (H:m:s:ms)","GENERIC","62.021","0.025053691337013045","667"
"20:30:0:0 (H:m:s:ms)","GENERIC","62.071","0.023572104968650167","1034"
"20:47:58:787 (H:m:s:ms)","GENERIC","62.055","0.060767196621692394","212"
"21:8:56:842 (H:m:s:ms)","AMBULANCE","31.035","0.05582470094258758","159"
"20:30:0:0 (H:m:s:ms)","GENERIC","62.137","0.031122952467618197","1035"
"20:48:4:848 (H:m:s:ms)","GENERIC","62.015","0.016835875742536886","151"
"21:8:59:393 (H:m:s:ms)","GENERIC","62.085","0.07056799526742809","643"
"20:30:6:60 (H:m:s:ms)","GENERIC","62.137","0.025272859377696667","940"
"20:48:6:75 (H:m:s:ms)","OPERA","31.009","0.03760125934541051","925"
"21:9:5:454 (H:m:s:ms)","GENERIC","62.075","0.025118695029324484","546"
"20:30:12:121 (H:m:s:ms)","GENERIC","62.101","0.01532794279033964","927"
"20:48:10:909 (H:m:s:ms)","GENERIC","62.125","0.03979172421878367","1090"
"21:9:11:515 (H:m:s:ms)","GENERIC","62.127","0.058309518948453126","484"
"20:30:18:181 (H:m:s:ms)","GENERIC","62.115","0.01756820922315767","819"
"20:48:13:670 (H:m:s:ms)","OPERA","31.009","0.054784797688674114","329"
"21:9:17:575 (H:m:s:ms)","GENERIC","62.099","0.03765463983132032","424"
"20:30:24:242 (H:m:s:ms)","GENERIC","62.041","0.03349245260401924","758"
"20:48:16:969 (H:m:s:ms)","GENERIC","62.109","0.05444975312011694","1030"
"21:9:23:636 (H:m:s:ms)","GENERIC","62.117","0.0126415974370353","364"
"20:30:30:303 (H:m:s:ms)","GENERIC","62.087","0.050423536977144565","697"
"20:48:21:265 (H:m:s:ms)","OPERA","31.009","0.03231012913201234","734"
"20:30:36:363 (H:m:s:ms)","GENERIC","62.049","0.022004174001070617","636"
"20:48:23:30 (H:m:s:ms)","GENERIC","62.051","0.057812281160528015","969"
"20:30:42:424 (H:m:s:ms)","GENERIC","62.111","0.009049011310310617","575"
"20:30:48:484 (H:m:s:ms)","GENERIC","62.167","0.010416666666666666","515"
"21:9:28:421 (H:m:s:ms)","AMBULANCE","31.054","0.02100280329042826","578"
"21:9:29:696 (H:m:s:ms)","GENERIC","62.025","0.018005560437652474","338"
"20:48:28:860 (H:m:s:ms)","OPERA","31.009","0.05786661518918512","139"
"21:9:35:757 (H:m:s:ms)","GENERIC","62.135","0.012956538921581164","243"
"20:48:29:90 (H:m:s:ms)","GENERIC","62.087","0.05590351795453099","947"
"21:9:41:818 (H:m:s:ms)","GENERIC","62.121","0.008688567549813044","181"
"20:30:54:545 (H:m:s:ms)","GENERIC","62.143","0.050077101048111014","455"
"20:48:35:151 (H:m:s:ms)","GENERIC","62.085","0.025253813613805375","848"
"21:9:47:878 (H:m:s:ms)","GENERIC","62.051","0.05050762722761068","1121"
"20:31:0:606 (H:m:s:ms)","GENERIC","62.025","0.050127388741493736","393"
"20:48:36:455 (H:m:s:ms)","OPERA","31.009","0.03029035392236712","544"
"21:9:53:939 (H:m:s:ms)","GENERIC","62.067","0.02145285310370277","1061"
"20:31:6:666 (H:m:s:ms)","GENERIC","62.073","0.025083160312820176","333"
"20:48:41:212 (H:m:s:ms)","GENERIC","62.033","0.05477477233157113","788"
"21:10:0:0 (H:m:s:ms)","AMBULANCE","31.027","0.018276426832884447","1039"
"20:31:12:727 (H:m:s:ms)","GENERIC","62.077","0.021450986976142408","272"
"20:48:44:50 (H:m:s:ms)","OPERA","31.009","0.0641828064888185","950"
"21:10:0:0 (H:m:s:ms)","GENERIC","62.041","0.020555422118049827","1039"
"20:31:18:787 (H:m:s:ms)","GENERIC","62.079","0.02152553378543782","212"
"20:48:47:272 (H:m:s:ms)","GENERIC","62.073","0.04505412338252533","728"
"21:10:0:0 (H:m:s:ms)","GENERIC","62.111","0.028629418971521856","1040"
"20:31:24:848 (H:m:s:ms)","GENERIC","62.069","0.012862065792689175","152"
"20:48:51:645 (H:m:s:ms)","OPERA","31.009","0.03008105712081603","355"
"21:10:6:60 (H:m:s:ms)","GENERIC","62.143","0.01707323047646833","939"
"20:31:30:909 (H:m:s:ms)","GENERIC","62.107","0.025153847605937397","1091"
"20:48:53:333 (H:m:s:ms)","GENERIC","62.049","0.0189072263337407","666"
"20:31:36:969 (H:m:s:ms)","GENERIC","62.091","0.030055045917848192","1030"
"20:48:59:240 (H:m:s:ms)","OPERA","31.01","0.03333004172792739","869"
"20:31:43:30 (H:m:s:ms)","GENERIC","62.127","0.05011098792790975","969"
"20:31:49:90 (H:m:s:ms)","GENERIC","62.025","0.030342398669597415","943"
"20:48:59:393 (H:m:s:ms)","GENERIC","62.145","0.02213702489044669","715"
"20:49:5:454 (H:m:s:ms)","GENERIC","62.091","0.02162947508610727","545"
"20:31:55:151 (H:m:s:ms)","GENERIC","62.093","0.01143958904554113","850"
"20:49:6:835 (H:m:s:ms)","OPERA","31.01","0.04034593977087928","165"
"20:32:1:212 (H:m:s:ms)","GENERIC","62.079","0.017800007802744915","787"
"20:49:11:515 (H:m:s:ms)","GENERIC","62.111","0.035114607260625236","484"
"20:32:7:272 (H:m:s:ms)","GENERIC","62.069","0.025294127765319165","728"
"20:49:14:430 (H:m:s:ms)","OPERA","31.009","0.026321674860220422","570"
"20:32:13:333 (H:m:s:ms)","GENERIC","62.053","0.025165869862120074","667"
"20:49:17:575 (H:m:s:ms)","GENERIC","62.093","0.02580817410274324","424"
"20:32:19:393 (H:m:s:ms)","GENERIC","62.113","0.02051845375374189","640"
"20:49:22:25 (H:m:s:ms)","OPERA","31.008","0.014235148224485687","974"
"20:32:25:454 (H:m:s:ms)","GENERIC","62.109","0.05033173972424023","546"
"20:49:23:636 (H:m:s:ms)","GENERIC","62.085","0.022689741258220337","365"
"20:32:31:515 (H:m:s:ms)","GENERIC","62.097","0.030013770944034807","484"
"20:49:29:696 (H:m:s:ms)","GENERIC","62.055","0.037696722661370585","343"
"20:32:37:575 (H:m:s:ms)","GENERIC","62.103","0.021497821402984573","425"
"20:49:35:757 (H:m:s:ms)","GENERIC","62.131","0.014142135623730982","242"
"20:32:43:636 (H:m:s:ms)","GENERIC","62.057","0.012622514413296669","363"
"20:32:49:696 (H:m:s:ms)","GENERIC","62.031","0.019436506316151025","337"
"20:49:37:215 (H:m:s:ms)","OPERA","31.008","0.05214856049603886","785"
"20:49:41:818 (H:m:s:ms)","GENERIC","62.117","0.05090076141476238","182"
"20:32:55:757 (H:m:s:ms)","GENERIC","62.089","0.017400510848184267","243"
"20:49:44:810 (H:m:s:ms)","OPERA","31.009","0.05090076141476238","190"
"20:33:1:818 (H:m:s:ms)","GENERIC","62.119","0.02523136739906196","181"
"20:49:47:878 (H:m:s:ms)","GENERIC","62.067","0.050786061082965565","1121"
"20:33:7:878 (H:m:s:ms)","GENERIC","62.035","0.02095381826780029","1121"
"20:49:52:405 (H:m:s:ms)","OPERA","31.009","0.034246863943882225","595"
"20:33:13:939 (H:m:s:ms)","GENERIC","62.071","0.021482070607445135","1061"
"20:49:53:939 (H:m:s:ms)","GENERIC","31.029","0.04168495901482069","1062"
"20:33:20:0 (H:m:s:ms)","GENERIC","62.073","0.01669438031167365","1033"
"20:50:0:0 (H:m:s:ms)","OPERA","31.009","0.05011608425272731","1047"
"20:33:26:60 (H:m:s:ms)","GENERIC","62.113","0.05270462766947325","939"
"20:50:0:0 (H:m:s:ms)","GENERIC","62.031","0.07074779783281887","1047"
"20:33:32:121 (H:m:s:ms)","GENERIC","62.095","0.05000924470748427","878"
"20:50:0:0 (H:m:s:ms)","GENERIC","62.115","0.07139342674884604","1048"
"20:33:38:181 (H:m:s:ms)","GENERIC","62.079","0.021951296326887845","818"
"20:50:6:60 (H:m:s:ms)","GENERIC","62.141","0.012816394499239193","939"
"20:33:44:242 (H:m:s:ms)","GENERIC","62.089","0.025253813613805326","757"
"20:33:50:303 (H:m:s:ms)","GENERIC","62.069","0.03346283954093337","696"
"20:50:12:121 (H:m:s:ms)","GENERIC","62.043","0.050083140935020955","878"
"20:50:18:181 (H:m:s:ms)","GENERIC","62.101","0.03726779962499652","819"
"20:33:56:363 (H:m:s:ms)","GENERIC","62.041","0.02527968552019591","637"
"20:50:24:242 (H:m:s:ms)","GENERIC","62.075","0.016807845659048144","757"
"20:34:2:424 (H:m:s:ms)","GENERIC","62.063","0.010069228858561855","575"
"20:50:30:303 (H:m:s:ms)","GENERIC","62.111","0.05004723666617993","696"
"20:10:0:0 (H:m:s:ms)","GENERIC","31.02","0.05018867991571834","1001"
"20:34:8:484 (H:m:s:ms)","GENERIC","62.081","0.025086655372483956","515"
"20:50:36:363 (H:m:s:ms)","GENERIC","62.049","0.016134795711537853","636"
"20:10:0:0 (H:m:s:ms)","GENERIC","62.165","0.0539511043709836","1039"
"20:34:14:545 (H:m:s:ms)","GENERIC","62.025","0.045069390943299946","455"
"20:50:42:424 (H:m:s:ms)","GENERIC","62.145","0.021036470266787743","576"
"20:10:6:60 (H:m:s:ms)","GENERIC","62.113","0.01676923173729153","939"
"20:34:20:606 (H:m:s:ms)","GENERIC","62.117","0.05270462766947303","394"
"20:50:48:484 (H:m:s:ms)","GENERIC","62.169","0.017800007802744856","515"
"20:10:12:121 (H:m:s:ms)","GENERIC","62.105","0.012687627749922622","879"
"20:34:26:666 (H:m:s:ms)","GENERIC","62.147","0.016693345207530824","333"
"20:50:54:545 (H:m:s:ms)","GENERIC","62.123","0.012724737099066649","455"
"20:10:18:181 (H:m:s:ms)","GENERIC","62.149","0.03513641844631534","818"
"20:34:32:727 (H:m:s:ms)","GENERIC","62.067","0.030072250959610143","273"
"20:51:0:606 (H:m:s:ms)","GENERIC","62.063","0.018905443074299783","393"
"20:10:24:242 (H:m:s:ms)","GENERIC","62.069","0.05004723666617983","758"
"20:34:38:787 (H:m:s:ms)","GENERIC","62.073","0.007218412402163627","214"
"20:51:6:666 (H:m:s:ms)","GENERIC","62.075","0.014610021493139122","333"
"20:10:30:303 (H:m:s:ms)","GENERIC","62.055","0.050188679915718445","697"
"20:34:44:848 (H:m:s:ms)","GENERIC","62.075","0.05004723666617983","152"
"20:10:36:363 (H:m:s:ms)","GENERIC","62.017","0.016807845659048165","636"
"20:34:50:909 (H:m:s:ms)","GENERIC","62.049","0.020085550908083373","1090"
"20:10:42:424 (H:m:s:ms)","GENERIC","62.065","0.01653862379696405","577"
"20:10:48:484 (H:m:s:ms)","GENERIC","62.137","0.026000392461716145","515"
"20:51:12:727 (H:m:s:ms)","GENERIC","62.087","0.014419650057404736","272"
"20:51:18:787 (H:m:s:ms)","GENERIC","62.051","0.02145285310370277","212"
"20:34:56:969 (H:m:s:ms)","GENERIC","62.045","0.02519455546343307","1030"
"20:51:24:848 (H:m:s:ms)","GENERIC","62.043","0.015593079639797293","152"
"20:35:3:30 (H:m:s:ms)","GENERIC","62.041","0.006431032896344588","969"
"20:51:30:909 (H:m:s:ms)","GENERIC","62.089","0.05007710104811122","1090"
"20:10:54:545 (H:m:s:ms)","GENERIC","62.115","0.016896562584161737","455"
"20:35:9:90 (H:m:s:ms)","GENERIC","62.093","0.012804922857351266","943"
"20:51:36:969 (H:m:s:ms)","GENERIC","62.083","0.01016394535227178","1030"
"20:11:0:606 (H:m:s:ms)","GENERIC","62.023","0.025025813119937852","394"
"20:35:15:151 (H:m:s:ms)","GENERIC","62.079","0.0250208159902842","848"
"20:51:43:30 (H:m:s:ms)","GENERIC","62.107","0.025221243250702623","969"
"20:11:6:666 (H:m:s:ms)","GENERIC","62.091","0.021646125954690308","334"
"20:35:21:212 (H:m:s:ms)","GENERIC","62.095","0.007466344894516337","787"
"20:51:49:90 (H:m:s:ms)","GENERIC","62.037","0.03134716299921203","948"
"20:11:12:727 (H:m:s:ms)","GENERIC","62.065","0.015971914124998474","273"
"20:35:27:272 (H:m:s:ms)","GENERIC","62.079","0.030046260628866492","727"
"20:51:55:151 (H:m:s:ms)","GENERIC","62.105","0.020155644370746406","849"
"20:11:18:787 (H:m:s:ms)","GENERIC","62.097","0.014430750636460139","212"
"20:35:33:333 (H:m:s:ms)","GENERIC","62.039","0.0500297176846446","666"
"20:52:1:212 (H:m:s:ms)","GENERIC","62.063","0.010416666666666703","788"
"20:11:24:848 (H:m:s:ms)","GENERIC","62.059","0.02338961945969607","152"
"20:35:39:393 (H:m:s:ms)","GENERIC","62.061","0.05113507522598713","640"
"20:52:7:272 (H:m:s:ms)","GENERIC","62.083","0.02513114844091378","727"
"20:11:30:909 (H:m:s:ms)","GENERIC","62.119","0.02160786252390806","1090"
"20:35:45:454 (H:m:s:ms)","GENERIC","62.197","0.01009089443383485","545"
"20:11:36:969 (H:m:s:ms)","GENERIC","31.027","0.02008247457670413","1030"
"20:35:51:515 (H:m:s:ms)","GENERIC","62.103","0.018821528886100683","485"
"20:11:43:30 (H:m:s:ms)","GENERIC","62.109","0.02147613768338991","969"
"20:11:49:90 (H:m:s:ms)","GENERIC","62.043","0.02524220156522382","946"
"20:0:54:545 (H:m:s:ms)","GENERIC","31.049","0.033592740617910656","457"
"20:1:0:606 (H:m:s:ms)","GENERIC","31.012","0.012610621625351337","396"
"20:1:6:666 (H:m:s:ms)","GENERIC","31.047","0.021646125954690308","333"
"20:1:12:727 (H:m:s:ms)","GENERIC","31.032","0.007407096819146961","273"
"20:1:18:787 (H:m:s:ms)","GENERIC","31.041","0.021646125954690308","213"
"20:1:24:848 (H:m:s:ms)","GENERIC","31.02","0.01178605248432509","152"
"20:1:30:909 (H:m:s:ms)","GENERIC","31.069","0.05007710104811122","1091"
"20:1:36:969 (H:m:s:ms)","GENERIC","31.052","0.025083160312820176","1157"
"20:1:43:30 (H:m:s:ms)","GENERIC","31.047","0.05011098792790975","970"
"20:1:49:90 (H:m:s:ms)","GENERIC","31.026","0.05005405406983945","924"
"20:35:57:575 (H:m:s:ms)","GENERIC","62.063","0.00913821341644222","424"
"20:36:3:636 (H:m:s:ms)","GENERIC","62.097","0.03382890974861232","365"
"20:11:55:151 (H:m:s:ms)","GENERIC","62.071","0.030046260628866492","848"
"20:36:9:696 (H:m:s:ms)","GENERIC","62.127","0.014142135623730982","337"
"20:12:1:212 (H:m:s:ms)","GENERIC","62.091","0.016957104787603913","787"
"20:36:15:757 (H:m:s:ms)","GENERIC","62.067","0.010577835620812402","242"
"20:12:7:272 (H:m:s:ms)","GENERIC","62.077","0.008431375921773043","727"
"20:36:21:818 (H:m:s:ms)","GENERIC","62.143","0.02741464024932664","181"
"20:12:13:333 (H:m:s:ms)","GENERIC","62.027","0.008388623287373352","666"
"20:36:27:878 (H:m:s:ms)","GENERIC","62.031","0.010833333333333348","1121"
"20:12:19:393 (H:m:s:ms)","GENERIC","62.131","0.025086655372483956","644"
"20:36:33:939 (H:m:s:ms)","GENERIC","62.121","0.007547797568792495","1061"
"20:12:25:454 (H:m:s:ms)","GENERIC","62.135","0.01710469751811074","546"
"20:36:40:0 (H:m:s:ms)","GENERIC","62.039","0.02507385540462565","1034"
"20:12:31:515 (H:m:s:ms)","GENERIC","62.101","0.020757268546966023","485"
"20:36:46:60 (H:m:s:ms)","GENERIC","62.043","0.02338961945969607","939"
"20:12:37:575 (H:m:s:ms)","GENERIC","62.101","0.014695993980469248","425"
"20:36:52:121 (H:m:s:ms)","GENERIC","62.113","0.016866127115895625","879"
"20:12:43:636 (H:m:s:ms)","GENERIC","62.089","0.03006157389179856","363"
"20:12:49:696 (H:m:s:ms)","GENERIC","62.067","0.007663971395169823","340"
"20:1:55:151 (H:m:s:ms)","GENERIC","31.036","0.030103986446980653","848"
"20:2:1:212 (H:m:s:ms)","GENERIC","31.038","0.033914209575207827","788"
"20:2:7:272 (H:m:s:ms)","GENERIC","31.042","0.01710469751811074","727"
"20:2:13:333 (H:m:s:ms)","GENERIC","31.015","0.03370624736026122","667"
"20:2:19:393 (H:m:s:ms)","GENERIC","31.067","0.025769410160110386","620"
"20:2:25:454 (H:m:s:ms)","GENERIC","31.078","0.03382890974861232","545"
"20:2:31:515 (H:m:s:ms)","GENERIC","31.043","0.022879178091082242","485"
"20:2:37:575 (H:m:s:ms)","GENERIC","31.053","0.025021691978050698","425"
"20:2:43:636 (H:m:s:ms)","GENERIC","31.045","0.037510258163980646","364"
"20:2:49:696 (H:m:s:ms)","GENERIC","31.041","0.014405241682605261","319"
"20:36:58:181 (H:m:s:ms)","GENERIC","62.053","0.00856090646890835","819"
"20:37:4:242 (H:m:s:ms)","GENERIC","62.019","0.050033046930243845","758"
"20:12:55:757 (H:m:s:ms)","GENERIC","62.095","0.03560001560548975","242"
"20:37:10:303 (H:m:s:ms)","GENERIC","62.099","0.02213702489044662","696"
"20:13:1:818 (H:m:s:ms)","GENERIC","62.159","0.010095989914103473","181"
"20:37:16:363 (H:m:s:ms)","GENERIC","62.061","0.015703971279218045","636"
"20:13:7:878 (H:m:s:ms)","GENERIC","31.008","0.016896562584161754","121"
"20:37:22:424 (H:m:s:ms)","GENERIC","62.079","0.006420679851681265","576"
"20:13:13:939 (H:m:s:ms)","GENERIC","62.075","0.0073017869235640605","1060"
"20:37:28:484 (H:m:s:ms)","GENERIC","62.087","0.03806288324976782","515"
"20:13:20:0 (H:m:s:ms)","GENERIC","62.063","0.012559347514662221","1037"
"20:37:34:545 (H:m:s:ms)","GENERIC","62.081","0.010031444640841266","455"
"20:13:26:60 (H:m:s:ms)","GENERIC","62.079","0.060092521257733435","940"
"20:37:40:606 (H:m:s:ms)","GENERIC","62.039","0.021250000000000026","393"
"20:13:32:121 (H:m:s:ms)","GENERIC","62.087","0.025179356624028475","878"
"20:37:46:666 (H:m:s:ms)","GENERIC","62.081","0.014405241682605261","333"
"20:13:38:181 (H:m:s:ms)","GENERIC","62.111","0.01691006839794387","819"
"20:37:52:727 (H:m:s:ms)","GENERIC","62.101","0.008269311898482023","273"
"20:13:44:242 (H:m:s:ms)","GENERIC","62.053","0.02719918966379974","758"
"20:13:50:303 (H:m:s:ms)","GENERIC","62.103","0.033347747748421475","697"
"20:2:55:757 (H:m:s:ms)","GENERIC","31.055","0.05017331074496794","243"
"20:3:1:818 (H:m:s:ms)","GENERIC","31.092","0.030032132996936443","181"
"20:3:7:878 (H:m:s:ms)","GENERIC","31.013","0.011258501874010016","124"
"20:3:13:939 (H:m:s:ms)","GENERIC","31.033","0.008003905296791082","1061"
"20:3:20:0 (H:m:s:ms)","GENERIC","31.024","0.0072153753182300695","1000"
"20:3:26:60 (H:m:s:ms)","GENERIC","31.036","0.04714045207910334","939"
"20:3:32:121 (H:m:s:ms)","GENERIC","31.048","0.016696639715157655","878"
"20:3:38:181 (H:m:s:ms)","GENERIC","31.044","0.027147033930931957","819"
"20:3:44:242 (H:m:s:ms)","GENERIC","31.029","0.026000392461716194","758"
"20:3:50:303 (H:m:s:ms)","GENERIC","31.062","0.01669547682933961","697"
"20:37:58:787 (H:m:s:ms)","GENERIC","62.059","0.05004723666617983","212"
"20:38:4:848 (H:m:s:ms)","GENERIC","62.023","0.050127388741493736","151"
"20:13:56:363 (H:m:s:ms)","GENERIC","62.065","0.02556753761299355","636"
"20:38:10:909 (H:m:s:ms)","GENERIC","62.121","0.020953818267800267","1092"
"20:14:2:424 (H:m:s:ms)","GENERIC","62.041","0.016957104787603913","575"
"20:38:16:969 (H:m:s:ms)","GENERIC","62.109","0.03535533905932745","1030"
"20:14:8:484 (H:m:s:ms)","GENERIC","62.119","0.017800007802744863","515"
"20:38:23:30 (H:m:s:ms)","GENERIC","62.055","0.05099019513592793","969"
"20:14:14:545 (H:m:s:ms)","GENERIC","62.039","0.011792476415070769","455"
"20:38:29:90 (H:m:s:ms)","GENERIC","62.099","0.008928571428571432","945"
"20:14:20:606 (H:m:s:ms)","GENERIC","62.135","0.020030840419244394","393"
"20:38:35:151 (H:m:s:ms)","GENERIC","62.105","0.05012738874149379","849"
"20:14:26:666 (H:m:s:ms)","GENERIC","62.151","0.053400023408234604","333"
"20:38:41:212 (H:m:s:ms)","GENERIC","62.039","0.03480102169636858","788"
"20:14:32:727 (H:m:s:ms)","GENERIC","62.103","0.01273197855148951","289"
"20:38:47:272 (H:m:s:ms)","GENERIC","62.057","0.03162277660168367","727"
"20:14:38:787 (H:m:s:ms)","GENERIC","62.063","0.02152960638857962","213"
"20:38:53:333 (H:m:s:ms)","GENERIC","62.063","0.008373548044110371","666"
"20:14:44:848 (H:m:s:ms)","GENERIC","62.065","0.03340414658439457","151"
"20:14:50:909 (H:m:s:ms)","GENERIC","62.073","0.020085550908083373","1091"
"20:3:56:363 (H:m:s:ms)","GENERIC","31.042","0.025253813613805326","636"
"20:4:2:424 (H:m:s:ms)","GENERIC","31.024","0.015593079639797293","576"
"20:4:8:484 (H:m:s:ms)","GENERIC","31.065","0.015023130314433294","516"
"20:4:14:545 (H:m:s:ms)","GENERIC","31.03","0.01695710478760389","457"
"20:4:20:606 (H:m:s:ms)","GENERIC","31.069","0.0080252911542028","394"
"20:4:26:666 (H:m:s:ms)","GENERIC","31.068","0.05038911092686597","333"
"20:4:32:727 (H:m:s:ms)","GENERIC","31.053","0.037267799624996635","272"
"20:4:38:787 (H:m:s:ms)","GENERIC","31.028","0.021453874776222476","213"
"20:4:44:848 (H:m:s:ms)","GENERIC","31.031","0.017224441049282217","153"
"20:4:50:909 (H:m:s:ms)","GENERIC","31.043","0.03001428557904209","1090"
"20:38:59:393 (H:m:s:ms)","GENERIC","62.133","0.008395479496927765","641"
"20:39:5:454 (H:m:s:ms)","GENERIC","62.107","0.02503285152534196","545"
"20:14:56:969 (H:m:s:ms)","GENERIC","62.057","0.02670001170411739","1030"
"20:39:11:515 (H:m:s:ms)","GENERIC","62.093","0.03887301263230211","484"
"20:15:3:30 (H:m:s:ms)","GENERIC","62.027","0.010135505321052516","969"
"20:39:17:575 (H:m:s:ms)","GENERIC","62.089","0.013300795353090538","425"
"20:15:9:90 (H:m:s:ms)","GENERIC","62.041","0.006839484584580645","944"
"20:39:23:636 (H:m:s:ms)","GENERIC","62.067","0.021508440872145918","364"
"20:15:15:151 (H:m:s:ms)","GENERIC","62.081","0.05003696858176045","848"
"20:39:29:696 (H:m:s:ms)","GENERIC","62.043","0.012525987554039608","338"
"20:15:21:212 (H:m:s:ms)","GENERIC","62.087","0.014450174067244513","787"
"20:39:35:757 (H:m:s:ms)","GENERIC","62.119","0.014419650057404736","243"
"20:15:27:272 (H:m:s:ms)","GENERIC","62.097","0.030103986446980653","727"
"20:39:41:818 (H:m:s:ms)","GENERIC","62.117","0.025120644132331126","181"
"20:15:33:333 (H:m:s:ms)","GENERIC","62.055","0.016866127115895642","666"
"20:39:47:878 (H:m:s:ms)","GENERIC","62.069","0.014526074501023788","1121"
"20:15:39:393 (H:m:s:ms)","GENERIC","62.051","0.05000924470748416","642"
"20:39:53:939 (H:m:s:ms)","GENERIC","62.067","0.013078337027630274","1096"
"20:15:45:454 (H:m:s:ms)","GENERIC","62.191","0.020406747763256943","545"
"20:15:51:515 (H:m:s:ms)","GENERIC","62.085","0.012526845668506556","485"
"20:4:56:969 (H:m:s:ms)","GENERIC","31.029","0.025769410160110483","1031"
"20:5:3:30 (H:m:s:ms)","GENERIC","31.021","0.02583666157392339","969"
"20:5:9:90 (H:m:s:ms)","GENERIC","31.016","0.01955573311156771","931"
"20:5:15:151 (H:m:s:ms)","GENERIC","31.04","0.0250208159902842","849"
"20:5:21:212 (H:m:s:ms)","GENERIC","31.044","0.007466344894516337","787"
"20:5:27:272 (H:m:s:ms)","GENERIC","31.048","0.010137937550497049","729"
"20:5:33:333 (H:m:s:ms)","GENERIC","31.024","0.050007431076804144","666"
"20:5:39:393 (H:m:s:ms)","GENERIC","31.021","0.014526074501023788","631"
"20:5:45:454 (H:m:s:ms)","GENERIC","31.087","0.02004560177382558","545"
"20:5:51:515 (H:m:s:ms)","GENERIC","31.039","0.014409775099324675","484"
"20:15:57:575 (H:m:s:ms)","GENERIC","62.089","0.02527968552019591","424"
"20:16:3:636 (H:m:s:ms)","GENERIC","62.105","0.016777246574746725","364"
"20:16:9:696 (H:m:s:ms)","GENERIC","62.111","0.022360679774997946","340"
"20:16:15:757 (H:m:s:ms)","GENERIC","62.069","0.030442632350818195","242"
"20:16:21:818 (H:m:s:ms)","GENERIC","62.117","0.021493288516352394","182"
"20:16:27:878 (H:m:s:ms)","GENERIC","62.085","0.0191224580736311","1191"
"20:16:33:939 (H:m:s:ms)","GENERIC","62.135","0.007547797568792495","1061"
"20:16:40:0 (H:m:s:ms)","GENERIC","62.021","0.03335458506219508","1036"
"20:16:46:60 (H:m:s:ms)","GENERIC","62.055","0.027950849718747468","939"
"20:16:52:121 (H:m:s:ms)","GENERIC","62.077","0.016866127115895625","879"
"20:5:57:575 (H:m:s:ms)","GENERIC","31.047","0.00913821341644222","425"
"20:6:3:636 (H:m:s:ms)","GENERIC","31.052","0.03355449314949345","363"
"20:6:9:696 (H:m:s:ms)","GENERIC","31.057","0.008431375921773043","329"
"20:6:15:757 (H:m:s:ms)","GENERIC","31.034","0.05000924470748413","242"
"20:6:21:818 (H:m:s:ms)","GENERIC","31.065","0.03537742924521226","181"
"20:6:27:878 (H:m:s:ms)","GENERIC","31.044","0.01467724761776325","122"
"20:6:33:939 (H:m:s:ms)","GENERIC","31.069","0.02146324494253933","1061"
"20:6:40:0 (H:m:s:ms)","GENERIC","31.016","0.030078661837265954","1000"
"20:6:46:60 (H:m:s:ms)","GENERIC","31.024","0.01178605248432509","940"
"20:6:52:121 (H:m:s:ms)","GENERIC","31.044","0.016866127115895625","878"
"20:16:58:181 (H:m:s:ms)","GENERIC","62.067","0.016695476829339667","818"
"20:17:4:242 (H:m:s:ms)","GENERIC","62.061","0.05000826377990949","758"
"20:17:10:303 (H:m:s:ms)","GENERIC","62.075","0.014337672148822212","696"
"20:17:16:363 (H:m:s:ms)","GENERIC","62.085","0.020064931019463227","636"
"20:17:22:424 (H:m:s:ms)","GENERIC","62.083","0.014465369746717813","576"
"20:17:28:484 (H:m:s:ms)","GENERIC","62.115","0.020076799299536846","515"
"20:17:34:545 (H:m:s:ms)","GENERIC","62.061","0.030010496190204104","455"
"20:17:40:606 (H:m:s:ms)","GENERIC","62.019","0.017400510848184267","394"
"20:17:46:666 (H:m:s:ms)","GENERIC","62.113","0.021508440872145918","333"
"20:17:52:727 (H:m:s:ms)","GENERIC","62.109","0.014436824804327241","272"
"20:6:58:181 (H:m:s:ms)","GENERIC","31.033","0.025076775612605337","818"
"20:7:4:242 (H:m:s:ms)","GENERIC","31.043","0.05000826377990949","758"
"20:7:10:303 (H:m:s:ms)","GENERIC","31.046","0.009049011310310617","696"
"20:7:16:363 (H:m:s:ms)","GENERIC","31.052","0.0215385601048444","636"
"20:7:22:424 (H:m:s:ms)","GENERIC","31.05","0.006420679851681265","575"
"20:7:28:484 (H:m:s:ms)","GENERIC","31.063","0.014099045403340112","516"
"20:7:34:545 (H:m:s:ms)","GENERIC","31.034","0.030041962757600287","455"
"20:7:40:606 (H:m:s:ms)","GENERIC","31.019","0.050007431076804144","393"
"20:7:46:666 (H:m:s:ms)","GENERIC","31.064","0.008688567549813044","333"
"20:7:52:727 (H:m:s:ms)","GENERIC","31.052","0.008269311898482023","272"
"20:17:58:787 (H:m:s:ms)","GENERIC","62.043","0.05042353697714445","212"
"20:18:4:848 (H:m:s:ms)","GENERIC","62.041","0.0167091295804979","152"
"20:18:10:909 (H:m:s:ms)","GENERIC","62.099","0.021250000000000005","1091"
"20:18:16:969 (H:m:s:ms)","GENERIC","62.075","0.03535533905932745","1030"
"20:18:23:30 (H:m:s:ms)","GENERIC","62.061","0.017400510848184267","970"
"20:18:29:90 (H:m:s:ms)","GENERIC","62.141","0.03349245260401922","945"
"20:18:35:151 (H:m:s:ms)","GENERIC","62.113","0.025253813613805375","850"
"20:18:41:212 (H:m:s:ms)","GENERIC","62.045","0.05024937810560461","787"
"20:18:47:272 (H:m:s:ms)","GENERIC","62.033","0.03605551275463981","727"
"20:18:53:333 (H:m:s:ms)","GENERIC","62.075","0.016847092906522424","666"
"20:7:58:787 (H:m:s:ms)","GENERIC","31.014","0.03349245260401924","212"
"20:8:4:848 (H:m:s:ms)","GENERIC","31.019","0.017045025075329033","152"
"20:8:10:909 (H:m:s:ms)","GENERIC","31.046","0.02146893046726936","1090"
"20:8:16:969 (H:m:s:ms)","GENERIC","31.029","0.008589803386703473","1031"
"20:8:23:30 (H:m:s:ms)","GENERIC","31.039","0.0334335097951574","969"
"20:8:29:90 (H:m:s:ms)","GENERIC","31.082","0.022088065851523227","942"
"20:8:35:151 (H:m:s:ms)","GENERIC","31.047","0.025294127765319165","849"
"20:8:41:212 (H:m:s:ms)","GENERIC","31.029","0.0365528536657689","788"
"20:8:47:272 (H:m:s:ms)","GENERIC","31.015","0.04242640687119266","728"
"20:8:53:333 (H:m:s:ms)","GENERIC","31.033","0.008688567549813044","666"
"20:18:59:393 (H:m:s:ms)","GENERIC","62.151","0.014585340300596453","641"
"20:19:5:454 (H:m:s:ms)","GENERIC","62.107","0.025294127765319165","545"
"20:19:11:515 (H:m:s:ms)","GENERIC","62.087","0.021829905739157572","485"
"20:19:17:575 (H:m:s:ms)","GENERIC","62.057","0.01929309868903375","425"
"20:19:23:636 (H:m:s:ms)","GENERIC","62.037","0.014315689696041987","364"
"20:19:29:696 (H:m:s:ms)","GENERIC","62.011","0.012936812246883396","338"
"20:19:35:757 (H:m:s:ms)","GENERIC","62.101","0.04242640687119266","243"
"20:19:41:818 (H:m:s:ms)","GENERIC","62.079","0.025018484290880227","181"
"20:19:47:878 (H:m:s:ms)","GENERIC","62.035","0.05000924470748416","1121"
"20:19:53:939 (H:m:s:ms)","GENERIC","62.053","0.025028328620986584","1061"
"20:8:59:393 (H:m:s:ms)","GENERIC","31.087","0.007292670150298226","641"
"20:9:5:454 (H:m:s:ms)","GENERIC","31.057","0.02502972652655352","545"
"20:9:11:515 (H:m:s:ms)","GENERIC","31.046","0.014880952380952361","484"
"20:9:17:575 (H:m:s:ms)","GENERIC","31.021","0.018811118630051436","424"
"20:9:23:636 (H:m:s:ms)","GENERIC","31.025","0.01877371823694004","365"
"20:9:29:696 (H:m:s:ms)","GENERIC","31.008","0.025657046277166105","339"
"20:9:35:757 (H:m:s:ms)","GENERIC","31.053","0.016862751843546086","242"
"20:9:41:818 (H:m:s:ms)","GENERIC","31.033","0.025013433638798627","182"
"20:9:47:878 (H:m:s:ms)","GENERIC","31.014","0.014526074501023788","122"
"20:9:53:939 (H:m:s:ms)","GENERIC","31.028","0.04242640687119266","1061"
"21:41:0:606 (H:m:s:ms)","GENERIC","62.017","0.006701923442981738","393"
"21:40:54:545 (H:m:s:ms)","GENERIC","62.079","0.050173310744967954","454"
"21:40:48:484 (H:m:s:ms)","GENERIC","62.175","0.01679637030895531","516"
"21:40:42:424 (H:m:s:ms)","GENERIC","62.101","0.007663971395169824","576"
"21:40:36:363 (H:m:s:ms)","GENERIC","62.037","0.010357142857142832","637"
"21:40:30:303 (H:m:s:ms)","GENERIC","62.053","0.05005665724197317","696"
"21:40:24:242 (H:m:s:ms)","GENERIC","31.031","0.006701923442981738","758"
"21:41:18:787 (H:m:s:ms)","GENERIC","31.028","0.012533014253602067","237"
"21:41:12:727 (H:m:s:ms)","GENERIC","62.079","0.01431931567618713","273"
"21:41:6:666 (H:m:s:ms)","GENERIC","62.053","0.014610021493139122","334"
