"time (H:m:s:ms)","type","latency","utilisation","waiting"
"21:42:25:454 (H:m:s:ms)","GENERIC","62.075","0.259655117237003","553"
"21:42:7:272 (H:m:s:ms)","GENERIC","62.071","0.252472698480109","734"
"21:42:1:212 (H:m:s:ms)","GENERIC","62.121","0.24677175665923787","792"
"21:41:55:151 (H:m:s:ms)","GENERIC","62.091","0.2435928354727139","860"
"21:41:49:90 (H:m:s:ms)","GENERIC","62.101","0.24355149227749337","953"
"21:41:43:30 (H:m:s:ms)","GENERIC","62.083","0.2482728523079665","979"
"21:41:36:969 (H:m:s:ms)","GENERIC","62.029","0.2494243873869551","1043"
"21:41:30:909 (H:m:s:ms)","GENERIC","62.073","0.2508977851877362","1096"
"21:41:24:848 (H:m:s:ms)","GENERIC","62.035","0.25900955658249","158"
"21:42:19:393 (H:m:s:ms)","GENERIC","62.133","0.25470944948136715","651"
"21:42:13:333 (H:m:s:ms)","GENERIC","62.101","0.2519415117408966","673"
"21:43:32:121 (H:m:s:ms)","GENERIC","62.063","0.26363491973605785","887"
"21:43:26:60 (H:m:s:ms)","GENERIC","62.079","0.261487604528589","953"
"21:43:13:939 (H:m:s:ms)","GENERIC","62.053","0.26402382532394686","1070"
"20:0:0:0 (H:m:s:ms)","GENERIC","31.062","0.042833657586321315","1102"
"21:43:7:878 (H:m:s:ms)","GENERIC","62.115","0.2600833353368184","1124"
"20:0:6:60 (H:m:s:ms)","GENERIC","31.06","0.06132626839524965","949"
"21:43:1:818 (H:m:s:ms)","GENERIC","62.085","0.25761019912237293","189"
"20:0:12:121 (H:m:s:ms)","GENERIC","31.03","0.07044869821143429","890"
"21:42:55:757 (H:m:s:ms)","GENERIC","62.093","0.2539724569576341","246"
"20:0:18:181 (H:m:s:ms)","GENERIC","31.048","0.07133571962657105","828"
"21:42:49:696 (H:m:s:ms)","GENERIC","62.113","0.2578006607108417","347"
"20:0:24:242 (H:m:s:ms)","GENERIC","31.046","0.07491181935810458","768"
"21:42:43:636 (H:m:s:ms)","GENERIC","62.051","0.251956264087554","374"
"20:0:30:303 (H:m:s:ms)","GENERIC","31.059","0.07547655177368058","707"
"21:42:37:575 (H:m:s:ms)","GENERIC","62.025","0.25168550060068134","433"
"20:0:36:363 (H:m:s:ms)","GENERIC","31.072","0.08279693627120213","640"
"21:42:31:515 (H:m:s:ms)","GENERIC","62.069","0.2570240875014202","488"
"20:0:42:424 (H:m:s:ms)","GENERIC","31.057","0.09748843257081773","583"
"21:10:18:181 (H:m:s:ms)","GENERIC","62.135","0.25277702163442184","823"
"20:0:48:484 (H:m:s:ms)","GENERIC","31.027","0.105734063179129","523"
"21:10:24:242 (H:m:s:ms)","GENERIC","62.075","0.24800224451450473","767"
"21:10:30:303 (H:m:s:ms)","GENERIC","62.109","0.2450437287347964","706"
"21:10:36:363 (H:m:s:ms)","GENERIC","62.109","0.24859092463969643","640"
"21:10:42:424 (H:m:s:ms)","GENERIC","62.103","0.24828268523991454","582"
"21:10:48:484 (H:m:s:ms)","GENERIC","62.069","0.24584691290015506","525"
"21:10:54:545 (H:m:s:ms)","GENERIC","62.085","0.2496753239034542","464"
"21:11:0:606 (H:m:s:ms)","GENERIC","62.059","0.2505675755611451","402"
"21:43:20:0 (H:m:s:ms)","GENERIC","62.187","0.26756375433364854","1048"
"21:11:6:666 (H:m:s:ms)","GENERIC","62.085","0.24514539265683277","338"
"21:11:12:727 (H:m:s:ms)","GENERIC","62.047","0.25082027950684416","279"
"21:25:45:454 (H:m:s:ms)","GENERIC","62.089","0.2982613873616392","554"
"21:44:38:787 (H:m:s:ms)","GENERIC","62.047","0.24785210382915918","216"
"21:44:32:727 (H:m:s:ms)","GENERIC","62.111","0.24790408260046448","276"
"21:44:26:666 (H:m:s:ms)","GENERIC","62.091","0.2501919175632796","343"
"21:44:20:606 (H:m:s:ms)","GENERIC","62.025","0.2544088875272349","404"
"21:44:14:545 (H:m:s:ms)","GENERIC","62.075","0.2577422948827058","463"
"21:44:8:484 (H:m:s:ms)","GENERIC","62.029","0.2600342618600161","517"
"21:44:2:424 (H:m:s:ms)","GENERIC","62.125","0.25100894746840746","577"
"21:43:56:363 (H:m:s:ms)","GENERIC","62.093","0.24938501362448776","645"
"21:43:50:303 (H:m:s:ms)","GENERIC","62.105","0.25833117250272514","745"
"21:43:44:242 (H:m:s:ms)","GENERIC","62.051","0.26268177968597595","766"
"21:11:18:787 (H:m:s:ms)","GENERIC","62.069","0.2534463116848529","215"
"21:43:38:181 (H:m:s:ms)","GENERIC","62.035","0.2645529977844358","838"
"21:11:24:848 (H:m:s:ms)","GENERIC","62.093","0.2501595408352127","155"
"21:11:30:909 (H:m:s:ms)","GENERIC","62.035","0.25052611164166244","1095"
"21:11:36:969 (H:m:s:ms)","GENERIC","62.083","0.25358847805661777","1036"
"21:11:43:30 (H:m:s:ms)","GENERIC","62.079","0.249663873153717","979"
"21:11:49:90 (H:m:s:ms)","GENERIC","62.135","0.24894723946217842","949"
"21:11:55:151 (H:m:s:ms)","GENERIC","62.051","0.2485721220369165","855"
"21:12:1:212 (H:m:s:ms)","GENERIC","62.123","0.24994403856235153","792"
"21:12:7:272 (H:m:s:ms)","GENERIC","62.091","0.2506162303485033","734"
"21:12:13:333 (H:m:s:ms)","GENERIC","62.105","0.24948339361590427","672"
"21:26:21:818 (H:m:s:ms)","GENERIC","62.087","0.29787525486149735","189"
"21:45:45:454 (H:m:s:ms)","GENERIC","62.095","0.2503478595189575","555"
"21:26:19:746 (H:m:s:ms)","OPERA","62.015","0.2955735366837568","298"
"21:45:39:393 (H:m:s:ms)","GENERIC","62.027","0.2503088073627399","662"
"21:45:33:333 (H:m:s:ms)","GENERIC","62.071","0.2503016910717136","677"
"21:45:27:272 (H:m:s:ms)","GENERIC","62.115","0.2507490796333152","730"
"21:26:12:151 (H:m:s:ms)","OPERA","62.017","0.3004350242872474","851"
"21:26:9:696 (H:m:s:ms)","GENERIC","62.067","0.2987016154277051","350"
"21:45:21:212 (H:m:s:ms)","GENERIC","62.067","0.24659849105588885","794"
"21:26:4:556 (H:m:s:ms)","OPERA","62.017","0.3005295760453889","452"
"21:45:15:151 (H:m:s:ms)","GENERIC","62.073","0.24532178272912072","856"
"21:26:3:636 (H:m:s:ms)","GENERIC","62.053","0.2974724370232513","373"
"21:45:9:90 (H:m:s:ms)","GENERIC","62.071","0.24575679236194428","960"
"21:25:57:575 (H:m:s:ms)","GENERIC","62.029","0.3019340315526887","478"
"21:45:3:30 (H:m:s:ms)","GENERIC","62.035","0.24577090755130476","982"
"21:25:56:962 (H:m:s:ms)","OPERA","62.017","0.29943412611933573","1046"
"21:44:56:969 (H:m:s:ms)","GENERIC","62.127","0.254390428320417","1034"
"21:12:19:393 (H:m:s:ms)","GENERIC","62.099","0.2554713107748905","650"
"21:25:51:515 (H:m:s:ms)","GENERIC","62.039","0.30200394749210346","487"
"21:44:50:909 (H:m:s:ms)","GENERIC","62.051","0.252460983479266","1096"
"21:12:25:454 (H:m:s:ms)","GENERIC","62.121","0.2553169779182013","552"
"21:25:49:367 (H:m:s:ms)","OPERA","62.017","0.2997959290047709","678"
"21:44:44:848 (H:m:s:ms)","GENERIC","62.079","0.2525798316580155","161"
"21:12:31:515 (H:m:s:ms)","GENERIC","62.089","0.24800346144450008","487"
"21:12:37:575 (H:m:s:ms)","GENERIC","62.065","0.24250004738363853","432"
"21:12:43:636 (H:m:s:ms)","GENERIC","62.021","0.23829013888316086","372"
"21:12:49:696 (H:m:s:ms)","GENERIC","62.117","0.23776578241250215","346"
"21:12:55:757 (H:m:s:ms)","GENERIC","62.111","0.23569132271620266","245"
"21:13:1:818 (H:m:s:ms)","GENERIC","62.105","0.23758401379235758","191"
"21:13:7:878 (H:m:s:ms)","GENERIC","62.125","0.23748160781986605","1123"
"21:13:13:939 (H:m:s:ms)","GENERIC","62.057","0.23754681663050325","1070"
"21:26:15:757 (H:m:s:ms)","GENERIC","62.085","0.29918631948451213","245"
"21:26:58:181 (H:m:s:ms)","GENERIC","62.109","0.29085292173323674","828"
"21:46:52:121 (H:m:s:ms)","GENERIC","62.067","0.258658813751776","887"
"21:26:57:721 (H:m:s:ms)","OPERA","62.019","0.2919082424617097","282"
"21:46:46:60 (H:m:s:ms)","GENERIC","62.051","0.26257027602914207","953"
"21:26:52:121 (H:m:s:ms)","GENERIC","62.059","0.29409288186072874","888"
"21:46:40:0 (H:m:s:ms)","GENERIC","62.101","0.26256815075592466","1154"
"21:46:33:939 (H:m:s:ms)","GENERIC","62.093","0.26317650056965536","1066"
"21:46:27:878 (H:m:s:ms)","GENERIC","62.113","0.2587326408460073","1127"
"21:26:50:126 (H:m:s:ms)","OPERA","62.017","0.2942229272303744","878"
"21:26:46:60 (H:m:s:ms)","GENERIC","62.047","0.2950607618674614","949"
"21:26:42:531 (H:m:s:ms)","OPERA","62.015","0.29558125123880735","474"
"21:46:21:818 (H:m:s:ms)","GENERIC","62.111","0.25918324005466536","189"
"21:26:40:0 (H:m:s:ms)","GENERIC","62.085","0.2928861127143441","1040"
"21:46:15:757 (H:m:s:ms)","GENERIC","62.083","0.24861629676130925","248"
"21:26:34:936 (H:m:s:ms)","OPERA","62.015","0.2943305879262794","1077"
"21:46:9:696 (H:m:s:ms)","GENERIC","62.077","0.2502288647096713","353"
"21:13:20:0 (H:m:s:ms)","GENERIC","62.167","0.23563212370812697","1043"
"21:26:33:939 (H:m:s:ms)","GENERIC","62.103","0.2909606734801696","1065"
"21:46:3:636 (H:m:s:ms)","GENERIC","62.081","0.2501271249655157","372"
"21:13:26:60 (H:m:s:ms)","GENERIC","62.095","0.23155696886850807","951"
"21:26:27:878 (H:m:s:ms)","GENERIC","62.109","0.2955888804010966","1133"
"21:45:57:575 (H:m:s:ms)","GENERIC","62.025","0.24603008595971773","435"
"21:13:32:121 (H:m:s:ms)","GENERIC","62.055","0.22598102289010183","885"
"21:26:27:341 (H:m:s:ms)","OPERA","62.015","0.29647223367428166","663"
"21:45:51:515 (H:m:s:ms)","GENERIC","62.035","0.24748457777591137","495"
"21:13:38:181 (H:m:s:ms)","GENERIC","62.057","0.22809610210432552","832"
"21:13:44:242 (H:m:s:ms)","GENERIC","62.029","0.22821789729985692","764"
"21:13:50:303 (H:m:s:ms)","GENERIC","62.095","0.23577505190078527","698"
"21:13:56:363 (H:m:s:ms)","GENERIC","62.073","0.2309380733578113","644"
"21:14:2:424 (H:m:s:ms)","GENERIC","62.107","0.23515692707145824","579"
"21:14:8:484 (H:m:s:ms)","GENERIC","62.075","0.23733578588445334","518"
"21:14:14:545 (H:m:s:ms)","GENERIC","62.091","0.23797162344074715","462"
"21:27:40:606 (H:m:s:ms)","GENERIC","62.065","0.2901409816606538","404"
"21:47:58:787 (H:m:s:ms)","GENERIC","62.073","0.25104934817318586","223"
"21:27:35:696 (H:m:s:ms)","OPERA","62.015","0.2918457837206561","306"
"21:47:52:727 (H:m:s:ms)","GENERIC","62.061","0.2513916729880739","282"
"21:27:34:545 (H:m:s:ms)","GENERIC","62.107","0.2917445764090596","456"
"21:47:46:666 (H:m:s:ms)","GENERIC","62.107","0.25603268176626404","345"
"21:27:28:484 (H:m:s:ms)","GENERIC","62.115","0.29584485723733756","519"
"21:47:40:606 (H:m:s:ms)","GENERIC","62.077","0.2574194674605748","403"
"21:47:34:545 (H:m:s:ms)","GENERIC","62.105","0.2555027426408664","463"
"21:47:28:484 (H:m:s:ms)","GENERIC","62.111","0.25394343345112413","517"
"21:27:22:424 (H:m:s:ms)","GENERIC","62.067","0.29442074977629357","581"
"21:27:20:506 (H:m:s:ms)","OPERA","62.015","0.2917232999386291","497"
"21:27:16:363 (H:m:s:ms)","GENERIC","62.041","0.29443645163213206","644"
"21:47:22:424 (H:m:s:ms)","GENERIC","62.045","0.24810029252176252","584"
"21:14:20:606 (H:m:s:ms)","GENERIC","31.024","0.2411662642527272","437"
"21:27:12:911 (H:m:s:ms)","OPERA","62.015","0.29434883357906094","1090"
"21:47:16:363 (H:m:s:ms)","GENERIC","62.045","0.25308689118347255","645"
"21:14:26:666 (H:m:s:ms)","GENERIC","62.071","0.23778342973558067","342"
"21:27:10:303 (H:m:s:ms)","GENERIC","62.047","0.29255765099441955","702"
"21:47:10:303 (H:m:s:ms)","GENERIC","62.061","0.2531833098735554","708"
"20:52:19:393 (H:m:s:ms)","GENERIC","62.075","0.2544756638247539","651"
"21:14:32:727 (H:m:s:ms)","GENERIC","62.099","0.23782294528470257","276"
"21:27:5:316 (H:m:s:ms)","OPERA","62.015","0.2910538613362875","687"
"21:47:4:242 (H:m:s:ms)","GENERIC","62.057","0.2550428559400127","768"
"20:52:25:454 (H:m:s:ms)","GENERIC","62.123","0.25081229726090215","547"
"21:14:38:787 (H:m:s:ms)","GENERIC","62.097","0.24553250089181874","217"
"21:27:4:242 (H:m:s:ms)","GENERIC","62.093","0.29058906252357497","766"
"21:46:58:181 (H:m:s:ms)","GENERIC","62.075","0.2583259902734848","828"
"20:52:31:515 (H:m:s:ms)","GENERIC","62.067","0.25138863450629106","530"
"21:14:44:848 (H:m:s:ms)","GENERIC","62.077","0.249836794377065","161"
"20:52:37:575 (H:m:s:ms)","GENERIC","62.069","0.248510783286163","433"
"21:14:50:909 (H:m:s:ms)","GENERIC","62.085","0.24348100295855268","1097"
"20:52:43:636 (H:m:s:ms)","GENERIC","62.013","0.24695962957838863","371"
"21:14:56:969 (H:m:s:ms)","GENERIC","62.183","0.2374016881514263","1035"
"20:52:49:696 (H:m:s:ms)","GENERIC","62.103","0.2490007610481866","348"
"21:15:3:30 (H:m:s:ms)","GENERIC","62.041","0.2286821865019661","978"
"20:52:55:757 (H:m:s:ms)","GENERIC","62.139","0.251342498111811","245"
"21:15:9:90 (H:m:s:ms)","GENERIC","62.111","0.2261638137702439","955"
"20:53:1:818 (H:m:s:ms)","GENERIC","62.083","0.25154104619901596","188"
"21:15:15:151 (H:m:s:ms)","GENERIC","62.077","0.22674391987438855","854"
"20:53:7:878 (H:m:s:ms)","GENERIC","62.111","0.25011409514632943","1125"
"20:53:13:939 (H:m:s:ms)","GENERIC","62.045","0.2524000953134571","1069"
"21:28:16:969 (H:m:s:ms)","GENERIC","62.151","0.29799694468620547","1037"
"21:49:5:454 (H:m:s:ms)","GENERIC","62.101","0.25845570551546726","553"
"21:28:13:670 (H:m:s:ms)","OPERA","62.017","0.2966225644707249","335"
"21:48:59:393 (H:m:s:ms)","GENERIC","62.067","0.25763711651461996","649"
"21:28:10:909 (H:m:s:ms)","GENERIC","62.083","0.2951638858204966","1095"
"21:48:53:333 (H:m:s:ms)","GENERIC","62.117","0.2571418772735453","668"
"21:28:6:75 (H:m:s:ms)","OPERA","62.015","0.29679196881908576","929"
"21:48:47:272 (H:m:s:ms)","GENERIC","62.071","0.25552003654498623","730"
"21:28:4:848 (H:m:s:ms)","GENERIC","62.047","0.293837601924262","157"
"21:48:41:212 (H:m:s:ms)","GENERIC","62.025","0.25483944459453634","801"
"21:48:35:151 (H:m:s:ms)","GENERIC","62.039","0.25261789634182996","856"
"21:48:29:90 (H:m:s:ms)","GENERIC","62.077","0.25177445740888815","957"
"21:27:58:787 (H:m:s:ms)","GENERIC","62.061","0.2961161400416015","226"
"21:15:21:212 (H:m:s:ms)","GENERIC","62.105","0.23268379780704154","794"
"21:27:58:481 (H:m:s:ms)","OPERA","62.019","0.293785901144316","525"
"21:15:27:272 (H:m:s:ms)","GENERIC","62.117","0.23425398792481328","729"
"21:27:52:727 (H:m:s:ms)","GENERIC","62.089","0.295719809579043","279"
"21:48:23:30 (H:m:s:ms)","GENERIC","62.063","0.24748075409830364","981"
"20:53:20:0 (H:m:s:ms)","GENERIC","62.139","0.2529409425483136","1050"
"21:15:33:333 (H:m:s:ms)","GENERIC","62.103","0.23422978841026806","675"
"21:27:50:886 (H:m:s:ms)","OPERA","31.009","0.2923854469385319","121"
"21:48:16:969 (H:m:s:ms)","GENERIC","62.175","0.24796768239025146","1034"
"20:53:26:60 (H:m:s:ms)","GENERIC","62.089","0.24521188223465365","949"
"21:15:39:393 (H:m:s:ms)","GENERIC","62.051","0.23122382394858487","653"
"21:27:46:666 (H:m:s:ms)","GENERIC","62.085","0.2903680070611022","342"
"21:48:10:909 (H:m:s:ms)","GENERIC","62.115","0.24381029326812764","1097"
"20:53:32:121 (H:m:s:ms)","GENERIC","62.085","0.23910017233691983","885"
"21:15:45:454 (H:m:s:ms)","GENERIC","62.093","0.23072990649838684","553"
"21:27:43:291 (H:m:s:ms)","OPERA","62.015","0.28944978171886293","716"
"21:48:4:848 (H:m:s:ms)","GENERIC","62.037","0.246776738892871","161"
"20:53:38:181 (H:m:s:ms)","GENERIC","62.091","0.2373814079696643","830"
"21:15:51:515 (H:m:s:ms)","GENERIC","62.043","0.2306274228986666","492"
"20:53:44:242 (H:m:s:ms)","GENERIC","62.097","0.23921394939618196","819"
"21:15:57:575 (H:m:s:ms)","GENERIC","31.023","0.22998736034648576","530"
"20:53:50:303 (H:m:s:ms)","GENERIC","62.081","0.24075812707121771","704"
"21:16:3:636 (H:m:s:ms)","GENERIC","62.037","0.23217507410642643","372"
"20:53:56:363 (H:m:s:ms)","GENERIC","62.047","0.22966074416346233","645"
"21:16:9:696 (H:m:s:ms)","GENERIC","62.049","0.23167481436109097","350"
"20:54:2:424 (H:m:s:ms)","GENERIC","62.123","0.23256635681070037","579"
"21:16:15:757 (H:m:s:ms)","GENERIC","62.079","0.22664515100332158","245"
"20:54:8:484 (H:m:s:ms)","GENERIC","62.093","0.2264589520813376","520"
"20:54:14:545 (H:m:s:ms)","GENERIC","62.071","0.23233849357998806","461"
"21:28:53:333 (H:m:s:ms)","GENERIC","62.091","0.2971954887214114","669"
"21:28:51:645 (H:m:s:ms)","OPERA","62.017","0.2965190869297168","362"
"22:1:34:736 (H:m:s:ms)","AMBULANCE","31.01","0.10443903549958417","270"
"21:28:47:272 (H:m:s:ms)","GENERIC","62.073","0.29424548327318495","735"
"21:50:0:0 (H:m:s:ms)","GENERIC","62.057","0.2675014428931904","1045"
"21:28:44:50 (H:m:s:ms)","OPERA","62.015","0.29509190413312","955"
"21:49:53:939 (H:m:s:ms)","GENERIC","62.091","0.26955249849112006","1070"
"21:28:41:212 (H:m:s:ms)","GENERIC","62.043","0.2928644703743421","793"
"21:49:47:878 (H:m:s:ms)","GENERIC","62.087","0.2638913501630239","1133"
"21:28:36:455 (H:m:s:ms)","OPERA","62.015","0.29640256565255946","553"
"21:49:41:818 (H:m:s:ms)","GENERIC","62.073","0.25960285071845957","189"
"21:49:35:757 (H:m:s:ms)","GENERIC","62.105","0.2577963423347339","248"
"21:49:29:696 (H:m:s:ms)","GENERIC","62.043","0.2583513971050342","354"
"21:16:21:818 (H:m:s:ms)","GENERIC","62.073","0.22896616229727293","190"
"21:16:27:878 (H:m:s:ms)","GENERIC","62.117","0.2288199369775067","1128"
"21:28:35:151 (H:m:s:ms)","GENERIC","62.047","0.2953711158073817","856"
"20:54:20:606 (H:m:s:ms)","GENERIC","62.085","0.2244217428917539","401"
"21:16:33:939 (H:m:s:ms)","GENERIC","62.091","0.23346286152762658","1066"
"21:28:29:90 (H:m:s:ms)","GENERIC","62.033","0.298009602685903","955"
"20:54:26:666 (H:m:s:ms)","GENERIC","62.079","0.22106557847133318","340"
"21:16:40:0 (H:m:s:ms)","GENERIC","62.099","0.23615166885739772","1047"
"21:28:28:860 (H:m:s:ms)","OPERA","62.015","0.29537670933839305","145"
"21:49:23:636 (H:m:s:ms)","GENERIC","62.075","0.2526371341385774","370"
"20:54:32:727 (H:m:s:ms)","GENERIC","62.087","0.21060481385416907","274"
"21:16:46:60 (H:m:s:ms)","GENERIC","62.063","0.23655851864793792","951"
"21:28:23:30 (H:m:s:ms)","GENERIC","62.097","0.29900896654660847","975"
"21:49:17:575 (H:m:s:ms)","GENERIC","62.077","0.25249514792608824","426"
"20:54:38:787 (H:m:s:ms)","GENERIC","31.042","0.21129627193059028","217"
"21:16:52:121 (H:m:s:ms)","GENERIC","62.063","0.237935528217737","887"
"21:28:21:265 (H:m:s:ms)","OPERA","62.017","0.29943197710884883","741"
"21:49:11:515 (H:m:s:ms)","GENERIC","62.035","0.2526345054734637","492"
"20:54:44:848 (H:m:s:ms)","GENERIC","62.059","0.2085702617183711","159"
"21:16:58:181 (H:m:s:ms)","GENERIC","62.107","0.23795241223998612","828"
"20:54:50:909 (H:m:s:ms)","GENERIC","62.123","0.20101662449027397","1097"
"21:17:4:242 (H:m:s:ms)","GENERIC","62.095","0.23835972505262193","767"
"20:54:56:969 (H:m:s:ms)","GENERIC","62.179","0.19611648321831143","1034"
"21:17:10:303 (H:m:s:ms)","GENERIC","62.033","0.24058273709164432","709"
"20:55:3:30 (H:m:s:ms)","GENERIC","62.027","0.18705858241785417","981"
"21:17:16:363 (H:m:s:ms)","GENERIC","62.053","0.2405980590948138","644"
"20:55:9:90 (H:m:s:ms)","GENERIC","62.115","0.19484395698561133","954"
"20:55:15:151 (H:m:s:ms)","GENERIC","62.085","0.19436616614563346","854"
"21:29:29:696 (H:m:s:ms)","GENERIC","62.051","0.2922521296923741","358"
"21:29:29:620 (H:m:s:ms)","OPERA","62.017","0.29112459819710707","430"
"21:29:23:636 (H:m:s:ms)","GENERIC","62.115","0.2971429068947883","370"
"21:29:22:25 (H:m:s:ms)","OPERA","62.017","0.29819760802953715","986"
"21:29:17:575 (H:m:s:ms)","GENERIC","62.077","0.2984317754148034","427"
"21:29:14:430 (H:m:s:ms)","OPERA","62.019","0.30250108647116425","572"
"21:29:11:515 (H:m:s:ms)","GENERIC","62.047","0.3007412534866771","487"
"21:17:22:424 (H:m:s:ms)","GENERIC","62.051","0.24272251745378362","582"
"21:17:28:484 (H:m:s:ms)","GENERIC","62.103","0.24757676031518233","519"
"20:55:21:212 (H:m:s:ms)","GENERIC","62.109","0.1959280990649704","794"
"21:17:34:545 (H:m:s:ms)","GENERIC","62.119","0.2513208912057967","460"
"20:55:27:272 (H:m:s:ms)","GENERIC","62.099","0.19633111349887747","732"
"21:17:40:606 (H:m:s:ms)","GENERIC","62.043","0.2571610667807618","400"
"21:29:6:835 (H:m:s:ms)","OPERA","62.017","0.29693720815704516","177"
"20:55:33:333 (H:m:s:ms)","GENERIC","62.073","0.1963329138262385","674"
"21:17:46:666 (H:m:s:ms)","GENERIC","62.073","0.25451775529215426","340"
"21:29:5:454 (H:m:s:ms)","GENERIC","62.095","0.2968655468344113","554"
"20:55:39:393 (H:m:s:ms)","GENERIC","62.045","0.20192606345757586","656"
"21:17:52:727 (H:m:s:ms)","GENERIC","62.087","0.2529122278195425","279"
"21:28:59:393 (H:m:s:ms)","GENERIC","62.081","0.3005146213706624","650"
"20:55:45:454 (H:m:s:ms)","GENERIC","62.109","0.20049721840532264","553"
"21:17:58:787 (H:m:s:ms)","GENERIC","62.065","0.2525850265039569","223"
"21:28:59:240 (H:m:s:ms)","OPERA","62.015","0.29778633682861133","801"
"20:55:51:515 (H:m:s:ms)","GENERIC","62.021","0.19738514021829487","495"
"21:18:4:848 (H:m:s:ms)","GENERIC","62.065","0.2513388027639968","160"
"20:55:57:575 (H:m:s:ms)","GENERIC","31.035","0.2016882799552463","434"
"21:18:10:909 (H:m:s:ms)","GENERIC","62.063","0.25075073379838947","1097"
"20:56:3:636 (H:m:s:ms)","GENERIC","62.039","0.20210743253752694","371"
"21:18:16:969 (H:m:s:ms)","GENERIC","62.131","0.2559358119433343","1039"
"20:56:9:696 (H:m:s:ms)","GENERIC","62.053","0.20325356666845798","352"
"20:56:15:757 (H:m:s:ms)","GENERIC","62.079","0.202238924422861","244"
"21:30:0:0 (H:m:s:ms)","GENERIC","62.093","0.28983078046368993","1062"
"21:30:0:0 (H:m:s:ms)","GENERIC","62.067","0.29092158351493713","1056"
"21:30:0:0 (H:m:s:ms)","OPERA","62.019","0.28914069770375517","1049"
"21:30:0:0 (H:m:s:ms)","AMBULANCE","31.009","0.286569323369572","1045"
"21:29:53:939 (H:m:s:ms)","GENERIC","62.097","0.2911739650877747","1068"
"21:29:52:405 (H:m:s:ms)","OPERA","62.019","0.2901636408521718","597"
"21:29:47:878 (H:m:s:ms)","GENERIC","62.073","0.2895298254370339","1133"
"21:29:44:810 (H:m:s:ms)","OPERA","62.017","0.2896876046610353","192"
"21:18:23:30 (H:m:s:ms)","GENERIC","62.101","0.2555917094280871","980"
"21:18:29:90 (H:m:s:ms)","GENERIC","62.033","0.25288050598516565","950"
"20:56:21:818 (H:m:s:ms)","GENERIC","62.055","0.20109062438008482","189"
"21:18:35:151 (H:m:s:ms)","GENERIC","62.053","0.25224456965040754","856"
"20:56:27:878 (H:m:s:ms)","GENERIC","62.123","0.20451223318556316","1129"
"21:18:41:212 (H:m:s:ms)","GENERIC","62.039","0.2568273548937329","798"
"20:40:0:0 (H:m:s:ms)","OPERA","31.009","0.24259555637164226","1126"
"20:56:33:939 (H:m:s:ms)","GENERIC","62.079","0.20826216277835982","1066"
"21:18:47:272 (H:m:s:ms)","GENERIC","62.071","0.25475893491178253","728"
"20:40:0:0 (H:m:s:ms)","GENERIC","62.089","0.24563899216931379","1132"
"20:56:40:0 (H:m:s:ms)","GENERIC","62.137","0.21341633429048593","1047"
"21:18:53:333 (H:m:s:ms)","GENERIC","62.103","0.2565064624922924","677"
"21:29:41:818 (H:m:s:ms)","GENERIC","62.103","0.29168895400178335","184"
"20:40:0:0 (H:m:s:ms)","GENERIC","62.091","0.2473259891749184","1137"
"20:56:46:60 (H:m:s:ms)","GENERIC","62.091","0.21361976483225897","951"
"21:18:59:393 (H:m:s:ms)","GENERIC","62.097","0.25646581216353403","650"
"21:29:37:215 (H:m:s:ms)","OPERA","62.017","0.2880323564707073","786"
"20:40:6:60 (H:m:s:ms)","GENERIC","62.119","0.24735967327189667","942"
"20:56:52:121 (H:m:s:ms)","GENERIC","62.051","0.2094122631400256","887"
"21:19:5:454 (H:m:s:ms)","GENERIC","62.097","0.25519515687675637","554"
"21:29:35:757 (H:m:s:ms)","GENERIC","62.111","0.28515369533649815","248"
"20:40:7:594 (H:m:s:ms)","OPERA","31.01","0.24858334737091953","413"
"20:56:58:181 (H:m:s:ms)","GENERIC","62.081","0.21013173379520353","826"
"21:19:11:515 (H:m:s:ms)","GENERIC","62.053","0.2496085453098277","493"
"20:40:12:121 (H:m:s:ms)","GENERIC","62.041","0.2428986010648279","885"
"20:57:4:242 (H:m:s:ms)","GENERIC","62.067","0.21017277868305367","770"
"21:19:17:575 (H:m:s:ms)","GENERIC","62.077","0.25406866975934594","427"
"20:40:15:189 (H:m:s:ms)","OPERA","31.01","0.24474709411834203","819"
"20:57:10:303 (H:m:s:ms)","GENERIC","31.017","0.20996944710332327","730"
"20:40:18:181 (H:m:s:ms)","GENERIC","62.113","0.2440581148069671","824"
"20:57:16:363 (H:m:s:ms)","GENERIC","62.081","0.21059866848987596","642"
"20:40:22:784 (H:m:s:ms)","OPERA","31.011","0.24597588623220035","222"
"20:40:24:242 (H:m:s:ms)","GENERIC","62.045","0.2479422500561668","768"
"21:30:18:181 (H:m:s:ms)","GENERIC","62.093","0.2804398721669191","824"
"21:31:0:606 (H:m:s:ms)","GENERIC","62.097","0.2551652363903198","402"
"21:30:54:545 (H:m:s:ms)","GENERIC","62.087","0.26063322886626383","464"
"21:30:48:484 (H:m:s:ms)","GENERIC","62.057","0.26444733721775876","525"
"21:30:42:424 (H:m:s:ms)","GENERIC","62.135","0.2643686841069954","584"
"21:30:36:363 (H:m:s:ms)","GENERIC","62.081","0.2681939492394903","639"
"21:30:31:578 (H:m:s:ms)","AMBULANCE","31.017","0.26866259726718494","480"
"21:30:30:303 (H:m:s:ms)","GENERIC","62.103","0.2694930810832503","708"
"21:19:23:636 (H:m:s:ms)","GENERIC","62.117","0.25314975494835457","371"
"21:30:24:242 (H:m:s:ms)","GENERIC","62.043","0.278967519967637","765"
"21:19:29:696 (H:m:s:ms)","GENERIC","62.071","0.2524782181206841","355"
"20:57:22:424 (H:m:s:ms)","GENERIC","31.011","0.20293164221551024","583"
"21:19:35:757 (H:m:s:ms)","GENERIC","62.111","0.2519670914175738","248"
"20:57:28:484 (H:m:s:ms)","GENERIC","62.121","0.2081890359997452","520"
"21:19:41:818 (H:m:s:ms)","GENERIC","62.085","0.2480800337361405","188"
"20:40:30:303 (H:m:s:ms)","GENERIC","62.101","0.243682450273422","704"
"20:57:34:545 (H:m:s:ms)","GENERIC","62.105","0.21927919135467183","457"
"21:19:47:878 (H:m:s:ms)","GENERIC","62.083","0.24846466750639865","1133"
"20:40:30:379 (H:m:s:ms)","OPERA","31.011","0.2444267189324707","634"
"20:57:40:606 (H:m:s:ms)","GENERIC","62.045","0.22088850595941942","403"
"21:19:53:939 (H:m:s:ms)","GENERIC","62.087","0.2543897031418141","1067"
"20:40:36:363 (H:m:s:ms)","GENERIC","62.097","0.25006573938920673","641"
"20:57:46:666 (H:m:s:ms)","GENERIC","62.077","0.22154954520059725","343"
"21:20:0:0 (H:m:s:ms)","OPERA","62.018","0.2546702014564671","1134"
"20:40:37:974 (H:m:s:ms)","OPERA","31.009","0.2552437341207739","1030"
"20:57:52:727 (H:m:s:ms)","GENERIC","62.057","0.2180170077343559","277"
"21:20:0:0 (H:m:s:ms)","GENERIC","62.061","0.25742718393306097","1141"
"21:30:12:121 (H:m:s:ms)","GENERIC","62.035","0.2825959520029768","882"
"20:40:42:424 (H:m:s:ms)","GENERIC","62.083","0.25213696780859773","581"
"20:57:58:787 (H:m:s:ms)","GENERIC","62.079","0.21733514657940617","220"
"21:20:0:0 (H:m:s:ms)","GENERIC","62.091","0.2623824021134514","1148"
"21:30:6:60 (H:m:s:ms)","GENERIC","62.093","0.2859373330224303","941"
"20:40:48:484 (H:m:s:ms)","GENERIC","62.059","0.25193303589672184","524"
"20:58:4:848 (H:m:s:ms)","GENERIC","62.071","0.22072612999926894","162"
"21:20:6:60 (H:m:s:ms)","GENERIC","62.105","0.26396244804137403","942"
"20:40:53:164 (H:m:s:ms)","OPERA","31.009","0.2519525994689501","839"
"20:58:10:909 (H:m:s:ms)","GENERIC","62.045","0.21829061970671973","1094"
"20:40:54:545 (H:m:s:ms)","GENERIC","62.093","0.2526809226794305","463"
"20:58:16:969 (H:m:s:ms)","GENERIC","62.089","0.22516112638525632","1034"
"20:41:0:606 (H:m:s:ms)","GENERIC","62.083","0.2523191612548993","440"
"20:41:0:759 (H:m:s:ms)","OPERA","31.01","0.25737922693487403","292"
"21:31:12:727 (H:m:s:ms)","GENERIC","62.055","0.265073420982447","281"
"21:31:6:666 (H:m:s:ms)","GENERIC","62.097","0.26211439880242704","338"
"21:31:55:151 (H:m:s:ms)","GENERIC","62.075","0.2679523097455203","851"
"21:31:49:90 (H:m:s:ms)","GENERIC","62.119","0.2624864899539256","950"
"21:31:43:30 (H:m:s:ms)","GENERIC","62.077","0.26097308617088183","976"
"21:31:36:969 (H:m:s:ms)","GENERIC","62.055","0.26281907990235315","1038"
"21:31:34:736 (H:m:s:ms)","AMBULANCE","31.013","0.2593164678196109","299"
"21:31:30:909 (H:m:s:ms)","GENERIC","62.059","0.2581187131217822","1093"
"21:31:24:848 (H:m:s:ms)","GENERIC","62.057","0.25900241583131334","155"
"21:35:16:0 (H:m:s:ms)","GENERIC","62.095","0.2436138832263044","1235"
"20:58:23:30 (H:m:s:ms)","GENERIC","62.071","0.22783665179178564","979"
"20:58:29:90 (H:m:s:ms)","GENERIC","62.109","0.22641468903610887","1044"
"20:41:6:666 (H:m:s:ms)","GENERIC","62.075","0.25517700180277275","343"
"20:58:35:151 (H:m:s:ms)","GENERIC","62.057","0.2265653860060875","856"
"20:41:8:354 (H:m:s:ms)","OPERA","31.01","0.25646799793092656","650"
"20:58:41:212 (H:m:s:ms)","GENERIC","62.057","0.22864268775073734","796"
"20:41:12:727 (H:m:s:ms)","GENERIC","62.047","0.256418852073137","280"
"20:58:47:272 (H:m:s:ms)","GENERIC","62.061","0.2352965833455003","732"
"20:41:18:787 (H:m:s:ms)","GENERIC","62.029","0.25949504612701396","221"
"20:58:53:333 (H:m:s:ms)","GENERIC","62.111","0.2414846474466374","670"
"20:41:23:544 (H:m:s:ms)","OPERA","31.011","0.26131655981200835","467"
"20:58:59:393 (H:m:s:ms)","GENERIC","62.099","0.24434634415056922","654"
"20:41:24:848 (H:m:s:ms)","GENERIC","62.115","0.26594651829950816","155"
"20:59:5:454 (H:m:s:ms)","GENERIC","62.077","0.24372398702093293","553"
"21:31:3:157 (H:m:s:ms)","AMBULANCE","31.01","0.2621440876549085","853"
"20:41:30:909 (H:m:s:ms)","GENERIC","62.071","0.26426187011297975","1141"
"20:59:11:515 (H:m:s:ms)","GENERIC","62.059","0.24120205745265344","506"
"20:41:31:139 (H:m:s:ms)","OPERA","31.01","0.2651390142686021","912"
"20:59:17:575 (H:m:s:ms)","GENERIC","62.085","0.24338350309882678","427"
"20:41:36:969 (H:m:s:ms)","GENERIC","62.037","0.26703891080012926","1037"
"20:41:38:734 (H:m:s:ms)","OPERA","31.009","0.26908965333802126","271"
"20:59:23:636 (H:m:s:ms)","GENERIC","62.115","0.24086364707865288","370"
"20:59:29:696 (H:m:s:ms)","GENERIC","62.073","0.2395313155477416","351"
"20:41:43:30 (H:m:s:ms)","GENERIC","62.085","0.26418377569461593","978"
"20:59:35:757 (H:m:s:ms)","GENERIC","62.099","0.23781820311975968","247"
"20:41:46:329 (H:m:s:ms)","OPERA","31.009","0.2666233849978506","672"
"20:59:41:818 (H:m:s:ms)","GENERIC","62.053","0.23870296191950954","193"
"20:41:49:90 (H:m:s:ms)","GENERIC","62.093","0.2625404450815776","951"
"20:59:47:878 (H:m:s:ms)","GENERIC","62.073","0.2379951989788229","1132"
"20:41:53:924 (H:m:s:ms)","OPERA","31.011","0.2613841612176487","1087"
"20:59:53:939 (H:m:s:ms)","GENERIC","62.073","0.23875600051898174","1068"
"20:41:55:151 (H:m:s:ms)","GENERIC","62.043","0.2628675247412503","853"
"21:0:0:0 (H:m:s:ms)","AMBULANCE","31.018","0.23858824222520833","1166"
"20:42:1:212 (H:m:s:ms)","GENERIC","62.127","0.2655925803780422","793"
"21:0:0:0 (H:m:s:ms)","GENERIC","62.069","0.24464941574295557","1170"
"20:42:1:518 (H:m:s:ms)","OPERA","31.009","0.26737849910415046","492"
"21:0:0:0 (H:m:s:ms)","GENERIC","62.085","0.24780844123574639","1176"
"20:42:7:272 (H:m:s:ms)","GENERIC","62.087","0.264097995440732","730"
"21:0:6:60 (H:m:s:ms)","GENERIC","62.105","0.2454137097905666","941"
"20:42:9:113 (H:m:s:ms)","OPERA","31.01","0.2648064521082738","925"
"20:42:13:333 (H:m:s:ms)","GENERIC","62.107","0.2679838439642119","673"
"21:0:12:121 (H:m:s:ms)","GENERIC","62.037","0.2441761598646588","884"
"21:0:18:181 (H:m:s:ms)","GENERIC","62.135","0.24115324909605204","824"
"20:42:16:708 (H:m:s:ms)","OPERA","31.011","0.27146967897075197","303"
"21:0:24:242 (H:m:s:ms)","GENERIC","62.071","0.24016376545090465","765"
"20:42:19:393 (H:m:s:ms)","GENERIC","62.069","0.27391881023649095","650"
"21:0:30:303 (H:m:s:ms)","GENERIC","62.109","0.23478754816453415","706"
"20:20:0:0 (H:m:s:ms)","GENERIC","62.083","0.22161180288664992","1122"
"20:42:24:303 (H:m:s:ms)","OPERA","31.009","0.273430315000346","706"
"21:0:31:578 (H:m:s:ms)","AMBULANCE","31.045","0.23870815883666124","430"
"20:20:0:0 (H:m:s:ms)","GENERIC","62.127","0.22302096030464524","1128"
"20:42:25:454 (H:m:s:ms)","GENERIC","62.113","0.2731030471122845","547"
"21:0:36:363 (H:m:s:ms)","GENERIC","62.097","0.24127107898349345","638"
"20:20:6:60 (H:m:s:ms)","GENERIC","62.137","0.2202884422679611","941"
"20:42:31:515 (H:m:s:ms)","GENERIC","62.079","0.26990312514607545","488"
"21:0:42:424 (H:m:s:ms)","GENERIC","62.101","0.2348755785248894","582"
"20:20:12:121 (H:m:s:ms)","GENERIC","62.053","0.2129636392560382","886"
"20:42:31:898 (H:m:s:ms)","OPERA","31.009","0.26917336308292467","111"
"21:0:48:484 (H:m:s:ms)","GENERIC","62.065","0.2348083616218172","523"
"20:20:18:181 (H:m:s:ms)","GENERIC","62.087","0.21167528616220158","824"
"20:42:37:575 (H:m:s:ms)","GENERIC","62.063","0.2673765529035493","430"
"21:0:54:545 (H:m:s:ms)","GENERIC","62.089","0.23244429140214745","463"
"20:20:24:242 (H:m:s:ms)","GENERIC","62.057","0.21203015308632503","767"
"20:42:39:493 (H:m:s:ms)","OPERA","31.01","0.26916886564651454","545"
"21:1:0:606 (H:m:s:ms)","GENERIC","62.039","0.2259091684976682","406"
"20:20:30:303 (H:m:s:ms)","GENERIC","62.083","0.21131878359260994","708"
"20:42:43:636 (H:m:s:ms)","GENERIC","62.023","0.2658121625803327","369"
"20:20:36:363 (H:m:s:ms)","GENERIC","62.105","0.21432382726695262","638"
"20:42:47:88 (H:m:s:ms)","OPERA","31.01","0.266772570271494","918"
"20:20:42:424 (H:m:s:ms)","GENERIC","62.083","0.2067013172645251","583"
"20:20:48:484 (H:m:s:ms)","GENERIC","62.031","0.20554560619952786","524"
"21:1:3:157 (H:m:s:ms)","AMBULANCE","31.036","0.2255820490167387","939"
"21:1:6:666 (H:m:s:ms)","GENERIC","62.093","0.22544410876192378","343"
"20:42:49:696 (H:m:s:ms)","GENERIC","62.093","0.2663642587167406","343"
"21:1:12:727 (H:m:s:ms)","GENERIC","62.057","0.22455730851312847","280"
"20:42:54:683 (H:m:s:ms)","OPERA","31.01","0.2657710197601964","326"
"21:1:18:787 (H:m:s:ms)","GENERIC","62.063","0.224558032397484","216"
"20:20:54:545 (H:m:s:ms)","GENERIC","62.125","0.2082528133824025","464"
"20:42:55:757 (H:m:s:ms)","GENERIC","62.155","0.27417684328042424","244"
"21:1:24:848 (H:m:s:ms)","GENERIC","62.111","0.23000338407275245","157"
"20:21:0:606 (H:m:s:ms)","GENERIC","62.067","0.21095226070057263","396"
"20:43:1:818 (H:m:s:ms)","GENERIC","62.061","0.27740906754348604","186"
"21:1:30:909 (H:m:s:ms)","GENERIC","62.029","0.22967681772863982","1096"
"20:21:6:666 (H:m:s:ms)","GENERIC","62.077","0.21133917912961064","339"
"20:43:2:278 (H:m:s:ms)","OPERA","31.01","0.2805773631527813","724"
"21:1:34:736 (H:m:s:ms)","AMBULANCE","31.019","0.2323024380107342","275"
"20:21:12:727 (H:m:s:ms)","GENERIC","62.045","0.21142574979541373","281"
"20:43:7:878 (H:m:s:ms)","GENERIC","62.115","0.28057736767158387","1124"
"21:1:36:969 (H:m:s:ms)","GENERIC","62.063","0.2294258143571575","1034"
"20:21:18:787 (H:m:s:ms)","GENERIC","31.013","0.21142298041777427","217"
"20:43:9:873 (H:m:s:ms)","OPERA","31.009","0.2831020917752116","170"
"21:1:43:30 (H:m:s:ms)","GENERIC","62.071","0.22443824577527974","977"
"20:21:24:848 (H:m:s:ms)","GENERIC","62.099","0.2089898095338792","155"
"20:43:13:939 (H:m:s:ms)","GENERIC","31.021","0.2832381661885116","1071"
"21:1:49:90 (H:m:s:ms)","GENERIC","62.123","0.22579720848171464","960"
"20:21:30:909 (H:m:s:ms)","GENERIC","62.073","0.20845394130457262","1098"
"20:43:17:468 (H:m:s:ms)","OPERA","31.009","0.2848991113626321","536"
"20:21:36:969 (H:m:s:ms)","GENERIC","62.049","0.20737437017777294","1039"
"20:43:20:0 (H:m:s:ms)","GENERIC","62.127","0.2872646308675445","1042"
"20:21:43:30 (H:m:s:ms)","GENERIC","62.079","0.20479626884552735","978"
"20:21:49:90 (H:m:s:ms)","GENERIC","62.069","0.20480215471892685","948"
"20:43:25:63 (H:m:s:ms)","OPERA","31.01","0.28899117775593314","942"
"20:43:26:60 (H:m:s:ms)","GENERIC","62.075","0.2881237826475978","948"
"20:21:55:151 (H:m:s:ms)","GENERIC","62.023","0.20669710188179286","858"
"20:43:32:121 (H:m:s:ms)","GENERIC","62.085","0.2899508845100433","883"
"20:22:1:212 (H:m:s:ms)","GENERIC","62.115","0.21378819629876317","792"
"20:43:32:658 (H:m:s:ms)","OPERA","31.011","0.28906807084563235","349"
"20:22:7:272 (H:m:s:ms)","GENERIC","62.055","0.22011854981356804","732"
"20:43:38:181 (H:m:s:ms)","GENERIC","62.099","0.2921239071737637","827"
"20:22:13:333 (H:m:s:ms)","GENERIC","62.103","0.22377210004443712","673"
"20:43:40:253 (H:m:s:ms)","OPERA","31.011","0.29339084170846125","750"
"20:22:19:393 (H:m:s:ms)","GENERIC","62.063","0.22960886811269207","652"
"20:43:44:242 (H:m:s:ms)","GENERIC","62.095","0.2903513567103379","767"
"20:22:25:454 (H:m:s:ms)","GENERIC","62.115","0.22788502995255108","549"
"20:43:47:848 (H:m:s:ms)","OPERA","31.009","0.29193428547527406","155"
"20:22:31:515 (H:m:s:ms)","GENERIC","62.123","0.22998532714087905","492"
"20:43:50:303 (H:m:s:ms)","GENERIC","62.079","0.2936593346969521","702"
"20:22:37:575 (H:m:s:ms)","GENERIC","62.091","0.23153853439997815","432"
"20:43:55:443 (H:m:s:ms)","OPERA","31.01","0.28674042103137803","560"
"20:22:43:636 (H:m:s:ms)","GENERIC","62.029","0.22762792436135393","374"
"20:22:49:696 (H:m:s:ms)","GENERIC","62.105","0.23097217541116158","342"
"20:43:56:363 (H:m:s:ms)","GENERIC","62.027","0.2861397293061166","642"
"20:44:2:424 (H:m:s:ms)","GENERIC","62.127","0.2876358935084199","579"
"20:22:55:757 (H:m:s:ms)","GENERIC","62.163","0.227763950989334","245"
"20:44:3:37 (H:m:s:ms)","OPERA","31.009","0.28898659964207146","972"
"20:23:1:818 (H:m:s:ms)","GENERIC","62.043","0.22974033982095599","192"
"20:44:8:484 (H:m:s:ms)","GENERIC","62.103","0.29215487726086053","517"
"20:23:7:878 (H:m:s:ms)","GENERIC","62.095","0.233871595134231","1123"
"20:44:10:632 (H:m:s:ms)","OPERA","31.009","0.29202501267805636","376"
"20:23:13:939 (H:m:s:ms)","GENERIC","62.057","0.23370715056631913","1070"
"20:44:14:545 (H:m:s:ms)","GENERIC","62.061","0.29147375066674247","457"
"20:23:20:0 (H:m:s:ms)","GENERIC","62.093","0.23005765959745197","1046"
"20:44:18:227 (H:m:s:ms)","OPERA","31.01","0.290450772489123","774"
"20:23:26:60 (H:m:s:ms)","GENERIC","62.073","0.22959054620170688","950"
"20:44:20:606 (H:m:s:ms)","GENERIC","62.075","0.2894789903608329","400"
"20:23:32:121 (H:m:s:ms)","GENERIC","62.053","0.2233352861491587","885"
"20:44:25:822 (H:m:s:ms)","OPERA","31.009","0.29107842363148345","179"
"20:23:38:181 (H:m:s:ms)","GENERIC","62.065","0.22986535982145087","829"
"20:44:26:666 (H:m:s:ms)","GENERIC","62.073","0.29106075222788086","339"
"20:23:44:242 (H:m:s:ms)","GENERIC","62.065","0.23005190810780302","766"
"20:23:50:303 (H:m:s:ms)","GENERIC","62.081","0.2370068939822219","698"
"20:44:32:727 (H:m:s:ms)","GENERIC","62.103","0.29454492256518516","283"
"20:44:33:417 (H:m:s:ms)","OPERA","31.01","0.2986443935963348","595"
"20:23:56:363 (H:m:s:ms)","GENERIC","62.021","0.2303641674031556","644"
"20:44:38:787 (H:m:s:ms)","GENERIC","62.115","0.30091093782286077","280"
"20:24:2:424 (H:m:s:ms)","GENERIC","62.133","0.22972601773455334","579"
"20:44:41:12 (H:m:s:ms)","OPERA","31.01","0.3031313468658417","1000"
"20:24:8:484 (H:m:s:ms)","GENERIC","62.125","0.23675443165447657","517"
"20:44:44:848 (H:m:s:ms)","GENERIC","62.043","0.3037313897534731","157"
"20:24:14:545 (H:m:s:ms)","GENERIC","62.029","0.23676124718650984","460"
"20:44:48:607 (H:m:s:ms)","OPERA","31.01","0.3070216169903093","395"
"20:24:20:606 (H:m:s:ms)","GENERIC","62.073","0.2412437298857854","400"
"20:44:50:909 (H:m:s:ms)","GENERIC","62.141","0.30730175143720107","1095"
"20:24:26:666 (H:m:s:ms)","GENERIC","62.043","0.23985741020033524","338"
"20:44:56:202 (H:m:s:ms)","OPERA","31.01","0.30730044546516655","807"
"20:24:32:727 (H:m:s:ms)","GENERIC","62.097","0.23802840011407944","276"
"20:44:56:969 (H:m:s:ms)","GENERIC","62.161","0.3067104788139206","1045"
"20:24:38:787 (H:m:s:ms)","GENERIC","62.117","0.24036667101377193","215"
"20:45:3:30 (H:m:s:ms)","GENERIC","62.043","0.3034894666799959","975"
"20:24:44:848 (H:m:s:ms)","GENERIC","62.025","0.24060776872567474","161"
"20:24:50:909 (H:m:s:ms)","GENERIC","62.131","0.24085020324080492","1095"
"20:45:3:797 (H:m:s:ms)","OPERA","31.01","0.30637376717092846","215"
"20:45:9:90 (H:m:s:ms)","GENERIC","62.091","0.30511120460937774","960"
"20:24:56:969 (H:m:s:ms)","GENERIC","62.165","0.24209273898558253","1035"
"20:45:11:392 (H:m:s:ms)","OPERA","31.01","0.30423353913470547","613"
"20:25:3:30 (H:m:s:ms)","GENERIC","62.025","0.24081672308880037","979"
"20:45:15:151 (H:m:s:ms)","GENERIC","62.091","0.29893007021933415","853"
"20:25:9:90 (H:m:s:ms)","GENERIC","62.051","0.2440117478092079","950"
"20:45:18:987 (H:m:s:ms)","OPERA","31.009","0.30086142486272566","1055"
"20:25:15:151 (H:m:s:ms)","GENERIC","62.073","0.24434719111895115","854"
"20:45:21:212 (H:m:s:ms)","GENERIC","62.103","0.30170055502514015","793"
"20:25:21:212 (H:m:s:ms)","GENERIC","62.097","0.25049750514203994","792"
"20:45:26:582 (H:m:s:ms)","OPERA","31.01","0.3009891155429864","421"
"20:25:27:272 (H:m:s:ms)","GENERIC","62.087","0.2477629512335253","730"
"20:45:27:272 (H:m:s:ms)","GENERIC","62.101","0.3000929746142144","731"
"20:25:33:333 (H:m:s:ms)","GENERIC","62.073","0.24771417424900177","675"
"20:45:33:333 (H:m:s:ms)","GENERIC","62.059","0.29832461988725223","674"
"20:25:39:393 (H:m:s:ms)","GENERIC","62.029","0.2425108465624861","654"
"20:45:34:177 (H:m:s:ms)","OPERA","31.009","0.30008029532997615","826"
"20:25:45:454 (H:m:s:ms)","GENERIC","62.099","0.23837806182604585","553"
"20:25:51:515 (H:m:s:ms)","GENERIC","62.071","0.23742170347136096","669"
"20:25:57:575 (H:m:s:ms)","GENERIC","62.037","0.23285472404666352","430"
"20:26:3:636 (H:m:s:ms)","GENERIC","62.037","0.23202908368020467","367"
"20:26:9:696 (H:m:s:ms)","GENERIC","62.123","0.23161850052099414","346"
"20:26:15:757 (H:m:s:ms)","GENERIC","62.081","0.2298737230866776","246"
"20:26:21:818 (H:m:s:ms)","GENERIC","62.113","0.22425659260576442","189"
"20:26:27:878 (H:m:s:ms)","GENERIC","62.115","0.22545151975689484","1128"
"20:26:33:939 (H:m:s:ms)","GENERIC","62.059","0.22382269445829256","1065"
"20:26:40:0 (H:m:s:ms)","GENERIC","62.101","0.22844795409089777","1042"
"20:26:46:60 (H:m:s:ms)","GENERIC","62.059","0.23095347106860725","952"
"20:26:52:121 (H:m:s:ms)","GENERIC","62.035","0.2298091311401065","887"
"20:26:58:181 (H:m:s:ms)","GENERIC","62.089","0.2310563112702763","827"
"20:27:4:242 (H:m:s:ms)","GENERIC","62.045","0.2280160378443702","767"
"20:27:10:303 (H:m:s:ms)","GENERIC","62.095","0.23098441807014886","706"
"20:27:16:363 (H:m:s:ms)","GENERIC","62.109","0.2313136511875476","645"
"20:27:22:424 (H:m:s:ms)","GENERIC","62.095","0.2285008100634247","577"
"20:27:28:484 (H:m:s:ms)","GENERIC","62.133","0.22895437466372404","517"
"20:27:34:545 (H:m:s:ms)","GENERIC","62.101","0.2288345339763865","464"
"20:27:40:606 (H:m:s:ms)","GENERIC","62.103","0.22951476921973035","400"
"20:27:46:666 (H:m:s:ms)","GENERIC","62.083","0.23148024869065192","343"
"20:27:52:727 (H:m:s:ms)","GENERIC","62.035","0.22683021438014586","281"
"20:27:58:787 (H:m:s:ms)","GENERIC","62.023","0.2270690157883805","223"
"20:28:4:848 (H:m:s:ms)","GENERIC","62.115","0.22831775478722927","160"
"20:28:10:909 (H:m:s:ms)","GENERIC","62.059","0.22852755327344754","1098"
"20:28:16:969 (H:m:s:ms)","GENERIC","62.111","0.22863193403596607","1036"
"20:28:23:30 (H:m:s:ms)","GENERIC","62.085","0.22853973497372262","978"
"20:28:29:90 (H:m:s:ms)","GENERIC","62.107","0.22602438375870576","950"
"20:28:35:151 (H:m:s:ms)","GENERIC","62.059","0.2251433847532526","856"
"20:28:41:212 (H:m:s:ms)","GENERIC","62.093","0.22445281679527906","799"
"20:28:47:272 (H:m:s:ms)","GENERIC","62.063","0.23110883689609085","731"
"20:28:53:333 (H:m:s:ms)","GENERIC","62.087","0.22789357105476035","668"
"20:28:59:393 (H:m:s:ms)","GENERIC","62.115","0.23040104057425798","643"
"20:29:5:454 (H:m:s:ms)","GENERIC","62.097","0.23137607877939975","554"
"20:29:11:515 (H:m:s:ms)","GENERIC","62.047","0.2313731479399756","496"
"20:29:17:575 (H:m:s:ms)","GENERIC","62.115","0.23180266755008824","428"
"20:29:23:636 (H:m:s:ms)","GENERIC","62.133","0.2253488916493428","371"
"20:29:29:696 (H:m:s:ms)","GENERIC","62.065","0.22328784525293655","461"
"20:29:35:757 (H:m:s:ms)","GENERIC","62.101","0.22261941129635845","247"
"20:29:41:818 (H:m:s:ms)","GENERIC","62.029","0.2226956721319356","190"
"20:29:47:878 (H:m:s:ms)","GENERIC","62.103","0.22362767844308196","1132"
"20:29:53:939 (H:m:s:ms)","GENERIC","62.071","0.2306214770575793","1066"
"21:20:7:594 (H:m:s:ms)","OPERA","62.015","0.26449084391200095","416"
"21:20:12:121 (H:m:s:ms)","GENERIC","62.023","0.25951599734147757","884"
"21:20:15:189 (H:m:s:ms)","OPERA","62.017","0.2643213563878141","818"
"21:20:18:181 (H:m:s:ms)","GENERIC","62.117","0.26322905676678227","826"
"21:20:22:784 (H:m:s:ms)","OPERA","62.015","0.26296465378129324","224"
"21:20:24:242 (H:m:s:ms)","GENERIC","62.061","0.2687874368046783","763"
"21:20:30:303 (H:m:s:ms)","GENERIC","62.095","0.2659578828043468","706"
"21:20:30:379 (H:m:s:ms)","OPERA","62.017","0.264151552948971","636"
"21:20:36:363 (H:m:s:ms)","GENERIC","62.097","0.2673718045338402","642"
"21:20:37:974 (H:m:s:ms)","OPERA","62.017","0.2653490650824639","1029"
"21:20:42:424 (H:m:s:ms)","GENERIC","62.113","0.26228253970407195","581"
"21:20:45:569 (H:m:s:ms)","OPERA","31.011","0.2614964416967807","435"
"21:20:48:484 (H:m:s:ms)","GENERIC","62.063","0.26219361520830264","523"
"21:20:53:164 (H:m:s:ms)","OPERA","62.015","0.26377787472146286","844"
"21:20:54:545 (H:m:s:ms)","GENERIC","62.093","0.26444795096233437","463"
"21:21:0:606 (H:m:s:ms)","GENERIC","62.079","0.2658024371691965","402"
"21:21:0:759 (H:m:s:ms)","OPERA","62.017","0.2662216774956966","256"
"21:21:6:666 (H:m:s:ms)","GENERIC","62.095","0.2614044368796523","342"
"21:21:8:354 (H:m:s:ms)","OPERA","62.017","0.26394711859525133","651"
"21:21:12:727 (H:m:s:ms)","GENERIC","62.051","0.26620407007654673","280"
"21:32:49:696 (H:m:s:ms)","GENERIC","62.105","0.2718390646675164","344"
"21:32:37:575 (H:m:s:ms)","GENERIC","62.029","0.27002606560433007","430"
"21:36:20:0 (H:m:s:ms)","GENERIC","62.087","0.2433495536704369","2512"
"21:32:25:454 (H:m:s:ms)","GENERIC","62.089","0.26807674956143046","548"
"21:36:20:0 (H:m:s:ms)","GENERIC","62.123","0.23628806231170968","2668"
"21:32:13:333 (H:m:s:ms)","GENERIC","62.107","0.26463543274225254","673"
"21:36:20:0 (H:m:s:ms)","GENERIC","62.071","0.24565768369247665","2780"
"21:32:6:315 (H:m:s:ms)","AMBULANCE","31.028","0.26660338869531347","698"
"21:21:15:949 (H:m:s:ms)","OPERA","31.01","0.2681023471931993","1053"
"21:32:1:212 (H:m:s:ms)","GENERIC","62.123","0.26786831425214785","793"
"21:21:18:787 (H:m:s:ms)","GENERIC","62.079","0.2721041425940792","218"
"21:21:23:544 (H:m:s:ms)","OPERA","62.017","0.2729247885139707","467"
"21:21:24:848 (H:m:s:ms)","GENERIC","62.073","0.2728934536169366","155"
"21:21:30:909 (H:m:s:ms)","GENERIC","62.051","0.2681287665934866","1098"
"21:21:31:139 (H:m:s:ms)","OPERA","62.015","0.26911991293968257","873"
"21:21:36:969 (H:m:s:ms)","GENERIC","62.079","0.26885234799572194","1038"
"21:21:38:734 (H:m:s:ms)","OPERA","62.015","0.2720134076805108","270"
"21:32:43:636 (H:m:s:ms)","GENERIC","62.037","0.27221412905437903","373"
"21:21:43:30 (H:m:s:ms)","GENERIC","62.085","0.267292904568105","979"
"21:32:37:894 (H:m:s:ms)","AMBULANCE","31.018","0.2720416688458938","172"
"21:21:46:329 (H:m:s:ms)","OPERA","62.015","0.27015894494910614","673"
"21:33:44:242 (H:m:s:ms)","GENERIC","62.037","0.2659715192573014","768"
"21:33:41:52 (H:m:s:ms)","AMBULANCE","31.029","0.2629913986568252","957"
"21:33:32:121 (H:m:s:ms)","GENERIC","62.047","0.2584151768472652","883"
"21:33:26:60 (H:m:s:ms)","GENERIC","62.091","0.266923718138992","951"
"21:33:20:0 (H:m:s:ms)","GENERIC","62.195","0.2686777251700088","1045"
"21:33:13:939 (H:m:s:ms)","GENERIC","62.063","0.27110419605196157","1067"
"21:33:9:473 (H:m:s:ms)","AMBULANCE","31.01","0.2718620405977518","570"
"21:33:7:878 (H:m:s:ms)","GENERIC","62.103","0.2701840966990072","1123"
"21:21:49:90 (H:m:s:ms)","GENERIC","62.135","0.27456277920109284","948"
"21:33:1:818 (H:m:s:ms)","GENERIC","62.091","0.26964426975231465","192"
"21:21:53:924 (H:m:s:ms)","OPERA","62.015","0.27457493991606313","1085"
"21:32:55:757 (H:m:s:ms)","GENERIC","62.095","0.27001943878664836","247"
"21:21:55:151 (H:m:s:ms)","GENERIC","62.067","0.2787703942042125","853"
"21:22:1:212 (H:m:s:ms)","GENERIC","62.127","0.2786288384775917","791"
"21:22:1:518 (H:m:s:ms)","OPERA","62.017","0.27780461412415947","495"
"21:22:7:272 (H:m:s:ms)","GENERIC","62.077","0.28072312571431896","733"
"21:22:9:113 (H:m:s:ms)","OPERA","62.015","0.2839212832370941","925"
"21:22:13:333 (H:m:s:ms)","GENERIC","62.101","0.2827207156227687","673"
"21:22:16:708 (H:m:s:ms)","OPERA","62.015","0.2848442881030733","300"
"21:22:19:393 (H:m:s:ms)","GENERIC","62.113","0.2890852106002808","648"
"21:33:38:181 (H:m:s:ms)","GENERIC","31.03","0.25997150665022456","878"
"21:34:44:210 (H:m:s:ms)","AMBULANCE","31.023","0.25288813124686216","822"
"21:36:20:0 (H:m:s:ms)","GENERIC","62.069","0.2456317595261137","2254"
"21:34:32:727 (H:m:s:ms)","GENERIC","62.107","0.24862896142834184","274"
"21:34:26:666 (H:m:s:ms)","GENERIC","62.085","0.24968139905721887","343"
"21:34:20:606 (H:m:s:ms)","GENERIC","62.013","0.2564443012988274","405"
"21:34:14:545 (H:m:s:ms)","GENERIC","62.089","0.26232352270759535","463"
"21:34:12:631 (H:m:s:ms)","AMBULANCE","31.019","0.2593102046432592","412"
"21:34:8:484 (H:m:s:ms)","GENERIC","62.045","0.2589985819390888","519"
"21:22:24:303 (H:m:s:ms)","OPERA","62.019","0.2871842073303087","705"
"21:34:2:424 (H:m:s:ms)","GENERIC","62.105","0.2637742817627717","580"
"21:22:25:454 (H:m:s:ms)","GENERIC","62.109","0.2870905744074234","548"
"21:33:56:363 (H:m:s:ms)","GENERIC","62.097","0.2662771857201784","643"
"21:1:55:151 (H:m:s:ms)","GENERIC","62.041","0.22682065796505338","857"
"21:22:31:515 (H:m:s:ms)","GENERIC","62.091","0.2813055368656063","489"
"21:33:50:303 (H:m:s:ms)","GENERIC","62.105","0.26633459595329373","707"
"21:2:1:212 (H:m:s:ms)","GENERIC","62.125","0.23283365697883499","793"
"21:22:31:898 (H:m:s:ms)","OPERA","62.019","0.28454665220420583","1113"
"21:2:6:315 (H:m:s:ms)","AMBULANCE","31.028","0.23389328934303547","694"
"21:22:37:575 (H:m:s:ms)","GENERIC","62.045","0.28342314084687026","431"
"21:2:7:272 (H:m:s:ms)","GENERIC","62.107","0.23956755357543935","732"
"21:22:39:493 (H:m:s:ms)","OPERA","62.017","0.2825268735496386","549"
"21:2:13:333 (H:m:s:ms)","GENERIC","62.115","0.24036639148213698","672"
"21:22:43:636 (H:m:s:ms)","GENERIC","62.023","0.27771354488995653","372"
"21:2:19:393 (H:m:s:ms)","GENERIC","62.085","0.24146423326718508","660"
"21:22:47:88 (H:m:s:ms)","OPERA","62.015","0.27917838837154096","916"
"21:2:25:454 (H:m:s:ms)","GENERIC","62.129","0.24390401265270248","548"
"21:22:49:696 (H:m:s:ms)","GENERIC","62.115","0.27943010216699243","343"
"21:2:31:515 (H:m:s:ms)","GENERIC","31.035","0.24272783590235447","489"
"21:22:54:683 (H:m:s:ms)","OPERA","62.015","0.2802447274835613","326"
"21:2:37:575 (H:m:s:ms)","GENERIC","62.067","0.23279738280434434","432"
"21:2:37:894 (H:m:s:ms)","AMBULANCE","31.053","0.23846996610808774","125"
"21:35:39:393 (H:m:s:ms)","GENERIC","62.031","0.24334628092245544","652"
"21:35:33:333 (H:m:s:ms)","GENERIC","62.091","0.24334827982486693","674"
"21:35:27:272 (H:m:s:ms)","GENERIC","62.121","0.2482138767877279","730"
"21:35:21:212 (H:m:s:ms)","GENERIC","62.083","0.2532138587889911","793"
"21:35:15:789 (H:m:s:ms)","AMBULANCE","31.03","0.231713337804611","229"
"21:35:15:151 (H:m:s:ms)","GENERIC","62.071","0.2382117179373583","854"
"21:35:9:90 (H:m:s:ms)","GENERIC","62.085","0.23807218545133568","956"
"21:22:55:757 (H:m:s:ms)","GENERIC","62.097","0.2813023640728113","244"
"21:35:3:30 (H:m:s:ms)","GENERIC","62.053","0.23241687569482153","980"
"21:23:1:818 (H:m:s:ms)","GENERIC","62.105","0.2806384799022489","189"
"21:34:56:969 (H:m:s:ms)","GENERIC","62.145","0.24696172781445366","1035"
"21:2:43:636 (H:m:s:ms)","GENERIC","62.031","0.24039612225467935","374"
"21:23:2:278 (H:m:s:ms)","OPERA","62.019","0.2823077240688995","729"
"21:34:50:909 (H:m:s:ms)","GENERIC","62.057","0.25231830566420177","1096"
"21:2:49:696 (H:m:s:ms)","GENERIC","62.105","0.24629883998362154","349"
"21:23:7:878 (H:m:s:ms)","GENERIC","62.105","0.28199321426385227","1123"
"21:34:44:848 (H:m:s:ms)","GENERIC","62.083","0.25410233867019166","197"
"21:2:55:757 (H:m:s:ms)","GENERIC","62.127","0.24458104816340132","245"
"21:23:9:873 (H:m:s:ms)","OPERA","62.019","0.28390292049264465","172"
"21:3:1:818 (H:m:s:ms)","GENERIC","62.091","0.24835711728915968","188"
"21:23:13:939 (H:m:s:ms)","GENERIC","62.059","0.2850074487111402","1068"
"21:3:7:878 (H:m:s:ms)","GENERIC","62.125","0.25095740707862857","1123"
"21:23:17:468 (H:m:s:ms)","OPERA","62.015","0.28891473736111783","534"
"21:3:9:473 (H:m:s:ms)","AMBULANCE","31.024","0.25446594279036344","624"
"21:23:20:0 (H:m:s:ms)","GENERIC","62.181","0.2915862867816092","1042"
"21:3:13:939 (H:m:s:ms)","GENERIC","62.043","0.2543189343102921","1067"
"21:23:25:63 (H:m:s:ms)","OPERA","62.019","0.2893920737035289","939"
"21:3:20:0 (H:m:s:ms)","GENERIC","62.155","0.2512591464760776","1053"
"21:23:26:60 (H:m:s:ms)","GENERIC","62.099","0.28864156820396686","951"
"21:3:26:60 (H:m:s:ms)","GENERIC","62.091","0.2513137796294035","951"
"21:3:32:121 (H:m:s:ms)","GENERIC","62.071","0.2536075519999348","885"
"21:36:33:939 (H:m:s:ms)","GENERIC","62.099","0.25184487508367054","1067"
"21:36:27:878 (H:m:s:ms)","GENERIC","62.111","0.2514094959236288","1126"
"21:36:21:818 (H:m:s:ms)","GENERIC","62.105","0.24563240307067857","190"
"21:36:18:947 (H:m:s:ms)","AMBULANCE","31.032","0.2357716502111555","1099"
"21:36:15:757 (H:m:s:ms)","GENERIC","62.079","0.24341809115079993","244"
"21:36:9:696 (H:m:s:ms)","GENERIC","62.079","0.2446599440666374","349"
"21:23:32:121 (H:m:s:ms)","GENERIC","62.041","0.2877569906019747","884"
"21:36:3:636 (H:m:s:ms)","GENERIC","62.069","0.25244486217325024","373"
"21:23:32:658 (H:m:s:ms)","OPERA","62.017","0.29004687006708574","350"
"21:35:57:575 (H:m:s:ms)","GENERIC","62.013","0.2539229551232994","436"
"21:3:38:181 (H:m:s:ms)","GENERIC","62.075","0.2593120776688003","830"
"21:23:38:181 (H:m:s:ms)","GENERIC","62.043","0.2955979179312395","1009"
"21:35:51:515 (H:m:s:ms)","GENERIC","62.033","0.25266306390380877","491"
"21:3:41:52 (H:m:s:ms)","AMBULANCE","31.04","0.2639548067696772","955"
"21:23:40:253 (H:m:s:ms)","OPERA","62.015","0.2945802711300193","757"
"21:35:47:368 (H:m:s:ms)","AMBULANCE","31.029","0.24723260732094493","641"
"21:7:54:0 (H:m:s:ms)","GENERIC","31.02","0.26484733098424673","1774"
"21:23:44:242 (H:m:s:ms)","GENERIC","62.025","0.2948515741046729","772"
"21:35:45:454 (H:m:s:ms)","GENERIC","62.089","0.24194600928789103","554"
"21:3:50:303 (H:m:s:ms)","GENERIC","62.091","0.26898550362066204","699"
"21:23:47:848 (H:m:s:ms)","OPERA","62.015","0.2962047458498904","156"
"21:3:56:363 (H:m:s:ms)","GENERIC","62.063","0.2666385978058116","642"
"21:23:50:303 (H:m:s:ms)","GENERIC","62.091","0.29760959427165795","707"
"21:4:2:424 (H:m:s:ms)","GENERIC","62.105","0.2657273011367763","580"
"21:23:55:443 (H:m:s:ms)","OPERA","62.015","0.3010844862664896","568"
"21:4:8:484 (H:m:s:ms)","GENERIC","62.091","0.2713321056128787","517"
"21:23:56:363 (H:m:s:ms)","GENERIC","62.079","0.30192133985077846","642"
"21:4:12:631 (H:m:s:ms)","AMBULANCE","31.053","0.2722410852508825","374"
"21:24:2:424 (H:m:s:ms)","GENERIC","62.087","0.3019145435799322","578"
"21:4:14:545 (H:m:s:ms)","GENERIC","62.081","0.2721326558287495","461"
"21:4:20:606 (H:m:s:ms)","GENERIC","62.089","0.2720545641491658","422"
"21:37:28:484 (H:m:s:ms)","GENERIC","62.111","0.2570304925239741","519"
"21:37:22:424 (H:m:s:ms)","GENERIC","62.053","0.2559749357924398","589"
"21:37:22:105 (H:m:s:ms)","AMBULANCE","31.01","0.25109076197510266","900"
"21:37:16:363 (H:m:s:ms)","GENERIC","62.031","0.2527637476497163","643"
"21:37:10:303 (H:m:s:ms)","GENERIC","62.059","0.25254662644934","705"
"21:37:4:242 (H:m:s:ms)","GENERIC","62.071","0.2554959968265024","767"
"21:24:3:37 (H:m:s:ms)","OPERA","62.015","0.30232511122291467","970"
"21:24:8:484 (H:m:s:ms)","GENERIC","62.055","0.3044380966457257","517"
"21:36:58:181 (H:m:s:ms)","GENERIC","62.097","0.2553577992090225","828"
"21:4:26:666 (H:m:s:ms)","GENERIC","62.085","0.27071600165976917","344"
"21:24:10:632 (H:m:s:ms)","OPERA","62.015","0.3068808206787146","376"
"21:36:52:121 (H:m:s:ms)","GENERIC","62.057","0.25526459149701153","888"
"21:4:32:727 (H:m:s:ms)","GENERIC","62.091","0.26901471645942016","274"
"21:24:14:545 (H:m:s:ms)","GENERIC","62.097","0.3032296630086383","457"
"21:36:50:526 (H:m:s:ms)","AMBULANCE","31.019","0.253677260442343","528"
"21:4:38:787 (H:m:s:ms)","GENERIC","62.093","0.27056551771619247","216"
"21:24:18:227 (H:m:s:ms)","OPERA","62.017","0.30377729209791454","782"
"21:36:46:60 (H:m:s:ms)","GENERIC","62.043","0.25137943607399704","951"
"21:4:44:210 (H:m:s:ms)","AMBULANCE","31.015","0.2725912470665921","797"
"21:24:20:606 (H:m:s:ms)","GENERIC","31.015","0.3063324116638238","412"
"21:36:40:0 (H:m:s:ms)","GENERIC","62.093","0.25125202447084444","1045"
"21:4:44:848 (H:m:s:ms)","GENERIC","62.071","0.27286774346663745","169"
"21:24:25:822 (H:m:s:ms)","OPERA","62.015","0.30428964944442166","181"
"21:4:50:909 (H:m:s:ms)","GENERIC","62.103","0.2723498530643885","1096"
"21:24:26:666 (H:m:s:ms)","GENERIC","62.067","0.30364956158125084","341"
"21:4:56:969 (H:m:s:ms)","GENERIC","62.193","0.26719523832121356","1035"
"21:24:32:727 (H:m:s:ms)","GENERIC","62.111","0.3060413620062897","274"
"21:10:1:0 (H:m:s:ms)","GENERIC","62.027","0.2620301817476354","3007"
"21:24:33:417 (H:m:s:ms)","OPERA","62.017","0.3081622421485237","586"
"21:5:9:90 (H:m:s:ms)","GENERIC","62.133","0.260249407879269","957"
"21:5:15:151 (H:m:s:ms)","GENERIC","62.083","0.2558969189727569","853"
"21:38:25:263 (H:m:s:ms)","AMBULANCE","31.016","0.2664608320578261","775"
"21:38:23:30 (H:m:s:ms)","GENERIC","62.077","0.26184835444900895","976"
"21:38:16:969 (H:m:s:ms)","GENERIC","62.171","0.26077280457375834","1035"
"21:38:10:909 (H:m:s:ms)","GENERIC","62.099","0.25714426294268705","1099"
"21:38:4:848 (H:m:s:ms)","GENERIC","62.039","0.2566518313442573","161"
"21:37:58:787 (H:m:s:ms)","GENERIC","62.063","0.2548498976058436","222"
"21:37:53:684 (H:m:s:ms)","AMBULANCE","31.027","0.25588093780991644","331"
"21:24:38:787 (H:m:s:ms)","GENERIC","62.079","0.30819956340100213","214"
"21:24:41:12 (H:m:s:ms)","OPERA","62.017","0.31039511199385833","990"
"21:5:15:789 (H:m:s:ms)","AMBULANCE","31.019","0.2591245987243295","220"
"21:24:44:848 (H:m:s:ms)","GENERIC","62.085","0.30696125579442934","164"
"21:5:21:212 (H:m:s:ms)","GENERIC","62.105","0.26348338395806187","790"
"21:24:48:607 (H:m:s:ms)","OPERA","62.015","0.3095099494573306","394"
"21:37:52:727 (H:m:s:ms)","GENERIC","62.075","0.2531791587895804","282"
"20:45:39:393 (H:m:s:ms)","GENERIC","62.027","0.29812727725578986","650"
"21:5:27:272 (H:m:s:ms)","GENERIC","62.103","0.2604730725315822","729"
"21:24:50:909 (H:m:s:ms)","GENERIC","62.069","0.3098835661713003","1097"
"21:37:46:666 (H:m:s:ms)","GENERIC","62.099","0.25379008747736576","345"
"20:45:41:772 (H:m:s:ms)","OPERA","31.01","0.2989567346506055","230"
"21:5:33:333 (H:m:s:ms)","GENERIC","62.095","0.25542801639783075","675"
"21:24:56:202 (H:m:s:ms)","OPERA","62.015","0.3090488689859315","810"
"21:37:40:606 (H:m:s:ms)","GENERIC","62.079","0.2528665720915982","402"
"20:45:45:454 (H:m:s:ms)","GENERIC","62.121","0.2943166478178299","552"
"21:5:39:393 (H:m:s:ms)","GENERIC","62.063","0.25240523392522207","650"
"21:24:56:969 (H:m:s:ms)","GENERIC","62.163","0.3091320582989708","1046"
"21:37:34:545 (H:m:s:ms)","GENERIC","62.107","0.25585314093047296","458"
"20:45:49:367 (H:m:s:ms)","OPERA","31.01","0.29445726868954","681"
"21:5:45:454 (H:m:s:ms)","GENERIC","62.105","0.24841214527511804","553"
"21:25:3:30 (H:m:s:ms)","GENERIC","62.059","0.3057305788937712","972"
"20:45:51:515 (H:m:s:ms)","GENERIC","62.035","0.29726340165660514","489"
"21:5:47:368 (H:m:s:ms)","AMBULANCE","31.047","0.25117024931383647","634"
"21:25:3:797 (H:m:s:ms)","OPERA","62.015","0.3047251985053569","212"
"20:45:56:962 (H:m:s:ms)","OPERA","31.01","0.2970253889742234","1039"
"21:5:51:515 (H:m:s:ms)","GENERIC","62.027","0.2520064144316476","493"
"21:25:9:90 (H:m:s:ms)","GENERIC","62.091","0.3022280577989125","952"
"20:45:57:575 (H:m:s:ms)","GENERIC","62.017","0.2994161383273829","453"
"21:5:57:575 (H:m:s:ms)","GENERIC","62.069","0.2572200801860579","631"
"20:46:3:636 (H:m:s:ms)","GENERIC","62.047","0.295692265678303","373"
"21:6:3:636 (H:m:s:ms)","GENERIC","62.043","0.2593762381811939","371"
"20:46:4:556 (H:m:s:ms)","OPERA","31.009","0.297049312115908","447"
"20:46:9:696 (H:m:s:ms)","GENERIC","62.077","0.294341590056898","349"
"21:39:23:636 (H:m:s:ms)","GENERIC","62.097","0.2693812994359725","369"
"21:39:17:575 (H:m:s:ms)","GENERIC","62.081","0.2738634731404726","428"
"21:39:11:515 (H:m:s:ms)","GENERIC","62.039","0.2753449187829058","495"
"21:39:5:454 (H:m:s:ms)","GENERIC","62.097","0.27488002336748457","554"
"21:38:59:393 (H:m:s:ms)","GENERIC","62.067","0.2748493113889761","649"
"21:38:56:842 (H:m:s:ms)","AMBULANCE","31.012","0.2711538471859826","169"
"21:38:53:333 (H:m:s:ms)","GENERIC","62.105","0.26863715150502154","669"
"21:38:47:272 (H:m:s:ms)","GENERIC","62.077","0.2630324489425017","730"
"21:25:11:392 (H:m:s:ms)","OPERA","62.017","0.3037869977882209","610"
"21:25:15:151 (H:m:s:ms)","GENERIC","62.071","0.29992562585421734","855"
"21:6:9:696 (H:m:s:ms)","GENERIC","62.047","0.25791394805943263","349"
"21:25:18:987 (H:m:s:ms)","OPERA","62.015","0.3007679773199273","1056"
"21:6:15:757 (H:m:s:ms)","GENERIC","62.079","0.2546631370015512","246"
"21:25:21:212 (H:m:s:ms)","GENERIC","62.101","0.30335592678997153","792"
"20:46:12:151 (H:m:s:ms)","OPERA","31.009","0.29543654201893327","852"
"21:6:18:947 (H:m:s:ms)","AMBULANCE","31.052","0.2543273138390275","1095"
"21:25:26:582 (H:m:s:ms)","OPERA","62.019","0.3003152676767455","431"
"20:46:15:757 (H:m:s:ms)","GENERIC","62.087","0.2963996120720693","244"
"21:6:21:818 (H:m:s:ms)","GENERIC","62.057","0.2541112214984969","188"
"21:25:27:272 (H:m:s:ms)","GENERIC","62.129","0.3007266930818617","731"
"21:38:41:212 (H:m:s:ms)","GENERIC","62.033","0.2687768809269412","798"
"20:46:19:746 (H:m:s:ms)","OPERA","31.01","0.29303762296652786","300"
"21:6:27:878 (H:m:s:ms)","GENERIC","62.133","0.25381668599721247","1130"
"21:25:33:333 (H:m:s:ms)","GENERIC","62.093","0.2985755797227793","677"
"21:38:35:151 (H:m:s:ms)","GENERIC","62.041","0.2634307668010734","857"
"20:46:21:818 (H:m:s:ms)","GENERIC","62.061","0.29200445868356095","189"
"21:6:33:939 (H:m:s:ms)","GENERIC","62.089","0.24962456854444917","1065"
"21:25:34:177 (H:m:s:ms)","OPERA","62.017","0.2983596683603452","826"
"21:38:29:90 (H:m:s:ms)","GENERIC","62.055","0.2686439281544157","955"
"20:46:27:341 (H:m:s:ms)","OPERA","31.011","0.2908707191382678","661"
"21:6:40:0 (H:m:s:ms)","GENERIC","62.119","0.24819229022613168","1042"
"21:25:39:393 (H:m:s:ms)","GENERIC","62.031","0.2973636007145183","649"
"20:46:27:878 (H:m:s:ms)","GENERIC","62.115","0.2933764223672812","1129"
"21:6:46:60 (H:m:s:ms)","GENERIC","62.069","0.2499105321134111","951"
"21:25:41:772 (H:m:s:ms)","OPERA","62.017","0.2995860715585474","230"
"20:46:33:939 (H:m:s:ms)","GENERIC","62.069","0.2892805822474424","1066"
"21:6:50:526 (H:m:s:ms)","AMBULANCE","31.027","0.2529888916099052","479"
"20:46:34:936 (H:m:s:ms)","OPERA","31.01","0.29033841416365885","1072"
"21:6:52:121 (H:m:s:ms)","GENERIC","62.071","0.2535366006472692","887"
"20:46:40:0 (H:m:s:ms)","GENERIC","62.125","0.2913417431440779","1043"
"20:46:42:531 (H:m:s:ms)","OPERA","31.01","0.29380980010072694","471"
"21:39:35:757 (H:m:s:ms)","GENERIC","62.105","0.26483536058362583","247"
"21:40:12:121 (H:m:s:ms)","GENERIC","62.045","0.27409906531469225","884"
"21:40:6:60 (H:m:s:ms)","GENERIC","62.083","0.2787708546524673","943"
"21:40:0:0 (H:m:s:ms)","GENERIC","62.103","0.2783327738506356","1139"
"21:40:0:0 (H:m:s:ms)","GENERIC","62.067","0.2740663958939963","1134"
"21:40:0:0 (H:m:s:ms)","AMBULANCE","31.029","0.27244931730091176","1131"
"21:39:53:939 (H:m:s:ms)","GENERIC","62.093","0.27101837839729925","1067"
"21:39:47:878 (H:m:s:ms)","GENERIC","62.079","0.26549675175062154","1129"
"21:39:41:818 (H:m:s:ms)","GENERIC","62.087","0.26693731230508205","189"
"21:6:58:181 (H:m:s:ms)","GENERIC","62.093","0.25086673352747735","827"
"21:7:4:242 (H:m:s:ms)","GENERIC","62.077","0.2484950599766271","766"
"20:46:46:60 (H:m:s:ms)","GENERIC","62.093","0.2940809129279752","947"
"21:7:10:303 (H:m:s:ms)","GENERIC","62.017","0.24642471820065465","709"
"20:46:50:126 (H:m:s:ms)","OPERA","31.009","0.29391542330495724","878"
"21:7:16:363 (H:m:s:ms)","GENERIC","62.067","0.24582216548817984","646"
"20:46:52:121 (H:m:s:ms)","GENERIC","62.039","0.2958204856384287","886"
"21:7:22:105 (H:m:s:ms)","AMBULANCE","31.044","0.24945532672276086","988"
"20:46:57:721 (H:m:s:ms)","OPERA","31.01","0.29563439155077087","282"
"21:7:22:424 (H:m:s:ms)","GENERIC","62.033","0.254193075921757","674"
"21:39:29:696 (H:m:s:ms)","GENERIC","62.029","0.2703269378099554","351"
"20:46:58:181 (H:m:s:ms)","GENERIC","62.075","0.29473882128796763","825"
"21:7:28:484 (H:m:s:ms)","GENERIC","62.099","0.258480219483085","518"
"21:39:28:421 (H:m:s:ms)","AMBULANCE","31.02","0.26944987763016387","626"
"20:47:4:242 (H:m:s:ms)","GENERIC","62.057","0.2948132599460462","762"
"21:7:34:545 (H:m:s:ms)","GENERIC","62.111","0.25795368727737966","457"
"20:47:5:316 (H:m:s:ms)","OPERA","31.009","0.29728521267129276","685"
"21:7:40:606 (H:m:s:ms)","GENERIC","62.037","0.26462235858388555","402"
"20:47:10:303 (H:m:s:ms)","GENERIC","62.107","0.29165121561399593","794"
"21:7:46:666 (H:m:s:ms)","GENERIC","62.063","0.2639924301321616","339"
"20:47:12:911 (H:m:s:ms)","OPERA","31.011","0.2935828352535676","1092"
"20:47:16:363 (H:m:s:ms)","GENERIC","62.097","0.2936088249282968","642"
"21:7:52:727 (H:m:s:ms)","GENERIC","62.071","0.25971843678190243","276"
"21:7:53:684 (H:m:s:ms)","AMBULANCE","31.052","0.25641350377213806","325"
"20:47:20:506 (H:m:s:ms)","OPERA","31.01","0.2933563316246673","496"
"21:7:58:787 (H:m:s:ms)","GENERIC","62.075","0.2588724479042459","223"
"20:47:22:424 (H:m:s:ms)","GENERIC","62.089","0.29681006316167635","591"
"21:8:4:848 (H:m:s:ms)","GENERIC","62.063","0.25575299767137744","159"
"20:47:28:484 (H:m:s:ms)","GENERIC","62.123","0.29613440020737736","519"
"21:8:10:909 (H:m:s:ms)","GENERIC","62.053","0.2521147862968078","1097"
"20:47:34:545 (H:m:s:ms)","GENERIC","62.113","0.29471105207939996","457"
"21:8:16:969 (H:m:s:ms)","GENERIC","62.109","0.2537948526134401","1037"
"20:47:35:696 (H:m:s:ms)","OPERA","31.009","0.2980040869481485","308"
"21:8:23:30 (H:m:s:ms)","GENERIC","62.087","0.2581165403756807","978"
"20:47:40:606 (H:m:s:ms)","GENERIC","62.063","0.29572592686347","398"
"21:8:25:263 (H:m:s:ms)","AMBULANCE","31.047","0.2613617323277286","739"
"21:40:18:181 (H:m:s:ms)","GENERIC","62.075","0.26976314278710034","824"
"20:47:43:291 (H:m:s:ms)","OPERA","31.011","0.2973436728650948","714"
"21:8:29:90 (H:m:s:ms)","GENERIC","31.014","0.2607336576450307","952"
"20:47:46:666 (H:m:s:ms)","GENERIC","62.087","0.2971833455141233","344"
"21:8:35:151 (H:m:s:ms)","GENERIC","62.063","0.2585492856883609","856"
"20:47:52:727 (H:m:s:ms)","GENERIC","62.051","0.29725353868856486","278"
"20:47:58:481 (H:m:s:ms)","OPERA","31.011","0.2968627761953036","524"
"21:8:41:212 (H:m:s:ms)","GENERIC","62.053","0.25532257339220293","800"
"21:8:47:272 (H:m:s:ms)","GENERIC","62.071","0.24441120264141247","733"
"20:47:58:787 (H:m:s:ms)","GENERIC","62.057","0.2987135284366609","224"
"21:8:53:333 (H:m:s:ms)","GENERIC","62.113","0.24838572375595397","669"
"20:48:4:848 (H:m:s:ms)","GENERIC","62.081","0.29261377486301166","156"
"21:8:56:842 (H:m:s:ms)","AMBULANCE","31.011","0.24853324038279448","249"
"20:30:0:0 (H:m:s:ms)","GENERIC","62.087","0.2329930502855945","1040"
"20:48:6:75 (H:m:s:ms)","OPERA","31.01","0.29411206081712127","926"
"21:8:59:393 (H:m:s:ms)","GENERIC","62.105","0.2551758104586454","647"
"20:30:0:0 (H:m:s:ms)","GENERIC","62.109","0.23500611777648825","1045"
"20:48:10:909 (H:m:s:ms)","GENERIC","62.039","0.2946089699356389","1099"
"21:9:5:454 (H:m:s:ms)","GENERIC","62.079","0.25815022280670596","553"
"20:30:6:60 (H:m:s:ms)","GENERIC","62.125","0.24032931575626582","942"
"20:48:13:670 (H:m:s:ms)","OPERA","31.009","0.2942655507786778","337"
"21:10:1:0 (H:m:s:ms)","GENERIC","31.016","0.26333101669990777","1520"
"20:30:12:121 (H:m:s:ms)","GENERIC","62.045","0.23271557261401057","884"
"20:48:16:969 (H:m:s:ms)","GENERIC","62.099","0.2942310641594652","1035"
"21:9:17:575 (H:m:s:ms)","GENERIC","62.079","0.25703797482088536","432"
"20:30:18:181 (H:m:s:ms)","GENERIC","62.091","0.2304348915274649","824"
"20:48:21:265 (H:m:s:ms)","OPERA","31.009","0.29434917141062966","740"
"21:9:23:636 (H:m:s:ms)","GENERIC","62.113","0.25379333304645674","371"
"20:30:24:242 (H:m:s:ms)","GENERIC","62.045","0.2235201858699238","766"
"20:48:23:30 (H:m:s:ms)","GENERIC","62.069","0.29325031128275236","976"
"21:9:28:421 (H:m:s:ms)","AMBULANCE","31.022","0.25892901381700695","584"
"20:30:30:303 (H:m:s:ms)","GENERIC","62.089","0.22213850988412467","706"
"20:48:28:860 (H:m:s:ms)","OPERA","31.01","0.29306822139374983","141"
"20:30:36:363 (H:m:s:ms)","GENERIC","62.103","0.2252973346201031","639"
"20:48:29:90 (H:m:s:ms)","GENERIC","62.117","0.2927464707424445","953"
"20:30:42:424 (H:m:s:ms)","GENERIC","62.083","0.2243177523429116","583"
"20:30:48:484 (H:m:s:ms)","GENERIC","62.041","0.22612844912561259","523"
"21:9:29:696 (H:m:s:ms)","GENERIC","62.071","0.2584226662238735","350"
"21:9:35:757 (H:m:s:ms)","GENERIC","62.105","0.25618056339331613","247"
"20:48:35:151 (H:m:s:ms)","GENERIC","62.055","0.2894419687135866","856"
"21:10:1:0 (H:m:s:ms)","GENERIC","62.071","0.2664207685174542","1220"
"20:48:36:455 (H:m:s:ms)","OPERA","31.01","0.2893185542867994","552"
"21:9:47:878 (H:m:s:ms)","GENERIC","62.085","0.25921350793351394","1132"
"20:30:54:545 (H:m:s:ms)","GENERIC","62.107","0.23123217782920782","464"
"20:48:41:212 (H:m:s:ms)","GENERIC","62.057","0.28752800832421693","795"
"21:9:53:939 (H:m:s:ms)","GENERIC","62.085","0.2598147775901956","1069"
"20:31:0:606 (H:m:s:ms)","GENERIC","62.073","0.2328771109239755","399"
"20:48:44:50 (H:m:s:ms)","OPERA","31.009","0.287737251361944","957"
"21:10:0:0 (H:m:s:ms)","AMBULANCE","31.039","0.2538064759625311","1047"
"20:31:6:666 (H:m:s:ms)","GENERIC","62.079","0.22944343962934458","342"
"20:48:47:272 (H:m:s:ms)","GENERIC","62.057","0.29188310502058756","733"
"21:10:0:0 (H:m:s:ms)","GENERIC","62.055","0.25824859340842754","1052"
"20:31:12:727 (H:m:s:ms)","GENERIC","62.047","0.2295331775195805","281"
"20:48:51:645 (H:m:s:ms)","OPERA","31.011","0.2947712285978347","361"
"21:10:0:0 (H:m:s:ms)","GENERIC","62.081","0.26100681813792675","1058"
"20:31:18:787 (H:m:s:ms)","GENERIC","62.013","0.22862455433673273","214"
"20:48:53:333 (H:m:s:ms)","GENERIC","62.115","0.30105701903613197","668"
"21:10:6:60 (H:m:s:ms)","GENERIC","62.107","0.26314560314201946","941"
"20:31:24:848 (H:m:s:ms)","GENERIC","62.109","0.22858420529117698","157"
"20:48:59:240 (H:m:s:ms)","OPERA","31.009","0.30181116334128383","808"
"21:10:12:121 (H:m:s:ms)","GENERIC","62.035","0.2582249207552618","884"
"20:31:30:909 (H:m:s:ms)","GENERIC","62.079","0.22787457048300236","1100"
"20:48:59:393 (H:m:s:ms)","GENERIC","62.091","0.30522471237455984","660"
"20:31:36:969 (H:m:s:ms)","GENERIC","62.031","0.22675193488784504","1039"
"20:49:5:454 (H:m:s:ms)","GENERIC","62.075","0.3025152396964713","553"
"20:31:43:30 (H:m:s:ms)","GENERIC","62.087","0.22247547554003552","979"
"20:31:49:90 (H:m:s:ms)","GENERIC","62.075","0.2236740174767001","947"
"20:49:6:835 (H:m:s:ms)","OPERA","31.01","0.3030961672120003","169"
"20:49:11:515 (H:m:s:ms)","GENERIC","62.065","0.2963857397964586","492"
"20:31:55:151 (H:m:s:ms)","GENERIC","62.027","0.2243186830409339","858"
"20:49:14:430 (H:m:s:ms)","OPERA","31.01","0.2980628155069953","575"
"20:32:1:212 (H:m:s:ms)","GENERIC","62.111","0.22695528762424347","792"
"20:49:17:575 (H:m:s:ms)","GENERIC","62.095","0.30036483830752614","426"
"20:32:7:272 (H:m:s:ms)","GENERIC","62.073","0.2334060457893258","731"
"20:49:22:25 (H:m:s:ms)","OPERA","31.01","0.29758378510964073","981"
"20:32:13:333 (H:m:s:ms)","GENERIC","62.103","0.23506929685699288","673"
"20:49:23:636 (H:m:s:ms)","GENERIC","62.101","0.2967678691741377","369"
"20:32:19:393 (H:m:s:ms)","GENERIC","62.067","0.23717635541760218","648"
"20:49:29:620 (H:m:s:ms)","OPERA","31.009","0.2942601252640267","425"
"20:32:25:454 (H:m:s:ms)","GENERIC","62.111","0.2353716776749475","547"
"20:49:29:696 (H:m:s:ms)","GENERIC","31.037","0.29636474081276537","354"
"20:32:31:515 (H:m:s:ms)","GENERIC","62.099","0.23161375915051974","489"
"20:49:35:757 (H:m:s:ms)","GENERIC","62.103","0.2915607424936252","247"
"20:32:37:575 (H:m:s:ms)","GENERIC","62.077","0.2290063610632444","433"
"20:49:37:215 (H:m:s:ms)","OPERA","31.01","0.29370207258785297","790"
"20:32:43:636 (H:m:s:ms)","GENERIC","62.031","0.22183142183340865","376"
"20:32:49:696 (H:m:s:ms)","GENERIC","62.091","0.22201641041765016","339"
"20:49:41:818 (H:m:s:ms)","GENERIC","62.047","0.29606181484114136","187"
"20:49:44:810 (H:m:s:ms)","OPERA","31.011","0.2961084705576748","201"
"20:32:55:757 (H:m:s:ms)","GENERIC","62.171","0.22886962950129922","244"
"20:49:47:878 (H:m:s:ms)","GENERIC","62.077","0.29568572315815345","1129"
"20:33:1:818 (H:m:s:ms)","GENERIC","62.043","0.23424881924196558","189"
"20:49:52:405 (H:m:s:ms)","OPERA","31.01","0.2936265625300438","597"
"20:33:7:878 (H:m:s:ms)","GENERIC","62.109","0.2356208270420022","1124"
"20:49:53:939 (H:m:s:ms)","GENERIC","62.067","0.29596929965260776","1065"
"20:33:13:939 (H:m:s:ms)","GENERIC","62.051","0.23585394701182724","1079"
"20:50:0:0 (H:m:s:ms)","OPERA","31.01","0.2979430861256661","1051"
"20:33:20:0 (H:m:s:ms)","GENERIC","62.111","0.23545180788154077","1042"
"20:50:0:0 (H:m:s:ms)","GENERIC","62.077","0.29788776575746606","1043"
"20:33:26:60 (H:m:s:ms)","GENERIC","62.093","0.2324778369538069","949"
"20:50:0:0 (H:m:s:ms)","GENERIC","62.085","0.296835382858195","1048"
"20:33:32:121 (H:m:s:ms)","GENERIC","62.069","0.23195422719066158","884"
"20:50:6:60 (H:m:s:ms)","GENERIC","62.103","0.2993334324439366","941"
"20:33:38:181 (H:m:s:ms)","GENERIC","62.083","0.23237163519865894","825"
"20:50:12:121 (H:m:s:ms)","GENERIC","62.041","0.29568319696975215","882"
"20:33:44:242 (H:m:s:ms)","GENERIC","62.081","0.23155253841673154","766"
"20:33:50:303 (H:m:s:ms)","GENERIC","62.079","0.2379499597945113","698"
"20:50:18:181 (H:m:s:ms)","GENERIC","62.129","0.29316023962248394","823"
"20:50:24:242 (H:m:s:ms)","GENERIC","62.057","0.2912653752361399","766"
"20:33:56:363 (H:m:s:ms)","GENERIC","62.019","0.23437252533098307","644"
"20:50:30:303 (H:m:s:ms)","GENERIC","62.107","0.2848571866041483","705"
"20:34:2:424 (H:m:s:ms)","GENERIC","62.145","0.2314431459010386","578"
"20:50:36:363 (H:m:s:ms)","GENERIC","62.093","0.2836499958704186","645"
"20:10:0:0 (H:m:s:ms)","GENERIC","31.036","0.23095442994328932","1004"
"20:34:8:484 (H:m:s:ms)","GENERIC","62.119","0.2381945858012663","517"
"20:50:42:424 (H:m:s:ms)","GENERIC","62.083","0.27882479881204136","583"
"20:10:0:0 (H:m:s:ms)","GENERIC","62.129","0.23739809728488293","1048"
"20:34:14:545 (H:m:s:ms)","GENERIC","62.043","0.23466847577604444","460"
"20:50:48:484 (H:m:s:ms)","GENERIC","62.067","0.2787663786380696","524"
"20:10:6:60 (H:m:s:ms)","GENERIC","62.135","0.24094078130384797","941"
"20:34:20:606 (H:m:s:ms)","GENERIC","62.067","0.22802575971301098","401"
"20:50:54:545 (H:m:s:ms)","GENERIC","62.087","0.28333733244086423","464"
"20:10:12:121 (H:m:s:ms)","GENERIC","62.063","0.23908384115413575","885"
"20:34:26:666 (H:m:s:ms)","GENERIC","62.059","0.22504535075553941","340"
"20:51:0:606 (H:m:s:ms)","GENERIC","31.01","0.27683720430812153","402"
"20:10:18:181 (H:m:s:ms)","GENERIC","62.085","0.23612663415598004","823"
"20:34:32:727 (H:m:s:ms)","GENERIC","62.111","0.22660611518585783","274"
"20:51:6:666 (H:m:s:ms)","GENERIC","62.087","0.27410922667665105","341"
"20:10:24:242 (H:m:s:ms)","GENERIC","62.077","0.2311992177102845","766"
"20:34:38:787 (H:m:s:ms)","GENERIC","62.115","0.22941019598827514","216"
"20:51:12:727 (H:m:s:ms)","GENERIC","62.049","0.2790504266904939","279"
"20:10:30:303 (H:m:s:ms)","GENERIC","62.095","0.22751388648592052","705"
"20:34:44:848 (H:m:s:ms)","GENERIC","62.027","0.23929858189505973","161"
"20:10:36:363 (H:m:s:ms)","GENERIC","62.129","0.23189268919770645","638"
"20:34:50:909 (H:m:s:ms)","GENERIC","62.147","0.2384975567286191","1096"
"20:10:42:424 (H:m:s:ms)","GENERIC","62.089","0.23095653901373747","583"
"20:10:48:484 (H:m:s:ms)","GENERIC","62.033","0.23161435206801043","525"
"20:51:18:787 (H:m:s:ms)","GENERIC","62.047","0.27705191728879575","219"
"20:51:24:848 (H:m:s:ms)","GENERIC","62.125","0.26970991555473595","157"
"20:34:56:969 (H:m:s:ms)","GENERIC","62.149","0.23232822367162143","1035"
"20:51:30:909 (H:m:s:ms)","GENERIC","31.021","0.26753837589783863","1094"
"20:35:3:30 (H:m:s:ms)","GENERIC","62.037","0.22745189360043086","977"
"20:51:36:969 (H:m:s:ms)","GENERIC","62.041","0.26498096014539896","1040"
"20:10:54:545 (H:m:s:ms)","GENERIC","62.143","0.2265015558270626","463"
"20:35:9:90 (H:m:s:ms)","GENERIC","62.073","0.2259172602521704","948"
"20:51:43:30 (H:m:s:ms)","GENERIC","62.079","0.2613531225148895","978"
"20:11:0:606 (H:m:s:ms)","GENERIC","62.073","0.23327104868383042","396"
"20:35:15:151 (H:m:s:ms)","GENERIC","62.081","0.22697517004693357","853"
"20:51:49:90 (H:m:s:ms)","GENERIC","62.107","0.26077586308514505","954"
"20:11:6:666 (H:m:s:ms)","GENERIC","62.081","0.2329387803356948","340"
"20:35:21:212 (H:m:s:ms)","GENERIC","62.089","0.2277332595401351","790"
"20:51:55:151 (H:m:s:ms)","GENERIC","62.055","0.25963062025975214","855"
"20:11:12:727 (H:m:s:ms)","GENERIC","62.033","0.23282243904071437","281"
"20:35:27:272 (H:m:s:ms)","GENERIC","62.091","0.22891689354628897","730"
"20:52:1:212 (H:m:s:ms)","GENERIC","62.137","0.26077193463036796","792"
"20:11:18:787 (H:m:s:ms)","GENERIC","62.041","0.2289705996321413","223"
"20:35:33:333 (H:m:s:ms)","GENERIC","62.061","0.22922806228990456","674"
"20:52:7:272 (H:m:s:ms)","GENERIC","62.103","0.25796870591000215","734"
"20:11:24:848 (H:m:s:ms)","GENERIC","62.081","0.22750586620780008","155"
"20:35:39:393 (H:m:s:ms)","GENERIC","62.017","0.23339094414687916","650"
"20:52:13:333 (H:m:s:ms)","GENERIC","62.121","0.25784297713225474","672"
"20:11:30:909 (H:m:s:ms)","GENERIC","62.071","0.225391377508031","1098"
"20:35:45:454 (H:m:s:ms)","GENERIC","62.115","0.23131721331875052","553"
"20:11:36:969 (H:m:s:ms)","GENERIC","62.065","0.2227628963571309","1037"
"20:35:51:515 (H:m:s:ms)","GENERIC","31.021","0.23311642521836262","563"
"20:11:43:30 (H:m:s:ms)","GENERIC","62.071","0.22030473894169755","979"
"20:11:49:90 (H:m:s:ms)","GENERIC","62.069","0.21472790903659822","954"
"20:0:54:545 (H:m:s:ms)","GENERIC","31.079","0.11721885299182253","464"
"20:1:0:606 (H:m:s:ms)","GENERIC","31.049","0.1259484618302971","399"
"20:1:6:666 (H:m:s:ms)","GENERIC","31.05","0.1260676150180314","345"
"20:1:12:727 (H:m:s:ms)","GENERIC","31.024","0.12618901939715652","282"
"20:1:18:787 (H:m:s:ms)","GENERIC","31.024","0.12894300406581166","224"
"20:1:24:848 (H:m:s:ms)","GENERIC","31.036","0.14515368400696158","155"
"20:1:30:909 (H:m:s:ms)","GENERIC","31.042","0.14570577167791746","1098"
"20:1:36:969 (H:m:s:ms)","GENERIC","31.036","0.14569734233925608","1039"
"20:1:43:30 (H:m:s:ms)","GENERIC","31.03","0.151653752329195","977"
"20:1:49:90 (H:m:s:ms)","GENERIC","31.039","0.16507395641678382","934"
"20:35:57:575 (H:m:s:ms)","GENERIC","62.019","0.2327318930414588","430"
"20:36:3:636 (H:m:s:ms)","GENERIC","62.057","0.23313986487506544","372"
"20:11:55:151 (H:m:s:ms)","GENERIC","62.033","0.217200817788372","857"
"20:36:9:696 (H:m:s:ms)","GENERIC","62.103","0.2331072708110576","346"
"20:12:1:212 (H:m:s:ms)","GENERIC","62.091","0.22072630900079762","792"
"20:36:15:757 (H:m:s:ms)","GENERIC","62.075","0.23749225433517476","244"
"20:12:7:272 (H:m:s:ms)","GENERIC","31.022","0.224798062395344","735"
"20:36:21:818 (H:m:s:ms)","GENERIC","62.087","0.23119819764595495","189"
"20:12:13:333 (H:m:s:ms)","GENERIC","62.107","0.22588342163947808","673"
"20:36:27:878 (H:m:s:ms)","GENERIC","62.121","0.2331523346078857","1129"
"20:12:19:393 (H:m:s:ms)","GENERIC","62.061","0.2291309757180833","653"
"20:36:33:939 (H:m:s:ms)","GENERIC","62.073","0.23314422680424565","1066"
"20:12:25:454 (H:m:s:ms)","GENERIC","62.113","0.2296765996899385","552"
"20:36:40:0 (H:m:s:ms)","GENERIC","62.113","0.2379077186722763","1051"
"20:12:31:515 (H:m:s:ms)","GENERIC","62.129","0.2278339906893211","487"
"20:36:46:60 (H:m:s:ms)","GENERIC","62.073","0.24217306047827283","949"
"20:12:37:575 (H:m:s:ms)","GENERIC","62.089","0.2272263119490164","433"
"20:36:52:121 (H:m:s:ms)","GENERIC","62.017","0.24151973046218794","887"
"20:12:43:636 (H:m:s:ms)","GENERIC","31.009","0.22367084270560564","374"
"20:12:49:696 (H:m:s:ms)","GENERIC","62.111","0.22570773224132062","343"
"20:1:55:151 (H:m:s:ms)","GENERIC","31.009","0.16699479550203472","859"
"20:2:1:212 (H:m:s:ms)","GENERIC","31.036","0.1757130416985407","792"
"20:2:7:272 (H:m:s:ms)","GENERIC","31.03","0.17560782946680314","780"
"20:2:13:333 (H:m:s:ms)","GENERIC","31.05","0.17627431907111243","672"
"20:2:19:393 (H:m:s:ms)","GENERIC","31.03","0.18394625598229605","629"
"20:2:25:454 (H:m:s:ms)","GENERIC","31.069","0.18772627078364282","551"
"20:2:31:515 (H:m:s:ms)","GENERIC","31.067","0.19175863987686403","493"
"20:2:37:575 (H:m:s:ms)","GENERIC","31.036","0.1915957507054893","434"
"20:2:43:636 (H:m:s:ms)","GENERIC","31.046","0.19165058130575902","382"
"20:2:49:696 (H:m:s:ms)","GENERIC","31.049","0.19215309753224663","333"
"20:36:58:181 (H:m:s:ms)","GENERIC","62.071","0.2423112738789939","827"
"20:37:4:242 (H:m:s:ms)","GENERIC","62.057","0.24577489688109455","764"
"20:12:55:757 (H:m:s:ms)","GENERIC","62.157","0.22956932076654116","245"
"20:37:10:303 (H:m:s:ms)","GENERIC","62.103","0.24970861773016229","705"
"20:13:1:818 (H:m:s:ms)","GENERIC","62.041","0.23264507208960583","189"
"20:37:16:363 (H:m:s:ms)","GENERIC","62.109","0.24974635330242087","643"
"20:13:7:878 (H:m:s:ms)","GENERIC","62.081","0.23653279206180178","1123"
"20:37:22:424 (H:m:s:ms)","GENERIC","62.097","0.2504036389166591","578"
"20:13:13:939 (H:m:s:ms)","GENERIC","62.071","0.23636614907447634","1069"
"20:37:28:484 (H:m:s:ms)","GENERIC","62.139","0.2528839061855717","518"
"20:13:20:0 (H:m:s:ms)","GENERIC","62.079","0.23761150994012034","1046"
"20:37:34:545 (H:m:s:ms)","GENERIC","62.107","0.25555941143390315","460"
"20:13:26:60 (H:m:s:ms)","GENERIC","62.049","0.23289087505549944","949"
"20:37:40:606 (H:m:s:ms)","GENERIC","62.085","0.2590103109431552","401"
"20:13:32:121 (H:m:s:ms)","GENERIC","62.035","0.22579475390256734","886"
"20:37:46:666 (H:m:s:ms)","GENERIC","62.091","0.25932072755221164","340"
"20:13:38:181 (H:m:s:ms)","GENERIC","62.045","0.2277818516642514","831"
"20:37:52:727 (H:m:s:ms)","GENERIC","62.043","0.25546924608675364","280"
"20:13:44:242 (H:m:s:ms)","GENERIC","62.053","0.2274611256411845","766"
"20:13:50:303 (H:m:s:ms)","GENERIC","62.091","0.22971668361367956","703"
"20:2:55:757 (H:m:s:ms)","GENERIC","31.073","0.19381364331628476","245"
"20:3:1:818 (H:m:s:ms)","GENERIC","31.024","0.19733627629753547","192"
"20:3:7:878 (H:m:s:ms)","GENERIC","31.041","0.2018861679230891","123"
"20:3:13:939 (H:m:s:ms)","GENERIC","31.046","0.20178024036806746","1070"
"20:3:20:0 (H:m:s:ms)","GENERIC","31.035","0.2020417635650548","1007"
"20:3:26:60 (H:m:s:ms)","GENERIC","31.021","0.2017709946581227","949"
"20:3:32:121 (H:m:s:ms)","GENERIC","31.015","0.20191630620327722","885"
"20:3:38:181 (H:m:s:ms)","GENERIC","31.019","0.20257177839172888","825"
"20:3:44:242 (H:m:s:ms)","GENERIC","31.026","0.20264986892149794","767"
"20:3:50:303 (H:m:s:ms)","GENERIC","31.049","0.21271848400072213","705"
"20:37:58:787 (H:m:s:ms)","GENERIC","62.037","0.24910847038342815","223"
"20:38:4:848 (H:m:s:ms)","GENERIC","62.095","0.24619448671923178","160"
"20:13:56:363 (H:m:s:ms)","GENERIC","62.035","0.2297926572761921","645"
"20:38:10:909 (H:m:s:ms)","GENERIC","62.039","0.24708231804391828","1098"
"20:14:2:424 (H:m:s:ms)","GENERIC","62.119","0.23334655780771568","579"
"20:38:16:969 (H:m:s:ms)","GENERIC","62.111","0.24780529087823955","1037"
"20:14:8:484 (H:m:s:ms)","GENERIC","62.129","0.2367371717523879","517"
"20:38:23:30 (H:m:s:ms)","GENERIC","62.073","0.24702303525297017","978"
"20:14:14:545 (H:m:s:ms)","GENERIC","62.039","0.2363067711760448","462"
"20:38:29:90 (H:m:s:ms)","GENERIC","62.121","0.2412574603655282","953"
"20:14:20:606 (H:m:s:ms)","GENERIC","62.087","0.23216171491141363","401"
"20:38:35:151 (H:m:s:ms)","GENERIC","62.057","0.24124718259181346","856"
"20:14:26:666 (H:m:s:ms)","GENERIC","62.037","0.22630624755680234","340"
"20:38:41:212 (H:m:s:ms)","GENERIC","62.073","0.2412800706813886","795"
"20:14:32:727 (H:m:s:ms)","GENERIC","62.079","0.22518419350345026","277"
"20:38:47:272 (H:m:s:ms)","GENERIC","62.055","0.24138504044149856","736"
"20:14:38:787 (H:m:s:ms)","GENERIC","62.123","0.23144963102707136","214"
"20:38:53:333 (H:m:s:ms)","GENERIC","62.097","0.24869410443756756","669"
"20:14:44:848 (H:m:s:ms)","GENERIC","62.043","0.23546924607999897","160"
"20:14:50:909 (H:m:s:ms)","GENERIC","62.115","0.23572510152786946","1097"
"20:3:56:363 (H:m:s:ms)","GENERIC","31.018","0.21238801364128676","645"
"20:4:2:424 (H:m:s:ms)","GENERIC","31.054","0.21402289775104105","579"
"20:4:8:484 (H:m:s:ms)","GENERIC","31.068","0.21630709240863377","519"
"20:4:14:545 (H:m:s:ms)","GENERIC","31.025","0.21975603963695764","460"
"20:4:20:606 (H:m:s:ms)","GENERIC","31.045","0.22691537001337322","399"
"20:4:26:666 (H:m:s:ms)","GENERIC","31.012","0.2276308879320544","341"
"20:4:32:727 (H:m:s:ms)","GENERIC","31.038","0.2342086215544378","276"
"20:4:38:787 (H:m:s:ms)","GENERIC","31.064","0.23539662421551238","215"
"20:4:44:848 (H:m:s:ms)","GENERIC","31.025","0.24272552464809752","162"
"20:4:50:909 (H:m:s:ms)","GENERIC","31.052","0.24441733348164943","1096"
"20:38:59:393 (H:m:s:ms)","GENERIC","62.103","0.2474084496920191","647"
"20:39:5:454 (H:m:s:ms)","GENERIC","62.089","0.24813036926733367","553"
"20:14:56:969 (H:m:s:ms)","GENERIC","62.153","0.23929088058149994","1034"
"20:39:11:515 (H:m:s:ms)","GENERIC","62.063","0.25033541801996845","494"
"20:15:3:30 (H:m:s:ms)","GENERIC","31.015","0.23253275160072723","978"
"20:39:17:575 (H:m:s:ms)","GENERIC","62.111","0.24825979970078352","427"
"20:15:9:90 (H:m:s:ms)","GENERIC","62.029","0.23276544226086945","948"
"20:39:23:636 (H:m:s:ms)","GENERIC","62.113","0.2437956608815742","369"
"20:15:15:151 (H:m:s:ms)","GENERIC","62.079","0.2325415078616609","856"
"20:39:29:696 (H:m:s:ms)","GENERIC","31.014","0.24253224221936126","458"
"20:15:21:212 (H:m:s:ms)","GENERIC","62.103","0.2345314870966404","795"
"20:39:35:757 (H:m:s:ms)","GENERIC","62.103","0.24187529056011306","247"
"20:15:27:272 (H:m:s:ms)","GENERIC","62.075","0.23329556337306953","730"
"20:39:41:818 (H:m:s:ms)","GENERIC","62.027","0.2478627430991523","191"
"20:15:33:333 (H:m:s:ms)","GENERIC","62.095","0.23274900035886176","675"
"20:39:47:878 (H:m:s:ms)","GENERIC","62.089","0.23914869991949653","1132"
"20:15:39:393 (H:m:s:ms)","GENERIC","62.041","0.2376886842630779","655"
"20:39:53:939 (H:m:s:ms)","GENERIC","62.067","0.24318826236548977","1066"
"20:15:45:454 (H:m:s:ms)","GENERIC","62.093","0.23572447233644442","554"
"20:15:51:515 (H:m:s:ms)","GENERIC","62.079","0.23761626968993238","492"
"20:4:56:969 (H:m:s:ms)","GENERIC","31.072","0.24530634359494072","1032"
"20:5:3:30 (H:m:s:ms)","GENERIC","31.031","0.24464229850529304","1000"
"20:5:9:90 (H:m:s:ms)","GENERIC","31.021","0.24895363306876872","935"
"20:5:15:151 (H:m:s:ms)","GENERIC","31.043","0.24818790755035222","856"
"20:5:21:212 (H:m:s:ms)","GENERIC","31.044","0.25405443550039714","794"
"20:5:27:272 (H:m:s:ms)","GENERIC","31.042","0.25161485218035046","730"
"20:5:33:333 (H:m:s:ms)","GENERIC","31.059","0.25153345965575924","675"
"20:5:39:393 (H:m:s:ms)","GENERIC","31.012","0.24635983740362274","642"
"20:5:45:454 (H:m:s:ms)","GENERIC","31.052","0.2437395641252045","554"
"20:5:51:515 (H:m:s:ms)","GENERIC","31.038","0.24456379901771522","489"
"20:15:57:575 (H:m:s:ms)","GENERIC","62.043","0.23691456972540093","435"
"20:16:3:636 (H:m:s:ms)","GENERIC","62.029","0.23551418822049824","372"
"20:16:9:696 (H:m:s:ms)","GENERIC","62.129","0.2327944852825965","348"
"20:16:15:757 (H:m:s:ms)","GENERIC","62.097","0.23368932170389872","243"
"20:16:21:818 (H:m:s:ms)","GENERIC","62.137","0.23644895507837543","189"
"20:16:27:878 (H:m:s:ms)","GENERIC","62.109","0.23899254058448782","1127"
"20:16:33:939 (H:m:s:ms)","GENERIC","62.037","0.23896706943502752","1065"
"20:16:40:0 (H:m:s:ms)","GENERIC","62.081","0.24117447018092003","1041"
"20:16:46:60 (H:m:s:ms)","GENERIC","62.053","0.24309916589235023","952"
"20:16:52:121 (H:m:s:ms)","GENERIC","62.047","0.24525710223252312","887"
"20:5:57:575 (H:m:s:ms)","GENERIC","31.016","0.2426707998369653","435"
"20:6:3:636 (H:m:s:ms)","GENERIC","31.027","0.24167027275708491","370"
"20:6:9:696 (H:m:s:ms)","GENERIC","31.058","0.24171547896291548","335"
"20:6:15:757 (H:m:s:ms)","GENERIC","31.051","0.24420967983492858","244"
"20:6:21:818 (H:m:s:ms)","GENERIC","31.077","0.24328682541150468","188"
"20:6:27:878 (H:m:s:ms)","GENERIC","31.055","0.2374018993894747","128"
"20:6:33:939 (H:m:s:ms)","GENERIC","31.018","0.23739801662562063","1066"
"20:6:40:0 (H:m:s:ms)","GENERIC","31.034","0.2379395193507466","1003"
"20:6:46:60 (H:m:s:ms)","GENERIC","31.018","0.24233057175714634","950"
"20:6:52:121 (H:m:s:ms)","GENERIC","31.014","0.23859827954586024","886"
"20:16:58:181 (H:m:s:ms)","GENERIC","62.089","0.24597013135124682","830"
"20:17:4:242 (H:m:s:ms)","GENERIC","62.041","0.24562012385926724","766"
"20:17:10:303 (H:m:s:ms)","GENERIC","62.095","0.23957474300880469","703"
"20:17:16:363 (H:m:s:ms)","GENERIC","62.099","0.23991167246418588","644"
"20:17:22:424 (H:m:s:ms)","GENERIC","62.093","0.23924002770913483","578"
"20:17:28:484 (H:m:s:ms)","GENERIC","62.123","0.23876885066119932","524"
"20:17:34:545 (H:m:s:ms)","GENERIC","62.083","0.24198800746602148","457"
"20:17:40:606 (H:m:s:ms)","GENERIC","62.107","0.24274788017219392","403"
"20:17:46:666 (H:m:s:ms)","GENERIC","62.071","0.24382625083311082","343"
"20:17:52:727 (H:m:s:ms)","GENERIC","62.037","0.24311544961909862","277"
"20:6:58:181 (H:m:s:ms)","GENERIC","31.054","0.2388257062286202","828"
"20:7:4:242 (H:m:s:ms)","GENERIC","31.028","0.2369992785561753","767"
"20:7:10:303 (H:m:s:ms)","GENERIC","31.047","0.23755365785543045","703"
"20:7:16:363 (H:m:s:ms)","GENERIC","31.042","0.23746884039017058","644"
"20:7:22:424 (H:m:s:ms)","GENERIC","31.053","0.2364932271692921","578"
"20:7:28:484 (H:m:s:ms)","GENERIC","31.056","0.23844225079541612","518"
"20:7:34:545 (H:m:s:ms)","GENERIC","31.044","0.24498842335779555","457"
"20:7:40:606 (H:m:s:ms)","GENERIC","31.063","0.24524004844274294","403"
"20:7:46:666 (H:m:s:ms)","GENERIC","31.041","0.24887008924136952","343"
"20:7:52:727 (H:m:s:ms)","GENERIC","31.018","0.2465304106845792","280"
"20:17:58:787 (H:m:s:ms)","GENERIC","62.033","0.2369665605696031","224"
"20:18:4:848 (H:m:s:ms)","GENERIC","62.119","0.2308684470856565","161"
"20:18:10:909 (H:m:s:ms)","GENERIC","62.073","0.22820040323448249","1097"
"20:18:16:969 (H:m:s:ms)","GENERIC","62.123","0.23479664919363805","1037"
"20:18:23:30 (H:m:s:ms)","GENERIC","62.101","0.23396149436581556","978"
"20:18:29:90 (H:m:s:ms)","GENERIC","62.105","0.2362017892975797","947"
"20:18:35:151 (H:m:s:ms)","GENERIC","62.063","0.23709793210347266","857"
"20:18:41:212 (H:m:s:ms)","GENERIC","62.091","0.23624904909285122","798"
"20:18:47:272 (H:m:s:ms)","GENERIC","62.079","0.23624665235728184","735"
"20:18:53:333 (H:m:s:ms)","GENERIC","62.079","0.24254904172734404","671"
"20:7:58:787 (H:m:s:ms)","GENERIC","31.025","0.24350500017296237","223"
"20:8:4:848 (H:m:s:ms)","GENERIC","31.054","0.24561528649487774","161"
"20:8:10:909 (H:m:s:ms)","GENERIC","31.044","0.23897109046941872","1097"
"20:8:16:969 (H:m:s:ms)","GENERIC","31.069","0.2433633658072072","1036"
"20:8:23:30 (H:m:s:ms)","GENERIC","31.055","0.2435282379099099","977"
"20:8:29:90 (H:m:s:ms)","GENERIC","31.056","0.24844847995049416","948"
"20:8:35:151 (H:m:s:ms)","GENERIC","31.034","0.24854342676696137","857"
"20:8:41:212 (H:m:s:ms)","GENERIC","31.037","0.2485544351020366","795"
"20:8:47:272 (H:m:s:ms)","GENERIC","31.049","0.2485717298734554","734"
"20:8:53:333 (H:m:s:ms)","GENERIC","31.039","0.24328838311151435","669"
"20:18:59:393 (H:m:s:ms)","GENERIC","62.113","0.24803998682731918","644"
"20:19:5:454 (H:m:s:ms)","GENERIC","62.101","0.23838452560776002","553"
"20:19:11:515 (H:m:s:ms)","GENERIC","62.047","0.23542916284005333","495"
"20:19:17:575 (H:m:s:ms)","GENERIC","62.131","0.23640989285231884","428"
"20:19:23:636 (H:m:s:ms)","GENERIC","62.155","0.23018128594417508","370"
"20:19:29:696 (H:m:s:ms)","GENERIC","62.053","0.22822793068319203","346"
"20:19:35:757 (H:m:s:ms)","GENERIC","62.113","0.22354207248154614","247"
"20:19:41:818 (H:m:s:ms)","GENERIC","62.033","0.22358616298394737","191"
"20:19:47:878 (H:m:s:ms)","GENERIC","62.093","0.22368009475823628","1129"
"20:19:53:939 (H:m:s:ms)","GENERIC","62.055","0.22387237850814798","1065"
"20:8:59:393 (H:m:s:ms)","GENERIC","31.059","0.24743493310796197","644"
"20:9:5:454 (H:m:s:ms)","GENERIC","31.044","0.2468340762509564","553"
"20:9:11:515 (H:m:s:ms)","GENERIC","31.02","0.2471852285357402","493"
"20:9:17:575 (H:m:s:ms)","GENERIC","31.066","0.245166987525169","428"
"20:9:23:636 (H:m:s:ms)","GENERIC","31.088","0.24002019933491617","369"
"20:9:29:696 (H:m:s:ms)","GENERIC","31.017","0.23914403602551243","348"
"20:9:35:757 (H:m:s:ms)","GENERIC","31.066","0.23272754427902184","248"
"20:9:41:818 (H:m:s:ms)","GENERIC","31.013","0.23295716695959487","191"
"20:9:47:878 (H:m:s:ms)","GENERIC","31.043","0.2249557313953531","128"
"20:9:53:939 (H:m:s:ms)","GENERIC","31.031","0.22561181244429632","1069"
"21:41:0:606 (H:m:s:ms)","GENERIC","62.085","0.2668190973672783","403"
"21:40:54:545 (H:m:s:ms)","GENERIC","62.077","0.26496496682558274","464"
"21:40:48:484 (H:m:s:ms)","GENERIC","62.039","0.26309540545326565","526"
"21:40:42:424 (H:m:s:ms)","GENERIC","62.133","0.2676820619602621","583"
"21:40:36:363 (H:m:s:ms)","GENERIC","62.073","0.2722231915121806","640"
"21:40:30:303 (H:m:s:ms)","GENERIC","62.099","0.2674162439110702","706"
"21:40:24:242 (H:m:s:ms)","GENERIC","62.043","0.2699087102420261","817"
"21:41:18:787 (H:m:s:ms)","GENERIC","62.109","0.2648270922116988","216"
"21:41:12:727 (H:m:s:ms)","GENERIC","62.061","0.26138961105583897","281"
"21:41:6:666 (H:m:s:ms)","GENERIC","62.081","0.26169464883353943","341"
