"time (H:m:s:ms)","type","latency","utilisation","waiting"
"21:42:19:393 (H:m:s:ms)","GENERIC","186.28","0.35549374954576063","642"
"21:42:1:212 (H:m:s:ms)","GENERIC","155.69","0.3580084812658256","788"
"21:41:55:151 (H:m:s:ms)","GENERIC","125.58000000000001","0.3583957419775439","848"
"21:41:49:90 (H:m:s:ms)","GENERIC","187.945","0.3539562679846647","945"
"21:41:43:30 (H:m:s:ms)","GENERIC","156.21800000000002","0.35577760753844845","969"
"21:41:36:969 (H:m:s:ms)","GENERIC","157.135","0.359867707006833","1031"
"21:41:30:909 (H:m:s:ms)","GENERIC","155.47","0.3593613175339776","1091"
"21:41:24:848 (H:m:s:ms)","GENERIC","156.653","0.3639093985056763","152"
"21:41:18:787 (H:m:s:ms)","GENERIC","156.118","0.3653932667495666","213"
"21:42:13:333 (H:m:s:ms)","GENERIC","156.85","0.3551970756421201","666"
"21:42:7:272 (H:m:s:ms)","GENERIC","156.829","0.3570377846145297","727"
"21:43:26:60 (H:m:s:ms)","GENERIC","156.864","0.37045253981179027","940"
"21:43:20:0 (H:m:s:ms)","GENERIC","186.832","0.35747817719492697","1037"
"21:43:7:878 (H:m:s:ms)","GENERIC","125.03999999999999","0.35715889817661484","1121"
"20:0:0:0 (H:m:s:ms)","GENERIC","93.19","0.05435259245247477","2194"
"21:43:1:818 (H:m:s:ms)","GENERIC","155.35","0.3573613839128891","182"
"20:0:6:60 (H:m:s:ms)","GENERIC","155.333","0.063645272784808","942"
"21:42:55:757 (H:m:s:ms)","GENERIC","156.40800000000002","0.3578276914055393","243"
"20:0:12:121 (H:m:s:ms)","GENERIC","125.238","0.08767489260537578","880"
"21:42:49:696 (H:m:s:ms)","GENERIC","156.703","0.3609097855913218","339"
"20:0:18:181 (H:m:s:ms)","GENERIC","155.308","0.10252545433691307","820"
"21:42:43:636 (H:m:s:ms)","GENERIC","188.42700000000002","0.3553926345348832","364"
"20:0:24:242 (H:m:s:ms)","GENERIC","157.246","0.10815223289936646","759"
"21:42:37:575 (H:m:s:ms)","GENERIC","155.869","0.35249082551986555","425"
"20:0:30:303 (H:m:s:ms)","GENERIC","157.558","0.11216823188230311","697"
"21:42:31:515 (H:m:s:ms)","GENERIC","155.599","0.3570810617711917","485"
"20:0:36:363 (H:m:s:ms)","GENERIC","94.539","0.12176889277808903","636"
"21:42:25:454 (H:m:s:ms)","GENERIC","188.202","0.3586006986648908","545"
"20:0:42:424 (H:m:s:ms)","GENERIC","156.11599999999999","0.12411293135094914","578"
"21:10:18:181 (H:m:s:ms)","GENERIC","155.172","0.3108541651239163","819"
"20:0:48:484 (H:m:s:ms)","GENERIC","94.549","0.13571521920538668","515"
"21:10:24:242 (H:m:s:ms)","GENERIC","156.73499999999999","0.31005822091420976","758"
"21:10:30:303 (H:m:s:ms)","GENERIC","188.49099999999999","0.3087238596880614","697"
"21:10:36:363 (H:m:s:ms)","GENERIC","157.303","0.30831299460646766","636"
"21:10:42:424 (H:m:s:ms)","GENERIC","156.285","0.30967121083364163","576"
"21:10:48:484 (H:m:s:ms)","GENERIC","157.28300000000002","0.3038887113741985","515"
"21:10:54:545 (H:m:s:ms)","GENERIC","156.853","0.3016827133500272","455"
"21:11:0:606 (H:m:s:ms)","GENERIC","188.541","0.30415943462631667","394"
"21:43:13:939 (H:m:s:ms)","GENERIC","125.512","0.35494046242090066","1061"
"21:11:6:666 (H:m:s:ms)","GENERIC","157.209","0.30518532376151986","334"
"21:11:12:727 (H:m:s:ms)","GENERIC","157.38","0.3052009651039313","272"
"21:25:45:454 (H:m:s:ms)","GENERIC","156.151","0.3251335912311661","545"
"21:44:32:727 (H:m:s:ms)","GENERIC","156.948","0.3905167615292966","272"
"21:44:26:666 (H:m:s:ms)","GENERIC","155.964","0.37982764918554013","334"
"21:44:20:606 (H:m:s:ms)","GENERIC","188.851","0.3711347695779413","393"
"21:44:14:545 (H:m:s:ms)","GENERIC","155.917","0.37103920856229883","455"
"21:44:8:484 (H:m:s:ms)","GENERIC","156.783","0.37344786562652926","515"
"21:44:2:424 (H:m:s:ms)","GENERIC","186.674","0.37247121895258617","575"
"21:43:56:363 (H:m:s:ms)","GENERIC","156.176","0.3592648207240441","637"
"21:43:50:303 (H:m:s:ms)","GENERIC","124.97999999999999","0.3644360928316524","696"
"21:43:44:242 (H:m:s:ms)","GENERIC","155.44799999999998","0.3663822391677562","759"
"21:43:38:181 (H:m:s:ms)","GENERIC","188.857","0.36801380715330684","819"
"21:11:18:787 (H:m:s:ms)","GENERIC","124.72300000000001","0.30483938652812925","213"
"21:43:32:121 (H:m:s:ms)","GENERIC","156.664","0.36575026413646156","879"
"21:11:24:848 (H:m:s:ms)","GENERIC","156.703","0.3028305722584182","152"
"21:11:30:909 (H:m:s:ms)","GENERIC","186.777","0.30327858345468633","1091"
"21:11:36:969 (H:m:s:ms)","GENERIC","157.118","0.3017533860635013","1031"
"21:11:43:30 (H:m:s:ms)","GENERIC","156.172","0.3030571661923203","969"
"21:11:49:90 (H:m:s:ms)","GENERIC","156.591","0.30150150634401846","948"
"21:11:55:151 (H:m:s:ms)","GENERIC","188.91500000000002","0.30337882690748047","848"
"21:12:1:212 (H:m:s:ms)","GENERIC","186.901","0.30327317404566057","789"
"21:12:7:272 (H:m:s:ms)","GENERIC","156.834","0.30183815288757","728"
"21:12:13:333 (H:m:s:ms)","GENERIC","188.475","0.30590222525511895","666"
"21:26:21:818 (H:m:s:ms)","GENERIC","189.115","0.3216676814304672","181"
"21:45:39:393 (H:m:s:ms)","GENERIC","124.941","0.4035139374380971","642"
"21:26:19:746 (H:m:s:ms)","OPERA","187.31","0.32074321653516014","289"
"21:45:33:333 (H:m:s:ms)","GENERIC","156.35399999999998","0.40891346708549914","667"
"21:45:27:272 (H:m:s:ms)","GENERIC","188.865","0.4121142287993754","728"
"21:45:21:212 (H:m:s:ms)","GENERIC","155.954","0.40692759612328294","787"
"21:26:12:151 (H:m:s:ms)","OPERA","187.649","0.3235895118503396","851"
"21:26:9:696 (H:m:s:ms)","GENERIC","189.089","0.32287442759407897","338"
"21:45:15:151 (H:m:s:ms)","GENERIC","124.375","0.40869349768404406","849"
"21:26:4:556 (H:m:s:ms)","OPERA","187.373","0.3247939150775337","445"
"21:45:9:90 (H:m:s:ms)","GENERIC","156.606","0.399761081666817","946"
"21:26:3:636 (H:m:s:ms)","GENERIC","155.878","0.3232078908873745","364"
"21:45:3:30 (H:m:s:ms)","GENERIC","156.164","0.39915735563364046","970"
"21:25:57:575 (H:m:s:ms)","GENERIC","155.234","0.32354061893360986","425"
"21:44:56:969 (H:m:s:ms)","GENERIC","125.089","0.3989367616939466","1030"
"21:25:56:962 (H:m:s:ms)","OPERA","156.081","0.3270354793096075","1038"
"21:44:50:909 (H:m:s:ms)","GENERIC","156.644","0.3908863193584924","1091"
"21:12:19:393 (H:m:s:ms)","GENERIC","186.315","0.30626692796910365","644"
"21:25:51:515 (H:m:s:ms)","GENERIC","157.169","0.3251163387430377","485"
"21:44:44:848 (H:m:s:ms)","GENERIC","186.558","0.3884423284133902","152"
"21:12:25:454 (H:m:s:ms)","GENERIC","188.213","0.3107563347251551","546"
"21:25:49:367 (H:m:s:ms)","OPERA","125.012","0.32499145375149446","667"
"21:44:38:787 (H:m:s:ms)","GENERIC","157.089","0.3894912442393518","213"
"21:12:31:515 (H:m:s:ms)","GENERIC","155.601","0.31201082450704604","485"
"21:12:37:575 (H:m:s:ms)","GENERIC","155.902","0.3087384574068838","425"
"21:12:43:636 (H:m:s:ms)","GENERIC","156.887","0.31004156413933087","364"
"21:12:49:696 (H:m:s:ms)","GENERIC","125.16","0.31009699864182205","341"
"21:12:55:757 (H:m:s:ms)","GENERIC","156.414","0.3132966516226953","243"
"21:13:1:818 (H:m:s:ms)","GENERIC","155.24699999999999","0.31261941284232914","182"
"21:13:7:878 (H:m:s:ms)","GENERIC","156.563","0.3148577871841945","1121"
"21:13:13:939 (H:m:s:ms)","GENERIC","188.841","0.3147992424228452","1061"
"21:26:15:757 (H:m:s:ms)","GENERIC","155.905","0.3226059966071466","242"
"21:26:58:181 (H:m:s:ms)","GENERIC","124.555","0.326011426721693","818"
"21:46:46:60 (H:m:s:ms)","GENERIC","156.166","0.4039805279245195","940"
"21:26:57:721 (H:m:s:ms)","OPERA","187.324","0.32563994739093527","279"
"21:46:40:0 (H:m:s:ms)","GENERIC","186.307","0.40020284558129465","1037"
"21:26:52:121 (H:m:s:ms)","GENERIC","188.22199999999998","0.32254812239897485","879"
"21:46:33:939 (H:m:s:ms)","GENERIC","157.192","0.40299939292915826","1061"
"21:46:27:878 (H:m:s:ms)","GENERIC","188.66","0.40326233600335915","1122"
"21:46:21:818 (H:m:s:ms)","GENERIC","125.619","0.40408868717770946","182"
"21:26:50:126 (H:m:s:ms)","OPERA","187.434","0.3215505167234526","874"
"21:26:46:60 (H:m:s:ms)","GENERIC","156.014","0.3200301835221913","940"
"21:26:42:531 (H:m:s:ms)","OPERA","156.138","0.3192766615943973","469"
"21:46:15:757 (H:m:s:ms)","GENERIC","156.003","0.3980201639812441","243"
"21:26:40:0 (H:m:s:ms)","GENERIC","186.382","0.3195201742337335","1035"
"21:46:9:696 (H:m:s:ms)","GENERIC","157.35500000000002","0.398437860684193","339"
"21:31:35:0 (H:m:s:ms)","OPERA","156.09699999999998","0.31764716004428256","2098"
"21:46:3:636 (H:m:s:ms)","GENERIC","186.793","0.3989077453689013","364"
"21:13:20:0 (H:m:s:ms)","GENERIC","155.626","0.31411298349800104","1038"
"21:26:33:939 (H:m:s:ms)","GENERIC","157.244","0.3201801849803913","1060"
"21:45:57:575 (H:m:s:ms)","GENERIC","186.276","0.4007422876409581","425"
"21:13:26:60 (H:m:s:ms)","GENERIC","156.808","0.32702174374210485","939"
"21:26:27:878 (H:m:s:ms)","GENERIC","157.00400000000002","0.3207341356146624","1123"
"21:45:51:515 (H:m:s:ms)","GENERIC","157.269","0.397888655845552","485"
"21:13:32:121 (H:m:s:ms)","GENERIC","125.178","0.32670662517036175","879"
"21:26:27:341 (H:m:s:ms)","OPERA","187.735","0.3222992856303606","659"
"21:45:45:454 (H:m:s:ms)","GENERIC","187.469","0.388201432693441","545"
"21:13:38:181 (H:m:s:ms)","GENERIC","157.121","0.3295413259519606","819"
"21:13:44:242 (H:m:s:ms)","GENERIC","155.401","0.32972436178644066","759"
"21:13:50:303 (H:m:s:ms)","GENERIC","156.575","0.328454801936314","697"
"21:13:56:363 (H:m:s:ms)","GENERIC","156.127","0.323184180712423","637"
"21:14:2:424 (H:m:s:ms)","GENERIC","155.466","0.342657543477855","575"
"21:14:8:484 (H:m:s:ms)","GENERIC","188.258","0.34358711851142015","515"
"21:14:14:545 (H:m:s:ms)","GENERIC","155.727","0.339915085202723","455"
"21:32:7:0 (H:m:s:ms)","OPERA","155.969","0.30625057339658474","2339"
"21:47:52:727 (H:m:s:ms)","GENERIC","124.79499999999999","0.38454458083960374","273"
"21:27:34:545 (H:m:s:ms)","GENERIC","188.731","0.32884794629112807","456"
"21:47:46:666 (H:m:s:ms)","GENERIC","156.12099999999998","0.3886619998949738","333"
"21:27:28:484 (H:m:s:ms)","GENERIC","93.849","0.3288671346626144","516"
"21:47:40:606 (H:m:s:ms)","GENERIC","156.64600000000002","0.3945007402610888","393"
"21:32:7:0 (H:m:s:ms)","OPERA","156.14","0.3074583506491386","2921"
"21:47:34:545 (H:m:s:ms)","GENERIC","156.86599999999999","0.3916107982449978","455"
"21:47:28:484 (H:m:s:ms)","GENERIC","93.827","0.3888400008502376","515"
"21:47:22:424 (H:m:s:ms)","GENERIC","187.46","0.38800125779662137","576"
"21:32:7:0 (H:m:s:ms)","GENERIC","187.224","0.31129445757123997","2594"
"21:27:20:506 (H:m:s:ms)","OPERA","187.236","0.32971582292738544","493"
"21:27:16:363 (H:m:s:ms)","GENERIC","156.826","0.3264054783190706","637"
"21:47:16:363 (H:m:s:ms)","GENERIC","156.65800000000002","0.3994904713075947","637"
"21:14:20:606 (H:m:s:ms)","GENERIC","157.232","0.34185357585041043","393"
"21:32:7:0 (H:m:s:ms)","OPERA","156.297","0.3125098940455689","2097"
"21:47:10:303 (H:m:s:ms)","GENERIC","156.278","0.3973755397071848","697"
"21:14:26:666 (H:m:s:ms)","GENERIC","156.071","0.34139432753436777","334"
"21:32:7:0 (H:m:s:ms)","GENERIC","187.581","0.3157056591434519","2702"
"21:47:4:242 (H:m:s:ms)","GENERIC","157.34300000000002","0.4051900896718262","759"
"20:52:19:393 (H:m:s:ms)","GENERIC","155.138","0.30603145665058223","646"
"21:14:32:727 (H:m:s:ms)","GENERIC","157.00300000000001","0.3405427748946886","272"
"21:27:5:316 (H:m:s:ms)","OPERA","187.255","0.3270985486362298","684"
"21:46:58:181 (H:m:s:ms)","GENERIC","155.986","0.40486223043262065","819"
"20:52:25:454 (H:m:s:ms)","GENERIC","156.70100000000002","0.30583992704045304","546"
"21:14:38:787 (H:m:s:ms)","GENERIC","157.07","0.3388404288098131","212"
"21:27:4:242 (H:m:s:ms)","GENERIC","157.34300000000002","0.3282472030393986","758"
"21:46:52:121 (H:m:s:ms)","GENERIC","125.07400000000001","0.4052120755225623","879"
"20:52:31:515 (H:m:s:ms)","GENERIC","124.34100000000001","0.30344814925095664","485"
"21:14:44:848 (H:m:s:ms)","GENERIC","155.506","0.33582184703680557","153"
"20:52:37:575 (H:m:s:ms)","GENERIC","187.249","0.30184460903129573","425"
"21:14:50:909 (H:m:s:ms)","GENERIC","156.482","0.33433205598694415","1091"
"20:52:43:636 (H:m:s:ms)","GENERIC","156.923","0.30075108242231874","364"
"21:14:56:969 (H:m:s:ms)","GENERIC","188.078","0.3393344161253843","1031"
"20:52:49:696 (H:m:s:ms)","GENERIC","156.716","0.30351933990918134","343"
"21:15:3:30 (H:m:s:ms)","GENERIC","156.159","0.34089547239396356","970"
"20:52:55:757 (H:m:s:ms)","GENERIC","187.886","0.29976476305356753","243"
"21:15:9:90 (H:m:s:ms)","GENERIC","156.786","0.34135659627661863","947"
"20:53:1:818 (H:m:s:ms)","GENERIC","155.183","0.2999351794037203","182"
"21:15:15:151 (H:m:s:ms)","GENERIC","186.727","0.34341078729309926","849"
"20:53:7:878 (H:m:s:ms)","GENERIC","188.068","0.29502044306663877","1122"
"20:53:13:939 (H:m:s:ms)","GENERIC","157.17","0.29183508448817896","1061"
"21:33:10:0 (H:m:s:ms)","OPERA","187.259","0.3374129874470853","3428"
"21:48:59:393 (H:m:s:ms)","GENERIC","124.82300000000001","0.36408539934745504","642"
"21:28:10:909 (H:m:s:ms)","GENERIC","188.95100000000002","0.32619048416391017","1091"
"21:48:53:333 (H:m:s:ms)","GENERIC","155.80599999999998","0.3662700324214097","667"
"21:32:7:0 (H:m:s:ms)","OPERA","156.35500000000002","0.3145306909630118","1967"
"21:48:47:272 (H:m:s:ms)","GENERIC","156.655","0.3647826417898547","727"
"21:28:4:848 (H:m:s:ms)","GENERIC","156.685","0.32882465793001314","152"
"21:48:41:212 (H:m:s:ms)","GENERIC","156.057","0.36434581097311375","787"
"21:32:7:0 (H:m:s:ms)","GENERIC","155.69299999999998","0.30888607729102147","1249"
"21:48:35:151 (H:m:s:ms)","GENERIC","155.793","0.3637515324161652","848"
"21:48:29:90 (H:m:s:ms)","GENERIC","156.144","0.3631494747263518","945"
"21:48:23:30 (H:m:s:ms)","GENERIC","156.49","0.3788930089344145","970"
"21:32:7:0 (H:m:s:ms)","OPERA","187.005","0.3084488584976887","2578"
"21:15:21:212 (H:m:s:ms)","GENERIC","187.311","0.3435004589158532","788"
"21:32:7:0 (H:m:s:ms)","GENERIC","187.648","0.30646160235694936","1304"
"21:15:27:272 (H:m:s:ms)","GENERIC","125.40700000000001","0.34556441166144","728"
"21:32:7:0 (H:m:s:ms)","OPERA","187.548","0.304373224737033","2145"
"21:48:16:969 (H:m:s:ms)","GENERIC","155.776","0.3795348873911972","1031"
"20:53:20:0 (H:m:s:ms)","GENERIC","155.632","0.2908510631823616","1040"
"21:15:33:333 (H:m:s:ms)","GENERIC","156.24599999999998","0.34406251764724016","667"
"21:27:46:666 (H:m:s:ms)","GENERIC","186.73399999999998","0.32688691497228245","335"
"21:48:10:909 (H:m:s:ms)","GENERIC","157.248","0.3829995049101295","1090"
"20:53:26:60 (H:m:s:ms)","GENERIC","156.90800000000002","0.29177985045033483","939"
"21:15:39:393 (H:m:s:ms)","GENERIC","156.386","0.34197457213011406","644"
"21:27:43:291 (H:m:s:ms)","OPERA","156.213","0.32767372036750964","710"
"21:48:4:848 (H:m:s:ms)","GENERIC","156.422","0.38197496208685405","152"
"20:53:32:121 (H:m:s:ms)","GENERIC","125.128","0.29479389703296466","879"
"21:15:45:454 (H:m:s:ms)","GENERIC","125.136","0.34196943863244017","547"
"21:27:40:606 (H:m:s:ms)","GENERIC","156.635","0.3282717917106208","393"
"21:47:58:787 (H:m:s:ms)","GENERIC","186.95100000000002","0.38672211442410237","212"
"20:53:38:181 (H:m:s:ms)","GENERIC","157.136","0.29649909429423776","819"
"21:15:51:515 (H:m:s:ms)","GENERIC","157.182","0.34036344821868647","485"
"20:53:44:242 (H:m:s:ms)","GENERIC","186.515","0.2965916488937492","758"
"21:15:57:575 (H:m:s:ms)","GENERIC","155.222","0.34242523691520454","424"
"20:53:50:303 (H:m:s:ms)","GENERIC","188.01100000000002","0.2985185205318754","697"
"21:16:3:636 (H:m:s:ms)","GENERIC","155.72199999999998","0.3430972335246315","364"
"20:53:56:363 (H:m:s:ms)","GENERIC","156.12","0.3002286635357895","637"
"21:16:9:696 (H:m:s:ms)","GENERIC","157.36599999999999","0.34191214810538756","340"
"20:54:2:424 (H:m:s:ms)","GENERIC","155.416","0.30012434233523344","575"
"21:16:15:757 (H:m:s:ms)","GENERIC","155.819","0.34209842040384153","243"
"20:54:8:484 (H:m:s:ms)","GENERIC","156.728","0.2999377989532917","515"
"20:54:14:545 (H:m:s:ms)","GENERIC","155.69400000000002","0.29902034631916363","455"
"21:32:7:0 (H:m:s:ms)","OPERA","187.234","0.32204233957675804","1407"
"22:1:3:157 (H:m:s:ms)","AMBULANCE","125.29100000000001","0.4071131113676728","844"
"21:33:42:0 (H:m:s:ms)","GENERIC","156.594","0.341481945032421","3828"
"21:50:0:0 (H:m:s:ms)","GENERIC","187.995","0.37081506838737144","1036"
"21:33:42:0 (H:m:s:ms)","OPERA","156.271","0.3407762525012579","4049"
"21:49:53:939 (H:m:s:ms)","GENERIC","156.18599999999998","0.35980862069847935","1061"
"21:28:41:212 (H:m:s:ms)","GENERIC","187.211","0.33242695561194424","788"
"21:49:47:878 (H:m:s:ms)","GENERIC","156.676","0.36310007776274383","1121"
"21:33:10:0 (H:m:s:ms)","OPERA","187.30599999999998","0.3352547710709938","1575"
"21:49:41:818 (H:m:s:ms)","GENERIC","157.31900000000002","0.36121377113900455","182"
"21:32:7:0 (H:m:s:ms)","GENERIC","187.155","0.31799541336066556","1899"
"21:49:35:757 (H:m:s:ms)","GENERIC","188.635","0.36105966333306805","243"
"21:49:29:696 (H:m:s:ms)","GENERIC","156.087","0.36061834242952345","339"
"21:49:23:636 (H:m:s:ms)","GENERIC","156.185","0.3631558151200239","364"
"21:16:21:818 (H:m:s:ms)","GENERIC","189.15","0.34402275766956647","181"
"21:16:27:878 (H:m:s:ms)","GENERIC","156.98","0.3440834255669698","1121"
"21:28:29:90 (H:m:s:ms)","GENERIC","187.584","0.3276782078117287","945"
"20:54:20:606 (H:m:s:ms)","GENERIC","125.595","0.29734335071732165","393"
"21:16:33:939 (H:m:s:ms)","GENERIC","157.249","0.34407038406883184","1061"
"21:32:7:0 (H:m:s:ms)","OPERA","156.525","0.31890143539852","2222"
"20:54:26:666 (H:m:s:ms)","GENERIC","155.96","0.2940446276344155","333"
"21:16:40:0 (H:m:s:ms)","GENERIC","155.31","0.3420477227699707","1036"
"21:33:10:0 (H:m:s:ms)","GENERIC","156.606","0.3359424395657805","1996"
"21:49:17:575 (H:m:s:ms)","GENERIC","188.501","0.365785597280936","425"
"20:54:32:727 (H:m:s:ms)","GENERIC","125.38900000000001","0.2920725549256014","273"
"21:16:46:60 (H:m:s:ms)","GENERIC","187.355","0.33870298308763","940"
"21:32:7:0 (H:m:s:ms)","OPERA","156.024","0.3172226359250257","2813"
"21:49:11:515 (H:m:s:ms)","GENERIC","155.278","0.3653180231758583","485"
"20:54:38:787 (H:m:s:ms)","GENERIC","157.096","0.29144556914125896","213"
"21:16:52:121 (H:m:s:ms)","GENERIC","156.678","0.33972671879620564","878"
"21:28:16:969 (H:m:s:ms)","GENERIC","155.55700000000002","0.32693118238548907","1031"
"21:49:5:454 (H:m:s:ms)","GENERIC","188.876","0.36584341519714464","546"
"20:54:44:848 (H:m:s:ms)","GENERIC","186.56","0.2908370308612494","152"
"21:16:58:181 (H:m:s:ms)","GENERIC","124.607","0.3403391144182714","818"
"20:54:50:909 (H:m:s:ms)","GENERIC","156.572","0.2868726791952852","1091"
"21:17:4:242 (H:m:s:ms)","GENERIC","157.33499999999998","0.3417932489814431","758"
"20:54:56:969 (H:m:s:ms)","GENERIC","156.599","0.2854881801070462","1030"
"21:17:10:303 (H:m:s:ms)","GENERIC","187.824","0.33693688195512933","697"
"20:55:3:30 (H:m:s:ms)","GENERIC","156.175","0.28569710926185554","969"
"21:17:16:363 (H:m:s:ms)","GENERIC","156.751","0.33745501611197976","637"
"20:55:9:90 (H:m:s:ms)","GENERIC","188.195","0.28557791268203675","950"
"20:55:15:151 (H:m:s:ms)","GENERIC","186.77100000000002","0.2853260580335301","849"
"21:32:7:0 (H:m:s:ms)","OPERA","187.203","0.30581457938338763","2460"
"21:29:23:636 (H:m:s:ms)","GENERIC","187.679","0.33752284401968186","365"
"21:33:42:0 (H:m:s:ms)","OPERA","156.239","0.35614640079996795","3001"
"21:29:17:575 (H:m:s:ms)","GENERIC","188.591","0.3339139417613119","425"
"21:33:42:0 (H:m:s:ms)","OPERA","186.98","0.35264165005287484","4623"
"21:29:11:515 (H:m:s:ms)","GENERIC","155.212","0.33149998648485995","485"
"21:33:42:0 (H:m:s:ms)","OPERA","187.343","0.3513791780645378","2175"
"21:17:22:424 (H:m:s:ms)","GENERIC","156.136","0.33091807396162903","577"
"21:17:28:484 (H:m:s:ms)","GENERIC","157.343","0.32969101713160825","515"
"20:55:21:212 (H:m:s:ms)","GENERIC","155.95499999999998","0.28896092813884056","788"
"21:17:34:545 (H:m:s:ms)","GENERIC","188.59300000000002","0.3296373551402131","455"
"20:55:27:272 (H:m:s:ms)","GENERIC","188.902","0.2899574792007918","728"
"21:17:40:606 (H:m:s:ms)","GENERIC","156.621","0.32940243485176807","394"
"21:29:5:454 (H:m:s:ms)","GENERIC","188.853","0.33331138384141984","546"
"20:55:33:333 (H:m:s:ms)","GENERIC","156.493","0.2895349443853082","666"
"21:17:46:666 (H:m:s:ms)","GENERIC","156.213","0.32366473874647306","334"
"21:33:42:0 (H:m:s:ms)","GENERIC","187.635","0.35232212017032993","4662"
"20:55:39:393 (H:m:s:ms)","GENERIC","156.43200000000002","0.28986207215486925","647"
"21:17:52:727 (H:m:s:ms)","GENERIC","156.002","0.3161776146469568","273"
"21:28:59:240 (H:m:s:ms)","OPERA","187.31","0.33564627883036746","795"
"22:2:37:894 (H:m:s:ms)","AMBULANCE","156.53900000000002","0.4057803635707173","1107"
"20:55:45:454 (H:m:s:ms)","GENERIC","155.22299999999998","0.28979550557071343","546"
"21:17:58:787 (H:m:s:ms)","GENERIC","155.708","0.3135334001848108","213"
"21:28:53:333 (H:m:s:ms)","GENERIC","187.01","0.3372594796398219","666"
"22:2:6:315 (H:m:s:ms)","AMBULANCE","125.38000000000001","0.4115465773445585","689"
"20:55:51:515 (H:m:s:ms)","GENERIC","125.459","0.29162584006461495","485"
"21:18:4:848 (H:m:s:ms)","GENERIC","156.474","0.3152857437921245","152"
"20:55:57:575 (H:m:s:ms)","GENERIC","186.231","0.2940239403171895","425"
"21:18:10:909 (H:m:s:ms)","GENERIC","157.208","0.31358951185686196","1091"
"20:56:3:636 (H:m:s:ms)","GENERIC","186.986","0.29165356664952147","365"
"21:18:16:969 (H:m:s:ms)","GENERIC","186.76600000000002","0.31195417004798176","1031"
"20:56:9:696 (H:m:s:ms)","GENERIC","125.636","0.29264669827617346","344"
"20:56:15:757 (H:m:s:ms)","GENERIC","155.76999999999998","0.29152287211237715","243"
"21:30:0:0 (H:m:s:ms)","GENERIC","156.566","0.3373327916438284","1037"
"21:33:42:0 (H:m:s:ms)","OPERA","156.156","0.34768984034467393","5158"
"21:30:0:0 (H:m:s:ms)","AMBULANCE","125.461","0.33534151123903305","1036"
"21:29:53:939 (H:m:s:ms)","GENERIC","156.112","0.3357481497803705","1063"
"21:32:7:0 (H:m:s:ms)","OPERA","187.103","0.31105678502904677","1634"
"21:29:47:878 (H:m:s:ms)","GENERIC","156.814","0.33552583826929744","1122"
"21:33:42:0 (H:m:s:ms)","OPERA","156.568","0.3476882533284301","3254"
"21:29:41:818 (H:m:s:ms)","GENERIC","157.275","0.3361340224729042","182"
"21:18:23:30 (H:m:s:ms)","GENERIC","156.488","0.3127372407516854","970"
"21:18:29:90 (H:m:s:ms)","GENERIC","187.307","0.31485804590681216","946"
"20:56:21:818 (H:m:s:ms)","GENERIC","125.64","0.2903692788635581","181"
"21:18:35:151 (H:m:s:ms)","GENERIC","187.113","0.31501108914482107","849"
"20:56:27:878 (H:m:s:ms)","GENERIC","188.67700000000002","0.2908561887836476","1121"
"21:18:41:212 (H:m:s:ms)","GENERIC","187.429","0.3136616929762538","788"
"20:40:0:0 (H:m:s:ms)","OPERA","124.988","0.2923917380159557","2193"
"20:56:33:939 (H:m:s:ms)","GENERIC","157.19","0.28829598817211516","1061"
"21:18:47:272 (H:m:s:ms)","GENERIC","188.209","0.3165150346010017","728"
"20:40:0:0 (H:m:s:ms)","GENERIC","187.891","0.29132800573894735","2194"
"20:56:40:0 (H:m:s:ms)","GENERIC","155.32299999999998","0.292366174944489","1041"
"21:18:53:333 (H:m:s:ms)","GENERIC","155.84","0.31593183268458197","667"
"21:29:37:215 (H:m:s:ms)","OPERA","187.449","0.3371014817556895","785"
"20:40:0:0 (H:m:s:ms)","GENERIC","93.156","0.2933126969712138","2194"
"20:56:46:60 (H:m:s:ms)","GENERIC","156.027","0.29238424174338706","940"
"21:18:59:393 (H:m:s:ms)","GENERIC","156.37","0.31670070568958153","641"
"21:29:35:757 (H:m:s:ms)","GENERIC","156.883","0.3385809815854148","243"
"20:40:6:60 (H:m:s:ms)","GENERIC","124.281","0.29061758518793174","940"
"20:56:52:121 (H:m:s:ms)","GENERIC","188.21699999999998","0.2944665222289883","878"
"21:19:5:454 (H:m:s:ms)","GENERIC","188.78","0.317876626990271","545"
"21:29:29:696 (H:m:s:ms)","GENERIC","156.114","0.3415133771674195","340"
"20:40:7:594 (H:m:s:ms)","OPERA","125.118","0.2898760790935331","406"
"20:56:58:181 (H:m:s:ms)","GENERIC","187.108","0.2937748028852443","818"
"21:19:11:515 (H:m:s:ms)","GENERIC","186.4","0.31884209829223814","485"
"20:40:12:121 (H:m:s:ms)","GENERIC","156.286","0.2881631349049628","879"
"20:57:4:242 (H:m:s:ms)","GENERIC","188.98","0.29540688508356616","758"
"21:19:17:575 (H:m:s:ms)","GENERIC","156.841","0.3169775164590969","425"
"20:40:15:189 (H:m:s:ms)","OPERA","156.375","0.2926440540698403","811"
"21:2:7:0 (H:m:s:ms)","GENERIC","156.306","0.30058294398480123","3702"
"20:40:18:181 (H:m:s:ms)","GENERIC","186.359","0.2922361695254076","819"
"20:57:16:363 (H:m:s:ms)","GENERIC","188.33100000000002","0.2942007585388493","637"
"20:40:22:784 (H:m:s:ms)","OPERA","125.14399999999999","0.2929037368991568","216"
"20:40:24:242 (H:m:s:ms)","GENERIC","156.634","0.29336026761592726","757"
"21:30:12:121 (H:m:s:ms)","GENERIC","124.816","0.3273673188607715","879"
"21:33:42:0 (H:m:s:ms)","GENERIC","188.335","0.3514877849542965","2458"
"21:35:48:0 (H:m:s:ms)","GENERIC","187.87400000000002","0.35273039028843517","4965"
"21:32:7:0 (H:m:s:ms)","GENERIC","156.322","0.3200206036528426","2665"
"21:30:36:363 (H:m:s:ms)","GENERIC","189.07299999999998","0.32104956240434424","637"
"21:30:31:578 (H:m:s:ms)","AMBULANCE","62.501999999999995","0.32396172511041443","444"
"21:30:30:303 (H:m:s:ms)","GENERIC","156.90800000000002","0.33021765883309484","697"
"21:30:24:242 (H:m:s:ms)","GENERIC","125.34700000000001","0.3272270299150872","758"
"21:19:23:636 (H:m:s:ms)","GENERIC","125.203","0.31112245769102537","364"
"21:30:18:181 (H:m:s:ms)","GENERIC","186.244","0.3270134295765345","819"
"21:19:29:696 (H:m:s:ms)","GENERIC","187.405","0.3089373605801717","337"
"21:2:7:0 (H:m:s:ms)","GENERIC","156.115","0.30325722599203797","3585"
"21:19:35:757 (H:m:s:ms)","GENERIC","156.976","0.3080900850970768","243"
"20:57:28:484 (H:m:s:ms)","GENERIC","157.322","0.2913362629845074","515"
"21:19:41:818 (H:m:s:ms)","GENERIC","157.301","0.3111410232431734","181"
"20:40:30:303 (H:m:s:ms)","GENERIC","156.938","0.2905008733217113","697"
"20:57:34:545 (H:m:s:ms)","GENERIC","157.028","0.29340389544147716","455"
"21:19:47:878 (H:m:s:ms)","GENERIC","156.611","0.3109211387109646","1122"
"20:40:36:363 (H:m:s:ms)","GENERIC","157.377","0.2894143764584319","637"
"20:57:40:606 (H:m:s:ms)","GENERIC","188.055","0.2936073135491899","394"
"21:19:53:939 (H:m:s:ms)","GENERIC","156.112","0.31051111807133297","1061"
"20:40:37:974 (H:m:s:ms)","OPERA","156.30100000000002","0.2909774404698557","1026"
"21:2:38:0 (H:m:s:ms)","GENERIC","156.099","0.3064187424536548","4380"
"21:20:0:0 (H:m:s:ms)","OPERA","156.009","0.30955728795284027","2213"
"20:40:42:424 (H:m:s:ms)","GENERIC","187.275","0.2923695118684328","577"
"21:2:38:0 (H:m:s:ms)","GENERIC","187.40800000000002","0.30786810569437856","4324"
"21:20:0:0 (H:m:s:ms)","GENERIC","188.021","0.31027180456035464","2213"
"21:30:6:60 (H:m:s:ms)","GENERIC","186.27499999999998","0.3301794730599565","940"
"20:40:45:569 (H:m:s:ms)","OPERA","156.339","0.2971093754839723","431"
"20:57:58:787 (H:m:s:ms)","GENERIC","155.697","0.2924528673352286","213"
"21:20:0:0 (H:m:s:ms)","GENERIC","155.289","0.31218336677379555","2214"
"21:30:0:0 (H:m:s:ms)","GENERIC","186.363","0.33491357925023696","1037"
"20:40:48:484 (H:m:s:ms)","GENERIC","157.20499999999998","0.29811913799856626","516"
"20:58:4:848 (H:m:s:ms)","GENERIC","124.882","0.291658966145981","153"
"21:20:6:60 (H:m:s:ms)","GENERIC","155.27100000000002","0.3148084224395365","940"
"20:40:53:164 (H:m:s:ms)","OPERA","156.45999999999998","0.2982291638169787","837"
"20:58:10:909 (H:m:s:ms)","GENERIC","157.177","0.2947154054862251","1091"
"20:40:54:545 (H:m:s:ms)","GENERIC","188.298","0.2999330046528123","455"
"20:58:16:969 (H:m:s:ms)","GENERIC","186.79399999999998","0.29485208250135936","1032"
"20:41:0:606 (H:m:s:ms)","GENERIC","188.68200000000002","0.30145443686064727","394"
"20:41:0:759 (H:m:s:ms)","OPERA","125.24499999999999","0.303010796136567","242"
"21:31:6:666 (H:m:s:ms)","GENERIC","157.16899999999998","0.3219311559914369","333"
"21:31:3:157 (H:m:s:ms)","AMBULANCE","125.091","0.3222383225142958","890"
"21:31:49:90 (H:m:s:ms)","GENERIC","156.472","0.31915273226571594","944"
"21:35:48:0 (H:m:s:ms)","GENERIC","156.15800000000002","0.36329098926803927","5033"
"21:31:36:969 (H:m:s:ms)","GENERIC","157.212","0.3170199157704455","1031"
"21:31:34:736 (H:m:s:ms)","AMBULANCE","156.78900000000002","0.30966043493433026","293"
"21:31:30:909 (H:m:s:ms)","GENERIC","155.398","0.3191588629516824","1091"
"21:35:48:0 (H:m:s:ms)","GENERIC","188.083","0.36547113999971526","2165"
"21:31:18:787 (H:m:s:ms)","GENERIC","187.256","0.3218458975652626","212"
"21:31:12:727 (H:m:s:ms)","GENERIC","157.311","0.3196235605830909","272"
"20:58:23:30 (H:m:s:ms)","GENERIC","125.015","0.29796540335026955","970"
"20:58:29:90 (H:m:s:ms)","GENERIC","156.071","0.29624475084948837","951"
"20:41:6:666 (H:m:s:ms)","GENERIC","157.281","0.30126515694465694","333"
"20:58:35:151 (H:m:s:ms)","GENERIC","155.849","0.2962616137602127","849"
"20:41:8:354 (H:m:s:ms)","OPERA","156.40800000000002","0.304159592501216","646"
"20:58:41:212 (H:m:s:ms)","GENERIC","187.424","0.2971465722242087","788"
"20:41:12:727 (H:m:s:ms)","GENERIC","157.389","0.30435057290150175","272"
"20:58:47:272 (H:m:s:ms)","GENERIC","188.232","0.300396813239955","728"
"20:41:15:949 (H:m:s:ms)","OPERA","125.11","0.3058585057554237","1050"
"20:58:53:333 (H:m:s:ms)","GENERIC","124.59","0.2975862381465165","667"
"20:41:18:787 (H:m:s:ms)","GENERIC","156.019","0.3054109162439014","213"
"20:58:59:393 (H:m:s:ms)","GENERIC","156.26600000000002","0.29745556452581207","646"
"20:41:23:544 (H:m:s:ms)","OPERA","124.973","0.30552587466084274","455"
"20:59:5:454 (H:m:s:ms)","GENERIC","188.849","0.29826153013866885","546"
"21:31:0:606 (H:m:s:ms)","GENERIC","125.425","0.3225183922595097","393"
"20:41:24:848 (H:m:s:ms)","GENERIC","156.68099999999998","0.304336729203119","153"
"20:59:11:515 (H:m:s:ms)","GENERIC","186.353","0.2998228690530558","485"
"20:41:30:909 (H:m:s:ms)","GENERIC","155.429","0.3035097090612282","1091"
"20:59:17:575 (H:m:s:ms)","GENERIC","188.58","0.30090368634116765","424"
"20:41:31:139 (H:m:s:ms)","OPERA","156.549","0.30642931396829287","863"
"20:41:36:969 (H:m:s:ms)","GENERIC","157.14","0.3075313892259951","1031"
"20:59:23:636 (H:m:s:ms)","GENERIC","125.30199999999999","0.2997331963008528","364"
"20:59:29:696 (H:m:s:ms)","GENERIC","156.176","0.30194367851651366","345"
"20:41:38:734 (H:m:s:ms)","OPERA","156.17000000000002","0.3095335057676912","267"
"20:59:35:757 (H:m:s:ms)","GENERIC","157.003","0.30423915761874804","243"
"20:41:43:30 (H:m:s:ms)","GENERIC","156.196","0.30874430394475716","970"
"20:59:41:818 (H:m:s:ms)","GENERIC","157.236","0.30201178071692275","182"
"20:41:46:329 (H:m:s:ms)","OPERA","124.96900000000001","0.31043988680660883","672"
"20:59:47:878 (H:m:s:ms)","GENERIC","156.585","0.3061418706044052","1121"
"20:41:49:90 (H:m:s:ms)","GENERIC","156.586","0.3085656278279831","963"
"20:59:53:939 (H:m:s:ms)","GENERIC","156.404","0.3065892582610516","1189"
"20:41:53:924 (H:m:s:ms)","OPERA","125.051","0.3107558533647079","1078"
"21:0:0:0 (H:m:s:ms)","AMBULANCE","125.11099999999999","0.3068616608454808","2257"
"20:41:55:151 (H:m:s:ms)","GENERIC","157.123","0.3130555435185884","848"
"21:0:0:0 (H:m:s:ms)","GENERIC","188.06099999999998","0.3056801715581721","2256"
"20:42:1:212 (H:m:s:ms)","GENERIC","155.68","0.3143920029692217","788"
"21:0:0:0 (H:m:s:ms)","GENERIC","124.22","0.307073982894432","2257"
"20:42:1:518 (H:m:s:ms)","OPERA","125.267","0.31573309622559365","483"
"21:0:6:60 (H:m:s:ms)","GENERIC","186.32","0.30199621023854645","940"
"20:42:7:272 (H:m:s:ms)","GENERIC","156.717","0.3163009689582833","727"
"20:42:9:113 (H:m:s:ms)","OPERA","124.994","0.3159454218439478","920"
"21:4:45:0 (H:m:s:ms)","GENERIC","156.328","0.31720748854474573","7923"
"21:0:18:181 (H:m:s:ms)","GENERIC","155.17000000000002","0.3055554228088492","819"
"20:42:13:333 (H:m:s:ms)","GENERIC","156.955","0.312598859688053","667"
"21:0:24:242 (H:m:s:ms)","GENERIC","156.66899999999998","0.30431164863991145","758"
"20:42:19:393 (H:m:s:ms)","GENERIC","186.252","0.31215830846934645","640"
"21:0:30:303 (H:m:s:ms)","GENERIC","156.908","0.30325881798076826","697"
"20:20:0:0 (H:m:s:ms)","GENERIC","156.559","0.2871690787239514","2203"
"20:42:24:303 (H:m:s:ms)","OPERA","125.36099999999999","0.3115099952617145","698"
"21:0:31:578 (H:m:s:ms)","AMBULANCE","125.19800000000001","0.29425628362935735","424"
"20:20:0:0 (H:m:s:ms)","GENERIC","124.274","0.28696313825064207","2204"
"20:42:25:454 (H:m:s:ms)","GENERIC","188.214","0.31119884964915556","545"
"21:0:36:363 (H:m:s:ms)","GENERIC","157.325","0.29929145318635764","636"
"20:20:6:60 (H:m:s:ms)","GENERIC","186.449","0.2855222226731727","940"
"20:42:31:515 (H:m:s:ms)","GENERIC","155.47","0.310284487244731","485"
"21:4:45:0 (H:m:s:ms)","GENERIC","156.115","0.3193896674047242","6625"
"20:20:12:121 (H:m:s:ms)","GENERIC","187.67000000000002","0.2899205199079021","879"
"20:42:31:898 (H:m:s:ms)","OPERA","125.128","0.31307234746569035","102"
"21:0:48:484 (H:m:s:ms)","GENERIC","157.30700000000002","0.30033253013757927","515"
"20:20:18:181 (H:m:s:ms)","GENERIC","124.16999999999999","0.2919908442986297","819"
"20:42:37:575 (H:m:s:ms)","GENERIC","155.85","0.3116743766936947","424"
"21:0:54:545 (H:m:s:ms)","GENERIC","125.196","0.297487971052164","455"
"20:20:24:242 (H:m:s:ms)","GENERIC","125.18299999999999","0.29308360197792405","758"
"20:42:39:493 (H:m:s:ms)","OPERA","124.949","0.31376667956224863","541"
"21:1:0:606 (H:m:s:ms)","GENERIC","156.957","0.30110099351466557","394"
"20:20:30:303 (H:m:s:ms)","GENERIC","188.387","0.2911504304815239","697"
"20:42:43:636 (H:m:s:ms)","GENERIC","156.929","0.3150862177563682","364"
"20:20:36:363 (H:m:s:ms)","GENERIC","189.03","0.2916408391815036","637"
"20:42:49:696 (H:m:s:ms)","GENERIC","156.644","0.31285540830065794","339"
"20:20:42:424 (H:m:s:ms)","GENERIC","156.758","0.2911234586179099","651"
"20:20:48:484 (H:m:s:ms)","GENERIC","188.993","0.29299847440655885","517"
"21:1:3:157 (H:m:s:ms)","AMBULANCE","125.236","0.2990342992915415","844"
"21:1:6:666 (H:m:s:ms)","GENERIC","157.25400000000002","0.3092955214273702","334"
"20:42:54:683 (H:m:s:ms)","OPERA","156.411","0.31399529765693474","317"
"21:1:12:727 (H:m:s:ms)","GENERIC","157.338","0.30843246116177403","273"
"20:42:55:757 (H:m:s:ms)","GENERIC","187.993","0.31460846853239843","243"
"21:1:18:787 (H:m:s:ms)","GENERIC","156.078","0.30650608820860537","213"
"20:20:54:545 (H:m:s:ms)","GENERIC","156.91899999999998","0.2911599615918614","455"
"20:43:1:818 (H:m:s:ms)","GENERIC","155.277","0.31300595611116533","182"
"21:1:24:848 (H:m:s:ms)","GENERIC","125.18799999999999","0.30686607869371846","153"
"20:21:0:606 (H:m:s:ms)","GENERIC","156.936","0.29374582919301634","394"
"20:43:2:278 (H:m:s:ms)","OPERA","125.124","0.3157066156937293","721"
"21:1:30:909 (H:m:s:ms)","GENERIC","155.503","0.3066890771145301","1091"
"20:21:6:666 (H:m:s:ms)","GENERIC","189.03699999999998","0.2957833749934118","334"
"20:43:7:878 (H:m:s:ms)","GENERIC","188.14","0.316421927016315","1121"
"21:1:34:736 (H:m:s:ms)","AMBULANCE","93.79","0.30791269974123364","264"
"20:21:12:727 (H:m:s:ms)","GENERIC","157.346","0.2980536479656655","273"
"20:43:9:873 (H:m:s:ms)","OPERA","156.075","0.31447157845213086","164"
"21:1:36:969 (H:m:s:ms)","GENERIC","188.834","0.308397237663045","1031"
"20:21:18:787 (H:m:s:ms)","GENERIC","187.24900000000002","0.2959817253891011","213"
"20:43:13:939 (H:m:s:ms)","GENERIC","188.861","0.31480106043706635","1061"
"21:1:43:30 (H:m:s:ms)","GENERIC","156.09199999999998","0.30690962030411395","970"
"20:21:24:848 (H:m:s:ms)","GENERIC","156.582","0.2935947772643312","153"
"20:43:17:468 (H:m:s:ms)","OPERA","124.786","0.31474990317284296","533"
"21:1:49:90 (H:m:s:ms)","GENERIC","156.45","0.3069807561889921","952"
"20:21:30:909 (H:m:s:ms)","GENERIC","186.733","0.2918313649013452","1091"
"20:43:20:0 (H:m:s:ms)","GENERIC","155.57","0.31704148364268575","1037"
"20:21:36:969 (H:m:s:ms)","GENERIC","188.77","0.29162618180586986","1031"
"20:43:25:63 (H:m:s:ms)","OPERA","156.488","0.3191353025869366","937"
"20:21:43:30 (H:m:s:ms)","GENERIC","124.711","0.29077586837088726","973"
"20:21:49:90 (H:m:s:ms)","GENERIC","188.029","0.2879717023558582","945"
"20:43:26:60 (H:m:s:ms)","GENERIC","156.99099999999999","0.3198389595118403","939"
"20:43:32:121 (H:m:s:ms)","GENERIC","156.653","0.315393890883468","879"
"20:21:55:151 (H:m:s:ms)","GENERIC","157.072","0.289742734589621","849"
"20:43:32:658 (H:m:s:ms)","OPERA","125.103","0.3177848839655952","342"
"20:22:1:212 (H:m:s:ms)","GENERIC","155.69","0.2894785651192342","788"
"20:43:38:181 (H:m:s:ms)","GENERIC","188.968","0.3146939566548093","819"
"20:22:7:272 (H:m:s:ms)","GENERIC","156.773","0.28834742672906455","728"
"20:43:40:253 (H:m:s:ms)","OPERA","156.499","0.31700074973379183","747"
"20:22:13:333 (H:m:s:ms)","GENERIC","188.381","0.2916214703604177","667"
"20:43:44:242 (H:m:s:ms)","GENERIC","186.412","0.31560127050698455","759"
"20:22:19:393 (H:m:s:ms)","GENERIC","155.26500000000001","0.29142840676002807","643"
"20:43:47:848 (H:m:s:ms)","OPERA","156.579","0.31631969241170016","153"
"20:22:25:454 (H:m:s:ms)","GENERIC","188.16199999999998","0.2903680510033877","546"
"20:43:50:303 (H:m:s:ms)","GENERIC","156.603","0.3179143599038617","697"
"20:22:31:515 (H:m:s:ms)","GENERIC","155.513","0.287884452334911","485"
"20:43:55:443 (H:m:s:ms)","OPERA","156.366","0.3191228740732696","557"
"20:22:37:575 (H:m:s:ms)","GENERIC","187.115","0.2893568502066232","425"
"20:43:56:363 (H:m:s:ms)","GENERIC","187.236","0.319083985613929","637"
"20:22:43:636 (H:m:s:ms)","GENERIC","156.872","0.2912159649140069","364"
"20:22:49:696 (H:m:s:ms)","GENERIC","188.221","0.2947065768750691","345"
"20:44:2:424 (H:m:s:ms)","GENERIC","155.474","0.3182244759248508","576"
"20:44:3:37 (H:m:s:ms)","OPERA","125.08399999999999","0.31992152931041734","962"
"20:22:55:757 (H:m:s:ms)","GENERIC","187.856","0.29415684751513665","242"
"20:44:8:484 (H:m:s:ms)","GENERIC","188.255","0.31895621563335774","515"
"20:23:1:818 (H:m:s:ms)","GENERIC","186.417","0.2945182206914976","182"
"20:44:10:632 (H:m:s:ms)","OPERA","156.19299999999998","0.3181768648280179","368"
"20:23:7:878 (H:m:s:ms)","GENERIC","156.566","0.2937327549288067","1122"
"20:44:14:545 (H:m:s:ms)","GENERIC","155.618","0.31742823573661183","455"
"20:23:13:939 (H:m:s:ms)","GENERIC","157.131","0.2919510198679832","1061"
"20:44:18:227 (H:m:s:ms)","OPERA","156.596","0.3171194821448964","774"
"20:23:20:0 (H:m:s:ms)","GENERIC","155.66","0.29180628309218737","1039"
"20:44:20:606 (H:m:s:ms)","GENERIC","157.188","0.31668015557642376","393"
"20:23:26:60 (H:m:s:ms)","GENERIC","156.986","0.29028980261265147","940"
"20:44:25:822 (H:m:s:ms)","OPERA","156.183","0.3179756805687919","177"
"20:23:32:121 (H:m:s:ms)","GENERIC","156.65699999999998","0.292779996501778","879"
"20:44:26:666 (H:m:s:ms)","GENERIC","156.073","0.31865437582154715","334"
"20:23:38:181 (H:m:s:ms)","GENERIC","188.888","0.2951528706460385","819"
"20:44:32:727 (H:m:s:ms)","GENERIC","125.285","0.31935835507989724","273"
"20:23:44:242 (H:m:s:ms)","GENERIC","155.324","0.29475226654494485","758"
"20:23:50:303 (H:m:s:ms)","GENERIC","187.971","0.296058990654214","697"
"20:44:33:417 (H:m:s:ms)","OPERA","124.922","0.32007630488963995","584"
"20:44:38:787 (H:m:s:ms)","GENERIC","125.43299999999999","0.31763565512264047","213"
"20:23:56:363 (H:m:s:ms)","GENERIC","187.316","0.29447287535033","637"
"20:44:41:12 (H:m:s:ms)","OPERA","156.466","0.31693896224545637","989"
"20:24:2:424 (H:m:s:ms)","GENERIC","186.60399999999998","0.2949719958496638","576"
"20:44:44:848 (H:m:s:ms)","GENERIC","155.478","0.31702979414080074","152"
"20:24:8:484 (H:m:s:ms)","GENERIC","156.789","0.2952239602124371","516"
"20:44:48:607 (H:m:s:ms)","OPERA","156.70600000000002","0.31696724354426326","393"
"20:24:14:545 (H:m:s:ms)","GENERIC","186.99","0.29113508768928814","456"
"20:44:50:909 (H:m:s:ms)","GENERIC","188.174","0.3182759573618181","1090"
"20:24:20:606 (H:m:s:ms)","GENERIC","125.53399999999999","0.28708482157130255","394"
"20:44:56:202 (H:m:s:ms)","OPERA","125.289","0.32115323998445855","800"
"20:24:26:666 (H:m:s:ms)","GENERIC","155.851","0.2835328840276559","334"
"20:44:56:969 (H:m:s:ms)","GENERIC","156.733","0.31972516967574394","1034"
"20:24:32:727 (H:m:s:ms)","GENERIC","125.352","0.2826719304144839","273"
"20:45:3:30 (H:m:s:ms)","GENERIC","124.75999999999999","0.3194774055938347","969"
"20:24:38:787 (H:m:s:ms)","GENERIC","188.63","0.28362684787084125","212"
"20:45:3:797 (H:m:s:ms)","OPERA","93.659","0.3200555701350154","203"
"20:24:44:848 (H:m:s:ms)","GENERIC","155.38299999999998","0.28501736747093875","152"
"20:24:50:909 (H:m:s:ms)","GENERIC","156.552","0.2845060925454404","1091"
"20:45:9:90 (H:m:s:ms)","GENERIC","156.788","0.32060123000877133","946"
"20:45:11:392 (H:m:s:ms)","OPERA","125.111","0.32158148600040076","608"
"20:24:56:969 (H:m:s:ms)","GENERIC","187.942","0.28498690292469153","1030"
"20:45:15:151 (H:m:s:ms)","GENERIC","124.404","0.3203658231468656","849"
"20:25:3:30 (H:m:s:ms)","GENERIC","156.113","0.2838520513633739","970"
"20:45:18:987 (H:m:s:ms)","OPERA","125.149","0.3198036376623418","1048"
"20:25:9:90 (H:m:s:ms)","GENERIC","156.606","0.2848604736849981","944"
"20:45:21:212 (H:m:s:ms)","GENERIC","155.97500000000002","0.3178862378372089","788"
"20:25:15:151 (H:m:s:ms)","GENERIC","155.591","0.28319574508120676","848"
"20:45:26:582 (H:m:s:ms)","OPERA","156.594","0.3189817601949275","418"
"20:25:21:212 (H:m:s:ms)","GENERIC","155.98000000000002","0.28534006781785715","788"
"20:45:27:272 (H:m:s:ms)","GENERIC","188.80599999999998","0.3192743280582701","727"
"20:25:27:272 (H:m:s:ms)","GENERIC","157.274","0.28545040163522917","728"
"20:45:33:333 (H:m:s:ms)","GENERIC","156.808","0.31924991971862815","667"
"20:25:33:333 (H:m:s:ms)","GENERIC","156.39","0.288038388933078","667"
"20:45:34:177 (H:m:s:ms)","OPERA","156.467","0.3210284836097211","823"
"20:25:39:393 (H:m:s:ms)","GENERIC","156.506","0.29084153610628044","641"
"20:45:39:393 (H:m:s:ms)","GENERIC","188.132","0.3191980910209268","642"
"20:25:45:454 (H:m:s:ms)","GENERIC","155.308","0.2875614392566862","546"
"20:25:51:515 (H:m:s:ms)","GENERIC","157.31","0.28583862381074426","485"
"20:25:57:575 (H:m:s:ms)","GENERIC","155.285","0.28839792690591187","424"
"20:26:3:636 (H:m:s:ms)","GENERIC","186.84","0.28608112916289763","364"
"20:26:9:696 (H:m:s:ms)","GENERIC","157.322","0.28445640906502473","339"
"20:26:15:757 (H:m:s:ms)","GENERIC","155.837","0.2834279531405362","243"
"20:26:21:818 (H:m:s:ms)","GENERIC","157.377","0.28263733501371285","182"
"20:26:27:878 (H:m:s:ms)","GENERIC","157.078","0.28417160962585924","1122"
"20:26:33:939 (H:m:s:ms)","GENERIC","157.255","0.28515378832467375","1061"
"20:26:40:0 (H:m:s:ms)","GENERIC","155.274","0.2828694704461825","1035"
"20:26:46:60 (H:m:s:ms)","GENERIC","156.101","0.2831228198830337","940"
"20:26:52:121 (H:m:s:ms)","GENERIC","188.19400000000002","0.285015782133984","879"
"20:26:58:181 (H:m:s:ms)","GENERIC","124.597","0.2854450672857031","819"
"20:27:4:242 (H:m:s:ms)","GENERIC","157.305","0.2875025612524631","758"
"20:27:10:303 (H:m:s:ms)","GENERIC","156.32","0.28596198807915074","697"
"20:27:16:363 (H:m:s:ms)","GENERIC","188.238","0.2868569512908741","637"
"20:27:22:424 (H:m:s:ms)","GENERIC","187.427","0.2876971157210707","577"
"20:27:28:484 (H:m:s:ms)","GENERIC","189.012","0.28889521469244145","516"
"20:27:34:545 (H:m:s:ms)","GENERIC","188.826","0.2883527080283281","455"
"20:27:40:606 (H:m:s:ms)","GENERIC","156.619","0.2905196309081497","393"
"20:27:46:666 (H:m:s:ms)","GENERIC","156.20499999999998","0.288175256783106","334"
"20:27:52:727 (H:m:s:ms)","GENERIC","187.49","0.2882053188549036","273"
"20:27:58:787 (H:m:s:ms)","GENERIC","187.007","0.28781460273446413","213"
"20:28:4:848 (H:m:s:ms)","GENERIC","187.766","0.2866474096920066","153"
"20:28:10:909 (H:m:s:ms)","GENERIC","188.888","0.2873239017392292","1090"
"20:28:16:969 (H:m:s:ms)","GENERIC","155.78300000000002","0.28502348037438796","1031"
"20:28:23:30 (H:m:s:ms)","GENERIC","156.529","0.2849600515857689","970"
"20:28:29:90 (H:m:s:ms)","GENERIC","187.37","0.28562205827351617","944"
"20:28:35:151 (H:m:s:ms)","GENERIC","155.818","0.28761330451160266","849"
"20:28:41:212 (H:m:s:ms)","GENERIC","187.54399999999998","0.28535293769954334","788"
"20:28:47:272 (H:m:s:ms)","GENERIC","156.608","0.28472571555554466","728"
"20:28:53:333 (H:m:s:ms)","GENERIC","187.12199999999999","0.2810302493769509","667"
"20:28:59:393 (H:m:s:ms)","GENERIC","156.28199999999998","0.2839467854793545","641"
"20:29:5:454 (H:m:s:ms)","GENERIC","125.47200000000001","0.2842682535851633","546"
"20:29:11:515 (H:m:s:ms)","GENERIC","186.439","0.2838580701158887","485"
"20:29:17:575 (H:m:s:ms)","GENERIC","156.936","0.28431088565556123","425"
"20:29:23:636 (H:m:s:ms)","GENERIC","156.861","0.28325964185810293","364"
"20:29:29:696 (H:m:s:ms)","GENERIC","156.022","0.2844578312545559","339"
"20:29:35:757 (H:m:s:ms)","GENERIC","156.906","0.2860288021965304","243"
"20:29:41:818 (H:m:s:ms)","GENERIC","157.407","0.28637491391296227","181"
"20:29:47:878 (H:m:s:ms)","GENERIC","188.208","0.28899377090546874","1121"
"20:29:53:939 (H:m:s:ms)","GENERIC","186.683","0.28515807591465275","1061"
"22:8:56:842 (H:m:s:ms)","AMBULANCE","125.359","0.3968324338578955","161"
"22:7:53:684 (H:m:s:ms)","AMBULANCE","125.376","0.39629942328417855","322"
"22:6:50:526 (H:m:s:ms)","AMBULANCE","156.797","0.40868054724988667","474"
"22:5:47:368 (H:m:s:ms)","AMBULANCE","94.012","0.40783950569422606","632"
"22:4:12:631 (H:m:s:ms)","AMBULANCE","125.51100000000001","0.40653711483449545","373"
"21:20:7:594 (H:m:s:ms)","OPERA","156.25","0.31227462318734744","406"
"21:20:12:121 (H:m:s:ms)","GENERIC","124.939","0.30879037388809116","878"
"21:20:15:189 (H:m:s:ms)","OPERA","156.13","0.31078707910469144","811"
"21:20:18:181 (H:m:s:ms)","GENERIC","155.228","0.3098303431243045","819"
"21:20:22:784 (H:m:s:ms)","OPERA","156.13299999999998","0.3115528487410473","215"
"21:20:24:242 (H:m:s:ms)","GENERIC","156.69","0.31159966568993247","758"
"21:20:30:303 (H:m:s:ms)","GENERIC","157.025","0.31168228312260915","697"
"21:20:30:379 (H:m:s:ms)","OPERA","156.381","0.31566874555598723","622"
"21:20:36:363 (H:m:s:ms)","GENERIC","157.296","0.31323343562026024","636"
"21:20:37:974 (H:m:s:ms)","OPERA","156.141","0.3150798325426814","1026"
"21:20:42:424 (H:m:s:ms)","GENERIC","156.209","0.3176646453136446","575"
"21:20:45:569 (H:m:s:ms)","OPERA","155.978","0.31975829022841673","431"
"21:20:48:484 (H:m:s:ms)","GENERIC","157.23","0.3198404965641699","516"
"21:20:53:164 (H:m:s:ms)","OPERA","156.071","0.3210988923638235","836"
"21:20:54:545 (H:m:s:ms)","GENERIC","156.85399999999998","0.3204019048709063","455"
"21:21:0:606 (H:m:s:ms)","GENERIC","156.981","0.3222578981564536","394"
"21:21:0:759 (H:m:s:ms)","OPERA","124.666","0.32364005054719813","241"
"21:21:6:666 (H:m:s:ms)","GENERIC","157.22899999999998","0.3253348710009574","333"
"21:21:8:354 (H:m:s:ms)","OPERA","156.361","0.3264844005581741","648"
"21:21:12:727 (H:m:s:ms)","GENERIC","93.854","0.3244077652930072","273"
"21:32:43:636 (H:m:s:ms)","GENERIC","156.898","0.3221893385482441","364"
"21:32:31:515 (H:m:s:ms)","GENERIC","186.726","0.32237261867078887","485"
"21:32:25:454 (H:m:s:ms)","GENERIC","156.685","0.3236164594630071","546"
"21:32:19:393 (H:m:s:ms)","GENERIC","124.217","0.3256705445324031","642"
"21:32:13:333 (H:m:s:ms)","GENERIC","188.315","0.3261431491831606","667"
"21:32:7:272 (H:m:s:ms)","GENERIC","156.798","0.3218510266735158","780"
"21:32:6:315 (H:m:s:ms)","AMBULANCE","125.08599999999998","0.32684477188199096","747"
"21:32:1:212 (H:m:s:ms)","GENERIC","155.684","0.31365975759285125","788"
"21:21:15:949 (H:m:s:ms)","OPERA","187.594","0.3235781063298385","1051"
"21:31:55:151 (H:m:s:ms)","GENERIC","157.291","0.3152660177456225","849"
"21:21:18:787 (H:m:s:ms)","GENERIC","155.85500000000002","0.3229531558055789","213"
"21:21:23:544 (H:m:s:ms)","OPERA","187.111","0.3230045604397559","457"
"21:21:24:848 (H:m:s:ms)","GENERIC","125.173","0.3227811871574146","151"
"21:21:30:909 (H:m:s:ms)","GENERIC","186.609","0.32236376026709884","1091"
"21:21:31:139 (H:m:s:ms)","OPERA","187.172","0.3252165470836335","863"
"21:21:36:969 (H:m:s:ms)","GENERIC","157.085","0.32461832616856534","1031"
"21:21:38:734 (H:m:s:ms)","OPERA","156.22","0.32349159510493963","266"
"21:32:37:894 (H:m:s:ms)","AMBULANCE","125.07300000000001","0.3232824294538657","155"
"21:21:43:30 (H:m:s:ms)","GENERIC","156.168","0.3209680320734179","970"
"21:32:37:575 (H:m:s:ms)","GENERIC","155.995","0.3243493732830368","424"
"21:21:46:329 (H:m:s:ms)","OPERA","187.589","0.32271192247139935","671"
"21:33:41:52 (H:m:s:ms)","AMBULANCE","125.47099999999999","0.3525941281244948","956"
"21:33:38:181 (H:m:s:ms)","GENERIC","125.477","0.34752397016511827","819"
"21:33:26:60 (H:m:s:ms)","GENERIC","156.951","0.3384546309101728","939"
"21:33:20:0 (H:m:s:ms)","GENERIC","124.473","0.33222304165003297","1035"
"21:33:13:939 (H:m:s:ms)","GENERIC","157.183","0.33448703265457946","1061"
"21:33:9:473 (H:m:s:ms)","AMBULANCE","125.34700000000001","0.34328145406723815","574"
"21:33:42:0 (H:m:s:ms)","GENERIC","188.04899999999998","0.34561674230240597","3171"
"21:33:1:818 (H:m:s:ms)","GENERIC","186.312","0.33144704745353865","182"
"21:21:49:90 (H:m:s:ms)","GENERIC","156.59","0.3222029050966687","944"
"21:36:51:0 (H:m:s:ms)","GENERIC","156.35899999999998","0.3560553957828735","4300"
"21:21:53:924 (H:m:s:ms)","OPERA","187.582","0.3258148796132334","1077"
"21:32:49:696 (H:m:s:ms)","GENERIC","156.697","0.3187953262546649","339"
"21:21:55:151 (H:m:s:ms)","GENERIC","125.553","0.32579613863645707","849"
"21:22:1:212 (H:m:s:ms)","GENERIC","155.673","0.32482297920816233","788"
"21:22:1:518 (H:m:s:ms)","OPERA","156.42700000000002","0.32610502148725184","483"
"21:22:7:272 (H:m:s:ms)","GENERIC","125.23599999999999","0.32507978051955505","728"
"21:22:9:113 (H:m:s:ms)","OPERA","187.151","0.3291115649842359","922"
"21:22:13:333 (H:m:s:ms)","GENERIC","156.964","0.32690700516500704","684"
"21:22:16:708 (H:m:s:ms)","OPERA","156.84","0.32852994641828076","292"
"21:22:19:393 (H:m:s:ms)","GENERIC","155.243","0.32880868383350104","641"
"21:33:32:121 (H:m:s:ms)","GENERIC","156.64","0.34466302144581545","879"
"21:34:38:787 (H:m:s:ms)","GENERIC","188.658","0.3604347352434544","212"
"21:34:32:727 (H:m:s:ms)","GENERIC","188.478","0.34615574491802936","272"
"21:34:26:666 (H:m:s:ms)","GENERIC","155.871","0.343474703532103","334"
"21:34:20:606 (H:m:s:ms)","GENERIC","157.282","0.3445194178652902","394"
"21:34:14:545 (H:m:s:ms)","GENERIC","155.778","0.34048065176275466","455"
"21:34:12:631 (H:m:s:ms)","AMBULANCE","125.03699999999999","0.34255929706853366","419"
"21:34:8:484 (H:m:s:ms)","GENERIC","156.75799999999998","0.3466344089686185","515"
"21:34:2:424 (H:m:s:ms)","GENERIC","155.423","0.34462121892001657","575"
"21:22:24:303 (H:m:s:ms)","OPERA","156.179","0.3293811562872034","697"
"21:33:56:363 (H:m:s:ms)","GENERIC","156.06","0.3477778540496298","637"
"21:22:25:454 (H:m:s:ms)","GENERIC","93.59100000000001","0.33005241917609524","546"
"21:38:26:0 (H:m:s:ms)","GENERIC","156.62900000000002","0.3498016208581051","2701"
"21:1:55:151 (H:m:s:ms)","GENERIC","157.245","0.30645711483596283","848"
"21:22:31:515 (H:m:s:ms)","GENERIC","155.472","0.32884068971603736","485"
"21:33:44:242 (H:m:s:ms)","GENERIC","186.439","0.3425637345331408","759"
"21:2:1:212 (H:m:s:ms)","GENERIC","155.615","0.3068117086976493","788"
"21:22:31:898 (H:m:s:ms)","OPERA","156.057","0.32900605762833374","1105"
"21:2:6:315 (H:m:s:ms)","AMBULANCE","125.158","0.2996072531045925","686"
"21:22:37:575 (H:m:s:ms)","GENERIC","124.72","0.3309767124442517","425"
"21:2:7:272 (H:m:s:ms)","GENERIC","156.87900000000002","0.309832171918486","733"
"21:22:39:493 (H:m:s:ms)","OPERA","156.442","0.3310272672534064","542"
"21:2:13:333 (H:m:s:ms)","GENERIC","156.881","0.312958604741927","667"
"21:22:43:636 (H:m:s:ms)","GENERIC","156.9","0.3322404706467615","364"
"21:2:19:393 (H:m:s:ms)","GENERIC","124.125","0.31238145857689176","649"
"21:22:47:88 (H:m:s:ms)","OPERA","125.234","0.3323116280959883","911"
"21:2:25:454 (H:m:s:ms)","GENERIC","156.747","0.31195980158597814","546"
"21:22:49:696 (H:m:s:ms)","GENERIC","156.635","0.33340027598881256","339"
"21:2:31:515 (H:m:s:ms)","GENERIC","124.404","0.3099965341972476","485"
"21:22:54:683 (H:m:s:ms)","OPERA","187.173","0.332906314208948","317"
"21:2:37:575 (H:m:s:ms)","GENERIC","155.942","0.3084786613999025","425"
"21:2:37:894 (H:m:s:ms)","AMBULANCE","156.339","0.30607016937973863","176"
"21:39:29:0 (H:m:s:ms)","GENERIC","124.87299999999999","0.35683366438918795","2714"
"21:35:27:272 (H:m:s:ms)","GENERIC","188.825","0.3519197887515491","728"
"21:35:21:212 (H:m:s:ms)","GENERIC","187.238","0.35470928649688305","788"
"21:35:15:789 (H:m:s:ms)","AMBULANCE","125.424","0.35335303220662256","212"
"21:35:15:151 (H:m:s:ms)","GENERIC","155.528","0.35118283865883365","849"
"21:35:9:90 (H:m:s:ms)","GENERIC","156.691","0.3448044134231583","945"
"21:40:1:0 (H:m:s:ms)","GENERIC","187.426","0.35617379405297467","5081"
"21:22:55:757 (H:m:s:ms)","GENERIC","188.09699999999998","0.3346151328443404","243"
"21:38:26:0 (H:m:s:ms)","GENERIC","188.11599999999999","0.3502809937598441","2032"
"21:23:1:818 (H:m:s:ms)","GENERIC","155.337","0.332013295272161","182"
"21:35:48:0 (H:m:s:ms)","GENERIC","125.132","0.36444360235066725","2096"
"21:2:43:636 (H:m:s:ms)","GENERIC","156.871","0.30571169583402485","364"
"21:23:2:278 (H:m:s:ms)","OPERA","186.828","0.33175525357695246","723"
"21:34:44:848 (H:m:s:ms)","GENERIC","155.40300000000002","0.3590819039527019","153"
"21:2:49:696 (H:m:s:ms)","GENERIC","156.638","0.30403555191345855","344"
"21:23:7:878 (H:m:s:ms)","GENERIC","188.28199999999998","0.332654844196395","122"
"21:34:44:210 (H:m:s:ms)","AMBULANCE","93.819","0.3564584958362249","790"
"21:2:55:757 (H:m:s:ms)","GENERIC","187.877","0.31229225864932403","242"
"21:23:9:873 (H:m:s:ms)","OPERA","186.976","0.3317664742814855","163"
"21:3:1:818 (H:m:s:ms)","GENERIC","155.164","0.3106407192737618","182"
"21:23:13:939 (H:m:s:ms)","GENERIC","157.206","0.3336240451341116","1061"
"21:3:7:878 (H:m:s:ms)","GENERIC","156.618","0.3113937368683537","1122"
"21:23:17:468 (H:m:s:ms)","OPERA","156.15","0.33527719506232423","532"
"21:3:9:473 (H:m:s:ms)","AMBULANCE","125.01499999999999","0.3126508983485935","659"
"21:23:20:0 (H:m:s:ms)","GENERIC","124.42099999999999","0.3365523861998811","1033"
"21:3:13:939 (H:m:s:ms)","GENERIC","157.167","0.31409488172410316","1061"
"21:23:25:63 (H:m:s:ms)","OPERA","187.507","0.3386201838763994","938"
"21:3:20:0 (H:m:s:ms)","GENERIC","155.595","0.315413972566568","1061"
"21:23:26:60 (H:m:s:ms)","GENERIC","125.26400000000001","0.3382330872918858","939"
"21:3:26:60 (H:m:s:ms)","GENERIC","156.882","0.31554086103129064","940"
"21:3:32:121 (H:m:s:ms)","GENERIC","156.686","0.3141750450692958","879"
"21:36:27:878 (H:m:s:ms)","GENERIC","156.972","0.34868133204473933","1122"
"21:36:21:818 (H:m:s:ms)","GENERIC","157.4","0.3489510507131818","181"
"21:36:18:947 (H:m:s:ms)","AMBULANCE","93.80799999999999","0.3471540109547814","1118"
"21:36:15:757 (H:m:s:ms)","GENERIC","187.124","0.35211760220809457","242"
"21:36:9:696 (H:m:s:ms)","GENERIC","157.382","0.35216705020510464","338"
"21:36:3:636 (H:m:s:ms)","GENERIC","186.99","0.354985795573251","364"
"21:23:32:121 (H:m:s:ms)","GENERIC","156.633","0.3332818474989662","878"
"21:35:57:575 (H:m:s:ms)","GENERIC","155.214","0.35511210643520036","425"
"21:23:32:658 (H:m:s:ms)","OPERA","156.127","0.3339211764263913","343"
"21:35:51:515 (H:m:s:ms)","GENERIC","157.231","0.35100942473889374","485"
"21:3:38:181 (H:m:s:ms)","GENERIC","157.266","0.3159287133191731","819"
"21:23:38:181 (H:m:s:ms)","GENERIC","188.82999999999998","0.3306387171714162","819"
"21:35:47:368 (H:m:s:ms)","AMBULANCE","125.362","0.36131280520767356","663"
"21:3:41:52 (H:m:s:ms)","AMBULANCE","125.199","0.3193908615514866","949"
"21:23:40:253 (H:m:s:ms)","OPERA","187.17700000000002","0.33272641511423184","746"
"21:39:29:0 (H:m:s:ms)","GENERIC","156.131","0.3553307536706456","4608"
"21:3:44:242 (H:m:s:ms)","GENERIC","155.359","0.32091264708363687","759"
"21:23:44:242 (H:m:s:ms)","GENERIC","186.436","0.3274831437024853","758"
"21:40:1:0 (H:m:s:ms)","GENERIC","156.632","0.35826820637163975","6770"
"21:3:50:303 (H:m:s:ms)","GENERIC","156.504","0.3170844805316252","696"
"21:23:47:848 (H:m:s:ms)","OPERA","187.309","0.32938542316369057","151"
"21:3:56:363 (H:m:s:ms)","GENERIC","156.097","0.3175228077596338","637"
"21:23:50:303 (H:m:s:ms)","GENERIC","156.563","0.326212268254461","696"
"21:4:2:424 (H:m:s:ms)","GENERIC","155.533","0.31743550952127186","576"
"21:23:55:443 (H:m:s:ms)","OPERA","155.992","0.3259220550496632","557"
"21:4:8:484 (H:m:s:ms)","GENERIC","156.829","0.31766474073975154","516"
"21:23:56:363 (H:m:s:ms)","GENERIC","156.04","0.32828729642430543","637"
"21:4:12:631 (H:m:s:ms)","AMBULANCE","93.81","0.3157042090968568","371"
"21:24:2:424 (H:m:s:ms)","GENERIC","155.425","0.333009442344537","576"
"21:4:14:545 (H:m:s:ms)","GENERIC","186.947","0.3237643425928367","455"
"21:4:20:606 (H:m:s:ms)","GENERIC","125.51","0.3214305433987229","394"
"21:37:22:424 (H:m:s:ms)","GENERIC","155.924","0.3592169843708565","579"
"21:37:22:105 (H:m:s:ms)","AMBULANCE","125.475","0.3621138116093345","897"
"21:37:16:363 (H:m:s:ms)","GENERIC","156.855","0.36097244819986607","637"
"21:39:29:0 (H:m:s:ms)","GENERIC","156.248","0.36054507052087026","2737"
"21:37:4:242 (H:m:s:ms)","GENERIC","157.365","0.3574528916823243","758"
"21:36:58:181 (H:m:s:ms)","GENERIC","155.862","0.35498657935479183","818"
"21:24:3:37 (H:m:s:ms)","OPERA","156.147","0.3324095531431579","963"
"21:24:8:484 (H:m:s:ms)","GENERIC","156.893","0.3334942089837593","516"
"21:36:52:121 (H:m:s:ms)","GENERIC","188.25300000000001","0.3530753258239434","879"
"21:4:26:666 (H:m:s:ms)","GENERIC","155.898","0.32153838795117606","334"
"21:24:10:632 (H:m:s:ms)","OPERA","156.096","0.32766248439858664","369"
"21:36:50:526 (H:m:s:ms)","AMBULANCE","62.312","0.3694371825403165","533"
"21:4:32:727 (H:m:s:ms)","GENERIC","156.899","0.3210781588552562","273"
"21:24:14:545 (H:m:s:ms)","GENERIC","186.74","0.3260210703901054","456"
"21:36:46:60 (H:m:s:ms)","GENERIC","155.769","0.35124941601742515","940"
"21:4:38:787 (H:m:s:ms)","GENERIC","156.97899999999998","0.320043281898138","213"
"21:24:18:227 (H:m:s:ms)","OPERA","156.316","0.32571023281380956","773"
"21:36:40:0 (H:m:s:ms)","GENERIC","186.409","0.3478108110492694","1036"
"21:4:44:210 (H:m:s:ms)","AMBULANCE","125.267","0.3147962927719134","793"
"21:24:20:606 (H:m:s:ms)","GENERIC","157.304","0.3260867058654833","394"
"21:36:33:939 (H:m:s:ms)","GENERIC","157.248","0.3505342979055992","1061"
"21:4:44:848 (H:m:s:ms)","GENERIC","155.43","0.31581605342787644","156"
"21:24:25:822 (H:m:s:ms)","OPERA","155.975","0.3197274030409136","178"
"21:4:50:909 (H:m:s:ms)","GENERIC","188.117","0.3210651741179795","1091"
"21:24:26:666 (H:m:s:ms)","GENERIC","155.917","0.32141994378910244","333"
"21:4:56:969 (H:m:s:ms)","GENERIC","156.44400000000002","0.32174222048007106","1031"
"21:24:32:727 (H:m:s:ms)","GENERIC","125.346","0.3226727771252801","273"
"21:5:3:30 (H:m:s:ms)","GENERIC","156.183","0.31811115229255693","970"
"21:24:33:417 (H:m:s:ms)","OPERA","187.447","0.32270238514196364","583"
"21:5:9:90 (H:m:s:ms)","GENERIC","156.703","0.32115631500662645","951"
"21:5:15:151 (H:m:s:ms)","GENERIC","155.707","0.31958230481115557","849"
"21:40:1:0 (H:m:s:ms)","GENERIC","156.575","0.3598678190422179","5092"
"21:38:16:969 (H:m:s:ms)","GENERIC","155.822","0.34723510315933254","1031"
"21:38:10:909 (H:m:s:ms)","GENERIC","157.194","0.3537216394033025","1090"
"21:40:1:0 (H:m:s:ms)","GENERIC","156.555","0.3579459716466929","2260"
"21:37:58:787 (H:m:s:ms)","GENERIC","155.587","0.35767521311671807","213"
"21:37:53:684 (H:m:s:ms)","AMBULANCE","124.93900000000001","0.35971725562774354","334"
"21:39:29:0 (H:m:s:ms)","GENERIC","187.541","0.3613545994350091","2321"
"21:24:38:787 (H:m:s:ms)","GENERIC","157.043","0.32201657834910774","213"
"21:24:41:12 (H:m:s:ms)","OPERA","187.199","0.3222148081421624","989"
"21:5:15:789 (H:m:s:ms)","AMBULANCE","125.256","0.32012250363512584","256"
"21:24:44:848 (H:m:s:ms)","GENERIC","186.493","0.3244150102354216","153"
"21:5:21:212 (H:m:s:ms)","GENERIC","155.918","0.3200018227659029","788"
"21:24:48:607 (H:m:s:ms)","OPERA","187.601","0.32448023528548","394"
"21:38:57:0 (H:m:s:ms)","GENERIC","156.15699999999998","0.3497776844309808","1338"
"20:45:41:772 (H:m:s:ms)","OPERA","125.171","0.3205751593036432","227"
"21:5:27:272 (H:m:s:ms)","GENERIC","188.981","0.32197525296414575","728"
"21:24:50:909 (H:m:s:ms)","GENERIC","156.772","0.32476605588505636","1090"
"21:40:1:0 (H:m:s:ms)","GENERIC","156.663","0.3522909837900522","3503"
"20:45:45:454 (H:m:s:ms)","GENERIC","186.306","0.3200168958312916","546"
"21:10:1:0 (H:m:s:ms)","GENERIC","187.83800000000002","0.31014300164452613","3725"
"21:24:56:202 (H:m:s:ms)","OPERA","156.287","0.32296256758229747","799"
"21:37:34:545 (H:m:s:ms)","GENERIC","188.703","0.3622548081517355","456"
"20:45:51:515 (H:m:s:ms)","GENERIC","157.112","0.31940143526571557","485"
"21:5:39:393 (H:m:s:ms)","GENERIC","156.52499999999998","0.3229121794392512","647"
"21:24:56:969 (H:m:s:ms)","GENERIC","125.057","0.322120720460404","1033"
"21:37:28:484 (H:m:s:ms)","GENERIC","157.309","0.35667845431889117","516"
"20:45:56:962 (H:m:s:ms)","OPERA","93.723","0.31889199122806294","1038"
"21:5:45:454 (H:m:s:ms)","GENERIC","187.927","0.32769746257726373","667"
"21:25:3:30 (H:m:s:ms)","GENERIC","124.896","0.32421224097437534","970"
"20:45:57:575 (H:m:s:ms)","GENERIC","186.24099999999999","0.31705322354716253","426"
"21:5:47:368 (H:m:s:ms)","AMBULANCE","125.215","0.3287180877390064","633"
"21:25:3:797 (H:m:s:ms)","OPERA","156.196","0.32521380330250294","203"
"20:46:3:636 (H:m:s:ms)","GENERIC","155.688","0.31505709249714786","364"
"21:5:51:515 (H:m:s:ms)","GENERIC","157.273","0.3282846665396583","484"
"21:25:9:90 (H:m:s:ms)","GENERIC","156.686","0.3263411890182627","944"
"20:46:4:556 (H:m:s:ms)","OPERA","156.392","0.3153651250113964","445"
"21:5:57:575 (H:m:s:ms)","GENERIC","155.17","0.3290743615705174","425"
"20:46:9:696 (H:m:s:ms)","GENERIC","189.094","0.3140410084766266","341"
"21:6:3:636 (H:m:s:ms)","GENERIC","155.755","0.3272532409887631","363"
"20:46:12:151 (H:m:s:ms)","OPERA","156.255","0.3146854521468925","848"
"20:46:15:757 (H:m:s:ms)","GENERIC","124.52600000000001","0.31318802188206407","242"
"21:39:17:575 (H:m:s:ms)","GENERIC","156.88","0.36906996444843726","425"
"21:39:11:515 (H:m:s:ms)","GENERIC","155.394","0.35667074977121077","485"
"21:39:5:454 (H:m:s:ms)","GENERIC","157.20100000000002","0.3577069015582459","546"
"21:40:1:0 (H:m:s:ms)","GENERIC","156.144","0.35757753845763424","2741"
"21:38:56:842 (H:m:s:ms)","AMBULANCE","156.401","0.36969641497540684","220"
"21:38:53:333 (H:m:s:ms)","GENERIC","155.8","0.3602403922733922","667"
"21:40:1:0 (H:m:s:ms)","GENERIC","156.722","0.3606463432077747","1796"
"21:38:41:212 (H:m:s:ms)","GENERIC","156.10399999999998","0.3603075300140482","788"
"21:25:11:392 (H:m:s:ms)","OPERA","187.397","0.32534531905253794","609"
"21:25:15:151 (H:m:s:ms)","GENERIC","186.707","0.324805004036515","848"
"21:6:9:696 (H:m:s:ms)","GENERIC","189.117","0.3233839129625502","345"
"21:25:18:987 (H:m:s:ms)","OPERA","124.863","0.3261600454360048","1047"
"21:6:15:757 (H:m:s:ms)","GENERIC","187.007","0.3221469351249639","243"
"21:25:21:212 (H:m:s:ms)","GENERIC","124.60300000000001","0.32473035092743546","788"
"20:46:19:746 (H:m:s:ms)","OPERA","125.217","0.31531269242651705","292"
"21:6:18:947 (H:m:s:ms)","AMBULANCE","125.14099999999999","0.3210567099252677","1093"
"21:25:26:582 (H:m:s:ms)","OPERA","156.064","0.32424317509784345","418"
"20:46:21:818 (H:m:s:ms)","GENERIC","157.431","0.31490392608367435","181"
"21:6:21:818 (H:m:s:ms)","GENERIC","157.28","0.32165489113540685","182"
"21:25:27:272 (H:m:s:ms)","GENERIC","157.15800000000002","0.32320585190411455","727"
"21:38:57:0 (H:m:s:ms)","GENERIC","155.83800000000002","0.354246987858617","1857"
"20:46:27:341 (H:m:s:ms)","OPERA","125.14099999999999","0.3141220973696931","658"
"21:6:27:878 (H:m:s:ms)","GENERIC","188.696","0.322553164937511","1122"
"21:25:33:333 (H:m:s:ms)","GENERIC","187.79","0.3228027936200813","667"
"21:38:29:90 (H:m:s:ms)","GENERIC","156.19","0.35441379215597263","946"
"20:46:27:878 (H:m:s:ms)","GENERIC","157.06199999999998","0.3124636473084561","1122"
"21:6:33:939 (H:m:s:ms)","GENERIC","125.563","0.3223991397001284","1061"
"21:25:34:177 (H:m:s:ms)","OPERA","187.448","0.32428468877659156","825"
"21:38:25:263 (H:m:s:ms)","AMBULANCE","125.51400000000001","0.3526498465386808","738"
"20:46:33:939 (H:m:s:ms)","GENERIC","188.883","0.3144707085670902","1061"
"21:6:40:0 (H:m:s:ms)","GENERIC","155.317","0.3248718619377315","1040"
"21:25:39:393 (H:m:s:ms)","GENERIC","156.527","0.32282150761860756","641"
"20:46:34:936 (H:m:s:ms)","OPERA","124.97","0.31626617982761074","1065"
"21:6:46:60 (H:m:s:ms)","GENERIC","187.305","0.3215027851782857","939"
"21:25:41:772 (H:m:s:ms)","OPERA","187.36700000000002","0.3245139729344542","228"
"20:46:40:0 (H:m:s:ms)","GENERIC","186.351","0.31635007170005225","1039"
"21:6:50:526 (H:m:s:ms)","AMBULANCE","125.232","0.3185699195574095","475"
"20:46:42:531 (H:m:s:ms)","OPERA","125.085","0.3175405066857198","470"
"21:6:52:121 (H:m:s:ms)","GENERIC","156.74900000000002","0.32209568811900935","879"
"20:46:46:60 (H:m:s:ms)","GENERIC","187.459","0.31743244765745315","939"
"20:46:50:126 (H:m:s:ms)","OPERA","125.208","0.3140597176118576","874"
"21:39:29:696 (H:m:s:ms)","GENERIC","156.078","0.35596123708419986","347"
"21:40:6:60 (H:m:s:ms)","GENERIC","186.302","0.3655924427236215","940"
"21:40:0:0 (H:m:s:ms)","GENERIC","124.22800000000001","0.3664764717436279","2223"
"21:40:0:0 (H:m:s:ms)","GENERIC","156.431","0.36585759029781667","2222"
"21:40:0:0 (H:m:s:ms)","AMBULANCE","125.46","0.36827599188358195","2222"
"21:39:53:939 (H:m:s:ms)","GENERIC","156.248","0.3626555042531865","1061"
"21:39:47:878 (H:m:s:ms)","GENERIC","156.761","0.35931323715834473","1121"
"21:39:41:818 (H:m:s:ms)","GENERIC","189.004","0.35681183000371824","181"
"21:39:35:757 (H:m:s:ms)","GENERIC","156.994","0.3563241402156405","243"
"21:6:58:181 (H:m:s:ms)","GENERIC","187.197","0.3243348828369083","818"
"21:7:4:242 (H:m:s:ms)","GENERIC","125.631","0.3261656963701917","758"
"20:46:52:121 (H:m:s:ms)","GENERIC","188.409","0.3128038014960488","879"
"21:10:1:0 (H:m:s:ms)","GENERIC","187.778","0.3107327442393716","3757"
"20:46:57:721 (H:m:s:ms)","OPERA","156.282","0.31361995448869867","279"
"21:7:16:363 (H:m:s:ms)","GENERIC","188.359","0.32428174911725205","637"
"20:46:58:181 (H:m:s:ms)","GENERIC","155.798","0.3148785555639545","818"
"21:7:22:105 (H:m:s:ms)","AMBULANCE","125.18","0.3237739414873152","916"
"20:47:4:242 (H:m:s:ms)","GENERIC","189.186","0.3170566604429512","757"
"21:7:22:424 (H:m:s:ms)","GENERIC","155.911","0.3250388551556161","598"
"21:39:28:421 (H:m:s:ms)","AMBULANCE","156.357","0.38069624487486553","602"
"20:47:5:316 (H:m:s:ms)","OPERA","156.309","0.3157107722127326","683"
"21:7:28:484 (H:m:s:ms)","GENERIC","157.31799999999998","0.3240039615831645","515"
"21:39:23:636 (H:m:s:ms)","GENERIC","187.455","0.36255226456264594","364"
"20:47:10:303 (H:m:s:ms)","GENERIC","156.337","0.31807009592435087","696"
"21:7:34:545 (H:m:s:ms)","GENERIC","188.6","0.32445784470636096","455"
"20:47:12:911 (H:m:s:ms)","OPERA","156.264","0.31856961157934777","1090"
"21:7:40:606 (H:m:s:ms)","GENERIC","156.582","0.3211058755151415","394"
"20:47:16:363 (H:m:s:ms)","GENERIC","125.17099999999999","0.31644231149783614","636"
"21:10:1:0 (H:m:s:ms)","GENERIC","187.49099999999999","0.3100445093443541","3387"
"20:47:20:506 (H:m:s:ms)","OPERA","125.331","0.31589430389171386","495"
"20:47:22:424 (H:m:s:ms)","GENERIC","155.814","0.31405992277822703","575"
"21:10:1:0 (H:m:s:ms)","GENERIC","156.214","0.30761953436097145","3330"
"21:7:53:684 (H:m:s:ms)","AMBULANCE","156.44","0.3177763171342558","316"
"20:47:28:101 (H:m:s:ms)","OPERA","125.27","0.31232975318781203","898"
"21:7:58:787 (H:m:s:ms)","GENERIC","155.67000000000002","0.3158347345501033","213"
"20:47:28:484 (H:m:s:ms)","GENERIC","125.599","0.3108913968070971","516"
"21:8:4:848 (H:m:s:ms)","GENERIC","156.469","0.31723342782555947","152"
"20:47:34:545 (H:m:s:ms)","GENERIC","157.02100000000002","0.3077817488881765","455"
"21:8:10:909 (H:m:s:ms)","GENERIC","157.136","0.3165350665128004","1090"
"20:47:35:696 (H:m:s:ms)","OPERA","125.20599999999999","0.30857428741629994","303"
"21:8:16:969 (H:m:s:ms)","GENERIC","155.659","0.3151661976501585","1031"
"20:47:40:606 (H:m:s:ms)","GENERIC","156.512","0.30598744058125954","395"
"21:8:23:30 (H:m:s:ms)","GENERIC","156.451","0.31517404794408005","969"
"20:47:43:291 (H:m:s:ms)","OPERA","124.829","0.30775209321352937","709"
"21:8:25:263 (H:m:s:ms)","AMBULANCE","156.492","0.3109124827304251","795"
"21:40:12:121 (H:m:s:ms)","GENERIC","124.86699999999999","0.3616504285943535","879"
"20:47:46:666 (H:m:s:ms)","GENERIC","156.10999999999999","0.31152150142983664","333"
"21:8:29:90 (H:m:s:ms)","GENERIC","155.989","0.3153402342940268","950"
"20:47:50:886 (H:m:s:ms)","OPERA","125.094","0.3125147272033028","114"
"21:8:35:151 (H:m:s:ms)","GENERIC","155.792","0.3138639327285416","848"
"20:47:52:727 (H:m:s:ms)","GENERIC","156.572","0.31132053885320976","273"
"20:47:58:481 (H:m:s:ms)","OPERA","125.03999999999999","0.3101622387036515","518"
"21:8:41:212 (H:m:s:ms)","GENERIC","156.063","0.3165045889022785","787"
"21:8:47:272 (H:m:s:ms)","GENERIC","156.56","0.3112585273564474","728"
"20:47:58:787 (H:m:s:ms)","GENERIC","124.417","0.3098377150172818","213"
"21:8:53:333 (H:m:s:ms)","GENERIC","155.832","0.3092327313976612","667"
"20:48:4:848 (H:m:s:ms)","GENERIC","156.49200000000002","0.3116146839901953","152"
"21:8:56:842 (H:m:s:ms)","AMBULANCE","156.622","0.3070211004486855","160"
"20:30:0:0 (H:m:s:ms)","GENERIC","156.457","0.2839799389436714","1036"
"20:48:6:75 (H:m:s:ms)","OPERA","156.279","0.3129325466028255","925"
"21:8:59:393 (H:m:s:ms)","GENERIC","156.253","0.31557643808129837","645"
"20:30:0:0 (H:m:s:ms)","GENERIC","155.313","0.2889357156313475","1036"
"20:48:10:909 (H:m:s:ms)","GENERIC","125.584","0.31280960300138133","1090"
"21:9:5:454 (H:m:s:ms)","GENERIC","125.443","0.3145796542764348","546"
"20:30:6:60 (H:m:s:ms)","GENERIC","155.382","0.28522435061676704","940"
"20:48:13:670 (H:m:s:ms)","OPERA","156.834","0.3127590639920623","329"
"21:9:11:515 (H:m:s:ms)","GENERIC","155.396","0.31851305542053193","485"
"20:30:12:121 (H:m:s:ms)","GENERIC","187.749","0.2854219856078587","879"
"20:48:16:969 (H:m:s:ms)","GENERIC","186.99200000000002","0.31215026994275097","1031"
"21:9:17:575 (H:m:s:ms)","GENERIC","188.599","0.3182643122145706","425"
"20:30:18:181 (H:m:s:ms)","GENERIC","155.226","0.28628377867187604","819"
"20:48:21:265 (H:m:s:ms)","OPERA","156.736","0.31522037934430125","735"
"21:9:23:636 (H:m:s:ms)","GENERIC","125.098","0.3168394024175909","547"
"20:30:24:242 (H:m:s:ms)","GENERIC","156.698","0.28412626207564035","758"
"20:48:23:30 (H:m:s:ms)","GENERIC","125.047","0.315772352907032","969"
"21:9:28:421 (H:m:s:ms)","AMBULANCE","156.46","0.31485770399197216","580"
"20:30:30:303 (H:m:s:ms)","GENERIC","188.529","0.28298054668139466","698"
"20:48:28:860 (H:m:s:ms)","OPERA","125.063","0.3163562954517085","141"
"20:30:36:363 (H:m:s:ms)","GENERIC","125.592","0.2839535643495471","637"
"20:48:29:90 (H:m:s:ms)","GENERIC","187.208","0.31781669812638835","947"
"20:30:42:424 (H:m:s:ms)","GENERIC","187.502","0.2850734912852649","576"
"20:30:48:484 (H:m:s:ms)","GENERIC","189.0","0.2869646602223034","516"
"21:9:29:696 (H:m:s:ms)","GENERIC","124.73400000000001","0.3161513311628251","344"
"21:9:35:757 (H:m:s:ms)","GENERIC","156.92700000000002","0.3158131766998431","243"
"20:48:35:151 (H:m:s:ms)","GENERIC","155.88","0.3188721279380429","850"
"21:9:41:818 (H:m:s:ms)","GENERIC","125.536","0.31799706928093713","182"
"20:48:36:455 (H:m:s:ms)","OPERA","124.975","0.3188526596483516","544"
"21:9:47:878 (H:m:s:ms)","GENERIC","156.652","0.31490845846727583","1121"
"20:30:54:545 (H:m:s:ms)","GENERIC","125.235","0.2840949404518633","455"
"20:48:41:212 (H:m:s:ms)","GENERIC","187.524","0.31720790313572084","788"
"21:9:53:939 (H:m:s:ms)","GENERIC","156.28","0.31631389347780997","1061"
"20:31:0:606 (H:m:s:ms)","GENERIC","188.607","0.28492380337565626","394"
"20:48:44:50 (H:m:s:ms)","OPERA","125.255","0.3190693012365397","951"
"21:10:0:0 (H:m:s:ms)","AMBULANCE","156.443","0.3068166716904768","1139"
"20:31:6:666 (H:m:s:ms)","GENERIC","157.272","0.2882941911782918","334"
"20:48:47:272 (H:m:s:ms)","GENERIC","156.828","0.3221578071655905","727"
"21:10:0:0 (H:m:s:ms)","GENERIC","187.954","0.3062643725155522","1140"
"20:31:12:727 (H:m:s:ms)","GENERIC","189.085","0.2873546723046782","273"
"20:48:51:645 (H:m:s:ms)","OPERA","124.809","0.3227414309598477","354"
"21:10:0:0 (H:m:s:ms)","GENERIC","155.335","0.3057647838318658","1141"
"20:31:18:787 (H:m:s:ms)","GENERIC","156.0","0.2903978579499231","213"
"20:48:53:333 (H:m:s:ms)","GENERIC","155.637","0.32159918163382456","667"
"21:10:6:60 (H:m:s:ms)","GENERIC","124.18","0.3115031475272001","940"
"20:31:24:848 (H:m:s:ms)","GENERIC","125.12899999999999","0.28908992768995506","152"
"20:48:59:240 (H:m:s:ms)","OPERA","156.333","0.32099353944389897","798"
"21:10:12:121 (H:m:s:ms)","GENERIC","156.225","0.31322623879536937","878"
"20:31:30:909 (H:m:s:ms)","GENERIC","124.394","0.2876931896048926","1091"
"20:48:59:393 (H:m:s:ms)","GENERIC","156.542","0.31995749959213593","645"
"20:31:36:969 (H:m:s:ms)","GENERIC","157.28300000000002","0.28634464217485556","1031"
"20:49:5:454 (H:m:s:ms)","GENERIC","157.03300000000002","0.3187489476582356","546"
"20:31:43:30 (H:m:s:ms)","GENERIC","156.154","0.28800038268313244","970"
"20:31:49:90 (H:m:s:ms)","GENERIC","156.64499999999998","0.2867975163766254","945"
"20:49:6:835 (H:m:s:ms)","OPERA","125.506","0.319105525183707","166"
"20:49:11:515 (H:m:s:ms)","GENERIC","186.343","0.31556513200957637","485"
"20:31:55:151 (H:m:s:ms)","GENERIC","188.724","0.28916777422255663","848"
"20:49:14:430 (H:m:s:ms)","OPERA","125.048","0.31580066864747597","571"
"20:32:1:212 (H:m:s:ms)","GENERIC","155.703","0.2895146256507858","788"
"20:49:17:575 (H:m:s:ms)","GENERIC","156.97299999999998","0.31645895856996464","424"
"20:32:7:272 (H:m:s:ms)","GENERIC","156.827","0.2889689760728915","728"
"20:49:22:25 (H:m:s:ms)","OPERA","156.262","0.31860894465805334","976"
"20:32:13:333 (H:m:s:ms)","GENERIC","188.367","0.28885459972163624","667"
"20:49:23:636 (H:m:s:ms)","GENERIC","156.874","0.31795904538503156","364"
"20:32:19:393 (H:m:s:ms)","GENERIC","155.37900000000002","0.29068392811714955","642"
"20:49:29:620 (H:m:s:ms)","OPERA","156.17","0.3182234042550479","420"
"20:32:25:454 (H:m:s:ms)","GENERIC","156.742","0.29011542447982624","546"
"20:49:29:696 (H:m:s:ms)","GENERIC","156.065","0.3184815884726475","343"
"20:32:31:515 (H:m:s:ms)","GENERIC","155.485","0.29031346625579724","485"
"20:49:35:757 (H:m:s:ms)","GENERIC","188.632","0.3211931879611972","243"
"20:32:37:575 (H:m:s:ms)","GENERIC","156.0","0.2922638707651234","425"
"20:49:37:215 (H:m:s:ms)","OPERA","156.518","0.3212800747696507","785"
"20:32:43:636 (H:m:s:ms)","GENERIC","188.543","0.29676443709040545","364"
"20:32:49:696 (H:m:s:ms)","GENERIC","188.159","0.29811235334034314","338"
"20:49:41:818 (H:m:s:ms)","GENERIC","157.362","0.32033241478340846","182"
"20:49:44:810 (H:m:s:ms)","OPERA","125.113","0.3193685145750703","191"
"20:32:55:757 (H:m:s:ms)","GENERIC","156.528","0.3006424713228559","243"
"20:49:47:878 (H:m:s:ms)","GENERIC","188.21","0.31965046190457097","1123"
"20:33:1:818 (H:m:s:ms)","GENERIC","155.272","0.30261791681739364","183"
"20:49:52:405 (H:m:s:ms)","OPERA","156.565","0.3196770720497826","596"
"20:33:7:878 (H:m:s:ms)","GENERIC","156.621","0.30396893328430014","1122"
"20:49:53:939 (H:m:s:ms)","GENERIC","155.6","0.31900824790818155","1061"
"20:33:13:939 (H:m:s:ms)","GENERIC","157.069","0.305013558872782","1062"
"20:50:0:0 (H:m:s:ms)","OPERA","155.922","0.31417384963607203","1041"
"20:33:20:0 (H:m:s:ms)","GENERIC","155.728","0.30339502139002883","1036"
"20:50:0:0 (H:m:s:ms)","GENERIC","188.07299999999998","0.31694069828518306","1039"
"20:33:26:60 (H:m:s:ms)","GENERIC","156.87","0.3010591864697709","939"
"20:50:0:0 (H:m:s:ms)","GENERIC","124.214","0.31485467911142123","1039"
"20:33:32:121 (H:m:s:ms)","GENERIC","125.114","0.29966312490292707","879"
"20:50:6:60 (H:m:s:ms)","GENERIC","155.314","0.3121095191720535","940"
"20:33:38:181 (H:m:s:ms)","GENERIC","157.199","0.2989389742975776","819"
"20:50:12:121 (H:m:s:ms)","GENERIC","187.382","0.31043764022110043","879"
"20:33:44:242 (H:m:s:ms)","GENERIC","155.403","0.30015810744983423","758"
"20:33:50:303 (H:m:s:ms)","GENERIC","188.20100000000002","0.3014411169990865","697"
"20:50:18:181 (H:m:s:ms)","GENERIC","155.218","0.3097630235961008","819"
"20:50:24:242 (H:m:s:ms)","GENERIC","156.833","0.3072027875718418","757"
"20:33:56:363 (H:m:s:ms)","GENERIC","187.249","0.3017048432763232","637"
"20:50:30:303 (H:m:s:ms)","GENERIC","156.982","0.3112769714013284","697"
"20:34:2:424 (H:m:s:ms)","GENERIC","155.372","0.30308972444817206","576"
"20:50:36:363 (H:m:s:ms)","GENERIC","189.096","0.30893670342913226","636"
"20:10:0:0 (H:m:s:ms)","GENERIC","125.509","0.2921080359364382","1001"
"20:34:8:484 (H:m:s:ms)","GENERIC","156.687","0.30336920802138284","516"
"20:50:42:424 (H:m:s:ms)","GENERIC","156.155","0.3057331179895329","575"
"20:10:0:0 (H:m:s:ms)","GENERIC","155.401","0.29362067944255793","1039"
"20:34:14:545 (H:m:s:ms)","GENERIC","187.124","0.2985945275743764","455"
"20:50:48:484 (H:m:s:ms)","GENERIC","157.191","0.3095675926958678","516"
"20:10:6:60 (H:m:s:ms)","GENERIC","124.242","0.28968852388884103","940"
"20:34:20:606 (H:m:s:ms)","GENERIC","157.15800000000002","0.29814740993074607","393"
"20:50:54:545 (H:m:s:ms)","GENERIC","156.8","0.31122666001002125","455"
"20:10:12:121 (H:m:s:ms)","GENERIC","187.73000000000002","0.28845168898824575","879"
"20:34:26:666 (H:m:s:ms)","GENERIC","155.86700000000002","0.2963458425590098","334"
"20:51:0:606 (H:m:s:ms)","GENERIC","157.017","0.3142934548729605","394"
"20:10:18:181 (H:m:s:ms)","GENERIC","186.368","0.29148688843350573","819"
"20:34:32:727 (H:m:s:ms)","GENERIC","125.333","0.29562425594474157","273"
"20:51:6:666 (H:m:s:ms)","GENERIC","125.40899999999999","0.3118288660089502","333"
"20:10:24:242 (H:m:s:ms)","GENERIC","188.304","0.2871770399803549","758"
"20:34:38:787 (H:m:s:ms)","GENERIC","157.006","0.29560633966696426","212"
"20:51:12:727 (H:m:s:ms)","GENERIC","157.392","0.31291334186721026","273"
"20:10:30:303 (H:m:s:ms)","GENERIC","156.875","0.2894727503813895","697"
"20:34:44:848 (H:m:s:ms)","GENERIC","155.414","0.29541837636445606","152"
"20:10:36:363 (H:m:s:ms)","GENERIC","62.109","0.2884961292409186","637"
"20:34:50:909 (H:m:s:ms)","GENERIC","187.915","0.29587862258214964","1090"
"20:10:42:424 (H:m:s:ms)","GENERIC","156.415","0.28868893887967384","750"
"20:10:48:484 (H:m:s:ms)","GENERIC","157.201","0.28916753274061563","516"
"20:51:18:787 (H:m:s:ms)","GENERIC","155.93","0.31363245863188594","213"
"20:51:24:848 (H:m:s:ms)","GENERIC","188.244","0.31204009027314217","152"
"20:34:56:969 (H:m:s:ms)","GENERIC","125.144","0.29840670125940283","1031"
"20:51:30:909 (H:m:s:ms)","GENERIC","186.651","0.3102599843732547","1091"
"20:35:3:30 (H:m:s:ms)","GENERIC","156.211","0.29347965366140766","970"
"20:51:36:969 (H:m:s:ms)","GENERIC","157.152","0.30891481789283004","1031"
"20:10:54:545 (H:m:s:ms)","GENERIC","156.796","0.2901019460695575","455"
"20:35:9:90 (H:m:s:ms)","GENERIC","188.199","0.2954061990896251","945"
"20:51:43:30 (H:m:s:ms)","GENERIC","187.6","0.3093074578634755","971"
"20:11:0:606 (H:m:s:ms)","GENERIC","156.925","0.2920286084697908","394"
"20:35:15:151 (H:m:s:ms)","GENERIC","186.729","0.2956176157887589","849"
"20:51:49:90 (H:m:s:ms)","GENERIC","156.445","0.3104430926571371","949"
"20:11:6:666 (H:m:s:ms)","GENERIC","157.24","0.2957950654278201","333"
"20:35:21:212 (H:m:s:ms)","GENERIC","155.85399999999998","0.2958387064942129","788"
"20:51:55:151 (H:m:s:ms)","GENERIC","125.539","0.3073846069069508","848"
"20:11:12:727 (H:m:s:ms)","GENERIC","157.386","0.2935367120368444","273"
"20:35:27:272 (H:m:s:ms)","GENERIC","157.333","0.2968236451259145","728"
"20:52:1:212 (H:m:s:ms)","GENERIC","186.781","0.305468009502666","788"
"20:11:18:787 (H:m:s:ms)","GENERIC","187.235","0.2926809389378125","213"
"20:35:33:333 (H:m:s:ms)","GENERIC","156.453","0.29626979168142614","666"
"20:52:7:272 (H:m:s:ms)","GENERIC","156.86599999999999","0.30463543429860884","728"
"20:11:24:848 (H:m:s:ms)","GENERIC","156.665","0.2903908677661773","152"
"20:35:39:393 (H:m:s:ms)","GENERIC","156.38799999999998","0.2936996347539496","640"
"20:52:13:333 (H:m:s:ms)","GENERIC","188.438","0.30539539903448537","667"
"20:11:30:909 (H:m:s:ms)","GENERIC","186.724","0.28723650817248275","1091"
"20:35:45:454 (H:m:s:ms)","GENERIC","186.341","0.2929576769141339","546"
"20:11:36:969 (H:m:s:ms)","GENERIC","188.99699999999999","0.2897382343899903","1031"
"20:35:51:515 (H:m:s:ms)","GENERIC","157.123","0.29192878811243017","485"
"20:11:43:30 (H:m:s:ms)","GENERIC","125.25200000000001","0.2888345086055911","1003"
"20:11:49:90 (H:m:s:ms)","GENERIC","156.51","0.2908969871678716","948"
"20:0:54:545 (H:m:s:ms)","GENERIC","125.84","0.1496668596482763","457"
"20:1:0:606 (H:m:s:ms)","GENERIC","157.495","0.15503000180526394","395"
"20:1:6:666 (H:m:s:ms)","GENERIC","62.809","0.16445903432427592","334"
"20:1:12:727 (H:m:s:ms)","GENERIC","126.327","0.17628537706145017","273"
"20:1:18:787 (H:m:s:ms)","GENERIC","156.204","0.178110241348997","214"
"20:1:24:848 (H:m:s:ms)","GENERIC","94.027","0.1816253510411503","154"
"20:1:30:909 (H:m:s:ms)","GENERIC","124.49","0.18770126270800813","1092"
"20:1:36:969 (H:m:s:ms)","GENERIC","157.805","0.192337627824058","1031"
"20:1:43:30 (H:m:s:ms)","GENERIC","125.459","0.19641375823212384","1143"
"20:1:49:90 (H:m:s:ms)","GENERIC","125.56099999999999","0.20099839701754355","931"
"20:35:57:575 (H:m:s:ms)","GENERIC","155.11700000000002","0.29387602383820205","424"
"20:36:3:636 (H:m:s:ms)","GENERIC","186.914","0.29028677030806393","364"
"20:11:55:151 (H:m:s:ms)","GENERIC","125.504","0.29205060405096395","849"
"20:36:9:696 (H:m:s:ms)","GENERIC","157.331","0.2878200398461974","338"
"20:12:1:212 (H:m:s:ms)","GENERIC","155.69299999999998","0.29455274650780483","788"
"20:36:15:757 (H:m:s:ms)","GENERIC","124.562","0.28538411648795714","242"
"20:12:7:272 (H:m:s:ms)","GENERIC","125.20599999999999","0.2970674848953119","728"
"20:36:21:818 (H:m:s:ms)","GENERIC","125.63300000000001","0.28877959292452077","181"
"20:12:13:333 (H:m:s:ms)","GENERIC","156.767","0.2976430152934108","667"
"20:36:27:878 (H:m:s:ms)","GENERIC","157.006","0.2898456722196013","1122"
"20:12:19:393 (H:m:s:ms)","GENERIC","155.221","0.2987479171167694","645"
"20:36:33:939 (H:m:s:ms)","GENERIC","125.528","0.28858945896226407","1061"
"20:12:25:454 (H:m:s:ms)","GENERIC","188.24200000000002","0.2985392694753057","545"
"20:36:40:0 (H:m:s:ms)","GENERIC","186.363","0.2887462430780742","1035"
"20:12:31:515 (H:m:s:ms)","GENERIC","155.447","0.29784550220085204","485"
"20:36:46:60 (H:m:s:ms)","GENERIC","187.32","0.28919494970148096","940"
"20:12:37:575 (H:m:s:ms)","GENERIC","155.873","0.2992552714814828","425"
"20:36:52:121 (H:m:s:ms)","GENERIC","188.226","0.29058004450839525","878"
"20:12:43:636 (H:m:s:ms)","GENERIC","125.331","0.30078307389710857","363"
"20:12:49:696 (H:m:s:ms)","GENERIC","156.683","0.30008199708376493","340"
"20:1:55:151 (H:m:s:ms)","GENERIC","94.498","0.2051293814450403","849"
"20:2:1:212 (H:m:s:ms)","GENERIC","155.823","0.2084679221013407","788"
"20:2:7:272 (H:m:s:ms)","GENERIC","125.86","0.21756128744309994","728"
"20:2:13:333 (H:m:s:ms)","GENERIC","157.311","0.22101226280760233","668"
"20:2:19:393 (H:m:s:ms)","GENERIC","124.21100000000001","0.22695752334708147","625"
"20:2:25:454 (H:m:s:ms)","GENERIC","157.285","0.23253985988909734","547"
"20:2:31:515 (H:m:s:ms)","GENERIC","124.42599999999999","0.23688672987221357","485"
"20:2:37:575 (H:m:s:ms)","GENERIC","156.278","0.23853279925540344","425"
"20:2:43:636 (H:m:s:ms)","GENERIC","94.19","0.2452434439237719","365"
"20:2:49:696 (H:m:s:ms)","GENERIC","125.678","0.2490960473826429","322"
"20:36:58:181 (H:m:s:ms)","GENERIC","187.035","0.2915111685948104","819"
"20:37:4:242 (H:m:s:ms)","GENERIC","157.399","0.29272902372277104","758"
"20:12:55:757 (H:m:s:ms)","GENERIC","187.923","0.297450170405909","243"
"20:37:10:303 (H:m:s:ms)","GENERIC","187.65699999999998","0.2928506754151032","697"
"20:13:1:818 (H:m:s:ms)","GENERIC","155.38400000000001","0.29702486747529183","182"
"20:37:16:363 (H:m:s:ms)","GENERIC","125.21199999999999","0.29191418688566656","636"
"20:13:7:878 (H:m:s:ms)","GENERIC","188.055","0.3006804347960782","1121"
"20:37:22:424 (H:m:s:ms)","GENERIC","156.096","0.29177738574394707","576"
"20:13:13:939 (H:m:s:ms)","GENERIC","188.846","0.3005569680650223","1061"
"20:37:28:484 (H:m:s:ms)","GENERIC","189.042","0.2911833929527215","515"
"20:13:20:0 (H:m:s:ms)","GENERIC","155.664","0.3011633797412718","1036"
"20:37:34:545 (H:m:s:ms)","GENERIC","157.13299999999998","0.2918496745714859","455"
"20:13:26:60 (H:m:s:ms)","GENERIC","156.988","0.30026495504645756","939"
"20:37:40:606 (H:m:s:ms)","GENERIC","156.649","0.29367639729122796","393"
"20:13:32:121 (H:m:s:ms)","GENERIC","156.68099999999998","0.2965128103816545","879"
"20:37:46:666 (H:m:s:ms)","GENERIC","187.398","0.29139089433649074","333"
"20:13:38:181 (H:m:s:ms)","GENERIC","157.185","0.2964426182459476","819"
"20:37:52:727 (H:m:s:ms)","GENERIC","156.079","0.291362773509379","272"
"20:13:44:242 (H:m:s:ms)","GENERIC","155.312","0.296330728015064","759"
"20:13:50:303 (H:m:s:ms)","GENERIC","188.017","0.2953771595450264","697"
"20:2:55:757 (H:m:s:ms)","GENERIC","156.748","0.25200147131872386","244"
"20:3:1:818 (H:m:s:ms)","GENERIC","124.219","0.25473140040110637","183"
"20:3:7:878 (H:m:s:ms)","GENERIC","157.044","0.25948472152963437","122"
"20:3:13:939 (H:m:s:ms)","GENERIC","157.794","0.26174534741220284","1063"
"20:3:20:0 (H:m:s:ms)","GENERIC","93.51","0.2641026028617819","1001"
"20:3:26:60 (H:m:s:ms)","GENERIC","125.87299999999999","0.26689807947953037","940"
"20:3:32:121 (H:m:s:ms)","GENERIC","125.644","0.27104687404312594","879"
"20:3:38:181 (H:m:s:ms)","GENERIC","126.16499999999999","0.27587914280235887","819"
"20:3:44:242 (H:m:s:ms)","GENERIC","93.161","0.27785199597681587","760"
"20:3:50:303 (H:m:s:ms)","GENERIC","125.46100000000001","0.2820964352483993","697"
"20:37:58:787 (H:m:s:ms)","GENERIC","155.604","0.29060452672490555","213"
"20:38:4:848 (H:m:s:ms)","GENERIC","124.95400000000001","0.29030956574303984","152"
"20:13:56:363 (H:m:s:ms)","GENERIC","187.368","0.2972093852234904","637"
"20:38:10:909 (H:m:s:ms)","GENERIC","157.20600000000002","0.2917036274273689","1090"
"20:14:2:424 (H:m:s:ms)","GENERIC","155.361","0.3014323625934645","575"
"20:38:16:969 (H:m:s:ms)","GENERIC","155.698","0.2906599925184112","1031"
"20:14:8:484 (H:m:s:ms)","GENERIC","156.791","0.3027551852221464","515"
"20:38:23:30 (H:m:s:ms)","GENERIC","156.478","0.29101763972126404","969"
"20:14:14:545 (H:m:s:ms)","GENERIC","187.11","0.3030022414661264","456"
"20:38:29:90 (H:m:s:ms)","GENERIC","156.065","0.2920027110363956","943"
"20:14:20:606 (H:m:s:ms)","GENERIC","157.276","0.30161549068363436","393"
"20:38:35:151 (H:m:s:ms)","GENERIC","155.85","0.29134563154485515","849"
"20:14:26:666 (H:m:s:ms)","GENERIC","156.01","0.2970430203180902","334"
"20:38:41:212 (H:m:s:ms)","GENERIC","187.337","0.290361470054398","787"
"20:14:32:727 (H:m:s:ms)","GENERIC","188.577","0.29900565694915365","272"
"20:38:47:272 (H:m:s:ms)","GENERIC","156.64600000000002","0.291505756912741","728"
"20:14:38:787 (H:m:s:ms)","GENERIC","157.05599999999998","0.30040424569066576","213"
"20:38:53:333 (H:m:s:ms)","GENERIC","155.853","0.2915402113930477","667"
"20:14:44:848 (H:m:s:ms)","GENERIC","186.501","0.29835549772368614","152"
"20:14:50:909 (H:m:s:ms)","GENERIC","187.993","0.2981201096082231","1091"
"20:3:56:363 (H:m:s:ms)","GENERIC","124.988","0.28369168682340723","637"
"20:4:2:424 (H:m:s:ms)","GENERIC","124.33099999999999","0.28878230631735924","576"
"20:4:8:484 (H:m:s:ms)","GENERIC","157.23499999999999","0.2916361759156481","516"
"20:4:14:545 (H:m:s:ms)","GENERIC","124.773","0.296487634209536","457"
"20:4:20:606 (H:m:s:ms)","GENERIC","158.0","0.2999895370461618","395"
"20:4:26:666 (H:m:s:ms)","GENERIC","124.961","0.30097365204314525","334"
"20:4:32:727 (H:m:s:ms)","GENERIC","94.156","0.3043642858360981","273"
"20:4:38:787 (H:m:s:ms)","GENERIC","125.918","0.3060548094694238","214"
"20:4:44:848 (H:m:s:ms)","GENERIC","124.382","0.30672020422955915","155"
"20:4:50:909 (H:m:s:ms)","GENERIC","125.543","0.3091399849264355","1091"
"20:38:59:393 (H:m:s:ms)","GENERIC","187.674","0.2921360690895523","640"
"20:39:5:454 (H:m:s:ms)","GENERIC","157.118","0.2922592587572179","545"
"20:14:56:969 (H:m:s:ms)","GENERIC","156.756","0.29746095850211945","1031"
"20:39:11:515 (H:m:s:ms)","GENERIC","186.258","0.29185230061969664","485"
"20:15:3:30 (H:m:s:ms)","GENERIC","187.486","0.29353185348352145","970"
"20:39:17:575 (H:m:s:ms)","GENERIC","188.582","0.2930774028002588","425"
"20:15:9:90 (H:m:s:ms)","GENERIC","188.197","0.2932638636208501","947"
"20:39:23:636 (H:m:s:ms)","GENERIC","156.878","0.29233283099135887","364"
"20:15:15:151 (H:m:s:ms)","GENERIC","155.636","0.2920007680228645","849"
"20:39:29:696 (H:m:s:ms)","GENERIC","155.958","0.2915574376439976","337"
"20:15:21:212 (H:m:s:ms)","GENERIC","155.905","0.291480610048063","788"
"20:39:35:757 (H:m:s:ms)","GENERIC","188.68599999999998","0.2907346138510995","243"
"20:15:27:272 (H:m:s:ms)","GENERIC","157.326","0.29414794442391795","728"
"20:39:41:818 (H:m:s:ms)","GENERIC","157.262","0.29069017696930227","181"
"20:15:33:333 (H:m:s:ms)","GENERIC","124.93100000000001","0.29419183401464605","667"
"20:39:47:878 (H:m:s:ms)","GENERIC","156.58","0.2932643533676533","1121"
"20:15:39:393 (H:m:s:ms)","GENERIC","156.401","0.2959070369993984","644"
"20:39:53:939 (H:m:s:ms)","GENERIC","155.518","0.29317298692434535","1061"
"20:15:45:454 (H:m:s:ms)","GENERIC","186.30200000000002","0.2942339214771951","545"
"20:15:51:515 (H:m:s:ms)","GENERIC","188.97299999999998","0.2916645527455253","485"
"20:4:56:969 (H:m:s:ms)","GENERIC","157.195","0.3097290852292825","1031"
"20:5:3:30 (H:m:s:ms)","GENERIC","156.543","0.30780323898049783","971"
"20:5:9:90 (H:m:s:ms)","GENERIC","157.09300000000002","0.30796392126923355","938"
"20:5:15:151 (H:m:s:ms)","GENERIC","155.824","0.30621333067262174","850"
"20:5:21:212 (H:m:s:ms)","GENERIC","156.223","0.30632895740394545","788"
"20:5:27:272 (H:m:s:ms)","GENERIC","94.383","0.30518120057797865","728"
"20:5:33:333 (H:m:s:ms)","GENERIC","125.32","0.30233571659858505","667"
"20:5:39:393 (H:m:s:ms)","GENERIC","125.434","0.30009666224174597","656"
"20:5:45:454 (H:m:s:ms)","GENERIC","155.217","0.299720166134163","546"
"20:5:51:515 (H:m:s:ms)","GENERIC","157.779","0.30044339699580175","485"
"20:15:57:575 (H:m:s:ms)","GENERIC","155.165","0.2948670388526099","425"
"20:16:3:636 (H:m:s:ms)","GENERIC","155.689","0.291608826968216","363"
"20:16:9:696 (H:m:s:ms)","GENERIC","157.315","0.2866430502448159","340"
"20:16:15:757 (H:m:s:ms)","GENERIC","155.918","0.2871312833725696","243"
"20:16:21:818 (H:m:s:ms)","GENERIC","157.392","0.29045091020469294","181"
"20:16:27:878 (H:m:s:ms)","GENERIC","188.63","0.2906759442185713","1122"
"20:16:33:939 (H:m:s:ms)","GENERIC","157.185","0.2924902075761747","1060"
"20:16:40:0 (H:m:s:ms)","GENERIC","155.339","0.2929075152260767","1037"
"20:16:46:60 (H:m:s:ms)","GENERIC","187.378","0.28966801547246","940"
"20:16:52:121 (H:m:s:ms)","GENERIC","156.715","0.28869148616161205","878"
"20:5:57:575 (H:m:s:ms)","GENERIC","124.16900000000001","0.3004185413675333","424"
"20:6:3:636 (H:m:s:ms)","GENERIC","93.439","0.29593138945377084","364"
"20:6:9:696 (H:m:s:ms)","GENERIC","126.303","0.29375455450299504","334"
"20:6:15:757 (H:m:s:ms)","GENERIC","124.895","0.291967515490804","243"
"20:6:21:818 (H:m:s:ms)","GENERIC","94.553","0.292916638051452","182"
"20:6:27:878 (H:m:s:ms)","GENERIC","157.616","0.2923649615142271","121"
"20:6:33:939 (H:m:s:ms)","GENERIC","94.539","0.2942539629811275","1062"
"20:6:40:0 (H:m:s:ms)","GENERIC","124.247","0.2928710693349607","1001"
"20:6:46:60 (H:m:s:ms)","GENERIC","125.056","0.29248339742882273","941"
"20:6:52:121 (H:m:s:ms)","GENERIC","157.151","0.2944426193241369","879"
"20:16:58:181 (H:m:s:ms)","GENERIC","155.763","0.2864440601640668","818"
"20:17:4:242 (H:m:s:ms)","GENERIC","157.379","0.2875235452780052","757"
"20:17:10:303 (H:m:s:ms)","GENERIC","156.27100000000002","0.28873205263519175","697"
"20:17:16:363 (H:m:s:ms)","GENERIC","125.12100000000001","0.2880479853353322","637"
"20:17:22:424 (H:m:s:ms)","GENERIC","187.418","0.2885062853288058","576"
"20:17:28:484 (H:m:s:ms)","GENERIC","157.385","0.2908450648617979","515"
"20:17:34:545 (H:m:s:ms)","GENERIC","125.4","0.2883221303204915","455"
"20:17:40:606 (H:m:s:ms)","GENERIC","188.027","0.28701133788141775","393"
"20:17:46:666 (H:m:s:ms)","GENERIC","156.07","0.2847716096251792","334"
"20:17:52:727 (H:m:s:ms)","GENERIC","125.11999999999999","0.2865693469270083","273"
"20:6:58:181 (H:m:s:ms)","GENERIC","93.53","0.29381844542401947","818"
"20:7:4:242 (H:m:s:ms)","GENERIC","94.549","0.29632487335315566","758"
"20:7:10:303 (H:m:s:ms)","GENERIC","156.75","0.29895613927899584","697"
"20:7:16:363 (H:m:s:ms)","GENERIC","125.745","0.2994656929491561","637"
"20:7:22:424 (H:m:s:ms)","GENERIC","156.42000000000002","0.2986892506255538","577"
"20:7:28:484 (H:m:s:ms)","GENERIC","94.544","0.29757659678707454","516"
"20:7:34:545 (H:m:s:ms)","GENERIC","126.031","0.29775552729905835","456"
"20:7:40:606 (H:m:s:ms)","GENERIC","125.527","0.29954640824901585","394"
"20:7:46:666 (H:m:s:ms)","GENERIC","125.101","0.2978915949939899","335"
"20:7:52:727 (H:m:s:ms)","GENERIC","125.52","0.2953468010159752","472"
"20:17:58:787 (H:m:s:ms)","GENERIC","155.786","0.2818743724569904","213"
"20:18:4:848 (H:m:s:ms)","GENERIC","156.435","0.28366037198871913","153"
"20:18:10:909 (H:m:s:ms)","GENERIC","157.187","0.2857785632689435","1091"
"20:18:16:969 (H:m:s:ms)","GENERIC","186.938","0.28494476814531733","1031"
"20:18:23:30 (H:m:s:ms)","GENERIC","187.996","0.28379434670230214","970"
"20:18:29:90 (H:m:s:ms)","GENERIC","155.996","0.281551904136443","945"
"20:18:35:151 (H:m:s:ms)","GENERIC","187.139","0.28228018793518683","849"
"20:18:41:212 (H:m:s:ms)","GENERIC","124.732","0.2832637098684008","788"
"20:18:47:272 (H:m:s:ms)","GENERIC","156.675","0.2839850832006864","728"
"20:18:53:333 (H:m:s:ms)","GENERIC","155.814","0.2840040758387299","666"
"20:7:58:787 (H:m:s:ms)","GENERIC","124.698","0.29341949616864516","213"
"20:8:4:848 (H:m:s:ms)","GENERIC","156.623","0.29237015703595964","152"
"20:8:10:909 (H:m:s:ms)","GENERIC","126.188","0.29256927510637265","1090"
"20:8:16:969 (H:m:s:ms)","GENERIC","124.614","0.29017508047298957","1032"
"20:8:23:30 (H:m:s:ms)","GENERIC","125.422","0.28782707060320145","970"
"20:8:29:90 (H:m:s:ms)","GENERIC","156.37800000000001","0.29010571993496415","945"
"20:8:35:151 (H:m:s:ms)","GENERIC","93.524","0.2892068792008741","849"
"20:8:41:212 (H:m:s:ms)","GENERIC","125.119","0.28816387958497397","788"
"20:8:47:272 (H:m:s:ms)","GENERIC","157.207","0.29080191017455886","727"
"20:8:53:333 (H:m:s:ms)","GENERIC","124.71000000000001","0.2893497436072885","667"
"20:18:59:393 (H:m:s:ms)","GENERIC","156.2","0.28373751046315504","641"
"20:19:5:454 (H:m:s:ms)","GENERIC","157.118","0.28395118165087835","546"
"20:19:11:515 (H:m:s:ms)","GENERIC","186.472","0.28605273710516443","485"
"20:19:17:575 (H:m:s:ms)","GENERIC","188.59199999999998","0.28855454750988735","425"
"20:19:23:636 (H:m:s:ms)","GENERIC","188.495","0.28481524770634986","364"
"20:19:29:696 (H:m:s:ms)","GENERIC","187.334","0.2857293148927008","339"
"20:19:35:757 (H:m:s:ms)","GENERIC","156.918","0.2853608244547702","243"
"20:19:41:818 (H:m:s:ms)","GENERIC","157.347","0.28711833940017806","181"
"20:19:47:878 (H:m:s:ms)","GENERIC","188.237","0.28971687812916014","1121"
"20:19:53:939 (H:m:s:ms)","GENERIC","186.693","0.2894359164138351","1061"
"20:8:59:393 (H:m:s:ms)","GENERIC","156.488","0.2909414319381378","641"
"20:9:5:454 (H:m:s:ms)","GENERIC","157.72","0.2919651272797956","546"
"20:9:11:515 (H:m:s:ms)","GENERIC","124.227","0.2905187165635475","485"
"20:9:17:575 (H:m:s:ms)","GENERIC","125.78899999999999","0.2942125607326827","425"
"20:9:23:636 (H:m:s:ms)","GENERIC","125.857","0.292803893433591","364"
"20:9:29:696 (H:m:s:ms)","GENERIC","156.417","0.29175408431538274","340"
"20:9:35:757 (H:m:s:ms)","GENERIC","157.449","0.2893835179649279","243"
"20:9:41:818 (H:m:s:ms)","GENERIC","157.93099999999998","0.2881492948182458","181"
"20:9:47:878 (H:m:s:ms)","GENERIC","125.667","0.29234988039087373","122"
"20:9:53:939 (H:m:s:ms)","GENERIC","124.483","0.29092906004401964","1062"
"21:40:54:545 (H:m:s:ms)","GENERIC","156.873","0.36276415782491855","455"
"21:40:48:484 (H:m:s:ms)","GENERIC","93.886","0.3660092975625404","533"
"21:40:42:424 (H:m:s:ms)","GENERIC","124.815","0.35691336701209575","575"
"21:40:36:363 (H:m:s:ms)","GENERIC","125.582","0.35965579281218407","637"
"21:40:30:303 (H:m:s:ms)","GENERIC","188.67","0.35880896245030003","697"
"21:40:24:242 (H:m:s:ms)","GENERIC","125.242","0.35978789034138237","758"
"21:40:18:181 (H:m:s:ms)","GENERIC","186.288","0.3607023569339364","819"
"21:41:12:727 (H:m:s:ms)","GENERIC","157.4","0.36568878984537806","273"
"21:41:6:666 (H:m:s:ms)","GENERIC","188.97","0.3657637321535747","333"
"21:41:0:606 (H:m:s:ms)","GENERIC","157.027","0.3624937977597603","394"
