"time (H:m:s:ms)","type","latency","utilisation","waiting"
"21:42:25:454 (H:m:s:ms)","GENERIC","93.09","0.03321772045490198","546"
"21:42:7:272 (H:m:s:ms)","GENERIC","124.223","0.04592074050839833","728"
"21:42:1:212 (H:m:s:ms)","GENERIC","93.617","0.02976867138825997","788"
"21:41:55:151 (H:m:s:ms)","GENERIC","93.496","0.04763265544207869","849"
"21:41:49:90 (H:m:s:ms)","GENERIC","93.15","0.0478147255906344","944"
"21:41:43:30 (H:m:s:ms)","GENERIC","124.81","0.03261632326941548","970"
"21:41:36:969 (H:m:s:ms)","GENERIC","124.34700000000001","0.056354068833473304","1031"
"21:41:30:909 (H:m:s:ms)","GENERIC","125.25","0.03816521324365608","1090"
"21:41:24:848 (H:m:s:ms)","GENERIC","93.89","0.018378777150577865","152"
"21:42:19:393 (H:m:s:ms)","GENERIC","125.10499999999999","0.05674899829899666","642"
"21:42:13:333 (H:m:s:ms)","GENERIC","125.122","0.03691437835368279","666"
"21:43:32:121 (H:m:s:ms)","GENERIC","62.037","0.04114253678777387","879"
"21:43:26:60 (H:m:s:ms)","GENERIC","93.411","0.02366561592778897","940"
"21:43:13:939 (H:m:s:ms)","GENERIC","124.169","0.03789436564759792","1061"
"20:0:0:0 (H:m:s:ms)","GENERIC","93.732","0.042441584145489174","2152"
"21:43:7:878 (H:m:s:ms)","GENERIC","125.095","0.024304866305561428","1121"
"20:0:6:60 (H:m:s:ms)","GENERIC","62.501","0.03413011372505013","942"
"21:43:1:818 (H:m:s:ms)","GENERIC","124.43799999999999","0.03564993270204359","182"
"20:0:12:121 (H:m:s:ms)","GENERIC","62.42700000000001","0.041996815077074284","881"
"21:42:55:757 (H:m:s:ms)","GENERIC","93.435","0.02367413827212662","243"
"20:0:18:181 (H:m:s:ms)","GENERIC","93.574","0.026526044864943896","819"
"21:42:49:696 (H:m:s:ms)","GENERIC","124.875","0.04245044633520034","339"
"20:0:24:242 (H:m:s:ms)","GENERIC","93.93299999999999","0.025607033715545683","759"
"21:42:43:636 (H:m:s:ms)","GENERIC","93.293","0.05302848153567852","364"
"20:0:30:303 (H:m:s:ms)","GENERIC","94.28399999999999","0.0253843655259402","697"
"21:42:37:575 (H:m:s:ms)","GENERIC","124.969","0.024469758093250298","424"
"20:0:36:363 (H:m:s:ms)","GENERIC","62.099000000000004","0.032230501194230536","637"
"21:42:31:515 (H:m:s:ms)","GENERIC","93.684","0.027103503548767286","485"
"20:0:42:424 (H:m:s:ms)","GENERIC","93.99600000000001","0.02775071748286596","576"
"21:10:18:181 (H:m:s:ms)","GENERIC","124.652","0.028136751739804424","819"
"20:0:48:484 (H:m:s:ms)","GENERIC","94.309","0.03720821356273154","517"
"21:10:24:242 (H:m:s:ms)","GENERIC","124.906","0.03362575432008761","757"
"21:10:30:303 (H:m:s:ms)","GENERIC","93.6","0.059920188554552854","697"
"21:10:36:363 (H:m:s:ms)","GENERIC","124.187","0.044919447012742586","637"
"21:10:42:424 (H:m:s:ms)","GENERIC","93.584","0.05216778412595284","575"
"21:10:48:484 (H:m:s:ms)","GENERIC","125.491","0.04063617003735912","516"
"21:10:54:545 (H:m:s:ms)","GENERIC","125.283","0.023701537292305817","456"
"21:11:0:606 (H:m:s:ms)","GENERIC","93.45","0.043042657545253424","393"
"21:43:20:0 (H:m:s:ms)","GENERIC","93.45","0.04233678842967408","1036"
"21:11:6:666 (H:m:s:ms)","GENERIC","124.729","0.04445964559452413","333"
"21:11:12:727 (H:m:s:ms)","GENERIC","62.141","0.024552218577448933","273"
"21:25:49:367 (H:m:s:ms)","OPERA","124.762","0.05846721658050573","668"
"21:44:38:787 (H:m:s:ms)","GENERIC","93.409","0.02601577033765499","213"
"21:44:32:727 (H:m:s:ms)","GENERIC","124.877","0.053436128958182234","273"
"21:44:26:666 (H:m:s:ms)","GENERIC","93.411","0.04127568115756915","334"
"21:44:20:606 (H:m:s:ms)","GENERIC","124.88900000000001","0.03092125687093414","394"
"21:44:14:545 (H:m:s:ms)","GENERIC","124.957","0.0460158264293705","455"
"21:44:8:484 (H:m:s:ms)","GENERIC","93.397","0.0244944038591719","518"
"21:44:2:424 (H:m:s:ms)","GENERIC","125.436","0.04690979839223075","576"
"21:43:56:363 (H:m:s:ms)","GENERIC","124.858","0.030026413189224034","636"
"21:43:50:303 (H:m:s:ms)","GENERIC","93.105","0.032042427242094954","696"
"21:43:44:242 (H:m:s:ms)","GENERIC","124.96600000000001","0.04779659339956937","794"
"21:11:18:787 (H:m:s:ms)","GENERIC","125.012","0.02313760126609096","213"
"21:43:38:181 (H:m:s:ms)","GENERIC","93.497","0.03273989348699724","819"
"21:11:24:848 (H:m:s:ms)","GENERIC","125.626","0.05080695104503402","151"
"21:11:30:909 (H:m:s:ms)","GENERIC","125.34","0.022496892160082313","1091"
"21:11:36:969 (H:m:s:ms)","GENERIC","124.406","0.03556456910226439","1031"
"21:11:43:30 (H:m:s:ms)","GENERIC","93.39699999999999","0.020373048479772234","970"
"21:11:49:90 (H:m:s:ms)","GENERIC","93.152","0.038809771179873456","946"
"21:11:55:151 (H:m:s:ms)","GENERIC","93.575","0.035654548985211344","889"
"21:12:1:212 (H:m:s:ms)","GENERIC","93.661","0.03180467084272158","788"
"21:12:7:272 (H:m:s:ms)","GENERIC","124.17","0.046257671408697174","728"
"21:12:13:333 (H:m:s:ms)","GENERIC","125.09100000000001","0.019452684377932496","667"
"21:26:27:341 (H:m:s:ms)","OPERA","124.83","0.02027994186747362","659"
"21:45:45:454 (H:m:s:ms)","GENERIC","93.342","0.04116019773585231","546"
"21:26:21:818 (H:m:s:ms)","GENERIC","93.57300000000001","0.03958261095166374","181"
"21:45:39:393 (H:m:s:ms)","GENERIC","125.50399999999999","0.03575731225638641","642"
"21:45:33:333 (H:m:s:ms)","GENERIC","124.81299999999999","0.03696645754911524","667"
"21:45:27:272 (H:m:s:ms)","GENERIC","124.999","0.02472345779667097","728"
"21:26:15:757 (H:m:s:ms)","GENERIC","125.099","0.048975177686957874","242"
"21:26:12:151 (H:m:s:ms)","OPERA","93.372","0.05193853521263046","849"
"21:45:21:212 (H:m:s:ms)","GENERIC","124.962","0.05943056787265415","788"
"21:26:9:696 (H:m:s:ms)","GENERIC","62.159","0.042092486354330896","337"
"21:45:15:151 (H:m:s:ms)","GENERIC","93.298","0.049908314302248534","849"
"21:26:4:556 (H:m:s:ms)","OPERA","93.40299999999999","0.050059628805354604","444"
"21:45:9:90 (H:m:s:ms)","GENERIC","124.39","0.0395959891635531","945"
"21:26:3:636 (H:m:s:ms)","GENERIC","124.828","0.039989396738765","363"
"21:45:3:30 (H:m:s:ms)","GENERIC","93.179","0.05013020481579583","970"
"21:25:57:575 (H:m:s:ms)","GENERIC","93.868","0.035468351929907535","426"
"21:44:56:969 (H:m:s:ms)","GENERIC","125.176","0.01761344117689261","1031"
"21:12:19:393 (H:m:s:ms)","GENERIC","93.572","0.058816333315329955","645"
"21:25:56:962 (H:m:s:ms)","OPERA","124.656","0.018468466126517116","1038"
"21:44:50:909 (H:m:s:ms)","GENERIC","124.717","0.037837944401175674","1091"
"21:12:25:454 (H:m:s:ms)","GENERIC","93.12299999999999","0.0463381751932762","545"
"21:25:51:515 (H:m:s:ms)","GENERIC","93.794","0.050186983788988435","485"
"21:44:44:848 (H:m:s:ms)","GENERIC","93.815","0.028959579853508926","152"
"21:12:31:515 (H:m:s:ms)","GENERIC","93.633","0.04457481630640781","485"
"21:12:37:575 (H:m:s:ms)","GENERIC","124.92","0.030895566906659396","425"
"21:12:43:636 (H:m:s:ms)","GENERIC","93.294","0.04948418017886777","363"
"21:12:49:696 (H:m:s:ms)","GENERIC","124.833","0.02406474422383229","341"
"21:12:55:757 (H:m:s:ms)","GENERIC","93.39099999999999","0.021797589432412237","244"
"21:13:1:818 (H:m:s:ms)","GENERIC","124.407","0.0703212609580474","182"
"21:13:7:878 (H:m:s:ms)","GENERIC","93.571","0.035073842085738736","1121"
"21:13:13:939 (H:m:s:ms)","GENERIC","124.14699999999999","0.04063152415115987","1061"
"21:26:19:746 (H:m:s:ms)","OPERA","93.36","0.035896672746830345","288"
"21:27:4:242 (H:m:s:ms)","GENERIC","125.314","0.04147732268372375","759"
"21:46:52:121 (H:m:s:ms)","GENERIC","93.481","0.045186465960445364","879"
"21:26:58:181 (H:m:s:ms)","GENERIC","62.023","0.06697588089412315","819"
"21:46:46:60 (H:m:s:ms)","GENERIC","62.073","0.04205600412537088","939"
"21:26:57:721 (H:m:s:ms)","OPERA","124.795","0.07026347593526015","279"
"21:46:40:0 (H:m:s:ms)","GENERIC","124.551","0.04595727570799293","1044"
"21:46:33:939 (H:m:s:ms)","GENERIC","124.205","0.04704002354993344","1061"
"21:46:27:878 (H:m:s:ms)","GENERIC","124.681","0.04385549265314481","1122"
"21:26:52:121 (H:m:s:ms)","GENERIC","124.947","0.05692670728079499","879"
"21:26:50:126 (H:m:s:ms)","OPERA","124.735","0.05359239468761882","880"
"21:26:46:60 (H:m:s:ms)","GENERIC","124.408","0.04662586339204504","939"
"21:46:21:818 (H:m:s:ms)","GENERIC","93.518","0.026914655830361674","182"
"21:26:42:531 (H:m:s:ms)","OPERA","93.40299999999999","0.04445492768593437","469"
"21:46:15:757 (H:m:s:ms)","GENERIC","124.985","0.025321141884596943","243"
"21:26:40:0 (H:m:s:ms)","GENERIC","93.281","0.057771964331137106","1034"
"21:46:9:696 (H:m:s:ms)","GENERIC","62.133","0.03532078491013583","339"
"21:13:20:0 (H:m:s:ms)","GENERIC","124.589","0.02539662112191533","1037"
"21:26:34:936 (H:m:s:ms)","OPERA","62.015","0.06606379465892073","1065"
"21:46:3:636 (H:m:s:ms)","GENERIC","93.348","0.021079522874040687","364"
"21:13:26:60 (H:m:s:ms)","GENERIC","124.725","0.02816663602877637","940"
"21:26:33:939 (H:m:s:ms)","GENERIC","124.25800000000001","0.05134028088529874","1061"
"21:45:57:575 (H:m:s:ms)","GENERIC","93.92399999999999","0.0578478417798267","424"
"21:13:32:121 (H:m:s:ms)","GENERIC","124.981","0.045373814735039056","879"
"21:26:27:878 (H:m:s:ms)","GENERIC","124.648","0.047138232220012975","1122"
"21:45:51:515 (H:m:s:ms)","GENERIC","125.525","0.02518166565559775","484"
"21:13:38:181 (H:m:s:ms)","GENERIC","124.85300000000001","0.05040090009592099","819"
"21:13:44:242 (H:m:s:ms)","GENERIC","125.551","0.04495993673850706","757"
"21:13:50:303 (H:m:s:ms)","GENERIC","124.103","0.0268714379776022","697"
"21:13:56:363 (H:m:s:ms)","GENERIC","124.757","0.042461821712642775","636"
"21:14:2:424 (H:m:s:ms)","GENERIC","93.854","0.04317626065273833","576"
"21:14:8:484 (H:m:s:ms)","GENERIC","124.65100000000001","0.02895775237066325","516"
"21:14:14:545 (H:m:s:ms)","GENERIC","62.462","0.04024202266721468","455"
"21:27:40:606 (H:m:s:ms)","GENERIC","125.194","0.04401566645827744","394"
"21:47:58:787 (H:m:s:ms)","GENERIC","93.529","0.04388067520712522","212"
"21:27:35:696 (H:m:s:ms)","OPERA","124.78999999999999","0.04366888574249566","310"
"21:47:52:727 (H:m:s:ms)","GENERIC","93.91499999999999","0.040991859490275936","272"
"21:27:34:545 (H:m:s:ms)","GENERIC","125.207","0.029748073371258687","456"
"21:47:46:666 (H:m:s:ms)","GENERIC","93.124","0.02287840291908578","334"
"21:27:28:484 (H:m:s:ms)","GENERIC","93.87299999999999","0.05527526610222268","516"
"21:47:40:606 (H:m:s:ms)","GENERIC","125.213","0.022630044387041078","394"
"21:47:34:545 (H:m:s:ms)","GENERIC","125.15899999999999","0.03681783524214377","456"
"21:47:28:484 (H:m:s:ms)","GENERIC","93.851","0.053575966138869974","515"
"21:27:28:101 (H:m:s:ms)","OPERA","93.4","0.024630348702370724","898"
"21:27:22:424 (H:m:s:ms)","GENERIC","125.62299999999999","0.06662329433151475","575"
"21:27:20:506 (H:m:s:ms)","OPERA","124.68299999999999","0.04420776938956848","494"
"21:47:22:424 (H:m:s:ms)","GENERIC","125.551","0.054165466128700324","575"
"21:14:20:606 (H:m:s:ms)","GENERIC","93.438","0.019871720761950876","394"
"21:27:16:363 (H:m:s:ms)","GENERIC","93.618","0.04818640051055788","637"
"21:47:16:363 (H:m:s:ms)","GENERIC","125.154","0.03861485189085718","636"
"21:14:26:666 (H:m:s:ms)","GENERIC","93.387","0.04415336863281524","333"
"21:27:12:911 (H:m:s:ms)","OPERA","62.36","0.04978924596851734","89"
"21:47:10:303 (H:m:s:ms)","GENERIC","124.939","0.04592943453277211","696"
"20:52:19:393 (H:m:s:ms)","GENERIC","93.60499999999999","0.03921119263181886","646"
"21:14:32:727 (H:m:s:ms)","GENERIC","124.81","0.030199286155932245","289"
"21:27:10:303 (H:m:s:ms)","GENERIC","93.543","0.0380471370868871","697"
"21:47:4:242 (H:m:s:ms)","GENERIC","125.324","0.030444036511172664","758"
"20:52:25:454 (H:m:s:ms)","GENERIC","124.235","0.031452718120123395","546"
"21:14:38:787 (H:m:s:ms)","GENERIC","124.58500000000001","0.04072511346176395","214"
"21:27:5:316 (H:m:s:ms)","OPERA","124.827","0.045352377617463364","683"
"21:46:58:181 (H:m:s:ms)","GENERIC","124.458","0.043363110565282637","819"
"20:52:31:515 (H:m:s:ms)","GENERIC","93.595","0.03199944421462016","484"
"21:14:44:848 (H:m:s:ms)","GENERIC","125.518","0.05337250390119468","152"
"20:52:37:575 (H:m:s:ms)","GENERIC","62.055","0.03642047836707323","425"
"21:14:50:909 (H:m:s:ms)","GENERIC","93.432","0.04368505153910685","1091"
"20:52:43:636 (H:m:s:ms)","GENERIC","93.29299999999999","0.04911868096863196","363"
"21:14:56:969 (H:m:s:ms)","GENERIC","125.259","0.035958259338093025","1030"
"20:52:49:696 (H:m:s:ms)","GENERIC","124.74199999999999","0.029754559407349203","342"
"21:15:3:30 (H:m:s:ms)","GENERIC","124.358","0.06458786284805407","970"
"20:52:55:757 (H:m:s:ms)","GENERIC","124.918","0.02627119314029661","408"
"21:15:9:90 (H:m:s:ms)","GENERIC","93.18299999999999","0.037572379225305465","944"
"20:53:1:818 (H:m:s:ms)","GENERIC","124.49000000000001","0.030010356388604314","181"
"21:15:15:151 (H:m:s:ms)","GENERIC","124.54599999999999","0.03950200666495487","849"
"20:53:7:878 (H:m:s:ms)","GENERIC","124.975","0.02579237447889927","1122"
"20:53:13:939 (H:m:s:ms)","GENERIC","93.104","0.04387991504626363","1061"
"21:28:16:969 (H:m:s:ms)","GENERIC","93.64500000000001","0.03575495658340769","1031"
"21:49:5:454 (H:m:s:ms)","GENERIC","93.25","0.037644941236369085","546"
"21:28:13:670 (H:m:s:ms)","OPERA","93.443","0.053516286156545204","330"
"21:48:59:393 (H:m:s:ms)","GENERIC","93.521","0.022823360056557322","643"
"21:28:10:909 (H:m:s:ms)","GENERIC","124.791","0.05685816197252912","1091"
"21:48:53:333 (H:m:s:ms)","GENERIC","125.57","0.03491766782424545","667"
"21:28:6:75 (H:m:s:ms)","OPERA","93.347","0.04365292853229456","925"
"21:48:47:272 (H:m:s:ms)","GENERIC","124.898","0.058590836544123434","727"
"21:28:4:848 (H:m:s:ms)","GENERIC","124.791","0.016369045264290814","153"
"21:48:41:212 (H:m:s:ms)","GENERIC","93.524","0.05785368590048327","787"
"21:48:35:151 (H:m:s:ms)","GENERIC","124.686","0.018661220664454185","900"
"21:48:29:90 (H:m:s:ms)","GENERIC","124.122","0.03469618472072293","945"
"21:27:58:787 (H:m:s:ms)","GENERIC","93.519","0.04752769431088513","213"
"21:15:21:212 (H:m:s:ms)","GENERIC","124.925","0.03872352774156917","788"
"21:27:58:481 (H:m:s:ms)","OPERA","124.75399999999999","0.01671114483945359","519"
"21:15:27:272 (H:m:s:ms)","GENERIC","124.936","0.03572272373560953","727"
"21:27:52:727 (H:m:s:ms)","GENERIC","93.875","0.05282944726268288","272"
"21:48:23:30 (H:m:s:ms)","GENERIC","93.834","0.039283692035501215","969"
"20:53:20:0 (H:m:s:ms)","GENERIC","93.32000000000001","0.03557490052658494","1042"
"21:15:33:333 (H:m:s:ms)","GENERIC","124.777","0.033839857749359874","666"
"21:27:50:886 (H:m:s:ms)","OPERA","93.34299999999999","0.030409412087387303","1114"
"21:48:16:969 (H:m:s:ms)","GENERIC","93.713","0.027123570547954355","1031"
"20:53:26:60 (H:m:s:ms)","GENERIC","124.701","0.023960955221555436","940"
"21:15:39:393 (H:m:s:ms)","GENERIC","93.73","0.04384677629696887","641"
"21:27:46:666 (H:m:s:ms)","GENERIC","93.122","0.04493947780626091","334"
"21:48:10:909 (H:m:s:ms)","GENERIC","124.869","0.0434620555874336","1091"
"20:53:32:121 (H:m:s:ms)","GENERIC","93.491","0.02236782120184404","954"
"21:15:45:454 (H:m:s:ms)","GENERIC","124.586","0.05035549120911657","546"
"21:27:43:291 (H:m:s:ms)","OPERA","93.362","0.05002154349035708","709"
"21:48:4:848 (H:m:s:ms)","GENERIC","93.418","0.025927248034120658","152"
"20:53:38:181 (H:m:s:ms)","GENERIC","124.958","0.0180615280923316","819"
"21:15:51:515 (H:m:s:ms)","GENERIC","125.539","0.0439381907851655","484"
"20:53:44:242 (H:m:s:ms)","GENERIC","93.857","0.03830168434668498","758"
"21:15:57:575 (H:m:s:ms)","GENERIC","93.881","0.030856967613550768","425"
"20:53:50:303 (H:m:s:ms)","GENERIC","124.144","0.05073489887323557","696"
"21:16:3:636 (H:m:s:ms)","GENERIC","62.073","0.025142597434658926","364"
"20:53:56:363 (H:m:s:ms)","GENERIC","93.402","0.02487099558220076","637"
"21:16:9:696 (H:m:s:ms)","GENERIC","62.151","0.018143607682302422","337"
"20:54:2:424 (H:m:s:ms)","GENERIC","125.61099999999999","0.03786211418690318","576"
"21:16:15:757 (H:m:s:ms)","GENERIC","125.043","0.05865537874455926","242"
"20:54:8:484 (H:m:s:ms)","GENERIC","124.733","0.028056111438779435","516"
"20:54:14:545 (H:m:s:ms)","GENERIC","124.975","0.035176638466269006","456"
"21:28:53:333 (H:m:s:ms)","GENERIC","125.606","0.06271528788859095","666"
"22:1:34:736 (H:m:s:ms)","AMBULANCE","62.441","0.03528652340334893","269"
"21:28:51:645 (H:m:s:ms)","OPERA","93.428","0.04901424112760869","355"
"22:0:0:0 (H:m:s:ms)","AMBULANCE","93.849","0.059247780929665914","2187"
"21:28:47:272 (H:m:s:ms)","GENERIC","93.437","0.04596997802051902","728"
"21:50:0:0 (H:m:s:ms)","GENERIC","93.506","0.019588520734130966","1035"
"21:28:44:50 (H:m:s:ms)","OPERA","124.776","0.05880855569716241","950"
"21:49:53:939 (H:m:s:ms)","GENERIC","124.243","0.04500109852144464","1061"
"21:28:41:212 (H:m:s:ms)","GENERIC","124.962","0.059896182515104875","788"
"21:49:47:878 (H:m:s:ms)","GENERIC","125.279","0.0441991486618511","1122"
"21:28:36:455 (H:m:s:ms)","OPERA","93.367","0.03780621793929772","545"
"21:49:41:818 (H:m:s:ms)","GENERIC","124.988","0.030292711891412423","182"
"21:49:35:757 (H:m:s:ms)","GENERIC","124.41","0.05117616370738967","243"
"21:49:29:696 (H:m:s:ms)","GENERIC","93.52799999999999","0.026652887067481836","339"
"21:16:21:818 (H:m:s:ms)","GENERIC","93.544","0.019738976072460213","182"
"21:16:27:878 (H:m:s:ms)","GENERIC","93.32900000000001","0.0482939114092154","1121"
"21:28:35:151 (H:m:s:ms)","GENERIC","124.792","0.02185410495292828","947"
"20:54:20:606 (H:m:s:ms)","GENERIC","124.892","0.04883169053161219","394"
"21:16:33:939 (H:m:s:ms)","GENERIC","124.386","0.05041270221265882","1061"
"21:28:29:90 (H:m:s:ms)","GENERIC","124.13900000000001","0.03851244866010778","945"
"20:54:26:666 (H:m:s:ms)","GENERIC","93.38300000000001","0.03463572336441211","334"
"21:16:40:0 (H:m:s:ms)","GENERIC","124.612","0.06248225004981046","1035"
"21:28:28:860 (H:m:s:ms)","OPERA","93.394","0.05300205673179246","140"
"21:49:23:636 (H:m:s:ms)","GENERIC","124.87700000000001","0.05118505840691463","364"
"20:54:32:727 (H:m:s:ms)","GENERIC","125.541","0.031341485763762604","273"
"21:16:46:60 (H:m:s:ms)","GENERIC","124.393","0.03721552532699052","939"
"21:28:23:30 (H:m:s:ms)","GENERIC","93.856","0.05156321804430664","970"
"21:49:17:575 (H:m:s:ms)","GENERIC","124.837","0.029630147878045222","425"
"20:54:38:787 (H:m:s:ms)","GENERIC","124.542","0.04020632962097406","213"
"21:16:52:121 (H:m:s:ms)","GENERIC","93.47","0.027628364234096755","879"
"21:28:21:265 (H:m:s:ms)","OPERA","124.761","0.03121717252806258","735"
"21:49:11:515 (H:m:s:ms)","GENERIC","93.906","0.03582310384752162","484"
"20:54:44:848 (H:m:s:ms)","GENERIC","125.561","0.031199940575074494","152"
"21:16:58:181 (H:m:s:ms)","GENERIC","124.547","0.04859980988742829","819"
"20:54:50:909 (H:m:s:ms)","GENERIC","93.49799999999999","0.04115206532610827","1091"
"21:17:4:242 (H:m:s:ms)","GENERIC","125.35499999999999","0.03230816047343074","759"
"20:54:56:969 (H:m:s:ms)","GENERIC","93.676","0.023929716285936778","1031"
"21:17:10:303 (H:m:s:ms)","GENERIC","93.523","0.04564576704342594","697"
"20:55:3:30 (H:m:s:ms)","GENERIC","93.204","0.05787690210549448","970"
"21:17:16:363 (H:m:s:ms)","GENERIC","125.102","0.024003791642064957","637"
"20:55:9:90 (H:m:s:ms)","GENERIC","93.145","0.031544005835039364","951"
"20:55:15:151 (H:m:s:ms)","GENERIC","93.236","0.05773166554627611","849"
"21:29:29:696 (H:m:s:ms)","GENERIC","125.02799999999999","0.05272373560326045","340"
"21:29:29:620 (H:m:s:ms)","OPERA","124.764","0.042135412112886114","415"
"21:29:23:636 (H:m:s:ms)","GENERIC","124.75399999999999","0.04946235939430276","363"
"21:29:22:25 (H:m:s:ms)","OPERA","124.798","0.05060479468729631","975"
"21:29:17:575 (H:m:s:ms)","GENERIC","124.705","0.05152934823027002","424"
"21:29:14:430 (H:m:s:ms)","OPERA","93.369","0.0456686396517318","570"
"21:29:11:515 (H:m:s:ms)","GENERIC","93.158","0.058161994569865406","485"
"21:17:22:424 (H:m:s:ms)","GENERIC","93.89500000000001","0.0434910314757654","576"
"21:17:28:484 (H:m:s:ms)","GENERIC","93.86099999999999","0.04367989638260901","516"
"20:55:21:212 (H:m:s:ms)","GENERIC","93.487","0.03305311346845584","788"
"21:17:34:545 (H:m:s:ms)","GENERIC","125.108","0.04216501481804753","455"
"20:55:27:272 (H:m:s:ms)","GENERIC","125.015","0.052773830805279996","728"
"21:17:40:606 (H:m:s:ms)","GENERIC","125.24799999999999","0.03229256564965651","394"
"21:29:6:835 (H:m:s:ms)","OPERA","124.79599999999999","0.06440205624304111","165"
"20:55:33:333 (H:m:s:ms)","GENERIC","124.851","0.048404135489835895","667"
"21:17:46:666 (H:m:s:ms)","GENERIC","124.239","0.038771328393893974","334"
"21:29:5:454 (H:m:s:ms)","GENERIC","93.173","0.041789235583754754","546"
"20:55:39:393 (H:m:s:ms)","GENERIC","93.785","0.01711621759574527","648"
"21:17:52:727 (H:m:s:ms)","GENERIC","93.848","0.029481665149793376","272"
"21:28:59:393 (H:m:s:ms)","GENERIC","124.99600000000001","0.05182451870598467","642"
"22:4:12:631 (H:m:s:ms)","AMBULANCE","93.88499999999999","0.048117670599829576","374"
"20:55:45:454 (H:m:s:ms)","GENERIC","124.656","0.04689870777976949","545"
"21:17:58:787 (H:m:s:ms)","GENERIC","125.008","0.04562849771233658","213"
"21:28:59:240 (H:m:s:ms)","OPERA","124.735","0.04251035081551343","794"
"22:3:41:52 (H:m:s:ms)","AMBULANCE","62.478","0.02336921611831236","948"
"20:55:51:515 (H:m:s:ms)","GENERIC","93.80199999999999","0.033903829274135905","485"
"21:18:4:848 (H:m:s:ms)","GENERIC","62.434","0.024243796623429046","229"
"20:55:57:575 (H:m:s:ms)","GENERIC","125.59100000000001","0.04810197746761176","424"
"21:18:10:909 (H:m:s:ms)","GENERIC","124.862","0.026970496616994234","1091"
"20:56:3:636 (H:m:s:ms)","GENERIC","124.75999999999999","0.0285173882272656","364"
"21:18:16:969 (H:m:s:ms)","GENERIC","125.179","0.03327722323462608","1030"
"20:56:9:696 (H:m:s:ms)","GENERIC","62.143","0.04120758239515847","344"
"20:56:15:757 (H:m:s:ms)","GENERIC","125.14699999999999","0.017934953702298365","243"
"21:30:0:0 (H:m:s:ms)","GENERIC","124.862","0.0824393465481251","1049"
"21:30:0:0 (H:m:s:ms)","GENERIC","124.76599999999999","0.07677828681867976","1048"
"21:30:0:0 (H:m:s:ms)","OPERA","93.374","0.06835618642491187","1048"
"21:30:0:0 (H:m:s:ms)","AMBULANCE","62.442","0.04767047433000604","1047"
"21:29:53:939 (H:m:s:ms)","GENERIC","93.134","0.04684413530401884","1061"
"21:29:52:405 (H:m:s:ms)","OPERA","93.37","0.050920556150839354","595"
"21:29:47:878 (H:m:s:ms)","GENERIC","93.69","0.042695865589828415","1122"
"21:29:44:810 (H:m:s:ms)","OPERA","93.35","0.032587868063988314","190"
"21:18:23:30 (H:m:s:ms)","GENERIC","93.824","0.04255708602334521","969"
"21:18:29:90 (H:m:s:ms)","GENERIC","93.134","0.041092287815646576","944"
"20:56:21:818 (H:m:s:ms)","GENERIC","62.047","0.03227486121839509","181"
"21:18:35:151 (H:m:s:ms)","GENERIC","124.488","0.02343781403407301","850"
"20:56:27:878 (H:m:s:ms)","GENERIC","124.708","0.03693205190036437","1123"
"21:18:41:212 (H:m:s:ms)","GENERIC","93.52799999999999","0.03878930789089842","788"
"20:40:0:0 (H:m:s:ms)","OPERA","93.727","0.028528278947483086","2195"
"20:56:33:939 (H:m:s:ms)","GENERIC","124.412","0.03862220386318585","1061"
"21:18:47:272 (H:m:s:ms)","GENERIC","124.94800000000001","0.047601618064777196","728"
"20:40:0:0 (H:m:s:ms)","GENERIC","124.815","0.04917076056957827","2196"
"20:56:40:0 (H:m:s:ms)","GENERIC","124.643","0.06415478931434547","1042"
"21:18:53:333 (H:m:s:ms)","GENERIC","93.916","0.03682674451452396","666"
"21:29:41:818 (H:m:s:ms)","GENERIC","125.042","0.03235335910278223","182"
"20:40:0:0 (H:m:s:ms)","GENERIC","124.811","0.06339874591523809","2197"
"20:56:46:60 (H:m:s:ms)","GENERIC","124.374","0.028527361455145728","939"
"21:18:59:393 (H:m:s:ms)","GENERIC","125.002","0.025122923892295854","642"
"21:29:37:215 (H:m:s:ms)","OPERA","124.824","0.0550490105862936","785"
"20:40:6:60 (H:m:s:ms)","GENERIC","93.559","0.02584705691373297","940"
"20:56:52:121 (H:m:s:ms)","GENERIC","93.497","0.03420200138065934","879"
"21:19:5:454 (H:m:s:ms)","GENERIC","124.39","0.02697210333412356","546"
"21:29:35:757 (H:m:s:ms)","GENERIC","124.28999999999999","0.05119723728133481","243"
"20:40:7:594 (H:m:s:ms)","OPERA","62.397999999999996","0.028511269847042962","406"
"20:56:58:181 (H:m:s:ms)","GENERIC","93.289","0.046959712834682574","819"
"21:19:11:515 (H:m:s:ms)","GENERIC","93.21600000000001","0.051370316608968826","485"
"20:40:12:121 (H:m:s:ms)","GENERIC","124.72800000000001","0.04830150708905461","879"
"20:57:4:242 (H:m:s:ms)","GENERIC","125.22999999999999","0.02718686410984453","758"
"21:19:17:575 (H:m:s:ms)","GENERIC","62.397999999999996","0.025318481902703846","426"
"20:40:15:189 (H:m:s:ms)","OPERA","93.79299999999999","0.051027732358350446","811"
"20:57:10:303 (H:m:s:ms)","GENERIC","125.049","0.03247528819245825","696"
"20:40:18:181 (H:m:s:ms)","GENERIC","124.64699999999999","0.04216129455302977","819"
"20:57:16:363 (H:m:s:ms)","GENERIC","93.687","0.04597346479715193","636"
"20:40:22:784 (H:m:s:ms)","OPERA","62.372","0.06503088666310304","216"
"20:40:24:242 (H:m:s:ms)","GENERIC","124.97","0.07530182954624409","758"
"21:30:18:181 (H:m:s:ms)","GENERIC","93.30799999999999","0.03935550745503179","819"
"21:31:0:606 (H:m:s:ms)","GENERIC","124.845","0.028676230286751737","394"
"21:30:54:545 (H:m:s:ms)","GENERIC","125.281","0.03103652375253234","456"
"21:30:48:484 (H:m:s:ms)","GENERIC","125.5","0.025111145040348837","516"
"21:30:42:424 (H:m:s:ms)","GENERIC","125.064","0.04824249541464004","576"
"21:30:36:363 (H:m:s:ms)","GENERIC","124.202","0.0654518081028618","637"
"21:30:31:578 (H:m:s:ms)","AMBULANCE","62.432","0.05553195796237256","439"
"21:30:30:303 (H:m:s:ms)","GENERIC","125.205","0.026648680114887174","696"
"21:19:23:636 (H:m:s:ms)","GENERIC","124.761","0.05003488642003028","363"
"21:30:24:242 (H:m:s:ms)","GENERIC","125.019","0.044082868437105495","759"
"21:19:29:696 (H:m:s:ms)","GENERIC","93.514","0.03654693725564157","338"
"20:57:22:424 (H:m:s:ms)","GENERIC","125.541","0.03701000908071175","575"
"21:19:35:757 (H:m:s:ms)","GENERIC","124.396","0.061199189603348685","242"
"20:57:28:484 (H:m:s:ms)","GENERIC","125.57300000000001","0.043748431151424634","515"
"21:19:41:818 (H:m:s:ms)","GENERIC","124.98400000000001","0.05277300890665501","181"
"20:40:30:303 (H:m:s:ms)","GENERIC","93.69500000000001","0.05914227479376744","696"
"20:57:34:545 (H:m:s:ms)","GENERIC","125.24799999999999","0.02371603105252018","455"
"21:19:47:878 (H:m:s:ms)","GENERIC","125.249","0.024797948932602485","1122"
"20:40:30:379 (H:m:s:ms)","OPERA","93.684","0.06499372858076602","621"
"20:57:40:606 (H:m:s:ms)","GENERIC","125.19","0.031193511834507057","394"
"21:19:53:939 (H:m:s:ms)","GENERIC","93.13","0.04980110707321968","1061"
"20:40:36:363 (H:m:s:ms)","GENERIC","124.209","0.059269802468093415","636"
"20:57:46:666 (H:m:s:ms)","GENERIC","124.215","0.048024209612508924","334"
"21:20:0:0 (H:m:s:ms)","OPERA","124.821","0.01989930030330502","2190"
"20:40:37:974 (H:m:s:ms)","OPERA","93.708","0.06613486608488686","1026"
"20:57:52:727 (H:m:s:ms)","GENERIC","93.851","0.0348545273784018","273"
"21:20:0:0 (H:m:s:ms)","GENERIC","93.343","0.03465528029428341","2191"
"21:30:12:121 (H:m:s:ms)","GENERIC","93.405","0.0363958368752367","879"
"20:40:42:424 (H:m:s:ms)","GENERIC","93.548","0.037757209821018246","576"
"20:57:58:787 (H:m:s:ms)","GENERIC","93.548","0.03559633670565031","212"
"21:20:0:0 (H:m:s:ms)","GENERIC","124.875","0.055300544106014204","2192"
"21:30:6:60 (H:m:s:ms)","GENERIC","93.57300000000001","0.028727374693349485","940"
"20:40:45:569 (H:m:s:ms)","OPERA","93.695","0.035681201998529116","431"
"20:58:4:848 (H:m:s:ms)","GENERIC","93.911","0.05139749575146476","153"
"21:20:6:60 (H:m:s:ms)","GENERIC","93.588","0.026133780178071442","940"
"20:40:48:484 (H:m:s:ms)","GENERIC","125.467","0.03172336390867036","516"
"20:58:10:909 (H:m:s:ms)","GENERIC","93.46000000000001","0.036696795055750304","1090"
"20:40:53:164 (H:m:s:ms)","OPERA","93.762","0.04251473159583286","836"
"20:58:16:969 (H:m:s:ms)","GENERIC","125.318","0.047499024694012175","1031"
"20:40:54:545 (H:m:s:ms)","GENERIC","93.697","0.04892573271641479","455"
"20:41:0:606 (H:m:s:ms)","GENERIC","124.777","0.022387514012962153","394"
"21:31:12:727 (H:m:s:ms)","GENERIC","125.25800000000001","0.03470871841958158","273"
"21:31:6:666 (H:m:s:ms)","GENERIC","124.764","0.0337301142003087","334"
"21:31:55:151 (H:m:s:ms)","GENERIC","124.947","0.05822148600423289","849"
"21:31:49:90 (H:m:s:ms)","GENERIC","124.24799999999999","0.015502240116463947","943"
"21:31:43:30 (H:m:s:ms)","GENERIC","124.761","0.022936811367679895","970"
"21:31:36:969 (H:m:s:ms)","GENERIC","124.364","0.056199723027278894","1031"
"21:31:34:736 (H:m:s:ms)","AMBULANCE","93.682","0.046040931663174745","316"
"21:31:30:909 (H:m:s:ms)","GENERIC","93.659","0.032214160850590694","1091"
"21:31:24:848 (H:m:s:ms)","GENERIC","62.111","0.02345175259468379","152"
"21:31:18:787 (H:m:s:ms)","GENERIC","124.87","0.021365002811151272","213"
"20:58:23:30 (H:m:s:ms)","GENERIC","93.827","0.042353499165044856","969"
"20:58:29:90 (H:m:s:ms)","GENERIC","93.10300000000001","0.045877327328278594","951"
"20:41:0:759 (H:m:s:ms)","OPERA","93.792","0.05470346431550161","242"
"20:58:35:151 (H:m:s:ms)","GENERIC","93.342","0.04930436833835935","849"
"20:41:6:666 (H:m:s:ms)","GENERIC","124.69800000000001","0.0446715222797071","334"
"20:58:41:212 (H:m:s:ms)","GENERIC","93.463","0.0247929997696791","788"
"20:41:12:727 (H:m:s:ms)","GENERIC","125.15700000000001","0.03897767160732515","273"
"20:58:47:272 (H:m:s:ms)","GENERIC","124.92699999999999","0.03242230219717385","728"
"20:41:15:949 (H:m:s:ms)","OPERA","93.759","0.047646001359394737","1051"
"20:58:53:333 (H:m:s:ms)","GENERIC","93.94","0.035700872217541334","667"
"20:41:18:787 (H:m:s:ms)","GENERIC","93.625","0.043666725320515166","213"
"20:58:59:393 (H:m:s:ms)","GENERIC","93.599","0.022451117808213735","649"
"20:41:23:544 (H:m:s:ms)","OPERA","93.759","0.041721908297210716","457"
"20:59:5:454 (H:m:s:ms)","GENERIC","124.349","0.0445046831336949","546"
"21:31:3:157 (H:m:s:ms)","AMBULANCE","93.849","0.03856819855985295","850"
"20:41:24:848 (H:m:s:ms)","GENERIC","93.882","0.055913203738479966","151"
"20:59:11:515 (H:m:s:ms)","GENERIC","93.155","0.04974186910016434","484"
"20:41:30:909 (H:m:s:ms)","GENERIC","93.75800000000001","0.027063017363903236","1090"
"20:59:17:575 (H:m:s:ms)","GENERIC","93.608","0.02377065760428564","506"
"20:41:31:139 (H:m:s:ms)","OPERA","93.723","0.03570633693735284","861"
"20:41:36:969 (H:m:s:ms)","GENERIC","93.2","0.04332672930521711","1031"
"20:59:23:636 (H:m:s:ms)","GENERIC","93.444","0.025844061484031303","430"
"20:59:29:696 (H:m:s:ms)","GENERIC","93.924","0.030852191669692254","345"
"20:41:38:734 (H:m:s:ms)","OPERA","62.359","0.05212824605058913","266"
"20:59:35:757 (H:m:s:ms)","GENERIC","124.351","0.04042048050001907","243"
"20:41:43:30 (H:m:s:ms)","GENERIC","124.689","0.046983038847710296","970"
"20:59:41:818 (H:m:s:ms)","GENERIC","93.577","0.03953623890626094","181"
"20:41:49:90 (H:m:s:ms)","GENERIC","93.127","0.0356944322338111","946"
"20:59:47:878 (H:m:s:ms)","GENERIC","93.725","0.056044192901346095","1122"
"20:41:53:924 (H:m:s:ms)","OPERA","93.721","0.03973197898362029","76"
"20:59:53:939 (H:m:s:ms)","GENERIC","93.235","0.026724134909152684","1061"
"20:41:55:151 (H:m:s:ms)","GENERIC","93.86699999999999","0.03418427071371536","848"
"21:0:0:0 (H:m:s:ms)","AMBULANCE","93.764","0.028084733460948582","2198"
"20:42:1:212 (H:m:s:ms)","GENERIC","125.194","0.04665969456214877","789"
"21:0:0:0 (H:m:s:ms)","GENERIC","124.89500000000001","0.04447560630563914","2199"
"20:42:1:518 (H:m:s:ms)","OPERA","93.79899999999999","0.05810792284604208","484"
"21:0:0:0 (H:m:s:ms)","GENERIC","93.38499999999999","0.05115983551533706","2200"
"20:42:7:272 (H:m:s:ms)","GENERIC","124.224","0.04886812350120646","728"
"21:0:6:60 (H:m:s:ms)","GENERIC","124.97399999999999","0.052462697858122485","940"
"20:42:9:113 (H:m:s:ms)","OPERA","93.779","0.051731186672932125","923"
"20:42:13:333 (H:m:s:ms)","GENERIC","125.068","0.02401436398980249","666"
"21:0:12:121 (H:m:s:ms)","GENERIC","124.755","0.02427246303571414","878"
"21:0:18:181 (H:m:s:ms)","GENERIC","124.687","0.03483012367781622","818"
"20:42:16:708 (H:m:s:ms)","OPERA","93.73","0.02684051505851682","292"
"21:0:24:242 (H:m:s:ms)","GENERIC","93.497","0.04624047974151166","758"
"20:42:19:393 (H:m:s:ms)","GENERIC","93.616","0.04397228579495068","644"
"21:0:30:303 (H:m:s:ms)","GENERIC","125.22","0.031131817099777356","696"
"20:20:0:0 (H:m:s:ms)","GENERIC","124.838","0.02207490589358279","2210"
"20:42:24:303 (H:m:s:ms)","OPERA","62.43","0.0573246948323553","697"
"21:0:31:578 (H:m:s:ms)","AMBULANCE","62.383","0.05104297803822296","423"
"20:20:0:0 (H:m:s:ms)","GENERIC","124.682","0.042188194224793016","2211"
"20:42:25:454 (H:m:s:ms)","GENERIC","93.143","0.06811831231982983","546"
"21:0:36:363 (H:m:s:ms)","GENERIC","124.199","0.06355060726260627","636"
"20:20:6:60 (H:m:s:ms)","GENERIC","93.518","0.01453022521745594","940"
"20:42:31:515 (H:m:s:ms)","GENERIC","93.66300000000001","0.03228576556312594","485"
"21:0:42:424 (H:m:s:ms)","GENERIC","125.029","0.024658946461215768","575"
"20:20:12:121 (H:m:s:ms)","GENERIC","124.625","0.027686622476835367","878"
"20:42:31:898 (H:m:s:ms)","OPERA","62.431","0.0369239474530121","103"
"21:0:48:484 (H:m:s:ms)","GENERIC","93.779","0.047786215838938925","516"
"20:20:18:181 (H:m:s:ms)","GENERIC","124.732","0.04536493270134723","819"
"20:42:37:575 (H:m:s:ms)","GENERIC","124.831","0.038578192234746546","425"
"21:0:54:545 (H:m:s:ms)","GENERIC","125.275","0.04460817016101381","455"
"20:20:24:242 (H:m:s:ms)","GENERIC","124.965","0.05006559566119846","759"
"20:42:39:493 (H:m:s:ms)","OPERA","93.726","0.04199558172677547","544"
"21:1:0:606 (H:m:s:ms)","GENERIC","124.762","0.03518852783967977","393"
"20:20:30:303 (H:m:s:ms)","GENERIC","125.20599999999999","0.031834523625514116","697"
"20:42:43:636 (H:m:s:ms)","GENERIC","124.50399999999999","0.05901419388402153","364"
"20:20:36:363 (H:m:s:ms)","GENERIC","124.14699999999999","0.035890660028340564","637"
"20:42:47:88 (H:m:s:ms)","OPERA","93.724","0.06319898226079317","912"
"20:20:42:424 (H:m:s:ms)","GENERIC","93.51","0.03354171668606619","576"
"20:20:48:484 (H:m:s:ms)","GENERIC","125.45","0.015554471178346177","516"
"21:1:3:157 (H:m:s:ms)","AMBULANCE","62.43000000000001","0.047281382878422505","938"
"21:1:6:666 (H:m:s:ms)","GENERIC","124.69200000000001","0.03914916075578952","334"
"20:42:49:696 (H:m:s:ms)","GENERIC","93.426","0.04073905697129317","339"
"21:1:12:727 (H:m:s:ms)","GENERIC","93.602","0.033178894542980134","273"
"20:42:54:683 (H:m:s:ms)","OPERA","93.737","0.053125487214205507","317"
"21:1:18:787 (H:m:s:ms)","GENERIC","93.559","0.022621022570884556","213"
"20:20:54:545 (H:m:s:ms)","GENERIC","125.27799999999999","0.04890977302095296","455"
"20:42:55:757 (H:m:s:ms)","GENERIC","124.777","0.049207095500499023","244"
"21:1:24:848 (H:m:s:ms)","GENERIC","62.095","0.03513889956897112","152"
"20:21:0:606 (H:m:s:ms)","GENERIC","124.769","0.04428152636655697","394"
"20:43:1:818 (H:m:s:ms)","GENERIC","124.487","0.03198148813975613","182"
"21:1:30:909 (H:m:s:ms)","GENERIC","125.40100000000001","0.027806561998137","1091"
"20:21:6:666 (H:m:s:ms)","GENERIC","93.339","0.048297883764656734","335"
"20:43:2:278 (H:m:s:ms)","OPERA","62.427","0.053215228820877154","722"
"21:1:34:736 (H:m:s:ms)","AMBULANCE","62.442","0.033989432526705346","267"
"20:21:12:727 (H:m:s:ms)","GENERIC","125.08500000000001","0.02138470236778711","273"
"20:43:7:878 (H:m:s:ms)","GENERIC","93.489","0.032851991955572805","1122"
"21:1:36:969 (H:m:s:ms)","GENERIC","124.405","0.04281708142242464","1030"
"20:21:18:787 (H:m:s:ms)","GENERIC","124.993","0.023868798097318636","213"
"20:43:9:873 (H:m:s:ms)","OPERA","93.723","0.054067311583123015","164"
"21:1:43:30 (H:m:s:ms)","GENERIC","124.813","0.014304760754593233","970"
"20:21:24:848 (H:m:s:ms)","GENERIC","93.888","0.050485733278546024","151"
"20:43:13:939 (H:m:s:ms)","GENERIC","93.089","0.05223067027297777","1061"
"21:1:49:90 (H:m:s:ms)","GENERIC","93.105","0.041880377067088546","950"
"20:21:30:909 (H:m:s:ms)","GENERIC","125.248","0.02658291376057219","1091"
"20:43:17:468 (H:m:s:ms)","OPERA","93.77199999999999","0.04579849043775624","532"
"20:21:36:969 (H:m:s:ms)","GENERIC","93.203","0.039069223188576245","1031"
"20:43:20:0 (H:m:s:ms)","GENERIC","124.70400000000001","0.04525417504246608","1037"
"20:21:43:30 (H:m:s:ms)","GENERIC","124.85400000000001","0.04773619288724077","970"
"20:21:49:90 (H:m:s:ms)","GENERIC","93.143","0.0357496585913775","945"
"20:43:25:63 (H:m:s:ms)","OPERA","93.749","0.038774402792452096","937"
"20:43:26:60 (H:m:s:ms)","GENERIC","124.77199999999999","0.04081675652014285","939"
"20:21:55:151 (H:m:s:ms)","GENERIC","125.50200000000001","0.060210267509769114","850"
"20:43:32:121 (H:m:s:ms)","GENERIC","125.392","0.02067275730742636","879"
"20:22:1:212 (H:m:s:ms)","GENERIC","93.655","0.03105047149676474","787"
"20:43:32:658 (H:m:s:ms)","OPERA","62.365","0.04263800901773072","343"
"20:22:7:272 (H:m:s:ms)","GENERIC","93.199","0.04294851402591888","728"
"20:43:38:181 (H:m:s:ms)","GENERIC","93.488","0.027620853899506283","818"
"20:22:13:333 (H:m:s:ms)","GENERIC","93.56899999999999","0.028151481444318217","667"
"20:43:40:253 (H:m:s:ms)","OPERA","62.307","0.044880814942983245","747"
"20:22:19:393 (H:m:s:ms)","GENERIC","93.57900000000001","0.03126867481441942","643"
"20:43:44:242 (H:m:s:ms)","GENERIC","93.839","0.048511437910376265","758"
"20:22:25:454 (H:m:s:ms)","GENERIC","93.15","0.03677720155467236","546"
"20:43:47:848 (H:m:s:ms)","OPERA","62.394999999999996","0.05638292966914631","158"
"20:22:31:515 (H:m:s:ms)","GENERIC","93.627","0.03656766600023946","485"
"20:43:50:303 (H:m:s:ms)","GENERIC","124.144","0.049782842018277894","697"
"20:22:37:575 (H:m:s:ms)","GENERIC","93.422","0.023188356496826473","425"
"20:43:55:443 (H:m:s:ms)","OPERA","62.429","0.037904508527815864","557"
"20:22:43:636 (H:m:s:ms)","GENERIC","124.52199999999999","0.04515233616914823","363"
"20:22:49:696 (H:m:s:ms)","GENERIC","124.84700000000001","0.03146779786428715","340"
"20:43:56:363 (H:m:s:ms)","GENERIC","124.783","0.04083612764748764","636"
"20:44:2:424 (H:m:s:ms)","GENERIC","93.90299999999999","0.057947231139857946","575"
"20:22:55:757 (H:m:s:ms)","GENERIC","124.73400000000001","0.021641155430310508","243"
"20:44:8:484 (H:m:s:ms)","GENERIC","93.446","0.023580664387294777","516"
"20:23:1:818 (H:m:s:ms)","GENERIC","124.50200000000001","0.01586427753776709","182"
"20:44:10:632 (H:m:s:ms)","OPERA","62.424","0.05436686014439342","368"
"20:23:7:878 (H:m:s:ms)","GENERIC","124.944","0.030254493815324555","1122"
"20:44:14:545 (H:m:s:ms)","GENERIC","93.566","0.0527000599729867","456"
"20:23:13:939 (H:m:s:ms)","GENERIC","124.10300000000001","0.03264363240549669","1062"
"20:44:18:227 (H:m:s:ms)","OPERA","93.685","0.03852039753442814","772"
"20:23:20:0 (H:m:s:ms)","GENERIC","93.37100000000001","0.044563453436281396","1036"
"20:44:20:606 (H:m:s:ms)","GENERIC","93.50800000000001","0.05437145099068451","394"
"20:23:26:60 (H:m:s:ms)","GENERIC","93.423","0.018047133976623272","940"
"20:44:25:822 (H:m:s:ms)","OPERA","93.791","0.07371249080322473","179"
"20:23:32:121 (H:m:s:ms)","GENERIC","125.38499999999999","0.025512932830994477","879"
"20:44:26:666 (H:m:s:ms)","GENERIC","93.431","0.06681753130597953","333"
"20:23:38:181 (H:m:s:ms)","GENERIC","124.908","0.02902654794180535","819"
"20:44:32:727 (H:m:s:ms)","GENERIC","125.624","0.02338925393786881","272"
"20:23:44:242 (H:m:s:ms)","GENERIC","93.839","0.03325615156769513","759"
"20:23:50:303 (H:m:s:ms)","GENERIC","124.164","0.05429935820909862","696"
"20:44:33:417 (H:m:s:ms)","OPERA","93.712","0.04323397517232504","583"
"20:44:38:787 (H:m:s:ms)","GENERIC","93.252","0.04930328645479855","213"
"20:23:56:363 (H:m:s:ms)","GENERIC","93.437","0.03182869566051725","636"
"20:44:41:12 (H:m:s:ms)","OPERA","62.345","0.04581196313345773","988"
"20:24:2:424 (H:m:s:ms)","GENERIC","125.52","0.027717183624957238","576"
"20:44:44:848 (H:m:s:ms)","GENERIC","93.813","0.0616994094781078","152"
"20:24:8:484 (H:m:s:ms)","GENERIC","93.376","0.02810830840501125","515"
"20:44:48:607 (H:m:s:ms)","OPERA","62.339","0.059481933266133116","399"
"20:24:14:545 (H:m:s:ms)","GENERIC","93.545","0.04151094330853276","455"
"20:44:50:909 (H:m:s:ms)","GENERIC","124.93100000000001","0.04962077714554559","1091"
"20:24:20:606 (H:m:s:ms)","GENERIC","124.874","0.028217283597402644","394"
"20:44:56:202 (H:m:s:ms)","OPERA","93.732","0.04694213425768881","798"
"20:24:26:666 (H:m:s:ms)","GENERIC","93.389","0.021214045133306443","333"
"20:44:56:969 (H:m:s:ms)","GENERIC","93.633","0.030478728557910763","1032"
"20:24:32:727 (H:m:s:ms)","GENERIC","125.53","0.0498404978727123","273"
"20:45:3:30 (H:m:s:ms)","GENERIC","124.32900000000001","0.0438029967123985","969"
"20:24:38:787 (H:m:s:ms)","GENERIC","124.48400000000001","0.050571607879000204","213"
"20:45:3:797 (H:m:s:ms)","OPERA","62.359","0.06452644821146936","203"
"20:24:44:848 (H:m:s:ms)","GENERIC","125.557","0.03466750885757499","152"
"20:24:50:909 (H:m:s:ms)","GENERIC","62.498000000000005","0.061300456264102014","1103"
"20:45:9:90 (H:m:s:ms)","GENERIC","93.164","0.050962721637050415","946"
"20:45:11:392 (H:m:s:ms)","OPERA","93.82","0.05773827738477427","608"
"20:24:56:969 (H:m:s:ms)","GENERIC","93.622","0.014015945926402425","1031"
"20:45:15:151 (H:m:s:ms)","GENERIC","93.344","0.06743468543999019","849"
"20:25:3:30 (H:m:s:ms)","GENERIC","124.277","0.020351237309549283","970"
"20:45:18:987 (H:m:s:ms)","OPERA","31.008","0.07172611026740128","1049"
"20:25:9:90 (H:m:s:ms)","GENERIC","124.22300000000001","0.047993209760475546","946"
"20:45:21:212 (H:m:s:ms)","GENERIC","93.868","0.06339780399165787","790"
"20:25:15:151 (H:m:s:ms)","GENERIC","93.368","0.039883856831026354","849"
"20:45:26:582 (H:m:s:ms)","OPERA","62.342","0.06776060110708682","418"
"20:25:21:212 (H:m:s:ms)","GENERIC","124.66499999999999","0.029023690044034454","788"
"20:45:27:272 (H:m:s:ms)","GENERIC","93.516","0.05564734045045843","727"
"20:25:27:272 (H:m:s:ms)","GENERIC","62.544","0.03195512964143718","727"
"20:45:33:333 (H:m:s:ms)","GENERIC","93.557","0.028429416612981765","667"
"20:25:33:333 (H:m:s:ms)","GENERIC","124.876","0.023893500223246742","667"
"20:45:34:177 (H:m:s:ms)","OPERA","62.364000000000004","0.05417387017509228","825"
"20:25:39:393 (H:m:s:ms)","GENERIC","125.557","0.029404585347138305","643"
"20:45:39:393 (H:m:s:ms)","GENERIC","93.793","0.052769005399517274","655"
"20:25:45:454 (H:m:s:ms)","GENERIC","124.588","0.029199803097586137","546"
"20:25:51:515 (H:m:s:ms)","GENERIC","125.571","0.03755768060887386","484"
"20:25:57:575 (H:m:s:ms)","GENERIC","62.127","0.027014933500012217","425"
"20:26:3:636 (H:m:s:ms)","GENERIC","124.809","0.03434883073335585","366"
"20:26:9:696 (H:m:s:ms)","GENERIC","62.105","0.035573862088868764","337"
"20:26:15:757 (H:m:s:ms)","GENERIC","93.593","0.019502851052945677","243"
"20:26:21:818 (H:m:s:ms)","GENERIC","93.478","0.0469418601278604","181"
"20:26:27:878 (H:m:s:ms)","GENERIC","124.7","0.0400126453619241","1121"
"20:26:33:939 (H:m:s:ms)","GENERIC","93.218","0.046706199743851866","1061"
"20:26:40:0 (H:m:s:ms)","GENERIC","124.562","0.07109708072354849","1036"
"20:26:46:60 (H:m:s:ms)","GENERIC","62.107","0.04205600412537088","940"
"20:26:52:121 (H:m:s:ms)","GENERIC","124.988","0.04582862355989452","879"
"20:26:58:181 (H:m:s:ms)","GENERIC","93.27799999999999","0.04807388817375012","819"
"20:27:4:242 (H:m:s:ms)","GENERIC","93.68299999999999","0.02577536856510871","758"
"20:27:10:303 (H:m:s:ms)","GENERIC","124.999","0.02504568797662367","697"
"20:27:16:363 (H:m:s:ms)","GENERIC","93.598","0.03436299944929506","637"
"20:27:22:424 (H:m:s:ms)","GENERIC","125.51599999999999","0.04341253366268934","576"
"20:27:28:484 (H:m:s:ms)","GENERIC","93.86699999999999","0.05796466266326488","515"
"20:27:34:545 (H:m:s:ms)","GENERIC","125.154","0.045945594427158364","455"
"20:27:40:606 (H:m:s:ms)","GENERIC","125.28399999999999","0.04897028912516135","394"
"20:27:46:666 (H:m:s:ms)","GENERIC","124.16499999999999","0.04512170919737558","333"
"20:27:52:727 (H:m:s:ms)","GENERIC","93.88","0.023327903056476484","272"
"20:27:58:787 (H:m:s:ms)","GENERIC","93.506","0.04228190583755208","213"
"20:28:4:848 (H:m:s:ms)","GENERIC","124.431","0.0636883492360489","152"
"20:28:10:909 (H:m:s:ms)","GENERIC","93.525","0.013389874820013876","1091"
"20:28:16:969 (H:m:s:ms)","GENERIC","93.71000000000001","0.029812714580464958","1030"
"20:28:23:30 (H:m:s:ms)","GENERIC","93.87","0.036615661957273914","970"
"20:28:29:90 (H:m:s:ms)","GENERIC","93.13499999999999","0.04633010930812319","946"
"20:28:35:151 (H:m:s:ms)","GENERIC","93.253","0.058546706333618734","849"
"20:28:41:212 (H:m:s:ms)","GENERIC","124.921","0.022882619619306516","788"
"20:28:47:272 (H:m:s:ms)","GENERIC","124.846","0.03656297818707919","727"
"20:28:53:333 (H:m:s:ms)","GENERIC","125.501","0.049898923865540616","666"
"20:28:59:393 (H:m:s:ms)","GENERIC","125.09299999999999","0.03385222563166189","641"
"20:29:5:454 (H:m:s:ms)","GENERIC","124.38","0.03804561332494396","546"
"20:29:11:515 (H:m:s:ms)","GENERIC","124.214","0.02306336153746341","485"
"20:29:17:575 (H:m:s:ms)","GENERIC","93.172","0.036881801052201985","424"
"20:29:23:636 (H:m:s:ms)","GENERIC","93.587","0.046473107014561886","365"
"20:29:29:696 (H:m:s:ms)","GENERIC","125.226","0.03556863647104725","338"
"20:29:35:757 (H:m:s:ms)","GENERIC","124.321","0.04974098571997727","243"
"20:29:41:818 (H:m:s:ms)","GENERIC","124.907","0.04488034237668371","183"
"20:29:47:878 (H:m:s:ms)","GENERIC","93.67699999999999","0.024334054219196877","1121"
"20:29:53:939 (H:m:s:ms)","GENERIC","93.136","0.04584148781126224","1062"
"22:7:53:684 (H:m:s:ms)","AMBULANCE","62.472","0.04388067520712522","318"
"21:20:7:594 (H:m:s:ms)","OPERA","93.351","0.05392522650527265","406"
"21:20:12:121 (H:m:s:ms)","GENERIC","93.357","0.07192926958457102","879"
"21:20:15:189 (H:m:s:ms)","OPERA","124.76","0.07110176490298693","812"
"21:20:18:181 (H:m:s:ms)","GENERIC","124.658","0.062150167487796594","819"
"21:20:22:784 (H:m:s:ms)","OPERA","93.33","0.051648539885296184","215"
"21:20:24:242 (H:m:s:ms)","GENERIC","93.58500000000001","0.04209371085093764","757"
"21:20:30:303 (H:m:s:ms)","GENERIC","125.25","0.04527036388461443","697"
"21:20:30:379 (H:m:s:ms)","OPERA","93.37100000000001","0.05367167594147339","622"
"21:20:36:363 (H:m:s:ms)","GENERIC","93.15","0.04643074556295103","637"
"21:20:37:974 (H:m:s:ms)","OPERA","124.68799999999999","0.05528241668301185","1026"
"21:20:42:424 (H:m:s:ms)","GENERIC","125.15","0.0541323971658701","575"
"21:20:45:569 (H:m:s:ms)","OPERA","124.63","0.04835648408242119","431"
"21:20:48:484 (H:m:s:ms)","GENERIC","125.495","0.031021562776190663","516"
"21:20:53:164 (H:m:s:ms)","OPERA","93.398","0.04083382892470797","836"
"21:20:54:545 (H:m:s:ms)","GENERIC","125.32400000000001","0.03923959775750477","456"
"21:21:0:606 (H:m:s:ms)","GENERIC","124.869","0.030185892654738738","394"
"21:21:0:759 (H:m:s:ms)","OPERA","124.733","0.04121090518324039","242"
"21:21:6:666 (H:m:s:ms)","GENERIC","124.721","0.053662363835469816","334"
"21:21:12:727 (H:m:s:ms)","GENERIC","93.67","0.03548367650790613","272"
"21:21:15:949 (H:m:s:ms)","OPERA","93.337","0.044430193196944474","1050"
"21:32:49:696 (H:m:s:ms)","GENERIC","124.825","0.05651211263179151","338"
"21:32:37:575 (H:m:s:ms)","GENERIC","124.92","0.03830872466329695","425"
"21:32:31:515 (H:m:s:ms)","GENERIC","93.64699999999999","0.025071402315826993","485"
"21:32:25:454 (H:m:s:ms)","GENERIC","93.087","0.05594279870317074","545"
"21:32:19:393 (H:m:s:ms)","GENERIC","124.97399999999999","0.03648065638827643","643"
"21:32:13:333 (H:m:s:ms)","GENERIC","93.55799999999999","0.03893057189979196","667"
"21:32:7:272 (H:m:s:ms)","GENERIC","93.102","0.07737654487213859","727"
"21:32:6:315 (H:m:s:ms)","AMBULANCE","62.478","0.06706189189662362","686"
"21:21:18:787 (H:m:s:ms)","GENERIC","93.505","0.04002855761378935","213"
"21:32:1:212 (H:m:s:ms)","GENERIC","125.22800000000001","0.04359588549517498","788"
"21:21:23:544 (H:m:s:ms)","OPERA","124.80199999999999","0.04004738761470349","456"
"21:21:24:848 (H:m:s:ms)","GENERIC","93.85300000000001","0.04819516885954236","152"
"21:21:30:909 (H:m:s:ms)","GENERIC","125.315","0.0342959256280532","1091"
"21:21:31:139 (H:m:s:ms)","OPERA","124.798","0.04922109043780443","862"
"21:21:36:969 (H:m:s:ms)","GENERIC","93.173","0.057895287180498266","1031"
"21:21:38:734 (H:m:s:ms)","OPERA","124.737","0.06081268666258631","266"
"21:21:43:30 (H:m:s:ms)","GENERIC","124.717","0.02512129419373447","970"
"21:32:43:636 (H:m:s:ms)","GENERIC","124.488","0.04669261654057958","364"
"21:21:46:329 (H:m:s:ms)","OPERA","62.34","0.04643684001694422","671"
"21:32:37:894 (H:m:s:ms)","AMBULANCE","93.875","0.046712630352023055","109"
"21:21:49:90 (H:m:s:ms)","GENERIC","93.128","0.06196456789964566","942"
"21:33:44:242 (H:m:s:ms)","GENERIC","93.849","0.048992814328864084","759"
"21:33:41:52 (H:m:s:ms)","AMBULANCE","93.695","0.059653184362429244","997"
"21:33:32:121 (H:m:s:ms)","GENERIC","93.468","0.052155533374488826","879"
"21:33:26:60 (H:m:s:ms)","GENERIC","93.452","0.022175893115949967","940"
"21:33:20:0 (H:m:s:ms)","GENERIC","124.648","0.036256743956162886","1035"
"21:33:13:939 (H:m:s:ms)","GENERIC","93.187","0.03275700059828715","1062"
"21:33:9:473 (H:m:s:ms)","AMBULANCE","93.8","0.06118126624854565","584"
"21:33:7:878 (H:m:s:ms)","GENERIC","93.537","0.05372508856389903","1122"
"21:21:53:924 (H:m:s:ms)","OPERA","124.777","0.051918336462063175","1076"
"21:33:1:818 (H:m:s:ms)","GENERIC","124.501","0.04601354597453803","182"
"21:21:55:151 (H:m:s:ms)","GENERIC","62.504999999999995","0.03592840560830298","855"
"21:32:55:757 (H:m:s:ms)","GENERIC","93.367","0.027472430295341372","244"
"21:22:1:212 (H:m:s:ms)","GENERIC","125.09","0.04370320317406186","789"
"21:22:1:518 (H:m:s:ms)","OPERA","93.41","0.05691431946352331","483"
"21:22:7:272 (H:m:s:ms)","GENERIC","93.09","0.044589257783147096","727"
"21:22:9:113 (H:m:s:ms)","OPERA","93.364","0.05004220464833233","920"
"21:22:13:333 (H:m:s:ms)","GENERIC","93.59","0.04361957898437144","666"
"21:22:16:708 (H:m:s:ms)","OPERA","93.432","0.05186846253692842","292"
"21:22:19:393 (H:m:s:ms)","GENERIC","93.559","0.04119543488079236","641"
"21:22:24:303 (H:m:s:ms)","OPERA","93.433","0.04598830761330593","697"
"21:33:38:181 (H:m:s:ms)","GENERIC","124.939","0.050577672681749127","819"
"21:34:44:210 (H:m:s:ms)","AMBULANCE","93.96300000000001","0.02378717397645653","797"
"21:34:38:787 (H:m:s:ms)","GENERIC","124.729","0.032340978963734605","213"
"21:34:32:727 (H:m:s:ms)","GENERIC","124.831","0.04020669499368395","273"
"21:34:26:666 (H:m:s:ms)","GENERIC","124.701","0.040534155315494494","333"
"21:34:20:606 (H:m:s:ms)","GENERIC","124.969","0.04643360173181278","393"
"21:34:14:545 (H:m:s:ms)","GENERIC","93.49","0.04373281890366823","455"
"21:34:12:631 (H:m:s:ms)","AMBULANCE","62.396","0.04408813715112757","422"
"21:34:8:484 (H:m:s:ms)","GENERIC","124.696","0.033970952076877094","517"
"21:22:25:454 (H:m:s:ms)","GENERIC","124.112","0.05135876618686033","545"
"21:34:2:424 (H:m:s:ms)","GENERIC","93.811","0.04146037748294297","575"
"21:22:31:515 (H:m:s:ms)","GENERIC","125.238","0.030787646546805388","485"
"21:33:56:363 (H:m:s:ms)","GENERIC","93.454","0.02924426659771524","636"
"21:1:55:151 (H:m:s:ms)","GENERIC","125.537","0.04380069174940747","850"
"21:22:31:898 (H:m:s:ms)","OPERA","93.339","0.05198240687703693","103"
"21:33:50:303 (H:m:s:ms)","GENERIC","124.104","0.026748874585470747","696"
"21:2:1:212 (H:m:s:ms)","GENERIC","93.61","0.043932893626592556","787"
"21:22:37:575 (H:m:s:ms)","GENERIC","124.951","0.04403132031203766","425"
"21:2:6:315 (H:m:s:ms)","AMBULANCE","62.427","0.050215851694453674","733"
"21:22:39:493 (H:m:s:ms)","OPERA","124.775","0.0553036953989544","540"
"21:2:7:272 (H:m:s:ms)","GENERIC","93.144","0.056280509442484764","728"
"21:22:43:636 (H:m:s:ms)","GENERIC","93.257","0.041546627365405334","364"
"21:2:13:333 (H:m:s:ms)","GENERIC","93.609","0.03927552468194515","667"
"21:22:47:88 (H:m:s:ms)","OPERA","124.753","0.036228769180561546","912"
"21:2:19:393 (H:m:s:ms)","GENERIC","125.08500000000001","0.02953826309843455","648"
"21:22:49:696 (H:m:s:ms)","GENERIC","124.78","0.06134569740805475","337"
"21:2:25:454 (H:m:s:ms)","GENERIC","62.105","0.01675324733585384","545"
"21:22:54:683 (H:m:s:ms)","OPERA","124.72200000000001","0.07459487550010349","317"
"21:2:31:515 (H:m:s:ms)","GENERIC","93.675","0.023862930199231677","484"
"21:22:55:757 (H:m:s:ms)","GENERIC","62.037","0.055663105140721356","243"
"21:2:37:575 (H:m:s:ms)","GENERIC","124.846","0.02295700841192811","425"
"21:2:37:894 (H:m:s:ms)","AMBULANCE","62.475","0.04837189349019547","152"
"21:35:39:393 (H:m:s:ms)","GENERIC","125.476","0.021980804355702942","642"
"21:35:33:333 (H:m:s:ms)","GENERIC","124.768","0.0385931454807566","667"
"21:35:27:272 (H:m:s:ms)","GENERIC","124.97399999999999","0.04255395087834985","728"
"21:35:21:212 (H:m:s:ms)","GENERIC","124.963","0.03142692083670225","787"
"21:35:15:789 (H:m:s:ms)","AMBULANCE","93.742","0.05700997791287445","212"
"21:35:15:151 (H:m:s:ms)","GENERIC","124.52799999999999","0.05169696739371998","849"
"21:35:9:90 (H:m:s:ms)","GENERIC","93.223","0.03317026193476976","944"
"21:23:1:818 (H:m:s:ms)","GENERIC","124.518","0.059045142906313984","182"
"21:35:3:30 (H:m:s:ms)","GENERIC","93.162","0.04402704553758907","970"
"21:23:2:278 (H:m:s:ms)","OPERA","124.73","0.06490812772580373","722"
"21:34:56:969 (H:m:s:ms)","GENERIC","93.676","0.018414597834290516","1031"
"21:2:43:636 (H:m:s:ms)","GENERIC","124.50800000000001","0.05301559152501517","364"
"21:23:7:878 (H:m:s:ms)","GENERIC","93.612","0.04449702849121109","1122"
"21:34:50:909 (H:m:s:ms)","GENERIC","93.733","0.02635263617774101","1091"
"21:2:49:696 (H:m:s:ms)","GENERIC","124.775","0.048092165698085956","344"
"21:23:9:873 (H:m:s:ms)","OPERA","124.83000000000001","0.058041233687395964","160"
"21:34:44:848 (H:m:s:ms)","GENERIC","125.49199999999999","0.04798100169608751","160"
"21:2:55:757 (H:m:s:ms)","GENERIC","31.024","0.04120758239515836","297"
"21:23:13:939 (H:m:s:ms)","GENERIC","93.132","0.05295589538591955","1061"
"21:3:1:818 (H:m:s:ms)","GENERIC","93.257","0.03139695618839808","182"
"21:23:17:468 (H:m:s:ms)","OPERA","124.769","0.058193918444998924","533"
"21:3:7:878 (H:m:s:ms)","GENERIC","93.521","0.05040073899928966","1121"
"21:23:20:0 (H:m:s:ms)","GENERIC","124.66900000000001","0.05550763002989246","1033"
"21:3:9:473 (H:m:s:ms)","AMBULANCE","93.801","0.05573699780774561","569"
"21:23:25:63 (H:m:s:ms)","OPERA","124.762","0.05684808774824814","936"
"21:3:13:939 (H:m:s:ms)","GENERIC","124.17","0.036318166661407296","1061"
"21:23:26:60 (H:m:s:ms)","GENERIC","124.809","0.07645666344177665","940"
"21:3:20:0 (H:m:s:ms)","GENERIC","124.543","0.02849042583261163","1040"
"21:23:32:121 (H:m:s:ms)","GENERIC","124.97800000000001","0.04868013419746289","879"
"21:3:26:60 (H:m:s:ms)","GENERIC","124.797","0.03500241607021073","940"
"21:3:32:121 (H:m:s:ms)","GENERIC","93.78","0.027937495977916296","924"
"21:36:33:939 (H:m:s:ms)","GENERIC","124.321","0.0396821516794628","1061"
"21:36:27:878 (H:m:s:ms)","GENERIC","124.61099999999999","0.0386706956912513","1122"
"21:36:21:818 (H:m:s:ms)","GENERIC","93.507","0.0431352049105008","182"
"21:36:18:947 (H:m:s:ms)","AMBULANCE","62.498000000000005","0.04061319104169627","1106"
"21:36:15:757 (H:m:s:ms)","GENERIC","125.051","0.02415106643254008","242"
"21:36:9:696 (H:m:s:ms)","GENERIC","93.918","0.05061192109378911","336"
"21:23:32:658 (H:m:s:ms)","OPERA","93.369","0.04015910369279876","342"
"21:36:3:636 (H:m:s:ms)","GENERIC","124.827","0.039826283784471665","364"
"21:23:38:181 (H:m:s:ms)","GENERIC","124.929","0.02110672600721032","819"
"21:35:57:575 (H:m:s:ms)","GENERIC","125.648","0.022407632738208325","425"
"21:3:38:181 (H:m:s:ms)","GENERIC","124.836","0.010161581713763274","819"
"21:23:40:253 (H:m:s:ms)","OPERA","124.709","0.03528533576991892","747"
"21:35:51:515 (H:m:s:ms)","GENERIC","125.514","0.06352243770990779","485"
"21:3:41:52 (H:m:s:ms)","AMBULANCE","93.795","0.020474441505715025","950"
"21:23:44:242 (H:m:s:ms)","GENERIC","125.582","0.0421030176572447","758"
"21:35:47:368 (H:m:s:ms)","AMBULANCE","93.98400000000001","0.05161786659825792","634"
"21:3:44:242 (H:m:s:ms)","GENERIC","93.861","0.029171072249529823","758"
"21:23:47:848 (H:m:s:ms)","OPERA","93.40899999999999","0.04919054817402191","158"
"21:35:45:454 (H:m:s:ms)","GENERIC","93.38300000000001","0.04369313497770407","546"
"21:3:50:303 (H:m:s:ms)","GENERIC","124.178","0.04262874740541161","697"
"21:23:50:303 (H:m:s:ms)","GENERIC","124.107","0.04307500268463917","696"
"21:3:56:363 (H:m:s:ms)","GENERIC","124.69800000000001","0.03177190006123016","636"
"21:23:55:443 (H:m:s:ms)","OPERA","124.697","0.03444810726806303","557"
"21:4:2:424 (H:m:s:ms)","GENERIC","125.47399999999999","0.03002369474470618","576"
"21:23:56:363 (H:m:s:ms)","GENERIC","124.739","0.05488452122563278","636"
"21:4:8:484 (H:m:s:ms)","GENERIC","124.757","0.03043009522452988","516"
"21:24:2:424 (H:m:s:ms)","GENERIC","125.56","0.05798113135965345","575"
"21:4:12:631 (H:m:s:ms)","AMBULANCE","93.761","0.04089530122064338","371"
"21:24:3:37 (H:m:s:ms)","OPERA","62.335","0.0635082023053509","963"
"21:4:14:545 (H:m:s:ms)","GENERIC","124.62899999999999","0.05473566062214328","540"
"21:4:20:606 (H:m:s:ms)","GENERIC","93.48","0.035915530849794916","393"
"21:37:28:484 (H:m:s:ms)","GENERIC","93.86699999999999","0.044135116383884794","515"
"21:37:22:424 (H:m:s:ms)","GENERIC","93.836","0.05626600383210282","593"
"21:37:22:105 (H:m:s:ms)","AMBULANCE","62.47","0.031218917947694547","912"
"21:37:16:363 (H:m:s:ms)","GENERIC","125.06299999999999","0.01903894479970881","636"
"21:37:10:303 (H:m:s:ms)","GENERIC","124.976","0.045198952329647685","697"
"21:37:4:242 (H:m:s:ms)","GENERIC","125.36699999999999","0.027451281142443173","759"
"21:24:8:484 (H:m:s:ms)","GENERIC","93.374","0.04822906181726887","516"
"21:24:10:632 (H:m:s:ms)","OPERA","124.794","0.05262717894480779","368"
"21:36:58:181 (H:m:s:ms)","GENERIC","124.497","0.02727480680662675","819"
"21:4:26:666 (H:m:s:ms)","GENERIC","93.365","0.03660840545895643","333"
"21:24:14:545 (H:m:s:ms)","GENERIC","93.495","0.04990171327068909","455"
"21:36:52:121 (H:m:s:ms)","GENERIC","124.951","0.03789794203314557","878"
"21:4:32:727 (H:m:s:ms)","GENERIC","93.80699999999999","0.04928081728705401","273"
"21:24:18:227 (H:m:s:ms)","OPERA","124.719","0.04184998033733006","773"
"21:36:50:526 (H:m:s:ms)","AMBULANCE","94.018","0.04320873762256167","477"
"21:4:38:787 (H:m:s:ms)","GENERIC","124.569","0.07564669929201764","213"
"21:24:20:606 (H:m:s:ms)","GENERIC","124.905","0.04102350125852475","394"
"21:36:46:60 (H:m:s:ms)","GENERIC","124.368","0.03157156246971445","940"
"21:4:44:210 (H:m:s:ms)","AMBULANCE","62.44499999999999","0.022424221842854416","884"
"21:24:25:822 (H:m:s:ms)","OPERA","124.696","0.037930078958418274","178"
"21:36:40:0 (H:m:s:ms)","GENERIC","124.54599999999999","0.05274809872537583","1035"
"21:4:44:848 (H:m:s:ms)","GENERIC","125.499","0.06533386422513265","247"
"21:24:26:666 (H:m:s:ms)","GENERIC","93.39","0.029521339461068396","333"
"21:4:50:909 (H:m:s:ms)","GENERIC","93.478","0.04570332455912542","1091"
"21:24:32:727 (H:m:s:ms)","GENERIC","93.74199999999999","0.02080275070982698","273"
"21:4:56:969 (H:m:s:ms)","GENERIC","125.19999999999999","0.030041931782103723","1031"
"21:24:33:417 (H:m:s:ms)","OPERA","93.367","0.05658809367463113","583"
"21:5:3:30 (H:m:s:ms)","GENERIC","124.191","0.04897474865056591","969"
"21:24:38:787 (H:m:s:ms)","GENERIC","93.358","0.07040815756659718","213"
"21:5:9:90 (H:m:s:ms)","GENERIC","93.132","0.03800625490451155","949"
"21:5:15:151 (H:m:s:ms)","GENERIC","93.276","0.04353389395804405","849"
"21:38:25:263 (H:m:s:ms)","AMBULANCE","93.84299999999999","0.049699143439835766","777"
"21:38:23:30 (H:m:s:ms)","GENERIC","93.833","0.04525253563697177","970"
"21:38:16:969 (H:m:s:ms)","GENERIC","93.67","0.029367242162594964","1030"
"21:38:10:909 (H:m:s:ms)","GENERIC","124.773","0.025719893494812556","1092"
"21:38:4:848 (H:m:s:ms)","GENERIC","93.408","0.034762774228862016","154"
"21:37:58:787 (H:m:s:ms)","GENERIC","93.537","0.06612144805234639","212"
"21:37:53:684 (H:m:s:ms)","AMBULANCE","124.815","0.06149058370064814","361"
"21:24:41:12 (H:m:s:ms)","OPERA","124.623","0.051898134016446676","987"
"21:24:44:848 (H:m:s:ms)","GENERIC","125.497","0.05916132966879068","152"
"21:5:15:789 (H:m:s:ms)","AMBULANCE","62.479","0.04553876666916428","214"
"21:24:48:607 (H:m:s:ms)","OPERA","93.342","0.06451890578645489","399"
"21:5:21:212 (H:m:s:ms)","GENERIC","93.522","0.013813055506053743","787"
"21:24:50:909 (H:m:s:ms)","GENERIC","124.738","0.04750366655970046","1097"
"21:37:52:727 (H:m:s:ms)","GENERIC","62.141","0.03351451222991665","272"
"20:45:41:772 (H:m:s:ms)","OPERA","93.66499999999999","0.03383029436593349","228"
"21:5:27:272 (H:m:s:ms)","GENERIC","93.504","0.03596473231690014","727"
"21:24:56:202 (H:m:s:ms)","OPERA","93.375","0.04166768442067604","798"
"21:37:46:666 (H:m:s:ms)","GENERIC","124.316","0.051973635795617514","334"
"20:45:45:454 (H:m:s:ms)","GENERIC","93.403","0.05429444965912543","547"
"21:5:33:333 (H:m:s:ms)","GENERIC","93.49","0.05311500179792336","667"
"21:24:56:969 (H:m:s:ms)","GENERIC","125.31899999999999","0.03579834223334971","1031"
"21:37:40:606 (H:m:s:ms)","GENERIC","125.287","0.043322245099946914","394"
"20:45:49:367 (H:m:s:ms)","OPERA","62.378","0.0570950784351676","669"
"21:5:39:393 (H:m:s:ms)","GENERIC","125.46100000000001","0.022077115292054642","646"
"21:25:3:30 (H:m:s:ms)","GENERIC","124.31800000000001","0.04507134231547155","970"
"21:37:34:545 (H:m:s:ms)","GENERIC","93.622","0.047955519038451015","455"
"20:45:51:515 (H:m:s:ms)","GENERIC","93.844","0.06512930966728377","484"
"21:5:45:454 (H:m:s:ms)","GENERIC","124.653","0.037624342700773944","546"
"21:25:3:797 (H:m:s:ms)","OPERA","124.69999999999999","0.04812878363212949","204"
"20:45:56:962 (H:m:s:ms)","OPERA","93.763","0.02594786538516933","1038"
"21:5:47:368 (H:m:s:ms)","AMBULANCE","93.78999999999999","0.04683545323778916","681"
"21:25:9:90 (H:m:s:ms)","GENERIC","93.24000000000001","0.04529713329736535","945"
"20:45:57:575 (H:m:s:ms)","GENERIC","125.59800000000001","0.03876258949866874","425"
"21:5:51:515 (H:m:s:ms)","GENERIC","93.812","0.052828628620657056","485"
"21:25:11:392 (H:m:s:ms)","OPERA","93.342","0.06305760560232779","608"
"20:46:3:636 (H:m:s:ms)","GENERIC","124.794","0.034909085932765434","364"
"21:5:57:575 (H:m:s:ms)","GENERIC","125.607","0.0505619791825398","425"
"20:46:4:556 (H:m:s:ms)","OPERA","62.334","0.04110795758312278","444"
"21:6:3:636 (H:m:s:ms)","GENERIC","93.485","0.02931921842407182","364"
"20:46:9:696 (H:m:s:ms)","GENERIC","62.135","0.04658376296098339","341"
"20:46:12:151 (H:m:s:ms)","OPERA","62.44","0.056386895910970875","849"
"21:39:23:636 (H:m:s:ms)","GENERIC","93.41","0.03936781179401933","363"
"21:39:17:575 (H:m:s:ms)","GENERIC","124.854","0.0357737555374993","425"
"21:39:11:515 (H:m:s:ms)","GENERIC","93.405","0.023148521609688815","547"
"21:39:5:454 (H:m:s:ms)","GENERIC","124.42500000000001","0.041862743318491345","546"
"21:38:59:393 (H:m:s:ms)","GENERIC","93.575","0.03895276497435676","644"
"21:38:56:842 (H:m:s:ms)","AMBULANCE","62.402","0.053702088478475574","183"
"21:38:53:333 (H:m:s:ms)","GENERIC","93.82300000000001","0.04281533453929323","666"
"21:38:47:272 (H:m:s:ms)","GENERIC","93.411","0.035590666903845686","728"
"21:25:15:151 (H:m:s:ms)","GENERIC","93.283","0.05795661363608664","849"
"21:25:18:987 (H:m:s:ms)","OPERA","124.735","0.04307921591080854","1047"
"21:6:9:696 (H:m:s:ms)","GENERIC","93.92","0.044522063272918654","341"
"21:25:21:212 (H:m:s:ms)","GENERIC","124.969","0.03839936544682637","788"
"21:6:15:757 (H:m:s:ms)","GENERIC","125.025","0.027536336708916104","242"
"21:25:26:582 (H:m:s:ms)","OPERA","62.013","0.04865307008983263","418"
"20:46:15:757 (H:m:s:ms)","GENERIC","125.005","0.04858194979461012","242"
"21:6:18:947 (H:m:s:ms)","AMBULANCE","62.397999999999996","0.05643155499283358","1095"
"21:25:27:272 (H:m:s:ms)","GENERIC","125.006","0.0628110209941771","728"
"20:46:19:746 (H:m:s:ms)","OPERA","62.363","0.043691674840533344","291"
"21:6:21:818 (H:m:s:ms)","GENERIC","93.563","0.053713659625803864","181"
"21:25:33:333 (H:m:s:ms)","GENERIC","124.81","0.02736859171898326","667"
"21:38:41:212 (H:m:s:ms)","GENERIC","93.55799999999999","0.022604350387246733","788"
"20:46:21:818 (H:m:s:ms)","GENERIC","124.994","0.04742597911268518","182"
"21:6:27:878 (H:m:s:ms)","GENERIC","124.66","0.022171473884041164","1122"
"21:25:34:177 (H:m:s:ms)","OPERA","124.785","0.04134316124034543","824"
"21:38:35:151 (H:m:s:ms)","GENERIC","93.64099999999999","0.052876127307761825","929"
"20:46:27:341 (H:m:s:ms)","OPERA","62.359","0.05372340203795567","659"
"21:6:33:939 (H:m:s:ms)","GENERIC","93.271","0.03173580901311276","1061"
"21:25:39:393 (H:m:s:ms)","GENERIC","62.089","0.048902814182333346","641"
"21:38:29:90 (H:m:s:ms)","GENERIC","124.136","0.038460418453742866","947"
"20:46:27:878 (H:m:s:ms)","GENERIC","93.399","0.07386389353328383","1122"
"21:6:40:0 (H:m:s:ms)","GENERIC","124.615","0.04449742484092982","1040"
"21:25:41:772 (H:m:s:ms)","OPERA","124.768","0.048716751404059885","227"
"20:46:33:939 (H:m:s:ms)","GENERIC","124.27099999999999","0.026535448140252684","1061"
"21:6:46:60 (H:m:s:ms)","GENERIC","93.259","0.05127656217067959","939"
"21:25:45:454 (H:m:s:ms)","GENERIC","124.655","0.0603680943409612","545"
"20:46:34:936 (H:m:s:ms)","OPERA","93.757","0.055338114403669494","1065"
"21:6:50:526 (H:m:s:ms)","AMBULANCE","93.746","0.056224213876657624","477"
"20:46:40:0 (H:m:s:ms)","GENERIC","93.33500000000001","0.06172578518731414","1037"
"21:6:52:121 (H:m:s:ms)","GENERIC","125.0","0.038438239364399884","878"
"20:46:42:531 (H:m:s:ms)","OPERA","62.367000000000004","0.04382365953494795","468"
"20:46:46:60 (H:m:s:ms)","GENERIC","124.456","0.059512198977928955","940"
"21:39:35:757 (H:m:s:ms)","GENERIC","93.185","0.027081980985094515","243"
"21:40:12:121 (H:m:s:ms)","GENERIC","124.70400000000001","0.029884665874101518","879"
"21:40:6:60 (H:m:s:ms)","GENERIC","125.134","0.045817124735875285","939"
"21:40:0:0 (H:m:s:ms)","GENERIC","124.90899999999999","0.0526975542442451","2240"
"21:40:0:0 (H:m:s:ms)","GENERIC","93.508","0.04418282596488587","2240"
"21:40:0:0 (H:m:s:ms)","AMBULANCE","62.425","0.03551890661475009","2239"
"21:39:53:939 (H:m:s:ms)","GENERIC","93.134","0.036803297260159885","1061"
"21:39:47:878 (H:m:s:ms)","GENERIC","93.67099999999999","0.03436018145701928","1122"
"21:39:41:818 (H:m:s:ms)","GENERIC","93.513","0.046190899551690305","182"
"21:6:58:181 (H:m:s:ms)","GENERIC","124.516","0.0370039747953422","819"
"21:7:4:242 (H:m:s:ms)","GENERIC","125.274","0.027816064449985176","758"
"20:46:50:126 (H:m:s:ms)","OPERA","93.69800000000001","0.07088373207618481","880"
"21:7:10:303 (H:m:s:ms)","GENERIC","124.969","0.029302437549982383","697"
"20:46:52:121 (H:m:s:ms)","GENERIC","124.989","0.04990557411114994","879"
"21:7:16:363 (H:m:s:ms)","GENERIC","93.64","0.03860107158251476","637"
"20:46:57:721 (H:m:s:ms)","OPERA","62.34","0.029588752555627932","279"
"21:7:22:105 (H:m:s:ms)","AMBULANCE","62.479","0.03829441064551136","897"
"20:46:58:181 (H:m:s:ms)","GENERIC","124.589","0.04132247605118716","818"
"21:7:22:424 (H:m:s:ms)","GENERIC","125.592","0.04465853301052412","579"
"21:39:29:696 (H:m:s:ms)","GENERIC","93.535","0.04051630449209198","340"
"20:47:4:242 (H:m:s:ms)","GENERIC","125.34100000000001","0.02706669544124871","758"
"21:7:28:484 (H:m:s:ms)","GENERIC","62.097","0.04368685379213614","515"
"21:39:28:421 (H:m:s:ms)","AMBULANCE","62.381","0.0480521267885834","601"
"20:47:5:316 (H:m:s:ms)","OPERA","93.779","0.054073006038509744","684"
"21:7:34:545 (H:m:s:ms)","GENERIC","125.131","0.04176216881930081","455"
"20:47:10:303 (H:m:s:ms)","GENERIC","93.59299999999999","0.06502714274117644","697"
"21:7:40:606 (H:m:s:ms)","GENERIC","125.233","0.023434681124419668","394"
"20:47:16:363 (H:m:s:ms)","GENERIC","125.156","0.04160758895735303","637"
"21:7:46:666 (H:m:s:ms)","GENERIC","93.172","0.0337561136396135","334"
"20:47:20:506 (H:m:s:ms)","OPERA","93.767","0.05258215932501556","493"
"20:47:22:424 (H:m:s:ms)","GENERIC","62.071","0.05393851854554653","576"
"21:7:52:727 (H:m:s:ms)","GENERIC","93.843","0.029791561563877106","272"
"21:7:53:684 (H:m:s:ms)","AMBULANCE","93.82900000000001","0.03982792913892003","318"
"20:47:28:101 (H:m:s:ms)","OPERA","62.359","0.03478312884511407","899"
"21:7:58:787 (H:m:s:ms)","GENERIC","125.055","0.056393119979935624","212"
"20:47:28:484 (H:m:s:ms)","GENERIC","125.59700000000001","0.05799259356734687","516"
"21:8:4:848 (H:m:s:ms)","GENERIC","93.557","0.030320142977931938","337"
"20:47:34:545 (H:m:s:ms)","GENERIC","125.196","0.027639037602369004","456"
"21:8:10:909 (H:m:s:ms)","GENERIC","124.786","0.018633827650698643","1091"
"20:47:35:696 (H:m:s:ms)","OPERA","62.431","0.04499698585420879","310"
"21:8:16:969 (H:m:s:ms)","GENERIC","125.20599999999999","0.030759906726469513","1031"
"20:47:40:606 (H:m:s:ms)","GENERIC","93.59400000000001","0.04680337859983149","394"
"21:8:23:30 (H:m:s:ms)","GENERIC","93.83","0.046310485402683406","970"
"20:47:43:291 (H:m:s:ms)","OPERA","93.76400000000001","0.03799836541411635","709"
"21:8:25:263 (H:m:s:ms)","AMBULANCE","62.419","0.05621122771415412","740"
"21:40:18:181 (H:m:s:ms)","GENERIC","124.612","0.024379106888906404","819"
"20:47:46:666 (H:m:s:ms)","GENERIC","93.097","0.04368193176025572","334"
"21:8:29:90 (H:m:s:ms)","GENERIC","124.24100000000001","0.040175852180267826","947"
"20:47:50:886 (H:m:s:ms)","OPERA","93.653","0.047324422968732335","114"
"21:8:35:151 (H:m:s:ms)","GENERIC","124.519","0.023123544578818267","849"
"20:47:52:727 (H:m:s:ms)","GENERIC","125.614","0.04548546789359275","272"
"20:47:58:481 (H:m:s:ms)","OPERA","62.354","0.02592980184148249","518"
"21:8:41:212 (H:m:s:ms)","GENERIC","93.47999999999999","0.028155037322931592","788"
"21:8:47:272 (H:m:s:ms)","GENERIC","124.858","0.025758647395574954","728"
"20:47:58:787 (H:m:s:ms)","GENERIC","125.002","0.039495489684459456","213"
"21:8:53:333 (H:m:s:ms)","GENERIC","125.65700000000001","0.02861734413684329","667"
"20:48:4:848 (H:m:s:ms)","GENERIC","93.576","0.042568133836141976","284"
"21:8:56:842 (H:m:s:ms)","AMBULANCE","62.449","0.04675040155155665","160"
"20:30:0:0 (H:m:s:ms)","GENERIC","124.819","0.03532713749995917","1036"
"20:48:6:75 (H:m:s:ms)","OPERA","62.358000000000004","0.04928516688169213","925"
"21:8:59:393 (H:m:s:ms)","GENERIC","124.971","0.06180358915406433","645"
"20:30:0:0 (H:m:s:ms)","GENERIC","93.442","0.048221731637619725","1037"
"20:48:10:909 (H:m:s:ms)","GENERIC","93.53","0.049529136567047986","1091"
"21:9:5:454 (H:m:s:ms)","GENERIC","124.343","0.02961026833025337","546"
"20:30:6:60 (H:m:s:ms)","GENERIC","124.97399999999999","0.04566089823559712","940"
"20:48:13:670 (H:m:s:ms)","OPERA","62.43","0.05017862205595005","330"
"21:9:11:515 (H:m:s:ms)","GENERIC","124.215","0.018152109893369957","485"
"20:30:12:121 (H:m:s:ms)","GENERIC","93.38300000000001","0.029910675247240285","879"
"20:48:16:969 (H:m:s:ms)","GENERIC","93.669","0.05856453384929739","1031"
"21:9:17:575 (H:m:s:ms)","GENERIC","62.419","0.03453356385291981","432"
"20:30:18:181 (H:m:s:ms)","GENERIC","124.669","0.026637397719677963","818"
"20:48:21:265 (H:m:s:ms)","OPERA","62.333","0.057602777164797704","735"
"21:9:23:636 (H:m:s:ms)","GENERIC","93.705","0.01764327414463158","364"
"20:30:24:242 (H:m:s:ms)","GENERIC","93.42099999999999","0.03207416657666996","798"
"20:48:23:30 (H:m:s:ms)","GENERIC","93.826","0.049008128220215545","969"
"21:9:28:421 (H:m:s:ms)","AMBULANCE","62.39","0.041676360507237435","581"
"20:30:30:303 (H:m:s:ms)","GENERIC","125.261","0.026552652462818273","696"
"20:48:28:860 (H:m:s:ms)","OPERA","93.648","0.047979975952367575","140"
"20:30:36:363 (H:m:s:ms)","GENERIC","93.06","0.015565390133201329","636"
"20:48:29:90 (H:m:s:ms)","GENERIC","124.213","0.03529598703986125","950"
"20:30:42:424 (H:m:s:ms)","GENERIC","93.571","0.027095677257274076","576"
"20:30:48:484 (H:m:s:ms)","GENERIC","125.424","0.046202310414091154","516"
"21:9:29:696 (H:m:s:ms)","GENERIC","93.503","0.041052051028441824","341"
"21:9:35:757 (H:m:s:ms)","GENERIC","124.333","0.06121028269134004","243"
"20:48:35:151 (H:m:s:ms)","GENERIC","124.535","0.05244952049000605","848"
"21:9:41:818 (H:m:s:ms)","GENERIC","124.919","0.0597033717989671","182"
"20:48:36:455 (H:m:s:ms)","OPERA","62.337999999999994","0.062299925893331325","546"
"21:9:47:878 (H:m:s:ms)","GENERIC","62.091","0.018323538921540865","1121"
"20:30:54:545 (H:m:s:ms)","GENERIC","93.66499999999999","0.02402164688081982","455"
"20:48:41:212 (H:m:s:ms)","GENERIC","62.039","0.04285753074927543","788"
"21:9:53:939 (H:m:s:ms)","GENERIC","124.283","0.03780216434011784","1061"
"20:31:0:606 (H:m:s:ms)","GENERIC","124.776","0.046766622523310396","393"
"20:48:44:50 (H:m:s:ms)","OPERA","93.73","0.031831026736457005","950"
"21:10:0:0 (H:m:s:ms)","AMBULANCE","62.42","0.022124491611535114","1041"
"20:31:6:666 (H:m:s:ms)","GENERIC","93.363","0.045996822390059665","334"
"20:48:47:272 (H:m:s:ms)","GENERIC","93.429","0.03597092616480067","727"
"21:10:0:0 (H:m:s:ms)","GENERIC","93.386","0.044378990906972816","1042"
"20:31:12:727 (H:m:s:ms)","GENERIC","125.167","0.022248969705119942","273"
"20:48:51:645 (H:m:s:ms)","OPERA","62.399","0.03824170056632747","355"
"21:10:0:0 (H:m:s:ms)","GENERIC","124.91499999999999","0.06620895478744498","1043"
"20:31:18:787 (H:m:s:ms)","GENERIC","93.543","0.039793066313104794","212"
"20:48:53:333 (H:m:s:ms)","GENERIC","125.572","0.04311705916908946","666"
"21:10:6:60 (H:m:s:ms)","GENERIC","124.981","0.046179164618603434","940"
"20:31:24:848 (H:m:s:ms)","GENERIC","93.88","0.05032293486921734","151"
"20:48:59:240 (H:m:s:ms)","OPERA","93.693","0.036921498492617555","798"
"21:10:12:121 (H:m:s:ms)","GENERIC","93.348","0.023863275942963145","879"
"20:31:30:909 (H:m:s:ms)","GENERIC","93.701","0.027646067837846528","1091"
"20:48:59:393 (H:m:s:ms)","GENERIC","93.589","0.060616079496737904","645"
"20:31:36:969 (H:m:s:ms)","GENERIC","124.362","0.0770301834960892","1030"
"20:49:5:454 (H:m:s:ms)","GENERIC","124.405","0.018266255158510818","545"
"20:31:43:30 (H:m:s:ms)","GENERIC","124.656","0.030565774893345353","970"
"20:31:49:90 (H:m:s:ms)","GENERIC","93.121","0.04584012670768968","945"
"20:49:6:835 (H:m:s:ms)","OPERA","93.724","0.032844624796583066","166"
"20:49:11:515 (H:m:s:ms)","GENERIC","93.12899999999999","0.04213101903771357","485"
"20:31:55:151 (H:m:s:ms)","GENERIC","62.129","0.04760952285695232","849"
"20:49:14:430 (H:m:s:ms)","OPERA","62.334","0.051317440833798016","570"
"20:32:1:212 (H:m:s:ms)","GENERIC","93.643","0.03162881402150522","788"
"20:49:17:575 (H:m:s:ms)","GENERIC","124.20400000000001","0.049610737797312884","425"
"20:32:7:272 (H:m:s:ms)","GENERIC","124.291","0.07056047285650556","727"
"20:49:22:25 (H:m:s:ms)","OPERA","93.69200000000001","0.03441845655914888","975"
"20:32:13:333 (H:m:s:ms)","GENERIC","125.137","0.03468582116042744","667"
"20:49:23:636 (H:m:s:ms)","GENERIC","125.031","0.02497759530059361","364"
"20:32:19:393 (H:m:s:ms)","GENERIC","93.642","0.04529808879332734","642"
"20:49:29:620 (H:m:s:ms)","OPERA","93.69","0.042877686339920264","418"
"20:32:25:454 (H:m:s:ms)","GENERIC","93.125","0.03980889545614639","546"
"20:49:29:696 (H:m:s:ms)","GENERIC","93.46000000000001","0.05052934655006031","358"
"20:32:31:515 (H:m:s:ms)","GENERIC","125.178","0.022372718883364524","485"
"20:49:35:757 (H:m:s:ms)","GENERIC","124.287","0.04305917288016519","243"
"20:32:37:575 (H:m:s:ms)","GENERIC","125.003","0.02654383394931613","425"
"20:49:37:215 (H:m:s:ms)","OPERA","62.432","0.05216506983494665","785"
"20:32:43:636 (H:m:s:ms)","GENERIC","124.37899999999999","0.03245065895767748","364"
"20:32:49:696 (H:m:s:ms)","GENERIC","124.84299999999999","0.05193461550476504","340"
"20:49:41:818 (H:m:s:ms)","GENERIC","62.503","0.04087936603493025","182"
"20:49:44:810 (H:m:s:ms)","OPERA","93.688","0.03922303095391095","190"
"20:32:55:757 (H:m:s:ms)","GENERIC","124.745","0.02432319112802338","243"
"20:49:47:878 (H:m:s:ms)","GENERIC","125.352","0.03484257972819511","1122"
"20:33:1:818 (H:m:s:ms)","GENERIC","124.501","0.032481870329115266","182"
"20:49:52:405 (H:m:s:ms)","OPERA","93.696","0.031661134904291385","595"
"20:33:7:878 (H:m:s:ms)","GENERIC","124.96799999999999","0.04292473493340759","1122"
"20:49:53:939 (H:m:s:ms)","GENERIC","124.27000000000001","0.052914980589243564","1061"
"20:33:13:939 (H:m:s:ms)","GENERIC","124.138","0.03368100732665007","1061"
"20:50:0:0 (H:m:s:ms)","OPERA","62.437","0.058057962819296476","1042"
"20:33:20:0 (H:m:s:ms)","GENERIC","124.642","0.035114630666930664","1036"
"20:50:0:0 (H:m:s:ms)","GENERIC","124.84","0.01766687298409269","1039"
"20:33:26:60 (H:m:s:ms)","GENERIC","124.727","0.02239310142563457","940"
"20:50:0:0 (H:m:s:ms)","GENERIC","93.369","0.030985775538644483","1040"
"20:33:32:121 (H:m:s:ms)","GENERIC","93.702","0.030650251624181193","879"
"20:50:6:60 (H:m:s:ms)","GENERIC","124.983","0.0312270673112438","940"
"20:33:38:181 (H:m:s:ms)","GENERIC","124.894","0.03389017930970673","819"
"20:50:12:121 (H:m:s:ms)","GENERIC","124.73500000000001","0.018631375372435952","879"
"20:33:44:242 (H:m:s:ms)","GENERIC","93.827","0.02363268642054578","758"
"20:33:50:303 (H:m:s:ms)","GENERIC","124.139","0.04543199280986124","696"
"20:50:18:181 (H:m:s:ms)","GENERIC","93.333","0.046047951649983265","819"
"20:50:24:242 (H:m:s:ms)","GENERIC","93.454","0.04618766123595551","759"
"20:33:56:363 (H:m:s:ms)","GENERIC","93.458","0.02886719383941158","637"
"20:50:30:303 (H:m:s:ms)","GENERIC","125.22","0.03607149447307471","696"
"20:34:2:424 (H:m:s:ms)","GENERIC","125.457","0.022179018409438304","576"
"20:50:36:363 (H:m:s:ms)","GENERIC","62.045","0.041142536787773736","636"
"20:10:0:0 (H:m:s:ms)","GENERIC","93.871","0.03125040245703341","1001"
"20:34:8:484 (H:m:s:ms)","GENERIC","124.715","0.01782132840651337","516"
"20:50:42:424 (H:m:s:ms)","GENERIC","93.554","0.051807453607362934","576"
"20:10:0:0 (H:m:s:ms)","GENERIC","124.861","0.03859267364433346","1039"
"20:34:14:545 (H:m:s:ms)","GENERIC","93.55499999999999","0.02764593941564777","456"
"20:50:48:484 (H:m:s:ms)","GENERIC","93.81","0.03038037666027645","516"
"20:10:6:60 (H:m:s:ms)","GENERIC","125.164","0.030991223800194586","940"
"20:34:20:606 (H:m:s:ms)","GENERIC","124.95500000000001","0.04482109202330668","394"
"20:50:54:545 (H:m:s:ms)","GENERIC","93.686","0.03574626626372497","455"
"20:10:12:121 (H:m:s:ms)","GENERIC","124.694","0.02430126350335938","879"
"20:34:26:666 (H:m:s:ms)","GENERIC","124.738","0.024082307908699075","333"
"20:51:0:606 (H:m:s:ms)","GENERIC","124.792","0.03553427798695102","394"
"20:10:18:181 (H:m:s:ms)","GENERIC","124.628","0.04819041069967769","818"
"20:34:32:727 (H:m:s:ms)","GENERIC","125.543","0.03515751698077733","272"
"20:51:6:666 (H:m:s:ms)","GENERIC","124.633","0.02311054292892534","334"
"20:10:24:242 (H:m:s:ms)","GENERIC","124.911","0.03013651597395868","759"
"20:34:38:787 (H:m:s:ms)","GENERIC","93.371","0.02755214960818664","212"
"20:51:12:727 (H:m:s:ms)","GENERIC","125.237","0.03820587084232258","273"
"20:10:30:303 (H:m:s:ms)","GENERIC","125.233","0.015016053505279976","697"
"20:34:44:848 (H:m:s:ms)","GENERIC","93.812","0.028318876364142525","153"
"20:10:36:363 (H:m:s:ms)","GENERIC","124.139","0.0360090292530866","637"
"20:34:50:909 (H:m:s:ms)","GENERIC","93.474","0.038465139030030036","1091"
"20:10:42:424 (H:m:s:ms)","GENERIC","124.98400000000001","0.03221274242697593","576"
"20:10:48:484 (H:m:s:ms)","GENERIC","125.503","0.03754881014699213","517"
"20:51:18:787 (H:m:s:ms)","GENERIC","93.521","0.04100625012344081","213"
"20:51:24:848 (H:m:s:ms)","GENERIC","62.103","0.023669329664401776","152"
"20:34:56:969 (H:m:s:ms)","GENERIC","125.242","0.027210626828418887","1031"
"20:51:30:909 (H:m:s:ms)","GENERIC","125.279","0.024695901268521385","1091"
"20:35:3:30 (H:m:s:ms)","GENERIC","124.32","0.05341557897401525","970"
"20:51:36:969 (H:m:s:ms)","GENERIC","93.17699999999999","0.028406296363797327","1031"
"20:10:54:545 (H:m:s:ms)","GENERIC","125.293","0.025568637791412677","456"
"20:35:9:90 (H:m:s:ms)","GENERIC","124.219","0.04504200069743233","945"
"20:51:43:30 (H:m:s:ms)","GENERIC","93.44","0.055290280771415","970"
"20:11:0:606 (H:m:s:ms)","GENERIC","124.762","0.03194234933306463","394"
"20:35:15:151 (H:m:s:ms)","GENERIC","93.3","0.05198621577415448","849"
"20:51:49:90 (H:m:s:ms)","GENERIC","93.143","0.03976361464769365","949"
"20:11:6:666 (H:m:s:ms)","GENERIC","124.626","0.040415206896351516","334"
"20:35:21:212 (H:m:s:ms)","GENERIC","93.539","0.023105677571696133","791"
"20:51:55:151 (H:m:s:ms)","GENERIC","125.548","0.059901461464574444","849"
"20:11:12:727 (H:m:s:ms)","GENERIC","93.67","0.030958071969167982","273"
"20:35:27:272 (H:m:s:ms)","GENERIC","93.538","0.03154002585245075","727"
"20:52:1:212 (H:m:s:ms)","GENERIC","125.19200000000001","0.03398394726696208","789"
"20:11:18:787 (H:m:s:ms)","GENERIC","124.997","0.0226431954304606","213"
"20:35:33:333 (H:m:s:ms)","GENERIC","124.872","0.061230178901959816","667"
"20:52:7:272 (H:m:s:ms)","GENERIC","93.12","0.05105731783116188","728"
"20:11:24:848 (H:m:s:ms)","GENERIC","93.89","0.045282213258259145","152"
"20:35:39:393 (H:m:s:ms)","GENERIC","93.793","0.027019347917325066","643"
"20:52:13:333 (H:m:s:ms)","GENERIC","93.60900000000001","0.03154084295258818","667"
"20:11:30:909 (H:m:s:ms)","GENERIC","125.36699999999999","0.04369418819247503","1091"
"20:35:45:454 (H:m:s:ms)","GENERIC","93.352","0.040827148215296545","546"
"20:11:36:969 (H:m:s:ms)","GENERIC","124.412","0.04416459920200392","1031"
"20:35:51:515 (H:m:s:ms)","GENERIC","93.82499999999999","0.04160660838644652","485"
"20:11:43:30 (H:m:s:ms)","GENERIC","93.417","0.041930150012095914","970"
"20:11:49:90 (H:m:s:ms)","GENERIC","93.117","0.027590858194447523","944"
"20:0:54:545 (H:m:s:ms)","GENERIC","94.266","0.04421368867602346","456"
"20:1:0:606 (H:m:s:ms)","GENERIC","93.761","0.04165358016685292","394"
"20:1:6:666 (H:m:s:ms)","GENERIC","62.423","0.0359386745961516","334"
"20:1:12:727 (H:m:s:ms)","GENERIC","94.041","0.04413737970527176","272"
"20:1:18:787 (H:m:s:ms)","GENERIC","93.924","0.022227705682622563","213"
"20:1:24:848 (H:m:s:ms)","GENERIC","62.829","0.030239662622420442","152"
"20:1:30:909 (H:m:s:ms)","GENERIC","94.167","0.029099520608035084","1091"
"20:1:36:969 (H:m:s:ms)","GENERIC","93.30799999999999","0.047958695486239156","1031"
"20:1:43:30 (H:m:s:ms)","GENERIC","93.779","0.0283751482131712","970"
"20:1:49:90 (H:m:s:ms)","GENERIC","93.137","0.03984519529715376","924"
"20:35:57:575 (H:m:s:ms)","GENERIC","93.872","0.04381523408575407","424"
"20:36:3:636 (H:m:s:ms)","GENERIC","62.425","0.03459865715596797","365"
"20:11:55:151 (H:m:s:ms)","GENERIC","125.493","0.04523710548884805","849"
"20:36:9:696 (H:m:s:ms)","GENERIC","62.119","0.029855485326048696","339"
"20:12:1:212 (H:m:s:ms)","GENERIC","125.20400000000001","0.03225591354717962","788"
"20:36:15:757 (H:m:s:ms)","GENERIC","125.135","0.025513366229583934","243"
"20:12:7:272 (H:m:s:ms)","GENERIC","124.207","0.06363712762371909","728"
"20:36:21:818 (H:m:s:ms)","GENERIC","124.944","0.049472970046544565","181"
"20:12:13:333 (H:m:s:ms)","GENERIC","125.19200000000001","0.03897843624420896","667"
"20:36:27:878 (H:m:s:ms)","GENERIC","124.638","0.02104107531919115","1122"
"20:12:19:393 (H:m:s:ms)","GENERIC","125.03","0.021917873539414687","641"
"20:36:33:939 (H:m:s:ms)","GENERIC","124.372","0.0555424978340823","1061"
"20:12:25:454 (H:m:s:ms)","GENERIC","93.113","0.05748297762568563","546"
"20:36:40:0 (H:m:s:ms)","GENERIC","124.61699999999999","0.05035431017304382","1036"
"20:12:31:515 (H:m:s:ms)","GENERIC","125.089","0.02530729607448374","484"
"20:36:46:60 (H:m:s:ms)","GENERIC","124.453","0.02893425014352104","940"
"20:12:37:575 (H:m:s:ms)","GENERIC","93.43900000000001","0.027455761436890994","425"
"20:36:52:121 (H:m:s:ms)","GENERIC","124.993","0.0293531884946003","879"
"20:12:43:636 (H:m:s:ms)","GENERIC","124.42699999999999","0.03551574229999302","364"
"20:12:49:696 (H:m:s:ms)","GENERIC","93.44999999999999","0.05016523065622148","339"
"20:1:55:151 (H:m:s:ms)","GENERIC","94.536","0.0579270004348353","848"
"20:2:1:212 (H:m:s:ms)","GENERIC","94.229","0.04631649985522183","788"
"20:2:7:272 (H:m:s:ms)","GENERIC","93.248","0.038128864926662696","728"
"20:2:13:333 (H:m:s:ms)","GENERIC","94.06","0.05891826430033625","667"
"20:2:19:393 (H:m:s:ms)","GENERIC","62.488","0.028438307757465208","623"
"20:2:25:454 (H:m:s:ms)","GENERIC","93.178","0.03614822761008087","546"
"20:2:31:515 (H:m:s:ms)","GENERIC","31.03","0.041689450766257706","485"
"20:2:37:575 (H:m:s:ms)","GENERIC","93.757","0.0299735562578514","425"
"20:2:43:636 (H:m:s:ms)","GENERIC","93.46600000000001","0.06414116001107807","364"
"20:2:49:696 (H:m:s:ms)","GENERIC","62.441","0.034622722286334146","319"
"20:36:58:181 (H:m:s:ms)","GENERIC","124.583","0.04726682944316891","819"
"20:37:4:242 (H:m:s:ms)","GENERIC","125.207","0.04380522679544817","759"
"20:12:55:757 (H:m:s:ms)","GENERIC","93.405","0.019194003580285997","242"
"20:37:10:303 (H:m:s:ms)","GENERIC","124.984","0.0293053993879699","697"
"20:13:1:818 (H:m:s:ms)","GENERIC","124.584","0.02947385322567648","182"
"20:37:16:363 (H:m:s:ms)","GENERIC","93.596","0.05942629946377448","637"
"20:13:7:878 (H:m:s:ms)","GENERIC","93.46799999999999","0.023519496109615005","1122"
"20:37:22:424 (H:m:s:ms)","GENERIC","93.781","0.04315633265988651","576"
"20:13:13:939 (H:m:s:ms)","GENERIC","93.091","0.03785422363784611","1061"
"20:37:28:484 (H:m:s:ms)","GENERIC","93.869","0.043285368050736066","515"
"20:13:20:0 (H:m:s:ms)","GENERIC","124.625","0.03768911752874439","1037"
"20:37:34:545 (H:m:s:ms)","GENERIC","93.675","0.0423631466605959","455"
"20:13:26:60 (H:m:s:ms)","GENERIC","93.447","0.051192034483548095","940"
"20:37:40:606 (H:m:s:ms)","GENERIC","93.613","0.033571012838195025","393"
"20:13:32:121 (H:m:s:ms)","GENERIC","93.729","0.02802491131954282","879"
"20:37:46:666 (H:m:s:ms)","GENERIC","93.065","0.016666614839179132","333"
"20:13:38:181 (H:m:s:ms)","GENERIC","124.842","0.0116761531465916","820"
"20:37:52:727 (H:m:s:ms)","GENERIC","62.123","0.04151171557535575","272"
"20:13:44:242 (H:m:s:ms)","GENERIC","93.831","0.046127352812828606","757"
"20:13:50:303 (H:m:s:ms)","GENERIC","93.111","0.05126258327156048","696"
"20:2:55:757 (H:m:s:ms)","GENERIC","93.763","0.04441551820952442","243"
"20:3:1:818 (H:m:s:ms)","GENERIC","93.413","0.041664646805193994","182"
"20:3:7:878 (H:m:s:ms)","GENERIC","94.024","0.02359689403600389","122"
"20:3:13:939 (H:m:s:ms)","GENERIC","93.149","0.03302866458164016","1061"
"20:3:20:0 (H:m:s:ms)","GENERIC","93.568","0.02378254739502767","1000"
"20:3:26:60 (H:m:s:ms)","GENERIC","62.338","0.04692651488881501","940"
"20:3:32:121 (H:m:s:ms)","GENERIC","94.275","0.04275606104117845","879"
"20:3:38:181 (H:m:s:ms)","GENERIC","93.93","0.03387693191591186","820"
"20:3:44:242 (H:m:s:ms)","GENERIC","94.518","0.05229182466271073","758"
"20:3:50:303 (H:m:s:ms)","GENERIC","62.144","0.03347591920506127","697"
"20:37:58:787 (H:m:s:ms)","GENERIC","124.976","0.046501996212283875","213"
"20:38:4:848 (H:m:s:ms)","GENERIC","93.243","0.023971521972845643","152"
"20:13:56:363 (H:m:s:ms)","GENERIC","124.87100000000001","0.037286575377090826","636"
"20:38:10:909 (H:m:s:ms)","GENERIC","93.486","0.037811252006086954","1090"
"20:14:2:424 (H:m:s:ms)","GENERIC","125.481","0.029485818452582028","576"
"20:38:16:969 (H:m:s:ms)","GENERIC","125.262","0.0521203045546702","1030"
"20:14:8:484 (H:m:s:ms)","GENERIC","124.80199999999999","0.04544650568815913","516"
"20:38:23:30 (H:m:s:ms)","GENERIC","93.832","0.03253547245012139","970"
"20:14:14:545 (H:m:s:ms)","GENERIC","93.547","0.028172947155233646","455"
"20:38:29:90 (H:m:s:ms)","GENERIC","124.219","0.04326324119817798","946"
"20:14:20:606 (H:m:s:ms)","GENERIC","93.454","0.04754104004996617","394"
"20:38:35:151 (H:m:s:ms)","GENERIC","93.293","0.041482217120519846","848"
"20:14:26:666 (H:m:s:ms)","GENERIC","124.73599999999999","0.020550163326997866","333"
"20:38:41:212 (H:m:s:ms)","GENERIC","124.935","0.03226803978125609","788"
"20:14:32:727 (H:m:s:ms)","GENERIC","93.802","0.0459984764847581","272"
"20:38:47:272 (H:m:s:ms)","GENERIC","93.441","0.029159210573258175","727"
"20:14:38:787 (H:m:s:ms)","GENERIC","124.56700000000001","0.055255352392108756","213"
"20:38:53:333 (H:m:s:ms)","GENERIC","125.57300000000001","0.04432011819732894","667"
"20:14:44:848 (H:m:s:ms)","GENERIC","125.555","0.03926003931254401","153"
"20:14:50:909 (H:m:s:ms)","GENERIC","93.55600000000001","0.024465525913581136","1170"
"20:3:56:363 (H:m:s:ms)","GENERIC","93.799","0.033679685143628554","637"
"20:4:2:424 (H:m:s:ms)","GENERIC","62.736000000000004","0.020113597326884548","575"
"20:4:8:484 (H:m:s:ms)","GENERIC","93.627","0.049525962738621386","516"
"20:4:14:545 (H:m:s:ms)","GENERIC","62.480999999999995","0.021487974093480508","456"
"20:4:20:606 (H:m:s:ms)","GENERIC","93.90899999999999","0.031148278974504662","394"
"20:4:26:666 (H:m:s:ms)","GENERIC","93.667","0.020575315366955865","334"
"20:4:32:727 (H:m:s:ms)","GENERIC","62.738","0.031060640221581896","273"
"20:4:38:787 (H:m:s:ms)","GENERIC","62.336","0.05886337138994891","213"
"20:4:44:848 (H:m:s:ms)","GENERIC","94.471","0.029627819570067295","154"
"20:4:50:909 (H:m:s:ms)","GENERIC","62.551","0.0301112244000317","1092"
"20:38:59:393 (H:m:s:ms)","GENERIC","93.542","0.05021809278080096","641"
"20:39:5:454 (H:m:s:ms)","GENERIC","124.263","0.048543019363655536","546"
"20:14:56:969 (H:m:s:ms)","GENERIC","125.18799999999999","0.05283464744953749","1031"
"20:39:11:515 (H:m:s:ms)","GENERIC","124.168","0.02601746588611044","485"
"20:15:3:30 (H:m:s:ms)","GENERIC","93.19","0.037072800807618066","970"
"20:39:17:575 (H:m:s:ms)","GENERIC","124.214","0.03334142301966799","425"
"20:15:9:90 (H:m:s:ms)","GENERIC","93.18","0.0521559065378453","945"
"20:39:23:636 (H:m:s:ms)","GENERIC","124.97999999999999","0.03142158459346635","364"
"20:15:15:151 (H:m:s:ms)","GENERIC","124.542","0.03211697784508113","849"
"20:39:29:696 (H:m:s:ms)","GENERIC","125.238","0.04205709061965414","340"
"20:15:21:212 (H:m:s:ms)","GENERIC","93.331","0.02620974327073192","789"
"20:39:35:757 (H:m:s:ms)","GENERIC","93.207","0.057924570561071864","243"
"20:15:27:272 (H:m:s:ms)","GENERIC","124.68299999999999","0.027107051380759417","817"
"20:39:41:818 (H:m:s:ms)","GENERIC","124.656","0.037317694354850016","249"
"20:15:33:333 (H:m:s:ms)","GENERIC","124.964","0.0552573500190634","667"
"20:39:47:878 (H:m:s:ms)","GENERIC","125.295","0.031609584838725044","1122"
"20:15:39:393 (H:m:s:ms)","GENERIC","93.787","0.022578069938438465","642"
"20:39:53:939 (H:m:s:ms)","GENERIC","93.159","0.04143807534918273","1060"
"20:15:45:454 (H:m:s:ms)","GENERIC","124.547","0.03466649512320126","545"
"20:15:51:515 (H:m:s:ms)","GENERIC","125.59","0.050056681979473806","485"
"20:4:56:969 (H:m:s:ms)","GENERIC","94.143","0.03121482943801585","1031"
"20:5:3:30 (H:m:s:ms)","GENERIC","93.174","0.047306955332327656","970"
"20:5:9:90 (H:m:s:ms)","GENERIC","62.089","0.014992808783712246","932"
"20:5:15:151 (H:m:s:ms)","GENERIC","62.283","0.04380500092305393","849"
"20:5:21:212 (H:m:s:ms)","GENERIC","93.543","0.05262960512113527","788"
"20:5:27:272 (H:m:s:ms)","GENERIC","62.53","0.03173162281788096","728"
"20:5:33:333 (H:m:s:ms)","GENERIC","93.901","0.035625601892392826","667"
"20:5:39:393 (H:m:s:ms)","GENERIC","62.782","0.017575299996853352","631"
"20:5:45:454 (H:m:s:ms)","GENERIC","93.572","0.01604095480458479","546"
"20:5:51:515 (H:m:s:ms)","GENERIC","62.798","0.026941917555794597","484"
"20:15:57:575 (H:m:s:ms)","GENERIC","93.884","0.04980436237681697","424"
"20:16:3:636 (H:m:s:ms)","GENERIC","94.053","0.04569736755525416","364"
"20:16:9:696 (H:m:s:ms)","GENERIC","93.88","0.05026574712534034","339"
"20:16:15:757 (H:m:s:ms)","GENERIC","93.518","0.05335297805600698","243"
"20:16:21:818 (H:m:s:ms)","GENERIC","62.492000000000004","0.0457350415841404","182"
"20:16:27:878 (H:m:s:ms)","GENERIC","93.342","0.04420865228287051","1122"
"20:16:33:939 (H:m:s:ms)","GENERIC","93.174","0.06029048930933365","1061"
"20:16:40:0 (H:m:s:ms)","GENERIC","124.615","0.05860741471715866","1036"
"20:16:46:60 (H:m:s:ms)","GENERIC","124.45599999999999","0.030004207442044635","939"
"20:16:52:121 (H:m:s:ms)","GENERIC","124.945","0.06038069623726973","879"
"20:5:57:575 (H:m:s:ms)","GENERIC","62.817","0.04159258586995176","425"
"20:6:3:636 (H:m:s:ms)","GENERIC","93.946","0.043833670228687845","372"
"20:6:9:696 (H:m:s:ms)","GENERIC","62.834","0.03767785107869167","329"
"20:6:15:757 (H:m:s:ms)","GENERIC","62.55","0.02566751330666583","243"
"20:6:21:818 (H:m:s:ms)","GENERIC","93.801","0.03900174495412686","242"
"20:6:27:878 (H:m:s:ms)","GENERIC","93.656","0.030786876290831596","122"
"20:6:33:939 (H:m:s:ms)","GENERIC","62.191","0.04226129014819012","1062"
"20:6:40:0 (H:m:s:ms)","GENERIC","93.49799999999999","0.06593538157556193","1001"
"20:6:46:60 (H:m:s:ms)","GENERIC","62.206","0.03948077472395591","940"
"20:6:52:121 (H:m:s:ms)","GENERIC","62.457","0.027372888597143322","879"
"20:16:58:181 (H:m:s:ms)","GENERIC","124.62299999999999","0.041397108097417167","819"
"20:17:4:242 (H:m:s:ms)","GENERIC","125.244","0.029731046073169072","758"
"20:17:10:303 (H:m:s:ms)","GENERIC","93.538","0.016590362427842276","697"
"20:17:16:363 (H:m:s:ms)","GENERIC","125.00200000000001","0.04366037057015239","637"
"20:17:22:424 (H:m:s:ms)","GENERIC","125.495","0.04150557848183575","575"
"20:17:28:484 (H:m:s:ms)","GENERIC","93.881","0.03148409483013719","516"
"20:17:34:545 (H:m:s:ms)","GENERIC","125.152","0.04592457277519138","455"
"20:17:40:606 (H:m:s:ms)","GENERIC","125.21000000000001","0.045504270248705736","394"
"20:17:46:666 (H:m:s:ms)","GENERIC","124.319","0.048889530119963345","334"
"20:17:52:727 (H:m:s:ms)","GENERIC","125.658","0.02635769908679806","273"
"20:6:58:181 (H:m:s:ms)","GENERIC","93.55199999999999","0.042535742073387416","818"
"20:7:4:242 (H:m:s:ms)","GENERIC","94.226","0.022582783050102785","759"
"20:7:10:303 (H:m:s:ms)","GENERIC","93.94999999999999","0.018293375154406284","697"
"20:7:16:363 (H:m:s:ms)","GENERIC","94.066","0.022985837809941553","636"
"20:7:22:424 (H:m:s:ms)","GENERIC","62.757","0.03205338448509872","576"
"20:7:28:484 (H:m:s:ms)","GENERIC","62.817","0.049826653554443476","515"
"20:7:34:545 (H:m:s:ms)","GENERIC","62.525000000000006","0.04144989739607551","456"
"20:7:40:606 (H:m:s:ms)","GENERIC","62.601","0.05472390670864862","395"
"20:7:46:666 (H:m:s:ms)","GENERIC","93.281","0.048115866466712474","334"
"20:7:52:727 (H:m:s:ms)","GENERIC","62.83","0.034632588619077","272"
"20:17:58:787 (H:m:s:ms)","GENERIC","62.482","0.033049675218440044","212"
"20:18:4:848 (H:m:s:ms)","GENERIC","93.233","0.032333527090266496","152"
"20:18:10:909 (H:m:s:ms)","GENERIC","124.961","0.04697951672021016","1091"
"20:18:16:969 (H:m:s:ms)","GENERIC","62.125","0.03525016718625761","1031"
"20:18:23:30 (H:m:s:ms)","GENERIC","93.886","0.035113218513028246","970"
"20:18:29:90 (H:m:s:ms)","GENERIC","124.263","0.04623373661766002","945"
"20:18:35:151 (H:m:s:ms)","GENERIC","93.304","0.03698074401456552","848"
"20:18:41:212 (H:m:s:ms)","GENERIC","93.554","0.03472444121307406","788"
"20:18:47:272 (H:m:s:ms)","GENERIC","93.447","0.043854506192420525","728"
"20:18:53:333 (H:m:s:ms)","GENERIC","93.822","0.029204568853585276","667"
"20:7:58:787 (H:m:s:ms)","GENERIC","62.315","0.05870558671448932","297"
"20:8:4:848 (H:m:s:ms)","GENERIC","62.216","0.03201465172966803","153"
"20:8:10:909 (H:m:s:ms)","GENERIC","93.807","0.0293505178219681","1091"
"20:8:16:969 (H:m:s:ms)","GENERIC","94.307","0.03617519485181508","1031"
"20:8:23:30 (H:m:s:ms)","GENERIC","62.796","0.03885428492186593","970"
"20:8:29:90 (H:m:s:ms)","GENERIC","62.153000000000006","0.03549085183158954","942"
"20:8:35:151 (H:m:s:ms)","GENERIC","93.424","0.029187003160277315","848"
"20:8:41:212 (H:m:s:ms)","GENERIC","93.953","0.01896987124892528","788"
"20:8:47:272 (H:m:s:ms)","GENERIC","93.754","0.034193876355998694","727"
"20:8:53:333 (H:m:s:ms)","GENERIC","94.468","0.047859809626198194","666"
"20:18:59:393 (H:m:s:ms)","GENERIC","125.044","0.025263580084644556","644"
"20:19:5:454 (H:m:s:ms)","GENERIC","93.253","0.029896290452691085","546"
"20:19:11:515 (H:m:s:ms)","GENERIC","124.22800000000001","0.036870419696142805","485"
"20:19:17:575 (H:m:s:ms)","GENERIC","93.121","0.035653295784184844","425"
"20:19:23:636 (H:m:s:ms)","GENERIC","93.48400000000001","0.04046656656604152","363"
"20:19:29:696 (H:m:s:ms)","GENERIC","93.638","0.024489898010583225","340"
"20:19:35:757 (H:m:s:ms)","GENERIC","124.311","0.04770377935690905","242"
"20:19:41:818 (H:m:s:ms)","GENERIC","93.547","0.03826164560515373","182"
"20:19:47:878 (H:m:s:ms)","GENERIC","93.631","0.04447108501538324","1122"
"20:19:53:939 (H:m:s:ms)","GENERIC","124.19200000000001","0.05157064215895749","1061"
"20:8:59:393 (H:m:s:ms)","GENERIC","93.989","0.041697325861727356","641"
"20:9:5:454 (H:m:s:ms)","GENERIC","93.37299999999999","0.043919242817545286","546"
"20:9:11:515 (H:m:s:ms)","GENERIC","62.075","0.04915792354914427","485"
"20:9:17:575 (H:m:s:ms)","GENERIC","31.044","0.041527545521461706","425"
"20:9:23:636 (H:m:s:ms)","GENERIC","93.992","0.0229374608798428","363"
"20:9:29:696 (H:m:s:ms)","GENERIC","62.620000000000005","0.029854114416778942","338"
"20:9:35:757 (H:m:s:ms)","GENERIC","93.338","0.050303536329884074","243"
"20:9:41:818 (H:m:s:ms)","GENERIC","62.467","0.02844095342791113","182"
"20:9:47:878 (H:m:s:ms)","GENERIC","94.31","0.043892715856794114","122"
"20:9:53:939 (H:m:s:ms)","GENERIC","62.108000000000004","0.04452202813423542","1062"
"21:41:0:606 (H:m:s:ms)","GENERIC","124.741","0.030325525139948715","394"
"21:40:54:545 (H:m:s:ms)","GENERIC","125.303","0.035542263071776006","458"
"21:40:48:484 (H:m:s:ms)","GENERIC","125.449","0.027801909579420817","516"
"21:40:42:424 (H:m:s:ms)","GENERIC","93.623","0.01834443082497338","576"
"21:40:36:363 (H:m:s:ms)","GENERIC","93.142","0.0370629051556185","636"
"21:40:30:303 (H:m:s:ms)","GENERIC","125.207","0.04384014902732449","696"
"21:40:24:242 (H:m:s:ms)","GENERIC","93.57300000000001","0.02854195544206943","757"
"21:41:18:787 (H:m:s:ms)","GENERIC","93.506","0.02567606646155494","213"
"21:41:12:727 (H:m:s:ms)","GENERIC","125.243","0.020061926440769595","273"
"21:41:6:666 (H:m:s:ms)","GENERIC","124.834","0.040924296636429595","334"
