"time (H:m:s:ms)","type","latency","utilisation","waiting"
"21:42:49:696 (H:m:s:ms)","GENERIC","186.568","0.37422552727541797","349"
"21:42:31:515 (H:m:s:ms)","GENERIC","186.808","0.36662075565453656","493"
"21:42:25:454 (H:m:s:ms)","GENERIC","156.82","0.36743911917815064","549"
"21:42:19:393 (H:m:s:ms)","GENERIC","188.04399999999998","0.36655321460907336","652"
"21:42:13:333 (H:m:s:ms)","GENERIC","188.864","0.36730977297755674","670"
"21:42:7:272 (H:m:s:ms)","GENERIC","157.183","0.36745610482411734","731"
"21:42:1:212 (H:m:s:ms)","GENERIC","156.73399999999998","0.36636939502608873","796"
"21:41:55:151 (H:m:s:ms)","GENERIC","156.537","0.36662854667348416","853"
"21:41:49:90 (H:m:s:ms)","GENERIC","124.82900000000001","0.36350355197292505","952"
"21:42:43:636 (H:m:s:ms)","GENERIC","157.395","0.371423931230857","366"
"21:42:37:575 (H:m:s:ms)","GENERIC","186.906","0.36786934094241275","432"
"21:43:56:363 (H:m:s:ms)","GENERIC","156.669","0.37490749365641945","643"
"21:43:50:303 (H:m:s:ms)","GENERIC","188.35","0.37680798049585246","703"
"21:43:38:181 (H:m:s:ms)","GENERIC","93.891","0.3743739520214386","850"
"20:0:0:0 (H:m:s:ms)","GENERIC","124.244","0.05848234169813394","2314"
"21:43:32:121 (H:m:s:ms)","GENERIC","125.392","0.3759892597398288","879"
"20:0:6:60 (H:m:s:ms)","GENERIC","157.477","0.08802904573194852","951"
"21:43:26:60 (H:m:s:ms)","GENERIC","187.861","0.3737990199496249","943"
"20:0:12:121 (H:m:s:ms)","GENERIC","94.426","0.10526525185698717","889"
"21:43:20:0 (H:m:s:ms)","GENERIC","155.297","0.3754596981587869","1046"
"20:0:18:181 (H:m:s:ms)","GENERIC","156.156","0.12369276413250034","829"
"21:43:13:939 (H:m:s:ms)","GENERIC","157.085","0.3745398098358263","1069"
"20:0:24:242 (H:m:s:ms)","GENERIC","126.286","0.13204056862368926","764"
"21:43:7:878 (H:m:s:ms)","GENERIC","187.721","0.3738072594248404","1127"
"20:0:30:303 (H:m:s:ms)","GENERIC","125.41900000000001","0.13900504338777053","708"
"21:43:1:818 (H:m:s:ms)","GENERIC","124.951","0.37471168524036014","183"
"20:0:36:363 (H:m:s:ms)","GENERIC","125.088","0.14777413122842076","646"
"21:42:55:757 (H:m:s:ms)","GENERIC","155.683","0.3760610192120046","248"
"20:0:42:424 (H:m:s:ms)","GENERIC","94.229","0.15343052166517715","583"
"21:10:24:242 (H:m:s:ms)","GENERIC","157.341","0.3154657858016472","762"
"20:0:48:484 (H:m:s:ms)","GENERIC","125.584","0.15804783176380546","525"
"21:10:30:303 (H:m:s:ms)","GENERIC","156.482","0.3154869133745527","705"
"21:10:36:363 (H:m:s:ms)","GENERIC","156.034","0.3173551002165719","643"
"21:10:42:424 (H:m:s:ms)","GENERIC","156.965","0.31862694974037326","582"
"21:10:48:484 (H:m:s:ms)","GENERIC","156.727","0.3173622944338191","522"
"21:10:54:545 (H:m:s:ms)","GENERIC","157.053","0.31804965278468733","464"
"21:11:0:606 (H:m:s:ms)","GENERIC","155.439","0.31899053404267047","402"
"21:11:6:666 (H:m:s:ms)","GENERIC","188.434","0.3216454336013182","341"
"21:43:44:242 (H:m:s:ms)","GENERIC","124.548","0.37556308676424494","764"
"21:11:12:727 (H:m:s:ms)","GENERIC","187.664","0.3224474889287973","534"
"21:11:18:787 (H:m:s:ms)","GENERIC","156.51600000000002","0.3214960771282665","217"
"21:25:56:962 (H:m:s:ms)","OPERA","187.34","0.33183864367771565","1045"
"21:45:3:30 (H:m:s:ms)","GENERIC","155.419","0.40400220693437394","976"
"21:44:56:969 (H:m:s:ms)","GENERIC","156.567","0.40431666696770413","1277"
"21:44:50:909 (H:m:s:ms)","GENERIC","156.454","0.4029657086221957","1096"
"21:44:44:848 (H:m:s:ms)","GENERIC","124.741","0.4016712107938172","158"
"21:44:38:787 (H:m:s:ms)","GENERIC","155.469","0.4020332980913824","222"
"21:44:32:727 (H:m:s:ms)","GENERIC","156.20600000000002","0.40250475743819475","279"
"21:44:26:666 (H:m:s:ms)","GENERIC","188.768","0.36865386815428236","341"
"21:44:20:606 (H:m:s:ms)","GENERIC","93.922","0.37133413313751457","394"
"21:44:14:545 (H:m:s:ms)","GENERIC","125.307","0.3712649965360001","462"
"21:44:8:484 (H:m:s:ms)","GENERIC","125.19200000000001","0.37132610515788556","518"
"21:11:24:848 (H:m:s:ms)","GENERIC","157.035","0.3192946259541752","158"
"21:44:2:424 (H:m:s:ms)","GENERIC","155.236","0.37316577000379064","581"
"21:11:30:909 (H:m:s:ms)","GENERIC","156.70999999999998","0.31902114858538977","1096"
"21:11:36:969 (H:m:s:ms)","GENERIC","155.72","0.31837231337311","1037"
"21:11:43:30 (H:m:s:ms)","GENERIC","186.846","0.3183006757399422","978"
"21:11:49:90 (H:m:s:ms)","GENERIC","156.099","0.32063402549082126","956"
"21:11:55:151 (H:m:s:ms)","GENERIC","156.458","0.3173904444234849","852"
"21:12:1:212 (H:m:s:ms)","GENERIC","156.834","0.3174647009362983","795"
"21:12:7:272 (H:m:s:ms)","GENERIC","157.172","0.3170090307398127","727"
"21:12:13:333 (H:m:s:ms)","GENERIC","157.219","0.31757680188767234","666"
"21:12:19:393 (H:m:s:ms)","GENERIC","187.901","0.31404372993567997","655"
"21:26:33:939 (H:m:s:ms)","GENERIC","156.937","0.3290399116776096","1077"
"21:46:9:696 (H:m:s:ms)","GENERIC","124.985","0.39589657022458796","344"
"21:26:27:878 (H:m:s:ms)","GENERIC","156.796","0.33006906893782495","1133"
"21:46:3:636 (H:m:s:ms)","GENERIC","156.19299999999998","0.398004047758248","369"
"21:45:57:575 (H:m:s:ms)","GENERIC","155.731","0.4000605995581897","435"
"21:45:51:515 (H:m:s:ms)","GENERIC","188.777","0.4025445878293286","489"
"21:26:21:818 (H:m:s:ms)","GENERIC","186.429","0.3293408487248901","189"
"21:30:32:0 (H:m:s:ms)","OPERA","187.43800000000002","0.32190181309351795","1598"
"21:45:45:454 (H:m:s:ms)","GENERIC","156.523","0.4004425094695375","554"
"21:26:15:757 (H:m:s:ms)","GENERIC","157.13400000000001","0.33208071406721024","251"
"21:45:39:393 (H:m:s:ms)","GENERIC","155.298","0.4031827838445923","653"
"21:26:12:151 (H:m:s:ms)","OPERA","155.853","0.3351734827283636","858"
"21:45:33:333 (H:m:s:ms)","GENERIC","155.458","0.40049732429619916","674"
"21:26:9:696 (H:m:s:ms)","GENERIC","156.684","0.3324335775933967","349"
"21:45:27:272 (H:m:s:ms)","GENERIC","187.269","0.38437752857033036","734"
"21:30:32:0 (H:m:s:ms)","OPERA","187.149","0.316619839878428","1715"
"21:45:21:212 (H:m:s:ms)","GENERIC","187.102","0.3846076087658457","796"
"21:12:25:454 (H:m:s:ms)","GENERIC","188.576","0.31367410608409113","552"
"21:26:3:636 (H:m:s:ms)","GENERIC","156.132","0.33199187600806795","369"
"21:45:15:151 (H:m:s:ms)","GENERIC","187.707","0.38611292700732286","855"
"21:12:31:515 (H:m:s:ms)","GENERIC","155.755","0.3136462461644369","491"
"21:25:57:575 (H:m:s:ms)","GENERIC","186.847","0.33098778025348613","441"
"21:45:9:90 (H:m:s:ms)","GENERIC","156.489","0.39985848477566255","956"
"21:12:37:575 (H:m:s:ms)","GENERIC","155.841","0.3161878428041247","432"
"21:12:43:636 (H:m:s:ms)","GENERIC","157.296","0.3187628187448026","367"
"21:12:49:696 (H:m:s:ms)","GENERIC","155.382","0.31802450503592844","351"
"21:12:55:757 (H:m:s:ms)","GENERIC","124.44399999999999","0.31113731855338134","246"
"21:13:1:818 (H:m:s:ms)","GENERIC","156.333","0.31063356014121657","187"
"21:13:7:878 (H:m:s:ms)","GENERIC","187.709","0.3122461860030376","1127"
"21:13:13:939 (H:m:s:ms)","GENERIC","157.053","0.31397294796944414","1069"
"21:13:20:0 (H:m:s:ms)","GENERIC","155.304","0.31647560419591064","1048"
"21:30:32:0 (H:m:s:ms)","OPERA","156.061","0.3196023376540101","1990"
"21:27:10:303 (H:m:s:ms)","GENERIC","157.189","0.32179585692062446","702"
"21:47:16:363 (H:m:s:ms)","GENERIC","189.04","0.38653981625444134","640"
"21:30:32:0 (H:m:s:ms)","OPERA","156.311","0.3253164306197444","2195"
"21:47:10:303 (H:m:s:ms)","GENERIC","157.166","0.3874660222522132","703"
"21:27:4:242 (H:m:s:ms)","GENERIC","187.804","0.3228158462748729","766"
"21:47:4:242 (H:m:s:ms)","GENERIC","187.873","0.38849111115379115","762"
"21:46:58:181 (H:m:s:ms)","GENERIC","155.25300000000001","0.3868183409441395","828"
"21:46:52:121 (H:m:s:ms)","GENERIC","188.377","0.38829400373848094","884"
"21:26:58:181 (H:m:s:ms)","GENERIC","155.288","0.326567793081577","829"
"21:26:57:721 (H:m:s:ms)","OPERA","155.873","0.3285521935457974","289"
"21:26:52:121 (H:m:s:ms)","GENERIC","188.57","0.32973390895511767","883"
"21:46:46:60 (H:m:s:ms)","GENERIC","156.445","0.38721872487800835","943"
"21:30:32:0 (H:m:s:ms)","OPERA","187.431","0.3241166618305703","2347"
"21:46:40:0 (H:m:s:ms)","GENERIC","156.20600000000002","0.38815704414322805","1046"
"21:31:35:0 (H:m:s:ms)","GENERIC","188.018","0.32940933630356284","1965"
"21:46:33:939 (H:m:s:ms)","GENERIC","124.967","0.3930502582544101","1065"
"21:13:26:60 (H:m:s:ms)","GENERIC","125.06899999999999","0.31675510233793597","945"
"21:30:32:0 (H:m:s:ms)","OPERA","156.39100000000002","0.3223037859392272","1905"
"21:46:27:878 (H:m:s:ms)","GENERIC","156.745","0.39602614609888465","1131"
"21:13:32:121 (H:m:s:ms)","GENERIC","157.14","0.31880902242010867","885"
"21:31:35:0 (H:m:s:ms)","GENERIC","156.01","0.3276811697546643","3474"
"21:46:21:818 (H:m:s:ms)","GENERIC","155.333","0.3984098026334525","189"
"21:13:38:181 (H:m:s:ms)","GENERIC","125.531","0.31580327063640795","822"
"21:30:32:0 (H:m:s:ms)","OPERA","156.273","0.32037047349850717","2474"
"21:46:15:757 (H:m:s:ms)","GENERIC","188.78","0.39750445254038946","251"
"21:13:44:242 (H:m:s:ms)","GENERIC","155.825","0.32051472265314623","765"
"21:13:50:303 (H:m:s:ms)","GENERIC","156.712","0.3238648378947229","704"
"21:13:56:363 (H:m:s:ms)","GENERIC","156.745","0.32204015144376125","645"
"21:14:2:424 (H:m:s:ms)","GENERIC","155.382","0.3260945657209087","582"
"21:14:8:484 (H:m:s:ms)","GENERIC","156.79399999999998","0.32556119699098174","518"
"21:14:14:545 (H:m:s:ms)","GENERIC","156.926","0.3250798781184174","464"
"21:14:20:606 (H:m:s:ms)","GENERIC","125.592","0.3269355049714543","399"
"21:27:46:666 (H:m:s:ms)","GENERIC","155.357","0.3268593091121726","339"
"21:48:23:30 (H:m:s:ms)","GENERIC","186.489","0.37635615126645194","977"
"21:27:43:291 (H:m:s:ms)","OPERA","156.49","0.3265077095747156","718"
"21:48:16:969 (H:m:s:ms)","GENERIC","155.842","0.3776123348581845","1040"
"21:27:40:606 (H:m:s:ms)","GENERIC","188.111","0.3263848120301366","402"
"21:48:10:909 (H:m:s:ms)","GENERIC","155.278","0.3805639380628691","1094"
"21:27:35:696 (H:m:s:ms)","OPERA","155.787","0.3207785236914503","316"
"21:48:4:848 (H:m:s:ms)","GENERIC","93.852","0.38123267633291635","153"
"21:47:58:787 (H:m:s:ms)","GENERIC","186.684","0.38036321653071936","220"
"21:47:52:727 (H:m:s:ms)","GENERIC","156.204","0.38034609708836176","279"
"21:31:35:0 (H:m:s:ms)","GENERIC","156.44","0.327802204921158","1473"
"21:27:28:484 (H:m:s:ms)","GENERIC","124.84700000000001","0.3216081696479434","523"
"21:27:28:101 (H:m:s:ms)","OPERA","156.013","0.323393427605468","903"
"21:47:46:666 (H:m:s:ms)","GENERIC","155.45","0.38249589971325265","341"
"21:14:26:666 (H:m:s:ms)","GENERIC","157.037","0.3258514661115953","339"
"21:27:22:424 (H:m:s:ms)","GENERIC","188.745","0.321007657073055","581"
"21:47:40:606 (H:m:s:ms)","GENERIC","187.994","0.3804950368122636","397"
"21:14:32:727 (H:m:s:ms)","GENERIC","125.404","0.33257549061841074","311"
"21:30:32:0 (H:m:s:ms)","OPERA","187.512","0.32207191120348533","1546"
"21:47:34:545 (H:m:s:ms)","GENERIC","125.13","0.3890280087494005","463"
"20:52:25:454 (H:m:s:ms)","GENERIC","125.374","0.3115970616137741","551"
"21:14:38:787 (H:m:s:ms)","GENERIC","155.464","0.333336767286856","223"
"21:27:16:363 (H:m:s:ms)","GENERIC","125.629","0.3201748022881966","642"
"21:47:28:484 (H:m:s:ms)","GENERIC","187.73700000000002","0.3875497619730032","520"
"20:52:31:515 (H:m:s:ms)","GENERIC","186.817","0.31488471798192363","489"
"21:14:44:848 (H:m:s:ms)","GENERIC","156.16","0.3332734177718935","155"
"21:30:32:0 (H:m:s:ms)","OPERA","187.565","0.326860063559092","2645"
"21:47:22:424 (H:m:s:ms)","GENERIC","157.24699999999999","0.3869207433150292","583"
"20:52:37:575 (H:m:s:ms)","GENERIC","186.84","0.31015061473152006","434"
"21:14:50:909 (H:m:s:ms)","GENERIC","125.026","0.3351675517659511","1099"
"20:52:43:636 (H:m:s:ms)","GENERIC","157.325","0.3104789032377245","363"
"21:14:56:969 (H:m:s:ms)","GENERIC","155.712","0.3392447453032088","1039"
"20:52:49:696 (H:m:s:ms)","GENERIC","186.577","0.30946937528849333","353"
"21:15:3:30 (H:m:s:ms)","GENERIC","155.465","0.34584486946415116","974"
"20:52:55:757 (H:m:s:ms)","GENERIC","187.10500000000002","0.30861615437517365","248"
"21:15:9:90 (H:m:s:ms)","GENERIC","187.793","0.3467823893401341","956"
"20:53:1:818 (H:m:s:ms)","GENERIC","125.02000000000001","0.3098201037783767","267"
"21:15:15:151 (H:m:s:ms)","GENERIC","156.197","0.3466157116267247","853"
"20:53:7:878 (H:m:s:ms)","GENERIC","124.78","0.3104796684861886","1128"
"21:15:21:212 (H:m:s:ms)","GENERIC","155.878","0.3466824731543753","796"
"20:53:13:939 (H:m:s:ms)","GENERIC","157.299","0.310805180983597","1068"
"20:53:20:0 (H:m:s:ms)","GENERIC","155.317","0.3111032521962248","1052"
"21:28:23:30 (H:m:s:ms)","GENERIC","186.338","0.31877838066575337","976"
"21:49:29:696 (H:m:s:ms)","GENERIC","156.044","0.3813569404085586","345"
"21:30:32:0 (H:m:s:ms)","OPERA","187.552","0.320497309940305","2122"
"21:49:23:636 (H:m:s:ms)","GENERIC","156.897","0.38332297069188354","373"
"21:28:16:969 (H:m:s:ms)","GENERIC","155.618","0.32117710217617085","1034"
"21:49:17:575 (H:m:s:ms)","GENERIC","157.317","0.3827623988324881","429"
"21:30:32:0 (H:m:s:ms)","OPERA","156.244","0.3208793348125986","1654"
"21:49:11:515 (H:m:s:ms)","GENERIC","157.095","0.3815371041858602","490"
"21:28:10:909 (H:m:s:ms)","GENERIC","155.366","0.3219970427262098","1095"
"21:49:5:454 (H:m:s:ms)","GENERIC","157.403","0.38076873608777906","547"
"21:48:59:393 (H:m:s:ms)","GENERIC","187.642","0.3799693287147058","651"
"21:48:53:333 (H:m:s:ms)","GENERIC","156.769","0.3815121982191847","673"
"21:28:6:75 (H:m:s:ms)","OPERA","156.018","0.3266468340724897","941"
"21:15:27:272 (H:m:s:ms)","GENERIC","155.94","0.340329670217324","733"
"21:28:4:848 (H:m:s:ms)","GENERIC","157.358","0.32801444299248284","154"
"21:15:33:333 (H:m:s:ms)","GENERIC","155.529","0.3412108416542307","672"
"21:27:58:787 (H:m:s:ms)","GENERIC","155.459","0.3296262800995105","236"
"21:48:47:272 (H:m:s:ms)","GENERIC","156.072","0.38088826959352384","734"
"20:53:26:60 (H:m:s:ms)","GENERIC","156.442","0.3105913054097055","944"
"21:15:39:393 (H:m:s:ms)","GENERIC","124.225","0.3441635329537745","650"
"21:27:58:481 (H:m:s:ms)","OPERA","187.269","0.3286788341659215","534"
"21:48:41:212 (H:m:s:ms)","GENERIC","93.494","0.3791266268031157","791"
"20:53:32:121 (H:m:s:ms)","GENERIC","157.261","0.31250363086656346","878"
"21:15:45:454 (H:m:s:ms)","GENERIC","156.752","0.3415132555644008","553"
"21:27:52:727 (H:m:s:ms)","GENERIC","187.834","0.32553636279297443","280"
"21:48:35:151 (H:m:s:ms)","GENERIC","186.951","0.38049095715732956","855"
"20:53:38:181 (H:m:s:ms)","GENERIC","157.285","0.3117047235119816","821"
"21:15:51:515 (H:m:s:ms)","GENERIC","156.978","0.3418298496894714","490"
"21:30:32:0 (H:m:s:ms)","OPERA","187.588","0.3159954697833964","2477"
"21:48:29:90 (H:m:s:ms)","GENERIC","155.48000000000002","0.379698047399686","954"
"20:53:44:242 (H:m:s:ms)","GENERIC","155.869","0.3148632840137857","765"
"21:15:57:575 (H:m:s:ms)","GENERIC","93.277","0.3400031647173998","435"
"20:53:50:303 (H:m:s:ms)","GENERIC","188.433","0.3150702187109275","704"
"21:16:3:636 (H:m:s:ms)","GENERIC","156.139","0.33679481927291804","371"
"20:53:56:363 (H:m:s:ms)","GENERIC","93.59899999999999","0.31379115872758084","643"
"21:16:9:696 (H:m:s:ms)","GENERIC","188.144","0.3386367034613365","352"
"20:54:2:424 (H:m:s:ms)","GENERIC","155.322","0.3131897126145781","580"
"21:16:15:757 (H:m:s:ms)","GENERIC","157.155","0.34086558682729506","251"
"20:54:8:484 (H:m:s:ms)","GENERIC","156.793","0.3098967241321932","518"
"21:16:21:818 (H:m:s:ms)","GENERIC","155.293","0.3376366175896745","189"
"20:54:14:545 (H:m:s:ms)","GENERIC","156.924","0.3100889545515713","462"
"20:54:20:606 (H:m:s:ms)","GENERIC","157.358","0.3066200444684877","397"
"21:29:5:454 (H:m:s:ms)","GENERIC","157.44","0.3270887253584936","550"
"21:28:59:393 (H:m:s:ms)","GENERIC","187.909","0.3288935807562199","671"
"22:10:0:0 (H:m:s:ms)","AMBULANCE","93.977","0.353320316312978","1015"
"21:33:42:0 (H:m:s:ms)","OPERA","187.597","0.35454581648420447","3805"
"22:9:28:421 (H:m:s:ms)","AMBULANCE","125.37599999999999","0.35282713235069507","582"
"21:28:53:333 (H:m:s:ms)","GENERIC","188.324","0.3279050127868669","672"
"22:7:53:684 (H:m:s:ms)","AMBULANCE","156.806","0.34875999795514734","320"
"21:33:42:0 (H:m:s:ms)","OPERA","155.883","0.35676487482311814","3152"
"22:4:12:631 (H:m:s:ms)","AMBULANCE","156.34300000000002","0.3464961099082298","387"
"21:28:47:272 (H:m:s:ms)","GENERIC","155.873","0.3261980365771391","730"
"22:1:3:157 (H:m:s:ms)","AMBULANCE","125.445","0.34738067678786255","857"
"21:50:0:0 (H:m:s:ms)","GENERIC","155.71699999999998","0.3872009927764074","1046"
"21:49:53:939 (H:m:s:ms)","GENERIC","187.583","0.38263837232805004","1063"
"21:16:27:878 (H:m:s:ms)","GENERIC","156.622","0.33599658185282383","1130"
"21:16:33:939 (H:m:s:ms)","GENERIC","125.488","0.33516785972797186","1110"
"21:28:41:212 (H:m:s:ms)","GENERIC","187.35","0.3264444291403113","787"
"20:54:26:666 (H:m:s:ms)","GENERIC","157.00300000000001","0.30781040896556683","342"
"21:16:40:0 (H:m:s:ms)","GENERIC","187.489","0.33523287002020574","1054"
"21:30:32:0 (H:m:s:ms)","OPERA","187.569","0.3232341958761213","1993"
"20:54:32:727 (H:m:s:ms)","GENERIC","186.414","0.30673212101028746","281"
"21:16:46:60 (H:m:s:ms)","GENERIC","156.528","0.33443520506174584","943"
"21:28:35:151 (H:m:s:ms)","GENERIC","186.901","0.321541279720723","855"
"21:49:47:878 (H:m:s:ms)","GENERIC","125.643","0.380277887668589","1123"
"20:54:38:787 (H:m:s:ms)","GENERIC","155.54500000000002","0.30494414000686265","220"
"21:16:52:121 (H:m:s:ms)","GENERIC","156.981","0.3384367764206054","883"
"21:28:29:90 (H:m:s:ms)","GENERIC","155.335","0.3196103181290852","952"
"21:49:41:818 (H:m:s:ms)","GENERIC","156.101","0.3790102243575244","187"
"20:54:44:848 (H:m:s:ms)","GENERIC","155.993","0.3050762459893888","159"
"21:16:58:181 (H:m:s:ms)","GENERIC","155.293","0.3354591334458387","828"
"21:30:32:0 (H:m:s:ms)","OPERA","187.39600000000002","0.3231724036072674","1558"
"21:49:35:757 (H:m:s:ms)","GENERIC","156.769","0.3806491449238578","250"
"20:54:50:909 (H:m:s:ms)","GENERIC","187.95100000000002","0.3044991663050105","1099"
"21:17:4:242 (H:m:s:ms)","GENERIC","187.816","0.3353354369199781","767"
"20:54:56:969 (H:m:s:ms)","GENERIC","155.687","0.303149538052498","1041"
"21:17:10:303 (H:m:s:ms)","GENERIC","157.20999999999998","0.3352063594523134","703"
"20:55:3:30 (H:m:s:ms)","GENERIC","155.336","0.30056810543909457","974"
"21:17:16:363 (H:m:s:ms)","GENERIC","125.582","0.333881868136382","642"
"20:55:9:90 (H:m:s:ms)","GENERIC","156.502","0.3017732212552588","962"
"21:17:22:424 (H:m:s:ms)","GENERIC","188.766","0.3349713927891183","583"
"20:55:15:151 (H:m:s:ms)","GENERIC","156.31900000000002","0.29986407086334177","855"
"20:55:21:212 (H:m:s:ms)","GENERIC","187.03","0.30036873973090217","795"
"21:29:41:818 (H:m:s:ms)","GENERIC","124.543","0.33137514216659725","186"
"21:29:37:215 (H:m:s:ms)","OPERA","156.036","0.3320068989488212","787"
"21:33:42:0 (H:m:s:ms)","GENERIC","188.301","0.37754730623511285","1424"
"21:29:29:696 (H:m:s:ms)","GENERIC","155.95000000000002","0.3308273831386532","360"
"21:33:42:0 (H:m:s:ms)","OPERA","187.22","0.375702923560158","2743"
"21:29:23:636 (H:m:s:ms)","GENERIC","156.99","0.3272168361658536","372"
"21:33:42:0 (H:m:s:ms)","OPERA","156.215","0.37790451417847065","3187"
"21:17:28:484 (H:m:s:ms)","GENERIC","156.295","0.33548145436208837","521"
"21:17:34:545 (H:m:s:ms)","GENERIC","156.55","0.33594258458880766","460"
"20:55:27:272 (H:m:s:ms)","GENERIC","187.29399999999998","0.3011961313217824","736"
"21:17:40:606 (H:m:s:ms)","GENERIC","156.542","0.3389500537220268","400"
"20:55:33:333 (H:m:s:ms)","GENERIC","155.34","0.3023696810267901","671"
"21:17:46:666 (H:m:s:ms)","GENERIC","155.515","0.34061778124536396","339"
"21:29:17:575 (H:m:s:ms)","GENERIC","157.304","0.32777038644218437","429"
"20:55:39:393 (H:m:s:ms)","GENERIC","155.248","0.30289442485335727","656"
"21:17:52:727 (H:m:s:ms)","GENERIC","156.166","0.3355151276703193","280"
"21:33:42:0 (H:m:s:ms)","OPERA","187.56","0.376971205338553","2747"
"20:55:45:454 (H:m:s:ms)","GENERIC","156.63400000000001","0.3046369205526148","553"
"21:17:58:787 (H:m:s:ms)","GENERIC","155.481","0.33992242803939543","220"
"21:29:11:515 (H:m:s:ms)","GENERIC","188.736","0.3262623713167031","489"
"20:55:51:515 (H:m:s:ms)","GENERIC","156.965","0.3049092235407694","489"
"21:18:4:848 (H:m:s:ms)","GENERIC","125.625","0.3371327427819517","153"
"21:29:6:835 (H:m:s:ms)","OPERA","124.798","0.32710259585920193","167"
"20:55:57:575 (H:m:s:ms)","GENERIC","155.81","0.3003337446256547","435"
"21:18:10:909 (H:m:s:ms)","GENERIC","186.405","0.34093272344180225","1094"
"20:56:3:636 (H:m:s:ms)","GENERIC","93.752","0.2973902652304333","372"
"21:18:16:969 (H:m:s:ms)","GENERIC","186.87900000000002","0.3394362830633158","1040"
"20:56:9:696 (H:m:s:ms)","GENERIC","156.59199999999998","0.2980767030913715","349"
"21:18:23:30 (H:m:s:ms)","GENERIC","186.565","0.33746726356221735","976"
"20:56:15:757 (H:m:s:ms)","GENERIC","188.902","0.30023807730000107","251"
"20:56:21:818 (H:m:s:ms)","GENERIC","155.30700000000002","0.30104191560465426","186"
"21:30:18:181 (H:m:s:ms)","GENERIC","187.124","0.33453692154787285","818"
"21:30:12:121 (H:m:s:ms)","GENERIC","157.22899999999998","0.3349503525907538","885"
"21:30:6:60 (H:m:s:ms)","GENERIC","157.029","0.33559439015102843","946"
"21:30:0:0 (H:m:s:ms)","GENERIC","186.286","0.33330399574401226","1077"
"21:30:0:0 (H:m:s:ms)","GENERIC","155.66","0.3357396351378451","1058"
"21:30:0:0 (H:m:s:ms)","OPERA","187.246","0.3345761407318171","1051"
"21:30:0:0 (H:m:s:ms)","AMBULANCE","125.43900000000001","0.33400128715867483","1070"
"21:29:53:939 (H:m:s:ms)","GENERIC","156.178","0.3326403783806311","1067"
"21:18:29:90 (H:m:s:ms)","GENERIC","155.314","0.33844335312561047","952"
"21:18:35:151 (H:m:s:ms)","GENERIC","155.86599999999999","0.33529630749262507","855"
"20:56:27:878 (H:m:s:ms)","GENERIC","156.692","0.2997304648583597","1131"
"21:18:41:212 (H:m:s:ms)","GENERIC","156.202","0.33458525198111083","794"
"20:56:33:939 (H:m:s:ms)","GENERIC","155.9","0.3027719727200718","1067"
"21:18:47:272 (H:m:s:ms)","GENERIC","155.868","0.33511855290805764","734"
"20:40:0:0 (H:m:s:ms)","OPERA","125.157","0.2822754293615668","2378"
"20:56:40:0 (H:m:s:ms)","GENERIC","187.915","0.3020350315816192","1194"
"21:18:53:333 (H:m:s:ms)","GENERIC","156.748","0.33431617627057936","673"
"20:40:0:0 (H:m:s:ms)","GENERIC","155.872","0.28303035275565963","2385"
"20:56:46:60 (H:m:s:ms)","GENERIC","156.321","0.301248293334299","943"
"21:18:59:393 (H:m:s:ms)","GENERIC","124.846","0.3313661440080137","651"
"21:29:52:405 (H:m:s:ms)","OPERA","156.123","0.33277935810612086","596"
"20:40:0:0 (H:m:s:ms)","GENERIC","155.308","0.28400730565358906","2393"
"20:56:52:121 (H:m:s:ms)","GENERIC","156.98","0.3020441403547145","884"
"21:19:5:454 (H:m:s:ms)","GENERIC","157.40800000000002","0.32902013001348296","550"
"21:29:47:878 (H:m:s:ms)","GENERIC","125.582","0.3303505013733636","1123"
"20:40:6:60 (H:m:s:ms)","GENERIC","156.84199999999998","0.28587738393224893","947"
"20:56:58:181 (H:m:s:ms)","GENERIC","186.322","0.2966155018920762","829"
"21:19:11:515 (H:m:s:ms)","GENERIC","188.628","0.32983747998233476","493"
"21:33:42:0 (H:m:s:ms)","OPERA","155.998","0.36888189095136387","2694"
"20:40:7:594 (H:m:s:ms)","OPERA","125.146","0.28730643771024417","411"
"20:57:4:242 (H:m:s:ms)","GENERIC","156.292","0.2966739058376234","767"
"21:19:17:575 (H:m:s:ms)","GENERIC","157.386","0.33025485357679335","426"
"20:40:12:121 (H:m:s:ms)","GENERIC","188.876","0.2866332157396106","886"
"20:57:10:303 (H:m:s:ms)","GENERIC","188.874","0.2976356605680354","703"
"21:19:23:636 (H:m:s:ms)","GENERIC","156.85899999999998","0.3299407096413808","372"
"20:40:15:189 (H:m:s:ms)","OPERA","125.088","0.2901646345439883","815"
"20:57:16:363 (H:m:s:ms)","GENERIC","157.328","0.2975863273644505","642"
"20:40:18:181 (H:m:s:ms)","GENERIC","155.942","0.29082527556872817","826"
"20:57:22:424 (H:m:s:ms)","GENERIC","188.964","0.2989429533553006","581"
"20:40:22:784 (H:m:s:ms)","OPERA","156.62","0.2912315680773628","228"
"20:40:24:242 (H:m:s:ms)","GENERIC","125.6","0.29268169420128776","759"
"21:30:31:578 (H:m:s:ms)","AMBULANCE","156.204","0.3229185717710225","454"
"21:35:48:0 (H:m:s:ms)","GENERIC","187.623","0.3507503649467392","4334"
"21:31:6:666 (H:m:s:ms)","GENERIC","156.859","0.3263591563417009","338"
"21:31:3:157 (H:m:s:ms)","AMBULANCE","125.05","0.32624818023870633","902"
"21:31:0:606 (H:m:s:ms)","GENERIC","155.43200000000002","0.3270688873625963","401"
"21:30:54:545 (H:m:s:ms)","GENERIC","157.084","0.3284022070380483","465"
"21:30:48:484 (H:m:s:ms)","GENERIC","188.286","0.3305860105318816","521"
"21:33:42:0 (H:m:s:ms)","GENERIC","188.46","0.35460464871833297","1825"
"21:19:29:696 (H:m:s:ms)","GENERIC","156.032","0.32661460108870005","347"
"21:30:36:363 (H:m:s:ms)","GENERIC","155.82","0.32578513761350736","641"
"21:19:35:757 (H:m:s:ms)","GENERIC","156.799","0.3291458823992084","252"
"20:57:28:484 (H:m:s:ms)","GENERIC","156.159","0.29927755796482264","520"
"21:19:41:818 (H:m:s:ms)","GENERIC","156.197","0.329369693572725","186"
"20:57:34:545 (H:m:s:ms)","GENERIC","156.476","0.3035470790182816","460"
"21:19:47:878 (H:m:s:ms)","GENERIC","157.332","0.327023521443946","1123"
"20:40:30:303 (H:m:s:ms)","GENERIC","156.28300000000002","0.2884082726984751","706"
"20:57:40:606 (H:m:s:ms)","GENERIC","156.51600000000002","0.3056103202664337","401"
"21:19:53:939 (H:m:s:ms)","GENERIC","124.776","0.3274936164439534","1065"
"20:40:30:379 (H:m:s:ms)","OPERA","156.39000000000001","0.29124380481020085","640"
"20:57:46:666 (H:m:s:ms)","GENERIC","155.461","0.3065004579402428","340"
"21:20:0:0 (H:m:s:ms)","OPERA","156.185","0.32971436063392884","2462"
"20:40:36:363 (H:m:s:ms)","GENERIC","155.99599999999998","0.29219963005624544","645"
"20:57:52:727 (H:m:s:ms)","GENERIC","156.327","0.30372553368327115","284"
"21:20:0:0 (H:m:s:ms)","GENERIC","155.757","0.329351145376721","2449"
"20:40:37:974 (H:m:s:ms)","OPERA","125.205","0.2929581797777088","1034"
"20:57:58:787 (H:m:s:ms)","GENERIC","155.5","0.3052847322446924","220"
"21:20:0:0 (H:m:s:ms)","GENERIC","155.364","0.3287038857638224","2458"
"21:30:32:0 (H:m:s:ms)","GENERIC","187.821","0.3227760064105912","2131"
"20:40:42:424 (H:m:s:ms)","GENERIC","156.93","0.29266939729407365","582"
"20:58:4:848 (H:m:s:ms)","GENERIC","157.333","0.3050694038172936","157"
"21:20:6:60 (H:m:s:ms)","GENERIC","156.99099999999999","0.3285590095378797","946"
"21:30:24:242 (H:m:s:ms)","GENERIC","157.394","0.3348742731474805","762"
"20:40:45:569 (H:m:s:ms)","OPERA","125.347","0.29485964468093906","437"
"20:58:10:909 (H:m:s:ms)","GENERIC","186.332","0.3087384340225926","1093"
"21:20:7:594 (H:m:s:ms)","OPERA","156.107","0.3311605998274557","409"
"20:40:48:484 (H:m:s:ms)","GENERIC","188.179","0.29489130575557604","524"
"20:58:16:969 (H:m:s:ms)","GENERIC","155.632","0.309599335780034","1041"
"20:40:53:164 (H:m:s:ms)","OPERA","125.321","0.29638891461723166","845"
"20:58:23:30 (H:m:s:ms)","GENERIC","186.46800000000002","0.31029758664519563","979"
"20:40:54:545 (H:m:s:ms)","GENERIC","188.79500000000002","0.2961280554237482","467"
"20:41:0:606 (H:m:s:ms)","GENERIC","155.41","0.2977729042487904","401"
"21:33:42:0 (H:m:s:ms)","GENERIC","125.23599999999999","0.37874533585018955","3193"
"21:31:24:848 (H:m:s:ms)","GENERIC","157.069","0.3254515908241583","157"
"21:32:7:272 (H:m:s:ms)","GENERIC","157.144","0.32368421282561666","732"
"21:32:6:315 (H:m:s:ms)","AMBULANCE","156.861","0.32266307699126456","689"
"21:32:1:212 (H:m:s:ms)","GENERIC","188.29","0.32110107888538303","794"
"21:36:51:0 (H:m:s:ms)","GENERIC","188.12900000000002","0.36310893918576087","6208"
"21:36:20:0 (H:m:s:ms)","GENERIC","187.406","0.3543038009318173","1975"
"21:31:43:30 (H:m:s:ms)","GENERIC","186.893","0.3212860896575134","976"
"21:31:36:969 (H:m:s:ms)","GENERIC","186.762","0.32771952124253656","1039"
"21:31:34:736 (H:m:s:ms)","AMBULANCE","125.44699999999999","0.3295000369902911","267"
"20:58:29:90 (H:m:s:ms)","GENERIC","155.423","0.309885746808731","957"
"20:58:35:151 (H:m:s:ms)","GENERIC","155.804","0.30970269481913804","856"
"20:41:0:759 (H:m:s:ms)","OPERA","125.359","0.30253904850069224","254"
"21:8:26:0 (H:m:s:ms)","GENERIC","156.244","0.3156288045845417","5969"
"20:41:6:666 (H:m:s:ms)","GENERIC","125.197","0.30330539717113525","341"
"20:58:47:272 (H:m:s:ms)","GENERIC","187.34","0.3094740562930974","734"
"20:41:8:354 (H:m:s:ms)","OPERA","93.688","0.3052051137357028","648"
"20:58:53:333 (H:m:s:ms)","GENERIC","156.897","0.3098642125969393","674"
"20:41:12:727 (H:m:s:ms)","GENERIC","156.882","0.3052224751155828","277"
"21:3:42:0 (H:m:s:ms)","GENERIC","156.336","0.3246544596212762","1705"
"20:41:15:949 (H:m:s:ms)","OPERA","156.568","0.30649892784567906","1064"
"20:59:5:454 (H:m:s:ms)","GENERIC","157.421","0.3058826397429454","548"
"20:41:18:787 (H:m:s:ms)","GENERIC","187.975","0.3071136023556528","217"
"20:59:11:515 (H:m:s:ms)","GENERIC","125.393","0.3048437603990029","491"
"21:35:48:0 (H:m:s:ms)","GENERIC","156.136","0.35205322481615736","2285"
"20:41:23:544 (H:m:s:ms)","OPERA","156.647","0.3075746234549","474"
"20:59:17:575 (H:m:s:ms)","GENERIC","157.293","0.3061456711625701","428"
"20:41:24:848 (H:m:s:ms)","GENERIC","157.09199999999998","0.3102844998176168","159"
"20:59:23:636 (H:m:s:ms)","GENERIC","188.624","0.3077033685053148","372"
"20:41:30:909 (H:m:s:ms)","GENERIC","156.735","0.3128691135405939","1090"
"20:41:31:139 (H:m:s:ms)","OPERA","124.81200000000001","0.3129110219473704","877"
"21:3:42:0 (H:m:s:ms)","GENERIC","156.144","0.32225960084654","1413"
"20:59:35:757 (H:m:s:ms)","GENERIC","156.72899999999998","0.30075480100847984","250"
"20:41:36:969 (H:m:s:ms)","GENERIC","124.52799999999999","0.3140939381483177","1036"
"21:3:42:0 (H:m:s:ms)","GENERIC","156.089","0.32043358657504195","1204"
"20:41:38:734 (H:m:s:ms)","OPERA","156.263","0.31730458424762087","277"
"20:59:47:878 (H:m:s:ms)","GENERIC","157.302","0.3028667850308538","1124"
"20:41:43:30 (H:m:s:ms)","GENERIC","186.96","0.31935652622526783","978"
"21:3:42:0 (H:m:s:ms)","GENERIC","156.11","0.3205662608017535","2095"
"20:41:46:329 (H:m:s:ms)","OPERA","156.358","0.3241327759453178","681"
"21:0:0:0 (H:m:s:ms)","GENERIC","155.78300000000002","0.30644977390035044","2457"
"20:41:49:90 (H:m:s:ms)","GENERIC","156.255","0.3244223850118263","952"
"21:0:0:0 (H:m:s:ms)","AMBULANCE","125.159","0.3091756943903067","2496"
"20:41:53:924 (H:m:s:ms)","OPERA","124.836","0.32466703408198294","1087"
"21:0:0:0 (H:m:s:ms)","GENERIC","155.14600000000002","0.3103027358757604","2504"
"20:41:55:151 (H:m:s:ms)","GENERIC","156.473","0.3258124942402514","852"
"21:0:6:60 (H:m:s:ms)","GENERIC","156.797","0.31103095907123324","946"
"20:42:1:212 (H:m:s:ms)","GENERIC","125.193","0.3254087947907411","796"
"21:0:12:121 (H:m:s:ms)","GENERIC","157.322","0.30984985221503913","886"
"20:42:1:518 (H:m:s:ms)","OPERA","125.298","0.32739168253437345","502"
"20:42:7:272 (H:m:s:ms)","GENERIC","157.13400000000001","0.3255002826730907","729"
"21:0:18:181 (H:m:s:ms)","GENERIC","156.011","0.31226002123072716","825"
"21:0:24:242 (H:m:s:ms)","GENERIC","157.328","0.3106042169903905","757"
"20:42:9:113 (H:m:s:ms)","OPERA","125.31099999999999","0.32608100045425137","928"
"21:0:30:303 (H:m:s:ms)","GENERIC","124.978","0.30963947658486274","707"
"20:42:13:333 (H:m:s:ms)","GENERIC","188.76","0.3269856611746491","671"
"21:0:31:578 (H:m:s:ms)","AMBULANCE","157.768","0.31092094134060266","430"
"20:20:0:0 (H:m:s:ms)","GENERIC","155.649","0.29690321625732924","2358"
"20:42:16:708 (H:m:s:ms)","OPERA","156.484","0.3314503227084776","302"
"21:0:36:363 (H:m:s:ms)","GENERIC","187.44400000000002","0.31034069493253535","645"
"20:20:0:0 (H:m:s:ms)","GENERIC","155.32299999999998","0.29863119098465774","2366"
"20:42:19:393 (H:m:s:ms)","GENERIC","156.534","0.33238875745287466","649"
"21:0:42:424 (H:m:s:ms)","GENERIC","156.872","0.31034015500900103","582"
"20:20:6:60 (H:m:s:ms)","GENERIC","156.933","0.2973923886939206","948"
"20:42:25:454 (H:m:s:ms)","GENERIC","188.554","0.334864326022141","549"
"21:0:48:484 (H:m:s:ms)","GENERIC","156.661","0.30984278592696846","524"
"20:20:12:121 (H:m:s:ms)","GENERIC","188.907","0.2971181078790243","885"
"20:42:31:515 (H:m:s:ms)","GENERIC","155.63799999999998","0.33428310412704426","491"
"21:0:54:545 (H:m:s:ms)","GENERIC","157.123","0.30926250562543295","465"
"20:20:18:181 (H:m:s:ms)","GENERIC","155.94","0.29726909510808364","826"
"20:42:31:898 (H:m:s:ms)","OPERA","156.245","0.3345583255668077","136"
"21:1:0:606 (H:m:s:ms)","GENERIC","155.46","0.3095985293613196","400"
"20:20:24:242 (H:m:s:ms)","GENERIC","157.339","0.29174699979227836","759"
"20:42:37:575 (H:m:s:ms)","GENERIC","186.934","0.33544199184988227","430"
"21:1:3:157 (H:m:s:ms)","AMBULANCE","125.18299999999999","0.3121069704329496","849"
"20:20:30:303 (H:m:s:ms)","GENERIC","187.882","0.2893167726544643","707"
"20:42:39:493 (H:m:s:ms)","OPERA","156.519","0.3389160437925155","554"
"20:20:36:363 (H:m:s:ms)","GENERIC","187.338","0.2912214213693459","645"
"20:42:43:636 (H:m:s:ms)","GENERIC","157.324","0.3358719434401103","367"
"20:20:42:424 (H:m:s:ms)","GENERIC","157.023","0.29429410477450074","581"
"20:20:48:484 (H:m:s:ms)","GENERIC","188.07","0.29154378871834713","524"
"21:1:6:666 (H:m:s:ms)","GENERIC","156.898","0.3104277086715123","340"
"21:1:12:727 (H:m:s:ms)","GENERIC","156.805","0.31014483046328895","277"
"20:42:47:88 (H:m:s:ms)","OPERA","156.388","0.3384399715563975","919"
"21:1:18:787 (H:m:s:ms)","GENERIC","187.891","0.30785181664064765","220"
"20:42:49:696 (H:m:s:ms)","GENERIC","155.383","0.33882288386868725","347"
"21:1:24:848 (H:m:s:ms)","GENERIC","188.825","0.30981155118787557","160"
"20:20:54:545 (H:m:s:ms)","GENERIC","157.054","0.29067330507459116","463"
"20:42:54:683 (H:m:s:ms)","OPERA","125.207","0.339610272398872","323"
"21:1:30:909 (H:m:s:ms)","GENERIC","156.833","0.30770468037680393","1100"
"20:21:0:606 (H:m:s:ms)","GENERIC","155.347","0.293117579312215","400"
"20:42:55:757 (H:m:s:ms)","GENERIC","93.264","0.3386988521207381","245"
"21:1:34:736 (H:m:s:ms)","AMBULANCE","125.14","0.3082110534414694","319"
"20:21:6:666 (H:m:s:ms)","GENERIC","188.385","0.2975288592266186","339"
"20:43:1:818 (H:m:s:ms)","GENERIC","187.659","0.3415711571108822","510"
"21:1:36:969 (H:m:s:ms)","GENERIC","155.70600000000002","0.30494730747026383","1039"
"20:21:12:727 (H:m:s:ms)","GENERIC","156.834","0.297126722972643","277"
"20:43:2:278 (H:m:s:ms)","OPERA","125.19699999999999","0.34345524416377576","728"
"21:1:43:30 (H:m:s:ms)","GENERIC","124.47800000000001","0.3044659752412176","979"
"20:21:18:787 (H:m:s:ms)","GENERIC","93.932","0.29758089844681557","217"
"20:43:7:878 (H:m:s:ms)","GENERIC","187.812","0.34257143493801767","1132"
"21:6:20:0 (H:m:s:ms)","GENERIC","156.05200000000002","0.3186468785346647","3050"
"20:21:24:848 (H:m:s:ms)","GENERIC","188.675","0.29854027487236395","159"
"20:43:9:873 (H:m:s:ms)","OPERA","125.408","0.3438605854594679","183"
"21:1:55:151 (H:m:s:ms)","GENERIC","156.525","0.306439694186009","852"
"20:21:30:909 (H:m:s:ms)","GENERIC","156.71699999999998","0.3019612016838535","1093"
"20:43:13:939 (H:m:s:ms)","GENERIC","125.624","0.3444081084142705","1069"
"20:21:36:969 (H:m:s:ms)","GENERIC","155.64999999999998","0.30151370918623965","1039"
"20:43:17:468 (H:m:s:ms)","OPERA","125.321","0.345002689397208","552"
"20:21:43:30 (H:m:s:ms)","GENERIC","186.962","0.29801152525764874","979"
"20:21:49:90 (H:m:s:ms)","GENERIC","187.761","0.298880244389401","955"
"20:43:20:0 (H:m:s:ms)","GENERIC","155.333","0.3444428082910518","1060"
"20:43:25:63 (H:m:s:ms)","OPERA","125.32300000000001","0.34559099414450484","962"
"20:21:55:151 (H:m:s:ms)","GENERIC","187.934","0.2968408912530258","852"
"20:43:26:60 (H:m:s:ms)","GENERIC","156.414","0.3472769511356746","947"
"20:22:1:212 (H:m:s:ms)","GENERIC","156.724","0.29810787294834973","797"
"20:43:32:121 (H:m:s:ms)","GENERIC","125.589","0.34913489155833155","911"
"20:22:7:272 (H:m:s:ms)","GENERIC","189.05700000000002","0.300293219404846","731"
"20:43:32:658 (H:m:s:ms)","OPERA","124.774","0.3490838622284429","364"
"20:22:13:333 (H:m:s:ms)","GENERIC","157.238","0.3020371019775952","674"
"20:43:38:181 (H:m:s:ms)","GENERIC","125.561","0.3452183122051324","824"
"20:22:19:393 (H:m:s:ms)","GENERIC","124.90899999999999","0.29955279025191706","651"
"20:43:40:253 (H:m:s:ms)","OPERA","125.462","0.3461803033876774","892"
"20:22:25:454 (H:m:s:ms)","GENERIC","156.968","0.302470692420868","550"
"20:43:44:242 (H:m:s:ms)","GENERIC","155.678","0.34396609630403424","764"
"20:22:31:515 (H:m:s:ms)","GENERIC","155.697","0.30287160950382236","492"
"20:43:47:848 (H:m:s:ms)","OPERA","156.407","0.3457912841928008","164"
"20:22:37:575 (H:m:s:ms)","GENERIC","155.755","0.3043679932486948","430"
"20:43:50:303 (H:m:s:ms)","GENERIC","156.727","0.34450778493824447","705"
"20:22:43:636 (H:m:s:ms)","GENERIC","157.21","0.30651232776845033","367"
"20:22:49:696 (H:m:s:ms)","GENERIC","155.488","0.3025519875383901","346"
"20:43:55:443 (H:m:s:ms)","OPERA","125.248","0.3438769325957778","574"
"20:43:56:363 (H:m:s:ms)","GENERIC","93.594","0.3438722206892559","641"
"20:22:55:757 (H:m:s:ms)","GENERIC","155.76999999999998","0.3028075491204761","250"
"20:44:2:424 (H:m:s:ms)","GENERIC","155.351","0.338537141756831","583"
"20:23:1:818 (H:m:s:ms)","GENERIC","187.072","0.3012577315032993","188"
"20:44:3:37 (H:m:s:ms)","OPERA","125.145","0.3400450391529053","963"
"20:23:7:878 (H:m:s:ms)","GENERIC","156.346","0.3008518430781343","1129"
"20:44:8:484 (H:m:s:ms)","GENERIC","156.838","0.3389032139046666","519"
"20:23:13:939 (H:m:s:ms)","GENERIC","188.745","0.30028694888337376","1066"
"20:44:10:632 (H:m:s:ms)","OPERA","125.202","0.34000583249245797","371"
"20:23:20:0 (H:m:s:ms)","GENERIC","155.359","0.3017031873468578","1046"
"20:44:14:545 (H:m:s:ms)","GENERIC","188.375","0.33758287019251415","461"
"20:23:26:60 (H:m:s:ms)","GENERIC","124.98","0.3036265520916772","946"
"20:44:18:227 (H:m:s:ms)","OPERA","125.137","0.3360674756787235","781"
"20:23:32:121 (H:m:s:ms)","GENERIC","157.095","0.3068312304938452","887"
"20:44:20:606 (H:m:s:ms)","GENERIC","93.88","0.33649450757350047","395"
"20:23:38:181 (H:m:s:ms)","GENERIC","189.082","0.3042641082453103","822"
"20:44:25:822 (H:m:s:ms)","OPERA","125.095","0.33796255907092376","189"
"20:23:44:242 (H:m:s:ms)","GENERIC","155.983","0.30498282200440124","767"
"20:23:50:303 (H:m:s:ms)","GENERIC","156.806","0.3028147940971944","703"
"20:44:26:666 (H:m:s:ms)","GENERIC","157.1","0.33628512873654914","340"
"20:44:32:727 (H:m:s:ms)","GENERIC","155.294","0.3328006997304159","281"
"20:23:56:363 (H:m:s:ms)","GENERIC","188.09799999999998","0.29997398688265764","643"
"20:44:33:417 (H:m:s:ms)","OPERA","125.126","0.33590996530904266","582"
"20:24:2:424 (H:m:s:ms)","GENERIC","155.387","0.30176645084371856","581"
"20:44:38:787 (H:m:s:ms)","GENERIC","155.504","0.3341447765973787","224"
"20:24:8:484 (H:m:s:ms)","GENERIC","125.282","0.2975185629093105","519"
"20:44:41:12 (H:m:s:ms)","OPERA","125.336","0.334861683269489","996"
"20:24:14:545 (H:m:s:ms)","GENERIC","156.79399999999998","0.2950497184380434","462"
"20:44:44:848 (H:m:s:ms)","GENERIC","156.027","0.3328187130419631","157"
"20:24:20:606 (H:m:s:ms)","GENERIC","157.4","0.29508531141751204","397"
"20:44:48:607 (H:m:s:ms)","OPERA","125.437","0.3328958528880541","400"
"20:24:26:666 (H:m:s:ms)","GENERIC","157.05","0.2972432669543326","340"
"20:44:50:909 (H:m:s:ms)","GENERIC","188.086","0.33525511015744275","1093"
"20:24:32:727 (H:m:s:ms)","GENERIC","155.231","0.2967065200790883","280"
"20:44:56:202 (H:m:s:ms)","OPERA","156.407","0.3352517796770068","800"
"20:24:38:787 (H:m:s:ms)","GENERIC","155.517","0.29424298105521285","222"
"20:44:56:969 (H:m:s:ms)","GENERIC","155.546","0.3333685687434898","1039"
"20:24:44:848 (H:m:s:ms)","GENERIC","156.078","0.2951390819114694","155"
"20:24:50:909 (H:m:s:ms)","GENERIC","187.931","0.2974988755969889","1098"
"20:45:3:30 (H:m:s:ms)","GENERIC","124.231","0.3361971891437771","975"
"20:45:3:797 (H:m:s:ms)","OPERA","125.115","0.3371001031490546","217"
"20:24:56:969 (H:m:s:ms)","GENERIC","155.639","0.29866054655424257","1040"
"20:45:9:90 (H:m:s:ms)","GENERIC","187.95","0.33674417168140175","956"
"20:25:3:30 (H:m:s:ms)","GENERIC","155.324","0.296714470911349","976"
"20:45:11:392 (H:m:s:ms)","OPERA","156.314","0.3377032441613396","618"
"20:25:9:90 (H:m:s:ms)","GENERIC","124.96199999999999","0.2957784052823758","955"
"20:45:15:151 (H:m:s:ms)","GENERIC","155.876","0.34000568780376844","858"
"20:25:15:151 (H:m:s:ms)","GENERIC","156.325","0.29504181197273033","854"
"20:45:21:212 (H:m:s:ms)","GENERIC","155.974","0.3383783044741016","796"
"20:25:21:212 (H:m:s:ms)","GENERIC","155.98","0.29488739564318567","794"
"20:45:26:582 (H:m:s:ms)","OPERA","156.415","0.33830501789083084","422"
"20:25:27:272 (H:m:s:ms)","GENERIC","155.934","0.2965326028693192","735"
"20:45:27:272 (H:m:s:ms)","GENERIC","187.015","0.33745466841181243","732"
"20:25:33:333 (H:m:s:ms)","GENERIC","155.416","0.2981476498966704","673"
"20:45:33:333 (H:m:s:ms)","GENERIC","155.365","0.33522537905377564","673"
"20:25:39:393 (H:m:s:ms)","GENERIC","124.219","0.2973896263587953","648"
"20:45:34:177 (H:m:s:ms)","OPERA","125.121","0.334218224703413","826"
"20:25:45:454 (H:m:s:ms)","GENERIC","156.636","0.2940187514239472","554"
"20:25:51:515 (H:m:s:ms)","GENERIC","188.606","0.29614944228869206","491"
"20:25:57:575 (H:m:s:ms)","GENERIC","155.851","0.29435213781235764","434"
"20:26:3:636 (H:m:s:ms)","GENERIC","187.18","0.2910119245569495","370"
"20:26:9:696 (H:m:s:ms)","GENERIC","156.479","0.28893306067972324","348"
"20:26:15:757 (H:m:s:ms)","GENERIC","157.18200000000002","0.28873381543299254","252"
"20:26:21:818 (H:m:s:ms)","GENERIC","155.257","0.29003013345257106","188"
"20:26:27:878 (H:m:s:ms)","GENERIC","188.274","0.2891767099369799","1131"
"20:26:33:939 (H:m:s:ms)","GENERIC","187.316","0.291593407329808","1074"
"20:26:40:0 (H:m:s:ms)","GENERIC","157.201","0.2898044118036276","1042"
"20:26:46:60 (H:m:s:ms)","GENERIC","156.486","0.2906256293545346","944"
"20:26:52:121 (H:m:s:ms)","GENERIC","156.935","0.2876215663933876","882"
"20:26:58:181 (H:m:s:ms)","GENERIC","155.332","0.285482099360984","827"
"20:27:4:242 (H:m:s:ms)","GENERIC","156.30700000000002","0.2842575554279531","766"
"20:27:10:303 (H:m:s:ms)","GENERIC","188.936","0.28628179604450044","703"
"20:27:16:363 (H:m:s:ms)","GENERIC","189.013","0.284943048711816","642"
"20:27:22:424 (H:m:s:ms)","GENERIC","125.439","0.2838446532882972","580"
"20:27:28:484 (H:m:s:ms)","GENERIC","124.821","0.2829369942363879","520"
"20:27:34:545 (H:m:s:ms)","GENERIC","187.9","0.2829559736221043","462"
"20:27:40:606 (H:m:s:ms)","GENERIC","156.471","0.2864477255644821","400"
"20:27:46:666 (H:m:s:ms)","GENERIC","124.30600000000001","0.28738772925462985","338"
"20:27:52:727 (H:m:s:ms)","GENERIC","187.666","0.2860328771996771","281"
"20:27:58:787 (H:m:s:ms)","GENERIC","155.516","0.28667769287460865","219"
"20:28:4:848 (H:m:s:ms)","GENERIC","157.29000000000002","0.287684293840962","156"
"20:28:10:909 (H:m:s:ms)","GENERIC","155.305","0.289076934530325","1095"
"20:28:16:969 (H:m:s:ms)","GENERIC","186.889","0.28713142243918993","1040"
"20:28:23:30 (H:m:s:ms)","GENERIC","124.259","0.28496933199419233","976"
"20:28:29:90 (H:m:s:ms)","GENERIC","124.37100000000001","0.2850466818150575","949"
"20:28:35:151 (H:m:s:ms)","GENERIC","187.149","0.2880648141103196","855"
"20:28:41:212 (H:m:s:ms)","GENERIC","156.295","0.287143515236189","795"
"20:28:47:272 (H:m:s:ms)","GENERIC","187.309","0.2885511507985929","734"
"20:28:53:333 (H:m:s:ms)","GENERIC","188.275","0.2900461953043296","673"
"20:28:59:393 (H:m:s:ms)","GENERIC","187.667","0.29002723660658697","652"
"20:29:5:454 (H:m:s:ms)","GENERIC","125.612","0.29119207023519345","547"
"20:29:11:515 (H:m:s:ms)","GENERIC","156.995","0.29163325305077215","491"
"20:29:17:575 (H:m:s:ms)","GENERIC","157.326","0.2949811474136262","426"
"20:29:23:636 (H:m:s:ms)","GENERIC","188.53300000000002","0.2954788271728554","371"
"20:29:29:696 (H:m:s:ms)","GENERIC","156.006","0.2960616666797062","345"
"20:29:35:757 (H:m:s:ms)","GENERIC","156.698","0.2939332562499474","250"
"20:29:41:818 (H:m:s:ms)","GENERIC","156.013","0.29308250491071847","188"
"20:29:47:878 (H:m:s:ms)","GENERIC","125.56","0.29203052737333596","1123"
"20:29:53:939 (H:m:s:ms)","GENERIC","156.174","0.29368314075415425","1067"
"21:20:12:121 (H:m:s:ms)","GENERIC","157.15699999999998","0.3308261792520734","887"
"21:20:15:189 (H:m:s:ms)","OPERA","187.38","0.3275663616700032","819"
"21:20:18:181 (H:m:s:ms)","GENERIC","155.775","0.33168420224582496","826"
"21:20:22:784 (H:m:s:ms)","OPERA","156.146","0.33134623469778524","224"
"21:20:24:242 (H:m:s:ms)","GENERIC","157.433","0.3340541375445558","758"
"21:20:30:303 (H:m:s:ms)","GENERIC","156.557","0.33228308455782096","704"
"21:20:30:379 (H:m:s:ms)","OPERA","156.177","0.3347364725740769","632"
"21:20:36:363 (H:m:s:ms)","GENERIC","155.964","0.33742293969421944","643"
"21:20:37:974 (H:m:s:ms)","OPERA","156.10999999999999","0.333434032516512","1031"
"21:20:42:424 (H:m:s:ms)","GENERIC","156.848","0.3336649863229531","579"
"21:20:45:569 (H:m:s:ms)","OPERA","187.415","0.33693063790905453","438"
"21:20:48:484 (H:m:s:ms)","GENERIC","156.689","0.3364733643237681","521"
"21:20:53:164 (H:m:s:ms)","OPERA","156.155","0.3362475401020402","842"
"21:20:54:545 (H:m:s:ms)","GENERIC","188.719","0.33577853252509904","465"
"21:21:0:606 (H:m:s:ms)","GENERIC","186.552","0.33650474053104223","400"
"21:21:0:759 (H:m:s:ms)","OPERA","93.392","0.3342887094845763","251"
"21:21:6:666 (H:m:s:ms)","GENERIC","188.506","0.3302648931942118","339"
"21:21:8:354 (H:m:s:ms)","OPERA","187.199","0.3349871640496664","661"
"21:21:12:727 (H:m:s:ms)","GENERIC","93.947","0.3357762730051148","277"
"21:21:15:949 (H:m:s:ms)","OPERA","156.225","0.33700981535073005","1055"
"21:37:54:0 (H:m:s:ms)","GENERIC","124.8","0.36160075332116154","4287"
"21:32:49:696 (H:m:s:ms)","GENERIC","155.45","0.33396235443877176","348"
"21:32:43:636 (H:m:s:ms)","GENERIC","125.608","0.3327940190485228","367"
"21:32:37:894 (H:m:s:ms)","AMBULANCE","156.99","0.33206291168106217","120"
"21:32:37:575 (H:m:s:ms)","GENERIC","124.455","0.3303305627120345","428"
"21:32:31:515 (H:m:s:ms)","GENERIC","155.611","0.33221217700813677","490"
"21:32:25:454 (H:m:s:ms)","GENERIC","156.981","0.3223235330321494","547"
"21:36:51:0 (H:m:s:ms)","GENERIC","187.91","0.3572176947574087","4996"
"21:21:18:787 (H:m:s:ms)","GENERIC","156.332","0.3368058644490857","218"
"21:32:13:333 (H:m:s:ms)","GENERIC","188.72","0.32288267798560794","673"
"21:21:23:544 (H:m:s:ms)","OPERA","156.053","0.3396128679002645","465"
"21:21:24:848 (H:m:s:ms)","GENERIC","157.054","0.3414992855552739","159"
"21:21:30:909 (H:m:s:ms)","GENERIC","188.237","0.3419467892873068","1099"
"21:21:31:139 (H:m:s:ms)","OPERA","155.93200000000002","0.34298001277933843","880"
"21:21:36:969 (H:m:s:ms)","GENERIC","155.73","0.341900168903016","1034"
"21:21:38:734 (H:m:s:ms)","OPERA","187.792","0.3402969069554662","275"
"21:21:43:30 (H:m:s:ms)","GENERIC","124.413","0.336792957605348","977"
"21:37:54:0 (H:m:s:ms)","GENERIC","188.076","0.3623410667014733","4566"
"21:21:46:329 (H:m:s:ms)","OPERA","156.062","0.33841709247381624","675"
"21:32:55:757 (H:m:s:ms)","GENERIC","186.813","0.3346849268500039","247"
"21:21:49:90 (H:m:s:ms)","GENERIC","187.77","0.3388820649432321","952"
"21:34:2:424 (H:m:s:ms)","GENERIC","155.302","0.3548171814884367","582"
"21:33:56:363 (H:m:s:ms)","GENERIC","156.696","0.353844273471123","641"
"21:33:44:242 (H:m:s:ms)","GENERIC","155.899","0.3511454020092765","764"
"21:33:41:52 (H:m:s:ms)","AMBULANCE","125.54","0.3790589766702165","965"
"21:37:54:0 (H:m:s:ms)","GENERIC","156.498","0.3587426647375936","6086"
"21:33:32:121 (H:m:s:ms)","GENERIC","188.923","0.3476058741042327","886"
"21:37:54:0 (H:m:s:ms)","GENERIC","156.51","0.3561399259045656","6422"
"21:33:20:0 (H:m:s:ms)","GENERIC","186.345","0.3427886420335011","1046"
"21:21:53:924 (H:m:s:ms)","OPERA","124.787","0.3368585590448147","1087"
"21:33:13:939 (H:m:s:ms)","GENERIC","157.13299999999998","0.34177432821745174","1071"
"21:21:55:151 (H:m:s:ms)","GENERIC","156.581","0.33727025415111805","853"
"21:33:9:473 (H:m:s:ms)","AMBULANCE","62.444","0.334787417279771","569"
"21:22:1:212 (H:m:s:ms)","GENERIC","156.715","0.33994036496887575","794"
"21:22:1:518 (H:m:s:ms)","OPERA","156.38","0.33775019420003904","499"
"21:22:7:272 (H:m:s:ms)","GENERIC","157.178","0.3363854691841118","729"
"21:22:9:113 (H:m:s:ms)","OPERA","187.322","0.3385278132646828","930"
"21:22:13:333 (H:m:s:ms)","GENERIC","157.226","0.3387658649950054","666"
"21:22:16:708 (H:m:s:ms)","OPERA","156.31","0.3403143624742835","297"
"21:22:19:393 (H:m:s:ms)","GENERIC","156.428","0.3390487799224379","648"
"21:22:24:303 (H:m:s:ms)","OPERA","156.418","0.34256455880265446","707"
"21:33:50:303 (H:m:s:ms)","GENERIC","156.676","0.35252865629961877","702"
"21:34:56:969 (H:m:s:ms)","GENERIC","155.611","0.35503790298481813","1040"
"21:34:50:909 (H:m:s:ms)","GENERIC","188.067","0.35387987944067856","1096"
"21:37:54:0 (H:m:s:ms)","GENERIC","156.104","0.3539043379490665","3272"
"21:34:44:210 (H:m:s:ms)","AMBULANCE","125.22","0.35337420361807714","826"
"21:34:38:787 (H:m:s:ms)","GENERIC","155.554","0.3536257046017464","223"
"21:34:32:727 (H:m:s:ms)","GENERIC","124.761","0.35426971230889315","276"
"21:34:26:666 (H:m:s:ms)","GENERIC","157.075","0.3550879670735695","341"
"21:34:20:606 (H:m:s:ms)","GENERIC","93.92699999999999","0.352815869313883","394"
"21:22:25:454 (H:m:s:ms)","GENERIC","156.872","0.3417357147746059","549"
"21:34:14:545 (H:m:s:ms)","GENERIC","156.959","0.35072878195280344","460"
"21:22:31:515 (H:m:s:ms)","GENERIC","186.875","0.34390051947343264","489"
"21:34:12:631 (H:m:s:ms)","AMBULANCE","125.102","0.3510468357023709","438"
"21:2:1:212 (H:m:s:ms)","GENERIC","156.841","0.30508035912151055","796"
"21:22:31:898 (H:m:s:ms)","OPERA","156.152","0.34367877147990783","1149"
"21:34:8:484 (H:m:s:ms)","GENERIC","156.778","0.3515665199903851","518"
"21:2:6:315 (H:m:s:ms)","AMBULANCE","125.099","0.3065267139913749","742"
"21:22:37:575 (H:m:s:ms)","GENERIC","155.733","0.3460522494984777","425"
"21:2:7:272 (H:m:s:ms)","GENERIC","157.19","0.3095705191081551","730"
"21:22:39:493 (H:m:s:ms)","OPERA","124.939","0.34552543544825537","550"
"21:2:13:333 (H:m:s:ms)","GENERIC","157.15300000000002","0.30928102047160017","671"
"21:22:43:636 (H:m:s:ms)","GENERIC","157.36","0.34337691937080717","366"
"21:2:19:393 (H:m:s:ms)","GENERIC","156.341","0.3050012713558522","657"
"21:22:47:88 (H:m:s:ms)","OPERA","156.107","0.34141549683009526","916"
"21:2:25:454 (H:m:s:ms)","GENERIC","188.464","0.307611619470574","550"
"21:22:49:696 (H:m:s:ms)","GENERIC","155.546","0.34172874601589975","349"
"21:2:31:515 (H:m:s:ms)","GENERIC","155.671","0.30691620250215773","493"
"21:22:54:683 (H:m:s:ms)","OPERA","187.554","0.3414965561718749","325"
"21:2:37:575 (H:m:s:ms)","GENERIC","155.69","0.3084087064676932","432"
"21:22:55:757 (H:m:s:ms)","GENERIC","124.409","0.3364160807535684","243"
"21:2:37:894 (H:m:s:ms)","AMBULANCE","125.237","0.3110314930332953","114"
"21:2:43:636 (H:m:s:ms)","GENERIC","125.62","0.3123315620036344","367"
"21:35:51:515 (H:m:s:ms)","GENERIC","125.382","0.35349523568006624","490"
"21:35:47:368 (H:m:s:ms)","AMBULANCE","125.492","0.3518185368582196","638"
"21:35:45:454 (H:m:s:ms)","GENERIC","156.675","0.3509157269087842","552"
"21:35:39:393 (H:m:s:ms)","GENERIC","155.241","0.35227801378889334","652"
"21:35:33:333 (H:m:s:ms)","GENERIC","155.449","0.3492611542036775","674"
"21:35:27:272 (H:m:s:ms)","GENERIC","155.964","0.3533186087454609","732"
"21:35:21:212 (H:m:s:ms)","GENERIC","155.876","0.35432782320857614","796"
"21:23:1:818 (H:m:s:ms)","GENERIC","156.423","0.3361799850729114","181"
"21:35:15:789 (H:m:s:ms)","AMBULANCE","125.238","0.3550742000952281","254"
"21:23:2:278 (H:m:s:ms)","OPERA","156.116","0.33874016216883907","725"
"21:37:54:0 (H:m:s:ms)","GENERIC","124.881","0.3577638172695714","3972"
"21:2:49:696 (H:m:s:ms)","GENERIC","186.54500000000002","0.3102637826849297","354"
"21:23:7:878 (H:m:s:ms)","GENERIC","156.58800000000002","0.33946154871062795","1134"
"21:35:9:90 (H:m:s:ms)","GENERIC","156.63400000000001","0.3529132434577693","954"
"21:3:42:0 (H:m:s:ms)","GENERIC","186.958","0.32064360458845376","1289"
"21:23:9:873 (H:m:s:ms)","OPERA","187.53","0.3410638053867874","184"
"21:35:3:30 (H:m:s:ms)","GENERIC","155.31900000000002","0.3561829298403286","975"
"21:3:1:818 (H:m:s:ms)","GENERIC","156.539","0.3124117483476483","185"
"21:23:13:939 (H:m:s:ms)","GENERIC","188.80700000000002","0.34256223596329805","1069"
"21:7:54:0 (H:m:s:ms)","GENERIC","156.19400000000002","0.3139091119022736","4253"
"21:23:17:468 (H:m:s:ms)","OPERA","187.83","0.3428607772387851","550"
"21:3:9:473 (H:m:s:ms)","AMBULANCE","93.58699999999999","0.31744675338055495","669"
"21:23:20:0 (H:m:s:ms)","GENERIC","155.329","0.34481817569747947","1047"
"21:3:13:939 (H:m:s:ms)","GENERIC","157.11599999999999","0.3200350969984219","1068"
"21:23:25:63 (H:m:s:ms)","OPERA","155.753","0.34550375371077063","947"
"21:3:20:0 (H:m:s:ms)","GENERIC","186.543","0.3210839684450304","1056"
"21:23:26:60 (H:m:s:ms)","GENERIC","156.39100000000002","0.3483938807602953","944"
"21:3:26:60 (H:m:s:ms)","GENERIC","156.506","0.32174324580924796","943"
"21:23:32:121 (H:m:s:ms)","GENERIC","157.124","0.35037992936795803","897"
"21:3:32:121 (H:m:s:ms)","GENERIC","188.775","0.3241811523228782","884"
"21:3:38:181 (H:m:s:ms)","GENERIC","125.52","0.32279057271993444","821"
"21:36:50:526 (H:m:s:ms)","AMBULANCE","125.054","0.3653433442923978","535"
"21:36:46:60 (H:m:s:ms)","GENERIC","156.489","0.35751243228563695","939"
"21:37:54:0 (H:m:s:ms)","GENERIC","155.988","0.3525553336289599","3066"
"21:36:33:939 (H:m:s:ms)","GENERIC","156.37","0.358535052528446","1066"
"21:36:27:878 (H:m:s:ms)","GENERIC","156.732","0.3524753386293274","1129"
"21:36:21:818 (H:m:s:ms)","GENERIC","186.442","0.35203651761627386","190"
"21:23:32:658 (H:m:s:ms)","OPERA","155.835","0.34903110837158785","353"
"21:36:18:947 (H:m:s:ms)","AMBULANCE","125.25699999999999","0.3578978769209658","1120"
"21:23:38:181 (H:m:s:ms)","GENERIC","125.559","0.3489550611943697","822"
"21:36:15:757 (H:m:s:ms)","GENERIC","157.17000000000002","0.3370773669560221","251"
"21:3:41:52 (H:m:s:ms)","AMBULANCE","156.417","0.3095647213058922","1077"
"21:23:40:253 (H:m:s:ms)","OPERA","187.812","0.3487792244197958","964"
"21:36:9:696 (H:m:s:ms)","GENERIC","93.64","0.3409839744012675","345"
"21:8:26:0 (H:m:s:ms)","GENERIC","155.902","0.31228475461650235","4845"
"21:23:44:242 (H:m:s:ms)","GENERIC","155.949","0.3481335119706117","764"
"21:37:54:0 (H:m:s:ms)","GENERIC","187.437","0.36353740411537827","1416"
"21:3:50:303 (H:m:s:ms)","GENERIC","156.59","0.32060670973818084","703"
"21:23:47:848 (H:m:s:ms)","OPERA","156.025","0.3478019497546265","165"
"21:35:57:575 (H:m:s:ms)","GENERIC","186.766","0.3502560954513185","436"
"21:3:56:363 (H:m:s:ms)","GENERIC","188.095","0.32168975755902385","642"
"21:23:50:303 (H:m:s:ms)","GENERIC","156.76299999999998","0.34703887616692164","703"
"21:4:2:424 (H:m:s:ms)","GENERIC","155.336","0.31997122414231705","583"
"21:23:55:443 (H:m:s:ms)","OPERA","187.342","0.34921928788836837","559"
"21:4:8:484 (H:m:s:ms)","GENERIC","125.262","0.31831692756026125","518"
"21:23:56:363 (H:m:s:ms)","GENERIC","156.702","0.3504695414323062","642"
"21:4:12:631 (H:m:s:ms)","AMBULANCE","125.186","0.32014708001266623","400"
"21:24:2:424 (H:m:s:ms)","GENERIC","155.199","0.3485758034647293","583"
"21:4:14:545 (H:m:s:ms)","GENERIC","156.809","0.3201100091456514","463"
"21:24:3:37 (H:m:s:ms)","OPERA","124.757","0.3484048037724487","964"
"21:4:20:606 (H:m:s:ms)","GENERIC","125.654","0.31835640598579285","393"
"21:4:26:666 (H:m:s:ms)","GENERIC","188.8","0.3189058670008659","342"
"21:37:46:666 (H:m:s:ms)","GENERIC","186.501","0.34189115813832266","343"
"21:37:40:606 (H:m:s:ms)","GENERIC","188.05700000000002","0.33842759680778256","403"
"21:37:54:0 (H:m:s:ms)","GENERIC","188.11700000000002","0.3553324880649416","1488"
"21:37:28:484 (H:m:s:ms)","GENERIC","156.298","0.33075204378706874","521"
"21:37:22:424 (H:m:s:ms)","GENERIC","157.18","0.33269955949595725","602"
"21:37:22:105 (H:m:s:ms)","AMBULANCE","125.317","0.33159009711151965","913"
"21:24:8:484 (H:m:s:ms)","GENERIC","156.824","0.3473842995236177","518"
"21:24:10:632 (H:m:s:ms)","OPERA","155.981","0.34750987544361467","377"
"21:37:16:363 (H:m:s:ms)","GENERIC","157.312","0.33050300364034596","643"
"21:4:32:727 (H:m:s:ms)","GENERIC","124.905","0.31773517173481863","704"
"21:24:14:545 (H:m:s:ms)","GENERIC","156.84300000000002","0.3470002359151519","462"
"21:37:10:303 (H:m:s:ms)","GENERIC","188.886","0.33211717812310587","705"
"21:4:38:787 (H:m:s:ms)","GENERIC","186.68599999999998","0.3153437504204267","224"
"21:24:18:227 (H:m:s:ms)","OPERA","156.424","0.3463954249938408","798"
"21:37:4:242 (H:m:s:ms)","GENERIC","156.42000000000002","0.33367727148599113","764"
"21:4:44:210 (H:m:s:ms)","AMBULANCE","125.109","0.3163831938952841","795"
"21:24:20:606 (H:m:s:ms)","GENERIC","189.192","0.3465874834471581","398"
"21:36:58:181 (H:m:s:ms)","GENERIC","155.15699999999998","0.33399409650191897","829"
"21:4:44:848 (H:m:s:ms)","GENERIC","156.11","0.31732107341728893","164"
"21:24:25:822 (H:m:s:ms)","OPERA","187.365","0.34970662575572986","184"
"21:36:52:121 (H:m:s:ms)","GENERIC","156.958","0.3351546479952143","882"
"21:4:50:909 (H:m:s:ms)","GENERIC","156.526","0.3193208702162018","1095"
"21:24:26:666 (H:m:s:ms)","GENERIC","157.078","0.34922546067303883","341"
"21:4:56:969 (H:m:s:ms)","GENERIC","155.668","0.3195973860590321","1040"
"21:24:32:727 (H:m:s:ms)","GENERIC","156.063","0.34847458040615376","275"
"21:5:3:30 (H:m:s:ms)","GENERIC","124.274","0.3181449329423685","976"
"21:24:33:417 (H:m:s:ms)","OPERA","156.199","0.34942731366001445","589"
"21:8:26:0 (H:m:s:ms)","GENERIC","156.518","0.31391495266831454","1975"
"21:24:38:787 (H:m:s:ms)","GENERIC","186.838","0.34607104815066786","223"
"21:5:15:151 (H:m:s:ms)","GENERIC","156.294","0.3196304176797786","852"
"21:5:15:789 (H:m:s:ms)","AMBULANCE","125.227","0.3207149842236833","220"
"21:38:47:272 (H:m:s:ms)","GENERIC","155.907","0.37241752362069197","732"
"21:38:41:212 (H:m:s:ms)","GENERIC","156.213","0.3728756320849126","791"
"21:38:35:151 (H:m:s:ms)","GENERIC","155.754","0.36299115086407024","854"
"21:38:29:90 (H:m:s:ms)","GENERIC","186.449","0.365342711827736","961"
"21:38:23:30 (H:m:s:ms)","GENERIC","186.45499999999998","0.3651777716508075","978"
"21:38:16:969 (H:m:s:ms)","GENERIC","155.691","0.3644918063041323","1041"
"21:38:10:909 (H:m:s:ms)","GENERIC","124.184","0.3638033061751287","1094"
"21:24:41:12 (H:m:s:ms)","OPERA","156.293","0.3432319820479703","1009"
"21:24:44:848 (H:m:s:ms)","GENERIC","156.019","0.3418358695728746","158"
"21:5:21:212 (H:m:s:ms)","GENERIC","187.188","0.31845723045594576","796"
"21:24:48:607 (H:m:s:ms)","OPERA","187.523","0.3415510307202591","417"
"21:10:1:0 (H:m:s:ms)","GENERIC","156.046","0.304386001944745","5872"
"21:24:50:909 (H:m:s:ms)","GENERIC","156.711","0.34338544302332147","1093"
"21:38:4:848 (H:m:s:ms)","GENERIC","93.834","0.3640079028495389","153"
"20:45:39:393 (H:m:s:ms)","GENERIC","186.297","0.32971791726447225","654"
"21:5:33:333 (H:m:s:ms)","GENERIC","155.392","0.3171961517090777","673"
"21:24:56:202 (H:m:s:ms)","OPERA","124.738","0.3436482039996662","800"
"21:37:58:787 (H:m:s:ms)","GENERIC","155.475","0.3590412694620964","222"
"20:45:41:772 (H:m:s:ms)","OPERA","125.11","0.33032509189527093","234"
"21:5:39:393 (H:m:s:ms)","GENERIC","124.23","0.3175072215887576","655"
"21:24:56:969 (H:m:s:ms)","GENERIC","155.527","0.34160336673680897","1038"
"21:37:53:684 (H:m:s:ms)","AMBULANCE","125.104","0.35151725245081805","391"
"20:45:45:454 (H:m:s:ms)","GENERIC","156.66500000000002","0.3283194640864537","551"
"21:5:45:454 (H:m:s:ms)","GENERIC","156.709","0.3162479701747327","553"
"21:25:3:30 (H:m:s:ms)","GENERIC","155.368","0.342412341166271","976"
"21:37:52:727 (H:m:s:ms)","GENERIC","156.343","0.3379115814383546","281"
"20:45:51:515 (H:m:s:ms)","GENERIC","188.587","0.32687671361372944","492"
"21:5:47:368 (H:m:s:ms)","AMBULANCE","125.059","0.3202767955156354","680"
"21:25:3:797 (H:m:s:ms)","OPERA","187.633","0.3412945198155262","220"
"20:45:56:962 (H:m:s:ms)","OPERA","156.447","0.328392539533114","1039"
"21:5:51:515 (H:m:s:ms)","GENERIC","157.059","0.3196981487166087","492"
"21:25:9:90 (H:m:s:ms)","GENERIC","156.39100000000002","0.3431611389917102","953"
"20:45:57:575 (H:m:s:ms)","GENERIC","186.928","0.3273455061238849","432"
"21:5:57:575 (H:m:s:ms)","GENERIC","155.70999999999998","0.31869488217241015","436"
"21:25:11:392 (H:m:s:ms)","OPERA","156.052","0.34302731293081623","610"
"20:46:3:636 (H:m:s:ms)","GENERIC","187.699","0.32646481106041264","680"
"21:10:1:0 (H:m:s:ms)","GENERIC","187.558","0.310698386259019","5645"
"20:46:4:556 (H:m:s:ms)","OPERA","125.21499999999999","0.32626863555897184","453"
"21:6:9:696 (H:m:s:ms)","GENERIC","188.03","0.31954220544144385","353"
"20:46:9:696 (H:m:s:ms)","GENERIC","156.75300000000001","0.32341396167049347","352"
"20:46:12:151 (H:m:s:ms)","OPERA","93.811","0.32402189823629385","853"
"21:39:41:818 (H:m:s:ms)","GENERIC","187.535","0.34481747677076025","187"
"21:39:35:757 (H:m:s:ms)","GENERIC","156.885","0.3433391863620408","249"
"21:39:29:696 (H:m:s:ms)","GENERIC","156.034","0.3467017606428439","346"
"21:39:28:421 (H:m:s:ms)","AMBULANCE","125.389","0.34829602307198015","612"
"21:39:23:636 (H:m:s:ms)","GENERIC","156.93900000000002","0.37231284616668486","372"
"21:39:17:575 (H:m:s:ms)","GENERIC","157.35399999999998","0.37324689737250505","427"
"21:39:11:515 (H:m:s:ms)","GENERIC","157.135","0.37195773014482514","491"
"21:39:5:454 (H:m:s:ms)","GENERIC","125.68199999999999","0.37048968756440526","548"
"21:25:15:151 (H:m:s:ms)","GENERIC","156.215","0.34307608617930946","856"
"21:25:21:212 (H:m:s:ms)","GENERIC","155.899","0.34281591316379656","792"
"21:6:15:757 (H:m:s:ms)","GENERIC","188.921","0.31879716220940363","253"
"21:25:26:582 (H:m:s:ms)","OPERA","156.288","0.3458753614483009","425"
"21:6:18:947 (H:m:s:ms)","AMBULANCE","125.16999999999999","0.31118864628917176","1154"
"21:25:27:272 (H:m:s:ms)","GENERIC","155.927","0.3435694461510085","731"
"20:46:15:757 (H:m:s:ms)","GENERIC","188.914","0.32487228300499177","251"
"21:6:21:818 (H:m:s:ms)","GENERIC","186.321","0.3214975607252846","190"
"21:25:33:333 (H:m:s:ms)","GENERIC","155.537","0.3409593788743108","674"
"20:46:19:746 (H:m:s:ms)","OPERA","125.241","0.3256711803593402","301"
"21:6:27:878 (H:m:s:ms)","GENERIC","188.336","0.32265679411317266","1132"
"21:30:32:0 (H:m:s:ms)","OPERA","187.474","0.31780794493125475","1953"
"21:38:59:393 (H:m:s:ms)","GENERIC","156.311","0.37197114355544664","650"
"20:46:21:818 (H:m:s:ms)","GENERIC","186.409","0.32517806604387794","187"
"21:6:33:939 (H:m:s:ms)","GENERIC","156.525","0.3227968841326399","1251"
"21:25:39:393 (H:m:s:ms)","GENERIC","155.364","0.335798407218319","654"
"21:38:56:842 (H:m:s:ms)","AMBULANCE","93.918","0.37111773348397564","159"
"20:46:27:341 (H:m:s:ms)","OPERA","125.201","0.3263253781337494","663"
"21:6:40:0 (H:m:s:ms)","GENERIC","125.267","0.31967217490029926","1097"
"21:25:41:772 (H:m:s:ms)","OPERA","124.77600000000001","0.3359291829019822","232"
"21:38:53:333 (H:m:s:ms)","GENERIC","156.78199999999998","0.37169496581475364","672"
"20:46:27:878 (H:m:s:ms)","GENERIC","156.764","0.3243322036255098","1133"
"21:6:46:60 (H:m:s:ms)","GENERIC","187.911","0.32214270529936895","947"
"21:25:45:454 (H:m:s:ms)","GENERIC","188.287","0.3363826100103748","551"
"20:46:33:939 (H:m:s:ms)","GENERIC","124.595","0.3219387266010363","1063"
"21:6:50:526 (H:m:s:ms)","AMBULANCE","93.776","0.3215707669700601","478"
"21:25:51:515 (H:m:s:ms)","GENERIC","156.929","0.3329167749739696","494"
"20:46:34:936 (H:m:s:ms)","OPERA","156.322","0.32402422606286846","1075"
"21:6:52:121 (H:m:s:ms)","GENERIC","188.55599999999998","0.3259337652786643","884"
"20:46:40:0 (H:m:s:ms)","GENERIC","157.203","0.3200888146399593","1052"
"21:6:58:181 (H:m:s:ms)","GENERIC","155.308","0.32064926758170526","830"
"20:46:46:60 (H:m:s:ms)","GENERIC","188.013","0.31839067658866677","941"
"20:46:50:126 (H:m:s:ms)","OPERA","124.808","0.3186646708758138","882"
"21:40:0:0 (H:m:s:ms)","AMBULANCE","93.739","0.34373849479934476","2565"
"21:40:36:363 (H:m:s:ms)","GENERIC","156.036","0.35515617042508946","641"
"21:40:30:303 (H:m:s:ms)","GENERIC","156.304","0.35411290557897135","703"
"21:40:24:242 (H:m:s:ms)","GENERIC","157.46800000000002","0.36101725229989057","760"
"21:40:18:181 (H:m:s:ms)","GENERIC","187.26299999999998","0.3590652698705423","826"
"21:40:12:121 (H:m:s:ms)","GENERIC","188.856","0.35120135365665417","887"
"21:40:6:60 (H:m:s:ms)","GENERIC","157.07","0.35108626330982273","946"
"21:40:0:0 (H:m:s:ms)","GENERIC","155.22899999999998","0.3489297388912964","2580"
"21:40:0:0 (H:m:s:ms)","GENERIC","186.995","0.347843485891056","2572"
"21:10:1:0 (H:m:s:ms)","GENERIC","187.757","0.3090623877192871","4936"
"21:7:10:303 (H:m:s:ms)","GENERIC","157.239","0.32099601456955335","705"
"20:46:52:121 (H:m:s:ms)","GENERIC","125.339","0.31675893968594865","882"
"21:7:16:363 (H:m:s:ms)","GENERIC","189.012","0.3203390314297942","641"
"20:46:57:721 (H:m:s:ms)","OPERA","125.071","0.31560712905701","290"
"21:7:22:105 (H:m:s:ms)","AMBULANCE","125.16","0.31006360586078474","942"
"20:46:58:181 (H:m:s:ms)","GENERIC","155.334","0.31341160640513427","828"
"21:7:22:424 (H:m:s:ms)","GENERIC","125.431","0.3111152603694459","631"
"20:47:4:242 (H:m:s:ms)","GENERIC","187.868","0.31313104545106596","765"
"21:7:28:484 (H:m:s:ms)","GENERIC","156.17000000000002","0.32007223026641574","521"
"21:39:53:939 (H:m:s:ms)","GENERIC","156.161","0.3414809076957184","1061"
"20:47:5:316 (H:m:s:ms)","OPERA","124.89099999999999","0.31375790011516563","700"
"21:7:34:545 (H:m:s:ms)","GENERIC","187.864","0.32079594913203235","460"
"21:39:47:878 (H:m:s:ms)","GENERIC","125.592","0.34196985818179554","1123"
"20:47:10:303 (H:m:s:ms)","GENERIC","125.512","0.3131774095266957","703"
"21:8:26:0 (H:m:s:ms)","GENERIC","156.64100000000002","0.31711224967448015","1469"
"20:47:12:911 (H:m:s:ms)","OPERA","156.465","0.3149846806453774","1100"
"21:7:46:666 (H:m:s:ms)","GENERIC","155.54","0.3205884972822914","340"
"20:47:16:363 (H:m:s:ms)","GENERIC","157.357","0.3185144308498605","642"
"21:7:52:727 (H:m:s:ms)","GENERIC","156.313","0.31754383872523323","280"
"20:47:20:506 (H:m:s:ms)","OPERA","125.193","0.318429333997576","506"
"20:47:22:424 (H:m:s:ms)","GENERIC","157.138","0.31653738537930676","582"
"21:7:53:684 (H:m:s:ms)","AMBULANCE","156.498","0.3073053441554014","329"
"21:7:58:787 (H:m:s:ms)","GENERIC","155.475","0.32102001289898235","221"
"20:47:28:101 (H:m:s:ms)","OPERA","125.22800000000001","0.31896836309552057","905"
"21:8:4:848 (H:m:s:ms)","GENERIC","157.389","0.31996760334419116","154"
"20:47:28:484 (H:m:s:ms)","GENERIC","156.321","0.31783636440969987","525"
"21:8:10:909 (H:m:s:ms)","GENERIC","155.284","0.3231427115581709","1094"
"20:47:34:545 (H:m:s:ms)","GENERIC","188.018","0.3152506431508876","461"
"21:8:16:969 (H:m:s:ms)","GENERIC","124.49799999999999","0.32280077428631204","1040"
"20:47:35:696 (H:m:s:ms)","OPERA","156.479","0.3153943792516414","310"
"21:8:23:30 (H:m:s:ms)","GENERIC","155.506","0.3203692226739632","977"
"20:47:40:606 (H:m:s:ms)","GENERIC","156.479","0.3165170680897398","396"
"21:8:25:263 (H:m:s:ms)","AMBULANCE","125.351","0.3137454230779863","804"
"20:47:43:291 (H:m:s:ms)","OPERA","156.454","0.3160304464630685","722"
"21:8:29:90 (H:m:s:ms)","GENERIC","186.536","0.3170782130506857","957"
"21:40:42:424 (H:m:s:ms)","GENERIC","156.95","0.35284681688912595","581"
"20:47:46:666 (H:m:s:ms)","GENERIC","155.463","0.3150359318127848","340"
"21:8:35:151 (H:m:s:ms)","GENERIC","155.70100000000002","0.31830561131177615","855"
"20:47:50:886 (H:m:s:ms)","OPERA","156.49","0.3188723069662663","248"
"21:10:1:0 (H:m:s:ms)","GENERIC","93.471","0.3073505115484394","1848"
"20:47:52:727 (H:m:s:ms)","GENERIC","187.38","0.32058744152273505","283"
"20:47:58:481 (H:m:s:ms)","OPERA","125.25699999999999","0.32213559444823026","529"
"21:8:47:272 (H:m:s:ms)","GENERIC","155.931","0.3100323078477395","734"
"21:8:53:333 (H:m:s:ms)","GENERIC","156.82999999999998","0.3118032257845383","675"
"20:47:58:787 (H:m:s:ms)","GENERIC","155.55","0.32148480778570115","230"
"21:8:56:842 (H:m:s:ms)","AMBULANCE","93.595","0.3093914861880518","283"
"20:48:4:848 (H:m:s:ms)","GENERIC","125.589","0.31962156062856323","154"
"21:10:1:0 (H:m:s:ms)","GENERIC","187.761","0.3147749612924738","1714"
"20:30:0:0 (H:m:s:ms)","GENERIC","187.036","0.2944450312581899","1044"
"20:48:6:75 (H:m:s:ms)","OPERA","156.565","0.32177656486672274","935"
"21:9:5:454 (H:m:s:ms)","GENERIC","157.463","0.31049948820333295","550"
"20:30:0:0 (H:m:s:ms)","GENERIC","155.256","0.2955867068411218","1053"
"20:48:10:909 (H:m:s:ms)","GENERIC","124.18700000000001","0.31827651010941527","1090"
"21:9:11:515 (H:m:s:ms)","GENERIC","188.776","0.3109327008362648","491"
"20:30:6:60 (H:m:s:ms)","GENERIC","156.874","0.29718225160610473","946"
"20:48:13:670 (H:m:s:ms)","OPERA","155.992","0.3181238999571311","345"
"21:9:17:575 (H:m:s:ms)","GENERIC","157.334","0.3117931845714378","428"
"20:30:12:121 (H:m:s:ms)","GENERIC","157.249","0.29795457598828834","886"
"20:48:16:969 (H:m:s:ms)","GENERIC","93.22999999999999","0.31765387586465355","1035"
"21:9:23:636 (H:m:s:ms)","GENERIC","156.969","0.30853335789096586","373"
"20:30:18:181 (H:m:s:ms)","GENERIC","155.996","0.29854997632211233","824"
"20:48:21:265 (H:m:s:ms)","OPERA","125.237","0.3199765694492851","750"
"21:9:28:421 (H:m:s:ms)","AMBULANCE","125.153","0.3086596623072931","580"
"20:30:24:242 (H:m:s:ms)","GENERIC","189.027","0.2925921898488021","761"
"20:48:23:30 (H:m:s:ms)","GENERIC","155.488","0.31838229680681823","976"
"21:10:1:0 (H:m:s:ms)","GENERIC","155.977","0.30438548709306024","1380"
"20:30:30:303 (H:m:s:ms)","GENERIC","124.895","0.2933450479753631","707"
"20:48:28:860 (H:m:s:ms)","OPERA","156.499","0.3180906233126142","152"
"20:30:36:363 (H:m:s:ms)","GENERIC","187.412","0.2919747878514458","646"
"20:48:29:90 (H:m:s:ms)","GENERIC","186.386","0.3184233838996695","961"
"20:30:42:424 (H:m:s:ms)","GENERIC","188.546","0.2934260912026272","581"
"20:30:48:484 (H:m:s:ms)","GENERIC","188.051","0.29421711020879193","523"
"21:9:35:757 (H:m:s:ms)","GENERIC","156.763","0.3083754645590453","251"
"21:10:1:0 (H:m:s:ms)","GENERIC","187.192","0.306691586476829","1229"
"20:48:35:151 (H:m:s:ms)","GENERIC","155.614","0.31989383475035893","852"
"21:9:47:878 (H:m:s:ms)","GENERIC","125.584","0.3059511618792724","1123"
"20:48:36:455 (H:m:s:ms)","OPERA","125.36999999999999","0.3190382290817105","564"
"21:10:1:0 (H:m:s:ms)","GENERIC","156.17000000000002","0.30833085378224023","2125"
"20:30:54:545 (H:m:s:ms)","GENERIC","125.388","0.29184336175012626","467"
"20:48:41:212 (H:m:s:ms)","GENERIC","156.293","0.3205857137823676","787"
"21:10:0:0 (H:m:s:ms)","AMBULANCE","125.154","0.3016746441279163","1047"
"20:31:0:606 (H:m:s:ms)","GENERIC","155.373","0.2933657992741893","403"
"20:48:47:272 (H:m:s:ms)","GENERIC","155.824","0.3196763129769288","733"
"21:10:0:0 (H:m:s:ms)","GENERIC","155.737","0.30060744123734967","1055"
"20:31:6:666 (H:m:s:ms)","GENERIC","156.85000000000002","0.28976539996108075","338"
"20:48:51:645 (H:m:s:ms)","OPERA","125.25699999999999","0.31973700491473356","364"
"21:10:0:0 (H:m:s:ms)","GENERIC","186.23000000000002","0.3009018059158974","1063"
"20:31:12:727 (H:m:s:ms)","GENERIC","156.90800000000002","0.29063944510974776","277"
"20:48:53:333 (H:m:s:ms)","GENERIC","188.388","0.31923104279440423","672"
"21:10:6:60 (H:m:s:ms)","GENERIC","188.549","0.31431857161269144","947"
"20:31:18:787 (H:m:s:ms)","GENERIC","156.44","0.2899150541339736","217"
"20:48:59:240 (H:m:s:ms)","OPERA","125.354","0.32136271261977156","809"
"21:10:12:121 (H:m:s:ms)","GENERIC","188.762","0.3175120403401551","885"
"20:31:24:848 (H:m:s:ms)","GENERIC","157.102","0.2930252668123417","154"
"20:48:59:393 (H:m:s:ms)","GENERIC","156.584","0.3217917588648512","661"
"21:10:18:181 (H:m:s:ms)","GENERIC","187.149","0.3152200494116257","825"
"20:31:30:909 (H:m:s:ms)","GENERIC","188.196","0.2957248370805128","1090"
"20:49:5:454 (H:m:s:ms)","GENERIC","157.338","0.31892608261842753","550"
"20:31:36:969 (H:m:s:ms)","GENERIC","155.738","0.2939181484178491","1037"
"20:49:6:835 (H:m:s:ms)","OPERA","125.252","0.3206565859287964","167"
"20:31:43:30 (H:m:s:ms)","GENERIC","155.815","0.29501973399258463","977"
"20:31:49:90 (H:m:s:ms)","GENERIC","187.589","0.29365537207105885","952"
"20:49:11:515 (H:m:s:ms)","GENERIC","157.086","0.31782916447999815","490"
"20:49:14:430 (H:m:s:ms)","OPERA","156.31","0.3186225057982793","583"
"20:31:55:151 (H:m:s:ms)","GENERIC","156.472","0.29461758816507466","853"
"20:49:17:575 (H:m:s:ms)","GENERIC","157.23","0.31940665158237136","427"
"20:32:1:212 (H:m:s:ms)","GENERIC","156.748","0.2959619729178722","795"
"20:49:22:25 (H:m:s:ms)","OPERA","125.021","0.3218589250773674","986"
"20:32:7:272 (H:m:s:ms)","GENERIC","188.935","0.2960613329425536","731"
"20:49:23:636 (H:m:s:ms)","GENERIC","188.562","0.31981974358081144","372"
"20:32:13:333 (H:m:s:ms)","GENERIC","157.26","0.2977812860295176","671"
"20:49:29:620 (H:m:s:ms)","OPERA","156.173","0.3186028988648453","434"
"20:32:19:393 (H:m:s:ms)","GENERIC","156.377","0.298830876315888","648"
"20:49:29:696 (H:m:s:ms)","GENERIC","186.935","0.3175219975256739","369"
"20:32:25:454 (H:m:s:ms)","GENERIC","157.078","0.30126214417625197","550"
"20:49:35:757 (H:m:s:ms)","GENERIC","188.338","0.3127415207826497","249"
"20:32:31:515 (H:m:s:ms)","GENERIC","155.72199999999998","0.3007080426683689","491"
"20:49:37:215 (H:m:s:ms)","OPERA","125.08","0.3140793791746969","789"
"20:32:37:575 (H:m:s:ms)","GENERIC","187.00400000000002","0.29887991544029496","430"
"20:49:41:818 (H:m:s:ms)","GENERIC","187.076","0.3176381180608705","190"
"20:32:43:636 (H:m:s:ms)","GENERIC","189.063","0.30028166147669","366"
"20:32:49:696 (H:m:s:ms)","GENERIC","186.559","0.3016121303108291","345"
"20:49:44:810 (H:m:s:ms)","OPERA","125.051","0.3173191820273841","206"
"20:49:47:878 (H:m:s:ms)","GENERIC","157.246","0.3141131118804124","1125"
"20:32:55:757 (H:m:s:ms)","GENERIC","155.8","0.3004809608637784","249"
"20:49:52:405 (H:m:s:ms)","OPERA","93.752","0.31583977093217225","596"
"20:33:1:818 (H:m:s:ms)","GENERIC","187.182","0.2996900843003218","188"
"20:49:53:939 (H:m:s:ms)","GENERIC","187.726","0.31601519593046823","1065"
"20:33:7:878 (H:m:s:ms)","GENERIC","187.74599999999998","0.2993718201111873","1127"
"20:50:0:0 (H:m:s:ms)","OPERA","125.07499999999999","0.3172303623377772","1051"
"20:33:13:939 (H:m:s:ms)","GENERIC","125.501","0.30021433871359987","1068"
"20:50:0:0 (H:m:s:ms)","GENERIC","186.833","0.31822747482165153","1056"
"20:33:20:0 (H:m:s:ms)","GENERIC","124.18","0.30200842854547305","1042"
"20:50:0:0 (H:m:s:ms)","GENERIC","155.282","0.31550406350244103","1046"
"20:33:26:60 (H:m:s:ms)","GENERIC","156.325","0.30439668386476826","945"
"20:50:6:60 (H:m:s:ms)","GENERIC","156.80700000000002","0.31952969353364824","946"
"20:33:32:121 (H:m:s:ms)","GENERIC","156.958","0.30327292095707375","883"
"20:50:12:121 (H:m:s:ms)","GENERIC","157.26600000000002","0.3178188098810901","885"
"20:33:38:181 (H:m:s:ms)","GENERIC","125.593","0.3018630641864891","822"
"20:50:18:181 (H:m:s:ms)","GENERIC","124.476","0.3175673630161957","823"
"20:33:44:242 (H:m:s:ms)","GENERIC","155.749","0.3001477389205578","768"
"20:33:50:303 (H:m:s:ms)","GENERIC","93.65","0.3018704148601805","705"
"20:50:24:242 (H:m:s:ms)","GENERIC","125.576","0.3180237873856562","762"
"20:50:30:303 (H:m:s:ms)","GENERIC","156.539","0.31839024319684983","700"
"20:33:56:363 (H:m:s:ms)","GENERIC","156.627","0.30156144694772796","644"
"20:50:36:363 (H:m:s:ms)","GENERIC","156.04","0.31922363705889634","640"
"20:34:2:424 (H:m:s:ms)","GENERIC","186.458","0.3033742991466116","582"
"20:50:42:424 (H:m:s:ms)","GENERIC","156.962","0.314687718655051","582"
"20:10:0:0 (H:m:s:ms)","GENERIC","155.934","0.2862468131448833","1009"
"20:34:8:484 (H:m:s:ms)","GENERIC","188.421","0.3015161851661213","520"
"20:50:48:484 (H:m:s:ms)","GENERIC","188.239","0.3164421505023157","519"
"20:10:0:0 (H:m:s:ms)","GENERIC","155.327","0.28585289116390333","1053"
"20:34:14:545 (H:m:s:ms)","GENERIC","156.824","0.2998895980281056","463"
"20:50:54:545 (H:m:s:ms)","GENERIC","188.664","0.3173988076899588","465"
"20:10:6:60 (H:m:s:ms)","GENERIC","188.48000000000002","0.28749239460105225","946"
"20:34:20:606 (H:m:s:ms)","GENERIC","125.653","0.29810572701984106","395"
"20:51:0:606 (H:m:s:ms)","GENERIC","155.344","0.3190106908862775","401"
"20:10:12:121 (H:m:s:ms)","GENERIC","157.211","0.2896990863846322","884"
"20:34:26:666 (H:m:s:ms)","GENERIC","188.732","0.29991434353670715","340"
"20:51:6:666 (H:m:s:ms)","GENERIC","188.415","0.31916108535594656","337"
"20:10:18:181 (H:m:s:ms)","GENERIC","155.942","0.29155308680116987","827"
"20:34:32:727 (H:m:s:ms)","GENERIC","155.226","0.30016847158041265","280"
"20:51:12:727 (H:m:s:ms)","GENERIC","156.82","0.3197046116422576","278"
"20:10:24:242 (H:m:s:ms)","GENERIC","157.284","0.29425473051642215","763"
"20:34:38:787 (H:m:s:ms)","GENERIC","155.436","0.29849945432640906","222"
"20:51:18:787 (H:m:s:ms)","GENERIC","156.537","0.3163036745147146","216"
"20:10:30:303 (H:m:s:ms)","GENERIC","156.437","0.29139273538798666","706"
"20:34:44:848 (H:m:s:ms)","GENERIC","156.093","0.2988348319001127","158"
"20:10:36:363 (H:m:s:ms)","GENERIC","156.107","0.2905831432793429","643"
"20:34:50:909 (H:m:s:ms)","GENERIC","187.843","0.3014197602212676","1097"
"20:10:42:424 (H:m:s:ms)","GENERIC","157.019","0.2914142777999632","580"
"20:10:48:484 (H:m:s:ms)","GENERIC","156.578","0.28979516217300333","523"
"20:51:24:848 (H:m:s:ms)","GENERIC","157.179","0.317217454325109","159"
"20:51:30:909 (H:m:s:ms)","GENERIC","188.139","0.32103213927809504","1098"
"20:34:56:969 (H:m:s:ms)","GENERIC","155.65200000000002","0.30400265917370667","1040"
"20:51:36:969 (H:m:s:ms)","GENERIC","187.013","0.32191809959846557","1041"
"20:35:3:30 (H:m:s:ms)","GENERIC","124.358","0.30363712854988406","975"
"20:51:43:30 (H:m:s:ms)","GENERIC","186.82999999999998","0.3226004995278364","973"
"20:10:54:545 (H:m:s:ms)","GENERIC","156.982","0.29122670401858614","465"
"20:35:9:90 (H:m:s:ms)","GENERIC","156.568","0.30165223662912355","954"
"20:51:49:90 (H:m:s:ms)","GENERIC","156.278","0.32154417526519097","959"
"20:11:0:606 (H:m:s:ms)","GENERIC","155.422","0.29267194919865375","402"
"20:35:15:151 (H:m:s:ms)","GENERIC","187.715","0.3030730212754528","854"
"20:51:55:151 (H:m:s:ms)","GENERIC","188.055","0.3190986206637984","854"
"20:11:6:666 (H:m:s:ms)","GENERIC","156.859","0.29309088106500214","336"
"20:35:21:212 (H:m:s:ms)","GENERIC","155.847","0.30527507950811367","793"
"20:52:1:212 (H:m:s:ms)","GENERIC","156.786","0.31542651769489555","794"
"20:11:12:727 (H:m:s:ms)","GENERIC","156.852","0.2947827566170017","285"
"20:35:27:272 (H:m:s:ms)","GENERIC","156.062","0.3037283679623418","734"
"20:52:7:272 (H:m:s:ms)","GENERIC","157.059","0.31365330603990177","730"
"20:11:18:787 (H:m:s:ms)","GENERIC","156.176","0.29409149083199554","232"
"20:35:33:333 (H:m:s:ms)","GENERIC","186.607","0.30394768225624125","671"
"20:52:13:333 (H:m:s:ms)","GENERIC","188.625","0.31382475407451554","673"
"20:11:24:848 (H:m:s:ms)","GENERIC","157.047","0.2957443772604857","156"
"20:35:39:393 (H:m:s:ms)","GENERIC","155.333","0.30567343352462817","648"
"20:52:19:393 (H:m:s:ms)","GENERIC","156.429","0.3134433618277922","649"
"20:11:30:909 (H:m:s:ms)","GENERIC","125.09700000000001","0.29541128852405396","1100"
"20:35:45:454 (H:m:s:ms)","GENERIC","156.637","0.3036123191712457","555"
"20:11:36:969 (H:m:s:ms)","GENERIC","155.643","0.2973771585644106","1037"
"20:35:51:515 (H:m:s:ms)","GENERIC","157.11","0.3028518780569693","491"
"20:11:43:30 (H:m:s:ms)","GENERIC","124.44900000000001","0.29852604807202726","976"
"20:11:49:90 (H:m:s:ms)","GENERIC","187.651","0.2982243684896535","954"
"20:0:54:545 (H:m:s:ms)","GENERIC","125.949","0.16198082094680735","466"
"20:1:0:606 (H:m:s:ms)","GENERIC","124.412","0.168795427506266","403"
"20:1:6:666 (H:m:s:ms)","GENERIC","125.82499999999999","0.17857128283300275","343"
"20:1:12:727 (H:m:s:ms)","GENERIC","125.76599999999999","0.1850816034525996","280"
"20:1:18:787 (H:m:s:ms)","GENERIC","125.743","0.18893516384963302","223"
"20:1:24:848 (H:m:s:ms)","GENERIC","126.075","0.2010045574585756","163"
"20:1:30:909 (H:m:s:ms)","GENERIC","125.648","0.21053787672933436","1096"
"20:1:36:969 (H:m:s:ms)","GENERIC","93.496","0.21430424202223824","1039"
"20:1:43:30 (H:m:s:ms)","GENERIC","124.582","0.21788637657527543","977"
"20:1:49:90 (H:m:s:ms)","GENERIC","156.52","0.21954219349657447","932"
"20:35:57:575 (H:m:s:ms)","GENERIC","186.988","0.30148568247019597","435"
"20:36:3:636 (H:m:s:ms)","GENERIC","155.946","0.299838914030566","369"
"20:11:55:151 (H:m:s:ms)","GENERIC","156.628","0.297566110253236","854"
"20:36:9:696 (H:m:s:ms)","GENERIC","124.98400000000001","0.3002155214766171","341"
"20:12:1:212 (H:m:s:ms)","GENERIC","156.685","0.2962171264002711","794"
"20:36:15:757 (H:m:s:ms)","GENERIC","157.087","0.30135014747137057","251"
"20:12:7:272 (H:m:s:ms)","GENERIC","125.551","0.2964467771754806","730"
"20:36:21:818 (H:m:s:ms)","GENERIC","186.433","0.3004731991371196","189"
"20:12:13:333 (H:m:s:ms)","GENERIC","157.256","0.29854011953954035","674"
"20:36:27:878 (H:m:s:ms)","GENERIC","156.806","0.2988195404192285","1130"
"20:12:19:393 (H:m:s:ms)","GENERIC","156.391","0.29607702823344517","652"
"20:36:33:939 (H:m:s:ms)","GENERIC","155.721","0.299114713540906","1070"
"20:12:25:454 (H:m:s:ms)","GENERIC","156.916","0.29547716513985617","550"
"20:36:40:0 (H:m:s:ms)","GENERIC","157.22899999999998","0.295406640583774","1044"
"20:12:31:515 (H:m:s:ms)","GENERIC","124.457","0.29664212782561256","491"
"20:36:46:60 (H:m:s:ms)","GENERIC","156.406","0.2941728439686625","945"
"20:12:37:575 (H:m:s:ms)","GENERIC","155.815","0.29707736926844","430"
"20:36:52:121 (H:m:s:ms)","GENERIC","156.811","0.29538358397343234","884"
"20:12:43:636 (H:m:s:ms)","GENERIC","157.22899999999998","0.29845820522461125","370"
"20:12:49:696 (H:m:s:ms)","GENERIC","155.355","0.2950565007630772","346"
"20:1:55:151 (H:m:s:ms)","GENERIC","156.92000000000002","0.22146956685088168","855"
"20:2:1:212 (H:m:s:ms)","GENERIC","125.69","0.22682546664414038","796"
"20:2:7:272 (H:m:s:ms)","GENERIC","157.837","0.23347246501040883","732"
"20:2:13:333 (H:m:s:ms)","GENERIC","62.80500000000001","0.24006838421836696","669"
"20:2:19:393 (H:m:s:ms)","GENERIC","156.697","0.24291450516178553","631"
"20:2:25:454 (H:m:s:ms)","GENERIC","157.664","0.247415397455033","549"
"20:2:31:515 (H:m:s:ms)","GENERIC","93.465","0.25184905847003985","494"
"20:2:37:575 (H:m:s:ms)","GENERIC","155.945","0.2576006187780813","432"
"20:2:43:636 (H:m:s:ms)","GENERIC","126.267","0.2603979135940609","367"
"20:2:49:696 (H:m:s:ms)","GENERIC","124.471","0.26325400034626667","328"
"20:36:58:181 (H:m:s:ms)","GENERIC","155.195","0.29525740636140274","828"
"20:37:4:242 (H:m:s:ms)","GENERIC","156.362","0.2968151271700189","768"
"20:12:55:757 (H:m:s:ms)","GENERIC","155.721","0.2945092454863233","250"
"20:37:10:303 (H:m:s:ms)","GENERIC","157.237","0.2979370584279043","706"
"20:13:1:818 (H:m:s:ms)","GENERIC","93.3","0.29442109095395436","188"
"20:37:16:363 (H:m:s:ms)","GENERIC","157.32999999999998","0.29802625322252135","642"
"20:13:7:878 (H:m:s:ms)","GENERIC","187.607","0.29542766805304516","1126"
"20:37:22:424 (H:m:s:ms)","GENERIC","125.56700000000001","0.29490694501194153","583"
"20:13:13:939 (H:m:s:ms)","GENERIC","188.806","0.2983054425311693","1069"
"20:37:28:484 (H:m:s:ms)","GENERIC","124.863","0.29163389564585146","521"
"20:13:20:0 (H:m:s:ms)","GENERIC","186.378","0.2966204571262223","1045"
"20:37:34:545 (H:m:s:ms)","GENERIC","187.898","0.2930765823999383","463"
"20:13:26:60 (H:m:s:ms)","GENERIC","156.44","0.2976017375820421","945"
"20:37:40:606 (H:m:s:ms)","GENERIC","187.91199999999998","0.29285457262469167","401"
"20:13:32:121 (H:m:s:ms)","GENERIC","157.005","0.2969195286855876","884"
"20:37:46:666 (H:m:s:ms)","GENERIC","155.256","0.29304490729269156","339"
"20:13:38:181 (H:m:s:ms)","GENERIC","93.874","0.2967463999225533","821"
"20:37:52:727 (H:m:s:ms)","GENERIC","156.14","0.29165802123290663","282"
"20:13:44:242 (H:m:s:ms)","GENERIC","155.87","0.2994135447600807","767"
"20:13:50:303 (H:m:s:ms)","GENERIC","188.37400000000002","0.30161201682301253","703"
"20:2:55:757 (H:m:s:ms)","GENERIC","155.853","0.2673335396732198","251"
"20:3:1:818 (H:m:s:ms)","GENERIC","124.874","0.2688948185034823","189"
"20:3:7:878 (H:m:s:ms)","GENERIC","156.497","0.2698922442884659","132"
"20:3:13:939 (H:m:s:ms)","GENERIC","126.214","0.2705609319284707","1073"
"20:3:20:0 (H:m:s:ms)","GENERIC","124.22899999999998","0.27273316285477195","1013"
"20:3:26:60 (H:m:s:ms)","GENERIC","156.925","0.2740511235457766","948"
"20:3:32:121 (H:m:s:ms)","GENERIC","157.79500000000002","0.2761554873955771","885"
"20:3:38:181 (H:m:s:ms)","GENERIC","62.814","0.2763641924504136","821"
"20:3:44:242 (H:m:s:ms)","GENERIC","124.82000000000001","0.27715292424872684","768"
"20:3:50:303 (H:m:s:ms)","GENERIC","125.785","0.2776305668961751","705"
"20:37:58:787 (H:m:s:ms)","GENERIC","155.525","0.2894172040469051","217"
"20:38:4:848 (H:m:s:ms)","GENERIC","157.341","0.29024402984940756","157"
"20:13:56:363 (H:m:s:ms)","GENERIC","125.15100000000001","0.29924303270333696","643"
"20:38:10:909 (H:m:s:ms)","GENERIC","155.276","0.28840450173730264","1090"
"20:14:2:424 (H:m:s:ms)","GENERIC","124.249","0.2974016499097023","582"
"20:38:16:969 (H:m:s:ms)","GENERIC","186.914","0.2881962798190258","1040"
"20:14:8:484 (H:m:s:ms)","GENERIC","125.331","0.2977489949185436","518"
"20:38:23:30 (H:m:s:ms)","GENERIC","155.425","0.28707153576788824","976"
"20:14:14:545 (H:m:s:ms)","GENERIC","188.481","0.29593083007545096","459"
"20:38:29:90 (H:m:s:ms)","GENERIC","155.393","0.28788875123531504","949"
"20:14:20:606 (H:m:s:ms)","GENERIC","157.445","0.29728105118477866","397"
"20:38:35:151 (H:m:s:ms)","GENERIC","186.957","0.29041578253509065","854"
"20:14:26:666 (H:m:s:ms)","GENERIC","188.836","0.29963917365268455","340"
"20:38:41:212 (H:m:s:ms)","GENERIC","124.834","0.28930971868064936","795"
"20:14:32:727 (H:m:s:ms)","GENERIC","155.207","0.29847150077801277","280"
"20:38:47:272 (H:m:s:ms)","GENERIC","187.376","0.29092759986178074","735"
"20:14:38:787 (H:m:s:ms)","GENERIC","155.522","0.2950404664373954","222"
"20:38:53:333 (H:m:s:ms)","GENERIC","188.247","0.2890834496461364","675"
"20:14:44:848 (H:m:s:ms)","GENERIC","156.121","0.2942572844741452","158"
"20:14:50:909 (H:m:s:ms)","GENERIC","187.935","0.2958340386648881","1097"
"20:3:56:363 (H:m:s:ms)","GENERIC","157.135","0.2772390878459924","644"
"20:4:2:424 (H:m:s:ms)","GENERIC","93.128","0.2809631469607761","582"
"20:4:8:484 (H:m:s:ms)","GENERIC","125.852","0.2827672030152423","519"
"20:4:14:545 (H:m:s:ms)","GENERIC","125.81","0.2850647464325877","461"
"20:4:20:606 (H:m:s:ms)","GENERIC","157.959","0.2892569116249548","398"
"20:4:26:666 (H:m:s:ms)","GENERIC","126.099","0.29063396508913","341"
"20:4:32:727 (H:m:s:ms)","GENERIC","124.185","0.2918456398431221","279"
"20:4:38:787 (H:m:s:ms)","GENERIC","124.47200000000001","0.29098362009106715","221"
"20:4:44:848 (H:m:s:ms)","GENERIC","125.144","0.29242538971401144","159"
"20:4:50:909 (H:m:s:ms)","GENERIC","156.966","0.29437756957368744","1099"
"20:38:59:393 (H:m:s:ms)","GENERIC","156.32","0.2904645124943476","651"
"20:39:5:454 (H:m:s:ms)","GENERIC","157.366","0.29065158834231775","549"
"20:14:56:969 (H:m:s:ms)","GENERIC","124.42500000000001","0.29611800584741477","1039"
"20:39:11:515 (H:m:s:ms)","GENERIC","188.676","0.2893024329055622","493"
"20:15:3:30 (H:m:s:ms)","GENERIC","155.333","0.29581678776061593","974"
"20:39:17:575 (H:m:s:ms)","GENERIC","157.29500000000002","0.29245543443416144","427"
"20:15:9:90 (H:m:s:ms)","GENERIC","187.912","0.2930058118242102","954"
"20:39:23:636 (H:m:s:ms)","GENERIC","156.87199999999999","0.2913002679534278","373"
"20:15:15:151 (H:m:s:ms)","GENERIC","187.695","0.2921531596459556","855"
"20:39:29:696 (H:m:s:ms)","GENERIC","156.096","0.2870761734792371","346"
"20:15:21:212 (H:m:s:ms)","GENERIC","155.986","0.2925102886120715","795"
"20:39:35:757 (H:m:s:ms)","GENERIC","188.336","0.2860169129608899","250"
"20:15:27:272 (H:m:s:ms)","GENERIC","187.154","0.2913830357445052","735"
"20:39:41:818 (H:m:s:ms)","GENERIC","156.101","0.2845745848476388","187"
"20:15:33:333 (H:m:s:ms)","GENERIC","155.51","0.28984241708446656","672"
"20:39:47:878 (H:m:s:ms)","GENERIC","157.31900000000002","0.2817729974432572","1123"
"20:15:39:393 (H:m:s:ms)","GENERIC","186.284","0.2899681093801757","649"
"20:39:53:939 (H:m:s:ms)","GENERIC","156.291","0.28070960893475355","1068"
"20:15:45:454 (H:m:s:ms)","GENERIC","156.617","0.2922590905128243","550"
"20:15:51:515 (H:m:s:ms)","GENERIC","157.007","0.2905368381470227","490"
"20:4:56:969 (H:m:s:ms)","GENERIC","155.927","0.29603485740139124","1038"
"20:5:3:30 (H:m:s:ms)","GENERIC","124.279","0.29330446821574996","975"
"20:5:9:90 (H:m:s:ms)","GENERIC","125.506","0.2912862850097341","940"
"20:5:15:151 (H:m:s:ms)","GENERIC","125.218","0.2914338520226851","854"
"20:5:21:212 (H:m:s:ms)","GENERIC","124.86999999999999","0.29051572439138634","794"
"20:5:27:272 (H:m:s:ms)","GENERIC","156.333","0.2863226243763834","736"
"20:5:33:333 (H:m:s:ms)","GENERIC","124.339","0.28645176033512165","673"
"20:5:39:393 (H:m:s:ms)","GENERIC","124.226","0.2853397082476629","637"
"20:5:45:454 (H:m:s:ms)","GENERIC","125.602","0.28798038773914714","553"
"20:5:51:515 (H:m:s:ms)","GENERIC","157.539","0.2886601871472818","493"
"20:15:57:575 (H:m:s:ms)","GENERIC","186.96800000000002","0.28903002577576564","434"
"20:16:3:636 (H:m:s:ms)","GENERIC","155.961","0.2856641712927899","371"
"20:16:9:696 (H:m:s:ms)","GENERIC","188.067","0.2861438007616159","343"
"20:16:15:757 (H:m:s:ms)","GENERIC","157.048","0.2833520401136796","250"
"20:16:21:818 (H:m:s:ms)","GENERIC","155.36","0.2851772168764077","187"
"20:16:27:878 (H:m:s:ms)","GENERIC","156.65","0.2870941337760509","1131"
"20:16:33:939 (H:m:s:ms)","GENERIC","155.737","0.28946560568236473","1064"
"20:16:40:0 (H:m:s:ms)","GENERIC","188.922","0.2912180564858346","1044"
"20:16:46:60 (H:m:s:ms)","GENERIC","156.414","0.2908799913703835","943"
"20:16:52:121 (H:m:s:ms)","GENERIC","188.433","0.2915450327170048","882"
"20:5:57:575 (H:m:s:ms)","GENERIC","155.917","0.2852888084228889","434"
"20:6:3:636 (H:m:s:ms)","GENERIC","124.74","0.2862095422025494","371"
"20:6:9:696 (H:m:s:ms)","GENERIC","156.981","0.2832891064002287","337"
"20:6:15:757 (H:m:s:ms)","GENERIC","157.746","0.28233443305631856","251"
"20:6:21:818 (H:m:s:ms)","GENERIC","124.25999999999999","0.28374581749056255","188"
"20:6:27:878 (H:m:s:ms)","GENERIC","125.738","0.28299664825985615","129"
"20:6:33:939 (H:m:s:ms)","GENERIC","155.961","0.28433531514922933","1066"
"20:6:40:0 (H:m:s:ms)","GENERIC","126.21199999999999","0.2838166529937874","1007"
"20:6:46:60 (H:m:s:ms)","GENERIC","125.53699999999999","0.2863719592087132","945"
"20:6:52:121 (H:m:s:ms)","GENERIC","125.77000000000001","0.28463450707317794","884"
"20:16:58:181 (H:m:s:ms)","GENERIC","186.373","0.2862737281832177","828"
"20:17:4:242 (H:m:s:ms)","GENERIC","187.817","0.286628791237158","767"
"20:17:10:303 (H:m:s:ms)","GENERIC","157.257","0.28712617868377005","702"
"20:17:16:363 (H:m:s:ms)","GENERIC","157.372","0.28658094576946036","642"
"20:17:22:424 (H:m:s:ms)","GENERIC","188.943","0.28822457638660665","581"
"20:17:28:484 (H:m:s:ms)","GENERIC","156.253","0.2876085788422539","521"
"20:17:34:545 (H:m:s:ms)","GENERIC","156.51299999999998","0.28725115932579914","463"
"20:17:40:606 (H:m:s:ms)","GENERIC","156.498","0.2865098505791719","400"
"20:17:46:666 (H:m:s:ms)","GENERIC","155.514","0.28725867641209457","340"
"20:17:52:727 (H:m:s:ms)","GENERIC","156.36","0.28560863997097363","282"
"20:6:58:181 (H:m:s:ms)","GENERIC","155.337","0.2848019640897622","827"
"20:7:4:242 (H:m:s:ms)","GENERIC","125.36099999999999","0.28233046183718197","767"
"20:7:10:303 (H:m:s:ms)","GENERIC","158.002","0.2812475159886253","703"
"20:7:16:363 (H:m:s:ms)","GENERIC","157.99","0.27941831841509673","642"
"20:7:22:424 (H:m:s:ms)","GENERIC","126.116","0.2842427896860498","582"
"20:7:28:484 (H:m:s:ms)","GENERIC","125.282","0.28332646292706726","520"
"20:7:34:545 (H:m:s:ms)","GENERIC","125.407","0.28246883931763495","462"
"20:7:40:606 (H:m:s:ms)","GENERIC","156.89000000000001","0.28145567736092875","402"
"20:7:46:666 (H:m:s:ms)","GENERIC","124.369","0.2857720457655833","340"
"20:7:52:727 (H:m:s:ms)","GENERIC","125.36500000000001","0.2819883692433186","281"
"20:17:58:787 (H:m:s:ms)","GENERIC","155.514","0.29106209891535045","219"
"20:18:4:848 (H:m:s:ms)","GENERIC","125.547","0.29183262353803924","153"
"20:18:10:909 (H:m:s:ms)","GENERIC","124.25","0.295414806001635","1093"
"20:18:16:969 (H:m:s:ms)","GENERIC","155.675","0.29347155186128","1039"
"20:18:23:30 (H:m:s:ms)","GENERIC","155.455","0.2922825239185186","977"
"20:18:29:90 (H:m:s:ms)","GENERIC","155.409","0.29328064786252145","951"
"20:18:35:151 (H:m:s:ms)","GENERIC","155.805","0.29322264632769846","857"
"20:18:41:212 (H:m:s:ms)","GENERIC","187.462","0.29403659407995714","796"
"20:18:47:272 (H:m:s:ms)","GENERIC","187.38","0.29547856710337184","737"
"20:18:53:333 (H:m:s:ms)","GENERIC","156.851","0.2955527014783552","672"
"20:7:58:787 (H:m:s:ms)","GENERIC","93.36","0.2779482073745828","218"
"20:8:4:848 (H:m:s:ms)","GENERIC","62.778999999999996","0.2781447161395446","153"
"20:8:10:909 (H:m:s:ms)","GENERIC","124.204","0.2799245982839946","1094"
"20:8:16:969 (H:m:s:ms)","GENERIC","155.847","0.2803321730419503","1040"
"20:8:23:30 (H:m:s:ms)","GENERIC","155.488","0.27677033196810574","976"
"20:8:29:90 (H:m:s:ms)","GENERIC","124.402","0.280005588516727","948"
"20:8:35:151 (H:m:s:ms)","GENERIC","124.892","0.2808273511136605","856"
"20:8:41:212 (H:m:s:ms)","GENERIC","125.112","0.28101630602642264","796"
"20:8:47:272 (H:m:s:ms)","GENERIC","156.352","0.2825992005819677","735"
"20:8:53:333 (H:m:s:ms)","GENERIC","157.297","0.28461861992502874","674"
"20:18:59:393 (H:m:s:ms)","GENERIC","156.209","0.2943247715102161","652"
"20:19:5:454 (H:m:s:ms)","GENERIC","157.321","0.2932699082976708","551"
"20:19:11:515 (H:m:s:ms)","GENERIC","188.55599999999998","0.29404605099516423","490"
"20:19:17:575 (H:m:s:ms)","GENERIC","157.237","0.29544406081593705","429"
"20:19:23:636 (H:m:s:ms)","GENERIC","188.50400000000002","0.296656850212162","370"
"20:19:29:696 (H:m:s:ms)","GENERIC","187.39","0.29474699814892513","350"
"20:19:35:757 (H:m:s:ms)","GENERIC","156.76","0.29365984898421754","252"
"20:19:41:818 (H:m:s:ms)","GENERIC","155.983","0.2970112692274322","191"
"20:19:47:878 (H:m:s:ms)","GENERIC","157.328","0.29442020665619384","1124"
"20:19:53:939 (H:m:s:ms)","GENERIC","156.311","0.29433762386369605","1067"
"20:8:59:393 (H:m:s:ms)","GENERIC","125.277","0.28508529641461977","651"
"20:9:5:454 (H:m:s:ms)","GENERIC","94.578","0.28736674927438866","547"
"20:9:11:515 (H:m:s:ms)","GENERIC","125.97200000000001","0.29029413087609396","491"
"20:9:17:575 (H:m:s:ms)","GENERIC","126.25800000000001","0.291923386921565","428"
"20:9:23:636 (H:m:s:ms)","GENERIC","94.271","0.28722969213398125","373"
"20:9:29:696 (H:m:s:ms)","GENERIC","125.119","0.285074905409063","346"
"20:9:35:757 (H:m:s:ms)","GENERIC","94.178","0.285776979102067","250"
"20:9:41:818 (H:m:s:ms)","GENERIC","125.107","0.2871969999048949","188"
"20:9:47:878 (H:m:s:ms)","GENERIC","94.56","0.28723439403742484","123"
"20:9:53:939 (H:m:s:ms)","GENERIC","156.708","0.28722291624636886","1066"
"21:41:24:848 (H:m:s:ms)","GENERIC","188.747","0.3698584903362776","156"
"21:41:18:787 (H:m:s:ms)","GENERIC","124.929","0.36032797015078266","216"
"21:41:12:727 (H:m:s:ms)","GENERIC","156.375","0.3635415480140321","275"
"21:41:6:666 (H:m:s:ms)","GENERIC","188.312","0.3594928008575656","338"
"21:41:0:606 (H:m:s:ms)","GENERIC","155.431","0.3565417706287387","401"
"21:40:54:545 (H:m:s:ms)","GENERIC","188.59699999999998","0.3566639642737378","466"
"21:40:48:484 (H:m:s:ms)","GENERIC","156.709","0.3574389467545665","522"
"21:41:43:30 (H:m:s:ms)","GENERIC","155.70499999999998","0.36564828520273046","979"
"21:41:36:969 (H:m:s:ms)","GENERIC","155.787","0.3680431773852618","1037"
"21:41:30:909 (H:m:s:ms)","GENERIC","156.752","0.36654809081915624","1095"
