"time (H:m:s:ms)","type","latency","utilisation","waiting"
"21:42:49:696 (H:m:s:ms)","GENERIC","62.125","0.18665507692960995","345"
"21:42:31:515 (H:m:s:ms)","GENERIC","62.089","0.1930041178416601","494"
"21:42:25:454 (H:m:s:ms)","GENERIC","62.057","0.19612668972426847","560"
"21:42:19:393 (H:m:s:ms)","GENERIC","62.089","0.20221846884860303","656"
"21:42:13:333 (H:m:s:ms)","GENERIC","62.113","0.20220647628947191","679"
"21:42:7:272 (H:m:s:ms)","GENERIC","62.097","0.1983354839581845","738"
"21:42:1:212 (H:m:s:ms)","GENERIC","62.023","0.1976316483711785","798"
"21:41:55:151 (H:m:s:ms)","GENERIC","62.121","0.1970992384783197","856"
"21:41:49:90 (H:m:s:ms)","GENERIC","62.139","0.1978449227662496","959"
"21:42:43:636 (H:m:s:ms)","GENERIC","62.071","0.1909597354457833","376"
"21:42:37:575 (H:m:s:ms)","GENERIC","62.045","0.19112737150258707","435"
"21:43:56:363 (H:m:s:ms)","GENERIC","62.047","0.18956623100364697","648"
"21:43:50:303 (H:m:s:ms)","GENERIC","62.031","0.18858655162649857","710"
"21:43:38:181 (H:m:s:ms)","GENERIC","62.101","0.18978250593243529","827"
"20:0:0:0 (H:m:s:ms)","GENERIC","31.043","0.01701964700570214","1527"
"21:43:32:121 (H:m:s:ms)","GENERIC","62.019","0.1884355078990777","887"
"20:0:6:60 (H:m:s:ms)","GENERIC","31.044","0.027947356690508907","955"
"21:43:26:60 (H:m:s:ms)","GENERIC","62.037","0.18593046715032968","947"
"20:0:12:121 (H:m:s:ms)","GENERIC","31.074","0.04336062447104511","894"
"21:43:20:0 (H:m:s:ms)","GENERIC","62.107","0.18746196146058322","1042"
"20:0:18:181 (H:m:s:ms)","GENERIC","31.033","0.0442721836047562","835"
"21:43:13:939 (H:m:s:ms)","GENERIC","62.083","0.18827021343593042","1071"
"20:0:24:242 (H:m:s:ms)","GENERIC","31.05","0.06649187476073272","776"
"21:43:7:878 (H:m:s:ms)","GENERIC","62.059","0.18620770769429054","1134"
"20:0:30:303 (H:m:s:ms)","GENERIC","31.026","0.07602789132178565","717"
"21:43:1:818 (H:m:s:ms)","GENERIC","62.085","0.18633912173589792","196"
"20:0:36:363 (H:m:s:ms)","GENERIC","31.087","0.09054006528428776","655"
"21:42:55:757 (H:m:s:ms)","GENERIC","62.145","0.18786392947282046","249"
"20:0:42:424 (H:m:s:ms)","GENERIC","31.022","0.10291631346530111","593"
"21:10:24:242 (H:m:s:ms)","GENERIC","62.083","0.19771383371759008","767"
"20:0:48:484 (H:m:s:ms)","GENERIC","31.047","0.10375017920116543","530"
"21:10:30:303 (H:m:s:ms)","GENERIC","62.053","0.1960810759246202","714"
"21:10:36:363 (H:m:s:ms)","GENERIC","62.103","0.19676940295299053","650"
"21:10:42:424 (H:m:s:ms)","GENERIC","62.037","0.1984163585009402","591"
"21:10:48:484 (H:m:s:ms)","GENERIC","62.127","0.20165849382364306","529"
"21:10:54:545 (H:m:s:ms)","GENERIC","62.103","0.20185319712471567","466"
"21:11:0:606 (H:m:s:ms)","GENERIC","62.103","0.20510290416029356","405"
"21:11:6:666 (H:m:s:ms)","GENERIC","62.051","0.204757062778113","345"
"21:43:44:242 (H:m:s:ms)","GENERIC","62.107","0.19001477107225143","763"
"21:11:12:727 (H:m:s:ms)","GENERIC","62.069","0.20512221451858012","283"
"21:11:18:787 (H:m:s:ms)","GENERIC","62.049","0.2063386397066356","221"
"21:25:49:367 (H:m:s:ms)","OPERA","62.011","0.24156663167816458","670"
"21:45:3:30 (H:m:s:ms)","GENERIC","62.105","0.18418164658848454","987"
"21:44:56:969 (H:m:s:ms)","GENERIC","62.027","0.1860817536470399","1046"
"21:44:50:909 (H:m:s:ms)","GENERIC","62.051","0.18806951082863516","1106"
"21:44:44:848 (H:m:s:ms)","GENERIC","62.115","0.18755194834674938","159"
"21:44:38:787 (H:m:s:ms)","GENERIC","62.069","0.18881468357148037","224"
"21:44:32:727 (H:m:s:ms)","GENERIC","62.127","0.1903612474363812","287"
"21:44:26:666 (H:m:s:ms)","GENERIC","62.105","0.18810552697280972","339"
"21:44:20:606 (H:m:s:ms)","GENERIC","62.065","0.18776877037302825","409"
"21:44:14:545 (H:m:s:ms)","GENERIC","62.119","0.18324370463841064","467"
"21:44:8:484 (H:m:s:ms)","GENERIC","62.047","0.18713742374289452","528"
"21:11:24:848 (H:m:s:ms)","GENERIC","62.123","0.2034554015309408","161"
"21:44:2:424 (H:m:s:ms)","GENERIC","62.021","0.19026467424200358","587"
"21:11:30:909 (H:m:s:ms)","GENERIC","62.037","0.2038852819088747","1102"
"21:11:36:969 (H:m:s:ms)","GENERIC","62.033","0.20353856061078132","1045"
"21:11:43:30 (H:m:s:ms)","GENERIC","62.033","0.20637825299545318","983"
"21:11:49:90 (H:m:s:ms)","GENERIC","62.147","0.20711485117962208","957"
"21:11:55:151 (H:m:s:ms)","GENERIC","62.107","0.20458421112358852","857"
"21:12:1:212 (H:m:s:ms)","GENERIC","62.075","0.20395744570984578","797"
"21:12:7:272 (H:m:s:ms)","GENERIC","62.065","0.2039701428641948","738"
"21:12:13:333 (H:m:s:ms)","GENERIC","62.095","0.20772975750892345","680"
"21:12:19:393 (H:m:s:ms)","GENERIC","62.083","0.2073818690178273","655"
"21:26:27:341 (H:m:s:ms)","OPERA","62.011","0.23978392019852093","661"
"21:46:9:696 (H:m:s:ms)","GENERIC","62.037","0.19403129887576642","352"
"21:26:21:818 (H:m:s:ms)","GENERIC","62.023","0.2383019857280033","195"
"21:46:3:636 (H:m:s:ms)","GENERIC","62.107","0.18976720282277695","378"
"21:45:57:575 (H:m:s:ms)","GENERIC","62.089","0.19334217277796403","439"
"21:45:51:515 (H:m:s:ms)","GENERIC","62.097","0.19308165465721464","500"
"21:26:15:757 (H:m:s:ms)","GENERIC","62.125","0.23992972913118982","255"
"21:26:12:151 (H:m:s:ms)","OPERA","62.013","0.24063694663627397","854"
"21:45:45:454 (H:m:s:ms)","GENERIC","62.185","0.19292686758076213","556"
"21:26:9:696 (H:m:s:ms)","GENERIC","62.049","0.23763989681336023","348"
"21:45:39:393 (H:m:s:ms)","GENERIC","62.113","0.1952802475110807","651"
"21:26:4:556 (H:m:s:ms)","OPERA","62.011","0.241405029792907","446"
"21:45:33:333 (H:m:s:ms)","GENERIC","62.061","0.1906639647330096","677"
"21:26:3:636 (H:m:s:ms)","GENERIC","62.119","0.2381672034246155","379"
"21:45:27:272 (H:m:s:ms)","GENERIC","62.049","0.1932929136902229","740"
"21:25:57:575 (H:m:s:ms)","GENERIC","62.123","0.2415515938398235","441"
"21:45:21:212 (H:m:s:ms)","GENERIC","62.065","0.18910909806926965","802"
"21:12:25:454 (H:m:s:ms)","GENERIC","62.023","0.20361481852242105","558"
"21:25:56:962 (H:m:s:ms)","OPERA","62.013","0.24084438079558032","1042"
"21:45:15:151 (H:m:s:ms)","GENERIC","62.149","0.18976093786352416","861"
"21:12:31:515 (H:m:s:ms)","GENERIC","62.083","0.20371869117452637","494"
"21:25:51:515 (H:m:s:ms)","GENERIC","62.093","0.2417079055610071","492"
"21:45:9:90 (H:m:s:ms)","GENERIC","62.115","0.18953487852965378","963"
"21:12:37:575 (H:m:s:ms)","GENERIC","62.083","0.20465266588055334","438"
"21:12:43:636 (H:m:s:ms)","GENERIC","62.067","0.20323665741268776","374"
"21:12:49:696 (H:m:s:ms)","GENERIC","62.113","0.19832919953758632","343"
"21:12:55:757 (H:m:s:ms)","GENERIC","62.099","0.19817277399476388","250"
"21:13:1:818 (H:m:s:ms)","GENERIC","62.073","0.19371535012729735","195"
"21:13:7:878 (H:m:s:ms)","GENERIC","62.035","0.19516243667661232","1133"
"21:13:13:939 (H:m:s:ms)","GENERIC","62.095","0.19373863790573834","1074"
"21:13:20:0 (H:m:s:ms)","GENERIC","62.092","0.19422983224138257","1044"
"21:26:19:746 (H:m:s:ms)","OPERA","31.008","0.23778319477586185","290"
"21:27:4:242 (H:m:s:ms)","GENERIC","62.073","0.2469918508046455","766"
"21:47:16:363 (H:m:s:ms)","GENERIC","62.049","0.1911824084207381","645"
"21:26:58:181 (H:m:s:ms)","GENERIC","62.105","0.24823627837010312","832"
"21:47:10:303 (H:m:s:ms)","GENERIC","62.127","0.19566354279888387","704"
"21:26:57:721 (H:m:s:ms)","OPERA","62.011","0.2479314060612228","280"
"21:47:4:242 (H:m:s:ms)","GENERIC","62.059","0.19212384289548673","771"
"21:46:58:181 (H:m:s:ms)","GENERIC","62.091","0.19134304247712372","831"
"21:46:52:121 (H:m:s:ms)","GENERIC","62.015","0.19219086570180163","893"
"21:26:52:121 (H:m:s:ms)","GENERIC","62.037","0.24783850661397916","892"
"21:26:50:126 (H:m:s:ms)","OPERA","62.013","0.2461000107819235","881"
"21:26:46:60 (H:m:s:ms)","GENERIC","62.069","0.245557161645087","951"
"21:46:46:60 (H:m:s:ms)","GENERIC","62.065","0.19252770853148304","952"
"21:26:42:531 (H:m:s:ms)","OPERA","62.013","0.24133128536273857","474"
"21:46:40:0 (H:m:s:ms)","GENERIC","62.089","0.19234721588337236","1049"
"21:26:40:0 (H:m:s:ms)","GENERIC","62.079","0.23837087997704742","1047"
"21:46:33:939 (H:m:s:ms)","GENERIC","62.133","0.1924576957406045","1074"
"21:13:26:60 (H:m:s:ms)","GENERIC","62.083","0.18973024673470792","947"
"21:26:34:936 (H:m:s:ms)","OPERA","62.013","0.2398217616915794","1084"
"21:46:27:878 (H:m:s:ms)","GENERIC","62.117","0.1929701643180424","1128"
"21:13:32:121 (H:m:s:ms)","GENERIC","62.039","0.1899679923221047","888"
"21:26:33:939 (H:m:s:ms)","GENERIC","62.121","0.23684517913054592","1073"
"21:46:21:818 (H:m:s:ms)","GENERIC","62.055","0.19295583335368288","195"
"21:13:38:181 (H:m:s:ms)","GENERIC","62.117","0.18895076929197827","828"
"21:26:27:878 (H:m:s:ms)","GENERIC","62.157","0.239595228858555","1132"
"21:46:15:757 (H:m:s:ms)","GENERIC","62.087","0.1903372879943349","256"
"21:13:44:242 (H:m:s:ms)","GENERIC","62.107","0.1888007786852604","763"
"21:13:50:303 (H:m:s:ms)","GENERIC","62.041","0.18803853032574477","709"
"21:13:56:363 (H:m:s:ms)","GENERIC","62.025","0.1888987434610009","647"
"21:14:2:424 (H:m:s:ms)","GENERIC","62.055","0.1842856887747088","592"
"21:14:8:484 (H:m:s:ms)","GENERIC","62.041","0.18099496851809493","527"
"21:14:14:545 (H:m:s:ms)","GENERIC","62.149","0.1765756595961246","467"
"21:14:20:606 (H:m:s:ms)","GENERIC","62.043","0.17999636452330978","410"
"21:27:40:606 (H:m:s:ms)","GENERIC","62.051","0.24820143659680324","408"
"21:48:23:30 (H:m:s:ms)","GENERIC","62.095","0.20978325435900994","982"
"21:27:35:696 (H:m:s:ms)","OPERA","62.011","0.2466995159534385","313"
"21:48:16:969 (H:m:s:ms)","GENERIC","62.125","0.210215403473228","1037"
"21:27:34:545 (H:m:s:ms)","GENERIC","62.037","0.2450084565666304","467"
"21:48:10:909 (H:m:s:ms)","GENERIC","62.063","0.2148374712019951","1103"
"21:27:28:484 (H:m:s:ms)","GENERIC","62.109","0.24805954176131634","526"
"21:48:4:848 (H:m:s:ms)","GENERIC","62.073","0.20921887563874983","164"
"21:47:58:787 (H:m:s:ms)","GENERIC","62.131","0.20948209539149107","225"
"21:47:52:727 (H:m:s:ms)","GENERIC","62.125","0.20880157351439804","288"
"21:27:28:101 (H:m:s:ms)","OPERA","31.008","0.24815373679772038","901"
"21:27:22:424 (H:m:s:ms)","GENERIC","62.063","0.2513164194781774","591"
"21:27:20:506 (H:m:s:ms)","OPERA","62.013","0.24727886655721637","497"
"21:47:46:666 (H:m:s:ms)","GENERIC","62.149","0.20939229401908524","347"
"21:14:26:666 (H:m:s:ms)","GENERIC","31.044","0.17658007971127448","339"
"21:27:16:363 (H:m:s:ms)","GENERIC","62.073","0.24917714807342398","645"
"21:47:40:606 (H:m:s:ms)","GENERIC","62.043","0.20500389075263337","409"
"21:14:32:727 (H:m:s:ms)","GENERIC","62.103","0.17527582661643823","285"
"21:27:12:911 (H:m:s:ms)","OPERA","62.013","0.2522794979416366","1092"
"21:47:34:545 (H:m:s:ms)","GENERIC","62.015","0.20129930432492993","467"
"20:52:25:454 (H:m:s:ms)","GENERIC","62.065","0.20452435668647317","554"
"21:14:38:787 (H:m:s:ms)","GENERIC","62.043","0.17436447775251532","225"
"21:27:10:303 (H:m:s:ms)","GENERIC","62.151","0.25182325208833584","704"
"21:47:28:484 (H:m:s:ms)","GENERIC","62.081","0.20069562927346452","523"
"20:52:31:515 (H:m:s:ms)","GENERIC","62.073","0.20581033940664484","491"
"21:14:44:848 (H:m:s:ms)","GENERIC","62.081","0.1732510904294312","160"
"21:27:5:316 (H:m:s:ms)","OPERA","62.013","0.24988225005989187","687"
"21:47:22:424 (H:m:s:ms)","GENERIC","62.077","0.1958866187322691","592"
"20:52:37:575 (H:m:s:ms)","GENERIC","62.051","0.2074158350986003","436"
"21:14:50:909 (H:m:s:ms)","GENERIC","62.089","0.1742754513001091","1106"
"20:52:43:636 (H:m:s:ms)","GENERIC","62.063","0.20712195219260465","376"
"21:14:56:969 (H:m:s:ms)","GENERIC","62.055","0.17220044613645047","1046"
"20:52:49:696 (H:m:s:ms)","GENERIC","62.131","0.2034039653232525","350"
"21:15:3:30 (H:m:s:ms)","GENERIC","62.079","0.17123921355029934","984"
"20:52:55:757 (H:m:s:ms)","GENERIC","62.107","0.2003751645208235","248"
"21:15:9:90 (H:m:s:ms)","GENERIC","62.077","0.17076393612839189","957"
"20:53:1:818 (H:m:s:ms)","GENERIC","62.087","0.1997769528684589","194"
"21:15:15:151 (H:m:s:ms)","GENERIC","62.143","0.1690752633786745","860"
"20:53:7:878 (H:m:s:ms)","GENERIC","62.051","0.1998063696488733","1135"
"21:15:21:212 (H:m:s:ms)","GENERIC","62.055","0.16948696433584065","802"
"20:53:13:939 (H:m:s:ms)","GENERIC","62.127","0.19684074204277566","1068"
"20:53:20:0 (H:m:s:ms)","GENERIC","62.079","0.19531891339213633","1047"
"21:28:16:969 (H:m:s:ms)","GENERIC","62.149","0.25103082921928527","1036"
"21:49:29:696 (H:m:s:ms)","GENERIC","62.061","0.2012426035940856","348"
"21:28:13:670 (H:m:s:ms)","OPERA","62.013","0.2519822224673788","332"
"21:49:23:636 (H:m:s:ms)","GENERIC","62.131","0.20519544456599542","374"
"21:28:10:909 (H:m:s:ms)","GENERIC","62.059","0.25170109026100373","1103"
"21:49:17:575 (H:m:s:ms)","GENERIC","62.143","0.20533197875665296","436"
"21:28:6:75 (H:m:s:ms)","OPERA","31.007","0.2507925549363083","927"
"21:49:11:515 (H:m:s:ms)","GENERIC","62.099","0.20637517415170317","495"
"21:28:4:848 (H:m:s:ms)","GENERIC","62.061","0.24768848071474342","164"
"21:49:5:454 (H:m:s:ms)","GENERIC","62.061","0.20800483024792915","559"
"21:48:59:393 (H:m:s:ms)","GENERIC","62.109","0.2057203556455059","651"
"21:48:53:333 (H:m:s:ms)","GENERIC","62.103","0.20638545894594404","674"
"21:27:58:787 (H:m:s:ms)","GENERIC","62.101","0.2482179658307779","236"
"21:15:27:272 (H:m:s:ms)","GENERIC","62.047","0.1688971521798235","740"
"21:27:58:481 (H:m:s:ms)","OPERA","62.013","0.24760767042130183","530"
"21:15:33:333 (H:m:s:ms)","GENERIC","62.029","0.16873987363769632","679"
"21:27:52:727 (H:m:s:ms)","GENERIC","62.143","0.25012873385510803","286"
"21:48:47:272 (H:m:s:ms)","GENERIC","62.055","0.2070682750637209","742"
"20:53:26:60 (H:m:s:ms)","GENERIC","62.125","0.19232410456596977","945"
"21:15:39:393 (H:m:s:ms)","GENERIC","62.073","0.1743484821043636","655"
"21:27:50:886 (H:m:s:ms)","OPERA","62.013","0.24985735445200716","1119"
"21:48:41:212 (H:m:s:ms)","GENERIC","62.115","0.2075522074903732","798"
"20:53:32:121 (H:m:s:ms)","GENERIC","62.041","0.19139701282930377","892"
"21:15:45:454 (H:m:s:ms)","GENERIC","62.129","0.17029502793993853","556"
"21:27:46:666 (H:m:s:ms)","GENERIC","62.117","0.25012913256889824","348"
"21:48:35:151 (H:m:s:ms)","GENERIC","62.121","0.20861332182238834","857"
"20:53:38:181 (H:m:s:ms)","GENERIC","62.095","0.19281022221115657","828"
"21:15:51:515 (H:m:s:ms)","GENERIC","62.083","0.16993556194649478","495"
"21:27:43:291 (H:m:s:ms)","OPERA","62.011","0.24911106694839374","723"
"21:48:29:90 (H:m:s:ms)","GENERIC","62.031","0.21081844556763507","1175"
"20:53:44:242 (H:m:s:ms)","GENERIC","62.101","0.19218392541811372","765"
"21:15:57:575 (H:m:s:ms)","GENERIC","62.119","0.1700939234198139","437"
"20:53:50:303 (H:m:s:ms)","GENERIC","62.051","0.19276767706642198","709"
"21:16:3:636 (H:m:s:ms)","GENERIC","62.101","0.16473163811044747","378"
"20:53:56:363 (H:m:s:ms)","GENERIC","62.021","0.19277822004870496","647"
"21:16:9:696 (H:m:s:ms)","GENERIC","62.065","0.16428610428903884","346"
"20:54:2:424 (H:m:s:ms)","GENERIC","62.065","0.1937616782379073","588"
"21:16:15:757 (H:m:s:ms)","GENERIC","62.139","0.16355751791074213","257"
"20:54:8:484 (H:m:s:ms)","GENERIC","62.047","0.1931810009402355","529"
"21:16:21:818 (H:m:s:ms)","GENERIC","62.033","0.1621371698546089","195"
"20:54:14:545 (H:m:s:ms)","GENERIC","62.121","0.19185890996036353","471"
"20:54:20:606 (H:m:s:ms)","GENERIC","62.027","0.19620244207949158","409"
"21:28:53:333 (H:m:s:ms)","GENERIC","62.093","0.24359836334097307","674"
"21:28:51:645 (H:m:s:ms)","OPERA","62.013","0.2433739491152736","356"
"21:28:47:272 (H:m:s:ms)","GENERIC","62.097","0.2462551906773935","742"
"21:28:44:50 (H:m:s:ms)","OPERA","62.011","0.2465328802772589","953"
"21:28:41:212 (H:m:s:ms)","GENERIC","62.125","0.24539286079343217","799"
"22:10:0:0 (H:m:s:ms)","AMBULANCE","31.01","0.04163095116226099","1016"
"21:28:36:455 (H:m:s:ms)","OPERA","62.011","0.24655135341913328","555"
"22:8:56:842 (H:m:s:ms)","AMBULANCE","62.013","0.012616322666812875","169"
"21:50:0:0 (H:m:s:ms)","GENERIC","62.075","0.190315314673198","1050"
"21:49:53:939 (H:m:s:ms)","GENERIC","62.091","0.1896906881180853","1071"
"21:16:27:878 (H:m:s:ms)","GENERIC","62.165","0.1631755785112971","1125"
"21:16:33:939 (H:m:s:ms)","GENERIC","62.119","0.162467781940321","1073"
"21:28:35:151 (H:m:s:ms)","GENERIC","62.113","0.24608106380491487","857"
"20:54:26:666 (H:m:s:ms)","GENERIC","62.075","0.1937687363159777","345"
"21:16:40:0 (H:m:s:ms)","GENERIC","62.087","0.16264021459141234","1049"
"21:28:29:90 (H:m:s:ms)","GENERIC","62.025","0.24916494445466886","960"
"20:54:32:727 (H:m:s:ms)","GENERIC","62.131","0.19210157775089484","287"
"21:16:46:60 (H:m:s:ms)","GENERIC","62.077","0.1578654364657664","951"
"21:28:28:860 (H:m:s:ms)","OPERA","62.011","0.2490664917257589","142"
"21:49:47:878 (H:m:s:ms)","GENERIC","62.059","0.19313100977280018","1138"
"20:54:38:787 (H:m:s:ms)","GENERIC","62.059","0.18875185783581472","223"
"21:16:52:121 (H:m:s:ms)","GENERIC","62.061","0.15861014479432126","895"
"21:28:23:30 (H:m:s:ms)","GENERIC","62.107","0.25104484088682855","983"
"21:49:41:818 (H:m:s:ms)","GENERIC","62.123","0.19399452016644564","196"
"20:54:44:848 (H:m:s:ms)","GENERIC","62.077","0.18688433412512384","160"
"21:16:58:181 (H:m:s:ms)","GENERIC","62.091","0.16149326277945833","829"
"21:28:21:265 (H:m:s:ms)","OPERA","62.011","0.25102918926819445","745"
"21:49:35:757 (H:m:s:ms)","GENERIC","62.043","0.1972460991588617","255"
"20:54:50:909 (H:m:s:ms)","GENERIC","62.085","0.18828911454306244","1106"
"21:17:4:242 (H:m:s:ms)","GENERIC","62.069","0.16296307269227114","770"
"20:54:56:969 (H:m:s:ms)","GENERIC","62.019","0.18145306311902773","1045"
"21:17:10:303 (H:m:s:ms)","GENERIC","62.165","0.16410647187301153","705"
"20:55:3:30 (H:m:s:ms)","GENERIC","62.071","0.18282039831402502","985"
"21:17:16:363 (H:m:s:ms)","GENERIC","62.059","0.15786957725593476","646"
"20:55:9:90 (H:m:s:ms)","GENERIC","62.053","0.18753603281426898","956"
"21:17:22:424 (H:m:s:ms)","GENERIC","62.051","0.1595867270703535","590"
"20:55:15:151 (H:m:s:ms)","GENERIC","62.155","0.18541923125684975","860"
"20:55:21:212 (H:m:s:ms)","GENERIC","62.041","0.18526234418689932","803"
"21:29:29:696 (H:m:s:ms)","GENERIC","62.077","0.24902607537793384","350"
"21:29:29:620 (H:m:s:ms)","OPERA","62.011","0.24912874712397873","416"
"21:29:23:636 (H:m:s:ms)","GENERIC","62.117","0.2498436799496053","375"
"21:29:22:25 (H:m:s:ms)","OPERA","62.013","0.24677631182918128","986"
"21:29:17:575 (H:m:s:ms)","GENERIC","62.131","0.24382211804030213","436"
"21:29:14:430 (H:m:s:ms)","OPERA","62.013","0.24399811356689144","581"
"21:29:11:515 (H:m:s:ms)","GENERIC","62.089","0.24221047819774183","491"
"21:17:28:484 (H:m:s:ms)","GENERIC","62.117","0.16150317449713697","525"
"21:17:34:545 (H:m:s:ms)","GENERIC","62.027","0.16270066924177748","467"
"20:55:27:272 (H:m:s:ms)","GENERIC","62.047","0.18114321464974442","741"
"21:17:40:606 (H:m:s:ms)","GENERIC","62.059","0.16442615319251463","410"
"20:55:33:333 (H:m:s:ms)","GENERIC","62.061","0.17878092971756937","675"
"21:17:46:666 (H:m:s:ms)","GENERIC","62.111","0.1648934530274035","347"
"21:29:6:835 (H:m:s:ms)","OPERA","62.013","0.246878725364921","168"
"20:55:39:393 (H:m:s:ms)","GENERIC","62.105","0.17693923626780947","656"
"21:17:52:727 (H:m:s:ms)","GENERIC","62.125","0.16482997834777677","285"
"21:29:5:454 (H:m:s:ms)","GENERIC","62.069","0.24372678104165846","558"
"20:55:45:454 (H:m:s:ms)","GENERIC","62.105","0.17755303648878798","558"
"21:17:58:787 (H:m:s:ms)","GENERIC","62.083","0.16592305521785225","224"
"21:28:59:393 (H:m:s:ms)","GENERIC","62.075","0.24555602649894326","649"
"20:55:51:515 (H:m:s:ms)","GENERIC","62.097","0.1775434233586983","500"
"21:18:4:848 (H:m:s:ms)","GENERIC","62.045","0.1643023953037021","165"
"21:28:59:240 (H:m:s:ms)","OPERA","62.013","0.24233057919878007","795"
"20:55:57:575 (H:m:s:ms)","GENERIC","62.091","0.17737164032490013","441"
"21:18:10:909 (H:m:s:ms)","GENERIC","62.055","0.16296273153409743","1100"
"20:56:3:636 (H:m:s:ms)","GENERIC","62.081","0.17861108630739014","378"
"21:18:16:969 (H:m:s:ms)","GENERIC","62.163","0.16319007641874972","1034"
"20:56:9:696 (H:m:s:ms)","GENERIC","62.061","0.18389870194176813","354"
"21:18:23:30 (H:m:s:ms)","GENERIC","62.103","0.16343388172555193","983"
"20:56:15:757 (H:m:s:ms)","GENERIC","62.111","0.18422501200995314","257"
"20:56:21:818 (H:m:s:ms)","GENERIC","62.065","0.18862918846728768","194"
"21:30:0:0 (H:m:s:ms)","GENERIC","62.077","0.24263316958398315","1116"
"21:30:0:0 (H:m:s:ms)","GENERIC","62.067","0.2423644467504225","1105"
"21:30:0:0 (H:m:s:ms)","OPERA","62.011","0.24228700492507452","1091"
"21:30:0:0 (H:m:s:ms)","AMBULANCE","31.022","0.2416241475089766","1083"
"21:29:53:939 (H:m:s:ms)","GENERIC","62.107","0.24146186713483894","1071"
"21:29:52:405 (H:m:s:ms)","OPERA","62.011","0.24164347977727874","604"
"21:29:47:878 (H:m:s:ms)","GENERIC","62.065","0.24666186422159744","1131"
"21:29:44:810 (H:m:s:ms)","OPERA","62.011","0.24505133197574103","204"
"21:18:29:90 (H:m:s:ms)","GENERIC","62.037","0.1635258565933037","958"
"21:18:35:151 (H:m:s:ms)","GENERIC","62.099","0.16199781627798987","859"
"20:56:27:878 (H:m:s:ms)","GENERIC","62.151","0.18894741661585085","1129"
"21:18:41:212 (H:m:s:ms)","GENERIC","62.137","0.1608097584445092","798"
"20:56:33:939 (H:m:s:ms)","GENERIC","62.157","0.18783437675353104","1073"
"21:18:47:272 (H:m:s:ms)","GENERIC","62.091","0.16071383670261064","742"
"20:40:0:0 (H:m:s:ms)","OPERA","31.008","0.1814167258122406","1540"
"20:56:40:0 (H:m:s:ms)","GENERIC","62.087","0.1919121243125766","1052"
"21:18:53:333 (H:m:s:ms)","GENERIC","62.083","0.15930854583258527","675"
"20:40:0:0 (H:m:s:ms)","GENERIC","62.067","0.18150027894298368","1557"
"20:56:46:60 (H:m:s:ms)","GENERIC","62.107","0.19191960228265223","952"
"21:18:59:393 (H:m:s:ms)","GENERIC","62.061","0.15628277339371227","649"
"21:29:41:818 (H:m:s:ms)","GENERIC","62.115","0.2449870237934073","193"
"20:40:0:0 (H:m:s:ms)","GENERIC","62.095","0.18170931191084916","1573"
"20:56:52:121 (H:m:s:ms)","GENERIC","62.093","0.18891039788843594","892"
"21:19:5:454 (H:m:s:ms)","GENERIC","62.081","0.1562297516073619","559"
"21:29:37:215 (H:m:s:ms)","OPERA","62.013","0.24553413959099404","787"
"20:40:6:60 (H:m:s:ms)","GENERIC","62.087","0.18261318601238768","949"
"20:56:58:181 (H:m:s:ms)","GENERIC","62.087","0.19150006319187352","831"
"21:19:11:515 (H:m:s:ms)","GENERIC","62.073","0.16017223659359303","493"
"21:29:35:757 (H:m:s:ms)","GENERIC","62.045","0.24472065759944145","255"
"20:40:7:594 (H:m:s:ms)","OPERA","31.007","0.18517664168349254","415"
"20:57:4:242 (H:m:s:ms)","GENERIC","62.073","0.19111727442610615","770"
"21:19:17:575 (H:m:s:ms)","GENERIC","62.105","0.15908205047296042","436"
"20:40:12:121 (H:m:s:ms)","GENERIC","62.163","0.1893992732286446","892"
"20:57:10:303 (H:m:s:ms)","GENERIC","62.155","0.19153934212205231","705"
"21:19:23:636 (H:m:s:ms)","GENERIC","62.105","0.15787766186123567","372"
"20:40:15:189 (H:m:s:ms)","OPERA","31.008","0.19093698533301445","827"
"20:57:16:363 (H:m:s:ms)","GENERIC","62.059","0.19077470585839287","646"
"20:40:18:181 (H:m:s:ms)","GENERIC","62.075","0.191071599300208","829"
"20:57:22:424 (H:m:s:ms)","GENERIC","62.029","0.19323858657550724","592"
"20:40:22:784 (H:m:s:ms)","OPERA","31.008","0.1900029947703898","227"
"20:40:24:242 (H:m:s:ms)","GENERIC","62.065","0.19411544565498187","764"
"21:30:18:181 (H:m:s:ms)","GENERIC","62.045","0.24416696180217176","829"
"21:31:0:606 (H:m:s:ms)","GENERIC","62.097","0.23666857587584292","407"
"21:30:54:545 (H:m:s:ms)","GENERIC","62.121","0.2378664959243132","463"
"21:30:48:484 (H:m:s:ms)","GENERIC","62.119","0.24304703591998503","527"
"21:30:42:424 (H:m:s:ms)","GENERIC","62.067","0.24148164887126597","588"
"21:30:36:363 (H:m:s:ms)","GENERIC","62.129","0.23930908216317565","647"
"21:30:31:578 (H:m:s:ms)","AMBULANCE","31.02","0.2428484756244655","458"
"21:30:30:303 (H:m:s:ms)","GENERIC","62.071","0.23946346021206993","703"
"21:19:29:696 (H:m:s:ms)","GENERIC","62.075","0.1590417999961035","351"
"21:30:24:242 (H:m:s:ms)","GENERIC","62.067","0.24330298742933446","767"
"21:19:35:757 (H:m:s:ms)","GENERIC","62.051","0.1528901500996842","256"
"20:57:28:484 (H:m:s:ms)","GENERIC","62.113","0.19311277022450826","525"
"21:19:41:818 (H:m:s:ms)","GENERIC","62.107","0.15234685816323662","195"
"20:57:34:545 (H:m:s:ms)","GENERIC","62.031","0.19250486359251145","468"
"21:19:47:878 (H:m:s:ms)","GENERIC","62.049","0.15251906508015117","1138"
"20:40:30:303 (H:m:s:ms)","GENERIC","62.031","0.19625635711924472","709"
"20:57:40:606 (H:m:s:ms)","GENERIC","62.067","0.19724450546969113","406"
"21:19:53:939 (H:m:s:ms)","GENERIC","62.093","0.15460132084238928","1072"
"20:40:30:379 (H:m:s:ms)","OPERA","31.008","0.19660520810336296","646"
"20:57:46:666 (H:m:s:ms)","GENERIC","62.119","0.1986853224106787","349"
"21:20:0:0 (H:m:s:ms)","OPERA","62.011","0.15577346211755425","1540"
"20:40:36:363 (H:m:s:ms)","GENERIC","62.103","0.19757483216404365","650"
"20:57:52:727 (H:m:s:ms)","GENERIC","62.101","0.19914191989506574","285"
"21:20:0:0 (H:m:s:ms)","GENERIC","62.073","0.15541838745943587","1511"
"20:40:37:974 (H:m:s:ms)","OPERA","31.007","0.19955691767570571","1039"
"20:57:58:787 (H:m:s:ms)","GENERIC","62.051","0.19794007294956942","224"
"21:20:0:0 (H:m:s:ms)","GENERIC","62.085","0.15577238973393842","1526"
"21:30:12:121 (H:m:s:ms)","GENERIC","62.135","0.24415000375313636","886"
"20:40:42:424 (H:m:s:ms)","GENERIC","62.027","0.19897722418808425","590"
"20:58:4:848 (H:m:s:ms)","GENERIC","62.037","0.1960478715394663","166"
"21:20:6:60 (H:m:s:ms)","GENERIC","62.047","0.1550669377117223","953"
"21:30:6:60 (H:m:s:ms)","GENERIC","62.043","0.24385018549700857","947"
"20:40:45:569 (H:m:s:ms)","OPERA","31.008","0.20132636857155325","445"
"20:58:10:909 (H:m:s:ms)","GENERIC","62.075","0.19741080085704085","1102"
"21:20:7:594 (H:m:s:ms)","OPERA","62.013","0.1570434222139739","421"
"20:40:48:484 (H:m:s:ms)","GENERIC","62.165","0.2020580785268781","527"
"20:58:16:969 (H:m:s:ms)","GENERIC","62.141","0.19530651158790052","1036"
"20:40:53:164 (H:m:s:ms)","OPERA","31.008","0.20234246899808936","844"
"20:58:23:30 (H:m:s:ms)","GENERIC","62.103","0.19627676255136825","982"
"20:40:54:545 (H:m:s:ms)","GENERIC","62.079","0.20230550631990304","467"
"20:41:0:606 (H:m:s:ms)","GENERIC","62.153","0.2025529428531623","408"
"21:31:18:787 (H:m:s:ms)","GENERIC","62.035","0.2352429436375127","217"
"21:31:12:727 (H:m:s:ms)","GENERIC","62.073","0.23811057242277972","284"
"21:32:1:212 (H:m:s:ms)","GENERIC","62.037","0.22748110531414595","798"
"21:31:55:151 (H:m:s:ms)","GENERIC","62.105","0.23023895044085443","857"
"21:31:49:90 (H:m:s:ms)","GENERIC","62.137","0.23396002952951014","956"
"21:31:43:30 (H:m:s:ms)","GENERIC","62.039","0.23799925479227568","983"
"21:31:36:969 (H:m:s:ms)","GENERIC","62.059","0.23491779863649892","1046"
"21:31:34:736 (H:m:s:ms)","AMBULANCE","31.008","0.23510143913640216","280"
"21:31:30:909 (H:m:s:ms)","GENERIC","62.069","0.23427329722649345","1100"
"21:31:24:848 (H:m:s:ms)","GENERIC","62.151","0.2342660652905929","163"
"20:58:29:90 (H:m:s:ms)","GENERIC","62.055","0.19646949292093677","965"
"20:58:35:151 (H:m:s:ms)","GENERIC","62.103","0.196812099640961","857"
"20:41:0:759 (H:m:s:ms)","OPERA","31.007","0.20360780814110235","266"
"20:58:41:212 (H:m:s:ms)","GENERIC","62.183","0.19188171266615214","799"
"20:41:6:666 (H:m:s:ms)","GENERIC","62.045","0.20389366244140628","346"
"20:58:47:272 (H:m:s:ms)","GENERIC","62.083","0.19168855273470498","743"
"20:41:8:354 (H:m:s:ms)","OPERA","31.008","0.2051489554330006","657"
"20:58:53:333 (H:m:s:ms)","GENERIC","62.093","0.18626618866567696","675"
"20:41:12:727 (H:m:s:ms)","GENERIC","62.101","0.20570744525787502","285"
"20:58:59:393 (H:m:s:ms)","GENERIC","62.041","0.18557052853935116","657"
"20:41:15:949 (H:m:s:ms)","OPERA","31.008","0.20806625354594194","1060"
"20:59:5:454 (H:m:s:ms)","GENERIC","62.055","0.18382027217616476","560"
"20:41:18:787 (H:m:s:ms)","GENERIC","62.037","0.20835790425842302","223"
"20:59:11:515 (H:m:s:ms)","GENERIC","62.075","0.18713139810031168","492"
"21:31:6:666 (H:m:s:ms)","GENERIC","62.059","0.2373522590783327","346"
"20:41:23:544 (H:m:s:ms)","OPERA","31.007","0.2093766542751691","462"
"20:59:17:575 (H:m:s:ms)","GENERIC","62.107","0.18685854174914385","436"
"20:41:24:848 (H:m:s:ms)","GENERIC","62.127","0.20932398007637307","163"
"20:59:23:636 (H:m:s:ms)","GENERIC","62.105","0.18630564405873712","375"
"20:41:30:909 (H:m:s:ms)","GENERIC","62.025","0.20980918761484682","1102"
"20:41:31:139 (H:m:s:ms)","OPERA","31.007","0.2104494189518661","877"
"20:59:29:696 (H:m:s:ms)","GENERIC","62.099","0.1839188362536719","359"
"20:59:35:757 (H:m:s:ms)","GENERIC","62.075","0.17924617157152872","256"
"20:41:36:969 (H:m:s:ms)","GENERIC","62.073","0.2104483638656909","1044"
"20:59:41:818 (H:m:s:ms)","GENERIC","62.103","0.17458150602493105","196"
"20:41:38:734 (H:m:s:ms)","OPERA","31.007","0.21232207523688182","275"
"20:59:47:878 (H:m:s:ms)","GENERIC","62.051","0.1745862475612975","1138"
"20:41:43:30 (H:m:s:ms)","GENERIC","62.061","0.21232010623654934","984"
"20:59:53:939 (H:m:s:ms)","GENERIC","62.077","0.1720846634081515","1072"
"20:41:46:329 (H:m:s:ms)","OPERA","31.007","0.21228565937756216","678"
"21:0:0:0 (H:m:s:ms)","AMBULANCE","31.034","0.17326192195220466","1492"
"20:41:49:90 (H:m:s:ms)","GENERIC","62.107","0.21602918964407233","958"
"21:0:0:0 (H:m:s:ms)","GENERIC","62.059","0.17338666384274665","1508"
"20:41:53:924 (H:m:s:ms)","OPERA","31.008","0.21627855735518156","1082"
"21:0:0:0 (H:m:s:ms)","GENERIC","62.101","0.17363607154030486","1523"
"20:41:55:151 (H:m:s:ms)","GENERIC","62.089","0.21686245404869944","856"
"21:0:6:60 (H:m:s:ms)","GENERIC","62.057","0.1730080398331885","951"
"20:42:1:212 (H:m:s:ms)","GENERIC","62.055","0.21513119151865912","798"
"21:0:12:121 (H:m:s:ms)","GENERIC","62.123","0.16915836661811948","889"
"20:42:1:518 (H:m:s:ms)","OPERA","31.007","0.2172695313164209","500"
"20:42:7:272 (H:m:s:ms)","GENERIC","62.037","0.22014488289845752","732"
"21:0:18:181 (H:m:s:ms)","GENERIC","62.059","0.16923726116023916","828"
"21:0:24:242 (H:m:s:ms)","GENERIC","62.089","0.17029590974927938","769"
"20:42:9:113 (H:m:s:ms)","OPERA","31.008","0.22028693301436963","934"
"21:0:30:303 (H:m:s:ms)","GENERIC","62.037","0.16931104037158393","713"
"20:42:13:333 (H:m:s:ms)","GENERIC","62.063","0.22365172098476266","681"
"21:0:31:578 (H:m:s:ms)","AMBULANCE","31.069","0.17106199606980874","435"
"20:20:0:0 (H:m:s:ms)","GENERIC","62.093","0.16788490128162273","1564"
"20:42:16:708 (H:m:s:ms)","OPERA","31.008","0.22744415443968788","297"
"21:0:36:363 (H:m:s:ms)","GENERIC","62.091","0.17528788823455912","650"
"20:20:0:0 (H:m:s:ms)","GENERIC","62.093","0.1678334236488777","1581"
"20:42:19:393 (H:m:s:ms)","GENERIC","62.077","0.22935463213077997","659"
"21:0:42:424 (H:m:s:ms)","GENERIC","62.029","0.1743926983100837","592"
"20:20:6:60 (H:m:s:ms)","GENERIC","62.099","0.1704543725527636","949"
"20:42:24:303 (H:m:s:ms)","OPERA","31.007","0.23129762238336993","701"
"21:0:48:484 (H:m:s:ms)","GENERIC","62.135","0.17295196821797607","527"
"20:20:12:121 (H:m:s:ms)","GENERIC","62.147","0.1701455285203381","891"
"20:42:25:454 (H:m:s:ms)","GENERIC","62.071","0.23167552557363205","553"
"21:0:54:545 (H:m:s:ms)","GENERIC","62.085","0.17246092032087035","466"
"20:20:18:181 (H:m:s:ms)","GENERIC","62.079","0.17096641417856467","836"
"20:42:31:515 (H:m:s:ms)","GENERIC","62.065","0.23089567355388027","491"
"21:1:0:606 (H:m:s:ms)","GENERIC","62.127","0.1746104607267318","407"
"20:20:24:242 (H:m:s:ms)","GENERIC","62.069","0.1703132291538613","770"
"20:42:31:898 (H:m:s:ms)","OPERA","31.007","0.23217451043449386","112"
"21:1:3:157 (H:m:s:ms)","AMBULANCE","31.052","0.175572910901189","897"
"20:20:30:303 (H:m:s:ms)","GENERIC","62.045","0.17103654580551736","716"
"20:42:37:575 (H:m:s:ms)","GENERIC","62.033","0.23310628966185679","436"
"20:20:36:363 (H:m:s:ms)","GENERIC","62.137","0.17250963034660624","649"
"20:42:39:493 (H:m:s:ms)","OPERA","31.008","0.23401722280413825","548"
"20:20:42:424 (H:m:s:ms)","GENERIC","62.033","0.1715851549455585","592"
"20:20:48:484 (H:m:s:ms)","GENERIC","62.121","0.17208389109533348","529"
"21:1:6:666 (H:m:s:ms)","GENERIC","62.049","0.17463946383894025","345"
"21:1:12:727 (H:m:s:ms)","GENERIC","62.077","0.17421824265992755","284"
"20:42:43:636 (H:m:s:ms)","GENERIC","62.043","0.230239472730932","375"
"21:1:18:787 (H:m:s:ms)","GENERIC","62.037","0.1758895638450161","223"
"20:42:47:88 (H:m:s:ms)","OPERA","31.008","0.2238338023988245","919"
"21:1:24:848 (H:m:s:ms)","GENERIC","62.103","0.17494572063082264","160"
"20:20:54:545 (H:m:s:ms)","GENERIC","62.115","0.17018575433164718","468"
"20:42:49:696 (H:m:s:ms)","GENERIC","62.139","0.22757732011831164","347"
"21:1:30:909 (H:m:s:ms)","GENERIC","62.025","0.1762896318841834","1102"
"20:21:0:606 (H:m:s:ms)","GENERIC","62.119","0.17052977810584788","411"
"20:42:54:683 (H:m:s:ms)","OPERA","31.007","0.2297493026209159","337"
"21:1:34:736 (H:m:s:ms)","AMBULANCE","31.061","0.17626104322751046","371"
"20:21:6:666 (H:m:s:ms)","GENERIC","62.059","0.17052015225703104","350"
"20:42:55:757 (H:m:s:ms)","GENERIC","62.111","0.23146597943972338","249"
"21:1:36:969 (H:m:s:ms)","GENERIC","62.057","0.17579665259120075","1045"
"20:21:12:727 (H:m:s:ms)","GENERIC","62.073","0.16884193008918005","285"
"20:43:1:818 (H:m:s:ms)","GENERIC","62.073","0.23027930717354583","196"
"21:1:43:30 (H:m:s:ms)","GENERIC","62.045","0.17121864048370186","986"
"20:21:18:787 (H:m:s:ms)","GENERIC","62.031","0.17061599804122166","225"
"20:43:2:278 (H:m:s:ms)","OPERA","31.007","0.23236256168745392","741"
"21:1:49:90 (H:m:s:ms)","GENERIC","62.125","0.173245016518833","965"
"20:21:24:848 (H:m:s:ms)","GENERIC","62.165","0.16948784787597967","164"
"20:43:7:878 (H:m:s:ms)","GENERIC","62.067","0.23229693305411142","1136"
"21:1:55:151 (H:m:s:ms)","GENERIC","62.121","0.17218310583066473","858"
"20:21:30:909 (H:m:s:ms)","GENERIC","62.039","0.1698067329957753","1103"
"20:43:9:873 (H:m:s:ms)","OPERA","31.007","0.2373250736419207","182"
"20:21:36:969 (H:m:s:ms)","GENERIC","62.079","0.1696617818861201","1045"
"20:43:13:939 (H:m:s:ms)","GENERIC","62.141","0.23782101557651614","1074"
"20:21:43:30 (H:m:s:ms)","GENERIC","62.069","0.16966637043421276","987"
"20:21:49:90 (H:m:s:ms)","GENERIC","62.103","0.175678476881227","960"
"20:43:17:468 (H:m:s:ms)","OPERA","31.008","0.24034987520270804","534"
"20:43:20:0 (H:m:s:ms)","GENERIC","62.089","0.2369797105244453","1044"
"20:21:55:151 (H:m:s:ms)","GENERIC","62.105","0.17459903821221992","858"
"20:43:25:63 (H:m:s:ms)","OPERA","31.008","0.24028278513512483","951"
"20:22:1:212 (H:m:s:ms)","GENERIC","62.019","0.1740781270732332","798"
"20:43:26:60 (H:m:s:ms)","GENERIC","62.149","0.2401361218221212","947"
"20:22:7:272 (H:m:s:ms)","GENERIC","62.111","0.17681553773511216","974"
"20:43:32:121 (H:m:s:ms)","GENERIC","62.049","0.2405218490165978","891"
"20:22:13:333 (H:m:s:ms)","GENERIC","62.077","0.176602604203922","682"
"20:43:32:658 (H:m:s:ms)","OPERA","31.007","0.24384383131018722","367"
"20:22:19:393 (H:m:s:ms)","GENERIC","62.085","0.17868229174807007","669"
"20:43:38:181 (H:m:s:ms)","GENERIC","62.107","0.24312822390871808","827"
"20:22:25:454 (H:m:s:ms)","GENERIC","62.035","0.17811674273118677","565"
"20:43:40:253 (H:m:s:ms)","OPERA","31.008","0.24638004714032646","756"
"20:22:31:515 (H:m:s:ms)","GENERIC","62.079","0.17362773913250723","498"
"20:43:44:242 (H:m:s:ms)","GENERIC","62.081","0.2465081269884868","764"
"20:22:37:575 (H:m:s:ms)","GENERIC","62.019","0.17702722383693967","438"
"20:43:47:848 (H:m:s:ms)","OPERA","31.008","0.24964175492504076","162"
"20:22:43:636 (H:m:s:ms)","GENERIC","62.017","0.17469646707718406","378"
"20:22:49:696 (H:m:s:ms)","GENERIC","62.127","0.16820698379668653","356"
"20:43:50:303 (H:m:s:ms)","GENERIC","62.031","0.24851634213445428","710"
"20:43:55:443 (H:m:s:ms)","OPERA","31.008","0.24788815953484825","561"
"20:22:55:757 (H:m:s:ms)","GENERIC","62.139","0.16938267819454791","251"
"20:43:56:363 (H:m:s:ms)","GENERIC","62.017","0.24773500323802491","648"
"20:23:1:818 (H:m:s:ms)","GENERIC","62.039","0.1640255395906373","199"
"20:44:2:424 (H:m:s:ms)","GENERIC","62.055","0.24622687268162083","579"
"20:23:7:878 (H:m:s:ms)","GENERIC","62.029","0.16384027724319064","1138"
"20:44:3:37 (H:m:s:ms)","OPERA","31.008","0.24961239285563147","964"
"20:23:13:939 (H:m:s:ms)","GENERIC","62.109","0.16452345050506795","1075"
"20:44:8:484 (H:m:s:ms)","GENERIC","62.063","0.24718705649929312","527"
"20:23:20:0 (H:m:s:ms)","GENERIC","62.093","0.1657477239518428","1051"
"20:44:10:632 (H:m:s:ms)","OPERA","31.007","0.25029779883188386","373"
"20:23:26:60 (H:m:s:ms)","GENERIC","62.111","0.16525063155052755","948"
"20:44:14:545 (H:m:s:ms)","GENERIC","62.103","0.25068407977313306","468"
"20:23:32:121 (H:m:s:ms)","GENERIC","62.053","0.16563298994526288","888"
"20:44:18:227 (H:m:s:ms)","OPERA","31.007","0.2511286420112831","776"
"20:23:38:181 (H:m:s:ms)","GENERIC","62.115","0.17085048358190746","831"
"20:44:20:606 (H:m:s:ms)","GENERIC","62.025","0.25287163417262437","408"
"20:23:44:242 (H:m:s:ms)","GENERIC","62.043","0.17116114816772654","765"
"20:23:50:303 (H:m:s:ms)","GENERIC","62.025","0.17174753982698304","712"
"20:44:26:666 (H:m:s:ms)","GENERIC","62.087","0.251169974740223","345"
"20:44:32:727 (H:m:s:ms)","GENERIC","62.151","0.2511659879528381","287"
"20:23:56:363 (H:m:s:ms)","GENERIC","62.023","0.1721498075947297","650"
"20:44:33:417 (H:m:s:ms)","OPERA","31.008","0.2521086719185731","585"
"20:24:2:424 (H:m:s:ms)","GENERIC","62.043","0.16959216938752172","592"
"20:44:38:787 (H:m:s:ms)","GENERIC","62.059","0.25123371782768866","227"
"20:24:8:484 (H:m:s:ms)","GENERIC","62.075","0.1648713312495694","531"
"20:44:41:12 (H:m:s:ms)","OPERA","31.008","0.252811875707371","994"
"20:24:14:545 (H:m:s:ms)","GENERIC","62.069","0.16501181777584653","471"
"20:44:44:848 (H:m:s:ms)","GENERIC","62.091","0.2507709325406653","161"
"20:24:20:606 (H:m:s:ms)","GENERIC","62.033","0.16976656336740675","413"
"20:44:48:607 (H:m:s:ms)","OPERA","31.007","0.25234868009869227","395"
"20:24:26:666 (H:m:s:ms)","GENERIC","62.091","0.1716793131238277","345"
"20:44:50:909 (H:m:s:ms)","GENERIC","62.107","0.25356846211453254","1105"
"20:24:32:727 (H:m:s:ms)","GENERIC","62.169","0.1693070383309288","288"
"20:44:56:202 (H:m:s:ms)","OPERA","31.007","0.253419921986953","804"
"20:24:38:787 (H:m:s:ms)","GENERIC","62.093","0.1667753181291414","227"
"20:44:56:969 (H:m:s:ms)","GENERIC","62.021","0.2533196156989866","1041"
"20:24:44:848 (H:m:s:ms)","GENERIC","62.121","0.1661749941990146","161"
"20:24:50:909 (H:m:s:ms)","GENERIC","62.091","0.16718390435162928","1108"
"20:45:3:30 (H:m:s:ms)","GENERIC","62.081","0.2502949423578081","985"
"20:45:3:797 (H:m:s:ms)","OPERA","31.007","0.25093710144989384","220"
"20:24:56:969 (H:m:s:ms)","GENERIC","62.017","0.1670358946574518","1048"
"20:45:9:90 (H:m:s:ms)","GENERIC","62.041","0.24747021134231337","960"
"20:25:3:30 (H:m:s:ms)","GENERIC","62.111","0.16714589872485458","986"
"20:45:11:392 (H:m:s:ms)","OPERA","31.008","0.2507820621948983","609"
"20:25:9:90 (H:m:s:ms)","GENERIC","62.019","0.17486523312547517","961"
"20:45:15:151 (H:m:s:ms)","GENERIC","62.179","0.2504911582207961","861"
"20:25:15:151 (H:m:s:ms)","GENERIC","62.143","0.1745517508455951","863"
"20:45:18:987 (H:m:s:ms)","OPERA","31.008","0.2506196049877588","1054"
"20:25:21:212 (H:m:s:ms)","GENERIC","62.039","0.17427981816216362","805"
"20:45:21:212 (H:m:s:ms)","GENERIC","62.029","0.2516547333932307","790"
"20:25:27:272 (H:m:s:ms)","GENERIC","62.069","0.17687649985602463","743"
"20:45:26:582 (H:m:s:ms)","OPERA","31.008","0.24965659540262916","419"
"20:25:33:333 (H:m:s:ms)","GENERIC","62.025","0.17575689545357154","679"
"20:45:27:272 (H:m:s:ms)","GENERIC","62.049","0.2510515682764498","740"
"20:25:39:393 (H:m:s:ms)","GENERIC","62.137","0.18090292783031908","655"
"20:45:33:333 (H:m:s:ms)","GENERIC","62.053","0.24924361266702327","672"
"20:25:45:454 (H:m:s:ms)","GENERIC","62.105","0.17987628669390607","559"
"20:25:51:515 (H:m:s:ms)","GENERIC","62.055","0.17952630682546247","498"
"20:25:57:575 (H:m:s:ms)","GENERIC","62.109","0.17990135254329048","440"
"20:26:3:636 (H:m:s:ms)","GENERIC","62.125","0.18122025496535574","379"
"20:26:9:696 (H:m:s:ms)","GENERIC","62.053","0.18229318654429041","353"
"20:26:15:757 (H:m:s:ms)","GENERIC","62.081","0.18166380465705245","257"
"20:26:21:818 (H:m:s:ms)","GENERIC","62.099","0.1808629005927514","197"
"20:26:27:878 (H:m:s:ms)","GENERIC","62.137","0.18194352227578675","1125"
"20:26:33:939 (H:m:s:ms)","GENERIC","62.101","0.18179904061715565","1072"
"20:26:40:0 (H:m:s:ms)","GENERIC","62.063","0.18149993835744188","1053"
"20:26:46:60 (H:m:s:ms)","GENERIC","62.101","0.18124961712716736","955"
"20:26:52:121 (H:m:s:ms)","GENERIC","62.055","0.18398320672125681","894"
"20:26:58:181 (H:m:s:ms)","GENERIC","62.109","0.18504947337688163","832"
"20:27:4:242 (H:m:s:ms)","GENERIC","62.037","0.18541447791517957","772"
"20:27:10:303 (H:m:s:ms)","GENERIC","62.121","0.18810249841029725","704"
"20:27:16:363 (H:m:s:ms)","GENERIC","62.083","0.1874101008183238","647"
"20:27:22:424 (H:m:s:ms)","GENERIC","62.035","0.19115636936753155","594"
"20:27:28:484 (H:m:s:ms)","GENERIC","62.079","0.1958689643690511","526"
"20:27:34:545 (H:m:s:ms)","GENERIC","62.055","0.19017884517553404","469"
"20:27:40:606 (H:m:s:ms)","GENERIC","62.031","0.19413316620137386","411"
"20:27:46:666 (H:m:s:ms)","GENERIC","62.145","0.19708500388858316","349"
"20:27:52:727 (H:m:s:ms)","GENERIC","62.137","0.19693586425231177","288"
"20:27:58:787 (H:m:s:ms)","GENERIC","62.047","0.1969036286207842","224"
"20:28:4:848 (H:m:s:ms)","GENERIC","62.039","0.1949088088241699","168"
"20:28:10:909 (H:m:s:ms)","GENERIC","62.065","0.1987924958708983","1101"
"20:28:16:969 (H:m:s:ms)","GENERIC","62.143","0.19457739429273802","1035"
"20:28:23:30 (H:m:s:ms)","GENERIC","62.103","0.19010465757865502","984"
"20:28:29:90 (H:m:s:ms)","GENERIC","62.099","0.19017945431441474","962"
"20:28:35:151 (H:m:s:ms)","GENERIC","62.089","0.190510444945079","856"
"20:28:41:212 (H:m:s:ms)","GENERIC","62.157","0.18550929905118171","800"
"20:28:47:272 (H:m:s:ms)","GENERIC","62.069","0.18796117441781912","741"
"20:28:53:333 (H:m:s:ms)","GENERIC","62.047","0.18255731169307093","675"
"20:28:59:393 (H:m:s:ms)","GENERIC","62.069","0.18517590868599557","652"
"20:29:5:454 (H:m:s:ms)","GENERIC","62.021","0.18340756191789723","561"
"20:29:11:515 (H:m:s:ms)","GENERIC","62.121","0.1819216591055496","494"
"20:29:17:575 (H:m:s:ms)","GENERIC","62.087","0.18264918126404592","434"
"20:29:23:636 (H:m:s:ms)","GENERIC","62.157","0.18210867362028518","376"
"20:29:29:696 (H:m:s:ms)","GENERIC","62.101","0.18543009624727352","356"
"20:29:35:757 (H:m:s:ms)","GENERIC","62.039","0.18036472253964395","258"
"20:29:41:818 (H:m:s:ms)","GENERIC","62.135","0.17909226384990778","196"
"20:29:47:878 (H:m:s:ms)","GENERIC","62.057","0.17814677869878126","1138"
"20:29:53:939 (H:m:s:ms)","GENERIC","62.089","0.17612011526366508","1072"
"21:20:12:121 (H:m:s:ms)","GENERIC","62.117","0.1557478365130851","888"
"21:20:15:189 (H:m:s:ms)","OPERA","62.013","0.15777775364132593","830"
"21:20:18:181 (H:m:s:ms)","GENERIC","62.039","0.1575288032293966","830"
"21:20:22:784 (H:m:s:ms)","OPERA","62.013","0.16011731549807975","226"
"21:20:24:242 (H:m:s:ms)","GENERIC","62.077","0.1661574968682047","769"
"21:20:30:303 (H:m:s:ms)","GENERIC","62.069","0.16575800735275975","714"
"21:20:30:379 (H:m:s:ms)","OPERA","62.011","0.16619277684493242","646"
"21:20:36:363 (H:m:s:ms)","GENERIC","62.119","0.16732424892854364","651"
"21:20:37:974 (H:m:s:ms)","OPERA","62.013","0.16877311770150813","1038"
"21:20:42:424 (H:m:s:ms)","GENERIC","62.053","0.1639807713608151","589"
"21:20:45:569 (H:m:s:ms)","OPERA","62.011","0.16568276279261854","438"
"21:20:48:484 (H:m:s:ms)","GENERIC","62.115","0.16880291324949637","527"
"21:20:53:164 (H:m:s:ms)","OPERA","62.013","0.17029675554424822","849"
"21:20:54:545 (H:m:s:ms)","GENERIC","62.107","0.17118196759061466","464"
"21:21:0:606 (H:m:s:ms)","GENERIC","62.091","0.17282869989908123","407"
"21:21:0:759 (H:m:s:ms)","OPERA","62.013","0.17379091092898202","263"
"21:21:6:666 (H:m:s:ms)","GENERIC","62.049","0.17363646138696912","345"
"21:21:8:354 (H:m:s:ms)","OPERA","62.011","0.17602969948425715","658"
"21:21:12:727 (H:m:s:ms)","GENERIC","62.077","0.1793617685179582","283"
"21:21:15:949 (H:m:s:ms)","OPERA","62.013","0.18306717820223148","1058"
"21:33:1:818 (H:m:s:ms)","GENERIC","62.083","0.21489642954607155","196"
"21:32:43:636 (H:m:s:ms)","GENERIC","62.073","0.21685779618695503","374"
"21:32:37:894 (H:m:s:ms)","AMBULANCE","31.009","0.22079290570405402","127"
"21:32:37:575 (H:m:s:ms)","GENERIC","62.057","0.21989376098624774","439"
"21:32:31:515 (H:m:s:ms)","GENERIC","62.107","0.22268247872339808","493"
"21:32:25:454 (H:m:s:ms)","GENERIC","62.041","0.22257358094352941","554"
"21:32:19:393 (H:m:s:ms)","GENERIC","62.077","0.22362301577059734","655"
"21:32:13:333 (H:m:s:ms)","GENERIC","62.123","0.22594217055625532","679"
"21:21:18:787 (H:m:s:ms)","GENERIC","62.035","0.1829986548199472","223"
"21:32:7:272 (H:m:s:ms)","GENERIC","62.105","0.22911953923701237","736"
"21:21:23:544 (H:m:s:ms)","OPERA","62.011","0.1856819142770056","463"
"21:21:24:848 (H:m:s:ms)","GENERIC","62.131","0.18568189745670755","162"
"21:21:30:909 (H:m:s:ms)","GENERIC","62.049","0.18625525212688188","1101"
"21:21:31:139 (H:m:s:ms)","OPERA","62.013","0.1879609131122089","881"
"21:21:36:969 (H:m:s:ms)","GENERIC","62.033","0.18806140043133787","1044"
"21:21:38:734 (H:m:s:ms)","OPERA","62.011","0.1907421407713809","272"
"21:21:43:30 (H:m:s:ms)","GENERIC","62.041","0.18983365864698667","981"
"21:32:55:757 (H:m:s:ms)","GENERIC","62.131","0.2168259342836807","249"
"21:21:46:329 (H:m:s:ms)","OPERA","62.013","0.18999095252374468","678"
"21:32:49:696 (H:m:s:ms)","GENERIC","62.113","0.21807957252971436","344"
"21:21:49:90 (H:m:s:ms)","GENERIC","62.159","0.19254808778342913","954"
"21:34:2:424 (H:m:s:ms)","GENERIC","62.025","0.20531372351795144","588"
"21:33:56:363 (H:m:s:ms)","GENERIC","62.031","0.2087458112672358","648"
"21:33:44:242 (H:m:s:ms)","GENERIC","62.111","0.21023773615421468","764"
"21:33:38:181 (H:m:s:ms)","GENERIC","62.109","0.20981043045457637","825"
"21:33:32:121 (H:m:s:ms)","GENERIC","62.041","0.2123389061347198","885"
"21:33:26:60 (H:m:s:ms)","GENERIC","62.043","0.2123351491795805","946"
"21:33:20:0 (H:m:s:ms)","GENERIC","62.121","0.2132845606593341","1043"
"21:33:13:939 (H:m:s:ms)","GENERIC","62.089","0.212804721298987","1074"
"21:21:53:924 (H:m:s:ms)","OPERA","62.013","0.19551076790549612","1081"
"21:33:9:473 (H:m:s:ms)","AMBULANCE","31.018","0.21168619589384896","595"
"21:21:55:151 (H:m:s:ms)","GENERIC","62.095","0.19565104246869233","856"
"21:33:7:878 (H:m:s:ms)","GENERIC","62.059","0.21116661618964683","1136"
"21:22:1:212 (H:m:s:ms)","GENERIC","62.047","0.19412610521212212","797"
"21:22:1:518 (H:m:s:ms)","OPERA","62.013","0.19439582053189358","497"
"21:22:7:272 (H:m:s:ms)","GENERIC","62.085","0.19613064427177934","733"
"21:22:9:113 (H:m:s:ms)","OPERA","62.013","0.19819290292905478","924"
"21:22:13:333 (H:m:s:ms)","GENERIC","62.109","0.20204733540301106","677"
"21:22:16:708 (H:m:s:ms)","OPERA","62.013","0.20273523189386078","296"
"21:22:19:393 (H:m:s:ms)","GENERIC","62.085","0.2026833215418363","652"
"21:22:24:303 (H:m:s:ms)","OPERA","62.011","0.20245900266679942","701"
"21:33:50:303 (H:m:s:ms)","GENERIC","62.029","0.21140312206493714","710"
"21:35:3:30 (H:m:s:ms)","GENERIC","62.101","0.1972094185336799","984"
"21:34:56:969 (H:m:s:ms)","GENERIC","62.037","0.20246025874929688","1045"
"21:34:50:909 (H:m:s:ms)","GENERIC","62.073","0.2063757915808652","1104"
"21:34:44:848 (H:m:s:ms)","GENERIC","62.107","0.20665276141838587","161"
"21:34:38:787 (H:m:s:ms)","GENERIC","62.071","0.20790192055204815","225"
"21:34:32:727 (H:m:s:ms)","GENERIC","62.109","0.2095268612682221","286"
"21:34:26:666 (H:m:s:ms)","GENERIC","62.121","0.20582598207443292","337"
"21:34:20:606 (H:m:s:ms)","GENERIC","62.055","0.2111167577994863","405"
"21:22:25:454 (H:m:s:ms)","GENERIC","62.021","0.2029018979536287","554"
"21:34:14:545 (H:m:s:ms)","GENERIC","62.139","0.20250348781604327","468"
"21:22:31:515 (H:m:s:ms)","GENERIC","62.095","0.20303120514074371","492"
"21:34:12:631 (H:m:s:ms)","AMBULANCE","31.024","0.2024166938441445","403"
"21:2:1:212 (H:m:s:ms)","GENERIC","62.093","0.1697910113804552","800"
"21:22:31:898 (H:m:s:ms)","OPERA","62.011","0.2057355774295268","1127"
"21:34:8:484 (H:m:s:ms)","GENERIC","62.033","0.20128174645916078","530"
"21:2:6:315 (H:m:s:ms)","AMBULANCE","31.024","0.17411615852850512","736"
"21:22:37:575 (H:m:s:ms)","GENERIC","62.071","0.20569488660340415","437"
"21:2:7:272 (H:m:s:ms)","GENERIC","62.043","0.1751054309711536","738"
"21:22:39:493 (H:m:s:ms)","OPERA","62.013","0.2101638755628283","541"
"21:2:13:333 (H:m:s:ms)","GENERIC","62.075","0.1796030706901371","678"
"21:22:43:636 (H:m:s:ms)","GENERIC","62.073","0.21001755673784211","375"
"21:2:19:393 (H:m:s:ms)","GENERIC","62.083","0.18139565650399228","661"
"21:22:47:88 (H:m:s:ms)","OPERA","62.011","0.2069829200167627","927"
"21:2:25:454 (H:m:s:ms)","GENERIC","62.041","0.17782637740281174","559"
"21:22:49:696 (H:m:s:ms)","GENERIC","62.113","0.20872182105640744","343"
"21:2:31:515 (H:m:s:ms)","GENERIC","62.071","0.17969592874124307","495"
"21:22:54:683 (H:m:s:ms)","OPERA","62.013","0.21232694995409174","320"
"21:2:37:575 (H:m:s:ms)","GENERIC","62.063","0.18227981372175014","439"
"21:22:55:757 (H:m:s:ms)","GENERIC","62.113","0.21433136941859993","248"
"21:2:37:894 (H:m:s:ms)","AMBULANCE","31.06","0.18377162311126663","178"
"21:2:43:636 (H:m:s:ms)","GENERIC","62.079","0.17877150008042422","375"
"21:35:57:575 (H:m:s:ms)","GENERIC","62.105","0.18684304411043304","438"
"21:35:51:515 (H:m:s:ms)","GENERIC","62.097","0.18765015004943797","501"
"21:35:47:368 (H:m:s:ms)","AMBULANCE","31.027","0.18776800182023906","666"
"21:35:45:454 (H:m:s:ms)","GENERIC","62.173","0.1868514341048708","558"
"21:35:39:393 (H:m:s:ms)","GENERIC","62.095","0.19033119743657825","650"
"21:35:33:333 (H:m:s:ms)","GENERIC","62.053","0.1919514427297065","675"
"21:35:27:272 (H:m:s:ms)","GENERIC","62.065","0.1970431200263046","742"
"21:23:1:818 (H:m:s:ms)","GENERIC","62.075","0.21438029221322252","193"
"21:35:21:212 (H:m:s:ms)","GENERIC","62.083","0.19791851333057353","800"
"21:23:2:278 (H:m:s:ms)","OPERA","62.013","0.21618773468919675","726"
"21:35:15:789 (H:m:s:ms)","AMBULANCE","31.02","0.19650272883087835","251"
"21:2:49:696 (H:m:s:ms)","GENERIC","62.113","0.1762404435306313","354"
"21:23:7:878 (H:m:s:ms)","GENERIC","62.045","0.21575717734587982","1135"
"21:35:15:151 (H:m:s:ms)","GENERIC","62.159","0.19588963793565528","861"
"21:2:55:757 (H:m:s:ms)","GENERIC","62.103","0.1762501567800982","250"
"21:23:9:873 (H:m:s:ms)","OPERA","62.013","0.2198763839898616","164"
"21:35:9:90 (H:m:s:ms)","GENERIC","62.101","0.1967385831394051","953"
"21:3:1:818 (H:m:s:ms)","GENERIC","62.077","0.17812368226995962","196"
"21:23:13:939 (H:m:s:ms)","GENERIC","62.073","0.21968715488049004","1071"
"21:3:7:878 (H:m:s:ms)","GENERIC","62.037","0.17817409971264314","1136"
"21:23:17:468 (H:m:s:ms)","OPERA","62.013","0.22244102818842826","536"
"21:3:9:473 (H:m:s:ms)","AMBULANCE","31.016","0.18257782532521927","580"
"21:23:20:0 (H:m:s:ms)","GENERIC","62.106","0.21954730708735182","1039"
"21:3:13:939 (H:m:s:ms)","GENERIC","62.111","0.18343289572561283","1073"
"21:23:25:63 (H:m:s:ms)","OPERA","62.011","0.22363547399289568","949"
"21:3:20:0 (H:m:s:ms)","GENERIC","62.087","0.18285285656430983","1049"
"21:23:26:60 (H:m:s:ms)","GENERIC","62.065","0.2235311130911996","946"
"21:3:26:60 (H:m:s:ms)","GENERIC","62.103","0.18128136554132118","948"
"21:23:32:121 (H:m:s:ms)","GENERIC","62.051","0.22649983459312842","895"
"21:3:32:121 (H:m:s:ms)","GENERIC","62.025","0.1810744039663031","889"
"21:3:38:181 (H:m:s:ms)","GENERIC","62.103","0.18517744557267984","828"
"21:36:52:121 (H:m:s:ms)","GENERIC","62.013","0.1908284559567457","893"
"21:36:50:526 (H:m:s:ms)","AMBULANCE","31.02","0.1882322194792054","533"
"21:36:46:60 (H:m:s:ms)","GENERIC","62.073","0.18565461111597348","953"
"21:36:40:0 (H:m:s:ms)","GENERIC","62.085","0.1901109986907114","1049"
"21:36:33:939 (H:m:s:ms)","GENERIC","62.129","0.19235754633242122","1073"
"21:36:27:878 (H:m:s:ms)","GENERIC","62.137","0.19244764894497257","1128"
"21:23:32:658 (H:m:s:ms)","OPERA","62.013","0.22659622951060013","347"
"21:36:21:818 (H:m:s:ms)","GENERIC","62.033","0.1921608335639494","195"
"21:23:38:181 (H:m:s:ms)","GENERIC","62.115","0.22720628421031466","827"
"21:36:18:947 (H:m:s:ms)","AMBULANCE","31.01","0.19043162963399812","1094"
"21:3:41:52 (H:m:s:ms)","AMBULANCE","31.059","0.1877328181461558","995"
"21:23:40:253 (H:m:s:ms)","OPERA","62.013","0.2304502903210846","750"
"21:36:15:757 (H:m:s:ms)","GENERIC","62.107","0.18616830468931014","256"
"21:3:44:242 (H:m:s:ms)","GENERIC","62.115","0.1878013912806033","763"
"21:23:44:242 (H:m:s:ms)","GENERIC","62.111","0.230808530384086","764"
"21:36:9:696 (H:m:s:ms)","GENERIC","62.041","0.187750925309611","346"
"21:3:50:303 (H:m:s:ms)","GENERIC","62.059","0.19068539680527027","710"
"21:23:47:848 (H:m:s:ms)","OPERA","62.013","0.23080097559008983","155"
"21:36:3:636 (H:m:s:ms)","GENERIC","62.125","0.18636749317327558","378"
"21:3:56:363 (H:m:s:ms)","GENERIC","62.037","0.1895582327334619","648"
"21:23:50:303 (H:m:s:ms)","GENERIC","62.021","0.2322444198998758","709"
"21:4:2:424 (H:m:s:ms)","GENERIC","62.069","0.19263082956880573","587"
"21:23:55:443 (H:m:s:ms)","OPERA","62.013","0.23106381546463736","567"
"21:4:8:484 (H:m:s:ms)","GENERIC","62.035","0.1942299130968419","527"
"21:23:56:363 (H:m:s:ms)","GENERIC","62.013","0.23148723817172345","648"
"21:4:12:631 (H:m:s:ms)","AMBULANCE","31.048","0.19094697953150983","373"
"21:24:2:424 (H:m:s:ms)","GENERIC","62.041","0.2330100930003763","581"
"21:4:14:545 (H:m:s:ms)","GENERIC","62.139","0.19183681974535755","468"
"21:24:3:37 (H:m:s:ms)","OPERA","62.011","0.23391252730558532","980"
"21:4:20:606 (H:m:s:ms)","GENERIC","62.031","0.19783270292935318","408"
"21:4:26:666 (H:m:s:ms)","GENERIC","62.071","0.19691982353382895","437"
"21:37:52:727 (H:m:s:ms)","GENERIC","62.125","0.19614316963350895","286"
"21:37:46:666 (H:m:s:ms)","GENERIC","62.131","0.2001590010819186","349"
"21:37:40:606 (H:m:s:ms)","GENERIC","62.035","0.19887366027584538","410"
"21:37:34:545 (H:m:s:ms)","GENERIC","62.023","0.19884255250017543","466"
"21:37:28:484 (H:m:s:ms)","GENERIC","62.091","0.201265077462688","526"
"21:37:22:424 (H:m:s:ms)","GENERIC","62.073","0.1967749237663352","606"
"21:24:8:484 (H:m:s:ms)","GENERIC","62.035","0.23394385340361598","527"
"21:24:10:632 (H:m:s:ms)","OPERA","62.011","0.23748683149980948","383"
"21:37:22:105 (H:m:s:ms)","AMBULANCE","31.01","0.19044519818197347","908"
"21:4:32:727 (H:m:s:ms)","GENERIC","62.113","0.1999654300548139","285"
"21:24:14:545 (H:m:s:ms)","GENERIC","62.147","0.23409805027873198","472"
"21:37:16:363 (H:m:s:ms)","GENERIC","62.065","0.18882195618258224","645"
"21:4:38:787 (H:m:s:ms)","GENERIC","62.045","0.19720952962279223","225"
"21:24:18:227 (H:m:s:ms)","OPERA","62.013","0.23420991374981723","781"
"21:37:10:303 (H:m:s:ms)","GENERIC","62.147","0.18953185837501627","706"
"21:4:44:210 (H:m:s:ms)","AMBULANCE","31.029","0.19780705922057473","835"
"21:24:20:606 (H:m:s:ms)","GENERIC","62.053","0.23695562591819658","407"
"21:37:4:242 (H:m:s:ms)","GENERIC","62.063","0.19011120110913637","769"
"21:4:44:848 (H:m:s:ms)","GENERIC","62.063","0.19791770619069146","207"
"21:24:25:822 (H:m:s:ms)","OPERA","31.008","0.2374875498076689","181"
"21:36:58:181 (H:m:s:ms)","GENERIC","62.101","0.19065940091584563","831"
"21:4:50:909 (H:m:s:ms)","GENERIC","62.085","0.20088911093741885","1105"
"21:24:26:666 (H:m:s:ms)","GENERIC","62.103","0.23903467740074488","338"
"21:4:56:969 (H:m:s:ms)","GENERIC","62.031","0.20012199328474473","1040"
"21:24:32:727 (H:m:s:ms)","GENERIC","62.093","0.24244317731274492","287"
"21:5:3:30 (H:m:s:ms)","GENERIC","62.059","0.19848022022269374","985"
"21:24:33:417 (H:m:s:ms)","OPERA","62.011","0.2457783610817749","593"
"21:5:9:90 (H:m:s:ms)","GENERIC","62.067","0.19779906437921396","958"
"21:24:38:787 (H:m:s:ms)","GENERIC","62.055","0.24505536696170957","225"
"21:5:15:151 (H:m:s:ms)","GENERIC","62.135","0.19893597155843756","860"
"21:5:15:789 (H:m:s:ms)","AMBULANCE","31.06","0.20025050020928037","232"
"21:38:47:272 (H:m:s:ms)","GENERIC","62.079","0.19201854353528053","740"
"21:38:41:212 (H:m:s:ms)","GENERIC","62.131","0.1899744059867561","799"
"21:38:35:151 (H:m:s:ms)","GENERIC","62.125","0.19118154854766312","857"
"21:38:29:90 (H:m:s:ms)","GENERIC","62.037","0.19286880708286333","960"
"21:38:25:263 (H:m:s:ms)","AMBULANCE","31.011","0.19299473274373607","757"
"21:38:23:30 (H:m:s:ms)","GENERIC","62.107","0.1929255722339019","983"
"21:38:16:969 (H:m:s:ms)","GENERIC","62.141","0.19651481881358687","1038"
"21:24:41:12 (H:m:s:ms)","OPERA","62.013","0.24604650405518222","997"
"21:24:44:848 (H:m:s:ms)","GENERIC","62.103","0.2460313570570626","160"
"21:5:21:212 (H:m:s:ms)","GENERIC","62.045","0.20485251310610872","795"
"21:24:48:607 (H:m:s:ms)","OPERA","62.011","0.24689131472934608","401"
"21:5:27:272 (H:m:s:ms)","GENERIC","62.035","0.20570885687283663","741"
"21:24:50:909 (H:m:s:ms)","GENERIC","62.083","0.24965815960295412","1104"
"21:38:10:909 (H:m:s:ms)","GENERIC","62.059","0.20148566428826115","1103"
"20:45:39:393 (H:m:s:ms)","GENERIC","62.127","0.24867267483525202","655"
"21:5:33:333 (H:m:s:ms)","GENERIC","62.043","0.20438116851830584","675"
"21:24:56:202 (H:m:s:ms)","OPERA","62.011","0.24901218933457944","805"
"21:38:4:848 (H:m:s:ms)","GENERIC","62.079","0.2005085142369139","165"
"20:45:41:772 (H:m:s:ms)","OPERA","31.007","0.25116720762594297","232"
"21:5:39:393 (H:m:s:ms)","GENERIC","62.089","0.2038178018846516","657"
"21:24:56:969 (H:m:s:ms)","GENERIC","62.047","0.2489250287002051","1043"
"21:37:58:787 (H:m:s:ms)","GENERIC","62.117","0.20062627412649287","225"
"20:45:45:454 (H:m:s:ms)","GENERIC","62.095","0.2503361206680276","560"
"21:5:45:454 (H:m:s:ms)","GENERIC","62.125","0.20343861487454165","559"
"21:25:3:30 (H:m:s:ms)","GENERIC","62.095","0.24741266887264576","984"
"21:37:53:684 (H:m:s:ms)","AMBULANCE","31.007","0.19994348804522938","327"
"20:45:49:367 (H:m:s:ms)","OPERA","31.008","0.2513091878152445","675"
"21:5:47:368 (H:m:s:ms)","AMBULANCE","31.058","0.20568688358193135","638"
"21:25:3:797 (H:m:s:ms)","OPERA","62.013","0.24888226901341698","223"
"20:45:51:515 (H:m:s:ms)","GENERIC","62.079","0.25116163461677915","500"
"21:5:51:515 (H:m:s:ms)","GENERIC","62.093","0.20582013449286257","500"
"21:25:9:90 (H:m:s:ms)","GENERIC","62.089","0.24753259993023455","958"
"20:45:56:962 (H:m:s:ms)","OPERA","31.008","0.2503855105641818","1039"
"21:5:57:575 (H:m:s:ms)","GENERIC","62.103","0.20640179992110028","436"
"21:25:11:392 (H:m:s:ms)","OPERA","62.013","0.24861315411948529","611"
"20:45:57:575 (H:m:s:ms)","GENERIC","62.087","0.2510395482328429","439"
"21:6:3:636 (H:m:s:ms)","GENERIC","62.081","0.20600582364814257","377"
"20:46:3:636 (H:m:s:ms)","GENERIC","62.085","0.2503505523041951","377"
"21:6:9:696 (H:m:s:ms)","GENERIC","62.067","0.2024547109036466","353"
"20:46:4:556 (H:m:s:ms)","OPERA","31.008","0.2520599925118233","449"
"20:46:9:696 (H:m:s:ms)","GENERIC","62.045","0.25061760642900516","347"
"21:39:41:818 (H:m:s:ms)","GENERIC","62.115","0.18459243759186847","192"
"21:39:35:757 (H:m:s:ms)","GENERIC","62.043","0.18593203441381462","255"
"21:39:29:696 (H:m:s:ms)","GENERIC","62.073","0.1909384628271275","353"
"21:39:28:421 (H:m:s:ms)","AMBULANCE","31.021","0.18895926534611282","610"
"21:39:23:636 (H:m:s:ms)","GENERIC","62.127","0.19363651137129917","375"
"21:39:17:575 (H:m:s:ms)","GENERIC","62.133","0.19144293422418213","435"
"21:39:11:515 (H:m:s:ms)","GENERIC","62.093","0.1920187665031298","494"
"21:39:5:454 (H:m:s:ms)","GENERIC","62.071","0.1897270252200262","558"
"21:25:15:151 (H:m:s:ms)","GENERIC","62.155","0.24814440608922234","860"
"21:25:18:987 (H:m:s:ms)","OPERA","62.013","0.2496410825641285","1048"
"21:6:15:757 (H:m:s:ms)","GENERIC","62.125","0.20163123498640775","256"
"21:25:21:212 (H:m:s:ms)","GENERIC","62.067","0.24993627492044618","799"
"21:6:18:947 (H:m:s:ms)","AMBULANCE","31.027","0.2042666297633136","1146"
"21:25:26:582 (H:m:s:ms)","OPERA","62.013","0.24388896334588955","422"
"20:46:12:151 (H:m:s:ms)","OPERA","31.008","0.25126497764520866","852"
"21:6:21:818 (H:m:s:ms)","GENERIC","62.049","0.20576439338538507","195"
"21:25:27:272 (H:m:s:ms)","GENERIC","62.063","0.24713595039008276","740"
"20:46:15:757 (H:m:s:ms)","GENERIC","62.095","0.25087878121045704","257"
"21:6:27:878 (H:m:s:ms)","GENERIC","62.157","0.20568411385775548","1128"
"21:25:33:333 (H:m:s:ms)","GENERIC","62.041","0.24613942255289017","676"
"21:38:59:393 (H:m:s:ms)","GENERIC","62.091","0.18720523410445522","653"
"20:46:21:818 (H:m:s:ms)","GENERIC","62.087","0.24637904085553167","196"
"21:6:33:939 (H:m:s:ms)","GENERIC","62.139","0.2047193362300982","1071"
"21:25:34:177 (H:m:s:ms)","OPERA","31.008","0.2467724172082442","828"
"21:38:56:842 (H:m:s:ms)","AMBULANCE","31.029","0.18615590036295915","220"
"20:46:27:341 (H:m:s:ms)","OPERA","31.007","0.2443701105226432","664"
"21:6:40:0 (H:m:s:ms)","GENERIC","62.081","0.20445682777068178","1052"
"21:25:39:393 (H:m:s:ms)","GENERIC","62.075","0.2426843321383381","650"
"21:38:53:333 (H:m:s:ms)","GENERIC","62.103","0.18354120039609453","673"
"20:46:27:878 (H:m:s:ms)","GENERIC","62.163","0.24429630112186634","1135"
"21:6:46:60 (H:m:s:ms)","GENERIC","62.091","0.20648396450512735","951"
"21:25:41:772 (H:m:s:ms)","OPERA","62.013","0.24384928070323092","233"
"20:46:33:939 (H:m:s:ms)","GENERIC","62.141","0.2404357111837835","1074"
"21:6:50:526 (H:m:s:ms)","AMBULANCE","31.05","0.2081092463961966","478"
"21:25:45:454 (H:m:s:ms)","GENERIC","62.153","0.2433480704381432","559"
"20:46:34:936 (H:m:s:ms)","OPERA","31.008","0.2434089791502844","1081"
"21:6:52:121 (H:m:s:ms)","GENERIC","62.083","0.21176915629152224","894"
"20:46:40:0 (H:m:s:ms)","GENERIC","62.073","0.2450372854265494","1053"
"21:6:58:181 (H:m:s:ms)","GENERIC","62.081","0.21251090709537096","831"
"20:46:42:531 (H:m:s:ms)","OPERA","31.008","0.2482620757277067","472"
"20:46:46:60 (H:m:s:ms)","GENERIC","62.125","0.25113815904095527","952"
"21:40:0:0 (H:m:s:ms)","AMBULANCE","31.017","0.18086789739205406","1660"
"21:40:36:363 (H:m:s:ms)","GENERIC","62.141","0.18749214974741585","649"
"21:40:30:303 (H:m:s:ms)","GENERIC","62.063","0.18692194947352292","711"
"21:40:24:242 (H:m:s:ms)","GENERIC","62.049","0.18428220079293298","769"
"21:40:18:181 (H:m:s:ms)","GENERIC","62.033","0.18487051427632864","830"
"21:40:12:121 (H:m:s:ms)","GENERIC","62.133","0.18453909179925937","889"
"21:40:6:60 (H:m:s:ms)","GENERIC","62.059","0.18395412585537665","951"
"21:40:0:0 (H:m:s:ms)","GENERIC","62.079","0.18232922656843017","1688"
"21:40:0:0 (H:m:s:ms)","GENERIC","62.075","0.1814332395506379","1676"
"21:7:4:242 (H:m:s:ms)","GENERIC","62.075","0.21268053359865355","770"
"21:7:10:303 (H:m:s:ms)","GENERIC","62.167","0.20596878418728565","705"
"20:46:50:126 (H:m:s:ms)","OPERA","31.008","0.24832142963656145","879"
"21:7:16:363 (H:m:s:ms)","GENERIC","62.049","0.20177185335057002","645"
"20:46:52:121 (H:m:s:ms)","GENERIC","62.083","0.24943634919564334","893"
"21:7:22:105 (H:m:s:ms)","AMBULANCE","31.05","0.20321427809657394","937"
"20:46:57:721 (H:m:s:ms)","OPERA","31.007","0.2477631301796324","283"
"21:7:22:424 (H:m:s:ms)","GENERIC","62.043","0.20890992300309166","632"
"20:46:58:181 (H:m:s:ms)","GENERIC","62.107","0.24919959628682176","831"
"21:7:28:484 (H:m:s:ms)","GENERIC","62.121","0.206778679302776","525"
"21:39:53:939 (H:m:s:ms)","GENERIC","62.099","0.18102509313785028","1071"
"20:47:4:242 (H:m:s:ms)","GENERIC","62.067","0.24750234592192968","772"
"21:7:34:545 (H:m:s:ms)","GENERIC","62.019","0.2051287172932318","468"
"21:39:47:878 (H:m:s:ms)","GENERIC","62.063","0.186177525310293","1133"
"20:47:5:316 (H:m:s:ms)","OPERA","31.007","0.2509717358489058","686"
"21:7:40:606 (H:m:s:ms)","GENERIC","62.071","0.20544651385195858","409"
"20:47:10:303 (H:m:s:ms)","GENERIC","62.135","0.24887813110001983","704"
"21:7:46:666 (H:m:s:ms)","GENERIC","62.111","0.2086300791999009","347"
"20:47:12:911 (H:m:s:ms)","OPERA","31.008","0.2517312345747853","1090"
"21:7:52:727 (H:m:s:ms)","GENERIC","62.111","0.20905836262049238","288"
"20:47:16:363 (H:m:s:ms)","GENERIC","62.065","0.24843696162309595","646"
"20:47:20:506 (H:m:s:ms)","OPERA","31.008","0.24449979579377842","501"
"21:7:53:684 (H:m:s:ms)","AMBULANCE","31.032","0.2111523688710782","349"
"21:7:58:787 (H:m:s:ms)","GENERIC","62.069","0.21596873514988676","222"
"20:47:22:424 (H:m:s:ms)","GENERIC","62.035","0.24550844454152135","592"
"21:8:4:848 (H:m:s:ms)","GENERIC","62.055","0.21438159112216681","169"
"20:47:28:484 (H:m:s:ms)","GENERIC","62.097","0.23910175960838015","524"
"21:8:10:909 (H:m:s:ms)","GENERIC","62.065","0.21991609104175258","1103"
"20:47:34:545 (H:m:s:ms)","GENERIC","62.035","0.23470591121048745","468"
"21:8:16:969 (H:m:s:ms)","GENERIC","62.151","0.21630067094902705","1037"
"20:47:35:696 (H:m:s:ms)","OPERA","31.007","0.23633910065712394","310"
"21:8:23:30 (H:m:s:ms)","GENERIC","62.099","0.2147458088214612","984"
"20:47:40:606 (H:m:s:ms)","GENERIC","62.069","0.2350925505057778","409"
"21:8:25:263 (H:m:s:ms)","AMBULANCE","31.048","0.21585151973452385","843"
"20:47:43:291 (H:m:s:ms)","OPERA","31.007","0.23764172193416322","721"
"21:8:29:90 (H:m:s:ms)","GENERIC","62.047","0.21596600344021563","966"
"21:40:42:424 (H:m:s:ms)","GENERIC","62.079","0.18684143187264005","586"
"20:47:46:666 (H:m:s:ms)","GENERIC","62.115","0.2378505616949086","351"
"21:8:35:151 (H:m:s:ms)","GENERIC","62.095","0.21662744248287627","855"
"20:47:50:886 (H:m:s:ms)","OPERA","31.008","0.23682940338294772","119"
"21:8:41:212 (H:m:s:ms)","GENERIC","62.157","0.21255966236317886","799"
"20:47:52:727 (H:m:s:ms)","GENERIC","62.117","0.2372000460234997","287"
"20:47:58:481 (H:m:s:ms)","OPERA","31.008","0.23561661624495234","522"
"21:8:47:272 (H:m:s:ms)","GENERIC","62.085","0.21109430994070832","743"
"21:8:53:333 (H:m:s:ms)","GENERIC","62.091","0.20409271298810905","675"
"20:47:58:787 (H:m:s:ms)","GENERIC","62.029","0.23584842611545","230"
"21:8:56:842 (H:m:s:ms)","AMBULANCE","31.037","0.20735613933989167","194"
"20:48:4:848 (H:m:s:ms)","GENERIC","62.023","0.23203099560741328","168"
"21:8:59:393 (H:m:s:ms)","GENERIC","62.055","0.20951651524739864","652"
"20:30:0:0 (H:m:s:ms)","GENERIC","62.083","0.17643322198489542","1054"
"20:48:10:909 (H:m:s:ms)","GENERIC","62.065","0.23173813764559337","1100"
"21:9:5:454 (H:m:s:ms)","GENERIC","62.067","0.20952610067834804","559"
"20:30:0:0 (H:m:s:ms)","GENERIC","62.099","0.1767530094219609","1068"
"20:48:13:670 (H:m:s:ms)","OPERA","31.007","0.2319674679910655","342"
"21:9:11:515 (H:m:s:ms)","GENERIC","62.071","0.20666569167378482","493"
"20:30:6:60 (H:m:s:ms)","GENERIC","62.095","0.18230984317585944","952"
"20:48:16:969 (H:m:s:ms)","GENERIC","62.131","0.23004384369890166","1038"
"21:9:17:575 (H:m:s:ms)","GENERIC","62.101","0.2046408959462888","435"
"20:30:12:121 (H:m:s:ms)","GENERIC","62.173","0.1754865884238292","889"
"20:48:21:265 (H:m:s:ms)","OPERA","31.008","0.2300195874012324","738"
"21:9:23:636 (H:m:s:ms)","GENERIC","62.099","0.20447431300689967","375"
"20:30:18:181 (H:m:s:ms)","GENERIC","62.081","0.17560378074175156","831"
"20:48:23:30 (H:m:s:ms)","GENERIC","62.107","0.22986019628197799","984"
"21:9:28:421 (H:m:s:ms)","AMBULANCE","31.04","0.2022709761900718","589"
"20:30:24:242 (H:m:s:ms)","GENERIC","62.059","0.18057998067882447","769"
"20:48:28:860 (H:m:s:ms)","OPERA","31.007","0.22678973552824058","145"
"21:9:29:696 (H:m:s:ms)","GENERIC","62.085","0.20692086244932775","352"
"20:30:30:303 (H:m:s:ms)","GENERIC","62.033","0.17963039851593537","713"
"20:48:29:90 (H:m:s:ms)","GENERIC","62.067","0.22670481496788292","966"
"20:30:36:363 (H:m:s:ms)","GENERIC","62.119","0.1840948720588816","653"
"20:48:35:151 (H:m:s:ms)","GENERIC","62.099","0.2230260533881427","858"
"20:30:42:424 (H:m:s:ms)","GENERIC","62.019","0.1800997595442921","589"
"20:30:48:484 (H:m:s:ms)","GENERIC","62.145","0.1812693024039796","526"
"21:9:35:757 (H:m:s:ms)","GENERIC","62.063","0.20239121607479008","258"
"21:9:41:818 (H:m:s:ms)","GENERIC","62.099","0.2008226339016618","195"
"20:48:36:455 (H:m:s:ms)","OPERA","31.007","0.2259839855620287","561"
"21:9:47:878 (H:m:s:ms)","GENERIC","62.037","0.20224222904577976","1135"
"20:48:41:212 (H:m:s:ms)","GENERIC","62.201","0.22252529337603616","797"
"21:9:53:939 (H:m:s:ms)","GENERIC","62.093","0.20020755231618523","1072"
"20:30:54:545 (H:m:s:ms)","GENERIC","62.097","0.17979622027662215","466"
"20:48:44:50 (H:m:s:ms)","OPERA","31.007","0.22432682446101876","954"
"21:10:0:0 (H:m:s:ms)","AMBULANCE","31.03","0.20140846747352473","1047"
"20:31:0:606 (H:m:s:ms)","GENERIC","62.141","0.18472956488903675","406"
"20:48:47:272 (H:m:s:ms)","GENERIC","62.083","0.22456595788445494","743"
"21:10:0:0 (H:m:s:ms)","GENERIC","62.067","0.20140787901800636","1064"
"20:31:6:666 (H:m:s:ms)","GENERIC","62.055","0.18336398541040552","349"
"20:48:51:645 (H:m:s:ms)","OPERA","31.008","0.21907595719663164","360"
"21:10:0:0 (H:m:s:ms)","GENERIC","62.089","0.20131162420879564","1078"
"20:31:12:727 (H:m:s:ms)","GENERIC","62.087","0.18581565424356297","285"
"20:48:53:333 (H:m:s:ms)","GENERIC","62.083","0.2192644718811631","674"
"21:10:6:60 (H:m:s:ms)","GENERIC","62.065","0.20086475291210218","952"
"20:31:18:787 (H:m:s:ms)","GENERIC","62.025","0.18541060928653477","228"
"20:48:59:240 (H:m:s:ms)","OPERA","31.008","0.2176546466956812","805"
"21:10:12:121 (H:m:s:ms)","GENERIC","62.119","0.2051781429511177","891"
"20:31:24:848 (H:m:s:ms)","GENERIC","62.143","0.18538056173722137","163"
"20:48:59:393 (H:m:s:ms)","GENERIC","62.043","0.21767174075357476","663"
"21:10:18:181 (H:m:s:ms)","GENERIC","62.047","0.20173201066140467","829"
"20:31:30:909 (H:m:s:ms)","GENERIC","62.033","0.1860274519363204","1101"
"20:49:5:454 (H:m:s:ms)","GENERIC","62.041","0.21556100742204004","558"
"20:31:36:969 (H:m:s:ms)","GENERIC","62.093","0.18569183840860726","1046"
"20:49:6:835 (H:m:s:ms)","OPERA","31.007","0.21923214917892486","186"
"20:31:43:30 (H:m:s:ms)","GENERIC","62.065","0.18300785500945432","981"
"20:31:49:90 (H:m:s:ms)","GENERIC","62.095","0.18331281496048035","959"
"20:49:11:515 (H:m:s:ms)","GENERIC","62.095","0.22118826198523633","495"
"20:49:14:430 (H:m:s:ms)","OPERA","31.008","0.22251766905867354","573"
"20:31:55:151 (H:m:s:ms)","GENERIC","62.091","0.1825735050137348","857"
"20:49:17:575 (H:m:s:ms)","GENERIC","62.097","0.2218533037383211","437"
"20:32:1:212 (H:m:s:ms)","GENERIC","62.033","0.1836566787449319","797"
"20:49:22:25 (H:m:s:ms)","OPERA","31.008","0.2211886932462816","992"
"20:32:7:272 (H:m:s:ms)","GENERIC","31.025","0.18379128143419532","847"
"20:49:23:636 (H:m:s:ms)","GENERIC","62.125","0.22502491130721655","375"
"20:32:13:333 (H:m:s:ms)","GENERIC","62.061","0.1792053449334997","678"
"20:49:29:620 (H:m:s:ms)","OPERA","31.008","0.22702702709165284","436"
"20:32:19:393 (H:m:s:ms)","GENERIC","62.077","0.18012502317224174","658"
"20:49:29:696 (H:m:s:ms)","GENERIC","62.111","0.23090547622593746","376"
"20:32:25:454 (H:m:s:ms)","GENERIC","62.047","0.17969574957167142","564"
"20:49:35:757 (H:m:s:ms)","GENERIC","62.075","0.2293593419937395","256"
"20:32:31:515 (H:m:s:ms)","GENERIC","62.069","0.18017562692879355","499"
"20:49:37:215 (H:m:s:ms)","OPERA","31.008","0.23133197219827778","790"
"20:32:37:575 (H:m:s:ms)","GENERIC","62.015","0.18225031768950545","439"
"20:49:41:818 (H:m:s:ms)","GENERIC","62.107","0.2307678528109456","195"
"20:32:43:636 (H:m:s:ms)","GENERIC","62.025","0.18062184567068781","376"
"20:32:49:696 (H:m:s:ms)","GENERIC","62.125","0.18274310548522116","350"
"20:49:44:810 (H:m:s:ms)","OPERA","31.007","0.23272612547856736","205"
"20:49:47:878 (H:m:s:ms)","GENERIC","62.069","0.2344139503995965","1135"
"20:32:55:757 (H:m:s:ms)","GENERIC","62.127","0.18805835176489114","251"
"20:49:52:405 (H:m:s:ms)","OPERA","31.008","0.2333296554772871","607"
"20:33:1:818 (H:m:s:ms)","GENERIC","62.053","0.18999300971936375","196"
"20:49:53:939 (H:m:s:ms)","GENERIC","62.073","0.23449952103063018","1072"
"20:33:7:878 (H:m:s:ms)","GENERIC","62.043","0.1915047934119033","1136"
"20:50:0:0 (H:m:s:ms)","OPERA","31.008","0.23634909943823232","1060"
"20:33:13:939 (H:m:s:ms)","GENERIC","62.125","0.1924980080698394","1071"
"20:50:0:0 (H:m:s:ms)","GENERIC","62.061","0.23618807292453428","1077"
"20:33:20:0 (H:m:s:ms)","GENERIC","62.093","0.19339827962095352","1047"
"20:50:0:0 (H:m:s:ms)","GENERIC","62.095","0.23465529474907962","1055"
"20:33:26:60 (H:m:s:ms)","GENERIC","62.135","0.1933136211005454","946"
"20:50:6:60 (H:m:s:ms)","GENERIC","62.065","0.23646639431597122","948"
"20:33:32:121 (H:m:s:ms)","GENERIC","62.051","0.19390198793359736","893"
"20:50:12:121 (H:m:s:ms)","GENERIC","62.143","0.23102001978294562","888"
"20:33:38:181 (H:m:s:ms)","GENERIC","62.103","0.19380867921496286","825"
"20:50:18:181 (H:m:s:ms)","GENERIC","62.073","0.23080219549116332","830"
"20:33:44:242 (H:m:s:ms)","GENERIC","62.061","0.19413608109816516","766"
"20:33:50:303 (H:m:s:ms)","GENERIC","62.019","0.19173182488592894","711"
"20:50:24:242 (H:m:s:ms)","GENERIC","62.079","0.2320809076184164","765"
"20:50:30:303 (H:m:s:ms)","GENERIC","62.035","0.23141735945217523","707"
"20:33:56:363 (H:m:s:ms)","GENERIC","62.027","0.19091882194496193","650"
"20:50:36:363 (H:m:s:ms)","GENERIC","62.089","0.23256991116077017","647"
"20:34:2:424 (H:m:s:ms)","GENERIC","62.043","0.18670386435243227","593"
"20:50:42:424 (H:m:s:ms)","GENERIC","62.033","0.2316801022578359","590"
"20:10:0:0 (H:m:s:ms)","GENERIC","31.044","0.19952747571059481","1017"
"20:34:8:484 (H:m:s:ms)","GENERIC","62.075","0.18586288555826633","530"
"20:50:48:484 (H:m:s:ms)","GENERIC","62.153","0.23389970178706482","528"
"20:10:0:0 (H:m:s:ms)","GENERIC","62.075","0.20027750545635908","1074"
"20:34:14:545 (H:m:s:ms)","GENERIC","62.087","0.18384062377094434","470"
"20:50:54:545 (H:m:s:ms)","GENERIC","62.079","0.22995100832764215","467"
"20:10:6:60 (H:m:s:ms)","GENERIC","62.089","0.19977435327541204","953"
"20:34:20:606 (H:m:s:ms)","GENERIC","62.017","0.18378056053813963","409"
"20:51:0:606 (H:m:s:ms)","GENERIC","62.145","0.22814972099075198","409"
"20:10:12:121 (H:m:s:ms)","GENERIC","62.139","0.20170156716437254","886"
"20:34:26:666 (H:m:s:ms)","GENERIC","62.093","0.18034500524596134","352"
"20:51:6:666 (H:m:s:ms)","GENERIC","62.047","0.22598773004319694","345"
"20:10:18:181 (H:m:s:ms)","GENERIC","62.071","0.20052557894867562","832"
"20:34:32:727 (H:m:s:ms)","GENERIC","62.173","0.1809439118705543","286"
"20:51:12:727 (H:m:s:ms)","GENERIC","62.091","0.2238196069352469","286"
"20:10:24:242 (H:m:s:ms)","GENERIC","62.081","0.2047617982665354","765"
"20:34:38:787 (H:m:s:ms)","GENERIC","62.077","0.18012226145440977","226"
"20:51:18:787 (H:m:s:ms)","GENERIC","62.035","0.22358754174459797","224"
"20:10:30:303 (H:m:s:ms)","GENERIC","62.057","0.20016637202491885","713"
"20:34:44:848 (H:m:s:ms)","GENERIC","62.103","0.1797229124459352","161"
"20:10:36:363 (H:m:s:ms)","GENERIC","62.153","0.20240357045190438","648"
"20:34:50:909 (H:m:s:ms)","GENERIC","62.113","0.1825139632775484","1107"
"20:10:42:424 (H:m:s:ms)","GENERIC","62.043","0.20239941617595722","591"
"20:10:48:484 (H:m:s:ms)","GENERIC","62.103","0.20498101727057014","529"
"20:51:24:848 (H:m:s:ms)","GENERIC","62.111","0.22341218214470915","164"
"20:51:30:909 (H:m:s:ms)","GENERIC","62.031","0.22354795646903441","1100"
"20:34:56:969 (H:m:s:ms)","GENERIC","62.015","0.17769918705285628","1046"
"20:51:36:969 (H:m:s:ms)","GENERIC","62.061","0.22041363562285274","1046"
"20:35:3:30 (H:m:s:ms)","GENERIC","62.101","0.17840108468231491","986"
"20:51:43:30 (H:m:s:ms)","GENERIC","62.059","0.21279069331543096","978"
"20:10:54:545 (H:m:s:ms)","GENERIC","62.121","0.2026686557275658","465"
"20:35:9:90 (H:m:s:ms)","GENERIC","62.027","0.17525389919662948","957"
"20:51:49:90 (H:m:s:ms)","GENERIC","62.107","0.21170785520068433","966"
"20:11:0:606 (H:m:s:ms)","GENERIC","62.105","0.20155308609332423","409"
"20:35:15:151 (H:m:s:ms)","GENERIC","62.167","0.17236959331629284","861"
"20:51:55:151 (H:m:s:ms)","GENERIC","62.105","0.211583245923872","858"
"20:11:6:666 (H:m:s:ms)","GENERIC","62.047","0.20213385899346462","349"
"20:35:21:212 (H:m:s:ms)","GENERIC","62.019","0.17392047022684534","802"
"20:52:1:212 (H:m:s:ms)","GENERIC","62.079","0.21027411718919564","798"
"20:11:12:727 (H:m:s:ms)","GENERIC","62.055","0.20201410631875924","285"
"20:35:27:272 (H:m:s:ms)","GENERIC","62.055","0.17051570368985072","742"
"20:52:7:272 (H:m:s:ms)","GENERIC","62.027","0.20623740461338036","736"
"20:11:18:787 (H:m:s:ms)","GENERIC","62.037","0.20450787984902338","226"
"20:35:33:333 (H:m:s:ms)","GENERIC","62.035","0.16798304128557703","676"
"20:52:13:333 (H:m:s:ms)","GENERIC","62.069","0.20249064263070324","679"
"20:11:24:848 (H:m:s:ms)","GENERIC","62.153","0.2040264238552458","163"
"20:35:39:393 (H:m:s:ms)","GENERIC","62.141","0.16915923013195167","655"
"20:52:19:393 (H:m:s:ms)","GENERIC","62.085","0.20562309622133612","657"
"20:11:30:909 (H:m:s:ms)","GENERIC","62.047","0.20379866238096486","1105"
"20:35:45:454 (H:m:s:ms)","GENERIC","62.087","0.1695344822723303","557"
"20:11:36:969 (H:m:s:ms)","GENERIC","62.051","0.20351527910048003","1046"
"20:35:51:515 (H:m:s:ms)","GENERIC","62.069","0.16927417952153914","501"
"20:11:43:30 (H:m:s:ms)","GENERIC","62.061","0.20353039215210034","986"
"20:11:49:90 (H:m:s:ms)","GENERIC","62.127","0.19965857136468218","966"
"20:0:54:545 (H:m:s:ms)","GENERIC","31.063","0.10459411080933155","469"
"20:1:0:606 (H:m:s:ms)","GENERIC","31.048","0.11539569596247362","410"
"20:1:6:666 (H:m:s:ms)","GENERIC","31.023","0.11746410206969987","350"
"20:1:12:727 (H:m:s:ms)","GENERIC","31.028","0.11908042275324153","287"
"20:1:18:787 (H:m:s:ms)","GENERIC","31.015","0.12042965530618539","231"
"20:1:24:848 (H:m:s:ms)","GENERIC","31.067","0.12050903967067975","165"
"20:1:30:909 (H:m:s:ms)","GENERIC","31.025","0.12076423986818086","1106"
"20:1:36:969 (H:m:s:ms)","GENERIC","31.016","0.12188734163195164","1047"
"20:1:43:30 (H:m:s:ms)","GENERIC","31.034","0.13092399186845566","988"
"20:1:49:90 (H:m:s:ms)","GENERIC","31.074","0.13342020575207314","940"
"20:35:57:575 (H:m:s:ms)","GENERIC","62.095","0.16909426027417426","439"
"20:36:3:636 (H:m:s:ms)","GENERIC","62.105","0.16303534513892534","378"
"20:11:55:151 (H:m:s:ms)","GENERIC","62.095","0.1987857289796643","859"
"20:36:9:696 (H:m:s:ms)","GENERIC","62.041","0.16783015818157876","346"
"20:12:1:212 (H:m:s:ms)","GENERIC","62.033","0.19649277981949406","801"
"20:36:15:757 (H:m:s:ms)","GENERIC","62.091","0.16701620633223388","257"
"20:12:7:272 (H:m:s:ms)","GENERIC","62.111","0.19940863517833732","743"
"20:36:21:818 (H:m:s:ms)","GENERIC","62.105","0.16920102880743154","196"
"20:12:13:333 (H:m:s:ms)","GENERIC","62.097","0.19540204314504034","680"
"20:36:27:878 (H:m:s:ms)","GENERIC","62.151","0.17034706328656954","1125"
"20:12:19:393 (H:m:s:ms)","GENERIC","62.087","0.19528323912466197","658"
"20:36:33:939 (H:m:s:ms)","GENERIC","62.121","0.16901600892116717","1073"
"20:12:25:454 (H:m:s:ms)","GENERIC","62.035","0.1927321826304798","563"
"20:36:40:0 (H:m:s:ms)","GENERIC","62.069","0.173734456159194","1047"
"20:12:31:515 (H:m:s:ms)","GENERIC","62.089","0.19080816473068848","493"
"20:36:46:60 (H:m:s:ms)","GENERIC","62.119","0.1768434396958398","951"
"20:12:37:575 (H:m:s:ms)","GENERIC","62.029","0.1910966725662265","437"
"20:36:52:121 (H:m:s:ms)","GENERIC","62.067","0.17796724024301974","895"
"20:12:43:636 (H:m:s:ms)","GENERIC","62.025","0.19076709286508445","378"
"20:12:49:696 (H:m:s:ms)","GENERIC","62.125","0.19194438370041805","351"
"20:1:55:151 (H:m:s:ms)","GENERIC","31.047","0.13354164379784342","859"
"20:2:1:212 (H:m:s:ms)","GENERIC","31.018","0.13708233828622934","800"
"20:2:7:272 (H:m:s:ms)","GENERIC","31.048","0.13933519309279577","745"
"20:2:13:333 (H:m:s:ms)","GENERIC","31.046","0.14711760699621756","682"
"20:2:19:393 (H:m:s:ms)","GENERIC","31.043","0.14873458746409818","633"
"20:2:25:454 (H:m:s:ms)","GENERIC","31.022","0.14899963128228416","564"
"20:2:31:515 (H:m:s:ms)","GENERIC","31.045","0.1520860602587861","496"
"20:2:37:575 (H:m:s:ms)","GENERIC","31.026","0.15214956969558985","441"
"20:2:43:636 (H:m:s:ms)","GENERIC","31.008","0.1529110439673675","376"
"20:2:49:696 (H:m:s:ms)","GENERIC","31.069","0.15461590561795682","326"
"20:36:58:181 (H:m:s:ms)","GENERIC","62.109","0.1805028284105242","832"
"20:37:4:242 (H:m:s:ms)","GENERIC","62.053","0.17874938131686974","773"
"20:12:55:757 (H:m:s:ms)","GENERIC","62.143","0.1967405473831058","250"
"20:37:10:303 (H:m:s:ms)","GENERIC","62.117","0.1796541811365223","705"
"20:13:1:818 (H:m:s:ms)","GENERIC","62.057","0.20101064564109566","194"
"20:37:16:363 (H:m:s:ms)","GENERIC","62.081","0.17897336023301355","647"
"20:13:7:878 (H:m:s:ms)","GENERIC","62.015","0.20228727800218632","1136"
"20:37:22:424 (H:m:s:ms)","GENERIC","62.035","0.1771150549788896","592"
"20:13:13:939 (H:m:s:ms)","GENERIC","62.093","0.19988067525169972","1075"
"20:37:28:484 (H:m:s:ms)","GENERIC","62.085","0.1791507243729363","525"
"20:13:20:0 (H:m:s:ms)","GENERIC","62.081","0.20196613910052338","1048"
"20:37:34:545 (H:m:s:ms)","GENERIC","62.047","0.1779827143369014","470"
"20:13:26:60 (H:m:s:ms)","GENERIC","62.089","0.201475271952748","947"
"20:37:40:606 (H:m:s:ms)","GENERIC","62.053","0.18244255931128858","408"
"20:13:32:121 (H:m:s:ms)","GENERIC","62.043","0.20172911833624907","889"
"20:37:46:666 (H:m:s:ms)","GENERIC","62.131","0.1840413678992814","349"
"20:13:38:181 (H:m:s:ms)","GENERIC","62.123","0.2054543718587762","831"
"20:37:52:727 (H:m:s:ms)","GENERIC","62.137","0.18318289306738947","288"
"20:13:44:242 (H:m:s:ms)","GENERIC","62.043","0.2080917736408794","765"
"20:13:50:303 (H:m:s:ms)","GENERIC","62.039","0.20738798971062933","710"
"20:2:55:757 (H:m:s:ms)","GENERIC","31.074","0.16139741392049428","251"
"20:3:1:818 (H:m:s:ms)","GENERIC","31.039","0.16401833109813285","199"
"20:3:7:878 (H:m:s:ms)","GENERIC","31.009","0.1660254346838227","137"
"20:3:13:939 (H:m:s:ms)","GENERIC","31.044","0.16935348904211922","1076"
"20:3:20:0 (H:m:s:ms)","GENERIC","31.036","0.16974658604550616","1010"
"20:3:26:60 (H:m:s:ms)","GENERIC","31.035","0.16969538020122435","949"
"20:3:32:121 (H:m:s:ms)","GENERIC","31.023","0.16990758376706375","892"
"20:3:38:181 (H:m:s:ms)","GENERIC","31.07","0.17174066527515242","829"
"20:3:44:242 (H:m:s:ms)","GENERIC","31.033","0.17758207420178523","769"
"20:3:50:303 (H:m:s:ms)","GENERIC","31.028","0.17920407832730487","712"
"20:37:58:787 (H:m:s:ms)","GENERIC","62.027","0.18136804673461374","225"
"20:38:4:848 (H:m:s:ms)","GENERIC","62.021","0.17943285063251477","168"
"20:13:56:363 (H:m:s:ms)","GENERIC","62.043","0.20441445982021872","649"
"20:38:10:909 (H:m:s:ms)","GENERIC","62.063","0.17873654903158662","1102"
"20:14:2:424 (H:m:s:ms)","GENERIC","62.053","0.19973515827628444","592"
"20:38:16:969 (H:m:s:ms)","GENERIC","62.131","0.17437832448578183","1035"
"20:14:8:484 (H:m:s:ms)","GENERIC","62.073","0.1957097720153566","529"
"20:38:23:30 (H:m:s:ms)","GENERIC","62.107","0.17267447544009246","982"
"20:14:14:545 (H:m:s:ms)","GENERIC","62.055","0.19096078271083877","470"
"20:38:29:90 (H:m:s:ms)","GENERIC","62.081","0.17290447845506102","962"
"20:14:20:606 (H:m:s:ms)","GENERIC","62.043","0.1919144998866309","409"
"20:38:35:151 (H:m:s:ms)","GENERIC","62.093","0.17433832828861512","856"
"20:14:26:666 (H:m:s:ms)","GENERIC","62.073","0.1902947498999028","345"
"20:38:41:212 (H:m:s:ms)","GENERIC","62.177","0.17304881876405695","801"
"20:14:32:727 (H:m:s:ms)","GENERIC","62.149","0.18571945668419954","288"
"20:38:47:272 (H:m:s:ms)","GENERIC","62.079","0.1752672880758134","741"
"20:14:38:787 (H:m:s:ms)","GENERIC","62.113","0.18630102770789062","227"
"20:38:53:333 (H:m:s:ms)","GENERIC","62.065","0.17472188327697336","675"
"20:14:44:848 (H:m:s:ms)","GENERIC","62.137","0.18466668059243807","160"
"20:14:50:909 (H:m:s:ms)","GENERIC","62.065","0.18651823277347304","1107"
"20:3:56:363 (H:m:s:ms)","GENERIC","31.027","0.18206008416472733","650"
"20:4:2:424 (H:m:s:ms)","GENERIC","31.025","0.18213131371584862","595"
"20:4:8:484 (H:m:s:ms)","GENERIC","31.043","0.18382632069580676","529"
"20:4:14:545 (H:m:s:ms)","GENERIC","31.026","0.18422932296259512","471"
"20:4:20:606 (H:m:s:ms)","GENERIC","31.017","0.18867773021848488","409"
"20:4:26:666 (H:m:s:ms)","GENERIC","31.032","0.1912720653672538","345"
"20:4:32:727 (H:m:s:ms)","GENERIC","31.067","0.19624622019431054","288"
"20:4:38:787 (H:m:s:ms)","GENERIC","31.065","0.1970655086011082","226"
"20:4:44:848 (H:m:s:ms)","GENERIC","31.077","0.1969786123382971","163"
"20:4:50:909 (H:m:s:ms)","GENERIC","31.029","0.2007566973575175","1106"
"20:38:59:393 (H:m:s:ms)","GENERIC","62.061","0.17922093274324363","653"
"20:39:5:454 (H:m:s:ms)","GENERIC","62.027","0.18361889890049907","560"
"20:14:56:969 (H:m:s:ms)","GENERIC","62.025","0.18315702067976247","1048"
"20:39:11:515 (H:m:s:ms)","GENERIC","62.109","0.18298219456490605","492"
"20:15:3:30 (H:m:s:ms)","GENERIC","62.105","0.1815720270833115","986"
"20:39:17:575 (H:m:s:ms)","GENERIC","62.081","0.18301445127141733","438"
"20:15:9:90 (H:m:s:ms)","GENERIC","62.023","0.18270233741170158","963"
"20:39:23:636 (H:m:s:ms)","GENERIC","62.141","0.18809855979214682","376"
"20:15:15:151 (H:m:s:ms)","GENERIC","62.123","0.178915961862363","863"
"20:39:29:696 (H:m:s:ms)","GENERIC","62.111","0.18821151074470097","357"
"20:15:21:212 (H:m:s:ms)","GENERIC","62.063","0.18033053027381563","804"
"20:39:35:757 (H:m:s:ms)","GENERIC","62.055","0.18292062948531035","258"
"20:15:27:272 (H:m:s:ms)","GENERIC","62.079","0.1783666749980967","743"
"20:39:41:818 (H:m:s:ms)","GENERIC","62.129","0.18136941388446445","192"
"20:15:33:333 (H:m:s:ms)","GENERIC","62.023","0.17872637618662168","677"
"20:39:47:878 (H:m:s:ms)","GENERIC","62.081","0.18381586627348975","1135"
"20:15:39:393 (H:m:s:ms)","GENERIC","62.137","0.17855476063206457","662"
"20:39:53:939 (H:m:s:ms)","GENERIC","62.073","0.18052012262737746","1071"
"20:15:45:454 (H:m:s:ms)","GENERIC","62.131","0.1734656502553959","560"
"20:15:51:515 (H:m:s:ms)","GENERIC","62.065","0.17257848892333932","502"
"20:4:56:969 (H:m:s:ms)","GENERIC","31.024","0.20132116532857092","1047"
"20:5:3:30 (H:m:s:ms)","GENERIC","31.048","0.2024389903042721","986"
"20:5:9:90 (H:m:s:ms)","GENERIC","31.013","0.2024028607251374","943"
"20:5:15:151 (H:m:s:ms)","GENERIC","31.051","0.2019831224764361","863"
"20:5:21:212 (H:m:s:ms)","GENERIC","31.035","0.20239368306456582","803"
"20:5:27:272 (H:m:s:ms)","GENERIC","31.039","0.20237930970487034","744"
"20:5:33:333 (H:m:s:ms)","GENERIC","31.023","0.20004490005856093","678"
"20:5:39:393 (H:m:s:ms)","GENERIC","31.069","0.20004743384353096","644"
"20:5:45:454 (H:m:s:ms)","GENERIC","31.059","0.19662333493881223","556"
"20:5:51:515 (H:m:s:ms)","GENERIC","31.032","0.19703646549321666","498"
"20:15:57:575 (H:m:s:ms)","GENERIC","62.101","0.17186057368511093","440"
"20:16:3:636 (H:m:s:ms)","GENERIC","62.115","0.1715345160420799","381"
"20:16:9:696 (H:m:s:ms)","GENERIC","62.051","0.17658046909950437","357"
"20:16:15:757 (H:m:s:ms)","GENERIC","62.059","0.17526408821785877","259"
"20:16:21:818 (H:m:s:ms)","GENERIC","62.093","0.17822725623259553","196"
"20:16:27:878 (H:m:s:ms)","GENERIC","62.129","0.1780744587874091","1131"
"20:16:33:939 (H:m:s:ms)","GENERIC","62.083","0.1781613198772713","1076"
"20:16:40:0 (H:m:s:ms)","GENERIC","62.065","0.18314940647178693","1056"
"20:16:46:60 (H:m:s:ms)","GENERIC","62.089","0.1826591450293447","956"
"20:16:52:121 (H:m:s:ms)","GENERIC","62.037","0.18333748212661732","892"
"20:5:57:575 (H:m:s:ms)","GENERIC","31.043","0.1982997188372316","437"
"20:6:3:636 (H:m:s:ms)","GENERIC","31.055","0.19337530130124453","381"
"20:6:9:696 (H:m:s:ms)","GENERIC","31.022","0.19753520123510135","346"
"20:6:15:757 (H:m:s:ms)","GENERIC","31.019","0.19914858188475332","256"
"20:6:21:818 (H:m:s:ms)","GENERIC","31.041","0.20272115929996484","195"
"20:6:27:878 (H:m:s:ms)","GENERIC","31.066","0.20298708646571179","131"
"20:6:33:939 (H:m:s:ms)","GENERIC","31.039","0.2033366234733986","1074"
"20:6:40:0 (H:m:s:ms)","GENERIC","31.029","0.20589294079509496","1012"
"20:6:46:60 (H:m:s:ms)","GENERIC","31.038","0.2070589663274039","955"
"20:6:52:121 (H:m:s:ms)","GENERIC","31.011","0.2065468138821792","894"
"20:16:58:181 (H:m:s:ms)","GENERIC","62.115","0.18438436938605682","833"
"20:17:4:242 (H:m:s:ms)","GENERIC","62.025","0.1855818843168836","774"
"20:17:10:303 (H:m:s:ms)","GENERIC","62.137","0.18302291310352184","706"
"20:17:16:363 (H:m:s:ms)","GENERIC","62.095","0.18263676041232182","646"
"20:17:22:424 (H:m:s:ms)","GENERIC","62.047","0.18439446005755053","594"
"20:17:28:484 (H:m:s:ms)","GENERIC","62.061","0.18970609263420876","527"
"20:17:34:545 (H:m:s:ms)","GENERIC","62.063","0.18883077543298915","470"
"20:17:40:606 (H:m:s:ms)","GENERIC","62.017","0.19091909226750278","409"
"20:17:46:666 (H:m:s:ms)","GENERIC","62.147","0.1929136285807107","351"
"20:17:52:727 (H:m:s:ms)","GENERIC","62.125","0.19255547890017982","290"
"20:6:58:181 (H:m:s:ms)","GENERIC","31.049","0.20889299753337448","832"
"20:7:4:242 (H:m:s:ms)","GENERIC","31.016","0.20868024157730158","772"
"20:7:10:303 (H:m:s:ms)","GENERIC","31.078","0.2118594380510957","705"
"20:7:16:363 (H:m:s:ms)","GENERIC","31.05","0.20770178894100624","646"
"20:7:22:424 (H:m:s:ms)","GENERIC","31.028","0.20916768997104776","594"
"20:7:28:484 (H:m:s:ms)","GENERIC","31.021","0.21355575865370108","526"
"20:7:34:545 (H:m:s:ms)","GENERIC","31.035","0.2119036470498366","471"
"20:7:40:606 (H:m:s:ms)","GENERIC","31.014","0.21214713102440255","408"
"20:7:46:666 (H:m:s:ms)","GENERIC","31.069","0.21249866320026584","350"
"20:7:52:727 (H:m:s:ms)","GENERIC","31.064","0.21179125722092831","290"
"20:17:58:787 (H:m:s:ms)","GENERIC","62.065","0.193984405716081","225"
"20:18:4:848 (H:m:s:ms)","GENERIC","62.045","0.18900609165039114","168"
"20:18:10:909 (H:m:s:ms)","GENERIC","62.081","0.1900408701045229","1105"
"20:18:16:969 (H:m:s:ms)","GENERIC","62.151","0.18746527368341748","1037"
"20:18:23:30 (H:m:s:ms)","GENERIC","62.083","0.18276352402297913","986"
"20:18:29:90 (H:m:s:ms)","GENERIC","62.117","0.18298578786600891","968"
"20:18:35:151 (H:m:s:ms)","GENERIC","62.091","0.18181257071833323","858"
"20:18:41:212 (H:m:s:ms)","GENERIC","62.151","0.1762258335914492","800"
"20:18:47:272 (H:m:s:ms)","GENERIC","62.053","0.17697341608488576","745"
"20:18:53:333 (H:m:s:ms)","GENERIC","62.033","0.1755915020473143","677"
"20:7:58:787 (H:m:s:ms)","GENERIC","31.045","0.2101113459699014","223"
"20:8:4:848 (H:m:s:ms)","GENERIC","31.033","0.20852348610379134","168"
"20:8:10:909 (H:m:s:ms)","GENERIC","31.04","0.21178107708001975","1099"
"20:8:16:969 (H:m:s:ms)","GENERIC","31.079","0.20959104452228078","1037"
"20:8:23:30 (H:m:s:ms)","GENERIC","31.038","0.20702943327492782","983"
"20:8:29:90 (H:m:s:ms)","GENERIC","31.066","0.20718029798795973","964"
"20:8:35:151 (H:m:s:ms)","GENERIC","31.04","0.20682601307669532","858"
"20:8:41:212 (H:m:s:ms)","GENERIC","31.071","0.2057969117513144","800"
"20:8:47:272 (H:m:s:ms)","GENERIC","31.025","0.20193005534464736","741"
"20:8:53:333 (H:m:s:ms)","GENERIC","31.022","0.19814321267997653","676"
"20:18:59:393 (H:m:s:ms)","GENERIC","62.089","0.17670460310089708","656"
"20:19:5:454 (H:m:s:ms)","GENERIC","62.021","0.18214386259747503","561"
"20:19:11:515 (H:m:s:ms)","GENERIC","62.127","0.18231362244765417","496"
"20:19:17:575 (H:m:s:ms)","GENERIC","62.109","0.18336974905951423","438"
"20:19:23:636 (H:m:s:ms)","GENERIC","62.149","0.1837066391345185","372"
"20:19:29:696 (H:m:s:ms)","GENERIC","62.089","0.18192885733576789","353"
"20:19:35:757 (H:m:s:ms)","GENERIC","62.025","0.17747916543257078","259"
"20:19:41:818 (H:m:s:ms)","GENERIC","62.147","0.17298874826125848","197"
"20:19:47:878 (H:m:s:ms)","GENERIC","31.02","0.17486406723365358","139"
"20:19:53:939 (H:m:s:ms)","GENERIC","62.095","0.1679329316570022","1072"
"20:8:59:393 (H:m:s:ms)","GENERIC","31.053","0.200521542189282","659"
"20:9:5:454 (H:m:s:ms)","GENERIC","31.01","0.2051467236136149","557"
"20:9:11:515 (H:m:s:ms)","GENERIC","31.064","0.20548291318214215","494"
"20:9:17:575 (H:m:s:ms)","GENERIC","31.065","0.2060814117628216","435"
"20:9:23:636 (H:m:s:ms)","GENERIC","31.067","0.20590932027545003","376"
"20:9:29:696 (H:m:s:ms)","GENERIC","31.044","0.20845443979927397","354"
"20:9:35:757 (H:m:s:ms)","GENERIC","31.009","0.2038534773469518","255"
"20:9:41:818 (H:m:s:ms)","GENERIC","31.083","0.20031375122677958","193"
"20:9:47:878 (H:m:s:ms)","GENERIC","31.06","0.2003407534120641","154"
"20:9:53:939 (H:m:s:ms)","GENERIC","31.051","0.19964532312877856","1075"
"21:41:24:848 (H:m:s:ms)","GENERIC","62.155","0.18737654809966203","163"
"21:41:18:787 (H:m:s:ms)","GENERIC","62.037","0.19094291232319419","225"
"21:41:12:727 (H:m:s:ms)","GENERIC","62.087","0.18931202475522882","282"
"21:41:6:666 (H:m:s:ms)","GENERIC","62.071","0.1868097060096835","346"
"21:41:0:606 (H:m:s:ms)","GENERIC","62.087","0.18752743838924543","405"
"21:40:54:545 (H:m:s:ms)","GENERIC","62.143","0.18238336121748722","469"
"21:40:48:484 (H:m:s:ms)","GENERIC","62.127","0.18311041435028505","527"
"21:41:43:30 (H:m:s:ms)","GENERIC","62.043","0.19089254434822306","982"
"21:41:36:969 (H:m:s:ms)","GENERIC","62.081","0.18759354292212013","1044"
"21:41:30:909 (H:m:s:ms)","GENERIC","62.079","0.18759307883197357","1104"
