"time (H:m:s:ms)","type","latency","utilisation","waiting"
"21:42:49:696 (H:m:s:ms)","GENERIC","155.379","0.3831504706148493","454"
"21:42:31:515 (H:m:s:ms)","GENERIC","125.271","0.38567810699478683","605"
"21:42:25:454 (H:m:s:ms)","GENERIC","125.53200000000001","0.3872546682493396","613"
"21:42:19:393 (H:m:s:ms)","GENERIC","124.40899999999999","0.38008135737201815","737"
"21:42:13:333 (H:m:s:ms)","GENERIC","156.695","0.37990154956989536","753"
"21:42:7:272 (H:m:s:ms)","GENERIC","124.571","0.37758925011370076","754"
"21:42:1:212 (H:m:s:ms)","GENERIC","156.26","0.3775169485756332","860"
"21:41:55:151 (H:m:s:ms)","GENERIC","156.626","0.3750602810666731","945"
"21:41:49:90 (H:m:s:ms)","GENERIC","93.675","0.3828479791593854","1017"
"21:42:43:636 (H:m:s:ms)","GENERIC","124.56800000000001","0.37866976412985726","466"
"21:42:37:575 (H:m:s:ms)","GENERIC","93.977","0.3879345135568052","527"
"21:43:56:363 (H:m:s:ms)","GENERIC","93.292","0.37290010192122214","693"
"21:43:50:303 (H:m:s:ms)","GENERIC","157.334","0.376647896854018","782"
"21:43:38:181 (H:m:s:ms)","GENERIC","124.72399999999999","0.3808182708228544","859"
"20:0:0:0 (H:m:s:ms)","GENERIC","94.219","0.05242016869928055","2633"
"21:43:32:121 (H:m:s:ms)","GENERIC","125.21","0.3805537915210235","917"
"20:0:6:60 (H:m:s:ms)","GENERIC","126.042","0.08133757935668746","1064"
"21:43:26:60 (H:m:s:ms)","GENERIC","124.52199999999999","0.3752592761466426","1029"
"20:0:12:121 (H:m:s:ms)","GENERIC","62.089","0.0871183969787382","986"
"21:43:20:0 (H:m:s:ms)","GENERIC","156.606","0.3796241399410711","1158"
"20:0:18:181 (H:m:s:ms)","GENERIC","93.16","0.10333432139189766","896"
"21:43:13:939 (H:m:s:ms)","GENERIC","125.179","0.375369857873796","1136"
"20:0:24:242 (H:m:s:ms)","GENERIC","94.255","0.10977307160870187","846"
"21:43:7:878 (H:m:s:ms)","GENERIC","124.883","0.37499260149697317","1157"
"20:0:30:303 (H:m:s:ms)","GENERIC","124.56299999999999","0.12539120266294415","815"
"21:43:1:818 (H:m:s:ms)","GENERIC","155.482","0.37923767800926006","279"
"20:0:36:363 (H:m:s:ms)","GENERIC","126.014","0.13675088735024196","762"
"21:42:55:757 (H:m:s:ms)","GENERIC","62.103","0.38172527626272573","271"
"20:0:42:424 (H:m:s:ms)","GENERIC","94.394","0.14463885137539","670"
"21:10:30:303 (H:m:s:ms)","GENERIC","155.56799999999998","0.3439843774787282","772"
"20:0:48:484 (H:m:s:ms)","GENERIC","93.64099999999999","0.14817331684838306","640"
"21:10:36:363 (H:m:s:ms)","GENERIC","125.298","0.3452929773720721","723"
"21:10:42:424 (H:m:s:ms)","GENERIC","125.12100000000001","0.3451203598026847","635"
"21:10:48:484 (H:m:s:ms)","GENERIC","124.66399999999999","0.3491864713630494","557"
"21:10:54:545 (H:m:s:ms)","GENERIC","124.577","0.34572737498135697","509"
"21:11:0:606 (H:m:s:ms)","GENERIC","93.555","0.3461560834176044","696"
"21:11:6:666 (H:m:s:ms)","GENERIC","125.088","0.3452591466187457","384"
"21:11:12:727 (H:m:s:ms)","GENERIC","125.576","0.3428659509798072","342"
"21:43:44:242 (H:m:s:ms)","GENERIC","62.033","0.37674581983769323","801"
"21:11:18:787 (H:m:s:ms)","GENERIC","124.518","0.3421086760585486","231"
"21:11:24:848 (H:m:s:ms)","GENERIC","124.803","0.33577536032976385","184"
"21:25:56:962 (H:m:s:ms)","OPERA","93.617","0.36221603600635804","1072"
"21:45:3:30 (H:m:s:ms)","GENERIC","125.013","0.4318661686543417","1018"
"21:44:56:969 (H:m:s:ms)","GENERIC","156.072","0.4229697176742579","1076"
"21:44:50:909 (H:m:s:ms)","GENERIC","62.331","0.4226370715978475","1134"
"21:44:44:848 (H:m:s:ms)","GENERIC","155.442","0.4231374746717356","229"
"21:44:38:787 (H:m:s:ms)","GENERIC","124.388","0.4085296468554352","309"
"21:44:32:727 (H:m:s:ms)","GENERIC","125.561","0.4031085602994127","333"
"21:44:26:666 (H:m:s:ms)","GENERIC","125.589","0.38863116159409095","367"
"21:44:20:606 (H:m:s:ms)","GENERIC","125.58699999999999","0.38242722597930645","418"
"21:44:14:545 (H:m:s:ms)","GENERIC","125.062","0.37972498335700744","562"
"21:44:8:484 (H:m:s:ms)","GENERIC","124.17500000000001","0.37764810246472924","572"
"21:11:30:909 (H:m:s:ms)","GENERIC","93.582","0.33497374349865844","1159"
"21:44:2:424 (H:m:s:ms)","GENERIC","93.876","0.37650338847315434","599"
"21:11:36:969 (H:m:s:ms)","GENERIC","125.065","0.3324242562459776","1140"
"21:11:43:30 (H:m:s:ms)","GENERIC","124.798","0.333265081718381","1020"
"21:11:49:90 (H:m:s:ms)","GENERIC","156.791","0.33195571509897254","1035"
"21:11:55:151 (H:m:s:ms)","GENERIC","156.70600000000002","0.33753253046538156","959"
"21:12:1:212 (H:m:s:ms)","GENERIC","124.956","0.33534701629605346","900"
"21:12:7:272 (H:m:s:ms)","GENERIC","93.374","0.3266806292445475","768"
"21:12:13:333 (H:m:s:ms)","GENERIC","125.182","0.32654866314259096","776"
"21:12:19:393 (H:m:s:ms)","GENERIC","124.321","0.3258823448931034","787"
"21:12:25:454 (H:m:s:ms)","GENERIC","157.237","0.3250160790520783","647"
"21:31:35:0 (H:m:s:ms)","GENERIC","156.524","0.3450602595703328","9318"
"21:46:9:696 (H:m:s:ms)","GENERIC","93.444","0.39088355119190654","414"
"21:26:27:878 (H:m:s:ms)","GENERIC","156.93699999999998","0.3514776740556874","1293"
"21:46:3:636 (H:m:s:ms)","GENERIC","125.27799999999999","0.3968554267985561","432"
"21:45:57:575 (H:m:s:ms)","GENERIC","125.485","0.3992562609342607","505"
"21:45:51:515 (H:m:s:ms)","GENERIC","125.50999999999999","0.3998713571909799","529"
"21:26:21:818 (H:m:s:ms)","GENERIC","125.56899999999999","0.3552780650946806","202"
"21:31:4:0 (H:m:s:ms)","OPERA","93.75200000000001","0.3532312974436254","3645"
"21:45:45:454 (H:m:s:ms)","GENERIC","93.55","0.4005642973460133","581"
"21:26:15:757 (H:m:s:ms)","GENERIC","124.61099999999999","0.3562818143979036","277"
"21:45:39:393 (H:m:s:ms)","GENERIC","125.104","0.4035798415554501","664"
"21:26:12:151 (H:m:s:ms)","OPERA","124.795","0.35418132417642484","959"
"21:45:33:333 (H:m:s:ms)","GENERIC","62.474000000000004","0.4077490274658049","701"
"21:31:4:0 (H:m:s:ms)","GENERIC","155.975","0.39042668293324123","5731"
"21:45:27:272 (H:m:s:ms)","GENERIC","125.081","0.4127673338598494","803"
"21:30:1:0 (H:m:s:ms)","OPERA","125.185","0.3648164604833388","3017"
"21:45:21:212 (H:m:s:ms)","GENERIC","156.10399999999998","0.41223287687428856","868"
"21:12:31:515 (H:m:s:ms)","GENERIC","125.205","0.32520396424278036","576"
"21:26:3:636 (H:m:s:ms)","GENERIC","125.298","0.35888858886190167","426"
"21:45:15:151 (H:m:s:ms)","GENERIC","124.97200000000001","0.4195207857804713","885"
"21:12:37:575 (H:m:s:ms)","GENERIC","125.451","0.32382498044366875","573"
"21:25:57:575 (H:m:s:ms)","GENERIC","125.53399999999999","0.3608567706059018","539"
"21:45:9:90 (H:m:s:ms)","GENERIC","93.366","0.41889476236462725","1000"
"21:12:43:636 (H:m:s:ms)","GENERIC","124.67699999999999","0.32208082010044803","415"
"21:12:49:696 (H:m:s:ms)","GENERIC","155.36700000000002","0.3228178003778922","435"
"21:12:55:757 (H:m:s:ms)","GENERIC","124.614","0.32091419593112214","302"
"21:13:1:818 (H:m:s:ms)","GENERIC","124.336","0.3192998870501533","262"
"21:13:7:878 (H:m:s:ms)","GENERIC","62.429","0.31877502032056154","156"
"21:13:13:939 (H:m:s:ms)","GENERIC","93.674","0.3276274744266238","1123"
"21:13:20:0 (H:m:s:ms)","GENERIC","62.494","0.32889543659977916","1077"
"21:13:26:60 (H:m:s:ms)","GENERIC","155.868","0.32828527560321175","1051"
"21:26:27:341 (H:m:s:ms)","OPERA","124.58","0.3538753794694614","725"
"21:27:10:303 (H:m:s:ms)","GENERIC","124.598","0.355317304901242","728"
"21:47:16:363 (H:m:s:ms)","GENERIC","124.331","0.4240258271870766","697"
"21:27:5:316 (H:m:s:ms)","OPERA","156.041","0.35486365886683957","767"
"21:47:10:303 (H:m:s:ms)","GENERIC","124.578","0.4213985895742639","763"
"21:27:4:242 (H:m:s:ms)","GENERIC","155.71","0.35485758464585854","789"
"21:47:4:242 (H:m:s:ms)","GENERIC","124.487","0.41455290732953604","818"
"21:46:58:181 (H:m:s:ms)","GENERIC","124.465","0.4148937417386416","895"
"21:46:52:121 (H:m:s:ms)","GENERIC","125.489","0.4102898288209596","934"
"21:26:58:181 (H:m:s:ms)","GENERIC","93.295","0.353150639686654","857"
"21:31:35:0 (H:m:s:ms)","OPERA","156.13","0.3480288221364271","14231"
"21:26:52:121 (H:m:s:ms)","GENERIC","125.441","0.3509239003790956","915"
"21:46:46:60 (H:m:s:ms)","GENERIC","93.473","0.4084463455028237","987"
"21:30:1:0 (H:m:s:ms)","OPERA","125.13","0.3502648681345759","4670"
"21:46:40:0 (H:m:s:ms)","GENERIC","93.892","0.4051662228319861","1077"
"21:31:4:0 (H:m:s:ms)","GENERIC","156.125","0.3475908480354711","8976"
"21:46:33:939 (H:m:s:ms)","GENERIC","125.024","0.4084920047227662","1095"
"21:13:32:121 (H:m:s:ms)","GENERIC","125.535","0.3308545004637867","923"
"21:31:4:0 (H:m:s:ms)","OPERA","93.62299999999999","0.3486870999492342","4788"
"21:46:27:878 (H:m:s:ms)","GENERIC","125.378","0.40621176038337253","1230"
"21:13:38:181 (H:m:s:ms)","GENERIC","124.765","0.32966666119530297","899"
"21:26:40:0 (H:m:s:ms)","GENERIC","93.985","0.35279295996049087","1072"
"21:46:21:818 (H:m:s:ms)","GENERIC","125.613","0.39824949548297855","204"
"21:13:44:242 (H:m:s:ms)","GENERIC","124.543","0.3290503723312709","844"
"21:26:34:936 (H:m:s:ms)","OPERA","156.017","0.3513682882030314","1239"
"21:46:15:757 (H:m:s:ms)","GENERIC","93.26400000000001","0.38801366479206834","333"
"21:13:50:303 (H:m:s:ms)","GENERIC","157.379","0.33331146733953687","764"
"21:13:56:363 (H:m:s:ms)","GENERIC","124.652","0.3359512479307292","693"
"21:14:2:424 (H:m:s:ms)","GENERIC","93.92699999999999","0.33802834674264565","612"
"21:14:8:484 (H:m:s:ms)","GENERIC","124.157","0.33851944696902825","574"
"21:14:14:545 (H:m:s:ms)","GENERIC","124.777","0.33916556114255547","527"
"21:14:20:606 (H:m:s:ms)","GENERIC","125.58500000000001","0.339551230737665","417"
"21:14:26:666 (H:m:s:ms)","GENERIC","125.575","0.34232538517026756","396"
"21:31:35:0 (H:m:s:ms)","OPERA","156.029","0.3530051558899292","3202"
"21:48:23:30 (H:m:s:ms)","GENERIC","155.216","0.445589048627002","1050"
"21:27:46:666 (H:m:s:ms)","GENERIC","125.18700000000001","0.35801719433915774","413"
"21:48:16:969 (H:m:s:ms)","GENERIC","124.439","0.4439525061423078","1170"
"21:31:35:0 (H:m:s:ms)","OPERA","124.946","0.35279827230014454","2475"
"21:48:10:909 (H:m:s:ms)","GENERIC","124.747","0.44499411790494364","1112"
"21:27:40:606 (H:m:s:ms)","GENERIC","93.73400000000001","0.3557856525781229","478"
"21:48:4:848 (H:m:s:ms)","GENERIC","125.25999999999999","0.4407055785815841","239"
"21:47:58:787 (H:m:s:ms)","GENERIC","124.809","0.4433884958081465","249"
"21:47:52:727 (H:m:s:ms)","GENERIC","157.132","0.4380701634277799","310"
"21:31:4:0 (H:m:s:ms)","OPERA","125.119","0.41003081909539735","4393"
"21:27:34:545 (H:m:s:ms)","GENERIC","124.463","0.3605756311112363","538"
"21:31:35:0 (H:m:s:ms)","GENERIC","124.838","0.3650188892480683","5015"
"21:47:46:666 (H:m:s:ms)","GENERIC","156.772","0.43693707052174374","412"
"21:14:32:727 (H:m:s:ms)","GENERIC","125.592","0.3548421032595696","317"
"21:27:28:101 (H:m:s:ms)","OPERA","93.876","0.3586692495486321","1022"
"21:47:40:606 (H:m:s:ms)","GENERIC","156.87099999999998","0.42171287203601426","493"
"21:14:38:787 (H:m:s:ms)","GENERIC","155.429","0.35856052869110877","295"
"21:27:22:424 (H:m:s:ms)","GENERIC","125.345","0.35808261840932837","610"
"21:47:34:545 (H:m:s:ms)","GENERIC","124.46700000000001","0.4196158763042611","505"
"20:52:31:515 (H:m:s:ms)","GENERIC","125.21100000000001","0.3400416212558091","534"
"21:14:44:848 (H:m:s:ms)","GENERIC","124.324","0.3565397498363445","227"
"21:27:16:363 (H:m:s:ms)","GENERIC","124.297","0.3580875877656989","703"
"21:47:28:484 (H:m:s:ms)","GENERIC","124.676","0.4205397864464843","575"
"20:52:37:575 (H:m:s:ms)","GENERIC","125.55199999999999","0.33974008703994824","532"
"21:14:50:909 (H:m:s:ms)","GENERIC","125.48400000000001","0.3562305763672019","1147"
"21:27:12:911 (H:m:s:ms)","OPERA","93.662","0.3571536847792247","1168"
"21:47:22:424 (H:m:s:ms)","GENERIC","125.399","0.4238748520197193","660"
"20:52:43:636 (H:m:s:ms)","GENERIC","124.68","0.3388502077697116","429"
"21:14:56:969 (H:m:s:ms)","GENERIC","124.696","0.3554275422951558","1110"
"20:52:49:696 (H:m:s:ms)","GENERIC","124.285","0.3382395953445798","459"
"21:15:3:30 (H:m:s:ms)","GENERIC","124.831","0.3720454473838469","1315"
"20:52:55:757 (H:m:s:ms)","GENERIC","124.675","0.33725873798634176","318"
"21:15:9:90 (H:m:s:ms)","GENERIC","155.676","0.3756131358722815","1019"
"20:53:1:818 (H:m:s:ms)","GENERIC","93.169","0.3356872093791544","258"
"21:15:15:151 (H:m:s:ms)","GENERIC","124.949","0.36809781764976357","907"
"20:53:7:878 (H:m:s:ms)","GENERIC","125.601","0.33609437755879196","1180"
"21:15:21:212 (H:m:s:ms)","GENERIC","156.144","0.36995581952429346","848"
"20:53:13:939 (H:m:s:ms)","GENERIC","125.315","0.3344230434526316","1152"
"21:15:27:272 (H:m:s:ms)","GENERIC","93.45400000000001","0.37074219107259526","785"
"20:53:20:0 (H:m:s:ms)","GENERIC","124.63300000000001","0.3355186610452251","1071"
"20:53:26:60 (H:m:s:ms)","GENERIC","155.83100000000002","0.3360424528311042","1027"
"21:32:38:0 (H:m:s:ms)","OPERA","156.249","0.35174470179750417","16913"
"21:49:29:696 (H:m:s:ms)","GENERIC","93.387","0.4390778389846905","395"
"21:28:23:30 (H:m:s:ms)","GENERIC","124.138","0.35736980341437685","1049"
"21:49:23:636 (H:m:s:ms)","GENERIC","156.03699999999998","0.4486290378742298","396"
"21:32:38:0 (H:m:s:ms)","OPERA","124.882","0.35162863534265393","16093"
"21:49:17:575 (H:m:s:ms)","GENERIC","125.548","0.44818415723513283","469"
"21:28:16:969 (H:m:s:ms)","GENERIC","124.43","0.35778811438145114","1102"
"21:49:11:515 (H:m:s:ms)","GENERIC","93.444","0.4478257556432719","506"
"21:32:38:0 (H:m:s:ms)","OPERA","156.227","0.3525298866839767","11087"
"21:49:5:454 (H:m:s:ms)","GENERIC","156.175","0.4505374610892375","648"
"21:48:59:393 (H:m:s:ms)","GENERIC","156.93099999999998","0.44859316621209167","740"
"21:48:53:333 (H:m:s:ms)","GENERIC","125.437","0.4303024640578651","722"
"21:32:38:0 (H:m:s:ms)","GENERIC","124.75800000000001","0.35142752932838556","11610"
"21:15:33:333 (H:m:s:ms)","GENERIC","125.068","0.3681585425504743","735"
"21:32:38:0 (H:m:s:ms)","OPERA","155.948","0.3536977140877922","10869"
"21:15:39:393 (H:m:s:ms)","GENERIC","93.54","0.37201501846097945","685"
"21:28:4:848 (H:m:s:ms)","GENERIC","156.837","0.35850277858728585","206"
"21:48:47:272 (H:m:s:ms)","GENERIC","124.775","0.43138497580643315","799"
"20:53:32:121 (H:m:s:ms)","GENERIC","125.584","0.3382880770423704","916"
"21:15:45:454 (H:m:s:ms)","GENERIC","93.438","0.3668061092480783","687"
"21:32:38:0 (H:m:s:ms)","GENERIC","124.875","0.3581799522948667","6190"
"21:48:41:212 (H:m:s:ms)","GENERIC","124.274","0.4365763191596581","848"
"20:53:38:181 (H:m:s:ms)","GENERIC","124.792","0.335749122179281","861"
"21:15:51:515 (H:m:s:ms)","GENERIC","125.588","0.36741325297783173","509"
"21:32:38:0 (H:m:s:ms)","OPERA","187.662","0.37772567730264334","7760"
"21:48:35:151 (H:m:s:ms)","GENERIC","124.263","0.43433477346225263","909"
"20:53:44:242 (H:m:s:ms)","GENERIC","124.501","0.3365157135532455","842"
"21:15:57:575 (H:m:s:ms)","GENERIC","125.47200000000001","0.3693720815162375","511"
"21:27:52:727 (H:m:s:ms)","GENERIC","93.708","0.35847400166199545","323"
"21:48:29:90 (H:m:s:ms)","GENERIC","124.44999999999999","0.43613055996096617","1044"
"20:53:50:303 (H:m:s:ms)","GENERIC","125.58","0.33353355309200533","755"
"21:16:3:636 (H:m:s:ms)","GENERIC","125.224","0.3701566298458829","435"
"20:53:56:363 (H:m:s:ms)","GENERIC","93.32400000000001","0.3338897076227498","680"
"21:16:9:696 (H:m:s:ms)","GENERIC","124.8","0.36728053961193774","399"
"20:54:2:424 (H:m:s:ms)","GENERIC","93.862","0.3299321060133576","601"
"21:16:15:757 (H:m:s:ms)","GENERIC","155.75400000000002","0.3664022457627403","367"
"20:54:8:484 (H:m:s:ms)","GENERIC","124.152","0.3279153140001057","577"
"21:16:21:818 (H:m:s:ms)","GENERIC","125.52","0.37152507659242795","222"
"20:54:14:545 (H:m:s:ms)","GENERIC","156.097","0.32906464810390523","492"
"21:16:27:878 (H:m:s:ms)","GENERIC","125.334","0.37472243813128375","1219"
"20:54:20:606 (H:m:s:ms)","GENERIC","125.605","0.3295981259117529","429"
"20:54:26:666 (H:m:s:ms)","GENERIC","93.815","0.3275609473766761","369"
"21:33:42:0 (H:m:s:ms)","GENERIC","155.966","0.3650051422735164","21061"
"21:28:59:393 (H:m:s:ms)","GENERIC","125.277","0.3603811038301375","742"
"21:28:59:240 (H:m:s:ms)","OPERA","31.008","0.3606855380866426","807"
"21:28:53:333 (H:m:s:ms)","GENERIC","125.351","0.3599514247402415","740"
"22:10:0:0 (H:m:s:ms)","AMBULANCE","93.971","0.4834940081267012","1062"
"21:28:51:645 (H:m:s:ms)","OPERA","93.743","0.3588863022814629","460"
"22:3:41:52 (H:m:s:ms)","AMBULANCE","62.472","0.47588817695761154","994"
"21:28:47:272 (H:m:s:ms)","GENERIC","156.242","0.3576608163341089","788"
"22:0:0:0 (H:m:s:ms)","AMBULANCE","93.98400000000001","0.47933934992923216","2409"
"21:50:0:0 (H:m:s:ms)","GENERIC","124.99000000000001","0.44249202662619724","1091"
"21:49:53:939 (H:m:s:ms)","GENERIC","93.423","0.43210766546762475","1124"
"21:16:33:939 (H:m:s:ms)","GENERIC","125.114","0.37382361807478465","1121"
"21:16:40:0 (H:m:s:ms)","GENERIC","93.836","0.3730497225851994","1149"
"21:33:42:0 (H:m:s:ms)","OPERA","125.155","0.3639645488764797","19700"
"20:54:32:727 (H:m:s:ms)","GENERIC","157.24900000000002","0.3284918893372124","294"
"21:16:46:60 (H:m:s:ms)","GENERIC","93.375","0.37741904927279885","991"
"21:28:41:212 (H:m:s:ms)","GENERIC","124.194","0.35470105545980546","848"
"20:54:38:787 (H:m:s:ms)","GENERIC","155.412","0.3254846672143477","335"
"21:16:52:121 (H:m:s:ms)","GENERIC","125.491","0.3793623080670025","914"
"21:32:38:0 (H:m:s:ms)","OPERA","155.95499999999998","0.3513362722528637","10301"
"21:49:47:878 (H:m:s:ms)","GENERIC","125.603","0.43345476116937803","1177"
"20:54:44:848 (H:m:s:ms)","GENERIC","93.239","0.32734640947980176","232"
"21:16:58:181 (H:m:s:ms)","GENERIC","93.28","0.3785996137098596","881"
"21:28:35:151 (H:m:s:ms)","GENERIC","93.172","0.35486103580561723","912"
"21:49:41:818 (H:m:s:ms)","GENERIC","124.858","0.43518242231845705","205"
"20:54:50:909 (H:m:s:ms)","GENERIC","125.515","0.32676840199976404","1133"
"21:17:4:242 (H:m:s:ms)","GENERIC","155.625","0.3786396773797507","849"
"21:28:29:90 (H:m:s:ms)","GENERIC","93.205","0.3583195468531864","993"
"21:49:35:757 (H:m:s:ms)","GENERIC","124.712","0.4346075213250634","292"
"20:54:56:969 (H:m:s:ms)","GENERIC","93.858","0.3273176602425813","1242"
"21:17:10:303 (H:m:s:ms)","GENERIC","155.777","0.38438434719646","787"
"21:0:1:0 (H:m:s:ms)","GENERIC","156.173","0.30004704952309685","2486"
"21:17:16:363 (H:m:s:ms)","GENERIC","155.516","0.38509408699985975","731"
"20:55:9:90 (H:m:s:ms)","GENERIC","155.765","0.3232403115378006","1036"
"21:17:22:424 (H:m:s:ms)","GENERIC","125.372","0.38852774903671955","632"
"20:55:15:151 (H:m:s:ms)","GENERIC","125.04599999999999","0.32252315253503694","943"
"21:17:28:484 (H:m:s:ms)","GENERIC","124.839","0.37243912331725937","581"
"20:55:21:212 (H:m:s:ms)","GENERIC","124.75","0.3233046602149229","870"
"21:0:1:0 (H:m:s:ms)","GENERIC","124.971","0.30633576595278017","2414"
"21:34:13:0 (H:m:s:ms)","GENERIC","124.69","0.3420170305441181","9748"
"21:33:42:0 (H:m:s:ms)","OPERA","93.819","0.3833650065192711","5635"
"21:29:35:757 (H:m:s:ms)","GENERIC","156.191","0.3588582580354187","434"
"21:29:29:696 (H:m:s:ms)","GENERIC","124.935","0.36080477224384716","481"
"21:29:29:620 (H:m:s:ms)","OPERA","124.826","0.36126536552127053","458"
"21:33:42:0 (H:m:s:ms)","GENERIC","156.111","0.3894125155389074","5286"
"21:34:13:0 (H:m:s:ms)","OPERA","187.578","0.3421205786519151","4855"
"21:17:34:545 (H:m:s:ms)","GENERIC","124.414","0.3737800143258828","538"
"21:17:40:606 (H:m:s:ms)","GENERIC","125.389","0.37241854380833017","471"
"20:55:33:333 (H:m:s:ms)","GENERIC","125.00800000000001","0.3216248506588889","766"
"21:17:46:666 (H:m:s:ms)","GENERIC","125.19200000000001","0.3812470211633042","426"
"20:55:39:393 (H:m:s:ms)","GENERIC","125.108","0.3222394787236642","710"
"21:17:52:727 (H:m:s:ms)","GENERIC","125.465","0.38102579378990803","313"
"21:29:17:575 (H:m:s:ms)","GENERIC","93.919","0.35999147572125073","474"
"20:55:45:454 (H:m:s:ms)","GENERIC","125.104","0.32134430266714864","621"
"21:17:58:787 (H:m:s:ms)","GENERIC","124.876","0.3874869443561541","252"
"21:34:13:0 (H:m:s:ms)","OPERA","125.21199999999999","0.342368186014843","6923"
"20:55:51:515 (H:m:s:ms)","GENERIC","125.64099999999999","0.3212274613784471","515"
"21:18:4:848 (H:m:s:ms)","GENERIC","156.694","0.3880142271280661","232"
"21:29:11:515 (H:m:s:ms)","GENERIC","125.13","0.3593947185727751","567"
"20:55:57:575 (H:m:s:ms)","GENERIC","157.163","0.32054968966450886","526"
"21:18:10:909 (H:m:s:ms)","GENERIC","124.737","0.38673854440475414","1131"
"21:29:6:835 (H:m:s:ms)","OPERA","124.662","0.35930224951207473","226"
"20:56:3:636 (H:m:s:ms)","GENERIC","125.281","0.31946191869992846","456"
"21:18:16:969 (H:m:s:ms)","GENERIC","124.504","0.3852866758190444","1105"
"20:56:9:696 (H:m:s:ms)","GENERIC","124.94","0.3170976634917809","432"
"21:18:23:30 (H:m:s:ms)","GENERIC","155.22199999999998","0.38681124739231926","1041"
"20:56:15:757 (H:m:s:ms)","GENERIC","124.52799999999999","0.31656752217857514","357"
"21:18:29:90 (H:m:s:ms)","GENERIC","124.428","0.3836503139231593","1034"
"20:56:21:818 (H:m:s:ms)","GENERIC","125.536","0.3171819999128868","231"
"20:56:27:878 (H:m:s:ms)","GENERIC","125.429","0.31680900177759785","1233"
"21:30:18:181 (H:m:s:ms)","GENERIC","124.178","0.3518611577380449","868"
"21:30:12:121 (H:m:s:ms)","GENERIC","93.07900000000001","0.35346982028692103","932"
"21:30:6:60 (H:m:s:ms)","GENERIC","157.045","0.3546301541896495","1034"
"21:34:13:0 (H:m:s:ms)","GENERIC","125.136","0.337289639081391","20501"
"21:30:0:0 (H:m:s:ms)","GENERIC","125.17500000000001","0.36188150028299154","1133"
"21:33:42:0 (H:m:s:ms)","OPERA","124.78","0.36901199687372227","7754"
"21:30:0:0 (H:m:s:ms)","AMBULANCE","125.293","0.41811927216386785","1253"
"21:29:53:939 (H:m:s:ms)","GENERIC","124.631","0.36096923122067764","1162"
"21:18:35:151 (H:m:s:ms)","GENERIC","124.235","0.38103001796482217","902"
"21:18:41:212 (H:m:s:ms)","GENERIC","93.132","0.3815391618316591","847"
"20:56:33:939 (H:m:s:ms)","GENERIC","93.605","0.3158060636819698","1123"
"21:18:47:272 (H:m:s:ms)","GENERIC","93.40100000000001","0.3754802046969583","795"
"20:56:40:0 (H:m:s:ms)","GENERIC","124.589","0.31934130175679604","1147"
"21:18:53:333 (H:m:s:ms)","GENERIC","125.411","0.375573656549503","710"
"20:40:0:0 (H:m:s:ms)","GENERIC","125.155","0.31180756282718586","2476"
"21:1:35:0 (H:m:s:ms)","GENERIC","124.86600000000001","0.3002364726984133","3783"
"21:18:59:393 (H:m:s:ms)","GENERIC","156.863","0.37353346810800103","743"
"20:40:0:0 (H:m:s:ms)","GENERIC","93.906","0.31292363649840976","2507"
"20:56:52:121 (H:m:s:ms)","GENERIC","125.519","0.3222955725390224","908"
"21:19:5:454 (H:m:s:ms)","GENERIC","124.77799999999999","0.3737947112672351","562"
"21:34:13:0 (H:m:s:ms)","OPERA","124.913","0.33895204513957333","16516"
"20:40:6:60 (H:m:s:ms)","GENERIC","125.349","0.31253661054294274","993"
"20:56:58:181 (H:m:s:ms)","GENERIC","124.476","0.32255864162832654","885"
"21:19:11:515 (H:m:s:ms)","GENERIC","125.011","0.36701599175135297","517"
"21:29:47:878 (H:m:s:ms)","GENERIC","157.34199999999998","0.35977608412883455","1144"
"20:40:7:594 (H:m:s:ms)","OPERA","125.119","0.3165572209204825","456"
"20:57:4:242 (H:m:s:ms)","GENERIC","155.612","0.3223502825685293","845"
"21:19:17:575 (H:m:s:ms)","GENERIC","125.633","0.3670920090655175","471"
"21:34:13:0 (H:m:s:ms)","OPERA","125.031","0.33831895225783043","5863"
"20:40:12:121 (H:m:s:ms)","GENERIC","124.24","0.3164726030924367","938"
"20:57:10:303 (H:m:s:ms)","GENERIC","124.632","0.3224901350022903","787"
"21:19:23:636 (H:m:s:ms)","GENERIC","124.67500000000001","0.36614465071134566","401"
"20:40:15:189 (H:m:s:ms)","OPERA","93.844","0.3177272932516189","929"
"20:57:16:363 (H:m:s:ms)","GENERIC","124.352","0.3196272353852681","730"
"21:19:29:696 (H:m:s:ms)","GENERIC","124.762","0.3616913256340428","417"
"20:40:18:181 (H:m:s:ms)","GENERIC","93.173","0.31802359225833426","872"
"20:57:22:424 (H:m:s:ms)","GENERIC","125.394","0.3214628426387518","623"
"20:40:22:784 (H:m:s:ms)","OPERA","125.31700000000001","0.3185810345737387","312"
"21:2:7:0 (H:m:s:ms)","GENERIC","93.907","0.3149631221650981","5399"
"20:40:24:242 (H:m:s:ms)","GENERIC","93.75","0.31862872967647754","826"
"20:40:30:303 (H:m:s:ms)","GENERIC","124.478","0.3205364606218657","793"
"21:30:31:578 (H:m:s:ms)","AMBULANCE","93.735","0.35355595762256525","462"
"21:31:12:727 (H:m:s:ms)","GENERIC","157.224","0.3505081474776159","310"
"21:31:6:666 (H:m:s:ms)","GENERIC","156.70999999999998","0.34807050639961606","383"
"21:31:3:157 (H:m:s:ms)","AMBULANCE","93.809","0.46031110178504436","991"
"21:34:13:0 (H:m:s:ms)","GENERIC","156.114","0.33932963096013874","19373"
"21:30:54:545 (H:m:s:ms)","GENERIC","93.30600000000001","0.36735358780879346","491"
"21:33:42:0 (H:m:s:ms)","GENERIC","124.566","0.3644026424340691","4682"
"21:31:35:0 (H:m:s:ms)","GENERIC","125.146","0.3484154263841117","5486"
"21:19:35:757 (H:m:s:ms)","GENERIC","156.107","0.36009106942617836","296"
"21:30:36:363 (H:m:s:ms)","GENERIC","157.04899999999998","0.36506865385406345","689"
"21:19:41:818 (H:m:s:ms)","GENERIC","93.916","0.3491653098212107","255"
"20:57:34:545 (H:m:s:ms)","GENERIC","124.473","0.3234570115558525","534"
"21:19:47:878 (H:m:s:ms)","GENERIC","157.34","0.3500676620554499","1194"
"20:57:40:606 (H:m:s:ms)","GENERIC","125.392","0.32326827085195003","484"
"21:19:53:939 (H:m:s:ms)","GENERIC","124.654","0.3475760183921718","1122"
"20:40:30:379 (H:m:s:ms)","OPERA","93.629","0.32392041073082517","833"
"20:57:46:666 (H:m:s:ms)","GENERIC","156.715","0.3227662989573077","436"
"21:20:0:0 (H:m:s:ms)","OPERA","93.655","0.3480396125608611","2707"
"20:40:36:363 (H:m:s:ms)","GENERIC","125.348","0.324997706104811","696"
"20:57:52:727 (H:m:s:ms)","GENERIC","125.493","0.32294313560452786","332"
"21:20:0:0 (H:m:s:ms)","GENERIC","93.661","0.34880124127019785","2787"
"20:40:37:974 (H:m:s:ms)","OPERA","125.131","0.3287908144194879","1108"
"20:57:58:787 (H:m:s:ms)","GENERIC","124.806","0.32594262463371826","297"
"21:20:0:0 (H:m:s:ms)","GENERIC","125.64500000000001","0.34796710406149584","2656"
"20:40:42:424 (H:m:s:ms)","GENERIC","125.165","0.3265139003484554","639"
"20:58:4:848 (H:m:s:ms)","GENERIC","125.19900000000001","0.3258403865969222","260"
"21:20:6:60 (H:m:s:ms)","GENERIC","157.028","0.34999903593096143","983"
"21:30:30:303 (H:m:s:ms)","GENERIC","93.184","0.3544172630329704","752"
"20:40:48:484 (H:m:s:ms)","GENERIC","155.91","0.32624002396179314","626"
"20:58:10:909 (H:m:s:ms)","GENERIC","93.393","0.32390474466158203","1171"
"21:20:7:594 (H:m:s:ms)","OPERA","124.614","0.3549419117859231","462"
"21:30:24:242 (H:m:s:ms)","GENERIC","93.798","0.35118872563987213","832"
"20:40:53:164 (H:m:s:ms)","OPERA","125.133","0.32913487001914765","878"
"20:58:16:969 (H:m:s:ms)","GENERIC","93.238","0.32387102346439517","1102"
"21:20:12:121 (H:m:s:ms)","GENERIC","93.116","0.3513851803412783","949"
"20:40:54:545 (H:m:s:ms)","GENERIC","124.55600000000001","0.33164678310169","494"
"20:58:23:30 (H:m:s:ms)","GENERIC","155.199","0.32200794680431727","1070"
"20:41:0:606 (H:m:s:ms)","GENERIC","124.491","0.33193761569711516","446"
"20:58:29:90 (H:m:s:ms)","GENERIC","124.466","0.3211682420326277","1063"
"20:41:0:759 (H:m:s:ms)","OPERA","125.219","0.3323718365636891","459"
"20:41:6:666 (H:m:s:ms)","GENERIC","156.46300000000002","0.33419003622087134","381"
"21:31:30:909 (H:m:s:ms)","GENERIC","93.591","0.3465007844897306","1130"
"21:33:42:0 (H:m:s:ms)","GENERIC","124.60499999999999","0.39195496102781635","2568"
"21:36:20:0 (H:m:s:ms)","GENERIC","124.725","0.36311000644002805","7387"
"21:32:6:315 (H:m:s:ms)","AMBULANCE","93.977","0.3468624650046333","721"
"21:32:1:212 (H:m:s:ms)","GENERIC","156.142","0.3462814776322186","848"
"21:31:55:151 (H:m:s:ms)","GENERIC","156.734","0.34298958154923676","932"
"21:31:49:90 (H:m:s:ms)","GENERIC","156.82","0.34362321267773765","1010"
"21:31:43:30 (H:m:s:ms)","GENERIC","155.915","0.34338539378591","1078"
"21:31:36:969 (H:m:s:ms)","GENERIC","93.617","0.34538612297376864","1083"
"21:31:34:736 (H:m:s:ms)","AMBULANCE","93.92399999999999","0.3635463812804938","365"
"20:58:35:151 (H:m:s:ms)","GENERIC","93.174","0.31846728237163074","925"
"20:58:41:212 (H:m:s:ms)","GENERIC","124.24199999999999","0.3169055067963895","862"
"20:41:8:354 (H:m:s:ms)","OPERA","125.152","0.33477249217522487","798"
"21:3:42:0 (H:m:s:ms)","GENERIC","124.87","0.31642469783242644","9853"
"20:41:12:727 (H:m:s:ms)","GENERIC","125.575","0.33568001787072743","324"
"20:58:53:333 (H:m:s:ms)","GENERIC","125.424","0.31513094398611635","726"
"20:41:18:787 (H:m:s:ms)","GENERIC","93.382","0.33523615700934184","236"
"20:58:59:393 (H:m:s:ms)","GENERIC","125.264","0.31641715734015263","773"
"20:41:23:544 (H:m:s:ms)","OPERA","93.851","0.3359966797242842","608"
"20:59:5:454 (H:m:s:ms)","GENERIC","124.726","0.3161460349817945","605"
"20:41:24:848 (H:m:s:ms)","GENERIC","124.52199999999999","0.33678712399486","213"
"20:59:11:515 (H:m:s:ms)","GENERIC","156.488","0.3196867870360409","551"
"20:41:30:909 (H:m:s:ms)","GENERIC","125.02799999999999","0.3344945730045912","1139"
"20:59:17:575 (H:m:s:ms)","GENERIC","125.625","0.3181034977776451","479"
"21:33:42:0 (H:m:s:ms)","GENERIC","124.696","0.39870922955853483","1397"
"20:41:36:969 (H:m:s:ms)","GENERIC","124.99700000000001","0.33502226795412876","1104"
"20:59:23:636 (H:m:s:ms)","GENERIC","124.797","0.31813060461738196","449"
"20:41:38:734 (H:m:s:ms)","OPERA","93.701","0.3359956914692563","381"
"21:4:13:0 (H:m:s:ms)","GENERIC","124.759","0.3212984357154195","12454"
"20:41:43:30 (H:m:s:ms)","GENERIC","156.278","0.3332787173216526","1118"
"20:41:46:329 (H:m:s:ms)","OPERA","124.908","0.3358869454938159","771"
"21:4:13:0 (H:m:s:ms)","GENERIC","156.308","0.3245895676068907","13069"
"20:59:41:818 (H:m:s:ms)","GENERIC","124.896","0.31839287195675037","220"
"20:41:49:90 (H:m:s:ms)","GENERIC","125.239","0.3358571309718411","1012"
"20:59:47:878 (H:m:s:ms)","GENERIC","125.548","0.31825770699130235","1152"
"20:41:53:924 (H:m:s:ms)","OPERA","93.965","0.33643040819437803","1153"
"21:4:13:0 (H:m:s:ms)","GENERIC","124.63","0.3122074722136742","7851"
"20:41:55:151 (H:m:s:ms)","GENERIC","156.765","0.3363645375928245","956"
"21:0:0:0 (H:m:s:ms)","AMBULANCE","93.777","0.29501793396486536","3076"
"20:42:1:212 (H:m:s:ms)","GENERIC","93.498","0.3379081565380592","860"
"21:0:0:0 (H:m:s:ms)","GENERIC","125.277","0.2959114643286136","3161"
"20:42:1:518 (H:m:s:ms)","OPERA","93.887","0.3411504296589828","618"
"21:0:0:0 (H:m:s:ms)","GENERIC","125.607","0.2971362972294478","3193"
"20:42:7:272 (H:m:s:ms)","GENERIC","93.34299999999999","0.34271039821409227","758"
"21:0:6:60 (H:m:s:ms)","GENERIC","156.938","0.3167857280258849","992"
"20:42:9:113 (H:m:s:ms)","OPERA","93.74600000000001","0.344616315293879","1205"
"21:0:12:121 (H:m:s:ms)","GENERIC","124.15700000000001","0.31552801443154194","957"
"20:42:13:333 (H:m:s:ms)","GENERIC","156.734","0.34587592378684917","762"
"21:0:18:181 (H:m:s:ms)","GENERIC","124.231","0.31506730578083264","869"
"20:42:16:708 (H:m:s:ms)","OPERA","93.857","0.3479092994129377","346"
"20:42:19:393 (H:m:s:ms)","GENERIC","155.422","0.34786727676320955","736"
"21:0:24:242 (H:m:s:ms)","GENERIC","125.31700000000001","0.31317396267600794","842"
"21:0:30:303 (H:m:s:ms)","GENERIC","124.41300000000001","0.3100125906119465","791"
"20:42:24:303 (H:m:s:ms)","OPERA","93.731","0.34880088924303637","743"
"21:0:31:578 (H:m:s:ms)","AMBULANCE","62.454","0.3122271677176379","463"
"20:42:25:454 (H:m:s:ms)","GENERIC","125.489","0.34831254170214265","600"
"21:0:36:363 (H:m:s:ms)","GENERIC","125.333","0.3141420636145811","722"
"20:20:0:0 (H:m:s:ms)","GENERIC","93.674","0.3086604386475783","2432"
"20:42:31:515 (H:m:s:ms)","GENERIC","125.136","0.3494173792359507","554"
"21:0:42:424 (H:m:s:ms)","GENERIC","125.061","0.31392786990104043","638"
"20:20:0:0 (H:m:s:ms)","GENERIC","125.628","0.3110736443476635","2456"
"20:42:31:898 (H:m:s:ms)","OPERA","124.85","0.35131326212312464","218"
"21:4:13:0 (H:m:s:ms)","GENERIC","93.49199999999999","0.32171201166706737","5817"
"20:20:6:60 (H:m:s:ms)","GENERIC","125.314","0.31226346226370216","993"
"20:42:37:575 (H:m:s:ms)","GENERIC","157.21699999999998","0.3507094744444989","507"
"21:5:16:0 (H:m:s:ms)","GENERIC","124.666","0.3255355217375613","11365"
"20:20:12:121 (H:m:s:ms)","GENERIC","155.222","0.31080405498970687","947"
"20:42:39:493 (H:m:s:ms)","OPERA","93.791","0.3505154872835582","804"
"21:1:0:606 (H:m:s:ms)","GENERIC","124.564","0.314043522396805","477"
"20:20:18:181 (H:m:s:ms)","GENERIC","124.196","0.31246446641340936","862"
"20:42:43:636 (H:m:s:ms)","GENERIC","124.69","0.3497689219523127","425"
"21:1:3:157 (H:m:s:ms)","AMBULANCE","93.796","0.3168390823750252","890"
"20:20:24:242 (H:m:s:ms)","GENERIC","125.30199999999999","0.3098698662793641","834"
"20:42:47:88 (H:m:s:ms)","OPERA","125.294","0.35053410176038136","1102"
"21:1:6:666 (H:m:s:ms)","GENERIC","156.53","0.31757355569900875","401"
"20:20:30:303 (H:m:s:ms)","GENERIC","93.212","0.3092414112692511","809"
"20:42:49:696 (H:m:s:ms)","GENERIC","124.27799999999999","0.35025381198077526","446"
"20:20:36:363 (H:m:s:ms)","GENERIC","125.362","0.3086549684774505","722"
"20:42:54:683 (H:m:s:ms)","OPERA","124.722","0.35103758565355764","473"
"20:20:42:424 (H:m:s:ms)","GENERIC","125.047","0.30794821433454644","791"
"20:20:48:484 (H:m:s:ms)","GENERIC","124.73","0.30935521380129277","573"
"21:1:12:727 (H:m:s:ms)","GENERIC","157.25300000000001","0.318360499959058","323"
"21:1:18:787 (H:m:s:ms)","GENERIC","124.56899999999999","0.3195342642701614","315"
"20:42:55:757 (H:m:s:ms)","GENERIC","124.458","0.35169345825720705","292"
"21:6:20:0 (H:m:s:ms)","GENERIC","124.701","0.326804133330439","10981"
"20:43:1:818 (H:m:s:ms)","GENERIC","155.473","0.3488794138119307","269"
"21:1:30:909 (H:m:s:ms)","GENERIC","93.537","0.31825487836339056","1151"
"20:20:54:545 (H:m:s:ms)","GENERIC","124.62100000000001","0.30843053666621195","531"
"20:43:2:278 (H:m:s:ms)","OPERA","62.387","0.349173991217537","736"
"21:1:34:736 (H:m:s:ms)","AMBULANCE","93.726","0.29933535919591103","515"
"20:21:0:606 (H:m:s:ms)","GENERIC","124.465","0.3093584048614834","453"
"20:43:7:878 (H:m:s:ms)","GENERIC","93.855","0.3507626791666299","1134"
"21:1:36:969 (H:m:s:ms)","GENERIC","156.489","0.3217712013935612","1128"
"20:21:6:666 (H:m:s:ms)","GENERIC","125.41900000000001","0.308693127636274","429"
"20:43:9:873 (H:m:s:ms)","OPERA","93.863","0.35029740262547543","310"
"21:6:20:0 (H:m:s:ms)","GENERIC","124.836","0.33050099923033466","10928"
"20:21:12:727 (H:m:s:ms)","GENERIC","125.533","0.30727142267795493","328"
"20:43:13:939 (H:m:s:ms)","GENERIC","125.25200000000001","0.34826030444469525","1128"
"21:1:49:90 (H:m:s:ms)","GENERIC","93.673","0.3213245996022723","1035"
"20:21:18:787 (H:m:s:ms)","GENERIC","124.598","0.3110485594815603","260"
"20:43:17:468 (H:m:s:ms)","OPERA","125.131","0.34845061109051895","652"
"21:1:55:151 (H:m:s:ms)","GENERIC","125.179","0.32034810865368785","974"
"20:21:24:848 (H:m:s:ms)","GENERIC","124.61699999999999","0.31261088649274843","285"
"20:43:20:0 (H:m:s:ms)","GENERIC","124.715","0.3472451253109411","1106"
"21:2:1:212 (H:m:s:ms)","GENERIC","124.95400000000001","0.31957899421184927","867"
"20:21:30:909 (H:m:s:ms)","GENERIC","93.603","0.3111235909881563","1143"
"20:43:25:63 (H:m:s:ms)","OPERA","125.288","0.3478477645764168","1073"
"20:21:36:969 (H:m:s:ms)","GENERIC","125.015","0.3128027953961147","1115"
"20:43:26:60 (H:m:s:ms)","GENERIC","155.833","0.3469951984186544","1021"
"20:21:43:30 (H:m:s:ms)","GENERIC","124.818","0.31289522387453206","1049"
"20:21:49:90 (H:m:s:ms)","GENERIC","125.24799999999999","0.3109458360073671","1020"
"20:43:32:121 (H:m:s:ms)","GENERIC","125.588","0.3461692267181253","915"
"20:43:32:658 (H:m:s:ms)","OPERA","125.19","0.34638875112453255","511"
"20:21:55:151 (H:m:s:ms)","GENERIC","156.819","0.3098100769108203","961"
"20:43:38:181 (H:m:s:ms)","GENERIC","124.685","0.34796133415940733","859"
"20:22:1:212 (H:m:s:ms)","GENERIC","124.89099999999999","0.31109859843038956","868"
"20:43:40:253 (H:m:s:ms)","OPERA","93.81","0.3473634308903399","857"
"20:22:7:272 (H:m:s:ms)","GENERIC","155.931","0.3125587042490592","777"
"20:43:44:242 (H:m:s:ms)","GENERIC","124.643","0.3484968796609718","862"
"20:22:13:333 (H:m:s:ms)","GENERIC","156.60899999999998","0.31499831464242445","744"
"20:43:47:848 (H:m:s:ms)","OPERA","124.92999999999999","0.3488649004296139","374"
"20:22:19:393 (H:m:s:ms)","GENERIC","124.269","0.3162410754760423","730"
"20:43:50:303 (H:m:s:ms)","GENERIC","125.578","0.3465659674833195","753"
"20:22:25:454 (H:m:s:ms)","GENERIC","125.509","0.3148423489684566","623"
"20:43:55:443 (H:m:s:ms)","OPERA","125.161","0.34637677661941996","663"
"20:22:31:515 (H:m:s:ms)","GENERIC","125.18799999999999","0.31424110674628375","532"
"20:43:56:363 (H:m:s:ms)","GENERIC","124.523","0.34691422161800817","727"
"20:22:37:575 (H:m:s:ms)","GENERIC","157.225","0.31504379123608484","520"
"20:44:2:424 (H:m:s:ms)","GENERIC","93.87700000000001","0.34822873898259604","595"
"20:22:43:636 (H:m:s:ms)","GENERIC","124.702","0.31585742257744126","402"
"20:22:49:696 (H:m:s:ms)","GENERIC","124.19900000000001","0.3148063181898225","435"
"20:44:3:37 (H:m:s:ms)","OPERA","93.85900000000001","0.3522079784877226","1052"
"20:44:8:484 (H:m:s:ms)","GENERIC","124.158","0.352606218535966","567"
"20:22:55:757 (H:m:s:ms)","GENERIC","124.68","0.31604961374256363","286"
"20:44:10:632 (H:m:s:ms)","OPERA","125.015","0.3546296322547415","612"
"20:23:1:818 (H:m:s:ms)","GENERIC","124.35","0.31514889755510983","244"
"20:44:14:545 (H:m:s:ms)","GENERIC","124.876","0.35261030023558737","544"
"20:23:7:878 (H:m:s:ms)","GENERIC","125.615","0.3120689311425313","1175"
"20:44:18:227 (H:m:s:ms)","OPERA","125.02799999999999","0.35268109480945364","996"
"20:23:13:939 (H:m:s:ms)","GENERIC","156.78300000000002","0.3133217389962774","1145"
"20:44:20:606 (H:m:s:ms)","GENERIC","125.619","0.3519511333725976","449"
"20:23:20:0 (H:m:s:ms)","GENERIC","124.737","0.31214604387008066","1086"
"20:44:25:822 (H:m:s:ms)","OPERA","93.767","0.3512902557300549","199"
"20:23:26:60 (H:m:s:ms)","GENERIC","93.325","0.31153153812949536","1041"
"20:44:26:666 (H:m:s:ms)","GENERIC","125.547","0.35148794136490125","401"
"20:23:32:121 (H:m:s:ms)","GENERIC","125.628","0.31260158089913404","907"
"20:44:32:727 (H:m:s:ms)","GENERIC","125.505","0.34912532627509646","372"
"20:23:38:181 (H:m:s:ms)","GENERIC","156.17000000000002","0.3116248339513644","904"
"20:44:33:417 (H:m:s:ms)","OPERA","125.056","0.35021318534884627","621"
"20:23:44:242 (H:m:s:ms)","GENERIC","93.268","0.3107054796416643","828"
"20:23:50:303 (H:m:s:ms)","GENERIC","125.524","0.31216108109405116","743"
"20:44:38:787 (H:m:s:ms)","GENERIC","124.25999999999999","0.34914619393683055","315"
"20:44:41:12 (H:m:s:ms)","OPERA","62.331","0.34991569128592054","1012"
"20:23:56:363 (H:m:s:ms)","GENERIC","155.805","0.3120466255311718","703"
"20:44:44:848 (H:m:s:ms)","GENERIC","124.357","0.3496059529046548","209"
"20:24:2:424 (H:m:s:ms)","GENERIC","93.84","0.3108548060435961","596"
"20:44:48:607 (H:m:s:ms)","OPERA","93.736","0.3494242304324393","435"
"20:24:8:484 (H:m:s:ms)","GENERIC","124.182","0.30991928478735564","570"
"20:44:50:909 (H:m:s:ms)","GENERIC","125.53299999999999","0.3509086952809723","1192"
"20:24:14:545 (H:m:s:ms)","GENERIC","124.755","0.31088669319694295","498"
"20:44:56:202 (H:m:s:ms)","OPERA","93.644","0.3509580985074896","840"
"20:24:20:606 (H:m:s:ms)","GENERIC","157.30599999999998","0.31316162099333317","453"
"20:44:56:969 (H:m:s:ms)","GENERIC","93.559","0.3498649834656243","1145"
"20:24:26:666 (H:m:s:ms)","GENERIC","125.53999999999999","0.3148576227799735","379"
"20:45:3:30 (H:m:s:ms)","GENERIC","156.279","0.3511837725788542","1031"
"20:24:32:727 (H:m:s:ms)","GENERIC","93.789","0.3113201174372388","341"
"20:45:3:797 (H:m:s:ms)","OPERA","94.12100000000001","0.35056143543998125","492"
"20:24:38:787 (H:m:s:ms)","GENERIC","155.404","0.31083634299387447","313"
"20:45:9:90 (H:m:s:ms)","GENERIC","93.23400000000001","0.34752410980264103","996"
"20:24:44:848 (H:m:s:ms)","GENERIC","124.328","0.31244829027634524","214"
"20:24:50:909 (H:m:s:ms)","GENERIC","125.505","0.31146093037165135","1141"
"20:45:11:392 (H:m:s:ms)","OPERA","125.373","0.3472586418665686","899"
"20:45:15:151 (H:m:s:ms)","GENERIC","94.05099999999999","0.3482866123767777","970"
"20:24:56:969 (H:m:s:ms)","GENERIC","155.801","0.3094169454921821","1099"
"20:45:18:987 (H:m:s:ms)","OPERA","125.085","0.34969305037584225","1088"
"20:25:3:30 (H:m:s:ms)","GENERIC","124.898","0.3105678468891929","1038"
"20:45:21:212 (H:m:s:ms)","GENERIC","124.56","0.35103330643452463","813"
"20:25:9:90 (H:m:s:ms)","GENERIC","155.731","0.3134634967814909","984"
"20:45:26:582 (H:m:s:ms)","OPERA","125.279","0.35205819051836795","590"
"20:25:15:151 (H:m:s:ms)","GENERIC","156.748","0.31549738769815117","915"
"20:45:27:272 (H:m:s:ms)","GENERIC","125.09","0.3506154505239262","839"
"20:25:21:212 (H:m:s:ms)","GENERIC","124.812","0.31505647915906765","850"
"20:45:33:333 (H:m:s:ms)","GENERIC","156.639","0.3524157251184696","829"
"20:25:27:272 (H:m:s:ms)","GENERIC","125.012","0.3168427453781454","835"
"20:45:34:177 (H:m:s:ms)","OPERA","93.64","0.353139561091313","866"
"20:25:33:333 (H:m:s:ms)","GENERIC","125.047","0.31678882470058184","762"
"20:45:39:393 (H:m:s:ms)","GENERIC","125.285","0.3520904251093936","761"
"20:25:39:393 (H:m:s:ms)","GENERIC","125.08699999999999","0.3178698311530984","709"
"20:45:41:772 (H:m:s:ms)","OPERA","124.777","0.35122181675761494","464"
"20:25:45:454 (H:m:s:ms)","GENERIC","125.14","0.3184593708934747","604"
"20:25:51:515 (H:m:s:ms)","GENERIC","157.343","0.317395705018636","557"
"20:25:57:575 (H:m:s:ms)","GENERIC","157.149","0.317689200450423","496"
"20:26:3:636 (H:m:s:ms)","GENERIC","125.26599999999999","0.3186733873963655","419"
"20:26:9:696 (H:m:s:ms)","GENERIC","156.149","0.31644143878864145","435"
"20:26:15:757 (H:m:s:ms)","GENERIC","124.545","0.3145445469458946","347"
"20:26:21:818 (H:m:s:ms)","GENERIC","125.381","0.31254091199698375","297"
"20:26:27:878 (H:m:s:ms)","GENERIC","125.31899999999999","0.309939696441992","1220"
"20:26:33:939 (H:m:s:ms)","GENERIC","125.003","0.30999718646701985","1109"
"20:26:40:0 (H:m:s:ms)","GENERIC","93.203","0.31313486844974914","1093"
"20:26:46:60 (H:m:s:ms)","GENERIC","124.785","0.31082349911957974","1025"
"20:26:52:121 (H:m:s:ms)","GENERIC","125.527","0.3096332488371746","976"
"20:26:58:181 (H:m:s:ms)","GENERIC","124.404","0.3082762692095946","861"
"20:27:4:242 (H:m:s:ms)","GENERIC","93.276","0.3061672597425521","824"
"20:27:10:303 (H:m:s:ms)","GENERIC","155.795","0.30616104244983794","794"
"20:27:16:363 (H:m:s:ms)","GENERIC","124.286","0.3063163890939747","712"
"20:27:22:424 (H:m:s:ms)","GENERIC","157.01500000000001","0.30717420316060584","609"
"20:27:28:484 (H:m:s:ms)","GENERIC","124.684","0.3067440690801547","601"
"20:27:34:545 (H:m:s:ms)","GENERIC","93.314","0.3069553856782988","531"
"20:27:40:606 (H:m:s:ms)","GENERIC","125.26599999999999","0.30375370934433693","464"
"20:27:46:666 (H:m:s:ms)","GENERIC","125.274","0.30459166096287804","405"
"20:27:52:727 (H:m:s:ms)","GENERIC","93.82300000000001","0.3046517328150561","320"
"20:27:58:787 (H:m:s:ms)","GENERIC","156.28199999999998","0.3044442043988905","297"
"20:28:4:848 (H:m:s:ms)","GENERIC","125.173","0.30171570821380334","230"
"20:28:10:909 (H:m:s:ms)","GENERIC","125.211","0.2995812946101817","1171"
"20:28:16:969 (H:m:s:ms)","GENERIC","124.47999999999999","0.2992168783615489","1089"
"20:28:23:30 (H:m:s:ms)","GENERIC","124.21000000000001","0.29840225828130357","1037"
"20:28:29:90 (H:m:s:ms)","GENERIC","155.75900000000001","0.2980698412298302","1000"
"20:28:35:151 (H:m:s:ms)","GENERIC","124.19399999999999","0.2990159051299581","893"
"20:28:41:212 (H:m:s:ms)","GENERIC","93.098","0.299434182292268","849"
"20:28:47:272 (H:m:s:ms)","GENERIC","155.538","0.3008817394993888","786"
"20:28:53:333 (H:m:s:ms)","GENERIC","125.42","0.30159425032895265","723"
"20:28:59:393 (H:m:s:ms)","GENERIC","125.22999999999999","0.3035461864021624","740"
"20:29:5:454 (H:m:s:ms)","GENERIC","124.686","0.30417316050317317","608"
"20:29:11:515 (H:m:s:ms)","GENERIC","93.945","0.30457975900565565","595"
"20:29:17:575 (H:m:s:ms)","GENERIC","93.84100000000001","0.3026734496156481","471"
"20:29:23:636 (H:m:s:ms)","GENERIC","124.72399999999999","0.3017747246956072","455"
"20:29:29:696 (H:m:s:ms)","GENERIC","124.727","0.29912237613029496","432"
"20:29:35:757 (H:m:s:ms)","GENERIC","155.72","0.2977144184658896","312"
"20:29:41:818 (H:m:s:ms)","GENERIC","124.80600000000001","0.30027574478208335","369"
"20:29:47:878 (H:m:s:ms)","GENERIC","125.574","0.29783621608242067","1153"
"20:29:53:939 (H:m:s:ms)","GENERIC","155.947","0.2975296687356593","1141"
"21:20:15:189 (H:m:s:ms)","OPERA","93.733","0.3527873928363315","875"
"21:20:18:181 (H:m:s:ms)","GENERIC","93.141","0.36709800565438755","859"
"21:20:22:784 (H:m:s:ms)","OPERA","93.792","0.3509399507674365","237"
"21:20:24:242 (H:m:s:ms)","GENERIC","125.41499999999999","0.3516380610936446","831"
"21:20:30:303 (H:m:s:ms)","GENERIC","155.535","0.3520002774857162","787"
"21:20:30:379 (H:m:s:ms)","OPERA","93.84","0.35278611640425495","785"
"21:20:36:363 (H:m:s:ms)","GENERIC","125.346","0.355335489980087","700"
"21:20:37:974 (H:m:s:ms)","OPERA","124.749","0.3471078278224684","1088"
"21:20:42:424 (H:m:s:ms)","GENERIC","125.199","0.34440671500497533","631"
"21:20:45:569 (H:m:s:ms)","OPERA","93.78800000000001","0.34656269190093403","483"
"21:20:48:484 (H:m:s:ms)","GENERIC","93.378","0.3470598135771633","547"
"21:20:53:164 (H:m:s:ms)","OPERA","93.559","0.3451045235232637","870"
"21:20:54:545 (H:m:s:ms)","GENERIC","93.277","0.3462713243139222","502"
"21:21:0:606 (H:m:s:ms)","GENERIC","93.977","0.3453424487958439","515"
"21:21:0:759 (H:m:s:ms)","OPERA","125.184","0.3484687505809456","391"
"21:21:6:666 (H:m:s:ms)","GENERIC","125.072","0.3481393828822139","409"
"21:21:8:354 (H:m:s:ms)","OPERA","93.655","0.34722709997875295","748"
"21:21:12:727 (H:m:s:ms)","GENERIC","188.849","0.34859613749817814","308"
"21:21:18:787 (H:m:s:ms)","GENERIC","93.28399999999999","0.3429328565584891","236"
"21:21:23:544 (H:m:s:ms)","OPERA","93.55","0.34402731640909257","567"
"21:34:13:0 (H:m:s:ms)","GENERIC","156.524","0.3391032226755832","4639"
"21:32:49:696 (H:m:s:ms)","GENERIC","124.279","0.3411389440522168","427"
"21:33:42:0 (H:m:s:ms)","GENERIC","124.613","0.3629456184693027","3988"
"21:32:37:894 (H:m:s:ms)","AMBULANCE","93.78399999999999","0.38110081360696174","354"
"21:32:37:575 (H:m:s:ms)","GENERIC","125.311","0.34605041700030426","539"
"21:32:31:515 (H:m:s:ms)","GENERIC","156.78","0.34361346375624596","520"
"21:32:25:454 (H:m:s:ms)","GENERIC","93.86","0.34399746469079906","620"
"21:32:19:393 (H:m:s:ms)","GENERIC","124.325","0.34666596611325395","739"
"21:21:24:848 (H:m:s:ms)","GENERIC","93.357","0.3423281313460058","163"
"21:32:13:333 (H:m:s:ms)","GENERIC","125.213","0.34725747399047796","731"
"21:21:30:909 (H:m:s:ms)","GENERIC","93.521","0.3394724261028132","1143"
"21:21:31:139 (H:m:s:ms)","OPERA","93.662","0.3408434339486921","1017"
"21:21:36:969 (H:m:s:ms)","GENERIC","125.033","0.34161758823193367","1117"
"21:21:38:734 (H:m:s:ms)","OPERA","124.87299999999999","0.3435926843720518","350"
"21:21:43:30 (H:m:s:ms)","GENERIC","93.458","0.34164435193546405","1052"
"21:21:46:329 (H:m:s:ms)","OPERA","124.69","0.3423084820377059","741"
"21:21:49:90 (H:m:s:ms)","GENERIC","125.25","0.34177088157451907","1006"
"21:33:1:818 (H:m:s:ms)","GENERIC","124.287","0.3481145121953932","271"
"21:21:53:924 (H:m:s:ms)","OPERA","93.39699999999999","0.3412627662733955","1089"
"21:32:55:757 (H:m:s:ms)","GENERIC","124.648","0.34196441094558505","290"
"21:21:55:151 (H:m:s:ms)","GENERIC","156.672","0.34181247621565686","963"
"21:34:2:424 (H:m:s:ms)","GENERIC","125.644","0.35000433875217873","620"
"21:33:56:363 (H:m:s:ms)","GENERIC","93.298","0.35052861968392646","680"
"21:33:44:242 (H:m:s:ms)","GENERIC","93.26599999999999","0.36440475229920505","817"
"21:33:41:52 (H:m:s:ms)","AMBULANCE","62.344","0.41498031234941546","1109"
"21:33:38:181 (H:m:s:ms)","GENERIC","124.819","0.3531070535339974","878"
"21:38:26:0 (H:m:s:ms)","GENERIC","93.43","0.41893936975705603","13262"
"21:33:26:60 (H:m:s:ms)","GENERIC","93.311","0.35346511912217904","1028"
"21:33:20:0 (H:m:s:ms)","GENERIC","125.081","0.3547439348062612","1081"
"21:22:1:212 (H:m:s:ms)","GENERIC","93.473","0.34252975929996793","855"
"21:33:13:939 (H:m:s:ms)","GENERIC","93.631","0.35614584175680863","1138"
"21:22:1:518 (H:m:s:ms)","OPERA","93.969","0.3436586237721453","823"
"21:33:9:473 (H:m:s:ms)","AMBULANCE","93.962","0.35368580077054074","625"
"21:22:7:272 (H:m:s:ms)","GENERIC","155.79","0.3444127588351175","770"
"21:22:9:113 (H:m:s:ms)","OPERA","156.108","0.34391341939732284","1155"
"21:22:13:333 (H:m:s:ms)","GENERIC","156.689","0.345216516176141","744"
"21:22:16:708 (H:m:s:ms)","OPERA","125.135","0.3474922679728124","383"
"21:22:19:393 (H:m:s:ms)","GENERIC","124.378","0.34766429359821827","724"
"21:22:24:303 (H:m:s:ms)","OPERA","125.118","0.3475073864239242","845"
"21:22:25:454 (H:m:s:ms)","GENERIC","93.789","0.34727092565174694","608"
"21:22:31:515 (H:m:s:ms)","GENERIC","93.61","0.34951399080234563","539"
"21:33:50:303 (H:m:s:ms)","GENERIC","125.59","0.36321289972904913","794"
"21:39:29:0 (H:m:s:ms)","GENERIC","156.679","0.4610593839083526","2576"
"21:39:29:0 (H:m:s:ms)","GENERIC","124.888","0.4621203897415277","3797"
"21:39:29:0 (H:m:s:ms)","GENERIC","124.851","0.46070228940901925","3802"
"21:34:44:848 (H:m:s:ms)","GENERIC","124.32499999999999","0.35483771189004726","241"
"21:34:38:787 (H:m:s:ms)","GENERIC","124.33","0.3558757472096825","311"
"21:34:32:727 (H:m:s:ms)","GENERIC","93.882","0.35060001047839395","296"
"21:34:26:666 (H:m:s:ms)","GENERIC","125.62700000000001","0.35056375015930624","387"
"21:34:20:606 (H:m:s:ms)","GENERIC","125.58500000000001","0.34600862202875654","415"
"21:22:31:898 (H:m:s:ms)","OPERA","156.168","0.3480891661618204","1171"
"21:38:57:0 (H:m:s:ms)","GENERIC","124.62899999999999","0.4483381204974484","3909"
"21:22:37:575 (H:m:s:ms)","GENERIC","157.17399999999998","0.3486353321111882","529"
"21:34:12:631 (H:m:s:ms)","AMBULANCE","93.984","0.3498206901859816","575"
"21:2:6:315 (H:m:s:ms)","AMBULANCE","93.654","0.30562615884096433","934"
"21:22:39:493 (H:m:s:ms)","OPERA","93.532","0.34901159416294847","738"
"21:34:8:484 (H:m:s:ms)","GENERIC","124.134","0.3457586604751716","575"
"21:2:7:272 (H:m:s:ms)","GENERIC","124.61","0.3242788676641314","1446"
"21:22:43:636 (H:m:s:ms)","GENERIC","124.62","0.3480679518039914","462"
"21:2:13:333 (H:m:s:ms)","GENERIC","125.191","0.3248037261667088","787"
"21:22:47:88 (H:m:s:ms)","OPERA","125.429","0.34904708531199446","1083"
"21:2:19:393 (H:m:s:ms)","GENERIC","124.148","0.3242254472438192","749"
"21:22:49:696 (H:m:s:ms)","GENERIC","155.307","0.3484073065466946","444"
"21:2:25:454 (H:m:s:ms)","GENERIC","125.522","0.32363280661780974","620"
"21:22:54:683 (H:m:s:ms)","OPERA","125.265","0.35074539313965025","486"
"21:2:31:515 (H:m:s:ms)","GENERIC","125.15899999999999","0.32105543117923374","569"
"21:22:55:757 (H:m:s:ms)","GENERIC","124.532","0.3517508167826872","412"
"21:2:37:575 (H:m:s:ms)","GENERIC","157.083","0.31980014717604216","541"
"21:23:1:818 (H:m:s:ms)","GENERIC","124.402","0.35046376829730425","266"
"21:2:37:894 (H:m:s:ms)","AMBULANCE","93.702","0.315318843379954","286"
"21:23:2:278 (H:m:s:ms)","OPERA","125.174","0.3515243592918705","836"
"21:2:43:636 (H:m:s:ms)","GENERIC","124.56700000000001","0.32062049429828865","461"
"21:2:49:696 (H:m:s:ms)","GENERIC","124.235","0.3195094867061632","449"
"21:35:57:575 (H:m:s:ms)","GENERIC","125.49600000000001","0.35653225873874683","512"
"21:35:51:515 (H:m:s:ms)","GENERIC","157.235","0.35919217397636005","572"
"21:35:47:368 (H:m:s:ms)","AMBULANCE","93.816","0.3565125227110755","703"
"21:39:29:0 (H:m:s:ms)","GENERIC","93.6","0.4574231494479488","6482"
"21:35:39:393 (H:m:s:ms)","GENERIC","125.092","0.3544455634300407","703"
"21:40:1:0 (H:m:s:ms)","GENERIC","125.164","0.41890517135231004","6525"
"21:35:27:272 (H:m:s:ms)","GENERIC","124.94399999999999","0.35853599473897135","775"
"21:23:7:878 (H:m:s:ms)","GENERIC","156.601","0.3528844078180546","1236"
"21:40:1:0 (H:m:s:ms)","GENERIC","156.084","0.4198490112399397","8674"
"21:23:9:873 (H:m:s:ms)","OPERA","124.985","0.35434344529758305","272"
"21:35:15:789 (H:m:s:ms)","AMBULANCE","93.863","0.3572234703576992","349"
"21:7:23:0 (H:m:s:ms)","GENERIC","124.62100000000001","0.33946561913098316","11364"
"21:23:13:939 (H:m:s:ms)","GENERIC","125.267","0.35288366026864815","1143"
"21:39:29:0 (H:m:s:ms)","GENERIC","125.023","0.45596050550249057","3811"
"21:3:1:818 (H:m:s:ms)","GENERIC","124.312","0.31941247313667936","275"
"21:23:17:468 (H:m:s:ms)","OPERA","124.68","0.3541221745861893","651"
"21:35:9:90 (H:m:s:ms)","GENERIC","124.47200000000001","0.35734009076145884","1014"
"21:3:7:878 (H:m:s:ms)","GENERIC","93.584","0.32111012250837784","1164"
"21:23:20:0 (H:m:s:ms)","GENERIC","93.59299999999999","0.3532751232646722","1076"
"21:3:9:473 (H:m:s:ms)","AMBULANCE","62.370999999999995","0.3065838589537382","623"
"21:23:25:63 (H:m:s:ms)","OPERA","124.919","0.35454534237323676","1006"
"21:3:13:939 (H:m:s:ms)","GENERIC","125.22","0.3254560069023865","1163"
"21:23:26:60 (H:m:s:ms)","GENERIC","155.802","0.3525622785833631","1026"
"21:3:20:0 (H:m:s:ms)","GENERIC","125.038","0.32757933987865606","1131"
"21:23:32:121 (H:m:s:ms)","GENERIC","157.313","0.3529170725442635","905"
"21:3:26:60 (H:m:s:ms)","GENERIC","124.533","0.32728100870697624","1064"
"21:23:32:658 (H:m:s:ms)","OPERA","93.929","0.3552221390978983","658"
"21:3:32:121 (H:m:s:ms)","GENERIC","93.863","0.32811179130324275","930"
"21:23:38:181 (H:m:s:ms)","GENERIC","93.449","0.354862342032062","853"
"21:3:38:181 (H:m:s:ms)","GENERIC","156.171","0.3280766862876575","922"
"21:3:41:52 (H:m:s:ms)","AMBULANCE","93.76599999999999","0.3127002898726075","1006"
"21:36:52:121 (H:m:s:ms)","GENERIC","125.443","0.38434449800041826","949"
"21:36:50:526 (H:m:s:ms)","AMBULANCE","62.456999999999994","0.3836867788406271","525"
"21:40:1:0 (H:m:s:ms)","GENERIC","93.437","0.42181976994446474","4745"
"21:40:1:0 (H:m:s:ms)","GENERIC","93.286","0.4001136244242386","5895"
"21:39:29:0 (H:m:s:ms)","GENERIC","125.089","0.4465806191052874","3152"
"21:36:27:878 (H:m:s:ms)","GENERIC","156.969","0.3759458231989361","1220"
"21:23:40:253 (H:m:s:ms)","OPERA","125.003","0.35590654286912904","855"
"21:36:21:818 (H:m:s:ms)","GENERIC","125.566","0.3707074222169519","276"
"21:23:44:242 (H:m:s:ms)","GENERIC","124.492","0.35614524728045305","838"
"21:36:18:947 (H:m:s:ms)","AMBULANCE","93.874","0.36734921941034676","1186"
"21:3:44:242 (H:m:s:ms)","GENERIC","155.745","0.32651931944730694","839"
"21:23:47:848 (H:m:s:ms)","OPERA","155.695","0.3552693687328402","285"
"21:36:15:757 (H:m:s:ms)","GENERIC","124.508","0.3621514487797348","347"
"21:3:50:303 (H:m:s:ms)","GENERIC","125.616","0.32472094512692146","769"
"21:23:50:303 (H:m:s:ms)","GENERIC","125.559","0.35460544689529966","758"
"21:40:1:0 (H:m:s:ms)","GENERIC","124.81800000000001","0.4140265870781373","9161"
"21:7:23:0 (H:m:s:ms)","GENERIC","124.498","0.33847138179563313","6927"
"21:23:55:443 (H:m:s:ms)","OPERA","31.008","0.3548375647386612","568"
"21:36:3:636 (H:m:s:ms)","GENERIC","156.769","0.3642507130156716","473"
"21:4:2:424 (H:m:s:ms)","GENERIC","125.636","0.32473255183289473","593"
"21:23:56:363 (H:m:s:ms)","GENERIC","124.49199999999999","0.35580874996657735","689"
"21:4:8:484 (H:m:s:ms)","GENERIC","124.164","0.32306528670040413","577"
"21:24:2:424 (H:m:s:ms)","GENERIC","93.904","0.3566205992343563","597"
"21:4:12:631 (H:m:s:ms)","AMBULANCE","93.729","0.310307476366167","413"
"21:24:3:37 (H:m:s:ms)","OPERA","125.30799999999999","0.35921260722470033","1067"
"21:4:14:545 (H:m:s:ms)","GENERIC","124.748","0.32514373391504914","510"
"21:24:8:484 (H:m:s:ms)","GENERIC","124.166","0.3584562587008302","569"
"21:4:20:606 (H:m:s:ms)","GENERIC","125.60300000000001","0.3260753889603141","422"
"21:24:10:632 (H:m:s:ms)","OPERA","125.283","0.3593888642595115","438"
"21:4:26:666 (H:m:s:ms)","GENERIC","93.848","0.3252950153779999","378"
"21:4:32:727 (H:m:s:ms)","GENERIC","125.557","0.3233788217317984","363"
"21:37:52:727 (H:m:s:ms)","GENERIC","125.471","0.4008271978401463","326"
"21:37:46:666 (H:m:s:ms)","GENERIC","125.20599999999999","0.4006709950767176","442"
"21:37:40:606 (H:m:s:ms)","GENERIC","125.34100000000001","0.39006107138380847","485"
"21:37:34:545 (H:m:s:ms)","GENERIC","124.51400000000001","0.3841565611143435","506"
"21:37:28:484 (H:m:s:ms)","GENERIC","93.487","0.38397940240068135","569"
"21:37:22:424 (H:m:s:ms)","GENERIC","125.339","0.38588159904586117","706"
"21:24:14:545 (H:m:s:ms)","GENERIC","93.447","0.36191664310900673","472"
"21:24:18:227 (H:m:s:ms)","OPERA","62.437","0.3592900096688878","785"
"21:37:22:105 (H:m:s:ms)","AMBULANCE","93.904","0.38385073283880805","921"
"21:4:38:787 (H:m:s:ms)","GENERIC","124.32300000000001","0.32326428260323803","306"
"21:24:20:606 (H:m:s:ms)","GENERIC","157.35","0.35964471117277214","426"
"21:37:16:363 (H:m:s:ms)","GENERIC","155.511","0.382288709606074","711"
"21:4:44:210 (H:m:s:ms)","AMBULANCE","93.859","0.3236108310315482","878"
"21:24:25:822 (H:m:s:ms)","OPERA","62.307","0.3608920593471539","264"
"21:37:10:303 (H:m:s:ms)","GENERIC","155.838","0.38198624900368916","784"
"21:4:44:848 (H:m:s:ms)","GENERIC","124.286","0.3263661388989352","323"
"21:24:26:666 (H:m:s:ms)","GENERIC","125.59899999999999","0.36076126686966","362"
"21:37:4:242 (H:m:s:ms)","GENERIC","124.49199999999999","0.38563167887597183","829"
"21:4:50:909 (H:m:s:ms)","GENERIC","125.512","0.32491792544071524","1175"
"21:24:32:727 (H:m:s:ms)","GENERIC","125.53399999999999","0.3602308091523353","299"
"21:36:58:181 (H:m:s:ms)","GENERIC","93.283","0.3822459557248278","887"
"21:4:56:969 (H:m:s:ms)","GENERIC","93.874","0.3267417328624149","1177"
"21:24:33:417 (H:m:s:ms)","OPERA","93.63900000000001","0.3609998999399394","605"
"21:10:1:0 (H:m:s:ms)","GENERIC","124.89699999999999","0.34621788787547153","9783"
"21:24:38:787 (H:m:s:ms)","GENERIC","155.46","0.3621738536894741","318"
"21:5:9:90 (H:m:s:ms)","GENERIC","124.489","0.32450002834627123","1001"
"21:24:41:12 (H:m:s:ms)","OPERA","156.093","0.3604657833259369","1091"
"21:5:15:151 (H:m:s:ms)","GENERIC","125.02799999999999","0.3262093846467845","896"
"21:24:44:848 (H:m:s:ms)","GENERIC","155.473","0.360345491337208","223"
"21:5:15:789 (H:m:s:ms)","AMBULANCE","125.162","0.32678367960758614","301"
"21:5:21:212 (H:m:s:ms)","GENERIC","124.753","0.32704444345622874","852"
"21:38:47:272 (H:m:s:ms)","GENERIC","93.34700000000001","0.4265906778741726","749"
"21:38:41:212 (H:m:s:ms)","GENERIC","155.29000000000002","0.4237280286174444","844"
"21:38:35:151 (H:m:s:ms)","GENERIC","124.19800000000001","0.4218951298620321","910"
"21:38:29:90 (H:m:s:ms)","GENERIC","124.416","0.41860558323473485","1044"
"21:38:25:263 (H:m:s:ms)","AMBULANCE","93.731","0.4174617440868551","883"
"21:38:23:30 (H:m:s:ms)","GENERIC","155.173","0.4143045688490096","1061"
"21:38:16:969 (H:m:s:ms)","GENERIC","93.241","0.41463108375642826","1070"
"21:24:48:607 (H:m:s:ms)","OPERA","125.099","0.3593515065236122","455"
"21:24:50:909 (H:m:s:ms)","GENERIC","125.452","0.3575930701890117","1147"
"21:5:27:272 (H:m:s:ms)","GENERIC","125.036","0.3294988832008368","782"
"21:24:56:202 (H:m:s:ms)","OPERA","62.337","0.35732400697835803","827"
"21:5:33:333 (H:m:s:ms)","GENERIC","156.503","0.3318452729703173","740"
"21:24:56:969 (H:m:s:ms)","GENERIC","156.213","0.3569527792410709","1127"
"21:40:1:0 (H:m:s:ms)","GENERIC","124.72200000000001","0.4176899839231057","7935"
"20:45:45:454 (H:m:s:ms)","GENERIC","125.288","0.349489098168015","588"
"21:5:39:393 (H:m:s:ms)","GENERIC","125.214","0.3323556298041751","710"
"21:25:3:30 (H:m:s:ms)","GENERIC","125.591","0.3598520351877194","996"
"21:38:4:848 (H:m:s:ms)","GENERIC","125.23599999999999","0.4173555466437","238"
"20:45:49:367 (H:m:s:ms)","OPERA","156.647","0.349979484803095","1045"
"21:5:45:454 (H:m:s:ms)","GENERIC","125.13","0.3304249434738433","607"
"21:30:1:0 (H:m:s:ms)","OPERA","125.10499999999999","0.35254724443449004","4081"
"21:40:1:0 (H:m:s:ms)","GENERIC","156.18","0.41731064435465365","6579"
"20:45:51:515 (H:m:s:ms)","GENERIC","125.575","0.34905807003797457","532"
"21:5:47:368 (H:m:s:ms)","AMBULANCE","62.435","0.3306457514957023","663"
"21:25:9:90 (H:m:s:ms)","GENERIC","124.453","0.3539012610082402","976"
"21:37:53:684 (H:m:s:ms)","AMBULANCE","93.709","0.41354374609684824","411"
"20:45:56:962 (H:m:s:ms)","OPERA","125.124","0.34621734533094445","1108"
"21:5:51:515 (H:m:s:ms)","GENERIC","125.58","0.33312726769079287","539"
"21:30:1:0 (H:m:s:ms)","OPERA","93.66499999999999","0.35479048000765423","4807"
"20:45:57:575 (H:m:s:ms)","GENERIC","125.513","0.3451989630299238","596"
"21:5:57:575 (H:m:s:ms)","GENERIC","157.219","0.338189650996814","532"
"21:30:1:0 (H:m:s:ms)","GENERIC","156.665","0.3561931291573788","5120"
"20:46:3:636 (H:m:s:ms)","GENERIC","125.304","0.34443138077802965","438"
"21:6:3:636 (H:m:s:ms)","GENERIC","125.27799999999999","0.33735603773682626","448"
"21:30:1:0 (H:m:s:ms)","OPERA","124.98599999999999","0.3576956419334872","5326"
"20:46:4:556 (H:m:s:ms)","OPERA","93.583","0.34585352690215543","536"
"21:6:9:696 (H:m:s:ms)","GENERIC","124.905","0.3326923182078146","427"
"20:46:9:696 (H:m:s:ms)","GENERIC","156.468","0.3449964411369022","400"
"21:6:15:757 (H:m:s:ms)","GENERIC","155.662","0.33232844547339313","382"
"20:46:12:151 (H:m:s:ms)","OPERA","125.106","0.3477056461691007","904"
"20:46:15:757 (H:m:s:ms)","GENERIC","124.46600000000001","0.3485623627349875","293"
"21:40:1:0 (H:m:s:ms)","GENERIC","156.106","0.4143786508334291","2614"
"21:40:1:0 (H:m:s:ms)","GENERIC","93.357","0.41865030015711435","2407"
"21:39:29:696 (H:m:s:ms)","GENERIC","124.71000000000001","0.4234739430316111","1313"
"21:39:28:421 (H:m:s:ms)","AMBULANCE","93.963","0.46793886506516","682"
"21:40:1:0 (H:m:s:ms)","GENERIC","124.60900000000001","0.40987106493777503","3231"
"21:39:17:575 (H:m:s:ms)","GENERIC","125.53","0.4410986364021173","473"
"21:39:29:0 (H:m:s:ms)","GENERIC","125.028","0.450021820564935","2534"
"21:40:1:0 (H:m:s:ms)","GENERIC","124.624","0.4097884716926242","5131"
"21:25:21:212 (H:m:s:ms)","GENERIC","124.732","0.3585660976265848","806"
"21:30:1:0 (H:m:s:ms)","OPERA","155.649","0.35691113722613765","4915"
"21:6:18:947 (H:m:s:ms)","AMBULANCE","93.81","0.3282420371556681","1154"
"21:25:27:272 (H:m:s:ms)","GENERIC","93.594","0.36020351554873764","776"
"21:6:21:818 (H:m:s:ms)","GENERIC","125.518","0.3354162420190689","242"
"21:25:33:333 (H:m:s:ms)","GENERIC","125.05699999999999","0.3633211264272867","698"
"20:46:19:746 (H:m:s:ms)","OPERA","93.67699999999999","0.34840159256001896","374"
"21:6:27:878 (H:m:s:ms)","GENERIC","157.066","0.33496097987543577","1205"
"21:30:1:0 (H:m:s:ms)","OPERA","124.71799999999999","0.4033680322429987","2124"
"20:46:21:818 (H:m:s:ms)","GENERIC","157.125","0.3497523048614536","289"
"21:6:33:939 (H:m:s:ms)","GENERIC","93.555","0.3360620290583372","1121"
"21:25:39:393 (H:m:s:ms)","GENERIC","93.627","0.3597405138265243","721"
"21:38:59:393 (H:m:s:ms)","GENERIC","156.916","0.4450153829638984","761"
"20:46:27:341 (H:m:s:ms)","OPERA","93.72800000000001","0.34581581913666204","783"
"21:6:40:0 (H:m:s:ms)","GENERIC","125.095","0.33649822058926615","1149"
"21:30:1:0 (H:m:s:ms)","OPERA","93.803","0.3886935204784293","1973"
"21:38:56:842 (H:m:s:ms)","AMBULANCE","62.436","0.4245264995284436","242"
"20:46:27:878 (H:m:s:ms)","GENERIC","157.029","0.34415092229107735","1327"
"21:10:1:0 (H:m:s:ms)","GENERIC","124.939","0.3398709515326013","5012"
"21:25:45:454 (H:m:s:ms)","GENERIC","62.568","0.35823968585163873","584"
"21:38:53:333 (H:m:s:ms)","GENERIC","157.133","0.4249512370343545","713"
"20:46:33:939 (H:m:s:ms)","GENERIC","125.15700000000001","0.34444346006091286","1137"
"21:6:50:526 (H:m:s:ms)","AMBULANCE","93.735","0.334570957297024","592"
"21:30:1:0 (H:m:s:ms)","OPERA","62.433","0.3791727126440639","2886"
"20:46:34:936 (H:m:s:ms)","OPERA","125.328","0.34494256847503074","1231"
"21:6:52:121 (H:m:s:ms)","GENERIC","125.51599999999999","0.33595362137577767","928"
"21:25:51:515 (H:m:s:ms)","GENERIC","157.223","0.35855613549281257","570"
"20:46:40:0 (H:m:s:ms)","GENERIC","124.475","0.34509524396721264","1068"
"21:6:58:181 (H:m:s:ms)","GENERIC","124.447","0.33701399191458964","875"
"20:46:42:531 (H:m:s:ms)","OPERA","93.655","0.3442677681843546","556"
"21:7:4:242 (H:m:s:ms)","GENERIC","155.642","0.3371123397527007","821"
"20:46:46:60 (H:m:s:ms)","GENERIC","124.76","0.34417492936838645","1014"
"20:46:50:126 (H:m:s:ms)","OPERA","124.91","0.34783397485047035","945"
"21:40:0:0 (H:m:s:ms)","AMBULANCE","93.741","0.42559562557556235","2729"
"21:40:36:363 (H:m:s:ms)","GENERIC","125.30799999999999","0.39580487693628424","731"
"21:40:30:303 (H:m:s:ms)","GENERIC","155.506","0.39594653368404453","783"
"21:40:24:242 (H:m:s:ms)","GENERIC","125.417","0.3947039096234221","848"
"21:40:18:181 (H:m:s:ms)","GENERIC","93.169","0.3968961559468301","866"
"21:40:12:121 (H:m:s:ms)","GENERIC","124.156","0.3987756959090068","955"
"21:40:6:60 (H:m:s:ms)","GENERIC","125.375","0.39949296728358225","1004"
"21:40:0:0 (H:m:s:ms)","GENERIC","93.507","0.42465332357182206","2964"
"21:40:0:0 (H:m:s:ms)","GENERIC","62.522999999999996","0.4235021707950461","2753"
"21:7:10:303 (H:m:s:ms)","GENERIC","155.83","0.34285684543694966","796"
"21:7:16:363 (H:m:s:ms)","GENERIC","124.404","0.3423646948852771","730"
"20:46:52:121 (H:m:s:ms)","GENERIC","157.177","0.348299147338953","959"
"21:7:22:105 (H:m:s:ms)","AMBULANCE","93.81","0.33832599791365964","1005"
"20:46:57:721 (H:m:s:ms)","OPERA","125.357","0.3485146992289983","359"
"21:7:22:424 (H:m:s:ms)","GENERIC","125.369","0.3399256287900973","742"
"20:46:58:181 (H:m:s:ms)","GENERIC","124.357","0.3474342137261416","847"
"21:10:1:0 (H:m:s:ms)","GENERIC","156.192","0.34505127568316674","2247"
"20:47:4:242 (H:m:s:ms)","GENERIC","124.513","0.34792893694063987","800"
"21:7:34:545 (H:m:s:ms)","GENERIC","124.43700000000001","0.34105403947195745","522"
"21:39:53:939 (H:m:s:ms)","GENERIC","124.644","0.41042499185321174","1105"
"20:47:5:316 (H:m:s:ms)","OPERA","93.774","0.3484052065908707","779"
"21:7:40:606 (H:m:s:ms)","GENERIC","156.905","0.3346011016938001","487"
"21:39:47:878 (H:m:s:ms)","GENERIC","125.608","0.42298279264152144","1149"
"20:47:10:303 (H:m:s:ms)","GENERIC","155.864","0.3483604263181897","794"
"21:7:46:666 (H:m:s:ms)","GENERIC","125.229","0.33682982140862877","415"
"20:47:16:363 (H:m:s:ms)","GENERIC","124.34700000000001","0.3510260404193845","690"
"21:7:52:727 (H:m:s:ms)","GENERIC","125.47800000000001","0.33687565991241536","323"
"20:47:22:424 (H:m:s:ms)","GENERIC","93.714","0.35192311050117125","602"
"21:7:53:684 (H:m:s:ms)","AMBULANCE","93.726","0.3401711706139404","358"
"20:47:28:101 (H:m:s:ms)","OPERA","125.18299999999999","0.35314966622235205","986"
"20:47:28:484 (H:m:s:ms)","GENERIC","124.92699999999999","0.35288256292459874","1258"
"21:7:58:787 (H:m:s:ms)","GENERIC","124.869","0.344845631512998","255"
"21:8:4:848 (H:m:s:ms)","GENERIC","156.775","0.34631344485361665","222"
"20:47:34:545 (H:m:s:ms)","GENERIC","124.40100000000001","0.35330437802649084","548"
"21:10:1:0 (H:m:s:ms)","GENERIC","93.735","0.341660946149436","2480"
"20:47:35:696 (H:m:s:ms)","OPERA","93.68599999999999","0.35387969433176963","369"
"21:8:16:969 (H:m:s:ms)","GENERIC","124.449","0.34699144088577455","1087"
"20:47:40:606 (H:m:s:ms)","GENERIC","125.29599999999999","0.35232015893052415","466"
"21:8:23:30 (H:m:s:ms)","GENERIC","124.203","0.343667711425429","1048"
"20:47:43:291 (H:m:s:ms)","OPERA","125.154","0.3525579315822497","850"
"21:8:25:263 (H:m:s:ms)","AMBULANCE","62.492","0.34466758495183153","769"
"20:47:46:666 (H:m:s:ms)","GENERIC","125.195","0.35127464170973843","379"
"21:8:29:90 (H:m:s:ms)","GENERIC","124.419","0.3461357403836643","1040"
"20:47:50:886 (H:m:s:ms)","OPERA","125.429","0.35241616394653336","265"
"21:8:35:151 (H:m:s:ms)","GENERIC","124.259","0.34438112452452985","907"
"21:40:42:424 (H:m:s:ms)","GENERIC","156.77","0.3951405305073242","676"
"20:47:52:727 (H:m:s:ms)","GENERIC","125.502","0.35167960948267324","323"
"21:8:41:212 (H:m:s:ms)","GENERIC","93.101","0.3454607291356771","855"
"20:47:58:481 (H:m:s:ms)","OPERA","93.945","0.3486421888107939","727"
"21:10:1:0 (H:m:s:ms)","GENERIC","156.197","0.34244907616800163","2419"
"20:47:58:787 (H:m:s:ms)","GENERIC","124.741","0.3485361218771587","514"
"20:48:4:848 (H:m:s:ms)","GENERIC","156.808","0.34858322616445114","203"
"21:8:53:333 (H:m:s:ms)","GENERIC","125.457","0.3450566039655263","724"
"21:8:56:842 (H:m:s:ms)","AMBULANCE","93.751","0.34763290155606374","196"
"20:48:6:75 (H:m:s:ms)","OPERA","125.13","0.3486407232284633","983"
"21:8:59:393 (H:m:s:ms)","GENERIC","156.915","0.34968246355459726","753"
"20:48:10:909 (H:m:s:ms)","GENERIC","125.13","0.34716808371114777","1119"
"21:9:5:454 (H:m:s:ms)","GENERIC","124.743","0.34882893180926694","635"
"20:30:0:0 (H:m:s:ms)","GENERIC","125.21799999999999","0.2985714788019047","1101"
"20:48:13:670 (H:m:s:ms)","OPERA","93.577","0.34811243524912566","526"
"21:9:11:515 (H:m:s:ms)","GENERIC","156.543","0.34977646224490794","584"
"20:30:0:0 (H:m:s:ms)","GENERIC","93.892","0.2991050075573052","1131"
"20:48:16:969 (H:m:s:ms)","GENERIC","124.401","0.3477702023016339","1124"
"21:9:17:575 (H:m:s:ms)","GENERIC","125.64699999999999","0.3539889788670218","473"
"20:30:6:60 (H:m:s:ms)","GENERIC","125.36500000000001","0.29737162232888037","989"
"20:48:21:265 (H:m:s:ms)","OPERA","94.039","0.34577681091706747","856"
"21:9:23:636 (H:m:s:ms)","GENERIC","124.696","0.3559624377071765","413"
"20:30:12:121 (H:m:s:ms)","GENERIC","155.21699999999998","0.29303125904581484","944"
"20:48:23:30 (H:m:s:ms)","GENERIC","124.204","0.3438420052157024","1046"
"21:9:28:421 (H:m:s:ms)","AMBULANCE","31.05","0.34903823954331825","605"
"20:30:18:181 (H:m:s:ms)","GENERIC","124.229","0.2921407876765724","845"
"20:48:28:860 (H:m:s:ms)","OPERA","125.035","0.34642051645725336","227"
"21:10:1:0 (H:m:s:ms)","GENERIC","156.084","0.34028760354804877","1766"
"20:30:24:242 (H:m:s:ms)","GENERIC","125.37","0.2926678803567438","830"
"20:48:29:90 (H:m:s:ms)","GENERIC","93.19800000000001","0.3453719023377128","1005"
"21:10:1:0 (H:m:s:ms)","GENERIC","124.669","0.3424018785973235","1771"
"20:30:30:303 (H:m:s:ms)","GENERIC","124.349","0.2949617131717943","747"
"20:48:35:151 (H:m:s:ms)","GENERIC","124.231","0.34442059132465036","921"
"20:30:36:363 (H:m:s:ms)","GENERIC","125.41900000000001","0.29641668155510403","715"
"20:48:36:455 (H:m:s:ms)","OPERA","93.828","0.3439249477885443","804"
"20:30:42:424 (H:m:s:ms)","GENERIC","62.531","0.29533601307511065","641"
"20:30:48:484 (H:m:s:ms)","GENERIC","124.779","0.298080033624353","562"
"21:9:41:818 (H:m:s:ms)","GENERIC","124.935","0.3496751488313217","283"
"21:9:47:878 (H:m:s:ms)","GENERIC","125.602","0.3478809599107728","1141"
"20:48:41:212 (H:m:s:ms)","GENERIC","93.17999999999999","0.3418960777534154","855"
"21:10:1:0 (H:m:s:ms)","GENERIC","124.59899999999999","0.3400102440123009","2635"
"20:48:44:50 (H:m:s:ms)","OPERA","125.20899999999999","0.3435883497522582","1034"
"21:10:0:0 (H:m:s:ms)","AMBULANCE","93.818","0.33898402080468787","1106"
"20:30:54:545 (H:m:s:ms)","GENERIC","124.583","0.29832008557664236","529"
"20:48:47:272 (H:m:s:ms)","GENERIC","93.898","0.34411210141853404","891"
"21:10:0:0 (H:m:s:ms)","GENERIC","125.144","0.34213538568326307","1178"
"20:31:0:606 (H:m:s:ms)","GENERIC","155.703","0.29869218478212356","448"
"20:48:51:645 (H:m:s:ms)","OPERA","124.725","0.34282179904962534","458"
"21:10:0:0 (H:m:s:ms)","GENERIC","93.878","0.34373841509872327","1222"
"20:31:6:666 (H:m:s:ms)","GENERIC","156.424","0.29836217410478444","435"
"20:48:53:333 (H:m:s:ms)","GENERIC","125.47","0.3416254543379758","715"
"21:10:6:60 (H:m:s:ms)","GENERIC","125.37299999999999","0.3457924489315932","987"
"20:31:12:727 (H:m:s:ms)","GENERIC","125.505","0.2976959252787971","351"
"20:48:59:240 (H:m:s:ms)","OPERA","125.162","0.3406903870591022","989"
"21:10:12:121 (H:m:s:ms)","GENERIC","124.129","0.34326443554557234","937"
"20:31:18:787 (H:m:s:ms)","GENERIC","124.679","0.2998074967177599","267"
"20:48:59:393 (H:m:s:ms)","GENERIC","156.96","0.3405629440743249","898"
"21:10:18:181 (H:m:s:ms)","GENERIC","155.215","0.3438755067286484","873"
"20:31:24:848 (H:m:s:ms)","GENERIC","124.588","0.3032831001210643","197"
"20:49:5:454 (H:m:s:ms)","GENERIC","156.202","0.3425967583735338","605"
"21:10:24:242 (H:m:s:ms)","GENERIC","125.42","0.3425038219770396","834"
"20:31:30:909 (H:m:s:ms)","GENERIC","93.59","0.30162993909983427","1142"
"20:49:6:835 (H:m:s:ms)","OPERA","125.121","0.34203847459925796","321"
"20:31:36:969 (H:m:s:ms)","GENERIC","124.99000000000001","0.2988881462771104","1104"
"20:49:11:515 (H:m:s:ms)","GENERIC","125.068","0.34580089642875056","527"
"20:31:43:30 (H:m:s:ms)","GENERIC","93.75999999999999","0.2996822346072809","1002"
"20:31:49:90 (H:m:s:ms)","GENERIC","125.19800000000001","0.2978312314991662","1030"
"20:49:14:430 (H:m:s:ms)","OPERA","93.991","0.34730935882000463","693"
"20:49:17:575 (H:m:s:ms)","GENERIC","93.898","0.3480258328892142","472"
"20:31:55:151 (H:m:s:ms)","GENERIC","125.16300000000001","0.29791134045409073","954"
"20:49:22:25 (H:m:s:ms)","OPERA","124.989","0.34926371224728797","1143"
"20:32:1:212 (H:m:s:ms)","GENERIC","156.312","0.29931474959411775","870"
"20:49:23:636 (H:m:s:ms)","GENERIC","156.191","0.34755032365659705","391"
"20:32:7:272 (H:m:s:ms)","GENERIC","155.993","0.299934248463072","855"
"20:49:29:620 (H:m:s:ms)","OPERA","125.051","0.3477919520021404","545"
"20:32:13:333 (H:m:s:ms)","GENERIC","125.15","0.3027581377664132","748"
"20:49:29:696 (H:m:s:ms)","GENERIC","156.053","0.34936608280160814","677"
"20:32:19:393 (H:m:s:ms)","GENERIC","124.233","0.30139195970176963","728"
"20:49:35:757 (H:m:s:ms)","GENERIC","125.185","0.3512041893391677","525"
"20:32:25:454 (H:m:s:ms)","GENERIC","157.231","0.2983687971262029","644"
"20:49:37:215 (H:m:s:ms)","OPERA","93.628","0.35064676293729946","910"
"20:32:31:515 (H:m:s:ms)","GENERIC","156.74699999999999","0.29876039458500836","551"
"20:49:41:818 (H:m:s:ms)","GENERIC","124.99","0.35087500342211586","518"
"20:32:37:575 (H:m:s:ms)","GENERIC","157.1","0.29895318907454943","541"
"20:49:44:810 (H:m:s:ms)","OPERA","93.595","0.34932218571630136","278"
"20:32:43:636 (H:m:s:ms)","GENERIC","155.91899999999998","0.30024963079570355","443"
"20:32:49:696 (H:m:s:ms)","GENERIC","155.351","0.3000903071790578","426"
"20:49:47:878 (H:m:s:ms)","GENERIC","125.575","0.34847485532517","1151"
"20:49:52:405 (H:m:s:ms)","OPERA","62.327","0.35104320599453465","615"
"20:32:55:757 (H:m:s:ms)","GENERIC","124.59","0.30131618357991796","372"
"20:49:53:939 (H:m:s:ms)","GENERIC","124.624","0.3526953325878249","1120"
"20:33:1:818 (H:m:s:ms)","GENERIC","93.185","0.30156738576269193","247"
"20:50:0:0 (H:m:s:ms)","OPERA","125.083","0.35263604283210953","1069"
"20:33:7:878 (H:m:s:ms)","GENERIC","157.334","0.3041316215070826","1186"
"20:50:0:0 (H:m:s:ms)","GENERIC","93.671","0.3522737893469411","1101"
"20:33:13:939 (H:m:s:ms)","GENERIC","125.255","0.30219894525111596","1144"
"20:50:0:0 (H:m:s:ms)","GENERIC","93.876","0.35132813686483466","1137"
"20:33:20:0 (H:m:s:ms)","GENERIC","187.408","0.3016284462916869","1083"
"20:50:6:60 (H:m:s:ms)","GENERIC","125.346","0.3507613197981252","972"
"20:33:26:60 (H:m:s:ms)","GENERIC","124.59299999999999","0.30074317872935946","1043"
"20:50:12:121 (H:m:s:ms)","GENERIC","124.182","0.34937325867234986","942"
"20:33:32:121 (H:m:s:ms)","GENERIC","125.596","0.3006254245824192","916"
"20:50:18:181 (H:m:s:ms)","GENERIC","124.24199999999999","0.3484515398567009","878"
"20:33:38:181 (H:m:s:ms)","GENERIC","124.656","0.29680003818857753","917"
"20:50:24:242 (H:m:s:ms)","GENERIC","156.99599999999998","0.34512478234187355","824"
"20:33:44:242 (H:m:s:ms)","GENERIC","155.801","0.29762691073315506","831"
"20:33:50:303 (H:m:s:ms)","GENERIC","93.846","0.29796378637832127","750"
"20:50:30:303 (H:m:s:ms)","GENERIC","124.408","0.34507515277568906","753"
"20:50:36:363 (H:m:s:ms)","GENERIC","125.35300000000001","0.34445675691483907","688"
"20:33:56:363 (H:m:s:ms)","GENERIC","124.614","0.2984194728791015","671"
"20:50:42:424 (H:m:s:ms)","GENERIC","125.112","0.3452066471131993","640"
"20:34:2:424 (H:m:s:ms)","GENERIC","125.57300000000001","0.2975266713237179","625"
"20:50:48:484 (H:m:s:ms)","GENERIC","124.757","0.34765166213756027","587"
"20:10:0:0 (H:m:s:ms)","GENERIC","94.599","0.31547080171187336","1037"
"20:34:8:484 (H:m:s:ms)","GENERIC","124.155","0.29629807157012866","572"
"20:50:54:545 (H:m:s:ms)","GENERIC","155.908","0.3489052861675827","490"
"20:10:0:0 (H:m:s:ms)","GENERIC","156.846","0.31941597185616855","1179"
"20:34:14:545 (H:m:s:ms)","GENERIC","124.726","0.29896197740876235","507"
"20:51:0:606 (H:m:s:ms)","GENERIC","124.424","0.34567545794074506","422"
"20:10:6:60 (H:m:s:ms)","GENERIC","125.3","0.3159698274238135","1003"
"20:34:20:606 (H:m:s:ms)","GENERIC","125.54400000000001","0.3024418929585039","458"
"20:51:6:666 (H:m:s:ms)","GENERIC","156.33","0.34450204227196485","389"
"20:10:12:121 (H:m:s:ms)","GENERIC","155.204","0.31602412411302044","948"
"20:34:26:666 (H:m:s:ms)","GENERIC","93.842","0.3023539142775632","347"
"20:51:12:727 (H:m:s:ms)","GENERIC","125.435","0.3460906620441642","368"
"20:10:18:181 (H:m:s:ms)","GENERIC","93.147","0.3158786673560062","882"
"20:34:32:727 (H:m:s:ms)","GENERIC","125.601","0.30306342219281496","316"
"20:51:18:787 (H:m:s:ms)","GENERIC","155.794","0.346791385560232","277"
"20:10:24:242 (H:m:s:ms)","GENERIC","125.27000000000001","0.31585206207796274","838"
"20:34:38:787 (H:m:s:ms)","GENERIC","155.38","0.3063230716078265","312"
"20:51:24:848 (H:m:s:ms)","GENERIC","124.77199999999999","0.3450554281081021","181"
"20:10:30:303 (H:m:s:ms)","GENERIC","124.38900000000001","0.3166584353262115","766"
"20:34:44:848 (H:m:s:ms)","GENERIC","124.25999999999999","0.30392787967385343","208"
"20:10:36:363 (H:m:s:ms)","GENERIC","93.761","0.31950693606341485","725"
"20:34:50:909 (H:m:s:ms)","GENERIC","93.779","0.3028809343656597","1136"
"20:10:42:424 (H:m:s:ms)","GENERIC","93.80199999999999","0.3184052568975732","661"
"20:10:48:484 (H:m:s:ms)","GENERIC","124.769","0.31851211944687136","595"
"20:51:30:909 (H:m:s:ms)","GENERIC","93.579","0.3442019446992025","1138"
"20:51:36:969 (H:m:s:ms)","GENERIC","124.991","0.345396773609376","1111"
"20:34:56:969 (H:m:s:ms)","GENERIC","124.56200000000001","0.30338906279650585","1106"
"20:51:43:30 (H:m:s:ms)","GENERIC","156.16","0.34192225498405115","1066"
"20:35:3:30 (H:m:s:ms)","GENERIC","156.125","0.3009702699238603","1050"
"20:51:49:90 (H:m:s:ms)","GENERIC","93.685","0.3406649151226033","1007"
"20:10:54:545 (H:m:s:ms)","GENERIC","124.631","0.31530477291999776","555"
"20:35:9:90 (H:m:s:ms)","GENERIC","93.322","0.3011259972133467","990"
"20:51:55:151 (H:m:s:ms)","GENERIC","125.163","0.3414058076894759","957"
"20:11:0:606 (H:m:s:ms)","GENERIC","124.51","0.3149773487271047","446"
"20:35:15:151 (H:m:s:ms)","GENERIC","93.495","0.2996409937825596","983"
"20:52:1:212 (H:m:s:ms)","GENERIC","93.513","0.34003731839564877","833"
"20:11:6:666 (H:m:s:ms)","GENERIC","125.037","0.31521541474353854","449"
"20:35:21:212 (H:m:s:ms)","GENERIC","124.70400000000001","0.3026900392929931","852"
"20:52:7:272 (H:m:s:ms)","GENERIC","124.564","0.340038344338707","751"
"20:11:12:727 (H:m:s:ms)","GENERIC","93.80799999999999","0.3137227073740889","330"
"20:35:27:272 (H:m:s:ms)","GENERIC","124.99600000000001","0.30274752266281196","819"
"20:52:13:333 (H:m:s:ms)","GENERIC","93.619","0.3417194101384287","734"
"20:11:18:787 (H:m:s:ms)","GENERIC","124.596","0.3138261550806026","271"
"20:35:33:333 (H:m:s:ms)","GENERIC","125.03800000000001","0.30428763656129504","748"
"20:52:19:393 (H:m:s:ms)","GENERIC","124.231","0.34116725360921174","754"
"20:11:24:848 (H:m:s:ms)","GENERIC","124.746","0.31285965542356886","204"
"20:35:39:393 (H:m:s:ms)","GENERIC","156.703","0.306927156294202","697"
"20:52:25:454 (H:m:s:ms)","GENERIC","125.49199999999999","0.3422086053493199","610"
"20:11:30:909 (H:m:s:ms)","GENERIC","93.594","0.3108536967299921","1146"
"20:35:45:454 (H:m:s:ms)","GENERIC","156.72","0.30838747356520074","610"
"20:11:36:969 (H:m:s:ms)","GENERIC","125.024","0.3096396980452334","1110"
"20:35:51:515 (H:m:s:ms)","GENERIC","125.649","0.3084315341741997","521"
"20:11:43:30 (H:m:s:ms)","GENERIC","124.839","0.3086170574878078","1037"
"20:11:49:90 (H:m:s:ms)","GENERIC","125.21199999999999","0.3103422034368468","1059"
"20:0:54:545 (H:m:s:ms)","GENERIC","124.925","0.15707769057012338","600"
"20:1:0:606 (H:m:s:ms)","GENERIC","62.242000000000004","0.15979851622383012","509"
"20:1:6:666 (H:m:s:ms)","GENERIC","94.33","0.16144091443015196","458"
"20:1:12:727 (H:m:s:ms)","GENERIC","94.524","0.16688693035352836","363"
"20:1:18:787 (H:m:s:ms)","GENERIC","93.636","0.1720722212193529","324"
"20:1:24:848 (H:m:s:ms)","GENERIC","125.032","0.1777607556969184","259"
"20:1:30:909 (H:m:s:ms)","GENERIC","94.012","0.1788670718798015","1150"
"20:1:36:969 (H:m:s:ms)","GENERIC","93.946","0.1826311628033705","1119"
"20:1:43:30 (H:m:s:ms)","GENERIC","93.81700000000001","0.1944372169335035","1043"
"20:1:49:90 (H:m:s:ms)","GENERIC","125.785","0.19837422074214883","1035"
"20:35:57:575 (H:m:s:ms)","GENERIC","125.569","0.30683701250896134","527"
"20:36:3:636 (H:m:s:ms)","GENERIC","125.269","0.3067294195336349","462"
"20:11:55:151 (H:m:s:ms)","GENERIC","125.219","0.30804857988460044","982"
"20:36:9:696 (H:m:s:ms)","GENERIC","93.519","0.3064649914191114","415"
"20:12:1:212 (H:m:s:ms)","GENERIC","124.807","0.3089521615382138","861"
"20:36:15:757 (H:m:s:ms)","GENERIC","155.729","0.305964492942643","360"
"20:12:7:272 (H:m:s:ms)","GENERIC","124.693","0.3089645267347821","773"
"20:36:21:818 (H:m:s:ms)","GENERIC","125.533","0.3061988359032982","220"
"20:12:13:333 (H:m:s:ms)","GENERIC","156.66500000000002","0.31010110509684935","756"
"20:36:27:878 (H:m:s:ms)","GENERIC","157.011","0.30411155842095194","1220"
"20:12:19:393 (H:m:s:ms)","GENERIC","124.184","0.3095724666769781","746"
"20:36:33:939 (H:m:s:ms)","GENERIC","125.051","0.30580478928865185","1110"
"20:12:25:454 (H:m:s:ms)","GENERIC","125.571","0.308571070592781","625"
"20:36:40:0 (H:m:s:ms)","GENERIC","124.537","0.3124106491000832","1102"
"20:12:31:515 (H:m:s:ms)","GENERIC","125.107","0.3077676967288208","534"
"20:36:46:60 (H:m:s:ms)","GENERIC","124.869","0.3128392190868227","1025"
"20:12:37:575 (H:m:s:ms)","GENERIC","93.771","0.30812269061817316","525"
"20:36:52:121 (H:m:s:ms)","GENERIC","125.524","0.31359888534255753","918"
"20:12:43:636 (H:m:s:ms)","GENERIC","155.972","0.31126669629411646","398"
"20:12:49:696 (H:m:s:ms)","GENERIC","155.302","0.3110325358991376","461"
"20:1:55:151 (H:m:s:ms)","GENERIC","125.79599999999999","0.20361884831589705","965"
"20:2:1:212 (H:m:s:ms)","GENERIC","93.797","0.20861056185172788","863"
"20:2:7:272 (H:m:s:ms)","GENERIC","124.947","0.21447333057110363","822"
"20:2:13:333 (H:m:s:ms)","GENERIC","94.092","0.21768353261337064","794"
"20:2:19:393 (H:m:s:ms)","GENERIC","93.287","0.22040345574940315","719"
"20:2:25:454 (H:m:s:ms)","GENERIC","94.364","0.22582379239827854","657"
"20:2:31:515 (H:m:s:ms)","GENERIC","94.08","0.2291640916229024","606"
"20:2:37:575 (H:m:s:ms)","GENERIC","94.447","0.23336925332648034","543"
"20:2:43:636 (H:m:s:ms)","GENERIC","124.857","0.23715726844198198","469"
"20:2:49:696 (H:m:s:ms)","GENERIC","93.21799999999999","0.2417236273496706","469"
"20:36:58:181 (H:m:s:ms)","GENERIC","93.201","0.3135444476510824","873"
"20:37:4:242 (H:m:s:ms)","GENERIC","155.668","0.3118883483334262","834"
"20:12:55:757 (H:m:s:ms)","GENERIC","93.286","0.31275522340379486","267"
"20:37:10:303 (H:m:s:ms)","GENERIC","124.60300000000001","0.3129973355753452","804"
"20:13:1:818 (H:m:s:ms)","GENERIC","124.38900000000001","0.3119594195111448","271"
"20:37:16:363 (H:m:s:ms)","GENERIC","124.28399999999999","0.31468017463997877","703"
"20:13:7:878 (H:m:s:ms)","GENERIC","125.59","0.3119188809910693","1183"
"20:37:22:424 (H:m:s:ms)","GENERIC","156.982","0.3169978364666204","638"
"20:13:13:939 (H:m:s:ms)","GENERIC","156.849","0.3116480644614385","1143"
"20:37:28:484 (H:m:s:ms)","GENERIC","124.689","0.31654789582899684","606"
"20:13:20:0 (H:m:s:ms)","GENERIC","93.37299999999999","0.31281359460700037","1111"
"20:37:34:545 (H:m:s:ms)","GENERIC","124.43","0.31479607105189966","523"
"20:13:26:60 (H:m:s:ms)","GENERIC","124.548","0.31165229272188905","1047"
"20:37:40:606 (H:m:s:ms)","GENERIC","157.01","0.3164437532900768","468"
"20:13:32:121 (H:m:s:ms)","GENERIC","125.577","0.31370739136442993","916"
"20:37:46:666 (H:m:s:ms)","GENERIC","156.78","0.31353584531257656","435"
"20:13:38:181 (H:m:s:ms)","GENERIC","124.733","0.31517422850706384","883"
"20:37:52:727 (H:m:s:ms)","GENERIC","125.549","0.31543260491772984","313"
"20:13:44:242 (H:m:s:ms)","GENERIC","124.507","0.3168555233125501","848"
"20:13:50:303 (H:m:s:ms)","GENERIC","93.818","0.316138328138212","760"
"20:2:55:757 (H:m:s:ms)","GENERIC","62.277","0.24622768119483912","331"
"20:3:1:818 (H:m:s:ms)","GENERIC","93.291","0.24908438444584483","295"
"20:3:7:878 (H:m:s:ms)","GENERIC","62.81","0.252137671977671","150"
"20:3:13:939 (H:m:s:ms)","GENERIC","94.193","0.25678057192860193","1167"
"20:3:20:0 (H:m:s:ms)","GENERIC","93.633","0.2589307188613429","1101"
"20:3:26:60 (H:m:s:ms)","GENERIC","93.471","0.2620239792657481","1061"
"20:3:32:121 (H:m:s:ms)","GENERIC","94.53399999999999","0.26583637381730796","939"
"20:3:38:181 (H:m:s:ms)","GENERIC","125.081","0.2688060069140076","897"
"20:3:44:242 (H:m:s:ms)","GENERIC","124.719","0.2702139213922253","863"
"20:3:50:303 (H:m:s:ms)","GENERIC","94.464","0.27264191148423383","774"
"20:37:58:787 (H:m:s:ms)","GENERIC","124.824","0.31559169467683373","259"
"20:38:4:848 (H:m:s:ms)","GENERIC","125.20400000000001","0.3153399452552838","232"
"20:13:56:363 (H:m:s:ms)","GENERIC","93.314","0.31449870732434715","683"
"20:38:10:909 (H:m:s:ms)","GENERIC","156.712","0.3106280962239752","1170"
"20:14:2:424 (H:m:s:ms)","GENERIC","125.598","0.3120323038612117","593"
"20:38:16:969 (H:m:s:ms)","GENERIC","124.503","0.3119222732351941","1116"
"20:14:8:484 (H:m:s:ms)","GENERIC","124.202","0.31224602016112435","566"
"20:38:23:30 (H:m:s:ms)","GENERIC","93.133","0.30973722775509854","1054"
"20:14:14:545 (H:m:s:ms)","GENERIC","156.159","0.31280973469728257","518"
"20:38:29:90 (H:m:s:ms)","GENERIC","155.672","0.30937169480837323","1020"
"20:14:20:606 (H:m:s:ms)","GENERIC","93.85300000000001","0.3129260789447648","422"
"20:38:35:151 (H:m:s:ms)","GENERIC","93.217","0.3060668002961946","909"
"20:14:26:666 (H:m:s:ms)","GENERIC","125.588","0.31189952860094433","404"
"20:38:41:212 (H:m:s:ms)","GENERIC","124.241","0.30745754536123016","849"
"20:14:32:727 (H:m:s:ms)","GENERIC","93.782","0.30885789331913555","324"
"20:38:47:272 (H:m:s:ms)","GENERIC","124.86099999999999","0.3101680906722315","790"
"20:14:38:787 (H:m:s:ms)","GENERIC","124.378","0.3067996773468944","319"
"20:38:53:333 (H:m:s:ms)","GENERIC","125.35300000000001","0.31138293665348793","775"
"20:14:44:848 (H:m:s:ms)","GENERIC","155.44799999999998","0.3081756362237916","231"
"20:14:50:909 (H:m:s:ms)","GENERIC","125.48400000000001","0.3104587930196319","1168"
"20:3:56:363 (H:m:s:ms)","GENERIC","93.563","0.27384595564758923","718"
"20:4:2:424 (H:m:s:ms)","GENERIC","62.794","0.27561772687197567","602"
"20:4:8:484 (H:m:s:ms)","GENERIC","124.14099999999999","0.2774551805332516","580"
"20:4:14:545 (H:m:s:ms)","GENERIC","93.735","0.281115129823112","559"
"20:4:20:606 (H:m:s:ms)","GENERIC","94.522","0.28288632022907834","430"
"20:4:26:666 (H:m:s:ms)","GENERIC","62.790000000000006","0.28507002657058406","364"
"20:4:32:727 (H:m:s:ms)","GENERIC","94.544","0.2873206154952315","341"
"20:4:38:787 (H:m:s:ms)","GENERIC","93.23400000000001","0.2928113867067236","325"
"20:4:44:848 (H:m:s:ms)","GENERIC","93.262","0.29364810051476803","256"
"20:4:50:909 (H:m:s:ms)","GENERIC","94.423","0.29554107784971406","1166"
"20:38:59:393 (H:m:s:ms)","GENERIC","156.91400000000002","0.31332264142774446","721"
"20:39:5:454 (H:m:s:ms)","GENERIC","124.761","0.3114059047607275","608"
"20:14:56:969 (H:m:s:ms)","GENERIC","124.608","0.30839093910161774","1113"
"20:39:11:515 (H:m:s:ms)","GENERIC","156.381","0.31237714147268997","566"
"20:15:3:30 (H:m:s:ms)","GENERIC","124.80799999999999","0.3032562334749716","1053"
"20:39:17:575 (H:m:s:ms)","GENERIC","125.645","0.3077097211417971","471"
"20:15:9:90 (H:m:s:ms)","GENERIC","124.47200000000001","0.3023237694646817","1001"
"20:39:23:636 (H:m:s:ms)","GENERIC","124.7","0.30869819656651737","449"
"20:15:15:151 (H:m:s:ms)","GENERIC","125.15","0.3002453037917695","926"
"20:39:29:696 (H:m:s:ms)","GENERIC","124.773","0.3086882913718277","418"
"20:15:21:212 (H:m:s:ms)","GENERIC","124.67699999999999","0.30307197780458794","879"
"20:39:35:757 (H:m:s:ms)","GENERIC","124.80199999999999","0.3105025267412741","311"
"20:15:27:272 (H:m:s:ms)","GENERIC","124.91499999999999","0.30215794845923866","841"
"20:39:41:818 (H:m:s:ms)","GENERIC","93.625","0.3080559656986576","309"
"20:15:33:333 (H:m:s:ms)","GENERIC","93.505","0.3012064763479822","758"
"20:39:47:878 (H:m:s:ms)","GENERIC","125.57900000000001","0.30761511462679575","1174"
"20:15:39:393 (H:m:s:ms)","GENERIC","156.742","0.3025903828079469","710"
"20:39:53:939 (H:m:s:ms)","GENERIC","93.334","0.3084111028421892","1111"
"20:15:45:454 (H:m:s:ms)","GENERIC","156.656","0.30145016620971354","611"
"20:15:51:515 (H:m:s:ms)","GENERIC","125.59","0.3021130952399301","519"
"20:4:56:969 (H:m:s:ms)","GENERIC","124.83000000000001","0.2988070823701094","1104"
"20:5:3:30 (H:m:s:ms)","GENERIC","125.17200000000001","0.2992199374430932","1060"
"20:5:9:90 (H:m:s:ms)","GENERIC","124.70100000000001","0.2975966258234626","1002"
"20:5:15:151 (H:m:s:ms)","GENERIC","94.08","0.29691695214061653","931"
"20:5:21:212 (H:m:s:ms)","GENERIC","93.715","0.29619713451305646","872"
"20:5:27:272 (H:m:s:ms)","GENERIC","93.926","0.29788104412801714","840"
"20:5:33:333 (H:m:s:ms)","GENERIC","93.985","0.297884952059883","764"
"20:5:39:393 (H:m:s:ms)","GENERIC","94.029","0.29615557735993","716"
"20:5:45:454 (H:m:s:ms)","GENERIC","62.547","0.2967776996040662","621"
"20:5:51:515 (H:m:s:ms)","GENERIC","94.55","0.29924959187413525","591"
"20:15:57:575 (H:m:s:ms)","GENERIC","125.531","0.30246302125868146","521"
"20:16:3:636 (H:m:s:ms)","GENERIC","93.669","0.3024417246454842","429"
"20:16:9:696 (H:m:s:ms)","GENERIC","156.235","0.30499143280040436","441"
"20:16:15:757 (H:m:s:ms)","GENERIC","124.52799999999999","0.3053518161523637","355"
"20:16:21:818 (H:m:s:ms)","GENERIC","125.55199999999999","0.30646592967237357","236"
"20:16:27:878 (H:m:s:ms)","GENERIC","125.25399999999999","0.3038825454883886","1220"
"20:16:33:939 (H:m:s:ms)","GENERIC","93.52799999999999","0.3040677590562188","1114"
"20:16:40:0 (H:m:s:ms)","GENERIC","124.435","0.30515548904025064","1116"
"20:16:46:60 (H:m:s:ms)","GENERIC","124.769","0.3037865580985047","1026"
"20:16:52:121 (H:m:s:ms)","GENERIC","125.593","0.30501934818398335","917"
"20:5:57:575 (H:m:s:ms)","GENERIC","94.447","0.29553486044537264","526"
"20:6:3:636 (H:m:s:ms)","GENERIC","94.228","0.2975750518937821","450"
"20:6:9:696 (H:m:s:ms)","GENERIC","93.862","0.2994117479423727","433"
"20:6:15:757 (H:m:s:ms)","GENERIC","124.65199999999999","0.2973878884410133","389"
"20:6:21:818 (H:m:s:ms)","GENERIC","126.24000000000001","0.30112019999705414","249"
"20:6:27:878 (H:m:s:ms)","GENERIC","94.259","0.30246484900192383","226"
"20:6:33:939 (H:m:s:ms)","GENERIC","125.452","0.3054743433498593","1125"
"20:6:40:0 (H:m:s:ms)","GENERIC","93.40100000000001","0.30766885943238476","1044"
"20:6:46:60 (H:m:s:ms)","GENERIC","93.81","0.307276149165265","1035"
"20:6:52:121 (H:m:s:ms)","GENERIC","94.48599999999999","0.307924909137503","921"
"20:16:58:181 (H:m:s:ms)","GENERIC","155.661","0.3078847911718633","881"
"20:17:4:242 (H:m:s:ms)","GENERIC","124.432","0.3093216257079008","831"
"20:17:10:303 (H:m:s:ms)","GENERIC","155.87400000000002","0.3082477904518932","803"
"20:17:16:363 (H:m:s:ms)","GENERIC","155.486","0.30939687983649417","707"
"20:17:22:424 (H:m:s:ms)","GENERIC","125.38","0.3129638195865245","623"
"20:17:28:484 (H:m:s:ms)","GENERIC","156.05599999999998","0.3144554790550484","591"
"20:17:34:545 (H:m:s:ms)","GENERIC","124.583","0.31213297439280335","525"
"20:17:40:606 (H:m:s:ms)","GENERIC","93.63","0.3117023604723984","491"
"20:17:46:666 (H:m:s:ms)","GENERIC","125.25999999999999","0.31014355746852157","413"
"20:17:52:727 (H:m:s:ms)","GENERIC","125.537","0.3114000413969283","326"
"20:6:58:181 (H:m:s:ms)","GENERIC","62.216","0.30785462947724845","883"
"20:7:4:242 (H:m:s:ms)","GENERIC","62.216","0.3050353064843622","830"
"20:7:10:303 (H:m:s:ms)","GENERIC","62.333","0.30434924237459976","825"
"20:7:16:363 (H:m:s:ms)","GENERIC","93.30799999999999","0.3058918988891702","735"
"20:7:22:424 (H:m:s:ms)","GENERIC","94.351","0.308821058111204","683"
"20:7:28:484 (H:m:s:ms)","GENERIC","93.659","0.30908466053530587","624"
"20:7:34:545 (H:m:s:ms)","GENERIC","124.57900000000001","0.3111930946232353","587"
"20:7:40:606 (H:m:s:ms)","GENERIC","62.662","0.31193127786996594","599"
"20:7:46:666 (H:m:s:ms)","GENERIC","125.708","0.3137799991135065","502"
"20:7:52:727 (H:m:s:ms)","GENERIC","62.757999999999996","0.31218828895284184","391"
"20:17:58:787 (H:m:s:ms)","GENERIC","124.76599999999999","0.3101561902132458","291"
"20:18:4:848 (H:m:s:ms)","GENERIC","125.136","0.31234792060783007","238"
"20:18:10:909 (H:m:s:ms)","GENERIC","125.135","0.3100190041028986","1179"
"20:18:16:969 (H:m:s:ms)","GENERIC","124.429","0.3118043529089443","1091"
"20:18:23:30 (H:m:s:ms)","GENERIC","124.256","0.3108078869892158","1046"
"20:18:29:90 (H:m:s:ms)","GENERIC","155.633","0.3122468164420723","1017"
"20:18:35:151 (H:m:s:ms)","GENERIC","93.154","0.3079290437309942","908"
"20:18:41:212 (H:m:s:ms)","GENERIC","93.143","0.30702397546464194","850"
"20:18:47:272 (H:m:s:ms)","GENERIC","93.177","0.30466225373943445","804"
"20:18:53:333 (H:m:s:ms)","GENERIC","125.47","0.3038942273180071","724"
"20:7:58:787 (H:m:s:ms)","GENERIC","93.733","0.311658952863627","330"
"20:8:4:848 (H:m:s:ms)","GENERIC","94.217","0.31160901424297144","282"
"20:8:10:909 (H:m:s:ms)","GENERIC","94.132","0.310811593754245","1226"
"20:8:16:969 (H:m:s:ms)","GENERIC","93.477","0.3092551030514929","1133"
"20:8:23:30 (H:m:s:ms)","GENERIC","93.159","0.31010185930574374","1092"
"20:8:29:90 (H:m:s:ms)","GENERIC","93.488","0.3114833117515877","1051"
"20:8:35:151 (H:m:s:ms)","GENERIC","62.165","0.30926436500640747","950"
"20:8:41:212 (H:m:s:ms)","GENERIC","62.07","0.3100870172708641","869"
"20:8:47:272 (H:m:s:ms)","GENERIC","93.404","0.3115477756484687","807"
"20:8:53:333 (H:m:s:ms)","GENERIC","94.446","0.3116665986865093","720"
"20:18:59:393 (H:m:s:ms)","GENERIC","125.30199999999999","0.30403914030743057","734"
"20:19:5:454 (H:m:s:ms)","GENERIC","124.799","0.307736760258326","614"
"20:19:11:515 (H:m:s:ms)","GENERIC","125.041","0.30898816949771296","702"
"20:19:17:575 (H:m:s:ms)","GENERIC","93.883","0.3081458164319507","473"
"20:19:23:636 (H:m:s:ms)","GENERIC","156.051","0.30788075547189686","462"
"20:19:29:696 (H:m:s:ms)","GENERIC","124.644","0.30803305117756835","416"
"20:19:35:757 (H:m:s:ms)","GENERIC","124.493","0.3102155910990411","307"
"20:19:41:818 (H:m:s:ms)","GENERIC","125.298","0.3096420040717907","258"
"20:19:47:878 (H:m:s:ms)","GENERIC","125.51400000000001","0.30953574375792714","1196"
"20:19:53:939 (H:m:s:ms)","GENERIC","124.564","0.30835510703961133","1132"
"20:8:59:393 (H:m:s:ms)","GENERIC","94.30799999999999","0.3145318953397619","773"
"20:9:5:454 (H:m:s:ms)","GENERIC","62.367","0.315137285783111","617"
"20:9:11:515 (H:m:s:ms)","GENERIC","94.482","0.3152490813254514","545"
"20:9:17:575 (H:m:s:ms)","GENERIC","94.525","0.3153397779189365","469"
"20:9:23:636 (H:m:s:ms)","GENERIC","93.62899999999999","0.3140188703616904","458"
"20:9:29:696 (H:m:s:ms)","GENERIC","62.355000000000004","0.3133077950455569","428"
"20:9:35:757 (H:m:s:ms)","GENERIC","124.754","0.31544459164070093","309"
"20:9:41:818 (H:m:s:ms)","GENERIC","94.29","0.31272982246152947","276"
"20:9:47:878 (H:m:s:ms)","GENERIC","94.538","0.3147933766260432","146"
"20:9:53:939 (H:m:s:ms)","GENERIC","93.646","0.3153467877304598","1142"
"21:41:24:848 (H:m:s:ms)","GENERIC","124.566","0.38247925812151845","202"
"21:41:18:787 (H:m:s:ms)","GENERIC","93.27199999999999","0.3880458728713508","241"
"21:41:12:727 (H:m:s:ms)","GENERIC","125.44800000000001","0.39398997258743856","353"
"21:41:6:666 (H:m:s:ms)","GENERIC","124.989","0.39430863219669426","456"
"21:41:0:606 (H:m:s:ms)","GENERIC","124.87","0.3934255946216307","441"
"21:40:54:545 (H:m:s:ms)","GENERIC","155.873","0.39482394991275693","555"
"21:40:48:484 (H:m:s:ms)","GENERIC","93.341","0.3922108943046666","573"
"21:41:43:30 (H:m:s:ms)","GENERIC","156.145","0.38380067107060056","1027"
"21:41:36:969 (H:m:s:ms)","GENERIC","93.646","0.38321599274695767","1111"
"21:41:30:909 (H:m:s:ms)","GENERIC","93.537","0.3803926277257118","1146"
