"time (H:m:s:ms)","type","latency","utilisation","waiting"
"21:42:7:272 (H:m:s:ms)","GENERIC","62.107","0.25794840868849633","776"
"21:41:49:90 (H:m:s:ms)","GENERIC","93.184","0.2649857497612143","1029"
"21:41:43:30 (H:m:s:ms)","GENERIC","93.495","0.26519435723071033","1020"
"21:41:36:969 (H:m:s:ms)","GENERIC","124.618","0.2603139401989888","1084"
"21:41:30:909 (H:m:s:ms)","GENERIC","125.269","0.26017320736631655","1139"
"21:41:24:848 (H:m:s:ms)","GENERIC","93.77199999999999","0.25996399393074743","205"
"21:41:18:787 (H:m:s:ms)","GENERIC","93.22999999999999","0.2602485370595297","273"
"21:41:12:727 (H:m:s:ms)","GENERIC","125.257","0.258803143519183","325"
"21:41:6:666 (H:m:s:ms)","GENERIC","125.47800000000001","0.25776316915971553","376"
"21:42:1:212 (H:m:s:ms)","GENERIC","124.51599999999999","0.25998931781207","861"
"21:41:55:151 (H:m:s:ms)","GENERIC","93.791","0.2610601965735044","925"
"21:43:13:939 (H:m:s:ms)","GENERIC","124.25800000000001","0.24700962431520357","1115"
"21:43:7:878 (H:m:s:ms)","GENERIC","124.867","0.2470825773486256","1189"
"21:42:55:757 (H:m:s:ms)","GENERIC","124.447","0.2466827289616624","304"
"20:0:0:0 (H:m:s:ms)","GENERIC","93.374","0.04260892457397171","2535"
"21:42:49:696 (H:m:s:ms)","GENERIC","125.52000000000001","0.24874558325035964","372"
"20:0:6:60 (H:m:s:ms)","GENERIC","62.382","0.0500526525233152","1019"
"21:42:43:636 (H:m:s:ms)","GENERIC","93.395","0.24874044983525118","420"
"20:0:12:121 (H:m:s:ms)","GENERIC","94.581","0.05991622724031287","924"
"21:42:37:575 (H:m:s:ms)","GENERIC","93.558","0.24978413750382866","469"
"20:0:18:181 (H:m:s:ms)","GENERIC","94.239","0.06393334726740334","892"
"21:42:31:515 (H:m:s:ms)","GENERIC","124.4","0.2519074744970771","540"
"20:0:24:242 (H:m:s:ms)","GENERIC","93.277","0.0683738163273546","834"
"21:42:25:454 (H:m:s:ms)","GENERIC","125.465","0.25157414384898713","604"
"20:0:30:303 (H:m:s:ms)","GENERIC","94.518","0.07907382584303722","758"
"21:42:19:393 (H:m:s:ms)","GENERIC","124.69300000000001","0.2575030480350924","701"
"20:0:36:363 (H:m:s:ms)","GENERIC","93.955","0.08195233607243407","711"
"21:42:13:333 (H:m:s:ms)","GENERIC","124.247","0.2590957915893343","734"
"20:0:42:424 (H:m:s:ms)","GENERIC","62.178","0.08486837535468188","648"
"21:10:6:60 (H:m:s:ms)","GENERIC","124.559","0.25905943949467336","998"
"20:0:48:484 (H:m:s:ms)","GENERIC","94.215","0.09067238004884938","550"
"21:10:12:121 (H:m:s:ms)","GENERIC","125.60499999999999","0.26017581914124394","896"
"21:10:18:181 (H:m:s:ms)","GENERIC","125.216","0.25830904575542357","879"
"21:10:24:242 (H:m:s:ms)","GENERIC","93.215","0.2582677464261541","827"
"21:10:30:303 (H:m:s:ms)","GENERIC","125.604","0.26209269494003795","721"
"21:10:36:363 (H:m:s:ms)","GENERIC","124.893","0.2640892659428281","677"
"21:10:42:424 (H:m:s:ms)","GENERIC","124.247","0.2652060814582335","641"
"21:10:48:484 (H:m:s:ms)","GENERIC","93.65","0.26965640487761877","547"
"21:43:1:818 (H:m:s:ms)","GENERIC","124.402","0.24732975710949776","243"
"21:10:54:545 (H:m:s:ms)","GENERIC","93.835","0.267581666654323","483"
"21:11:0:606 (H:m:s:ms)","GENERIC","125.03999999999999","0.26855652057809093","435"
"21:25:39:393 (H:m:s:ms)","GENERIC","125.096","0.3282055775128897","683"
"21:44:20:606 (H:m:s:ms)","GENERIC","93.896","0.2518598057364486","407"
"21:44:14:545 (H:m:s:ms)","GENERIC","124.674","0.25201016727557285","502"
"21:44:8:484 (H:m:s:ms)","GENERIC","93.524","0.25272934408594655","547"
"21:44:2:424 (H:m:s:ms)","GENERIC","124.67099999999999","0.2528978736062103","622"
"21:43:56:363 (H:m:s:ms)","GENERIC","125.082","0.24795239186248852","687"
"21:43:50:303 (H:m:s:ms)","GENERIC","125.532","0.24721570223916187","743"
"21:43:44:242 (H:m:s:ms)","GENERIC","124.837","0.25029223174135395","821"
"21:43:38:181 (H:m:s:ms)","GENERIC","93.86500000000001","0.24813675824470238","831"
"21:43:32:121 (H:m:s:ms)","GENERIC","93.639","0.2501376732107948","942"
"21:43:26:60 (H:m:s:ms)","GENERIC","93.705","0.2524253174406655","987"
"21:11:6:666 (H:m:s:ms)","GENERIC","93.898","0.2684891181765296","346"
"21:43:20:0 (H:m:s:ms)","GENERIC","125.43100000000001","0.24949749652972944","1094"
"21:11:12:727 (H:m:s:ms)","GENERIC","125.36","0.2677067686318573","322"
"21:11:18:787 (H:m:s:ms)","GENERIC","62.103","0.2687141282262792","276"
"21:11:24:848 (H:m:s:ms)","GENERIC","93.769","0.268168994803278","204"
"21:11:30:909 (H:m:s:ms)","GENERIC","125.188","0.26560510774680984","1143"
"21:11:36:969 (H:m:s:ms)","GENERIC","93.247","0.2645855617329722","1086"
"21:11:43:30 (H:m:s:ms)","GENERIC","124.854","0.26491798324660165","1028"
"21:11:49:90 (H:m:s:ms)","GENERIC","93.156","0.2645649742105499","1002"
"21:11:55:151 (H:m:s:ms)","GENERIC","93.196","0.2611054057945942","912"
"21:12:1:212 (H:m:s:ms)","GENERIC","124.57499999999999","0.25990164477928657","846"
"21:26:15:757 (H:m:s:ms)","GENERIC","93.31700000000001","0.3309134933496162","276"
"21:45:27:272 (H:m:s:ms)","GENERIC","93.697","0.25442901774100285","784"
"21:26:12:151 (H:m:s:ms)","OPERA","124.662","0.32997740231094685","848"
"21:45:21:212 (H:m:s:ms)","GENERIC","93.184","0.2547427794719709","844"
"21:45:15:151 (H:m:s:ms)","GENERIC","93.404","0.2538685367253373","881"
"21:45:9:90 (H:m:s:ms)","GENERIC","93.372","0.25687135896328933","1001"
"21:30:1:0 (H:m:s:ms)","OPERA","93.363","0.30528342953876314","1954"
"21:26:3:636 (H:m:s:ms)","GENERIC","124.513","0.32874711696425557","389"
"21:45:3:30 (H:m:s:ms)","GENERIC","93.45400000000001","0.25551420524606355","1023"
"21:30:1:0 (H:m:s:ms)","GENERIC","93.50200000000001","0.3045159176185391","1932"
"21:44:56:969 (H:m:s:ms)","GENERIC","93.412","0.2555935044727052","1079"
"21:30:1:0 (H:m:s:ms)","OPERA","124.856","0.3020651252891204","2471"
"21:44:50:909 (H:m:s:ms)","GENERIC","93.829","0.2536925815890176","1128"
"21:25:51:515 (H:m:s:ms)","GENERIC","93.536","0.3289845463679723","526"
"21:44:44:848 (H:m:s:ms)","GENERIC","93.844","0.24941951081186234","173"
"21:30:1:0 (H:m:s:ms)","OPERA","93.42699999999999","0.2971350864066406","2018"
"21:44:38:787 (H:m:s:ms)","GENERIC","124.619","0.24683968842963616","256"
"21:12:7:272 (H:m:s:ms)","GENERIC","124.571","0.26070402714181856","769"
"21:25:45:454 (H:m:s:ms)","GENERIC","125.249","0.32885326123728936","600"
"21:44:32:727 (H:m:s:ms)","GENERIC","124.417","0.2500975642467488","329"
"21:12:13:333 (H:m:s:ms)","GENERIC","124.231","0.2633032601023971","734"
"21:25:41:772 (H:m:s:ms)","OPERA","124.72200000000001","0.32981858488902727","289"
"21:44:26:666 (H:m:s:ms)","GENERIC","125.38300000000001","0.253216121213839","401"
"21:12:19:393 (H:m:s:ms)","GENERIC","124.602","0.2706719368171431","704"
"21:12:25:454 (H:m:s:ms)","GENERIC","125.40100000000001","0.2721248630237773","607"
"21:12:31:515 (H:m:s:ms)","GENERIC","93.251","0.27216830966751565","538"
"21:12:37:575 (H:m:s:ms)","GENERIC","125.098","0.27007165928051124","470"
"21:12:43:636 (H:m:s:ms)","GENERIC","93.381","0.269954223043876","393"
"21:12:49:696 (H:m:s:ms)","GENERIC","93.82499999999999","0.2720309913575051","373"
"21:12:55:757 (H:m:s:ms)","GENERIC","93.233","0.2706105042433486","300"
"21:13:1:818 (H:m:s:ms)","GENERIC","124.339","0.26756576390690556","238"
"21:26:9:696 (H:m:s:ms)","GENERIC","124.851","0.3272739020002419","383"
"21:26:52:121 (H:m:s:ms)","GENERIC","93.314","0.32231791296913753","890"
"21:46:33:939 (H:m:s:ms)","GENERIC","125.368","0.261054732463462","1122"
"21:26:50:126 (H:m:s:ms)","OPERA","124.571","0.32075276111334194","909"
"21:46:27:878 (H:m:s:ms)","GENERIC","93.42099999999999","0.26044657481428535","1195"
"21:26:46:60 (H:m:s:ms)","GENERIC","93.836","0.3199183669815927","981"
"21:46:21:818 (H:m:s:ms)","GENERIC","124.23","0.25885098063296275","220"
"21:46:15:757 (H:m:s:ms)","GENERIC","93.219","0.26038112888186","282"
"21:46:9:696 (H:m:s:ms)","GENERIC","124.80099999999999","0.25825962714466705","373"
"21:26:42:531 (H:m:s:ms)","OPERA","124.628","0.3250223229608621","484"
"21:26:40:0 (H:m:s:ms)","GENERIC","93.824","0.3226628138881481","1063"
"21:26:34:936 (H:m:s:ms)","OPERA","93.633","0.33019216757585923","1150"
"21:46:3:636 (H:m:s:ms)","GENERIC","93.365","0.25933858339908344","397"
"21:26:33:939 (H:m:s:ms)","GENERIC","125.269","0.3282263834290804","1118"
"21:45:57:575 (H:m:s:ms)","GENERIC","124.938","0.2601198904186424","482"
"21:30:1:0 (H:m:s:ms)","GENERIC","93.455","0.31264968910933794","2762"
"21:45:51:515 (H:m:s:ms)","GENERIC","124.966","0.26041170912458156","525"
"21:13:7:878 (H:m:s:ms)","GENERIC","93.461","0.26693143184723356","1173"
"21:30:1:0 (H:m:s:ms)","OPERA","93.471","0.31134871062071673","2272"
"21:45:45:454 (H:m:s:ms)","GENERIC","125.213","0.25794742553919264","608"
"21:13:13:939 (H:m:s:ms)","GENERIC","93.07","0.26845798992046865","1121"
"21:26:21:818 (H:m:s:ms)","GENERIC","124.279","0.3268706628254781","221"
"21:45:39:393 (H:m:s:ms)","GENERIC","93.55000000000001","0.2587246354177449","681"
"21:13:20:0 (H:m:s:ms)","GENERIC","125.334","0.26805019375239447","1096"
"21:30:1:0 (H:m:s:ms)","OPERA","124.652","0.31003960183175944","1887"
"21:45:33:333 (H:m:s:ms)","GENERIC","93.154","0.2604661629475889","717"
"21:13:26:60 (H:m:s:ms)","GENERIC","93.688","0.2637921492761121","977"
"21:13:32:121 (H:m:s:ms)","GENERIC","125.186","0.2639766487797588","942"
"21:13:38:181 (H:m:s:ms)","GENERIC","93.886","0.263418647502284","833"
"21:13:44:242 (H:m:s:ms)","GENERIC","124.749","0.263760320347819","819"
"21:13:50:303 (H:m:s:ms)","GENERIC","125.48400000000001","0.26061922597565984","755"
"21:13:56:363 (H:m:s:ms)","GENERIC","93.576","0.2610631682218436","687"
"21:14:2:424 (H:m:s:ms)","GENERIC","93.424","0.25814621476924354","625"
"21:27:28:484 (H:m:s:ms)","GENERIC","93.55499999999999","0.31510370896223494","638"
"21:47:40:606 (H:m:s:ms)","GENERIC","93.292","0.2607385762905058","450"
"21:27:28:101 (H:m:s:ms)","OPERA","124.82900000000001","0.3155341730362867","975"
"21:47:34:545 (H:m:s:ms)","GENERIC","93.761","0.26255521963345024","505"
"21:27:22:424 (H:m:s:ms)","GENERIC","93.37","0.31779058126740933","608"
"21:47:28:484 (H:m:s:ms)","GENERIC","124.999","0.26177695512354515","587"
"21:27:20:506 (H:m:s:ms)","OPERA","93.37","0.3180970279090169","525"
"21:47:22:424 (H:m:s:ms)","GENERIC","124.812","0.2616859386950057","611"
"21:47:16:363 (H:m:s:ms)","GENERIC","62.149","0.25853275730610603","642"
"21:47:10:303 (H:m:s:ms)","GENERIC","124.41","0.25680511448546994","743"
"21:27:16:363 (H:m:s:ms)","GENERIC","125.675","0.32359912284927794","654"
"21:27:12:911 (H:m:s:ms)","OPERA","124.751","0.32346884290114797","1150"
"21:27:10:303 (H:m:s:ms)","GENERIC","124.34700000000001","0.3217498269799831","739"
"21:47:4:242 (H:m:s:ms)","GENERIC","93.553","0.25714308423449417","796"
"21:14:8:484 (H:m:s:ms)","GENERIC","93.496","0.25778788668352987","551"
"21:30:1:0 (H:m:s:ms)","OPERA","124.787","0.29376158506842914","1928"
"21:46:58:181 (H:m:s:ms)","GENERIC","125.166","0.25815993554148925","853"
"21:14:14:545 (H:m:s:ms)","GENERIC","124.755","0.25925589248379366","501"
"21:27:4:242 (H:m:s:ms)","GENERIC","124.97800000000001","0.32284266523361665","788"
"21:46:52:121 (H:m:s:ms)","GENERIC","124.565","0.25793719327706777","935"
"20:52:7:272 (H:m:s:ms)","GENERIC","93.349","0.27984837579736377","769"
"21:14:20:606 (H:m:s:ms)","GENERIC","93.879","0.2540194635790343","407"
"21:26:58:181 (H:m:s:ms)","GENERIC","93.664","0.32345982366896386","854"
"21:46:46:60 (H:m:s:ms)","GENERIC","125.614","0.2580465931729094","991"
"20:52:13:333 (H:m:s:ms)","GENERIC","124.233","0.2793805133017707","731"
"21:14:26:666 (H:m:s:ms)","GENERIC","93.69200000000001","0.254756621900013","405"
"21:30:1:0 (H:m:s:ms)","OPERA","124.649","0.3195059846298685","2075"
"21:46:40:0 (H:m:s:ms)","GENERIC","125.491","0.25851892013155897","1073"
"20:52:19:393 (H:m:s:ms)","GENERIC","93.352","0.2793111507811705","702"
"21:14:32:727 (H:m:s:ms)","GENERIC","124.59100000000001","0.25385933162933955","333"
"20:52:25:454 (H:m:s:ms)","GENERIC","93.765","0.27477032717607086","599"
"21:14:38:787 (H:m:s:ms)","GENERIC","93.459","0.25468308604605566","263"
"20:52:31:515 (H:m:s:ms)","GENERIC","124.314","0.27535535442413056","523"
"21:14:44:848 (H:m:s:ms)","GENERIC","93.862","0.2566759418476959","160"
"20:52:37:575 (H:m:s:ms)","GENERIC","93.637","0.2735374475779736","462"
"21:14:50:909 (H:m:s:ms)","GENERIC","125.53200000000001","0.25112182967663793","1124"
"20:52:43:636 (H:m:s:ms)","GENERIC","93.458","0.27529368107535707","413"
"21:14:56:969 (H:m:s:ms)","GENERIC","93.848","0.25170525030437463","1055"
"20:52:49:696 (H:m:s:ms)","GENERIC","125.55199999999999","0.2751909619255263","375"
"21:15:3:30 (H:m:s:ms)","GENERIC","93.499","0.2535945333095572","1039"
"20:52:55:757 (H:m:s:ms)","GENERIC","124.343","0.2733414975229681","298"
"20:53:1:818 (H:m:s:ms)","GENERIC","93.257","0.27280392175830376","232"
"21:28:6:75 (H:m:s:ms)","OPERA","124.66499999999999","0.316671837112942","948"
"21:48:47:272 (H:m:s:ms)","GENERIC","125.65","0.25627092078835134","755"
"21:28:4:848 (H:m:s:ms)","GENERIC","125.175","0.31361610801123047","214"
"21:48:41:212 (H:m:s:ms)","GENERIC","124.499","0.2571120428475939","849"
"21:27:58:787 (H:m:s:ms)","GENERIC","125.57","0.31639985612113897","268"
"21:48:35:151 (H:m:s:ms)","GENERIC","93.504","0.2577348034208703","874"
"21:30:1:0 (H:m:s:ms)","OPERA","93.446","0.3066524337211961","2051"
"21:48:29:90 (H:m:s:ms)","GENERIC","93.394","0.2566111548113984","1004"
"21:27:52:727 (H:m:s:ms)","GENERIC","93.289","0.31884280042685104","272"
"21:48:23:30 (H:m:s:ms)","GENERIC","93.666","0.25518977179503544","1026"
"21:48:16:969 (H:m:s:ms)","GENERIC","62.107","0.25892083765798096","1053"
"21:48:10:909 (H:m:s:ms)","GENERIC","93.89","0.261955713352882","1115"
"21:27:50:886 (H:m:s:ms)","OPERA","124.62100000000001","0.3174223032992179","1154"
"21:15:9:90 (H:m:s:ms)","GENERIC","93.426","0.2537893342694632","992"
"21:27:46:666 (H:m:s:ms)","GENERIC","93.44800000000001","0.316736611963742","370"
"21:15:15:151 (H:m:s:ms)","GENERIC","93.452","0.2495313740906059","884"
"21:30:1:0 (H:m:s:ms)","OPERA","93.395","0.2994478540665847","2111"
"21:48:4:848 (H:m:s:ms)","GENERIC","93.595","0.26265885625494617","212"
"20:53:7:878 (H:m:s:ms)","GENERIC","93.517","0.27300205995659527","1174"
"21:15:21:212 (H:m:s:ms)","GENERIC","93.14","0.249666717983566","831"
"21:27:40:606 (H:m:s:ms)","GENERIC","124.518","0.3161784941921898","433"
"21:47:58:787 (H:m:s:ms)","GENERIC","93.898","0.26270975435914823","220"
"20:53:13:939 (H:m:s:ms)","GENERIC","124.168","0.27048084911805237","1115"
"21:15:27:272 (H:m:s:ms)","GENERIC","93.681","0.25049359457357645","773"
"21:27:35:696 (H:m:s:ms)","OPERA","124.707","0.3174622892176039","338"
"21:47:52:727 (H:m:s:ms)","GENERIC","124.73400000000001","0.2612253486311073","318"
"20:53:20:0 (H:m:s:ms)","GENERIC","125.348","0.2680794408702677","1097"
"21:15:33:333 (H:m:s:ms)","GENERIC","124.17099999999999","0.25051276643702985","723"
"21:27:34:545 (H:m:s:ms)","GENERIC","93.72399999999999","0.3141737341322779","512"
"21:47:46:666 (H:m:s:ms)","GENERIC","93.437","0.2603087848683052","395"
"20:53:26:60 (H:m:s:ms)","GENERIC","125.37","0.26368776290918144","979"
"21:15:39:393 (H:m:s:ms)","GENERIC","125.02","0.25111505627052294","691"
"20:53:32:121 (H:m:s:ms)","GENERIC","125.125","0.2603619728378394","943"
"21:15:45:454 (H:m:s:ms)","GENERIC","125.32400000000001","0.24871466936157446","600"
"20:53:38:181 (H:m:s:ms)","GENERIC","62.107","0.26086299254812073","824"
"21:15:51:515 (H:m:s:ms)","GENERIC","93.478","0.24895373397142861","527"
"20:53:44:242 (H:m:s:ms)","GENERIC","124.608","0.2602867012322767","807"
"21:15:57:575 (H:m:s:ms)","GENERIC","93.503","0.2504496181054759","484"
"20:53:50:303 (H:m:s:ms)","GENERIC","125.42099999999999","0.2596303504004956","752"
"21:16:3:636 (H:m:s:ms)","GENERIC","93.281","0.2476653571155225","396"
"20:53:56:363 (H:m:s:ms)","GENERIC","62.045","0.2584189595871308","681"
"20:54:2:424 (H:m:s:ms)","GENERIC","124.674","0.2560458454783191","629"
"21:30:1:0 (H:m:s:ms)","OPERA","124.864","0.3210009651877765","2802"
"21:49:53:939 (H:m:s:ms)","GENERIC","125.06700000000001","0.2520705042246436","1124"
"21:28:41:212 (H:m:s:ms)","GENERIC","93.28","0.31664311016030877","844"
"21:49:47:878 (H:m:s:ms)","GENERIC","93.365","0.25181494768585766","1182"
"21:30:1:0 (H:m:s:ms)","OPERA","124.811","0.3177034262363167","2258"
"21:49:41:818 (H:m:s:ms)","GENERIC","93.477","0.2546104133712833","235"
"21:28:35:151 (H:m:s:ms)","GENERIC","124.87700000000001","0.3178501514630248","877"
"21:49:35:757 (H:m:s:ms)","GENERIC","93.33","0.2515923249793855","307"
"21:30:1:0 (H:m:s:ms)","GENERIC","93.495","0.31553197754284423","2653"
"21:49:29:696 (H:m:s:ms)","GENERIC","93.525","0.2532253878996839","394"
"21:30:1:0 (H:m:s:ms)","OPERA","93.35","0.31409010966999285","1802"
"21:49:23:636 (H:m:s:ms)","GENERIC","124.963","0.24958998923243858","430"
"21:49:17:575 (H:m:s:ms)","GENERIC","93.481","0.2521602354985504","463"
"21:49:11:515 (H:m:s:ms)","GENERIC","93.773","0.2520606914322825","538"
"21:16:9:696 (H:m:s:ms)","GENERIC","124.735","0.24741757560355307","388"
"21:16:15:757 (H:m:s:ms)","GENERIC","124.47999999999999","0.24732508013081375","286"
"21:28:23:30 (H:m:s:ms)","GENERIC","125.13","0.31610171484629096","1016"
"20:54:8:484 (H:m:s:ms)","GENERIC","124.87100000000001","0.24874598525266944","542"
"21:16:21:818 (H:m:s:ms)","GENERIC","93.19800000000001","0.24642243351193902","215"
"21:28:21:265 (H:m:s:ms)","OPERA","93.40899999999999","0.31578183996968173","735"
"20:54:14:545 (H:m:s:ms)","GENERIC","93.458","0.2501760320981289","511"
"21:16:27:878 (H:m:s:ms)","GENERIC","93.443","0.24762157458581682","1181"
"21:28:16:969 (H:m:s:ms)","GENERIC","125.619","0.31708761500666144","1051"
"21:49:5:454 (H:m:s:ms)","GENERIC","93.273","0.25097616634277536","617"
"20:54:20:606 (H:m:s:ms)","GENERIC","93.912","0.25227258910709843","406"
"21:16:33:939 (H:m:s:ms)","GENERIC","93.747","0.24990317494525285","1122"
"21:28:13:670 (H:m:s:ms)","OPERA","93.277","0.3138400231717952","396"
"21:48:59:393 (H:m:s:ms)","GENERIC","124.824","0.2535791722716322","710"
"20:54:26:666 (H:m:s:ms)","GENERIC","125.37299999999999","0.2505996678687483","396"
"21:16:40:0 (H:m:s:ms)","GENERIC","125.56700000000001","0.24960833100804208","1070"
"21:28:10:909 (H:m:s:ms)","GENERIC","125.664","0.3126769698160336","1115"
"21:48:53:333 (H:m:s:ms)","GENERIC","93.602","0.25571255563213924","705"
"20:54:32:727 (H:m:s:ms)","GENERIC","93.368","0.24607296202306542","333"
"21:16:46:60 (H:m:s:ms)","GENERIC","125.482","0.24912704334355987","990"
"20:54:38:787 (H:m:s:ms)","GENERIC","93.33500000000001","0.2453143000449218","265"
"21:16:52:121 (H:m:s:ms)","GENERIC","124.72","0.25230457097186865","929"
"20:54:44:848 (H:m:s:ms)","GENERIC","93.845","0.24333141570616956","172"
"21:16:58:181 (H:m:s:ms)","GENERIC","125.11699999999999","0.2527452407045195","863"
"20:54:50:909 (H:m:s:ms)","GENERIC","125.609","0.2442169750655926","1130"
"21:17:4:242 (H:m:s:ms)","GENERIC","124.922","0.25212940329541517","800"
"20:54:56:969 (H:m:s:ms)","GENERIC","93.864","0.244272267689093","1061"
"20:55:3:30 (H:m:s:ms)","GENERIC","93.858","0.24235004290798115","984"
"21:29:22:25 (H:m:s:ms)","OPERA","124.758","0.317073610476228","1039"
"21:29:17:575 (H:m:s:ms)","GENERIC","93.452","0.31833481920548784","459"
"21:29:14:430 (H:m:s:ms)","OPERA","124.568","0.31915829183072675","646"
"21:29:11:515 (H:m:s:ms)","GENERIC","125.43299999999999","0.31710922254802076","522"
"21:30:1:0 (H:m:s:ms)","OPERA","124.74","0.2963081729806951","1482"
"21:29:5:454 (H:m:s:ms)","GENERIC","93.292","0.3144118058558801","599"
"21:30:1:0 (H:m:s:ms)","GENERIC","124.77199999999999","0.2943804430983019","1961"
"21:17:10:303 (H:m:s:ms)","GENERIC","124.352","0.251772988501852","742"
"21:17:16:363 (H:m:s:ms)","GENERIC","125.636","0.24972167120690936","656"
"20:55:9:90 (H:m:s:ms)","GENERIC","124.618","0.24258112205206417","1012"
"21:17:22:424 (H:m:s:ms)","GENERIC","93.416","0.2494671697998212","622"
"20:55:15:151 (H:m:s:ms)","GENERIC","93.37299999999999","0.24029386028309135","880"
"21:17:28:484 (H:m:s:ms)","GENERIC","125.001","0.2456028232011919","581"
"21:28:59:240 (H:m:s:ms)","OPERA","124.727","0.3154047606752971","841"
"20:55:21:212 (H:m:s:ms)","GENERIC","124.233","0.23946991464710865","842"
"21:17:34:545 (H:m:s:ms)","GENERIC","93.79599999999999","0.24730522843332314","512"
"21:28:53:333 (H:m:s:ms)","GENERIC","125.231","0.3171106229688361","703"
"20:55:27:272 (H:m:s:ms)","GENERIC","93.757","0.2373508041562922","781"
"21:17:40:606 (H:m:s:ms)","GENERIC","124.48","0.24827857206940673","456"
"21:28:51:645 (H:m:s:ms)","OPERA","124.589","0.31694781397589156","439"
"22:0:0:0 (H:m:s:ms)","AMBULANCE","62.475","0.13130522655444257","2443"
"20:55:33:333 (H:m:s:ms)","GENERIC","124.239","0.23935106967454556","716"
"21:17:46:666 (H:m:s:ms)","GENERIC","124.708","0.24475758933218655","403"
"21:28:47:272 (H:m:s:ms)","GENERIC","93.851","0.31973030905627925","749"
"21:50:0:0 (H:m:s:ms)","GENERIC","93.886","0.24902579184384127","1054"
"20:55:39:393 (H:m:s:ms)","GENERIC","125.112","0.23909312478078443","697"
"21:17:52:727 (H:m:s:ms)","GENERIC","124.638","0.2400725361988489","325"
"20:55:45:454 (H:m:s:ms)","GENERIC","125.281","0.2389485914628236","606"
"21:17:58:787 (H:m:s:ms)","GENERIC","93.884","0.24151929286766372","230"
"20:55:51:515 (H:m:s:ms)","GENERIC","93.457","0.23871886958373478","530"
"21:18:4:848 (H:m:s:ms)","GENERIC","93.636","0.24234753665195732","214"
"20:55:57:575 (H:m:s:ms)","GENERIC","124.862","0.23928813051612477","480"
"20:56:3:636 (H:m:s:ms)","GENERIC","93.349","0.237102406067669","389"
"21:30:0:0 (H:m:s:ms)","AMBULANCE","93.908","0.2888671829912825","1134"
"21:29:53:939 (H:m:s:ms)","GENERIC","93.583","0.31690996208091127","1104"
"21:29:52:405 (H:m:s:ms)","OPERA","124.589","0.31709861015185736","641"
"21:29:47:878 (H:m:s:ms)","GENERIC","93.342","0.3145594206771495","1156"
"21:29:44:810 (H:m:s:ms)","OPERA","93.271","0.31491937168463835","228"
"21:29:41:818 (H:m:s:ms)","GENERIC","124.952","0.31771048847601063","201"
"21:29:37:215 (H:m:s:ms)","OPERA","124.917","0.3158674290428727","835"
"21:29:35:757 (H:m:s:ms)","GENERIC","93.227","0.3140167592981252","297"
"21:18:10:909 (H:m:s:ms)","GENERIC","125.644","0.2420533307672556","1116"
"21:18:16:969 (H:m:s:ms)","GENERIC","93.894","0.24256421494557273","1054"
"20:56:9:696 (H:m:s:ms)","GENERIC","124.845","0.23664172476753798","383"
"21:18:23:30 (H:m:s:ms)","GENERIC","93.681","0.24205772473007284","1031"
"20:56:15:757 (H:m:s:ms)","GENERIC","124.578","0.23956291579253064","280"
"21:18:29:90 (H:m:s:ms)","GENERIC","124.828","0.24615851801311886","1017"
"20:40:0:0 (H:m:s:ms)","OPERA","62.388999999999996","0.2401002978592191","2399"
"20:56:21:818 (H:m:s:ms)","GENERIC","93.197","0.23741498288922883","218"
"21:18:35:151 (H:m:s:ms)","GENERIC","124.871","0.2490262909752851","875"
"20:40:0:0 (H:m:s:ms)","GENERIC","93.388","0.2412009920686764","2441"
"20:56:27:878 (H:m:s:ms)","GENERIC","124.916","0.23400414499143388","1184"
"21:18:41:212 (H:m:s:ms)","GENERIC","93.26599999999999","0.2489202869196561","855"
"21:29:29:696 (H:m:s:ms)","GENERIC","93.568","0.3149515334835396","434"
"20:40:0:0 (H:m:s:ms)","GENERIC","125.644","0.2430278945497625","2454"
"20:56:33:939 (H:m:s:ms)","GENERIC","125.273","0.23546923884416823","1118"
"21:18:47:272 (H:m:s:ms)","GENERIC","93.84100000000001","0.24992281410736614","750"
"21:29:29:620 (H:m:s:ms)","OPERA","124.63499999999999","0.31492326066588017","473"
"20:40:6:60 (H:m:s:ms)","GENERIC","93.27799999999999","0.2446588114733472","1002"
"20:56:40:0 (H:m:s:ms)","GENERIC","93.864","0.23743196097991204","1061"
"21:18:53:333 (H:m:s:ms)","GENERIC","93.642","0.24833113831621412","721"
"21:29:23:636 (H:m:s:ms)","GENERIC","125.056","0.3168338037349186","402"
"20:40:7:594 (H:m:s:ms)","OPERA","62.357","0.24468768861779902","455"
"20:56:46:60 (H:m:s:ms)","GENERIC","93.857","0.2392171363682016","980"
"21:18:59:393 (H:m:s:ms)","GENERIC","124.783","0.25083603491118817","698"
"20:40:12:121 (H:m:s:ms)","GENERIC","93.852","0.24848853933071038","904"
"20:56:52:121 (H:m:s:ms)","GENERIC","93.375","0.24099686506677312","928"
"21:19:5:454 (H:m:s:ms)","GENERIC","93.319","0.24900595897133962","616"
"20:40:15:189 (H:m:s:ms)","OPERA","93.818","0.2504101526487457","854"
"20:56:58:181 (H:m:s:ms)","GENERIC","125.17099999999999","0.24157543871737816","855"
"20:40:18:181 (H:m:s:ms)","GENERIC","125.22200000000001","0.25221287004985254","867"
"20:57:4:242 (H:m:s:ms)","GENERIC","93.581","0.2416338697290833","796"
"20:40:22:784 (H:m:s:ms)","OPERA","93.727","0.2565496623696769","248"
"20:40:24:242 (H:m:s:ms)","GENERIC","93.237","0.26009237328445367","818"
"21:30:0:0 (H:m:s:ms)","GENERIC","125.60300000000001","0.29273742963476146","1229"
"21:30:42:424 (H:m:s:ms)","GENERIC","93.114","0.30833824060318654","635"
"21:30:36:363 (H:m:s:ms)","GENERIC","93.572","0.31090658706026936","659"
"21:30:31:578 (H:m:s:ms)","AMBULANCE","93.949","0.3136198166153296","452"
"21:30:30:303 (H:m:s:ms)","GENERIC","125.60300000000001","0.313163000848753","723"
"21:30:24:242 (H:m:s:ms)","GENERIC","93.214","0.31217213479035316","821"
"21:30:18:181 (H:m:s:ms)","GENERIC","125.168","0.31454306657216546","864"
"21:30:12:121 (H:m:s:ms)","GENERIC","93.87299999999999","0.31566340239875684","897"
"21:19:11:515 (H:m:s:ms)","GENERIC","125.337","0.2518909466294988","534"
"21:30:6:60 (H:m:s:ms)","GENERIC","93.336","0.3170524851710566","970"
"21:19:17:575 (H:m:s:ms)","GENERIC","124.8","0.2499434331997583","470"
"20:57:10:303 (H:m:s:ms)","GENERIC","124.417","0.240056366755357","739"
"21:19:23:636 (H:m:s:ms)","GENERIC","124.899","0.25222981884076145","427"
"20:57:16:363 (H:m:s:ms)","GENERIC","125.595","0.2424484966390297","653"
"21:19:29:696 (H:m:s:ms)","GENERIC","93.548","0.2504164620839929","412"
"20:40:30:303 (H:m:s:ms)","GENERIC","93.832","0.2595653240257906","727"
"20:57:22:424 (H:m:s:ms)","GENERIC","124.77600000000001","0.24181501505151776","614"
"21:19:35:757 (H:m:s:ms)","GENERIC","93.229","0.2503251395663557","310"
"20:40:30:379 (H:m:s:ms)","OPERA","62.342","0.26139918000863366","704"
"20:57:28:484 (H:m:s:ms)","GENERIC","125.01400000000001","0.23952223938636236","580"
"21:19:41:818 (H:m:s:ms)","GENERIC","93.45400000000001","0.24914362852408709","239"
"20:40:36:363 (H:m:s:ms)","GENERIC","93.477","0.26161576432103284","684"
"20:57:34:545 (H:m:s:ms)","GENERIC","93.807","0.24105857415112833","501"
"21:19:47:878 (H:m:s:ms)","GENERIC","124.56299999999999","0.24485373621591372","1185"
"20:40:37:974 (H:m:s:ms)","OPERA","62.336","0.26504119086826555","1043"
"20:57:40:606 (H:m:s:ms)","GENERIC","124.55600000000001","0.24418488315199458","440"
"21:19:53:939 (H:m:s:ms)","GENERIC","93.612","0.2522936593825087","1118"
"21:30:0:0 (H:m:s:ms)","GENERIC","93.372","0.29182966255317305","1213"
"20:40:42:424 (H:m:s:ms)","GENERIC","93.238","0.2639689886132847","636"
"20:57:46:666 (H:m:s:ms)","GENERIC","124.771","0.244958248938311","388"
"21:20:0:0 (H:m:s:ms)","OPERA","124.648","0.25346381719453664","2513"
"21:30:0:0 (H:m:s:ms)","OPERA","124.762","0.2893941600893125","1178"
"20:40:45:569 (H:m:s:ms)","OPERA","62.373999999999995","0.2674674510555819","440"
"20:57:52:727 (H:m:s:ms)","GENERIC","124.739","0.2461210838318041","312"
"21:20:0:0 (H:m:s:ms)","GENERIC","93.846","0.24883481004421562","2529"
"20:40:48:484 (H:m:s:ms)","GENERIC","125.18199999999999","0.2658449577476412","543"
"20:57:58:787 (H:m:s:ms)","GENERIC","93.83","0.24866162586994736","247"
"20:40:53:164 (H:m:s:ms)","OPERA","62.442","0.26978368209483994","855"
"20:58:4:848 (H:m:s:ms)","GENERIC","125.161","0.25012397048641777","206"
"20:40:54:545 (H:m:s:ms)","GENERIC","125.594","0.27010410960886355","479"
"20:41:0:606 (H:m:s:ms)","GENERIC","62.063","0.26970402764584245","440"
"21:31:0:606 (H:m:s:ms)","GENERIC","93.562","0.30698565377714526","424"
"21:30:54:545 (H:m:s:ms)","GENERIC","125.557","0.308320605808366","477"
"21:31:36:969 (H:m:s:ms)","GENERIC","93.305","0.3022601841200115","1085"
"21:31:34:736 (H:m:s:ms)","AMBULANCE","93.67","0.30588395214538333","351"
"21:31:30:909 (H:m:s:ms)","GENERIC","125.36","0.30226013002045754","1145"
"21:31:24:848 (H:m:s:ms)","GENERIC","125.388","0.3069991416222419","210"
"21:31:18:787 (H:m:s:ms)","GENERIC","124.315","0.30571597068648365","275"
"21:31:12:727 (H:m:s:ms)","GENERIC","125.25","0.3091557337398347","324"
"21:31:6:666 (H:m:s:ms)","GENERIC","125.50200000000001","0.30970806093161046","374"
"21:31:3:157 (H:m:s:ms)","AMBULANCE","93.704","0.3087072421672939","884"
"20:58:10:909 (H:m:s:ms)","GENERIC","125.656","0.24980526093463035","1119"
"20:58:16:969 (H:m:s:ms)","GENERIC","93.84","0.25109001918145907","1052"
"20:41:0:759 (H:m:s:ms)","OPERA","62.263000000000005","0.27218957958984225","374"
"20:58:23:30 (H:m:s:ms)","GENERIC","125.17","0.24938351920144206","1019"
"20:41:6:666 (H:m:s:ms)","GENERIC","93.825","0.2720573001878309","376"
"20:58:29:90 (H:m:s:ms)","GENERIC","93.466","0.24918731088246682","997"
"20:41:8:354 (H:m:s:ms)","OPERA","62.324","0.2726909133482874","708"
"20:58:35:151 (H:m:s:ms)","GENERIC","93.46600000000001","0.2532325289747449","864"
"20:41:12:727 (H:m:s:ms)","GENERIC","93.708","0.272693950381146","313"
"20:58:41:212 (H:m:s:ms)","GENERIC","124.616","0.2506104289220446","849"
"20:41:15:949 (H:m:s:ms)","OPERA","62.343","0.2736067609367337","1064"
"20:58:47:272 (H:m:s:ms)","GENERIC","93.811","0.25023756687222837","749"
"20:41:18:787 (H:m:s:ms)","GENERIC","124.301","0.27464936590574546","266"
"20:58:53:333 (H:m:s:ms)","GENERIC","125.185","0.24712286013757637","713"
"21:30:48:484 (H:m:s:ms)","GENERIC","93.622","0.30978788656175416","547"
"20:41:23:544 (H:m:s:ms)","OPERA","93.7","0.27828936663149945","521"
"20:58:59:393 (H:m:s:ms)","GENERIC","124.911","0.2474687589867","707"
"20:41:24:848 (H:m:s:ms)","GENERIC","125.417","0.2784155705809574","205"
"20:59:5:454 (H:m:s:ms)","GENERIC","93.271","0.2453595741566014","614"
"20:41:30:909 (H:m:s:ms)","GENERIC","93.658","0.2761808584275958","1136"
"20:41:31:139 (H:m:s:ms)","OPERA","62.328","0.2773819988680122","932"
"20:59:11:515 (H:m:s:ms)","GENERIC","93.71900000000001","0.24722891998717852","525"
"20:59:17:575 (H:m:s:ms)","GENERIC","93.343","0.24451852713355293","466"
"20:41:36:969 (H:m:s:ms)","GENERIC","93.358","0.27633188384924906","1089"
"20:59:23:636 (H:m:s:ms)","GENERIC","124.99799999999999","0.24145136150574234","423"
"20:41:38:734 (H:m:s:ms)","OPERA","93.661","0.27743493731520014","314"
"20:59:29:696 (H:m:s:ms)","GENERIC","124.941","0.23999617140834492","402"
"20:41:43:30 (H:m:s:ms)","GENERIC","124.92699999999999","0.2757175989056378","1010"
"20:59:35:757 (H:m:s:ms)","GENERIC","124.495","0.24082256237935398","304"
"20:41:46:329 (H:m:s:ms)","OPERA","93.757","0.2794372479875765","720"
"20:59:41:818 (H:m:s:ms)","GENERIC","93.551","0.24375241901088807","234"
"20:41:49:90 (H:m:s:ms)","GENERIC","93.172","0.2800852236424228","995"
"20:59:47:878 (H:m:s:ms)","GENERIC","93.392","0.2442263790361954","1177"
"20:41:53:924 (H:m:s:ms)","OPERA","93.77199999999999","0.2811807880431882","1109"
"20:59:53:939 (H:m:s:ms)","GENERIC","125.17699999999999","0.2407632181619314","1120"
"20:41:55:151 (H:m:s:ms)","GENERIC","93.264","0.2823368370889627","901"
"21:0:0:0 (H:m:s:ms)","AMBULANCE","62.416","0.23769157698485413","2500"
"20:42:1:212 (H:m:s:ms)","GENERIC","93.22","0.2822995077192271","834"
"21:0:0:0 (H:m:s:ms)","GENERIC","124.734","0.23899824843011025","2562"
"20:42:1:518 (H:m:s:ms)","OPERA","93.564","0.285807925316025","584"
"20:42:7:272 (H:m:s:ms)","GENERIC","93.293","0.28604404713673515","772"
"21:0:0:0 (H:m:s:ms)","GENERIC","93.89","0.24230170672258983","2571"
"21:0:6:60 (H:m:s:ms)","GENERIC","93.333","0.24487093667542978","1001"
"20:42:9:113 (H:m:s:ms)","OPERA","62.429","0.28903404162734714","955"
"21:0:12:121 (H:m:s:ms)","GENERIC","125.614","0.247425959184665","905"
"20:42:13:333 (H:m:s:ms)","GENERIC","124.304","0.29028176269964145","730"
"21:0:18:181 (H:m:s:ms)","GENERIC","93.699","0.24219041804368258","874"
"20:20:0:0 (H:m:s:ms)","GENERIC","93.615","0.23880877022203092","2636"
"20:42:16:708 (H:m:s:ms)","OPERA","93.756","0.2934288177941351","301"
"21:0:24:242 (H:m:s:ms)","GENERIC","124.346","0.24189036202824193","821"
"20:20:0:0 (H:m:s:ms)","GENERIC","93.89999999999999","0.24142135401639303","2648"
"20:42:19:393 (H:m:s:ms)","GENERIC","93.39099999999999","0.29201086132785853","680"
"21:0:30:303 (H:m:s:ms)","GENERIC","93.794","0.24254782672731212","729"
"20:20:6:60 (H:m:s:ms)","GENERIC","93.36","0.23986430641317735","1001"
"20:42:24:303 (H:m:s:ms)","OPERA","62.442","0.29298466388068667","731"
"21:0:31:578 (H:m:s:ms)","AMBULANCE","62.377","0.24312046818734162","507"
"20:20:12:121 (H:m:s:ms)","GENERIC","125.653","0.2399331997442117","896"
"20:42:25:454 (H:m:s:ms)","GENERIC","125.554","0.29325232636406157","605"
"21:0:36:363 (H:m:s:ms)","GENERIC","124.97999999999999","0.24369972157426953","694"
"20:20:18:181 (H:m:s:ms)","GENERIC","125.088","0.2358545121499939","869"
"20:42:31:515 (H:m:s:ms)","GENERIC","124.40899999999999","0.2928262913490417","532"
"21:0:42:424 (H:m:s:ms)","GENERIC","124.239","0.24488023051339636","642"
"20:20:24:242 (H:m:s:ms)","GENERIC","124.268","0.23661045450772977","820"
"20:42:31:898 (H:m:s:ms)","OPERA","62.452","0.2943667914447694","173"
"21:0:48:484 (H:m:s:ms)","GENERIC","93.61699999999999","0.24573117230856745","548"
"20:20:30:303 (H:m:s:ms)","GENERIC","93.822","0.23981426924025878","733"
"20:42:37:575 (H:m:s:ms)","GENERIC","93.661","0.2941502119464885","465"
"20:20:36:363 (H:m:s:ms)","GENERIC","124.913","0.23684310970837827","673"
"20:42:39:493 (H:m:s:ms)","OPERA","93.595","0.2945551480204143","577"
"20:20:42:424 (H:m:s:ms)","GENERIC","124.216","0.2386577952357795","631"
"20:20:48:484 (H:m:s:ms)","GENERIC","93.65","0.23928939658961138","544"
"21:0:54:545 (H:m:s:ms)","GENERIC","125.565","0.247090808123166","478"
"21:1:0:606 (H:m:s:ms)","GENERIC","93.551","0.2488067867121521","439"
"20:42:43:636 (H:m:s:ms)","GENERIC","62.045","0.29530331502528306","369"
"21:1:3:157 (H:m:s:ms)","AMBULANCE","62.365","0.2522341330247636","882"
"20:42:47:88 (H:m:s:ms)","OPERA","62.486999999999995","0.2965881148691235","939"
"21:5:48:0 (H:m:s:ms)","GENERIC","93.899","0.25878363033601465","1480"
"20:20:54:545 (H:m:s:ms)","GENERIC","93.94800000000001","0.2388842747764477","482"
"20:42:49:696 (H:m:s:ms)","GENERIC","125.554","0.3014514413023792","388"
"21:1:12:727 (H:m:s:ms)","GENERIC","93.718","0.25164728814417703","318"
"20:21:0:606 (H:m:s:ms)","GENERIC","93.57499999999999","0.24004847004082558","433"
"20:42:54:683 (H:m:s:ms)","OPERA","62.346000000000004","0.30048866057175505","326"
"21:1:18:787 (H:m:s:ms)","GENERIC","124.41900000000001","0.25092634621968346","268"
"20:21:6:666 (H:m:s:ms)","GENERIC","93.81","0.2426338701629885","350"
"20:42:55:757 (H:m:s:ms)","GENERIC","124.279","0.2999528893618529","294"
"21:1:24:848 (H:m:s:ms)","GENERIC","125.33","0.25414848349721264","212"
"20:21:12:727 (H:m:s:ms)","GENERIC","93.707","0.24239438139756325","318"
"20:43:1:818 (H:m:s:ms)","GENERIC","93.209","0.3005678158816332","238"
"21:1:30:909 (H:m:s:ms)","GENERIC","93.68299999999999","0.2532020830716245","1138"
"20:21:18:787 (H:m:s:ms)","GENERIC","93.262","0.2407235032150312","274"
"20:43:2:278 (H:m:s:ms)","OPERA","62.503","0.30133950798176995","739"
"21:1:34:736 (H:m:s:ms)","AMBULANCE","62.399","0.25595572057308924","313"
"20:21:24:848 (H:m:s:ms)","GENERIC","125.36500000000001","0.24330394446251055","207"
"20:43:7:878 (H:m:s:ms)","GENERIC","93.523","0.30101706854517546","1144"
"21:1:36:969 (H:m:s:ms)","GENERIC","93.3","0.2542347631608589","1088"
"20:21:30:909 (H:m:s:ms)","GENERIC","93.634","0.24582041632585538","1129"
"20:43:9:873 (H:m:s:ms)","OPERA","62.403999999999996","0.30237229223835344","191"
"20:21:36:969 (H:m:s:ms)","GENERIC","93.377","0.2460858711236595","1085"
"20:43:13:939 (H:m:s:ms)","GENERIC","124.167","0.30121061532475507","1112"
"20:21:43:30 (H:m:s:ms)","GENERIC","124.881","0.24456848519041333","1024"
"20:21:49:90 (H:m:s:ms)","GENERIC","124.303","0.24377860779417967","1012"
"20:43:17:468 (H:m:s:ms)","OPERA","62.44","0.30207636486798367","634"
"20:43:20:0 (H:m:s:ms)","GENERIC","125.436","0.29995602838220914","1094"
"20:21:55:151 (H:m:s:ms)","GENERIC","124.328","0.24153645479781305","905"
"20:43:25:63 (H:m:s:ms)","OPERA","93.82900000000001","0.3018642926904777","1032"
"20:22:1:212 (H:m:s:ms)","GENERIC","93.313","0.24140738507599055","842"
"20:43:26:60 (H:m:s:ms)","GENERIC","125.287","0.30327949590634284","982"
"20:22:7:272 (H:m:s:ms)","GENERIC","62.055","0.24113506025334674","771"
"20:43:32:121 (H:m:s:ms)","GENERIC","93.584","0.3008257628940707","937"
"20:22:13:333 (H:m:s:ms)","GENERIC","124.268","0.24222069153643885","728"
"20:43:32:658 (H:m:s:ms)","OPERA","62.277","0.3016235622708303","421"
"20:22:19:393 (H:m:s:ms)","GENERIC","93.366","0.23986452028307012","692"
"20:43:38:181 (H:m:s:ms)","GENERIC","93.836","0.3039735735201747","832"
"20:22:25:454 (H:m:s:ms)","GENERIC","125.494","0.2386618261757355","603"
"20:43:40:253 (H:m:s:ms)","OPERA","93.50200000000001","0.30374782973062325","834"
"20:22:31:515 (H:m:s:ms)","GENERIC","124.34700000000001","0.2405571264658584","534"
"20:43:44:242 (H:m:s:ms)","GENERIC","93.39","0.3046927828422506","794"
"20:22:37:575 (H:m:s:ms)","GENERIC","93.531","0.2392237343179382","465"
"20:43:47:848 (H:m:s:ms)","OPERA","93.695","0.3075433759094449","169"
"20:22:43:636 (H:m:s:ms)","GENERIC","93.445","0.23913543011986318","405"
"20:22:49:696 (H:m:s:ms)","GENERIC","93.809","0.24164011911149932","369"
"20:43:50:303 (H:m:s:ms)","GENERIC","125.452","0.30335444061694267","751"
"20:43:55:443 (H:m:s:ms)","OPERA","93.605","0.3033206239752263","631"
"20:22:55:757 (H:m:s:ms)","GENERIC","124.286","0.23921684327886744","300"
"20:43:56:363 (H:m:s:ms)","GENERIC","93.519","0.30359407357931534","672"
"20:23:1:818 (H:m:s:ms)","GENERIC","124.31","0.24132342271793658","238"
"20:44:2:424 (H:m:s:ms)","GENERIC","93.319","0.3023428565371766","603"
"20:23:7:878 (H:m:s:ms)","GENERIC","124.919","0.23915915092067083","1175"
"20:44:3:37 (H:m:s:ms)","OPERA","93.863","0.30389080654490297","1045"
"20:23:13:939 (H:m:s:ms)","GENERIC","124.217","0.23904800322921654","1121"
"20:44:8:484 (H:m:s:ms)","GENERIC","93.462","0.30576243703188216","580"
"20:23:20:0 (H:m:s:ms)","GENERIC","93.72999999999999","0.2393189333945529","1087"
"20:44:10:632 (H:m:s:ms)","OPERA","93.699","0.3062528771612661","416"
"20:23:26:60 (H:m:s:ms)","GENERIC","125.267","0.23870229809719826","973"
"20:44:14:545 (H:m:s:ms)","GENERIC","124.628","0.3082137086279119","473"
"20:23:32:121 (H:m:s:ms)","GENERIC","125.062","0.2406053190179147","940"
"20:44:18:227 (H:m:s:ms)","OPERA","62.498999999999995","0.3113834689717742","820"
"20:23:38:181 (H:m:s:ms)","GENERIC","125.564","0.24032948030928966","834"
"20:44:20:606 (H:m:s:ms)","GENERIC","93.9","0.31235350344743296","403"
"20:23:44:242 (H:m:s:ms)","GENERIC","93.318","0.2398016523635562","810"
"20:23:50:303 (H:m:s:ms)","GENERIC","93.798","0.23933970154816325","755"
"20:44:25:822 (H:m:s:ms)","OPERA","93.629","0.312581112633229","238"
"20:44:26:666 (H:m:s:ms)","GENERIC","93.781","0.31313325858862245","399"
"20:23:56:363 (H:m:s:ms)","GENERIC","125.035","0.23600082938807687","686"
"20:44:32:727 (H:m:s:ms)","GENERIC","124.526","0.3140175844464597","331"
"20:24:2:424 (H:m:s:ms)","GENERIC","124.659","0.23740900469499215","634"
"20:44:38:787 (H:m:s:ms)","GENERIC","93.351","0.3148113827242314","253"
"20:24:8:484 (H:m:s:ms)","GENERIC","93.432","0.23774967930627486","649"
"20:44:41:12 (H:m:s:ms)","OPERA","62.494","0.31524557433056627","1042"
"20:24:14:545 (H:m:s:ms)","GENERIC","93.35300000000001","0.2352103949680684","505"
"20:44:44:848 (H:m:s:ms)","GENERIC","93.857","0.3160550326332652","168"
"20:24:20:606 (H:m:s:ms)","GENERIC","62.111","0.23744949365206144","405"
"20:44:48:607 (H:m:s:ms)","OPERA","62.439","0.31789070868258484","403"
"20:24:26:666 (H:m:s:ms)","GENERIC","93.735","0.2366589739262286","402"
"20:44:50:909 (H:m:s:ms)","GENERIC","93.836","0.3172261183186692","1135"
"20:24:32:727 (H:m:s:ms)","GENERIC","124.596","0.2340430590955586","332"
"20:44:56:202 (H:m:s:ms)","OPERA","93.802","0.32109401303924295","810"
"20:24:38:787 (H:m:s:ms)","GENERIC","124.68","0.2313639502742026","264"
"20:44:56:969 (H:m:s:ms)","GENERIC","125.541","0.3217657927359281","1092"
"20:24:44:848 (H:m:s:ms)","GENERIC","93.831","0.2353664958898832","169"
"20:24:50:909 (H:m:s:ms)","GENERIC","93.862","0.23736979999210925","1123"
"20:45:3:30 (H:m:s:ms)","GENERIC","93.84700000000001","0.31745519538812095","987"
"20:45:3:797 (H:m:s:ms)","OPERA","62.35","0.3175269388571263","235"
"20:24:56:969 (H:m:s:ms)","GENERIC","62.103","0.23732135184572972","1057"
"20:45:9:90 (H:m:s:ms)","GENERIC","93.401","0.3140290528179827","964"
"20:25:3:30 (H:m:s:ms)","GENERIC","93.855","0.23982551647115766","984"
"20:45:11:392 (H:m:s:ms)","OPERA","93.719","0.31560947715118337","679"
"20:25:9:90 (H:m:s:ms)","GENERIC","124.608","0.2412736113264571","994"
"20:45:15:151 (H:m:s:ms)","GENERIC","93.439","0.3161866520060238","876"
"20:25:15:151 (H:m:s:ms)","GENERIC","93.357","0.24088664779002603","883"
"20:45:18:987 (H:m:s:ms)","OPERA","62.445","0.3157367771682703","1078"
"20:25:21:212 (H:m:s:ms)","GENERIC","93.098","0.24109406474014464","835"
"20:45:21:212 (H:m:s:ms)","GENERIC","93.15","0.31638505649405263","830"
"20:25:27:272 (H:m:s:ms)","GENERIC","125.419","0.2427138353042151","777"
"20:45:26:582 (H:m:s:ms)","OPERA","93.747","0.31394445715666053","418"
"20:25:33:333 (H:m:s:ms)","GENERIC","124.326","0.24096792057981303","719"
"20:45:27:272 (H:m:s:ms)","GENERIC","93.756","0.3143341010047679","780"
"20:25:39:393 (H:m:s:ms)","GENERIC","124.959","0.24366575143992922","753"
"20:45:33:333 (H:m:s:ms)","GENERIC","93.16","0.3122395016516349","717"
"20:25:45:454 (H:m:s:ms)","GENERIC","93.613","0.2424928571322718","596"
"20:25:51:515 (H:m:s:ms)","GENERIC","93.53399999999999","0.242369276778079","530"
"20:25:57:575 (H:m:s:ms)","GENERIC","124.97200000000001","0.24341617795048862","476"
"20:26:3:636 (H:m:s:ms)","GENERIC","93.32","0.24475753171638046","392"
"20:26:9:696 (H:m:s:ms)","GENERIC","93.47800000000001","0.23852796209319238","370"
"20:26:15:757 (H:m:s:ms)","GENERIC","93.32300000000001","0.23818127709734388","284"
"20:26:21:818 (H:m:s:ms)","GENERIC","93.142","0.2359280346405658","217"
"20:26:27:878 (H:m:s:ms)","GENERIC","124.911","0.23745660096853388","1169"
"20:26:33:939 (H:m:s:ms)","GENERIC","125.242","0.23650695837995175","1108"
"20:26:40:0 (H:m:s:ms)","GENERIC","93.849","0.23495749765247553","1061"
"20:26:46:60 (H:m:s:ms)","GENERIC","93.798","0.2344773736121989","977"
"20:26:52:121 (H:m:s:ms)","GENERIC","124.604","0.23597315027010232","921"
"20:26:58:181 (H:m:s:ms)","GENERIC","125.243","0.23836657708693787","856"
"20:27:4:242 (H:m:s:ms)","GENERIC","125.098","0.23965157938767906","797"
"20:27:10:303 (H:m:s:ms)","GENERIC","124.524","0.24200961038857327","734"
"20:27:16:363 (H:m:s:ms)","GENERIC","93.902","0.2439811856263645","653"
"20:27:22:424 (H:m:s:ms)","GENERIC","93.36699999999999","0.24225539321057893","616"
"20:27:28:484 (H:m:s:ms)","GENERIC","125.07","0.23931072816676605","573"
"20:27:34:545 (H:m:s:ms)","GENERIC","125.45400000000001","0.23907020133281429","505"
"20:27:40:606 (H:m:s:ms)","GENERIC","93.298","0.23883815830635352","444"
"20:27:46:666 (H:m:s:ms)","GENERIC","124.838","0.23773244014225578","389"
"20:27:52:727 (H:m:s:ms)","GENERIC","124.731","0.23635533358157984","311"
"20:27:58:787 (H:m:s:ms)","GENERIC","125.619","0.23901724102936547","222"
"20:28:4:848 (H:m:s:ms)","GENERIC","125.15199999999999","0.2387378452188663","210"
"20:28:10:909 (H:m:s:ms)","GENERIC","93.89","0.23675615114163423","1115"
"20:28:16:969 (H:m:s:ms)","GENERIC","93.887","0.24061431678787837","1047"
"20:28:23:30 (H:m:s:ms)","GENERIC","125.271","0.2395834801522931","1007"
"20:28:29:90 (H:m:s:ms)","GENERIC","124.866","0.239449687250964","1001"
"20:28:35:151 (H:m:s:ms)","GENERIC","124.849","0.24239002797974837","874"
"20:28:41:212 (H:m:s:ms)","GENERIC","93.321","0.24107057922671876","844"
"20:28:47:272 (H:m:s:ms)","GENERIC","93.817","0.23983081561160938","741"
"20:28:53:333 (H:m:s:ms)","GENERIC","93.61099999999999","0.24016187442723974","711"
"20:28:59:393 (H:m:s:ms)","GENERIC","124.839","0.24233375977340385","691"
"20:29:5:454 (H:m:s:ms)","GENERIC","124.43799999999999","0.24210154649800084","601"
"20:29:11:515 (H:m:s:ms)","GENERIC","125.286","0.23985244291757665","519"
"20:29:17:575 (H:m:s:ms)","GENERIC","124.839","0.24106326766531277","464"
"20:29:23:636 (H:m:s:ms)","GENERIC","93.56400000000001","0.23942600663297692","419"
"20:29:29:696 (H:m:s:ms)","GENERIC","93.428","0.24206662364505804","398"
"20:29:35:757 (H:m:s:ms)","GENERIC","124.465","0.24260603445997564","289"
"20:29:41:818 (H:m:s:ms)","GENERIC","124.868","0.24290845848648943","229"
"20:29:47:878 (H:m:s:ms)","GENERIC","93.326","0.2390308387360931","1170"
"20:29:53:939 (H:m:s:ms)","GENERIC","125.293","0.23943969775677645","1120"
"22:10:0:0 (H:m:s:ms)","AMBULANCE","93.979","0.13637639475006996","1082"
"22:7:22:105 (H:m:s:ms)","AMBULANCE","62.445","0.1326568784021439","927"
"22:1:34:736 (H:m:s:ms)","AMBULANCE","62.507000000000005","0.13815434428805942","319"
"21:20:0:0 (H:m:s:ms)","GENERIC","124.754","0.2501839516774456","2581"
"21:20:6:60 (H:m:s:ms)","GENERIC","124.631","0.25108340719225647","1003"
"21:20:7:594 (H:m:s:ms)","OPERA","93.43599999999999","0.2524564294281695","463"
"21:20:12:121 (H:m:s:ms)","GENERIC","93.84700000000001","0.24648387233615662","893"
"21:20:15:189 (H:m:s:ms)","OPERA","124.679","0.25095511606350784","853"
"21:20:18:181 (H:m:s:ms)","GENERIC","93.631","0.2510356235524317","878"
"21:20:22:784 (H:m:s:ms)","OPERA","93.367","0.2555354140306608","259"
"21:20:24:242 (H:m:s:ms)","GENERIC","93.207","0.25733342650052404","822"
"21:20:30:303 (H:m:s:ms)","GENERIC","93.82300000000001","0.25964640548277196","731"
"21:20:30:379 (H:m:s:ms)","OPERA","124.74199999999999","0.2637791477683114","688"
"21:20:36:363 (H:m:s:ms)","GENERIC","124.97200000000001","0.26277331565164624","683"
"21:20:37:974 (H:m:s:ms)","OPERA","124.81700000000001","0.2634537774071865","1057"
"21:20:42:424 (H:m:s:ms)","GENERIC","93.201","0.2616453540149921","641"
"21:20:45:569 (H:m:s:ms)","OPERA","93.404","0.26400334191316677","449"
"21:20:48:484 (H:m:s:ms)","GENERIC","93.70599999999999","0.26341922884350183","549"
"21:20:53:164 (H:m:s:ms)","OPERA","124.758","0.26453007620878033","863"
"21:20:54:545 (H:m:s:ms)","GENERIC","125.562","0.2651162296695115","484"
"21:21:0:606 (H:m:s:ms)","GENERIC","93.655","0.2647669867078748","437"
"21:21:0:759 (H:m:s:ms)","OPERA","124.725","0.26842281785113414","304"
"21:21:6:666 (H:m:s:ms)","GENERIC","93.835","0.26691034906668953","373"
"21:32:37:575 (H:m:s:ms)","GENERIC","93.508","0.2968520697084161","463"
"21:32:19:393 (H:m:s:ms)","GENERIC","124.676","0.29952295357362957","696"
"21:32:13:333 (H:m:s:ms)","GENERIC","124.168","0.3028198422838324","746"
"21:32:7:272 (H:m:s:ms)","GENERIC","93.357","0.30262284071661444","775"
"21:32:6:315 (H:m:s:ms)","AMBULANCE","62.506","0.30115522647598975","758"
"21:32:1:212 (H:m:s:ms)","GENERIC","93.247","0.3010246943400565","819"
"21:31:55:151 (H:m:s:ms)","GENERIC","93.555","0.3028486874120534","1266"
"21:31:49:90 (H:m:s:ms)","GENERIC","124.257","0.30393215425059594","994"
"21:21:8:354 (H:m:s:ms)","OPERA","124.737","0.2699757207551041","663"
"21:31:43:30 (H:m:s:ms)","GENERIC","93.524","0.29976941668420326","1013"
"21:21:12:727 (H:m:s:ms)","GENERIC","125.238","0.2701825674680886","329"
"21:21:15:949 (H:m:s:ms)","OPERA","93.337","0.27111386186864783","1115"
"21:21:18:787 (H:m:s:ms)","GENERIC","93.285","0.27580189961401813","270"
"21:21:23:544 (H:m:s:ms)","OPERA","124.821","0.2785987589154092","465"
"21:21:24:848 (H:m:s:ms)","GENERIC","93.684","0.2790001065127499","228"
"21:21:30:909 (H:m:s:ms)","GENERIC","125.31899999999999","0.2775932818144327","1145"
"21:21:31:139 (H:m:s:ms)","OPERA","124.646","0.2789536055241849","977"
"21:32:31:515 (H:m:s:ms)","GENERIC","93.162","0.2986187273147542","536"
"21:21:36:969 (H:m:s:ms)","GENERIC","124.507","0.2794789540594326","1091"
"21:32:25:454 (H:m:s:ms)","GENERIC","125.408","0.29663268321686603","612"
"21:21:38:734 (H:m:s:ms)","OPERA","62.013","0.2825809670752","271"
"21:33:32:121 (H:m:s:ms)","GENERIC","93.653","0.28418016088085607","927"
"21:33:26:60 (H:m:s:ms)","GENERIC","125.32499999999999","0.2855247189063353","980"
"21:33:13:939 (H:m:s:ms)","GENERIC","124.184","0.289103915539319","1124"
"21:33:9:473 (H:m:s:ms)","AMBULANCE","62.539","0.28887198701757966","613"
"21:33:7:878 (H:m:s:ms)","GENERIC","124.861","0.2879510521385512","1168"
"21:33:1:818 (H:m:s:ms)","GENERIC","93.218","0.28855798373345815","248"
"21:32:55:757 (H:m:s:ms)","GENERIC","124.399","0.28966356025391216","309"
"21:32:49:696 (H:m:s:ms)","GENERIC","93.728","0.29302918282229695","374"
"21:21:43:30 (H:m:s:ms)","GENERIC","93.443","0.28067403795298473","1032"
"21:32:43:636 (H:m:s:ms)","GENERIC","124.77799999999999","0.2960906344178259","405"
"21:21:46:329 (H:m:s:ms)","OPERA","124.658","0.28126607352099486","729"
"21:32:37:894 (H:m:s:ms)","AMBULANCE","93.917","0.2973692758167778","191"
"21:21:49:90 (H:m:s:ms)","GENERIC","124.251","0.28191359688785994","999"
"21:21:53:924 (H:m:s:ms)","OPERA","93.46600000000001","0.2781862848794052","1146"
"21:21:55:151 (H:m:s:ms)","GENERIC","124.285","0.27790285388148694","904"
"21:22:1:212 (H:m:s:ms)","GENERIC","93.221","0.27684560023211363","852"
"21:22:1:518 (H:m:s:ms)","OPERA","124.78999999999999","0.2794669885281256","610"
"21:22:7:272 (H:m:s:ms)","GENERIC","93.315","0.28026012964314956","771"
"21:22:9:113 (H:m:s:ms)","OPERA","93.312","0.2803432587895807","979"
"21:22:13:333 (H:m:s:ms)","GENERIC","124.344","0.2820096190326753","735"
"21:33:20:0 (H:m:s:ms)","GENERIC","93.738","0.28693101970251267","1097"
"21:34:26:666 (H:m:s:ms)","GENERIC","93.757","0.2682112074392963","403"
"21:34:20:606 (H:m:s:ms)","GENERIC","125.599","0.27011429199447173","419"
"21:34:14:545 (H:m:s:ms)","GENERIC","124.798","0.2766561164907879","514"
"21:34:12:631 (H:m:s:ms)","AMBULANCE","93.904","0.27362850497145247","423"
"21:34:8:484 (H:m:s:ms)","GENERIC","93.498","0.27183451843630674","547"
"21:34:2:424 (H:m:s:ms)","GENERIC","93.369","0.27362637846350835","635"
"21:33:56:363 (H:m:s:ms)","GENERIC","93.608","0.2765165915949246","673"
"21:33:50:303 (H:m:s:ms)","GENERIC","93.771","0.27962970086458055","754"
"21:22:16:708 (H:m:s:ms)","OPERA","124.666","0.2857913046875189","336"
"21:33:44:242 (H:m:s:ms)","GENERIC","93.401","0.2850468909561787","816"
"21:22:19:393 (H:m:s:ms)","GENERIC","93.312","0.2862623577038862","690"
"21:33:41:52 (H:m:s:ms)","AMBULANCE","62.455","0.2856673423724356","1009"
"21:1:43:30 (H:m:s:ms)","GENERIC","93.501","0.25219988165335994","1030"
"21:22:24:303 (H:m:s:ms)","OPERA","124.79599999999999","0.28799927026932604","729"
"21:33:38:181 (H:m:s:ms)","GENERIC","93.86699999999999","0.2838020436301167","837"
"21:1:49:90 (H:m:s:ms)","GENERIC","93.219","0.24821434335626402","1002"
"21:22:25:454 (H:m:s:ms)","GENERIC","93.807","0.2907082066179771","610"
"21:1:55:151 (H:m:s:ms)","GENERIC","124.30799999999999","0.24741413887793373","908"
"21:22:31:515 (H:m:s:ms)","GENERIC","124.381","0.2912690163033713","532"
"21:2:1:212 (H:m:s:ms)","GENERIC","93.237","0.2474570900369568","844"
"21:22:31:898 (H:m:s:ms)","OPERA","93.435","0.29277389369405277","1200"
"21:2:6:315 (H:m:s:ms)","AMBULANCE","62.366","0.2465849956619396","731"
"21:22:37:575 (H:m:s:ms)","GENERIC","93.548","0.2933438931792622","465"
"21:2:7:272 (H:m:s:ms)","GENERIC","124.52000000000001","0.24668962059696872","778"
"21:22:39:493 (H:m:s:ms)","OPERA","124.53399999999999","0.2970231765813966","573"
"21:2:13:333 (H:m:s:ms)","GENERIC","93.15","0.24673800341379218","744"
"21:22:43:636 (H:m:s:ms)","GENERIC","93.425","0.29662731054028657","374"
"21:2:19:393 (H:m:s:ms)","GENERIC","124.63499999999999","0.24729565321258007","704"
"21:22:47:88 (H:m:s:ms)","OPERA","124.637","0.2968795771557129","951"
"21:2:25:454 (H:m:s:ms)","GENERIC","125.35900000000001","0.24782463454943313","616"
"21:2:31:515 (H:m:s:ms)","GENERIC","93.23","0.24866909102872203","539"
"21:35:21:212 (H:m:s:ms)","GENERIC","124.235","0.26580341634334403","840"
"21:35:15:789 (H:m:s:ms)","AMBULANCE","62.443","0.26286597127587064","294"
"21:35:15:151 (H:m:s:ms)","GENERIC","124.63300000000001","0.2611418564575404","887"
"21:35:9:90 (H:m:s:ms)","GENERIC","93.363","0.26421823305115744","996"
"21:35:3:30 (H:m:s:ms)","GENERIC","124.795","0.26317320294786506","1023"
"21:34:56:969 (H:m:s:ms)","GENERIC","62.481","0.25953618622102437","1186"
"21:34:50:909 (H:m:s:ms)","GENERIC","93.80499999999999","0.25548739516531693","1129"
"21:22:49:696 (H:m:s:ms)","GENERIC","93.735","0.29847408711900825","373"
"21:34:44:848 (H:m:s:ms)","GENERIC","93.80799999999999","0.2631428268017511","238"
"21:22:54:683 (H:m:s:ms)","OPERA","124.668","0.29855560551273763","349"
"21:34:44:210 (H:m:s:ms)","AMBULANCE","93.872","0.25976870650845507","856"
"21:2:37:575 (H:m:s:ms)","GENERIC","93.613","0.24927161208470397","475"
"21:22:55:757 (H:m:s:ms)","GENERIC","93.237","0.29875393332037825","304"
"21:34:38:787 (H:m:s:ms)","GENERIC","124.653","0.2626968158248458","276"
"21:2:37:894 (H:m:s:ms)","AMBULANCE","62.363","0.2514499692744449","317"
"21:23:1:818 (H:m:s:ms)","GENERIC","124.47200000000001","0.29975228755421185","237"
"21:34:32:727 (H:m:s:ms)","GENERIC","124.486","0.2627932379687421","340"
"21:2:43:636 (H:m:s:ms)","GENERIC","124.868","0.24864314023794604","414"
"21:23:2:278 (H:m:s:ms)","OPERA","124.60900000000001","0.3014197460301802","758"
"21:2:49:696 (H:m:s:ms)","GENERIC","125.571","0.2485574517905307","383"
"21:23:7:878 (H:m:s:ms)","GENERIC","93.429","0.3011325522702993","1143"
"21:2:55:757 (H:m:s:ms)","GENERIC","124.31","0.24783742880790724","306"
"21:23:9:873 (H:m:s:ms)","OPERA","124.513","0.3016677217483295","266"
"21:3:1:818 (H:m:s:ms)","GENERIC","93.199","0.24720334160742297","235"
"21:23:13:939 (H:m:s:ms)","GENERIC","124.207","0.3001934103450833","1118"
"21:3:7:878 (H:m:s:ms)","GENERIC","124.906","0.24695873141549832","1167"
"21:23:17:468 (H:m:s:ms)","OPERA","124.608","0.3022917633493092","553"
"21:3:9:473 (H:m:s:ms)","AMBULANCE","93.763","0.2510833620097847","603"
"21:23:20:0 (H:m:s:ms)","GENERIC","93.771","0.3027453394551814","1104"
"21:3:13:939 (H:m:s:ms)","GENERIC","124.148","0.24933503662382836","1124"
"21:3:20:0 (H:m:s:ms)","GENERIC","125.428","0.24820426919446092","1103"
"21:36:18:947 (H:m:s:ms)","AMBULANCE","93.886","0.26446502784302167","1116"
"21:36:15:757 (H:m:s:ms)","GENERIC","93.30799999999999","0.26213292849849856","292"
"21:36:9:696 (H:m:s:ms)","GENERIC","93.451","0.2605870309747634","382"
"21:36:3:636 (H:m:s:ms)","GENERIC","124.528","0.2616977551876416","399"
"21:35:57:575 (H:m:s:ms)","GENERIC","93.51","0.26569319108328404","464"
"21:35:51:515 (H:m:s:ms)","GENERIC","125.048","0.2657639877618727","528"
"21:23:25:63 (H:m:s:ms)","OPERA","62.015","0.30148349652628575","948"
"21:35:47:368 (H:m:s:ms)","AMBULANCE","124.92099999999999","0.26640636549804914","699"
"21:23:26:60 (H:m:s:ms)","GENERIC","93.691","0.30256052255434096","972"
"21:35:45:454 (H:m:s:ms)","GENERIC","93.658","0.2631724119732256","604"
"21:3:26:60 (H:m:s:ms)","GENERIC","125.361","0.249072817926992","978"
"21:23:32:121 (H:m:s:ms)","GENERIC","125.141","0.3018483551582995","935"
"21:35:39:393 (H:m:s:ms)","GENERIC","124.95500000000001","0.26454845345565803","675"
"21:3:32:121 (H:m:s:ms)","GENERIC","93.578","0.247403024766852","948"
"21:23:32:658 (H:m:s:ms)","OPERA","93.45","0.30275958142667286","428"
"21:35:33:333 (H:m:s:ms)","GENERIC","93.214","0.2630633845304569","721"
"21:5:48:0 (H:m:s:ms)","GENERIC","125.619","0.25381282727089305","1932"
"21:23:38:181 (H:m:s:ms)","GENERIC","93.88900000000001","0.30275826296857117","837"
"21:35:27:272 (H:m:s:ms)","GENERIC","93.69800000000001","0.26643613247355746","793"
"21:3:41:52 (H:m:s:ms)","AMBULANCE","93.684","0.25431923656582234","1076"
"21:23:40:253 (H:m:s:ms)","OPERA","93.469","0.3039019610326984","815"
"21:3:44:242 (H:m:s:ms)","GENERIC","93.402","0.25601630751813004","813"
"21:23:44:242 (H:m:s:ms)","GENERIC","124.67500000000001","0.30081485729400465","825"
"21:3:50:303 (H:m:s:ms)","GENERIC","93.785","0.25436793585134476","751"
"21:23:47:848 (H:m:s:ms)","OPERA","93.32900000000001","0.3022439637488894","259"
"21:3:56:363 (H:m:s:ms)","GENERIC","125.02799999999999","0.2553485037283583","685"
"21:23:50:303 (H:m:s:ms)","GENERIC","93.767","0.3060508745872999","756"
"21:4:2:424 (H:m:s:ms)","GENERIC","93.31099999999999","0.2550202097601198","601"
"21:23:55:443 (H:m:s:ms)","OPERA","124.72800000000001","0.3084922089087239","636"
"21:4:8:484 (H:m:s:ms)","GENERIC","93.458","0.25376732990547923","548"
"21:4:12:631 (H:m:s:ms)","AMBULANCE","62.47","0.25321561637275014","494"
"21:37:16:363 (H:m:s:ms)","GENERIC","125.685","0.2611267118873822","659"
"21:37:10:303 (H:m:s:ms)","GENERIC","124.457","0.26207202377869115","739"
"21:37:4:242 (H:m:s:ms)","GENERIC","93.53800000000001","0.26481773602166747","784"
"21:36:58:181 (H:m:s:ms)","GENERIC","125.229","0.26384186598055337","859"
"21:36:52:121 (H:m:s:ms)","GENERIC","124.728","0.26813543358197445","925"
"21:36:50:526 (H:m:s:ms)","AMBULANCE","93.845","0.2673943403558649","549"
"21:23:56:363 (H:m:s:ms)","GENERIC","125.045","0.3079007969821521","683"
"21:24:2:424 (H:m:s:ms)","GENERIC","124.67","0.3063650351447787","607"
"21:36:46:60 (H:m:s:ms)","GENERIC","125.566","0.2668239574964609","998"
"21:4:14:545 (H:m:s:ms)","GENERIC","124.678","0.2559940020453522","476"
"21:24:3:37 (H:m:s:ms)","OPERA","93.404","0.30742124983249","979"
"21:36:40:0 (H:m:s:ms)","GENERIC","125.536","0.26795291997733856","1068"
"21:4:20:606 (H:m:s:ms)","GENERIC","62.151","0.2579579970262178","404"
"21:24:8:484 (H:m:s:ms)","GENERIC","124.91300000000001","0.30717497143642375","548"
"21:36:33:939 (H:m:s:ms)","GENERIC","93.737","0.26866144571718675","1126"
"21:4:26:666 (H:m:s:ms)","GENERIC","93.809","0.25795926770285227","406"
"21:24:10:632 (H:m:s:ms)","OPERA","124.65700000000001","0.30801266624021534","433"
"21:36:27:878 (H:m:s:ms)","GENERIC","124.84100000000001","0.2669497419745078","1173"
"21:4:32:727 (H:m:s:ms)","GENERIC","124.47999999999999","0.25758262436847534","332"
"21:24:14:545 (H:m:s:ms)","GENERIC","124.576","0.308216474075624","488"
"21:36:21:818 (H:m:s:ms)","GENERIC","124.325","0.2656660449384748","218"
"21:4:38:787 (H:m:s:ms)","GENERIC","93.363","0.25654451790669314","263"
"21:24:18:227 (H:m:s:ms)","OPERA","93.517","0.3093383004712854","849"
"21:4:44:210 (H:m:s:ms)","AMBULANCE","62.485","0.25704499194447894","839"
"21:24:20:606 (H:m:s:ms)","GENERIC","125.644","0.3106529708673503","414"
"21:4:44:848 (H:m:s:ms)","GENERIC","93.869","0.2549860407417404","173"
"21:24:25:822 (H:m:s:ms)","OPERA","124.638","0.31145868522719944","264"
"21:5:48:0 (H:m:s:ms)","GENERIC","93.814","0.25170371373967754","2208"
"21:24:26:666 (H:m:s:ms)","GENERIC","125.398","0.3122273760045948","402"
"21:4:56:969 (H:m:s:ms)","GENERIC","93.867","0.2621726485291633","1038"
"21:5:48:0 (H:m:s:ms)","GENERIC","93.872","0.25734925676662","2093"
"21:38:10:909 (H:m:s:ms)","GENERIC","93.92","0.25941491990398974","1115"
"21:38:4:848 (H:m:s:ms)","GENERIC","93.66499999999999","0.26337526678991413","212"
"21:37:58:787 (H:m:s:ms)","GENERIC","125.622","0.26284279179164105","222"
"21:37:53:684 (H:m:s:ms)","AMBULANCE","93.858","0.2579407044546892","392"
"21:37:52:727 (H:m:s:ms)","GENERIC","124.673","0.2571303224553403","312"
"21:37:46:666 (H:m:s:ms)","GENERIC","124.84299999999999","0.25842299918368633","392"
"21:37:40:606 (H:m:s:ms)","GENERIC","124.58","0.2598923176224654","457"
"21:24:32:727 (H:m:s:ms)","GENERIC","124.489","0.3122446323051544","328"
"21:24:33:417 (H:m:s:ms)","OPERA","93.876","0.313831070384199","674"
"21:5:9:90 (H:m:s:ms)","GENERIC","124.66","0.2604791620862718","985"
"21:24:38:787 (H:m:s:ms)","GENERIC","124.646","0.3141473798653414","267"
"21:5:15:151 (H:m:s:ms)","GENERIC","62.097","0.2597786194892274","885"
"21:24:41:12 (H:m:s:ms)","OPERA","124.62700000000001","0.3183375811298237","1045"
"21:37:34:545 (H:m:s:ms)","GENERIC","125.474","0.2602663060382372","523"
"20:45:34:177 (H:m:s:ms)","OPERA","93.697","0.31379288547647505","897"
"21:5:15:789 (H:m:s:ms)","AMBULANCE","62.297","0.26142956464562384","363"
"21:24:44:848 (H:m:s:ms)","GENERIC","125.576","0.31992075302030215","171"
"21:37:28:484 (H:m:s:ms)","GENERIC","93.564","0.26371964391274355","581"
"20:45:39:393 (H:m:s:ms)","GENERIC","125.095","0.31222059992342754","683"
"21:5:21:212 (H:m:s:ms)","GENERIC","93.146","0.2620551038223035","839"
"21:24:48:607 (H:m:s:ms)","OPERA","93.471","0.3208805792640722","407"
"21:37:22:424 (H:m:s:ms)","GENERIC","93.352","0.26583308676559","688"
"20:45:41:772 (H:m:s:ms)","OPERA","62.426","0.3134886703188684","249"
"21:5:27:272 (H:m:s:ms)","GENERIC","93.776","0.2614148354950399","782"
"21:24:50:909 (H:m:s:ms)","GENERIC","93.844","0.3235470286373404","1129"
"21:37:22:105 (H:m:s:ms)","AMBULANCE","62.397","0.26301423548881797","990"
"20:45:45:454 (H:m:s:ms)","GENERIC","93.675","0.31299798774579174","605"
"21:5:33:333 (H:m:s:ms)","GENERIC","124.19800000000001","0.2562605593468401","729"
"21:24:56:202 (H:m:s:ms)","OPERA","93.486","0.3219951129960197","860"
"20:45:49:367 (H:m:s:ms)","OPERA","62.328","0.31213956618185984","690"
"21:5:39:393 (H:m:s:ms)","GENERIC","93.508","0.2571693254335769","705"
"21:24:56:969 (H:m:s:ms)","GENERIC","93.59700000000001","0.32399467880254734","1395"
"20:45:51:515 (H:m:s:ms)","GENERIC","93.479","0.3117732435786162","525"
"21:5:45:454 (H:m:s:ms)","GENERIC","125.327","0.255980312739917","601"
"21:25:3:30 (H:m:s:ms)","GENERIC","93.734","0.3261790599902942","987"
"20:45:56:962 (H:m:s:ms)","OPERA","62.428","0.31119018884703853","1037"
"21:5:47:368 (H:m:s:ms)","AMBULANCE","94.48","0.24860407501377743","656"
"20:45:57:575 (H:m:s:ms)","GENERIC","62.095","0.312357250436827","458"
"21:5:51:515 (H:m:s:ms)","GENERIC","93.517","0.2607411804573501","533"
"20:46:3:636 (H:m:s:ms)","GENERIC","93.333","0.3120016011871506","400"
"20:46:4:556 (H:m:s:ms)","OPERA","93.739","0.3142953742055611","501"
"21:39:5:454 (H:m:s:ms)","GENERIC","93.223","0.2524879384570362","606"
"21:38:59:393 (H:m:s:ms)","GENERIC","93.39099999999999","0.25275166223347145","691"
"21:38:56:842 (H:m:s:ms)","AMBULANCE","93.952","0.25572925784010425","184"
"21:38:53:333 (H:m:s:ms)","GENERIC","125.149","0.2539457195886385","722"
"21:38:47:272 (H:m:s:ms)","GENERIC","93.888","0.2550620570798533","759"
"21:38:41:212 (H:m:s:ms)","GENERIC","124.507","0.2545000989724364","854"
"21:38:35:151 (H:m:s:ms)","GENERIC","93.441","0.2587983364787644","877"
"21:38:29:90 (H:m:s:ms)","GENERIC","93.464","0.26029314441202983","998"
"21:25:3:797 (H:m:s:ms)","OPERA","93.337","0.32768673850007213","238"
"21:25:9:90 (H:m:s:ms)","GENERIC","93.443","0.324189949363015","961"
"21:5:57:575 (H:m:s:ms)","GENERIC","124.946","0.26040915200874887","488"
"21:25:11:392 (H:m:s:ms)","OPERA","93.53999999999999","0.32465881689931464","672"
"21:6:3:636 (H:m:s:ms)","GENERIC","124.477","0.2589825531810113","391"
"21:25:15:151 (H:m:s:ms)","GENERIC","124.65","0.3301713792059184","884"
"20:46:9:696 (H:m:s:ms)","GENERIC","93.42999999999999","0.31270985708457893","381"
"21:6:9:696 (H:m:s:ms)","GENERIC","93.407","0.26279355531043946","386"
"21:25:18:987 (H:m:s:ms)","OPERA","124.60300000000001","0.3293061709718991","1126"
"20:46:12:151 (H:m:s:ms)","OPERA","93.745","0.315406073016036","909"
"21:6:15:757 (H:m:s:ms)","GENERIC","124.625","0.26478604992869015","281"
"21:25:21:212 (H:m:s:ms)","GENERIC","62.107","0.33017071124372477","829"
"21:38:25:263 (H:m:s:ms)","AMBULANCE","62.370999999999995","0.26111209720214457","794"
"20:46:15:757 (H:m:s:ms)","GENERIC","124.525","0.3165940596027469","280"
"21:6:18:947 (H:m:s:ms)","AMBULANCE","62.397999999999996","0.26440609791847164","1242"
"21:25:26:582 (H:m:s:ms)","OPERA","93.332","0.32849145106197636","442"
"21:38:23:30 (H:m:s:ms)","GENERIC","125.237","0.26215505996062394","1029"
"20:46:19:746 (H:m:s:ms)","OPERA","62.370999999999995","0.3188189374029692","319"
"21:6:21:818 (H:m:s:ms)","GENERIC","124.22","0.26482521685695726","220"
"21:25:27:272 (H:m:s:ms)","GENERIC","93.636","0.3304557987778623","783"
"21:38:16:969 (H:m:s:ms)","GENERIC","125.568","0.26017495875829505","1049"
"20:46:21:818 (H:m:s:ms)","GENERIC","93.134","0.31929363010070744","220"
"21:6:27:878 (H:m:s:ms)","GENERIC","124.814","0.2648084344158995","1173"
"21:25:33:333 (H:m:s:ms)","GENERIC","93.201","0.3267426505924778","723"
"20:46:27:341 (H:m:s:ms)","OPERA","62.403","0.319903798712484","675"
"21:6:33:939 (H:m:s:ms)","GENERIC","125.35300000000001","0.2666288593781282","1117"
"21:25:34:177 (H:m:s:ms)","OPERA","62.015","0.3290899180598863","848"
"20:46:27:878 (H:m:s:ms)","GENERIC","124.983","0.322445897531332","1168"
"21:6:40:0 (H:m:s:ms)","GENERIC","125.578","0.26675817652806977","1060"
"20:46:33:939 (H:m:s:ms)","GENERIC","93.702","0.3203121846977613","1118"
"21:6:46:60 (H:m:s:ms)","GENERIC","125.472","0.26685371256991886","991"
"20:46:40:0 (H:m:s:ms)","GENERIC","93.844","0.31677368803575906","1057"
"20:46:42:531 (H:m:s:ms)","OPERA","93.62","0.3187155638887698","468"
"21:39:23:636 (H:m:s:ms)","GENERIC","93.43900000000001","0.25235125427233324","429"
"21:40:0:0 (H:m:s:ms)","GENERIC","124.749","0.2607987688261088","2652"
"21:40:0:0 (H:m:s:ms)","AMBULANCE","62.312","0.2597256062818927","2596"
"21:39:53:939 (H:m:s:ms)","GENERIC","125.071","0.26028918324060224","1127"
"21:39:47:878 (H:m:s:ms)","GENERIC","93.405","0.25814789672017596","1175"
"21:39:41:818 (H:m:s:ms)","GENERIC","93.47","0.26381861874978607","239"
"21:39:35:757 (H:m:s:ms)","GENERIC","124.47399999999999","0.2612549337117573","300"
"21:39:29:696 (H:m:s:ms)","GENERIC","125.03999999999999","0.2576652351092606","408"
"21:39:28:421 (H:m:s:ms)","AMBULANCE","93.935","0.25693273960279134","655"
"21:6:50:526 (H:m:s:ms)","AMBULANCE","62.385000000000005","0.26753955727463596","500"
"21:6:52:121 (H:m:s:ms)","GENERIC","124.67500000000001","0.27038373229609935","916"
"20:46:46:60 (H:m:s:ms)","GENERIC","93.818","0.31749618596777507","987"
"21:6:58:181 (H:m:s:ms)","GENERIC","125.323","0.26926761341271593","854"
"20:46:50:126 (H:m:s:ms)","OPERA","62.327","0.31751788194187724","886"
"21:7:4:242 (H:m:s:ms)","GENERIC","124.999","0.2684470445813287","795"
"20:46:52:121 (H:m:s:ms)","GENERIC","93.235","0.3181306912537611","929"
"21:7:10:303 (H:m:s:ms)","GENERIC","124.399","0.2647560948689917","742"
"20:46:57:721 (H:m:s:ms)","OPERA","62.437","0.3169465716666832","299"
"21:7:16:363 (H:m:s:ms)","GENERIC","93.836","0.2601182026132339","647"
"21:39:17:575 (H:m:s:ms)","GENERIC","93.42699999999999","0.25142907755728694","459"
"20:46:58:181 (H:m:s:ms)","GENERIC","93.62","0.31768894177565693","853"
"21:7:22:105 (H:m:s:ms)","AMBULANCE","93.712","0.2584086884847058","942"
"21:39:11:515 (H:m:s:ms)","GENERIC","93.75200000000001","0.2530378091621846","538"
"20:47:4:242 (H:m:s:ms)","GENERIC","124.988","0.31549339115120456","786"
"21:7:22:424 (H:m:s:ms)","GENERIC","62.055","0.2595555240675503","662"
"20:47:5:316 (H:m:s:ms)","OPERA","93.772","0.3173185815180522","728"
"21:7:28:484 (H:m:s:ms)","GENERIC","125.018","0.2579435235788347","572"
"20:47:10:303 (H:m:s:ms)","GENERIC","93.213","0.31647680564344527","737"
"21:7:34:545 (H:m:s:ms)","GENERIC","93.821","0.26087063956254913","501"
"20:47:12:911 (H:m:s:ms)","OPERA","62.43","0.31738017938093344","1111"
"20:47:16:363 (H:m:s:ms)","GENERIC","93.9","0.3164607203073302","653"
"21:7:40:606 (H:m:s:ms)","GENERIC","124.55000000000001","0.25851154447944696","441"
"21:7:46:666 (H:m:s:ms)","GENERIC","124.815","0.25854414378917073","383"
"20:47:20:506 (H:m:s:ms)","OPERA","93.623","0.3131569048247535","510"
"21:7:52:727 (H:m:s:ms)","GENERIC","93.311","0.2625200836743816","294"
"20:47:22:424 (H:m:s:ms)","GENERIC","124.776","0.31309092801527155","615"
"21:7:53:684 (H:m:s:ms)","AMBULANCE","93.836","0.2655058484474613","349"
"20:47:28:101 (H:m:s:ms)","OPERA","93.826","0.3131293294649322","1026"
"21:7:58:787 (H:m:s:ms)","GENERIC","93.84100000000001","0.2698999124594759","230"
"20:47:28:484 (H:m:s:ms)","GENERIC","124.973","0.3158649110307016","686"
"21:8:4:848 (H:m:s:ms)","GENERIC","125.189","0.2684335594601457","217"
"20:47:34:545 (H:m:s:ms)","GENERIC","125.586","0.3158672531116105","501"
"21:8:10:909 (H:m:s:ms)","GENERIC","125.66499999999999","0.2623492059121726","1115"
"20:47:35:696 (H:m:s:ms)","OPERA","93.667","0.31914477616203124","341"
"21:8:16:969 (H:m:s:ms)","GENERIC","93.83","0.2639637554077461","1047"
"21:40:0:0 (H:m:s:ms)","GENERIC","62.137","0.256578088998301","2668"
"20:47:40:606 (H:m:s:ms)","GENERIC","124.55","0.31684840340590176","417"
"21:8:23:30 (H:m:s:ms)","GENERIC","93.602","0.2627428725037366","1025"
"20:47:43:291 (H:m:s:ms)","OPERA","93.688","0.3187330293401611","745"
"21:8:25:263 (H:m:s:ms)","AMBULANCE","62.393","0.26434520807068795","762"
"20:47:46:666 (H:m:s:ms)","GENERIC","124.939","0.32015923964898996","371"
"20:47:50:886 (H:m:s:ms)","OPERA","62.463","0.3183181006310587","136"
"21:8:29:90 (H:m:s:ms)","GENERIC","93.437","0.26721624277548267","977"
"21:8:35:151 (H:m:s:ms)","GENERIC","93.499","0.26904352967579814","864"
"20:47:52:727 (H:m:s:ms)","GENERIC","124.53800000000001","0.3198087092370494","288"
"21:8:41:212 (H:m:s:ms)","GENERIC","93.244","0.2724554353589481","854"
"20:47:58:481 (H:m:s:ms)","OPERA","62.393","0.3202939746572715","534"
"21:8:47:272 (H:m:s:ms)","GENERIC","93.83","0.26787727032734665","736"
"20:30:0:0 (H:m:s:ms)","GENERIC","93.768","0.23774412711625126","1084"
"20:47:58:787 (H:m:s:ms)","GENERIC","93.856","0.32358118609260533","235"
"21:8:53:333 (H:m:s:ms)","GENERIC","125.145","0.26465039936919743","720"
"20:30:0:0 (H:m:s:ms)","GENERIC","125.65","0.24155889767940825","1095"
"20:48:4:848 (H:m:s:ms)","GENERIC","93.632","0.32239716070933805","217"
"21:8:56:842 (H:m:s:ms)","AMBULANCE","62.451","0.2663598515838618","241"
"20:30:6:60 (H:m:s:ms)","GENERIC","93.247","0.23928335657534602","994"
"20:48:6:75 (H:m:s:ms)","OPERA","62.503","0.3235897464598208","945"
"21:8:59:393 (H:m:s:ms)","GENERIC","124.832","0.2680333667942925","696"
"20:30:12:121 (H:m:s:ms)","GENERIC","125.622","0.24411186836389429","896"
"20:48:10:909 (H:m:s:ms)","GENERIC","125.67500000000001","0.3215240358453956","1111"
"21:9:5:454 (H:m:s:ms)","GENERIC","93.321","0.2669030469969386","611"
"20:30:18:181 (H:m:s:ms)","GENERIC","93.63","0.24439496652370313","874"
"20:48:13:670 (H:m:s:ms)","OPERA","93.74799999999999","0.3223271337272437","386"
"21:9:11:515 (H:m:s:ms)","GENERIC","125.362","0.26732239018475645","534"
"20:30:24:242 (H:m:s:ms)","GENERIC","124.277","0.24480669908047392","817"
"20:48:16:969 (H:m:s:ms)","GENERIC","93.83500000000001","0.3238588851255975","1050"
"21:9:17:575 (H:m:s:ms)","GENERIC","124.84700000000001","0.26644346937519037","473"
"20:30:30:303 (H:m:s:ms)","GENERIC","93.788","0.24375296809329763","721"
"20:48:21:265 (H:m:s:ms)","OPERA","62.421","0.32514192402932934","783"
"20:30:36:363 (H:m:s:ms)","GENERIC","93.46600000000001","0.24561391103533353","672"
"20:48:23:30 (H:m:s:ms)","GENERIC","93.672","0.3268702716182827","1010"
"20:30:42:424 (H:m:s:ms)","GENERIC","93.22200000000001","0.24755666015601738","637"
"20:30:48:484 (H:m:s:ms)","GENERIC","93.652","0.2461216596026733","547"
"21:9:23:636 (H:m:s:ms)","GENERIC","124.94","0.2661720392537627","431"
"21:9:28:421 (H:m:s:ms)","AMBULANCE","31.042","0.2664944186415224","616"
"20:48:28:860 (H:m:s:ms)","OPERA","62.402","0.3256939522390615","139"
"21:9:29:696 (H:m:s:ms)","GENERIC","93.431","0.26724961203881864","405"
"20:48:29:90 (H:m:s:ms)","GENERIC","93.551","0.32679393808141227","988"
"21:9:35:757 (H:m:s:ms)","GENERIC","62.063","0.2657144407817871","308"
"20:30:54:545 (H:m:s:ms)","GENERIC","62.183","0.2475439661924975","478"
"20:48:35:151 (H:m:s:ms)","GENERIC","124.826","0.3273383521517622","870"
"21:9:41:818 (H:m:s:ms)","GENERIC","93.463","0.26786584539434677","225"
"20:31:0:606 (H:m:s:ms)","GENERIC","124.987","0.24983765322556986","429"
"20:48:36:455 (H:m:s:ms)","OPERA","93.802","0.3293395687523173","604"
"21:9:47:878 (H:m:s:ms)","GENERIC","93.40899999999999","0.2628586821530706","1184"
"20:31:6:666 (H:m:s:ms)","GENERIC","93.83","0.25197509646203614","347"
"20:48:41:212 (H:m:s:ms)","GENERIC","124.458","0.3245417281881978","826"
"21:9:53:939 (H:m:s:ms)","GENERIC","125.07","0.2612858581039841","1115"
"20:31:12:727 (H:m:s:ms)","GENERIC","93.804","0.2549587874818925","309"
"20:48:44:50 (H:m:s:ms)","OPERA","93.53800000000001","0.3278979816557617","994"
"21:10:0:0 (H:m:s:ms)","AMBULANCE","62.425","0.26072036168283336","1069"
"20:31:18:787 (H:m:s:ms)","GENERIC","124.371","0.2540446335098167","274"
"20:48:47:272 (H:m:s:ms)","GENERIC","93.807","0.3276922830813909","743"
"21:10:0:0 (H:m:s:ms)","GENERIC","124.682","0.2656709052624878","1089"
"20:31:24:848 (H:m:s:ms)","GENERIC","93.741","0.255969827333171","204"
"20:48:51:645 (H:m:s:ms)","OPERA","93.632","0.3256592427395001","432"
"21:10:0:0 (H:m:s:ms)","GENERIC","93.858","0.26132057812216153","1101"
"20:31:30:909 (H:m:s:ms)","GENERIC","125.15299999999999","0.2523920057779164","1145"
"20:48:53:333 (H:m:s:ms)","GENERIC","93.608","0.32559169139826744","711"
"20:31:36:969 (H:m:s:ms)","GENERIC","93.343","0.2491805407655515","1089"
"20:48:59:240 (H:m:s:ms)","OPERA","62.359","0.324721282772577","876"
"20:31:43:30 (H:m:s:ms)","GENERIC","124.97","0.24967768206592736","1019"
"20:31:49:90 (H:m:s:ms)","GENERIC","93.184","0.24756956825350804","994"
"20:48:59:393 (H:m:s:ms)","GENERIC","124.881","0.3240813090626405","679"
"20:49:5:454 (H:m:s:ms)","GENERIC","124.415","0.3230550757931139","600"
"20:31:55:151 (H:m:s:ms)","GENERIC","93.19399999999999","0.2490357275129267","892"
"20:49:6:835 (H:m:s:ms)","OPERA","93.545","0.3236592671986277","225"
"20:32:1:212 (H:m:s:ms)","GENERIC","93.328","0.24897803178730143","827"
"20:49:11:515 (H:m:s:ms)","GENERIC","93.693","0.3196653468835369","522"
"20:32:7:272 (H:m:s:ms)","GENERIC","93.319","0.24864884803081824","769"
"20:49:14:430 (H:m:s:ms)","OPERA","93.625","0.3217310372893026","609"
"20:32:13:333 (H:m:s:ms)","GENERIC","93.217","0.24714002457233192","733"
"20:49:17:575 (H:m:s:ms)","GENERIC","93.437","0.3221454217456753","473"
"20:32:19:393 (H:m:s:ms)","GENERIC","124.701","0.2450945890341143","702"
"20:49:22:25 (H:m:s:ms)","OPERA","62.400000000000006","0.31924995421544883","1055"
"20:32:25:454 (H:m:s:ms)","GENERIC","125.425","0.2450372084009724","605"
"20:49:23:636 (H:m:s:ms)","GENERIC","125.019","0.3191591728284212","413"
"20:32:31:515 (H:m:s:ms)","GENERIC","93.17","0.24492424389415546","524"
"20:49:29:620 (H:m:s:ms)","OPERA","93.769","0.31831008441098324","460"
"20:32:37:575 (H:m:s:ms)","GENERIC","125.045","0.24579843337450943","462"
"20:49:29:696 (H:m:s:ms)","GENERIC","93.452","0.31925955562756164","401"
"20:32:43:636 (H:m:s:ms)","GENERIC","124.774","0.2455985369587052","414"
"20:32:49:696 (H:m:s:ms)","GENERIC","93.838","0.24753918970837271","369"
"20:49:35:757 (H:m:s:ms)","GENERIC","124.441","0.31681980505562446","303"
"20:49:37:215 (H:m:s:ms)","OPERA","62.47","0.3180012499388998","850"
"20:32:55:757 (H:m:s:ms)","GENERIC","124.291","0.2463024061750925","294"
"20:49:41:818 (H:m:s:ms)","GENERIC","93.47","0.3196089080586511","230"
"20:33:1:818 (H:m:s:ms)","GENERIC","124.417","0.24268770867074121","233"
"20:49:44:810 (H:m:s:ms)","OPERA","62.335","0.31826650090477887","238"
"20:33:7:878 (H:m:s:ms)","GENERIC","124.879","0.24244405171576694","1184"
"20:49:47:878 (H:m:s:ms)","GENERIC","93.407","0.3162617137475609","1171"
"20:33:13:939 (H:m:s:ms)","GENERIC","124.287","0.2433854214387613","1128"
"20:49:52:405 (H:m:s:ms)","OPERA","93.91799999999999","0.31616050713950267","606"
"20:33:20:0 (H:m:s:ms)","GENERIC","93.702","0.24062210227644484","1110"
"20:49:53:939 (H:m:s:ms)","GENERIC","93.62","0.31603777581960785","1119"
"20:33:26:60 (H:m:s:ms)","GENERIC","93.69800000000001","0.24316062931214671","984"
"20:50:0:0 (H:m:s:ms)","OPERA","93.737","0.31766190193259075","1105"
"20:33:32:121 (H:m:s:ms)","GENERIC","93.57900000000001","0.24366607436003032","924"
"20:50:0:0 (H:m:s:ms)","GENERIC","124.99199999999999","0.32055711465221226","1160"
"20:33:38:181 (H:m:s:ms)","GENERIC","93.846","0.24445639148141776","833"
"20:50:0:0 (H:m:s:ms)","GENERIC","93.897","0.32228506164782106","1174"
"20:33:44:242 (H:m:s:ms)","GENERIC","93.395","0.2429188052131309","822"
"20:33:50:303 (H:m:s:ms)","GENERIC","93.771","0.24220624922695305","749"
"20:50:6:60 (H:m:s:ms)","GENERIC","93.333","0.3193693619256789","969"
"20:50:12:121 (H:m:s:ms)","GENERIC","125.62299999999999","0.3175025164222508","902"
"20:33:56:363 (H:m:s:ms)","GENERIC","124.997","0.2407092799496376","683"
"20:50:18:181 (H:m:s:ms)","GENERIC","93.569","0.3165457551102753","866"
"20:34:2:424 (H:m:s:ms)","GENERIC","93.386","0.24214705278648146","616"
"20:50:24:242 (H:m:s:ms)","GENERIC","124.406","0.31431166289222445","818"
"20:10:0:0 (H:m:s:ms)","GENERIC","62.813","0.22242821859339557","1014"
"20:34:8:484 (H:m:s:ms)","GENERIC","93.66","0.24598820009023467","645"
"20:50:30:303 (H:m:s:ms)","GENERIC","93.791","0.31331236667497586","729"
"20:10:0:0 (H:m:s:ms)","GENERIC","93.285","0.2264523547270113","1101"
"20:34:14:545 (H:m:s:ms)","GENERIC","124.678","0.24999367794416666","511"
"20:50:36:363 (H:m:s:ms)","GENERIC","124.868","0.31335007579177004","671"
"20:10:6:60 (H:m:s:ms)","GENERIC","93.408","0.22548097994855898","1002"
"20:34:20:606 (H:m:s:ms)","GENERIC","93.884","0.2508949235181478","405"
"20:50:42:424 (H:m:s:ms)","GENERIC","124.303","0.3109855657090885","638"
"20:10:12:121 (H:m:s:ms)","GENERIC","125.60300000000001","0.23119529462728977","902"
"20:34:26:666 (H:m:s:ms)","GENERIC","125.42699999999999","0.2503298482017982","403"
"20:50:48:484 (H:m:s:ms)","GENERIC","93.681","0.309741492959199","549"
"20:10:18:181 (H:m:s:ms)","GENERIC","125.081","0.23082439834022997","883"
"20:34:32:727 (H:m:s:ms)","GENERIC","124.614","0.24800495801600766","329"
"20:50:54:545 (H:m:s:ms)","GENERIC","93.883","0.3044775941693971","479"
"20:10:24:242 (H:m:s:ms)","GENERIC","124.27799999999999","0.2308788099298601","820"
"20:34:38:787 (H:m:s:ms)","GENERIC","124.699","0.24817179096715683","273"
"20:51:0:606 (H:m:s:ms)","GENERIC","124.986","0.3026027492936128","430"
"20:10:30:303 (H:m:s:ms)","GENERIC","93.86","0.23249460063898128","729"
"20:34:44:848 (H:m:s:ms)","GENERIC","93.825","0.2508233536747229","168"
"20:10:36:363 (H:m:s:ms)","GENERIC","124.94300000000001","0.2329788507957857","690"
"20:34:50:909 (H:m:s:ms)","GENERIC","93.879","0.251622040009697","1128"
"20:10:42:424 (H:m:s:ms)","GENERIC","124.243","0.23197133297739256","637"
"20:10:48:484 (H:m:s:ms)","GENERIC","93.62899999999999","0.23449106555587268","544"
"20:51:6:666 (H:m:s:ms)","GENERIC","93.873","0.301499138574938","352"
"20:51:12:727 (H:m:s:ms)","GENERIC","125.268","0.29845239252389766","316"
"20:34:56:969 (H:m:s:ms)","GENERIC","93.837","0.25168560651172367","1046"
"20:51:18:787 (H:m:s:ms)","GENERIC","93.22800000000001","0.29549759183482294","273"
"20:35:3:30 (H:m:s:ms)","GENERIC","93.862","0.24860213343436832","985"
"20:51:24:848 (H:m:s:ms)","GENERIC","125.30799999999999","0.29277073410652216","203"
"20:10:54:545 (H:m:s:ms)","GENERIC","93.926","0.23357994549548544","477"
"20:35:9:90 (H:m:s:ms)","GENERIC","124.594","0.24559363465731535","986"
"20:51:30:909 (H:m:s:ms)","GENERIC","125.267","0.2881127672457447","1127"
"20:11:0:606 (H:m:s:ms)","GENERIC","125.078","0.23404608743249591","438"
"20:35:15:151 (H:m:s:ms)","GENERIC","124.803","0.2444815431479408","884"
"20:51:36:969 (H:m:s:ms)","GENERIC","93.28","0.2882211282262681","1078"
"20:11:6:666 (H:m:s:ms)","GENERIC","93.783","0.2362457583670336","347"
"20:35:21:212 (H:m:s:ms)","GENERIC","93.114","0.24409020853854071","843"
"20:51:43:30 (H:m:s:ms)","GENERIC","124.952","0.2860041334531587","1015"
"20:11:12:727 (H:m:s:ms)","GENERIC","125.32300000000001","0.23880111072608812","329"
"20:35:27:272 (H:m:s:ms)","GENERIC","62.103","0.24435966455776845","794"
"20:51:49:90 (H:m:s:ms)","GENERIC","93.192","0.28460531203571293","1001"
"20:11:18:787 (H:m:s:ms)","GENERIC","93.262","0.23759879689882302","276"
"20:35:33:333 (H:m:s:ms)","GENERIC","93.14","0.24410217104480728","733"
"20:51:55:151 (H:m:s:ms)","GENERIC","93.275","0.2805984283524634","907"
"20:11:24:848 (H:m:s:ms)","GENERIC","62.083","0.23568016105347014","214"
"20:35:39:393 (H:m:s:ms)","GENERIC","93.87100000000001","0.2427648250209532","700"
"20:52:1:212 (H:m:s:ms)","GENERIC","124.514","0.27985861014636954","825"
"20:11:30:909 (H:m:s:ms)","GENERIC","125.253","0.23374533717992027","1150"
"20:35:45:454 (H:m:s:ms)","GENERIC","93.665","0.24226322730558444","606"
"20:11:36:969 (H:m:s:ms)","GENERIC","124.559","0.2310512851689187","1089"
"20:35:51:515 (H:m:s:ms)","GENERIC","124.9","0.24096760964899236","529"
"20:11:43:30 (H:m:s:ms)","GENERIC","124.857","0.2273744061803731","1034"
"20:11:49:90 (H:m:s:ms)","GENERIC","124.215","0.2283677433096722","991"
"20:0:54:545 (H:m:s:ms)","GENERIC","62.841","0.09736471068309659","483"
"20:1:0:606 (H:m:s:ms)","GENERIC","62.51","0.11051451108909859","443"
"20:1:6:666 (H:m:s:ms)","GENERIC","62.79","0.11654936600630571","362"
"20:1:12:727 (H:m:s:ms)","GENERIC","62.694","0.12175729696026251","330"
"20:1:18:787 (H:m:s:ms)","GENERIC","93.24799999999999","0.12862410826503","274"
"20:1:24:848 (H:m:s:ms)","GENERIC","94.374","0.13369313382123219","218"
"20:1:30:909 (H:m:s:ms)","GENERIC","94.15","0.13939777324583094","1146"
"20:1:36:969 (H:m:s:ms)","GENERIC","62.285","0.140788353058424","1096"
"20:1:43:30 (H:m:s:ms)","GENERIC","62.43","0.14249119467742313","1039"
"20:1:49:90 (H:m:s:ms)","GENERIC","93.217","0.1443388807197902","978"
"20:35:57:575 (H:m:s:ms)","GENERIC","93.55799999999999","0.2417152854634025","488"
"20:36:3:636 (H:m:s:ms)","GENERIC","93.33800000000001","0.23871750729201072","393"
"20:11:55:151 (H:m:s:ms)","GENERIC","124.25","0.2259633200558708","904"
"20:36:9:696 (H:m:s:ms)","GENERIC","93.47399999999999","0.234643170560368","376"
"20:12:1:212 (H:m:s:ms)","GENERIC","93.225","0.2263465936964597","848"
"20:36:15:757 (H:m:s:ms)","GENERIC","93.28","0.23573913157961807","289"
"20:12:7:272 (H:m:s:ms)","GENERIC","93.352","0.22542534104101258","770"
"20:36:21:818 (H:m:s:ms)","GENERIC","93.12100000000001","0.23566139330569538","217"
"20:12:13:333 (H:m:s:ms)","GENERIC","124.321","0.22286344012242518","735"
"20:36:27:878 (H:m:s:ms)","GENERIC","125.018","0.23326325900329622","1185"
"20:12:19:393 (H:m:s:ms)","GENERIC","124.70599999999999","0.21959796591729214","708"
"20:36:33:939 (H:m:s:ms)","GENERIC","125.274","0.23573337158774574","1116"
"20:12:25:454 (H:m:s:ms)","GENERIC","125.452","0.22159044138224943","599"
"20:36:40:0 (H:m:s:ms)","GENERIC","125.613","0.2394113220718321","1062"
"20:12:31:515 (H:m:s:ms)","GENERIC","124.375","0.21862991456117414","541"
"20:36:46:60 (H:m:s:ms)","GENERIC","125.524","0.2406749431633055","993"
"20:12:37:575 (H:m:s:ms)","GENERIC","125.094","0.21555906127704252","468"
"20:36:52:121 (H:m:s:ms)","GENERIC","124.62","0.23842382232159473","922"
"20:12:43:636 (H:m:s:ms)","GENERIC","93.406","0.2195204257867862","407"
"20:12:49:696 (H:m:s:ms)","GENERIC","93.89","0.22013620859511554","372"
"20:1:55:151 (H:m:s:ms)","GENERIC","93.17099999999999","0.1485253659376321","917"
"20:2:1:212 (H:m:s:ms)","GENERIC","93.428","0.15069014238224704","852"
"20:2:7:272 (H:m:s:ms)","GENERIC","93.601","0.15250473923879176","774"
"20:2:13:333 (H:m:s:ms)","GENERIC","93.25","0.16007520324610938","730"
"20:2:19:393 (H:m:s:ms)","GENERIC","93.66300000000001","0.1636122621371241","691"
"20:2:25:454 (H:m:s:ms)","GENERIC","94.387","0.16516943721429242","600"
"20:2:31:515 (H:m:s:ms)","GENERIC","93.289","0.17050823254925732","544"
"20:2:37:575 (H:m:s:ms)","GENERIC","94.027","0.17475489333040456","476"
"20:2:43:636 (H:m:s:ms)","GENERIC","62.340999999999994","0.17726983571635674","430"
"20:2:49:696 (H:m:s:ms)","GENERIC","62.753","0.17934588789280279","348"
"20:36:58:181 (H:m:s:ms)","GENERIC","125.185","0.23785948324300824","858"
"20:37:4:242 (H:m:s:ms)","GENERIC","93.58","0.23779051941499268","785"
"20:12:55:757 (H:m:s:ms)","GENERIC","124.293","0.22270512878065254","290"
"20:37:10:303 (H:m:s:ms)","GENERIC","93.192","0.23776392391135717","738"
"20:13:1:818 (H:m:s:ms)","GENERIC","93.239","0.22004642149142473","237"
"20:37:16:363 (H:m:s:ms)","GENERIC","125.61099999999999","0.23737295209873047","658"
"20:13:7:878 (H:m:s:ms)","GENERIC","124.86699999999999","0.22293262496319508","1178"
"20:37:22:424 (H:m:s:ms)","GENERIC","124.67699999999999","0.238156063933627","614"
"20:13:13:939 (H:m:s:ms)","GENERIC","124.185","0.2228082450993674","1125"
"20:37:28:484 (H:m:s:ms)","GENERIC","124.994","0.2406991774068389","572"
"20:13:20:0 (H:m:s:ms)","GENERIC","93.75","0.22153962279286513","1123"
"20:37:34:545 (H:m:s:ms)","GENERIC","125.459","0.24125024011228752","509"
"20:13:26:60 (H:m:s:ms)","GENERIC","93.725","0.22124691231189603","976"
"20:37:40:606 (H:m:s:ms)","GENERIC","93.313","0.2434246039749357","438"
"20:13:32:121 (H:m:s:ms)","GENERIC","93.548","0.22205852872144155","940"
"20:37:46:666 (H:m:s:ms)","GENERIC","93.44800000000001","0.24465167163552196","401"
"20:13:38:181 (H:m:s:ms)","GENERIC","125.6","0.22001624819143745","839"
"20:37:52:727 (H:m:s:ms)","GENERIC","124.71","0.24284910691230016","307"
"20:13:44:242 (H:m:s:ms)","GENERIC","124.643","0.22147825042784874","809"
"20:13:50:303 (H:m:s:ms)","GENERIC","93.763","0.21908850959270884","750"
"20:2:55:757 (H:m:s:ms)","GENERIC","62.228","0.18169325440208373","327"
"20:3:1:818 (H:m:s:ms)","GENERIC","62.188","0.18520332611247325","243"
"20:3:7:878 (H:m:s:ms)","GENERIC","93.783","0.1861473168018441","189"
"20:3:13:939 (H:m:s:ms)","GENERIC","93.154","0.18790422509307395","1125"
"20:3:20:0 (H:m:s:ms)","GENERIC","94.312","0.19142836072030603","1061"
"20:3:26:60 (H:m:s:ms)","GENERIC","94.28399999999999","0.19298426614712852","983"
"20:3:32:121 (H:m:s:ms)","GENERIC","94.137","0.19410156784809277","943"
"20:3:38:181 (H:m:s:ms)","GENERIC","31.079","0.19776299994280794","825"
"20:3:44:242 (H:m:s:ms)","GENERIC","93.627","0.19998982411310565","808"
"20:3:50:303 (H:m:s:ms)","GENERIC","94.364","0.2030955400750147","758"
"20:37:58:787 (H:m:s:ms)","GENERIC","93.849","0.24683647972992537","225"
"20:38:4:848 (H:m:s:ms)","GENERIC","125.23400000000001","0.2489905699066518","218"
"20:13:56:363 (H:m:s:ms)","GENERIC","125.09899999999999","0.21817436313463998","688"
"20:38:10:909 (H:m:s:ms)","GENERIC","93.901","0.24922122944105152","1121"
"20:14:2:424 (H:m:s:ms)","GENERIC","93.312","0.2217636905005598","636"
"20:38:16:969 (H:m:s:ms)","GENERIC","93.834","0.2504834612291344","1046"
"20:14:8:484 (H:m:s:ms)","GENERIC","125.37299999999999","0.22290561868549713","578"
"20:38:23:30 (H:m:s:ms)","GENERIC","93.628","0.25010539953826316","1022"
"20:14:14:545 (H:m:s:ms)","GENERIC","93.433","0.22377511351250462","511"
"20:38:29:90 (H:m:s:ms)","GENERIC","124.854","0.25032484473712785","1000"
"20:14:20:606 (H:m:s:ms)","GENERIC","125.623","0.2287823707852043","410"
"20:38:35:151 (H:m:s:ms)","GENERIC","124.755","0.25184510266676247","873"
"20:14:26:666 (H:m:s:ms)","GENERIC","93.764","0.23153570939485435","408"
"20:38:41:212 (H:m:s:ms)","GENERIC","124.477","0.24690793940321834","852"
"20:14:32:727 (H:m:s:ms)","GENERIC","124.618","0.2312929609896515","327"
"20:38:47:272 (H:m:s:ms)","GENERIC","125.595","0.2528167247796759","742"
"20:14:38:787 (H:m:s:ms)","GENERIC","93.414","0.23345131241135372","249"
"20:38:53:333 (H:m:s:ms)","GENERIC","125.21799999999999","0.2536631826684189","718"
"20:14:44:848 (H:m:s:ms)","GENERIC","93.851","0.23511060881809195","173"
"20:14:50:909 (H:m:s:ms)","GENERIC","93.91300000000001","0.23742757472610665","1126"
"20:3:56:363 (H:m:s:ms)","GENERIC","94.047","0.20437079017806617","687"
"20:4:2:424 (H:m:s:ms)","GENERIC","62.378","0.20726531036988624","641"
"20:4:8:484 (H:m:s:ms)","GENERIC","62.696","0.21116661328001943","586"
"20:4:14:545 (H:m:s:ms)","GENERIC","93.7","0.2120313156933716","519"
"20:4:20:606 (H:m:s:ms)","GENERIC","62.802","0.21330472287985733","407"
"20:4:26:666 (H:m:s:ms)","GENERIC","94.294","0.2146196566168924","404"
"20:4:32:727 (H:m:s:ms)","GENERIC","93.534","0.21607646918218762","337"
"20:4:38:787 (H:m:s:ms)","GENERIC","93.687","0.21728926776751134","273"
"20:4:44:848 (H:m:s:ms)","GENERIC","94.513","0.22153068234835735","175"
"20:4:50:909 (H:m:s:ms)","GENERIC","62.782","0.22294493390898218","1134"
"20:38:59:393 (H:m:s:ms)","GENERIC","124.856","0.2513829597325079","710"
"20:39:5:454 (H:m:s:ms)","GENERIC","93.262","0.24806421931933123","616"
"20:14:56:969 (H:m:s:ms)","GENERIC","125.544","0.23620570953924677","1059"
"20:39:11:515 (H:m:s:ms)","GENERIC","93.695","0.24603770903472774","528"
"20:15:3:30 (H:m:s:ms)","GENERIC","93.84100000000001","0.23601684897824843","990"
"20:39:17:575 (H:m:s:ms)","GENERIC","124.77799999999999","0.2442654767567938","469"
"20:15:9:90 (H:m:s:ms)","GENERIC","124.535","0.2359694304356126","994"
"20:39:23:636 (H:m:s:ms)","GENERIC","125.009","0.24446097617630097","427"
"20:15:15:151 (H:m:s:ms)","GENERIC","124.78399999999999","0.23573860114322573","878"
"20:39:29:696 (H:m:s:ms)","GENERIC","93.45700000000001","0.24504014713966452","404"
"20:15:21:212 (H:m:s:ms)","GENERIC","124.184","0.23648275332941496","836"
"20:39:35:757 (H:m:s:ms)","GENERIC","124.488","0.24583628872892882","302"
"20:15:27:272 (H:m:s:ms)","GENERIC","125.39099999999999","0.23661411459089665","777"
"20:39:41:818 (H:m:s:ms)","GENERIC","124.946","0.24203832731611744","228"
"20:15:33:333 (H:m:s:ms)","GENERIC","93.195","0.23691163319284492","722"
"20:39:47:878 (H:m:s:ms)","GENERIC","124.773","0.24129144295347352","1175"
"20:15:39:393 (H:m:s:ms)","GENERIC","93.809","0.23724934393048505","679"
"20:39:53:939 (H:m:s:ms)","GENERIC","125.128","0.23918986819062255","1113"
"20:15:45:454 (H:m:s:ms)","GENERIC","125.269","0.23218996101345304","596"
"20:15:51:515 (H:m:s:ms)","GENERIC","93.55000000000001","0.23252020597121956","530"
"20:4:56:969 (H:m:s:ms)","GENERIC","94.484","0.22619353335313158","1064"
"20:5:3:30 (H:m:s:ms)","GENERIC","31.046","0.22602328966357016","984"
"20:5:9:90 (H:m:s:ms)","GENERIC","62.266999999999996","0.2246866872898678","995"
"20:5:15:151 (H:m:s:ms)","GENERIC","62.432","0.21929518977504955","889"
"20:5:21:212 (H:m:s:ms)","GENERIC","62.064","0.21927421414557008","843"
"20:5:27:272 (H:m:s:ms)","GENERIC","94.304","0.22213060451843478","786"
"20:5:33:333 (H:m:s:ms)","GENERIC","62.179","0.2216204300697183","719"
"20:5:39:393 (H:m:s:ms)","GENERIC","94.379","0.22394711208444873","675"
"20:5:45:454 (H:m:s:ms)","GENERIC","94.21000000000001","0.2234878245617061","611"
"20:5:51:515 (H:m:s:ms)","GENERIC","93.995","0.22246364321875567","533"
"20:15:57:575 (H:m:s:ms)","GENERIC","93.505","0.22979185038426586","485"
"20:16:3:636 (H:m:s:ms)","GENERIC","93.339","0.23086540603325495","391"
"20:16:9:696 (H:m:s:ms)","GENERIC","93.452","0.23115763153379226","379"
"20:16:15:757 (H:m:s:ms)","GENERIC","124.52799999999999","0.22948005649734263","280"
"20:16:21:818 (H:m:s:ms)","GENERIC","93.173","0.23032486837465274","219"
"20:16:27:878 (H:m:s:ms)","GENERIC","124.831","0.22987958749952067","1188"
"20:16:33:939 (H:m:s:ms)","GENERIC","93.691","0.2328891681486942","1115"
"20:16:40:0 (H:m:s:ms)","GENERIC","125.549","0.23450832130444882","1062"
"20:16:46:60 (H:m:s:ms)","GENERIC","93.842","0.23631476766941226","984"
"20:16:52:121 (H:m:s:ms)","GENERIC","93.38300000000001","0.2371823081954413","914"
"20:5:57:575 (H:m:s:ms)","GENERIC","62.522999999999996","0.22157226489620835","493"
"20:6:3:636 (H:m:s:ms)","GENERIC","62.245999999999995","0.2214865452659101","397"
"20:6:9:696 (H:m:s:ms)","GENERIC","93.791","0.2235961813558397","383"
"20:6:15:757 (H:m:s:ms)","GENERIC","93.395","0.22354044946027302","290"
"20:6:21:818 (H:m:s:ms)","GENERIC","93.145","0.2228959217921822","225"
"20:6:27:878 (H:m:s:ms)","GENERIC","93.857","0.22159494297333146","198"
"20:6:33:939 (H:m:s:ms)","GENERIC","62.655","0.2227634312529385","1113"
"20:6:40:0 (H:m:s:ms)","GENERIC","94.49600000000001","0.225566260774994","1023"
"20:6:46:60 (H:m:s:ms)","GENERIC","94.5","0.22643808071820354","988"
"20:6:52:121 (H:m:s:ms)","GENERIC","93.542","0.22640710954041426","929"
"20:16:58:181 (H:m:s:ms)","GENERIC","125.233","0.23774123843737488","858"
"20:17:4:242 (H:m:s:ms)","GENERIC","93.511","0.23691709050628995","802"
"20:17:10:303 (H:m:s:ms)","GENERIC","124.41999999999999","0.23608386878695434","739"
"20:17:16:363 (H:m:s:ms)","GENERIC","125.685","0.2406792064828363","659"
"20:17:22:424 (H:m:s:ms)","GENERIC","124.757","0.239307035979442","617"
"20:17:28:484 (H:m:s:ms)","GENERIC","93.602","0.2374880474343878","579"
"20:17:34:545 (H:m:s:ms)","GENERIC","93.744","0.2389073985499237","499"
"20:17:40:606 (H:m:s:ms)","GENERIC","93.348","0.23638739480049148","447"
"20:17:46:666 (H:m:s:ms)","GENERIC","93.486","0.23307577457923473","396"
"20:17:52:727 (H:m:s:ms)","GENERIC","93.355","0.2365306990412498","307"
"20:6:58:181 (H:m:s:ms)","GENERIC","62.665000000000006","0.2259623877664434","861"
"20:7:4:242 (H:m:s:ms)","GENERIC","94.088","0.22968732109136358","801"
"20:7:10:303 (H:m:s:ms)","GENERIC","93.446","0.22999696664158387","737"
"20:7:16:363 (H:m:s:ms)","GENERIC","94.589","0.22948348428339732","662"
"20:7:22:424 (H:m:s:ms)","GENERIC","93.798","0.23059555373206517","618"
"20:7:28:484 (H:m:s:ms)","GENERIC","62.56","0.23393156974803578","580"
"20:7:34:545 (H:m:s:ms)","GENERIC","62.69","0.234689339155965","501"
"20:7:40:606 (H:m:s:ms)","GENERIC","93.51599999999999","0.23416298500781837","459"
"20:7:46:666 (H:m:s:ms)","GENERIC","62.39","0.23516722994625486","395"
"20:7:52:727 (H:m:s:ms)","GENERIC","62.332","0.23295795890240129","322"
"20:17:58:787 (H:m:s:ms)","GENERIC","125.53200000000001","0.23713531023790482","251"
"20:18:4:848 (H:m:s:ms)","GENERIC","93.627","0.2357314654571117","208"
"20:18:10:909 (H:m:s:ms)","GENERIC","125.566","0.23570226962143223","1115"
"20:18:16:969 (H:m:s:ms)","GENERIC","125.65","0.2351419912806753","1053"
"20:18:23:30 (H:m:s:ms)","GENERIC","93.643","0.23660765901586525","1027"
"20:18:29:90 (H:m:s:ms)","GENERIC","124.81700000000001","0.23860592427354618","1002"
"20:18:35:151 (H:m:s:ms)","GENERIC","93.415","0.24255667197243383","871"
"20:18:41:212 (H:m:s:ms)","GENERIC","124.47800000000001","0.2438657170999657","846"
"20:18:47:272 (H:m:s:ms)","GENERIC","93.813","0.24395867219277384","740"
"20:18:53:333 (H:m:s:ms)","GENERIC","93.586","0.24127746654517065","705"
"20:7:58:787 (H:m:s:ms)","GENERIC","94.542","0.23453245561649458","228"
"20:8:4:848 (H:m:s:ms)","GENERIC","94.181","0.2342596692950803","213"
"20:8:10:909 (H:m:s:ms)","GENERIC","62.796","0.23517809666135703","1115"
"20:8:16:969 (H:m:s:ms)","GENERIC","31.097","0.23676266941619736","1053"
"20:8:23:30 (H:m:s:ms)","GENERIC","62.679","0.23676852019647765","1021"
"20:8:29:90 (H:m:s:ms)","GENERIC","93.73599999999999","0.23899727031078746","1011"
"20:8:35:151 (H:m:s:ms)","GENERIC","62.388999999999996","0.2386324051451797","876"
"20:8:41:212 (H:m:s:ms)","GENERIC","62.247","0.236532114316378","856"
"20:8:47:272 (H:m:s:ms)","GENERIC","94.48400000000001","0.23977666861107497","744"
"20:8:53:333 (H:m:s:ms)","GENERIC","94.057","0.23760348270802398","718"
"20:18:59:393 (H:m:s:ms)","GENERIC","124.809","0.24330822628992915","699"
"20:19:5:454 (H:m:s:ms)","GENERIC","124.38","0.2410455076058852","609"
"20:19:11:515 (H:m:s:ms)","GENERIC","125.362","0.24219908124861567","527"
"20:19:17:575 (H:m:s:ms)","GENERIC","124.815","0.24529427653700564","466"
"20:19:23:636 (H:m:s:ms)","GENERIC","93.542","0.24271944065250073","429"
"20:19:29:696 (H:m:s:ms)","GENERIC","93.475","0.24440302935750294","388"
"20:19:35:757 (H:m:s:ms)","GENERIC","93.29299999999999","0.2445130471615107","292"
"20:19:41:818 (H:m:s:ms)","GENERIC","124.91300000000001","0.2426807243920226","240"
"20:19:47:878 (H:m:s:ms)","GENERIC","93.36500000000001","0.24080871286493166","1178"
"20:19:53:939 (H:m:s:ms)","GENERIC","125.09","0.237979236478461","1122"
"20:8:59:393 (H:m:s:ms)","GENERIC","62.400000000000006","0.23688578334797591","703"
"20:9:5:454 (H:m:s:ms)","GENERIC","93.428","0.23466336261729534","612"
"20:9:11:515 (H:m:s:ms)","GENERIC","62.611000000000004","0.2321681538545118","528"
"20:9:17:575 (H:m:s:ms)","GENERIC","62.477","0.23110015899304293","466"
"20:9:23:636 (H:m:s:ms)","GENERIC","62.499","0.2299131744189478","433"
"20:9:29:696 (H:m:s:ms)","GENERIC","93.955","0.2300468553054855","396"
"20:9:35:757 (H:m:s:ms)","GENERIC","62.308","0.22921917816644394","300"
"20:9:41:818 (H:m:s:ms)","GENERIC","93.847","0.2304626388246033","231"
"20:9:47:878 (H:m:s:ms)","GENERIC","93.637","0.22368887563475576","183"
"20:9:53:939 (H:m:s:ms)","GENERIC","62.558","0.22152952046384447","1128"
"21:40:42:424 (H:m:s:ms)","GENERIC","124.156","0.25543067434376865","630"
"21:40:36:363 (H:m:s:ms)","GENERIC","93.494","0.2579264085902148","683"
"21:40:30:303 (H:m:s:ms)","GENERIC","93.851","0.2574101350402565","731"
"21:40:24:242 (H:m:s:ms)","GENERIC","93.162","0.2584265685709954","818"
"21:40:18:181 (H:m:s:ms)","GENERIC","125.235","0.258160687451427","872"
"21:40:12:121 (H:m:s:ms)","GENERIC","93.895","0.2567675183791846","899"
"21:40:6:60 (H:m:s:ms)","GENERIC","93.358","0.25518123376655794","1008"
"21:41:0:606 (H:m:s:ms)","GENERIC","124.988","0.25369489634525366","434"
"21:40:54:545 (H:m:s:ms)","GENERIC","125.606","0.2547946667167407","481"
"21:40:48:484 (H:m:s:ms)","GENERIC","125.14699999999999","0.2562474825185512","548"
