"time (H:m:s:ms)","type","latency","utilisation","waiting"
"21:42:49:696 (H:m:s:ms)","GENERIC","93.093","0.35054271657897806","562"
"21:42:31:515 (H:m:s:ms)","GENERIC","93.266","0.3482935941479319","719"
"21:42:25:454 (H:m:s:ms)","GENERIC","93.443","0.34676823383959204","895"
"21:42:19:393 (H:m:s:ms)","GENERIC","62.055","0.349953537104204","832"
"21:42:13:333 (H:m:s:ms)","GENERIC","93.123","0.3563925136056765","946"
"21:42:7:272 (H:m:s:ms)","GENERIC","124.923","0.3547789917316857","1132"
"21:42:1:212 (H:m:s:ms)","GENERIC","62.099","0.3535445168354209","988"
"21:41:55:151 (H:m:s:ms)","GENERIC","93.593","0.3511319053856023","1173"
"21:41:49:90 (H:m:s:ms)","GENERIC","93.142","0.35339051787441084","1239"
"21:42:43:636 (H:m:s:ms)","GENERIC","93.244","0.34782798266902015","557"
"21:42:37:575 (H:m:s:ms)","GENERIC","93.589","0.347832929422179","682"
"21:43:56:363 (H:m:s:ms)","GENERIC","62.085","0.36910384467307966","829"
"21:43:50:303 (H:m:s:ms)","GENERIC","93.467","0.37022123556187686","889"
"21:43:38:181 (H:m:s:ms)","GENERIC","62.113","0.3701612283422755","1064"
"20:0:0:0 (H:m:s:ms)","GENERIC","62.370000000000005","0.03381259357156144","1924"
"21:43:32:121 (H:m:s:ms)","GENERIC","93.304","0.36862400151029956","1081"
"20:0:6:60 (H:m:s:ms)","GENERIC","31.076","0.05502060665027961","1192"
"21:43:26:60 (H:m:s:ms)","GENERIC","93.663","0.3677985115611767","1232"
"20:0:12:121 (H:m:s:ms)","GENERIC","62.489000000000004","0.07808418698619017","1200"
"21:43:20:0 (H:m:s:ms)","GENERIC","62.033","0.3651785361231255","1224"
"20:0:18:181 (H:m:s:ms)","GENERIC","93.71000000000001","0.0914575288721083","1194"
"21:43:13:939 (H:m:s:ms)","GENERIC","93.13900000000001","0.3561450892400219","1389"
"20:0:24:242 (H:m:s:ms)","GENERIC","62.474000000000004","0.11192794909236549","1219"
"21:43:7:878 (H:m:s:ms)","GENERIC","93.089","0.3523807101456985","1336"
"20:0:30:303 (H:m:s:ms)","GENERIC","62.233000000000004","0.11551056992032767","1050"
"21:43:1:818 (H:m:s:ms)","GENERIC","93.597","0.3533088658677848","352"
"20:0:36:363 (H:m:s:ms)","GENERIC","62.138000000000005","0.13041305424928634","949"
"21:42:55:757 (H:m:s:ms)","GENERIC","93.206","0.3532248759632597","352"
"20:0:42:424 (H:m:s:ms)","GENERIC","31.043","0.13900765581293154","796"
"21:10:30:303 (H:m:s:ms)","GENERIC","93.281","0.32417078234228835","982"
"20:0:48:484 (H:m:s:ms)","GENERIC","62.358000000000004","0.15379857676660108","823"
"21:10:36:363 (H:m:s:ms)","GENERIC","93.183","0.32283922300048756","964"
"21:10:42:424 (H:m:s:ms)","GENERIC","62.049","0.32103063018341677","813"
"21:10:48:484 (H:m:s:ms)","GENERIC","62.127","0.3187939064301778","840"
"21:10:54:545 (H:m:s:ms)","GENERIC","93.57900000000001","0.3211763189164436","754"
"21:11:0:606 (H:m:s:ms)","GENERIC","93.401","0.32399373705900475","596"
"21:11:6:666 (H:m:s:ms)","GENERIC","93.35499999999999","0.3231422572487513","597"
"21:11:12:727 (H:m:s:ms)","GENERIC","62.045","0.32065539964107737","407"
"21:43:44:242 (H:m:s:ms)","GENERIC","93.06700000000001","0.37039761148896566","1052"
"21:11:18:787 (H:m:s:ms)","GENERIC","62.127","0.3211810736094076","509"
"21:11:24:848 (H:m:s:ms)","GENERIC","93.22800000000001","0.3205963302911892","436"
"21:25:57:575 (H:m:s:ms)","GENERIC","124.435","0.3474181034498485","637"
"21:45:3:30 (H:m:s:ms)","GENERIC","62.077","0.3508779286037419","1328"
"21:44:56:969 (H:m:s:ms)","GENERIC","93.537","0.35467861973102666","1198"
"21:44:50:909 (H:m:s:ms)","GENERIC","62.077","0.3529501417315159","1380"
"21:44:44:848 (H:m:s:ms)","GENERIC","93.443","0.3573703252496232","503"
"21:44:38:787 (H:m:s:ms)","GENERIC","93.428","0.35958178386031603","342"
"21:44:32:727 (H:m:s:ms)","GENERIC","93.36","0.35801197372164045","402"
"21:44:26:666 (H:m:s:ms)","GENERIC","93.285","0.3594805527832041","513"
"21:44:20:606 (H:m:s:ms)","GENERIC","124.291","0.3639136086470478","800"
"21:44:14:545 (H:m:s:ms)","GENERIC","62.045","0.3636075747836557","640"
"21:44:8:484 (H:m:s:ms)","GENERIC","124.59100000000001","0.3667842558434043","676"
"21:11:30:909 (H:m:s:ms)","GENERIC","124.525","0.3227302498432865","1350"
"21:44:2:424 (H:m:s:ms)","GENERIC","62.081","0.36700309944540926","697"
"21:11:36:969 (H:m:s:ms)","GENERIC","93.537","0.32102645729832935","1167"
"21:11:43:30 (H:m:s:ms)","GENERIC","93.275","0.32344024168991686","1150"
"21:11:49:90 (H:m:s:ms)","GENERIC","124.18","0.32107544944387245","1276"
"21:11:55:151 (H:m:s:ms)","GENERIC","93.60300000000001","0.31436114233115436","1153"
"21:12:1:212 (H:m:s:ms)","GENERIC","93.53399999999999","0.3154309562448305","1004"
"21:12:7:272 (H:m:s:ms)","GENERIC","93.462","0.3139345400333733","1035"
"21:12:13:333 (H:m:s:ms)","GENERIC","62.079","0.3124461511330187","970"
"21:12:19:393 (H:m:s:ms)","GENERIC","93.388","0.31072478801081305","860"
"21:12:25:454 (H:m:s:ms)","GENERIC","93.462","0.31027601517715525","892"
"21:26:34:936 (H:m:s:ms)","OPERA","124.47","0.35003714070684294","1364"
"21:46:9:696 (H:m:s:ms)","GENERIC","93.296","0.33522954358575957","528"
"21:26:33:939 (H:m:s:ms)","GENERIC","93.352","0.34447625938418147","1271"
"21:46:3:636 (H:m:s:ms)","GENERIC","93.388","0.3398115663860602","711"
"21:45:57:575 (H:m:s:ms)","GENERIC","93.255","0.341788730911973","702"
"21:45:51:515 (H:m:s:ms)","GENERIC","93.206","0.344095059383623","727"
"21:26:27:341 (H:m:s:ms)","OPERA","62.186","0.3460522982200908","876"
"21:26:21:818 (H:m:s:ms)","GENERIC","124.229","0.34609314113307815","612"
"21:45:45:454 (H:m:s:ms)","GENERIC","93.315","0.3445163520483507","816"
"21:26:19:746 (H:m:s:ms)","OPERA","62.011","0.34604365005837423","470"
"21:45:39:393 (H:m:s:ms)","GENERIC","93.64500000000001","0.3453456909168238","952"
"21:26:15:757 (H:m:s:ms)","GENERIC","93.363","0.34615535037197204","320"
"21:45:33:333 (H:m:s:ms)","GENERIC","93.364","0.3437955989566483","1033"
"21:26:12:151 (H:m:s:ms)","OPERA","93.3","0.346646691303879","983"
"21:45:27:272 (H:m:s:ms)","GENERIC","93.195","0.3469287952634388","901"
"21:31:4:0 (H:m:s:ms)","GENERIC","93.304","0.33470171875036453","18581"
"21:45:21:212 (H:m:s:ms)","GENERIC","93.275","0.343654310769583","993"
"21:12:31:515 (H:m:s:ms)","GENERIC","124.487","0.3155810642696135","759"
"21:30:32:0 (H:m:s:ms)","OPERA","93.261","0.33316320806087263","6323"
"21:45:15:151 (H:m:s:ms)","GENERIC","93.166","0.3522307354528441","1120"
"21:12:37:575 (H:m:s:ms)","GENERIC","93.576","0.31590476406690854","630"
"21:26:3:636 (H:m:s:ms)","GENERIC","93.402","0.3499747859829406","621"
"21:45:9:90 (H:m:s:ms)","GENERIC","93.623","0.35139904024701984","1054"
"21:12:43:636 (H:m:s:ms)","GENERIC","93.224","0.3188685445633601","522"
"21:12:49:696 (H:m:s:ms)","GENERIC","93.127","0.3185007129747207","582"
"21:12:55:757 (H:m:s:ms)","GENERIC","62.063","0.31172893101439153","462"
"21:13:1:818 (H:m:s:ms)","GENERIC","93.536","0.3128245194737636","262"
"21:13:7:878 (H:m:s:ms)","GENERIC","93.05699999999999","0.3134671798300473","1396"
"21:13:13:939 (H:m:s:ms)","GENERIC","93.163","0.31395187370281163","1326"
"21:13:20:0 (H:m:s:ms)","GENERIC","93.209","0.31198660435095393","1220"
"21:13:26:60 (H:m:s:ms)","GENERIC","93.625","0.3170433104603351","1186"
"21:26:27:878 (H:m:s:ms)","GENERIC","62.061","0.3453011738266429","1629"
"21:27:12:911 (H:m:s:ms)","OPERA","93.282","0.34843085297198334","1368"
"21:47:16:363 (H:m:s:ms)","GENERIC","93.47200000000001","0.33938504645579315","828"
"21:27:10:303 (H:m:s:ms)","GENERIC","93.398","0.34506026568492193","899"
"21:47:10:303 (H:m:s:ms)","GENERIC","93.405","0.3413897163144909","965"
"21:31:35:0 (H:m:s:ms)","OPERA","93.225","0.33075766005397944","41256"
"21:47:4:242 (H:m:s:ms)","GENERIC","93.243","0.3423922988646067","966"
"21:46:58:181 (H:m:s:ms)","GENERIC","93.281","0.3446330343305419","1115"
"21:46:52:121 (H:m:s:ms)","GENERIC","124.93100000000001","0.3418712708291229","1173"
"21:31:35:0 (H:m:s:ms)","GENERIC","93.269","0.32964527433538643","38890"
"21:26:58:181 (H:m:s:ms)","GENERIC","124.471","0.3437724225019681","1091"
"21:26:57:721 (H:m:s:ms)","OPERA","93.253","0.34219060292277537","515"
"21:46:46:60 (H:m:s:ms)","GENERIC","62.163","0.3428225659322637","1198"
"21:26:52:121 (H:m:s:ms)","GENERIC","93.456","0.34439363425003117","1240"
"21:46:40:0 (H:m:s:ms)","GENERIC","93.357","0.3435717939432814","1391"
"21:31:35:0 (H:m:s:ms)","OPERA","93.22","0.32935456615396785","38484"
"21:46:33:939 (H:m:s:ms)","GENERIC","93.29","0.3405543210837918","1293"
"21:13:32:121 (H:m:s:ms)","GENERIC","93.313","0.3178726840554649","1065"
"21:26:46:60 (H:m:s:ms)","GENERIC","62.149","0.34341443419781637","1190"
"21:46:27:878 (H:m:s:ms)","GENERIC","62.067","0.34089182795337536","1426"
"21:13:38:181 (H:m:s:ms)","GENERIC","62.155","0.31590143295581635","1045"
"21:26:42:531 (H:m:s:ms)","OPERA","93.25","0.34596275916429536","761"
"21:46:21:818 (H:m:s:ms)","GENERIC","93.19200000000001","0.3353231153270598","477"
"21:13:44:242 (H:m:s:ms)","GENERIC","62.063","0.316930074769996","1059"
"21:26:40:0 (H:m:s:ms)","GENERIC","93.408","0.3463586199897588","1279"
"21:46:15:757 (H:m:s:ms)","GENERIC","62.057","0.3334538001693386","471"
"21:13:50:303 (H:m:s:ms)","GENERIC","93.493","0.3217889195309104","927"
"21:13:56:363 (H:m:s:ms)","GENERIC","93.45","0.32087094513514064","975"
"21:14:2:424 (H:m:s:ms)","GENERIC","93.389","0.31817400452492806","766"
"21:14:8:484 (H:m:s:ms)","GENERIC","93.332","0.3174013439637809","813"
"21:14:14:545 (H:m:s:ms)","GENERIC","93.41","0.3193306391217787","670"
"21:14:20:606 (H:m:s:ms)","GENERIC","93.206","0.31983220830536374","659"
"21:14:26:666 (H:m:s:ms)","GENERIC","93.28999999999999","0.32342010931037574","631"
"21:31:35:0 (H:m:s:ms)","OPERA","93.206","0.3200856659326961","24533"
"21:48:23:30 (H:m:s:ms)","GENERIC","93.565","0.34488653124007984","1215"
"21:27:46:666 (H:m:s:ms)","GENERIC","93.398","0.346242269746297","589"
"21:48:16:969 (H:m:s:ms)","GENERIC","62.045","0.34471047115100456","1307"
"21:31:35:0 (H:m:s:ms)","OPERA","93.168","0.3207572375940491","8517"
"21:48:10:909 (H:m:s:ms)","GENERIC","62.293","0.34626025110163267","1418"
"21:27:40:606 (H:m:s:ms)","GENERIC","62.121","0.34433475645957795","667"
"21:48:4:848 (H:m:s:ms)","GENERIC","62.053","0.3551711168833065","489"
"21:47:58:787 (H:m:s:ms)","GENERIC","93.473","0.3544762697244259","524"
"21:47:52:727 (H:m:s:ms)","GENERIC","93.40100000000001","0.3569062596893394","546"
"21:31:35:0 (H:m:s:ms)","OPERA","93.21","0.3255519195918622","15554"
"21:27:34:545 (H:m:s:ms)","GENERIC","93.381","0.3436668379141369","555"
"21:27:28:484 (H:m:s:ms)","GENERIC","62.125","0.34579422745667754","869"
"21:47:46:666 (H:m:s:ms)","GENERIC","93.339","0.36004537448646934","456"
"21:14:32:727 (H:m:s:ms)","GENERIC","93.382","0.32626495983249354","383"
"21:31:35:0 (H:m:s:ms)","OPERA","124.495","0.3245728670594585","4068"
"21:47:40:606 (H:m:s:ms)","GENERIC","62.107","0.3558487941768869","632"
"21:14:38:787 (H:m:s:ms)","GENERIC","93.418","0.3280915400868322","397"
"21:27:22:424 (H:m:s:ms)","GENERIC","93.416","0.3458155521559419","743"
"21:47:34:545 (H:m:s:ms)","GENERIC","93.353","0.3577116157056815","720"
"20:52:31:515 (H:m:s:ms)","GENERIC","62.248000000000005","0.325254142159409","684"
"21:14:44:848 (H:m:s:ms)","GENERIC","93.486","0.3255230742650464","408"
"21:31:35:0 (H:m:s:ms)","OPERA","93.238","0.32206163510024677","2861"
"21:47:28:484 (H:m:s:ms)","GENERIC","93.184","0.3523587116431523","737"
"20:52:37:575 (H:m:s:ms)","GENERIC","93.577","0.3209926618329389","729"
"21:14:50:909 (H:m:s:ms)","GENERIC","62.081","0.32278252829562826","1340"
"21:27:16:363 (H:m:s:ms)","GENERIC","62.089","0.347131928005475","845"
"21:47:22:424 (H:m:s:ms)","GENERIC","93.37299999999999","0.35107771224082335","699"
"20:52:43:636 (H:m:s:ms)","GENERIC","93.227","0.3238380247770633","493"
"21:14:56:969 (H:m:s:ms)","GENERIC","93.591","0.32240028421749484","1138"
"20:52:49:696 (H:m:s:ms)","GENERIC","62.145","0.3246900270000412","587"
"21:15:3:30 (H:m:s:ms)","GENERIC","93.149","0.3328139247847414","1326"
"20:52:55:757 (H:m:s:ms)","GENERIC","93.215","0.32313930639474503","556"
"21:15:9:90 (H:m:s:ms)","GENERIC","93.667","0.3332498603081163","1078"
"20:53:1:818 (H:m:s:ms)","GENERIC","93.585","0.32372542674362503","357"
"21:15:15:151 (H:m:s:ms)","GENERIC","124.326","0.33289181061960493","965"
"20:53:7:878 (H:m:s:ms)","GENERIC","93.086","0.32465103453781075","1323"
"21:15:21:212 (H:m:s:ms)","GENERIC","93.249","0.3299491447138072","1075"
"20:53:13:939 (H:m:s:ms)","GENERIC","93.143","0.32174385547781226","1333"
"21:15:27:272 (H:m:s:ms)","GENERIC","93.182","0.33344413794658945","971"
"20:53:20:0 (H:m:s:ms)","GENERIC","93.207","0.3218013307402324","1223"
"20:53:26:60 (H:m:s:ms)","GENERIC","93.635","0.3199985513716157","1242"
"21:31:35:0 (H:m:s:ms)","OPERA","93.228","0.32685958369058576","22299"
"21:49:29:696 (H:m:s:ms)","GENERIC","124.525","0.34428696020572164","538"
"21:28:23:30 (H:m:s:ms)","GENERIC","93.506","0.35129604682336646","1311"
"21:49:23:636 (H:m:s:ms)","GENERIC","62.283","0.3386744933506556","558"
"21:28:21:265 (H:m:s:ms)","OPERA","93.241","0.35137879654048015","1246"
"21:49:17:575 (H:m:s:ms)","GENERIC","31.023","0.3479245885777437","775"
"21:32:38:0 (H:m:s:ms)","GENERIC","93.214","0.3231197475164664","34045"
"21:49:11:515 (H:m:s:ms)","GENERIC","93.338","0.3452327652017527","728"
"21:31:35:0 (H:m:s:ms)","OPERA","93.23599999999999","0.3235441590475699","33551"
"21:49:5:454 (H:m:s:ms)","GENERIC","93.30799999999999","0.34527976935224136","872"
"21:48:59:393 (H:m:s:ms)","GENERIC","62.109","0.34665307878547386","904"
"21:48:53:333 (H:m:s:ms)","GENERIC","124.93","0.3440847396095935","997"
"21:28:10:909 (H:m:s:ms)","GENERIC","124.764","0.3516771436447235","1322"
"21:15:33:333 (H:m:s:ms)","GENERIC","93.408","0.32908257416257136","1050"
"21:31:35:0 (H:m:s:ms)","OPERA","93.20400000000001","0.3219200910245232","30774"
"21:15:39:393 (H:m:s:ms)","GENERIC","93.6","0.3327012313096828","890"
"21:28:4:848 (H:m:s:ms)","GENERIC","93.213","0.3553580477641122","340"
"21:48:47:272 (H:m:s:ms)","GENERIC","62.037","0.3411065177001279","955"
"20:53:32:121 (H:m:s:ms)","GENERIC","93.3","0.3188667304605111","1199"
"21:15:45:454 (H:m:s:ms)","GENERIC","124.59","0.33289187308986723","834"
"21:27:58:787 (H:m:s:ms)","GENERIC","93.547","0.3512118644679996","810"
"21:48:41:212 (H:m:s:ms)","GENERIC","125.105","0.347051819685828","1036"
"20:53:38:181 (H:m:s:ms)","GENERIC","93.27000000000001","0.3099157575276486","1072"
"21:15:51:515 (H:m:s:ms)","GENERIC","62.043","0.3340383875799579","799"
"21:27:58:481 (H:m:s:ms)","OPERA","124.363","0.35065525781209467","813"
"21:48:35:151 (H:m:s:ms)","GENERIC","62.103","0.3479615188805747","1021"
"20:53:44:242 (H:m:s:ms)","GENERIC","93.147","0.308805737226973","1007"
"21:15:57:575 (H:m:s:ms)","GENERIC","93.273","0.33077278635664","782"
"21:27:52:727 (H:m:s:ms)","GENERIC","93.418","0.3501722625010721","444"
"21:48:29:90 (H:m:s:ms)","GENERIC","62.149","0.34644765232296115","1278"
"20:53:50:303 (H:m:s:ms)","GENERIC","93.467","0.30849159048740077","927"
"21:16:3:636 (H:m:s:ms)","GENERIC","93.42","0.3293180076118355","643"
"20:53:56:363 (H:m:s:ms)","GENERIC","62.083","0.3085332271087766","955"
"21:16:9:696 (H:m:s:ms)","GENERIC","93.32","0.33038220847023086","493"
"20:54:2:424 (H:m:s:ms)","GENERIC","62.041","0.30859286953497866","671"
"21:16:15:757 (H:m:s:ms)","GENERIC","124.53999999999999","0.32949802703305364","421"
"20:54:8:484 (H:m:s:ms)","GENERIC","93.373","0.3064576508754123","813"
"21:16:21:818 (H:m:s:ms)","GENERIC","93.19","0.3305934059626439","530"
"20:54:14:545 (H:m:s:ms)","GENERIC","62.057","0.3055074188021249","671"
"21:16:27:878 (H:m:s:ms)","GENERIC","124.608","0.3289361341329082","1379"
"20:54:20:606 (H:m:s:ms)","GENERIC","93.191","0.3059785703393744","687"
"20:54:26:666 (H:m:s:ms)","GENERIC","93.225","0.2977894587577884","616"
"21:31:35:0 (H:m:s:ms)","GENERIC","93.296","0.3348147040087436","44039"
"21:28:59:393 (H:m:s:ms)","GENERIC","93.494","0.34880178142543694","1154"
"22:8:56:842 (H:m:s:ms)","AMBULANCE","62.294","0.30418205314430763","342"
"21:31:35:0 (H:m:s:ms)","OPERA","93.303","0.33136982792578157","26905"
"22:7:53:684 (H:m:s:ms)","AMBULANCE","62.331","0.312520071338755","658"
"21:28:53:333 (H:m:s:ms)","GENERIC","93.503","0.34530921383218044","954"
"22:6:18:947 (H:m:s:ms)","AMBULANCE","93.316","0.3137762041392832","1399"
"21:28:51:645 (H:m:s:ms)","OPERA","62.011","0.3442042892293465","685"
"22:4:44:210 (H:m:s:ms)","AMBULANCE","62.317","0.30807700335891886","1124"
"21:28:47:272 (H:m:s:ms)","GENERIC","93.382","0.34981568050808887","1001"
"22:1:34:736 (H:m:s:ms)","AMBULANCE","62.316","0.3088333289839432","516"
"21:50:0:0 (H:m:s:ms)","GENERIC","62.303","0.3548090628619621","1237"
"21:49:53:939 (H:m:s:ms)","GENERIC","93.336","0.35494394107198746","1264"
"21:16:33:939 (H:m:s:ms)","GENERIC","62.051","0.32999115059837447","1344"
"21:16:40:0 (H:m:s:ms)","GENERIC","93.482","0.32913451376463787","1336"
"21:28:44:50 (H:m:s:ms)","OPERA","93.306","0.3487349524038068","1351"
"20:54:32:727 (H:m:s:ms)","GENERIC","93.279","0.29626926608483767","478"
"21:16:46:60 (H:m:s:ms)","GENERIC","93.587","0.32984316508123646","1181"
"21:28:41:212 (H:m:s:ms)","GENERIC","93.63","0.3479746566536542","1078"
"20:54:38:787 (H:m:s:ms)","GENERIC","124.695","0.2954578516338395","527"
"21:16:52:121 (H:m:s:ms)","GENERIC","124.868","0.33002917213172434","1212"
"21:28:36:455 (H:m:s:ms)","OPERA","93.16","0.34958047365751393","1008"
"21:49:47:878 (H:m:s:ms)","GENERIC","93.24799999999999","0.3533611933438215","1317"
"20:54:44:848 (H:m:s:ms)","GENERIC","93.435","0.2930330784824925","428"
"21:16:58:181 (H:m:s:ms)","GENERIC","93.229","0.3315263365642303","1077"
"21:28:35:151 (H:m:s:ms)","GENERIC","62.089","0.3493392596130014","1061"
"21:49:41:818 (H:m:s:ms)","GENERIC","93.146","0.3540202743997748","405"
"20:54:50:909 (H:m:s:ms)","GENERIC","93.292","0.2934439688633594","1429"
"21:17:4:242 (H:m:s:ms)","GENERIC","93.275","0.3306162832645508","921"
"21:28:29:90 (H:m:s:ms)","GENERIC","93.64","0.3517977852673803","1147"
"21:49:35:757 (H:m:s:ms)","GENERIC","93.202","0.34852754552792287","581"
"20:54:56:969 (H:m:s:ms)","GENERIC","62.171","0.28885943425904254","1217"
"21:17:10:303 (H:m:s:ms)","GENERIC","62.063","0.33347161863818653","974"
"20:55:3:30 (H:m:s:ms)","GENERIC","93.15","0.29108177043074024","1335"
"21:17:16:363 (H:m:s:ms)","GENERIC","62.081","0.3331867730868937","867"
"20:55:9:90 (H:m:s:ms)","GENERIC","62.155","0.2966652439036139","1164"
"21:17:22:424 (H:m:s:ms)","GENERIC","62.079","0.3323769755527577","695"
"20:55:15:151 (H:m:s:ms)","GENERIC","62.057","0.29596676341984","972"
"21:17:28:484 (H:m:s:ms)","GENERIC","93.176","0.3326342375743889","643"
"20:55:21:212 (H:m:s:ms)","GENERIC","93.256","0.2998246872629531","937"
"20:55:27:272 (H:m:s:ms)","GENERIC","62.047","0.296529855707867","1030"
"21:29:41:818 (H:m:s:ms)","GENERIC","93.195","0.34868167086622326","461"
"21:29:37:215 (H:m:s:ms)","OPERA","124.447","0.347829029912643","1117"
"21:29:35:757 (H:m:s:ms)","GENERIC","62.051","0.3456268921758417","442"
"21:32:38:0 (H:m:s:ms)","GENERIC","124.614","0.3208063966563171","20370"
"21:29:29:620 (H:m:s:ms)","OPERA","93.30799999999999","0.3472931233476376","572"
"21:29:23:636 (H:m:s:ms)","GENERIC","93.351","0.35076600352531867","814"
"21:31:35:0 (H:m:s:ms)","OPERA","124.408","0.3244644303982276","11342"
"21:17:34:545 (H:m:s:ms)","GENERIC","93.398","0.3295878962688045","675"
"21:17:40:606 (H:m:s:ms)","GENERIC","93.607","0.32669970068020576","629"
"20:55:33:333 (H:m:s:ms)","GENERIC","93.4","0.29428521103425415","1037"
"21:17:46:666 (H:m:s:ms)","GENERIC","62.065","0.3326542400122679","524"
"20:55:39:393 (H:m:s:ms)","GENERIC","93.611","0.2946270419582673","922"
"21:17:52:727 (H:m:s:ms)","GENERIC","93.439","0.3333093009253704","491"
"21:32:38:0 (H:m:s:ms)","GENERIC","62.019","0.3206309234253614","5630"
"20:55:45:454 (H:m:s:ms)","GENERIC","124.58600000000001","0.29410623999442814","826"
"21:17:58:787 (H:m:s:ms)","GENERIC","93.51400000000001","0.3336636927876747","519"
"21:29:14:430 (H:m:s:ms)","OPERA","62.013","0.3481450670351401","951"
"20:55:51:515 (H:m:s:ms)","GENERIC","93.226","0.2967110918556611","752"
"21:18:4:848 (H:m:s:ms)","GENERIC","62.067","0.33184837721293076","485"
"21:29:11:515 (H:m:s:ms)","GENERIC","93.349","0.34716258307340425","610"
"20:55:57:575 (H:m:s:ms)","GENERIC","93.157","0.29916730148417847","753"
"21:18:10:909 (H:m:s:ms)","GENERIC","93.442","0.33171697547199286","1320"
"21:29:6:835 (H:m:s:ms)","OPERA","93.204","0.34857660348511743","284"
"20:56:3:636 (H:m:s:ms)","GENERIC","93.449","0.29819745609784454","665"
"21:18:16:969 (H:m:s:ms)","GENERIC","93.248","0.32891752106438116","1306"
"20:56:9:696 (H:m:s:ms)","GENERIC","62.101","0.2953134665251978","523"
"21:18:23:30 (H:m:s:ms)","GENERIC","124.99600000000001","0.3292786352593108","1233"
"20:56:15:757 (H:m:s:ms)","GENERIC","93.297","0.29794343144428975","414"
"21:18:29:90 (H:m:s:ms)","GENERIC","62.121","0.3287092225689801","1095"
"20:56:21:818 (H:m:s:ms)","GENERIC","124.239","0.301035333185003","514"
"20:56:27:878 (H:m:s:ms)","GENERIC","124.637","0.2993837905628407","1511"
"21:30:18:181 (H:m:s:ms)","GENERIC","62.073","0.3458779872406484","1027"
"21:30:12:121 (H:m:s:ms)","GENERIC","93.57300000000001","0.3463950146567496","1161"
"21:30:6:60 (H:m:s:ms)","GENERIC","93.651","0.3462340838880853","1263"
"21:30:0:0 (H:m:s:ms)","GENERIC","93.586","0.33685625229772803","2146"
"21:32:38:0 (H:m:s:ms)","GENERIC","93.502","0.32183003689300055","4242"
"21:30:0:0 (H:m:s:ms)","AMBULANCE","31.028","0.33641093619850027","1464"
"21:34:45:0 (H:m:s:ms)","OPERA","62.255","0.3572171260679182","32336"
"21:32:38:0 (H:m:s:ms)","GENERIC","93.37100000000001","0.32131582000893855","21844"
"21:18:35:151 (H:m:s:ms)","GENERIC","93.507","0.32688212560438146","1057"
"21:18:41:212 (H:m:s:ms)","GENERIC","93.6","0.3255579107752543","1138"
"20:56:33:939 (H:m:s:ms)","GENERIC","62.081","0.2993638449159091","1358"
"21:18:47:272 (H:m:s:ms)","GENERIC","62.021","0.3263639577394089","995"
"20:56:40:0 (H:m:s:ms)","GENERIC","93.379","0.3000774014011695","1333"
"21:18:53:333 (H:m:s:ms)","GENERIC","93.527","0.3264785891142881","922"
"20:40:0:0 (H:m:s:ms)","OPERA","31.008","0.30284881790898166","1929"
"20:56:46:60 (H:m:s:ms)","GENERIC","93.55199999999999","0.2980377970547214","1171"
"21:18:59:393 (H:m:s:ms)","GENERIC","93.473","0.3268266867698875","959"
"20:40:0:0 (H:m:s:ms)","GENERIC","62.053","0.3028136201837788","2193"
"20:56:52:121 (H:m:s:ms)","GENERIC","93.448","0.29559011083394093","1244"
"21:19:5:454 (H:m:s:ms)","GENERIC","93.27199999999999","0.33101498008927294","933"
"21:29:52:405 (H:m:s:ms)","OPERA","93.234","0.3483237603399637","1072"
"20:40:0:0 (H:m:s:ms)","GENERIC","93.613","0.3048496831032173","2471"
"20:56:58:181 (H:m:s:ms)","GENERIC","93.255","0.301386403162919","1050"
"21:19:11:515 (H:m:s:ms)","GENERIC","93.34","0.31654237329795953","708"
"21:29:47:878 (H:m:s:ms)","GENERIC","62.089","0.3494544316350983","1347"
"20:40:6:60 (H:m:s:ms)","GENERIC","93.612","0.3097835263510958","1030"
"20:57:4:242 (H:m:s:ms)","GENERIC","62.081","0.30164584024765057","970"
"21:19:17:575 (H:m:s:ms)","GENERIC","93.347","0.3148262734690974","497"
"21:34:45:0 (H:m:s:ms)","OPERA","124.531","0.3521945899679195","31319"
"20:40:7:594 (H:m:s:ms)","OPERA","62.204","0.31022406547044107","699"
"20:57:10:303 (H:m:s:ms)","GENERIC","124.783","0.30083014054695","1044"
"21:19:23:636 (H:m:s:ms)","GENERIC","93.338","0.3034009863652161","641"
"20:40:12:121 (H:m:s:ms)","GENERIC","124.97800000000001","0.3101207376302995","1135"
"20:57:16:363 (H:m:s:ms)","GENERIC","62.093","0.2992263601018608","866"
"21:19:29:696 (H:m:s:ms)","GENERIC","93.355","0.3022292303226791","514"
"20:40:18:181 (H:m:s:ms)","GENERIC","93.483","0.30900518916103537","1079"
"20:57:22:424 (H:m:s:ms)","GENERIC","93.341","0.30212113661907897","716"
"20:40:22:784 (H:m:s:ms)","OPERA","31.007","0.3063423478010358","516"
"20:57:28:484 (H:m:s:ms)","GENERIC","93.22","0.30363091837497197","731"
"20:40:24:242 (H:m:s:ms)","GENERIC","93.584","0.30744774137868885","1049"
"20:40:30:303 (H:m:s:ms)","GENERIC","93.247","0.3057966835220734","929"
"21:30:31:578 (H:m:s:ms)","AMBULANCE","31.022","0.3238202679047884","900"
"21:31:12:727 (H:m:s:ms)","GENERIC","93.414","0.3426673777415735","417"
"21:34:45:0 (H:m:s:ms)","GENERIC","62.287","0.35602045700074275","24997"
"21:31:3:157 (H:m:s:ms)","AMBULANCE","31.026","0.3276725579000275","1234"
"21:34:45:0 (H:m:s:ms)","GENERIC","93.468","0.3534200201960788","23927"
"21:30:54:545 (H:m:s:ms)","GENERIC","93.528","0.33926407426426747","690"
"21:30:48:484 (H:m:s:ms)","GENERIC","124.769","0.34209659969474643","638"
"21:30:42:424 (H:m:s:ms)","GENERIC","93.183","0.34003989458051725","788"
"21:19:35:757 (H:m:s:ms)","GENERIC","62.041","0.3001865406372058","611"
"21:30:36:363 (H:m:s:ms)","GENERIC","62.057","0.34530799490245456","899"
"21:19:41:818 (H:m:s:ms)","GENERIC","93.16","0.3009617335290606","492"
"20:57:34:545 (H:m:s:ms)","GENERIC","93.396","0.30440956353977705","703"
"21:19:47:878 (H:m:s:ms)","GENERIC","93.24600000000001","0.30380215819831347","1268"
"20:57:40:606 (H:m:s:ms)","GENERIC","93.608","0.3076969433217976","608"
"21:19:53:939 (H:m:s:ms)","GENERIC","93.30799999999999","0.30395915250697403","1156"
"20:40:30:379 (H:m:s:ms)","OPERA","62.228","0.30722842645897835","1044"
"20:57:46:666 (H:m:s:ms)","GENERIC","93.432","0.30644076865660846","520"
"21:20:0:0 (H:m:s:ms)","OPERA","124.482","0.30442970924134954","2233"
"20:40:36:363 (H:m:s:ms)","GENERIC","93.215","0.30279239100954364","921"
"20:57:52:727 (H:m:s:ms)","GENERIC","93.459","0.3060967891051962","556"
"21:20:0:0 (H:m:s:ms)","GENERIC","124.79400000000001","0.3063175194922353","2412"
"20:40:37:974 (H:m:s:ms)","OPERA","31.008","0.3062430683643282","1241"
"20:57:58:787 (H:m:s:ms)","GENERIC","93.457","0.3076698326836709","510"
"21:20:0:0 (H:m:s:ms)","GENERIC","93.6","0.30109357208383675","1923"
"20:40:42:424 (H:m:s:ms)","GENERIC","93.127","0.30552692760993394","748"
"20:58:4:848 (H:m:s:ms)","GENERIC","93.201","0.3095715911720975","560"
"21:20:6:60 (H:m:s:ms)","GENERIC","62.169","0.30542427052583254","1058"
"21:34:45:0 (H:m:s:ms)","GENERIC","93.239","0.3632604550273885","6707"
"20:40:45:569 (H:m:s:ms)","OPERA","62.207","0.3093393839712399","553"
"20:58:10:909 (H:m:s:ms)","GENERIC","93.45100000000001","0.3079301740565367","1361"
"21:20:7:594 (H:m:s:ms)","OPERA","62.013","0.30423068170006784","680"
"21:30:24:242 (H:m:s:ms)","GENERIC","62.105","0.34472470450885717","1179"
"20:40:48:484 (H:m:s:ms)","GENERIC","93.396","0.31103778427680456","835"
"21:3:10:0 (H:m:s:ms)","GENERIC","124.489","0.3033823975361326","4152"
"21:20:12:121 (H:m:s:ms)","GENERIC","124.983","0.30389526160683356","1120"
"20:40:53:164 (H:m:s:ms)","OPERA","31.008","0.31052298854964455","971"
"20:58:23:30 (H:m:s:ms)","GENERIC","62.081","0.3074309995451264","1314"
"20:40:54:545 (H:m:s:ms)","GENERIC","93.572","0.31246990264213265","705"
"20:58:29:90 (H:m:s:ms)","GENERIC","62.133","0.3054942012030612","1087"
"20:41:0:606 (H:m:s:ms)","GENERIC","93.33","0.3119621321528964","617"
"20:41:0:759 (H:m:s:ms)","OPERA","31.009","0.31193263993667025","885"
"21:31:30:909 (H:m:s:ms)","GENERIC","93.309","0.3433703200916894","1270"
"21:34:45:0 (H:m:s:ms)","GENERIC","62.041","0.35186667320465825","5372"
"21:32:7:272 (H:m:s:ms)","GENERIC","62.057","0.3265363791028283","974"
"21:32:6:315 (H:m:s:ms)","AMBULANCE","62.263999999999996","0.32699192079043815","868"
"21:32:1:212 (H:m:s:ms)","GENERIC","93.555","0.3283333999786438","992"
"21:31:55:151 (H:m:s:ms)","GENERIC","93.56099999999999","0.3282122884837091","1143"
"21:31:49:90 (H:m:s:ms)","GENERIC","93.116","0.33212282989917497","1307"
"21:31:43:30 (H:m:s:ms)","GENERIC","93.283","0.33049800648661753","1213"
"21:31:36:969 (H:m:s:ms)","GENERIC","93.52000000000001","0.33228333556333045","1347"
"21:31:34:736 (H:m:s:ms)","AMBULANCE","62.236","0.3219324492225465","657"
"20:58:35:151 (H:m:s:ms)","GENERIC","62.093","0.30524488483378337","1046"
"20:58:41:212 (H:m:s:ms)","GENERIC","93.623","0.30225720066806194","1051"
"20:41:6:666 (H:m:s:ms)","GENERIC","93.278","0.3127516493932454","516"
"20:58:47:272 (H:m:s:ms)","GENERIC","93.297","0.30215689622358716","1011"
"20:41:12:727 (H:m:s:ms)","GENERIC","93.363","0.31102885947940884","583"
"20:58:53:333 (H:m:s:ms)","GENERIC","93.532","0.3002665982818147","948"
"20:41:15:949 (H:m:s:ms)","OPERA","62.277","0.3122427512764249","1380"
"20:58:59:393 (H:m:s:ms)","GENERIC","93.513","0.2990519881494554","907"
"20:41:18:787 (H:m:s:ms)","GENERIC","93.601","0.31477086830954765","443"
"20:59:5:454 (H:m:s:ms)","GENERIC","93.223","0.3005692229772578","861"
"20:41:23:544 (H:m:s:ms)","OPERA","62.191","0.31547781320789964","777"
"20:59:11:515 (H:m:s:ms)","GENERIC","124.67599999999999","0.3033581402086983","703"
"20:41:24:848 (H:m:s:ms)","GENERIC","124.393","0.31822419273951835","294"
"20:59:17:575 (H:m:s:ms)","GENERIC","62.035","0.30245821509577986","598"
"21:31:18:787 (H:m:s:ms)","GENERIC","125.087","0.34406044651920414","507"
"20:41:30:909 (H:m:s:ms)","GENERIC","93.269","0.31767941718418635","1245"
"21:4:13:0 (H:m:s:ms)","GENERIC","93.354","0.3150761911881641","10872"
"20:41:31:139 (H:m:s:ms)","OPERA","62.181","0.31929324326382647","1278"
"20:59:29:696 (H:m:s:ms)","GENERIC","124.521","0.30349834739616194","532"
"20:41:36:969 (H:m:s:ms)","GENERIC","93.478","0.3167977077295208","1216"
"20:41:38:734 (H:m:s:ms)","OPERA","31.008","0.31733798124430324","503"
"20:59:35:757 (H:m:s:ms)","GENERIC","93.18","0.3032500141192291","592"
"20:59:41:818 (H:m:s:ms)","GENERIC","93.132","0.30202024360672475","619"
"20:41:43:30 (H:m:s:ms)","GENERIC","93.27600000000001","0.3207025582823812","1163"
"20:59:47:878 (H:m:s:ms)","GENERIC","124.392","0.3023978868584955","1283"
"20:41:46:329 (H:m:s:ms)","OPERA","93.528","0.3236722402287911","922"
"20:59:53:939 (H:m:s:ms)","GENERIC","62.260000000000005","0.30380460519839686","1447"
"20:41:49:90 (H:m:s:ms)","GENERIC","62.089","0.32333046352398","1290"
"21:0:0:0 (H:m:s:ms)","AMBULANCE","31.028","0.30412626000942805","1826"
"20:41:53:924 (H:m:s:ms)","OPERA","62.249","0.32541437290834424","1627"
"21:0:0:0 (H:m:s:ms)","GENERIC","93.422","0.3055868552726414","2073"
"20:41:55:151 (H:m:s:ms)","GENERIC","93.6","0.3251507548897215","1105"
"21:0:0:0 (H:m:s:ms)","GENERIC","125.03200000000001","0.3082391312799929","2291"
"20:42:1:212 (H:m:s:ms)","GENERIC","93.503","0.32679200951006865","1006"
"21:0:6:60 (H:m:s:ms)","GENERIC","62.155","0.31016128631885503","1004"
"20:42:1:518 (H:m:s:ms)","OPERA","62.159","0.32647926593330884","1201"
"21:0:12:121 (H:m:s:ms)","GENERIC","93.541","0.3083407052982664","1114"
"20:42:7:272 (H:m:s:ms)","GENERIC","62.057","0.3278413994688149","904"
"21:0:18:181 (H:m:s:ms)","GENERIC","93.431","0.3083535869443348","1085"
"20:42:9:113 (H:m:s:ms)","OPERA","62.31","0.3296890577492663","1328"
"20:42:13:333 (H:m:s:ms)","GENERIC","93.132","0.33056641771368694","949"
"21:0:24:242 (H:m:s:ms)","GENERIC","125.036","0.3043553563079866","1107"
"21:4:13:0 (H:m:s:ms)","GENERIC","93.23400000000001","0.31582594693337557","10130"
"20:42:16:708 (H:m:s:ms)","OPERA","62.31","0.3330245470191551","683"
"21:0:31:578 (H:m:s:ms)","AMBULANCE","62.284000000000006","0.3079556624721746","724"
"20:42:19:393 (H:m:s:ms)","GENERIC","93.381","0.33461222430763443","927"
"21:0:36:363 (H:m:s:ms)","GENERIC","93.203","0.30643093566979496","941"
"20:20:0:0 (H:m:s:ms)","GENERIC","93.374","0.2844215065070991","1732"
"20:42:24:303 (H:m:s:ms)","OPERA","62.266999999999996","0.33392249771143656","967"
"21:0:42:424 (H:m:s:ms)","GENERIC","93.131","0.30568427954419786","746"
"20:20:0:0 (H:m:s:ms)","GENERIC","125.077","0.2889554334291986","2066"
"20:42:25:454 (H:m:s:ms)","GENERIC","93.42699999999999","0.33291274560641315","922"
"21:0:48:484 (H:m:s:ms)","GENERIC","93.451","0.30340156267666085","872"
"20:20:6:60 (H:m:s:ms)","GENERIC","93.666","0.2899391271892582","1077"
"20:42:31:515 (H:m:s:ms)","GENERIC","93.34","0.3337201237921241","607"
"21:0:54:545 (H:m:s:ms)","GENERIC","93.562","0.2996280270752774","709"
"20:20:12:121 (H:m:s:ms)","GENERIC","93.554","0.2897006712609156","1156"
"20:42:31:898 (H:m:s:ms)","OPERA","93.344","0.3355889007102144","408"
"21:4:13:0 (H:m:s:ms)","GENERIC","93.37","0.31832952995362845","11629"
"20:20:18:181 (H:m:s:ms)","GENERIC","93.449","0.28768491811755076","1170"
"20:42:37:575 (H:m:s:ms)","GENERIC","93.631","0.3331145909704505","714"
"21:1:3:157 (H:m:s:ms)","AMBULANCE","62.289","0.30207620524852624","1145"
"20:20:24:242 (H:m:s:ms)","GENERIC","93.544","0.2892865883399157","1101"
"20:42:43:636 (H:m:s:ms)","GENERIC","93.24199999999999","0.33448340718980923","718"
"21:1:6:666 (H:m:s:ms)","GENERIC","93.278","0.3018147129126301","577"
"20:20:30:303 (H:m:s:ms)","GENERIC","93.247","0.28916020705677276","1017"
"20:42:47:88 (H:m:s:ms)","OPERA","31.007","0.337114340653528","1191"
"20:20:36:363 (H:m:s:ms)","GENERIC","93.195","0.2875893947597743","939"
"20:42:49:696 (H:m:s:ms)","GENERIC","93.151","0.3360584331384316","564"
"20:20:42:424 (H:m:s:ms)","GENERIC","62.061","0.2858261329000956","789"
"20:20:48:484 (H:m:s:ms)","GENERIC","93.375","0.2868377186675939","835"
"21:4:13:0 (H:m:s:ms)","GENERIC","124.67699999999999","0.31210767745979584","7404"
"21:1:18:787 (H:m:s:ms)","GENERIC","93.564","0.30587792215118464","499"
"20:42:54:683 (H:m:s:ms)","OPERA","62.326","0.33741425135662306","582"
"21:4:13:0 (H:m:s:ms)","GENERIC","93.21","0.3136110941255334","8108"
"20:42:55:757 (H:m:s:ms)","GENERIC","93.177","0.33685667668785296","534"
"21:3:42:0 (H:m:s:ms)","GENERIC","93.26599999999999","0.3109711525809998","7726"
"20:20:54:545 (H:m:s:ms)","GENERIC","93.544","0.28630791292480356","696"
"20:43:1:818 (H:m:s:ms)","GENERIC","62.107","0.3363350168365022","315"
"21:1:34:736 (H:m:s:ms)","AMBULANCE","62.241","0.30865290751777474","479"
"20:21:0:606 (H:m:s:ms)","GENERIC","62.049","0.2834117622539352","656"
"20:43:2:278 (H:m:s:ms)","OPERA","62.144999999999996","0.3370023482760315","1447"
"21:1:36:969 (H:m:s:ms)","GENERIC","93.517","0.30985725701763306","1309"
"20:21:6:666 (H:m:s:ms)","GENERIC","93.258","0.28580251137140716","548"
"20:43:7:878 (H:m:s:ms)","GENERIC","124.096","0.336348646122541","1354"
"21:1:43:30 (H:m:s:ms)","GENERIC","93.339","0.3110425688175134","1093"
"20:21:12:727 (H:m:s:ms)","GENERIC","93.322","0.2851621559429648","501"
"20:43:9:873 (H:m:s:ms)","OPERA","31.007","0.33682180551602353","377"
"21:1:49:90 (H:m:s:ms)","GENERIC","93.14699999999999","0.31096327007727503","1213"
"20:21:18:787 (H:m:s:ms)","GENERIC","93.626","0.2871560427470529","462"
"20:43:13:939 (H:m:s:ms)","GENERIC","93.142","0.3390325585419447","1213"
"21:1:55:151 (H:m:s:ms)","GENERIC","93.633","0.3100748311560105","1167"
"20:21:24:848 (H:m:s:ms)","GENERIC","93.242","0.28854398275722715","461"
"20:43:17:468 (H:m:s:ms)","OPERA","93.377","0.3390293666873718","1226"
"21:2:1:212 (H:m:s:ms)","GENERIC","93.52799999999999","0.3072760874246354","1014"
"20:21:30:909 (H:m:s:ms)","GENERIC","93.30600000000001","0.2881667805736538","1339"
"20:43:20:0 (H:m:s:ms)","GENERIC","93.18599999999999","0.33675192462016457","1332"
"20:21:36:969 (H:m:s:ms)","GENERIC","124.904","0.28800315909901514","1329"
"20:43:25:63 (H:m:s:ms)","OPERA","62.251","0.3382128212861745","1468"
"20:21:43:30 (H:m:s:ms)","GENERIC","62.093","0.2896794110053382","1171"
"20:21:49:90 (H:m:s:ms)","GENERIC","93.1","0.29151411007262473","1338"
"20:43:26:60 (H:m:s:ms)","GENERIC","93.644","0.34067201872675484","1229"
"20:43:32:121 (H:m:s:ms)","GENERIC","124.559","0.34163817361074916","966"
"20:21:55:151 (H:m:s:ms)","GENERIC","62.125","0.29105527113376906","1175"
"20:43:32:658 (H:m:s:ms)","OPERA","62.223","0.34644687332815105","631"
"20:22:1:212 (H:m:s:ms)","GENERIC","93.50800000000001","0.2918965791670016","1012"
"20:43:38:181 (H:m:s:ms)","GENERIC","93.27199999999999","0.34238033865903833","1079"
"20:22:7:272 (H:m:s:ms)","GENERIC","62.075","0.29121323617183015","972"
"20:43:40:253 (H:m:s:ms)","OPERA","93.43599999999999","0.3440611178615538","1018"
"20:22:13:333 (H:m:s:ms)","GENERIC","93.116","0.29491620510342403","905"
"20:43:44:242 (H:m:s:ms)","GENERIC","62.115","0.3410615688096887","1062"
"20:22:19:393 (H:m:s:ms)","GENERIC","93.38","0.29618295909221026","845"
"20:43:47:848 (H:m:s:ms)","OPERA","62.275999999999996","0.34284302891168705","714"
"20:22:25:454 (H:m:s:ms)","GENERIC","93.46","0.29506473128205163","872"
"20:43:50:303 (H:m:s:ms)","GENERIC","93.434","0.3433152037193264","993"
"20:22:31:515 (H:m:s:ms)","GENERIC","93.55799999999999","0.29541037710851914","718"
"20:43:55:443 (H:m:s:ms)","OPERA","93.524","0.34614923049707763","911"
"20:22:37:575 (H:m:s:ms)","GENERIC","93.645","0.29563103816731895","655"
"20:43:56:363 (H:m:s:ms)","GENERIC","93.447","0.3448622743162626","986"
"20:22:43:636 (H:m:s:ms)","GENERIC","93.24000000000001","0.29614649720004593","710"
"20:22:49:696 (H:m:s:ms)","GENERIC","93.144","0.2960432711706218","556"
"20:44:2:424 (H:m:s:ms)","GENERIC","62.319","0.34502080505325783","719"
"20:44:8:484 (H:m:s:ms)","GENERIC","93.394","0.34359080880194565","709"
"20:22:55:757 (H:m:s:ms)","GENERIC","93.221","0.29679513024550624","423"
"20:44:10:632 (H:m:s:ms)","OPERA","31.008","0.34664618949778975","432"
"20:23:1:818 (H:m:s:ms)","GENERIC","93.613","0.29859694316836793","349"
"20:44:14:545 (H:m:s:ms)","GENERIC","93.39699999999999","0.34607731327243024","663"
"20:23:7:878 (H:m:s:ms)","GENERIC","93.087","0.29885386015903176","1405"
"20:44:18:227 (H:m:s:ms)","OPERA","62.287","0.34468027998698675","895"
"20:23:13:939 (H:m:s:ms)","GENERIC","93.17999999999999","0.30010140820618436","1358"
"20:44:20:606 (H:m:s:ms)","GENERIC","93.264","0.3444948987112336","769"
"20:23:20:0 (H:m:s:ms)","GENERIC","93.222","0.2975164576411725","1194"
"20:44:25:822 (H:m:s:ms)","OPERA","93.503","0.34500403147417735","444"
"20:23:26:60 (H:m:s:ms)","GENERIC","93.642","0.30145176661438644","1228"
"20:44:26:666 (H:m:s:ms)","GENERIC","124.486","0.3487170690615395","432"
"20:23:32:121 (H:m:s:ms)","GENERIC","62.053","0.2995523627192583","1160"
"20:44:32:727 (H:m:s:ms)","GENERIC","93.316","0.34746761302416823","375"
"20:23:38:181 (H:m:s:ms)","GENERIC","62.125","0.30159001678733544","1069"
"20:44:33:417 (H:m:s:ms)","OPERA","62.288","0.3482185686236613","972"
"20:23:44:242 (H:m:s:ms)","GENERIC","93.133","0.29822610132985294","1057"
"20:23:50:303 (H:m:s:ms)","GENERIC","62.091","0.2981896701182881","936"
"20:44:38:787 (H:m:s:ms)","GENERIC","93.4","0.34769905588049543","341"
"20:44:41:12 (H:m:s:ms)","OPERA","62.194","0.34830788217003017","1101"
"20:23:56:363 (H:m:s:ms)","GENERIC","124.79599999999999","0.3003082180235951","939"
"20:44:44:848 (H:m:s:ms)","GENERIC","93.49799999999999","0.3463044057460586","480"
"20:24:2:424 (H:m:s:ms)","GENERIC","62.089","0.29981740064964874","763"
"20:44:48:607 (H:m:s:ms)","OPERA","62.242000000000004","0.3476702411741836","898"
"20:24:8:484 (H:m:s:ms)","GENERIC","62.269000000000005","0.3017078780016174","843"
"20:44:50:909 (H:m:s:ms)","GENERIC","124.565","0.35018057742411934","1412"
"20:24:14:545 (H:m:s:ms)","GENERIC","93.349","0.30378788101638726","742"
"20:44:56:202 (H:m:s:ms)","OPERA","62.376999999999995","0.34908511276936804","1784"
"20:24:20:606 (H:m:s:ms)","GENERIC","93.221","0.3027410165505642","671"
"20:44:56:969 (H:m:s:ms)","GENERIC","93.589","0.349906377913806","2206"
"20:24:26:666 (H:m:s:ms)","GENERIC","62.041","0.30084904891408154","663"
"20:45:3:30 (H:m:s:ms)","GENERIC","124.273","0.3467345289954225","1412"
"20:24:32:727 (H:m:s:ms)","GENERIC","62.039","0.3014410935917784","575"
"20:45:3:797 (H:m:s:ms)","OPERA","31.008","0.34682714128798714","702"
"20:24:38:787 (H:m:s:ms)","GENERIC","93.408","0.3025836268005318","423"
"20:45:9:90 (H:m:s:ms)","GENERIC","93.67999999999999","0.3429013601991602","1115"
"20:24:44:848 (H:m:s:ms)","GENERIC","93.444","0.30050693113262117","519"
"20:24:50:909 (H:m:s:ms)","GENERIC","93.279","0.2994532664694444","1525"
"20:45:11:392 (H:m:s:ms)","OPERA","62.141000000000005","0.3436739713275746","1002"
"20:45:15:151 (H:m:s:ms)","GENERIC","124.321","0.3450893740977427","1174"
"20:24:56:969 (H:m:s:ms)","GENERIC","93.603","0.30100589738116906","1143"
"20:45:18:987 (H:m:s:ms)","OPERA","62.183","0.34642034777122277","1296"
"20:25:3:30 (H:m:s:ms)","GENERIC","93.21600000000001","0.29427732358892505","1354"
"20:45:21:212 (H:m:s:ms)","GENERIC","93.4","0.34626733110756014","974"
"20:25:9:90 (H:m:s:ms)","GENERIC","93.709","0.29880583237669006","1094"
"20:45:26:582 (H:m:s:ms)","OPERA","31.007","0.3466124815967107","475"
"20:25:15:151 (H:m:s:ms)","GENERIC","93.182","0.299203010006277","979"
"20:45:27:272 (H:m:s:ms)","GENERIC","124.239","0.34884732051517425","1056"
"20:25:21:212 (H:m:s:ms)","GENERIC","93.289","0.30122311988271167","1005"
"20:45:33:333 (H:m:s:ms)","GENERIC","93.422","0.3445012950499946","980"
"20:25:27:272 (H:m:s:ms)","GENERIC","93.092","0.30055223492982147","1001"
"20:45:34:177 (H:m:s:ms)","OPERA","62.214","0.3436547858897444","932"
"20:25:33:333 (H:m:s:ms)","GENERIC","62.081","0.2994124282111287","1058"
"20:45:39:393 (H:m:s:ms)","GENERIC","62.087","0.34218890827733284","941"
"20:25:39:393 (H:m:s:ms)","GENERIC","93.624","0.2983101419756897","881"
"20:45:41:772 (H:m:s:ms)","OPERA","62.212999999999994","0.34529068079437514","336"
"20:25:45:454 (H:m:s:ms)","GENERIC","93.342","0.2977127141022543","843"
"20:25:51:515 (H:m:s:ms)","GENERIC","93.232","0.3000356836902368","832"
"20:25:57:575 (H:m:s:ms)","GENERIC","93.196","0.29946849192165337","762"
"20:26:3:636 (H:m:s:ms)","GENERIC","93.481","0.2978240343069303","752"
"20:26:9:696 (H:m:s:ms)","GENERIC","62.105","0.29246035838812245","591"
"20:26:15:757 (H:m:s:ms)","GENERIC","124.61699999999999","0.2917999009446073","520"
"20:26:21:818 (H:m:s:ms)","GENERIC","62.063","0.29415707105183037","563"
"20:26:27:878 (H:m:s:ms)","GENERIC","124.697","0.2916493734839806","1512"
"20:26:33:939 (H:m:s:ms)","GENERIC","93.338","0.29334347735068295","1398"
"20:26:40:0 (H:m:s:ms)","GENERIC","93.42699999999999","0.29484017516846445","1318"
"20:26:46:60 (H:m:s:ms)","GENERIC","62.105","0.2935443315562407","1196"
"20:26:52:121 (H:m:s:ms)","GENERIC","124.89099999999999","0.29365778004028614","1161"
"20:26:58:181 (H:m:s:ms)","GENERIC","93.259","0.29321991371296735","1096"
"20:27:4:242 (H:m:s:ms)","GENERIC","62.059","0.2918152251074806","1015"
"20:27:10:303 (H:m:s:ms)","GENERIC","62.069","0.291557711150571","1054"
"20:27:16:363 (H:m:s:ms)","GENERIC","62.119","0.28863404164605283","798"
"20:27:22:424 (H:m:s:ms)","GENERIC","93.315","0.2901061839705091","723"
"20:27:28:484 (H:m:s:ms)","GENERIC","93.182","0.29265502351372696","715"
"20:27:34:545 (H:m:s:ms)","GENERIC","124.715","0.2966200550527622","802"
"20:27:40:606 (H:m:s:ms)","GENERIC","93.669","0.2939891061560099","635"
"20:27:46:666 (H:m:s:ms)","GENERIC","93.358","0.29295561236494594","480"
"20:27:52:727 (H:m:s:ms)","GENERIC","93.39699999999999","0.2939042282352546","596"
"20:27:58:787 (H:m:s:ms)","GENERIC","93.49000000000001","0.2940797885014341","526"
"20:28:4:848 (H:m:s:ms)","GENERIC","124.314","0.2975845448167269","497"
"20:28:10:909 (H:m:s:ms)","GENERIC","93.43299999999999","0.30158214540145284","1324"
"20:28:16:969 (H:m:s:ms)","GENERIC","93.257","0.3022113771940374","1410"
"20:28:23:30 (H:m:s:ms)","GENERIC","62.101","0.30146300159350753","1267"
"20:28:29:90 (H:m:s:ms)","GENERIC","62.195","0.3009282255794481","1102"
"20:28:35:151 (H:m:s:ms)","GENERIC","62.071","0.29919415866955723","1050"
"20:28:41:212 (H:m:s:ms)","GENERIC","93.61500000000001","0.30063309959885526","1172"
"20:28:47:272 (H:m:s:ms)","GENERIC","93.32","0.30120527314601564","950"
"20:28:53:333 (H:m:s:ms)","GENERIC","93.523","0.3031212667838109","971"
"20:28:59:393 (H:m:s:ms)","GENERIC","124.837","0.2997313486971945","957"
"20:29:5:454 (H:m:s:ms)","GENERIC","124.505","0.3021510172386919","948"
"20:29:11:515 (H:m:s:ms)","GENERIC","93.363","0.3013135463561389","665"
"20:29:17:575 (H:m:s:ms)","GENERIC","93.399","0.29945732926867175","581"
"20:29:23:636 (H:m:s:ms)","GENERIC","93.36","0.2990612293130573","646"
"20:29:29:696 (H:m:s:ms)","GENERIC","93.306","0.29989306095237184","521"
"20:29:35:757 (H:m:s:ms)","GENERIC","93.19","0.29762439792981393","599"
"20:29:41:818 (H:m:s:ms)","GENERIC","124.206","0.2999050229985853","627"
"20:29:47:878 (H:m:s:ms)","GENERIC","93.244","0.2998774089006441","1291"
"20:29:53:939 (H:m:s:ms)","GENERIC","93.59100000000001","0.2976002274875308","1444"
"21:20:15:189 (H:m:s:ms)","OPERA","62.227999999999994","0.3054345483189835","1034"
"21:20:18:181 (H:m:s:ms)","GENERIC","124.776","0.3028683093932891","1143"
"21:20:22:784 (H:m:s:ms)","OPERA","93.231","0.2995774717627598","523"
"21:20:24:242 (H:m:s:ms)","GENERIC","93.572","0.29938154726568217","1078"
"21:20:30:303 (H:m:s:ms)","GENERIC","124.447","0.2973154740489589","1030"
"21:20:30:379 (H:m:s:ms)","OPERA","124.453","0.29971663905091345","1223"
"21:20:36:363 (H:m:s:ms)","GENERIC","93.165","0.2986918461228384","920"
"21:20:37:974 (H:m:s:ms)","OPERA","93.212","0.30255839299010967","1361"
"21:20:42:424 (H:m:s:ms)","GENERIC","62.035","0.3001349848467963","759"
"21:20:45:569 (H:m:s:ms)","OPERA","93.211","0.30391337074615377","606"
"21:20:48:484 (H:m:s:ms)","GENERIC","93.458","0.30431028626002765","833"
"21:20:53:164 (H:m:s:ms)","OPERA","62.015","0.30365864984103463","981"
"21:20:54:545 (H:m:s:ms)","GENERIC","125.00999999999999","0.3062608571586344","708"
"21:21:0:606 (H:m:s:ms)","GENERIC","93.41","0.3074599097962182","667"
"21:21:0:759 (H:m:s:ms)","OPERA","93.298","0.3063502271942864","1022"
"21:21:6:666 (H:m:s:ms)","GENERIC","62.3","0.30688363507242516","484"
"21:21:12:727 (H:m:s:ms)","GENERIC","62.061","0.306532443629237","474"
"21:21:15:949 (H:m:s:ms)","OPERA","93.179","0.3054161013562114","1458"
"21:21:18:787 (H:m:s:ms)","GENERIC","62.139","0.30632557727124743","467"
"21:21:23:544 (H:m:s:ms)","OPERA","93.197","0.298082266573303","963"
"21:33:7:878 (H:m:s:ms)","GENERIC","62.059","0.3276507032550881","1359"
"21:32:49:696 (H:m:s:ms)","GENERIC","93.109","0.3257464991823762","537"
"21:34:45:0 (H:m:s:ms)","GENERIC","93.232","0.3602495288333824","5751"
"21:32:37:894 (H:m:s:ms)","AMBULANCE","62.321","0.3232970903337496","558"
"21:32:37:575 (H:m:s:ms)","GENERIC","93.575","0.325617125323172","706"
"21:37:23:0 (H:m:s:ms)","GENERIC","93.26400000000001","0.34400690181046695","7845"
"21:32:25:454 (H:m:s:ms)","GENERIC","124.811","0.32571393568395074","766"
"21:34:45:0 (H:m:s:ms)","GENERIC","93.334","0.3526174781471627","5214"
"21:21:24:848 (H:m:s:ms)","GENERIC","93.205","0.30155206188835404","292"
"21:32:13:333 (H:m:s:ms)","GENERIC","93.108","0.32542676521023023","933"
"21:21:30:909 (H:m:s:ms)","GENERIC","62.033","0.3007413644064228","1277"
"21:21:31:139 (H:m:s:ms)","OPERA","124.488","0.305777588019141","1135"
"21:21:36:969 (H:m:s:ms)","GENERIC","93.519","0.30432502179981147","1352"
"21:21:38:734 (H:m:s:ms)","OPERA","93.261","0.3062352910210714","492"
"21:21:43:30 (H:m:s:ms)","GENERIC","93.32900000000001","0.3083070705665427","1094"
"21:21:46:329 (H:m:s:ms)","OPERA","93.25399999999999","0.31132725265680933","983"
"21:21:49:90 (H:m:s:ms)","GENERIC","93.122","0.30892961023616783","1312"
"21:33:1:818 (H:m:s:ms)","GENERIC","93.57300000000001","0.32216161818387157","346"
"21:21:53:924 (H:m:s:ms)","OPERA","93.22200000000001","0.30820595192555833","1295"
"21:34:45:0 (H:m:s:ms)","GENERIC","93.241","0.36135370678335726","5952"
"21:21:55:151 (H:m:s:ms)","GENERIC","93.586","0.3090001479189886","1173"
"21:34:2:424 (H:m:s:ms)","GENERIC","93.417","0.3208295224053028","887"
"21:33:56:363 (H:m:s:ms)","GENERIC","93.441","0.3207635747302943","924"
"21:33:44:242 (H:m:s:ms)","GENERIC","93.06899999999999","0.3216997308534443","1021"
"21:33:41:52 (H:m:s:ms)","AMBULANCE","31.022","0.3212284127348186","1109"
"21:33:38:181 (H:m:s:ms)","GENERIC","62.129","0.3250757271348219","1104"
"21:37:23:0 (H:m:s:ms)","GENERIC","93.298","0.33921615256558185","10389"
"21:33:26:60 (H:m:s:ms)","GENERIC","93.668","0.3275236821750384","1174"
"21:33:20:0 (H:m:s:ms)","GENERIC","62.032","0.3273488059398979","1264"
"21:22:1:212 (H:m:s:ms)","GENERIC","93.54","0.308927728651523","961"
"21:33:13:939 (H:m:s:ms)","GENERIC","62.055","0.32680253233424467","1355"
"21:22:1:518 (H:m:s:ms)","OPERA","93.281","0.31049498649641283","1297"
"21:33:9:473 (H:m:s:ms)","AMBULANCE","31.026","0.32802257356475695","753"
"21:22:7:272 (H:m:s:ms)","GENERIC","62.051","0.31026613868959835","970"
"21:22:9:113 (H:m:s:ms)","OPERA","93.31","0.3134490541127397","1635"
"21:22:13:333 (H:m:s:ms)","GENERIC","93.141","0.3159226092735966","934"
"21:22:16:708 (H:m:s:ms)","OPERA","93.31","0.3164886324139243","898"
"21:22:19:393 (H:m:s:ms)","GENERIC","93.31","0.31763195761658797","896"
"21:22:24:303 (H:m:s:ms)","OPERA","93.2","0.3175649389597902","974"
"21:22:25:454 (H:m:s:ms)","GENERIC","93.425","0.317197889992402","857"
"21:22:31:515 (H:m:s:ms)","GENERIC","93.283","0.31985165385028036","625"
"21:33:50:303 (H:m:s:ms)","GENERIC","62.121","0.32278502680359583","908"
"21:34:56:969 (H:m:s:ms)","GENERIC","93.548","0.34922728900726546","1192"
"21:34:50:909 (H:m:s:ms)","GENERIC","62.093","0.35126934139798566","1220"
"21:34:44:848 (H:m:s:ms)","GENERIC","93.481","0.3399342502016713","828"
"21:34:44:210 (H:m:s:ms)","AMBULANCE","62.099","0.33886324816814994","1169"
"21:34:38:787 (H:m:s:ms)","GENERIC","93.443","0.336649276307956","440"
"21:37:23:0 (H:m:s:ms)","GENERIC","62.093","0.3433529834557517","2531"
"21:34:45:0 (H:m:s:ms)","GENERIC","93.3","0.3521978240330045","2764"
"21:34:20:606 (H:m:s:ms)","GENERIC","93.17","0.3314603342819777","703"
"21:22:31:898 (H:m:s:ms)","OPERA","93.225","0.3203050899683945","1802"
"21:34:14:545 (H:m:s:ms)","GENERIC","62.059","0.32967466274487467","630"
"21:22:37:575 (H:m:s:ms)","GENERIC","93.535","0.31829164240436425","743"
"21:34:12:631 (H:m:s:ms)","AMBULANCE","62.233999999999995","0.3340132844462289","535"
"21:2:6:315 (H:m:s:ms)","AMBULANCE","62.298","0.3064055407451114","826"
"21:22:43:636 (H:m:s:ms)","GENERIC","93.23400000000001","0.3189396473573388","802"
"21:34:8:484 (H:m:s:ms)","GENERIC","62.029","0.32988943540694726","777"
"21:2:7:272 (H:m:s:ms)","GENERIC","93.47","0.309704767920068","926"
"21:22:47:88 (H:m:s:ms)","OPERA","93.275","0.32179661037201324","1087"
"21:2:13:333 (H:m:s:ms)","GENERIC","93.172","0.31397694072098764","886"
"21:22:49:696 (H:m:s:ms)","GENERIC","93.109","0.32154991968596347","565"
"21:2:19:393 (H:m:s:ms)","GENERIC","124.7","0.31777927824675056","928"
"21:22:54:683 (H:m:s:ms)","OPERA","124.344","0.3223774507753932","696"
"21:2:25:454 (H:m:s:ms)","GENERIC","93.42","0.31931373646600775","932"
"21:22:55:757 (H:m:s:ms)","GENERIC","93.204","0.32366165093450083","521"
"21:2:31:515 (H:m:s:ms)","GENERIC","124.514","0.3212219436801815","800"
"21:23:1:818 (H:m:s:ms)","GENERIC","93.559","0.32386502962332975","362"
"21:2:37:575 (H:m:s:ms)","GENERIC","93.597","0.3188857726302751","731"
"21:23:2:278 (H:m:s:ms)","OPERA","124.493","0.3282009162220791","908"
"21:2:37:894 (H:m:s:ms)","AMBULANCE","62.328","0.3015804745207655","742"
"21:23:7:878 (H:m:s:ms)","GENERIC","93.085","0.3288978267304029","1429"
"21:2:43:636 (H:m:s:ms)","GENERIC","93.227","0.31367646845449376","499"
"21:2:49:696 (H:m:s:ms)","GENERIC","62.133","0.3146296594683305","574"
"21:35:51:515 (H:m:s:ms)","GENERIC","93.201","0.35013079989480944","788"
"21:35:47:368 (H:m:s:ms)","AMBULANCE","93.606","0.35137657706169395","767"
"21:35:45:454 (H:m:s:ms)","GENERIC","124.575","0.34969302315292633","882"
"21:35:39:393 (H:m:s:ms)","GENERIC","93.63900000000001","0.3486047952981953","948"
"21:35:33:333 (H:m:s:ms)","GENERIC","62.037","0.34760562869408684","1038"
"21:35:27:272 (H:m:s:ms)","GENERIC","93.21000000000001","0.34925838294007405","1026"
"21:35:21:212 (H:m:s:ms)","GENERIC","93.26599999999999","0.34813943506172","943"
"21:23:9:873 (H:m:s:ms)","OPERA","93.167","0.3315453414663528","398"
"21:35:15:789 (H:m:s:ms)","AMBULANCE","62.316","0.3465677635420239","584"
"21:23:13:939 (H:m:s:ms)","GENERIC","93.169","0.33402735605648026","1232"
"21:35:15:151 (H:m:s:ms)","GENERIC","62.107","0.3525390304570898","966"
"21:2:55:757 (H:m:s:ms)","GENERIC","62.053","0.31488713670365864","438"
"21:23:17:468 (H:m:s:ms)","OPERA","93.182","0.33509941526523296","1197"
"21:35:9:90 (H:m:s:ms)","GENERIC","93.661","0.352251902193953","1136"
"21:3:1:818 (H:m:s:ms)","GENERIC","93.571","0.31198736221101164","356"
"21:23:20:0 (H:m:s:ms)","GENERIC","93.18299999999999","0.3310025958064744","1246"
"21:35:3:30 (H:m:s:ms)","GENERIC","93.168","0.3508313067449485","1359"
"21:3:7:878 (H:m:s:ms)","GENERIC","93.091","0.31234006122910984","1362"
"21:23:25:63 (H:m:s:ms)","OPERA","93.23","0.33397499960974886","1018"
"21:3:9:473 (H:m:s:ms)","AMBULANCE","62.299","0.2991666355624913","868"
"21:23:26:60 (H:m:s:ms)","GENERIC","93.635","0.33367761763704296","1218"
"21:3:13:939 (H:m:s:ms)","GENERIC","93.163","0.3140884317401449","1292"
"21:23:32:121 (H:m:s:ms)","GENERIC","93.274","0.3330292910586359","1087"
"21:3:20:0 (H:m:s:ms)","GENERIC","93.247","0.3126710012484397","1207"
"21:23:32:658 (H:m:s:ms)","OPERA","124.477","0.3362496661193293","623"
"21:3:26:60 (H:m:s:ms)","GENERIC","62.143","0.31328366826601695","1221"
"21:23:38:181 (H:m:s:ms)","GENERIC","62.145","0.33690912583486904","1085"
"21:3:32:121 (H:m:s:ms)","GENERIC","93.26400000000001","0.31497067280999164","1038"
"21:23:40:253 (H:m:s:ms)","OPERA","93.342","0.33759574595269465","1308"
"21:3:38:181 (H:m:s:ms)","GENERIC","62.147","0.31546971449467154","1088"
"21:3:41:52 (H:m:s:ms)","AMBULANCE","62.269","0.3067394889828287","1150"
"21:36:52:121 (H:m:s:ms)","GENERIC","124.86500000000001","0.3507369276967978","1217"
"21:36:46:60 (H:m:s:ms)","GENERIC","62.147","0.3539462183389838","1209"
"21:36:40:0 (H:m:s:ms)","GENERIC","93.398","0.35314958367415783","1356"
"21:36:33:939 (H:m:s:ms)","GENERIC","93.299","0.35679665587673254","1337"
"21:36:27:878 (H:m:s:ms)","GENERIC","93.352","0.3489094281244348","1510"
"21:36:21:818 (H:m:s:ms)","GENERIC","93.229","0.35086275008910833","573"
"21:23:44:242 (H:m:s:ms)","GENERIC","93.107","0.3374827597114249","1061"
"21:36:18:947 (H:m:s:ms)","AMBULANCE","62.263999999999996","0.35159637345897743","1297"
"21:23:47:848 (H:m:s:ms)","OPERA","93.312","0.33956691714492415","746"
"21:37:23:0 (H:m:s:ms)","GENERIC","93.27799999999999","0.34387365962574923","2955"
"21:3:44:242 (H:m:s:ms)","GENERIC","93.11099999999999","0.3163702559567819","1010"
"21:23:50:303 (H:m:s:ms)","GENERIC","93.476","0.33943706375486543","974"
"21:37:23:0 (H:m:s:ms)","GENERIC","93.292","0.34236303053122047","2923"
"21:3:50:303 (H:m:s:ms)","GENERIC","62.151","0.3140598451718702","1003"
"21:23:55:443 (H:m:s:ms)","OPERA","93.341","0.33966773719997173","1014"
"21:36:3:636 (H:m:s:ms)","GENERIC","93.42099999999999","0.34878626523597867","713"
"21:3:56:363 (H:m:s:ms)","GENERIC","93.477","0.31260375750062647","987"
"21:23:56:363 (H:m:s:ms)","GENERIC","93.471","0.3394211678609555","959"
"21:35:57:575 (H:m:s:ms)","GENERIC","93.232","0.3495541551346976","777"
"21:4:2:424 (H:m:s:ms)","GENERIC","93.30799999999999","0.3161585604029972","716"
"21:24:2:424 (H:m:s:ms)","GENERIC","93.352","0.3404998284547066","679"
"21:4:8:484 (H:m:s:ms)","GENERIC","93.35300000000001","0.31491586416265843","713"
"21:24:3:37 (H:m:s:ms)","OPERA","93.507","0.342593270458476","1132"
"21:4:12:631 (H:m:s:ms)","AMBULANCE","62.31","0.30917151956931604","833"
"21:24:8:484 (H:m:s:ms)","GENERIC","124.684","0.3414584360054157","655"
"21:4:14:545 (H:m:s:ms)","GENERIC","62.073","0.32026358444611824","581"
"21:24:10:632 (H:m:s:ms)","OPERA","124.41","0.34386612705319697","515"
"21:4:20:606 (H:m:s:ms)","GENERIC","93.17999999999999","0.32347521333757867","708"
"21:24:14:545 (H:m:s:ms)","GENERIC","93.428","0.3431532206541874","592"
"21:8:26:0 (H:m:s:ms)","GENERIC","93.267","0.3070682403448579","2552"
"21:4:32:727 (H:m:s:ms)","GENERIC","62.055","0.3212435161842308","391"
"21:37:52:727 (H:m:s:ms)","GENERIC","93.40100000000001","0.3449822100682195","457"
"21:37:46:666 (H:m:s:ms)","GENERIC","62.037","0.3444429068912858","500"
"21:37:40:606 (H:m:s:ms)","GENERIC","93.603","0.3443101384075298","665"
"21:37:34:545 (H:m:s:ms)","GENERIC","93.326","0.3457799016558375","751"
"21:37:28:484 (H:m:s:ms)","GENERIC","62.129","0.3464081323673119","778"
"21:37:22:424 (H:m:s:ms)","GENERIC","62.083","0.3609671468302597","1000"
"21:24:18:227 (H:m:s:ms)","OPERA","93.36099999999999","0.34335858807698616","1224"
"21:24:20:606 (H:m:s:ms)","GENERIC","93.18599999999999","0.3438918221120318","675"
"21:37:22:105 (H:m:s:ms)","AMBULANCE","62.277","0.36074624222919666","1171"
"21:4:38:787 (H:m:s:ms)","GENERIC","93.41499999999999","0.32120608491760283","399"
"21:24:25:822 (H:m:s:ms)","OPERA","124.52799999999999","0.34486345460562595","334"
"21:37:16:363 (H:m:s:ms)","GENERIC","62.101","0.3447101610378538","835"
"21:4:44:210 (H:m:s:ms)","AMBULANCE","62.09","0.317075971708169","1015"
"21:24:26:666 (H:m:s:ms)","GENERIC","93.251","0.34785758854502696","705"
"21:37:10:303 (H:m:s:ms)","GENERIC","93.411","0.34479694798146543","1047"
"21:4:44:848 (H:m:s:ms)","GENERIC","93.511","0.3182228449861112","716"
"21:24:32:727 (H:m:s:ms)","GENERIC","93.36500000000001","0.34665429854999874","388"
"21:37:4:242 (H:m:s:ms)","GENERIC","62.057","0.34448629231345396","912"
"21:4:50:909 (H:m:s:ms)","GENERIC","93.30799999999999","0.31992184981969507","1353"
"21:24:33:417 (H:m:s:ms)","OPERA","93.282","0.3475821463521032","913"
"21:36:58:181 (H:m:s:ms)","GENERIC","93.249","0.3489166340794169","1097"
"21:4:56:969 (H:m:s:ms)","GENERIC","93.607","0.31461011516834264","1175"
"21:24:38:787 (H:m:s:ms)","GENERIC","93.47200000000001","0.34857732584347645","595"
"21:5:3:30 (H:m:s:ms)","GENERIC","93.187","0.30924607817190874","1365"
"21:24:41:12 (H:m:s:ms)","OPERA","62.013","0.3486329450504043","1302"
"21:5:9:90 (H:m:s:ms)","GENERIC","93.676","0.31123491284361166","1203"
"21:24:44:848 (H:m:s:ms)","GENERIC","93.482","0.3482550308709181","475"
"21:5:15:151 (H:m:s:ms)","GENERIC","124.303","0.3144520226568151","968"
"21:24:48:607 (H:m:s:ms)","OPERA","93.252","0.3501136419733572","656"
"21:5:15:789 (H:m:s:ms)","AMBULANCE","31.026","0.31545254698964215","438"
"21:5:21:212 (H:m:s:ms)","GENERIC","93.241","0.315715312588751","1023"
"21:38:47:272 (H:m:s:ms)","GENERIC","93.284","0.35090103997037564","944"
"21:38:41:212 (H:m:s:ms)","GENERIC","93.63","0.3477573626893633","1115"
"21:38:35:151 (H:m:s:ms)","GENERIC","93.507","0.34829599065446043","1059"
"21:38:29:90 (H:m:s:ms)","GENERIC","62.151","0.35102230640298654","1102"
"21:38:25:263 (H:m:s:ms)","AMBULANCE","62.266999999999996","0.3498760553174698","951"
"21:38:23:30 (H:m:s:ms)","GENERIC","93.554","0.3459761182501416","1235"
"21:38:16:969 (H:m:s:ms)","GENERIC","93.261","0.34653038390951674","1253"
"21:24:50:909 (H:m:s:ms)","GENERIC","93.23400000000001","0.34945951278266496","1403"
"21:24:56:202 (H:m:s:ms)","OPERA","93.344","0.3488399841132219","1148"
"21:5:27:272 (H:m:s:ms)","GENERIC","93.176","0.31483016761995564","942"
"21:24:56:969 (H:m:s:ms)","GENERIC","93.575","0.34865807697546725","1591"
"21:5:33:333 (H:m:s:ms)","GENERIC","93.43","0.31628160742789796","1057"
"21:25:3:30 (H:m:s:ms)","GENERIC","93.168","0.34452226616316206","1295"
"21:38:10:909 (H:m:s:ms)","GENERIC","93.31","0.3452967563813995","1491"
"20:45:45:454 (H:m:s:ms)","GENERIC","93.345","0.34568196431050957","706"
"21:5:39:393 (H:m:s:ms)","GENERIC","93.576","0.3164391997831459","982"
"21:25:3:797 (H:m:s:ms)","OPERA","93.237","0.34689446994108636","617"
"21:38:4:848 (H:m:s:ms)","GENERIC","93.20400000000001","0.3456647961082246","442"
"20:45:49:367 (H:m:s:ms)","OPERA","62.262","0.3444730209742456","767"
"21:5:45:454 (H:m:s:ms)","GENERIC","93.303","0.31456559269170886","813"
"21:25:9:90 (H:m:s:ms)","GENERIC","93.672","0.34809734176190843","1172"
"21:37:58:787 (H:m:s:ms)","GENERIC","93.497","0.34279082922556375","562"
"20:45:51:515 (H:m:s:ms)","GENERIC","93.25","0.3437958553000763","790"
"21:5:47:368 (H:m:s:ms)","AMBULANCE","31.028","0.3142626283927573","990"
"21:25:11:392 (H:m:s:ms)","OPERA","93.215","0.34887739990267136","817"
"21:37:53:684 (H:m:s:ms)","AMBULANCE","31.014","0.34369360905727153","607"
"20:45:56:962 (H:m:s:ms)","OPERA","62.260999999999996","0.34379076690130367","1134"
"21:5:51:515 (H:m:s:ms)","GENERIC","93.21","0.3147464694314375","801"
"21:25:15:151 (H:m:s:ms)","GENERIC","93.25800000000001","0.3513361598515118","1010"
"20:45:57:575 (H:m:s:ms)","GENERIC","62.029","0.34499746240759604","689"
"21:5:57:575 (H:m:s:ms)","GENERIC","93.224","0.31635054367982945","824"
"21:25:18:987 (H:m:s:ms)","OPERA","93.231","0.35027444401847635","1168"
"20:46:3:636 (H:m:s:ms)","GENERIC","93.475","0.3389937532117623","769"
"21:6:3:636 (H:m:s:ms)","GENERIC","93.432","0.31106600607993434","695"
"21:25:21:212 (H:m:s:ms)","GENERIC","124.464","0.3517327742356132","991"
"20:46:4:556 (H:m:s:ms)","OPERA","62.291","0.3416865838647359","576"
"21:6:9:696 (H:m:s:ms)","GENERIC","62.091","0.3072950580082961","509"
"20:46:9:696 (H:m:s:ms)","GENERIC","93.34","0.3424669337499612","552"
"21:6:15:757 (H:m:s:ms)","GENERIC","93.256","0.305608306019683","454"
"20:46:12:151 (H:m:s:ms)","OPERA","31.008","0.3432428938722906","940"
"20:46:15:757 (H:m:s:ms)","GENERIC","93.40299999999999","0.3453131902978588","420"
"21:39:41:818 (H:m:s:ms)","GENERIC","124.197","0.33525964660793056","557"
"21:39:35:757 (H:m:s:ms)","GENERIC","62.063","0.3361545817639538","608"
"21:39:29:696 (H:m:s:ms)","GENERIC","93.279","0.33664426116027646","605"
"21:39:28:421 (H:m:s:ms)","AMBULANCE","31.021","0.33492927758929947","897"
"21:39:23:636 (H:m:s:ms)","GENERIC","93.3","0.3352877306706986","581"
"21:39:17:575 (H:m:s:ms)","GENERIC","93.35300000000001","0.3344299126677981","614"
"21:39:11:515 (H:m:s:ms)","GENERIC","93.333","0.3296136919639736","701"
"21:39:5:454 (H:m:s:ms)","GENERIC","124.476","0.3364487278295119","817"
"21:25:26:582 (H:m:s:ms)","OPERA","93.374","0.3510743275696836","1310"
"21:25:27:272 (H:m:s:ms)","GENERIC","124.267","0.34972878417906517","851"
"21:6:18:947 (H:m:s:ms)","AMBULANCE","62.233999999999995","0.30694711226780913","1337"
"21:25:33:333 (H:m:s:ms)","GENERIC","62.053","0.34720129435297","973"
"21:6:21:818 (H:m:s:ms)","GENERIC","62.119","0.3067302848536996","608"
"21:25:34:177 (H:m:s:ms)","OPERA","62.011","0.3478272469357385","1017"
"20:46:19:746 (H:m:s:ms)","OPERA","62.248000000000005","0.3463143477548709","495"
"21:6:27:878 (H:m:s:ms)","GENERIC","93.378","0.30453548453353035","1467"
"21:25:39:393 (H:m:s:ms)","GENERIC","62.131","0.34671121082152767","959"
"20:46:21:818 (H:m:s:ms)","GENERIC","124.17699999999999","0.3444131677033412","618"
"21:6:33:939 (H:m:s:ms)","GENERIC","62.065","0.30398536489542344","1247"
"21:30:32:0 (H:m:s:ms)","OPERA","93.233","0.3258204317936651","2116"
"21:38:59:393 (H:m:s:ms)","GENERIC","93.485","0.3412737486686993","911"
"20:46:27:878 (H:m:s:ms)","GENERIC","124.71199999999999","0.3425277414208729","1251"
"21:6:40:0 (H:m:s:ms)","GENERIC","93.47399999999999","0.3028377362457351","1367"
"21:25:45:454 (H:m:s:ms)","GENERIC","62.075","0.34912711376583155","682"
"21:38:56:842 (H:m:s:ms)","AMBULANCE","31.019","0.3445515117971549","329"
"20:46:33:939 (H:m:s:ms)","GENERIC","93.361","0.34404582579411636","1253"
"21:6:46:60 (H:m:s:ms)","GENERIC","62.125","0.3012524226732783","1198"
"21:25:49:367 (H:m:s:ms)","OPERA","93.215","0.3503081512585559","821"
"21:38:53:333 (H:m:s:ms)","GENERIC","93.534","0.34907748367226804","1028"
"20:46:34:936 (H:m:s:ms)","OPERA","62.178","0.3441272873708248","1461"
"21:6:50:526 (H:m:s:ms)","AMBULANCE","62.314","0.3068363605377902","692"
"21:25:51:515 (H:m:s:ms)","GENERIC","93.184","0.34887134786656504","773"
"20:46:40:0 (H:m:s:ms)","GENERIC","62.081","0.34530460572049926","1239"
"21:6:52:121 (H:m:s:ms)","GENERIC","93.452","0.30862313034128636","1215"
"21:30:32:0 (H:m:s:ms)","OPERA","93.23","0.32898166559414777","5708"
"20:46:42:531 (H:m:s:ms)","OPERA","62.256","0.3466080823830121","687"
"21:6:58:181 (H:m:s:ms)","GENERIC","93.26","0.30996246127719124","1206"
"20:46:46:60 (H:m:s:ms)","GENERIC","62.109","0.3442275323279325","1190"
"21:7:4:242 (H:m:s:ms)","GENERIC","62.079","0.309771911239879","1016"
"20:46:50:126 (H:m:s:ms)","OPERA","62.194","0.3436294726732084","1167"
"20:46:52:121 (H:m:s:ms)","GENERIC","62.059","0.343617502120059","1201"
"21:40:0:0 (H:m:s:ms)","AMBULANCE","62.342","0.332162300504328","1693"
"21:40:36:363 (H:m:s:ms)","GENERIC","124.223","0.3388046140125416","952"
"21:40:30:303 (H:m:s:ms)","GENERIC","93.259","0.3396911238714609","886"
"21:40:24:242 (H:m:s:ms)","GENERIC","93.55199999999999","0.3378165950854524","1201"
"21:40:18:181 (H:m:s:ms)","GENERIC","93.381","0.33419553917823536","1082"
"21:40:12:121 (H:m:s:ms)","GENERIC","93.54599999999999","0.336263613796769","1148"
"21:40:6:60 (H:m:s:ms)","GENERIC","62.151","0.33506259362246754","1075"
"21:40:0:0 (H:m:s:ms)","GENERIC","93.334","0.3344493941129238","2133"
"21:40:0:0 (H:m:s:ms)","GENERIC","93.458","0.3329545069573684","1828"
"21:7:10:303 (H:m:s:ms)","GENERIC","124.797","0.3051951405546982","983"
"21:7:16:363 (H:m:s:ms)","GENERIC","62.077","0.3042056848718245","816"
"20:46:57:721 (H:m:s:ms)","OPERA","93.536","0.34344116301891514","364"
"21:7:22:105 (H:m:s:ms)","AMBULANCE","62.294","0.3051871138365042","1211"
"20:46:58:181 (H:m:s:ms)","GENERIC","93.318","0.3420637529572516","936"
"21:7:22:424 (H:m:s:ms)","GENERIC","93.334","0.3067903070199549","1106"
"20:47:4:242 (H:m:s:ms)","GENERIC","93.234","0.34017626069145135","869"
"21:7:28:484 (H:m:s:ms)","GENERIC","93.184","0.30696654812929186","681"
"20:47:5:316 (H:m:s:ms)","OPERA","62.184","0.34091711137728714","913"
"21:7:34:545 (H:m:s:ms)","GENERIC","93.357","0.3059253184608826","761"
"21:39:53:939 (H:m:s:ms)","GENERIC","93.37100000000001","0.32920569532642163","1216"
"20:47:10:303 (H:m:s:ms)","GENERIC","93.429","0.3389385242423746","988"
"21:7:40:606 (H:m:s:ms)","GENERIC","93.584","0.2965136538408935","613"
"21:39:47:878 (H:m:s:ms)","GENERIC","93.23599999999999","0.33108014432429494","1295"
"20:47:12:911 (H:m:s:ms)","OPERA","62.182","0.3416008048091884","1420"
"21:7:46:666 (H:m:s:ms)","GENERIC","62.079","0.29758329583147575","504"
"20:47:16:363 (H:m:s:ms)","GENERIC","62.099","0.33985244219847555","835"
"21:7:52:727 (H:m:s:ms)","GENERIC","124.739","0.2972189290282795","605"
"20:47:20:506 (H:m:s:ms)","OPERA","62.22","0.33959295846356014","843"
"21:7:53:684 (H:m:s:ms)","AMBULANCE","62.269","0.30129449103255745","608"
"20:47:22:424 (H:m:s:ms)","GENERIC","124.634","0.3406895351648742","691"
"20:47:28:101 (H:m:s:ms)","OPERA","62.316","0.34313655331463694","1197"
"21:7:58:787 (H:m:s:ms)","GENERIC","93.469","0.2999628016972026","487"
"21:8:4:848 (H:m:s:ms)","GENERIC","124.374","0.30138571389346036","495"
"20:47:28:484 (H:m:s:ms)","GENERIC","93.176","0.34177568643905865","977"
"21:8:10:909 (H:m:s:ms)","GENERIC","62.071","0.30148139779043437","1434"
"20:47:34:545 (H:m:s:ms)","GENERIC","93.455","0.3388460159726429","680"
"21:8:26:0 (H:m:s:ms)","GENERIC","62.027","0.30216786613409746","2809"
"20:47:35:696 (H:m:s:ms)","OPERA","62.232","0.3399453958140536","654"
"21:8:23:30 (H:m:s:ms)","GENERIC","62.083","0.30281004014012575","1234"
"20:47:40:606 (H:m:s:ms)","GENERIC","93.643","0.33738852501360844","649"
"21:8:25:263 (H:m:s:ms)","AMBULANCE","62.256","0.30069103308033923","1005"
"20:47:43:291 (H:m:s:ms)","OPERA","62.161","0.33849860022893996","1068"
"21:8:29:90 (H:m:s:ms)","GENERIC","93.624","0.30604001846316403","1113"
"20:47:46:666 (H:m:s:ms)","GENERIC","62.095","0.3379549303787191","595"
"21:8:35:151 (H:m:s:ms)","GENERIC","62.093","0.30900058346821996","1040"
"21:40:42:424 (H:m:s:ms)","GENERIC","93.14500000000001","0.33686358259394084","794"
"20:47:50:886 (H:m:s:ms)","OPERA","62.293","0.3405059380740038","322"
"21:8:41:212 (H:m:s:ms)","GENERIC","93.641","0.3085411334175397","1134"
"20:47:52:727 (H:m:s:ms)","GENERIC","93.463","0.3402863110613645","576"
"21:8:47:272 (H:m:s:ms)","GENERIC","93.307","0.30797893136499416","969"
"20:47:58:481 (H:m:s:ms)","OPERA","62.169","0.3418610615906835","864"
"20:47:58:787 (H:m:s:ms)","GENERIC","93.506","0.3401756746982868","814"
"21:8:53:333 (H:m:s:ms)","GENERIC","93.494","0.30718275374044696","1037"
"21:8:56:842 (H:m:s:ms)","AMBULANCE","62.269000000000005","0.31242313257690957","339"
"20:48:4:848 (H:m:s:ms)","GENERIC","93.167","0.34127033249295563","358"
"21:8:59:393 (H:m:s:ms)","GENERIC","93.461","0.31236347711301143","918"
"20:48:6:75 (H:m:s:ms)","OPERA","62.248000000000005","0.3400329943025696","1282"
"21:9:5:454 (H:m:s:ms)","GENERIC","93.29","0.31168743566456864","825"
"20:30:0:0 (H:m:s:ms)","GENERIC","124.69200000000001","0.29990450528433127","1228"
"20:48:10:909 (H:m:s:ms)","GENERIC","93.48400000000001","0.3406349114492443","1436"
"21:9:11:515 (H:m:s:ms)","GENERIC","93.363","0.3102023653257828","886"
"20:30:0:0 (H:m:s:ms)","GENERIC","62.127","0.301486647533153","1565"
"20:48:13:670 (H:m:s:ms)","OPERA","62.181","0.34033812562037125","701"
"21:9:17:575 (H:m:s:ms)","GENERIC","93.366","0.30941761049999633","576"
"20:30:6:60 (H:m:s:ms)","GENERIC","62.161","0.3040744702853925","1086"
"20:48:16:969 (H:m:s:ms)","GENERIC","124.415","0.3414673672578945","1191"
"21:9:23:636 (H:m:s:ms)","GENERIC","93.376","0.30386845145405844","577"
"20:30:12:121 (H:m:s:ms)","GENERIC","93.53999999999999","0.30384780329362227","1202"
"20:48:21:265 (H:m:s:ms)","OPERA","93.505","0.34176287251692394","902"
"21:9:28:421 (H:m:s:ms)","AMBULANCE","62.286","0.30680329946189505","756"
"20:30:18:181 (H:m:s:ms)","GENERIC","62.129","0.30314272674248505","1208"
"20:48:23:30 (H:m:s:ms)","GENERIC","93.547","0.3406445266586736","1223"
"21:9:29:696 (H:m:s:ms)","GENERIC","93.314","0.30881394363159087","570"
"20:30:24:242 (H:m:s:ms)","GENERIC","93.569","0.29905598900229174","1160"
"20:48:28:860 (H:m:s:ms)","OPERA","62.172","0.3392565421822436","474"
"21:9:35:757 (H:m:s:ms)","GENERIC","93.18299999999999","0.30928972320393483","594"
"20:30:30:303 (H:m:s:ms)","GENERIC","93.225","0.29823057271315206","1053"
"20:48:29:90 (H:m:s:ms)","GENERIC","93.64500000000001","0.3377967698319893","1152"
"20:30:36:363 (H:m:s:ms)","GENERIC","93.19200000000001","0.29742199354751675","969"
"20:48:35:151 (H:m:s:ms)","GENERIC","62.075","0.33427865697462855","997"
"20:30:42:424 (H:m:s:ms)","GENERIC","62.065","0.29643216010288703","802"
"20:30:48:484 (H:m:s:ms)","GENERIC","93.357","0.2958188566695669","872"
"21:9:41:818 (H:m:s:ms)","GENERIC","93.106","0.31247665630279736","514"
"21:9:47:878 (H:m:s:ms)","GENERIC","93.24600000000001","0.31461372253624587","1245"
"20:48:36:455 (H:m:s:ms)","OPERA","62.221999999999994","0.3371313874533392","666"
"21:9:53:939 (H:m:s:ms)","GENERIC","31.017","0.31313225915260107","1214"
"20:48:41:212 (H:m:s:ms)","GENERIC","62.135","0.33683531345060824","1159"
"21:10:0:0 (H:m:s:ms)","AMBULANCE","62.247","0.3136531777468644","1198"
"20:30:54:545 (H:m:s:ms)","GENERIC","93.538","0.29482943035654","760"
"20:48:44:50 (H:m:s:ms)","OPERA","62.297","0.33842395994626634","1506"
"21:10:0:0 (H:m:s:ms)","GENERIC","93.44200000000001","0.31831752089823245","1411"
"20:31:0:606 (H:m:s:ms)","GENERIC","93.33","0.2935180965718929","653"
"20:48:47:272 (H:m:s:ms)","GENERIC","93.398","0.3387574873191525","1192"
"21:10:0:0 (H:m:s:ms)","GENERIC","93.568","0.3196970648883603","1614"
"20:31:6:666 (H:m:s:ms)","GENERIC","93.262","0.29567670782162825","574"
"20:48:51:645 (H:m:s:ms)","OPERA","93.532","0.34014855035767605","591"
"21:10:6:60 (H:m:s:ms)","GENERIC","93.65","0.32423732060684674","1074"
"20:31:12:727 (H:m:s:ms)","GENERIC","93.353","0.29446802979744097","477"
"20:48:53:333 (H:m:s:ms)","GENERIC","93.525","0.3386283034343331","983"
"21:10:12:121 (H:m:s:ms)","GENERIC","93.588","0.3248980418943455","1121"
"20:31:18:787 (H:m:s:ms)","GENERIC","125.05799999999999","0.3008966104179818","465"
"20:48:59:240 (H:m:s:ms)","OPERA","62.286","0.34325291537896224","1129"
"21:10:18:181 (H:m:s:ms)","GENERIC","93.44800000000001","0.322158211209111","1194"
"20:31:24:848 (H:m:s:ms)","GENERIC","62.045","0.2995457695967182","552"
"20:48:59:393 (H:m:s:ms)","GENERIC","93.49000000000001","0.34391797243737726","1154"
"21:10:24:242 (H:m:s:ms)","GENERIC","125.003","0.3212777663886519","1131"
"20:31:30:909 (H:m:s:ms)","GENERIC","62.063","0.2988611505302912","1355"
"20:49:5:454 (H:m:s:ms)","GENERIC","62.041","0.34567891232091824","787"
"20:31:36:969 (H:m:s:ms)","GENERIC","124.946","0.29646713576604206","1379"
"20:49:6:835 (H:m:s:ms)","OPERA","93.414","0.34576539069752255","423"
"20:31:43:30 (H:m:s:ms)","GENERIC","93.279","0.29533584803314744","1200"
"20:31:49:90 (H:m:s:ms)","GENERIC","93.117","0.2931196315802197","1391"
"20:49:11:515 (H:m:s:ms)","GENERIC","93.442","0.3417832155843115","896"
"20:49:14:430 (H:m:s:ms)","OPERA","62.248999999999995","0.3430896876643057","674"
"20:31:55:151 (H:m:s:ms)","GENERIC","93.573","0.29163073229552494","1202"
"20:49:17:575 (H:m:s:ms)","GENERIC","93.31","0.3426114248764743","550"
"20:32:1:212 (H:m:s:ms)","GENERIC","62.101","0.29132189935970365","1026"
"20:49:22:25 (H:m:s:ms)","OPERA","62.257999999999996","0.3422538526240881","1243"
"20:32:7:272 (H:m:s:ms)","GENERIC","62.071","0.29013986139933584","939"
"20:49:23:636 (H:m:s:ms)","GENERIC","93.36699999999999","0.3419521161963225","611"
"20:32:13:333 (H:m:s:ms)","GENERIC","93.101","0.29080503449569134","873"
"20:49:29:620 (H:m:s:ms)","OPERA","93.581","0.33866367640859024","593"
"20:32:19:393 (H:m:s:ms)","GENERIC","93.386","0.2921167592727385","928"
"20:49:29:696 (H:m:s:ms)","GENERIC","62.071","0.338061790738471","623"
"20:32:25:454 (H:m:s:ms)","GENERIC","93.445","0.2895487330191302","944"
"20:49:35:757 (H:m:s:ms)","GENERIC","93.138","0.3375500486894159","552"
"20:32:31:515 (H:m:s:ms)","GENERIC","62.109","0.2895676921377911","737"
"20:49:37:215 (H:m:s:ms)","OPERA","62.318","0.3376055716543265","1171"
"20:32:37:575 (H:m:s:ms)","GENERIC","93.607","0.2882363303886477","726"
"20:49:41:818 (H:m:s:ms)","GENERIC","93.066","0.33678025839921294","573"
"20:32:43:636 (H:m:s:ms)","GENERIC","93.245","0.2876279525693925","737"
"20:32:49:696 (H:m:s:ms)","GENERIC","93.135","0.28915470563081314","580"
"20:49:44:810 (H:m:s:ms)","OPERA","62.311","0.3365019606840455","435"
"20:49:47:878 (H:m:s:ms)","GENERIC","93.202","0.3386064164453734","1334"
"20:32:55:757 (H:m:s:ms)","GENERIC","93.27600000000001","0.2848770890120645","503"
"20:49:52:405 (H:m:s:ms)","OPERA","93.557","0.33802366249316623","695"
"20:33:1:818 (H:m:s:ms)","GENERIC","93.597","0.28360916833875477","385"
"20:49:53:939 (H:m:s:ms)","GENERIC","93.429","0.3377495776133731","1295"
"20:33:7:878 (H:m:s:ms)","GENERIC","93.06700000000001","0.2782817924080443","1414"
"20:50:0:0 (H:m:s:ms)","GENERIC","93.381","0.339544144323982","1236"
"20:33:13:939 (H:m:s:ms)","GENERIC","93.18299999999999","0.2749845218240969","1307"
"20:50:0:0 (H:m:s:ms)","GENERIC","93.57","0.337587951475741","1575"
"20:33:20:0 (H:m:s:ms)","GENERIC","93.20400000000001","0.2731008153677153","1260"
"20:50:6:60 (H:m:s:ms)","GENERIC","62.141","0.3399889268022791","1156"
"20:33:26:60 (H:m:s:ms)","GENERIC","93.654","0.2720470771191692","1228"
"20:50:12:121 (H:m:s:ms)","GENERIC","93.592","0.34048374427015343","1177"
"20:33:32:121 (H:m:s:ms)","GENERIC","93.262","0.27322507394022766","1137"
"20:50:18:181 (H:m:s:ms)","GENERIC","93.499","0.33869443667344606","915"
"20:33:38:181 (H:m:s:ms)","GENERIC","93.226","0.27265173169030227","1094"
"20:50:24:242 (H:m:s:ms)","GENERIC","124.99799999999999","0.33605602561762016","1150"
"20:33:44:242 (H:m:s:ms)","GENERIC","93.175","0.27257490455537775","1090"
"20:33:50:303 (H:m:s:ms)","GENERIC","124.786","0.27727754166708585","921"
"20:50:30:303 (H:m:s:ms)","GENERIC","62.063","0.33668077555284254","822"
"20:50:36:363 (H:m:s:ms)","GENERIC","62.119","0.3345038799695925","890"
"20:33:56:363 (H:m:s:ms)","GENERIC","93.419","0.2731732125923755","952"
"20:50:42:424 (H:m:s:ms)","GENERIC","93.127","0.332966761071382","785"
"20:34:2:424 (H:m:s:ms)","GENERIC","93.33200000000001","0.2782532151822612","830"
"20:50:48:484 (H:m:s:ms)","GENERIC","62.095","0.3320567923263612","687"
"20:10:0:0 (H:m:s:ms)","GENERIC","62.340999999999994","0.2910938192112384","1363"
"20:34:8:484 (H:m:s:ms)","GENERIC","93.312","0.275748508416435","884"
"20:50:54:545 (H:m:s:ms)","GENERIC","93.556","0.33033376438116246","718"
"20:10:0:0 (H:m:s:ms)","GENERIC","31.049","0.2928484458163639","1669"
"20:34:14:545 (H:m:s:ms)","GENERIC","62.037","0.27596057013696224","771"
"20:51:0:606 (H:m:s:ms)","GENERIC","93.294","0.33004871764969224","656"
"20:10:6:60 (H:m:s:ms)","GENERIC","93.62700000000001","0.29646157214705454","1098"
"20:34:20:606 (H:m:s:ms)","GENERIC","93.271","0.2790210898531336","758"
"20:51:6:666 (H:m:s:ms)","GENERIC","93.285","0.32512350531083095","760"
"20:10:12:121 (H:m:s:ms)","GENERIC","93.555","0.2977557711125431","1190"
"20:34:26:666 (H:m:s:ms)","GENERIC","62.023","0.2781248271837694","696"
"20:51:12:727 (H:m:s:ms)","GENERIC","93.334","0.32544538164455766","419"
"20:10:18:181 (H:m:s:ms)","GENERIC","93.444","0.29484345813133866","1204"
"20:34:32:727 (H:m:s:ms)","GENERIC","62.28","0.2762268330697387","439"
"20:51:18:787 (H:m:s:ms)","GENERIC","62.111","0.32404749836542807","532"
"20:10:24:242 (H:m:s:ms)","GENERIC","93.524","0.29667997304387683","1101"
"20:34:38:787 (H:m:s:ms)","GENERIC","62.055","0.2789187315377047","491"
"20:51:24:848 (H:m:s:ms)","GENERIC","93.231","0.32434932915233755","334"
"20:10:30:303 (H:m:s:ms)","GENERIC","93.275","0.29320161086715824","1036"
"20:34:44:848 (H:m:s:ms)","GENERIC","93.44500000000001","0.2802003751560141","426"
"20:10:36:363 (H:m:s:ms)","GENERIC","93.208","0.28973464105000224","948"
"20:34:50:909 (H:m:s:ms)","GENERIC","93.492","0.2814780117544554","1460"
"20:10:42:424 (H:m:s:ms)","GENERIC","93.149","0.2875520284349736","804"
"20:10:48:484 (H:m:s:ms)","GENERIC","93.403","0.2857709816450818","859"
"20:51:30:909 (H:m:s:ms)","GENERIC","93.272","0.32657893871586297","1175"
"20:51:36:969 (H:m:s:ms)","GENERIC","93.53399999999999","0.323835192291538","1243"
"20:34:56:969 (H:m:s:ms)","GENERIC","93.597","0.27986334883169856","1230"
"20:51:43:30 (H:m:s:ms)","GENERIC","93.303","0.3237545069369835","1094"
"20:35:3:30 (H:m:s:ms)","GENERIC","124.312","0.2764733853668567","1390"
"20:51:49:90 (H:m:s:ms)","GENERIC","93.175","0.32473752198868994","1209"
"20:10:54:545 (H:m:s:ms)","GENERIC","93.53699999999999","0.2853376125780482","692"
"20:35:9:90 (H:m:s:ms)","GENERIC","93.702","0.28169028113513667","1174"
"20:51:55:151 (H:m:s:ms)","GENERIC","125.096","0.3240258035835249","1153"
"20:11:0:606 (H:m:s:ms)","GENERIC","124.666","0.2893012796085251","590"
"20:35:15:151 (H:m:s:ms)","GENERIC","93.109","0.2829734394713613","1144"
"20:52:1:212 (H:m:s:ms)","GENERIC","93.509","0.32482976077358555","1007"
"20:11:6:666 (H:m:s:ms)","GENERIC","93.255","0.2907320123536119","611"
"20:35:21:212 (H:m:s:ms)","GENERIC","93.283","0.2858347187775684","1006"
"20:52:7:272 (H:m:s:ms)","GENERIC","93.468","0.3243509802105742","949"
"20:11:12:727 (H:m:s:ms)","GENERIC","93.39099999999999","0.2913537564321336","458"
"20:35:27:272 (H:m:s:ms)","GENERIC","93.115","0.28821309297023373","995"
"20:52:13:333 (H:m:s:ms)","GENERIC","62.053","0.32381872742489526","858"
"20:11:18:787 (H:m:s:ms)","GENERIC","93.62700000000001","0.2944493988153517","462"
"20:35:33:333 (H:m:s:ms)","GENERIC","93.412","0.2856219412116585","1055"
"20:52:19:393 (H:m:s:ms)","GENERIC","62.081","0.32119337788211044","838"
"20:11:24:848 (H:m:s:ms)","GENERIC","93.307","0.2943375950725581","480"
"20:35:39:393 (H:m:s:ms)","GENERIC","93.587","0.2870876120187257","924"
"20:52:25:454 (H:m:s:ms)","GENERIC","93.451","0.3238365892952428","836"
"20:11:30:909 (H:m:s:ms)","GENERIC","93.294","0.2949092163726176","1375"
"20:35:45:454 (H:m:s:ms)","GENERIC","93.32300000000001","0.2851567878294972","831"
"20:11:36:969 (H:m:s:ms)","GENERIC","93.494","0.29455422650810503","1247"
"20:35:51:515 (H:m:s:ms)","GENERIC","93.263","0.2881782480837825","792"
"20:11:43:30 (H:m:s:ms)","GENERIC","93.297","0.298562765658341","1191"
"20:11:49:90 (H:m:s:ms)","GENERIC","124.18299999999999","0.30135126270874374","1244"
"20:0:54:545 (H:m:s:ms)","GENERIC","62.504","0.1624464694086248","751"
"20:1:0:606 (H:m:s:ms)","GENERIC","31.043","0.16688442834431583","679"
"20:1:6:666 (H:m:s:ms)","GENERIC","62.247","0.17599175025844144","632"
"20:1:12:727 (H:m:s:ms)","GENERIC","62.353","0.18518768581261077","668"
"20:1:18:787 (H:m:s:ms)","GENERIC","31.056","0.18811787663571272","555"
"20:1:24:848 (H:m:s:ms)","GENERIC","62.206999999999994","0.19300783149032755","557"
"20:1:30:909 (H:m:s:ms)","GENERIC","62.281000000000006","0.20351364703996447","1426"
"20:1:36:969 (H:m:s:ms)","GENERIC","62.489","0.20892522768055458","1336"
"20:1:43:30 (H:m:s:ms)","GENERIC","62.236999999999995","0.21167316555435503","1245"
"20:1:49:90 (H:m:s:ms)","GENERIC","93.206","0.22142872799851804","1274"
"20:35:57:575 (H:m:s:ms)","GENERIC","93.177","0.28850046196788315","767"
"20:36:3:636 (H:m:s:ms)","GENERIC","124.805","0.28851156526367844","667"
"20:11:55:151 (H:m:s:ms)","GENERIC","93.584","0.2993339567137362","1082"
"20:36:9:696 (H:m:s:ms)","GENERIC","93.35","0.28766269201483596","567"
"20:12:1:212 (H:m:s:ms)","GENERIC","93.48400000000001","0.2969037584721745","1002"
"20:36:15:757 (H:m:s:ms)","GENERIC","93.3","0.2864815660389125","483"
"20:12:7:272 (H:m:s:ms)","GENERIC","93.504","0.296792064402895","941"
"20:36:21:818 (H:m:s:ms)","GENERIC","93.13499999999999","0.282890641855026","592"
"20:12:13:333 (H:m:s:ms)","GENERIC","93.128","0.3002586059668361","899"
"20:36:27:878 (H:m:s:ms)","GENERIC","93.343","0.28516599340266224","1478"
"20:12:19:393 (H:m:s:ms)","GENERIC","124.666","0.30125477991801136","939"
"20:36:33:939 (H:m:s:ms)","GENERIC","124.647","0.28557002710110563","1368"
"20:12:25:454 (H:m:s:ms)","GENERIC","124.82","0.2997113664739683","847"
"20:36:40:0 (H:m:s:ms)","GENERIC","62.071","0.28908840674192887","1347"
"20:12:31:515 (H:m:s:ms)","GENERIC","93.548","0.2978627162373948","694"
"20:36:46:60 (H:m:s:ms)","GENERIC","62.107","0.2874103387796301","1199"
"20:12:37:575 (H:m:s:ms)","GENERIC","93.617","0.29831043766116744","714"
"20:36:52:121 (H:m:s:ms)","GENERIC","93.46","0.2888150077947098","1231"
"20:12:43:636 (H:m:s:ms)","GENERIC","93.26599999999999","0.2997824137992485","634"
"20:12:49:696 (H:m:s:ms)","GENERIC","93.125","0.2993083723457223","552"
"20:1:55:151 (H:m:s:ms)","GENERIC","62.554","0.2255241536835941","1200"
"20:2:1:212 (H:m:s:ms)","GENERIC","62.456","0.22981912481179717","1030"
"20:2:7:272 (H:m:s:ms)","GENERIC","62.467","0.23040551261483685","1094"
"20:2:13:333 (H:m:s:ms)","GENERIC","62.085","0.2361653767035422","970"
"20:2:19:393 (H:m:s:ms)","GENERIC","62.336","0.24163691303181759","905"
"20:2:25:454 (H:m:s:ms)","GENERIC","62.397999999999996","0.2423137750933501","950"
"20:2:31:515 (H:m:s:ms)","GENERIC","62.492000000000004","0.24699622118743453","773"
"20:2:37:575 (H:m:s:ms)","GENERIC","62.581","0.24698691749972757","791"
"20:2:43:636 (H:m:s:ms)","GENERIC","62.260999999999996","0.24914153665773872","720"
"20:2:49:696 (H:m:s:ms)","GENERIC","62.068","0.2523168638864339","553"
"20:36:58:181 (H:m:s:ms)","GENERIC","93.278","0.29283545126543636","1132"
"20:37:4:242 (H:m:s:ms)","GENERIC","93.271","0.29241027604793907","954"
"20:12:55:757 (H:m:s:ms)","GENERIC","93.22200000000001","0.29948781454436213","498"
"20:37:10:303 (H:m:s:ms)","GENERIC","93.432","0.29304396133091315","999"
"20:13:1:818 (H:m:s:ms)","GENERIC","93.621","0.2972138942803196","354"
"20:37:16:363 (H:m:s:ms)","GENERIC","62.113","0.2920746737195366","829"
"20:13:7:878 (H:m:s:ms)","GENERIC","93.105","0.29509920119586325","1364"
"20:37:22:424 (H:m:s:ms)","GENERIC","93.30499999999999","0.29256267049433976","724"
"20:13:13:939 (H:m:s:ms)","GENERIC","93.182","0.29928755608412094","1269"
"20:37:28:484 (H:m:s:ms)","GENERIC","93.15","0.29539220060531973","724"
"20:13:20:0 (H:m:s:ms)","GENERIC","93.203","0.29783867687830917","1250"
"20:37:34:545 (H:m:s:ms)","GENERIC","93.366","0.29610498834704085","741"
"20:13:26:60 (H:m:s:ms)","GENERIC","93.611","0.29885249635750016","1194"
"20:37:40:606 (H:m:s:ms)","GENERIC","62.145","0.29465383532088235","663"
"20:13:32:121 (H:m:s:ms)","GENERIC","93.306","0.29768576510718703","1125"
"20:37:46:666 (H:m:s:ms)","GENERIC","93.366","0.2942281054728691","457"
"20:13:38:181 (H:m:s:ms)","GENERIC","93.19800000000001","0.2968162584655055","1012"
"20:37:52:727 (H:m:s:ms)","GENERIC","93.364","0.2925365571919122","544"
"20:13:44:242 (H:m:s:ms)","GENERIC","124.136","0.2953664245950522","1052"
"20:13:50:303 (H:m:s:ms)","GENERIC","93.419","0.2975245447944757","982"
"20:2:55:757 (H:m:s:ms)","GENERIC","62.251","0.25742328991244146","606"
"20:3:1:818 (H:m:s:ms)","GENERIC","62.533","0.25846029356037786","368"
"20:3:7:878 (H:m:s:ms)","GENERIC","93.12","0.26127171687202605","394"
"20:3:13:939 (H:m:s:ms)","GENERIC","62.163","0.26237737779178516","1316"
"20:3:20:0 (H:m:s:ms)","GENERIC","62.19","0.2653742924060735","1327"
"20:3:26:60 (H:m:s:ms)","GENERIC","31.056","0.272338005373309","1289"
"20:3:32:121 (H:m:s:ms)","GENERIC","62.298","0.2724489871821456","1248"
"20:3:38:181 (H:m:s:ms)","GENERIC","31.051","0.27509195282237964","1058"
"20:3:44:242 (H:m:s:ms)","GENERIC","31.036","0.2768317902665681","1059"
"20:3:50:303 (H:m:s:ms)","GENERIC","62.367000000000004","0.2791937083800523","1049"
"20:37:58:787 (H:m:s:ms)","GENERIC","124.923","0.29437319725990047","473"
"20:38:4:848 (H:m:s:ms)","GENERIC","93.156","0.2949130179113938","412"
"20:13:56:363 (H:m:s:ms)","GENERIC","93.411","0.2962779939252153","894"
"20:38:10:909 (H:m:s:ms)","GENERIC","124.84","0.2995320740385436","1333"
"20:14:2:424 (H:m:s:ms)","GENERIC","62.079","0.29606726634713354","729"
"20:38:16:969 (H:m:s:ms)","GENERIC","93.257","0.3043112896632414","1279"
"20:14:8:484 (H:m:s:ms)","GENERIC","93.36","0.29308314216031855","832"
"20:38:23:30 (H:m:s:ms)","GENERIC","93.518","0.3056820080689371","1257"
"20:14:14:545 (H:m:s:ms)","GENERIC","93.37","0.2877893501616427","693"
"20:38:29:90 (H:m:s:ms)","GENERIC","93.668","0.3042940701945927","1059"
"20:14:20:606 (H:m:s:ms)","GENERIC","62.121","0.2864528844006827","729"
"20:38:35:151 (H:m:s:ms)","GENERIC","93.481","0.30166129323854374","1072"
"20:14:26:666 (H:m:s:ms)","GENERIC","62.269000000000005","0.28794308281314146","766"
"20:38:41:212 (H:m:s:ms)","GENERIC","93.593","0.30390312777309125","1134"
"20:14:32:727 (H:m:s:ms)","GENERIC","93.204","0.2888045441038673","584"
"20:38:47:272 (H:m:s:ms)","GENERIC","93.291","0.30515882925712495","958"
"20:14:38:787 (H:m:s:ms)","GENERIC","93.416","0.28543609092467537","579"
"20:38:53:333 (H:m:s:ms)","GENERIC","93.53999999999999","0.3033615836546359","987"
"20:14:44:848 (H:m:s:ms)","GENERIC","93.475","0.2856328115608861","426"
"20:14:50:909 (H:m:s:ms)","GENERIC","93.20400000000001","0.2867553752154704","1239"
"20:3:56:363 (H:m:s:ms)","GENERIC","93.765","0.27953873527603523","982"
"20:4:2:424 (H:m:s:ms)","GENERIC","31.04","0.28195704592573434","742"
"20:4:8:484 (H:m:s:ms)","GENERIC","62.096999999999994","0.2858297848879946","758"
"20:4:14:545 (H:m:s:ms)","GENERIC","62.33","0.29028106686841143","741"
"20:4:20:606 (H:m:s:ms)","GENERIC","62.122","0.29310882679048333","836"
"20:4:26:666 (H:m:s:ms)","GENERIC","62.312","0.2953574191384954","782"
"20:4:32:727 (H:m:s:ms)","GENERIC","62.173","0.2991663544256604","584"
"20:4:38:787 (H:m:s:ms)","GENERIC","62.364","0.30304632624959416","438"
"20:4:44:848 (H:m:s:ms)","GENERIC","62.419","0.30427797867742273","495"
"20:4:50:909 (H:m:s:ms)","GENERIC","62.173","0.3064456365204169","1245"
"20:38:59:393 (H:m:s:ms)","GENERIC","93.423","0.30550356637569775","886"
"20:39:5:454 (H:m:s:ms)","GENERIC","93.28099999999999","0.3033113852736774","919"
"20:14:56:969 (H:m:s:ms)","GENERIC","93.607","0.2868087873012578","1174"
"20:39:11:515 (H:m:s:ms)","GENERIC","93.401","0.3043170295015528","750"
"20:15:3:30 (H:m:s:ms)","GENERIC","124.338","0.2845393433420847","1341"
"20:39:17:575 (H:m:s:ms)","GENERIC","93.384","0.30508904334678816","558"
"20:15:9:90 (H:m:s:ms)","GENERIC","93.742","0.2868651113281911","1167"
"20:39:23:636 (H:m:s:ms)","GENERIC","124.654","0.30225566352570843","668"
"20:15:15:151 (H:m:s:ms)","GENERIC","93.137","0.290189772017296","1010"
"20:39:29:696 (H:m:s:ms)","GENERIC","124.566","0.30566519657983177","551"
"20:15:21:212 (H:m:s:ms)","GENERIC","93.288","0.29083063091994527","1028"
"20:39:35:757 (H:m:s:ms)","GENERIC","93.216","0.30440053232254766","685"
"20:15:27:272 (H:m:s:ms)","GENERIC","93.114","0.289959449606917","926"
"20:39:41:818 (H:m:s:ms)","GENERIC","93.153","0.30750826027969586","506"
"20:15:33:333 (H:m:s:ms)","GENERIC","93.40899999999999","0.2864015621258511","1046"
"20:39:47:878 (H:m:s:ms)","GENERIC","93.221","0.3065735774709566","1356"
"20:15:39:393 (H:m:s:ms)","GENERIC","93.643","0.2881084678411697","912"
"20:39:53:939 (H:m:s:ms)","GENERIC","93.583","0.3031019429781285","1402"
"20:15:45:454 (H:m:s:ms)","GENERIC","124.584","0.2883659862112103","854"
"20:15:51:515 (H:m:s:ms)","GENERIC","93.203","0.29089708297165884","732"
"20:4:56:969 (H:m:s:ms)","GENERIC","62.506","0.30751973762525414","1238"
"20:5:3:30 (H:m:s:ms)","GENERIC","62.207","0.3041443096682927","1364"
"20:5:9:90 (H:m:s:ms)","GENERIC","31.112","0.3052571981004256","1135"
"20:5:15:151 (H:m:s:ms)","GENERIC","62.104","0.30519355756261835","1005"
"20:5:21:212 (H:m:s:ms)","GENERIC","62.262","0.3061150723067736","1053"
"20:5:27:272 (H:m:s:ms)","GENERIC","93.212","0.3062340976770147","977"
"20:5:33:333 (H:m:s:ms)","GENERIC","31.056","0.30369267979508835","1091"
"20:5:39:393 (H:m:s:ms)","GENERIC","31.092","0.3032923304086708","940"
"20:5:45:454 (H:m:s:ms)","GENERIC","62.323","0.30304706904766693","865"
"20:5:51:515 (H:m:s:ms)","GENERIC","62.16","0.3059057077848431","806"
"20:15:57:575 (H:m:s:ms)","GENERIC","93.23599999999999","0.2938082938597179","766"
"20:16:3:636 (H:m:s:ms)","GENERIC","93.426","0.2955532494703797","672"
"20:16:9:696 (H:m:s:ms)","GENERIC","93.367","0.29282385409245243","516"
"20:16:15:757 (H:m:s:ms)","GENERIC","93.322","0.29475846477394124","488"
"20:16:21:818 (H:m:s:ms)","GENERIC","124.19200000000001","0.2935167341691366","550"
"20:16:27:878 (H:m:s:ms)","GENERIC","93.379","0.29251917801129396","1556"
"20:16:33:939 (H:m:s:ms)","GENERIC","93.301","0.29048036149593176","1342"
"20:16:40:0 (H:m:s:ms)","GENERIC","124.719","0.29339366590651533","1382"
"20:16:46:60 (H:m:s:ms)","GENERIC","93.55799999999999","0.29335249530371416","1188"
"20:16:52:121 (H:m:s:ms)","GENERIC","93.515","0.2873992693947888","1247"
"20:5:57:575 (H:m:s:ms)","GENERIC","62.202","0.30349184170162624","791"
"20:6:3:636 (H:m:s:ms)","GENERIC","62.394999999999996","0.29985218392102786","726"
"20:6:9:696 (H:m:s:ms)","GENERIC","31.048","0.2997436069993067","534"
"20:6:15:757 (H:m:s:ms)","GENERIC","62.289","0.300403252592693","445"
"20:6:21:818 (H:m:s:ms)","GENERIC","62.069","0.30160520607476443","512"
"20:6:27:878 (H:m:s:ms)","GENERIC","62.339","0.3030305724425399","417"
"20:6:33:939 (H:m:s:ms)","GENERIC","62.332","0.30001769522397675","1405"
"20:6:40:0 (H:m:s:ms)","GENERIC","62.41","0.2997016884319432","1362"
"20:6:46:60 (H:m:s:ms)","GENERIC","62.487","0.301064831445755","1240"
"20:6:52:121 (H:m:s:ms)","GENERIC","62.449","0.2950586704841534","1266"
"20:16:58:181 (H:m:s:ms)","GENERIC","62.043","0.2887193984080666","1082"
"20:17:4:242 (H:m:s:ms)","GENERIC","62.057","0.2899670004540528","973"
"20:17:10:303 (H:m:s:ms)","GENERIC","124.83500000000001","0.2901972083340369","1052"
"20:17:16:363 (H:m:s:ms)","GENERIC","93.482","0.28604250350371","865"
"20:17:22:424 (H:m:s:ms)","GENERIC","62.045","0.2876397090180649","709"
"20:17:28:484 (H:m:s:ms)","GENERIC","93.176","0.286688322974528","725"
"20:17:34:545 (H:m:s:ms)","GENERIC","93.407","0.2890109756706013","766"
"20:17:40:606 (H:m:s:ms)","GENERIC","93.638","0.28718319923620966","638"
"20:17:46:666 (H:m:s:ms)","GENERIC","93.344","0.2870677401228157","478"
"20:17:52:727 (H:m:s:ms)","GENERIC","93.342","0.2873985497810906","502"
"20:6:58:181 (H:m:s:ms)","GENERIC","93.437","0.2956401166243976","1111"
"20:7:4:242 (H:m:s:ms)","GENERIC","62.272999999999996","0.2934764155487145","996"
"20:7:10:303 (H:m:s:ms)","GENERIC","93.773","0.2949712013496809","1085"
"20:7:16:363 (H:m:s:ms)","GENERIC","31.057","0.29443725962170875","819"
"20:7:22:424 (H:m:s:ms)","GENERIC","31.019","0.2942305912813857","683"
"20:7:28:484 (H:m:s:ms)","GENERIC","31.07","0.29691958902733845","754"
"20:7:34:545 (H:m:s:ms)","GENERIC","62.394000000000005","0.29852510350242173","769"
"20:7:40:606 (H:m:s:ms)","GENERIC","62.576","0.2948661271904342","649"
"20:7:46:666 (H:m:s:ms)","GENERIC","62.335","0.2958155779497048","449"
"20:7:52:727 (H:m:s:ms)","GENERIC","62.342","0.29773680620422094","510"
"20:17:58:787 (H:m:s:ms)","GENERIC","93.493","0.28868292738053974","526"
"20:18:4:848 (H:m:s:ms)","GENERIC","93.142","0.2902782007058143","433"
"20:18:10:909 (H:m:s:ms)","GENERIC","124.84299999999999","0.29062739199730847","1320"
"20:18:16:969 (H:m:s:ms)","GENERIC","93.23","0.28709916439248606","1375"
"20:18:23:30 (H:m:s:ms)","GENERIC","93.556","0.28552042615302253","1222"
"20:18:29:90 (H:m:s:ms)","GENERIC","62.197","0.2820247261273917","1073"
"20:18:35:151 (H:m:s:ms)","GENERIC","93.452","0.2836084764047831","1079"
"20:18:41:212 (H:m:s:ms)","GENERIC","93.57900000000001","0.28353566222079574","1093"
"20:18:47:272 (H:m:s:ms)","GENERIC","93.324","0.2843499016323698","1032"
"20:18:53:333 (H:m:s:ms)","GENERIC","93.532","0.2830166536302035","1009"
"20:7:58:787 (H:m:s:ms)","GENERIC","62.414","0.29631711883343526","519"
"20:8:4:848 (H:m:s:ms)","GENERIC","93.28","0.29830545765923505","475"
"20:8:10:909 (H:m:s:ms)","GENERIC","93.767","0.301413803898085","1335"
"20:8:16:969 (H:m:s:ms)","GENERIC","62.236999999999995","0.3009729059886567","1435"
"20:8:23:30 (H:m:s:ms)","GENERIC","62.480000000000004","0.30072258882693353","1273"
"20:8:29:90 (H:m:s:ms)","GENERIC","62.586","0.298469974732529","1074"
"20:8:35:151 (H:m:s:ms)","GENERIC","31.038","0.2973304131825295","980"
"20:8:41:212 (H:m:s:ms)","GENERIC","62.548","0.2969026576645341","1131"
"20:8:47:272 (H:m:s:ms)","GENERIC","62.31","0.2973975833010812","949"
"20:8:53:333 (H:m:s:ms)","GENERIC","62.509","0.29679679446609125","1013"
"20:18:59:393 (H:m:s:ms)","GENERIC","93.45400000000001","0.2806034529607865","860"
"20:19:5:454 (H:m:s:ms)","GENERIC","93.287","0.2796080128145309","917"
"20:19:11:515 (H:m:s:ms)","GENERIC","93.313","0.27806405979791743","817"
"20:19:17:575 (H:m:s:ms)","GENERIC","62.376999999999995","0.281907122410198","710"
"20:19:23:636 (H:m:s:ms)","GENERIC","93.348","0.2831298699420232","728"
"20:19:29:696 (H:m:s:ms)","GENERIC","93.285","0.2847736915349578","577"
"20:19:35:757 (H:m:s:ms)","GENERIC","93.205","0.28540223432623","671"
"20:19:41:818 (H:m:s:ms)","GENERIC","93.134","0.2898424984233503","547"
"20:19:47:878 (H:m:s:ms)","GENERIC","93.23400000000001","0.28927257920253285","1277"
"20:19:53:939 (H:m:s:ms)","GENERIC","93.64099999999999","0.2861617133052848","1452"
"20:8:59:393 (H:m:s:ms)","GENERIC","31.034","0.2968432429662618","859"
"20:9:5:454 (H:m:s:ms)","GENERIC","62.206","0.29557911876086046","925"
"20:9:11:515 (H:m:s:ms)","GENERIC","62.3","0.29676496779959954","663"
"20:9:17:575 (H:m:s:ms)","GENERIC","62.245999999999995","0.29397079490807776","887"
"20:9:23:636 (H:m:s:ms)","GENERIC","62.325","0.29433185381046767","643"
"20:9:29:696 (H:m:s:ms)","GENERIC","62.28","0.2937189636284175","571"
"20:9:35:757 (H:m:s:ms)","GENERIC","62.197","0.2940870952341917","608"
"20:9:41:818 (H:m:s:ms)","GENERIC","62.117","0.29144216687940766","500"
"20:9:47:878 (H:m:s:ms)","GENERIC","62.214","0.29241063891954855","329"
"20:9:53:939 (H:m:s:ms)","GENERIC","62.540000000000006","0.2909058680911188","1412"
"21:41:24:848 (H:m:s:ms)","GENERIC","62.257000000000005","0.35147424449536546","387"
"21:41:18:787 (H:m:s:ms)","GENERIC","93.634","0.34515444579670157","581"
"21:41:12:727 (H:m:s:ms)","GENERIC","62.101","0.33717899401126955","461"
"21:41:6:666 (H:m:s:ms)","GENERIC","62.041","0.3427395408778234","489"
"21:41:0:606 (H:m:s:ms)","GENERIC","93.374","0.3419994886557674","619"
"21:40:54:545 (H:m:s:ms)","GENERIC","93.524","0.3403195850034089","763"
"21:40:48:484 (H:m:s:ms)","GENERIC","93.428","0.3394153339940638","722"
"21:41:43:30 (H:m:s:ms)","GENERIC","93.225","0.3532101527411368","1298"
"21:41:36:969 (H:m:s:ms)","GENERIC","124.905","0.35282780680264875","1280"
"21:41:30:909 (H:m:s:ms)","GENERIC","93.265","0.3529321564455259","1236"
