"time (H:m:s:ms)","type","latency","utilisation","waiting"
"21:42:43:636 (H:m:s:ms)","GENERIC","155.263","0.3463654915718193","367"
"21:42:25:454 (H:m:s:ms)","GENERIC","124.15100000000001","0.3418190106614747","547"
"21:42:19:393 (H:m:s:ms)","GENERIC","156.696","0.33949632506916994","647"
"21:42:13:333 (H:m:s:ms)","GENERIC","124.24799999999999","0.33907756737836986","674"
"21:42:7:272 (H:m:s:ms)","GENERIC","186.285","0.33914517865812677","734"
"21:42:1:212 (H:m:s:ms)","GENERIC","157.19400000000002","0.3380284432793115","794"
"21:41:55:151 (H:m:s:ms)","GENERIC","187.894","0.33751324410997957","856"
"21:41:49:90 (H:m:s:ms)","GENERIC","155.969","0.3432627245781601","954"
"21:41:43:30 (H:m:s:ms)","GENERIC","155.753","0.34396365626102743","977"
"21:42:37:575 (H:m:s:ms)","GENERIC","189.095","0.34521263489002946","428"
"21:42:31:515 (H:m:s:ms)","GENERIC","124.51599999999999","0.34086295193280636","492"
"21:43:50:303 (H:m:s:ms)","GENERIC","156.399","0.3544813866011706","700"
"21:43:44:242 (H:m:s:ms)","GENERIC","188.708","0.35227056811626734","768"
"21:43:32:121 (H:m:s:ms)","GENERIC","156.393","0.34591917042429743","885"
"20:0:0:0 (H:m:s:ms)","GENERIC","125.229","0.0381536994423642","2265"
"21:43:26:60 (H:m:s:ms)","GENERIC","188.393","0.3438584246148148","948"
"20:0:6:60 (H:m:s:ms)","GENERIC","157.264","0.0500709428814524","953"
"21:43:20:0 (H:m:s:ms)","GENERIC","155.19799999999998","0.33791335185187715","1045"
"20:0:12:121 (H:m:s:ms)","GENERIC","155.537","0.07406849399024976","888"
"21:43:13:939 (H:m:s:ms)","GENERIC","155.256","0.3371189374372391","1067"
"20:0:18:181 (H:m:s:ms)","GENERIC","124.962","0.09003653818045979","961"
"21:43:7:878 (H:m:s:ms)","GENERIC","156.137","0.3374153332573666","1127"
"20:0:24:242 (H:m:s:ms)","GENERIC","93.62","0.09646334984897012","773"
"21:43:1:818 (H:m:s:ms)","GENERIC","155.298","0.33933424707583376","186"
"20:0:30:303 (H:m:s:ms)","GENERIC","124.491","0.11032754098448419","710"
"21:42:55:757 (H:m:s:ms)","GENERIC","188.589","0.34124337193536675","249"
"20:0:36:363 (H:m:s:ms)","GENERIC","156.67000000000002","0.12421616173494536","648"
"21:42:49:696 (H:m:s:ms)","GENERIC","125.11800000000001","0.34391449990519096","349"
"20:0:42:424 (H:m:s:ms)","GENERIC","126.12200000000001","0.13117844817281982","587"
"21:10:18:181 (H:m:s:ms)","GENERIC","124.898","0.3149085244800064","822"
"20:0:48:484 (H:m:s:ms)","GENERIC","124.988","0.1421162899871314","528"
"21:10:24:242 (H:m:s:ms)","GENERIC","187.279","0.31224791901332555","766"
"21:10:30:303 (H:m:s:ms)","GENERIC","125.31700000000001","0.3177841840274551","698"
"21:10:36:363 (H:m:s:ms)","GENERIC","156.32600000000002","0.31857533755848716","641"
"21:10:42:424 (H:m:s:ms)","GENERIC","125.43299999999999","0.31961358106663385","582"
"21:10:48:484 (H:m:s:ms)","GENERIC","156.676","0.3152049087887456","523"
"21:10:54:545 (H:m:s:ms)","GENERIC","156.53","0.31280398169693563","462"
"21:11:0:606 (H:m:s:ms)","GENERIC","187.471","0.315273949945348","400"
"21:43:38:181 (H:m:s:ms)","GENERIC","156.543","0.3494214930525177","825"
"21:11:6:666 (H:m:s:ms)","GENERIC","156.914","0.3162614763546387","341"
"21:11:12:727 (H:m:s:ms)","GENERIC","155.499","0.3140655460095204","280"
"21:25:45:454 (H:m:s:ms)","GENERIC","188.834","0.32749622772629167","551"
"21:44:56:969 (H:m:s:ms)","GENERIC","156.825","0.3482994269375715","1035"
"21:44:50:909 (H:m:s:ms)","GENERIC","156.426","0.3489139141739006","1094"
"21:44:44:848 (H:m:s:ms)","GENERIC","124.498","0.3550548792571918","161"
"21:44:38:787 (H:m:s:ms)","GENERIC","187.487","0.3552712233121393","217"
"21:44:32:727 (H:m:s:ms)","GENERIC","188.03199999999998","0.3600041620493623","275"
"21:44:26:666 (H:m:s:ms)","GENERIC","157.048","0.3565068084884854","340"
"21:44:20:606 (H:m:s:ms)","GENERIC","155.793","0.3552809876729668","398"
"21:44:14:545 (H:m:s:ms)","GENERIC","156.756","0.3585139505939525","459"
"21:44:8:484 (H:m:s:ms)","GENERIC","155.793","0.3583957766241198","523"
"21:44:2:424 (H:m:s:ms)","GENERIC","156.769","0.3598259954153156","581"
"21:11:18:787 (H:m:s:ms)","GENERIC","155.619","0.3133462777500144","218"
"21:43:56:363 (H:m:s:ms)","GENERIC","155.202","0.35634885920783504","641"
"21:11:24:848 (H:m:s:ms)","GENERIC","155.382","0.30858197402702503","161"
"21:11:30:909 (H:m:s:ms)","GENERIC","156.526","0.31061369360389796","1102"
"21:11:36:969 (H:m:s:ms)","GENERIC","186.918","0.3087923954377166","1039"
"21:11:43:30 (H:m:s:ms)","GENERIC","155.716","0.30703195567765945","979"
"21:11:49:90 (H:m:s:ms)","GENERIC","187.289","0.30611664980544223","954"
"21:11:55:151 (H:m:s:ms)","GENERIC","156.515","0.3056722565287903","857"
"21:12:1:212 (H:m:s:ms)","GENERIC","157.111","0.306008732953515","792"
"21:12:7:272 (H:m:s:ms)","GENERIC","155.264","0.30597056112597565","733"
"21:12:13:333 (H:m:s:ms)","GENERIC","186.15699999999998","0.30614229452462594","674"
"21:26:27:341 (H:m:s:ms)","OPERA","125.094","0.3311321952823963","661"
"21:46:3:636 (H:m:s:ms)","GENERIC","155.91","0.38211228812820064","372"
"21:26:21:818 (H:m:s:ms)","GENERIC","187.95600000000002","0.33143122658210195","186"
"21:45:57:575 (H:m:s:ms)","GENERIC","155.325","0.38228693148162424","430"
"21:45:51:515 (H:m:s:ms)","GENERIC","187.679","0.38380805015741654","490"
"21:45:45:454 (H:m:s:ms)","GENERIC","157.24","0.38158766356528395","552"
"21:26:15:757 (H:m:s:ms)","GENERIC","157.322","0.3227806495290584","246"
"21:26:12:151 (H:m:s:ms)","OPERA","125.092","0.3235234048256516","858"
"21:45:39:393 (H:m:s:ms)","GENERIC","188.06300000000002","0.382295275112513","651"
"21:26:9:696 (H:m:s:ms)","GENERIC","186.54500000000002","0.3243716129675346","347"
"21:45:33:333 (H:m:s:ms)","GENERIC","156.828","0.3789395563888716","674"
"21:26:4:556 (H:m:s:ms)","OPERA","156.572","0.3267357496273709","447"
"21:45:27:272 (H:m:s:ms)","GENERIC","187.86","0.3711234614126724","733"
"21:26:3:636 (H:m:s:ms)","GENERIC","155.899","0.3276000691715858","366"
"21:45:21:212 (H:m:s:ms)","GENERIC","125.657","0.3694516279189346","792"
"21:25:57:575 (H:m:s:ms)","GENERIC","155.312","0.32806766320847347","441"
"21:45:15:151 (H:m:s:ms)","GENERIC","125.649","0.3566984461166532","853"
"21:12:19:393 (H:m:s:ms)","GENERIC","125.147","0.3076730235089822","648"
"21:25:56:962 (H:m:s:ms)","OPERA","156.188","0.3278503565647381","1049"
"21:45:9:90 (H:m:s:ms)","GENERIC","157.34","0.3518921844746689","953"
"21:12:25:454 (H:m:s:ms)","GENERIC","124.145","0.3098948698798208","548"
"21:25:51:515 (H:m:s:ms)","GENERIC","156.209","0.32875012134241927","486"
"21:45:3:30 (H:m:s:ms)","GENERIC","157.27800000000002","0.35168695731621424","977"
"21:12:31:515 (H:m:s:ms)","GENERIC","186.928","0.3092592710744172","492"
"21:12:37:575 (H:m:s:ms)","GENERIC","189.124","0.30791213618540597","427"
"21:12:43:636 (H:m:s:ms)","GENERIC","155.28300000000002","0.30918852395291085","369"
"21:12:49:696 (H:m:s:ms)","GENERIC","155.913","0.30262060355533144","350"
"21:12:55:757 (H:m:s:ms)","GENERIC","188.683","0.30575030460211505","248"
"21:13:1:818 (H:m:s:ms)","GENERIC","155.301","0.30658822150086995","185"
"21:13:7:878 (H:m:s:ms)","GENERIC","125.169","0.30676341186773576","129"
"21:13:13:939 (H:m:s:ms)","GENERIC","155.202","0.30446308122248555","1069"
"21:26:19:746 (H:m:s:ms)","OPERA","156.232","0.32977889113619113","302"
"21:27:4:242 (H:m:s:ms)","GENERIC","187.518","0.3330062317851217","764"
"21:47:10:303 (H:m:s:ms)","GENERIC","156.219","0.3802989225975556","704"
"21:26:58:181 (H:m:s:ms)","GENERIC","155.744","0.33277908704829723","821"
"21:47:4:242 (H:m:s:ms)","GENERIC","156.328","0.379881002045815","760"
"21:26:57:721 (H:m:s:ms)","OPERA","124.787","0.3323244104116937","283"
"21:46:58:181 (H:m:s:ms)","GENERIC","155.664","0.38051859638211033","823"
"21:46:52:121 (H:m:s:ms)","GENERIC","156.589","0.37718416689567524","881"
"21:46:46:60 (H:m:s:ms)","GENERIC","187.82","0.37833430947392327","945"
"21:26:52:121 (H:m:s:ms)","GENERIC","188.238","0.33090679436322146","886"
"21:26:50:126 (H:m:s:ms)","OPERA","124.55699999999999","0.3312272163013689","878"
"21:26:46:60 (H:m:s:ms)","GENERIC","187.987","0.3308182772671807","944"
"21:46:40:0 (H:m:s:ms)","GENERIC","156.889","0.37932640116306043","1043"
"21:26:42:531 (H:m:s:ms)","OPERA","125.08","0.3306991327845868","475"
"21:46:33:939 (H:m:s:ms)","GENERIC","186.775","0.37943799674554923","1071"
"21:26:40:0 (H:m:s:ms)","GENERIC","188.454","0.3291430678035394","1048"
"21:46:27:878 (H:m:s:ms)","GENERIC","157.249","0.37673113446681533","1127"
"21:13:20:0 (H:m:s:ms)","GENERIC","155.291","0.30396494644402183","1048"
"21:26:34:936 (H:m:s:ms)","OPERA","156.023","0.3317899593589652","1077"
"21:46:21:818 (H:m:s:ms)","GENERIC","156.469","0.3765076327555243","190"
"21:13:26:60 (H:m:s:ms)","GENERIC","156.885","0.3030601825160229","946"
"21:26:33:939 (H:m:s:ms)","GENERIC","186.481","0.33174072599843285","1068"
"21:46:15:757 (H:m:s:ms)","GENERIC","157.252","0.3816338428911285","247"
"21:13:32:121 (H:m:s:ms)","GENERIC","156.485","0.306058334679266","888"
"21:26:27:878 (H:m:s:ms)","GENERIC","125.564","0.33082610332401324","1128"
"21:46:9:696 (H:m:s:ms)","GENERIC","186.578","0.3814371667502564","347"
"21:13:38:181 (H:m:s:ms)","GENERIC","187.333","0.3097640632531667","890"
"21:13:44:242 (H:m:s:ms)","GENERIC","156.96699999999998","0.3085590117715424","768"
"21:13:50:303 (H:m:s:ms)","GENERIC","156.429","0.3077395897057624","696"
"21:13:56:363 (H:m:s:ms)","GENERIC","155.27","0.3081217089344553","639"
"21:14:2:424 (H:m:s:ms)","GENERIC","156.691","0.3128809220945441","582"
"21:14:8:484 (H:m:s:ms)","GENERIC","155.804","0.31048113126370025","523"
"21:14:14:545 (H:m:s:ms)","GENERIC","156.868","0.3113806304689078","460"
"21:27:40:606 (H:m:s:ms)","GENERIC","188.78300000000002","0.33037474190281513","399"
"21:48:16:969 (H:m:s:ms)","GENERIC","155.324","0.37352672665009173","1036"
"21:27:35:696 (H:m:s:ms)","OPERA","156.55700000000002","0.3341943582406513","315"
"21:48:10:909 (H:m:s:ms)","GENERIC","155.317","0.37458963899076053","1095"
"21:27:34:545 (H:m:s:ms)","GENERIC","157.13","0.3329509036300483","461"
"21:48:4:848 (H:m:s:ms)","GENERIC","124.188","0.37347111031140046","158"
"21:27:28:484 (H:m:s:ms)","GENERIC","125.43299999999999","0.33227560725637184","525"
"21:47:58:787 (H:m:s:ms)","GENERIC","156.721","0.37353188783155744","220"
"21:47:52:727 (H:m:s:ms)","GENERIC","187.301","0.3727903621756704","280"
"21:47:46:666 (H:m:s:ms)","GENERIC","156.403","0.3744685372475647","393"
"21:27:28:101 (H:m:s:ms)","OPERA","124.70599999999999","0.3326929509863273","902"
"21:27:22:424 (H:m:s:ms)","GENERIC","155.59300000000002","0.33098967436708615","579"
"21:27:20:506 (H:m:s:ms)","OPERA","187.683","0.33008179968127577","506"
"21:47:40:606 (H:m:s:ms)","GENERIC","157.115","0.37837902099146953","398"
"21:14:20:606 (H:m:s:ms)","GENERIC","155.788","0.31264851472460026","398"
"21:27:16:363 (H:m:s:ms)","GENERIC","155.384","0.3295482617240841","641"
"21:47:34:545 (H:m:s:ms)","GENERIC","157.191","0.3794777698351904","460"
"21:14:26:666 (H:m:s:ms)","GENERIC","125.363","0.313260905406098","339"
"21:27:12:911 (H:m:s:ms)","OPERA","125.008","0.3315448482469977","1101"
"21:47:28:484 (H:m:s:ms)","GENERIC","156.61","0.379456574095962","524"
"20:52:13:333 (H:m:s:ms)","GENERIC","155.273","0.3067724265429404","674"
"21:14:32:727 (H:m:s:ms)","GENERIC","187.81","0.31115523861324695","279"
"21:27:10:303 (H:m:s:ms)","GENERIC","187.66899999999998","0.331489434378808","704"
"21:47:22:424 (H:m:s:ms)","GENERIC","186.644","0.381642555931311","582"
"20:52:19:393 (H:m:s:ms)","GENERIC","156.618","0.30811580710410763","656"
"21:14:38:787 (H:m:s:ms)","GENERIC","187.492","0.3116669998831787","217"
"21:27:5:316 (H:m:s:ms)","OPERA","93.608","0.3325463050514046","687"
"21:47:16:363 (H:m:s:ms)","GENERIC","186.48399999999998","0.379476068659202","641"
"20:52:25:454 (H:m:s:ms)","GENERIC","155.177","0.30655025818109993","551"
"21:14:44:848 (H:m:s:ms)","GENERIC","155.565","0.31387321578845473","159"
"20:52:31:515 (H:m:s:ms)","GENERIC","186.882","0.3058862188289761","492"
"21:14:50:909 (H:m:s:ms)","GENERIC","156.438","0.3143465364498132","1092"
"20:52:37:575 (H:m:s:ms)","GENERIC","157.423","0.30240264497529085","428"
"21:14:56:969 (H:m:s:ms)","GENERIC","156.785","0.31734575909658713","1038"
"20:52:43:636 (H:m:s:ms)","GENERIC","155.305","0.3038323532131844","367"
"21:15:3:30 (H:m:s:ms)","GENERIC","157.285","0.3221560221351461","976"
"20:52:49:696 (H:m:s:ms)","GENERIC","155.82600000000002","0.29810039953969764","356"
"21:15:9:90 (H:m:s:ms)","GENERIC","188.987","0.31970752601132824","956"
"20:52:55:757 (H:m:s:ms)","GENERIC","157.031","0.29452141096275863","249"
"21:15:15:151 (H:m:s:ms)","GENERIC","125.548","0.32032001646572844","854"
"20:53:1:818 (H:m:s:ms)","GENERIC","155.37","0.29454311128833877","189"
"20:53:7:878 (H:m:s:ms)","GENERIC","156.154","0.29006807153691894","1132"
"21:28:16:969 (H:m:s:ms)","GENERIC","186.502","0.3365468979972107","1034"
"21:49:23:636 (H:m:s:ms)","GENERIC","155.88299999999998","0.3641047209153824","368"
"21:28:13:670 (H:m:s:ms)","OPERA","125.117","0.33742536640190746","335"
"21:49:17:575 (H:m:s:ms)","GENERIC","155.452","0.3653471064909664","434"
"21:28:10:909 (H:m:s:ms)","GENERIC","155.273","0.33446206422312574","1095"
"21:49:11:515 (H:m:s:ms)","GENERIC","157.212","0.36654027031616626","489"
"21:28:6:75 (H:m:s:ms)","OPERA","187.59199999999998","0.33553804704117157","932"
"21:49:5:454 (H:m:s:ms)","GENERIC","188.688","0.3629320842964946","555"
"21:28:4:848 (H:m:s:ms)","GENERIC","155.24900000000002","0.3337458894543599","156"
"21:48:59:393 (H:m:s:ms)","GENERIC","156.595","0.36088304261945037","650"
"21:48:53:333 (H:m:s:ms)","GENERIC","189.041","0.3624567483086128","668"
"21:48:47:272 (H:m:s:ms)","GENERIC","187.961","0.36282385621147334","733"
"21:27:58:787 (H:m:s:ms)","GENERIC","188.418","0.33356447563954494","233"
"21:15:21:212 (H:m:s:ms)","GENERIC","157.392","0.31917635817886003","792"
"21:27:58:481 (H:m:s:ms)","OPERA","125.26700000000001","0.33357335521052695","531"
"21:15:27:272 (H:m:s:ms)","GENERIC","188.007","0.32000046189748543","738"
"21:27:52:727 (H:m:s:ms)","GENERIC","187.262","0.3282093781324943","276"
"21:48:41:212 (H:m:s:ms)","GENERIC","156.15699999999998","0.3627260212131429","793"
"20:53:13:939 (H:m:s:ms)","GENERIC","186.216","0.2878840766022313","1066"
"21:15:33:333 (H:m:s:ms)","GENERIC","188.417","0.3176436532095346","675"
"21:27:50:886 (H:m:s:ms)","OPERA","156.401","0.32899904274047104","1144"
"21:48:35:151 (H:m:s:ms)","GENERIC","155.923","0.36648072124662284","857"
"20:53:20:0 (H:m:s:ms)","GENERIC","155.38400000000001","0.2880723382314215","1052"
"21:15:39:393 (H:m:s:ms)","GENERIC","156.44400000000002","0.30981204627124914","654"
"21:27:46:666 (H:m:s:ms)","GENERIC","186.706","0.3290508787049888","346"
"21:48:29:90 (H:m:s:ms)","GENERIC","187.814","0.36666353180029043","955"
"20:53:26:60 (H:m:s:ms)","GENERIC","188.38400000000001","0.2868861201488856","949"
"21:15:45:454 (H:m:s:ms)","GENERIC","157.274","0.3111038813170875","552"
"21:27:43:291 (H:m:s:ms)","OPERA","124.627","0.33075345016859947","709"
"21:48:23:30 (H:m:s:ms)","GENERIC","156.347","0.3744437277706093","975"
"20:53:32:121 (H:m:s:ms)","GENERIC","156.567","0.2881272597206504","883"
"21:15:51:515 (H:m:s:ms)","GENERIC","156.269","0.31022391569082397","489"
"20:53:38:181 (H:m:s:ms)","GENERIC","187.237","0.2892718800069076","825"
"21:15:57:575 (H:m:s:ms)","GENERIC","155.274","0.3113086491382953","429"
"20:53:44:242 (H:m:s:ms)","GENERIC","156.959","0.29011063330376885","768"
"21:16:3:636 (H:m:s:ms)","GENERIC","187.187","0.3097489598186063","372"
"20:53:50:303 (H:m:s:ms)","GENERIC","125.386","0.29085879062183745","700"
"21:16:9:696 (H:m:s:ms)","GENERIC","155.531","0.3098157363813081","351"
"20:53:56:363 (H:m:s:ms)","GENERIC","155.257","0.29130186095388044","640"
"21:16:15:757 (H:m:s:ms)","GENERIC","189.067","0.31074729298889375","247"
"20:54:2:424 (H:m:s:ms)","GENERIC","156.798","0.2927843918083501","579"
"20:54:8:484 (H:m:s:ms)","GENERIC","187.048","0.2902474826342561","525"
"21:28:53:333 (H:m:s:ms)","GENERIC","125.624","0.3405830821586927","668"
"22:34:12:631 (H:m:s:ms)","AMBULANCE","186.316","0.34298312501056594","372"
"21:28:51:645 (H:m:s:ms)","OPERA","93.745","0.3410570981485535","371"
"22:7:53:684 (H:m:s:ms)","AMBULANCE","125.503","0.33944633597281115","330"
"21:28:47:272 (H:m:s:ms)","GENERIC","188.095","0.3394434868213646","733"
"22:6:18:947 (H:m:s:ms)","AMBULANCE","157.007","0.33755120135942657","1064"
"21:28:44:50 (H:m:s:ms)","OPERA","186.968","0.33759575951848064","967"
"22:4:12:631 (H:m:s:ms)","AMBULANCE","124.179","0.3386727375120594","373"
"21:36:20:0 (H:m:s:ms)","GENERIC","187.062","0.34466549230661336","3030"
"22:3:9:473 (H:m:s:ms)","AMBULANCE","125.243","0.3309526308937416","540"
"21:28:36:455 (H:m:s:ms)","OPERA","93.782","0.3394270062054238","544"
"21:50:0:0 (H:m:s:ms)","GENERIC","156.311","0.36790982052195653","1046"
"21:49:53:939 (H:m:s:ms)","GENERIC","157.24","0.3671670274772547","1065"
"21:49:47:878 (H:m:s:ms)","GENERIC","125.068","0.36555667238855566","1124"
"21:16:21:818 (H:m:s:ms)","GENERIC","156.534","0.30736837763157493","192"
"21:16:27:878 (H:m:s:ms)","GENERIC","125.556","0.3079081762219432","1125"
"21:28:35:151 (H:m:s:ms)","GENERIC","155.696","0.3389684574498889","856"
"20:54:14:545 (H:m:s:ms)","GENERIC","125.158","0.29053374332597565","460"
"21:16:33:939 (H:m:s:ms)","GENERIC","155.48899999999998","0.30938564131125945","1070"
"21:28:29:90 (H:m:s:ms)","GENERIC","156.50799999999998","0.33774623197465115","954"
"20:54:20:606 (H:m:s:ms)","GENERIC","124.471","0.2872407283595405","402"
"21:16:40:0 (H:m:s:ms)","GENERIC","188.599","0.3089400754181673","1051"
"21:28:28:860 (H:m:s:ms)","OPERA","93.908","0.3367872375006756","142"
"21:49:41:818 (H:m:s:ms)","GENERIC","156.743","0.3656195941133856","185"
"20:54:26:666 (H:m:s:ms)","GENERIC","188.42000000000002","0.2931009543315418","340"
"21:16:46:60 (H:m:s:ms)","GENERIC","156.352","0.31079858580234054","947"
"21:28:23:30 (H:m:s:ms)","GENERIC","156.692","0.3327445900822133","973"
"21:49:35:757 (H:m:s:ms)","GENERIC","155.52499999999998","0.3641046847696878","251"
"20:54:32:727 (H:m:s:ms)","GENERIC","125.517","0.2915619149706634","280"
"21:16:52:121 (H:m:s:ms)","GENERIC","157.183","0.31166614970585693","884"
"21:28:21:265 (H:m:s:ms)","OPERA","156.412","0.3346692717763463","739"
"21:49:29:696 (H:m:s:ms)","GENERIC","156.451","0.36485968128987245","345"
"20:54:38:787 (H:m:s:ms)","GENERIC","156.09","0.29061686455173524","220"
"21:16:58:181 (H:m:s:ms)","GENERIC","155.752","0.31387095832232625","824"
"20:54:44:848 (H:m:s:ms)","GENERIC","186.853","0.290149548682024","161"
"21:17:4:242 (H:m:s:ms)","GENERIC","156.195","0.3152956623875119","762"
"20:54:50:909 (H:m:s:ms)","GENERIC","125.024","0.29082458440439213","1093"
"21:17:10:303 (H:m:s:ms)","GENERIC","156.112","0.3130471856815854","704"
"20:54:56:969 (H:m:s:ms)","GENERIC","188.36","0.2932042129894626","1036"
"21:17:16:363 (H:m:s:ms)","GENERIC","155.422","0.3113756969365711","642"
"20:55:3:30 (H:m:s:ms)","GENERIC","157.279","0.29325740962092567","978"
"20:55:9:90 (H:m:s:ms)","GENERIC","157.38","0.2934669269746013","962"
"21:29:29:696 (H:m:s:ms)","GENERIC","156.637","0.33838084666990303","370"
"21:29:29:620 (H:m:s:ms)","OPERA","187.08100000000002","0.33742561725151166","437"
"21:29:23:636 (H:m:s:ms)","GENERIC","155.845","0.33573269382675286","369"
"21:29:22:25 (H:m:s:ms)","OPERA","124.909","0.3366194955073616","987"
"21:29:17:575 (H:m:s:ms)","GENERIC","186.566","0.33938996515634406","435"
"21:33:42:0 (H:m:s:ms)","OPERA","156.03199999999998","0.31553989054889753","1676"
"21:29:11:515 (H:m:s:ms)","GENERIC","157.302","0.3392883420544288","489"
"21:17:22:424 (H:m:s:ms)","GENERIC","155.567","0.3123333047064106","580"
"21:17:28:484 (H:m:s:ms)","GENERIC","125.5","0.31375484323813807","521"
"20:55:15:151 (H:m:s:ms)","GENERIC","157.288","0.2930161675637098","853"
"21:17:34:545 (H:m:s:ms)","GENERIC","157.069","0.3140714767111636","463"
"20:55:21:212 (H:m:s:ms)","GENERIC","93.856","0.2913681801269467","790"
"21:17:40:606 (H:m:s:ms)","GENERIC","125.459","0.3128706019374972","396"
"21:29:6:835 (H:m:s:ms)","OPERA","125.414","0.3367493098708057","179"
"20:55:27:272 (H:m:s:ms)","GENERIC","156.894","0.28641615145355337","738"
"21:17:46:666 (H:m:s:ms)","GENERIC","186.822","0.31139097641159524","345"
"21:29:5:454 (H:m:s:ms)","GENERIC","125.42099999999999","0.33581877054430487","553"
"20:55:33:333 (H:m:s:ms)","GENERIC","156.853","0.2884194123440864","676"
"21:17:52:727 (H:m:s:ms)","GENERIC","187.375","0.3164045110390499","281"
"21:28:59:393 (H:m:s:ms)","GENERIC","156.63400000000001","0.33799703967633254","662"
"23:34:12:631 (H:m:s:ms)","AMBULANCE","155.26600000000002","0.34018842524074405","372"
"20:55:39:393 (H:m:s:ms)","GENERIC","156.439","0.28746098385974206","659"
"21:17:58:787 (H:m:s:ms)","GENERIC","188.34199999999998","0.31802816670528167","219"
"21:28:59:240 (H:m:s:ms)","OPERA","156.236","0.3394394566146705","811"
"23:4:12:631 (H:m:s:ms)","AMBULANCE","124.227","0.3417217275341807","373"
"20:55:45:454 (H:m:s:ms)","GENERIC","157.202","0.28771065540618423","553"
"21:18:4:848 (H:m:s:ms)","GENERIC","186.341","0.3203770103318418","157"
"20:55:51:515 (H:m:s:ms)","GENERIC","156.31","0.2869603007365789","491"
"21:18:10:909 (H:m:s:ms)","GENERIC","155.31","0.32020799947388795","1093"
"20:55:57:575 (H:m:s:ms)","GENERIC","155.442","0.2846207970261389","430"
"21:18:16:969 (H:m:s:ms)","GENERIC","155.304","0.3209062235833366","1035"
"20:56:3:636 (H:m:s:ms)","GENERIC","155.84","0.2848408627689134","372"
"20:56:9:696 (H:m:s:ms)","GENERIC","155.465","0.28481256325938137","358"
"21:30:0:0 (H:m:s:ms)","GENERIC","156.399","0.33790177630468843","1082"
"21:30:0:0 (H:m:s:ms)","GENERIC","156.305","0.33851825006097874","1075"
"21:33:42:0 (H:m:s:ms)","OPERA","187.20999999999998","0.3131496135464582","2124"
"21:30:0:0 (H:m:s:ms)","AMBULANCE","156.922","0.339106987553345","1054"
"21:29:53:939 (H:m:s:ms)","GENERIC","157.09799999999998","0.33789940316371686","1065"
"21:29:52:405 (H:m:s:ms)","OPERA","156.192","0.33963727914571434","613"
"21:34:45:0 (H:m:s:ms)","GENERIC","156.647","0.350377263215456","2226"
"21:33:42:0 (H:m:s:ms)","OPERA","156.452","0.32343959650571086","1413"
"21:18:23:30 (H:m:s:ms)","GENERIC","156.45100000000002","0.3188939703411037","977"
"21:18:29:90 (H:m:s:ms)","GENERIC","93.55199999999999","0.3205042743858936","957"
"20:56:15:757 (H:m:s:ms)","GENERIC","125.563","0.2845291380403196","245"
"21:18:35:151 (H:m:s:ms)","GENERIC","156.032","0.32380074560346306","856"
"20:56:21:818 (H:m:s:ms)","GENERIC","156.454","0.28509660436444917","190"
"21:18:41:212 (H:m:s:ms)","GENERIC","156.12","0.32417381499617554","796"
"20:40:0:0 (H:m:s:ms)","OPERA","125.071","0.29870752185249083","2344"
"20:56:27:878 (H:m:s:ms)","GENERIC","157.257","0.28538317853102063","1123"
"21:18:47:272 (H:m:s:ms)","GENERIC","156.578","0.32221347848581344","730"
"20:40:0:0 (H:m:s:ms)","GENERIC","156.278","0.3012033220141781","2353"
"20:56:33:939 (H:m:s:ms)","GENERIC","186.636","0.2868816250327093","1071"
"21:18:53:333 (H:m:s:ms)","GENERIC","157.367","0.3202030044305849","669"
"21:29:41:818 (H:m:s:ms)","GENERIC","125.164","0.3374629035388431","185"
"20:40:0:0 (H:m:s:ms)","GENERIC","156.171","0.3004416989333575","2362"
"20:56:40:0 (H:m:s:ms)","GENERIC","188.438","0.2880062441708439","1056"
"21:18:59:393 (H:m:s:ms)","GENERIC","187.855","0.31330924695840007","649"
"21:29:37:215 (H:m:s:ms)","OPERA","187.298","0.3388577136402952","796"
"20:40:6:60 (H:m:s:ms)","GENERIC","188.382","0.29787946351202305","949"
"20:56:46:60 (H:m:s:ms)","GENERIC","156.37199999999999","0.2903744749081399","948"
"21:19:5:454 (H:m:s:ms)","GENERIC","188.731","0.3133702658112934","555"
"21:29:35:757 (H:m:s:ms)","GENERIC","155.36200000000002","0.33819302650732636","251"
"20:40:7:594 (H:m:s:ms)","OPERA","125.118","0.29768042656126686","414"
"20:56:52:121 (H:m:s:ms)","GENERIC","156.48700000000002","0.2903706136581294","1009"
"21:19:11:515 (H:m:s:ms)","GENERIC","188.976","0.3157242226911782","489"
"20:40:12:121 (H:m:s:ms)","GENERIC","155.285","0.29690812556688945","885"
"20:56:58:181 (H:m:s:ms)","GENERIC","124.555","0.2920747576222074","825"
"21:19:17:575 (H:m:s:ms)","GENERIC","186.57999999999998","0.3138432119279798","435"
"20:40:15:189 (H:m:s:ms)","OPERA","93.688","0.2987621721732859","815"
"20:57:4:242 (H:m:s:ms)","GENERIC","124.92099999999999","0.29174485780229786","759"
"20:40:18:181 (H:m:s:ms)","GENERIC","187.857","0.29664671502735873","822"
"21:2:7:0 (H:m:s:ms)","GENERIC","156.068","0.2896083253454124","1779"
"20:40:22:784 (H:m:s:ms)","OPERA","156.518","0.29924809814239034","221"
"20:40:24:242 (H:m:s:ms)","GENERIC","187.25900000000001","0.3007565374077465","767"
"21:34:45:0 (H:m:s:ms)","GENERIC","156.643","0.3408922083690703","1863"
"21:31:6:666 (H:m:s:ms)","GENERIC","188.325","0.33175880106536115","339"
"21:31:0:606 (H:m:s:ms)","GENERIC","124.702","0.32825122402201296","478"
"21:30:54:545 (H:m:s:ms)","GENERIC","125.006","0.32809302198813683","459"
"21:35:48:0 (H:m:s:ms)","GENERIC","188.002","0.3456649577096269","3835"
"21:30:42:424 (H:m:s:ms)","GENERIC","157.107","0.32629227639827924","582"
"21:30:36:363 (H:m:s:ms)","GENERIC","156.35399999999998","0.3331330865873349","644"
"21:34:45:0 (H:m:s:ms)","GENERIC","156.677","0.342369875969568","2883"
"21:19:23:636 (H:m:s:ms)","GENERIC","124.686","0.31274117301503235","369"
"21:33:42:0 (H:m:s:ms)","GENERIC","155.86599999999999","0.31728131871131837","1875"
"21:19:29:696 (H:m:s:ms)","GENERIC","156.636","0.3130598401725585","349"
"20:57:16:363 (H:m:s:ms)","GENERIC","155.35500000000002","0.287911963266735","644"
"21:19:35:757 (H:m:s:ms)","GENERIC","155.51299999999998","0.31409816019013415","252"
"20:57:22:424 (H:m:s:ms)","GENERIC","124.39","0.2847371117065913","584"
"21:19:41:818 (H:m:s:ms)","GENERIC","156.766","0.3192897850812517","189"
"20:40:30:303 (H:m:s:ms)","GENERIC","155.603","0.3018333479838136","705"
"20:57:28:484 (H:m:s:ms)","GENERIC","157.216","0.28888156612545707","520"
"21:19:47:878 (H:m:s:ms)","GENERIC","187.976","0.3221806912646521","1125"
"20:40:30:379 (H:m:s:ms)","OPERA","156.34","0.3030696136932133","641"
"20:57:34:545 (H:m:s:ms)","GENERIC","188.904","0.2884913889045915","464"
"21:19:53:939 (H:m:s:ms)","GENERIC","157.095","0.32176917140719646","1065"
"20:40:36:363 (H:m:s:ms)","GENERIC","156.302","0.3047734040881638","639"
"20:57:40:606 (H:m:s:ms)","GENERIC","157.235","0.2858234416405948","399"
"21:20:0:0 (H:m:s:ms)","OPERA","156.048","0.31695734566791817","2328"
"20:40:37:974 (H:m:s:ms)","OPERA","156.43200000000002","0.306722623389597","1033"
"20:57:46:666 (H:m:s:ms)","GENERIC","186.81799999999998","0.2824342863985968","345"
"21:20:0:0 (H:m:s:ms)","GENERIC","156.11","0.318992184920944","2337"
"21:30:12:121 (H:m:s:ms)","GENERIC","125.157","0.3368932451019013","882"
"20:40:42:424 (H:m:s:ms)","GENERIC","188.82","0.3047642328047903","584"
"20:57:52:727 (H:m:s:ms)","GENERIC","155.95499999999998","0.28182375753416244","282"
"21:20:0:0 (H:m:s:ms)","GENERIC","156.41","0.31748254747920124","2347"
"21:30:6:60 (H:m:s:ms)","GENERIC","156.932","0.33766234140240614","944"
"20:40:45:569 (H:m:s:ms)","OPERA","125.185","0.3062679445019574","439"
"20:57:58:787 (H:m:s:ms)","GENERIC","156.752","0.2837412766689753","220"
"21:20:6:60 (H:m:s:ms)","GENERIC","156.82600000000002","0.31694259325691043","947"
"20:40:48:484 (H:m:s:ms)","GENERIC","156.499","0.30732575999399425","521"
"20:58:4:848 (H:m:s:ms)","GENERIC","155.256","0.2865041747639841","159"
"20:40:53:164 (H:m:s:ms)","OPERA","156.336","0.30837739656135715","842"
"20:58:10:909 (H:m:s:ms)","GENERIC","186.316","0.2901811914056465","1094"
"20:40:54:545 (H:m:s:ms)","GENERIC","124.964","0.3097436228792242","460"
"20:41:0:606 (H:m:s:ms)","GENERIC","187.474","0.312712055286922","403"
"21:31:24:848 (H:m:s:ms)","GENERIC","155.287","0.3290148408384518","159"
"21:31:18:787 (H:m:s:ms)","GENERIC","155.51999999999998","0.32983516351357833","221"
"21:32:6:315 (H:m:s:ms)","AMBULANCE","125.081","0.32493820369620324","730"
"21:32:1:212 (H:m:s:ms)","GENERIC","188.764","0.32766838971579837","793"
"21:31:55:151 (H:m:s:ms)","GENERIC","156.403","0.3312796558613099","851"
"21:31:49:90 (H:m:s:ms)","GENERIC","155.962","0.33170896838494784","951"
"21:31:43:30 (H:m:s:ms)","GENERIC","155.638","0.33322891311536085","973"
"21:31:36:969 (H:m:s:ms)","GENERIC","155.626","0.33581768477960056","1035"
"21:31:34:736 (H:m:s:ms)","AMBULANCE","125.195","0.33320276256989845","288"
"21:31:30:909 (H:m:s:ms)","GENERIC","156.689","0.3320399229971662","1096"
"20:58:16:969 (H:m:s:ms)","GENERIC","155.406","0.2879263366843117","1036"
"21:3:10:0 (H:m:s:ms)","GENERIC","156.50900000000001","0.2889310602168814","3028"
"20:41:0:759 (H:m:s:ms)","OPERA","125.105","0.3118812089038357","302"
"21:3:10:0 (H:m:s:ms)","GENERIC","187.761","0.2905924271200097","3026"
"20:41:6:666 (H:m:s:ms)","GENERIC","156.868","0.31206702003935366","341"
"21:3:10:0 (H:m:s:ms)","GENERIC","155.994","0.29241107423116053","2961"
"20:41:8:354 (H:m:s:ms)","OPERA","125.076","0.3129702727082263","652"
"21:3:10:0 (H:m:s:ms)","GENERIC","187.541","0.29482490304919146","2915"
"20:41:12:727 (H:m:s:ms)","GENERIC","155.558","0.3136868419322165","280"
"20:58:47:272 (H:m:s:ms)","GENERIC","156.563","0.28670383292582546","729"
"20:41:15:949 (H:m:s:ms)","OPERA","124.92200000000001","0.31409179934842113","1067"
"20:58:53:333 (H:m:s:ms)","GENERIC","157.272","0.28849359145009923","670"
"20:41:18:787 (H:m:s:ms)","GENERIC","186.786","0.31422194765345657","220"
"20:58:59:393 (H:m:s:ms)","GENERIC","156.53","0.28725497097191766","657"
"21:31:12:727 (H:m:s:ms)","GENERIC","155.469","0.33201983266182966","279"
"20:41:23:544 (H:m:s:ms)","OPERA","124.997","0.3145021471739578","469"
"20:59:5:454 (H:m:s:ms)","GENERIC","188.662","0.2874075023460393","554"
"20:41:24:848 (H:m:s:ms)","GENERIC","186.43","0.31535048187544545","161"
"20:59:11:515 (H:m:s:ms)","GENERIC","157.304","0.2906459145918453","490"
"20:41:30:909 (H:m:s:ms)","GENERIC","156.485","0.31609530438840355","1101"
"20:41:31:139 (H:m:s:ms)","OPERA","156.205","0.3151209882823475","890"
"20:59:17:575 (H:m:s:ms)","GENERIC","155.481","0.28937248874786736","435"
"20:59:23:636 (H:m:s:ms)","GENERIC","187.346","0.2903937424515402","369"
"20:41:36:969 (H:m:s:ms)","GENERIC","155.656","0.3145577610189182","1040"
"20:59:29:696 (H:m:s:ms)","GENERIC","156.614","0.2897915868108999","356"
"20:41:38:734 (H:m:s:ms)","OPERA","125.19600000000001","0.315399702516617","281"
"20:59:35:757 (H:m:s:ms)","GENERIC","186.70999999999998","0.28888244137912106","254"
"20:41:43:30 (H:m:s:ms)","GENERIC","187.00099999999998","0.31508979796683245","978"
"20:59:41:818 (H:m:s:ms)","GENERIC","188.302","0.2870011318546925","187"
"20:41:46:329 (H:m:s:ms)","OPERA","125.21000000000001","0.31577935161101117","681"
"20:59:47:878 (H:m:s:ms)","GENERIC","188.142","0.28698143431855366","1130"
"20:41:49:90 (H:m:s:ms)","GENERIC","155.70600000000002","0.3173473892120095","956"
"20:59:53:939 (H:m:s:ms)","GENERIC","157.071","0.2894712285756343","1065"
"20:41:53:924 (H:m:s:ms)","OPERA","156.528","0.3152159324821092","1076"
"21:0:0:0 (H:m:s:ms)","AMBULANCE","125.133","0.29021980490805716","2481"
"20:41:55:151 (H:m:s:ms)","GENERIC","156.411","0.31754262811180883","856"
"21:3:10:0 (H:m:s:ms)","GENERIC","156.255","0.29392761293560227","4571"
"20:42:1:212 (H:m:s:ms)","GENERIC","157.172","0.3169619844762226","796"
"21:0:0:0 (H:m:s:ms)","GENERIC","156.167","0.29187250674497983","2500"
"20:42:1:518 (H:m:s:ms)","OPERA","124.963","0.3181993071471682","501"
"20:42:7:272 (H:m:s:ms)","GENERIC","155.11599999999999","0.31699514855937366","734"
"21:0:6:60 (H:m:s:ms)","GENERIC","156.765","0.29191437220324","949"
"21:0:12:121 (H:m:s:ms)","GENERIC","186.498","0.2901445257703088","887"
"20:42:9:113 (H:m:s:ms)","OPERA","124.79299999999999","0.31904075527693543","941"
"21:0:18:181 (H:m:s:ms)","GENERIC","124.937","0.28661300664557865","821"
"20:42:13:333 (H:m:s:ms)","GENERIC","155.351","0.31521104923152227","674"
"21:0:24:242 (H:m:s:ms)","GENERIC","155.996","0.28274083384294946","768"
"20:20:0:0 (H:m:s:ms)","GENERIC","156.223","0.2977913788074611","2321"
"20:42:16:708 (H:m:s:ms)","OPERA","125.393","0.31676246509912553","319"
"21:5:16:0 (H:m:s:ms)","GENERIC","156.07","0.31353923303838976","4050"
"20:20:0:0 (H:m:s:ms)","GENERIC","156.311","0.2984196926741087","2331"
"20:42:19:393 (H:m:s:ms)","GENERIC","125.155","0.31780734262721405","652"
"21:0:31:578 (H:m:s:ms)","AMBULANCE","125.29","0.28445904158141877","471"
"20:20:6:60 (H:m:s:ms)","GENERIC","188.334","0.2919280791861761","948"
"20:42:24:303 (H:m:s:ms)","OPERA","156.327","0.3210750991795956","706"
"21:0:36:363 (H:m:s:ms)","GENERIC","187.829","0.2874277144358437","642"
"20:20:12:121 (H:m:s:ms)","GENERIC","186.40800000000002","0.2916217488514065","886"
"20:42:25:454 (H:m:s:ms)","GENERIC","155.261","0.3215366886255792","551"
"21:0:42:424 (H:m:s:ms)","GENERIC","157.199","0.28772820667021953","583"
"20:20:18:181 (H:m:s:ms)","GENERIC","187.919","0.2899490469394137","826"
"20:42:31:515 (H:m:s:ms)","GENERIC","155.723","0.3201956271045887","495"
"21:0:48:484 (H:m:s:ms)","GENERIC","156.309","0.28824094281194623","522"
"20:20:24:242 (H:m:s:ms)","GENERIC","156.091","0.2884506013418872","768"
"20:42:31:898 (H:m:s:ms)","OPERA","125.142","0.3210304530278002","139"
"21:0:54:545 (H:m:s:ms)","GENERIC","187.869","0.2866445614360618","462"
"20:20:30:303 (H:m:s:ms)","GENERIC","155.47899999999998","0.2872041687607524","705"
"20:42:37:575 (H:m:s:ms)","GENERIC","189.13299999999998","0.3185209392996854","428"
"20:20:36:363 (H:m:s:ms)","GENERIC","156.303","0.28762403934758224","642"
"20:42:39:493 (H:m:s:ms)","OPERA","156.409","0.32000289463605913","560"
"20:20:42:424 (H:m:s:ms)","GENERIC","157.186","0.2887244262791129","582"
"20:20:48:484 (H:m:s:ms)","GENERIC","156.209","0.28728703507180975","618"
"21:5:16:0 (H:m:s:ms)","GENERIC","187.508","0.3109012019320813","3458"
"21:1:3:157 (H:m:s:ms)","AMBULANCE","125.243","0.2911961218316963","888"
"20:42:43:636 (H:m:s:ms)","GENERIC","155.261","0.31944975833430983","369"
"21:1:6:666 (H:m:s:ms)","GENERIC","125.339","0.29131405567280017","340"
"20:42:47:88 (H:m:s:ms)","OPERA","156.699","0.31944813465845995","918"
"21:1:12:727 (H:m:s:ms)","GENERIC","186.698","0.29537815184386185","281"
"20:20:54:545 (H:m:s:ms)","GENERIC","156.499","0.28334272280697664","462"
"20:42:49:696 (H:m:s:ms)","GENERIC","186.98499999999999","0.3185932117528344","355"
"21:1:18:787 (H:m:s:ms)","GENERIC","186.776","0.29404194244594556","221"
"20:21:0:606 (H:m:s:ms)","GENERIC","125.058","0.2829976658782785","404"
"20:42:54:683 (H:m:s:ms)","OPERA","156.30100000000002","0.3202884609164386","346"
"21:1:24:848 (H:m:s:ms)","GENERIC","155.36","0.2911595429276997","161"
"20:21:6:666 (H:m:s:ms)","GENERIC","125.27600000000001","0.283321418410353","341"
"20:42:55:757 (H:m:s:ms)","GENERIC","188.638","0.31845242136285135","250"
"21:1:30:909 (H:m:s:ms)","GENERIC","156.50900000000001","0.29142245003330847","1101"
"20:21:12:727 (H:m:s:ms)","GENERIC","186.614","0.2803032167881735","280"
"20:43:1:818 (H:m:s:ms)","GENERIC","186.304","0.3215685440662452","186"
"21:1:34:736 (H:m:s:ms)","AMBULANCE","125.106","0.296069538562129","272"
"20:21:18:787 (H:m:s:ms)","GENERIC","155.64600000000002","0.2788999708482015","221"
"20:43:2:278 (H:m:s:ms)","OPERA","125.22399999999999","0.3217478513858522","737"
"21:1:36:969 (H:m:s:ms)","GENERIC","155.596","0.2954878400715235","1040"
"20:21:24:848 (H:m:s:ms)","GENERIC","124.257","0.27810371233174025","160"
"20:43:7:878 (H:m:s:ms)","GENERIC","156.143","0.3255830907481846","1127"
"21:1:43:30 (H:m:s:ms)","GENERIC","186.874","0.29387626922010485","979"
"20:21:30:909 (H:m:s:ms)","GENERIC","156.576","0.2783847697727967","1100"
"20:43:9:873 (H:m:s:ms)","OPERA","156.335","0.3265254040224536","185"
"20:21:36:969 (H:m:s:ms)","GENERIC","186.883","0.27480481797900685","1038"
"20:43:13:939 (H:m:s:ms)","GENERIC","155.235","0.32852702133919526","1066"
"20:21:43:30 (H:m:s:ms)","GENERIC","186.96300000000002","0.2728115211866856","978"
"20:21:49:90 (H:m:s:ms)","GENERIC","155.877","0.27220046228899997","958"
"20:43:17:468 (H:m:s:ms)","OPERA","156.339","0.32747737070120025","545"
"20:43:20:0 (H:m:s:ms)","GENERIC","155.36599999999999","0.32667636770492664","1050"
"20:21:55:151 (H:m:s:ms)","GENERIC","187.937","0.27162581112309286","858"
"20:43:25:63 (H:m:s:ms)","OPERA","125.44200000000001","0.3245431108651999","957"
"20:22:1:212 (H:m:s:ms)","GENERIC","157.148","0.2744473046474116","793"
"20:43:26:60 (H:m:s:ms)","GENERIC","156.96699999999998","0.32421217776449873","950"
"20:22:7:272 (H:m:s:ms)","GENERIC","155.208","0.27671345282451365","732"
"20:43:32:121 (H:m:s:ms)","GENERIC","156.465","0.32244669596661774","886"
"20:22:13:333 (H:m:s:ms)","GENERIC","186.439","0.27757115053745335","674"
"20:43:32:658 (H:m:s:ms)","OPERA","125.059","0.32180612102532213","363"
"20:22:19:393 (H:m:s:ms)","GENERIC","156.642","0.27760475865154416","654"
"20:43:38:181 (H:m:s:ms)","GENERIC","124.55799999999999","0.32176672934156036","820"
"20:22:25:454 (H:m:s:ms)","GENERIC","155.18","0.27931542382570007","550"
"20:43:40:253 (H:m:s:ms)","OPERA","125.052","0.3230548426522734","754"
"20:22:31:515 (H:m:s:ms)","GENERIC","155.595","0.27852055260470454","490"
"20:43:44:242 (H:m:s:ms)","GENERIC","157.041","0.3232281707644749","769"
"20:22:37:575 (H:m:s:ms)","GENERIC","189.128","0.2768745936331604","427"
"20:43:47:848 (H:m:s:ms)","OPERA","93.715","0.3227699669822053","168"
"20:22:43:636 (H:m:s:ms)","GENERIC","186.305","0.27818825808495445","368"
"20:22:49:696 (H:m:s:ms)","GENERIC","186.975","0.2774997983418201","350"
"20:43:50:303 (H:m:s:ms)","GENERIC","187.236","0.3238389663944769","991"
"20:43:55:443 (H:m:s:ms)","OPERA","156.595","0.3255068704995611","572"
"20:22:55:757 (H:m:s:ms)","GENERIC","157.123","0.27808058143333614","249"
"20:43:56:363 (H:m:s:ms)","GENERIC","155.32","0.3250450023233979","640"
"20:23:1:818 (H:m:s:ms)","GENERIC","155.299","0.2792932374234611","186"
"20:44:2:424 (H:m:s:ms)","GENERIC","156.72899999999998","0.32198155151117525","582"
"20:23:7:878 (H:m:s:ms)","GENERIC","187.51600000000002","0.2766612476656332","1130"
"20:44:3:37 (H:m:s:ms)","OPERA","125.073","0.3224187357748844","967"
"20:23:13:939 (H:m:s:ms)","GENERIC","155.206","0.2778777811447646","1064"
"20:44:8:484 (H:m:s:ms)","GENERIC","124.479","0.32459585754947745","518"
"20:23:20:0 (H:m:s:ms)","GENERIC","186.336","0.2791900558777221","1044"
"20:44:10:632 (H:m:s:ms)","OPERA","156.544","0.3261932460385209","386"
"20:23:26:60 (H:m:s:ms)","GENERIC","188.403","0.2818741149272986","946"
"20:44:14:545 (H:m:s:ms)","GENERIC","156.742","0.3267583103566932","460"
"20:23:32:121 (H:m:s:ms)","GENERIC","156.539","0.2816649121119612","887"
"20:44:18:227 (H:m:s:ms)","OPERA","156.667","0.32725468660405427","784"
"20:23:38:181 (H:m:s:ms)","GENERIC","155.877","0.28303153728475505","829"
"20:44:20:606 (H:m:s:ms)","GENERIC","155.505","0.32584509881983387","401"
"20:23:44:242 (H:m:s:ms)","GENERIC","157.07999999999998","0.2810237386010733","768"
"20:23:50:303 (H:m:s:ms)","GENERIC","156.546","0.2816457952128091","716"
"20:44:25:822 (H:m:s:ms)","OPERA","156.909","0.3285475883704162","188"
"20:44:26:666 (H:m:s:ms)","GENERIC","188.527","0.3290061456114994","340"
"20:23:56:363 (H:m:s:ms)","GENERIC","186.413","0.2828700775111012","641"
"20:44:32:727 (H:m:s:ms)","GENERIC","188.093","0.33154905089442277","339"
"20:24:2:424 (H:m:s:ms)","GENERIC","188.267","0.28386825243494535","584"
"20:44:33:417 (H:m:s:ms)","OPERA","156.476","0.33211888153678804","601"
"20:24:8:484 (H:m:s:ms)","GENERIC","155.841","0.2840025474770399","525"
"20:44:38:787 (H:m:s:ms)","GENERIC","186.863","0.33191386679553464","219"
"20:24:14:545 (H:m:s:ms)","GENERIC","156.714","0.2797736857469463","460"
"20:44:41:12 (H:m:s:ms)","OPERA","125.312","0.3321110173635967","996"
"20:24:20:606 (H:m:s:ms)","GENERIC","187.09699999999998","0.2782596206997995","402"
"20:44:44:848 (H:m:s:ms)","GENERIC","155.611","0.33362170065003033","162"
"20:24:26:666 (H:m:s:ms)","GENERIC","156.847","0.28005669222466867","339"
"20:44:48:607 (H:m:s:ms)","OPERA","156.73399999999998","0.3345129179790499","412"
"20:24:32:727 (H:m:s:ms)","GENERIC","155.924","0.2794091677900598","281"
"20:44:50:909 (H:m:s:ms)","GENERIC","156.508","0.3336505588622695","1098"
"20:24:38:787 (H:m:s:ms)","GENERIC","187.406","0.27968412154546785","219"
"20:44:56:202 (H:m:s:ms)","OPERA","125.599","0.3359217218198233","809"
"20:24:44:848 (H:m:s:ms)","GENERIC","155.819","0.27934742329007345","161"
"20:24:50:909 (H:m:s:ms)","GENERIC","156.21800000000002","0.2806865731962565","1144"
"20:44:56:969 (H:m:s:ms)","GENERIC","156.74699999999999","0.33333402534769596","1052"
"20:45:3:30 (H:m:s:ms)","GENERIC","157.299","0.3262177594401835","977"
"20:24:56:969 (H:m:s:ms)","GENERIC","156.923","0.2821196611026952","1039"
"20:45:3:797 (H:m:s:ms)","OPERA","156.394","0.32605801029572","211"
"20:25:3:30 (H:m:s:ms)","GENERIC","189.087","0.28371932338992834","977"
"20:45:9:90 (H:m:s:ms)","GENERIC","157.278","0.3229817767508225","957"
"20:25:9:90 (H:m:s:ms)","GENERIC","189.058","0.28032948020746706","957"
"20:45:11:392 (H:m:s:ms)","OPERA","125.17399999999999","0.3244540512483806","608"
"20:25:15:151 (H:m:s:ms)","GENERIC","157.341","0.27872276735972074","854"
"20:45:15:151 (H:m:s:ms)","GENERIC","189.077","0.32457498521909756","854"
"20:25:21:212 (H:m:s:ms)","GENERIC","157.377","0.2791930074751458","791"
"20:45:18:987 (H:m:s:ms)","OPERA","93.726","0.3232395464487736","1056"
"20:25:27:272 (H:m:s:ms)","GENERIC","155.33499999999998","0.2808364835942575","731"
"20:45:21:212 (H:m:s:ms)","GENERIC","157.34699999999998","0.32267552067193755","791"
"20:25:33:333 (H:m:s:ms)","GENERIC","188.39100000000002","0.28153038315702295","676"
"20:45:26:582 (H:m:s:ms)","OPERA","125.227","0.3195947108309138","424"
"20:25:39:393 (H:m:s:ms)","GENERIC","187.901","0.282206125916936","653"
"20:45:27:272 (H:m:s:ms)","GENERIC","156.46","0.32012856110978316","738"
"20:25:45:454 (H:m:s:ms)","GENERIC","157.135","0.28058473398719824","552"
"20:25:51:515 (H:m:s:ms)","GENERIC","187.63","0.28306982195994984","491"
"20:25:57:575 (H:m:s:ms)","GENERIC","155.497","0.28313689001733267","429"
"20:26:3:636 (H:m:s:ms)","GENERIC","155.847","0.2843092237929425","370"
"20:26:9:696 (H:m:s:ms)","GENERIC","155.515","0.2846112033408372","351"
"20:26:15:757 (H:m:s:ms)","GENERIC","125.518","0.28373996081406483","245"
"20:26:21:818 (H:m:s:ms)","GENERIC","156.426","0.28634547767289886","189"
"20:26:27:878 (H:m:s:ms)","GENERIC","125.606","0.2890619782347047","1124"
"20:26:33:939 (H:m:s:ms)","GENERIC","155.5","0.29039377617482476","1070"
"20:26:40:0 (H:m:s:ms)","GENERIC","188.43099999999998","0.2886524683599545","1048"
"20:26:46:60 (H:m:s:ms)","GENERIC","125.009","0.28868726120070415","947"
"20:26:52:121 (H:m:s:ms)","GENERIC","156.183","0.2896863291780082","886"
"20:26:58:181 (H:m:s:ms)","GENERIC","155.891","0.2912684719682433","826"
"20:27:4:242 (H:m:s:ms)","GENERIC","156.41199999999998","0.28875694400381513","762"
"20:27:10:303 (H:m:s:ms)","GENERIC","156.13299999999998","0.28952405261336334","707"
"20:27:16:363 (H:m:s:ms)","GENERIC","186.474","0.2891397302011499","641"
"20:27:22:424 (H:m:s:ms)","GENERIC","155.526","0.2913814384979323","584"
"20:27:28:484 (H:m:s:ms)","GENERIC","157.062","0.29086637274302274","522"
"20:27:34:545 (H:m:s:ms)","GENERIC","157.137","0.29133652865344584","464"
"20:27:40:606 (H:m:s:ms)","GENERIC","188.888","0.2913650056680418","400"
"20:27:46:666 (H:m:s:ms)","GENERIC","155.505","0.2895716191017497","344"
"20:27:52:727 (H:m:s:ms)","GENERIC","155.964","0.28725578737088736","281"
"20:27:58:787 (H:m:s:ms)","GENERIC","156.79000000000002","0.28857916095501973","220"
"20:28:4:848 (H:m:s:ms)","GENERIC","124.181","0.28986225422867906","157"
"20:28:10:909 (H:m:s:ms)","GENERIC","186.385","0.29172664350118405","1094"
"20:28:16:969 (H:m:s:ms)","GENERIC","155.474","0.2919828331535278","1035"
"20:28:23:30 (H:m:s:ms)","GENERIC","155.763","0.2961314843196397","974"
"20:28:29:90 (H:m:s:ms)","GENERIC","156.39","0.2926663957132396","956"
"20:28:35:151 (H:m:s:ms)","GENERIC","155.978","0.2923539592328881","859"
"20:28:41:212 (H:m:s:ms)","GENERIC","156.197","0.2953960348082908","794"
"20:28:47:272 (H:m:s:ms)","GENERIC","156.548","0.2919547455166341","731"
"20:28:53:333 (H:m:s:ms)","GENERIC","157.363","0.2928396641108134","670"
"20:28:59:393 (H:m:s:ms)","GENERIC","156.446","0.29093334316105834","654"
"20:29:5:454 (H:m:s:ms)","GENERIC","157.18099999999998","0.292234922064289","555"
"20:29:11:515 (H:m:s:ms)","GENERIC","125.497","0.292985686311539","488"
"20:29:17:575 (H:m:s:ms)","GENERIC","124.269","0.2946144599321953","434"
"20:29:23:636 (H:m:s:ms)","GENERIC","124.652","0.2953432452085362","368"
"20:29:29:696 (H:m:s:ms)","GENERIC","156.506","0.29343592669370494","351"
"20:29:35:757 (H:m:s:ms)","GENERIC","186.566","0.2937581821124787","251"
"20:29:41:818 (H:m:s:ms)","GENERIC","125.153","0.2925083595829716","193"
"20:29:47:878 (H:m:s:ms)","GENERIC","156.458","0.2936912477489574","1127"
"20:29:53:939 (H:m:s:ms)","GENERIC","188.775","0.2938279224175468","1067"
"24:34:12:631 (H:m:s:ms)","AMBULANCE","155.244","0.3418881716420615","372"
"24:4:12:631 (H:m:s:ms)","AMBULANCE","186.29500000000002","0.3437003169854227","372"
"21:20:7:594 (H:m:s:ms)","OPERA","156.605","0.31457155361182576","414"
"21:20:12:121 (H:m:s:ms)","GENERIC","156.18699999999998","0.31266681403519364","892"
"21:20:15:189 (H:m:s:ms)","OPERA","156.18","0.3138659127694362","817"
"21:20:18:181 (H:m:s:ms)","GENERIC","124.905","0.31266637022030547","821"
"21:20:22:784 (H:m:s:ms)","OPERA","156.019","0.31616966576751543","220"
"21:20:24:242 (H:m:s:ms)","GENERIC","155.912","0.3169958290449267","766"
"21:20:30:303 (H:m:s:ms)","GENERIC","156.514","0.317441994605283","703"
"21:20:30:379 (H:m:s:ms)","OPERA","125.113","0.31783236794988073","651"
"21:20:36:363 (H:m:s:ms)","GENERIC","156.292","0.3185778441641263","642"
"21:20:37:974 (H:m:s:ms)","OPERA","156.034","0.31522481760045573","1036"
"21:20:42:424 (H:m:s:ms)","GENERIC","188.86599999999999","0.3214978981717307","583"
"21:20:45:569 (H:m:s:ms)","OPERA","93.857","0.3198658947191064","434"
"21:20:48:484 (H:m:s:ms)","GENERIC","156.256","0.3195905043812345","521"
"21:20:53:164 (H:m:s:ms)","OPERA","124.87","0.3187968309997894","847"
"21:20:54:545 (H:m:s:ms)","GENERIC","188.095","0.31589956692138704","461"
"21:21:0:606 (H:m:s:ms)","GENERIC","156.133","0.3179350721299771","395"
"21:21:0:759 (H:m:s:ms)","OPERA","125.26","0.31786382959714676","263"
"21:21:6:666 (H:m:s:ms)","GENERIC","156.82399999999998","0.3187082635452235","337"
"21:21:8:354 (H:m:s:ms)","OPERA","156.007","0.32186739495723843","652"
"21:21:12:727 (H:m:s:ms)","GENERIC","155.461","0.31870528563083356","279"
"21:33:1:818 (H:m:s:ms)","GENERIC","155.273","0.3261174097512187","182"
"21:32:43:636 (H:m:s:ms)","GENERIC","124.267","0.3307275131179266","366"
"21:32:37:894 (H:m:s:ms)","AMBULANCE","62.37","0.32786063045574554","123"
"21:32:37:575 (H:m:s:ms)","GENERIC","157.35399999999998","0.3281097149454483","427"
"21:32:31:515 (H:m:s:ms)","GENERIC","186.915","0.3275354554127399","492"
"21:32:25:454 (H:m:s:ms)","GENERIC","186.374","0.32365090962807036","551"
"21:35:48:0 (H:m:s:ms)","GENERIC","156.787","0.3452429409513419","4007"
"21:32:13:333 (H:m:s:ms)","GENERIC","186.319","0.3217995909824576","674"
"21:21:15:949 (H:m:s:ms)","OPERA","155.931","0.3191125614298111","1055"
"21:32:7:272 (H:m:s:ms)","GENERIC","155.196","0.3232590615951283","734"
"21:21:18:787 (H:m:s:ms)","GENERIC","155.54500000000002","0.31888828184696794","221"
"21:21:23:544 (H:m:s:ms)","OPERA","187.462","0.32095210829550436","474"
"21:21:24:848 (H:m:s:ms)","GENERIC","155.358","0.321451723142978","160"
"21:21:30:909 (H:m:s:ms)","GENERIC","156.533","0.31941562698107817","1100"
"21:21:31:139 (H:m:s:ms)","OPERA","125.203","0.3221719146727315","874"
"21:21:36:969 (H:m:s:ms)","GENERIC","186.772","0.31972063487773644","1039"
"21:21:38:734 (H:m:s:ms)","OPERA","156.19","0.3192553202564047","279"
"21:32:55:757 (H:m:s:ms)","GENERIC","157.05700000000002","0.3258254122521305","249"
"21:21:43:30 (H:m:s:ms)","GENERIC","186.992","0.31917895105979904","977"
"21:36:20:0 (H:m:s:ms)","GENERIC","125.142","0.3471946086883762","1378"
"21:21:46:329 (H:m:s:ms)","OPERA","93.506","0.31973413780330034","685"
"21:33:56:363 (H:m:s:ms)","GENERIC","124.299","0.32712980892471516","640"
"21:37:23:0 (H:m:s:ms)","GENERIC","187.953","0.33778181541854335","3762"
"21:33:41:52 (H:m:s:ms)","AMBULANCE","125.14099999999999","0.3105370292163049","998"
"21:37:23:0 (H:m:s:ms)","GENERIC","156.78","0.34387845891782837","5216"
"21:33:32:121 (H:m:s:ms)","GENERIC","156.445","0.3207898462622888","886"
"21:33:26:60 (H:m:s:ms)","GENERIC","156.782","0.32151452684692067","953"
"21:33:20:0 (H:m:s:ms)","GENERIC","186.335","0.3209226359357976","1046"
"21:33:13:939 (H:m:s:ms)","GENERIC","155.256","0.32314609882157097","1065"
"21:21:49:90 (H:m:s:ms)","GENERIC","155.863","0.3191819600905321","953"
"21:33:9:473 (H:m:s:ms)","AMBULANCE","93.76400000000001","0.32333547433370663","624"
"21:21:53:924 (H:m:s:ms)","OPERA","124.85300000000001","0.31990956574976076","1076"
"21:37:23:0 (H:m:s:ms)","GENERIC","187.563","0.34343624416139756","5317"
"21:21:55:151 (H:m:s:ms)","GENERIC","124.90700000000001","0.3206983470621951","855"
"21:22:1:212 (H:m:s:ms)","GENERIC","188.81199999999998","0.3226892481483369","795"
"21:22:1:518 (H:m:s:ms)","OPERA","156.214","0.32262195641837704","500"
"21:22:7:272 (H:m:s:ms)","GENERIC","155.231","0.32216850669717","733"
"21:22:9:113 (H:m:s:ms)","OPERA","187.586","0.32410631408723506","934"
"21:22:13:333 (H:m:s:ms)","GENERIC","186.286","0.3252318417714434","673"
"21:22:16:708 (H:m:s:ms)","OPERA","156.167","0.32788376206428077","317"
"21:22:19:393 (H:m:s:ms)","GENERIC","188.188","0.32949057236726","650"
"21:33:44:242 (H:m:s:ms)","GENERIC","188.639","0.32546341801464596","768"
"21:34:56:969 (H:m:s:ms)","GENERIC","188.528","0.3492633447594605","1034"
"21:38:57:0 (H:m:s:ms)","GENERIC","125.043","0.34486025266898823","5349"
"21:34:44:848 (H:m:s:ms)","GENERIC","155.606","0.3249218581065226","169"
"21:34:44:210 (H:m:s:ms)","AMBULANCE","125.465","0.32117151999926213","798"
"21:36:20:0 (H:m:s:ms)","GENERIC","155.964","0.35332957292966594","1260"
"21:38:57:0 (H:m:s:ms)","GENERIC","187.943","0.3420802087823893","5470"
"21:34:26:666 (H:m:s:ms)","GENERIC","156.97","0.3340535758240855","339"
"21:34:20:606 (H:m:s:ms)","GENERIC","155.761","0.3305282116580411","398"
"21:22:24:303 (H:m:s:ms)","OPERA","124.649","0.33213615294234144","697"
"21:34:14:545 (H:m:s:ms)","GENERIC","156.80599999999998","0.33110630974528615","459"
"21:22:25:454 (H:m:s:ms)","GENERIC","155.189","0.33266691851929575","550"
"21:34:8:484 (H:m:s:ms)","GENERIC","155.89499999999998","0.3323811274921709","522"
"21:5:16:0 (H:m:s:ms)","GENERIC","155.978","0.31221076322217745","4269"
"21:22:31:515 (H:m:s:ms)","GENERIC","155.84300000000002","0.329216638061998","493"
"21:34:2:424 (H:m:s:ms)","GENERIC","156.881","0.33269028880677737","583"
"21:5:16:0 (H:m:s:ms)","GENERIC","93.46199999999999","0.31546359980754457","4203"
"21:22:31:898 (H:m:s:ms)","OPERA","125.206","0.32747692279218277","120"
"21:2:1:212 (H:m:s:ms)","GENERIC","157.153","0.2933662155436337","794"
"21:22:37:575 (H:m:s:ms)","GENERIC","125.646","0.32702906116839603","428"
"21:2:6:315 (H:m:s:ms)","AMBULANCE","93.732","0.26845997998213095","697"
"21:22:39:493 (H:m:s:ms)","OPERA","125.187","0.32920002234008217","550"
"21:2:7:272 (H:m:s:ms)","GENERIC","155.225","0.27127509253041165","734"
"21:22:43:636 (H:m:s:ms)","GENERIC","155.305","0.32912957848231456","367"
"21:2:13:333 (H:m:s:ms)","GENERIC","155.262","0.29802162521671327","675"
"21:22:47:88 (H:m:s:ms)","OPERA","156.0","0.3301025672905933","911"
"21:2:19:393 (H:m:s:ms)","GENERIC","188.163","0.29909860085471046","656"
"21:22:49:696 (H:m:s:ms)","GENERIC","188.01999999999998","0.3312478784196702","801"
"21:2:25:454 (H:m:s:ms)","GENERIC","155.294","0.29965533992465887","551"
"21:22:54:683 (H:m:s:ms)","OPERA","156.548","0.3327337144684836","342"
"21:2:31:515 (H:m:s:ms)","GENERIC","186.911","0.30155051523307397","491"
"21:2:37:575 (H:m:s:ms)","GENERIC","157.385","0.30124386725494423","428"
"21:40:1:0 (H:m:s:ms)","GENERIC","187.47","0.34068787874611645","4750"
"21:35:47:368 (H:m:s:ms)","AMBULANCE","125.241","0.3490131516331795","668"
"21:35:45:454 (H:m:s:ms)","GENERIC","157.24","0.3429995410768853","552"
"21:35:39:393 (H:m:s:ms)","GENERIC","156.52100000000002","0.3443478860621273","649"
"21:35:33:333 (H:m:s:ms)","GENERIC","188.48700000000002","0.3471651634662628","673"
"21:35:27:272 (H:m:s:ms)","GENERIC","156.41","0.3459363917347773","734"
"21:35:21:212 (H:m:s:ms)","GENERIC","157.381","0.3447495711957176","792"
"21:22:55:757 (H:m:s:ms)","GENERIC","188.543","0.33118539271644104","249"
"21:35:15:789 (H:m:s:ms)","AMBULANCE","124.969","0.34405502084675504","248"
"21:23:1:818 (H:m:s:ms)","GENERIC","186.35","0.332911773400731","185"
"21:35:15:151 (H:m:s:ms)","GENERIC","157.348","0.34318254055365083","891"
"21:2:37:894 (H:m:s:ms)","AMBULANCE","125.18900000000001","0.3043536504992522","116"
"21:23:2:278 (H:m:s:ms)","OPERA","187.256","0.3360202697448147","731"
"21:35:9:90 (H:m:s:ms)","GENERIC","157.301","0.3509379167070854","951"
"21:2:43:636 (H:m:s:ms)","GENERIC","155.307","0.3063001474912458","369"
"21:23:7:878 (H:m:s:ms)","GENERIC","156.044","0.3347586349023415","1128"
"21:35:3:30 (H:m:s:ms)","GENERIC","188.944","0.3513776562276845","976"
"21:2:49:696 (H:m:s:ms)","GENERIC","187.064","0.3068168853473219","355"
"21:23:9:873 (H:m:s:ms)","OPERA","187.232","0.33590365872186506","190"
"21:2:55:757 (H:m:s:ms)","GENERIC","125.45599999999999","0.30646114157668897","248"
"21:23:13:939 (H:m:s:ms)","GENERIC","155.409","0.33542041185170696","1068"
"21:3:1:818 (H:m:s:ms)","GENERIC","155.308","0.3058101437639325","185"
"21:23:17:468 (H:m:s:ms)","OPERA","156.006","0.33569175235799137","550"
"21:3:7:878 (H:m:s:ms)","GENERIC","156.235","0.30377583987019663","1130"
"21:23:20:0 (H:m:s:ms)","GENERIC","155.34199999999998","0.33500179257027646","1042"
"21:3:9:473 (H:m:s:ms)","AMBULANCE","125.185","0.28565517018391784","579"
"21:23:25:63 (H:m:s:ms)","OPERA","187.51","0.3317487654681261","952"
"21:3:13:939 (H:m:s:ms)","GENERIC","155.204","0.29997213804584955","1066"
"21:23:26:60 (H:m:s:ms)","GENERIC","125.338","0.33240530849138494","950"
"21:3:20:0 (H:m:s:ms)","GENERIC","186.262","0.3013769951271822","1051"
"21:3:26:60 (H:m:s:ms)","GENERIC","188.452","0.3064242241849135","949"
"21:36:50:526 (H:m:s:ms)","AMBULANCE","125.48400000000001","0.3455976653758929","483"
"21:40:1:0 (H:m:s:ms)","GENERIC","156.382","0.34484475745692095","3061"
"21:36:40:0 (H:m:s:ms)","GENERIC","156.925","0.34626504974974864","1046"
"21:36:33:939 (H:m:s:ms)","GENERIC","155.545","0.3503584827329824","1071"
"21:36:27:878 (H:m:s:ms)","GENERIC","157.268","0.348842740091006","1124"
"21:36:21:818 (H:m:s:ms)","GENERIC","187.949","0.3475083472801259","189"
"21:23:32:121 (H:m:s:ms)","GENERIC","124.982","0.33467260001714805","880"
"21:36:18:947 (H:m:s:ms)","AMBULANCE","125.208","0.3512765531238542","1154"
"21:23:32:658 (H:m:s:ms)","OPERA","125.173","0.3348946303897562","349"
"21:36:15:757 (H:m:s:ms)","GENERIC","157.333","0.33710496089213265","246"
"21:3:32:121 (H:m:s:ms)","GENERIC","156.44400000000002","0.3054292011479673","884"
"21:23:38:181 (H:m:s:ms)","GENERIC","156.91400000000002","0.33392752597408426","822"
"21:36:9:696 (H:m:s:ms)","GENERIC","155.446","0.33937017821976573","347"
"21:3:38:181 (H:m:s:ms)","GENERIC","155.91500000000002","0.30869325669629355","829"
"21:23:40:253 (H:m:s:ms)","OPERA","155.985","0.3341487169437402","768"
"21:36:20:0 (H:m:s:ms)","GENERIC","124.58500000000001","0.3488852116782824","1420"
"21:3:41:52 (H:m:s:ms)","AMBULANCE","125.185","0.3132116610729615","952"
"21:23:44:242 (H:m:s:ms)","GENERIC","188.679","0.32938673581188793","767"
"21:35:57:575 (H:m:s:ms)","GENERIC","124.28999999999999","0.3445562388674103","427"
"21:3:44:242 (H:m:s:ms)","GENERIC","188.69799999999998","0.3110616177473636","768"
"21:23:47:848 (H:m:s:ms)","OPERA","125.311","0.3300462163608376","197"
"21:3:50:303 (H:m:s:ms)","GENERIC","156.544","0.3104031615845237","701"
"21:23:50:303 (H:m:s:ms)","GENERIC","188.236","0.3303368564954639","701"
"21:3:56:363 (H:m:s:ms)","GENERIC","155.27","0.3084866086581009","643"
"21:23:55:443 (H:m:s:ms)","OPERA","125.13499999999999","0.3306710661598535","573"
"21:4:2:424 (H:m:s:ms)","GENERIC","156.78199999999998","0.3094901821095227","583"
"21:23:56:363 (H:m:s:ms)","GENERIC","155.231","0.3311501950221762","639"
"21:4:8:484 (H:m:s:ms)","GENERIC","155.723","0.30778974048058594","523"
"21:24:2:424 (H:m:s:ms)","GENERIC","156.863","0.32716303697809673","581"
"21:4:14:545 (H:m:s:ms)","GENERIC","156.814","0.3078274475450208","459"
"21:4:20:606 (H:m:s:ms)","GENERIC","155.755","0.3072894550550238","399"
"21:37:46:666 (H:m:s:ms)","GENERIC","186.72299999999998","0.3395542533381522","346"
"21:37:40:606 (H:m:s:ms)","GENERIC","125.424","0.34149682080802085","400"
"21:37:34:545 (H:m:s:ms)","GENERIC","156.113","0.34360048502307056","736"
"21:37:28:484 (H:m:s:ms)","GENERIC","156.115","0.3429301495784698","523"
"21:37:22:424 (H:m:s:ms)","GENERIC","155.55700000000002","0.33634786447508097","598"
"21:37:22:105 (H:m:s:ms)","AMBULANCE","125.37","0.3388168889320603","911"
"21:24:3:37 (H:m:s:ms)","OPERA","125.126","0.3281916903031509","965"
"21:24:8:484 (H:m:s:ms)","GENERIC","155.686","0.3279655869222472","522"
"21:37:16:363 (H:m:s:ms)","GENERIC","155.357","0.34631295444811394","641"
"21:4:26:666 (H:m:s:ms)","GENERIC","157.011","0.30746573632639634","341"
"21:24:10:632 (H:m:s:ms)","OPERA","155.993","0.3298526359354475","382"
"21:37:10:303 (H:m:s:ms)","GENERIC","124.862","0.3471119899890991","703"
"21:4:32:727 (H:m:s:ms)","GENERIC","187.901","0.3061616865328829","281"
"21:24:14:545 (H:m:s:ms)","GENERIC","188.243","0.3317080344437866","459"
"21:40:1:0 (H:m:s:ms)","GENERIC","156.254","0.34748380008448454","3937"
"21:5:16:0 (H:m:s:ms)","GENERIC","155.923","0.3151919244562517","1310"
"21:24:18:227 (H:m:s:ms)","OPERA","125.306","0.33491232419426287","787"
"21:36:58:181 (H:m:s:ms)","GENERIC","124.493","0.3500098249645249","822"
"21:4:44:210 (H:m:s:ms)","AMBULANCE","62.504","0.3035494935209486","844"
"21:24:20:606 (H:m:s:ms)","GENERIC","155.652","0.3348044245297147","399"
"21:40:1:0 (H:m:s:ms)","GENERIC","156.651","0.3485581138327057","4031"
"21:4:44:848 (H:m:s:ms)","GENERIC","186.779","0.30863574190868404","215"
"21:24:25:822 (H:m:s:ms)","OPERA","156.325","0.3348326826660609","187"
"21:4:50:909 (H:m:s:ms)","GENERIC","187.805","0.309216003697547","1098"
"21:24:26:666 (H:m:s:ms)","GENERIC","156.89","0.335476465277847","341"
"21:4:56:969 (H:m:s:ms)","GENERIC","188.402","0.3085742795865575","1039"
"21:24:32:727 (H:m:s:ms)","GENERIC","156.813","0.3344903671552256","278"
"21:5:3:30 (H:m:s:ms)","GENERIC","189.094","0.30560533372728077","976"
"21:24:33:417 (H:m:s:ms)","OPERA","187.406","0.3362253628075928","593"
"21:5:9:90 (H:m:s:ms)","GENERIC","157.25","0.3086444580108767","959"
"21:5:15:151 (H:m:s:ms)","GENERIC","157.22299999999998","0.3110940130236938","854"
"21:38:41:212 (H:m:s:ms)","GENERIC","156.107","0.33701356414800804","793"
"21:38:35:151 (H:m:s:ms)","GENERIC","155.93200000000002","0.3371293318544558","856"
"21:38:29:90 (H:m:s:ms)","GENERIC","156.403","0.3378930716520879","952"
"21:38:25:263 (H:m:s:ms)","AMBULANCE","156.415","0.3457498912511489","759"
"21:38:23:30 (H:m:s:ms)","GENERIC","187.827","0.3455025852497933","974"
"21:38:16:969 (H:m:s:ms)","GENERIC","155.28300000000002","0.35712420957126473","1035"
"21:38:10:909 (H:m:s:ms)","GENERIC","155.313","0.35616925881449724","1095"
"21:24:38:787 (H:m:s:ms)","GENERIC","124.758","0.3361321845598996","225"
"21:24:41:12 (H:m:s:ms)","OPERA","124.58399999999999","0.3358738655268477","1018"
"21:5:15:789 (H:m:s:ms)","AMBULANCE","125.142","0.3102800819139027","223"
"21:24:44:848 (H:m:s:ms)","GENERIC","124.352","0.33668802656157837","155"
"21:5:21:212 (H:m:s:ms)","GENERIC","125.606","0.3151766433662041","791"
"21:24:48:607 (H:m:s:ms)","OPERA","156.368","0.338151407372838","407"
"21:38:4:848 (H:m:s:ms)","GENERIC","155.20100000000002","0.3571546416455501","158"
"20:45:33:333 (H:m:s:ms)","GENERIC","188.46800000000002","0.3184099330376733","673"
"21:5:27:272 (H:m:s:ms)","GENERIC","156.46","0.3109201495526924","733"
"21:24:50:909 (H:m:s:ms)","GENERIC","188.03199999999998","0.3373609119148932","1093"
"21:37:58:787 (H:m:s:ms)","GENERIC","156.81","0.3577843245045425","221"
"20:45:34:177 (H:m:s:ms)","OPERA","125.07600000000001","0.32102887283508047","828"
"21:5:33:333 (H:m:s:ms)","GENERIC","188.423","0.3052423101470188","677"
"21:24:56:202 (H:m:s:ms)","OPERA","187.24699999999999","0.34044319676511553","821"
"21:37:53:684 (H:m:s:ms)","AMBULANCE","124.983","0.35726019210894344","374"
"20:45:39:393 (H:m:s:ms)","GENERIC","156.56","0.3200519675262727","651"
"21:5:39:393 (H:m:s:ms)","GENERIC","187.946","0.3042135694861491","657"
"21:24:56:969 (H:m:s:ms)","GENERIC","188.53","0.3389755202690708","1060"
"21:37:52:727 (H:m:s:ms)","GENERIC","187.33","0.35619368229397463","280"
"20:45:41:772 (H:m:s:ms)","OPERA","156.325","0.3208819020371122","235"
"21:5:45:454 (H:m:s:ms)","GENERIC","157.21","0.3002642887473137","552"
"21:25:3:30 (H:m:s:ms)","GENERIC","188.995","0.33293426419503225","978"
"20:45:45:454 (H:m:s:ms)","GENERIC","157.201","0.3196249328232646","553"
"21:5:47:368 (H:m:s:ms)","AMBULANCE","125.237","0.30693002709753364","639"
"21:25:3:797 (H:m:s:ms)","OPERA","125.084","0.3349457108649858","214"
"20:45:51:515 (H:m:s:ms)","GENERIC","156.259","0.3183884915193311","484"
"21:5:51:515 (H:m:s:ms)","GENERIC","187.559","0.306971813165822","490"
"21:25:9:90 (H:m:s:ms)","GENERIC","157.297","0.3303611509926867","954"
"20:45:56:962 (H:m:s:ms)","OPERA","125.212","0.3166837195678613","1048"
"21:5:57:575 (H:m:s:ms)","GENERIC","155.3","0.3051112187282178","430"
"20:45:57:575 (H:m:s:ms)","GENERIC","155.383","0.3157484926885267","440"
"21:6:3:636 (H:m:s:ms)","GENERIC","187.20499999999998","0.30291176371724304","370"
"20:46:3:636 (H:m:s:ms)","GENERIC","155.721","0.3133502485193097","368"
"20:46:4:556 (H:m:s:ms)","OPERA","124.987","0.3152158474547174","448"
"21:39:35:757 (H:m:s:ms)","GENERIC","155.579","0.34499623792231954","250"
"21:40:1:0 (H:m:s:ms)","GENERIC","156.45600000000002","0.3464964480775431","1445"
"21:39:28:421 (H:m:s:ms)","AMBULANCE","156.925","0.34520892545015575","588"
"21:39:23:636 (H:m:s:ms)","GENERIC","156.011","0.34401354515658206","369"
"21:39:17:575 (H:m:s:ms)","GENERIC","155.462","0.3458702204363637","434"
"21:39:11:515 (H:m:s:ms)","GENERIC","157.16899999999998","0.34482681955185057","491"
"21:39:5:454 (H:m:s:ms)","GENERIC","188.84300000000002","0.34316782116657274","556"
"21:38:59:393 (H:m:s:ms)","GENERIC","156.475","0.34373741566354304","647"
"21:25:11:392 (H:m:s:ms)","OPERA","156.562","0.3332894040945554","609"
"21:25:15:151 (H:m:s:ms)","GENERIC","157.24200000000002","0.32957128006273245","853"
"21:6:9:696 (H:m:s:ms)","GENERIC","186.608","0.301350925683762","354"
"21:25:18:987 (H:m:s:ms)","OPERA","156.079","0.3274869282329402","1053"
"21:6:15:757 (H:m:s:ms)","GENERIC","93.85300000000001","0.3008645835717105","246"
"21:25:21:212 (H:m:s:ms)","GENERIC","125.62","0.3269038570146475","790"
"20:46:9:696 (H:m:s:ms)","GENERIC","186.589","0.31537763858587825","349"
"21:6:18:947 (H:m:s:ms)","AMBULANCE","125.10399999999998","0.3030114622295627","1105"
"21:25:26:582 (H:m:s:ms)","OPERA","156.113","0.3239391824634255","418"
"20:46:12:151 (H:m:s:ms)","OPERA","156.471","0.3170582265054864","854"
"21:6:21:818 (H:m:s:ms)","GENERIC","187.79399999999998","0.3054646653710312","189"
"21:25:27:272 (H:m:s:ms)","GENERIC","125.045","0.32364575785817823","736"
"21:38:56:842 (H:m:s:ms)","AMBULANCE","156.888","0.3391762987071994","160"
"20:46:15:757 (H:m:s:ms)","GENERIC","189.03300000000002","0.31463270686483613","246"
"21:6:27:878 (H:m:s:ms)","GENERIC","157.296","0.30859927570178025","1124"
"21:25:33:333 (H:m:s:ms)","GENERIC","156.872","0.3256346587266806","673"
"21:38:53:333 (H:m:s:ms)","GENERIC","125.58600000000001","0.3341755853908747","669"
"20:46:19:746 (H:m:s:ms)","OPERA","156.553","0.3195456174748602","301"
"21:6:33:939 (H:m:s:ms)","GENERIC","186.545","0.30883142596579916","1068"
"21:25:34:177 (H:m:s:ms)","OPERA","187.48","0.3262795584432515","824"
"21:40:1:0 (H:m:s:ms)","GENERIC","156.597","0.3433107496669239","2910"
"20:46:21:818 (H:m:s:ms)","GENERIC","156.351","0.3200460902844743","187"
"21:6:40:0 (H:m:s:ms)","GENERIC","125.243","0.3074816304742734","1053"
"21:25:39:393 (H:m:s:ms)","GENERIC","156.458","0.3247949588609909","645"
"20:46:27:341 (H:m:s:ms)","OPERA","156.454","0.3253001532397469","661"
"21:6:46:60 (H:m:s:ms)","GENERIC","187.8","0.30841013776172466","945"
"21:25:41:772 (H:m:s:ms)","OPERA","156.175","0.32735265774469746","233"
"20:46:27:878 (H:m:s:ms)","GENERIC","125.56","0.32568125891993843","1127"
"21:6:50:526 (H:m:s:ms)","AMBULANCE","93.72800000000001","0.309529579970453","580"
"20:46:33:939 (H:m:s:ms)","GENERIC","155.553","0.3241683670258551","1067"
"21:6:52:121 (H:m:s:ms)","GENERIC","125.40299999999999","0.3115929764053182","889"
"20:46:34:936 (H:m:s:ms)","OPERA","124.881","0.3254388612539025","1085"
"20:46:40:0 (H:m:s:ms)","GENERIC","188.491","0.32128570843182247","1051"
"21:39:53:939 (H:m:s:ms)","GENERIC","157.213","0.34958755953440934","1066"
"21:40:30:303 (H:m:s:ms)","GENERIC","187.855","0.3384599800942288","706"
"21:40:24:242 (H:m:s:ms)","GENERIC","187.235","0.33903909187142844","764"
"21:40:18:181 (H:m:s:ms)","GENERIC","156.464","0.3422560686297543","823"
"21:40:12:121 (H:m:s:ms)","GENERIC","156.193","0.34073656492485926","885"
"21:40:6:60 (H:m:s:ms)","GENERIC","156.889","0.3438809066771361","948"
"21:40:0:0 (H:m:s:ms)","GENERIC","156.286","0.3440933441289534","2598"
"21:40:0:0 (H:m:s:ms)","GENERIC","187.596","0.3428327490963713","2590"
"21:40:0:0 (H:m:s:ms)","AMBULANCE","156.862","0.3452410345212551","2582"
"21:6:58:181 (H:m:s:ms)","GENERIC","124.501","0.313806019892773","824"
"21:7:4:242 (H:m:s:ms)","GENERIC","156.122","0.31718502098629453","763"
"20:46:42:531 (H:m:s:ms)","OPERA","156.43200000000002","0.32156643372649496","480"
"21:7:10:303 (H:m:s:ms)","GENERIC","156.136","0.3166836410784668","702"
"20:46:46:60 (H:m:s:ms)","GENERIC","188.077","0.3230024742882464","953"
"21:7:16:363 (H:m:s:ms)","GENERIC","155.381","0.3145497281787927","644"
"20:46:50:126 (H:m:s:ms)","OPERA","124.77199999999999","0.3197905823289629","884"
"21:7:22:105 (H:m:s:ms)","AMBULANCE","125.194","0.31128558005240425","901"
"20:46:52:121 (H:m:s:ms)","GENERIC","156.218","0.3202928476576988","885"
"21:7:22:424 (H:m:s:ms)","GENERIC","186.71699999999998","0.3123418437336099","590"
"21:40:1:0 (H:m:s:ms)","GENERIC","156.567","0.34854514762295613","1249"
"20:46:57:721 (H:m:s:ms)","OPERA","156.594","0.3196657199108012","286"
"21:7:28:484 (H:m:s:ms)","GENERIC","125.44800000000001","0.3123620355806861","519"
"21:40:1:0 (H:m:s:ms)","GENERIC","188.221","0.34860146007496073","1298"
"20:46:58:181 (H:m:s:ms)","GENERIC","124.636","0.31846153528392257","822"
"21:7:34:545 (H:m:s:ms)","GENERIC","157.214","0.3139378514863354","463"
"20:47:4:242 (H:m:s:ms)","GENERIC","156.30700000000002","0.31865498059810965","759"
"21:7:40:606 (H:m:s:ms)","GENERIC","157.09","0.31469980389761565","398"
"20:47:5:316 (H:m:s:ms)","OPERA","125.218","0.3197382295270096","688"
"21:7:46:666 (H:m:s:ms)","GENERIC","186.752","0.3148653078024772","344"
"20:47:10:303 (H:m:s:ms)","GENERIC","156.117","0.32002107532793633","703"
"20:47:12:911 (H:m:s:ms)","OPERA","156.31400000000002","0.32179614650802246","1099"
"21:7:52:727 (H:m:s:ms)","GENERIC","155.888","0.3136758000949248","281"
"21:7:53:684 (H:m:s:ms)","AMBULANCE","125.20400000000001","0.3140597445133726","322"
"20:47:16:363 (H:m:s:ms)","GENERIC","155.391","0.3218275156607488","644"
"21:7:58:787 (H:m:s:ms)","GENERIC","156.71800000000002","0.3129472283389274","221"
"20:47:20:506 (H:m:s:ms)","OPERA","156.578","0.3223223186160264","504"
"21:8:4:848 (H:m:s:ms)","GENERIC","155.277","0.313673035585332","159"
"20:47:22:424 (H:m:s:ms)","GENERIC","155.627","0.32371516472858003","579"
"21:8:10:909 (H:m:s:ms)","GENERIC","155.261","0.3192311163633422","1094"
"20:47:28:101 (H:m:s:ms)","OPERA","156.58100000000002","0.32652606680185575","905"
"21:8:16:969 (H:m:s:ms)","GENERIC","155.412","0.31872909538041044","1035"
"20:47:28:484 (H:m:s:ms)","GENERIC","157.153","0.3267356210153305","526"
"21:8:23:30 (H:m:s:ms)","GENERIC","156.357","0.3166966573638411","974"
"20:47:34:545 (H:m:s:ms)","GENERIC","157.147","0.3271032077549263","465"
"21:8:25:263 (H:m:s:ms)","AMBULANCE","94.422","0.3172657861913077","744"
"21:40:36:363 (H:m:s:ms)","GENERIC","187.79","0.33753265419561407","641"
"20:47:35:696 (H:m:s:ms)","OPERA","156.419","0.3281822307516137","316"
"21:8:29:90 (H:m:s:ms)","GENERIC","156.418","0.3141969308219463","958"
"20:47:40:606 (H:m:s:ms)","GENERIC","157.042","0.32983836931865335","397"
"21:8:35:151 (H:m:s:ms)","GENERIC","187.349","0.31468801354549625","857"
"20:47:43:291 (H:m:s:ms)","OPERA","125.026","0.3308658996729877","720"
"20:47:46:666 (H:m:s:ms)","GENERIC","186.676","0.32923642829564903","343"
"21:8:41:212 (H:m:s:ms)","GENERIC","156.10899999999998","0.3134177090830563","793"
"21:8:47:272 (H:m:s:ms)","GENERIC","156.578","0.3088173656325845","729"
"20:47:50:886 (H:m:s:ms)","OPERA","156.513","0.3261981649024718","159"
"21:8:53:333 (H:m:s:ms)","GENERIC","125.626","0.30580205088259993","668"
"20:47:52:727 (H:m:s:ms)","GENERIC","187.378","0.32583150052409604","278"
"21:8:56:842 (H:m:s:ms)","AMBULANCE","156.634","0.30766685580413283","212"
"20:30:0:0 (H:m:s:ms)","GENERIC","187.685","0.29270043123758793","1049"
"20:47:58:481 (H:m:s:ms)","OPERA","156.279","0.3255585401967927","519"
"21:8:59:393 (H:m:s:ms)","GENERIC","156.59199999999998","0.3095718231880561","655"
"20:30:0:0 (H:m:s:ms)","GENERIC","156.166","0.2931614593254899","1059"
"20:47:58:787 (H:m:s:ms)","GENERIC","156.846","0.32515292137415447","219"
"21:9:5:454 (H:m:s:ms)","GENERIC","188.707","0.30824193124727883","555"
"20:30:6:60 (H:m:s:ms)","GENERIC","156.70100000000002","0.29315056551641167","949"
"20:48:4:848 (H:m:s:ms)","GENERIC","155.21699999999998","0.3257810482542471","156"
"21:9:11:515 (H:m:s:ms)","GENERIC","188.969","0.31012407788699364","489"
"20:30:12:121 (H:m:s:ms)","GENERIC","155.4","0.293469059475835","886"
"20:48:6:75 (H:m:s:ms)","OPERA","156.555","0.3281108724060408","939"
"21:9:17:575 (H:m:s:ms)","GENERIC","186.61700000000002","0.3103523990093815","435"
"20:30:18:181 (H:m:s:ms)","GENERIC","156.644","0.2905374566200289","826"
"20:48:10:909 (H:m:s:ms)","GENERIC","186.31900000000002","0.32528465951607205","1094"
"21:9:23:636 (H:m:s:ms)","GENERIC","155.937","0.31312383457838117","368"
"20:30:24:242 (H:m:s:ms)","GENERIC","156.023","0.2893989243244376","768"
"20:48:13:670 (H:m:s:ms)","OPERA","125.148","0.3281056387829778","334"
"21:9:28:421 (H:m:s:ms)","AMBULANCE","125.086","0.316424885447354","586"
"20:30:30:303 (H:m:s:ms)","GENERIC","155.504","0.28667851723220017","706"
"20:48:16:969 (H:m:s:ms)","GENERIC","155.398","0.3289957019516489","1035"
"20:30:36:363 (H:m:s:ms)","GENERIC","156.293","0.2881339977251844","641"
"20:48:21:265 (H:m:s:ms)","OPERA","156.292","0.32863394997190326","756"
"20:30:42:424 (H:m:s:ms)","GENERIC","157.227","0.28973420053873117","582"
"20:30:48:484 (H:m:s:ms)","GENERIC","156.861","0.2910747134231226","522"
"21:9:29:696 (H:m:s:ms)","GENERIC","156.548","0.3164760061747381","353"
"21:9:35:757 (H:m:s:ms)","GENERIC","155.447","0.31632363697529053","252"
"20:48:23:30 (H:m:s:ms)","GENERIC","156.942","0.32904652027292547","981"
"21:9:41:818 (H:m:s:ms)","GENERIC","156.776","0.3153921508897619","189"
"20:48:28:860 (H:m:s:ms)","OPERA","125.298","0.3278743862288973","156"
"21:9:47:878 (H:m:s:ms)","GENERIC","156.594","0.31774007035596324","1126"
"20:30:54:545 (H:m:s:ms)","GENERIC","156.513","0.29166929040718714","462"
"20:48:29:90 (H:m:s:ms)","GENERIC","156.555","0.3278244216212824","959"
"21:9:53:939 (H:m:s:ms)","GENERIC","188.769","0.31766492509295124","1065"
"20:31:0:606 (H:m:s:ms)","GENERIC","156.089","0.28849703311545466","400"
"20:48:35:151 (H:m:s:ms)","GENERIC","155.978","0.3293980904827027","856"
"21:10:0:0 (H:m:s:ms)","AMBULANCE","156.578","0.3219636751898809","1045"
"20:31:6:666 (H:m:s:ms)","GENERIC","156.792","0.28905479648705923","341"
"20:48:36:455 (H:m:s:ms)","OPERA","156.538","0.3303982037402477","562"
"21:10:0:0 (H:m:s:ms)","GENERIC","156.227","0.32295754242320546","1053"
"20:31:12:727 (H:m:s:ms)","GENERIC","155.603","0.2863262959841144","280"
"20:48:41:212 (H:m:s:ms)","GENERIC","156.163","0.32969045734606606","792"
"21:10:0:0 (H:m:s:ms)","GENERIC","156.209","0.3200257058424752","1061"
"20:31:18:787 (H:m:s:ms)","GENERIC","155.56900000000002","0.2865832558378682","221"
"20:48:44:50 (H:m:s:ms)","OPERA","156.539","0.33112808766473717","953"
"21:10:6:60 (H:m:s:ms)","GENERIC","156.844","0.32176625136810344","946"
"20:31:24:848 (H:m:s:ms)","GENERIC","186.369","0.2859075992459149","160"
"20:48:47:272 (H:m:s:ms)","GENERIC","156.513","0.3302049004121822","733"
"21:10:12:121 (H:m:s:ms)","GENERIC","155.374","0.320557924277597","888"
"20:31:30:909 (H:m:s:ms)","GENERIC","156.452","0.2853315627070247","1100"
"20:48:53:333 (H:m:s:ms)","GENERIC","125.574","0.33213311784892224","672"
"20:31:36:969 (H:m:s:ms)","GENERIC","155.537","0.284875708291204","1039"
"20:48:59:240 (H:m:s:ms)","OPERA","93.65299999999999","0.3324397843277959","810"
"20:31:43:30 (H:m:s:ms)","GENERIC","186.964","0.2839788181959518","977"
"20:31:49:90 (H:m:s:ms)","GENERIC","155.894","0.28481032053481925","954"
"20:48:59:393 (H:m:s:ms)","GENERIC","188.08800000000002","0.33317287585280986","654"
"20:49:5:454 (H:m:s:ms)","GENERIC","188.59300000000002","0.33017508229413683","552"
"20:31:55:151 (H:m:s:ms)","GENERIC","156.441","0.28479703974413895","857"
"20:49:11:515 (H:m:s:ms)","GENERIC","157.295","0.33014883282454965","489"
"20:32:1:212 (H:m:s:ms)","GENERIC","125.446","0.2849313915554403","795"
"20:49:14:430 (H:m:s:ms)","OPERA","125.142","0.3306239553660649","570"
"20:32:7:272 (H:m:s:ms)","GENERIC","155.187","0.2831298358646894","735"
"20:49:17:575 (H:m:s:ms)","GENERIC","155.441","0.3324270251696503","433"
"20:32:13:333 (H:m:s:ms)","GENERIC","186.285","0.2790253681555018","675"
"20:49:22:25 (H:m:s:ms)","OPERA","125.277","0.3333385781064611","976"
"20:32:19:393 (H:m:s:ms)","GENERIC","125.669","0.27940779308673613","650"
"20:49:23:636 (H:m:s:ms)","GENERIC","187.278","0.3328419996600367","368"
"20:32:25:454 (H:m:s:ms)","GENERIC","124.162","0.27946968617070256","547"
"20:49:29:620 (H:m:s:ms)","OPERA","156.211","0.3320755283091544","445"
"20:32:31:515 (H:m:s:ms)","GENERIC","155.733","0.2805985871455034","493"
"20:49:29:696 (H:m:s:ms)","GENERIC","188.114","0.33342417988997164","371"
"20:32:37:575 (H:m:s:ms)","GENERIC","157.41","0.27969782909656143","427"
"20:49:35:757 (H:m:s:ms)","GENERIC","155.50900000000001","0.3315468350422535","253"
"20:32:43:636 (H:m:s:ms)","GENERIC","155.215","0.2813045566235102","369"
"20:32:49:696 (H:m:s:ms)","GENERIC","155.832","0.281814351697034","352"
"20:49:37:215 (H:m:s:ms)","OPERA","156.323","0.3342089534198077","787"
"20:49:41:818 (H:m:s:ms)","GENERIC","125.22200000000001","0.33586616613394554","186"
"20:32:55:757 (H:m:s:ms)","GENERIC","156.982","0.2825935723281971","250"
"20:49:44:810 (H:m:s:ms)","OPERA","125.12599999999999","0.33503402143950206","211"
"20:33:1:818 (H:m:s:ms)","GENERIC","155.295","0.28339916819065103","185"
"20:49:47:878 (H:m:s:ms)","GENERIC","156.67","0.335482212290526","1129"
"20:33:7:878 (H:m:s:ms)","GENERIC","187.50900000000001","0.28036505684952906","1131"
"20:49:52:405 (H:m:s:ms)","OPERA","156.215","0.3364211341853368","612"
"20:33:13:939 (H:m:s:ms)","GENERIC","155.25900000000001","0.28135435374487994","1067"
"20:49:53:939 (H:m:s:ms)","GENERIC","157.225","0.33717810503533846","1069"
"20:33:20:0 (H:m:s:ms)","GENERIC","155.336","0.28112677334168434","1051"
"20:50:0:0 (H:m:s:ms)","OPERA","156.05700000000002","0.3372352889972064","1059"
"20:33:26:60 (H:m:s:ms)","GENERIC","188.477","0.2785943587041038","951"
"20:50:0:0 (H:m:s:ms)","GENERIC","156.51999999999998","0.3377043748455938","1070"
"20:33:32:121 (H:m:s:ms)","GENERIC","156.377","0.27640876378583296","891"
"20:50:0:0 (H:m:s:ms)","GENERIC","156.09","0.3392657950742773","1075"
"20:33:38:181 (H:m:s:ms)","GENERIC","155.90800000000002","0.27485060807150113","831"
"20:50:6:60 (H:m:s:ms)","GENERIC","156.827","0.3382466622251117","945"
"20:33:44:242 (H:m:s:ms)","GENERIC","157.05599999999998","0.27526604271765126","769"
"20:33:50:303 (H:m:s:ms)","GENERIC","156.144","0.27447958677544676","708"
"20:50:12:121 (H:m:s:ms)","GENERIC","155.388","0.3331357914659239","886"
"20:50:18:181 (H:m:s:ms)","GENERIC","188.07999999999998","0.3334386484676185","822"
"20:33:56:363 (H:m:s:ms)","GENERIC","186.346","0.2734279398538534","640"
"20:50:24:242 (H:m:s:ms)","GENERIC","124.60900000000001","0.3357826539997362","762"
"20:34:2:424 (H:m:s:ms)","GENERIC","156.779","0.2729176562751964","582"
"20:50:30:303 (H:m:s:ms)","GENERIC","155.567","0.3324114513400452","705"
"20:10:0:0 (H:m:s:ms)","GENERIC","125.23899999999999","0.28297311087336857","1009"
"20:34:8:484 (H:m:s:ms)","GENERIC","187.09199999999998","0.2723088786933735","526"
"20:50:36:363 (H:m:s:ms)","GENERIC","124.89699999999999","0.33104152972851","638"
"20:10:0:0 (H:m:s:ms)","GENERIC","187.644","0.28558144164229954","1058"
"20:34:14:545 (H:m:s:ms)","GENERIC","156.737","0.27294408503226164","460"
"20:50:42:424 (H:m:s:ms)","GENERIC","157.213","0.3278771096653249","582"
"20:10:6:60 (H:m:s:ms)","GENERIC","156.974","0.2853654154232021","949"
"20:34:20:606 (H:m:s:ms)","GENERIC","187.024","0.2755012487982648","401"
"20:50:48:484 (H:m:s:ms)","GENERIC","156.467","0.33077472720422285","517"
"20:10:12:121 (H:m:s:ms)","GENERIC","186.447","0.28390853358681","887"
"20:34:26:666 (H:m:s:ms)","GENERIC","188.461","0.2774143474680288","341"
"20:50:54:545 (H:m:s:ms)","GENERIC","156.546","0.32901588338961363","466"
"20:10:18:181 (H:m:s:ms)","GENERIC","125.445","0.28340818700878917","821"
"20:34:32:727 (H:m:s:ms)","GENERIC","155.96699999999998","0.27554699354424833","283"
"20:51:0:606 (H:m:s:ms)","GENERIC","156.181","0.3285209446757951","401"
"20:10:24:242 (H:m:s:ms)","GENERIC","187.204","0.2814788830888159","767"
"20:34:38:787 (H:m:s:ms)","GENERIC","156.022","0.2769529009510599","219"
"20:51:6:666 (H:m:s:ms)","GENERIC","156.856","0.3243046379148268","337"
"20:10:30:303 (H:m:s:ms)","GENERIC","186.85899999999998","0.28220643600420586","704"
"20:34:44:848 (H:m:s:ms)","GENERIC","155.757","0.27749653052549","161"
"20:10:36:363 (H:m:s:ms)","GENERIC","156.43200000000002","0.28543592125799483","644"
"20:34:50:909 (H:m:s:ms)","GENERIC","125.34700000000001","0.27911314871647774","95"
"20:10:42:424 (H:m:s:ms)","GENERIC","125.57300000000001","0.28428172082622494","582"
"20:10:48:484 (H:m:s:ms)","GENERIC","187.298","0.2841259398214977","523"
"20:51:12:727 (H:m:s:ms)","GENERIC","186.701","0.324297515042274","281"
"20:51:18:787 (H:m:s:ms)","GENERIC","155.527","0.321223833750384","219"
"20:34:56:969 (H:m:s:ms)","GENERIC","156.873","0.2796294002574885","1039"
"20:51:24:848 (H:m:s:ms)","GENERIC","186.298","0.31853970700046585","159"
"20:35:3:30 (H:m:s:ms)","GENERIC","188.99099999999999","0.2824100921775095","977"
"20:51:30:909 (H:m:s:ms)","GENERIC","156.55599999999998","0.3199597807283422","1098"
"20:10:54:545 (H:m:s:ms)","GENERIC","125.023","0.28446263776352904","465"
"20:35:9:90 (H:m:s:ms)","GENERIC","157.32","0.28429051271797096","956"
"20:51:36:969 (H:m:s:ms)","GENERIC","155.588","0.3163254706409625","1039"
"20:11:0:606 (H:m:s:ms)","GENERIC","156.312","0.2826806601011392","415"
"20:35:15:151 (H:m:s:ms)","GENERIC","157.258","0.2843964770903838","854"
"20:51:43:30 (H:m:s:ms)","GENERIC","186.839","0.3149783420551373","973"
"20:11:6:666 (H:m:s:ms)","GENERIC","156.759","0.28127957036642287","341"
"20:35:21:212 (H:m:s:ms)","GENERIC","189.10899999999998","0.2837967742959188","791"
"20:51:49:90 (H:m:s:ms)","GENERIC","156.018","0.3138263110621117","961"
"20:11:12:727 (H:m:s:ms)","GENERIC","155.529","0.27803666712839065","282"
"20:35:27:272 (H:m:s:ms)","GENERIC","155.368","0.2866406475407833","734"
"20:51:55:151 (H:m:s:ms)","GENERIC","125.004","0.31194021704671165","856"
"20:11:18:787 (H:m:s:ms)","GENERIC","155.556","0.27585811551276973","222"
"20:35:33:333 (H:m:s:ms)","GENERIC","156.728","0.2884616786653218","676"
"20:52:1:212 (H:m:s:ms)","GENERIC","188.887","0.30909417458323096","795"
"20:11:24:848 (H:m:s:ms)","GENERIC","155.36599999999999","0.2754315179770933","159"
"20:35:39:393 (H:m:s:ms)","GENERIC","156.53","0.2903666353489819","655"
"20:52:7:272 (H:m:s:ms)","GENERIC","186.284","0.3078675116862183","735"
"20:11:30:909 (H:m:s:ms)","GENERIC","188.062","0.2732114453210229","1111"
"20:35:45:454 (H:m:s:ms)","GENERIC","188.933","0.2887431325335427","552"
"20:11:36:969 (H:m:s:ms)","GENERIC","186.702","0.273982455918399","1042"
"20:35:51:515 (H:m:s:ms)","GENERIC","187.459","0.28666891454531246","493"
"20:11:43:30 (H:m:s:ms)","GENERIC","155.849","0.2757084231838169","977"
"20:11:49:90 (H:m:s:ms)","GENERIC","187.19400000000002","0.2732467073887188","961"
"20:0:54:545 (H:m:s:ms)","GENERIC","125.609","0.14524639138617115","469"
"20:1:0:606 (H:m:s:ms)","GENERIC","124.416","0.1505410687904665","409"
"20:1:6:666 (H:m:s:ms)","GENERIC","125.681","0.16158984919913105","346"
"20:1:12:727 (H:m:s:ms)","GENERIC","124.46799999999999","0.16756697481881952","285"
"20:1:18:787 (H:m:s:ms)","GENERIC","155.757","0.18085711974802784","222"
"20:1:24:848 (H:m:s:ms)","GENERIC","124.245","0.18518549992871283","166"
"20:1:30:909 (H:m:s:ms)","GENERIC","125.475","0.19004707399144782","1104"
"20:1:36:969 (H:m:s:ms)","GENERIC","155.665","0.1955472086092399","1041"
"20:1:43:30 (H:m:s:ms)","GENERIC","124.67599999999999","0.20031784036048356","979"
"20:1:49:90 (H:m:s:ms)","GENERIC","124.947","0.2058246600630027","936"
"20:35:57:575 (H:m:s:ms)","GENERIC","155.381","0.28694670604027267","428"
"20:36:3:636 (H:m:s:ms)","GENERIC","155.829","0.2875992509346244","372"
"20:11:55:151 (H:m:s:ms)","GENERIC","187.912","0.2714148978511136","858"
"20:36:9:696 (H:m:s:ms)","GENERIC","124.412","0.28560595574522774","351"
"20:12:1:212 (H:m:s:ms)","GENERIC","125.453","0.27092943182765933","793"
"20:36:15:757 (H:m:s:ms)","GENERIC","125.53800000000001","0.28408685090853636","247"
"20:12:7:272 (H:m:s:ms)","GENERIC","186.231","0.2696175445105577","736"
"20:36:21:818 (H:m:s:ms)","GENERIC","156.57","0.2850368596198253","191"
"20:12:13:333 (H:m:s:ms)","GENERIC","155.35","0.26986243471649685","671"
"20:36:27:878 (H:m:s:ms)","GENERIC","157.34","0.28405169880847736","1124"
"20:12:19:393 (H:m:s:ms)","GENERIC","156.036","0.26958101968222525","657"
"20:36:33:939 (H:m:s:ms)","GENERIC","155.49099999999999","0.2885987411232634","1070"
"20:12:25:454 (H:m:s:ms)","GENERIC","155.195","0.27229037682382334","550"
"20:36:40:0 (H:m:s:ms)","GENERIC","188.421","0.2919859067875869","1051"
"20:12:31:515 (H:m:s:ms)","GENERIC","124.495","0.27207609357107226","494"
"20:36:46:60 (H:m:s:ms)","GENERIC","156.484","0.292158698828709","953"
"20:12:37:575 (H:m:s:ms)","GENERIC","157.396","0.2714698174981539","427"
"20:36:52:121 (H:m:s:ms)","GENERIC","187.66","0.2929216717841924","887"
"20:12:43:636 (H:m:s:ms)","GENERIC","155.257","0.2745706755158753","367"
"20:12:49:696 (H:m:s:ms)","GENERIC","124.49000000000001","0.2770445475181699","350"
"20:1:55:151 (H:m:s:ms)","GENERIC","156.867","0.2063687125521286","860"
"20:2:1:212 (H:m:s:ms)","GENERIC","126.185","0.21147508024497078","800"
"20:2:7:272 (H:m:s:ms)","GENERIC","124.208","0.21272048091538232","738"
"20:2:13:333 (H:m:s:ms)","GENERIC","124.21000000000001","0.21412193252785164","677"
"20:2:19:393 (H:m:s:ms)","GENERIC","156.56900000000002","0.21864159898829752","636"
"20:2:25:454 (H:m:s:ms)","GENERIC","124.12","0.22497708251981452","548"
"20:2:31:515 (H:m:s:ms)","GENERIC","124.75299999999999","0.22786737773970073","494"
"20:2:37:575 (H:m:s:ms)","GENERIC","94.551","0.23124022769266653","429"
"20:2:43:636 (H:m:s:ms)","GENERIC","93.144","0.2336518183054202","370"
"20:2:49:696 (H:m:s:ms)","GENERIC","155.97","0.23583155669791367","331"
"20:36:58:181 (H:m:s:ms)","GENERIC","155.829","0.2933532210360474","824"
"20:37:4:242 (H:m:s:ms)","GENERIC","124.906","0.2936751667631206","765"
"20:12:55:757 (H:m:s:ms)","GENERIC","157.03900000000002","0.27553594901876943","248"
"20:37:10:303 (H:m:s:ms)","GENERIC","187.445","0.2921793188516365","705"
"20:13:1:818 (H:m:s:ms)","GENERIC","155.304","0.2771077273541195","186"
"20:37:16:363 (H:m:s:ms)","GENERIC","155.32","0.29160373058379424","644"
"20:13:7:878 (H:m:s:ms)","GENERIC","156.24","0.27937001965135144","1130"
"20:37:22:424 (H:m:s:ms)","GENERIC","155.56099999999998","0.28953714989439056","584"
"20:13:13:939 (H:m:s:ms)","GENERIC","186.257","0.27960848074879624","1065"
"20:37:28:484 (H:m:s:ms)","GENERIC","157.183","0.29039639373562026","520"
"20:13:20:0 (H:m:s:ms)","GENERIC","155.346","0.27897487520782305","1047"
"20:37:34:545 (H:m:s:ms)","GENERIC","157.12400000000002","0.2907544511785723","463"
"20:13:26:60 (H:m:s:ms)","GENERIC","156.982","0.27881087993324694","950"
"20:37:40:606 (H:m:s:ms)","GENERIC","157.142","0.2906658359379399","397"
"20:13:32:121 (H:m:s:ms)","GENERIC","156.457","0.2800258186439602","886"
"20:37:46:666 (H:m:s:ms)","GENERIC","155.49200000000002","0.2898105037617382","345"
"20:13:38:181 (H:m:s:ms)","GENERIC","155.848","0.27867354031974545","829"
"20:37:52:727 (H:m:s:ms)","GENERIC","155.97500000000002","0.2862339920136095","281"
"20:13:44:242 (H:m:s:ms)","GENERIC","188.669","0.2842353709784929","767"
"20:13:50:303 (H:m:s:ms)","GENERIC","156.518","0.28316662452156033","808"
"20:2:55:757 (H:m:s:ms)","GENERIC","157.59","0.23784676151551334","249"
"20:3:1:818 (H:m:s:ms)","GENERIC","155.36599999999999","0.24135416553094347","189"
"20:3:7:878 (H:m:s:ms)","GENERIC","125.115","0.24493036354597","131"
"20:3:13:939 (H:m:s:ms)","GENERIC","155.226","0.24801468179443012","1067"
"20:3:20:0 (H:m:s:ms)","GENERIC","124.23","0.252360141728933","1005"
"20:3:26:60 (H:m:s:ms)","GENERIC","125.926","0.25368247114344517","951"
"20:3:32:121 (H:m:s:ms)","GENERIC","125.523","0.2547543799201509","888"
"20:3:38:181 (H:m:s:ms)","GENERIC","124.83","0.2572252604509509","829"
"20:3:44:242 (H:m:s:ms)","GENERIC","157.681","0.2607227322516974","768"
"20:3:50:303 (H:m:s:ms)","GENERIC","125.91199999999999","0.26226567862080785","710"
"20:37:58:787 (H:m:s:ms)","GENERIC","156.86700000000002","0.28883307864065993","220"
"20:38:4:848 (H:m:s:ms)","GENERIC","124.20400000000001","0.28895713557235475","157"
"20:13:56:363 (H:m:s:ms)","GENERIC","186.295","0.2861076668730112","643"
"20:38:10:909 (H:m:s:ms)","GENERIC","155.237","0.28943073286840815","1096"
"20:14:2:424 (H:m:s:ms)","GENERIC","156.78199999999998","0.2848244195227701","586"
"20:38:16:969 (H:m:s:ms)","GENERIC","124.219","0.29180206772097705","1034"
"20:14:8:484 (H:m:s:ms)","GENERIC","187.265","0.2807468013085591","525"
"20:38:23:30 (H:m:s:ms)","GENERIC","156.349","0.2905776047010561","992"
"20:14:14:545 (H:m:s:ms)","GENERIC","156.631","0.2769687685906323","459"
"20:38:29:90 (H:m:s:ms)","GENERIC","156.449","0.2889648790849364","959"
"20:14:20:606 (H:m:s:ms)","GENERIC","155.896","0.27670534996129464","401"
"20:38:35:151 (H:m:s:ms)","GENERIC","155.904","0.291572717105897","859"
"20:14:26:666 (H:m:s:ms)","GENERIC","156.845","0.27641180729678455","342"
"20:38:41:212 (H:m:s:ms)","GENERIC","124.751","0.2925907088128244","794"
"20:14:32:727 (H:m:s:ms)","GENERIC","187.129","0.27564973010003474","281"
"20:38:47:272 (H:m:s:ms)","GENERIC","156.587","0.2929145726686451","733"
"20:14:38:787 (H:m:s:ms)","GENERIC","156.025","0.2767841134619469","219"
"20:38:53:333 (H:m:s:ms)","GENERIC","157.353","0.2922254233798469","669"
"20:14:44:848 (H:m:s:ms)","GENERIC","124.479","0.2770266518843693","161"
"20:14:50:909 (H:m:s:ms)","GENERIC","124.28299999999999","0.2760242170178116","1099"
"20:3:56:363 (H:m:s:ms)","GENERIC","93.233","0.26622704029605154","641"
"20:4:2:424 (H:m:s:ms)","GENERIC","157.299","0.2679203018237093","586"
"20:4:8:484 (H:m:s:ms)","GENERIC","124.79899999999999","0.26723389569096223","523"
"20:4:14:545 (H:m:s:ms)","GENERIC","94.10900000000001","0.2684553191403568","460"
"20:4:20:606 (H:m:s:ms)","GENERIC","62.244","0.2711040859790833","401"
"20:4:26:666 (H:m:s:ms)","GENERIC","125.94","0.27444286019226005","341"
"20:4:32:727 (H:m:s:ms)","GENERIC","124.898","0.2776001522135374","282"
"20:4:38:787 (H:m:s:ms)","GENERIC","93.697","0.27939459426983226","219"
"20:4:44:848 (H:m:s:ms)","GENERIC","124.696","0.2819772094705451","160"
"20:4:50:909 (H:m:s:ms)","GENERIC","93.285","0.28502819366341664","1098"
"20:38:59:393 (H:m:s:ms)","GENERIC","156.476","0.2925461625674195","653"
"20:39:5:454 (H:m:s:ms)","GENERIC","188.745","0.2916775165629379","555"
"20:14:56:969 (H:m:s:ms)","GENERIC","156.914","0.27689239631913876","1039"
"20:39:11:515 (H:m:s:ms)","GENERIC","188.819","0.29387185982415626","491"
"20:15:3:30 (H:m:s:ms)","GENERIC","157.207","0.2810612558384889","976"
"20:39:17:575 (H:m:s:ms)","GENERIC","186.547","0.29294792000827474","436"
"20:15:9:90 (H:m:s:ms)","GENERIC","157.334","0.27979622626061446","955"
"20:39:23:636 (H:m:s:ms)","GENERIC","156.00900000000001","0.2916770307630953","368"
"20:15:15:151 (H:m:s:ms)","GENERIC","157.327","0.2802181370072757","853"
"20:39:29:696 (H:m:s:ms)","GENERIC","125.036","0.2929991916100582","353"
"20:15:21:212 (H:m:s:ms)","GENERIC","157.445","0.28289839714631204","791"
"20:39:35:757 (H:m:s:ms)","GENERIC","155.533","0.29523992145079503","252"
"20:15:27:272 (H:m:s:ms)","GENERIC","155.305","0.28364915774508204","732"
"20:39:41:818 (H:m:s:ms)","GENERIC","156.749","0.2945576797843271","189"
"20:15:33:333 (H:m:s:ms)","GENERIC","156.88400000000001","0.2846313004618264","679"
"20:39:47:878 (H:m:s:ms)","GENERIC","156.61","0.2953308261471412","1129"
"20:15:39:393 (H:m:s:ms)","GENERIC","156.459","0.2870213813823034","653"
"20:39:53:939 (H:m:s:ms)","GENERIC","188.675","0.29817490299547234","1067"
"20:15:45:454 (H:m:s:ms)","GENERIC","188.962","0.28821535200903736","552"
"20:15:51:515 (H:m:s:ms)","GENERIC","156.333","0.2915937418865622","491"
"20:4:56:969 (H:m:s:ms)","GENERIC","157.308","0.2844633668479061","1038"
"20:5:3:30 (H:m:s:ms)","GENERIC","126.232","0.2863914683440289","977"
"20:5:9:90 (H:m:s:ms)","GENERIC","126.289","0.2864430098262259","940"
"20:5:15:151 (H:m:s:ms)","GENERIC","94.46","0.2862162719543559","854"
"20:5:21:212 (H:m:s:ms)","GENERIC","126.361","0.28440620848317916","794"
"20:5:27:272 (H:m:s:ms)","GENERIC","155.326","0.2890279423959407","728"
"20:5:33:333 (H:m:s:ms)","GENERIC","125.632","0.2862760391188927","679"
"20:5:39:393 (H:m:s:ms)","GENERIC","125.483","0.2867205426301305","648"
"20:5:45:454 (H:m:s:ms)","GENERIC","126.108","0.28607764263412966","555"
"20:5:51:515 (H:m:s:ms)","GENERIC","125.231","0.2843819755857851","501"
"20:15:57:575 (H:m:s:ms)","GENERIC","155.46800000000002","0.29272430831482005","427"
"20:16:3:636 (H:m:s:ms)","GENERIC","155.975","0.2937896025687823","372"
"20:16:9:696 (H:m:s:ms)","GENERIC","124.399","0.29326786078937156","348"
"20:16:15:757 (H:m:s:ms)","GENERIC","157.299","0.29486945831223127","246"
"20:16:21:818 (H:m:s:ms)","GENERIC","156.379","0.2985714721863244","189"
"20:16:27:878 (H:m:s:ms)","GENERIC","125.628","0.30027004785341777","1123"
"20:16:33:939 (H:m:s:ms)","GENERIC","155.548","0.30237483394124093","1068"
"20:16:40:0 (H:m:s:ms)","GENERIC","188.426","0.3045345604961602","1048"
"20:16:46:60 (H:m:s:ms)","GENERIC","156.465","0.3043965478200865","949"
"20:16:52:121 (H:m:s:ms)","GENERIC","156.281","0.3061981645559353","887"
"20:5:57:575 (H:m:s:ms)","GENERIC","124.298","0.28798186103586737","429"
"20:6:3:636 (H:m:s:ms)","GENERIC","156.017","0.2870483264765708","374"
"20:6:9:696 (H:m:s:ms)","GENERIC","155.602","0.2874663816332948","344"
"20:6:15:757 (H:m:s:ms)","GENERIC","126.294","0.28613208692897285","247"
"20:6:21:818 (H:m:s:ms)","GENERIC","156.92600000000002","0.2839537008945405","193"
"20:6:27:878 (H:m:s:ms)","GENERIC","94.595","0.283999995762339","125"
"20:6:33:939 (H:m:s:ms)","GENERIC","124.393","0.28449588056068303","1070"
"20:6:40:0 (H:m:s:ms)","GENERIC","125.9","0.2857153779095945","1011"
"20:6:46:60 (H:m:s:ms)","GENERIC","156.883","0.28536906354830904","951"
"20:6:52:121 (H:m:s:ms)","GENERIC","156.663","0.2862491644092147","888"
"20:16:58:181 (H:m:s:ms)","GENERIC","186.941","0.3090847326544714","826"
"20:17:4:242 (H:m:s:ms)","GENERIC","156.262","0.30720398686901373","762"
"20:17:10:303 (H:m:s:ms)","GENERIC","124.721","0.3045383760541998","704"
"20:17:16:363 (H:m:s:ms)","GENERIC","155.312","0.3030493273993886","641"
"20:17:22:424 (H:m:s:ms)","GENERIC","155.62199999999999","0.3030911509858657","582"
"20:17:28:484 (H:m:s:ms)","GENERIC","188.81900000000002","0.3039298749994628","521"
"20:17:34:545 (H:m:s:ms)","GENERIC","157.152","0.30297032606007407","464"
"20:17:40:606 (H:m:s:ms)","GENERIC","157.135","0.3054678318796185","397"
"20:17:46:666 (H:m:s:ms)","GENERIC","155.689","0.3031102803160159","344"
"20:17:52:727 (H:m:s:ms)","GENERIC","187.31","0.30120927213872883","281"
"20:6:58:181 (H:m:s:ms)","GENERIC","124.898","0.2861428735666754","827"
"20:7:4:242 (H:m:s:ms)","GENERIC","93.846","0.286054403421485","763"
"20:7:10:303 (H:m:s:ms)","GENERIC","156.361","0.2858091769644913","704"
"20:7:16:363 (H:m:s:ms)","GENERIC","124.27699999999999","0.2858228765440883","641"
"20:7:22:424 (H:m:s:ms)","GENERIC","124.513","0.28624045668955667","581"
"20:7:28:484 (H:m:s:ms)","GENERIC","94.501","0.285845405288953","520"
"20:7:34:545 (H:m:s:ms)","GENERIC","157.80599999999998","0.28370137730938905","461"
"20:7:40:606 (H:m:s:ms)","GENERIC","126.08500000000001","0.2835059668163442","399"
"20:7:46:666 (H:m:s:ms)","GENERIC","155.631","0.28185023651943797","344"
"20:7:52:727 (H:m:s:ms)","GENERIC","125.008","0.28110671828747363","280"
"20:17:58:787 (H:m:s:ms)","GENERIC","188.367","0.29868651000041535","219"
"20:18:4:848 (H:m:s:ms)","GENERIC","155.305","0.30051082932701545","156"
"20:18:10:909 (H:m:s:ms)","GENERIC","155.25900000000001","0.2979752739865288","1094"
"20:18:16:969 (H:m:s:ms)","GENERIC","186.4","0.2996945386971219","1035"
"20:18:23:30 (H:m:s:ms)","GENERIC","124.44","0.29688167525442133","976"
"20:18:29:90 (H:m:s:ms)","GENERIC","156.375","0.296402204905836","957"
"20:18:35:151 (H:m:s:ms)","GENERIC","187.224","0.29542624618584196","859"
"20:18:41:212 (H:m:s:ms)","GENERIC","187.576","0.29633089193438755","795"
"20:18:47:272 (H:m:s:ms)","GENERIC","187.97899999999998","0.2969165030286151","732"
"20:18:53:333 (H:m:s:ms)","GENERIC","157.337","0.29675656152430463","668"
"20:7:58:787 (H:m:s:ms)","GENERIC","157.404","0.2807589034618984","222"
"20:8:4:848 (H:m:s:ms)","GENERIC","124.13900000000001","0.2792296107839645","159"
"20:8:10:909 (H:m:s:ms)","GENERIC","124.223","0.27937748812347346","1093"
"20:8:16:969 (H:m:s:ms)","GENERIC","124.29599999999999","0.2809575026533874","1034"
"20:8:23:30 (H:m:s:ms)","GENERIC","124.626","0.2803277561444648","976"
"20:8:29:90 (H:m:s:ms)","GENERIC","125.382","0.27891329013541893","953"
"20:8:35:151 (H:m:s:ms)","GENERIC","124.959","0.27961725605864823","857"
"20:8:41:212 (H:m:s:ms)","GENERIC","156.397","0.2809627648511445","795"
"20:8:47:272 (H:m:s:ms)","GENERIC","93.939","0.280754388199322","733"
"20:8:53:333 (H:m:s:ms)","GENERIC","126.254","0.2819588471963011","668"
"20:18:59:393 (H:m:s:ms)","GENERIC","187.973","0.29694080696588204","652"
"20:19:5:454 (H:m:s:ms)","GENERIC","157.084","0.2965774295639266","555"
"20:19:11:515 (H:m:s:ms)","GENERIC","188.864","0.29658741070553274","490"
"20:19:17:575 (H:m:s:ms)","GENERIC","186.546","0.2960305225347614","433"
"20:19:23:636 (H:m:s:ms)","GENERIC","155.855","0.29422202155711813","369"
"20:19:29:696 (H:m:s:ms)","GENERIC","156.562","0.29542643379124267","352"
"20:19:35:757 (H:m:s:ms)","GENERIC","155.564","0.30001624000682153","250"
"20:19:41:818 (H:m:s:ms)","GENERIC","188.225","0.29797557723072116","191"
"20:19:47:878 (H:m:s:ms)","GENERIC","156.547","0.29689610502304264","1126"
"20:19:53:939 (H:m:s:ms)","GENERIC","188.804","0.2988041678329641","1066"
"20:8:59:393 (H:m:s:ms)","GENERIC","94.014","0.281549530900089","650"
"20:9:5:454 (H:m:s:ms)","GENERIC","126.11500000000001","0.2842600129708127","554"
"20:9:11:515 (H:m:s:ms)","GENERIC","126.05099999999999","0.28716672942088156","490"
"20:9:17:575 (H:m:s:ms)","GENERIC","124.455","0.28803093339590174","433"
"20:9:23:636 (H:m:s:ms)","GENERIC","125.013","0.28629369376289765","368"
"20:9:29:696 (H:m:s:ms)","GENERIC","125.50099999999999","0.2823565897299579","349"
"20:9:35:757 (H:m:s:ms)","GENERIC","155.6","0.2808981661297013","250"
"20:9:41:818 (H:m:s:ms)","GENERIC","125.63199999999999","0.2818174360809809","190"
"20:9:47:878 (H:m:s:ms)","GENERIC","125.452","0.2776386925609882","127"
"20:9:53:939 (H:m:s:ms)","GENERIC","126.05199999999999","0.28039500514262794","1067"
"21:41:18:787 (H:m:s:ms)","GENERIC","155.57","0.347356282643372","219"
"21:41:12:727 (H:m:s:ms)","GENERIC","186.72899999999998","0.34742149085892726","279"
"21:41:6:666 (H:m:s:ms)","GENERIC","125.25","0.3489470180993643","340"
"21:41:0:606 (H:m:s:ms)","GENERIC","93.953","0.3390077736869081","401"
"21:40:54:545 (H:m:s:ms)","GENERIC","156.62099999999998","0.34070681552995596","462"
"21:40:48:484 (H:m:s:ms)","GENERIC","187.88400000000001","0.34106094796623204","526"
"21:40:42:424 (H:m:s:ms)","GENERIC","157.123","0.34113369813617744","582"
"21:41:36:969 (H:m:s:ms)","GENERIC","155.69","0.3448126556212493","1040"
"21:41:30:909 (H:m:s:ms)","GENERIC","188.064","0.34403292233715715","1102"
"21:41:24:848 (H:m:s:ms)","GENERIC","155.376","0.3457913005238501","162"
