"time (H:m:s:ms)","type","latency","utilisation","waiting"
"21:43:1:818 (H:m:s:ms)","GENERIC","62.059","0.01893377161994501","181"
"21:42:43:636 (H:m:s:ms)","GENERIC","62.077","0.02523136739906201","363"
"21:42:37:575 (H:m:s:ms)","GENERIC","62.171","0.05007432492334698","425"
"21:42:31:515 (H:m:s:ms)","GENERIC","62.015","0.020069324297987187","485"
"21:42:25:454 (H:m:s:ms)","GENERIC","62.097","0.05002777006601228","545"
"21:42:19:393 (H:m:s:ms)","GENERIC","62.077","0.03952847075210486","641"
"21:42:13:333 (H:m:s:ms)","GENERIC","62.073","0.016862751843546075","667"
"21:42:7:272 (H:m:s:ms)","GENERIC","62.131","0.05008643048801884","727"
"21:42:1:212 (H:m:s:ms)","GENERIC","62.039","0.012672421938121325","787"
"21:42:55:757 (H:m:s:ms)","GENERIC","62.095","0.014526074501023792","242"
"21:42:49:696 (H:m:s:ms)","GENERIC","62.035","0.014379467384551505","339"
"21:44:8:484 (H:m:s:ms)","GENERIC","62.043","0.025294127765319075","515"
"21:44:2:424 (H:m:s:ms)","GENERIC","62.061","0.008637692614387443","575"
"21:43:50:303 (H:m:s:ms)","GENERIC","62.171","0.05008156612273746","696"
"20:0:0:0 (H:m:s:ms)","GENERIC","31.028","0.025567537612993605","1453"
"21:43:44:242 (H:m:s:ms)","GENERIC","62.143","0.020141224745292008","758"
"20:0:6:60 (H:m:s:ms)","GENERIC","31.079","0.022015871426644837","941"
"21:43:38:181 (H:m:s:ms)","GENERIC","62.073","0.021589554910317704","818"
"20:0:12:121 (H:m:s:ms)","GENERIC","31.043","0.018831897676917318","879"
"21:43:32:121 (H:m:s:ms)","GENERIC","62.113","0.010400156984686458","878"
"20:0:18:181 (H:m:s:ms)","GENERIC","31.029","0.025073855404625634","818"
"21:43:26:60 (H:m:s:ms)","GENERIC","62.033","0.05002040400003326","939"
"20:0:24:242 (H:m:s:ms)","GENERIC","31.039","0.03162277660168376","759"
"21:43:20:0 (H:m:s:ms)","GENERIC","62.017","0.021444769010503097","1035"
"20:0:30:303 (H:m:s:ms)","GENERIC","31.056","0.02505197510807925","696"
"21:43:13:939 (H:m:s:ms)","GENERIC","62.125","0.01502313031443331","1061"
"20:0:36:363 (H:m:s:ms)","GENERIC","31.069","0.037958557350412786","636"
"21:43:7:878 (H:m:s:ms)","GENERIC","62.103","0.016688946661760476","1121"
"20:0:42:424 (H:m:s:ms)","GENERIC","31.033","0.01386542462386209","575"
"21:10:36:363 (H:m:s:ms)","GENERIC","62.077","0.025682719406725067","637"
"20:0:48:484 (H:m:s:ms)","GENERIC","31.033","0.014379467384551505","515"
"21:10:42:424 (H:m:s:ms)","GENERIC","62.071","0.01386542462386209","575"
"21:10:48:484 (H:m:s:ms)","GENERIC","62.077","0.025769410160110463","515"
"21:10:54:545 (H:m:s:ms)","GENERIC","62.055","0.019686607122610084","454"
"21:11:0:606 (H:m:s:ms)","GENERIC","62.097","0.012607039684649218","393"
"21:11:6:666 (H:m:s:ms)","GENERIC","62.019","0.02180869156420401","333"
"21:11:12:727 (H:m:s:ms)","GENERIC","62.025","0.025073855404625634","272"
"21:11:18:787 (H:m:s:ms)","GENERIC","62.151","0.014405241682605267","212"
"21:43:56:363 (H:m:s:ms)","GENERIC","62.045","0.012747548783982003","636"
"21:11:24:848 (H:m:s:ms)","GENERIC","62.095","0.02692582403567263","151"
"21:11:30:909 (H:m:s:ms)","GENERIC","62.067","0.016713475933443","1090"
"21:25:57:575 (H:m:s:ms)","GENERIC","62.063","0.02350870655406756","425"
"21:45:15:151 (H:m:s:ms)","GENERIC","62.037","0.006431032896344578","848"
"21:45:9:90 (H:m:s:ms)","GENERIC","62.075","0.014526074501023792","945"
"21:45:3:30 (H:m:s:ms)","GENERIC","62.113","0.02154875780005864","969"
"21:44:56:969 (H:m:s:ms)","GENERIC","62.091","0.0063235319413297904","1031"
"21:44:50:909 (H:m:s:ms)","GENERIC","62.111","0.05000629841912184","1090"
"21:44:44:848 (H:m:s:ms)","GENERIC","62.109","0.030109377641512763","151"
"21:44:38:787 (H:m:s:ms)","GENERIC","62.037","0.021607862523907985","212"
"21:44:32:727 (H:m:s:ms)","GENERIC","62.107","0.017179606773406932","272"
"21:44:26:666 (H:m:s:ms)","GENERIC","62.081","0.007985957062499233","334"
"21:44:20:606 (H:m:s:ms)","GENERIC","62.117","0.05002040400003326","393"
"21:11:36:969 (H:m:s:ms)","GENERIC","62.089","0.03034239866959747","1030"
"21:44:14:545 (H:m:s:ms)","GENERIC","62.179","0.02358495283014152","454"
"21:11:43:30 (H:m:s:ms)","GENERIC","62.099","0.025131148440913693","969"
"21:11:49:90 (H:m:s:ms)","GENERIC","62.105","0.020271010642105007","947"
"21:11:55:151 (H:m:s:ms)","GENERIC","62.139","0.013078337027630298","848"
"21:12:1:212 (H:m:s:ms)","GENERIC","62.031","0.0375578257860833","787"
"21:12:7:272 (H:m:s:ms)","GENERIC","62.091","0.017240691563793115","727"
"21:12:13:333 (H:m:s:ms)","GENERIC","62.083","0.00917809042517717","666"
"21:12:19:393 (H:m:s:ms)","GENERIC","62.061","0.025048780534189782","642"
"21:12:25:454 (H:m:s:ms)","GENERIC","62.041","0.02180869156420404","545"
"21:12:31:515 (H:m:s:ms)","GENERIC","62.031","0.007637081252838792","484"
"21:26:34:936 (H:m:s:ms)","OPERA","62.013","0.026755070743550134","1065"
"21:46:21:818 (H:m:s:ms)","GENERIC","62.043","0.025013885033006156","181"
"21:26:33:939 (H:m:s:ms)","GENERIC","62.121","0.018132793109199827","1062"
"21:46:15:757 (H:m:s:ms)","GENERIC","62.137","0.05000629841912202","242"
"21:46:9:696 (H:m:s:ms)","GENERIC","62.077","0.01683587574253686","341"
"21:46:3:636 (H:m:s:ms)","GENERIC","62.077","0.050056657241972995","363"
"21:26:27:341 (H:m:s:ms)","OPERA","62.013","0.014309210147860737","658"
"21:26:21:818 (H:m:s:ms)","GENERIC","62.045","0.028885783999406774","182"
"21:45:57:575 (H:m:s:ms)","GENERIC","62.089","0.012536927702312841","425"
"21:26:19:746 (H:m:s:ms)","OPERA","62.013","0.02577350902946534","287"
"21:45:51:515 (H:m:s:ms)","GENERIC","62.093","0.025529470508553306","484"
"21:26:15:757 (H:m:s:ms)","GENERIC","62.111","0.030446987017430455","243"
"21:45:45:454 (H:m:s:ms)","GENERIC","62.047","0.019293098689033727","545"
"21:26:12:151 (H:m:s:ms)","OPERA","62.011","0.03984517499745367","848"
"21:45:39:393 (H:m:s:ms)","GENERIC","62.017","0.023277205621993546","641"
"21:26:9:696 (H:m:s:ms)","GENERIC","62.093","0.038832788596123415","340"
"21:45:33:333 (H:m:s:ms)","GENERIC","62.069","0.0250328515253419","666"
"21:12:37:575 (H:m:s:ms)","GENERIC","62.177","0.05003304693024371","424"
"21:26:4:556 (H:m:s:ms)","OPERA","62.013","0.05368224025311072","443"
"21:45:27:272 (H:m:s:ms)","GENERIC","62.021","0.025032851525341935","727"
"21:12:43:636 (H:m:s:ms)","GENERIC","62.089","0.037687033579203395","363"
"21:26:3:636 (H:m:s:ms)","GENERIC","62.085","0.05000629841912184","364"
"21:45:21:212 (H:m:s:ms)","GENERIC","62.099","0.03751721368004365","787"
"21:12:49:696 (H:m:s:ms)","GENERIC","62.017","0.017677669529663743","340"
"21:12:55:757 (H:m:s:ms)","GENERIC","62.097","0.03750867052034721","242"
"21:13:1:818 (H:m:s:ms)","GENERIC","62.013","0.012816394499239228","181"
"21:13:7:878 (H:m:s:ms)","GENERIC","62.091","0.008725417500395969","1122"
"21:13:13:939 (H:m:s:ms)","GENERIC","62.091","0.02083333333333336","1060"
"21:13:20:0 (H:m:s:ms)","GENERIC","62.065","0.02364706479606697","1036"
"21:13:26:60 (H:m:s:ms)","GENERIC","62.057","0.017208867618659703","939"
"21:13:32:121 (H:m:s:ms)","GENERIC","62.131","0.05002040400003315","879"
"21:26:27:878 (H:m:s:ms)","GENERIC","62.067","0.04055404350912154","1121"
"21:27:12:911 (H:m:s:ms)","OPERA","62.013","0.027056789881923494","1088"
"21:47:28:484 (H:m:s:ms)","GENERIC","62.105","0.05006570305068374","515"
"21:27:10:303 (H:m:s:ms)","GENERIC","62.043","0.031056811811553696","696"
"21:47:22:424 (H:m:s:ms)","GENERIC","62.081","0.01036523113726491","575"
"21:27:5:316 (H:m:s:ms)","OPERA","62.013","0.02573806497834687","684"
"21:47:16:363 (H:m:s:ms)","GENERIC","62.119","0.025133413339850457","636"
"21:47:10:303 (H:m:s:ms)","GENERIC","62.085","0.025609845714702543","697"
"21:47:4:242 (H:m:s:ms)","GENERIC","62.065","0.012636429688848354","757"
"21:27:4:242 (H:m:s:ms)","GENERIC","62.091","0.01877284844716708","757"
"21:26:58:181 (H:m:s:ms)","GENERIC","62.023","0.015698825585021902","818"
"21:26:57:721 (H:m:s:ms)","OPERA","62.013","0.014442891999703372","278"
"21:46:58:181 (H:m:s:ms)","GENERIC","62.035","0.01976423537605242","819"
"21:26:52:121 (H:m:s:ms)","GENERIC","62.081","0.015332116831431474","878"
"21:46:52:121 (H:m:s:ms)","GENERIC","62.051","0.025031230493126038","878"
"21:26:50:126 (H:m:s:ms)","OPERA","62.011","0.02670634109007704","873"
"21:46:46:60 (H:m:s:ms)","GENERIC","62.133","0.021655237206491058","939"
"21:13:38:181 (H:m:s:ms)","GENERIC","62.075","0.014821044163775521","818"
"21:26:46:60 (H:m:s:ms)","GENERIC","62.111","0.026243989088776048","939"
"21:46:40:0 (H:m:s:ms)","GENERIC","62.075","0.025172415836211364","1036"
"21:13:44:242 (H:m:s:ms)","GENERIC","62.191","0.05003304693024371","758"
"21:26:42:531 (H:m:s:ms)","OPERA","62.013","0.018208837877740244","468"
"21:46:33:939 (H:m:s:ms)","GENERIC","62.101","0.0250573888846993","1061"
"21:13:50:303 (H:m:s:ms)","GENERIC","62.201","0.00876826442195775","696"
"21:26:40:0 (H:m:s:ms)","GENERIC","62.075","0.025816313000675422","1193"
"21:46:27:878 (H:m:s:ms)","GENERIC","62.057","0.025769410160110463","1121"
"21:13:56:363 (H:m:s:ms)","GENERIC","62.065","0.020194368026754422","636"
"21:14:2:424 (H:m:s:ms)","GENERIC","62.089","0.006311257206648347","575"
"21:14:8:484 (H:m:s:ms)","GENERIC","62.021","0.014233079045624694","516"
"21:14:14:545 (H:m:s:ms)","GENERIC","62.119","0.04802343178074637","455"
"21:14:20:606 (H:m:s:ms)","GENERIC","62.077","0.03347360462346478","393"
"21:14:26:666 (H:m:s:ms)","GENERIC","62.097","0.021724151893922353","333"
"21:14:32:727 (H:m:s:ms)","GENERIC","62.073","0.03881043674065009","272"
"21:27:50:886 (H:m:s:ms)","OPERA","62.013","0.033726465598753835","113"
"21:48:35:151 (H:m:s:ms)","GENERIC","62.155","0.026925824035672646","848"
"21:27:46:666 (H:m:s:ms)","GENERIC","62.039","0.026666907943579708","334"
"21:48:29:90 (H:m:s:ms)","GENERIC","62.105","0.01929309868903375","945"
"21:27:43:291 (H:m:s:ms)","OPERA","62.013","0.015503216817541467","708"
"21:48:23:30 (H:m:s:ms)","GENERIC","62.093","0.025086655372483998","1281"
"21:27:40:606 (H:m:s:ms)","GENERIC","62.057","0.014694977517575229","393"
"21:48:16:969 (H:m:s:ms)","GENERIC","31.02","0.025153847605937342","1070"
"21:48:10:909 (H:m:s:ms)","GENERIC","62.101","0.05003304693024371","1091"
"21:48:4:848 (H:m:s:ms)","GENERIC","62.081","0.011938721928474774","153"
"21:27:35:696 (H:m:s:ms)","OPERA","62.013","0.02291308855309811","303"
"21:27:34:545 (H:m:s:ms)","GENERIC","62.161","0.02174628921435142","455"
"21:27:28:484 (H:m:s:ms)","GENERIC","62.103","0.029207829904086536","515"
"21:47:58:787 (H:m:s:ms)","GENERIC","62.035","0.01499142387092881","212"
"21:14:38:787 (H:m:s:ms)","GENERIC","62.049","0.007663971395169821","213"
"21:27:28:101 (H:m:s:ms)","OPERA","62.011","0.014379467384551505","898"
"21:47:52:727 (H:m:s:ms)","GENERIC","62.117","0.01701135193553283","272"
"21:14:44:848 (H:m:s:ms)","GENERIC","62.101","0.010081847821198739","152"
"21:27:22:424 (H:m:s:ms)","GENERIC","62.071","0.05213708718562773","575"
"21:47:46:666 (H:m:s:ms)","GENERIC","62.029","0.018954644533272526","333"
"20:52:37:575 (H:m:s:ms)","GENERIC","62.133","0.05007432492334698","425"
"21:14:50:909 (H:m:s:ms)","GENERIC","62.119","0.016742081833118254","1090"
"21:27:20:506 (H:m:s:ms)","OPERA","62.013","0.028724653418084774","494"
"21:47:40:606 (H:m:s:ms)","GENERIC","62.059","0.006781423726344864","394"
"20:52:43:636 (H:m:s:ms)","GENERIC","62.075","0.025207257432399703","363"
"21:14:56:969 (H:m:s:ms)","GENERIC","62.079","0.014794408810809052","1030"
"21:27:16:363 (H:m:s:ms)","GENERIC","62.097","0.02660978512072266","636"
"21:47:34:545 (H:m:s:ms)","GENERIC","62.121","0.042500000000000024","454"
"20:52:49:696 (H:m:s:ms)","GENERIC","62.039","0.014309210147860737","341"
"21:15:3:30 (H:m:s:ms)","GENERIC","62.103","0.007914689443668115","969"
"20:52:55:757 (H:m:s:ms)","GENERIC","62.105","0.025071098614940328","243"
"21:15:9:90 (H:m:s:ms)","GENERIC","62.079","0.014526074501023792","943"
"20:53:1:818 (H:m:s:ms)","GENERIC","62.033","0.012641597437035336","181"
"21:15:15:151 (H:m:s:ms)","GENERIC","62.035","0.012591492529238411","848"
"20:53:7:878 (H:m:s:ms)","GENERIC","62.125","0.016688946661760476","1121"
"21:15:21:212 (H:m:s:ms)","GENERIC","62.069","0.008161012536124964","788"
"20:53:13:939 (H:m:s:ms)","GENERIC","62.069","0.01502313031443331","1061"
"21:15:27:272 (H:m:s:ms)","GENERIC","62.051","0.016715903603083757","727"
"20:53:20:0 (H:m:s:ms)","GENERIC","62.087","0.025463957102978985","1041"
"21:15:33:333 (H:m:s:ms)","GENERIC","62.033","0.03775862375431702","667"
"20:53:26:60 (H:m:s:ms)","GENERIC","62.089","0.05002040400003326","939"
"20:53:32:121 (H:m:s:ms)","GENERIC","62.127","0.016909791337680675","879"
"21:28:28:860 (H:m:s:ms)","OPERA","62.013","0.05077460885137242","139"
"21:49:41:818 (H:m:s:ms)","GENERIC","62.121","0.014677247617763277","181"
"21:28:23:30 (H:m:s:ms)","GENERIC","62.067","0.051885524961131906","969"
"21:49:35:757 (H:m:s:ms)","GENERIC","62.061","0.014238595552433739","242"
"21:28:21:265 (H:m:s:ms)","OPERA","62.013","0.017228537134243032","734"
"21:49:29:696 (H:m:s:ms)","GENERIC","62.137","0.03560001560548975","338"
"21:28:16:969 (H:m:s:ms)","GENERIC","62.117","0.017555003408754377","1030"
"21:49:23:636 (H:m:s:ms)","GENERIC","62.097","0.05008643048801903","363"
"21:28:13:670 (H:m:s:ms)","OPERA","62.013","0.052028678763117724","330"
"21:49:17:575 (H:m:s:ms)","GENERIC","62.099","0.052201532544552974","424"
"21:49:11:515 (H:m:s:ms)","GENERIC","62.087","0.016880536800580083","484"
"21:49:5:454 (H:m:s:ms)","GENERIC","62.051","0.02178911175153577","545"
"21:28:10:909 (H:m:s:ms)","GENERIC","62.099","0.05439205897190642","1090"
"21:15:39:393 (H:m:s:ms)","GENERIC","62.057","0.019749228994474694","641"
"21:28:6:75 (H:m:s:ms)","OPERA","62.013","0.02375726370454617","924"
"21:15:45:454 (H:m:s:ms)","GENERIC","31.014","0.03334774774842153","564"
"21:28:4:848 (H:m:s:ms)","GENERIC","62.097","0.010233567213860722","151"
"21:48:59:393 (H:m:s:ms)","GENERIC","62.025","0.01891593243802699","642"
"20:53:38:181 (H:m:s:ms)","GENERIC","62.147","0.016715903603083757","908"
"21:15:51:515 (H:m:s:ms)","GENERIC","62.059","0.05002971768464476","484"
"21:27:58:787 (H:m:s:ms)","GENERIC","62.049","0.05115767509169391","212"
"21:48:53:333 (H:m:s:ms)","GENERIC","62.085","0.016909791337680703","666"
"20:53:44:242 (H:m:s:ms)","GENERIC","62.165","0.02020305089104422","757"
"21:15:57:575 (H:m:s:ms)","GENERIC","62.047","0.01689656258416178","424"
"21:27:58:481 (H:m:s:ms)","OPERA","62.011","0.008838834764831872","518"
"21:48:47:272 (H:m:s:ms)","GENERIC","62.109","0.012816394499239235","727"
"20:53:50:303 (H:m:s:ms)","GENERIC","62.171","0.0333639315344826","696"
"21:16:3:636 (H:m:s:ms)","GENERIC","62.105","0.012747548783981974","363"
"21:27:52:727 (H:m:s:ms)","GENERIC","62.137","0.03023320915587273","273"
"21:48:41:212 (H:m:s:ms)","GENERIC","62.145","0.025113122749677374","787"
"20:53:56:363 (H:m:s:ms)","GENERIC","62.055","0.014577379737113275","636"
"21:16:9:696 (H:m:s:ms)","GENERIC","62.099","0.020429417786885444","337"
"20:54:2:424 (H:m:s:ms)","GENERIC","62.089","0.025913077843162338","575"
"21:16:15:757 (H:m:s:ms)","GENERIC","62.093","0.021461614734904825","242"
"20:54:8:484 (H:m:s:ms)","GENERIC","62.053","0.0171046975181107","515"
"21:16:21:818 (H:m:s:ms)","GENERIC","62.061","0.025124689052802324","181"
"20:54:14:545 (H:m:s:ms)","GENERIC","62.111","0.012747548783981974","455"
"21:16:27:878 (H:m:s:ms)","GENERIC","62.043","0.013975424859373732","1121"
"20:54:20:606 (H:m:s:ms)","GENERIC","62.043","0.017208867618659703","393"
"21:16:33:939 (H:m:s:ms)","GENERIC","62.139","0.01929309868903375","1061"
"20:54:26:666 (H:m:s:ms)","GENERIC","62.117","0.016820911599374697","333"
"20:54:32:727 (H:m:s:ms)","GENERIC","62.073","0.018633899812498265","273"
"21:29:5:454 (H:m:s:ms)","GENERIC","62.059","0.007612201778690443","545"
"21:28:59:393 (H:m:s:ms)","GENERIC","62.023","0.02677713131212026","638"
"21:28:59:240 (H:m:s:ms)","OPERA","31.007","0.02253469547164999","792"
"21:28:53:333 (H:m:s:ms)","GENERIC","62.045","0.022115483698369354","666"
"22:10:0:0 (H:m:s:ms)","AMBULANCE","31.008","0.014526074501023792","1007"
"21:28:51:645 (H:m:s:ms)","OPERA","62.013","0.018799830235600296","354"
"22:8:25:263 (H:m:s:ms)","AMBULANCE","31.009","0.021589554910317704","739"
"21:28:47:272 (H:m:s:ms)","GENERIC","62.079","0.025801096539869228","727"
"22:6:18:947 (H:m:s:ms)","AMBULANCE","31.01","0.02146893046726941","1063"
"22:2:6:315 (H:m:s:ms)","AMBULANCE","31.011","0.007263037250511896","690"
"22:1:34:736 (H:m:s:ms)","AMBULANCE","31.01","0.05033173972424013","266"
"21:16:40:0 (H:m:s:ms)","GENERIC","62.083","0.01877371823694008","1035"
"21:16:46:60 (H:m:s:ms)","GENERIC","62.093","0.025529470508553306","939"
"21:28:44:50 (H:m:s:ms)","OPERA","62.011","0.034341610166857724","950"
"20:54:38:787 (H:m:s:ms)","GENERIC","62.055","0.012636429688848354","212"
"21:16:52:121 (H:m:s:ms)","GENERIC","62.095","0.02512468905280228","879"
"21:28:41:212 (H:m:s:ms)","GENERIC","62.127","0.02742492268855808","787"
"20:54:44:848 (H:m:s:ms)","GENERIC","62.063","0.03002738176214837","152"
"21:16:58:181 (H:m:s:ms)","GENERIC","62.039","0.014379467384551505","818"
"21:28:36:455 (H:m:s:ms)","OPERA","62.013","0.031295880809026344","544"
"21:50:0:0 (H:m:s:ms)","GENERIC","62.069","0.016828134376815847","1035"
"20:54:50:909 (H:m:s:ms)","GENERIC","62.105","0.03841476857205373","1090"
"21:17:4:242 (H:m:s:ms)","GENERIC","62.093","0.006318214844424177","757"
"21:28:35:151 (H:m:s:ms)","GENERIC","62.129","0.03005504591784811","848"
"21:49:53:939 (H:m:s:ms)","GENERIC","62.079","0.0250385505240556","1060"
"20:54:56:969 (H:m:s:ms)","GENERIC","62.049","0.02177100302874622","1030"
"21:17:10:303 (H:m:s:ms)","GENERIC","62.029","0.020043235815083837","696"
"21:28:29:90 (H:m:s:ms)","GENERIC","62.103","0.024771023271137855","943"
"21:49:47:878 (H:m:s:ms)","GENERIC","62.185","0.03346283954093337","1121"
"20:55:3:30 (H:m:s:ms)","GENERIC","62.081","0.014465369746717825","969"
"21:17:16:363 (H:m:s:ms)","GENERIC","62.091","0.008725417500395969","637"
"20:55:9:90 (H:m:s:ms)","GENERIC","62.033","0.007612201778690443","949"
"21:17:22:424 (H:m:s:ms)","GENERIC","62.085","0.05002971768464476","575"
"20:55:15:151 (H:m:s:ms)","GENERIC","62.049","0.03881043674065012","848"
"21:17:28:484 (H:m:s:ms)","GENERIC","62.105","0.050173310744967954","515"
"20:55:21:212 (H:m:s:ms)","GENERIC","62.039","0.03751721368004365","787"
"21:17:34:545 (H:m:s:ms)","GENERIC","62.185","0.03249999999999999","455"
"20:55:27:272 (H:m:s:ms)","GENERIC","62.077","0.008718891351753508","727"
"20:55:33:333 (H:m:s:ms)","GENERIC","62.041","0.012586207918105682","667"
"21:29:41:818 (H:m:s:ms)","GENERIC","62.097","0.031432168773915","181"
"21:29:37:215 (H:m:s:ms)","OPERA","62.011","0.027975287107165615","785"
"21:29:35:757 (H:m:s:ms)","GENERIC","62.069","0.009049011310310617","242"
"21:29:29:696 (H:m:s:ms)","GENERIC","62.113","0.05298774562798252","338"
"21:29:29:620 (H:m:s:ms)","OPERA","62.013","0.017677669529663743","414"
"21:29:23:636 (H:m:s:ms)","GENERIC","62.081","0.030625985526206167","363"
"21:29:22:25 (H:m:s:ms)","OPERA","62.011","0.05672530897572912","975"
"21:17:40:606 (H:m:s:ms)","GENERIC","62.075","0.006883567818882887","393"
"21:17:46:666 (H:m:s:ms)","GENERIC","62.023","0.018954644533272526","333"
"20:55:39:393 (H:m:s:ms)","GENERIC","62.081","0.018831897676917304","645"
"21:17:52:727 (H:m:s:ms)","GENERIC","62.147","0.020266575873421157","272"
"20:55:45:454 (H:m:s:ms)","GENERIC","62.105","0.021589554910317704","559"
"21:17:58:787 (H:m:s:ms)","GENERIC","62.053","0.05018867991571842","213"
"21:29:17:575 (H:m:s:ms)","GENERIC","62.117","0.05098696133454786","425"
"20:55:51:515 (H:m:s:ms)","GENERIC","62.031","0.010041237288352078","484"
"21:18:4:848 (H:m:s:ms)","GENERIC","62.107","0.020467134427721443","152"
"21:29:14:430 (H:m:s:ms)","OPERA","62.013","0.018919103682063763","569"
"20:55:57:575 (H:m:s:ms)","GENERIC","62.045","0.0063235319413297904","424"
"21:18:10:909 (H:m:s:ms)","GENERIC","62.095","0.016765546901361283","1090"
"21:29:11:515 (H:m:s:ms)","GENERIC","62.075","0.024313543858873736","484"
"20:56:3:636 (H:m:s:ms)","GENERIC","62.125","0.050110987927909766","363"
"21:18:16:969 (H:m:s:ms)","GENERIC","62.127","0.03758324094593228","1031"
"21:29:6:835 (H:m:s:ms)","OPERA","62.013","0.019215037644695357","164"
"20:56:9:696 (H:m:s:ms)","GENERIC","62.075","0.02095381826780027","343"
"21:18:23:30 (H:m:s:ms)","GENERIC","62.057","0.019171919570037898","969"
"20:56:15:757 (H:m:s:ms)","GENERIC","62.067","0.014784345430423897","242"
"21:18:29:90 (H:m:s:ms)","GENERIC","62.099","0.015000430434595528","943"
"20:56:21:818 (H:m:s:ms)","GENERIC","62.077","0.0375092581164231","182"
"21:18:35:151 (H:m:s:ms)","GENERIC","62.131","0.02512468905280236","848"
"20:56:27:878 (H:m:s:ms)","GENERIC","62.041","0.015625000000000045","1121"
"20:56:33:939 (H:m:s:ms)","GENERIC","62.169","0.026000392461716246","1061"
"21:30:18:181 (H:m:s:ms)","GENERIC","62.049","0.009066396554599907","818"
"21:30:12:121 (H:m:s:ms)","GENERIC","62.077","0.006491561454217434","879"
"21:30:6:60 (H:m:s:ms)","GENERIC","62.071","0.016731419770466684","939"
"21:30:0:0 (H:m:s:ms)","GENERIC","62.091","0.04151544809311204","1137"
"21:30:0:0 (H:m:s:ms)","GENERIC","62.067","0.0218233527448404","1034"
"21:30:0:0 (H:m:s:ms)","OPERA","62.013","0.01397542485937373","1034"
"21:30:0:0 (H:m:s:ms)","AMBULANCE","31.032","0.033292519110683025","1041"
"21:29:53:939 (H:m:s:ms)","GENERIC","62.099","0.028887178134062486","1060"
"21:18:41:212 (H:m:s:ms)","GENERIC","62.111","0.05002040400003315","787"
"21:18:47:272 (H:m:s:ms)","GENERIC","62.075","0.006860937833862698","727"
"20:56:40:0 (H:m:s:ms)","GENERIC","62.069","0.006860937833862694","1041"
"21:18:53:333 (H:m:s:ms)","GENERIC","62.047","0.050081566122737564","666"
"20:56:46:60 (H:m:s:ms)","GENERIC","62.079","0.021935275920749085","939"
"21:18:59:393 (H:m:s:ms)","GENERIC","62.027","0.014577379737113275","640"
"20:40:0:0 (H:m:s:ms)","OPERA","31.007","0.01976423537605242","1461"
"20:56:52:121 (H:m:s:ms)","GENERIC","62.115","0.03002056908023616","879"
"21:19:5:454 (H:m:s:ms)","GENERIC","62.063","0.02178911175153577","545"
"20:40:0:0 (H:m:s:ms)","GENERIC","62.055","0.03187906930808256","1462"
"20:56:58:181 (H:m:s:ms)","GENERIC","62.035","0.017677669529663743","819"
"21:19:11:515 (H:m:s:ms)","GENERIC","62.089","0.006839484584580648","484"
"21:29:52:405 (H:m:s:ms)","OPERA","62.013","0.05217570584118421","595"
"20:40:0:0 (H:m:s:ms)","GENERIC","62.093","0.04409804962471803","1462"
"20:57:4:242 (H:m:s:ms)","GENERIC","62.071","0.034209395036221446","758"
"21:19:17:575 (H:m:s:ms)","GENERIC","62.125","0.029154759474226574","424"
"21:29:47:878 (H:m:s:ms)","GENERIC","62.159","0.05390840937744923","1122"
"20:40:6:60 (H:m:s:ms)","GENERIC","62.121","0.05002162162263222","939"
"20:57:10:303 (H:m:s:ms)","GENERIC","62.039","0.013678969169161295","696"
"21:19:23:636 (H:m:s:ms)","GENERIC","62.079","0.023184324730799077","363"
"21:29:44:810 (H:m:s:ms)","OPERA","62.013","0.026020214941285084","190"
"20:40:7:594 (H:m:s:ms)","OPERA","31.008","0.0536961185335788","405"
"20:57:16:363 (H:m:s:ms)","GENERIC","62.113","0.025014858842322282","636"
"21:19:29:696 (H:m:s:ms)","GENERIC","62.093","0.05006570305068374","337"
"20:40:12:121 (H:m:s:ms)","GENERIC","62.095","0.026906328005448368","879"
"20:57:22:424 (H:m:s:ms)","GENERIC","62.113","0.05002971768464476","575"
"21:19:35:757 (H:m:s:ms)","GENERIC","62.067","0.022137024890446683","242"
"20:40:15:189 (H:m:s:ms)","OPERA","31.008","0.025424185390150577","810"
"20:57:28:484 (H:m:s:ms)","GENERIC","62.083","0.018633899812498265","515"
"20:40:18:181 (H:m:s:ms)","GENERIC","62.101","0.02443707214190588","818"
"20:57:34:545 (H:m:s:ms)","GENERIC","62.181","0.014405241682605267","455"
"20:40:22:784 (H:m:s:ms)","OPERA","31.008","0.025969999647028383","216"
"20:40:24:242 (H:m:s:ms)","GENERIC","62.111","0.02207256552051646","757"
"21:30:31:578 (H:m:s:ms)","AMBULANCE","31.026","0.03881265990199614","467"
"21:31:12:727 (H:m:s:ms)","GENERIC","62.039","0.02501848429088023","272"
"21:31:6:666 (H:m:s:ms)","GENERIC","62.027","0.02787098788387363","334"
"21:31:3:157 (H:m:s:ms)","AMBULANCE","31.013","0.018966389101846007","856"
"21:31:0:606 (H:m:s:ms)","GENERIC","62.077","0.008403922829524067","393"
"21:30:54:545 (H:m:s:ms)","GENERIC","62.049","0.035355339059327515","454"
"21:30:48:484 (H:m:s:ms)","GENERIC","62.033","0.025194555463433053","515"
"21:30:42:424 (H:m:s:ms)","GENERIC","62.057","0.019171919570037898","575"
"21:19:41:818 (H:m:s:ms)","GENERIC","62.085","0.03769672266137065","181"
"21:30:36:363 (H:m:s:ms)","GENERIC","62.067","0.038915083390311196","637"
"21:19:47:878 (H:m:s:ms)","GENERIC","62.141","0.05008643048801884","1122"
"20:57:40:606 (H:m:s:ms)","GENERIC","62.059","0.021629475086107266","394"
"21:19:53:939 (H:m:s:ms)","GENERIC","62.089","0.008784104611578861","1061"
"20:57:46:666 (H:m:s:ms)","GENERIC","62.047","0.00751156515721667","333"
"21:20:0:0 (H:m:s:ms)","OPERA","62.013","0.01397542485937373","1461"
"20:40:30:303 (H:m:s:ms)","GENERIC","62.107","0.03753467006403315","696"
"20:57:52:727 (H:m:s:ms)","GENERIC","62.115","0.014677247617763229","272"
"21:20:0:0 (H:m:s:ms)","GENERIC","62.051","0.028817922381748132","1461"
"20:40:30:379 (H:m:s:ms)","OPERA","31.007","0.045037727807891184","620"
"20:57:58:787 (H:m:s:ms)","GENERIC","62.019","0.012884705080055231","212"
"21:20:0:0 (H:m:s:ms)","GENERIC","62.085","0.04330464121071512","1461"
"20:40:36:363 (H:m:s:ms)","GENERIC","62.111","0.00846649663013331","637"
"20:58:4:848 (H:m:s:ms)","GENERIC","62.141","0.025221243250702623","152"
"21:20:6:60 (H:m:s:ms)","GENERIC","62.073","0.009911311600042457","939"
"20:40:37:974 (H:m:s:ms)","OPERA","31.008","0.012209519841311316","1025"
"20:58:10:909 (H:m:s:ms)","GENERIC","62.099","0.050008263779909364","1090"
"21:20:7:594 (H:m:s:ms)","OPERA","62.013","0.024572583630625477","405"
"21:30:30:303 (H:m:s:ms)","GENERIC","62.131","0.03750867052034721","696"
"20:40:42:424 (H:m:s:ms)","GENERIC","62.065","0.05079695109027258","576"
"20:58:16:969 (H:m:s:ms)","GENERIC","62.131","0.03758324094593228","1031"
"21:20:12:121 (H:m:s:ms)","GENERIC","62.075","0.023505725500852573","878"
"21:30:24:242 (H:m:s:ms)","GENERIC","62.157","0.012526845668506516","758"
"20:40:45:569 (H:m:s:ms)","OPERA","31.007","0.0548323134255263","430"
"20:58:23:30 (H:m:s:ms)","GENERIC","62.045","0.019686607122610084","970"
"21:20:15:189 (H:m:s:ms)","OPERA","62.011","0.023500890271793324","810"
"20:40:48:484 (H:m:s:ms)","GENERIC","62.085","0.023491886228929518","515"
"20:58:29:90 (H:m:s:ms)","GENERIC","62.073","0.020837637296468536","950"
"20:40:53:164 (H:m:s:ms)","OPERA","31.008","0.011085480453477058","835"
"20:58:35:151 (H:m:s:ms)","GENERIC","62.119","0.05006246098625223","849"
"20:40:54:545 (H:m:s:ms)","GENERIC","62.077","0.02762943389741975","455"
"20:41:0:606 (H:m:s:ms)","GENERIC","62.091","0.014142135623730961","393"
"21:31:30:909 (H:m:s:ms)","GENERIC","62.103","0.01708333333333335","1091"
"21:31:24:848 (H:m:s:ms)","GENERIC","62.085","0.0208333333333334","152"
"21:32:7:272 (H:m:s:ms)","GENERIC","62.115","0.051937432211558415","727"
"21:32:6:315 (H:m:s:ms)","AMBULANCE","31.014","0.03997337967754032","693"
"21:32:1:212 (H:m:s:ms)","GENERIC","62.037","0.03751446480285238","787"
"21:31:55:151 (H:m:s:ms)","GENERIC","62.169","0.027534271275531562","848"
"21:31:49:90 (H:m:s:ms)","GENERIC","62.135","0.03560001560548975","942"
"21:31:43:30 (H:m:s:ms)","GENERIC","62.141","0.033592740617910656","969"
"21:31:36:969 (H:m:s:ms)","GENERIC","62.105","0.024224984012094254","1030"
"21:31:34:736 (H:m:s:ms)","AMBULANCE","31.018","0.024113777451009098","310"
"20:58:41:212 (H:m:s:ms)","GENERIC","62.103","0.050507627227610555","787"
"20:58:47:272 (H:m:s:ms)","GENERIC","62.093","0.018773718236940087","728"
"20:41:6:666 (H:m:s:ms)","GENERIC","62.071","0.02213702489044667","334"
"20:58:53:333 (H:m:s:ms)","GENERIC","62.015","0.03334894816828223","666"
"20:41:12:727 (H:m:s:ms)","GENERIC","62.055","0.03560001560548979","272"
"20:58:59:393 (H:m:s:ms)","GENERIC","62.043","0.019405218370325075","648"
"20:41:15:949 (H:m:s:ms)","OPERA","31.008","0.03630263682965644","1050"
"20:59:5:454 (H:m:s:ms)","GENERIC","62.027","0.025317977802344405","642"
"20:41:18:787 (H:m:s:ms)","GENERIC","62.185","0.03423846761382452","212"
"20:59:11:515 (H:m:s:ms)","GENERIC","62.091","0.034209395036221446","484"
"20:41:23:544 (H:m:s:ms)","OPERA","31.008","0.036445288558456766","455"
"20:59:17:575 (H:m:s:ms)","GENERIC","62.119","0.02576941016011051","424"
"20:41:24:848 (H:m:s:ms)","GENERIC","62.143","0.024284269840911664","152"
"20:59:23:636 (H:m:s:ms)","GENERIC","62.095","0.02019197982820698","363"
"21:31:18:787 (H:m:s:ms)","GENERIC","62.125","0.05026682667970087","212"
"20:41:30:909 (H:m:s:ms)","GENERIC","62.043","0.021698054620076797","1090"
"20:59:29:696 (H:m:s:ms)","GENERIC","62.093","0.0501477108092512","344"
"20:41:31:139 (H:m:s:ms)","OPERA","31.008","0.034194299382901236","860"
"20:59:35:757 (H:m:s:ms)","GENERIC","62.079","0.022137024890446683","242"
"20:41:36:969 (H:m:s:ms)","GENERIC","62.065","0.020057309991967184","1030"
"20:41:38:734 (H:m:s:ms)","OPERA","31.007","0.021398356447902486","265"
"20:59:41:818 (H:m:s:ms)","GENERIC","62.089","0.013078337027630298","182"
"20:59:47:878 (H:m:s:ms)","GENERIC","62.125","0.05019425931140006","1121"
"20:41:43:30 (H:m:s:ms)","GENERIC","62.097","0.022126670952131607","969"
"20:59:53:939 (H:m:s:ms)","GENERIC","62.091","0.017179606773406977","1061"
"20:41:46:329 (H:m:s:ms)","OPERA","31.008","0.025034436779093974","671"
"21:0:0:0 (H:m:s:ms)","AMBULANCE","31.053","0.01397542485937373","1468"
"20:41:49:90 (H:m:s:ms)","GENERIC","62.071","0.022110654380413385","945"
"21:0:0:0 (H:m:s:ms)","GENERIC","62.045","0.028794468522473818","1469"
"20:41:53:924 (H:m:s:ms)","OPERA","31.007","0.02209289164529389","75"
"21:0:0:0 (H:m:s:ms)","GENERIC","62.083","0.03286912167507826","1469"
"20:41:55:151 (H:m:s:ms)","GENERIC","62.111","0.02196368514573396","848"
"21:0:6:60 (H:m:s:ms)","GENERIC","62.105","0.007338623808881614","939"
"20:42:1:212 (H:m:s:ms)","GENERIC","62.055","0.01976423537605242","787"
"21:0:12:121 (H:m:s:ms)","GENERIC","62.075","0.05131409255433231","879"
"20:42:7:272 (H:m:s:ms)","GENERIC","62.079","0.033365757010277726","728"
"21:0:18:181 (H:m:s:ms)","GENERIC","62.077","0.05003696858176046","818"
"20:42:9:113 (H:m:s:ms)","OPERA","31.008","0.03448496143090445","922"
"21:0:24:242 (H:m:s:ms)","GENERIC","62.115","0.014677247617763237","758"
"20:42:13:333 (H:m:s:ms)","GENERIC","62.061","0.01271209269507529","666"
"20:42:16:708 (H:m:s:ms)","OPERA","31.008","0.024289839582372387","291"
"21:0:30:303 (H:m:s:ms)","GENERIC","62.121","0.05006459487370169","697"
"21:0:31:578 (H:m:s:ms)","AMBULANCE","31.057","0.05072457773265721","451"
"20:42:19:393 (H:m:s:ms)","GENERIC","62.067","0.029318773034718103","641"
"21:0:36:363 (H:m:s:ms)","GENERIC","62.087","0.051422777658473244","636"
"20:42:24:303 (H:m:s:ms)","OPERA","31.007","0.02341781040620796","697"
"21:0:42:424 (H:m:s:ms)","GENERIC","62.061","0.007420411039827936","575"
"20:20:0:0 (H:m:s:ms)","GENERIC","62.053","0.025107933583359564","1464"
"20:42:25:454 (H:m:s:ms)","GENERIC","62.035","0.020118008824687672","545"
"21:0:48:484 (H:m:s:ms)","GENERIC","62.097","0.037629983058726016","515"
"20:20:0:0 (H:m:s:ms)","GENERIC","62.077","0.04097350951428781","1464"
"20:42:31:515 (H:m:s:ms)","GENERIC","62.033","0.0337931251683235","484"
"21:0:54:545 (H:m:s:ms)","GENERIC","62.053","0.007241383964640725","455"
"20:20:6:60 (H:m:s:ms)","GENERIC","62.151","0.013017082793177762","939"
"20:42:31:898 (H:m:s:ms)","OPERA","31.008","0.03488649973790858","101"
"21:1:0:606 (H:m:s:ms)","GENERIC","62.101","0.008948615242919187","394"
"20:20:12:121 (H:m:s:ms)","GENERIC","62.107","0.018933771619945017","878"
"20:42:37:575 (H:m:s:ms)","GENERIC","62.113","0.050008263779909364","424"
"21:1:3:157 (H:m:s:ms)","AMBULANCE","31.05","0.02653748279681232","938"
"20:20:18:181 (H:m:s:ms)","GENERIC","62.077","0.05014771080925127","818"
"20:42:39:493 (H:m:s:ms)","OPERA","31.008","0.05298047594959085","542"
"21:1:6:666 (H:m:s:ms)","GENERIC","62.029","0.03311313918350332","334"
"20:20:24:242 (H:m:s:ms)","GENERIC","62.091","0.0500071813285829","758"
"20:42:43:636 (H:m:s:ms)","GENERIC","62.065","0.02164682685904164","363"
"21:1:12:727 (H:m:s:ms)","GENERIC","62.021","0.025165869862120063","272"
"20:20:30:303 (H:m:s:ms)","GENERIC","62.115","0.01260362871619988","696"
"20:42:47:88 (H:m:s:ms)","OPERA","31.008","0.015332116831431474","912"
"20:20:36:363 (H:m:s:ms)","GENERIC","62.109","0.026511406437235315","636"
"20:42:49:696 (H:m:s:ms)","GENERIC","62.057","0.011371768186691528","339"
"20:20:42:424 (H:m:s:ms)","GENERIC","62.067","0.038322015471607226","575"
"20:20:48:484 (H:m:s:ms)","GENERIC","62.063","0.013975424859373732","515"
"21:1:18:787 (H:m:s:ms)","GENERIC","62.157","0.05002971768464452","212"
"21:1:24:848 (H:m:s:ms)","GENERIC","62.111","0.013678969169161306","151"
"20:42:54:683 (H:m:s:ms)","OPERA","31.008","0.023631609464337","317"
"21:1:30:909 (H:m:s:ms)","GENERIC","62.045","0.016713475933443","1091"
"20:42:55:757 (H:m:s:ms)","GENERIC","62.121","0.025748602737238325","242"
"21:1:34:736 (H:m:s:ms)","AMBULANCE","31.018","0.025858902216479126","264"
"20:20:54:545 (H:m:s:ms)","GENERIC","62.065","0.01386542462386209","454"
"20:43:1:818 (H:m:s:ms)","GENERIC","62.049","0.006320798718517668","182"
"21:1:36:969 (H:m:s:ms)","GENERIC","62.093","0.023469700373554066","1030"
"20:21:0:606 (H:m:s:ms)","GENERIC","62.079","0.025211768488572206","393"
"20:43:2:278 (H:m:s:ms)","OPERA","31.007","0.027234572824814354","721"
"21:1:43:30 (H:m:s:ms)","GENERIC","62.093","0.017179606773406932","969"
"20:21:6:666 (H:m:s:ms)","GENERIC","62.035","0.02180869156420401","334"
"20:43:7:878 (H:m:s:ms)","GENERIC","62.131","0.01686612711589563","1121"
"21:1:49:90 (H:m:s:ms)","GENERIC","62.085","0.051538820320220814","949"
"20:21:12:727 (H:m:s:ms)","GENERIC","62.039","0.02501848429088023","272"
"20:43:13:939 (H:m:s:ms)","GENERIC","62.075","0.03535533905932743","1061"
"21:1:55:151 (H:m:s:ms)","GENERIC","62.127","0.03923501108289085","848"
"20:21:18:787 (H:m:s:ms)","GENERIC","62.171","0.05002971768464452","212"
"20:43:17:468 (H:m:s:ms)","OPERA","31.008","0.03795525582476846","531"
"21:2:1:212 (H:m:s:ms)","GENERIC","62.017","0.037629983058726","788"
"20:21:24:848 (H:m:s:ms)","GENERIC","62.163","0.016724436914989347","152"
"20:43:20:0 (H:m:s:ms)","GENERIC","62.077","0.01856899091489844","1035"
"21:2:6:315 (H:m:s:ms)","AMBULANCE","31.034","0.041513997419953826","685"
"20:21:30:909 (H:m:s:ms)","GENERIC","62.089","0.009138213416442217","1090"
"20:43:25:63 (H:m:s:ms)","OPERA","31.007","0.029170446864240213","936"
"20:21:36:969 (H:m:s:ms)","GENERIC","62.041","0.03034239866959747","1030"
"20:43:26:60 (H:m:s:ms)","GENERIC","62.073","0.05679700473188363","940"
"20:21:43:30 (H:m:s:ms)","GENERIC","62.105","0.03560001560548975","970"
"20:21:49:90 (H:m:s:ms)","GENERIC","62.073","0.050173310744967954","943"
"20:43:32:121 (H:m:s:ms)","GENERIC","62.115","0.01397542485937369","878"
"20:43:32:658 (H:m:s:ms)","OPERA","31.007","0.026464634598310895","342"
"20:21:55:151 (H:m:s:ms)","GENERIC","62.085","0.018856364973133147","848"
"20:43:38:181 (H:m:s:ms)","GENERIC","62.137","0.010288502215365846","818"
"20:22:1:212 (H:m:s:ms)","GENERIC","62.033","0.02502169197805072","787"
"20:43:40:253 (H:m:s:ms)","OPERA","31.007","0.0237868462603475","747"
"20:22:7:272 (H:m:s:ms)","GENERIC","62.111","0.033365757010277726","727"
"20:43:44:242 (H:m:s:ms)","GENERIC","62.145","0.029427246408990713","757"
"20:22:13:333 (H:m:s:ms)","GENERIC","62.039","0.00900368509394298","666"
"20:43:50:303 (H:m:s:ms)","GENERIC","62.155","0.016765546901361277","696"
"20:22:19:393 (H:m:s:ms)","GENERIC","62.023","0.05303300858899122","641"
"20:43:55:443 (H:m:s:ms)","OPERA","31.007","0.018513106385028517","556"
"20:22:25:454 (H:m:s:ms)","GENERIC","62.047","0.014349487207836374","545"
"20:43:56:363 (H:m:s:ms)","GENERIC","62.045","0.012550494905062397","636"
"20:22:31:515 (H:m:s:ms)","GENERIC","62.063","0.02159833964379178","485"
"20:44:2:424 (H:m:s:ms)","GENERIC","62.089","0.02540986338067955","575"
"20:22:37:575 (H:m:s:ms)","GENERIC","62.115","0.05005665724197297","424"
"20:44:3:37 (H:m:s:ms)","OPERA","31.008","0.03390392894639809","962"
"20:22:43:636 (H:m:s:ms)","GENERIC","62.043","0.012551546610440098","363"
"20:22:49:696 (H:m:s:ms)","GENERIC","62.063","0.02534484387624265","338"
"20:44:8:484 (H:m:s:ms)","GENERIC","62.079","0.03797273221615485","515"
"20:44:10:632 (H:m:s:ms)","OPERA","31.007","0.040439540920357286","368"
"20:22:55:757 (H:m:s:ms)","GENERIC","62.097","0.012731978551489529","242"
"20:44:14:545 (H:m:s:ms)","GENERIC","62.127","0.047093106484834515","454"
"20:23:1:818 (H:m:s:ms)","GENERIC","62.081","0.00817088312393045","181"
"20:44:18:227 (H:m:s:ms)","OPERA","31.008","0.04450013762654923","772"
"20:23:7:878 (H:m:s:ms)","GENERIC","62.101","0.025133413339850457","1121"
"20:44:20:606 (H:m:s:ms)","GENERIC","62.041","0.027284766520587523","393"
"20:23:13:939 (H:m:s:ms)","GENERIC","62.085","0.037619808611953395","1061"
"20:44:25:822 (H:m:s:ms)","OPERA","31.007","0.02598039136722279","177"
"20:23:20:0 (H:m:s:ms)","GENERIC","62.059","0.021646125954690284","1035"
"20:44:26:666 (H:m:s:ms)","GENERIC","62.101","0.02917730160995066","334"
"20:23:26:60 (H:m:s:ms)","GENERIC","62.057","0.025103093220880196","939"
"20:44:32:727 (H:m:s:ms)","GENERIC","62.089","0.014166666666666683","272"
"20:23:32:121 (H:m:s:ms)","GENERIC","62.085","0.016909791337680675","879"
"20:44:33:417 (H:m:s:ms)","OPERA","31.008","0.030003460390415192","582"
"20:23:38:181 (H:m:s:ms)","GENERIC","62.133","0.02006493101946321","818"
"20:44:38:787 (H:m:s:ms)","GENERIC","62.041","0.028647399272109585","212"
"20:23:44:242 (H:m:s:ms)","GENERIC","62.117","0.01669144164111566","757"
"20:23:50:303 (H:m:s:ms)","GENERIC","62.121","0.025148320352041918","696"
"20:44:41:12 (H:m:s:ms)","OPERA","31.008","0.014057657347167041","987"
"20:44:44:848 (H:m:s:ms)","GENERIC","62.047","0.013561357584580899","152"
"20:23:56:363 (H:m:s:ms)","GENERIC","62.021","0.01891593243802699","636"
"20:44:48:607 (H:m:s:ms)","OPERA","31.008","0.02841358855709946","392"
"20:24:2:424 (H:m:s:ms)","GENERIC","62.081","0.01800737018788598","575"
"20:44:50:909 (H:m:s:ms)","GENERIC","62.113","0.056559023610353296","1090"
"20:24:8:484 (H:m:s:ms)","GENERIC","62.119","0.03007225095961019","515"
"20:44:56:202 (H:m:s:ms)","OPERA","31.007","0.05372822597459576","797"
"20:24:14:545 (H:m:s:ms)","GENERIC","62.097","0.03750925811642302","454"
"20:44:56:969 (H:m:s:ms)","GENERIC","62.053","0.023931374998310117","1030"
"20:24:20:606 (H:m:s:ms)","GENERIC","62.043","0.050081566122737564","393"
"20:45:3:30 (H:m:s:ms)","GENERIC","62.085","0.007914689443668115","969"
"20:24:26:666 (H:m:s:ms)","GENERIC","62.069","0.018796111351528554","333"
"20:45:3:797 (H:m:s:ms)","OPERA","31.007","0.011836574596665537","203"
"20:24:32:727 (H:m:s:ms)","GENERIC","62.099","0.051538820320220814","272"
"20:45:9:90 (H:m:s:ms)","GENERIC","31.024","0.02525381361380534","952"
"20:24:38:787 (H:m:s:ms)","GENERIC","62.053","0.022991914185509565","213"
"20:45:11:392 (H:m:s:ms)","OPERA","31.008","0.031991322429666756","688"
"20:24:44:848 (H:m:s:ms)","GENERIC","62.029","0.030245543463596012","151"
"20:24:50:909 (H:m:s:ms)","GENERIC","62.091","0.05000629841912184","1090"
"20:45:15:151 (H:m:s:ms)","GENERIC","62.049","0.027550496312515185","849"
"20:45:18:987 (H:m:s:ms)","OPERA","31.008","0.021186915176686336","1048"
"20:24:56:969 (H:m:s:ms)","GENERIC","62.035","0.02433762042895626","1030"
"20:45:21:212 (H:m:s:ms)","GENERIC","62.041","0.01722332882937305","787"
"20:25:3:30 (H:m:s:ms)","GENERIC","62.085","0.007232684873358913","970"
"20:45:26:582 (H:m:s:ms)","OPERA","31.007","0.02032075815767075","417"
"20:25:9:90 (H:m:s:ms)","GENERIC","62.051","0.00846649663013331","944"
"20:45:27:272 (H:m:s:ms)","GENERIC","62.065","0.02172085755850274","728"
"20:25:15:151 (H:m:s:ms)","GENERIC","62.037","0.029154759474226535","848"
"20:45:33:333 (H:m:s:ms)","GENERIC","62.065","0.013255703218617635","667"
"20:25:21:212 (H:m:s:ms)","GENERIC","62.067","0.02502581311993783","787"
"20:45:34:177 (H:m:s:ms)","OPERA","31.008","0.026098361124128982","823"
"20:25:27:272 (H:m:s:ms)","GENERIC","62.051","0.02529412776531914","728"
"20:45:39:393 (H:m:s:ms)","GENERIC","62.073","0.029285211962783254","643"
"20:25:33:333 (H:m:s:ms)","GENERIC","62.101","0.01284135970336251","667"
"20:45:45:454 (H:m:s:ms)","GENERIC","62.095","0.00987461449723735","545"
"20:25:39:393 (H:m:s:ms)","GENERIC","62.063","0.012774005157202421","641"
"20:45:49:367 (H:m:s:ms)","OPERA","31.007","0.017073221425802594","670"
"20:25:45:454 (H:m:s:ms)","GENERIC","62.063","0.02248713580639334","545"
"20:25:51:515 (H:m:s:ms)","GENERIC","62.069","0.05001084951732445","485"
"20:25:57:575 (H:m:s:ms)","GENERIC","62.049","0.0063235319413297904","425"
"20:26:3:636 (H:m:s:ms)","GENERIC","62.169","0.03337110482798199","364"
"20:26:9:696 (H:m:s:ms)","GENERIC","62.113","0.050056657241972995","338"
"20:26:15:757 (H:m:s:ms)","GENERIC","62.065","0.0375922227030571","242"
"20:26:21:818 (H:m:s:ms)","GENERIC","62.127","0.025124689052802324","181"
"20:26:27:878 (H:m:s:ms)","GENERIC","62.081","0.0500244081049443","1121"
"20:26:33:939 (H:m:s:ms)","GENERIC","62.153","0.025128940683360686","1060"
"20:26:40:0 (H:m:s:ms)","GENERIC","62.083","0.02276741687373711","1034"
"20:26:46:60 (H:m:s:ms)","GENERIC","62.083","0.025529470508553306","940"
"20:26:52:121 (H:m:s:ms)","GENERIC","62.075","0.037687033579203395","879"
"20:26:58:181 (H:m:s:ms)","GENERIC","62.081","0.012525169922291005","818"
"20:27:4:242 (H:m:s:ms)","GENERIC","62.075","0.006839484584580648","758"
"20:27:10:303 (H:m:s:ms)","GENERIC","62.027","0.01008619362986149","696"
"20:27:16:363 (H:m:s:ms)","GENERIC","62.151","0.016688946661760476","636"
"20:27:22:424 (H:m:s:ms)","GENERIC","62.089","0.021655237206491058","576"
"20:27:28:484 (H:m:s:ms)","GENERIC","62.065","0.020833333333333353","515"
"20:27:34:545 (H:m:s:ms)","GENERIC","62.127","0.032015621187164264","454"
"20:27:40:606 (H:m:s:ms)","GENERIC","62.067","0.006491561454217428","393"
"20:27:46:666 (H:m:s:ms)","GENERIC","62.037","0.016896562584161768","333"
"20:27:52:727 (H:m:s:ms)","GENERIC","62.069","0.020266575873421157","272"
"20:27:58:787 (H:m:s:ms)","GENERIC","62.057","0.025836661573923374","212"
"20:28:4:848 (H:m:s:ms)","GENERIC","62.115","0.021036470266787746","152"
"20:28:10:909 (H:m:s:ms)","GENERIC","62.133","0.016765546901361283","1090"
"20:28:16:969 (H:m:s:ms)","GENERIC","62.153","0.020160943923037293","1030"
"20:28:23:30 (H:m:s:ms)","GENERIC","62.039","0.03952847075210486","969"
"20:28:29:90 (H:m:s:ms)","GENERIC","62.041","0.015456216487199437","943"
"20:28:35:151 (H:m:s:ms)","GENERIC","62.083","0.05002777006601238","848"
"20:28:41:212 (H:m:s:ms)","GENERIC","62.137","0.025449474198133284","787"
"20:28:47:272 (H:m:s:ms)","GENERIC","62.053","0.0063207987185176714","727"
"20:28:53:333 (H:m:s:ms)","GENERIC","62.073","0.016697874433515107","666"
"20:28:59:393 (H:m:s:ms)","GENERIC","62.031","0.05018867991571842","640"
"20:29:5:454 (H:m:s:ms)","GENERIC","62.043","0.025194555463433053","545"
"20:29:11:515 (H:m:s:ms)","GENERIC","62.127","0.006518577703855911","484"
"20:29:17:575 (H:m:s:ms)","GENERIC","62.063","0.029154759474226574","424"
"20:29:23:636 (H:m:s:ms)","GENERIC","62.073","0.05077257794597688","363"
"20:29:29:696 (H:m:s:ms)","GENERIC","62.111","0.05006570305068374","337"
"20:29:35:757 (H:m:s:ms)","GENERIC","62.053","0.0217462892143515","243"
"20:29:41:818 (H:m:s:ms)","GENERIC","62.103","0.026156674055260596","181"
"20:29:47:878 (H:m:s:ms)","GENERIC","62.135","0.016924192648658895","1121"
"20:29:53:939 (H:m:s:ms)","GENERIC","62.133","0.008784104611578861","1061"
"21:20:18:181 (H:m:s:ms)","GENERIC","62.053","0.03406847062398656","818"
"21:20:22:784 (H:m:s:ms)","OPERA","62.013","0.03681862031350474","215"
"21:20:24:242 (H:m:s:ms)","GENERIC","62.145","0.027323856157539836","757"
"21:20:30:303 (H:m:s:ms)","GENERIC","62.143","0.03757796266211884","696"
"21:20:30:379 (H:m:s:ms)","OPERA","62.013","0.043732656629467945","620"
"21:20:36:363 (H:m:s:ms)","GENERIC","62.069","0.05077257794597688","636"
"21:20:37:974 (H:m:s:ms)","OPERA","62.013","0.054439656890644034","1025"
"21:20:42:424 (H:m:s:ms)","GENERIC","62.075","0.05399234912679139","575"
"21:20:45:569 (H:m:s:ms)","OPERA","62.013","0.0546171117264759","431"
"21:20:48:484 (H:m:s:ms)","GENERIC","62.057","0.04313840215365475","515"
"21:20:53:164 (H:m:s:ms)","OPERA","62.011","0.02783396274066332","835"
"21:20:54:545 (H:m:s:ms)","GENERIC","62.049","0.04148052015235104","455"
"21:21:0:606 (H:m:s:ms)","GENERIC","62.091","0.025023618333089893","393"
"21:21:6:666 (H:m:s:ms)","GENERIC","62.013","0.014349487207836378","333"
"21:21:8:354 (H:m:s:ms)","OPERA","31.008","0.030101264091476246","645"
"21:21:12:727 (H:m:s:ms)","GENERIC","62.035","0.03648549530073094","273"
"21:21:15:949 (H:m:s:ms)","OPERA","62.013","0.033705490083566055","1050"
"21:21:18:787 (H:m:s:ms)","GENERIC","62.135","0.02719132884730723","213"
"21:21:23:544 (H:m:s:ms)","OPERA","62.013","0.030566843105314146","455"
"21:21:24:848 (H:m:s:ms)","GENERIC","62.079","0.029366183340013906","151"
"21:33:7:878 (H:m:s:ms)","GENERIC","62.089","0.008725417500395969","1121"
"21:32:49:696 (H:m:s:ms)","GENERIC","62.017","0.02253469547164999","337"
"21:32:43:636 (H:m:s:ms)","GENERIC","62.079","0.03758324094593233","363"
"21:32:37:894 (H:m:s:ms)","AMBULANCE","31.009","0.015329647569309176","108"
"21:32:37:575 (H:m:s:ms)","GENERIC","62.185","0.01301708279317776","424"
"21:32:31:515 (H:m:s:ms)","GENERIC","62.019","0.025753937681885688","484"
"21:32:25:454 (H:m:s:ms)","GENERIC","62.075","0.016749792701868195","545"
"21:32:19:393 (H:m:s:ms)","GENERIC","62.073","0.05005490149887941","641"
"21:21:30:909 (H:m:s:ms)","GENERIC","62.091","0.007232684873358913","1090"
"21:32:13:333 (H:m:s:ms)","GENERIC","62.089","0.025103093220880217","666"
"21:21:31:139 (H:m:s:ms)","OPERA","62.011","0.027456812921529395","861"
"21:21:36:969 (H:m:s:ms)","GENERIC","62.099","0.008462096324329458","1030"
"21:21:38:734 (H:m:s:ms)","OPERA","62.013","0.01630276968483671","265"
"21:21:43:30 (H:m:s:ms)","GENERIC","62.121","0.05202048133939939","970"
"21:21:46:329 (H:m:s:ms)","OPERA","62.011","0.05388933319047591","671"
"21:21:49:90 (H:m:s:ms)","GENERIC","62.123","0.0542431652828216","942"
"21:21:53:924 (H:m:s:ms)","OPERA","62.013","0.0512839645184049","1075"
"21:33:1:818 (H:m:s:ms)","GENERIC","62.047","0.00817088312393045","181"
"21:21:55:151 (H:m:s:ms)","GENERIC","62.157","0.026750187767730433","848"
"21:32:55:757 (H:m:s:ms)","GENERIC","31.043","0.02178911175153577","242"
"21:22:1:212 (H:m:s:ms)","GENERIC","62.037","0.02502169197805072","787"
"21:34:2:424 (H:m:s:ms)","GENERIC","62.073","0.008637692614387443","575"
"21:33:56:363 (H:m:s:ms)","GENERIC","62.051","0.013462912017836302","636"
"21:33:44:242 (H:m:s:ms)","GENERIC","62.165","0.03827413382843928","758"
"21:33:41:52 (H:m:s:ms)","AMBULANCE","31.022","0.023822675992771197","983"
"21:33:38:181 (H:m:s:ms)","GENERIC","62.075","0.014526074501023792","818"
"21:33:32:121 (H:m:s:ms)","GENERIC","62.117","0.05008156612273746","879"
"21:33:26:60 (H:m:s:ms)","GENERIC","62.043","0.03765463983132027","939"
"21:33:20:0 (H:m:s:ms)","GENERIC","62.031","0.014502814645890672","1034"
"21:22:1:518 (H:m:s:ms)","OPERA","31.008","0.03290652338558175","481"
"21:33:13:939 (H:m:s:ms)","GENERIC","62.123","0.03936112303367716","1061"
"21:22:7:272 (H:m:s:ms)","GENERIC","62.101","0.013122446215342485","728"
"21:33:9:473 (H:m:s:ms)","AMBULANCE","31.02","0.026974040201458497","571"
"21:22:9:113 (H:m:s:ms)","OPERA","62.011","0.019131156291775253","919"
"21:22:13:333 (H:m:s:ms)","GENERIC","62.099","0.028673931130694604","667"
"21:22:16:708 (H:m:s:ms)","OPERA","62.013","0.03296813869928843","291"
"21:22:19:393 (H:m:s:ms)","GENERIC","62.069","0.032926988825601494","640"
"21:22:24:303 (H:m:s:ms)","OPERA","62.011","0.03183170124245169","697"
"21:22:25:454 (H:m:s:ms)","GENERIC","62.057","0.038705655810701275","545"
"21:22:31:515 (H:m:s:ms)","GENERIC","62.019","0.008213145708950821","484"
"21:22:31:898 (H:m:s:ms)","OPERA","62.013","0.022929012137655743","101"
"21:33:50:303 (H:m:s:ms)","GENERIC","62.175","0.03345555822904819","696"
"21:35:3:30 (H:m:s:ms)","GENERIC","62.127","0.02364706479606697","969"
"21:34:56:969 (H:m:s:ms)","GENERIC","62.089","0.012536927702312841","1030"
"21:34:50:909 (H:m:s:ms)","GENERIC","62.131","0.05000629841912184","1091"
"21:34:44:848 (H:m:s:ms)","GENERIC","62.107","0.012603074568901404","154"
"21:34:44:210 (H:m:s:ms)","AMBULANCE","31.01","0.007612201778690443","793"
"21:34:38:787 (H:m:s:ms)","GENERIC","62.033","0.016538623796964046","212"
"21:34:32:727 (H:m:s:ms)","GENERIC","62.101","0.051538820320220814","272"
"21:34:26:666 (H:m:s:ms)","GENERIC","62.071","0.01472537723434876","334"
"21:22:37:575 (H:m:s:ms)","GENERIC","62.189","0.0168883330825367","424"
"21:34:20:606 (H:m:s:ms)","GENERIC","62.121","0.016909791337680703","393"
"21:22:39:493 (H:m:s:ms)","OPERA","62.013","0.032587352875228584","541"
"21:34:14:545 (H:m:s:ms)","GENERIC","62.161","0.007338623808881614","455"
"21:2:7:272 (H:m:s:ms)","GENERIC","62.079","0.026831179617784993","728"
"21:22:43:636 (H:m:s:ms)","GENERIC","62.085","0.037448196535310604","363"
"21:34:8:484 (H:m:s:ms)","GENERIC","62.025","0.02010821418668943","515"
"21:2:13:333 (H:m:s:ms)","GENERIC","62.069","0.01701175119158005","666"
"21:22:47:88 (H:m:s:ms)","OPERA","62.011","0.03060650465611586","911"
"21:2:19:393 (H:m:s:ms)","GENERIC","62.051","0.05005490149887941","646"
"21:22:49:696 (H:m:s:ms)","GENERIC","62.017","0.019107709599524854","338"
"21:2:25:454 (H:m:s:ms)","GENERIC","62.031","0.014349487207836374","546"
"21:22:54:683 (H:m:s:ms)","OPERA","62.011","0.021044806202350982","316"
"21:2:31:515 (H:m:s:ms)","GENERIC","62.041","0.015971914124998484","484"
"21:22:55:757 (H:m:s:ms)","GENERIC","62.091","0.03181944483101503","332"
"21:2:37:575 (H:m:s:ms)","GENERIC","62.153","0.025449474198133284","425"
"21:23:1:818 (H:m:s:ms)","GENERIC","62.031","0.013562847452689738","181"
"21:2:37:894 (H:m:s:ms)","AMBULANCE","31.039","0.056133069482559333","196"
"21:23:2:278 (H:m:s:ms)","OPERA","62.011","0.026243982217761662","721"
"21:2:43:636 (H:m:s:ms)","GENERIC","62.081","0.01256234452640114","363"
"21:23:7:878 (H:m:s:ms)","GENERIC","62.085","0.01261062162535131","1121"
"21:2:49:696 (H:m:s:ms)","GENERIC","62.023","0.014309210147860737","343"
"21:2:55:757 (H:m:s:ms)","GENERIC","62.089","0.05000889917244768","242"
"21:35:57:575 (H:m:s:ms)","GENERIC","62.075","0.0250385505240556","424"
"21:35:51:515 (H:m:s:ms)","GENERIC","62.097","0.024705128723954698","484"
"21:35:47:368 (H:m:s:ms)","AMBULANCE","31.029","0.022131638445312806","639"
"21:35:45:454 (H:m:s:ms)","GENERIC","62.027","0.016924192648658923","546"
"21:35:39:393 (H:m:s:ms)","GENERIC","62.025","0.01693299326026662","639"
"21:35:33:333 (H:m:s:ms)","GENERIC","62.069","0.012565574220456862","666"
"21:35:27:272 (H:m:s:ms)","GENERIC","62.029","0.021607862523908027","727"
"21:23:9:873 (H:m:s:ms)","OPERA","31.008","0.025773540112003977","160"
"21:35:21:212 (H:m:s:ms)","GENERIC","62.083","0.012956538921581141","787"
"21:23:13:939 (H:m:s:ms)","GENERIC","62.105","0.03061684091794128","1060"
"21:35:15:789 (H:m:s:ms)","AMBULANCE","31.019","0.028407035777328157","232"
"21:3:1:818 (H:m:s:ms)","GENERIC","62.015","0.01877371823694008","181"
"21:23:17:468 (H:m:s:ms)","OPERA","62.013","0.03061684091794128","532"
"21:35:15:151 (H:m:s:ms)","GENERIC","62.021","0.013300795353090518","848"
"21:3:7:878 (H:m:s:ms)","GENERIC","62.107","0.008509823502851066","1122"
"21:23:20:0 (H:m:s:ms)","GENERIC","62.049","0.02362364592304088","1033"
"21:35:9:90 (H:m:s:ms)","GENERIC","62.083","0.007263037250511896","945"
"21:3:9:473 (H:m:s:ms)","AMBULANCE","31.034","0.021479372527371164","567"
"21:23:25:63 (H:m:s:ms)","OPERA","62.011","0.022830285777930174","936"
"21:3:13:939 (H:m:s:ms)","GENERIC","62.073","0.03188440454256854","1060"
"21:23:26:60 (H:m:s:ms)","GENERIC","62.059","0.02509419801140153","939"
"21:3:20:0 (H:m:s:ms)","GENERIC","62.083","0.014502814645890672","1040"
"21:23:32:121 (H:m:s:ms)","GENERIC","62.125","0.010879675865519873","878"
"21:3:26:60 (H:m:s:ms)","GENERIC","62.071","0.02523136739906201","939"
"21:23:32:658 (H:m:s:ms)","OPERA","62.013","0.024534230592482352","342"
"21:3:32:121 (H:m:s:ms)","GENERIC","62.135","0.05008156612273746","878"
"21:23:38:181 (H:m:s:ms)","GENERIC","62.077","0.007612201778690443","818"
"21:3:38:181 (H:m:s:ms)","GENERIC","31.038","0.014526074501023792","818"
"21:23:40:253 (H:m:s:ms)","OPERA","62.011","0.019215037644695357","746"
"21:3:41:52 (H:m:s:ms)","AMBULANCE","31.045","0.02893998350135315","978"
"21:3:44:242 (H:m:s:ms)","GENERIC","62.179","0.041667318681997884","758"
"21:36:52:121 (H:m:s:ms)","GENERIC","62.063","0.027609275317965372","878"
"21:36:50:526 (H:m:s:ms)","AMBULANCE","31.023","0.053593165071686315","510"
"21:36:46:60 (H:m:s:ms)","GENERIC","62.127","0.05026682667970111","940"
"21:36:40:0 (H:m:s:ms)","GENERIC","31.03","0.025172415836211364","1036"
"21:36:33:939 (H:m:s:ms)","GENERIC","62.105","0.015000430434595528","1061"
"21:36:27:878 (H:m:s:ms)","GENERIC","62.079","0.03801726581436397","1121"
"21:23:44:242 (H:m:s:ms)","GENERIC","62.177","0.03771605595424418","757"
"21:36:21:818 (H:m:s:ms)","GENERIC","62.035","0.04373707633957356","181"
"21:23:47:848 (H:m:s:ms)","OPERA","31.008","0.036130701406758184","152"
"21:36:18:947 (H:m:s:ms)","AMBULANCE","31.015","0.044365876366648335","1136"
"21:3:50:303 (H:m:s:ms)","GENERIC","62.197","0.00876826442195775","696"
"21:23:50:303 (H:m:s:ms)","GENERIC","62.183","0.02859967026143979","696"
"21:36:15:757 (H:m:s:ms)","GENERIC","62.127","0.038322015471607226","242"
"21:3:56:363 (H:m:s:ms)","GENERIC","62.065","0.01891593243802699","636"
"21:23:55:443 (H:m:s:ms)","OPERA","62.013","0.032949208657734944","556"
"21:36:9:696 (H:m:s:ms)","GENERIC","62.077","0.010833333333333339","337"
"21:4:2:424 (H:m:s:ms)","GENERIC","62.087","0.017275385228774885","575"
"21:23:56:363 (H:m:s:ms)","GENERIC","62.055","0.05452759346805703","636"
"21:36:3:636 (H:m:s:ms)","GENERIC","62.079","0.03337110482798199","363"
"21:4:8:484 (H:m:s:ms)","GENERIC","62.037","0.01179247641507076","515"
"21:24:2:424 (H:m:s:ms)","GENERIC","62.077","0.01800737018788598","575"
"21:4:12:631 (H:m:s:ms)","AMBULANCE","31.021","0.014453005438145764","412"
"21:24:3:37 (H:m:s:ms)","OPERA","62.011","0.028776390010930485","962"
"21:4:14:545 (H:m:s:ms)","GENERIC","62.107","0.0396953393746429","455"
"21:24:8:484 (H:m:s:ms)","GENERIC","62.019","0.03369671389095422","515"
"21:4:20:606 (H:m:s:ms)","GENERIC","62.057","0.016909791337680703","393"
"21:24:10:632 (H:m:s:ms)","OPERA","62.013","0.026628860548194064","368"
"21:4:26:666 (H:m:s:ms)","GENERIC","62.119","0.014396888836247382","334"
"21:24:14:545 (H:m:s:ms)","GENERIC","62.137","0.050798658185157","455"
"21:4:32:727 (H:m:s:ms)","GENERIC","62.071","0.014382607914798996","272"
"21:4:38:787 (H:m:s:ms)","GENERIC","62.049","0.02213702489044667","212"
"21:37:53:684 (H:m:s:ms)","AMBULANCE","31.028","0.05289094033934422","333"
"21:37:52:727 (H:m:s:ms)","GENERIC","62.125","0.01701135193553283","272"
"21:37:46:666 (H:m:s:ms)","GENERIC","62.027","0.025194555463433056","334"
"21:37:40:606 (H:m:s:ms)","GENERIC","62.043","0.006781423726344864","393"
"21:37:34:545 (H:m:s:ms)","GENERIC","62.141","0.02174628921435142","455"
"21:37:28:484 (H:m:s:ms)","GENERIC","62.103","0.020141224745292008","515"
"21:24:18:227 (H:m:s:ms)","OPERA","62.011","0.051909059612892466","772"
"21:24:20:606 (H:m:s:ms)","GENERIC","62.099","0.02174735748023262","393"
"21:37:22:424 (H:m:s:ms)","GENERIC","62.077","0.025529470508553306","576"
"21:4:44:210 (H:m:s:ms)","AMBULANCE","31.047","0.025025813119937852","834"
"21:24:25:822 (H:m:s:ms)","OPERA","62.013","0.02800555162488838","177"
"21:37:16:363 (H:m:s:ms)","GENERIC","62.107","0.008725417500395969","636"
"21:4:44:848 (H:m:s:ms)","GENERIC","62.081","0.03205949991338393","196"
"21:24:26:666 (H:m:s:ms)","GENERIC","62.077","0.024408537701125103","334"
"21:37:10:303 (H:m:s:ms)","GENERIC","62.067","0.02527285937769671","696"
"21:4:50:909 (H:m:s:ms)","GENERIC","62.101","0.05002518891847441","1090"
"21:24:32:727 (H:m:s:ms)","GENERIC","62.091","0.025221243250702623","272"
"21:37:4:242 (H:m:s:ms)","GENERIC","62.077","0.006839484584580648","757"
"21:4:56:969 (H:m:s:ms)","GENERIC","62.065","0.01622508028597075","1030"
"21:24:33:417 (H:m:s:ms)","OPERA","62.013","0.029027017601366886","582"
"21:36:58:181 (H:m:s:ms)","GENERIC","62.021","0.026516504294495594","818"
"21:5:3:30 (H:m:s:ms)","GENERIC","62.093","0.007495711935464409","969"
"21:24:38:787 (H:m:s:ms)","GENERIC","62.047","0.02535958618593294","213"
"21:5:9:90 (H:m:s:ms)","GENERIC","62.057","0.007612201778690443","948"
"21:24:41:12 (H:m:s:ms)","OPERA","62.011","0.03367826454128184","987"
"21:5:15:151 (H:m:s:ms)","GENERIC","62.039","0.040388736053508824","848"
"21:24:44:848 (H:m:s:ms)","GENERIC","62.091","0.0332482720239952","152"
"21:5:15:789 (H:m:s:ms)","AMBULANCE","31.027","0.042672113067767754","211"
"21:24:48:607 (H:m:s:ms)","OPERA","62.013","0.0301892592487563","392"
"21:5:21:212 (H:m:s:ms)","GENERIC","62.053","0.03756880739731038","787"
"21:5:27:272 (H:m:s:ms)","GENERIC","62.063","0.017104697518110727","727"
"21:38:53:333 (H:m:s:ms)","GENERIC","62.065","0.016945467628681876","666"
"21:38:47:272 (H:m:s:ms)","GENERIC","62.095","0.012641597437035343","728"
"21:38:41:212 (H:m:s:ms)","GENERIC","62.145","0.022004174001070523","787"
"21:38:35:151 (H:m:s:ms)","GENERIC","62.143","0.01896239615555299","848"
"21:38:29:90 (H:m:s:ms)","GENERIC","62.101","0.016620493655339783","944"
"21:38:25:263 (H:m:s:ms)","AMBULANCE","31.016","0.04004511645999716","785"
"21:38:23:30 (H:m:s:ms)","GENERIC","62.083","0.0375922227030571","969"
"21:24:50:909 (H:m:s:ms)","GENERIC","62.139","0.028030641932375457","1090"
"21:24:56:202 (H:m:s:ms)","OPERA","62.011","0.0220147068412559","797"
"21:5:33:333 (H:m:s:ms)","GENERIC","62.041","0.025172415836211364","666"
"21:24:56:969 (H:m:s:ms)","GENERIC","62.083","0.019741072504384338","1031"
"21:5:39:393 (H:m:s:ms)","GENERIC","62.069","0.01693299326026662","645"
"21:25:3:30 (H:m:s:ms)","GENERIC","62.117","0.03322772385603712","970"
"21:38:16:969 (H:m:s:ms)","GENERIC","62.117","0.030078661837265982","1164"
"20:45:51:515 (H:m:s:ms)","GENERIC","62.051","0.029044806085866983","484"
"21:5:45:454 (H:m:s:ms)","GENERIC","31.018","0.021794937258993393","614"
"21:25:3:797 (H:m:s:ms)","OPERA","62.011","0.0424129854494458","203"
"21:38:10:909 (H:m:s:ms)","GENERIC","62.095","0.020141224745292008","1090"
"20:45:56:962 (H:m:s:ms)","OPERA","31.008","0.014309210147860737","1038"
"21:5:47:368 (H:m:s:ms)","AMBULANCE","31.022","0.02584101697059007","633"
"21:25:9:90 (H:m:s:ms)","GENERIC","62.091","0.014346181882024188","944"
"21:38:4:848 (H:m:s:ms)","GENERIC","62.087","0.03031342263226667","152"
"20:45:57:575 (H:m:s:ms)","GENERIC","62.047","0.015849791604504226","425"
"21:5:51:515 (H:m:s:ms)","GENERIC","62.037","0.03311352364536495","484"
"21:25:11:392 (H:m:s:ms)","OPERA","62.011","0.030099799878535886","705"
"21:37:58:787 (H:m:s:ms)","GENERIC","62.031","0.05397122731383422","212"
"20:46:3:636 (H:m:s:ms)","GENERIC","62.135","0.033418259160995736","363"
"21:5:57:575 (H:m:s:ms)","GENERIC","62.045","0.01877463864400644","424"
"21:25:15:151 (H:m:s:ms)","GENERIC","62.021","0.03670792467122524","848"
"20:46:4:556 (H:m:s:ms)","OPERA","31.007","0.03431057604575822","443"
"21:6:3:636 (H:m:s:ms)","GENERIC","62.123","0.01261062162535131","363"
"21:25:18:987 (H:m:s:ms)","OPERA","62.011","0.02961395281552884","1046"
"20:46:9:696 (H:m:s:ms)","GENERIC","62.075","0.051565250690240726","340"
"21:6:9:696 (H:m:s:ms)","GENERIC","62.091","0.010214708893442722","343"
"21:25:21:212 (H:m:s:ms)","GENERIC","62.071","0.02938861691365591","787"
"20:46:12:151 (H:m:s:ms)","OPERA","31.007","0.052829116167842326","849"
"21:6:15:757 (H:m:s:ms)","GENERIC","62.079","0.025138122598082742","243"
"20:46:15:757 (H:m:s:ms)","GENERIC","62.063","0.020300551539696694","242"
"21:6:18:947 (H:m:s:ms)","AMBULANCE","31.064","0.031901000803967274","1091"
"20:46:19:746 (H:m:s:ms)","OPERA","31.007","0.024635928889742916","289"
"20:46:21:818 (H:m:s:ms)","GENERIC","62.095","0.04236811161274912","181"
"21:39:53:939 (H:m:s:ms)","GENERIC","62.097","0.030123711865056014","1061"
"21:39:47:878 (H:m:s:ms)","GENERIC","62.173","0.05002162162263222","1121"
"21:39:41:818 (H:m:s:ms)","GENERIC","62.111","0.027534271275531562","181"
"21:39:35:757 (H:m:s:ms)","GENERIC","62.065","0.009049011310310617","242"
"21:39:29:696 (H:m:s:ms)","GENERIC","62.133","0.025294127765319075","339"
"21:39:23:636 (H:m:s:ms)","GENERIC","62.089","0.015000430434595528","363"
"21:39:17:575 (H:m:s:ms)","GENERIC","62.117","0.05024937810560471","425"
"21:39:11:515 (H:m:s:ms)","GENERIC","62.071","0.020271010642105024","485"
"21:25:26:582 (H:m:s:ms)","OPERA","62.011","0.03074984422003575","417"
"21:25:27:272 (H:m:s:ms)","GENERIC","62.037","0.027863214534724602","728"
"21:6:21:818 (H:m:s:ms)","GENERIC","62.065","0.02380957989344909","182"
"21:25:33:333 (H:m:s:ms)","GENERIC","62.049","0.01284135970336251","666"
"21:6:27:878 (H:m:s:ms)","GENERIC","62.033","0.0500244081049443","1121"
"21:25:34:177 (H:m:s:ms)","OPERA","62.013","0.0155581360029409","822"
"20:46:27:341 (H:m:s:ms)","OPERA","31.008","0.01397542485937373","658"
"21:6:33:939 (H:m:s:ms)","GENERIC","62.155","0.01981347259177775","1060"
"21:25:39:393 (H:m:s:ms)","GENERIC","62.043","0.024860334848350565","640"
"20:46:27:878 (H:m:s:ms)","GENERIC","62.063","0.029254772406271085","1122"
"21:6:40:0 (H:m:s:ms)","GENERIC","62.081","0.018962396155552983","1038"
"21:25:41:772 (H:m:s:ms)","OPERA","31.008","0.05520906261655027","227"
"21:39:5:454 (H:m:s:ms)","GENERIC","62.055","0.007263037250511896","546"
"20:46:33:939 (H:m:s:ms)","GENERIC","62.181","0.025128940683360686","1061"
"21:6:46:60 (H:m:s:ms)","GENERIC","62.077","0.03005504591784811","940"
"21:25:45:454 (H:m:s:ms)","GENERIC","62.033","0.05258312739281852","546"
"21:38:59:393 (H:m:s:ms)","GENERIC","62.035","0.015817554510509025","641"
"20:46:34:936 (H:m:s:ms)","OPERA","31.008","0.028720835895408674","64"
"21:6:50:526 (H:m:s:ms)","AMBULANCE","31.051","0.031295880809026344","474"
"21:25:49:367 (H:m:s:ms)","OPERA","62.011","0.018206577462077104","665"
"21:38:56:842 (H:m:s:ms)","AMBULANCE","31.012","0.02214787595014583","166"
"20:46:40:0 (H:m:s:ms)","GENERIC","62.053","0.01622508028597075","1037"
"21:6:52:121 (H:m:s:ms)","GENERIC","62.113","0.018903862578964304","879"
"21:25:51:515 (H:m:s:ms)","GENERIC","62.081","0.03135150537320083","484"
"20:46:42:531 (H:m:s:ms)","OPERA","31.007","0.031019939445944087","468"
"21:6:58:181 (H:m:s:ms)","GENERIC","62.037","0.007189733692275753","818"
"21:25:56:962 (H:m:s:ms)","OPERA","62.011","0.01976423537605242","1038"
"20:46:46:60 (H:m:s:ms)","GENERIC","62.081","0.056740479842900815","939"
"21:7:4:242 (H:m:s:ms)","GENERIC","62.081","0.012636429688848354","757"
"20:46:50:126 (H:m:s:ms)","OPERA","31.007","0.051004051413251816","874"
"21:7:10:303 (H:m:s:ms)","GENERIC","62.037","0.010340464581257123","696"
"20:46:52:121 (H:m:s:ms)","GENERIC","62.099","0.021863977064630728","878"
"20:46:57:721 (H:m:s:ms)","OPERA","31.008","0.030085522047275947","278"
"21:40:0:0 (H:m:s:ms)","GENERIC","62.079","0.038436561864107065","1529"
"21:40:48:484 (H:m:s:ms)","GENERIC","62.017","0.0073285645097512075","515"
"21:40:42:424 (H:m:s:ms)","GENERIC","62.045","0.013124404748406739","576"
"21:40:36:363 (H:m:s:ms)","GENERIC","62.065","0.02517241583621141","637"
"21:40:30:303 (H:m:s:ms)","GENERIC","62.113","0.025013003902049826","696"
"21:40:24:242 (H:m:s:ms)","GENERIC","62.145","0.006461420092388354","758"
"21:40:18:181 (H:m:s:ms)","GENERIC","62.035","0.025657046277166088","818"
"21:40:12:121 (H:m:s:ms)","GENERIC","62.083","0.006781423726344872","878"
"21:40:6:60 (H:m:s:ms)","GENERIC","62.071","0.05002162162263222","940"
"21:7:16:363 (H:m:s:ms)","GENERIC","62.099","0.025014858842322282","636"
"21:7:22:105 (H:m:s:ms)","AMBULANCE","31.036","0.016820911599374672","937"
"20:46:58:181 (H:m:s:ms)","GENERIC","31.022","0.033601423355588717","860"
"21:7:22:424 (H:m:s:ms)","GENERIC","62.103","0.030073757201612365","619"
"20:47:4:242 (H:m:s:ms)","GENERIC","62.063","0.012804922857351271","758"
"21:7:28:484 (H:m:s:ms)","GENERIC","62.095","0.03808798294008816","516"
"20:47:5:316 (H:m:s:ms)","OPERA","31.008","0.018908561925624234","683"
"21:7:34:545 (H:m:s:ms)","GENERIC","62.195","0.014758016593631056","454"
"20:47:10:303 (H:m:s:ms)","GENERIC","62.039","0.02911506529197165","696"
"21:7:40:606 (H:m:s:ms)","GENERIC","62.077","0.012774005157202421","394"
"21:40:0:0 (H:m:s:ms)","GENERIC","31.035","0.029281771621938787","1528"
"20:47:12:911 (H:m:s:ms)","OPERA","31.008","0.03678629148313211","88"
"21:7:46:666 (H:m:s:ms)","GENERIC","62.025","0.018954644533272526","333"
"21:40:0:0 (H:m:s:ms)","AMBULANCE","31.017","0.02002065049595025","1528"
"20:47:16:363 (H:m:s:ms)","GENERIC","62.129","0.03222733688035761","637"
"21:7:52:727 (H:m:s:ms)","GENERIC","62.131","0.00897527467855751","272"
"20:47:20:506 (H:m:s:ms)","OPERA","31.007","0.023083055358496262","493"
"21:7:53:684 (H:m:s:ms)","AMBULANCE","31.07","0.01658088792858449","316"
"20:47:22:424 (H:m:s:ms)","GENERIC","62.115","0.05196830860383223","575"
"21:7:58:787 (H:m:s:ms)","GENERIC","62.035","0.028932672372530978","213"
"20:47:28:101 (H:m:s:ms)","OPERA","31.007","0.01397542485937373","899"
"20:47:28:484 (H:m:s:ms)","GENERIC","62.075","0.025029208927837117","516"
"21:8:4:848 (H:m:s:ms)","GENERIC","62.133","0.014166666666666683","152"
"21:8:10:909 (H:m:s:ms)","GENERIC","62.089","0.02003539951086803","1090"
"20:47:34:545 (H:m:s:ms)","GENERIC","62.157","0.04802343178074637","454"
"21:8:16:969 (H:m:s:ms)","GENERIC","62.133","0.025055493963954862","1030"
"20:47:35:696 (H:m:s:ms)","OPERA","31.007","0.048786627781096485","303"
"21:8:23:30 (H:m:s:ms)","GENERIC","62.057","0.008663861725581739","969"
"20:47:40:606 (H:m:s:ms)","GENERIC","62.045","0.010840169718554197","393"
"21:8:25:263 (H:m:s:ms)","AMBULANCE","31.029","0.012331917787997694","738"
"20:47:43:291 (H:m:s:ms)","OPERA","31.007","0.015318018131120882","708"
"21:8:29:90 (H:m:s:ms)","GENERIC","62.097","0.011696707508111996","947"
"20:47:46:666 (H:m:s:ms)","GENERIC","62.035","0.02371781812700647","333"
"21:8:35:151 (H:m:s:ms)","GENERIC","62.127","0.02505549396395498","848"
"20:47:50:886 (H:m:s:ms)","OPERA","31.007","0.03206264696717357","114"
"21:8:41:212 (H:m:s:ms)","GENERIC","62.099","0.025449474198133284","787"
"21:40:54:545 (H:m:s:ms)","GENERIC","62.065","0.017677669529663757","455"
"20:47:52:727 (H:m:s:ms)","GENERIC","62.099","0.03081530647944526","272"
"21:8:47:272 (H:m:s:ms)","GENERIC","62.087","0.05002777006601238","727"
"20:47:58:481 (H:m:s:ms)","OPERA","31.008","0.02253469547164999","518"
"21:8:53:333 (H:m:s:ms)","GENERIC","62.033","0.016909791337680703","666"
"20:47:58:787 (H:m:s:ms)","GENERIC","62.019","0.05479820419241959","213"
"20:48:4:848 (H:m:s:ms)","GENERIC","62.115","0.025873624493766734","151"
"21:8:56:842 (H:m:s:ms)","AMBULANCE","31.042","0.030701484465286817","252"
"21:8:59:393 (H:m:s:ms)","GENERIC","62.019","0.036357370690809514","644"
"20:48:6:75 (H:m:s:ms)","OPERA","31.008","0.03247983418521488","925"
"21:9:5:454 (H:m:s:ms)","GENERIC","31.032","0.021589554910317704","545"
"20:48:10:909 (H:m:s:ms)","GENERIC","62.107","0.03876495078681131","1090"
"21:9:11:515 (H:m:s:ms)","GENERIC","62.091","0.012636429688848354","485"
"20:30:0:0 (H:m:s:ms)","GENERIC","62.057","0.02258769757263134","1033"
"20:48:13:670 (H:m:s:ms)","OPERA","31.008","0.036187051715343664","329"
"21:9:17:575 (H:m:s:ms)","GENERIC","62.125","0.038654115240165716","424"
"20:30:0:0 (H:m:s:ms)","GENERIC","62.077","0.039485387955076216","1034"
"20:48:16:969 (H:m:s:ms)","GENERIC","62.131","0.028597445617890956","1030"
"21:9:23:636 (H:m:s:ms)","GENERIC","62.089","0.02019197982820698","363"
"20:30:6:60 (H:m:s:ms)","GENERIC","62.133","0.01701135193553283","939"
"20:48:21:265 (H:m:s:ms)","OPERA","31.008","0.028597445617890956","734"
"21:9:28:421 (H:m:s:ms)","AMBULANCE","31.025","0.021834492208137306","612"
"20:30:12:121 (H:m:s:ms)","GENERIC","62.107","0.018933771619945017","878"
"20:48:23:30 (H:m:s:ms)","GENERIC","62.039","0.02880455801705161","969"
"21:9:29:696 (H:m:s:ms)","GENERIC","62.087","0.027435847174817254","339"
"20:30:18:181 (H:m:s:ms)","GENERIC","62.091","0.025567537612993563","818"
"20:48:28:860 (H:m:s:ms)","OPERA","31.007","0.026433835463917862","139"
"21:9:35:757 (H:m:s:ms)","GENERIC","62.085","0.014758016593631046","242"
"20:30:24:242 (H:m:s:ms)","GENERIC","62.103","0.012607039684649218","757"
"20:48:29:90 (H:m:s:ms)","GENERIC","62.057","0.011046649819232226","948"
"21:9:41:818 (H:m:s:ms)","GENERIC","62.087","0.025294127765319183","181"
"20:30:30:303 (H:m:s:ms)","GENERIC","62.109","0.025159689345461603","696"
"20:48:35:151 (H:m:s:ms)","GENERIC","62.109","0.02501388503300619","848"
"20:30:36:363 (H:m:s:ms)","GENERIC","62.115","0.025682719406725067","636"
"20:48:36:455 (H:m:s:ms)","OPERA","31.008","0.028848099911344165","545"
"20:30:42:424 (H:m:s:ms)","GENERIC","62.061","0.01386542462386209","576"
"20:30:48:484 (H:m:s:ms)","GENERIC","62.069","0.007554281553297094","515"
"21:9:47:878 (H:m:s:ms)","GENERIC","62.127","0.05002162162263222","1121"
"21:9:53:939 (H:m:s:ms)","GENERIC","62.085","0.0253448438762427","1061"
"20:48:41:212 (H:m:s:ms)","GENERIC","62.121","0.029224939201786548","787"
"21:10:0:0 (H:m:s:ms)","AMBULANCE","31.056","0.007931646398081084","1039"
"20:48:44:50 (H:m:s:ms)","OPERA","31.007","0.033933025057923956","950"
"21:10:0:0 (H:m:s:ms)","GENERIC","62.043","0.012813723887109975","1039"
"20:30:54:545 (H:m:s:ms)","GENERIC","62.077","0.017677669529663757","454"
"20:48:47:272 (H:m:s:ms)","GENERIC","62.087","0.025883755314654637","728"
"21:10:0:0 (H:m:s:ms)","GENERIC","62.083","0.033140330371663494","1039"
"20:31:0:606 (H:m:s:ms)","GENERIC","62.075","0.006303519842324609","394"
"20:48:51:645 (H:m:s:ms)","OPERA","31.008","0.02587201942215409","354"
"21:10:6:60 (H:m:s:ms)","GENERIC","62.091","0.03346283954093337","939"
"20:31:6:666 (H:m:s:ms)","GENERIC","62.057","0.02213702489044667","333"
"20:48:53:333 (H:m:s:ms)","GENERIC","62.029","0.028289194313052973","667"
"21:10:12:121 (H:m:s:ms)","GENERIC","62.069","0.006781423726344872","878"
"20:31:12:727 (H:m:s:ms)","GENERIC","62.057","0.00878410461157885","272"
"20:48:59:393 (H:m:s:ms)","GENERIC","62.049","0.008003905296791082","645"
"21:10:18:181 (H:m:s:ms)","GENERIC","62.063","0.025657046277166088","819"
"20:31:18:787 (H:m:s:ms)","GENERIC","62.183","0.017019647005702125","212"
"20:49:5:454 (H:m:s:ms)","GENERIC","62.027","0.03801726581436397","546"
"21:10:24:242 (H:m:s:ms)","GENERIC","62.131","0.01891055952697382","757"
"20:31:24:848 (H:m:s:ms)","GENERIC","62.161","0.03905124837953325","152"
"20:49:6:835 (H:m:s:ms)","OPERA","31.008","0.04186067687991009","164"
"21:10:30:303 (H:m:s:ms)","GENERIC","62.133","0.02505197510807925","697"
"20:31:30:909 (H:m:s:ms)","GENERIC","62.067","0.025031230493126017","1090"
"20:49:11:515 (H:m:s:ms)","GENERIC","62.093","0.021784093521797332","485"
"20:31:36:969 (H:m:s:ms)","GENERIC","62.057","0.010114132889865849","1030"
"20:49:14:430 (H:m:s:ms)","OPERA","31.008","0.019154685422326297","569"
"20:31:43:30 (H:m:s:ms)","GENERIC","62.103","0.03560001560548975","969"
"20:31:49:90 (H:m:s:ms)","GENERIC","62.061","0.020833333333333353","942"
"20:49:17:575 (H:m:s:ms)","GENERIC","62.105","0.05194480073767768","424"
"20:49:22:25 (H:m:s:ms)","OPERA","31.008","0.05186205927603169","974"
"20:31:55:151 (H:m:s:ms)","GENERIC","62.097","0.018856364973133147","848"
"20:49:23:636 (H:m:s:ms)","GENERIC","62.093","0.020786191073334757","363"
"20:32:1:212 (H:m:s:ms)","GENERIC","62.039","0.0375578257860833","787"
"20:49:29:620 (H:m:s:ms)","OPERA","31.007","0.021569201076827374","418"
"20:32:7:272 (H:m:s:ms)","GENERIC","62.095","0.020266575873421157","727"
"20:49:29:696 (H:m:s:ms)","GENERIC","62.111","0.033035702283040896","342"
"20:32:13:333 (H:m:s:ms)","GENERIC","62.049","0.016820911599374672","667"
"20:49:35:757 (H:m:s:ms)","GENERIC","62.063","0.009049011310310617","242"
"20:32:19:393 (H:m:s:ms)","GENERIC","62.043","0.02501220405247216","639"
"20:49:37:215 (H:m:s:ms)","OPERA","31.007","0.024241558443834757","785"
"20:32:25:454 (H:m:s:ms)","GENERIC","62.047","0.007269563854734635","545"
"20:49:41:818 (H:m:s:ms)","GENERIC","62.099","0.044330589263007585","181"
"20:32:31:515 (H:m:s:ms)","GENERIC","62.047","0.020203050891044197","484"
"20:49:44:810 (H:m:s:ms)","OPERA","31.008","0.04435170218703138","189"
"20:32:37:575 (H:m:s:ms)","GENERIC","62.099","0.050008263779909364","424"
"20:49:47:878 (H:m:s:ms)","GENERIC","62.127","0.031432168773915026","1121"
"20:32:43:636 (H:m:s:ms)","GENERIC","62.051","0.037520827549509146","363"
"20:32:49:696 (H:m:s:ms)","GENERIC","62.071","0.021569201076827374","336"
"20:49:52:405 (H:m:s:ms)","OPERA","31.008","0.023683771936088095","595"
"20:49:53:939 (H:m:s:ms)","GENERIC","62.097","0.026807723403138528","1060"
"20:32:55:757 (H:m:s:ms)","GENERIC","62.111","0.03757796266211884","243"
"20:50:0:0 (H:m:s:ms)","OPERA","31.007","0.01397542485937373","1039"
"20:33:1:818 (H:m:s:ms)","GENERIC","62.065","0.01006922885856186","181"
"20:50:0:0 (H:m:s:ms)","GENERIC","62.049","0.028634736793175308","1039"
"20:33:7:878 (H:m:s:ms)","GENERIC","62.127","0.01261062162535131","1121"
"20:50:0:0 (H:m:s:ms)","GENERIC","62.099","0.0395304262270343","1039"
"20:33:13:939 (H:m:s:ms)","GENERIC","62.085","0.03004626062886662","1061"
"20:50:6:60 (H:m:s:ms)","GENERIC","62.123","0.020266575873421157","939"
"20:33:20:0 (H:m:s:ms)","GENERIC","62.061","0.050233585491604726","1033"
"20:50:12:121 (H:m:s:ms)","GENERIC","62.083","0.01877050791876642","878"
"20:33:26:60 (H:m:s:ms)","GENERIC","62.057","0.014526074501023792","939"
"20:50:18:181 (H:m:s:ms)","GENERIC","62.089","0.00990673629588886","818"
"20:33:32:121 (H:m:s:ms)","GENERIC","62.103","0.05018333734357229","879"
"20:50:24:242 (H:m:s:ms)","GENERIC","62.115","0.01891055952697382","757"
"20:33:38:181 (H:m:s:ms)","GENERIC","62.139","0.020016252501503726","818"
"20:50:30:303 (H:m:s:ms)","GENERIC","62.115","0.03757796266211884","696"
"20:33:44:242 (H:m:s:ms)","GENERIC","62.131","0.010879675865519873","758"
"20:33:50:303 (H:m:s:ms)","GENERIC","62.137","0.02506602850720407","696"
"20:50:36:363 (H:m:s:ms)","GENERIC","62.099","0.015300479446091827","636"
"20:50:42:424 (H:m:s:ms)","GENERIC","62.065","0.006562202374203369","575"
"20:33:56:363 (H:m:s:ms)","GENERIC","62.037","0.014577379737113275","637"
"20:50:48:484 (H:m:s:ms)","GENERIC","62.107","0.010770329614269021","515"
"20:34:2:424 (H:m:s:ms)","GENERIC","62.091","0.012774005157202433","575"
"20:50:54:545 (H:m:s:ms)","GENERIC","62.063","0.008663861725581739","455"
"20:10:0:0 (H:m:s:ms)","GENERIC","31.028","0.02258769757263134","1000"
"20:34:8:484 (H:m:s:ms)","GENERIC","62.099","0.010214708893442722","515"
"20:51:0:606 (H:m:s:ms)","GENERIC","62.097","0.016702073292197275","394"
"20:10:0:0 (H:m:s:ms)","GENERIC","62.061","0.03802324211019106","1037"
"20:34:14:545 (H:m:s:ms)","GENERIC","62.115","0.012527746981977436","455"
"20:51:6:666 (H:m:s:ms)","GENERIC","62.049","0.022991914185509565","333"
"20:10:6:60 (H:m:s:ms)","GENERIC","62.147","0.05019425931140006","939"
"20:34:20:606 (H:m:s:ms)","GENERIC","62.041","0.03345555822904825","393"
"20:51:12:727 (H:m:s:ms)","GENERIC","62.035","0.025086655372483998","272"
"20:10:12:121 (H:m:s:ms)","GENERIC","62.097","0.012622514413296693","879"
"20:34:26:666 (H:m:s:ms)","GENERIC","62.081","0.008928571428571438","333"
"20:51:18:787 (H:m:s:ms)","GENERIC","62.171","0.021508440872145883","212"
"20:10:18:181 (H:m:s:ms)","GENERIC","62.071","0.02525381361380534","818"
"20:34:32:727 (H:m:s:ms)","GENERIC","62.093","0.03808798294008816","272"
"20:51:24:848 (H:m:s:ms)","GENERIC","62.127","0.04802343178074638","152"
"20:10:24:242 (H:m:s:ms)","GENERIC","62.077","0.018767907779040815","757"
"20:34:38:787 (H:m:s:ms)","GENERIC","62.047","0.030066592756745725","212"
"20:51:30:909 (H:m:s:ms)","GENERIC","62.035","0.008426561840065294","1090"
"20:10:30:303 (H:m:s:ms)","GENERIC","62.119","0.03753467006403315","696"
"20:34:44:848 (H:m:s:ms)","GENERIC","62.025","0.01071414482860319","151"
"20:10:36:363 (H:m:s:ms)","GENERIC","62.125","0.05034483167242282","636"
"20:34:50:909 (H:m:s:ms)","GENERIC","62.101","0.016742081833118254","1090"
"20:10:42:424 (H:m:s:ms)","GENERIC","62.069","0.01386542462386209","576"
"20:10:48:484 (H:m:s:ms)","GENERIC","62.055","0.021444242487716172","515"
"20:51:36:969 (H:m:s:ms)","GENERIC","62.071","0.008462096324329458","1031"
"20:51:43:30 (H:m:s:ms)","GENERIC","62.099","0.020833333333333353","969"
"20:34:56:969 (H:m:s:ms)","GENERIC","62.037","0.01884836133068531","1030"
"20:51:49:90 (H:m:s:ms)","GENERIC","62.079","0.050173310744967954","947"
"20:35:3:30 (H:m:s:ms)","GENERIC","62.081","0.02154875780005864","969"
"20:51:55:151 (H:m:s:ms)","GENERIC","62.121","0.03527388844153244","848"
"20:10:54:545 (H:m:s:ms)","GENERIC","62.053","0.013562847452689732","455"
"20:35:9:90 (H:m:s:ms)","GENERIC","62.035","0.008431375921773038","982"
"20:52:1:212 (H:m:s:ms)","GENERIC","62.033","0.025086655372484015","787"
"20:11:0:606 (H:m:s:ms)","GENERIC","62.103","0.016702073292197275","394"
"20:35:15:151 (H:m:s:ms)","GENERIC","62.041","0.012862065792689156","848"
"20:52:7:272 (H:m:s:ms)","GENERIC","62.069","0.05019425931140006","727"
"20:11:6:666 (H:m:s:ms)","GENERIC","62.041","0.007663971395169821","333"
"20:35:21:212 (H:m:s:ms)","GENERIC","62.051","0.012551546610440098","787"
"20:52:13:333 (H:m:s:ms)","GENERIC","62.077","0.025317977802344405","667"
"20:11:12:727 (H:m:s:ms)","GENERIC","62.031","0.0382449161472622","272"
"20:35:27:272 (H:m:s:ms)","GENERIC","62.053","0.00917809042517717","728"
"20:52:19:393 (H:m:s:ms)","GENERIC","62.065","0.02501220405247216","645"
"20:11:18:787 (H:m:s:ms)","GENERIC","62.161","0.014405241682605267","212"
"20:35:33:333 (H:m:s:ms)","GENERIC","62.087","0.03775862375431702","666"
"20:52:25:454 (H:m:s:ms)","GENERIC","62.037","0.033426951866886045","545"
"20:11:24:848 (H:m:s:ms)","GENERIC","62.147","0.0208333333333334","152"
"20:35:39:393 (H:m:s:ms)","GENERIC","62.065","0.012622514413296681","639"
"20:52:31:515 (H:m:s:ms)","GENERIC","62.035","0.007269563854734637","484"
"20:11:30:909 (H:m:s:ms)","GENERIC","62.115","0.025031230493126017","1091"
"20:35:45:454 (H:m:s:ms)","GENERIC","62.083","0.02006446879843239","546"
"20:11:36:969 (H:m:s:ms)","GENERIC","62.039","0.010114132889865849","1030"
"20:35:51:515 (H:m:s:ms)","GENERIC","62.069","0.010041237288352078","484"
"20:11:43:30 (H:m:s:ms)","GENERIC","62.115","0.051538820320220814","969"
"20:11:49:90 (H:m:s:ms)","GENERIC","62.093","0.051538820320220814","946"
"20:0:54:545 (H:m:s:ms)","GENERIC","31.019","0.014784345430423897","456"
"20:1:0:606 (H:m:s:ms)","GENERIC","31.062","0.02509433995785915","393"
"20:1:6:666 (H:m:s:ms)","GENERIC","31.026","0.021607862523907985","333"
"20:1:12:727 (H:m:s:ms)","GENERIC","31.013","0.05004163198056842","273"
"20:1:18:787 (H:m:s:ms)","GENERIC","31.076","0.016755608893233624","213"
"20:1:24:848 (H:m:s:ms)","GENERIC","31.069","0.025086655372484022","152"
"20:1:30:909 (H:m:s:ms)","GENERIC","31.069","0.009138213416442217","1090"
"20:1:36:969 (H:m:s:ms)","GENERIC","31.028","0.025172415836211364","1031"
"20:1:43:30 (H:m:s:ms)","GENERIC","31.064","0.034359213546813865","970"
"20:1:49:90 (H:m:s:ms)","GENERIC","31.057","0.05068968775248522","924"
"20:35:57:575 (H:m:s:ms)","GENERIC","62.043","0.012828523138583067","424"
"20:36:3:636 (H:m:s:ms)","GENERIC","62.153","0.01683587574253686","363"
"20:11:55:151 (H:m:s:ms)","GENERIC","62.081","0.027534271275531562","848"
"20:36:9:696 (H:m:s:ms)","GENERIC","62.095","0.03007225095961019","336"
"20:12:1:212 (H:m:s:ms)","GENERIC","62.035","0.02502169197805072","788"
"20:36:15:757 (H:m:s:ms)","GENERIC","62.071","0.037867543239890014","242"
"20:12:7:272 (H:m:s:ms)","GENERIC","62.117","0.05002162162263222","727"
"20:36:21:818 (H:m:s:ms)","GENERIC","62.115","0.050226245499354914","181"
"20:12:13:333 (H:m:s:ms)","GENERIC","62.025","0.016862751843546075","666"
"20:36:27:878 (H:m:s:ms)","GENERIC","62.079","0.025194555463433053","1121"
"20:12:19:393 (H:m:s:ms)","GENERIC","62.041","0.025048780534189782","646"
"20:36:33:939 (H:m:s:ms)","GENERIC","62.167","0.01929309868903375","1060"
"20:12:25:454 (H:m:s:ms)","GENERIC","62.049","0.007269563854734635","545"
"20:36:40:0 (H:m:s:ms)","GENERIC","62.063","0.014794408810809052","1035"
"20:12:31:515 (H:m:s:ms)","GENERIC","62.079","0.015971914124998484","485"
"20:36:46:60 (H:m:s:ms)","GENERIC","62.081","0.014370909466803429","939"
"20:12:37:575 (H:m:s:ms)","GENERIC","62.131","0.02166666666666667","424"
"20:36:52:121 (H:m:s:ms)","GENERIC","62.085","0.030082191934846354","878"
"20:12:43:636 (H:m:s:ms)","GENERIC","62.039","0.02527968552019591","363"
"20:12:49:696 (H:m:s:ms)","GENERIC","62.047","0.01976423537605242","347"
"20:1:55:151 (H:m:s:ms)","GENERIC","31.048","0.03923501108289085","849"
"20:2:1:212 (H:m:s:ms)","GENERIC","31.027","0.025086655372484015","788"
"20:2:7:272 (H:m:s:ms)","GENERIC","31.063","0.03346283954093337","727"
"20:2:13:333 (H:m:s:ms)","GENERIC","31.015","0.008637692614387429","666"
"20:2:19:393 (H:m:s:ms)","GENERIC","31.033","0.050006103143141634","620"
"20:2:25:454 (H:m:s:ms)","GENERIC","31.034","0.016853123680130613","545"
"20:2:31:515 (H:m:s:ms)","GENERIC","31.047","0.010307764064044166","484"
"20:2:37:575 (H:m:s:ms)","GENERIC","31.072","0.050008263779909364","424"
"20:2:43:636 (H:m:s:ms)","GENERIC","31.023","0.013050383136138212","363"
"20:2:49:696 (H:m:s:ms)","GENERIC","31.019","0.026516504294495594","319"
"20:36:58:181 (H:m:s:ms)","GENERIC","62.069","0.025165869862120063","942"
"20:37:4:242 (H:m:s:ms)","GENERIC","62.063","0.006318214844424177","758"
"20:12:55:757 (H:m:s:ms)","GENERIC","62.081","0.03750867052034721","242"
"20:37:10:303 (H:m:s:ms)","GENERIC","62.023","0.012636429688848354","696"
"20:13:1:818 (H:m:s:ms)","GENERIC","62.097","0.006320798718517668","181"
"20:37:16:363 (H:m:s:ms)","GENERIC","62.145","0.025133413339850457","636"
"20:13:7:878 (H:m:s:ms)","GENERIC","62.093","0.016755608893233635","1121"
"20:37:22:424 (H:m:s:ms)","GENERIC","62.103","0.025236691669490545","575"
"20:13:13:939 (H:m:s:ms)","GENERIC","62.085","0.02505197510807918","1061"
"20:37:28:484 (H:m:s:ms)","GENERIC","62.069","0.05068968775248522","515"
"20:13:20:0 (H:m:s:ms)","GENERIC","62.059","0.0073347246670235015","1035"
"20:37:34:545 (H:m:s:ms)","GENERIC","62.141","0.021508440872145883","454"
"20:13:26:60 (H:m:s:ms)","GENERIC","62.041","0.03751721368004365","939"
"20:37:40:606 (H:m:s:ms)","GENERIC","62.055","0.006491561454217428","394"
"20:13:32:121 (H:m:s:ms)","GENERIC","62.081","0.03345555822904819","879"
"20:37:46:666 (H:m:s:ms)","GENERIC","62.021","0.006839484584580651","333"
"20:13:38:181 (H:m:s:ms)","GENERIC","62.143","0.010032465509731605","818"
"20:37:52:727 (H:m:s:ms)","GENERIC","62.083","0.01914041272826384","272"
"20:13:44:242 (H:m:s:ms)","GENERIC","62.111","0.020316375219039853","757"
"20:13:50:303 (H:m:s:ms)","GENERIC","62.123","0.0333639315344826","696"
"20:2:55:757 (H:m:s:ms)","GENERIC","31.042","0.02505197510807925","242"
"20:3:1:818 (H:m:s:ms)","GENERIC","31.05","0.006320798718517668","181"
"20:3:7:878 (H:m:s:ms)","GENERIC","31.052","0.008377804446616817","121"
"20:3:13:939 (H:m:s:ms)","GENERIC","31.048","0.02083333333333336","1062"
"20:3:20:0 (H:m:s:ms)","GENERIC","31.03","0.029311835040976033","1000"
"20:3:26:60 (H:m:s:ms)","GENERIC","31.015","0.03345555822904825","940"
"20:3:32:121 (H:m:s:ms)","GENERIC","31.041","0.05002040400003315","878"
"20:3:38:181 (H:m:s:ms)","GENERIC","31.071","0.03001083744589534","818"
"20:3:44:242 (H:m:s:ms)","GENERIC","31.052","0.050008263779909364","759"
"20:3:50:303 (H:m:s:ms)","GENERIC","31.062","0.03360771426398837","696"
"20:37:58:787 (H:m:s:ms)","GENERIC","62.033","0.012747548783982003","212"
"20:38:4:848 (H:m:s:ms)","GENERIC","62.103","0.020467134427721443","152"
"20:13:56:363 (H:m:s:ms)","GENERIC","62.029","0.03801726581436397","636"
"20:38:10:909 (H:m:s:ms)","GENERIC","62.123","0.05007432492334698","1090"
"20:14:2:424 (H:m:s:ms)","GENERIC","62.089","0.012774005157202428","575"
"20:38:16:969 (H:m:s:ms)","GENERIC","62.135","0.012610621625351304","1030"
"20:14:8:484 (H:m:s:ms)","GENERIC","62.143","0.020429417786885444","515"
"20:38:23:30 (H:m:s:ms)","GENERIC","62.031","0.025567537612993605","970"
"20:14:14:545 (H:m:s:ms)","GENERIC","62.087","0.01261062162535131","455"
"20:38:29:90 (H:m:s:ms)","GENERIC","62.045","0.020837637296468536","944"
"20:14:20:606 (H:m:s:ms)","GENERIC","62.045","0.033395748867030214","393"
"20:38:35:151 (H:m:s:ms)","GENERIC","62.095","0.02512468905280236","848"
"20:14:26:666 (H:m:s:ms)","GENERIC","62.077","0.022088065851523328","334"
"20:38:41:212 (H:m:s:ms)","GENERIC","62.139","0.02270316439330403","787"
"20:14:32:727 (H:m:s:ms)","GENERIC","62.115","0.026925824035672546","273"
"20:38:47:272 (H:m:s:ms)","GENERIC","62.065","0.006860937833862698","729"
"20:14:38:787 (H:m:s:ms)","GENERIC","62.043","0.007663971395169821","212"
"20:38:53:333 (H:m:s:ms)","GENERIC","62.053","0.05001041124425666","667"
"20:14:44:848 (H:m:s:ms)","GENERIC","62.043","0.010081847821198739","151"
"20:14:50:909 (H:m:s:ms)","GENERIC","62.077","0.037583240945932295","1090"
"20:3:56:363 (H:m:s:ms)","GENERIC","31.023","0.006731456008918151","636"
"20:4:2:424 (H:m:s:ms)","GENERIC","31.049","0.010767174548145386","575"
"20:4:8:484 (H:m:s:ms)","GENERIC","31.07","0.030287969742310385","515"
"20:4:14:545 (H:m:s:ms)","GENERIC","31.057","0.03337110482798199","455"
"20:4:20:606 (H:m:s:ms)","GENERIC","31.031","0.03345555822904825","393"
"20:4:26:666 (H:m:s:ms)","GENERIC","31.047","0.01472537723434876","334"
"20:4:32:727 (H:m:s:ms)","GENERIC","31.064","0.018633899812498265","272"
"20:4:38:787 (H:m:s:ms)","GENERIC","31.025","0.016538623796964046","213"
"20:4:44:848 (H:m:s:ms)","GENERIC","31.031","0.01032349853292176","153"
"20:4:50:909 (H:m:s:ms)","GENERIC","31.037","0.03337110482798199","1091"
"20:38:59:393 (H:m:s:ms)","GENERIC","62.025","0.020194368026754422","639"
"20:39:5:454 (H:m:s:ms)","GENERIC","62.043","0.012884705080055231","546"
"20:14:56:969 (H:m:s:ms)","GENERIC","62.029","0.01622508028597075","1030"
"20:39:11:515 (H:m:s:ms)","GENERIC","62.107","0.0501477108092513","484"
"20:15:3:30 (H:m:s:ms)","GENERIC","62.097","0.014465369746717825","969"
"20:39:17:575 (H:m:s:ms)","GENERIC","62.085","0.026925824035672646","424"
"20:15:9:90 (H:m:s:ms)","GENERIC","62.029","0.007276635246385802","945"
"20:39:23:636 (H:m:s:ms)","GENERIC","62.089","0.013300795353090542","364"
"20:15:15:151 (H:m:s:ms)","GENERIC","62.045","0.012591492529238411","849"
"20:39:29:696 (H:m:s:ms)","GENERIC","62.129","0.014233079045624694","338"
"20:15:21:212 (H:m:s:ms)","GENERIC","62.075","0.012704931690339745","788"
"20:39:35:757 (H:m:s:ms)","GENERIC","62.047","0.00804598218293415","242"
"20:15:27:272 (H:m:s:ms)","GENERIC","62.051","0.017104697518110727","727"
"20:39:41:818 (H:m:s:ms)","GENERIC","62.099","0.01701135193553286","181"
"20:15:33:333 (H:m:s:ms)","GENERIC","62.101","0.03761516341890789","667"
"20:39:47:878 (H:m:s:ms)","GENERIC","62.133","0.05002162162263222","1121"
"20:15:39:393 (H:m:s:ms)","GENERIC","62.059","0.02222129045744104","642"
"20:39:53:939 (H:m:s:ms)","GENERIC","62.111","0.050118765012926565","1061"
"20:15:45:454 (H:m:s:ms)","GENERIC","62.041","0.013462912017836302","545"
"20:15:51:515 (H:m:s:ms)","GENERIC","62.073","0.02540986338067955","485"
"20:4:56:969 (H:m:s:ms)","GENERIC","31.011","0.006883567818882887","1031"
"20:5:3:30 (H:m:s:ms)","GENERIC","31.054","0.014465369746717825","970"
"20:5:9:90 (H:m:s:ms)","GENERIC","31.012","0.014603573847128118","931"
"20:5:15:151 (H:m:s:ms)","GENERIC","31.026","0.018993294512944958","849"
"20:5:21:212 (H:m:s:ms)","GENERIC","31.036","0.03765463983132027","788"
"20:5:27:272 (H:m:s:ms)","GENERIC","31.031","0.008269311898482023","727"
"20:5:33:333 (H:m:s:ms)","GENERIC","31.045","0.025043215244009466","667"
"20:5:39:393 (H:m:s:ms)","GENERIC","31.031","0.006781423726344864","629"
"20:5:45:454 (H:m:s:ms)","GENERIC","31.015","0.020194368026754422","546"
"20:5:51:515 (H:m:s:ms)","GENERIC","31.049","0.050118765012926565","484"
"20:15:57:575 (H:m:s:ms)","GENERIC","62.055","0.012774005157202428","424"
"20:16:3:636 (H:m:s:ms)","GENERIC","62.181","0.01683587574253686","363"
"20:16:9:696 (H:m:s:ms)","GENERIC","62.121","0.01179247641507076","339"
"20:16:15:757 (H:m:s:ms)","GENERIC","62.069","0.02156044080508921","242"
"20:16:21:818 (H:m:s:ms)","GENERIC","62.139","0.025113122749677457","182"
"20:16:27:878 (H:m:s:ms)","GENERIC","62.059","0.012884705080055231","1121"
"20:16:33:939 (H:m:s:ms)","GENERIC","62.137","0.025128940683360686","1061"
"20:16:40:0 (H:m:s:ms)","GENERIC","62.099","0.03761516341890796","1036"
"20:16:46:60 (H:m:s:ms)","GENERIC","62.089","0.021485462055059336","939"
"20:16:52:121 (H:m:s:ms)","GENERIC","62.071","0.030082191934846354","878"
"20:5:57:575 (H:m:s:ms)","GENERIC","31.032","0.006883567818882887","424"
"20:6:3:636 (H:m:s:ms)","GENERIC","31.082","0.03750925811642302","363"
"20:6:9:696 (H:m:s:ms)","GENERIC","31.059","0.05001417032761911","328"
"20:6:15:757 (H:m:s:ms)","GENERIC","31.031","0.050286170858317096","242"
"20:6:21:818 (H:m:s:ms)","GENERIC","31.078","0.0375092581164231","182"
"20:6:27:878 (H:m:s:ms)","GENERIC","31.025","0.025194555463433053","122"
"20:6:33:939 (H:m:s:ms)","GENERIC","31.067","0.050028719129306815","1061"
"20:6:40:0 (H:m:s:ms)","GENERIC","31.047","0.02177100302874622","1000"
"20:6:46:60 (H:m:s:ms)","GENERIC","31.049","0.021655237206491058","940"
"20:6:52:121 (H:m:s:ms)","GENERIC","31.031","0.025031230493126038","878"
"20:16:58:181 (H:m:s:ms)","GENERIC","62.073","0.02502702703491968","818"
"20:17:4:242 (H:m:s:ms)","GENERIC","62.089","0.012636429688848354","758"
"20:17:10:303 (H:m:s:ms)","GENERIC","62.039","0.02527285937769671","696"
"20:17:16:363 (H:m:s:ms)","GENERIC","62.137","0.025014858842322282","636"
"20:17:22:424 (H:m:s:ms)","GENERIC","62.075","0.030013770944034724","575"
"20:17:28:484 (H:m:s:ms)","GENERIC","62.071","0.020833333333333353","515"
"20:17:34:545 (H:m:s:ms)","GENERIC","62.139","0.014758016593631056","454"
"20:17:40:606 (H:m:s:ms)","GENERIC","62.059","0.012828523138583067","393"
"20:17:46:666 (H:m:s:ms)","GENERIC","62.029","0.006402461428675639","333"
"20:17:52:727 (H:m:s:ms)","GENERIC","62.075","0.012747548783981974","273"
"20:6:58:181 (H:m:s:ms)","GENERIC","31.036","0.02524220156522378","819"
"20:7:4:242 (H:m:s:ms)","GENERIC","31.049","0.006318214844424177","757"
"20:7:10:303 (H:m:s:ms)","GENERIC","31.023","0.02506849327903875","696"
"20:7:16:363 (H:m:s:ms)","GENERIC","31.063","0.025059382506463185","636"
"20:7:22:424 (H:m:s:ms)","GENERIC","31.036","0.050118765012926565","576"
"20:7:28:484 (H:m:s:ms)","GENERIC","31.04","0.03881043674065009","515"
"20:7:34:545 (H:m:s:ms)","GENERIC","31.071","0.042500000000000024","455"
"20:7:40:606 (H:m:s:ms)","GENERIC","31.024","0.006883567818882887","393"
"20:7:46:666 (H:m:s:ms)","GENERIC","31.025","0.018954644533272526","333"
"20:7:52:727 (H:m:s:ms)","GENERIC","31.044","0.009911311600042457","273"
"20:17:58:787 (H:m:s:ms)","GENERIC","62.057","0.020194368026754422","212"
"20:18:4:848 (H:m:s:ms)","GENERIC","62.113","0.025873624493766734","151"
"20:18:10:909 (H:m:s:ms)","GENERIC","62.127","0.03338288328223132","1090"
"20:18:16:969 (H:m:s:ms)","GENERIC","62.143","0.03750925811642301","1031"
"20:18:23:30 (H:m:s:ms)","GENERIC","62.055","0.037867543239890014","969"
"20:18:29:90 (H:m:s:ms)","GENERIC","62.049","0.010975648163443926","945"
"20:18:35:151 (H:m:s:ms)","GENERIC","62.093","0.021485462055059336","848"
"20:18:41:212 (H:m:s:ms)","GENERIC","62.119","0.05005665724197297","787"
"20:18:47:272 (H:m:s:ms)","GENERIC","62.069","0.025495097567964052","728"
"20:18:53:333 (H:m:s:ms)","GENERIC","62.065","0.050093623300545356","666"
"20:7:58:787 (H:m:s:ms)","GENERIC","31.018","0.00987461449723735","212"
"20:8:4:848 (H:m:s:ms)","GENERIC","31.053","0.025873624493766734","152"
"20:8:10:909 (H:m:s:ms)","GENERIC","31.056","0.03344471748482916","1090"
"20:8:16:969 (H:m:s:ms)","GENERIC","31.068","0.012610621625351304","1031"
"20:8:23:30 (H:m:s:ms)","GENERIC","31.036","0.007420411039827936","970"
"20:8:29:90 (H:m:s:ms)","GENERIC","31.034","0.01849865976829513","940"
"20:8:35:151 (H:m:s:ms)","GENERIC","31.051","0.052201532544552974","849"
"20:8:41:212 (H:m:s:ms)","GENERIC","31.055","0.026000392461716145","787"
"20:8:47:272 (H:m:s:ms)","GENERIC","31.044","0.018773718236940087","727"
"20:8:53:333 (H:m:s:ms)","GENERIC","31.039","0.0501833373435724","666"
"20:18:59:393 (H:m:s:ms)","GENERIC","62.017","0.014577379737113275","640"
"20:19:5:454 (H:m:s:ms)","GENERIC","62.043","0.01438938095465863","545"
"20:19:11:515 (H:m:s:ms)","GENERIC","62.111","0.012636429688848354","484"
"20:19:17:575 (H:m:s:ms)","GENERIC","62.061","0.026925824035672646","425"
"20:19:23:636 (H:m:s:ms)","GENERIC","62.071","0.010042775454041687","363"
"20:19:29:696 (H:m:s:ms)","GENERIC","62.093","0.026156674055260502","338"
"20:19:35:757 (H:m:s:ms)","GENERIC","62.061","0.013300795353090523","243"
"20:19:41:818 (H:m:s:ms)","GENERIC","62.111","0.013078337027630298","181"
"20:19:47:878 (H:m:s:ms)","GENERIC","62.155","0.017240691563793115","1121"
"20:19:53:939 (H:m:s:ms)","GENERIC","62.149","0.025529470508553306","1061"
"20:8:59:393 (H:m:s:ms)","GENERIC","31.019","0.009762812094883312","639"
"20:9:5:454 (H:m:s:ms)","GENERIC","31.02","0.03801726581436397","545"
"20:9:11:515 (H:m:s:ms)","GENERIC","31.048","0.03527388844153239","484"
"20:9:17:575 (H:m:s:ms)","GENERIC","31.041","0.052201532544552974","424"
"20:9:23:636 (H:m:s:ms)","GENERIC","31.047","0.030128326362124876","363"
"20:9:29:696 (H:m:s:ms)","GENERIC","31.043","0.009178090425177157","338"
"20:9:35:757 (H:m:s:ms)","GENERIC","31.03","0.009049011310310617","243"
"20:9:41:818 (H:m:s:ms)","GENERIC","31.053","0.03923501108289085","181"
"20:9:47:878 (H:m:s:ms)","GENERIC","31.081","0.033365757010277726","121"
"20:9:53:939 (H:m:s:ms)","GENERIC","31.087","0.01689656258416178","1061"
"21:41:36:969 (H:m:s:ms)","GENERIC","62.093","0.009429109834152634","1030"
"21:41:30:909 (H:m:s:ms)","GENERIC","62.093","0.01433083929737231","1090"
"21:41:24:848 (H:m:s:ms)","GENERIC","62.091","0.021794937258993414","152"
"21:41:18:787 (H:m:s:ms)","GENERIC","62.107","0.022137024890446607","212"
"21:41:12:727 (H:m:s:ms)","GENERIC","62.033","0.025086655372483998","272"
"21:41:6:666 (H:m:s:ms)","GENERIC","62.013","0.015327942790339642","333"
"21:41:0:606 (H:m:s:ms)","GENERIC","62.093","0.008948615242919187","393"
"21:41:55:151 (H:m:s:ms)","GENERIC","62.169","0.025294127765319183","848"
"21:41:49:90 (H:m:s:ms)","GENERIC","62.129","0.014233079045624694","944"
"21:41:43:30 (H:m:s:ms)","GENERIC","62.161","0.017179606773406932","969"
