"time (H:m:s:ms)","type","latency","utilisation","waiting"
"21:42:31:515 (H:m:s:ms)","GENERIC","156.67000000000002","0.06788814455037206","533"
"21:42:13:333 (H:m:s:ms)","GENERIC","188.463","0.0400896045318202","678"
"21:42:7:272 (H:m:s:ms)","GENERIC","188.097","0.056901481208217045","736"
"21:42:1:212 (H:m:s:ms)","GENERIC","156.092","0.058013272990391974","796"
"21:41:55:151 (H:m:s:ms)","GENERIC","156.517","0.033193646425656656","861"
"21:41:49:90 (H:m:s:ms)","GENERIC","188.993","0.05223188067999913","957"
"21:41:43:30 (H:m:s:ms)","GENERIC","155.232","0.047906522440572405","974"
"21:41:36:969 (H:m:s:ms)","GENERIC","157.297","0.05100851636861225","1034"
"21:41:30:909 (H:m:s:ms)","GENERIC","186.44","0.05763097895627343","1098"
"21:42:25:454 (H:m:s:ms)","GENERIC","156.856","0.041484548653978","553"
"21:42:19:393 (H:m:s:ms)","GENERIC","93.73","0.02464907316114645","656"
"21:43:38:181 (H:m:s:ms)","GENERIC","157.382","0.0630071455031573","825"
"21:43:32:121 (H:m:s:ms)","GENERIC","125.065","0.04485114660378228","890"
"21:43:20:0 (H:m:s:ms)","GENERIC","156.31799999999998","0.04178782165879598","1051"
"20:0:0:0 (H:m:s:ms)","GENERIC","125.78399999999999","0.056452798219973656","2183"
"21:43:13:939 (H:m:s:ms)","GENERIC","124.189","0.03722531594553897","1068"
"20:0:6:60 (H:m:s:ms)","GENERIC","156.202","0.05585734493345139","955"
"21:43:7:878 (H:m:s:ms)","GENERIC","187.913","0.060106512455082875","1126"
"20:0:12:121 (H:m:s:ms)","GENERIC","93.428","0.05655902566950226","892"
"21:43:1:818 (H:m:s:ms)","GENERIC","155.745","0.05525064158940394","191"
"20:0:18:181 (H:m:s:ms)","GENERIC","156.55700000000002","0.04963756798965515","825"
"21:42:55:757 (H:m:s:ms)","GENERIC","124.187","0.052070636451754373","250"
"20:0:24:242 (H:m:s:ms)","GENERIC","126.25399999999999","0.0607172969460355","771"
"21:42:49:696 (H:m:s:ms)","GENERIC","155.77","0.04346106608603641","352"
"20:0:30:303 (H:m:s:ms)","GENERIC","125.14","0.05161642034622905","705"
"21:42:43:636 (H:m:s:ms)","GENERIC","156.719","0.0707024014557687","374"
"20:0:36:363 (H:m:s:ms)","GENERIC","125.28399999999999","0.030055089894147853","649"
"21:42:37:575 (H:m:s:ms)","GENERIC","157.338","0.051047722954549936","433"
"20:0:42:424 (H:m:s:ms)","GENERIC","126.143","0.050456148019365855","581"
"21:10:0:0 (H:m:s:ms)","GENERIC","188.34","0.04723686363097253","1048"
"20:0:48:484 (H:m:s:ms)","GENERIC","155.991","0.04378405735098869","526"
"21:10:6:60 (H:m:s:ms)","GENERIC","155.975","0.04699117260910631","949"
"21:10:12:121 (H:m:s:ms)","GENERIC","156.426","0.05028592619654396","882"
"21:10:18:181 (H:m:s:ms)","GENERIC","156.164","0.0534872723810664","822"
"21:10:24:242 (H:m:s:ms)","GENERIC","157.356","0.0606266041161564","759"
"21:10:30:303 (H:m:s:ms)","GENERIC","156.446","0.04961949023169906","701"
"21:10:36:363 (H:m:s:ms)","GENERIC","156.16899999999998","0.03433835339664412","646"
"21:10:42:424 (H:m:s:ms)","GENERIC","125.557","0.05226569065579731","581"
"21:43:26:60 (H:m:s:ms)","GENERIC","124.57300000000001","0.05579916784779432","948"
"21:10:48:484 (H:m:s:ms)","GENERIC","187.008","0.04678502584166142","525"
"21:10:54:545 (H:m:s:ms)","GENERIC","186.46800000000002","0.054850646969298034","464"
"21:25:39:393 (H:m:s:ms)","GENERIC","156.47","0.08280263273554074","653"
"21:44:44:848 (H:m:s:ms)","GENERIC","186.775","0.035069539812462996","162"
"21:44:38:787 (H:m:s:ms)","GENERIC","156.81","0.0597898427778143","224"
"21:44:32:727 (H:m:s:ms)","GENERIC","186.363","0.08396773418992423","281"
"21:44:26:666 (H:m:s:ms)","GENERIC","124.21000000000001","0.046018414157732376","342"
"21:44:20:606 (H:m:s:ms)","GENERIC","156.378","0.038278613137283486","398"
"21:44:14:545 (H:m:s:ms)","GENERIC","187.916","0.06282068973419389","466"
"21:44:8:484 (H:m:s:ms)","GENERIC","155.75","0.061078904808545074","527"
"21:44:2:424 (H:m:s:ms)","GENERIC","155.977","0.06965065002202138","585"
"21:43:56:363 (H:m:s:ms)","GENERIC","188.965","0.058824610170069354","643"
"21:43:50:303 (H:m:s:ms)","GENERIC","187.087","0.05578410288127184","706"
"21:11:0:606 (H:m:s:ms)","GENERIC","187.529","0.05218184877591675","403"
"21:43:44:242 (H:m:s:ms)","GENERIC","157.348","0.07169089130308806","763"
"21:11:6:666 (H:m:s:ms)","GENERIC","157.25900000000001","0.0649186785786089","341"
"21:11:12:727 (H:m:s:ms)","GENERIC","125.29","0.06001487787552557","285"
"21:11:18:787 (H:m:s:ms)","GENERIC","186.591","0.04562453831834355","222"
"21:11:24:848 (H:m:s:ms)","GENERIC","155.669","0.06700757411746515","158"
"21:11:30:909 (H:m:s:ms)","GENERIC","155.29","0.043851831538853914","1099"
"21:11:36:969 (H:m:s:ms)","GENERIC","157.281","0.06312434273785829","1033"
"21:11:43:30 (H:m:s:ms)","GENERIC","155.269","0.05860586301962131","973"
"21:11:49:90 (H:m:s:ms)","GENERIC","157.19","0.06624628912318009","955"
"21:11:55:151 (H:m:s:ms)","GENERIC","188.178","0.04020643023258646","857"
"21:26:15:757 (H:m:s:ms)","GENERIC","188.788","0.06804382718381759","253"
"21:45:51:515 (H:m:s:ms)","GENERIC","187.94","0.053516499663340496","493"
"21:26:12:151 (H:m:s:ms)","OPERA","187.361","0.08852573726156533","860"
"21:45:45:454 (H:m:s:ms)","GENERIC","156.775","0.04242018952796093","557"
"21:45:39:393 (H:m:s:ms)","GENERIC","187.886","0.04479447954095682","652"
"21:45:33:333 (H:m:s:ms)","GENERIC","156.459","0.05636739658687316","671"
"21:26:4:556 (H:m:s:ms)","OPERA","125.15","0.06839631646929875","454"
"21:26:3:636 (H:m:s:ms)","GENERIC","155.622","0.03924029998177243","375"
"21:45:27:272 (H:m:s:ms)","GENERIC","156.15","0.05090004000973445","738"
"21:25:57:575 (H:m:s:ms)","GENERIC","187.901","0.07081202927294639","445"
"21:45:21:212 (H:m:s:ms)","GENERIC","155.765","0.042368713151026756","799"
"21:25:56:962 (H:m:s:ms)","OPERA","156.142","0.05772120926298331","1048"
"21:45:15:151 (H:m:s:ms)","GENERIC","187.233","0.0393158452163549","854"
"21:25:51:515 (H:m:s:ms)","GENERIC","187.85899999999998","0.07038751186972458","494"
"21:45:9:90 (H:m:s:ms)","GENERIC","156.212","0.04701392072097238","959"
"21:25:49:367 (H:m:s:ms)","OPERA","125.183","0.08554698054437825","680"
"21:45:3:30 (H:m:s:ms)","GENERIC","157.069","0.034858914057816916","980"
"21:12:1:212 (H:m:s:ms)","GENERIC","124.60300000000001","0.053275704558148534","798"
"21:25:45:454 (H:m:s:ms)","GENERIC","156.81","0.0815054690096616","557"
"21:44:56:969 (H:m:s:ms)","GENERIC","156.746","0.07143493923101","1042"
"21:12:7:272 (H:m:s:ms)","GENERIC","156.674","0.05276574234541062","736"
"21:25:41:772 (H:m:s:ms)","OPERA","125.107","0.09177874382329605","240"
"21:44:50:909 (H:m:s:ms)","GENERIC","186.582","0.06596510499014674","1099"
"21:12:13:333 (H:m:s:ms)","GENERIC","188.415","0.05318912104690959","676"
"21:12:19:393 (H:m:s:ms)","GENERIC","157.001","0.03824309131792125","652"
"21:12:25:454 (H:m:s:ms)","GENERIC","156.849","0.04690268906243066","551"
"21:12:31:515 (H:m:s:ms)","GENERIC","188.21","0.06709945367447868","494"
"21:12:37:575 (H:m:s:ms)","GENERIC","157.349","0.05122376557110634","432"
"21:12:43:636 (H:m:s:ms)","GENERIC","156.97","0.03458019287192842","374"
"21:12:49:696 (H:m:s:ms)","GENERIC","187.16500000000002","0.028931523795394636","350"
"21:12:55:757 (H:m:s:ms)","GENERIC","186.466","0.05843145203034318","250"
"21:26:9:696 (H:m:s:ms)","GENERIC","156.44","0.08793682243346301","353"
"21:26:52:121 (H:m:s:ms)","GENERIC","125.102","0.0926737284404643","935"
"21:46:58:181 (H:m:s:ms)","GENERIC","186.863","0.06249768902442416","828"
"21:26:50:126 (H:m:s:ms)","OPERA","125.151","0.07733416233843171","882"
"21:46:52:121 (H:m:s:ms)","GENERIC","156.43","0.06087966210639609","883"
"21:26:46:60 (H:m:s:ms)","GENERIC","157.01600000000002","0.06082577428223964","950"
"21:46:46:60 (H:m:s:ms)","GENERIC","157.003","0.04401735199648145","950"
"21:46:40:0 (H:m:s:ms)","GENERIC","156.541","0.06750464034887134","1043"
"21:46:33:939 (H:m:s:ms)","GENERIC","155.836","0.05165854595149436","1070"
"21:26:42:531 (H:m:s:ms)","OPERA","187.489","0.08472905792134731","478"
"21:26:40:0 (H:m:s:ms)","GENERIC","188.006","0.08718400793051674","1040"
"21:26:34:936 (H:m:s:ms)","OPERA","93.77000000000001","0.07772183563036643","1082"
"21:46:27:878 (H:m:s:ms)","GENERIC","156.631","0.053197322037469054","1129"
"21:26:33:939 (H:m:s:ms)","GENERIC","155.878","0.05298889896925182","1070"
"21:46:21:818 (H:m:s:ms)","GENERIC","156.233","0.051817636844077045","188"
"21:26:27:878 (H:m:s:ms)","GENERIC","188.123","0.06626261932640656","1140"
"21:46:15:757 (H:m:s:ms)","GENERIC","157.017","0.030168203729835717","254"
"21:13:1:818 (H:m:s:ms)","GENERIC","187.018","0.04702516253507288","191"
"21:26:27:341 (H:m:s:ms)","OPERA","124.767","0.04418532994694158","669"
"21:46:9:696 (H:m:s:ms)","GENERIC","156.524","0.06129235174432256","350"
"21:13:7:878 (H:m:s:ms)","GENERIC","124.957","0.05614892873732351","1125"
"21:26:21:818 (H:m:s:ms)","GENERIC","187.572","0.07829030282941608","188"
"21:46:3:636 (H:m:s:ms)","GENERIC","155.594","0.057349231620508125","374"
"21:13:13:939 (H:m:s:ms)","GENERIC","155.276","0.05439627867949487","1068"
"21:26:19:746 (H:m:s:ms)","OPERA","124.973","0.058098069144336024","300"
"21:45:57:575 (H:m:s:ms)","GENERIC","187.856","0.0560613649275284","434"
"21:13:20:0 (H:m:s:ms)","GENERIC","155.445","0.03971466825627328","1048"
"21:13:26:60 (H:m:s:ms)","GENERIC","187.232","0.04177903940917654","948"
"21:13:32:121 (H:m:s:ms)","GENERIC","156.692","0.02887408856271904","889"
"21:13:38:181 (H:m:s:ms)","GENERIC","189.019","0.0643811854485034","824"
"21:13:44:242 (H:m:s:ms)","GENERIC","157.405","0.06812921748572193","762"
"21:13:50:303 (H:m:s:ms)","GENERIC","156.019","0.05746085924628828","706"
"21:13:56:363 (H:m:s:ms)","GENERIC","157.263","0.05146497372372552","642"
"21:27:28:484 (H:m:s:ms)","GENERIC","157.35","0.09582476238771688","529"
"21:48:4:848 (H:m:s:ms)","GENERIC","124.994","0.04500716837482765","158"
"21:27:28:101 (H:m:s:ms)","OPERA","125.07600000000001","0.06626611132561874","908"
"21:47:58:787 (H:m:s:ms)","GENERIC","156.786","0.051355145885241586","224"
"21:27:22:424 (H:m:s:ms)","GENERIC","156.657","0.08495121551648192","586"
"21:47:52:727 (H:m:s:ms)","GENERIC","124.543","0.06173826871318683","279"
"21:27:20:506 (H:m:s:ms)","OPERA","125.129","0.08356083861662346","502"
"21:47:46:666 (H:m:s:ms)","GENERIC","157.099","0.03096870700409712","344"
"21:47:40:606 (H:m:s:ms)","GENERIC","156.574","0.04856670218528225","406"
"21:47:34:545 (H:m:s:ms)","GENERIC","125.02600000000001","0.05949744787104018","459"
"21:27:16:363 (H:m:s:ms)","GENERIC","188.964","0.08227434003282852","644"
"21:27:12:911 (H:m:s:ms)","OPERA","156.179","0.08602155762557757","1097"
"21:27:10:303 (H:m:s:ms)","GENERIC","156.236","0.07149975508770798","706"
"21:47:28:484 (H:m:s:ms)","GENERIC","157.329","0.05906288352433065","520"
"21:14:2:424 (H:m:s:ms)","GENERIC","155.989","0.05641291614565427","584"
"21:27:5:316 (H:m:s:ms)","OPERA","187.457","0.07918222411580066","693"
"21:47:22:424 (H:m:s:ms)","GENERIC","188.139","0.0727946216237702","586"
"21:14:8:484 (H:m:s:ms)","GENERIC","124.34899999999999","0.055906162538800055","524"
"21:27:4:242 (H:m:s:ms)","GENERIC","156.127","0.06824878054578166","768"
"21:47:16:363 (H:m:s:ms)","GENERIC","157.252","0.0476532710006418","644"
"20:52:1:212 (H:m:s:ms)","GENERIC","156.052","0.05727748643209876","795"
"21:14:14:545 (H:m:s:ms)","GENERIC","156.494","0.03979613942877474","465"
"21:26:58:181 (H:m:s:ms)","GENERIC","186.701","0.0830152944624799","828"
"21:47:10:303 (H:m:s:ms)","GENERIC","187.641","0.05460508225107735","706"
"20:52:7:272 (H:m:s:ms)","GENERIC","156.703","0.05201133472751584","735"
"21:14:20:606 (H:m:s:ms)","GENERIC","189.014","0.04763697920979578","401"
"21:26:57:721 (H:m:s:ms)","OPERA","156.074","0.09076389933638294","287"
"21:47:4:242 (H:m:s:ms)","GENERIC","187.566","0.04455268924677427","767"
"20:52:13:333 (H:m:s:ms)","GENERIC","156.835","0.04146975252891217","676"
"21:14:26:666 (H:m:s:ms)","GENERIC","186.287","0.06206065482260898","341"
"20:52:19:393 (H:m:s:ms)","GENERIC","157.052","0.043829642047980455","656"
"21:14:32:727 (H:m:s:ms)","GENERIC","155.354","0.05474131530907654","280"
"20:52:25:454 (H:m:s:ms)","GENERIC","156.773","0.05289742179482091","550"
"21:14:38:787 (H:m:s:ms)","GENERIC","188.34199999999998","0.0442835146252748","222"
"20:52:31:515 (H:m:s:ms)","GENERIC","188.2","0.038120949100411326","494"
"21:14:44:848 (H:m:s:ms)","GENERIC","155.66899999999998","0.03279874835481316","161"
"20:52:37:575 (H:m:s:ms)","GENERIC","125.538","0.04146862021048307","431"
"21:14:50:909 (H:m:s:ms)","GENERIC","155.371","0.05951478212729893","1099"
"20:52:43:636 (H:m:s:ms)","GENERIC","188.379","0.06840304235873693","372"
"21:14:56:969 (H:m:s:ms)","GENERIC","156.84","0.04004839530382064","1041"
"20:52:49:696 (H:m:s:ms)","GENERIC","155.763","0.05299028140351168","354"
"20:52:55:757 (H:m:s:ms)","GENERIC","186.385","0.05136510017162781","249"
"21:28:6:75 (H:m:s:ms)","OPERA","187.5","0.07696829749525273","936"
"21:49:11:515 (H:m:s:ms)","GENERIC","156.903","0.04075400120029903","490"
"21:28:4:848 (H:m:s:ms)","GENERIC","187.909","0.06390191348122709","155"
"21:49:5:454 (H:m:s:ms)","GENERIC","155.2","0.05277714204891743","553"
"21:27:58:787 (H:m:s:ms)","GENERIC","125.178","0.08883737849570603","233"
"21:48:59:393 (H:m:s:ms)","GENERIC","156.799","0.07076259294608328","654"
"21:27:58:481 (H:m:s:ms)","OPERA","187.483","0.06959042318931558","528"
"21:48:53:333 (H:m:s:ms)","GENERIC","155.807","0.05791975239713619","676"
"21:27:52:727 (H:m:s:ms)","GENERIC","124.51400000000001","0.07434205279981367","279"
"21:48:47:272 (H:m:s:ms)","GENERIC","156.124","0.0524450180524866","732"
"21:48:41:212 (H:m:s:ms)","GENERIC","187.45","0.029028838354357447","798"
"21:48:35:151 (H:m:s:ms)","GENERIC","156.441","0.04645081561714782","859"
"21:27:50:886 (H:m:s:ms)","OPERA","187.472","0.08186103034237954","1122"
"21:15:3:30 (H:m:s:ms)","GENERIC","157.08100000000002","0.04017890165389628","980"
"21:27:46:666 (H:m:s:ms)","GENERIC","157.089","0.07535707429683254","344"
"21:15:9:90 (H:m:s:ms)","GENERIC","156.251","0.05228649121709508","958"
"21:27:43:291 (H:m:s:ms)","OPERA","125.181","0.06220417878392855","718"
"21:48:29:90 (H:m:s:ms)","GENERIC","155.96","0.04293259261833924","959"
"20:53:1:818 (H:m:s:ms)","GENERIC","124.574","0.05039844510362115","189"
"21:15:15:151 (H:m:s:ms)","GENERIC","187.095","0.05498318609608964","853"
"21:27:40:606 (H:m:s:ms)","GENERIC","188.252","0.052735889639411566","404"
"21:48:23:30 (H:m:s:ms)","GENERIC","187.961","0.05542509414348008","974"
"20:53:7:878 (H:m:s:ms)","GENERIC","156.51299999999998","0.048675804666528905","1125"
"21:15:21:212 (H:m:s:ms)","GENERIC","186.874","0.06734319547604382","801"
"21:27:35:696 (H:m:s:ms)","OPERA","125.21","0.06279649252065635","314"
"21:48:16:969 (H:m:s:ms)","GENERIC","186.577","0.06164002285683978","1042"
"20:53:13:939 (H:m:s:ms)","GENERIC","155.28","0.03942372018121906","1067"
"21:15:27:272 (H:m:s:ms)","GENERIC","156.147","0.07686635819670273","738"
"21:27:34:545 (H:m:s:ms)","GENERIC","156.532","0.052993689504443234","459"
"21:48:10:909 (H:m:s:ms)","GENERIC","187.53699999999998","0.03517537164822622","1100"
"20:53:20:0 (H:m:s:ms)","GENERIC","155.357","0.056292479546618465","1051"
"21:15:33:333 (H:m:s:ms)","GENERIC","156.423","0.05409448882110912","672"
"20:53:26:60 (H:m:s:ms)","GENERIC","187.17700000000002","0.04500780618770356","947"
"21:15:39:393 (H:m:s:ms)","GENERIC","156.469","0.0628915347036452","652"
"20:53:32:121 (H:m:s:ms)","GENERIC","187.993","0.05011839085160843","889"
"21:15:45:454 (H:m:s:ms)","GENERIC","156.92","0.05719705438305807","556"
"20:53:38:181 (H:m:s:ms)","GENERIC","157.269","0.0302187528167471","826"
"21:15:51:515 (H:m:s:ms)","GENERIC","187.875","0.0445419109741861","494"
"20:53:44:242 (H:m:s:ms)","GENERIC","157.356","0.0616984675526549","761"
"21:15:57:575 (H:m:s:ms)","GENERIC","187.952","0.05815998551265902","434"
"20:53:50:303 (H:m:s:ms)","GENERIC","155.968","0.05743603083264409","704"
"20:53:56:363 (H:m:s:ms)","GENERIC","125.576","0.05836431209960406","642"
"21:28:44:50 (H:m:s:ms)","OPERA","155.986","0.08804174593908211","958"
"22:8:25:263 (H:m:s:ms)","AMBULANCE","94.015","0.03956237668366314","750"
"21:28:41:212 (H:m:s:ms)","GENERIC","187.583","0.0894201781567817","797"
"22:6:18:947 (H:m:s:ms)","AMBULANCE","156.983","0.04641744927535017","1076"
"21:28:36:455 (H:m:s:ms)","OPERA","124.787","0.06400845368673695","554"
"22:1:3:157 (H:m:s:ms)","AMBULANCE","125.405","0.04461744608394909","850"
"21:28:35:151 (H:m:s:ms)","GENERIC","156.5","0.03845777239521404","858"
"21:50:0:0 (H:m:s:ms)","GENERIC","187.571","0.054876049571397995","1052"
"21:28:29:90 (H:m:s:ms)","GENERIC","124.608","0.0676105399054639","953"
"21:49:53:939 (H:m:s:ms)","GENERIC","156.244","0.03032397855131781","1072"
"21:28:28:860 (H:m:s:ms)","OPERA","156.53","0.06948715462521142","150"
"21:49:47:878 (H:m:s:ms)","GENERIC","156.571","0.0638599251725372","1130"
"21:49:41:818 (H:m:s:ms)","GENERIC","188.11599999999999","0.06558683084377705","188"
"21:49:35:757 (H:m:s:ms)","GENERIC","157.036","0.060906556309884397","254"
"21:16:3:636 (H:m:s:ms)","GENERIC","155.68","0.03641683421251856","374"
"21:16:9:696 (H:m:s:ms)","GENERIC","187.83100000000002","0.04908025070702799","350"
"21:28:23:30 (H:m:s:ms)","GENERIC","187.94799999999998","0.06516515677455267","974"
"20:54:2:424 (H:m:s:ms)","GENERIC","156.075","0.04849399360460293","585"
"21:16:15:757 (H:m:s:ms)","GENERIC","157.097","0.06267251870630924","253"
"21:28:21:265 (H:m:s:ms)","OPERA","125.165","0.05847043108139541","744"
"20:54:8:484 (H:m:s:ms)","GENERIC","186.85199999999998","0.06854185096144674","523"
"21:16:21:818 (H:m:s:ms)","GENERIC","156.049","0.05413893148731726","187"
"21:28:16:969 (H:m:s:ms)","GENERIC","186.485","0.07298072188783455","1041"
"21:49:29:696 (H:m:s:ms)","GENERIC","125.29299999999999","0.06034086894832032","353"
"20:54:14:545 (H:m:s:ms)","GENERIC","187.844","0.05021080638561157","465"
"21:16:27:878 (H:m:s:ms)","GENERIC","188.04500000000002","0.07102947235889379","1129"
"21:28:13:670 (H:m:s:ms)","OPERA","156.497","0.08179691853232411","338"
"21:49:23:636 (H:m:s:ms)","GENERIC","157.324","0.05639720469612001","372"
"20:54:20:606 (H:m:s:ms)","GENERIC","188.925","0.05850958360854441","400"
"21:16:33:939 (H:m:s:ms)","GENERIC","155.856","0.043898934775866386","1069"
"21:28:10:909 (H:m:s:ms)","GENERIC","156.142","0.06589374990297311","1100"
"21:49:17:575 (H:m:s:ms)","GENERIC","187.93","0.05043393306180571","429"
"20:54:26:666 (H:m:s:ms)","GENERIC","186.34","0.051880782854881735","341"
"21:16:40:0 (H:m:s:ms)","GENERIC","156.458","0.05976494689447597","1041"
"20:54:32:727 (H:m:s:ms)","GENERIC","155.37","0.06647695527642229","281"
"21:16:46:60 (H:m:s:ms)","GENERIC","188.437","0.04411326121998268","949"
"20:54:38:787 (H:m:s:ms)","GENERIC","188.41899999999998","0.0392343662783147","222"
"21:16:52:121 (H:m:s:ms)","GENERIC","125.042","0.05730411462073739","905"
"20:54:44:848 (H:m:s:ms)","GENERIC","155.582","0.05084517791756932","160"
"21:16:58:181 (H:m:s:ms)","GENERIC","155.565","0.07271979463312274","827"
"20:54:50:909 (H:m:s:ms)","GENERIC","155.306","0.06444471519402917","1098"
"20:54:56:969 (H:m:s:ms)","GENERIC","156.687","0.05016013480539998","1040"
"21:29:22:25 (H:m:s:ms)","OPERA","125.214","0.06577105112237984","985"
"21:29:17:575 (H:m:s:ms)","GENERIC","156.432","0.06486616557723159","430"
"21:29:14:430 (H:m:s:ms)","OPERA","187.445","0.07575114543569854","581"
"21:29:11:515 (H:m:s:ms)","GENERIC","188.385","0.08439089264012056","489"
"21:29:6:835 (H:m:s:ms)","OPERA","156.454","0.0678404647508925","175"
"21:29:5:454 (H:m:s:ms)","GENERIC","155.273","0.04011858944572318","552"
"21:28:59:393 (H:m:s:ms)","GENERIC","156.83499999999998","0.07578926700759646","661"
"21:17:4:242 (H:m:s:ms)","GENERIC","187.515","0.06774160523935814","768"
"21:17:10:303 (H:m:s:ms)","GENERIC","124.887","0.04199176128395865","704"
"20:55:3:30 (H:m:s:ms)","GENERIC","157.09","0.04411322667767339","979"
"21:17:16:363 (H:m:s:ms)","GENERIC","157.25","0.04973260009155338","644"
"20:55:9:90 (H:m:s:ms)","GENERIC","156.262","0.04203893995367589","960"
"21:17:22:424 (H:m:s:ms)","GENERIC","125.03","0.05040278012720601","586"
"21:28:59:240 (H:m:s:ms)","OPERA","125.082","0.052844504772186864","803"
"20:55:15:151 (H:m:s:ms)","GENERIC","155.87900000000002","0.05019622731211281","853"
"21:17:28:484 (H:m:s:ms)","GENERIC","157.399","0.05919739483115832","519"
"21:28:53:333 (H:m:s:ms)","GENERIC","124.50800000000001","0.06799309259211248","675"
"20:55:21:212 (H:m:s:ms)","GENERIC","186.952","0.056721501046832566","799"
"21:17:34:545 (H:m:s:ms)","GENERIC","125.05600000000001","0.043443459742315275","459"
"21:28:51:645 (H:m:s:ms)","OPERA","156.087","0.06907371517503966","365"
"20:55:27:272 (H:m:s:ms)","GENERIC","187.498","0.060796541087965165","735"
"21:17:40:606 (H:m:s:ms)","GENERIC","188.095","0.06777553593766442","403"
"21:28:47:272 (H:m:s:ms)","GENERIC","187.368","0.06942951744677213","734"
"20:55:33:333 (H:m:s:ms)","GENERIC","156.931","0.0480335022614288","671"
"21:17:46:666 (H:m:s:ms)","GENERIC","157.085","0.04203186383085724","343"
"20:55:39:393 (H:m:s:ms)","GENERIC","124.949","0.054106431695773914","653"
"21:17:52:727 (H:m:s:ms)","GENERIC","155.765","0.05854058105074967","277"
"20:55:45:454 (H:m:s:ms)","GENERIC","156.894","0.048272623814613856","554"
"21:17:58:787 (H:m:s:ms)","GENERIC","188.183","0.06783393946758869","223"
"20:55:51:515 (H:m:s:ms)","GENERIC","156.539","0.05009437899572439","493"
"20:55:57:575 (H:m:s:ms)","GENERIC","187.936","0.053022384479480184","432"
"21:30:0:0 (H:m:s:ms)","OPERA","156.49200000000002","0.05554072781487015","1045"
"21:29:53:939 (H:m:s:ms)","GENERIC","156.166","0.07048857660037054","1070"
"21:29:52:405 (H:m:s:ms)","OPERA","156.178","0.07175120704478725","604"
"21:29:47:878 (H:m:s:ms)","GENERIC","156.618","0.0802281348953656","1130"
"21:29:44:810 (H:m:s:ms)","OPERA","156.07600000000002","0.09680556244080561","199"
"21:29:41:818 (H:m:s:ms)","GENERIC","188.01500000000001","0.10364374276432543","187"
"21:29:37:215 (H:m:s:ms)","OPERA","125.108","0.08300680047607646","794"
"21:29:35:757 (H:m:s:ms)","GENERIC","188.607","0.04244778081536408","252"
"21:18:4:848 (H:m:s:ms)","GENERIC","156.426","0.06202042153980483","156"
"21:18:10:909 (H:m:s:ms)","GENERIC","187.58","0.051384526933218155","1100"
"20:56:3:636 (H:m:s:ms)","GENERIC","155.651","0.06023934891436644","373"
"21:18:16:969 (H:m:s:ms)","GENERIC","124.319","0.059966926516722314","1041"
"20:56:9:696 (H:m:s:ms)","GENERIC","187.922","0.06656462641519573","353"
"21:18:23:30 (H:m:s:ms)","GENERIC","156.575","0.0646393529556476","973"
"20:40:0:0 (H:m:s:ms)","OPERA","156.422","0.06567203630442009","2207"
"20:56:15:757 (H:m:s:ms)","GENERIC","188.63799999999998","0.034602862830111054","252"
"21:18:29:90 (H:m:s:ms)","GENERIC","187.046","0.04367953139240922","954"
"20:40:0:0 (H:m:s:ms)","GENERIC","156.162","0.08470651834852048","2217"
"20:56:21:818 (H:m:s:ms)","GENERIC","156.159","0.05632028154968741","187"
"21:18:35:151 (H:m:s:ms)","GENERIC","187.969","0.06233721136310909","858"
"21:29:29:696 (H:m:s:ms)","GENERIC","156.077","0.08501479784613418","356"
"20:40:0:0 (H:m:s:ms)","GENERIC","156.85500000000002","0.10391425696592968","2227"
"20:56:27:878 (H:m:s:ms)","GENERIC","125.134","0.046604770970442036","1128"
"21:18:41:212 (H:m:s:ms)","GENERIC","187.534","0.05574089601687348","799"
"21:29:29:620 (H:m:s:ms)","OPERA","124.693","0.05505808160465947","423"
"20:40:6:60 (H:m:s:ms)","GENERIC","155.87900000000002","0.04012473794213272","950"
"20:56:33:939 (H:m:s:ms)","GENERIC","124.545","0.04007749537637116","1069"
"21:18:47:272 (H:m:s:ms)","GENERIC","187.34699999999998","0.05857588002109957","733"
"21:29:23:636 (H:m:s:ms)","GENERIC","157.26600000000002","0.0832772224571391","372"
"20:40:7:594 (H:m:s:ms)","OPERA","125.039","0.054705656606575774","415"
"20:56:40:0 (H:m:s:ms)","GENERIC","156.54","0.06982729627357737","1046"
"21:18:53:333 (H:m:s:ms)","GENERIC","186.973","0.053917672693542015","676"
"20:40:12:121 (H:m:s:ms)","GENERIC","156.51600000000002","0.06453217589992391","882"
"20:56:46:60 (H:m:s:ms)","GENERIC","156.845","0.044706050718485345","949"
"21:18:59:393 (H:m:s:ms)","GENERIC","125.28399999999999","0.06550406565233852","658"
"20:40:15:189 (H:m:s:ms)","OPERA","125.04299999999999","0.07821092832295524","818"
"20:56:52:121 (H:m:s:ms)","GENERIC","156.136","0.048622320492378676","889"
"20:40:18:181 (H:m:s:ms)","GENERIC","156.10399999999998","0.07636216238800562","823"
"20:56:58:181 (H:m:s:ms)","GENERIC","186.74699999999999","0.05327670350566245","827"
"20:40:22:784 (H:m:s:ms)","OPERA","125.191","0.07887226033184648","224"
"20:40:24:242 (H:m:s:ms)","GENERIC","125.616","0.0894041727914089","757"
"21:30:0:0 (H:m:s:ms)","GENERIC","125.268","0.10405136218976717","1085"
"21:30:48:484 (H:m:s:ms)","GENERIC","155.78199999999998","0.05226419525423396","524"
"21:30:42:424 (H:m:s:ms)","GENERIC","188.949","0.055885245838414394","582"
"21:30:36:363 (H:m:s:ms)","GENERIC","156.255","0.03382151650378756","646"
"21:30:30:303 (H:m:s:ms)","GENERIC","156.426","0.04209948179227354","701"
"21:30:24:242 (H:m:s:ms)","GENERIC","157.343","0.06133760795681121","759"
"21:30:18:181 (H:m:s:ms)","GENERIC","156.157","0.05207352536713955","822"
"21:30:12:121 (H:m:s:ms)","GENERIC","156.414","0.04275980292977871","883"
"21:19:5:454 (H:m:s:ms)","GENERIC","155.276","0.07683955972892174","551"
"21:30:6:60 (H:m:s:ms)","GENERIC","187.128","0.05683470727482565","950"
"21:19:11:515 (H:m:s:ms)","GENERIC","156.847","0.06717767697317538","489"
"20:57:4:242 (H:m:s:ms)","GENERIC","187.551","0.051216348774530567","767"
"21:19:17:575 (H:m:s:ms)","GENERIC","156.461","0.06409451179495339","429"
"20:57:10:303 (H:m:s:ms)","GENERIC","156.38799999999998","0.050189792244859574","704"
"21:19:23:636 (H:m:s:ms)","GENERIC","157.199","0.0686048374023483","371"
"20:40:30:303 (H:m:s:ms)","GENERIC","187.462","0.05143995186998637","750"
"20:57:16:363 (H:m:s:ms)","GENERIC","157.284","0.06202152990386762","642"
"21:19:29:696 (H:m:s:ms)","GENERIC","187.548","0.06870748935511034","344"
"20:40:30:379 (H:m:s:ms)","OPERA","156.505","0.07423009373254551","683"
"20:57:22:424 (H:m:s:ms)","GENERIC","156.618","0.05954287098601727","585"
"21:19:35:757 (H:m:s:ms)","GENERIC","188.56400000000002","0.04518298260845663","253"
"20:40:36:363 (H:m:s:ms)","GENERIC","187.787","0.017718128730962415","645"
"20:57:28:484 (H:m:s:ms)","GENERIC","189.089","0.05744001337200867","519"
"21:19:41:818 (H:m:s:ms)","GENERIC","156.65699999999998","0.05462768508779867","188"
"20:40:37:974 (H:m:s:ms)","OPERA","156.424","0.06831025005699923","1033"
"20:57:34:545 (H:m:s:ms)","GENERIC","124.985","0.038929828337185175","459"
"21:19:47:878 (H:m:s:ms)","GENERIC","188.16899999999998","0.06611919508650338","1130"
"21:30:0:0 (H:m:s:ms)","GENERIC","187.526","0.09524337701180789","1074"
"20:40:42:424 (H:m:s:ms)","GENERIC","125.444","0.08052320064290354","581"
"20:57:40:606 (H:m:s:ms)","GENERIC","188.257","0.04059155510053207","404"
"21:19:53:939 (H:m:s:ms)","GENERIC","187.62","0.03650540985302458","1071"
"21:30:0:0 (H:m:s:ms)","AMBULANCE","93.774","0.08697318445252156","1065"
"20:40:45:569 (H:m:s:ms)","OPERA","156.485","0.061663330813943255","440"
"20:57:46:666 (H:m:s:ms)","GENERIC","157.15699999999998","0.04815253135092541","342"
"21:20:0:0 (H:m:s:ms)","OPERA","156.09199999999998","0.06524471995418374","2243"
"20:40:48:484 (H:m:s:ms)","GENERIC","187.166","0.051966499667907534","524"
"20:57:52:727 (H:m:s:ms)","GENERIC","124.525","0.043350143655394434","278"
"20:40:53:164 (H:m:s:ms)","OPERA","156.517","0.0698956840428865","844"
"20:57:58:787 (H:m:s:ms)","GENERIC","156.744","0.05625912986519159","223"
"20:40:54:545 (H:m:s:ms)","GENERIC","186.427","0.07747109014931093","464"
"20:41:0:606 (H:m:s:ms)","GENERIC","187.483","0.06706969052880218","402"
"21:31:3:157 (H:m:s:ms)","AMBULANCE","125.35999999999999","0.07975282366846949","876"
"21:31:0:606 (H:m:s:ms)","GENERIC","156.089","0.06683866727131839","403"
"21:31:43:30 (H:m:s:ms)","GENERIC","124.286","0.05897592998413269","974"
"21:31:36:969 (H:m:s:ms)","GENERIC","125.593","0.07888386665801976","1033"
"21:31:34:736 (H:m:s:ms)","AMBULANCE","125.244","0.08353219984891459","294"
"21:31:30:909 (H:m:s:ms)","GENERIC","186.499","0.05523001417677098","1100"
"21:31:24:848 (H:m:s:ms)","GENERIC","186.98700000000002","0.07338750417241136","157"
"21:31:18:787 (H:m:s:ms)","GENERIC","155.445","0.0817902776514335","222"
"21:31:12:727 (H:m:s:ms)","GENERIC","187.888","0.0372117122453011","283"
"21:31:6:666 (H:m:s:ms)","GENERIC","188.87","0.07088304494709857","340"
"20:58:4:848 (H:m:s:ms)","GENERIC","188.01","0.05324833604867204","156"
"20:58:10:909 (H:m:s:ms)","GENERIC","156.196","0.05532649125497969","1099"
"20:41:0:759 (H:m:s:ms)","OPERA","156.417","0.09076127978556654","256"
"20:58:16:969 (H:m:s:ms)","GENERIC","155.402","0.06897178307505772","1040"
"20:41:6:666 (H:m:s:ms)","GENERIC","157.253","0.06726077354103599","339"
"20:58:23:30 (H:m:s:ms)","GENERIC","124.959","0.04516514476999556","974"
"20:41:8:354 (H:m:s:ms)","OPERA","156.42700000000002","0.09857003104376538","654"
"20:58:29:90 (H:m:s:ms)","GENERIC","155.838","0.05541904893967047","959"
"20:41:12:727 (H:m:s:ms)","GENERIC","124.36","0.09648224554710293","281"
"20:58:35:151 (H:m:s:ms)","GENERIC","188.065","0.06254655793686928","858"
"20:41:15:949 (H:m:s:ms)","OPERA","156.28900000000002","0.09224089777136002","1060"
"20:58:41:212 (H:m:s:ms)","GENERIC","156.179","0.05798207680927963","797"
"20:41:18:787 (H:m:s:ms)","GENERIC","186.485","0.08134658423634275","221"
"20:58:47:272 (H:m:s:ms)","GENERIC","156.051","0.038739084257320686","740"
"21:30:54:545 (H:m:s:ms)","GENERIC","186.577","0.052620382649455254","465"
"20:41:23:544 (H:m:s:ms)","OPERA","125.031","0.07398650490939217","465"
"20:58:53:333 (H:m:s:ms)","GENERIC","155.88","0.0484381947693509","674"
"20:41:24:848 (H:m:s:ms)","GENERIC","155.70100000000002","0.08628664376285893","156"
"20:58:59:393 (H:m:s:ms)","GENERIC","156.978","0.04533516092267399","657"
"20:41:30:909 (H:m:s:ms)","GENERIC","186.416","0.07367889338152192","1097"
"20:41:31:139 (H:m:s:ms)","OPERA","125.11","0.08823427001295434","875"
"20:59:5:454 (H:m:s:ms)","GENERIC","155.37099999999998","0.052169766292410366","551"
"20:59:11:515 (H:m:s:ms)","GENERIC","125.217","0.04234044118899312","490"
"20:41:36:969 (H:m:s:ms)","GENERIC","157.32","0.07057100432840398","1032"
"20:59:17:575 (H:m:s:ms)","GENERIC","125.045","0.054274707734577904","429"
"20:41:38:734 (H:m:s:ms)","OPERA","156.365","0.10215364844202852","273"
"20:59:23:636 (H:m:s:ms)","GENERIC","125.52699999999999","0.05484523733881999","371"
"20:41:43:30 (H:m:s:ms)","GENERIC","155.214","0.08868524762501305","974"
"20:59:29:696 (H:m:s:ms)","GENERIC","187.537","0.050047191271296074","353"
"20:41:46:329 (H:m:s:ms)","OPERA","125.086","0.07578349345100074","679"
"20:59:35:757 (H:m:s:ms)","GENERIC","156.966","0.06244969018736622","252"
"20:41:49:90 (H:m:s:ms)","GENERIC","157.219","0.07430174176603527","953"
"20:59:41:818 (H:m:s:ms)","GENERIC","156.683","0.0721216162284233","187"
"20:41:53:924 (H:m:s:ms)","OPERA","156.29500000000002","0.07972230403390096","1083"
"20:59:47:878 (H:m:s:ms)","GENERIC","156.663","0.03793731957714426","1129"
"20:41:55:151 (H:m:s:ms)","GENERIC","156.71","0.09589005140503278","856"
"20:59:53:939 (H:m:s:ms)","GENERIC","156.148","0.06599644521955546","1070"
"20:42:1:212 (H:m:s:ms)","GENERIC","155.987","0.05524853739164539","796"
"21:0:0:0 (H:m:s:ms)","AMBULANCE","156.486","0.06333060098111642","2225"
"20:42:7:272 (H:m:s:ms)","GENERIC","156.691","0.06746328261778806","736"
"20:42:9:113 (H:m:s:ms)","OPERA","156.451","0.08682945196409605","932"
"21:0:0:0 (H:m:s:ms)","GENERIC","187.53","0.07671448895315026","2234"
"21:0:0:0 (H:m:s:ms)","GENERIC","156.908","0.09269923101834807","2244"
"20:42:13:333 (H:m:s:ms)","GENERIC","188.312","0.0763154389302601","675"
"21:0:6:60 (H:m:s:ms)","GENERIC","124.727","0.05674052525531604","950"
"20:42:16:708 (H:m:s:ms)","OPERA","156.436","0.07501509421413419","300"
"21:0:12:121 (H:m:s:ms)","GENERIC","187.95100000000002","0.04886255459286821","882"
"20:20:0:0 (H:m:s:ms)","GENERIC","156.247","0.06369930590692129","2234"
"20:42:19:393 (H:m:s:ms)","GENERIC","156.935","0.06869091685197554","653"
"21:0:18:181 (H:m:s:ms)","GENERIC","124.828","0.04444027752725694","823"
"20:20:0:0 (H:m:s:ms)","GENERIC","188.371","0.08522155831552934","2244"
"20:42:24:303 (H:m:s:ms)","OPERA","156.615","0.06495491598814687","706"
"21:0:24:242 (H:m:s:ms)","GENERIC","125.594","0.05735537427848413","760"
"20:20:6:60 (H:m:s:ms)","GENERIC","155.957","0.03532485097025228","950"
"20:42:25:454 (H:m:s:ms)","GENERIC","156.814","0.09470126092148677","551"
"21:0:30:303 (H:m:s:ms)","GENERIC","187.845","0.06286204764423152","701"
"20:20:12:121 (H:m:s:ms)","GENERIC","156.819","0.05100822718275076","883"
"20:42:31:515 (H:m:s:ms)","GENERIC","156.725","0.055826855468023615","495"
"21:0:31:578 (H:m:s:ms)","AMBULANCE","125.296","0.08596581867214459","469"
"20:20:18:181 (H:m:s:ms)","GENERIC","124.789","0.05741597683951667","824"
"20:42:31:898 (H:m:s:ms)","OPERA","156.484","0.09164702749020082","121"
"21:0:36:363 (H:m:s:ms)","GENERIC","187.717","0.07996471795514039","643"
"20:20:24:242 (H:m:s:ms)","GENERIC","157.256","0.0569463970328449","764"
"20:42:37:575 (H:m:s:ms)","GENERIC","157.381","0.0585119889135816","425"
"21:0:42:424 (H:m:s:ms)","GENERIC","157.124","0.07496276027659174","580"
"20:20:30:303 (H:m:s:ms)","GENERIC","187.524","0.07257776180846495","707"
"20:42:39:493 (H:m:s:ms)","OPERA","156.422","0.07886929755923917","552"
"20:20:36:363 (H:m:s:ms)","GENERIC","156.274","0.04561664378163338","646"
"20:42:43:636 (H:m:s:ms)","GENERIC","188.371","0.07403365628312357","373"
"20:20:42:424 (H:m:s:ms)","GENERIC","188.95600000000002","0.04462044767420045","581"
"20:20:48:484 (H:m:s:ms)","GENERIC","155.844","0.05115698422781441","525"
"21:0:48:484 (H:m:s:ms)","GENERIC","187.022","0.049435402407007306","525"
"21:0:54:545 (H:m:s:ms)","GENERIC","155.389","0.045607471935482854","464"
"20:42:47:88 (H:m:s:ms)","OPERA","125.16","0.0707202582784921","921"
"21:1:0:606 (H:m:s:ms)","GENERIC","156.187","0.04065776560695798","401"
"20:42:49:696 (H:m:s:ms)","GENERIC","186.952","0.08315872365823788","349"
"21:1:3:157 (H:m:s:ms)","AMBULANCE","156.447","0.08456383430067724","853"
"20:20:54:545 (H:m:s:ms)","GENERIC","155.246","0.059462043383011996","465"
"20:42:54:683 (H:m:s:ms)","OPERA","125.138","0.0804117080117806","324"
"21:1:6:666 (H:m:s:ms)","GENERIC","157.243","0.09162957235271182","340"
"20:21:0:606 (H:m:s:ms)","GENERIC","156.24","0.035671150397774846","403"
"20:42:55:757 (H:m:s:ms)","GENERIC","155.257","0.05544161254897369","249"
"21:1:12:727 (H:m:s:ms)","GENERIC","187.707","0.04634431744497808","301"
"20:21:6:666 (H:m:s:ms)","GENERIC","157.29399999999998","0.052774500089471627","341"
"20:43:1:818 (H:m:s:ms)","GENERIC","155.78","0.07038812895710465","189"
"21:1:18:787 (H:m:s:ms)","GENERIC","155.539","0.07534416788749593","221"
"20:21:12:727 (H:m:s:ms)","GENERIC","155.555","0.04170667556350381","281"
"20:43:2:278 (H:m:s:ms)","OPERA","125.074","0.09850363518345935","729"
"21:1:24:848 (H:m:s:ms)","GENERIC","186.856","0.05383503050602589","157"
"20:21:18:787 (H:m:s:ms)","GENERIC","186.586","0.037115107574626695","222"
"20:43:7:878 (H:m:s:ms)","GENERIC","125.00200000000001","0.0487513420166607","1126"
"21:1:30:909 (H:m:s:ms)","GENERIC","155.255","0.04376006743835991","1099"
"20:21:24:848 (H:m:s:ms)","GENERIC","186.81799999999998","0.059910213539121106","157"
"20:43:9:873 (H:m:s:ms)","OPERA","125.14","0.06270751715859584","173"
"21:1:34:736 (H:m:s:ms)","AMBULANCE","156.499","0.06875666097073986","274"
"20:21:30:909 (H:m:s:ms)","GENERIC","186.313","0.05665564196291047","1098"
"20:43:13:939 (H:m:s:ms)","GENERIC","155.29399999999998","0.05831453221190803","1067"
"20:21:36:969 (H:m:s:ms)","GENERIC","125.60400000000001","0.06697846387301264","1033"
"20:43:17:468 (H:m:s:ms)","OPERA","156.39499999999998","0.06699116486796795","541"
"20:21:43:30 (H:m:s:ms)","GENERIC","155.219","0.046423359716894354","974"
"20:21:49:90 (H:m:s:ms)","GENERIC","188.86599999999999","0.05592766068260466","952"
"20:43:20:0 (H:m:s:ms)","GENERIC","155.29500000000002","0.07440791425892704","1047"
"20:43:25:63 (H:m:s:ms)","OPERA","125.22","0.06415087666970917","947"
"20:21:55:151 (H:m:s:ms)","GENERIC","188.05599999999998","0.07005516566262282","857"
"20:43:26:60 (H:m:s:ms)","GENERIC","155.925","0.06101498665967876","947"
"20:22:1:212 (H:m:s:ms)","GENERIC","156.08800000000002","0.04855831803376358","797"
"20:43:32:121 (H:m:s:ms)","GENERIC","156.66","0.07671977171433372","899"
"20:22:7:272 (H:m:s:ms)","GENERIC","156.65699999999998","0.06351010252444847","736"
"20:43:32:658 (H:m:s:ms)","OPERA","125.00399999999999","0.05322651681857136","352"
"20:22:13:333 (H:m:s:ms)","GENERIC","188.396","0.04989852541807518","676"
"20:43:38:181 (H:m:s:ms)","GENERIC","189.049","0.06466205229980947","825"
"20:22:19:393 (H:m:s:ms)","GENERIC","156.967","0.048131466577932824","653"
"20:43:40:253 (H:m:s:ms)","OPERA","125.165","0.0882625559890994","756"
"20:22:25:454 (H:m:s:ms)","GENERIC","156.845","0.05238195040469659","552"
"20:43:44:242 (H:m:s:ms)","GENERIC","189.074","0.08375263458489549","762"
"20:22:31:515 (H:m:s:ms)","GENERIC","188.27","0.05591805171029857","493"
"20:43:47:848 (H:m:s:ms)","OPERA","156.43200000000002","0.07987572906236834","161"
"20:22:37:575 (H:m:s:ms)","GENERIC","125.61","0.06544512662947542","424"
"20:43:50:303 (H:m:s:ms)","GENERIC","187.27100000000002","0.06750851541820471","706"
"20:22:43:636 (H:m:s:ms)","GENERIC","188.49099999999999","0.04957616007590599","375"
"20:22:49:696 (H:m:s:ms)","GENERIC","187.12","0.053435312426017505","349"
"20:43:55:443 (H:m:s:ms)","OPERA","125.153","0.07392499362405758","570"
"20:43:56:363 (H:m:s:ms)","GENERIC","157.32","0.0801786413560183","642"
"20:22:55:757 (H:m:s:ms)","GENERIC","155.218","0.05692921641336344","251"
"20:44:2:424 (H:m:s:ms)","GENERIC","187.37099999999998","0.08262785821008323","585"
"20:23:1:818 (H:m:s:ms)","GENERIC","186.888","0.04621738127276278","191"
"20:44:3:37 (H:m:s:ms)","OPERA","125.153","0.09696918899335723","970"
"20:23:7:878 (H:m:s:ms)","GENERIC","156.074","0.0674119769111943","1229"
"20:44:8:484 (H:m:s:ms)","GENERIC","186.85000000000002","0.0866949068253091","523"
"20:23:13:939 (H:m:s:ms)","GENERIC","186.308","0.05727438311299271","1067"
"20:44:10:632 (H:m:s:ms)","OPERA","125.16499999999999","0.09568808021196361","376"
"20:23:20:0 (H:m:s:ms)","GENERIC","186.304","0.036558797886405064","1045"
"20:44:14:545 (H:m:s:ms)","GENERIC","187.92700000000002","0.08886992854576713","466"
"20:23:26:60 (H:m:s:ms)","GENERIC","155.84","0.05514377115784964","947"
"20:44:18:227 (H:m:s:ms)","OPERA","125.107","0.08617878353123264","782"
"20:23:32:121 (H:m:s:ms)","GENERIC","188.00400000000002","0.05352363058741215","889"
"20:44:20:606 (H:m:s:ms)","GENERIC","125.50399999999999","0.08148576078163085","400"
"20:23:38:181 (H:m:s:ms)","GENERIC","189.067","0.0644855399037638","825"
"20:44:25:822 (H:m:s:ms)","OPERA","125.046","0.07439372038270449","188"
"20:23:44:242 (H:m:s:ms)","GENERIC","189.06900000000002","0.07424596097019434","761"
"20:23:50:303 (H:m:s:ms)","GENERIC","155.962","0.06653826305733855","704"
"20:44:26:666 (H:m:s:ms)","GENERIC","155.314","0.07682336016135433","341"
"20:44:32:727 (H:m:s:ms)","GENERIC","186.469","0.06630001314131814","280"
"20:23:56:363 (H:m:s:ms)","GENERIC","125.606","0.05864936639063546","641"
"20:44:33:417 (H:m:s:ms)","OPERA","125.208","0.08061796997849584","590"
"20:24:2:424 (H:m:s:ms)","GENERIC","156.108","0.04383978712081071","584"
"20:44:38:787 (H:m:s:ms)","GENERIC","188.289","0.07167980083781778","222"
"20:24:8:484 (H:m:s:ms)","GENERIC","186.791","0.06164297477054362","528"
"20:44:41:12 (H:m:s:ms)","OPERA","125.136","0.0747971746307014","996"
"20:24:14:545 (H:m:s:ms)","GENERIC","156.405","0.059655487723734954","464"
"20:44:44:848 (H:m:s:ms)","GENERIC","186.641","0.08381912449327703","161"
"20:24:20:606 (H:m:s:ms)","GENERIC","157.159","0.05000988426659362","400"
"20:44:48:607 (H:m:s:ms)","OPERA","125.142","0.08086714632029793","401"
"20:24:26:666 (H:m:s:ms)","GENERIC","186.27800000000002","0.0385188426028311","341"
"20:44:50:909 (H:m:s:ms)","GENERIC","124.281","0.05695021833199181","1100"
"20:24:32:727 (H:m:s:ms)","GENERIC","186.482","0.0861835466420481","280"
"20:44:56:202 (H:m:s:ms)","OPERA","125.186","0.05934010449357193","807"
"20:24:38:787 (H:m:s:ms)","GENERIC","156.65","0.04452357140214105","222"
"20:44:56:969 (H:m:s:ms)","GENERIC","156.596","0.07067654264275204","1051"
"20:24:44:848 (H:m:s:ms)","GENERIC","93.173","0.04121216605315775","161"
"20:24:50:909 (H:m:s:ms)","GENERIC","155.311","0.06513366320560446","1101"
"20:45:3:30 (H:m:s:ms)","GENERIC","157.18","0.0386477663993631","979"
"20:45:3:797 (H:m:s:ms)","OPERA","156.60500000000002","0.05517692458663347","221"
"20:24:56:969 (H:m:s:ms)","GENERIC","188.191","0.06931988656737277","1040"
"20:45:9:90 (H:m:s:ms)","GENERIC","187.672","0.028866806829819583","957"
"20:25:3:30 (H:m:s:ms)","GENERIC","157.077","0.03595487386073815","979"
"20:45:11:392 (H:m:s:ms)","OPERA","125.035","0.06763577798389249","614"
"20:25:9:90 (H:m:s:ms)","GENERIC","156.15800000000002","0.04630134970370065","951"
"20:45:15:151 (H:m:s:ms)","GENERIC","124.67099999999999","0.07770027498933638","853"
"20:25:15:151 (H:m:s:ms)","GENERIC","187.18","0.03860462196005812","853"
"20:45:18:987 (H:m:s:ms)","OPERA","125.104","0.07569460815846926","1059"
"20:25:21:212 (H:m:s:ms)","GENERIC","186.983","0.06557088832269455","797"
"20:45:21:212 (H:m:s:ms)","GENERIC","155.79","0.07026075392353315","799"
"20:25:27:272 (H:m:s:ms)","GENERIC","187.482","0.036230727110478464","737"
"20:45:26:582 (H:m:s:ms)","OPERA","156.417","0.06723708288914022","426"
"20:25:33:333 (H:m:s:ms)","GENERIC","125.533","0.05274212128663857","670"
"20:45:27:272 (H:m:s:ms)","GENERIC","187.48700000000002","0.08091034294570644","735"
"20:25:39:393 (H:m:s:ms)","GENERIC","188.089","0.07037411705222833","647"
"20:45:33:333 (H:m:s:ms)","GENERIC","124.92099999999999","0.06148313008068965","717"
"20:25:45:454 (H:m:s:ms)","GENERIC","156.829","0.04333963935826251","554"
"20:25:51:515 (H:m:s:ms)","GENERIC","156.45","0.049395252138787114","492"
"20:25:57:575 (H:m:s:ms)","GENERIC","187.88","0.0572659820005318","432"
"20:26:3:636 (H:m:s:ms)","GENERIC","155.699","0.04754481596536513","374"
"20:26:9:696 (H:m:s:ms)","GENERIC","188.046","0.06029560182798038","353"
"20:26:15:757 (H:m:s:ms)","GENERIC","188.623","0.034322853399950115","252"
"20:26:21:818 (H:m:s:ms)","GENERIC","156.173","0.05374119717321525","187"
"20:26:27:878 (H:m:s:ms)","GENERIC","156.667","0.06089812058218974","1127"
"20:26:33:939 (H:m:s:ms)","GENERIC","124.59299999999999","0.054096366077286066","1069"
"20:26:40:0 (H:m:s:ms)","GENERIC","188.08100000000002","0.0666577611069092","1040"
"20:26:46:60 (H:m:s:ms)","GENERIC","156.935","0.04809552160825419","949"
"20:26:52:121 (H:m:s:ms)","GENERIC","156.139","0.07142324083354276","889"
"20:26:58:181 (H:m:s:ms)","GENERIC","155.671","0.0533851707266189","826"
"20:27:4:242 (H:m:s:ms)","GENERIC","187.519","0.042458353870347854","766"
"20:27:10:303 (H:m:s:ms)","GENERIC","156.267","0.050444216401753526","705"
"20:27:16:363 (H:m:s:ms)","GENERIC","157.332","0.04913238198430468","643"
"20:27:22:424 (H:m:s:ms)","GENERIC","187.99","0.04201153643632775","586"
"20:27:28:484 (H:m:s:ms)","GENERIC","157.336","0.0657791651950217","519"
"20:27:34:545 (H:m:s:ms)","GENERIC","187.564","0.06998752460766061","561"
"20:27:40:606 (H:m:s:ms)","GENERIC","188.126","0.046868600038734394","403"
"20:27:46:666 (H:m:s:ms)","GENERIC","157.113","0.06782950113819455","343"
"20:27:52:727 (H:m:s:ms)","GENERIC","155.716","0.04402342894804412","278"
"20:27:58:787 (H:m:s:ms)","GENERIC","156.73399999999998","0.0442297973739068","222"
"20:28:4:848 (H:m:s:ms)","GENERIC","156.928","0.029765700237013734","162"
"20:28:10:909 (H:m:s:ms)","GENERIC","187.45600000000002","0.05232524115223236","1099"
"20:28:16:969 (H:m:s:ms)","GENERIC","186.761","0.05393550541514668","1040"
"20:28:23:30 (H:m:s:ms)","GENERIC","187.919","0.05272653458750308","973"
"20:28:29:90 (H:m:s:ms)","GENERIC","155.868","0.05485387128331957","954"
"20:28:35:151 (H:m:s:ms)","GENERIC","156.526","0.0678906207838182","856"
"20:28:41:212 (H:m:s:ms)","GENERIC","156.438","0.05739651951842666","956"
"20:28:47:272 (H:m:s:ms)","GENERIC","124.642","0.052163081435394575","733"
"20:28:53:333 (H:m:s:ms)","GENERIC","155.638","0.03429331348414322","675"
"20:28:59:393 (H:m:s:ms)","GENERIC","156.926","0.0388814626254261","651"
"20:29:5:454 (H:m:s:ms)","GENERIC","155.306","0.059872954244054005","552"
"20:29:11:515 (H:m:s:ms)","GENERIC","156.843","0.05214702123864713","490"
"20:29:17:575 (H:m:s:ms)","GENERIC","124.976","0.037652685511321234","482"
"20:29:23:636 (H:m:s:ms)","GENERIC","157.302","0.05117800085959402","371"
"20:29:29:696 (H:m:s:ms)","GENERIC","156.527","0.04748735441328572","353"
"20:29:35:757 (H:m:s:ms)","GENERIC","188.717","0.03683991576771052","252"
"20:29:41:818 (H:m:s:ms)","GENERIC","156.542","0.06206731776319424","189"
"20:29:47:878 (H:m:s:ms)","GENERIC","125.366","0.04960300642591544","189"
"20:29:53:939 (H:m:s:ms)","GENERIC","156.231","0.05002651200417411","1071"
"21:20:0:0 (H:m:s:ms)","GENERIC","156.34300000000002","0.0875335447514308","2251"
"21:20:0:0 (H:m:s:ms)","GENERIC","188.384","0.11028879959870728","2261"
"21:20:6:60 (H:m:s:ms)","GENERIC","187.222","0.04610499317354313","949"
"21:20:7:594 (H:m:s:ms)","OPERA","125.169","0.07644887501389439","415"
"21:20:12:121 (H:m:s:ms)","GENERIC","156.422","0.07839315941300565","883"
"21:20:15:189 (H:m:s:ms)","OPERA","156.115","0.07401607613968596","821"
"21:20:18:181 (H:m:s:ms)","GENERIC","187.522","0.08593027729502725","823"
"21:20:22:784 (H:m:s:ms)","OPERA","125.146","0.07633361235282711","226"
"21:20:24:242 (H:m:s:ms)","GENERIC","125.613","0.06511226530882189","760"
"21:20:30:303 (H:m:s:ms)","GENERIC","156.493","0.06102738011059048","701"
"21:20:30:379 (H:m:s:ms)","OPERA","125.125","0.09160139984453182","634"
"21:20:36:363 (H:m:s:ms)","GENERIC","156.276","0.05863855545513753","646"
"21:20:37:974 (H:m:s:ms)","OPERA","156.09199999999998","0.0785472004812481","1035"
"21:20:42:424 (H:m:s:ms)","GENERIC","188.976","0.0718063933471","582"
"21:20:45:569 (H:m:s:ms)","OPERA","125.141","0.07241353986133327","440"
"21:20:48:484 (H:m:s:ms)","GENERIC","155.778","0.06474828773504529","524"
"21:20:53:164 (H:m:s:ms)","OPERA","156.558","0.09055007346359134","843"
"21:20:54:545 (H:m:s:ms)","GENERIC","186.494","0.09412462932106404","465"
"21:21:0:606 (H:m:s:ms)","GENERIC","187.58800000000002","0.06638936211678122","403"
"21:21:0:759 (H:m:s:ms)","OPERA","156.10999999999999","0.10015776113665742","258"
"21:32:43:636 (H:m:s:ms)","GENERIC","156.915","0.04646314110093624","373"
"21:32:31:515 (H:m:s:ms)","GENERIC","187.868","0.06052712570336062","598"
"21:32:25:454 (H:m:s:ms)","GENERIC","156.773","0.06410830783604159","552"
"21:32:19:393 (H:m:s:ms)","GENERIC","188.649","0.04579228714508343","653"
"21:32:13:333 (H:m:s:ms)","GENERIC","156.85899999999998","0.05943126795834506","676"
"21:32:7:272 (H:m:s:ms)","GENERIC","188.116","0.050966210472027436","737"
"21:32:1:212 (H:m:s:ms)","GENERIC","155.865","0.042494960642239434","798"
"21:31:55:151 (H:m:s:ms)","GENERIC","156.202","0.0652474220932754","862"
"21:21:6:666 (H:m:s:ms)","GENERIC","157.302","0.06867251929380618","340"
"21:31:49:90 (H:m:s:ms)","GENERIC","157.204","0.047448423434457376","953"
"21:21:8:354 (H:m:s:ms)","OPERA","125.165","0.08931356823189872","655"
"21:21:12:727 (H:m:s:ms)","GENERIC","187.856","0.07046318355520978","282"
"21:21:15:949 (H:m:s:ms)","OPERA","156.138","0.065886891543311","1060"
"21:21:18:787 (H:m:s:ms)","GENERIC","186.556","0.07135604203612075","223"
"21:21:23:544 (H:m:s:ms)","OPERA","124.717","0.06596567587346347","464"
"21:21:24:848 (H:m:s:ms)","GENERIC","186.873","0.07289348314600112","157"
"21:21:30:909 (H:m:s:ms)","GENERIC","155.298","0.07257683102789897","1107"
"21:32:37:894 (H:m:s:ms)","AMBULANCE","125.381","0.07627686970255833","129"
"21:21:31:139 (H:m:s:ms)","OPERA","156.60899999999998","0.03529109848774143","870"
"21:32:37:575 (H:m:s:ms)","GENERIC","157.281","0.06164418547785385","432"
"21:21:36:969 (H:m:s:ms)","GENERIC","157.29500000000002","0.06123500186453862","1033"
"21:33:41:52 (H:m:s:ms)","AMBULANCE","156.65699999999998","0.08074694928636636","992"
"21:33:38:181 (H:m:s:ms)","GENERIC","189.041","0.06584547156773249","825"
"21:33:26:60 (H:m:s:ms)","GENERIC","155.902","0.05142793125591907","947"
"21:33:20:0 (H:m:s:ms)","GENERIC","125.34100000000001","0.040709442953566544","1047"
"21:33:13:939 (H:m:s:ms)","GENERIC","155.433","0.08361721828166437","1066"
"21:33:9:473 (H:m:s:ms)","AMBULANCE","156.37099999999998","0.07681756436012682","569"
"21:33:7:878 (H:m:s:ms)","GENERIC","156.41","0.04185755552593565","1126"
"21:33:1:818 (H:m:s:ms)","GENERIC","155.743","0.0648556510397445","189"
"21:21:38:734 (H:m:s:ms)","OPERA","125.113","0.08114244812500143","275"
"21:32:55:757 (H:m:s:ms)","GENERIC","155.30700000000002","0.03233739526142691","251"
"21:21:43:30 (H:m:s:ms)","GENERIC","124.262","0.07381086464541274","974"
"21:32:49:696 (H:m:s:ms)","GENERIC","187.157","0.04125717809355158","351"
"21:21:46:329 (H:m:s:ms)","OPERA","125.131","0.06909226745413044","679"
"21:21:49:90 (H:m:s:ms)","GENERIC","157.227","0.06458068646011741","952"
"21:21:53:924 (H:m:s:ms)","OPERA","125.209","0.05720423365187463","86"
"21:21:55:151 (H:m:s:ms)","GENERIC","156.65300000000002","0.07550141576432316","857"
"21:22:1:212 (H:m:s:ms)","GENERIC","124.64699999999999","0.047819560318802225","797"
"21:22:7:272 (H:m:s:ms)","GENERIC","188.156","0.07212863457657623","735"
"21:22:9:113 (H:m:s:ms)","OPERA","156.042","0.08692488910837345","930"
"21:22:13:333 (H:m:s:ms)","GENERIC","188.435","0.07329175985302906","675"
"21:33:32:121 (H:m:s:ms)","GENERIC","156.551","0.05545936376895956","889"
"21:34:38:787 (H:m:s:ms)","GENERIC","156.84","0.040707704609883655","223"
"21:34:32:727 (H:m:s:ms)","GENERIC","155.425","0.07440086490551598","280"
"21:34:26:666 (H:m:s:ms)","GENERIC","186.255","0.029154925672474474","342"
"21:34:20:606 (H:m:s:ms)","GENERIC","125.434","0.035108473908213346","398"
"21:34:14:545 (H:m:s:ms)","GENERIC","124.94200000000001","0.05609912146117769","466"
"21:34:12:631 (H:m:s:ms)","AMBULANCE","93.895","0.07928584401159192","391"
"21:34:8:484 (H:m:s:ms)","GENERIC","186.801","0.06495552071773705","527"
"21:34:2:424 (H:m:s:ms)","GENERIC","187.29500000000002","0.05022686533257078","583"
"21:22:16:708 (H:m:s:ms)","OPERA","125.18","0.07571934411335628","301"
"21:33:56:363 (H:m:s:ms)","GENERIC","157.275","0.062063633985464065","641"
"21:22:19:393 (H:m:s:ms)","GENERIC","188.57999999999998","0.06751458013712398","652"
"21:33:50:303 (H:m:s:ms)","GENERIC","187.28","0.04923871103357328","707"
"21:1:36:969 (H:m:s:ms)","GENERIC","157.334","0.06928141046558492","1033"
"21:22:24:303 (H:m:s:ms)","OPERA","156.402","0.0761007277890812","706"
"21:33:44:242 (H:m:s:ms)","GENERIC","189.102","0.07335390507532731","762"
"21:1:43:30 (H:m:s:ms)","GENERIC","124.224","0.050250317309011604","974"
"21:22:25:454 (H:m:s:ms)","GENERIC","188.296","0.09684335164732791","551"
"21:1:49:90 (H:m:s:ms)","GENERIC","157.282","0.0518488183526056","957"
"21:22:31:515 (H:m:s:ms)","GENERIC","156.715","0.06851181787644521","493"
"21:1:55:151 (H:m:s:ms)","GENERIC","188.114","0.07441181943488764","856"
"21:22:31:898 (H:m:s:ms)","OPERA","125.079","0.0812924965084452","121"
"21:2:1:212 (H:m:s:ms)","GENERIC","124.601","0.047059873405999535","797"
"21:22:37:575 (H:m:s:ms)","GENERIC","125.6","0.060567012317567386","424"
"21:2:6:315 (H:m:s:ms)","AMBULANCE","125.269","0.08008941424765224","731"
"21:22:39:493 (H:m:s:ms)","OPERA","156.41899999999998","0.08110971239363446","553"
"21:2:7:272 (H:m:s:ms)","GENERIC","156.69","0.09483190370899176","735"
"21:22:43:636 (H:m:s:ms)","GENERIC","156.945","0.06631490615599854","373"
"21:2:13:333 (H:m:s:ms)","GENERIC","188.409","0.04504336039306023","676"
"21:22:47:88 (H:m:s:ms)","OPERA","125.073","0.06510557006651074","921"
"21:2:19:393 (H:m:s:ms)","GENERIC","157.044","0.03647709895425213","656"
"21:2:25:454 (H:m:s:ms)","GENERIC","188.362","0.0413839052574933","551"
"21:35:33:333 (H:m:s:ms)","GENERIC","187.883","0.06120941191926516","671"
"21:35:27:272 (H:m:s:ms)","GENERIC","156.212","0.04147343397723435","737"
"21:35:21:212 (H:m:s:ms)","GENERIC","187.073","0.055111508105054774","798"
"21:35:15:789 (H:m:s:ms)","AMBULANCE","156.903","0.05874968353487618","222"
"21:35:15:151 (H:m:s:ms)","GENERIC","155.91","0.03703368856909069","854"
"21:35:9:90 (H:m:s:ms)","GENERIC","187.464","0.04929485456608202","956"
"21:35:3:30 (H:m:s:ms)","GENERIC","157.195","0.04933894014610927","979"
"21:22:49:696 (H:m:s:ms)","GENERIC","155.885","0.0680113928599843","348"
"21:34:56:969 (H:m:s:ms)","GENERIC","188.246","0.04418866403813904","1042"
"21:22:54:683 (H:m:s:ms)","OPERA","156.142","0.07775313653830225","325"
"21:34:50:909 (H:m:s:ms)","GENERIC","155.368","0.06256686646430262","1101"
"21:2:31:515 (H:m:s:ms)","GENERIC","188.109","0.06202154424140141","494"
"21:22:55:757 (H:m:s:ms)","GENERIC","155.311","0.08651165199458118","250"
"21:34:44:848 (H:m:s:ms)","GENERIC","186.682","0.0805560801825211","196"
"21:2:37:575 (H:m:s:ms)","GENERIC","157.303","0.05750652668106125","432"
"21:23:1:818 (H:m:s:ms)","GENERIC","155.839","0.07593401947711627","190"
"21:34:44:210 (H:m:s:ms)","AMBULANCE","125.38","0.06005920494774177","825"
"21:2:37:894 (H:m:s:ms)","AMBULANCE","156.562","0.07447746675634079","125"
"21:23:2:278 (H:m:s:ms)","OPERA","125.006","0.08666994381853738","732"
"21:2:43:636 (H:m:s:ms)","GENERIC","188.502","0.04671122282097757","374"
"21:23:7:878 (H:m:s:ms)","GENERIC","156.353","0.030272142819942886","1126"
"21:2:49:696 (H:m:s:ms)","GENERIC","124.525","0.05286573432461179","351"
"21:23:9:873 (H:m:s:ms)","OPERA","125.046","0.07439531967706219","171"
"21:2:55:757 (H:m:s:ms)","GENERIC","186.323","0.03705695722544802","249"
"21:23:13:939 (H:m:s:ms)","GENERIC","155.321","0.08924288823932676","1067"
"21:3:1:818 (H:m:s:ms)","GENERIC","186.975","0.05358022361120959","189"
"21:23:17:468 (H:m:s:ms)","OPERA","156.512","0.0853427650572811","541"
"21:3:7:878 (H:m:s:ms)","GENERIC","156.456","0.05860124043107531","1126"
"21:23:20:0 (H:m:s:ms)","GENERIC","156.394","0.07745279451815465","1051"
"21:3:9:473 (H:m:s:ms)","AMBULANCE","125.103","0.06347915398201073","577"
"21:3:13:939 (H:m:s:ms)","GENERIC","186.393","0.06645290817389903","1067"
"21:36:27:878 (H:m:s:ms)","GENERIC","188.22500000000002","0.05397970475998301","1129"
"21:36:21:818 (H:m:s:ms)","GENERIC","156.21699999999998","0.07179480727446749","187"
"21:36:18:947 (H:m:s:ms)","AMBULANCE","125.027","0.07081285052441506","1155"
"21:36:15:757 (H:m:s:ms)","GENERIC","157.09300000000002","0.046175391287601","254"
"21:36:9:696 (H:m:s:ms)","GENERIC","156.446","0.053658965750277655","349"
"21:36:3:636 (H:m:s:ms)","GENERIC","155.507","0.03331615929798437","375"
"21:23:25:63 (H:m:s:ms)","OPERA","156.351","0.08887259407744118","962"
"21:35:57:575 (H:m:s:ms)","GENERIC","156.46","0.057045764965285246","433"
"21:23:26:60 (H:m:s:ms)","GENERIC","187.119","0.08630503793736541","948"
"21:35:51:515 (H:m:s:ms)","GENERIC","187.861","0.07279714288885102","493"
"21:3:20:0 (H:m:s:ms)","GENERIC","186.404","0.024484380296108797","1052"
"21:23:32:121 (H:m:s:ms)","GENERIC","156.736","0.0386668400177068","889"
"21:35:47:368 (H:m:s:ms)","AMBULANCE","125.142","0.07880760990558061","641"
"21:3:26:60 (H:m:s:ms)","GENERIC","155.954","0.04549297667973304","947"
"21:23:32:658 (H:m:s:ms)","OPERA","156.133","0.07185824169925445","362"
"21:35:45:454 (H:m:s:ms)","GENERIC","156.865","0.0464372653224913","555"
"21:3:32:121 (H:m:s:ms)","GENERIC","188.077","0.039991749232699436","890"
"21:23:38:181 (H:m:s:ms)","GENERIC","157.326","0.04331649666515236","826"
"21:35:39:393 (H:m:s:ms)","GENERIC","188.054","0.04995263303052466","650"
"21:3:38:181 (H:m:s:ms)","GENERIC","157.344","0.04620862914829212","825"
"21:23:40:253 (H:m:s:ms)","OPERA","187.429","0.08517546062575189","756"
"21:3:41:52 (H:m:s:ms)","AMBULANCE","125.23400000000001","0.07948649750582774","959"
"21:23:44:242 (H:m:s:ms)","GENERIC","157.406","0.09582699726844023","762"
"21:3:44:242 (H:m:s:ms)","GENERIC","93.908","0.08993439663176264","759"
"21:23:47:848 (H:m:s:ms)","OPERA","156.499","0.07525302182793947","161"
"21:3:50:303 (H:m:s:ms)","GENERIC","155.932","0.029144444723900244","707"
"21:23:50:303 (H:m:s:ms)","GENERIC","187.26999999999998","0.07350814423644679","706"
"21:3:56:363 (H:m:s:ms)","GENERIC","157.276","0.053828584369203326","641"
"21:23:55:443 (H:m:s:ms)","OPERA","156.527","0.07664820079885624","571"
"21:4:2:424 (H:m:s:ms)","GENERIC","155.94299999999998","0.05716548814650503","584"
"21:4:8:484 (H:m:s:ms)","GENERIC","155.597","0.06390604968021414","524"
"21:37:22:424 (H:m:s:ms)","GENERIC","156.66199999999998","0.09126825581775065","593"
"21:37:22:105 (H:m:s:ms)","AMBULANCE","156.804","0.07121746693495325","901"
"21:37:16:363 (H:m:s:ms)","GENERIC","125.444","0.048015319924447526","643"
"21:37:10:303 (H:m:s:ms)","GENERIC","187.584","0.03842184155616178","707"
"21:37:4:242 (H:m:s:ms)","GENERIC","156.166","0.050963871052664624","767"
"21:36:58:181 (H:m:s:ms)","GENERIC","155.531","0.04883991661217868","828"
"21:23:56:363 (H:m:s:ms)","GENERIC","157.276","0.07398434163786913","642"
"21:24:2:424 (H:m:s:ms)","GENERIC","156.028","0.06191682859698954","584"
"21:36:52:121 (H:m:s:ms)","GENERIC","156.402","0.07940022587577228","882"
"21:4:12:631 (H:m:s:ms)","AMBULANCE","156.495","0.09362876844588763","474"
"21:24:3:37 (H:m:s:ms)","OPERA","125.162","0.08395440788999685","972"
"21:36:50:526 (H:m:s:ms)","AMBULANCE","125.373","0.06208068583288786","482"
"21:4:14:545 (H:m:s:ms)","GENERIC","187.92399999999998","0.08234168917627524","466"
"21:24:8:484 (H:m:s:ms)","GENERIC","155.688","0.07427937238489413","525"
"21:36:46:60 (H:m:s:ms)","GENERIC","188.594","0.03976769704458081","950"
"21:4:20:606 (H:m:s:ms)","GENERIC","188.934","0.04801014716553475","401"
"21:24:10:632 (H:m:s:ms)","OPERA","156.142","0.0729872963106701","377"
"21:36:40:0 (H:m:s:ms)","GENERIC","156.54899999999998","0.05841733584328286","1042"
"21:4:26:666 (H:m:s:ms)","GENERIC","155.18699999999998","0.04762443428149508","341"
"21:24:14:545 (H:m:s:ms)","GENERIC","156.465","0.06540909771856591","466"
"21:36:33:939 (H:m:s:ms)","GENERIC","187.127","0.05677323618108342","1070"
"21:4:32:727 (H:m:s:ms)","GENERIC","124.3","0.04827038196449635","281"
"21:24:18:227 (H:m:s:ms)","OPERA","156.077","0.06088193840090736","782"
"21:4:38:787 (H:m:s:ms)","GENERIC","156.79","0.05603381216453148","223"
"21:24:20:606 (H:m:s:ms)","GENERIC","156.162","0.07714526546768084","462"
"21:4:44:210 (H:m:s:ms)","AMBULANCE","156.482","0.05532642775306073","801"
"21:24:25:822 (H:m:s:ms)","OPERA","125.174","0.08416618723836108","186"
"21:4:44:848 (H:m:s:ms)","GENERIC","155.60500000000002","0.07323992170475302","173"
"21:24:26:666 (H:m:s:ms)","GENERIC","155.228","0.0850378228677602","341"
"21:4:50:909 (H:m:s:ms)","GENERIC","155.418","0.05716262495727714","1100"
"21:4:56:969 (H:m:s:ms)","GENERIC","156.745","0.07284869576338182","1041"
"21:38:25:263 (H:m:s:ms)","AMBULANCE","125.00999999999999","0.08596482319905963","803"
"21:38:23:30 (H:m:s:ms)","GENERIC","156.426","0.0699110991049924","974"
"21:38:16:969 (H:m:s:ms)","GENERIC","186.583","0.028173825587343045","1040"
"21:38:10:909 (H:m:s:ms)","GENERIC","187.594","0.059951575009640413","1101"
"21:38:4:848 (H:m:s:ms)","GENERIC","156.374","0.04795052861069746","156"
"21:37:58:787 (H:m:s:ms)","GENERIC","156.78","0.05557248567139077","224"
"21:37:52:727 (H:m:s:ms)","GENERIC","124.56700000000001","0.04399033529523904","278"
"21:24:32:727 (H:m:s:ms)","GENERIC","155.32999999999998","0.0419484659148024","281"
"21:24:33:417 (H:m:s:ms)","OPERA","156.397","0.06576494368608257","592"
"21:5:3:30 (H:m:s:ms)","GENERIC","157.098","0.04521038220105412","980"
"21:24:38:787 (H:m:s:ms)","GENERIC","156.824","0.07110861972696188","223"
"21:5:9:90 (H:m:s:ms)","GENERIC","187.707","0.038066738803942485","959"
"21:24:41:12 (H:m:s:ms)","OPERA","156.394","0.07421735816168591","998"
"21:37:46:666 (H:m:s:ms)","GENERIC","157.12099999999998","0.07083927369444831","344"
"20:45:34:177 (H:m:s:ms)","OPERA","125.223","0.07885291080377049","832"
"21:5:15:151 (H:m:s:ms)","GENERIC","155.939","0.04394167444854393","854"
"21:24:44:848 (H:m:s:ms)","GENERIC","155.60399999999998","0.06693735775369697","161"
"21:37:40:606 (H:m:s:ms)","GENERIC","156.64499999999998","0.05790596323541019","404"
"20:45:39:393 (H:m:s:ms)","GENERIC","156.464","0.07422750104689092","651"
"21:5:15:789 (H:m:s:ms)","AMBULANCE","125.017","0.07134157484272798","318"
"21:24:48:607 (H:m:s:ms)","OPERA","156.49099999999999","0.053794606971315474","401"
"21:37:34:545 (H:m:s:ms)","GENERIC","156.486","0.06621246163688185","459"
"20:45:41:772 (H:m:s:ms)","OPERA","125.19999999999999","0.07123064554010007","236"
"21:5:21:212 (H:m:s:ms)","GENERIC","155.85399999999998","0.05974846492508497","797"
"21:24:50:909 (H:m:s:ms)","GENERIC","186.463","0.05258312087995721","1100"
"21:37:28:484 (H:m:s:ms)","GENERIC","157.341","0.06699960064310956","518"
"20:45:45:454 (H:m:s:ms)","GENERIC","156.941","0.0684545292832392","554"
"21:5:27:272 (H:m:s:ms)","GENERIC","187.611","0.05365950699860755","738"
"21:24:56:202 (H:m:s:ms)","OPERA","125.086","0.06025849418649669","807"
"20:45:49:367 (H:m:s:ms)","OPERA","125.102","0.06595973924590416","682"
"21:5:33:333 (H:m:s:ms)","GENERIC","156.425","0.04546522378566335","671"
"21:24:56:969 (H:m:s:ms)","GENERIC","156.823","0.06687340731345282","1050"
"20:45:51:515 (H:m:s:ms)","GENERIC","156.487","0.05239053239910718","497"
"21:5:39:393 (H:m:s:ms)","GENERIC","124.947","0.045596007331880135","652"
"21:25:3:30 (H:m:s:ms)","GENERIC","157.054","0.0627995946830261","979"
"20:45:56:962 (H:m:s:ms)","OPERA","156.537","0.054807632500790585","1048"
"21:5:45:454 (H:m:s:ms)","GENERIC","188.519","0.04635235208501606","555"
"20:45:57:575 (H:m:s:ms)","GENERIC","156.465","0.08514395501011883","444"
"21:5:47:368 (H:m:s:ms)","AMBULANCE","156.486","0.05533056709518026","643"
"20:46:3:636 (H:m:s:ms)","GENERIC","186.623","0.04400182309939718","374"
"20:46:4:556 (H:m:s:ms)","OPERA","156.548","0.07601698181731475","452"
"21:39:28:421 (H:m:s:ms)","AMBULANCE","125.19800000000001","0.07054112162318871","617"
"21:39:23:636 (H:m:s:ms)","GENERIC","189.031","0.05081945632044431","373"
"21:39:17:575 (H:m:s:ms)","GENERIC","187.93900000000002","0.0656063158615842","430"
"21:39:11:515 (H:m:s:ms)","GENERIC","125.30699999999999","0.05023461688636356","490"
"21:39:5:454 (H:m:s:ms)","GENERIC","186.385","0.05617604155840778","551"
"21:38:59:393 (H:m:s:ms)","GENERIC","188.458","0.06193082769160223","659"
"21:38:53:333 (H:m:s:ms)","GENERIC","187.031","0.05629780534870917","676"
"21:38:47:272 (H:m:s:ms)","GENERIC","124.76599999999999","0.04846014812973152","735"
"21:25:3:797 (H:m:s:ms)","OPERA","125.139","0.07091934420806091","222"
"21:25:9:90 (H:m:s:ms)","GENERIC","156.239","0.03935053462303997","954"
"21:5:51:515 (H:m:s:ms)","GENERIC","188.036","0.047125763244934914","493"
"21:25:11:392 (H:m:s:ms)","OPERA","156.505","0.053869365363180946","617"
"21:5:57:575 (H:m:s:ms)","GENERIC","156.399","0.06978243032679969","433"
"21:25:15:151 (H:m:s:ms)","GENERIC","124.656","0.06460500246479944","854"
"20:46:9:696 (H:m:s:ms)","GENERIC","187.875","0.07442852363587725","351"
"21:6:3:636 (H:m:s:ms)","GENERIC","186.677","0.05602813510552214","373"
"21:25:18:987 (H:m:s:ms)","OPERA","156.361","0.07249998586943186","1059"
"20:46:12:151 (H:m:s:ms)","OPERA","125.07000000000001","0.07587442593503879","857"
"21:6:9:696 (H:m:s:ms)","GENERIC","156.48000000000002","0.04881850942543484","351"
"21:25:21:212 (H:m:s:ms)","GENERIC","187.03199999999998","0.08390336430176815","801"
"21:38:41:212 (H:m:s:ms)","GENERIC","156.08","0.05769832664164371","799"
"20:46:15:757 (H:m:s:ms)","GENERIC","188.709","0.08227629368462668","252"
"21:6:15:757 (H:m:s:ms)","GENERIC","157.125","0.05421554269080354","253"
"21:25:26:582 (H:m:s:ms)","OPERA","125.1","0.07992954469636226","428"
"21:38:35:151 (H:m:s:ms)","GENERIC","156.469","0.04745336216186243","860"
"20:46:19:746 (H:m:s:ms)","OPERA","125.07000000000001","0.0748371880135585","301"
"21:6:18:947 (H:m:s:ms)","AMBULANCE","125.176","0.06273813345092227","1103"
"21:25:27:272 (H:m:s:ms)","GENERIC","156.247","0.06085510844503396","738"
"21:38:29:90 (H:m:s:ms)","GENERIC","155.957","0.057338080990712484","961"
"20:46:21:818 (H:m:s:ms)","GENERIC","124.811","0.07712402723944461","187"
"21:6:21:818 (H:m:s:ms)","GENERIC","156.214","0.08264772289305483","187"
"21:25:33:333 (H:m:s:ms)","GENERIC","156.572","0.051444896160929184","673"
"20:46:27:341 (H:m:s:ms)","OPERA","125.112","0.03911368201894344","667"
"21:6:27:878 (H:m:s:ms)","GENERIC","156.574","0.0595203477873863","1128"
"21:25:34:177 (H:m:s:ms)","OPERA","93.785","0.06683407671012595","835"
"20:46:27:878 (H:m:s:ms)","GENERIC","156.586","0.07339337389864109","1137"
"21:6:33:939 (H:m:s:ms)","GENERIC","155.768","0.04547558396610523","1070"
"20:46:33:939 (H:m:s:ms)","GENERIC","187.026","0.06272994487202851","1069"
"21:6:40:0 (H:m:s:ms)","GENERIC","156.547","0.06318561269090271","1042"
"20:46:34:936 (H:m:s:ms)","OPERA","125.10199999999999","0.0812578098586905","1081"
"20:46:40:0 (H:m:s:ms)","GENERIC","156.498","0.08210583834505794","1045"
"21:39:41:818 (H:m:s:ms)","GENERIC","156.706","0.057469042600009776","188"
"21:40:18:181 (H:m:s:ms)","GENERIC","156.119","0.054900330786659624","823"
"21:40:12:121 (H:m:s:ms)","GENERIC","156.39","0.04644019494885632","891"
"21:40:6:60 (H:m:s:ms)","GENERIC","155.979","0.059210165951034004","951"
"21:40:0:0 (H:m:s:ms)","GENERIC","156.972","0.07701451218007446","2672"
"21:40:0:0 (H:m:s:ms)","GENERIC","156.13299999999998","0.06987662793717504","2660"
"21:40:0:0 (H:m:s:ms)","AMBULANCE","125.18900000000001","0.05297016274583541","2651"
"21:39:53:939 (H:m:s:ms)","GENERIC","156.233","0.04165294306783254","1072"
"21:39:47:878 (H:m:s:ms)","GENERIC","156.638","0.05401732995674238","1131"
"21:6:46:60 (H:m:s:ms)","GENERIC","156.935","0.030097827573946793","949"
"21:6:50:526 (H:m:s:ms)","AMBULANCE","156.622","0.0809753402064159","532"
"20:46:42:531 (H:m:s:ms)","OPERA","156.38299999999998","0.07526921345405187","477"
"21:6:52:121 (H:m:s:ms)","GENERIC","93.404","0.08944525302867777","888"
"20:46:46:60 (H:m:s:ms)","GENERIC","156.962","0.0624021848822887","949"
"21:6:58:181 (H:m:s:ms)","GENERIC","124.33500000000001","0.04630624848791007","828"
"20:46:50:126 (H:m:s:ms)","OPERA","125.05","0.07695433151470608","882"
"21:7:4:242 (H:m:s:ms)","GENERIC","156.187","0.039681300352811616","768"
"20:46:52:121 (H:m:s:ms)","GENERIC","156.137","0.08041249193608135","889"
"21:7:10:303 (H:m:s:ms)","GENERIC","124.84","0.04722885503737252","706"
"21:39:35:757 (H:m:s:ms)","GENERIC","156.954","0.03288688004193065","253"
"20:46:57:721 (H:m:s:ms)","OPERA","125.13499999999999","0.06668675218007204","288"
"21:7:16:363 (H:m:s:ms)","GENERIC","157.236","0.04969322608633276","644"
"21:39:29:696 (H:m:s:ms)","GENERIC","156.201","0.07965753408238026","374"
"20:46:58:181 (H:m:s:ms)","GENERIC","186.75","0.07022491007002038","827"
"21:7:22:105 (H:m:s:ms)","AMBULANCE","156.656","0.08042187118701176","963"
"20:47:4:242 (H:m:s:ms)","GENERIC","187.493","0.06457328078352617","766"
"21:7:22:424 (H:m:s:ms)","GENERIC","188.027","0.05932759134571061","586"
"20:47:5:316 (H:m:s:ms)","OPERA","125.135","0.08603811403953832","691"
"21:7:28:484 (H:m:s:ms)","GENERIC","125.675","0.06419170388755671","520"
"20:47:10:303 (H:m:s:ms)","GENERIC","156.317","0.0733373764626001","705"
"20:47:12:911 (H:m:s:ms)","OPERA","125.194","0.07992283640748507","1098"
"21:7:34:545 (H:m:s:ms)","GENERIC","156.425","0.059840114031361316","460"
"21:7:40:606 (H:m:s:ms)","GENERIC","156.627","0.049004225726347016","404"
"20:47:16:363 (H:m:s:ms)","GENERIC","125.62899999999999","0.07587230554668299","643"
"21:7:46:666 (H:m:s:ms)","GENERIC","125.471","0.046770566052604344","343"
"20:47:20:506 (H:m:s:ms)","OPERA","93.714","0.05432439295762584","504"
"21:7:52:727 (H:m:s:ms)","GENERIC","155.812","0.04935464957145956","279"
"20:47:22:424 (H:m:s:ms)","GENERIC","156.654","0.06181911345170487","585"
"21:7:53:684 (H:m:s:ms)","AMBULANCE","156.775","0.0670436203458026","370"
"20:47:28:101 (H:m:s:ms)","OPERA","156.475","0.05121888812236205","907"
"21:7:58:787 (H:m:s:ms)","GENERIC","188.215","0.07245556085050424","223"
"20:47:28:484 (H:m:s:ms)","GENERIC","125.616","0.07511637674639303","529"
"21:8:4:848 (H:m:s:ms)","GENERIC","188.042","0.06207846227333719","156"
"20:47:34:545 (H:m:s:ms)","GENERIC","156.559","0.044033650798016716","459"
"21:8:10:909 (H:m:s:ms)","GENERIC","187.487","0.04540404982705406","1099"
"21:40:24:242 (H:m:s:ms)","GENERIC","157.281","0.05062469230923795","766"
"20:47:35:696 (H:m:s:ms)","OPERA","156.48399999999998","0.06674721947175481","312"
"21:8:16:969 (H:m:s:ms)","GENERIC","186.534","0.035963951418216775","1041"
"20:47:40:606 (H:m:s:ms)","GENERIC","188.041","0.08886546756873544","403"
"21:8:23:30 (H:m:s:ms)","GENERIC","124.98400000000001","0.03929187622382197","973"
"20:47:43:291 (H:m:s:ms)","OPERA","125.109","0.08952176678322385","717"
"20:47:46:666 (H:m:s:ms)","GENERIC","188.816","0.08560010719506149","342"
"21:8:25:263 (H:m:s:ms)","AMBULANCE","125.12899999999999","0.06224345029939027","750"
"21:8:29:90 (H:m:s:ms)","GENERIC","155.899","0.06378584547369745","955"
"20:47:50:886 (H:m:s:ms)","OPERA","125.14399999999999","0.08794559280115305","121"
"21:8:35:151 (H:m:s:ms)","GENERIC","156.548","0.04111146482491884","858"
"20:47:52:727 (H:m:s:ms)","GENERIC","186.944","0.07313057738008785","278"
"21:8:41:212 (H:m:s:ms)","GENERIC","187.65","0.04592330970575954","798"
"20:30:0:0 (H:m:s:ms)","GENERIC","156.165","0.03573290090978626","1046"
"20:47:58:481 (H:m:s:ms)","OPERA","125.136","0.05664054697168958","527"
"21:8:47:272 (H:m:s:ms)","GENERIC","156.03","0.044550489137314325","734"
"20:30:0:0 (H:m:s:ms)","GENERIC","156.894","0.050906941933218326","1055"
"20:47:58:787 (H:m:s:ms)","GENERIC","156.723","0.06698359553576815","232"
"21:8:53:333 (H:m:s:ms)","GENERIC","155.889","0.05104854456277744","676"
"20:30:6:60 (H:m:s:ms)","GENERIC","187.229","0.05065772712178782","949"
"20:48:4:848 (H:m:s:ms)","GENERIC","125.511","0.06826058783677082","156"
"21:8:56:842 (H:m:s:ms)","AMBULANCE","125.295","0.07679607434294931","208"
"20:30:12:121 (H:m:s:ms)","GENERIC","156.428","0.04515841683556892","884"
"20:48:6:75 (H:m:s:ms)","OPERA","125.169","0.08128298467651951","933"
"21:8:59:393 (H:m:s:ms)","GENERIC","188.488","0.08347918868122745","653"
"20:30:18:181 (H:m:s:ms)","GENERIC","156.05","0.06750605996824979","823"
"20:48:10:909 (H:m:s:ms)","GENERIC","156.12","0.0721319519650158","1098"
"21:9:5:454 (H:m:s:ms)","GENERIC","186.37","0.055054738357611946","552"
"20:30:24:242 (H:m:s:ms)","GENERIC","157.344","0.07081753234607703","760"
"20:48:13:670 (H:m:s:ms)","OPERA","93.816","0.07137630856666968","337"
"21:9:11:515 (H:m:s:ms)","GENERIC","156.857","0.03315466352436256","490"
"20:30:30:303 (H:m:s:ms)","GENERIC","156.21699999999998","0.05836996088219832","707"
"20:48:16:969 (H:m:s:ms)","GENERIC","186.635","0.07895334018399276","1039"
"20:30:36:363 (H:m:s:ms)","GENERIC","187.722","0.04445343905915105","645"
"20:48:21:265 (H:m:s:ms)","OPERA","125.184","0.08697355997692137","743"
"20:30:42:424 (H:m:s:ms)","GENERIC","188.86","0.07281930489650221","579"
"20:30:48:484 (H:m:s:ms)","GENERIC","155.747","0.06550337735220103","524"
"21:9:17:575 (H:m:s:ms)","GENERIC","187.964","0.05203894065799593","430"
"21:9:23:636 (H:m:s:ms)","GENERIC","188.94","0.055100662418716875","371"
"20:48:23:30 (H:m:s:ms)","GENERIC","187.863","0.08345278072026342","974"
"21:9:28:421 (H:m:s:ms)","AMBULANCE","125.087","0.0780978037455739","590"
"20:48:28:860 (H:m:s:ms)","OPERA","156.54500000000002","0.07824918026668977","149"
"21:9:29:696 (H:m:s:ms)","GENERIC","156.19","0.07575863983059679","346"
"20:30:54:545 (H:m:s:ms)","GENERIC","155.348","0.03844552068961006","465"
"20:48:29:90 (H:m:s:ms)","GENERIC","155.814","0.08453822532468439","959"
"21:9:35:757 (H:m:s:ms)","GENERIC","188.632","0.032522062947758","253"
"20:31:0:606 (H:m:s:ms)","GENERIC","187.555","0.06968351524282754","403"
"20:48:35:151 (H:m:s:ms)","GENERIC","156.60500000000002","0.06049137773233206","858"
"21:9:41:818 (H:m:s:ms)","GENERIC","156.64000000000001","0.061350968547200936","188"
"20:31:6:666 (H:m:s:ms)","GENERIC","157.291","0.06864086907914822","339"
"20:48:36:455 (H:m:s:ms)","OPERA","125.054","0.07782863530013966","554"
"21:9:47:878 (H:m:s:ms)","GENERIC","125.071","0.038228561023363174","1130"
"20:31:12:727 (H:m:s:ms)","GENERIC","186.747","0.0652438114680615","279"
"20:48:41:212 (H:m:s:ms)","GENERIC","187.52100000000002","0.057492183633155114","797"
"21:9:53:939 (H:m:s:ms)","GENERIC","187.55200000000002","0.05241553261029496","1071"
"20:31:18:787 (H:m:s:ms)","GENERIC","186.589","0.056670625734680805","222"
"20:48:44:50 (H:m:s:ms)","OPERA","156.469","0.07178381217029854","957"
"21:10:0:0 (H:m:s:ms)","AMBULANCE","125.096","0.0753258923431738","1059"
"20:31:24:848 (H:m:s:ms)","GENERIC","155.70499999999998","0.041560051033728125","158"
"20:48:47:272 (H:m:s:ms)","GENERIC","187.349","0.09061239734801292","734"
"21:10:0:0 (H:m:s:ms)","GENERIC","187.595","0.09999370917115509","1068"
"20:31:30:909 (H:m:s:ms)","GENERIC","155.243","0.058611893293253434","1098"
"20:48:51:645 (H:m:s:ms)","OPERA","156.539","0.07646167123799975","363"
"20:31:36:969 (H:m:s:ms)","GENERIC","157.304","0.06536808391299961","1032"
"20:48:53:333 (H:m:s:ms)","GENERIC","187.018","0.06682595868519514","675"
"20:31:43:30 (H:m:s:ms)","GENERIC","124.173","0.06393049610335108","974"
"20:31:49:90 (H:m:s:ms)","GENERIC","157.245","0.04328783725824017","951"
"20:48:59:240 (H:m:s:ms)","OPERA","156.494","0.04048217903057927","809"
"20:48:59:393 (H:m:s:ms)","GENERIC","188.399","0.06140475480536428","666"
"20:31:55:151 (H:m:s:ms)","GENERIC","156.603","0.06214432649826859","856"
"20:49:5:454 (H:m:s:ms)","GENERIC","155.329","0.06742849064515596","551"
"20:32:1:212 (H:m:s:ms)","GENERIC","187.196","0.06635266050859795","805"
"20:49:6:835 (H:m:s:ms)","OPERA","156.34","0.09941012833283691","174"
"20:32:7:272 (H:m:s:ms)","GENERIC","188.18200000000002","0.04992524669472061","735"
"20:49:11:515 (H:m:s:ms)","GENERIC","156.868","0.09357676985292053","488"
"20:32:13:333 (H:m:s:ms)","GENERIC","188.309","0.03590878888616892","675"
"20:49:14:430 (H:m:s:ms)","OPERA","156.467","0.06772144605645782","580"
"20:32:19:393 (H:m:s:ms)","GENERIC","188.661","0.03827850222739161","651"
"20:49:17:575 (H:m:s:ms)","GENERIC","187.887","0.06553788216166237","428"
"20:32:25:454 (H:m:s:ms)","GENERIC","188.398","0.05501160677476008","551"
"20:49:22:25 (H:m:s:ms)","OPERA","125.227","0.08595665720198659","984"
"20:32:31:515 (H:m:s:ms)","GENERIC","156.736","0.06329173242748255","493"
"20:49:23:636 (H:m:s:ms)","GENERIC","157.246","0.08848919659718023","371"
"20:32:37:575 (H:m:s:ms)","GENERIC","157.332","0.05251391194718936","431"
"20:49:29:620 (H:m:s:ms)","OPERA","93.713","0.06157436840895569","426"
"20:32:43:636 (H:m:s:ms)","GENERIC","156.851","0.06203158955331841","373"
"20:32:49:696 (H:m:s:ms)","GENERIC","155.82999999999998","0.057607574495891094","350"
"20:49:29:696 (H:m:s:ms)","GENERIC","156.14","0.07608270466759672","358"
"20:49:35:757 (H:m:s:ms)","GENERIC","157.00900000000001","0.06715597324579614","252"
"20:32:55:757 (H:m:s:ms)","GENERIC","186.16","0.051003443572936465","249"
"20:49:37:215 (H:m:s:ms)","OPERA","125.134","0.08341103271850407","792"
"20:33:1:818 (H:m:s:ms)","GENERIC","155.729","0.03910843942561984","189"
"20:49:41:818 (H:m:s:ms)","GENERIC","188.172","0.09513548087385591","187"
"20:33:7:878 (H:m:s:ms)","GENERIC","124.982","0.06824034213429424","199"
"20:49:44:810 (H:m:s:ms)","OPERA","156.48399999999998","0.09611768677386945","198"
"20:33:13:939 (H:m:s:ms)","GENERIC","155.231","0.05982196354941338","1068"
"20:49:47:878 (H:m:s:ms)","GENERIC","156.66199999999998","0.08358671868872083","1129"
"20:33:20:0 (H:m:s:ms)","GENERIC","155.259","0.05579088414774252","1043"
"20:49:52:405 (H:m:s:ms)","OPERA","125.098","0.08709140415149713","603"
"20:33:26:60 (H:m:s:ms)","GENERIC","155.874","0.04737500470828315","947"
"20:49:53:939 (H:m:s:ms)","GENERIC","187.582","0.07600180775658905","1069"
"20:33:32:121 (H:m:s:ms)","GENERIC","156.571","0.06523475985191136","888"
"20:50:0:0 (H:m:s:ms)","OPERA","156.34300000000002","0.0636125832461762","1050"
"20:33:38:181 (H:m:s:ms)","GENERIC","125.53","0.0407679909291253","825"
"20:50:0:0 (H:m:s:ms)","GENERIC","124.762","0.08355173193946068","1058"
"20:33:44:242 (H:m:s:ms)","GENERIC","189.112","0.06876400564090032","761"
"20:33:50:303 (H:m:s:ms)","GENERIC","155.932","0.06089954262558079","706"
"20:50:0:0 (H:m:s:ms)","GENERIC","156.82999999999998","0.10465003441629181","1068"
"20:50:6:60 (H:m:s:ms)","GENERIC","155.958","0.04810802180379448","949"
"20:33:56:363 (H:m:s:ms)","GENERIC","189.05700000000002","0.051552072835125466","642"
"20:50:12:121 (H:m:s:ms)","GENERIC","187.931","0.046635377192484596","883"
"20:34:2:424 (H:m:s:ms)","GENERIC","156.05700000000002","0.055990169878023806","581"
"20:50:18:181 (H:m:s:ms)","GENERIC","93.43","0.04829435306430074","824"
"20:10:0:0 (H:m:s:ms)","GENERIC","125.28399999999999","0.05682539929540313","1009"
"20:34:8:484 (H:m:s:ms)","GENERIC","186.906","0.05437133836719551","525"
"20:50:24:242 (H:m:s:ms)","GENERIC","125.63","0.050344803075461415","760"
"20:10:0:0 (H:m:s:ms)","GENERIC","188.488","0.08307785844064364","1053"
"20:34:14:545 (H:m:s:ms)","GENERIC","156.42000000000002","0.06751383171033061","464"
"20:50:30:303 (H:m:s:ms)","GENERIC","93.924","0.05514736333463164","723"
"20:10:6:60 (H:m:s:ms)","GENERIC","155.983","0.04872094128350896","949"
"20:34:20:606 (H:m:s:ms)","GENERIC","157.22","0.059335390656837524","400"
"20:50:36:363 (H:m:s:ms)","GENERIC","156.172","0.05679565991407656","644"
"20:10:12:121 (H:m:s:ms)","GENERIC","156.351","0.06394437304144437","892"
"20:34:26:666 (H:m:s:ms)","GENERIC","155.28300000000002","0.06376887107311292","340"
"20:50:42:424 (H:m:s:ms)","GENERIC","157.215","0.06316885672794754","580"
"20:10:18:181 (H:m:s:ms)","GENERIC","187.611","0.0629912391607866","823"
"20:34:32:727 (H:m:s:ms)","GENERIC","186.651","0.06694740194016584","280"
"20:50:48:484 (H:m:s:ms)","GENERIC","187.059","0.04433122381914909","525"
"20:10:24:242 (H:m:s:ms)","GENERIC","157.337","0.06546200856615142","758"
"20:34:38:787 (H:m:s:ms)","GENERIC","156.76","0.04721403662345976","222"
"20:50:54:545 (H:m:s:ms)","GENERIC","124.274","0.039241797876906494","464"
"20:10:30:303 (H:m:s:ms)","GENERIC","187.472","0.05661444502198078","707"
"20:34:44:848 (H:m:s:ms)","GENERIC","155.635","0.06036639549973477","161"
"20:10:36:363 (H:m:s:ms)","GENERIC","187.61700000000002","0.05353981336625761","645"
"20:34:50:909 (H:m:s:ms)","GENERIC","155.42000000000002","0.07977398762016431","1099"
"20:10:42:424 (H:m:s:ms)","GENERIC","157.197","0.056353773928453546","581"
"20:10:48:484 (H:m:s:ms)","GENERIC","93.35","0.0345757140157908","526"
"20:51:0:606 (H:m:s:ms)","GENERIC","156.108","0.053740752163920706","401"
"20:51:6:666 (H:m:s:ms)","GENERIC","157.298","0.06884646833246084","339"
"20:34:56:969 (H:m:s:ms)","GENERIC","156.768","0.04994443773634052","1040"
"20:51:12:727 (H:m:s:ms)","GENERIC","186.653","0.050912378253919165","280"
"20:35:3:30 (H:m:s:ms)","GENERIC","157.126","0.02554377855454438","979"
"20:51:18:787 (H:m:s:ms)","GENERIC","155.46","0.04682519180675181","223"
"20:10:54:545 (H:m:s:ms)","GENERIC","155.461","0.051337538190516556","465"
"20:35:9:90 (H:m:s:ms)","GENERIC","156.232","0.0445113191113365","952"
"20:51:24:848 (H:m:s:ms)","GENERIC","186.89","0.03258742344257831","157"
"20:11:0:606 (H:m:s:ms)","GENERIC","187.536","0.07176270946864019","402"
"20:35:15:151 (H:m:s:ms)","GENERIC","124.618","0.05878635294330874","854"
"20:51:30:909 (H:m:s:ms)","GENERIC","155.312","0.052723355116637095","1098"
"20:11:6:666 (H:m:s:ms)","GENERIC","157.224","0.06438859648058366","340"
"20:35:21:212 (H:m:s:ms)","GENERIC","187.105","0.0583548779153283","795"
"20:51:36:969 (H:m:s:ms)","GENERIC","125.574","0.052092310704905685","1033"
"20:11:12:727 (H:m:s:ms)","GENERIC","124.393","0.06832360878932932","278"
"20:35:27:272 (H:m:s:ms)","GENERIC","187.402","0.07384647457465822","735"
"20:51:43:30 (H:m:s:ms)","GENERIC","155.231","0.03757316841242328","974"
"20:11:18:787 (H:m:s:ms)","GENERIC","155.489","0.08425143447617404","221"
"20:35:33:333 (H:m:s:ms)","GENERIC","157.319","0.050079730245830206","671"
"20:51:49:90 (H:m:s:ms)","GENERIC","157.307","0.057474438103925996","954"
"20:11:24:848 (H:m:s:ms)","GENERIC","155.744","0.05494049138642847","158"
"20:35:39:393 (H:m:s:ms)","GENERIC","156.482","0.054154076536440866","646"
"20:51:55:151 (H:m:s:ms)","GENERIC","156.651","0.05406367605046683","857"
"20:11:30:909 (H:m:s:ms)","GENERIC","186.313","0.06311636061438029","1097"
"20:35:45:454 (H:m:s:ms)","GENERIC","156.878","0.022752719502933172","556"
"20:11:36:969 (H:m:s:ms)","GENERIC","125.56700000000001","0.06472109840410678","1032"
"20:35:51:515 (H:m:s:ms)","GENERIC","125.026","0.04259095726328619","492"
"20:11:43:30 (H:m:s:ms)","GENERIC","155.252","0.05527711759929273","974"
"20:11:49:90 (H:m:s:ms)","GENERIC","157.213","0.05310648338004281","955"
"20:0:54:545 (H:m:s:ms)","GENERIC","155.401","0.058074577741201144","466"
"20:1:0:606 (H:m:s:ms)","GENERIC","125.186","0.059780605353663335","403"
"20:1:6:666 (H:m:s:ms)","GENERIC","126.20500000000001","0.040952198167315004","341"
"20:1:12:727 (H:m:s:ms)","GENERIC","124.555","0.05045308404346195","281"
"20:1:18:787 (H:m:s:ms)","GENERIC","124.43700000000001","0.06604952065800071","221"
"20:1:24:848 (H:m:s:ms)","GENERIC","124.737","0.05759906970714247","159"
"20:1:30:909 (H:m:s:ms)","GENERIC","155.195","0.060533750465422496","1099"
"20:1:36:969 (H:m:s:ms)","GENERIC","94.526","0.06552651871830922","1033"
"20:1:43:30 (H:m:s:ms)","GENERIC","124.181","0.07554660676972497","974"
"20:1:49:90 (H:m:s:ms)","GENERIC","157.87900000000002","0.06015694477486594","931"
"20:35:57:575 (H:m:s:ms)","GENERIC","156.479","0.054873132362825885","433"
"20:36:3:636 (H:m:s:ms)","GENERIC","186.75799999999998","0.058869667146903816","372"
"20:11:55:151 (H:m:s:ms)","GENERIC","188.235","0.05934743379820701","857"
"20:36:9:696 (H:m:s:ms)","GENERIC","187.822","0.07249660024481498","346"
"20:12:1:212 (H:m:s:ms)","GENERIC","156.111","0.05654400988286445","796"
"20:36:15:757 (H:m:s:ms)","GENERIC","188.85899999999998","0.03348401957402588","252"
"20:12:7:272 (H:m:s:ms)","GENERIC","156.528","0.05436582611192194","737"
"20:36:21:818 (H:m:s:ms)","GENERIC","187.567","0.073711255131347","187"
"20:12:13:333 (H:m:s:ms)","GENERIC","188.414","0.05029027963501628","675"
"20:36:27:878 (H:m:s:ms)","GENERIC","156.562","0.06066475361403329","1128"
"20:12:19:393 (H:m:s:ms)","GENERIC","157.001","0.03832115933731566","653"
"20:36:33:939 (H:m:s:ms)","GENERIC","155.83800000000002","0.05612728113506636","1069"
"20:12:25:454 (H:m:s:ms)","GENERIC","188.394","0.06115179214618541","551"
"20:36:40:0 (H:m:s:ms)","GENERIC","156.546","0.05690418540431219","1039"
"20:12:31:515 (H:m:s:ms)","GENERIC","156.682","0.062437924066916735","494"
"20:36:46:60 (H:m:s:ms)","GENERIC","188.555","0.04866449247231033","948"
"20:12:37:575 (H:m:s:ms)","GENERIC","125.599","0.053681799692708435","426"
"20:36:52:121 (H:m:s:ms)","GENERIC","187.249","0.046697012635860985","889"
"20:12:43:636 (H:m:s:ms)","GENERIC","156.927","0.06270444669779474","374"
"20:12:49:696 (H:m:s:ms)","GENERIC","186.99599999999998","0.03645174293175262","350"
"20:1:55:151 (H:m:s:ms)","GENERIC","157.01500000000001","0.06250429163003497","857"
"20:2:1:212 (H:m:s:ms)","GENERIC","124.983","0.06564364138044414","798"
"20:2:7:272 (H:m:s:ms)","GENERIC","125.59","0.08035822942973678","736"
"20:2:13:333 (H:m:s:ms)","GENERIC","125.878","0.052177415556621046","676"
"20:2:19:393 (H:m:s:ms)","GENERIC","94.391","0.03474136663388833","632"
"20:2:25:454 (H:m:s:ms)","GENERIC","157.353","0.044633780522376876","552"
"20:2:31:515 (H:m:s:ms)","GENERIC","125.62799999999999","0.0409917812266372","494"
"20:2:37:575 (H:m:s:ms)","GENERIC","126.29899999999999","0.049066582585334494","432"
"20:2:43:636 (H:m:s:ms)","GENERIC","125.798","0.05715221765609348","372"
"20:2:49:696 (H:m:s:ms)","GENERIC","124.694","0.051533725795132476","328"
"20:36:58:181 (H:m:s:ms)","GENERIC","186.842","0.05014290124071539","826"
"20:37:4:242 (H:m:s:ms)","GENERIC","187.554","0.05241756626762357","766"
"20:12:55:757 (H:m:s:ms)","GENERIC","155.299","0.05308077716409285","250"
"20:37:10:303 (H:m:s:ms)","GENERIC","156.32","0.04811069679480824","704"
"20:13:1:818 (H:m:s:ms)","GENERIC","155.593","0.0610934049952121","188"
"20:37:16:363 (H:m:s:ms)","GENERIC","157.389","0.04539348900002249","643"
"20:13:7:878 (H:m:s:ms)","GENERIC","124.813","0.03761339776597623","1130"
"20:37:22:424 (H:m:s:ms)","GENERIC","156.447","0.059565664752526365","585"
"20:13:13:939 (H:m:s:ms)","GENERIC","186.423","0.060189568910769334","1066"
"20:37:28:484 (H:m:s:ms)","GENERIC","157.41","0.06616648153359027","519"
"20:13:20:0 (H:m:s:ms)","GENERIC","186.279","0.049080183931022585","1047"
"20:37:34:545 (H:m:s:ms)","GENERIC","156.874","0.03845562066423994","459"
"20:13:26:60 (H:m:s:ms)","GENERIC","186.998","0.04938186377284547","947"
"20:37:40:606 (H:m:s:ms)","GENERIC","188.104","0.04715532984884805","404"
"20:13:32:121 (H:m:s:ms)","GENERIC","156.613","0.0676613702142522","888"
"20:37:46:666 (H:m:s:ms)","GENERIC","157.097","0.03407082595774623","343"
"20:13:38:181 (H:m:s:ms)","GENERIC","188.949","0.03688018053555422","825"
"20:37:52:727 (H:m:s:ms)","GENERIC","155.74599999999998","0.039941179143660084","278"
"20:13:44:242 (H:m:s:ms)","GENERIC","157.401","0.05300284216900754","759"
"20:13:50:303 (H:m:s:ms)","GENERIC","155.954","0.05308146606323138","705"
"20:2:55:757 (H:m:s:ms)","GENERIC","124.131","0.06370861980178198","249"
"20:3:1:818 (H:m:s:ms)","GENERIC","155.886","0.05451899002834299","189"
"20:3:7:878 (H:m:s:ms)","GENERIC","125.049","0.046831063485266625","130"
"20:3:13:939 (H:m:s:ms)","GENERIC","124.337","0.07032810715168283","1067"
"20:3:20:0 (H:m:s:ms)","GENERIC","124.337","0.04308489440872322","1010"
"20:3:26:60 (H:m:s:ms)","GENERIC","156.034","0.043776931970600265","947"
"20:3:32:121 (H:m:s:ms)","GENERIC","125.691","0.056774068897064475","889"
"20:3:38:181 (H:m:s:ms)","GENERIC","158.019","0.05196138676442995","825"
"20:3:44:242 (H:m:s:ms)","GENERIC","126.279","0.051944950594394336","763"
"20:3:50:303 (H:m:s:ms)","GENERIC","125.045","0.06400275628005833","705"
"20:37:58:787 (H:m:s:ms)","GENERIC","188.251","0.04943242921680261","222"
"20:38:4:848 (H:m:s:ms)","GENERIC","156.139","0.046003855542808274","252"
"20:13:56:363 (H:m:s:ms)","GENERIC","157.333","0.05761648499255113","641"
"20:38:10:909 (H:m:s:ms)","GENERIC","156.13","0.04595930359487515","1100"
"20:14:2:424 (H:m:s:ms)","GENERIC","124.741","0.039955557307090404","584"
"20:38:16:969 (H:m:s:ms)","GENERIC","155.419","0.02879874294591305","1040"
"20:14:8:484 (H:m:s:ms)","GENERIC","186.94400000000002","0.05909621789231296","526"
"20:38:23:30 (H:m:s:ms)","GENERIC","125.054","0.055523119751368886","973"
"20:14:14:545 (H:m:s:ms)","GENERIC","156.427","0.04668602949112745","466"
"20:38:29:90 (H:m:s:ms)","GENERIC","155.873","0.05734791010024869","952"
"20:14:20:606 (H:m:s:ms)","GENERIC","188.865","0.04387854178173002","401"
"20:38:35:151 (H:m:s:ms)","GENERIC","156.433","0.032612278816894005","857"
"20:14:26:666 (H:m:s:ms)","GENERIC","155.237","0.0616571007796193","340"
"20:38:41:212 (H:m:s:ms)","GENERIC","156.613","0.04386946374146609","795"
"20:14:32:727 (H:m:s:ms)","GENERIC","186.30599999999998","0.07115234072894715","280"
"20:38:47:272 (H:m:s:ms)","GENERIC","155.983","0.06451435507191652","735"
"20:14:38:787 (H:m:s:ms)","GENERIC","156.694","0.07398411555367408","223"
"20:38:53:333 (H:m:s:ms)","GENERIC","124.55199999999999","0.04799366144231236","675"
"20:14:44:848 (H:m:s:ms)","GENERIC","155.59199999999998","0.06394276241943496","160"
"20:14:50:909 (H:m:s:ms)","GENERIC","155.41899999999998","0.07439396270301556","1101"
"20:3:56:363 (H:m:s:ms)","GENERIC","126.226","0.051407428975252675","642"
"20:4:2:424 (H:m:s:ms)","GENERIC","156.228","0.06497708058415716","585"
"20:4:8:484 (H:m:s:ms)","GENERIC","124.681","0.07555570624072581","526"
"20:4:14:545 (H:m:s:ms)","GENERIC","156.857","0.041376404025610485","467"
"20:4:20:606 (H:m:s:ms)","GENERIC","126.175","0.06903524105035631","401"
"20:4:26:666 (H:m:s:ms)","GENERIC","124.167","0.052386488728336386","341"
"20:4:32:727 (H:m:s:ms)","GENERIC","155.305","0.08380079454153942","279"
"20:4:38:787 (H:m:s:ms)","GENERIC","157.32","0.03443789133494252","222"
"20:4:44:848 (H:m:s:ms)","GENERIC","155.692","0.07493019599077412","161"
"20:4:50:909 (H:m:s:ms)","GENERIC","124.26899999999999","0.053706727309808217","1100"
"20:38:59:393 (H:m:s:ms)","GENERIC","156.868","0.04505327118352748","652"
"20:39:5:454 (H:m:s:ms)","GENERIC","155.314","0.06458062611071803","553"
"20:14:56:969 (H:m:s:ms)","GENERIC","156.852","0.06142151581095661","1044"
"20:39:11:515 (H:m:s:ms)","GENERIC","156.828","0.050710632772339795","489"
"20:15:3:30 (H:m:s:ms)","GENERIC","188.697","0.04117469659908683","980"
"20:39:17:575 (H:m:s:ms)","GENERIC","125.404","0.06547393185833715","429"
"20:15:9:90 (H:m:s:ms)","GENERIC","156.20999999999998","0.03978357683977103","954"
"20:39:23:636 (H:m:s:ms)","GENERIC","157.323","0.06512663242160156","370"
"20:15:15:151 (H:m:s:ms)","GENERIC","124.68199999999999","0.036688576165289664","853"
"20:39:29:696 (H:m:s:ms)","GENERIC","187.478","0.05666256226873601","346"
"20:15:21:212 (H:m:s:ms)","GENERIC","155.861","0.058030483057199794","797"
"20:39:35:757 (H:m:s:ms)","GENERIC","188.605","0.043079265228471504","251"
"20:15:27:272 (H:m:s:ms)","GENERIC","156.102","0.05239284863948356","736"
"20:39:41:818 (H:m:s:ms)","GENERIC","156.727","0.053844333500722166","188"
"20:15:33:333 (H:m:s:ms)","GENERIC","157.31","0.062088609709715976","670"
"20:39:47:878 (H:m:s:ms)","GENERIC","156.45499999999998","0.06639624225756627","1128"
"20:15:39:393 (H:m:s:ms)","GENERIC","156.607","0.04038941205080848","650"
"20:39:53:939 (H:m:s:ms)","GENERIC","156.214","0.05103055759647342","1071"
"20:15:45:454 (H:m:s:ms)","GENERIC","156.902","0.057865971142513274","555"
"20:15:51:515 (H:m:s:ms)","GENERIC","156.464","0.059851380581021005","492"
"20:4:56:969 (H:m:s:ms)","GENERIC","157.113","0.03619827970854648","1041"
"20:5:3:30 (H:m:s:ms)","GENERIC","126.13300000000001","0.03630004568559419","980"
"20:5:9:90 (H:m:s:ms)","GENERIC","156.446","0.03801749419220337","942"
"20:5:15:151 (H:m:s:ms)","GENERIC","124.83599999999998","0.06423216681565183","853"
"20:5:21:212 (H:m:s:ms)","GENERIC","124.75999999999999","0.060308621612318904","797"
"20:5:27:272 (H:m:s:ms)","GENERIC","156.474","0.07458826109126311","736"
"20:5:33:333 (H:m:s:ms)","GENERIC","126.274","0.0532078258197663","670"
"20:5:39:393 (H:m:s:ms)","GENERIC","125.464","0.07458053785473498","636"
"20:5:45:454 (H:m:s:ms)","GENERIC","94.253","0.05856470665968786","555"
"20:5:51:515 (H:m:s:ms)","GENERIC","156.836","0.0541975834067544","493"
"20:15:57:575 (H:m:s:ms)","GENERIC","187.92000000000002","0.03816198203080108","432"
"20:16:3:636 (H:m:s:ms)","GENERIC","155.53300000000002","0.05597657689514745","374"
"20:16:9:696 (H:m:s:ms)","GENERIC","156.549","0.07197109711234834","347"
"20:16:15:757 (H:m:s:ms)","GENERIC","157.024","0.0457193451287451","252"
"20:16:21:818 (H:m:s:ms)","GENERIC","156.274","0.06606509744213661","187"
"20:16:27:878 (H:m:s:ms)","GENERIC","156.43","0.05071049869960348","1128"
"20:16:33:939 (H:m:s:ms)","GENERIC","124.568","0.04513652592595998","1070"
"20:16:40:0 (H:m:s:ms)","GENERIC","125.031","0.06782976166585553","1040"
"20:16:46:60 (H:m:s:ms)","GENERIC","125.297","0.05123565555317501","949"
"20:16:52:121 (H:m:s:ms)","GENERIC","156.064","0.04250512475306595","890"
"20:5:57:575 (H:m:s:ms)","GENERIC","125.441","0.052438611422213774","433"
"20:6:3:636 (H:m:s:ms)","GENERIC","124.482","0.04776181243302172","373"
"20:6:9:696 (H:m:s:ms)","GENERIC","157.046","0.06584308481871402","336"
"20:6:15:757 (H:m:s:ms)","GENERIC","157.655","0.03742847098300816","252"
"20:6:21:818 (H:m:s:ms)","GENERIC","125.12599999999999","0.056895940266587994","187"
"20:6:27:878 (H:m:s:ms)","GENERIC","157.039","0.07211972133117862","128"
"20:6:33:939 (H:m:s:ms)","GENERIC","124.779","0.04605495241656406","1069"
"20:6:40:0 (H:m:s:ms)","GENERIC","157.042","0.07058670184795714","1005"
"20:6:46:60 (H:m:s:ms)","GENERIC","126.02600000000001","0.05007352521753461","949"
"20:6:52:121 (H:m:s:ms)","GENERIC","125.001","0.06050929752198051","889"
"20:16:58:181 (H:m:s:ms)","GENERIC","186.694","0.058282359071140724","827"
"20:17:4:242 (H:m:s:ms)","GENERIC","156.131","0.05540977056495701","768"
"20:17:10:303 (H:m:s:ms)","GENERIC","187.752","0.04909114034434429","705"
"20:17:16:363 (H:m:s:ms)","GENERIC","157.276","0.033684531937354434","643"
"20:17:22:424 (H:m:s:ms)","GENERIC","187.997","0.041117754239844734","587"
"20:17:28:484 (H:m:s:ms)","GENERIC","157.349","0.055999289201541735","519"
"20:17:34:545 (H:m:s:ms)","GENERIC","157.293","0.06656770851377253","457"
"20:17:40:606 (H:m:s:ms)","GENERIC","188.137","0.04523560966832057","404"
"20:17:46:666 (H:m:s:ms)","GENERIC","188.727","0.03092582115990917","343"
"20:17:52:727 (H:m:s:ms)","GENERIC","155.70499999999998","0.04300055573486914","278"
"20:6:58:181 (H:m:s:ms)","GENERIC","155.723","0.027302987793431037","828"
"20:7:4:242 (H:m:s:ms)","GENERIC","125.20400000000001","0.06211580017895958","768"
"20:7:10:303 (H:m:s:ms)","GENERIC","125.101","0.054658559999407094","704"
"20:7:16:363 (H:m:s:ms)","GENERIC","126.198","0.05534676079155853","643"
"20:7:22:424 (H:m:s:ms)","GENERIC","125.592","0.05494721155423936","586"
"20:7:28:484 (H:m:s:ms)","GENERIC","126.297","0.0544376083302475","519"
"20:7:34:545 (H:m:s:ms)","GENERIC","126.29299999999999","0.05833890294326343","459"
"20:7:40:606 (H:m:s:ms)","GENERIC","157.05","0.056872312598709084","404"
"20:7:46:666 (H:m:s:ms)","GENERIC","157.677","0.04328699035434795","342"
"20:7:52:727 (H:m:s:ms)","GENERIC","124.705","0.04856526979147859","278"
"20:17:58:787 (H:m:s:ms)","GENERIC","188.31799999999998","0.05872868944608216","223"
"20:18:4:848 (H:m:s:ms)","GENERIC","157.063","0.034173092797664235","162"
"20:18:10:909 (H:m:s:ms)","GENERIC","156.267","0.06221931902362525","1098"
"20:18:16:969 (H:m:s:ms)","GENERIC","155.43599999999998","0.057851972551864944","1040"
"20:18:23:30 (H:m:s:ms)","GENERIC","124.97699999999999","0.050272610715156235","988"
"20:18:29:90 (H:m:s:ms)","GENERIC","155.945","0.04709683150537186","955"
"20:18:35:151 (H:m:s:ms)","GENERIC","187.872","0.05509167580118052","857"
"20:18:41:212 (H:m:s:ms)","GENERIC","124.81700000000001","0.030959062202295475","798"
"20:18:47:272 (H:m:s:ms)","GENERIC","156.068","0.04870701684996968","734"
"20:18:53:333 (H:m:s:ms)","GENERIC","155.792","0.049925044950102644","675"
"20:7:58:787 (H:m:s:ms)","GENERIC","125.702","0.03626928731269543","224"
"20:8:4:848 (H:m:s:ms)","GENERIC","157.58","0.022024511161822122","162"
"20:8:10:909 (H:m:s:ms)","GENERIC","156.53","0.0364669601092911","1100"
"20:8:16:969 (H:m:s:ms)","GENERIC","124.524","0.05677788087946653","1039"
"20:8:23:30 (H:m:s:ms)","GENERIC","125.06299999999999","0.04917105941121081","1099"
"20:8:29:90 (H:m:s:ms)","GENERIC","124.91799999999999","0.04109302532682378","954"
"20:8:35:151 (H:m:s:ms)","GENERIC","157.035","0.05878547645062478","858"
"20:8:41:212 (H:m:s:ms)","GENERIC","125.187","0.03623076980458685","797"
"20:8:47:272 (H:m:s:ms)","GENERIC","124.962","0.05944379415049988","733"
"20:8:53:333 (H:m:s:ms)","GENERIC","124.791","0.051553157113667765","674"
"20:18:59:393 (H:m:s:ms)","GENERIC","156.84300000000002","0.035033498611523856","652"
"20:19:5:454 (H:m:s:ms)","GENERIC","155.24200000000002","0.06622254068967555","552"
"20:19:11:515 (H:m:s:ms)","GENERIC","156.863","0.0431171157182504","490"
"20:19:17:575 (H:m:s:ms)","GENERIC","189.124","0.06864921138812345","430"
"20:19:23:636 (H:m:s:ms)","GENERIC","188.889","0.05301349869036504","371"
"20:19:29:696 (H:m:s:ms)","GENERIC","156.442","0.04746329604414381","409"
"20:19:35:757 (H:m:s:ms)","GENERIC","157.03300000000002","0.034756893598184214","253"
"20:19:41:818 (H:m:s:ms)","GENERIC","156.71699999999998","0.049128704371310894","188"
"20:19:47:878 (H:m:s:ms)","GENERIC","187.995","0.054819799797407455","1144"
"20:19:53:939 (H:m:s:ms)","GENERIC","156.285","0.03786978675509952","1071"
"20:8:59:393 (H:m:s:ms)","GENERIC","125.79599999999999","0.04189631926913252","651"
"20:9:5:454 (H:m:s:ms)","GENERIC","124.285","0.06043148023372158","552"
"20:9:11:515 (H:m:s:ms)","GENERIC","157.35","0.06281667514458557","489"
"20:9:17:575 (H:m:s:ms)","GENERIC","126.28299999999999","0.04088075608820406","431"
"20:9:23:636 (H:m:s:ms)","GENERIC","126.16499999999999","0.037165551071196914","372"
"20:9:29:696 (H:m:s:ms)","GENERIC","94.527","0.05308145093346046","345"
"20:9:35:757 (H:m:s:ms)","GENERIC","126.031","0.031041827986984467","252"
"20:9:41:818 (H:m:s:ms)","GENERIC","125.559","0.06065255282107209","188"
"20:9:47:878 (H:m:s:ms)","GENERIC","155.503","0.0686915874417944","131"
"20:9:53:939 (H:m:s:ms)","GENERIC","125.252","0.04834500296241232","1071"
"21:41:6:666 (H:m:s:ms)","GENERIC","157.25","0.05905168375749761","340"
"21:41:0:606 (H:m:s:ms)","GENERIC","156.163","0.06972062355371579","403"
"21:40:54:545 (H:m:s:ms)","GENERIC","155.417","0.035935580804338056","466"
"21:40:48:484 (H:m:s:ms)","GENERIC","124.577","0.05656422185241688","526"
"21:40:42:424 (H:m:s:ms)","GENERIC","157.31900000000002","0.05239642543985648","581"
"21:40:36:363 (H:m:s:ms)","GENERIC","156.254","0.03248668959967577","647"
"21:40:30:303 (H:m:s:ms)","GENERIC","156.394","0.046385865984276055","702"
"21:41:24:848 (H:m:s:ms)","GENERIC","155.686","0.04689353883691289","159"
"21:41:18:787 (H:m:s:ms)","GENERIC","186.397","0.04078987439893048","222"
"21:41:12:727 (H:m:s:ms)","GENERIC","156.38299999999998","0.041810584385877286","284"
