"time (H:m:s:ms)","type","latency","utilisation","waiting"
"21:42:31:515 (H:m:s:ms)","GENERIC","62.109","0.07203501377716633","1395"
"21:42:13:333 (H:m:s:ms)","GENERIC","93.271","0.07388820090560896","3255"
"21:42:7:272 (H:m:s:ms)","GENERIC","62.053","0.0710753774449551","2259"
"21:42:1:212 (H:m:s:ms)","GENERIC","93.34","0.09170295548359773","1778"
"21:41:55:151 (H:m:s:ms)","GENERIC","93.375","0.09990820140277333","1916"
"21:41:49:90 (H:m:s:ms)","GENERIC","62.047","0.053666601441957396","2423"
"21:41:43:30 (H:m:s:ms)","GENERIC","93.166","0.10158964028857219","3059"
"21:41:36:969 (H:m:s:ms)","GENERIC","62.065","0.06228831574976826","2886"
"21:41:30:909 (H:m:s:ms)","GENERIC","62.065","0.05158255303067021","3635"
"21:42:25:454 (H:m:s:ms)","GENERIC","93.118","0.07730257700168315","2719"
"21:42:19:393 (H:m:s:ms)","GENERIC","93.359","0.08047204863519336","2086"
"21:43:38:181 (H:m:s:ms)","GENERIC","93.12299999999999","0.10023693998897416","2294"
"21:43:32:121 (H:m:s:ms)","GENERIC","93.127","0.08286501252078894","1630"
"21:43:20:0 (H:m:s:ms)","GENERIC","93.174","0.07003249826146689","2647"
"20:0:0:0 (H:m:s:ms)","GENERIC","31.035","0.07202294697343903","3151"
"21:43:13:939 (H:m:s:ms)","GENERIC","62.123","0.06059886320899285","3370"
"20:0:6:60 (H:m:s:ms)","GENERIC","62.207","0.07000649475759098","2954"
"21:43:7:878 (H:m:s:ms)","GENERIC","93.125","0.0995532513218452","3544"
"20:0:12:121 (H:m:s:ms)","GENERIC","62.293000000000006","0.06798158616835491","2492"
"21:43:1:818 (H:m:s:ms)","GENERIC","93.43599999999999","0.08491999478416289","931"
"20:0:18:181 (H:m:s:ms)","GENERIC","31.063","0.059661058265367856","1672"
"21:42:55:757 (H:m:s:ms)","GENERIC","93.17699999999999","0.09463470696389227","2828"
"20:0:24:242 (H:m:s:ms)","GENERIC","31.049","0.05234561698977106","1716"
"21:42:49:696 (H:m:s:ms)","GENERIC","93.166","0.08837414277470154","2931"
"20:0:30:303 (H:m:s:ms)","GENERIC","62.149","0.09329003324594914","4316"
"21:42:43:636 (H:m:s:ms)","GENERIC","93.293","0.07659639425354667","2618"
"20:0:36:363 (H:m:s:ms)","GENERIC","62.107","0.08070590330362222","3567"
"21:42:37:575 (H:m:s:ms)","GENERIC","93.214","0.06381172886564386","1678"
"20:0:42:424 (H:m:s:ms)","GENERIC","62.099999999999994","0.09579478803223795","2492"
"21:10:12:121 (H:m:s:ms)","GENERIC","93.382","0.06994953271944372","2490"
"20:0:48:484 (H:m:s:ms)","GENERIC","62.239000000000004","0.08984621086948112","2290"
"21:10:18:181 (H:m:s:ms)","GENERIC","62.081","0.059661058265367856","1642"
"21:10:24:242 (H:m:s:ms)","GENERIC","93.349","0.06359939113023816","1716"
"21:10:30:303 (H:m:s:ms)","GENERIC","93.181","0.07685112434975352","3366"
"21:10:36:363 (H:m:s:ms)","GENERIC","93.12899999999999","0.10082624242764943","2944"
"21:10:42:424 (H:m:s:ms)","GENERIC","93.125","0.07922698577271496","2814"
"21:10:48:484 (H:m:s:ms)","GENERIC","93.281","0.07834136555541667","2532"
"21:10:54:545 (H:m:s:ms)","GENERIC","62.089","0.07155691713602458","2524"
"21:43:26:60 (H:m:s:ms)","GENERIC","62.065","0.057023760652405525","1855"
"21:11:0:606 (H:m:s:ms)","GENERIC","93.142","0.06317842791215598","2367"
"21:11:6:666 (H:m:s:ms)","GENERIC","93.219","0.06271999848028048","3042"
"21:25:45:454 (H:m:s:ms)","GENERIC","93.15","0.0791683813877728","2819"
"21:44:44:848 (H:m:s:ms)","GENERIC","93.168","0.09188913015624446","2167"
"21:44:38:787 (H:m:s:ms)","GENERIC","93.239","0.099632477080916","2826"
"21:44:32:727 (H:m:s:ms)","GENERIC","93.11500000000001","0.07700534425420812","1517"
"21:44:26:666 (H:m:s:ms)","GENERIC","62.103","0.06262842438191557","1621"
"21:44:20:606 (H:m:s:ms)","GENERIC","93.309","0.09808001882367148","2621"
"21:44:14:545 (H:m:s:ms)","GENERIC","93.322","0.08814849446358211","2714"
"21:44:8:484 (H:m:s:ms)","GENERIC","93.181","0.0551868705312043","3313"
"21:44:2:424 (H:m:s:ms)","GENERIC","62.037","0.0814411017927955","3206"
"21:43:56:363 (H:m:s:ms)","GENERIC","62.075","0.0724784450716211","1894"
"21:43:50:303 (H:m:s:ms)","GENERIC","93.355","0.09258566140334026","2831"
"21:11:12:727 (H:m:s:ms)","GENERIC","93.35","0.07543680593032533","1876"
"21:43:44:242 (H:m:s:ms)","GENERIC","93.188","0.06692207720104491","2881"
"21:11:18:787 (H:m:s:ms)","GENERIC","62.071","0.05213796454541325","2241"
"21:11:24:848 (H:m:s:ms)","GENERIC","93.21000000000001","0.08903714818195822","2356"
"21:11:30:909 (H:m:s:ms)","GENERIC","62.073","0.07101314625486668","3490"
"21:11:36:969 (H:m:s:ms)","GENERIC","62.111","0.04477537581017984","2928"
"21:11:43:30 (H:m:s:ms)","GENERIC","93.16","0.08129444248880473","3124"
"21:11:49:90 (H:m:s:ms)","GENERIC","62.049","0.045668687919039504","2413"
"21:11:55:151 (H:m:s:ms)","GENERIC","124.645","0.09444502571506687","1780"
"21:12:1:212 (H:m:s:ms)","GENERIC","93.342","0.08485642017465865","1904"
"21:12:7:272 (H:m:s:ms)","GENERIC","93.256","0.06527409896073982","2306"
"21:26:21:818 (H:m:s:ms)","GENERIC","93.154","0.11457019718037903","936"
"21:45:51:515 (H:m:s:ms)","GENERIC","93.169","0.07427592573879398","2657"
"21:26:19:746 (H:m:s:ms)","OPERA","93.155","0.09041006588061337","2629"
"21:45:45:454 (H:m:s:ms)","GENERIC","62.077","0.05989997263168863","2866"
"21:45:39:393 (H:m:s:ms)","GENERIC","62.073","0.06835365551469959","2593"
"21:45:33:333 (H:m:s:ms)","GENERIC","93.116","0.0900368509394298","2288"
"21:26:12:151 (H:m:s:ms)","OPERA","31.01","0.09679309556838536","2838"
"21:26:9:696 (H:m:s:ms)","GENERIC","93.141","0.12246586447929164","1088"
"21:45:27:272 (H:m:s:ms)","GENERIC","93.3","0.07667760297956418","2061"
"21:26:4:556 (H:m:s:ms)","OPERA","93.15299999999999","0.10670441816769448","2588"
"21:45:21:212 (H:m:s:ms)","GENERIC","93.223","0.07911253592125132","2985"
"21:26:3:636 (H:m:s:ms)","GENERIC","62.029","0.06325497231399728","2083"
"21:45:15:151 (H:m:s:ms)","GENERIC","62.101","0.05234561698977106","2058"
"21:25:57:575 (H:m:s:ms)","GENERIC","62.035","0.094672950773669","4431"
"21:45:9:90 (H:m:s:ms)","GENERIC","93.254","0.06026061212658067","2976"
"21:25:56:962 (H:m:s:ms)","OPERA","93.182","0.07323471474657285","3212"
"21:45:3:30 (H:m:s:ms)","GENERIC","93.143","0.09497451165489124","3821"
"21:12:13:333 (H:m:s:ms)","GENERIC","93.299","0.10480526617731076","3066"
"21:25:51:515 (H:m:s:ms)","GENERIC","93.187","0.11765568804421786","2743"
"21:44:56:969 (H:m:s:ms)","GENERIC","93.172","0.07428262795275936","3524"
"21:12:19:393 (H:m:s:ms)","GENERIC","62.137","0.08246211251235322","2232"
"21:25:49:367 (H:m:s:ms)","OPERA","93.155","0.11252015330573453","2807"
"21:44:50:909 (H:m:s:ms)","GENERIC","93.27799999999999","0.07917262533539486","3782"
"21:12:25:454 (H:m:s:ms)","GENERIC","93.117","0.06108456066851572","2649"
"21:12:31:515 (H:m:s:ms)","GENERIC","62.073","0.07168604389202188","1425"
"21:12:37:575 (H:m:s:ms)","GENERIC","93.204","0.0882273084308008","1689"
"21:12:43:636 (H:m:s:ms)","GENERIC","93.249","0.06360823662285399","2703"
"21:12:49:696 (H:m:s:ms)","GENERIC","93.18199999999999","0.07602684997125228","3078"
"21:12:55:757 (H:m:s:ms)","GENERIC","93.191","0.07747729509575806","3084"
"21:13:1:818 (H:m:s:ms)","GENERIC","93.398","0.05892650945649623","1028"
"21:13:7:878 (H:m:s:ms)","GENERIC","93.155","0.09968341686881804","3648"
"21:26:15:757 (H:m:s:ms)","GENERIC","62.041","0.06918265414828036","1437"
"21:26:58:181 (H:m:s:ms)","GENERIC","93.269","0.1283703901840193","1822"
"21:46:58:181 (H:m:s:ms)","GENERIC","93.194","0.07903676662285834","1842"
"21:26:57:721 (H:m:s:ms)","OPERA","93.15299999999999","0.09484695413058596","2649"
"21:46:52:121 (H:m:s:ms)","GENERIC","93.32300000000001","0.07235918477737248","2101"
"21:26:52:121 (H:m:s:ms)","GENERIC","62.039","0.08850000162483214","1444"
"21:46:46:60 (H:m:s:ms)","GENERIC","62.063","0.04181644363702817","3267"
"21:46:40:0 (H:m:s:ms)","GENERIC","93.402","0.08225509925366302","2969"
"21:46:33:939 (H:m:s:ms)","GENERIC","93.185","0.05705379661982508","3495"
"21:26:50:126 (H:m:s:ms)","OPERA","93.155","0.07785629081742433","3383"
"21:26:46:60 (H:m:s:ms)","GENERIC","62.039","0.09647486442296757","3349"
"21:26:42:531 (H:m:s:ms)","OPERA","93.15299999999999","0.10623615774547623","2808"
"21:46:27:878 (H:m:s:ms)","GENERIC","93.183","0.09289967803296612","2770"
"21:26:40:0 (H:m:s:ms)","GENERIC","93.428","0.1025507627346258","3045"
"21:46:21:818 (H:m:s:ms)","GENERIC","93.14","0.07905270605954313","1773"
"21:26:34:936 (H:m:s:ms)","OPERA","62.015","0.09105127037987067","6028"
"21:46:15:757 (H:m:s:ms)","GENERIC","62.063","0.04614007206322937","1456"
"21:13:13:939 (H:m:s:ms)","GENERIC","93.125","0.06437444967644185","3453"
"21:26:33:939 (H:m:s:ms)","GENERIC","93.179","0.057448893131915854","3455"
"21:46:9:696 (H:m:s:ms)","GENERIC","93.138","0.0793890418921426","1119"
"21:13:20:0 (H:m:s:ms)","GENERIC","93.18299999999999","0.07924422591698864","3040"
"21:26:27:878 (H:m:s:ms)","GENERIC","62.053","0.10195131348261632","4996"
"21:46:3:636 (H:m:s:ms)","GENERIC","62.057","0.0452821699885846","2193"
"21:13:26:60 (H:m:s:ms)","GENERIC","93.336","0.08161422325294379","1840"
"21:26:27:341 (H:m:s:ms)","OPERA","93.155","0.07375143415457842","2871"
"21:45:57:575 (H:m:s:ms)","GENERIC","93.175","0.06226046938770792","2641"
"21:13:32:121 (H:m:s:ms)","GENERIC","93.13499999999999","0.0750567562030405","1775"
"21:13:38:181 (H:m:s:ms)","GENERIC","93.178","0.08124621815719442","2289"
"21:13:44:242 (H:m:s:ms)","GENERIC","62.051","0.07338802674234945","3340"
"21:13:50:303 (H:m:s:ms)","GENERIC","93.35300000000001","0.08652121740838699","3041"
"21:13:56:363 (H:m:s:ms)","GENERIC","93.228","0.07708990141584587","2241"
"21:14:2:424 (H:m:s:ms)","GENERIC","93.16799999999999","0.06724336448754838","3124"
"21:14:8:484 (H:m:s:ms)","GENERIC","62.117","0.057056127296284675","3429"
"21:27:35:696 (H:m:s:ms)","OPERA","93.161","0.12359784601971542","2444"
"21:48:4:848 (H:m:s:ms)","GENERIC","93.276","0.06179793320688976","2771"
"21:27:34:545 (H:m:s:ms)","GENERIC","93.17699999999999","0.08660005070649562","2585"
"21:47:58:787 (H:m:s:ms)","GENERIC","93.152","0.04843636021956111","2869"
"21:27:28:484 (H:m:s:ms)","GENERIC","62.083","0.06226364813431687","4377"
"21:47:52:727 (H:m:s:ms)","GENERIC","62.093","0.06682724071844365","1927"
"21:27:28:101 (H:m:s:ms)","OPERA","31.009","0.03194382824999699","3582"
"21:47:46:666 (H:m:s:ms)","GENERIC","93.269","0.08494148043724291","2304"
"21:47:40:606 (H:m:s:ms)","GENERIC","62.067","0.04527223892501848","2463"
"21:47:34:545 (H:m:s:ms)","GENERIC","93.175","0.055968097936729966","2813"
"21:27:22:424 (H:m:s:ms)","GENERIC","62.055","0.0858093536711995","2503"
"21:27:20:506 (H:m:s:ms)","OPERA","93.155","0.09677943049450766","2769"
"21:27:16:363 (H:m:s:ms)","GENERIC","62.123","0.11180251522739848","1553"
"21:47:28:484 (H:m:s:ms)","GENERIC","62.051","0.07288689868556625","1753"
"21:14:14:545 (H:m:s:ms)","GENERIC","93.362","0.08471498407241375","2857"
"21:27:12:911 (H:m:s:ms)","OPERA","93.15299999999999","0.09702886995223893","3611"
"21:47:22:424 (H:m:s:ms)","GENERIC","62.053","0.05371526751611853","2599"
"21:14:20:606 (H:m:s:ms)","GENERIC","62.121","0.05696051107566282","2814"
"21:27:10:303 (H:m:s:ms)","GENERIC","62.099","0.07467681750042612","1629"
"21:47:16:363 (H:m:s:ms)","GENERIC","93.371","0.0710135764167811","1541"
"20:52:13:333 (H:m:s:ms)","GENERIC","93.32900000000001","0.08958051738784104","3694"
"21:14:26:666 (H:m:s:ms)","GENERIC","62.093","0.03666325872806893","1782"
"21:27:5:316 (H:m:s:ms)","OPERA","93.155","0.07707706945671619","2906"
"21:47:10:303 (H:m:s:ms)","GENERIC","62.103","0.06327642728536433","1642"
"20:52:19:393 (H:m:s:ms)","GENERIC","62.159","0.06342099196813483","2616"
"21:14:32:727 (H:m:s:ms)","GENERIC","93.106","0.07889654912535195","1372"
"21:27:4:242 (H:m:s:ms)","GENERIC","62.059","0.03537447977516184","3560"
"21:47:4:242 (H:m:s:ms)","GENERIC","62.051","0.05096907524026682","3419"
"20:52:25:454 (H:m:s:ms)","GENERIC","93.08500000000001","0.11006571027346494","2867"
"21:14:38:787 (H:m:s:ms)","GENERIC","93.23","0.053538731523192475","2793"
"20:52:31:515 (H:m:s:ms)","GENERIC","62.107","0.04335396915475448","1532"
"21:14:44:848 (H:m:s:ms)","GENERIC","93.156","0.07462269851596026","2150"
"20:52:37:575 (H:m:s:ms)","GENERIC","62.051","0.07814900150344953","2957"
"21:14:50:909 (H:m:s:ms)","GENERIC","93.288","0.07925737111622908","3803"
"20:52:43:636 (H:m:s:ms)","GENERIC","62.047","0.07136508394594354","2945"
"21:14:56:969 (H:m:s:ms)","GENERIC","93.144","0.05564335291096462","3412"
"20:52:49:696 (H:m:s:ms)","GENERIC","93.164","0.07943835757666029","3232"
"21:15:3:30 (H:m:s:ms)","GENERIC","93.171","0.122121533008513","3765"
"20:52:55:757 (H:m:s:ms)","GENERIC","93.185","0.08165712888071201","2963"
"21:15:9:90 (H:m:s:ms)","GENERIC","93.286","0.07615770884592755","3084"
"20:53:1:818 (H:m:s:ms)","GENERIC","93.374","0.06861755415642976","975"
"20:53:7:878 (H:m:s:ms)","GENERIC","93.14099999999999","0.09973776276977957","3751"
"21:28:13:670 (H:m:s:ms)","OPERA","62.149","0.13102086848441238","2139"
"21:49:11:515 (H:m:s:ms)","GENERIC","93.238","0.073848191823484","2178"
"21:28:10:909 (H:m:s:ms)","GENERIC","93.161","0.12485186274708195","2991"
"21:49:5:454 (H:m:s:ms)","GENERIC","62.077","0.05951978071480823","2048"
"21:28:6:75 (H:m:s:ms)","OPERA","93.155","0.10717488661866216","3140"
"21:48:59:393 (H:m:s:ms)","GENERIC","62.099","0.05120431706572998","3217"
"21:28:4:848 (H:m:s:ms)","GENERIC","93.25999999999999","0.07596045808635053","2547"
"21:48:53:333 (H:m:s:ms)","GENERIC","93.211","0.07733201082986212","2690"
"21:27:58:787 (H:m:s:ms)","GENERIC","62.105","0.07114582486036494","2625"
"21:48:47:272 (H:m:s:ms)","GENERIC","62.208","0.07911706450139196","1719"
"21:48:41:212 (H:m:s:ms)","GENERIC","62.061","0.06282092163655568","2480"
"21:48:35:151 (H:m:s:ms)","GENERIC","93.224","0.07168290934888698","2726"
"21:27:58:481 (H:m:s:ms)","OPERA","93.155","0.1017403556472659","5145"
"21:15:15:151 (H:m:s:ms)","GENERIC","62.115","0.04208968935634211","2144"
"21:27:52:727 (H:m:s:ms)","GENERIC","62.053","0.07530180093812397","1936"
"21:15:21:212 (H:m:s:ms)","GENERIC","93.169","0.05018311230450433","3092"
"21:27:50:886 (H:m:s:ms)","OPERA","93.15299999999999","0.07051418503526845","2762"
"21:48:29:90 (H:m:s:ms)","GENERIC","62.055","0.06228831574976826","3178"
"20:53:13:939 (H:m:s:ms)","GENERIC","62.073","0.05112946530350406","3601"
"21:15:27:272 (H:m:s:ms)","GENERIC","62.097","0.07087299839679685","2317"
"21:27:46:666 (H:m:s:ms)","GENERIC","62.079","0.08306593024213663","2205"
"21:48:23:30 (H:m:s:ms)","GENERIC","62.097","0.06371241524923461","2802"
"20:53:20:0 (H:m:s:ms)","GENERIC","93.193","0.07991371707451202","2548"
"21:15:33:333 (H:m:s:ms)","GENERIC","93.148","0.06940987422356176","2145"
"21:27:43:291 (H:m:s:ms)","OPERA","62.013","0.09487543481904623","3044"
"21:48:16:969 (H:m:s:ms)","GENERIC","62.075","0.07103063757226807","3321"
"20:53:26:60 (H:m:s:ms)","GENERIC","93.34400000000001","0.06994953271944372","1890"
"21:15:39:393 (H:m:s:ms)","GENERIC","62.095","0.05892556509887896","2643"
"21:27:40:606 (H:m:s:ms)","GENERIC","62.047","0.09886307780540114","2283"
"21:48:10:909 (H:m:s:ms)","GENERIC","93.169","0.05018311230450433","3331"
"20:53:32:121 (H:m:s:ms)","GENERIC","93.11500000000001","0.08642368182406139","1789"
"21:15:45:454 (H:m:s:ms)","GENERIC","62.057","0.07112716586514296","2905"
"20:53:38:181 (H:m:s:ms)","GENERIC","93.172","0.08588179561575152","2153"
"21:15:51:515 (H:m:s:ms)","GENERIC","93.18299999999999","0.061604130146297474","2887"
"20:53:44:242 (H:m:s:ms)","GENERIC","62.037","0.06289811475319557","3424"
"21:15:57:575 (H:m:s:ms)","GENERIC","31.02","0.05829898175110071","2872"
"20:53:50:303 (H:m:s:ms)","GENERIC","62.095","0.07147119341307569","3393"
"21:16:3:636 (H:m:s:ms)","GENERIC","62.041","0.07118710634890216","2236"
"20:53:56:363 (H:m:s:ms)","GENERIC","93.222","0.07550149857144552","2416"
"21:16:9:696 (H:m:s:ms)","GENERIC","93.153","0.06364207519488205","1254"
"20:54:2:424 (H:m:s:ms)","GENERIC","93.176","0.07602289535814967","3333"
"20:54:8:484 (H:m:s:ms)","GENERIC","93.15899999999999","0.04873467066760233","3727"
"21:28:51:645 (H:m:s:ms)","OPERA","93.155","0.07771157418618645","2575"
"22:7:22:105 (H:m:s:ms)","AMBULANCE","62.161","0.08325393481698957","2659"
"21:28:47:272 (H:m:s:ms)","GENERIC","62.113","0.0872865261733941","1964"
"22:2:37:894 (H:m:s:ms)","AMBULANCE","93.211","0.09513151321115362","2550"
"21:28:44:50 (H:m:s:ms)","OPERA","93.15299999999999","0.07868595825589456","3313"
"22:2:6:315 (H:m:s:ms)","AMBULANCE","93.168","0.05055800981765733","2005"
"21:28:41:212 (H:m:s:ms)","GENERIC","62.105","0.05032193407404234","3244"
"21:50:0:0 (H:m:s:ms)","GENERIC","93.16799999999999","0.10450142406361103","2791"
"21:28:36:455 (H:m:s:ms)","OPERA","31.01","0.0893958692716031","3431"
"21:49:53:939 (H:m:s:ms)","GENERIC","62.113","0.07101314625486668","2818"
"21:28:35:151 (H:m:s:ms)","GENERIC","93.19","0.07966784505367779","2694"
"21:49:47:878 (H:m:s:ms)","GENERIC","93.12299999999999","0.07033464384017864","3225"
"21:49:41:818 (H:m:s:ms)","GENERIC","93.15899999999999","0.07322292556568194","2705"
"21:49:35:757 (H:m:s:ms)","GENERIC","93.335","0.07240311933094172","2232"
"21:16:15:757 (H:m:s:ms)","GENERIC","62.053","0.06327642728536433","1496"
"21:16:21:818 (H:m:s:ms)","GENERIC","93.15899999999999","0.08090589673484906","996"
"21:28:29:90 (H:m:s:ms)","GENERIC","62.085","0.07623374912818011","3369"
"20:54:14:545 (H:m:s:ms)","GENERIC","93.336","0.08823769141719362","3067"
"21:16:27:878 (H:m:s:ms)","GENERIC","62.043","0.047724457925387556","3186"
"21:28:28:860 (H:m:s:ms)","OPERA","93.155","0.08840826416368083","2868"
"20:54:20:606 (H:m:s:ms)","GENERIC","93.30000000000001","0.07207011439017054","3036"
"21:16:33:939 (H:m:s:ms)","GENERIC","62.039","0.07142857142857141","3712"
"21:28:23:30 (H:m:s:ms)","GENERIC","62.083","0.09674517236988167","2896"
"21:49:29:696 (H:m:s:ms)","GENERIC","93.164","0.08350054547153014","1921"
"20:54:26:666 (H:m:s:ms)","GENERIC","62.075","0.06242859242565965","1996"
"21:16:40:0 (H:m:s:ms)","GENERIC","93.41","0.0823156475289433","3143"
"21:28:21:265 (H:m:s:ms)","OPERA","93.15700000000001","0.10715417660353585","3491"
"21:49:23:636 (H:m:s:ms)","GENERIC","93.28399999999999","0.07959010618371251","2022"
"20:54:32:727 (H:m:s:ms)","GENERIC","62.075","0.07087299839679682","1876"
"21:16:46:60 (H:m:s:ms)","GENERIC","62.045","0.0657779595187381","3355"
"21:28:16:969 (H:m:s:ms)","GENERIC","93.217","0.11640727855042134","3195"
"21:49:17:575 (H:m:s:ms)","GENERIC","62.103","0.045449147406744654","1976"
"20:54:38:787 (H:m:s:ms)","GENERIC","93.211","0.07455960308902665","3535"
"21:16:52:121 (H:m:s:ms)","GENERIC","93.285","0.07510781895038879","2204"
"20:54:44:848 (H:m:s:ms)","GENERIC","93.16","0.0865038171951827","2558"
"21:16:58:181 (H:m:s:ms)","GENERIC","93.227","0.06410019857184311","1782"
"20:54:50:909 (H:m:s:ms)","GENERIC","93.291","0.09962258690354327","3848"
"21:17:4:242 (H:m:s:ms)","GENERIC","62.069","0.07129689066225915","3565"
"20:54:56:969 (H:m:s:ms)","GENERIC","93.176","0.07430915863722985","3976"
"21:17:10:303 (H:m:s:ms)","GENERIC","93.361","0.06129642021733879","1615"
"20:55:3:30 (H:m:s:ms)","GENERIC","93.207","0.10273947835395117","4299"
"20:55:9:90 (H:m:s:ms)","GENERIC","93.262","0.0822228758544995","3098"
"21:29:29:696 (H:m:s:ms)","GENERIC","93.134","0.05113627706637493","2022"
"21:29:23:636 (H:m:s:ms)","GENERIC","93.33","0.09369491752674773","2064"
"21:29:22:25 (H:m:s:ms)","OPERA","62.149","0.07691407322258166","3229"
"21:29:17:575 (H:m:s:ms)","GENERIC","62.071","0.06770148945440159","1896"
"21:29:14:430 (H:m:s:ms)","OPERA","31.01","0.08773138518143837","3266"
"21:29:11:515 (H:m:s:ms)","GENERIC","93.264","0.09867014492896438","2307"
"21:29:6:835 (H:m:s:ms)","OPERA","93.154","0.08540850847289606","2745"
"21:17:16:363 (H:m:s:ms)","GENERIC","93.397","0.0837851730672925","1520"
"21:17:22:424 (H:m:s:ms)","GENERIC","62.071","0.05353510744263218","2617"
"20:55:15:151 (H:m:s:ms)","GENERIC","62.127","0.07138942931053553","2136"
"21:17:28:484 (H:m:s:ms)","GENERIC","62.103","0.03775951866748303","1845"
"20:55:21:212 (H:m:s:ms)","GENERIC","93.155","0.05890042584402005","3239"
"21:17:34:545 (H:m:s:ms)","GENERIC","93.197","0.07352634133206756","2822"
"21:29:5:454 (H:m:s:ms)","GENERIC","62.063","0.05936271136972314","2042"
"20:55:27:272 (H:m:s:ms)","GENERIC","62.089","0.04768575784408858","2344"
"21:17:40:606 (H:m:s:ms)","GENERIC","62.049","0.045738538333542064","2400"
"21:28:59:393 (H:m:s:ms)","GENERIC","62.103","0.09443825392448511","4873"
"20:55:33:333 (H:m:s:ms)","GENERIC","93.126","0.1058290220592119","2360"
"21:17:46:666 (H:m:s:ms)","GENERIC","62.071","0.07102464235742909","2242"
"21:28:59:240 (H:m:s:ms)","OPERA","62.149","0.07158712561129937","3116"
"20:55:39:393 (H:m:s:ms)","GENERIC","93.38900000000001","0.07403480487331433","2453"
"21:17:52:727 (H:m:s:ms)","GENERIC","62.059","0.07905694150420946","1602"
"21:28:53:333 (H:m:s:ms)","GENERIC","93.205","0.08892871007435851","2825"
"22:10:0:0 (H:m:s:ms)","AMBULANCE","31.01","0.07224290496283285","2310"
"20:55:45:454 (H:m:s:ms)","GENERIC","93.118","0.0863524804135645","2973"
"21:17:58:787 (H:m:s:ms)","GENERIC","62.105","0.05973836991001828","2792"
"20:55:51:515 (H:m:s:ms)","GENERIC","62.073","0.07803133273813083","3057"
"21:18:4:848 (H:m:s:ms)","GENERIC","62.049","0.07486597981618506","2577"
"20:55:57:575 (H:m:s:ms)","GENERIC","62.083","0.057375322282401865","1003"
"21:18:10:909 (H:m:s:ms)","GENERIC","93.163","0.07453672856869908","3361"
"20:56:3:636 (H:m:s:ms)","GENERIC","62.033","0.05394302474718175","2384"
"20:56:9:696 (H:m:s:ms)","GENERIC","62.099","0.07163436908485712","1362"
"21:30:0:0 (H:m:s:ms)","GENERIC","93.197","0.1375178708879677","9016"
"21:30:0:0 (H:m:s:ms)","GENERIC","62.055","0.10685860189378929","7088"
"21:30:0:0 (H:m:s:ms)","OPERA","62.017","0.10072102090716033","4999"
"21:30:0:0 (H:m:s:ms)","AMBULANCE","31.026","0.07192403299624238","2766"
"21:29:53:939 (H:m:s:ms)","GENERIC","62.149","0.08196648490937514","3043"
"21:29:52:405 (H:m:s:ms)","OPERA","62.017","0.10141778695994705","3311"
"21:29:47:878 (H:m:s:ms)","GENERIC","62.077","0.09683366538717628","3350"
"21:29:44:810 (H:m:s:ms)","OPERA","93.15700000000001","0.11794916939356964","2725"
"21:18:16:969 (H:m:s:ms)","GENERIC","62.049","0.07103063757226807","3337"
"21:18:23:30 (H:m:s:ms)","GENERIC","62.087","0.06503095373213172","2816"
"20:56:15:757 (H:m:s:ms)","GENERIC","62.087","0.06434768838116875","1574"
"21:18:29:90 (H:m:s:ms)","GENERIC","62.063","0.03663233007889997","3241"
"20:56:21:818 (H:m:s:ms)","GENERIC","93.157","0.07269787120983251","1161"
"21:18:35:151 (H:m:s:ms)","GENERIC","62.035","0.05345887647456594","2843"
"20:40:0:0 (H:m:s:ms)","OPERA","62.149","0.051361124418396104","4002"
"20:56:27:878 (H:m:s:ms)","GENERIC","62.063","0.07190040048586445","3022"
"21:18:41:212 (H:m:s:ms)","GENERIC","62.105","0.07108162192630313","2477"
"20:40:0:0 (H:m:s:ms)","GENERIC","62.085","0.07926308045476496","6392"
"20:56:33:939 (H:m:s:ms)","GENERIC","62.065","0.041649656391752075","4166"
"21:18:47:272 (H:m:s:ms)","GENERIC","62.135","0.05930195649574249","1901"
"21:29:41:818 (H:m:s:ms)","GENERIC","93.15299999999999","0.11631305054209418","2415"
"20:40:0:0 (H:m:s:ms)","GENERIC","93.14699999999999","0.10250777969433057","8596"
"20:56:40:0 (H:m:s:ms)","GENERIC","93.37","0.08244330494354886","3288"
"21:18:53:333 (H:m:s:ms)","GENERIC","93.207","0.06016726212665971","2936"
"21:29:37:215 (H:m:s:ms)","OPERA","93.15299999999999","0.1077252072785364","2923"
"20:40:6:60 (H:m:s:ms)","GENERIC","93.235","0.06719364081510856","3396"
"20:56:46:60 (H:m:s:ms)","GENERIC","62.069","0.05130102689138695","3644"
"21:18:59:393 (H:m:s:ms)","GENERIC","62.085","0.06049402543194691","2571"
"21:29:35:757 (H:m:s:ms)","GENERIC","93.357","0.08933071617227666","2019"
"20:40:7:594 (H:m:s:ms)","OPERA","62.149","0.10142452881155062","3130"
"20:56:52:121 (H:m:s:ms)","GENERIC","93.279","0.08021116767399494","2333"
"21:19:5:454 (H:m:s:ms)","GENERIC","93.261","0.09846963206717942","2090"
"20:40:12:121 (H:m:s:ms)","GENERIC","62.059","0.09527298995530847","1538"
"20:56:58:181 (H:m:s:ms)","GENERIC","93.176","0.07891736448754588","2049"
"21:19:11:515 (H:m:s:ms)","GENERIC","93.274","0.07403411697876335","2419"
"20:40:15:189 (H:m:s:ms)","OPERA","62.150000000000006","0.09489652525426664","3928"
"20:57:4:242 (H:m:s:ms)","GENERIC","62.079","0.04198482942701235","4012"
"20:40:18:181 (H:m:s:ms)","GENERIC","93.377","0.0969349328205062","2418"
"20:57:10:303 (H:m:s:ms)","GENERIC","62.117","0.06377603634987047","1825"
"20:40:24:242 (H:m:s:ms)","GENERIC","62.095","0.05234561698977106","1813"
"20:40:30:303 (H:m:s:ms)","GENERIC","93.185","0.0577280360831621","3623"
"21:30:18:181 (H:m:s:ms)","GENERIC","62.097","0.07102464235742911","1601"
"21:31:0:606 (H:m:s:ms)","GENERIC","62.117","0.05988157036297377","2292"
"21:30:54:545 (H:m:s:ms)","GENERIC","62.099","0.05972727244391499","2358"
"21:30:48:484 (H:m:s:ms)","GENERIC","62.059","0.057132125320882465","2316"
"21:30:42:424 (H:m:s:ms)","GENERIC","93.12299999999999","0.07929214837088065","2706"
"21:30:36:363 (H:m:s:ms)","GENERIC","93.11699999999999","0.13646127927887278","3207"
"21:30:31:578 (H:m:s:ms)","AMBULANCE","62.203","0.14997748412722278","2293"
"21:30:30:303 (H:m:s:ms)","GENERIC","93.181","0.10053106579209241","3380"
"21:19:17:575 (H:m:s:ms)","GENERIC","62.059","0.0458938993767146","1955"
"21:30:24:242 (H:m:s:ms)","GENERIC","62.125","0.07243558228002943","1712"
"21:19:23:636 (H:m:s:ms)","GENERIC","93.354","0.07169216909318182","2254"
"20:57:16:363 (H:m:s:ms)","GENERIC","93.393","0.07766974989479798","1669"
"21:19:29:696 (H:m:s:ms)","GENERIC","93.116","0.06620314816251906","1935"
"20:57:22:424 (H:m:s:ms)","GENERIC","62.073","0.062457625349737554","2904"
"21:19:35:757 (H:m:s:ms)","GENERIC","93.357","0.09038686414662911","2057"
"20:40:30:379 (H:m:s:ms)","OPERA","31.009","0.09240682061363584","5484"
"20:57:28:484 (H:m:s:ms)","GENERIC","62.139","0.055242717280199014","2010"
"21:19:41:818 (H:m:s:ms)","GENERIC","93.15700000000001","0.06011475980404917","2546"
"20:40:36:363 (H:m:s:ms)","GENERIC","93.119","0.09303219013404114","3075"
"20:57:34:545 (H:m:s:ms)","GENERIC","93.179","0.05609780010051821","3238"
"21:19:47:878 (H:m:s:ms)","GENERIC","62.085","0.0742428447730823","3431"
"20:40:37:974 (H:m:s:ms)","OPERA","62.147999999999996","0.11087146106128822","3438"
"20:57:40:606 (H:m:s:ms)","GENERIC","62.073","0.054326686710022005","2779"
"21:19:53:939 (H:m:s:ms)","GENERIC","62.141","0.050778492006093814","2988"
"20:40:42:424 (H:m:s:ms)","GENERIC","93.12700000000001","0.10190248964411934","2741"
"20:57:46:666 (H:m:s:ms)","GENERIC","93.27600000000001","0.07285685292468864","2487"
"21:20:0:0 (H:m:s:ms)","OPERA","93.155","0.07682380449367458","3857"
"21:30:12:121 (H:m:s:ms)","GENERIC","93.422","0.07760456640129214","2425"
"20:40:45:569 (H:m:s:ms)","OPERA","62.149","0.10610654413121276","2779"
"20:57:52:727 (H:m:s:ms)","GENERIC","62.087","0.06373774391990975","2226"
"21:20:0:0 (H:m:s:ms)","GENERIC","62.055","0.10492955798463088","5786"
"21:30:6:60 (H:m:s:ms)","GENERIC","93.269","0.07893075093190888","2999"
"20:40:48:484 (H:m:s:ms)","GENERIC","93.33500000000001","0.11467852678412511","2354"
"20:57:58:787 (H:m:s:ms)","GENERIC","62.117","0.07288689868556622","3050"
"21:20:0:0 (H:m:s:ms)","GENERIC","93.215","0.1345921597407558","7866"
"20:40:53:164 (H:m:s:ms)","OPERA","62.149","0.13019296392067772","3221"
"20:58:4:848 (H:m:s:ms)","GENERIC","93.282","0.06672968509647975","3174"
"20:40:54:545 (H:m:s:ms)","GENERIC","93.183","0.10885959352291806","2591"
"20:58:10:909 (H:m:s:ms)","GENERIC","93.17099999999999","0.08818907776730801","3555"
"20:41:0:606 (H:m:s:ms)","GENERIC","93.13","0.07694509252877176","2363"
"20:41:0:759 (H:m:s:ms)","OPERA","62.149","0.0943810541757356","4781"
"21:31:12:727 (H:m:s:ms)","GENERIC","93.382","0.050206435642805164","1833"
"21:31:6:666 (H:m:s:ms)","GENERIC","62.051","0.08248151122245785","3021"
"21:31:55:151 (H:m:s:ms)","GENERIC","93.362","0.07308764340085185","2112"
"21:31:49:90 (H:m:s:ms)","GENERIC","62.067","0.07118710634890216","2305"
"21:31:43:30 (H:m:s:ms)","GENERIC","93.18","0.0828663476998794","3150"
"21:31:36:969 (H:m:s:ms)","GENERIC","62.087","0.07733698180897002","2865"
"21:31:34:736 (H:m:s:ms)","AMBULANCE","62.161","0.08022717107695092","1284"
"21:31:30:909 (H:m:s:ms)","GENERIC","93.141","0.057825257273363136","3247"
"21:31:24:848 (H:m:s:ms)","GENERIC","62.081","0.0764705882352941","2338"
"21:31:18:787 (H:m:s:ms)","GENERIC","93.15299999999999","0.07604434489089408","2030"
"20:58:16:969 (H:m:s:ms)","GENERIC","93.223","0.08922508635406788","3314"
"20:58:23:30 (H:m:s:ms)","GENERIC","62.097","0.06827242275430653","2991"
"20:41:6:666 (H:m:s:ms)","GENERIC","62.023","0.0670021046295815","3448"
"20:58:29:90 (H:m:s:ms)","GENERIC","62.025","0.07120661538169491","3412"
"20:41:8:354 (H:m:s:ms)","OPERA","62.149","0.1088542387500256","2745"
"20:58:35:151 (H:m:s:ms)","GENERIC","93.208","0.07451419930074114","2970"
"20:41:12:727 (H:m:s:ms)","GENERIC","93.322","0.10727268151291836","2098"
"20:58:41:212 (H:m:s:ms)","GENERIC","62.065","0.07108162192630313","2646"
"20:41:15:949 (H:m:s:ms)","OPERA","31.009","0.07707726648955035","4345"
"20:58:47:272 (H:m:s:ms)","GENERIC","93.435","0.08179936427046348","1719"
"20:41:18:787 (H:m:s:ms)","GENERIC","62.019","0.08748730670666946","2494"
"20:58:53:333 (H:m:s:ms)","GENERIC","93.217","0.05738810753425864","3211"
"20:41:23:544 (H:m:s:ms)","OPERA","62.147999999999996","0.10571413448953655","3304"
"20:58:59:393 (H:m:s:ms)","GENERIC","93.241","0.07133913703138349","2606"
"21:31:3:157 (H:m:s:ms)","AMBULANCE","31.031","0.08001273597807947","2891"
"20:41:24:848 (H:m:s:ms)","GENERIC","62.017","0.08699843482524429","2615"
"20:59:5:454 (H:m:s:ms)","GENERIC","62.099","0.07096414039138414","2312"
"20:41:30:909 (H:m:s:ms)","GENERIC","62.043","0.031660488804318064","4399"
"20:59:11:515 (H:m:s:ms)","GENERIC","93.24600000000001","0.05583633986696755","2673"
"20:41:31:139 (H:m:s:ms)","OPERA","31.01","0.05140576820970403","6517"
"20:41:36:969 (H:m:s:ms)","GENERIC","62.067","0.026946370845669903","3330"
"20:59:17:575 (H:m:s:ms)","GENERIC","62.063","0.06249999999999997","2097"
"20:59:23:636 (H:m:s:ms)","GENERIC","93.386","0.050709708123600254","2498"
"20:41:38:734 (H:m:s:ms)","OPERA","31.009","0.07576008820488186","3126"
"20:59:29:696 (H:m:s:ms)","GENERIC","62.077","0.0459220463673012","2042"
"20:41:43:30 (H:m:s:ms)","GENERIC","93.124","0.10643541019768006","3314"
"20:59:35:757 (H:m:s:ms)","GENERIC","93.327","0.07251996514206424","2633"
"20:41:46:329 (H:m:s:ms)","OPERA","31.009","0.10697288327880047","3437"
"20:59:41:818 (H:m:s:ms)","GENERIC","93.189","0.08088810584514963","2965"
"20:41:49:90 (H:m:s:ms)","GENERIC","62.037","0.08528673731063316","2521"
"20:59:47:878 (H:m:s:ms)","GENERIC","93.16499999999999","0.06942559187668768","3724"
"20:41:53:924 (H:m:s:ms)","OPERA","62.149","0.10320291445930373","3422"
"20:59:53:939 (H:m:s:ms)","GENERIC","62.105","0.04143274388227328","3480"
"20:41:55:151 (H:m:s:ms)","GENERIC","93.402","0.12656971320228974","2123"
"21:0:0:0 (H:m:s:ms)","AMBULANCE","31.018","0.051020408163265384","3879"
"20:42:1:212 (H:m:s:ms)","GENERIC","93.37","0.09969748549927357","1793"
"21:0:0:0 (H:m:s:ms)","GENERIC","93.219","0.0802691621111348","5987"
"20:42:1:518 (H:m:s:ms)","OPERA","62.149","0.11800330362346487","3881"
"21:0:0:0 (H:m:s:ms)","GENERIC","93.19500000000001","0.11245362307064904","8275"
"20:42:7:272 (H:m:s:ms)","GENERIC","93.24799999999999","0.07219372501864699","2368"
"20:42:9:113 (H:m:s:ms)","OPERA","62.147999999999996","0.10791821833188958","3794"
"21:0:6:60 (H:m:s:ms)","GENERIC","93.221","0.06719364081510856","3245"
"21:0:12:121 (H:m:s:ms)","GENERIC","93.358","0.05693249724859315","2624"
"20:42:13:333 (H:m:s:ms)","GENERIC","124.58699999999999","0.12346600732160928","3168"
"21:0:18:181 (H:m:s:ms)","GENERIC","62.091","0.07102464235742911","1653"
"20:42:16:708 (H:m:s:ms)","OPERA","62.149","0.12073303937428025","2890"
"21:0:24:242 (H:m:s:ms)","GENERIC","62.083","0.04268133398923975","1777"
"20:20:0:0 (H:m:s:ms)","GENERIC","93.143","0.08031190456921337","3233"
"20:42:19:393 (H:m:s:ms)","GENERIC","93.399","0.10092165029068036","2433"
"21:0:30:303 (H:m:s:ms)","GENERIC","93.161","0.08605162616262536","3621"
"20:20:0:0 (H:m:s:ms)","GENERIC","93.217","0.10973990969994003","4843"
"20:42:24:303 (H:m:s:ms)","OPERA","62.149","0.10439362019977079","3269"
"21:0:31:578 (H:m:s:ms)","AMBULANCE","31.055","0.11083988748148961","2350"
"20:20:6:60 (H:m:s:ms)","GENERIC","93.229","0.0792474213543538","3080"
"20:42:25:454 (H:m:s:ms)","GENERIC","93.111","0.11566444428665683","2935"
"21:0:36:363 (H:m:s:ms)","GENERIC","93.137","0.10492856004419698","3124"
"20:20:12:121 (H:m:s:ms)","GENERIC","93.322","0.07497120438473756","2561"
"20:42:31:515 (H:m:s:ms)","GENERIC","62.115","0.0626129616613207","1617"
"21:0:42:424 (H:m:s:ms)","GENERIC","93.145","0.09265424165063488","3062"
"20:20:18:181 (H:m:s:ms)","GENERIC","62.119","0.059661058265367856","1637"
"20:42:31:898 (H:m:s:ms)","OPERA","62.149","0.09844105087436267","3999"
"21:0:48:484 (H:m:s:ms)","GENERIC","93.299","0.05738431091574205","2614"
"20:20:24:242 (H:m:s:ms)","GENERIC","62.093","0.062149115823410116","1729"
"20:42:37:575 (H:m:s:ms)","GENERIC","124.346","0.09019292826915147","3052"
"21:0:54:545 (H:m:s:ms)","GENERIC","62.087","0.059127011044564755","2584"
"20:20:30:303 (H:m:s:ms)","GENERIC","93.207","0.09310952786450441","3316"
"20:42:39:493 (H:m:s:ms)","OPERA","62.147999999999996","0.11534440777509922","3392"
"20:20:36:363 (H:m:s:ms)","GENERIC","93.11500000000001","0.08221509270651556","3331"
"20:42:43:636 (H:m:s:ms)","GENERIC","93.30199999999999","0.11549231806204063","3079"
"20:20:42:424 (H:m:s:ms)","GENERIC","93.10300000000001","0.10374105978711248","2918"
"20:20:48:484 (H:m:s:ms)","GENERIC","93.321","0.09482592759788896","2261"
"21:1:0:606 (H:m:s:ms)","GENERIC","93.128","0.06737364554059365","2335"
"21:1:3:157 (H:m:s:ms)","AMBULANCE","31.036","0.09750197338900288","3276"
"20:42:47:88 (H:m:s:ms)","OPERA","62.149","0.11565840135017684","3657"
"21:1:6:666 (H:m:s:ms)","GENERIC","62.019","0.09119839043423823","3034"
"20:42:49:696 (H:m:s:ms)","GENERIC","93.172","0.11422441682817198","3327"
"21:1:12:727 (H:m:s:ms)","GENERIC","93.336","0.05085067294205682","2158"
"20:20:54:545 (H:m:s:ms)","GENERIC","93.149","0.06335893325525883","2412"
"20:42:54:683 (H:m:s:ms)","OPERA","62.149","0.10387891201377587","2889"
"21:1:18:787 (H:m:s:ms)","GENERIC","93.163","0.060556354591056794","2395"
"20:21:0:606 (H:m:s:ms)","GENERIC","62.115","0.07453559924999296","2336"
"20:42:55:757 (H:m:s:ms)","GENERIC","93.173","0.0940578769945761","3166"
"21:1:24:848 (H:m:s:ms)","GENERIC","93.194","0.08738548605080185","2747"
"20:21:6:666 (H:m:s:ms)","GENERIC","62.025","0.06955065340045162","3045"
"20:43:1:818 (H:m:s:ms)","GENERIC","93.346","0.07081524077024755","1244"
"21:1:30:909 (H:m:s:ms)","GENERIC","62.063","0.06150779427644703","4004"
"20:21:12:727 (H:m:s:ms)","GENERIC","93.34","0.054693743447892997","1904"
"20:43:2:278 (H:m:s:ms)","OPERA","62.149","0.11074318083533366","3032"
"21:1:34:736 (H:m:s:ms)","AMBULANCE","31.019","0.09494744364318826","2537"
"20:21:18:787 (H:m:s:ms)","GENERIC","93.137","0.06299617860250359","2098"
"20:43:7:878 (H:m:s:ms)","GENERIC","124.237","0.08813816702647038","3825"
"21:1:36:969 (H:m:s:ms)","GENERIC","62.109","0.08520398852227633","3376"
"20:21:24:848 (H:m:s:ms)","GENERIC","62.033","0.05462184873949584","2469"
"20:43:9:873 (H:m:s:ms)","OPERA","62.149","0.11085790440602201","2496"
"21:1:43:30 (H:m:s:ms)","GENERIC","93.148","0.08274975285866998","3827"
"20:21:30:909 (H:m:s:ms)","GENERIC","62.051","0.061116264470407786","3536"
"20:43:13:939 (H:m:s:ms)","GENERIC","93.11699999999999","0.09069388164089034","3388"
"20:21:36:969 (H:m:s:ms)","GENERIC","62.083","0.06243802586658734","2848"
"20:43:17:468 (H:m:s:ms)","OPERA","62.149","0.0967685527205896","2986"
"20:21:43:30 (H:m:s:ms)","GENERIC","93.138","0.09234978803041492","3153"
"20:21:49:90 (H:m:s:ms)","GENERIC","62.061","0.06293352887171207","2493"
"20:43:20:0 (H:m:s:ms)","GENERIC","62.067","0.10390553646197176","2902"
"20:43:25:63 (H:m:s:ms)","OPERA","62.149","0.10368868847415198","3791"
"20:21:55:151 (H:m:s:ms)","GENERIC","124.617","0.0943948983555996","2206"
"20:43:26:60 (H:m:s:ms)","GENERIC","93.354","0.10618194132856337","1951"
"20:22:1:212 (H:m:s:ms)","GENERIC","93.398","0.09185741599770991","1936"
"20:43:32:121 (H:m:s:ms)","GENERIC","93.11099999999999","0.10013225564221603","4346"
"20:22:7:272 (H:m:s:ms)","GENERIC","62.075","0.07120661538169493","2319"
"20:43:32:658 (H:m:s:ms)","OPERA","62.147999999999996","0.07663683962738815","2811"
"20:22:13:333 (H:m:s:ms)","GENERIC","93.32900000000001","0.10318526802339407","3335"
"20:43:38:181 (H:m:s:ms)","GENERIC","93.137","0.08274681877107423","2623"
"20:22:19:393 (H:m:s:ms)","GENERIC","93.371","0.07739942413740092","2359"
"20:43:40:253 (H:m:s:ms)","OPERA","62.147999999999996","0.10679979298920235","3296"
"20:22:25:454 (H:m:s:ms)","GENERIC","93.088","0.09042366884403087","2890"
"20:43:44:242 (H:m:s:ms)","GENERIC","62.021","0.09178380480700232","3387"
"20:22:31:515 (H:m:s:ms)","GENERIC","93.337","0.06348688718274359","1508"
"20:43:47:848 (H:m:s:ms)","OPERA","62.149","0.10128506913991274","2792"
"20:22:37:575 (H:m:s:ms)","GENERIC","93.219","0.0894364987608865","2986"
"20:43:50:303 (H:m:s:ms)","GENERIC","93.34700000000001","0.10999195470578539","3492"
"20:22:43:636 (H:m:s:ms)","GENERIC","93.32499999999999","0.07275825432423555","2969"
"20:22:49:696 (H:m:s:ms)","GENERIC","93.19","0.09106680882802862","3396"
"20:43:55:443 (H:m:s:ms)","OPERA","31.009","0.10292408173154116","3277"
"20:43:56:363 (H:m:s:ms)","GENERIC","93.226","0.10554823789053436","2465"
"20:22:55:757 (H:m:s:ms)","GENERIC","93.167","0.10065118084112412","3388"
"20:44:2:424 (H:m:s:ms)","GENERIC","62.031","0.07508498586295942","3723"
"20:23:1:818 (H:m:s:ms)","GENERIC","93.338","0.07909499547224873","878"
"20:44:3:37 (H:m:s:ms)","OPERA","31.01","0.10343499741761097","4083"
"20:23:7:878 (H:m:s:ms)","GENERIC","93.169","0.0885304866863585","4250"
"20:44:8:484 (H:m:s:ms)","GENERIC","93.137","0.10855801699907112","3491"
"20:23:13:939 (H:m:s:ms)","GENERIC","93.12100000000001","0.07929743359705584","3593"
"20:44:10:632 (H:m:s:ms)","OPERA","62.147999999999996","0.10633688898533238","2847"
"20:23:20:0 (H:m:s:ms)","GENERIC","93.165","0.08026081229389942","2927"
"20:44:14:545 (H:m:s:ms)","GENERIC","93.334","0.11079704916639802","2886"
"20:23:26:60 (H:m:s:ms)","GENERIC","124.632","0.06704214467988676","1987"
"20:44:18:227 (H:m:s:ms)","OPERA","31.009","0.10146166987898654","3697"
"20:23:32:121 (H:m:s:ms)","GENERIC","62.109","0.053518307885646224","1950"
"20:44:20:606 (H:m:s:ms)","GENERIC","93.261","0.11618287292952828","2734"
"20:23:38:181 (H:m:s:ms)","GENERIC","93.154","0.08287946725955447","2314"
"20:44:25:822 (H:m:s:ms)","OPERA","62.147999999999996","0.12613262756104124","2704"
"20:23:44:242 (H:m:s:ms)","GENERIC","62.019","0.07453559924999298","3616"
"20:23:50:303 (H:m:s:ms)","GENERIC","93.361","0.07929395323439196","3470"
"20:44:26:666 (H:m:s:ms)","GENERIC","62.071","0.0768755354145945","1877"
"20:44:32:727 (H:m:s:ms)","GENERIC","93.148","0.07882477856977413","1435"
"20:23:56:363 (H:m:s:ms)","GENERIC","62.093","0.046401777983176504","2458"
"20:44:33:417 (H:m:s:ms)","OPERA","31.009","0.0888346351591737","3559"
"20:24:2:424 (H:m:s:ms)","GENERIC","93.17399999999999","0.06246125567847716","3696"
"20:44:38:787 (H:m:s:ms)","GENERIC","93.205","0.09447714757462844","3129"
"20:24:8:484 (H:m:s:ms)","GENERIC","93.14099999999999","0.06348186979598221","3695"
"20:44:41:12 (H:m:s:ms)","OPERA","62.149","0.12042114313666528","3419"
"20:24:14:545 (H:m:s:ms)","GENERIC","62.095","0.07149062815494231","3203"
"20:44:44:848 (H:m:s:ms)","GENERIC","93.146","0.12043731005358559","2369"
"20:24:20:606 (H:m:s:ms)","GENERIC","93.229","0.10599276162400607","2907"
"20:44:48:607 (H:m:s:ms)","OPERA","62.149","0.10855270735254766","3312"
"20:24:26:666 (H:m:s:ms)","GENERIC","93.12100000000001","0.09224993739416301","1791"
"20:44:50:909 (H:m:s:ms)","GENERIC","62.073","0.09858120397432078","4297"
"20:24:32:727 (H:m:s:ms)","GENERIC","93.167","0.11286746133611676","1546"
"20:44:56:202 (H:m:s:ms)","OPERA","62.149","0.10431565290085064","3911"
"20:24:38:787 (H:m:s:ms)","GENERIC","93.204","0.08029800727851229","2688"
"20:44:56:969 (H:m:s:ms)","GENERIC","93.184","0.09504529238568027","7022"
"20:24:44:848 (H:m:s:ms)","GENERIC","93.13","0.08859134421795146","2221"
"20:24:50:909 (H:m:s:ms)","GENERIC","93.313","0.09987733523509679","3861"
"20:45:3:30 (H:m:s:ms)","GENERIC","93.25","0.0592834459023517","4676"
"20:45:3:797 (H:m:s:ms)","OPERA","62.147999999999996","0.10397437089542214","6579"
"20:24:56:969 (H:m:s:ms)","GENERIC","62.045","0.06951728606055094","3978"
"20:45:9:90 (H:m:s:ms)","GENERIC","93.234","0.06682604771320157","3365"
"20:25:3:30 (H:m:s:ms)","GENERIC","93.231","0.090280599685929","4369"
"20:45:11:392 (H:m:s:ms)","OPERA","31.009","0.09031913904430836","3811"
"20:25:9:90 (H:m:s:ms)","GENERIC","93.238","0.072412910633759","3103"
"20:45:15:151 (H:m:s:ms)","GENERIC","62.109","0.07405461534239612","2422"
"20:25:15:151 (H:m:s:ms)","GENERIC","62.141","0.07243558228002943","2231"
"20:45:18:987 (H:m:s:ms)","OPERA","62.149","0.09570045964519451","4041"
"20:25:21:212 (H:m:s:ms)","GENERIC","93.185","0.08309523623209576","3379"
"20:45:21:212 (H:m:s:ms)","GENERIC","93.153","0.09588669603547453","3031"
"20:25:27:272 (H:m:s:ms)","GENERIC","93.30199999999999","0.07287208243253533","2317"
"20:45:26:582 (H:m:s:ms)","OPERA","31.009","0.05937823694222641","2651"
"20:25:33:333 (H:m:s:ms)","GENERIC","93.117","0.11282538903716034","2472"
"20:45:27:272 (H:m:s:ms)","GENERIC","62.089","0.08220853354278652","2370"
"20:25:39:393 (H:m:s:ms)","GENERIC","62.109","0.05892556509887896","3017"
"20:45:33:333 (H:m:s:ms)","GENERIC","93.134","0.11277578175890189","2258"
"20:25:45:454 (H:m:s:ms)","GENERIC","93.12","0.08104519624136353","3312"
"20:25:51:515 (H:m:s:ms)","GENERIC","62.029","0.06246109900481168","3410"
"20:25:57:575 (H:m:s:ms)","GENERIC","93.324","0.06151440966908123","1534"
"20:26:3:636 (H:m:s:ms)","GENERIC","62.063","0.06241577613336155","2650"
"20:26:9:696 (H:m:s:ms)","GENERIC","124.22999999999999","0.07911471831078828","1326"
"20:26:15:757 (H:m:s:ms)","GENERIC","62.107","0.05466517401417468","1667"
"20:26:21:818 (H:m:s:ms)","GENERIC","93.125","0.0767614819503228","1134"
"20:26:27:878 (H:m:s:ms)","GENERIC","93.202","0.09189206261260573","2835"
"20:26:33:939 (H:m:s:ms)","GENERIC","62.087","0.07142857142857141","3856"
"20:26:40:0 (H:m:s:ms)","GENERIC","62.109","0.07107537744495511","1658"
"20:26:46:60 (H:m:s:ms)","GENERIC","62.085","0.05328744310621206","3541"
"20:26:52:121 (H:m:s:ms)","GENERIC","93.305","0.06915612580555368","2258"
"20:26:58:181 (H:m:s:ms)","GENERIC","93.194","0.08831412925684093","1804"
"20:27:4:242 (H:m:s:ms)","GENERIC","62.089","0.0639914478029481","3546"
"20:27:10:303 (H:m:s:ms)","GENERIC","62.081","0.06285057925349614","1714"
"20:27:16:363 (H:m:s:ms)","GENERIC","93.345","0.0773340127913544","1675"
"20:27:22:424 (H:m:s:ms)","GENERIC","62.051","0.062457625349737554","2701"
"20:27:28:484 (H:m:s:ms)","GENERIC","62.093","0.04614007206322937","1927"
"20:27:34:545 (H:m:s:ms)","GENERIC","31.025","0.07814900150344953","2756"
"20:27:40:606 (H:m:s:ms)","GENERIC","62.099","0.04458528033131821","2697"
"20:27:46:666 (H:m:s:ms)","GENERIC","62.055","0.07132474781673885","2416"
"20:27:52:727 (H:m:s:ms)","GENERIC","62.093","0.06108082634459661","2198"
"20:27:58:787 (H:m:s:ms)","GENERIC","62.127","0.0713894293105355","3110"
"20:28:4:848 (H:m:s:ms)","GENERIC","62.095","0.07391304347826086","3174"
"20:28:10:909 (H:m:s:ms)","GENERIC","93.217","0.08828555025505799","3926"
"20:28:16:969 (H:m:s:ms)","GENERIC","93.241","0.0641750324642961","3866"
"20:28:23:30 (H:m:s:ms)","GENERIC","62.055","0.04887561662762586","3414"
"20:28:29:90 (H:m:s:ms)","GENERIC","62.055","0.05351830788564627","3793"
"20:28:35:151 (H:m:s:ms)","GENERIC","93.26","0.07921598094776958","2898"
"20:28:41:212 (H:m:s:ms)","GENERIC","62.059","0.07184064474934307","2742"
"20:28:47:272 (H:m:s:ms)","GENERIC","93.385","0.07005062373344846","1894"
"20:28:53:333 (H:m:s:ms)","GENERIC","93.201","0.07399041664330944","3068"
"20:28:59:393 (H:m:s:ms)","GENERIC","93.251","0.05486792139282554","2560"
"20:29:5:454 (H:m:s:ms)","GENERIC","62.095","0.07120661538169493","2163"
"20:29:11:515 (H:m:s:ms)","GENERIC","93.21799999999999","0.060518323445342845","2448"
"20:29:17:575 (H:m:s:ms)","GENERIC","62.093","0.054083269131959794","2002"
"20:29:23:636 (H:m:s:ms)","GENERIC","93.35","0.07546211282592646","2257"
"20:29:29:696 (H:m:s:ms)","GENERIC","93.124","0.09035143173749062","1858"
"20:29:35:757 (H:m:s:ms)","GENERIC","93.313","0.09968856562327841","2192"
"20:29:41:818 (H:m:s:ms)","GENERIC","93.15899999999999","0.08489778245343031","2792"
"20:29:47:878 (H:m:s:ms)","GENERIC","93.14099999999999","0.059819146732847064","3485"
"20:29:53:939 (H:m:s:ms)","GENERIC","62.055","0.0411628650155235","3267"
"21:20:6:60 (H:m:s:ms)","GENERIC","93.247","0.08183893291992834","3014"
"21:20:7:594 (H:m:s:ms)","OPERA","93.155","0.11130031384639764","2797"
"21:20:12:121 (H:m:s:ms)","GENERIC","93.404","0.10522988747676226","2539"
"21:20:15:189 (H:m:s:ms)","OPERA","93.15299999999999","0.10538841041688779","3158"
"21:20:18:181 (H:m:s:ms)","GENERIC","93.341","0.09708808765086269","2314"
"21:20:22:784 (H:m:s:ms)","OPERA","62.149","0.10979094442455004","2404"
"21:20:24:242 (H:m:s:ms)","GENERIC","62.123","0.11671148953983607","1685"
"21:20:30:303 (H:m:s:ms)","GENERIC","93.189","0.08250214124025636","3230"
"21:20:30:379 (H:m:s:ms)","OPERA","93.28800000000001","0.12258310183614789","4976"
"21:20:36:363 (H:m:s:ms)","GENERIC","93.11699999999999","0.07602492150504814","2957"
"21:20:37:974 (H:m:s:ms)","OPERA","62.149","0.1069872995098967","2825"
"21:20:42:424 (H:m:s:ms)","GENERIC","93.119","0.11444670815375092","2709"
"21:20:45:569 (H:m:s:ms)","OPERA","93.155","0.10213511380498691","3009"
"21:20:48:484 (H:m:s:ms)","GENERIC","93.287","0.11918487801056737","1984"
"21:20:53:164 (H:m:s:ms)","OPERA","93.155","0.11920819890727494","3435"
"21:20:54:545 (H:m:s:ms)","GENERIC","93.169","0.08387263754032877","2328"
"21:21:0:606 (H:m:s:ms)","GENERIC","93.158","0.056796209562074866","2127"
"21:21:0:759 (H:m:s:ms)","OPERA","93.15700000000001","0.07880537620078931","4195"
"21:21:6:666 (H:m:s:ms)","GENERIC","62.041","0.05232211106009701","3050"
"21:21:8:354 (H:m:s:ms)","OPERA","31.009","0.07279414973273687","3248"
"21:32:49:696 (H:m:s:ms)","GENERIC","93.17","0.0733581985618857","3202"
"21:32:37:575 (H:m:s:ms)","GENERIC","62.037","0.07139572759538952","1722"
"21:32:31:515 (H:m:s:ms)","GENERIC","62.091","0.07138942931053553","1436"
"21:32:25:454 (H:m:s:ms)","GENERIC","93.135","0.07931645783340359","2534"
"21:32:19:393 (H:m:s:ms)","GENERIC","93.365","0.07606253489415052","2141"
"21:32:13:333 (H:m:s:ms)","GENERIC","93.271","0.09070932916609416","3184"
"21:32:7:272 (H:m:s:ms)","GENERIC","62.029","0.09055698327737768","2318"
"21:32:6:315 (H:m:s:ms)","AMBULANCE","31.025","0.11413659634026954","2609"
"21:21:12:727 (H:m:s:ms)","GENERIC","93.366","0.09105307764135875","1827"
"21:32:1:212 (H:m:s:ms)","GENERIC","93.358","0.09170295548359773","1824"
"21:21:15:949 (H:m:s:ms)","OPERA","62.149","0.10492176021321144","3265"
"21:21:18:787 (H:m:s:ms)","GENERIC","93.167","0.10034656751187905","1896"
"21:21:23:544 (H:m:s:ms)","OPERA","93.15700000000001","0.09438318845843165","3002"
"21:21:24:848 (H:m:s:ms)","GENERIC","62.093","0.0917419312815833","2343"
"21:21:30:909 (H:m:s:ms)","GENERIC","62.081","0.060961761201348094","3534"
"21:21:31:139 (H:m:s:ms)","OPERA","62.149","0.10087194785485888","5542"
"21:21:36:969 (H:m:s:ms)","GENERIC","62.101","0.053370490174703036","2922"
"21:32:43:636 (H:m:s:ms)","GENERIC","93.277","0.07125100616764862","2739"
"21:21:38:734 (H:m:s:ms)","OPERA","62.017","0.08845247197878146","2947"
"21:32:37:894 (H:m:s:ms)","AMBULANCE","31.025","0.10110841418507796","4274"
"21:21:43:30 (H:m:s:ms)","GENERIC","93.158","0.12315433140440392","3164"
"21:33:44:242 (H:m:s:ms)","GENERIC","62.041","0.09156937126812659","3049"
"21:33:41:52 (H:m:s:ms)","AMBULANCE","31.025","0.10627763310384428","2770"
"21:33:32:121 (H:m:s:ms)","GENERIC","93.145","0.07690546791455684","1727"
"21:33:26:60 (H:m:s:ms)","GENERIC","93.324","0.07586885202613297","1807"
"21:33:20:0 (H:m:s:ms)","GENERIC","93.174","0.09189206261260573","2701"
"21:33:13:939 (H:m:s:ms)","GENERIC","62.103","0.09210714158830108","3337"
"21:33:9:473 (H:m:s:ms)","AMBULANCE","31.02","0.09214295284562292","2240"
"21:33:7:878 (H:m:s:ms)","GENERIC","93.12700000000001","0.07357733159691121","3940"
"21:21:46:329 (H:m:s:ms)","OPERA","62.149","0.12350857458323233","3184"
"21:33:1:818 (H:m:s:ms)","GENERIC","93.436","0.09174850874148122","1300"
"21:21:49:90 (H:m:s:ms)","GENERIC","62.057","0.08923010142980327","2495"
"21:32:55:757 (H:m:s:ms)","GENERIC","93.185","0.08660005070649562","2888"
"21:21:53:924 (H:m:s:ms)","OPERA","93.155","0.09680731913837863","3735"
"21:21:55:151 (H:m:s:ms)","GENERIC","93.38","0.10237059605979908","1957"
"21:22:1:212 (H:m:s:ms)","GENERIC","93.354","0.07450485623210207","2045"
"21:22:1:518 (H:m:s:ms)","OPERA","93.15700000000001","0.11335349124891858","4306"
"21:22:7:272 (H:m:s:ms)","GENERIC","93.232","0.06543551865792449","2281"
"21:22:9:113 (H:m:s:ms)","OPERA","93.15700000000001","0.10761552486089807","3434"
"21:22:13:333 (H:m:s:ms)","GENERIC","93.281","0.12186972230311496","3076"
"21:22:16:708 (H:m:s:ms)","OPERA","93.15299999999999","0.12623865555110364","2425"
"21:33:38:181 (H:m:s:ms)","GENERIC","93.131","0.0923381022107652","2366"
"21:34:44:848 (H:m:s:ms)","GENERIC","93.19200000000001","0.11147614239917465","3157"
"21:34:44:210 (H:m:s:ms)","AMBULANCE","62.178","0.05644965083939811","1862"
"21:34:38:787 (H:m:s:ms)","GENERIC","93.237","0.08829073764794941","2751"
"21:34:32:727 (H:m:s:ms)","GENERIC","93.134","0.08803745334413876","1333"
"21:34:26:666 (H:m:s:ms)","GENERIC","62.109","0.07119834374653058","1661"
"21:34:20:606 (H:m:s:ms)","GENERIC","62.141","0.05733427989537664","2521"
"21:34:14:545 (H:m:s:ms)","GENERIC","62.109","0.07128453433085512","2769"
"21:34:8:484 (H:m:s:ms)","GENERIC","93.173","0.07457613634140399","3121"
"21:22:19:393 (H:m:s:ms)","GENERIC","62.119","0.12600522902715805","2182"
"21:34:2:424 (H:m:s:ms)","GENERIC","93.154","0.06196200952307046","2886"
"21:22:24:303 (H:m:s:ms)","OPERA","62.147999999999996","0.12165930260671677","3196"
"21:33:56:363 (H:m:s:ms)","GENERIC","93.236","0.07370583537853881","2213"
"21:1:49:90 (H:m:s:ms)","GENERIC","62.043","0.044952520622651544","2871"
"21:22:25:454 (H:m:s:ms)","GENERIC","93.107","0.12117185549381439","2615"
"21:33:50:303 (H:m:s:ms)","GENERIC","93.357","0.09068073644987185","2804"
"21:1:55:151 (H:m:s:ms)","GENERIC","93.42999999999999","0.09969748549927357","1966"
"21:22:31:515 (H:m:s:ms)","GENERIC","62.075","0.10181078985536782","3690"
"21:2:1:212 (H:m:s:ms)","GENERIC","93.342","0.0792180720409632","2257"
"21:22:31:898 (H:m:s:ms)","OPERA","93.15299999999999","0.07348470373350158","2391"
"21:2:6:315 (H:m:s:ms)","AMBULANCE","93.318","0.11502221441931888","3555"
"21:22:37:575 (H:m:s:ms)","GENERIC","93.188","0.07596539542940421","1747"
"21:2:7:272 (H:m:s:ms)","GENERIC","93.244","0.1106611688673445","2386"
"21:22:39:493 (H:m:s:ms)","OPERA","62.149","0.10691210557418963","2685"
"21:2:13:333 (H:m:s:ms)","GENERIC","93.307","0.10194845456739249","3542"
"21:22:43:636 (H:m:s:ms)","GENERIC","62.043","0.10413546392350516","2685"
"21:2:19:393 (H:m:s:ms)","GENERIC","62.155","0.045276925690687087","2584"
"21:22:47:88 (H:m:s:ms)","OPERA","93.155","0.1164450194804886","3392"
"21:2:25:454 (H:m:s:ms)","GENERIC","93.107","0.07942406093697822","2725"
"21:22:49:696 (H:m:s:ms)","GENERIC","93.184","0.12029850582286557","2967"
"21:2:31:515 (H:m:s:ms)","GENERIC","62.087","0.06174429752328543","1519"
"21:2:37:575 (H:m:s:ms)","GENERIC","62.219","0.11311084402123539","2067"
"21:35:45:454 (H:m:s:ms)","GENERIC","62.067","0.048034241794714674","3011"
"21:35:39:393 (H:m:s:ms)","GENERIC","93.333","0.06986797193866598","2361"
"21:35:33:333 (H:m:s:ms)","GENERIC","93.138","0.09278961972781063","2132"
"21:35:27:272 (H:m:s:ms)","GENERIC","62.093","0.05922948120412927","2293"
"21:35:21:212 (H:m:s:ms)","GENERIC","93.203","0.07153155878821756","3134"
"21:35:15:789 (H:m:s:ms)","AMBULANCE","62.161","0.09163736524965382","3147"
"21:35:15:151 (H:m:s:ms)","GENERIC","93.357","0.05768868302357227","2015"
"21:22:54:683 (H:m:s:ms)","OPERA","93.155","0.10662379042106433","2896"
"21:35:9:90 (H:m:s:ms)","GENERIC","93.274","0.08230802412347758","2948"
"21:22:55:757 (H:m:s:ms)","GENERIC","93.181","0.1120981258999257","2398"
"21:35:3:30 (H:m:s:ms)","GENERIC","93.182","0.07957956428481254","3798"
"21:2:37:894 (H:m:s:ms)","AMBULANCE","62.175","0.14027520853444594","4249"
"21:23:1:818 (H:m:s:ms)","GENERIC","93.414","0.0995912610895844","747"
"21:34:56:969 (H:m:s:ms)","GENERIC","62.027","0.049373627596529836","3712"
"21:2:43:636 (H:m:s:ms)","GENERIC","93.253","0.0705968222510824","2826"
"21:23:2:278 (H:m:s:ms)","OPERA","31.009","0.11615770355350108","2954"
"21:34:50:909 (H:m:s:ms)","GENERIC","93.289","0.09058818475365879","3422"
"21:2:49:696 (H:m:s:ms)","GENERIC","93.162","0.07885820431549415","3275"
"21:23:7:878 (H:m:s:ms)","GENERIC","124.243","0.08817417438394749","3677"
"21:2:55:757 (H:m:s:ms)","GENERIC","93.189","0.08668393145116295","3034"
"21:23:9:873 (H:m:s:ms)","OPERA","93.155","0.11387081058359991","2552"
"21:3:1:818 (H:m:s:ms)","GENERIC","93.384","0.0997773183556764","808"
"21:23:13:939 (H:m:s:ms)","GENERIC","62.081","0.08514239974317761","3532"
"21:3:7:878 (H:m:s:ms)","GENERIC","93.14699999999999","0.07456425501494608","3955"
"21:23:17:468 (H:m:s:ms)","OPERA","62.147999999999996","0.07526877285693019","3290"
"21:3:9:473 (H:m:s:ms)","AMBULANCE","31.038","0.1023522706616018","2636"
"21:23:20:0 (H:m:s:ms)","GENERIC","93.176","0.10516375548288075","2819"
"21:3:13:939 (H:m:s:ms)","GENERIC","62.085","0.09294109612220633","3648"
"21:23:25:63 (H:m:s:ms)","OPERA","62.147999999999996","0.11455197808435676","3332"
"21:3:20:0 (H:m:s:ms)","GENERIC","93.186","0.08624150526478344","3096"
"21:3:26:60 (H:m:s:ms)","GENERIC","62.081","0.05688505270708711","2004"
"21:36:40:0 (H:m:s:ms)","GENERIC","93.43","0.07760456640129214","2860"
"21:36:33:939 (H:m:s:ms)","GENERIC","62.033","0.060819237021165706","3615"
"21:36:27:878 (H:m:s:ms)","GENERIC","93.2","0.08505900626371071","2589"
"21:36:21:818 (H:m:s:ms)","GENERIC","93.131","0.10352425193955234","930"
"21:36:18:947 (H:m:s:ms)","AMBULANCE","31.03","0.08262168112748194","3403"
"21:36:15:757 (H:m:s:ms)","GENERIC","62.053","0.0541716744479991","1482"
"21:23:26:60 (H:m:s:ms)","GENERIC","62.073","0.09512324627128113","1906"
"21:36:9:696 (H:m:s:ms)","GENERIC","93.125","0.06419524352287878","1328"
"21:23:32:121 (H:m:s:ms)","GENERIC","62.127","0.07135774384752838","1703"
"21:36:3:636 (H:m:s:ms)","GENERIC","62.043","0.04468099854089147","2358"
"21:3:32:121 (H:m:s:ms)","GENERIC","93.146","0.07896481289897375","2777"
"21:23:32:658 (H:m:s:ms)","OPERA","62.147999999999996","0.09001398045191121","3546"
"21:35:57:575 (H:m:s:ms)","GENERIC","93.17099999999999","0.07358353669308648","2766"
"21:3:38:181 (H:m:s:ms)","GENERIC","93.17099999999999","0.058373319191470145","2728"
"21:23:38:181 (H:m:s:ms)","GENERIC","93.158","0.0805329858819845","2230"
"21:35:51:515 (H:m:s:ms)","GENERIC","93.17699999999999","0.08998646802002486","2929"
"21:3:41:52 (H:m:s:ms)","AMBULANCE","31.02","0.08400552140819695","3617"
"21:23:40:253 (H:m:s:ms)","OPERA","93.155","0.10089553856753745","3005"
"21:35:47:368 (H:m:s:ms)","AMBULANCE","31.025","0.08588737587434402","2666"
"21:3:44:242 (H:m:s:ms)","GENERIC","93.178","0.098655714154236","3215"
"21:23:44:242 (H:m:s:ms)","GENERIC","93.168","0.10565269358590533","2570"
"21:3:50:303 (H:m:s:ms)","GENERIC","93.365","0.06466271922327865","3516"
"21:23:47:848 (H:m:s:ms)","OPERA","93.155","0.10749082754414194","2100"
"21:3:56:363 (H:m:s:ms)","GENERIC","62.065","0.07211102550927977","2166"
"21:23:50:303 (H:m:s:ms)","GENERIC","62.083","0.0964514731006894","3017"
"21:4:2:424 (H:m:s:ms)","GENERIC","93.18599999999999","0.06305596386042538","3580"
"21:23:55:443 (H:m:s:ms)","OPERA","62.149","0.1044580644362169","3117"
"21:4:8:484 (H:m:s:ms)","GENERIC","62.125","0.057056127296284675","3768"
"21:23:56:363 (H:m:s:ms)","GENERIC","62.087","0.09839001939462262","1917"
"21:4:12:631 (H:m:s:ms)","AMBULANCE","31.032","0.09112053270114495","2301"
"21:4:14:545 (H:m:s:ms)","GENERIC","93.344","0.12185018712226889","2768"
"21:37:34:545 (H:m:s:ms)","GENERIC","93.16300000000001","0.07700007181948838","2664"
"21:37:28:484 (H:m:s:ms)","GENERIC","93.312","0.08895914983423713","1672"
"21:37:22:424 (H:m:s:ms)","GENERIC","62.057","0.0899212351874993","4757"
"21:37:22:105 (H:m:s:ms)","AMBULANCE","31.019","0.07814900150344953","3106"
"21:37:16:363 (H:m:s:ms)","GENERIC","62.113","0.05892556509887896","1548"
"21:37:10:303 (H:m:s:ms)","GENERIC","62.095","0.07194290270763336","1581"
"21:24:2:424 (H:m:s:ms)","GENERIC","62.019","0.046991097723995706","3257"
"21:24:3:37 (H:m:s:ms)","OPERA","62.149","0.07735046415855105","3098"
"21:37:4:242 (H:m:s:ms)","GENERIC","93.13499999999999","0.043528295193928986","3407"
"21:4:20:606 (H:m:s:ms)","GENERIC","62.103","0.04261478541445743","3022"
"21:24:8:484 (H:m:s:ms)","GENERIC","93.155","0.09609089072490169","3122"
"21:36:58:181 (H:m:s:ms)","GENERIC","93.212","0.08329051095755115","1802"
"21:4:26:666 (H:m:s:ms)","GENERIC","62.079","0.04556483955857268","1833"
"21:24:10:632 (H:m:s:ms)","OPERA","31.009","0.08037159365433806","2728"
"21:36:52:121 (H:m:s:ms)","GENERIC","93.311","0.10694427837621753","2033"
"21:4:32:727 (H:m:s:ms)","GENERIC","124.114","0.10279634341339074","1505"
"21:24:14:545 (H:m:s:ms)","GENERIC","93.377","0.08457577243287716","2390"
"21:36:50:526 (H:m:s:ms)","AMBULANCE","31.01","0.07579517825363197","1921"
"21:4:38:787 (H:m:s:ms)","GENERIC","93.21","0.07312083659914166","2802"
"21:24:18:227 (H:m:s:ms)","OPERA","62.147999999999996","0.11617653910264322","2911"
"21:36:46:60 (H:m:s:ms)","GENERIC","62.049","0.04181644363702817","3252"
"21:4:44:210 (H:m:s:ms)","AMBULANCE","31.025","0.05069282591173158","3786"
"21:24:20:606 (H:m:s:ms)","GENERIC","62.143","0.11150160976469439","2518"
"21:4:44:848 (H:m:s:ms)","GENERIC","93.16","0.11397059431614354","5327"
"21:24:25:822 (H:m:s:ms)","OPERA","93.155","0.09021540025175787","2402"
"21:4:50:909 (H:m:s:ms)","GENERIC","93.327","0.08488659745571987","3942"
"21:24:26:666 (H:m:s:ms)","GENERIC","62.105","0.07210738555470103","1572"
"21:4:56:969 (H:m:s:ms)","GENERIC","62.029","0.0641745069863319","4025"
"21:24:32:727 (H:m:s:ms)","GENERIC","93.10300000000001","0.09170698395504615","1411"
"21:5:3:30 (H:m:s:ms)","GENERIC","62.105","0.07112716586514296","4483"
"21:5:9:90 (H:m:s:ms)","GENERIC","93.274","0.05996646358964505","3567"
"21:38:29:90 (H:m:s:ms)","GENERIC","62.071","0.08161712819532799","3373"
"21:38:25:263 (H:m:s:ms)","AMBULANCE","62.166","0.08635035561078985","3012"
"21:38:23:30 (H:m:s:ms)","GENERIC","62.089","0.05289550064429093","2968"
"21:38:16:969 (H:m:s:ms)","GENERIC","93.227","0.08840256770683473","3195"
"21:38:10:909 (H:m:s:ms)","GENERIC","93.14699999999999","0.08818400757461173","3443"
"21:38:4:848 (H:m:s:ms)","GENERIC","93.27199999999999","0.06349886665865322","2732"
"21:37:58:787 (H:m:s:ms)","GENERIC","62.119","0.10524870908847662","2591"
"21:24:33:417 (H:m:s:ms)","OPERA","62.149","0.11563972909375579","2923"
"21:24:38:787 (H:m:s:ms)","GENERIC","93.243","0.10021952999930146","2863"
"21:5:15:151 (H:m:s:ms)","GENERIC","62.135","0.0611162644704078","2233"
"21:24:41:12 (H:m:s:ms)","OPERA","93.155","0.10709784700712364","3137"
"21:5:15:789 (H:m:s:ms)","AMBULANCE","31.023","0.08607003046192","4383"
"21:24:44:848 (H:m:s:ms)","GENERIC","93.16","0.11671685458447041","2053"
"21:37:53:684 (H:m:s:ms)","AMBULANCE","62.173","0.09496807975816943","2550"
"20:45:34:177 (H:m:s:ms)","OPERA","62.149","0.12499194221732253","3240"
"21:5:21:212 (H:m:s:ms)","GENERIC","93.149","0.0644833669952045","3464"
"21:24:48:607 (H:m:s:ms)","OPERA","93.155","0.11176816376008149","2601"
"21:37:52:727 (H:m:s:ms)","GENERIC","62.069","0.05659615711335892","2081"
"20:45:39:393 (H:m:s:ms)","GENERIC","62.117","0.09908002040021191","2572"
"21:5:27:272 (H:m:s:ms)","GENERIC","93.30199999999999","0.07207528271478028","2625"
"21:24:50:909 (H:m:s:ms)","GENERIC","93.327","0.11183371503454753","3831"
"21:37:46:666 (H:m:s:ms)","GENERIC","93.269","0.1058432955793145","2208"
"20:45:45:454 (H:m:s:ms)","GENERIC","93.104","0.07316451363894512","2989"
"21:5:33:333 (H:m:s:ms)","GENERIC","93.144","0.08577298912062876","2438"
"21:24:56:202 (H:m:s:ms)","OPERA","93.15299999999999","0.10448329297561983","3142"
"21:37:40:606 (H:m:s:ms)","GENERIC","62.051","0.053934688441521036","2323"
"20:45:49:367 (H:m:s:ms)","OPERA","62.147999999999996","0.09949029273701931","2993"
"21:5:39:393 (H:m:s:ms)","GENERIC","93.369","0.06514712180367095","2746"
"21:24:56:969 (H:m:s:ms)","GENERIC","93.152","0.09223203383730484","5982"
"20:45:51:515 (H:m:s:ms)","GENERIC","93.188","0.10414125029101177","2867"
"21:5:45:454 (H:m:s:ms)","GENERIC","62.047","0.07152471250592216","3400"
"21:25:3:30 (H:m:s:ms)","GENERIC","93.18","0.09167412355906082","3919"
"20:45:56:962 (H:m:s:ms)","OPERA","62.171","0.08473528114124464","3658"
"21:5:47:368 (H:m:s:ms)","AMBULANCE","31.046","0.08756564064910506","3392"
"21:25:3:797 (H:m:s:ms)","OPERA","93.155","0.11859660871980611","5545"
"20:45:57:575 (H:m:s:ms)","GENERIC","93.33200000000001","0.10702433657910333","3983"
"21:5:51:515 (H:m:s:ms)","GENERIC","62.055","0.09470725813381817","3291"
"20:46:3:636 (H:m:s:ms)","GENERIC","62.033","0.06325497231399728","2308"
"21:5:57:575 (H:m:s:ms)","GENERIC","62.077","0.06098213559459855","3720"
"20:46:4:556 (H:m:s:ms)","OPERA","62.149","0.09651803221281906","3416"
"20:46:9:696 (H:m:s:ms)","GENERIC","93.157","0.09675356788989056","1348"
"21:39:28:421 (H:m:s:ms)","AMBULANCE","62.179","0.1104913320504729","1481"
"21:39:23:636 (H:m:s:ms)","GENERIC","93.31","0.0736365230547122","2117"
"21:39:17:575 (H:m:s:ms)","GENERIC","62.091","0.054083269131959794","1904"
"21:39:11:515 (H:m:s:ms)","GENERIC","93.25","0.08259897627008231","2354"
"21:39:5:454 (H:m:s:ms)","GENERIC","62.069","0.07096414039138414","2047"
"21:38:59:393 (H:m:s:ms)","GENERIC","93.269","0.10151211221708914","2269"
"21:38:56:842 (H:m:s:ms)","AMBULANCE","62.162","0.11004574994826705","2553"
"21:38:53:333 (H:m:s:ms)","GENERIC","62.049","0.07718180647017792","3012"
"21:25:9:90 (H:m:s:ms)","GENERIC","93.298","0.055124613411008355","3231"
"21:25:11:392 (H:m:s:ms)","OPERA","62.015","0.08932400391404817","2503"
"21:6:3:636 (H:m:s:ms)","GENERIC","62.053","0.03596201649812119","2624"
"21:25:15:151 (H:m:s:ms)","GENERIC","62.109","0.09368095842905383","2066"
"21:6:9:696 (H:m:s:ms)","GENERIC","93.155","0.06359720097058634","1338"
"21:25:18:987 (H:m:s:ms)","OPERA","93.155","0.097994903257115","3302"
"20:46:12:151 (H:m:s:ms)","OPERA","62.147999999999996","0.0955423624253959","3594"
"21:6:15:757 (H:m:s:ms)","GENERIC","62.071","0.05590169943749473","1585"
"21:25:21:212 (H:m:s:ms)","GENERIC","93.185","0.10412458774697643","2816"
"20:46:15:757 (H:m:s:ms)","GENERIC","62.105","0.08542095055795608","1725"
"21:6:18:947 (H:m:s:ms)","AMBULANCE","31.053","0.08265571750060045","3600"
"21:25:26:582 (H:m:s:ms)","OPERA","62.149","0.09006182842177637","2675"
"21:38:47:272 (H:m:s:ms)","GENERIC","93.271","0.09986639605755444","3098"
"20:46:19:746 (H:m:s:ms)","OPERA","62.147999999999996","0.06900940454180089","3533"
"21:6:21:818 (H:m:s:ms)","GENERIC","93.15899999999999","0.10234835811896037","1076"
"21:25:27:272 (H:m:s:ms)","GENERIC","62.095","0.08977015223864249","2282"
"21:38:41:212 (H:m:s:ms)","GENERIC","62.087","0.07184064474934307","2534"
"20:46:21:818 (H:m:s:ms)","GENERIC","93.15299999999999","0.1027568850120293","2309"
"21:6:27:878 (H:m:s:ms)","GENERIC","62.049","0.059655572406734435","3038"
"21:25:33:333 (H:m:s:ms)","GENERIC","93.126","0.12212840229979736","2099"
"21:38:35:151 (H:m:s:ms)","GENERIC","93.214","0.07508934486152906","2725"
"20:46:27:341 (H:m:s:ms)","OPERA","62.149","0.0813403083113621","3764"
"21:6:33:939 (H:m:s:ms)","GENERIC","62.055","0.0518643355018857","3911"
"21:25:34:177 (H:m:s:ms)","OPERA","31.009","0.1321776410156266","3112"
"20:46:27:878 (H:m:s:ms)","GENERIC","93.20400000000001","0.11647417495326141","6056"
"21:6:40:0 (H:m:s:ms)","GENERIC","62.139","0.07120661538169494","1609"
"21:25:39:393 (H:m:s:ms)","GENERIC","62.083","0.10408029473556114","2432"
"20:46:33:939 (H:m:s:ms)","GENERIC","62.073","0.07142857142857141","4105"
"21:6:46:60 (H:m:s:ms)","GENERIC","62.057","0.06363750190099733","3353"
"20:46:34:936 (H:m:s:ms)","OPERA","31.01","0.10037047642503935","5369"
"21:6:50:526 (H:m:s:ms)","AMBULANCE","31.051","0.09516496555979166","3153"
"20:46:40:0 (H:m:s:ms)","GENERIC","62.109","0.056682689771531736","1702"
"20:46:42:531 (H:m:s:ms)","OPERA","62.147999999999996","0.09245307742930717","3286"
"21:39:41:818 (H:m:s:ms)","GENERIC","93.14699999999999","0.07936028342260726","2546"
"21:40:18:181 (H:m:s:ms)","GENERIC","93.351","0.06882494810359326","2122"
"21:40:12:121 (H:m:s:ms)","GENERIC","62.183","0.0430314917118014","1414"
"21:40:6:60 (H:m:s:ms)","GENERIC","93.263","0.0710125442263253","3234"
"21:40:0:0 (H:m:s:ms)","GENERIC","93.16300000000001","0.11676443393874815","6613"
"21:40:0:0 (H:m:s:ms)","GENERIC","62.039","0.08150998613075806","4980"
"21:40:0:0 (H:m:s:ms)","AMBULANCE","31.014","0.05462184873949584","3112"
"21:39:53:939 (H:m:s:ms)","GENERIC","62.129","0.07090440636695051","2745"
"21:39:47:878 (H:m:s:ms)","GENERIC","62.071","0.07343023900274323","3346"
"21:6:52:121 (H:m:s:ms)","GENERIC","62.015","0.09863557386144427","1467"
"21:6:58:181 (H:m:s:ms)","GENERIC","93.214","0.09532810025811972","1936"
"20:46:46:60 (H:m:s:ms)","GENERIC","62.085","0.09744857973215391","3614"
"21:7:4:242 (H:m:s:ms)","GENERIC","93.15899999999999","0.06518138392535","3482"
"20:46:50:126 (H:m:s:ms)","OPERA","62.149","0.10755265454598892","3349"
"21:7:10:303 (H:m:s:ms)","GENERIC","62.103","0.06285057925349614","1730"
"20:46:52:121 (H:m:s:ms)","GENERIC","93.277","0.10843071930351533","2296"
"21:7:16:363 (H:m:s:ms)","GENERIC","62.147","0.08631338250816034","1656"
"20:46:57:721 (H:m:s:ms)","OPERA","62.149","0.11322282695678342","2670"
"21:7:22:105 (H:m:s:ms)","AMBULANCE","31.034","0.06122448979591836","3479"
"21:39:35:757 (H:m:s:ms)","GENERIC","93.339","0.055099485542149815","2229"
"20:46:58:181 (H:m:s:ms)","GENERIC","93.17","0.12084886651558961","1889"
"21:7:22:424 (H:m:s:ms)","GENERIC","62.067","0.0756226672425185","5456"
"21:39:29:696 (H:m:s:ms)","GENERIC","62.103","0.09468798511146137","1946"
"20:47:4:242 (H:m:s:ms)","GENERIC","62.089","0.04433553353292411","3652"
"21:7:28:484 (H:m:s:ms)","GENERIC","62.121","0.05466517401417468","1907"
"20:47:5:316 (H:m:s:ms)","OPERA","62.149","0.0883996976278925","3533"
"21:7:34:545 (H:m:s:ms)","GENERIC","93.189","0.0927770863280876","3001"
"20:47:10:303 (H:m:s:ms)","GENERIC","62.115","0.0896330673563926","1723"
"21:7:40:606 (H:m:s:ms)","GENERIC","62.061","0.062368689220326914","2464"
"20:47:12:911 (H:m:s:ms)","OPERA","62.149","0.07248353763585091","3060"
"20:47:16:363 (H:m:s:ms)","GENERIC","62.115","0.09908002040021191","1644"
"21:7:46:666 (H:m:s:ms)","GENERIC","93.249","0.1058432955793145","2362"
"21:7:52:727 (H:m:s:ms)","GENERIC","62.071","0.06108082634459661","1998"
"20:47:20:506 (H:m:s:ms)","OPERA","62.147999999999996","0.11207063176080852","3017"
"21:7:53:684 (H:m:s:ms)","AMBULANCE","31.03","0.07952126586905824","2734"
"20:47:22:424 (H:m:s:ms)","GENERIC","62.067","0.08837147699714366","2837"
"21:7:58:787 (H:m:s:ms)","GENERIC","62.113","0.07875050649405926","3047"
"20:47:28:101 (H:m:s:ms)","OPERA","62.147999999999996","0.07691807366498281","3502"
"21:8:4:848 (H:m:s:ms)","GENERIC","93.276","0.0675423076048731","2812"
"20:47:28:484 (H:m:s:ms)","GENERIC","62.127","0.08887893556645385","4590"
"21:8:10:909 (H:m:s:ms)","GENERIC","93.149","0.07078117509249729","3496"
"20:47:34:545 (H:m:s:ms)","GENERIC","93.187","0.0813403083113621","3044"
"21:8:16:969 (H:m:s:ms)","GENERIC","93.215","0.07507763352695161","3274"
"20:47:35:696 (H:m:s:ms)","OPERA","62.173","0.11016741847927318","2626"
"21:8:23:30 (H:m:s:ms)","GENERIC","62.095","0.06655555744835492","2873"
"21:40:24:242 (H:m:s:ms)","GENERIC","62.103","0.07138942931053553","1670"
"20:47:40:606 (H:m:s:ms)","GENERIC","62.077","0.08410038956846197","2756"
"21:8:25:263 (H:m:s:ms)","AMBULANCE","31.024","0.09030927180197533","2974"
"20:47:43:291 (H:m:s:ms)","OPERA","62.149","0.09891955316660309","3497"
"21:8:29:90 (H:m:s:ms)","GENERIC","62.047","0.08733578919838265","3220"
"20:47:46:666 (H:m:s:ms)","GENERIC","93.235","0.12117466225752732","2353"
"20:47:50:886 (H:m:s:ms)","OPERA","62.149","0.11809461173981926","3328"
"21:8:35:151 (H:m:s:ms)","GENERIC","62.037","0.07198198313252843","2826"
"21:8:41:212 (H:m:s:ms)","GENERIC","62.083","0.07154259706822412","2492"
"20:47:52:727 (H:m:s:ms)","GENERIC","62.099","0.10601295331960661","1785"
"21:8:47:272 (H:m:s:ms)","GENERIC","93.419","0.05919459746618528","1767"
"20:47:58:481 (H:m:s:ms)","OPERA","62.149","0.07714840317353264","3440"
"21:8:53:333 (H:m:s:ms)","GENERIC","93.225","0.07650216005070873","2724"
"20:30:0:0 (H:m:s:ms)","GENERIC","62.099","0.07486597981618504","3327"
"20:47:58:787 (H:m:s:ms)","GENERIC","62.125","0.09676762513528554","5842"
"21:8:56:842 (H:m:s:ms)","AMBULANCE","31.052","0.10833210491462897","2028"
"20:30:0:0 (H:m:s:ms)","GENERIC","93.237","0.10296701288654232","5313"
"20:48:4:848 (H:m:s:ms)","GENERIC","93.29599999999999","0.06757199625470844","2847"
"21:8:59:393 (H:m:s:ms)","GENERIC","62.079","0.09091348787791433","2649"
"20:30:6:60 (H:m:s:ms)","GENERIC","62.061","0.06139650845121402","3258"
"20:48:6:75 (H:m:s:ms)","OPERA","62.149","0.09299761747795536","3246"
"21:9:5:454 (H:m:s:ms)","GENERIC","62.093","0.05936271136972314","2083"
"20:30:12:121 (H:m:s:ms)","GENERIC","93.312","0.06814538242224265","2655"
"20:48:10:909 (H:m:s:ms)","GENERIC","93.17699999999999","0.11810059642273994","3389"
"21:9:11:515 (H:m:s:ms)","GENERIC","93.258","0.073848191823484","2224"
"20:30:18:181 (H:m:s:ms)","GENERIC","62.111","0.059166731431630384","1778"
"20:48:13:670 (H:m:s:ms)","OPERA","31.009","0.10418027391088756","2903"
"21:9:17:575 (H:m:s:ms)","GENERIC","62.047","0.06277439764744856","1838"
"20:30:24:242 (H:m:s:ms)","GENERIC","93.353","0.0633881041210116","1857"
"20:48:16:969 (H:m:s:ms)","GENERIC","93.266","0.07534438746858066","3178"
"21:9:23:636 (H:m:s:ms)","GENERIC","93.376","0.0884340439972716","1841"
"20:30:30:303 (H:m:s:ms)","GENERIC","93.205","0.07069397165629773","3751"
"20:48:21:265 (H:m:s:ms)","OPERA","62.147999999999996","0.10555072813826873","3570"
"20:30:36:363 (H:m:s:ms)","GENERIC","93.10900000000001","0.08786851159766461","3485"
"20:48:23:30 (H:m:s:ms)","GENERIC","93.256","0.11342996611348499","2753"
"20:30:42:424 (H:m:s:ms)","GENERIC","93.107","0.084988073788235","3232"
"20:30:48:484 (H:m:s:ms)","GENERIC","93.339","0.04890944882631128","2849"
"21:9:28:421 (H:m:s:ms)","AMBULANCE","62.169","0.1319373033186803","2509"
"21:9:29:696 (H:m:s:ms)","GENERIC","62.059","0.11280273905123693","1936"
"20:48:28:860 (H:m:s:ms)","OPERA","62.149","0.10070784620643605","3032"
"21:9:35:757 (H:m:s:ms)","GENERIC","93.341","0.0846933080400052","2134"
"20:48:29:90 (H:m:s:ms)","GENERIC","62.015","0.08110623568655081","3662"
"21:9:41:818 (H:m:s:ms)","GENERIC","93.173","0.07392864525862144","2750"
"20:30:54:545 (H:m:s:ms)","GENERIC","62.095","0.047532939813224526","2937"
"20:48:35:151 (H:m:s:ms)","GENERIC","93.22","0.0793141959388711","2957"
"21:9:47:878 (H:m:s:ms)","GENERIC","93.14699999999999","0.07498092417962755","3351"
"20:31:0:606 (H:m:s:ms)","GENERIC","62.097","0.07338802674234943","2592"
"20:48:36:455 (H:m:s:ms)","OPERA","62.149","0.10914550455155529","3101"
"21:9:53:939 (H:m:s:ms)","GENERIC","62.123","0.0612983571732936","3054"
"20:31:6:666 (H:m:s:ms)","GENERIC","62.025","0.06557517293751594","3548"
"20:48:41:212 (H:m:s:ms)","GENERIC","62.061","0.08506585327140846","3523"
"21:10:0:0 (H:m:s:ms)","AMBULANCE","31.023","0.06144518047887589","3055"
"20:31:12:727 (H:m:s:ms)","GENERIC","93.332","0.06467633618869678","2087"
"20:48:44:50 (H:m:s:ms)","OPERA","62.149","0.07853140789772797","3596"
"21:10:0:0 (H:m:s:ms)","GENERIC","93.211","0.08703732493257375","4958"
"20:31:18:787 (H:m:s:ms)","GENERIC","93.12899999999999","0.07707147571302767","2329"
"20:48:47:272 (H:m:s:ms)","GENERIC","93.414","0.11382332122142806","2097"
"21:10:0:0 (H:m:s:ms)","GENERIC","93.191","0.1012933781853543","6917"
"20:31:24:848 (H:m:s:ms)","GENERIC","62.017","0.0454442406998024","2848"
"20:48:51:645 (H:m:s:ms)","OPERA","62.149","0.11861924280116952","3470"
"21:10:6:60 (H:m:s:ms)","GENERIC","62.065","0.0740829349445606","3118"
"20:31:30:909 (H:m:s:ms)","GENERIC","62.043","0.060961761201348094","3801"
"20:48:53:333 (H:m:s:ms)","GENERIC","93.205","0.0972315128636604","3317"
"20:31:36:969 (H:m:s:ms)","GENERIC","62.067","0.045491437409927796","3122"
"20:48:59:240 (H:m:s:ms)","OPERA","31.009","0.08732346420476948","6147"
"20:31:43:30 (H:m:s:ms)","GENERIC","93.13499999999999","0.08354216258448748","2905"
"20:31:49:90 (H:m:s:ms)","GENERIC","62.043","0.044952520622651544","2585"
"20:48:59:393 (H:m:s:ms)","GENERIC","62.085","0.05141651705808703","3373"
"20:49:5:454 (H:m:s:ms)","GENERIC","62.097","0.05951978071480823","2338"
"20:31:55:151 (H:m:s:ms)","GENERIC","93.402","0.09969748549927357","1837"
"20:49:6:835 (H:m:s:ms)","OPERA","62.147999999999996","0.07530639266811301","2754"
"20:32:1:212 (H:m:s:ms)","GENERIC","93.386","0.06877406790254503","1988"
"20:49:11:515 (H:m:s:ms)","GENERIC","93.24799999999999","0.10576208678109551","2253"
"20:32:7:272 (H:m:s:ms)","GENERIC","93.268","0.0762875452093335","2345"
"20:49:14:430 (H:m:s:ms)","OPERA","62.149","0.12172778275406894","3038"
"20:32:13:333 (H:m:s:ms)","GENERIC","93.34100000000001","0.10093025597025285","3286"
"20:49:17:575 (H:m:s:ms)","GENERIC","62.081","0.08897278007846567","2100"
"20:32:19:393 (H:m:s:ms)","GENERIC","62.121","0.08631338250816034","2421"
"20:49:22:25 (H:m:s:ms)","OPERA","31.009","0.08435593012776053","3736"
"20:32:25:454 (H:m:s:ms)","GENERIC","93.105","0.0824609480931382","2605"
"20:49:23:636 (H:m:s:ms)","GENERIC","93.366","0.1033945835648693","2243"
"20:32:31:515 (H:m:s:ms)","GENERIC","62.105","0.07243558228002943","1554"
"20:49:29:696 (H:m:s:ms)","GENERIC","93.07600000000001","0.08652229043525209","2239"
"20:32:37:575 (H:m:s:ms)","GENERIC","93.205","0.09019292826915147","2924"
"20:49:35:757 (H:m:s:ms)","GENERIC","93.317","0.07620746139441631","2386"
"20:32:43:636 (H:m:s:ms)","GENERIC","93.305","0.06379267117790954","3116"
"20:32:49:696 (H:m:s:ms)","GENERIC","62.029","0.07087299839679684","3628"
"20:49:37:215 (H:m:s:ms)","OPERA","62.149","0.09358063545730694","3695"
"20:49:41:818 (H:m:s:ms)","GENERIC","93.189","0.0964550409793028","2918"
"20:32:55:757 (H:m:s:ms)","GENERIC","93.187","0.07486240979197413","3584"
"20:49:44:810 (H:m:s:ms)","OPERA","62.149","0.12115937002921945","2667"
"20:33:1:818 (H:m:s:ms)","GENERIC","93.36","0.07177145638995037","1292"
"20:49:47:878 (H:m:s:ms)","GENERIC","93.15899999999999","0.10968785941351646","3608"
"20:33:7:878 (H:m:s:ms)","GENERIC","124.27600000000001","0.0878209301254176","3916"
"20:49:52:405 (H:m:s:ms)","OPERA","62.147999999999996","0.08141309034845089","3230"
"20:33:13:939 (H:m:s:ms)","GENERIC","62.075","0.07515317691222373","3704"
"20:49:53:939 (H:m:s:ms)","GENERIC","62.087","0.08224800386071844","3231"
"20:33:20:0 (H:m:s:ms)","GENERIC","62.055","0.07110134782161207","2949"
"20:50:0:0 (H:m:s:ms)","OPERA","31.01","0.07123881500288595","3266"
"20:33:26:60 (H:m:s:ms)","GENERIC","93.37","0.07908791322200236","1918"
"20:50:0:0 (H:m:s:ms)","GENERIC","93.161","0.10299118254759204","5285"
"20:33:32:121 (H:m:s:ms)","GENERIC","93.119","0.0949793145327306","1830"
"20:50:0:0 (H:m:s:ms)","GENERIC","93.237","0.11889616249026706","7454"
"20:33:38:181 (H:m:s:ms)","GENERIC","93.131","0.07962778327313226","2485"
"20:50:6:60 (H:m:s:ms)","GENERIC","93.229","0.07929273253952109","3168"
"20:33:44:242 (H:m:s:ms)","GENERIC","93.146","0.09247804362219472","3183"
"20:33:50:303 (H:m:s:ms)","GENERIC","93.355","0.07917504770678431","3112"
"20:50:12:121 (H:m:s:ms)","GENERIC","62.079","0.07107537744495511","1524"
"20:50:18:181 (H:m:s:ms)","GENERIC","62.111","0.05930195649574249","1776"
"20:33:56:363 (H:m:s:ms)","GENERIC","93.242","0.0566855946591584","2206"
"20:50:24:242 (H:m:s:ms)","GENERIC","62.077","0.05234561698977106","1843"
"20:34:2:424 (H:m:s:ms)","GENERIC","93.16799999999999","0.06305596386042538","3254"
"20:50:30:303 (H:m:s:ms)","GENERIC","93.167","0.06376829506358739","3688"
"20:10:0:0 (H:m:s:ms)","GENERIC","62.09","0.10733101306503642","2937"
"20:34:8:484 (H:m:s:ms)","GENERIC","62.097","0.05765981043683866","3539"
"20:50:36:363 (H:m:s:ms)","GENERIC","93.12700000000001","0.10088437295644712","3048"
"20:10:0:0 (H:m:s:ms)","GENERIC","62.055","0.1280321517605891","4985"
"20:34:14:545 (H:m:s:ms)","GENERIC","93.349","0.0882332529082367","2487"
"20:50:42:424 (H:m:s:ms)","GENERIC","93.145","0.06523723300059453","3212"
"20:10:6:60 (H:m:s:ms)","GENERIC","93.227","0.08112343287041154","2923"
"20:34:20:606 (H:m:s:ms)","GENERIC","93.268","0.07127298358990514","2786"
"20:50:48:484 (H:m:s:ms)","GENERIC","93.319","0.10168526005598735","2300"
"20:10:12:121 (H:m:s:ms)","GENERIC","93.324","0.08007118737638685","2448"
"20:34:26:666 (H:m:s:ms)","GENERIC","62.083","0.06242859242565965","1859"
"20:50:54:545 (H:m:s:ms)","GENERIC","62.099","0.07138014325684292","2539"
"20:10:18:181 (H:m:s:ms)","GENERIC","62.113","0.048056652748018326","1711"
"20:34:32:727 (H:m:s:ms)","GENERIC","93.17","0.07889654912535195","1512"
"20:51:0:606 (H:m:s:ms)","GENERIC","62.085","0.07453559924999296","2486"
"20:10:24:242 (H:m:s:ms)","GENERIC","62.083","0.06174429752328543","1734"
"20:34:38:787 (H:m:s:ms)","GENERIC","93.2","0.06662666064603653","3190"
"20:51:6:666 (H:m:s:ms)","GENERIC","62.017","0.05222947815582456","3413"
"20:10:30:303 (H:m:s:ms)","GENERIC","93.185","0.10053106579209241","3473"
"20:34:44:848 (H:m:s:ms)","GENERIC","93.114","0.10005335449194613","2391"
"20:10:36:363 (H:m:s:ms)","GENERIC","93.12299999999999","0.0929836023501473","3083"
"20:34:50:909 (H:m:s:ms)","GENERIC","93.293","0.06158376042963433","4204"
"20:10:42:424 (H:m:s:ms)","GENERIC","93.12700000000001","0.07649240853431688","2792"
"20:10:48:484 (H:m:s:ms)","GENERIC","62.113","0.07132474781673885","2219"
"20:51:12:727 (H:m:s:ms)","GENERIC","93.324","0.07310744365468178","2109"
"20:51:18:787 (H:m:s:ms)","GENERIC","93.149","0.07595675732753931","2309"
"20:34:56:969 (H:m:s:ms)","GENERIC","62.049","0.07508498586295942","4180"
"20:51:24:848 (H:m:s:ms)","GENERIC","62.037","0.06285130067668959","2706"
"20:35:3:30 (H:m:s:ms)","GENERIC","93.243","0.08089810503854598","4712"
"20:51:30:909 (H:m:s:ms)","GENERIC","62.051","0.07101314625486668","3681"
"20:10:54:545 (H:m:s:ms)","GENERIC","62.057","0.07108802802789067","2396"
"20:35:9:90 (H:m:s:ms)","GENERIC","93.226","0.07631138582315725","3219"
"20:51:36:969 (H:m:s:ms)","GENERIC","62.089","0.0356788719237642","3357"
"20:11:0:606 (H:m:s:ms)","GENERIC","62.127","0.07737993487324503","2200"
"20:35:15:151 (H:m:s:ms)","GENERIC","62.131","0.062149115823410116","2273"
"20:51:43:30 (H:m:s:ms)","GENERIC","93.126","0.09138662958196471","3380"
"20:11:6:666 (H:m:s:ms)","GENERIC","62.035","0.07290904131714478","3029"
"20:35:21:212 (H:m:s:ms)","GENERIC","93.17099999999999","0.054044579491676674","3444"
"20:51:49:90 (H:m:s:ms)","GENERIC","62.029","0.028907249198888138","2870"
"20:11:12:727 (H:m:s:ms)","GENERIC","93.362","0.07327233781242558","1923"
"20:35:27:272 (H:m:s:ms)","GENERIC","62.095","0.05936271136972314","2425"
"20:51:55:151 (H:m:s:ms)","GENERIC","93.414","0.07887226321664713","2357"
"20:11:18:787 (H:m:s:ms)","GENERIC","93.151","0.06449985711127146","2094"
"20:35:33:333 (H:m:s:ms)","GENERIC","93.149","0.1032720737281923","1876"
"20:52:1:212 (H:m:s:ms)","GENERIC","93.35","0.09963545532221844","1946"
"20:11:24:848 (H:m:s:ms)","GENERIC","62.051","0.07498558108224682","2439"
"20:35:39:393 (H:m:s:ms)","GENERIC","62.103","0.08631338250816034","2601"
"20:52:7:272 (H:m:s:ms)","GENERIC","62.021","0.07120661538169493","2473"
"20:11:30:909 (H:m:s:ms)","GENERIC","93.119","0.057563235339772506","3349"
"20:35:45:454 (H:m:s:ms)","GENERIC","62.023","0.048034241794714674","3071"
"20:11:36:969 (H:m:s:ms)","GENERIC","62.101","0.05324924320356455","2993"
"20:35:51:515 (H:m:s:ms)","GENERIC","93.185","0.07474495653052587","3041"
"20:11:43:30 (H:m:s:ms)","GENERIC","93.136","0.09360687352960266","3217"
"20:11:49:90 (H:m:s:ms)","GENERIC","62.067","0.028907249198888138","2612"
"20:0:54:545 (H:m:s:ms)","GENERIC","31.025","0.04770461142401645","2491"
"20:1:0:606 (H:m:s:ms)","GENERIC","62.108000000000004","0.08384701696350721","1648"
"20:1:6:666 (H:m:s:ms)","GENERIC","31.018","0.08054565975758796","2998"
"20:1:12:727 (H:m:s:ms)","GENERIC","62.312","0.08374560312459019","1790"
"20:1:18:787 (H:m:s:ms)","GENERIC","62.138999999999996","0.06735069609653405","1931"
"20:1:24:848 (H:m:s:ms)","GENERIC","31.032","0.07264170020722627","2406"
"20:1:30:909 (H:m:s:ms)","GENERIC","62.102000000000004","0.059012816194066606","3324"
"20:1:36:969 (H:m:s:ms)","GENERIC","31.054","0.053370490174703036","2977"
"20:1:43:30 (H:m:s:ms)","GENERIC","62.136","0.08454989869576783","3316"
"20:1:49:90 (H:m:s:ms)","GENERIC","31.024","0.07164149674767144","2290"
"20:35:57:575 (H:m:s:ms)","GENERIC","93.324","0.08174861538624074","1319"
"20:36:3:636 (H:m:s:ms)","GENERIC","62.051","0.053439373411475706","2387"
"20:11:55:151 (H:m:s:ms)","GENERIC","124.595","0.09094066820982546","1980"
"20:36:9:696 (H:m:s:ms)","GENERIC","93.165","0.07478152403189652","1286"
"20:12:1:212 (H:m:s:ms)","GENERIC","93.392","0.07440477284568127","2115"
"20:36:15:757 (H:m:s:ms)","GENERIC","62.115","0.0541716744479991","1540"
"20:12:7:272 (H:m:s:ms)","GENERIC","62.081","0.07152863676613286","2122"
"20:36:21:818 (H:m:s:ms)","GENERIC","93.16","0.07909739593644526","1961"
"20:12:13:333 (H:m:s:ms)","GENERIC","93.309","0.10194845456739249","3230"
"20:36:27:878 (H:m:s:ms)","GENERIC","93.185","0.07991371707451202","2740"
"20:12:19:393 (H:m:s:ms)","GENERIC","62.101","0.08168367169895231","2388"
"20:36:33:939 (H:m:s:ms)","GENERIC","62.081","0.07198198313252843","3893"
"20:12:25:454 (H:m:s:ms)","GENERIC","93.127","0.06094639156801967","2868"
"20:36:40:0 (H:m:s:ms)","GENERIC","62.113","0.04284751126364375","1647"
"20:12:31:515 (H:m:s:ms)","GENERIC","62.095","0.05111505456541149","1477"
"20:36:46:60 (H:m:s:ms)","GENERIC","62.097","0.04391662965336477","3606"
"20:12:37:575 (H:m:s:ms)","GENERIC","93.235","0.08142363601365074","2868"
"20:36:52:121 (H:m:s:ms)","GENERIC","93.293","0.07408868023933576","2307"
"20:12:43:636 (H:m:s:ms)","GENERIC","62.129","0.04318062199300141","2929"
"20:12:49:696 (H:m:s:ms)","GENERIC","124.336","0.10312147876629889","3032"
"20:1:55:151 (H:m:s:ms)","GENERIC","62.278999999999996","0.08817144389489659","2078"
"20:2:1:212 (H:m:s:ms)","GENERIC","62.325","0.05892650945649623","2012"
"20:2:7:272 (H:m:s:ms)","GENERIC","31.05","0.07087299839679685","2382"
"20:2:13:333 (H:m:s:ms)","GENERIC","93.505","0.09464523501648815","3045"
"20:2:19:393 (H:m:s:ms)","GENERIC","62.31","0.07534212251980336","2180"
"20:2:25:454 (H:m:s:ms)","GENERIC","31.047","0.08089010988089458","2967"
"20:2:31:515 (H:m:s:ms)","GENERIC","31.056","0.07138942931053553","1460"
"20:2:37:575 (H:m:s:ms)","GENERIC","93.32900000000001","0.08865759944408481","2632"
"20:2:43:636 (H:m:s:ms)","GENERIC","31.076","0.07116576505386897","2901"
"20:2:49:696 (H:m:s:ms)","GENERIC","62.186","0.07937648482942157","3319"
"20:36:58:181 (H:m:s:ms)","GENERIC","93.182","0.08336671177809035","2002"
"20:37:4:242 (H:m:s:ms)","GENERIC","62.085","0.06329657068261803","3758"
"20:12:55:757 (H:m:s:ms)","GENERIC","93.167","0.05576150619291437","3088"
"20:37:10:303 (H:m:s:ms)","GENERIC","62.099","0.06327642728536433","1780"
"20:13:1:818 (H:m:s:ms)","GENERIC","93.336","0.0687075934378628","986"
"20:37:16:363 (H:m:s:ms)","GENERIC","93.357","0.07240288287173638","1636"
"20:13:7:878 (H:m:s:ms)","GENERIC","93.17699999999999","0.07086614756969549","3955"
"20:37:22:424 (H:m:s:ms)","GENERIC","62.063","0.04434525828342356","2960"
"20:13:13:939 (H:m:s:ms)","GENERIC","62.057","0.06059886320899285","3432"
"20:37:28:484 (H:m:s:ms)","GENERIC","62.109","0.06377603634987047","1950"
"20:13:20:0 (H:m:s:ms)","GENERIC","93.154","0.05105695363328606","3036"
"20:37:34:545 (H:m:s:ms)","GENERIC","62.051","0.07142857142857141","3376"
"20:13:26:60 (H:m:s:ms)","GENERIC","62.111","0.057023760652405525","1876"
"20:37:40:606 (H:m:s:ms)","GENERIC","62.087","0.05478634145365553","2771"
"20:13:32:121 (H:m:s:ms)","GENERIC","93.142","0.09156341649482257","1698"
"20:37:46:666 (H:m:s:ms)","GENERIC","93.233","0.08509776221492854","2662"
"20:13:38:181 (H:m:s:ms)","GENERIC","93.14699999999999","0.05717239755814598","2435"
"20:37:52:727 (H:m:s:ms)","GENERIC","62.105","0.07905694150420946","1928"
"20:13:44:242 (H:m:s:ms)","GENERIC","93.14","0.07871299212371773","3054"
"20:13:50:303 (H:m:s:ms)","GENERIC","62.113","0.07219375122725633","3104"
"20:2:55:757 (H:m:s:ms)","GENERIC","62.159","0.08141785283377406","3265"
"20:3:1:818 (H:m:s:ms)","GENERIC","62.304","0.07446986424223521","1171"
"20:3:7:878 (H:m:s:ms)","GENERIC","93.267","0.09448596192772701","2881"
"20:3:13:939 (H:m:s:ms)","GENERIC","62.08","0.07093855764185417","3574"
"20:3:20:0 (H:m:s:ms)","GENERIC","62.159000000000006","0.1000505664999945","2404"
"20:3:26:60 (H:m:s:ms)","GENERIC","31.056","0.04324791410133711","2013"
"20:3:32:121 (H:m:s:ms)","GENERIC","62.11","0.07896525103450547","2841"
"20:3:38:181 (H:m:s:ms)","GENERIC","62.083","0.07636193280126441","2632"
"20:3:44:242 (H:m:s:ms)","GENERIC","31.015","0.07338802674234945","3714"
"20:3:50:303 (H:m:s:ms)","GENERIC","62.327","0.08094219684235728","3212"
"20:37:58:787 (H:m:s:ms)","GENERIC","62.135","0.0481525995093326","3476"
"20:38:4:848 (H:m:s:ms)","GENERIC","93.306","0.06762291606268107","3051"
"20:13:56:363 (H:m:s:ms)","GENERIC","93.246","0.08840560628309713","1919"
"20:38:10:909 (H:m:s:ms)","GENERIC","93.211","0.06452881260483105","3693"
"20:14:2:424 (H:m:s:ms)","GENERIC","93.176","0.07738309958030902","3127"
"20:38:16:969 (H:m:s:ms)","GENERIC","93.261","0.08832378181958035","3390"
"20:14:8:484 (H:m:s:ms)","GENERIC","62.111","0.07140372429813584","3266"
"20:38:23:30 (H:m:s:ms)","GENERIC","62.067","0.06655555744835492","3033"
"20:14:14:545 (H:m:s:ms)","GENERIC","93.351","0.07081524077024755","2638"
"20:38:29:90 (H:m:s:ms)","GENERIC","62.037","0.06280502271014134","3442"
"20:14:20:606 (H:m:s:ms)","GENERIC","62.023","0.07102464235742909","2764"
"20:38:35:151 (H:m:s:ms)","GENERIC","93.238","0.07492083988998144","2942"
"20:14:26:666 (H:m:s:ms)","GENERIC","62.103","0.07092783234386633","1845"
"20:38:41:212 (H:m:s:ms)","GENERIC","62.057","0.07154259706822412","2612"
"20:14:32:727 (H:m:s:ms)","GENERIC","93.192","0.07917583243734334","1403"
"20:38:47:272 (H:m:s:ms)","GENERIC","93.409","0.0815810726237256","1695"
"20:14:38:787 (H:m:s:ms)","GENERIC","93.227","0.0848064328090141","2933"
"20:38:53:333 (H:m:s:ms)","GENERIC","93.199","0.07746598308518103","2998"
"20:14:44:848 (H:m:s:ms)","GENERIC","93.162","0.08662031513507532","2227"
"20:14:50:909 (H:m:s:ms)","GENERIC","93.271","0.0902199777081601","3631"
"20:3:56:363 (H:m:s:ms)","GENERIC","62.192","0.07622695655883156","2412"
"20:4:2:424 (H:m:s:ms)","GENERIC","62.155","0.07941992134862211","3452"
"20:4:8:484 (H:m:s:ms)","GENERIC","31.048","0.07110134782161205","3523"
"20:4:14:545 (H:m:s:ms)","GENERIC","62.287000000000006","0.09960289288217014","2682"
"20:4:20:606 (H:m:s:ms)","GENERIC","62.224000000000004","0.06399999848412896","2709"
"20:4:26:666 (H:m:s:ms)","GENERIC","31.058","0.06242859242565965","1821"
"20:4:32:727 (H:m:s:ms)","GENERIC","93.12299999999999","0.08276358468942728","1481"
"20:4:38:787 (H:m:s:ms)","GENERIC","62.192","0.06669633057063018","2881"
"20:4:44:848 (H:m:s:ms)","GENERIC","62.115","0.08537196173636519","2280"
"20:4:50:909 (H:m:s:ms)","GENERIC","62.223","0.08831820742362236","3677"
"20:38:59:393 (H:m:s:ms)","GENERIC","93.243","0.0718372722018928","2526"
"20:39:5:454 (H:m:s:ms)","GENERIC","62.097","0.07096414039138414","2232"
"20:14:56:969 (H:m:s:ms)","GENERIC","62.047","0.0814411017927955","3763"
"20:39:11:515 (H:m:s:ms)","GENERIC","93.23400000000001","0.09241309663135966","2569"
"20:15:3:30 (H:m:s:ms)","GENERIC","62.131","0.07086089570872442","4287"
"20:39:17:575 (H:m:s:ms)","GENERIC","62.101","0.054457552276979876","2078"
"20:15:9:90 (H:m:s:ms)","GENERIC","93.26","0.07225094211747743","3216"
"20:39:23:636 (H:m:s:ms)","GENERIC","93.354","0.0884340439972716","1988"
"20:15:15:151 (H:m:s:ms)","GENERIC","62.131","0.07168604389202188","2136"
"20:39:29:696 (H:m:s:ms)","GENERIC","93.112","0.051818456345858396","2232"
"20:15:21:212 (H:m:s:ms)","GENERIC","93.193","0.0543460238451229","3291"
"20:39:35:757 (H:m:s:ms)","GENERIC","93.309","0.08229828436541362","2447"
"20:15:27:272 (H:m:s:ms)","GENERIC","93.288","0.06357681791571762","2288"
"20:39:41:818 (H:m:s:ms)","GENERIC","93.17699999999999","0.08024361598182399","2970"
"20:15:33:333 (H:m:s:ms)","GENERIC","93.15","0.1006024666207268","2061"
"20:39:47:878 (H:m:s:ms)","GENERIC","93.143","0.07937095450125584","3449"
"20:15:39:393 (H:m:s:ms)","GENERIC","62.103","0.08246211251235322","2557"
"20:39:53:939 (H:m:s:ms)","GENERIC","62.069","0.030753897138223515","3472"
"20:15:45:454 (H:m:s:ms)","GENERIC","93.136","0.07105605930841437","2916"
"20:15:51:515 (H:m:s:ms)","GENERIC","93.159","0.07799091353454471","2845"
"20:4:56:969 (H:m:s:ms)","GENERIC","62.163","0.0643006662072647","3808"
"20:5:3:30 (H:m:s:ms)","GENERIC","62.166","0.08510887891577765","3907"
"20:5:9:90 (H:m:s:ms)","GENERIC","62.194","0.0638197043782037","3068"
"20:5:15:151 (H:m:s:ms)","GENERIC","31.063","0.07288689868556625","2175"
"20:5:21:212 (H:m:s:ms)","GENERIC","62.16","0.0644833669952045","3244"
"20:5:27:272 (H:m:s:ms)","GENERIC","31.037","0.0710753774449551","2382"
"20:5:33:333 (H:m:s:ms)","GENERIC","93.099","0.09522579613618555","2324"
"20:5:39:393 (H:m:s:ms)","GENERIC","31.047","0.07695597587076798","2710"
"20:5:45:454 (H:m:s:ms)","GENERIC","31.036","0.07097751181441088","3070"
"20:5:51:515 (H:m:s:ms)","GENERIC","62.157","0.04736445251350928","3096"
"20:15:57:575 (H:m:s:ms)","GENERIC","124.582","0.08174861538624074","1279"
"20:16:3:636 (H:m:s:ms)","GENERIC","62.081","0.06265361058131498","2234"
"20:16:9:696 (H:m:s:ms)","GENERIC","124.23599999999999","0.07897878331124035","1166"
"20:16:15:757 (H:m:s:ms)","GENERIC","62.095","0.05466517401417468","1467"
"20:16:21:818 (H:m:s:ms)","GENERIC","93.126","0.08637044758373727","989"
"20:16:27:878 (H:m:s:ms)","GENERIC","62.083","0.047724457925387556","3055"
"20:16:33:939 (H:m:s:ms)","GENERIC","62.105","0.0518643355018857","3650"
"20:16:40:0 (H:m:s:ms)","GENERIC","93.362","0.07344969422799649","2997"
"20:16:46:60 (H:m:s:ms)","GENERIC","62.085","0.0657779595187381","3224"
"20:16:52:121 (H:m:s:ms)","GENERIC","93.31700000000001","0.06922926446829751","2117"
"20:5:57:575 (H:m:s:ms)","GENERIC","31.04","0.07152863676613287","1031"
"20:6:3:636 (H:m:s:ms)","GENERIC","31.048","0.05394302474718175","2832"
"20:6:9:696 (H:m:s:ms)","GENERIC","62.117000000000004","0.07183458175477055","1666"
"20:6:15:757 (H:m:s:ms)","GENERIC","31.042","0.06327642728536433","1799"
"20:6:21:818 (H:m:s:ms)","GENERIC","62.081","0.07276110941054215","1158"
"20:6:27:878 (H:m:s:ms)","GENERIC","31.042","0.05997396069824316","2211"
"20:6:33:939 (H:m:s:ms)","GENERIC","31.046","0.061190939409030455","4043"
"20:6:40:0 (H:m:s:ms)","GENERIC","62.308","0.08473064881636169","3209"
"20:6:46:60 (H:m:s:ms)","GENERIC","31.04","0.0657779595187381","3584"
"20:6:52:121 (H:m:s:ms)","GENERIC","62.29600000000001","0.06671171026830067","2327"
"20:16:58:181 (H:m:s:ms)","GENERIC","62.167","0.08468203530258828","2497"
"20:17:4:242 (H:m:s:ms)","GENERIC","62.075","0.07202294697343903","3381"
"20:17:10:303 (H:m:s:ms)","GENERIC","62.065","0.03775951866748303","1665"
"20:17:16:363 (H:m:s:ms)","GENERIC","62.079","0.07695597587076798","1586"
"20:17:22:424 (H:m:s:ms)","GENERIC","62.037","0.062302750572460056","2544"
"20:17:28:484 (H:m:s:ms)","GENERIC","62.103","0.055242717280199014","1806"
"20:17:34:545 (H:m:s:ms)","GENERIC","62.209","0.08720889083748815","2874"
"20:17:40:606 (H:m:s:ms)","GENERIC","62.115","0.05335936864527367","2464"
"20:17:46:666 (H:m:s:ms)","GENERIC","93.268","0.06399999848412896","2200"
"20:17:52:727 (H:m:s:ms)","GENERIC","62.075","0.07905694150420946","1709"
"20:6:58:181 (H:m:s:ms)","GENERIC","31.022","0.06103712828056399","3163"
"20:7:4:242 (H:m:s:ms)","GENERIC","31.031","0.07129689066225915","3565"
"20:7:10:303 (H:m:s:ms)","GENERIC","31.032","0.03775951866748303","1703"
"20:7:16:363 (H:m:s:ms)","GENERIC","62.303","0.07233532009241773","1579"
"20:7:22:424 (H:m:s:ms)","GENERIC","31.02","0.04553589122891846","2759"
"20:7:28:484 (H:m:s:ms)","GENERIC","31.053","0.030698254225607027","1914"
"20:7:34:545 (H:m:s:ms)","GENERIC","31.066","0.044952520622651544","1762"
"20:7:40:606 (H:m:s:ms)","GENERIC","31.055","0.0633811344950257","2507"
"20:7:46:666 (H:m:s:ms)","GENERIC","62.229","0.0863866662684208","2430"
"20:7:52:727 (H:m:s:ms)","GENERIC","31.035","0.08144110179279548","1724"
"20:17:58:787 (H:m:s:ms)","GENERIC","62.121","0.07114582486036494","2828"
"20:18:4:848 (H:m:s:ms)","GENERIC","93.306","0.062384952880033394","2782"
"20:18:10:909 (H:m:s:ms)","GENERIC","93.213","0.07087943241444551","3559"
"20:18:16:969 (H:m:s:ms)","GENERIC","93.248","0.06916974138693815","3146"
"20:18:23:30 (H:m:s:ms)","GENERIC","62.043","0.06261296166132069","3082"
"20:18:29:90 (H:m:s:ms)","GENERIC","62.075","0.04459858990470532","3440"
"20:18:35:151 (H:m:s:ms)","GENERIC","93.26","0.05994140073925145","2828"
"20:18:41:212 (H:m:s:ms)","GENERIC","62.059","0.05453052574477265","2924"
"20:18:47:272 (H:m:s:ms)","GENERIC","62.109","0.048056652748018326","2020"
"20:18:53:333 (H:m:s:ms)","GENERIC","62.045","0.06373774391990977","3152"
"20:7:58:787 (H:m:s:ms)","GENERIC","31.059","0.07203501377716628","2837"
"20:8:4:848 (H:m:s:ms)","GENERIC","62.259","0.05635668272660615","2987"
"20:8:10:909 (H:m:s:ms)","GENERIC","31.037","0.07140028011149534","3620"
"20:8:16:969 (H:m:s:ms)","GENERIC","62.192","0.07922049782173086","3286"
"20:8:23:30 (H:m:s:ms)","GENERIC","31.022","0.054192461443443134","3008"
"20:8:29:90 (H:m:s:ms)","GENERIC","31.051","0.045491437409927796","3358"
"20:8:35:151 (H:m:s:ms)","GENERIC","62.209","0.050501724354421115","3075"
"20:8:41:212 (H:m:s:ms)","GENERIC","31.044","0.07184064474934307","2643"
"20:8:47:272 (H:m:s:ms)","GENERIC","31.048","0.07116234779489099","1952"
"20:8:53:333 (H:m:s:ms)","GENERIC","62.187","0.05848977938861875","3139"
"20:18:59:393 (H:m:s:ms)","GENERIC","93.243","0.05558809071334643","2455"
"20:19:5:454 (H:m:s:ms)","GENERIC","62.097","0.05990465841521506","1910"
"20:19:11:515 (H:m:s:ms)","GENERIC","93.20599999999999","0.06906252874515623","2352"
"20:19:17:575 (H:m:s:ms)","GENERIC","62.073","0.07178527007680613","1807"
"20:19:23:636 (H:m:s:ms)","GENERIC","93.356","0.07119027240561816","1997"
"20:19:29:696 (H:m:s:ms)","GENERIC","93.136","0.07774516570831122","2159"
"20:19:35:757 (H:m:s:ms)","GENERIC","93.31700000000001","0.07952358405451443","2133"
"20:19:41:818 (H:m:s:ms)","GENERIC","93.14500000000001","0.079654413516265","2542"
"20:19:47:878 (H:m:s:ms)","GENERIC","62.107","0.06132065086267617","3553"
"20:19:53:939 (H:m:s:ms)","GENERIC","93.14","0.09306552199404501","2658"
"20:8:59:393 (H:m:s:ms)","GENERIC","31.038","0.07202294697343903","2604"
"20:9:5:454 (H:m:s:ms)","GENERIC","31.041","0.05951978071480823","2054"
"20:9:11:515 (H:m:s:ms)","GENERIC","62.176","0.044454037729802755","2691"
"20:9:17:575 (H:m:s:ms)","GENERIC","31.031","0.053502336397581694","2170"
"20:9:23:636 (H:m:s:ms)","GENERIC","62.303","0.059681525989076965","2411"
"20:9:29:696 (H:m:s:ms)","GENERIC","62.081","0.07637955068255493","2265"
"20:9:35:757 (H:m:s:ms)","GENERIC","62.301","0.0725481939563866","2510"
"20:9:41:818 (H:m:s:ms)","GENERIC","62.087","0.05360990148822307","3173"
"20:9:47:878 (H:m:s:ms)","GENERIC","31.056","0.07271863585079133","2652"
"20:9:53:939 (H:m:s:ms)","GENERIC","31.019","0.050778492006093814","3137"
"21:41:6:666 (H:m:s:ms)","GENERIC","62.045","0.06557517293751594","3157"
"21:41:0:606 (H:m:s:ms)","GENERIC","93.156","0.07517644362244835","2217"
"21:40:54:545 (H:m:s:ms)","GENERIC","62.079","0.0712238019508098","2455"
"21:40:48:484 (H:m:s:ms)","GENERIC","93.235","0.10834790298529788","2230"
"21:40:42:424 (H:m:s:ms)","GENERIC","93.12100000000001","0.10838785925462609","2629"
"21:40:36:363 (H:m:s:ms)","GENERIC","93.119","0.1023981383417151","2657"
"21:40:30:303 (H:m:s:ms)","GENERIC","93.191","0.07949098870769518","3153"
"21:41:24:848 (H:m:s:ms)","GENERIC","62.063","0.07498558108224682","2459"
"21:41:18:787 (H:m:s:ms)","GENERIC","62.023","0.05213796454541325","2344"
"21:41:12:727 (H:m:s:ms)","GENERIC","93.374","0.07157371067845046","2006"
