"time (H:m:s:ms)","type","latency","utilisation","waiting"
"21:43:7:878 (H:m:s:ms)","GENERIC","93.39099999999999","0.02441901129948178","1702"
"21:42:49:696 (H:m:s:ms)","GENERIC","93.648","0.02962081650732259","880"
"21:42:43:636 (H:m:s:ms)","GENERIC","93.848","0.03965613542429063","656"
"21:42:37:575 (H:m:s:ms)","GENERIC","93.251","0.029966068415056342","947"
"21:42:31:515 (H:m:s:ms)","GENERIC","93.324","0.027881684788459288","1070"
"21:42:25:454 (H:m:s:ms)","GENERIC","93.916","0.044847602016707885","811"
"21:42:19:393 (H:m:s:ms)","GENERIC","62.073","0.030965463254411955","944"
"21:42:13:333 (H:m:s:ms)","GENERIC","93.252","0.058125623399372696","1186"
"21:42:7:272 (H:m:s:ms)","GENERIC","93.798","0.04776446201263468","1380"
"21:43:1:818 (H:m:s:ms)","GENERIC","93.36699999999999","0.04869449556902716","749"
"21:42:55:757 (H:m:s:ms)","GENERIC","93.186","0.02939837092247532","834"
"21:44:14:545 (H:m:s:ms)","GENERIC","93.894","0.03909079109398943","580"
"21:44:8:484 (H:m:s:ms)","GENERIC","93.625","0.0418352901456156","936"
"21:43:56:363 (H:m:s:ms)","GENERIC","93.283","0.05316067604776942","1162"
"20:0:0:0 (H:m:s:ms)","GENERIC","62.542","0.038730370617646795","2789"
"21:43:50:303 (H:m:s:ms)","GENERIC","93.755","0.0353512341085301","1231"
"20:0:6:60 (H:m:s:ms)","GENERIC","31.03","0.041733188404269775","1490"
"21:43:44:242 (H:m:s:ms)","GENERIC","93.431","0.053171636062533945","1280"
"20:0:12:121 (H:m:s:ms)","GENERIC","62.443","0.03094400770977388","1341"
"21:43:38:181 (H:m:s:ms)","GENERIC","62.045","0.04138795673819807","1392"
"20:0:18:181 (H:m:s:ms)","GENERIC","62.370000000000005","0.03848446538205485","1476"
"21:43:32:121 (H:m:s:ms)","GENERIC","62.073","0.041882772910430174","1281"
"20:0:24:242 (H:m:s:ms)","GENERIC","62.114000000000004","0.02933147124066523","1097"
"21:43:26:60 (H:m:s:ms)","GENERIC","62.091","0.04255398904747192","1543"
"20:0:30:303 (H:m:s:ms)","GENERIC","62.337","0.032665565540363456","1250"
"21:43:20:0 (H:m:s:ms)","GENERIC","93.497","0.04931553717726888","1561"
"20:0:36:363 (H:m:s:ms)","GENERIC","31.068","0.026536539434712833","1226"
"21:43:13:939 (H:m:s:ms)","GENERIC","93.544","0.036014869309348024","1374"
"20:0:42:424 (H:m:s:ms)","GENERIC","31.028","0.03413861389757552","1095"
"21:10:36:363 (H:m:s:ms)","GENERIC","93.748","0.0436284963227395","1213"
"20:0:48:484 (H:m:s:ms)","GENERIC","62.357","0.042056311714301985","971"
"21:10:42:424 (H:m:s:ms)","GENERIC","93.35300000000001","0.03362282885899458","1073"
"21:10:48:484 (H:m:s:ms)","GENERIC","93.44200000000001","0.042739513887247456","1020"
"21:10:54:545 (H:m:s:ms)","GENERIC","62.119","0.03193437844626019","966"
"21:11:0:606 (H:m:s:ms)","GENERIC","62.133","0.041099895013369164","975"
"21:11:6:666 (H:m:s:ms)","GENERIC","93.381","0.03822875641995267","756"
"21:11:12:727 (H:m:s:ms)","GENERIC","62.147","0.04208127057650866","638"
"21:11:18:787 (H:m:s:ms)","GENERIC","93.525","0.031483178142258116","740"
"21:44:2:424 (H:m:s:ms)","GENERIC","62.049","0.0409218002733744","1003"
"21:11:24:848 (H:m:s:ms)","GENERIC","93.182","0.05725420373050417","331"
"21:11:30:909 (H:m:s:ms)","GENERIC","62.089","0.026249092329207854","1533"
"21:25:56:962 (H:m:s:ms)","OPERA","62.355999999999995","0.025321075381400583","1664"
"21:45:21:212 (H:m:s:ms)","GENERIC","93.492","0.029378544747067536","1209"
"21:45:15:151 (H:m:s:ms)","GENERIC","93.524","0.029003480892605144","1421"
"21:45:9:90 (H:m:s:ms)","GENERIC","93.465","0.0439838290503353","1494"
"21:45:3:30 (H:m:s:ms)","GENERIC","93.514","0.026977362945068698","1653"
"21:44:56:969 (H:m:s:ms)","GENERIC","93.186","0.057880002142543165","1591"
"21:44:50:909 (H:m:s:ms)","GENERIC","93.32499999999999","0.04673793133200381","1651"
"21:44:44:848 (H:m:s:ms)","GENERIC","62.135","0.05228129047119373","242"
"21:44:38:787 (H:m:s:ms)","GENERIC","93.892","0.045087139063222814","526"
"21:44:32:727 (H:m:s:ms)","GENERIC","62.119","0.05376947519350578","414"
"21:44:26:666 (H:m:s:ms)","GENERIC","93.858","0.037007074423482826","478"
"21:11:36:969 (H:m:s:ms)","GENERIC","93.85","0.035246135457636926","1156"
"21:44:20:606 (H:m:s:ms)","GENERIC","62.145","0.04125666332265028","853"
"21:11:43:30 (H:m:s:ms)","GENERIC","62.023","0.046701926714512884","1538"
"21:11:49:90 (H:m:s:ms)","GENERIC","62.049","0.04025412132622637","1252"
"21:11:55:151 (H:m:s:ms)","GENERIC","93.429","0.024545903598133835","1464"
"21:12:1:212 (H:m:s:ms)","GENERIC","93.42","0.040534650575858124","1408"
"21:12:7:272 (H:m:s:ms)","GENERIC","62.105","0.04564354645876381","1385"
"21:12:13:333 (H:m:s:ms)","GENERIC","93.288","0.030096013763521078","1185"
"21:12:19:393 (H:m:s:ms)","GENERIC","62.047","0.026249092329207854","938"
"21:12:25:454 (H:m:s:ms)","GENERIC","62.119","0.042714046822074435","795"
"21:12:31:515 (H:m:s:ms)","GENERIC","93.294","0.0523249204432073","1012"
"21:26:33:939 (H:m:s:ms)","GENERIC","93.381","0.03654190611290942","1589"
"21:46:27:878 (H:m:s:ms)","GENERIC","62.093","0.035458714168261116","1652"
"21:26:27:878 (H:m:s:ms)","GENERIC","93.62","0.02920373428768321","2326"
"21:46:21:818 (H:m:s:ms)","GENERIC","93.414","0.044817205374773246","721"
"21:46:15:757 (H:m:s:ms)","GENERIC","93.625","0.024120329480026906","826"
"21:46:9:696 (H:m:s:ms)","GENERIC","62.117","0.04100609638415858","635"
"21:26:21:818 (H:m:s:ms)","GENERIC","93.444","0.05269948067189006","823"
"21:26:19:746 (H:m:s:ms)","OPERA","62.015","0.051285395618144144","849"
"21:46:3:636 (H:m:s:ms)","GENERIC","93.072","0.04331367647236696","800"
"21:26:15:757 (H:m:s:ms)","GENERIC","62.125","0.05075907567771289","784"
"21:45:57:575 (H:m:s:ms)","GENERIC","62.093","0.029756676613290515","749"
"21:26:12:151 (H:m:s:ms)","OPERA","62.355999999999995","0.050826545927039196","1408"
"21:45:51:515 (H:m:s:ms)","GENERIC","93.156","0.050999578003616826","814"
"21:26:9:696 (H:m:s:ms)","GENERIC","62.087","0.05336726891078665","637"
"21:45:45:454 (H:m:s:ms)","GENERIC","93.506","0.01591104756260533","1168"
"21:26:4:556 (H:m:s:ms)","OPERA","93.39699999999999","0.04517563352791841","957"
"21:45:39:393 (H:m:s:ms)","GENERIC","93.78099999999999","0.04607140943112273","1157"
"21:12:37:575 (H:m:s:ms)","GENERIC","62.019","0.03276514034410202","950"
"21:26:3:636 (H:m:s:ms)","GENERIC","93.094","0.029547907350004475","810"
"21:45:33:333 (H:m:s:ms)","GENERIC","93.345","0.03569474477897872","1206"
"21:12:43:636 (H:m:s:ms)","GENERIC","62.147","0.044430553384738246","417"
"21:25:57:575 (H:m:s:ms)","GENERIC","62.097","0.03451687698779062","1422"
"21:45:27:272 (H:m:s:ms)","GENERIC","93.52","0.04580184195759762","1028"
"21:12:49:696 (H:m:s:ms)","GENERIC","93.627","0.0349342344111446","843"
"21:12:55:757 (H:m:s:ms)","GENERIC","93.232","0.043814709248894246","797"
"21:13:1:818 (H:m:s:ms)","GENERIC","62.055","0.035921172684156975","690"
"21:13:7:878 (H:m:s:ms)","GENERIC","93.41499999999999","0.025395373351783115","1706"
"21:13:13:939 (H:m:s:ms)","GENERIC","62.121","0.04170137443334008","1151"
"21:13:20:0 (H:m:s:ms)","GENERIC","62.073","0.03707411220674581","1612"
"21:13:26:60 (H:m:s:ms)","GENERIC","93.689","0.04625335566681433","1542"
"21:13:32:121 (H:m:s:ms)","GENERIC","93.405","0.047283448496328304","1277"
"21:26:27:341 (H:m:s:ms)","OPERA","93.39699999999999","0.018946719389083606","1313"
"21:27:10:303 (H:m:s:ms)","GENERIC","93.273","0.06656126300770847","1211"
"21:47:34:545 (H:m:s:ms)","GENERIC","93.783","0.043706165232747285","989"
"21:27:5:316 (H:m:s:ms)","OPERA","62.39","0.05409972283999828","1241"
"21:47:28:484 (H:m:s:ms)","GENERIC","93.485","0.039451515489637136","1122"
"21:27:4:242 (H:m:s:ms)","GENERIC","93.842","0.04277726259466018","1226"
"21:47:22:424 (H:m:s:ms)","GENERIC","93.46000000000001","0.04731868656618175","1061"
"21:47:16:363 (H:m:s:ms)","GENERIC","62.031","0.04138795673819807","1289"
"21:47:10:303 (H:m:s:ms)","GENERIC","93.34100000000001","0.036875284055268895","1251"
"21:26:58:181 (H:m:s:ms)","GENERIC","93.331","0.052423033172404536","1421"
"21:26:57:721 (H:m:s:ms)","OPERA","62.397999999999996","0.036470839003738806","935"
"21:26:52:121 (H:m:s:ms)","GENERIC","62.071","0.040158468277842044","1353"
"21:47:4:242 (H:m:s:ms)","GENERIC","62.131","0.036222720714533446","1198"
"21:26:50:126 (H:m:s:ms)","OPERA","93.363","0.05007719473276784","1457"
"21:46:58:181 (H:m:s:ms)","GENERIC","93.338","0.02599454633937007","1437"
"21:26:46:60 (H:m:s:ms)","GENERIC","93.30499999999999","0.052620253901447034","1429"
"21:46:52:121 (H:m:s:ms)","GENERIC","93.076","0.026707405100385773","1335"
"21:13:38:181 (H:m:s:ms)","GENERIC","93.5","0.04581405765402437","1306"
"21:26:42:531 (H:m:s:ms)","OPERA","62.363","0.046254870480546675","1004"
"21:46:46:60 (H:m:s:ms)","GENERIC","93.27799999999999","0.03993399540200632","1450"
"21:13:44:242 (H:m:s:ms)","GENERIC","93.459","0.04809943459393327","1332"
"21:26:40:0 (H:m:s:ms)","GENERIC","93.394","0.04730371282921725","1550"
"21:46:40:0 (H:m:s:ms)","GENERIC","62.032","0.04779405945660571","1551"
"21:13:50:303 (H:m:s:ms)","GENERIC","93.731","0.03101613649208686","1272"
"21:26:34:936 (H:m:s:ms)","OPERA","93.39699999999999","0.04847167855742238","2174"
"21:46:33:939 (H:m:s:ms)","GENERIC","93.377","0.04266524927305737","1584"
"21:13:56:363 (H:m:s:ms)","GENERIC","93.348","0.05773829268713566","1163"
"21:14:2:424 (H:m:s:ms)","GENERIC","93.538","0.025826216667475848","1020"
"21:14:8:484 (H:m:s:ms)","GENERIC","93.656","0.04165982901432523","964"
"21:14:14:545 (H:m:s:ms)","GENERIC","62.103","0.025463392424056475","612"
"21:14:20:606 (H:m:s:ms)","GENERIC","93.884","0.029364932998307117","870"
"21:14:26:666 (H:m:s:ms)","GENERIC","93.874","0.034548277900913055","479"
"21:14:32:727 (H:m:s:ms)","GENERIC","93.859","0.039094726393898466","413"
"21:27:50:886 (H:m:s:ms)","OPERA","31.009","0.05463454352910424","747"
"21:48:41:212 (H:m:s:ms)","GENERIC","62.071","0.03612637379681397","1089"
"21:27:46:666 (H:m:s:ms)","GENERIC","62.049","0.041494133144330654","1028"
"21:48:35:151 (H:m:s:ms)","GENERIC","93.09","0.03810096459260007","1365"
"21:27:40:606 (H:m:s:ms)","GENERIC","93.161","0.05156921180119762","966"
"21:48:29:90 (H:m:s:ms)","GENERIC","93.507","0.05806913923666662","1486"
"21:27:35:696 (H:m:s:ms)","OPERA","62.013","0.06708716998510865","956"
"21:48:23:30 (H:m:s:ms)","GENERIC","93.284","0.05024743678032353","1414"
"21:48:16:969 (H:m:s:ms)","GENERIC","93.388","0.03173653607103498","1430"
"21:48:10:909 (H:m:s:ms)","GENERIC","93.304","0.03615212331889283","1530"
"21:27:34:545 (H:m:s:ms)","GENERIC","93.81","0.05319611360332881","1016"
"21:27:28:484 (H:m:s:ms)","GENERIC","93.495","0.05753740836148235","1701"
"21:27:28:101 (H:m:s:ms)","OPERA","62.394999999999996","0.026783534255119024","1490"
"21:48:4:848 (H:m:s:ms)","GENERIC","62.087","0.03776296686790725","739"
"21:14:38:787 (H:m:s:ms)","GENERIC","93.852","0.05815624197427172","526"
"21:27:22:424 (H:m:s:ms)","GENERIC","93.491","0.03714606953381213","1082"
"21:47:58:787 (H:m:s:ms)","GENERIC","93.188","0.05363332822250932","767"
"21:14:44:848 (H:m:s:ms)","GENERIC","62.095","0.03773690599498156","244"
"21:27:20:506 (H:m:s:ms)","OPERA","93.435","0.03601770262485437","1178"
"21:47:52:727 (H:m:s:ms)","GENERIC","93.536","0.0440498547914004","809"
"20:52:31:515 (H:m:s:ms)","GENERIC","93.283","0.027338806943834","1081"
"21:14:50:909 (H:m:s:ms)","GENERIC","93.34100000000001","0.04518257826222298","1654"
"21:27:16:363 (H:m:s:ms)","GENERIC","93.441","0.05431254699195605","1308"
"21:47:46:666 (H:m:s:ms)","GENERIC","93.355","0.058546949211588845","946"
"20:52:37:575 (H:m:s:ms)","GENERIC","62.025","0.021229231547770167","1004"
"21:14:56:969 (H:m:s:ms)","GENERIC","93.15899999999999","0.04455523355143724","1649"
"21:27:12:911 (H:m:s:ms)","OPERA","62.358000000000004","0.07269826590283003","1622"
"21:47:40:606 (H:m:s:ms)","GENERIC","93.203","0.04179106272805708","905"
"20:52:43:636 (H:m:s:ms)","GENERIC","93.858","0.04622204280780695","672"
"21:15:3:30 (H:m:s:ms)","GENERIC","93.398","0.037364709926616585","1657"
"20:52:49:696 (H:m:s:ms)","GENERIC","93.619","0.043172082890799934","884"
"21:15:9:90 (H:m:s:ms)","GENERIC","93.458","0.021951143681482526","1530"
"20:52:55:757 (H:m:s:ms)","GENERIC","62.037","0.04113152812539322","824"
"21:15:15:151 (H:m:s:ms)","GENERIC","93.574","0.0492152441082867","1377"
"20:53:1:818 (H:m:s:ms)","GENERIC","93.36099999999999","0.044531007581787865","794"
"21:15:21:212 (H:m:s:ms)","GENERIC","93.508","0.04619602204422909","1174"
"20:53:7:878 (H:m:s:ms)","GENERIC","93.404","0.04450759037994632","1741"
"21:15:27:272 (H:m:s:ms)","GENERIC","93.51","0.03376803363343979","1061"
"20:53:13:939 (H:m:s:ms)","GENERIC","62.151","0.03089509350562138","1152"
"21:15:33:333 (H:m:s:ms)","GENERIC","93.321","0.02160306528809254","1264"
"20:53:20:0 (H:m:s:ms)","GENERIC","62.059","0.041984123983556665","1650"
"20:53:26:60 (H:m:s:ms)","GENERIC","93.74000000000001","0.03998661157813697","1571"
"21:28:28:860 (H:m:s:ms)","OPERA","93.39699999999999","0.05575062116353","739"
"21:49:47:878 (H:m:s:ms)","GENERIC","93.184","0.04306178947935182","1758"
"21:28:23:30 (H:m:s:ms)","GENERIC","93.206","0.051944066317205044","1524"
"21:49:41:818 (H:m:s:ms)","GENERIC","93.421","0.06126925033293689","539"
"21:28:21:265 (H:m:s:ms)","OPERA","93.437","0.04018713136905843","1352"
"21:49:35:757 (H:m:s:ms)","GENERIC","93.432","0.04368694117534585","679"
"21:28:16:969 (H:m:s:ms)","GENERIC","93.372","0.04364979815716212","1456"
"21:49:29:696 (H:m:s:ms)","GENERIC","93.129","0.045993604821699535","869"
"21:28:13:670 (H:m:s:ms)","OPERA","62.43","0.05449023268868811","940"
"21:49:23:636 (H:m:s:ms)","GENERIC","62.111","0.020791233911472543","949"
"21:49:17:575 (H:m:s:ms)","GENERIC","93.149","0.03901547234871758","881"
"21:49:11:515 (H:m:s:ms)","GENERIC","93.464","0.04928752370530317","1072"
"21:28:10:909 (H:m:s:ms)","GENERIC","93.339","0.04866140420855","1558"
"21:15:39:393 (H:m:s:ms)","GENERIC","93.85900000000001","0.043656021981853456","1193"
"21:28:6:75 (H:m:s:ms)","OPERA","62.015","0.03132437631842711","1535"
"21:15:45:454 (H:m:s:ms)","GENERIC","93.472","0.020562862378042408","1146"
"21:28:4:848 (H:m:s:ms)","GENERIC","93.159","0.020633746800776648","787"
"21:49:5:454 (H:m:s:ms)","GENERIC","124.882","0.050034697058529705","1078"
"20:53:32:121 (H:m:s:ms)","GENERIC","93.434","0.04552455020234644","1300"
"21:15:51:515 (H:m:s:ms)","GENERIC","93.208","0.047114536905205485","804"
"21:27:58:787 (H:m:s:ms)","GENERIC","124.31200000000001","0.06613911666114428","1451"
"21:48:59:393 (H:m:s:ms)","GENERIC","93.586","0.035597514792065285","1321"
"20:53:38:181 (H:m:s:ms)","GENERIC","93.54899999999999","0.037379290838971575","1413"
"21:15:57:575 (H:m:s:ms)","GENERIC","62.101","0.04108420496162919","768"
"21:27:58:481 (H:m:s:ms)","OPERA","93.438","0.03262859407171753","1172"
"21:48:53:333 (H:m:s:ms)","GENERIC","62.047","0.049487165930539506","1222"
"20:53:44:242 (H:m:s:ms)","GENERIC","93.42999999999999","0.057946185205279846","1243"
"21:16:3:636 (H:m:s:ms)","GENERIC","93.084","0.041376851330772325","772"
"21:27:52:727 (H:m:s:ms)","GENERIC","93.51","0.05701216921237776","840"
"21:48:47:272 (H:m:s:ms)","GENERIC","93.734","0.02575218317409664","1272"
"20:53:50:303 (H:m:s:ms)","GENERIC","93.774","0.045652428149342526","1206"
"21:16:9:696 (H:m:s:ms)","GENERIC","62.099","0.04128728433921603","636"
"20:53:56:363 (H:m:s:ms)","GENERIC","93.338","0.0456555490773185","1231"
"21:16:15:757 (H:m:s:ms)","GENERIC","93.637","0.020306632195651687","830"
"20:54:2:424 (H:m:s:ms)","GENERIC","93.526","0.03147735094700617","1122"
"21:16:21:818 (H:m:s:ms)","GENERIC","93.37899999999999","0.043787809678348125","836"
"20:54:8:484 (H:m:s:ms)","GENERIC","93.761","0.04516909474604706","1001"
"21:16:27:878 (H:m:s:ms)","GENERIC","62.093","0.02386113212607884","1670"
"20:54:14:545 (H:m:s:ms)","GENERIC","93.878","0.038015796301464795","591"
"21:16:33:939 (H:m:s:ms)","GENERIC","62.055","0.04149413314433061","1589"
"20:54:20:606 (H:m:s:ms)","GENERIC","62.149","0.027546782597637074","885"
"20:54:26:666 (H:m:s:ms)","GENERIC","62.123","0.020998650467178283","498"
"21:29:6:835 (H:m:s:ms)","OPERA","62.363","0.053608117883106626","669"
"21:29:5:454 (H:m:s:ms)","GENERIC","62.047","0.036279091269452904","1139"
"24:30:31:578 (H:m:s:ms)","AMBULANCE","62.105","0.04192144328869643","936"
"21:28:59:393 (H:m:s:ms)","GENERIC","93.644","0.063693767699645","1772"
"24:0:31:578 (H:m:s:ms)","AMBULANCE","93.19","0.028300964572049146","958"
"21:28:59:240 (H:m:s:ms)","OPERA","62.357","0.03621352234864639","1336"
"23:30:31:578 (H:m:s:ms)","AMBULANCE","62.105","0.041387956738197944","946"
"21:28:53:333 (H:m:s:ms)","GENERIC","93.585","0.055219853327525686","1231"
"23:0:31:578 (H:m:s:ms)","AMBULANCE","93.194","0.03575389194669284","954"
"21:28:51:645 (H:m:s:ms)","OPERA","93.399","0.05098550928877681","904"
"22:30:31:578 (H:m:s:ms)","AMBULANCE","62.103","0.028414915227876283","956"
"22:9:28:421 (H:m:s:ms)","AMBULANCE","31.009","0.02777006629425627","889"
"22:0:31:578 (H:m:s:ms)","AMBULANCE","62.184","0.053390728292822036","920"
"21:16:40:0 (H:m:s:ms)","GENERIC","93.408","0.03794019596409025","1562"
"21:16:46:60 (H:m:s:ms)","GENERIC","62.051","0.034733082201903104","1519"
"21:28:47:272 (H:m:s:ms)","GENERIC","62.117","0.04575826137429667","1243"
"20:54:32:727 (H:m:s:ms)","GENERIC","93.855","0.046142515893887306","394"
"21:16:52:121 (H:m:s:ms)","GENERIC","93.157","0.032035123667560395","1340"
"21:28:44:50 (H:m:s:ms)","OPERA","62.334","0.050293488808543785","1573"
"20:54:38:787 (H:m:s:ms)","GENERIC","93.852","0.045087139063222814","550"
"21:16:58:181 (H:m:s:ms)","GENERIC","62.061","0.03512313686638675","1423"
"21:28:41:212 (H:m:s:ms)","GENERIC","93.282","0.04646556567218619","1089"
"22:0:0:0 (H:m:s:ms)","AMBULANCE","31.009","0.04135812227437119","2462"
"20:54:44:848 (H:m:s:ms)","GENERIC","93.856","0.046011915839306465","238"
"21:17:4:242 (H:m:s:ms)","GENERIC","93.848","0.029300947406043963","1224"
"21:28:35:151 (H:m:s:ms)","GENERIC","93.104","0.0532003709486639","1375"
"21:50:0:0 (H:m:s:ms)","GENERIC","93.844","0.04119834861465726","1195"
"20:54:50:909 (H:m:s:ms)","GENERIC","93.349","0.03398653925802111","1687"
"21:17:10:303 (H:m:s:ms)","GENERIC","93.303","0.03502422682739338","1258"
"21:28:29:90 (H:m:s:ms)","GENERIC","93.55199999999999","0.06302769091938759","1673"
"21:49:53:939 (H:m:s:ms)","GENERIC","93.494","0.03701399186853957","1380"
"20:54:56:969 (H:m:s:ms)","GENERIC","93.14699999999999","0.05782344757498377","1622"
"21:17:16:363 (H:m:s:ms)","GENERIC","93.517","0.031241043970358828","1260"
"20:55:3:30 (H:m:s:ms)","GENERIC","93.42","0.0329785500548632","1617"
"21:17:22:424 (H:m:s:ms)","GENERIC","93.487","0.024509861671541823","1090"
"20:55:9:90 (H:m:s:ms)","GENERIC","93.474","0.0196650362598418","1535"
"21:17:28:484 (H:m:s:ms)","GENERIC","93.479","0.014458609698716873","1175"
"20:55:15:151 (H:m:s:ms)","GENERIC","93.495","0.0456457212161944","1380"
"21:17:34:545 (H:m:s:ms)","GENERIC","93.77","0.043742672564525166","933"
"20:55:21:212 (H:m:s:ms)","GENERIC","93.484","0.04668270382182728","1171"
"20:55:27:272 (H:m:s:ms)","GENERIC","62.083","0.04176819867145445","1049"
"21:29:44:810 (H:m:s:ms)","OPERA","93.396","0.0661354586702775","783"
"21:29:41:818 (H:m:s:ms)","GENERIC","93.474","0.06291351261366596","579"
"21:29:37:215 (H:m:s:ms)","OPERA","93.399","0.05121377665127158","1361"
"21:29:35:757 (H:m:s:ms)","GENERIC","93.404","0.04632476434324972","677"
"21:29:29:696 (H:m:s:ms)","GENERIC","62.093","0.0406277419542824","1491"
"21:29:29:620 (H:m:s:ms)","OPERA","93.39699999999999","0.02218718518629947","1035"
"21:29:23:636 (H:m:s:ms)","GENERIC","93.50999999999999","0.049158520874725116","932"
"21:17:40:606 (H:m:s:ms)","GENERIC","93.175","0.02599310788707725","939"
"21:17:46:666 (H:m:s:ms)","GENERIC","93.402","0.05982674519066691","1014"
"20:55:33:333 (H:m:s:ms)","GENERIC","93.277","0.020222741309281155","1283"
"21:17:52:727 (H:m:s:ms)","GENERIC","93.53","0.045169094746046995","818"
"20:55:39:393 (H:m:s:ms)","GENERIC","93.825","0.04643074556295131","1159"
"21:17:58:787 (H:m:s:ms)","GENERIC","93.194","0.04821688602683788","755"
"21:29:22:25 (H:m:s:ms)","OPERA","62.394999999999996","0.06320828372674771","1545"
"20:55:45:454 (H:m:s:ms)","GENERIC","93.432","0.021582130425620318","1165"
"21:18:4:848 (H:m:s:ms)","GENERIC","62.075","0.029243945242277768","789"
"21:29:17:575 (H:m:s:ms)","GENERIC","93.164","0.060199700348279185","924"
"20:55:51:515 (H:m:s:ms)","GENERIC","93.18","0.03780626951601749","836"
"21:18:10:909 (H:m:s:ms)","GENERIC","62.059","0.034332088088542136","1559"
"21:29:14:430 (H:m:s:ms)","OPERA","62.013","0.05442786789223326","1117"
"20:55:57:575 (H:m:s:ms)","GENERIC","62.107","0.035215032824254","770"
"21:18:16:969 (H:m:s:ms)","GENERIC","62.059","0.04416981770556957","1458"
"21:29:11:515 (H:m:s:ms)","GENERIC","93.47999999999999","0.060399653738462004","1091"
"20:56:3:636 (H:m:s:ms)","GENERIC","93.116","0.03430227028131672","788"
"21:18:23:30 (H:m:s:ms)","GENERIC","93.211","0.03228315053018459","1573"
"20:56:9:696 (H:m:s:ms)","GENERIC","62.113","0.04140925590284658","642"
"21:18:29:90 (H:m:s:ms)","GENERIC","93.30799999999999","0.03440774504347259","1412"
"20:56:15:757 (H:m:s:ms)","GENERIC","93.576","0.02867268644536232","800"
"21:18:35:151 (H:m:s:ms)","GENERIC","62.049","0.043740313100594556","1435"
"20:56:21:818 (H:m:s:ms)","GENERIC","93.381","0.05824390338487473","825"
"20:56:27:878 (H:m:s:ms)","GENERIC","93.587","0.036387380062178565","1666"
"21:30:24:242 (H:m:s:ms)","GENERIC","93.09700000000001","0.04781671395453906","1077"
"21:30:18:181 (H:m:s:ms)","GENERIC","93.369","0.057794401497530845","1388"
"21:30:12:121 (H:m:s:ms)","GENERIC","93.451","0.03247638398782154","1331"
"21:30:6:60 (H:m:s:ms)","GENERIC","93.422","0.05097815357294672","1523"
"21:30:0:0 (H:m:s:ms)","GENERIC","93.866","0.06464530021437721","2398"
"21:30:0:0 (H:m:s:ms)","GENERIC","62.129","0.029573920788939747","1615"
"21:30:0:0 (H:m:s:ms)","OPERA","93.363","0.07181576679991115","2956"
"21:30:0:0 (H:m:s:ms)","AMBULANCE","31.021","0.04655091896752919","2239"
"21:18:41:212 (H:m:s:ms)","GENERIC","93.282","0.04300390518593334","1105"
"21:18:47:272 (H:m:s:ms)","GENERIC","93.73400000000001","0.02973562328809057","1306"
"20:56:33:939 (H:m:s:ms)","GENERIC","93.349","0.02952765460051169","1604"
"21:18:53:333 (H:m:s:ms)","GENERIC","125.149","0.04851126451510396","1307"
"20:56:40:0 (H:m:s:ms)","GENERIC","93.41499999999999","0.03687103406196557","1570"
"21:18:59:393 (H:m:s:ms)","GENERIC","93.587","0.02557527304173177","1372"
"20:40:0:0 (H:m:s:ms)","GENERIC","62.071","0.04110172565540096","3223"
"20:56:46:60 (H:m:s:ms)","GENERIC","93.297","0.04586860935541031","1458"
"21:19:5:454 (H:m:s:ms)","GENERIC","93.474","0.049084327699510474","1119"
"20:40:0:0 (H:m:s:ms)","GENERIC","93.868","0.05772438824810852","3383"
"20:56:52:121 (H:m:s:ms)","GENERIC","62.107","0.02574132360118158","1351"
"21:19:11:515 (H:m:s:ms)","GENERIC","93.54599999999999","0.03467082659394323","1114"
"21:29:53:939 (H:m:s:ms)","GENERIC","62.051","0.04411826840041488","1386"
"20:40:6:60 (H:m:s:ms)","GENERIC","93.397","0.05863720819634358","1526"
"20:56:58:181 (H:m:s:ms)","GENERIC","93.275","0.04813713722912525","1427"
"21:19:17:575 (H:m:s:ms)","GENERIC","93.125","0.0451692627133391","910"
"21:29:52:405 (H:m:s:ms)","OPERA","93.399","0.048591572981850746","1153"
"20:40:7:594 (H:m:s:ms)","OPERA","31.009","0.06853795346569475","970"
"20:57:4:242 (H:m:s:ms)","GENERIC","93.877","0.04412009595137508","1214"
"21:19:23:636 (H:m:s:ms)","GENERIC","62.095","0.041582467822945085","977"
"21:29:47:878 (H:m:s:ms)","GENERIC","124.174","0.05016592409365476","1746"
"20:40:12:121 (H:m:s:ms)","GENERIC","93.505","0.05710753378518528","1327"
"20:57:10:303 (H:m:s:ms)","GENERIC","93.33200000000001","0.0402596697763279","1257"
"21:19:29:696 (H:m:s:ms)","GENERIC","93.139","0.05615883206261099","886"
"20:40:15:189 (H:m:s:ms)","OPERA","31.008","0.06057085938306198","1394"
"20:57:16:363 (H:m:s:ms)","GENERIC","93.482","0.025313817326830593","1260"
"21:19:35:757 (H:m:s:ms)","GENERIC","62.081","0.05228129047119352","702"
"20:40:18:181 (H:m:s:ms)","GENERIC","93.374","0.06129032522398633","1314"
"20:57:22:424 (H:m:s:ms)","GENERIC","93.428","0.044979498231373115","1089"
"20:40:22:784 (H:m:s:ms)","OPERA","62.357","0.049525069334455676","802"
"20:57:28:484 (H:m:s:ms)","GENERIC","93.524","0.034914289592509834","1123"
"20:40:24:242 (H:m:s:ms)","GENERIC","93.095","0.051392212872062186","1082"
"20:40:30:303 (H:m:s:ms)","GENERIC","93.378","0.03006767393297639","1237"
"21:30:42:424 (H:m:s:ms)","GENERIC","93.35300000000001","0.03573792755675235","1085"
"21:31:24:848 (H:m:s:ms)","GENERIC","93.149","0.05096162072725795","406"
"21:31:18:787 (H:m:s:ms)","GENERIC","62.037","0.02951994819774923","785"
"21:31:12:727 (H:m:s:ms)","GENERIC","93.886","0.027073283804295786","660"
"21:31:6:666 (H:m:s:ms)","GENERIC","93.386","0.05476355507568512","754"
"21:31:3:157 (H:m:s:ms)","AMBULANCE","62.517","0.06287585599792046","1400"
"21:31:0:606 (H:m:s:ms)","GENERIC","93.82900000000001","0.05399211349838695","974"
"21:30:54:545 (H:m:s:ms)","GENERIC","62.089","0.031538166106377316","965"
"21:19:41:818 (H:m:s:ms)","GENERIC","93.496","0.05357914549698678","668"
"21:30:48:484 (H:m:s:ms)","GENERIC","93.411","0.038507110991711904","1001"
"21:19:47:878 (H:m:s:ms)","GENERIC","62.071","0.04101555080163559","1790"
"20:57:34:545 (H:m:s:ms)","GENERIC","93.78","0.03694922912084688","960"
"21:19:53:939 (H:m:s:ms)","GENERIC","62.049","0.041549018225586244","1395"
"20:57:40:606 (H:m:s:ms)","GENERIC","62.127","0.04123930494211592","942"
"21:20:0:0 (H:m:s:ms)","OPERA","31.009","0.03169731010870662","3066"
"20:40:30:379 (H:m:s:ms)","OPERA","62.391999999999996","0.04217774346546051","1779"
"20:57:46:666 (H:m:s:ms)","GENERIC","93.434","0.044299179555660845","984"
"21:20:0:0 (H:m:s:ms)","GENERIC","93.625","0.046000451846859386","3646"
"20:40:36:363 (H:m:s:ms)","GENERIC","93.688","0.04379135508312435","1223"
"20:57:52:727 (H:m:s:ms)","GENERIC","93.516","0.03925667137425307","923"
"21:20:0:0 (H:m:s:ms)","GENERIC","62.149","0.06184568857204947","3809"
"20:40:37:974 (H:m:s:ms)","OPERA","62.391999999999996","0.057731583212423256","1610"
"20:57:58:787 (H:m:s:ms)","GENERIC","93.226","0.0398855591121658","759"
"21:20:6:60 (H:m:s:ms)","GENERIC","93.397","0.04447368887589191","1563"
"20:40:42:424 (H:m:s:ms)","GENERIC","62.065","0.06344136216318956","1066"
"20:58:4:848 (H:m:s:ms)","GENERIC","62.121","0.029243945242277768","756"
"21:20:7:594 (H:m:s:ms)","OPERA","93.399","0.059396513537610954","925"
"21:30:36:363 (H:m:s:ms)","GENERIC","93.715","0.034745156452123734","1216"
"20:40:45:569 (H:m:s:ms)","OPERA","62.391999999999996","0.059564808460136065","1049"
"20:58:10:909 (H:m:s:ms)","GENERIC","93.31400000000001","0.043424264430719665","1530"
"21:20:12:121 (H:m:s:ms)","GENERIC","62.063","0.05765669680286634","1336"
"21:30:30:303 (H:m:s:ms)","GENERIC","93.346","0.028256778186505623","1238"
"20:40:48:484 (H:m:s:ms)","GENERIC","93.378","0.038663751905391154","1085"
"20:58:16:969 (H:m:s:ms)","GENERIC","62.051","0.03868368314416028","1431"
"21:20:15:189 (H:m:s:ms)","OPERA","62.015","0.058852565955352265","1346"
"20:40:53:164 (H:m:s:ms)","OPERA","31.008","0.047490667406077734","1417"
"20:58:23:30 (H:m:s:ms)","GENERIC","124.431","0.05829109790051887","1466"
"20:40:54:545 (H:m:s:ms)","GENERIC","93.412","0.04753819950778919","968"
"20:58:29:90 (H:m:s:ms)","GENERIC","93.28","0.026248048835050664","1368"
"20:41:0:606 (H:m:s:ms)","GENERIC","125.489","0.044285675862607975","979"
"20:41:0:759 (H:m:s:ms)","OPERA","31.009","0.053242212226331104","1394"
"21:31:43:30 (H:m:s:ms)","GENERIC","93.722","0.046530396064820026","1506"
"21:31:36:969 (H:m:s:ms)","GENERIC","93.832","0.044943733807595136","1154"
"21:32:25:454 (H:m:s:ms)","GENERIC","93.906","0.04595384219722318","807"
"21:32:19:393 (H:m:s:ms)","GENERIC","62.059","0.020929084576899324","945"
"21:32:13:333 (H:m:s:ms)","GENERIC","93.263","0.05784704612393534","1162"
"21:32:7:272 (H:m:s:ms)","GENERIC","93.815","0.05927422581898227","1332"
"21:32:6:315 (H:m:s:ms)","AMBULANCE","62.496","0.050662203370536896","1232"
"21:32:1:212 (H:m:s:ms)","GENERIC","93.481","0.03737022792401274","1341"
"21:31:55:151 (H:m:s:ms)","GENERIC","93.431","0.029589028070023254","1429"
"21:31:49:90 (H:m:s:ms)","GENERIC","62.057","0.035802969389142646","1262"
"20:58:35:151 (H:m:s:ms)","GENERIC","93.08500000000001","0.046692905847095866","1338"
"20:58:41:212 (H:m:s:ms)","GENERIC","93.26","0.04398592319178876","1086"
"20:41:6:666 (H:m:s:ms)","GENERIC","93.364","0.03894064248870876","769"
"20:58:47:272 (H:m:s:ms)","GENERIC","93.77799999999999","0.025995201717047927","1280"
"20:41:12:727 (H:m:s:ms)","GENERIC","62.169","0.04208127057650866","632"
"20:58:53:333 (H:m:s:ms)","GENERIC","62.047","0.04205600412537078","1220"
"20:41:15:949 (H:m:s:ms)","OPERA","62.357","0.048822465801044525","1635"
"20:58:59:393 (H:m:s:ms)","GENERIC","125.125","0.05360582600734671","1182"
"20:41:18:787 (H:m:s:ms)","GENERIC","93.476","0.034680016647096475","827"
"20:59:5:454 (H:m:s:ms)","GENERIC","93.452","0.05314207228781451","1084"
"20:41:23:544 (H:m:s:ms)","OPERA","62.393","0.04206836016967133","1028"
"20:59:11:515 (H:m:s:ms)","GENERIC","93.542","0.034637493998068536","1076"
"20:41:24:848 (H:m:s:ms)","GENERIC","93.17","0.06241107656241745","362"
"20:59:17:575 (H:m:s:ms)","GENERIC","93.166","0.02757507485062539","967"
"21:31:30:909 (H:m:s:ms)","GENERIC","93.36","0.04373889639523968","1531"
"20:41:30:909 (H:m:s:ms)","GENERIC","62.053","0.040940932598400905","1528"
"20:59:23:636 (H:m:s:ms)","GENERIC","93.564","0.029137665864522294","955"
"20:41:31:139 (H:m:s:ms)","OPERA","62.393","0.05191821429744843","1893"
"20:59:29:696 (H:m:s:ms)","GENERIC","93.097","0.053356079360268586","860"
"20:41:36:969 (H:m:s:ms)","GENERIC","62.171","0.04760952285695232","1158"
"20:41:38:734 (H:m:s:ms)","OPERA","62.399","0.05975019607273128","835"
"20:59:35:757 (H:m:s:ms)","GENERIC","93.43","0.042543695113370604","680"
"20:59:41:818 (H:m:s:ms)","GENERIC","124.89","0.051263968718267126","587"
"20:41:43:30 (H:m:s:ms)","GENERIC","93.686","0.05206772570359396","1534"
"20:59:47:878 (H:m:s:ms)","GENERIC","93.123","0.04774619532241137","1776"
"20:41:46:329 (H:m:s:ms)","OPERA","62.364999999999995","0.04628793481760648","1330"
"20:59:53:939 (H:m:s:ms)","GENERIC","93.498","0.03734130283017553","1382"
"20:41:49:90 (H:m:s:ms)","GENERIC","62.029","0.05546214943152842","1251"
"21:0:0:0 (H:m:s:ms)","AMBULANCE","31.06","0.02597853640491498","2807"
"20:41:53:924 (H:m:s:ms)","OPERA","62.391999999999996","0.054079861448066945","705"
"21:0:0:0 (H:m:s:ms)","GENERIC","93.569","0.03125254507214301","3394"
"20:41:55:151 (H:m:s:ms)","GENERIC","93.437","0.048883187763205306","1393"
"21:0:0:0 (H:m:s:ms)","GENERIC","93.882","0.054575875420368854","3591"
"20:42:1:212 (H:m:s:ms)","GENERIC","93.404","0.032728081897577525","1406"
"21:0:6:60 (H:m:s:ms)","GENERIC","93.44999999999999","0.03998171720477335","1525"
"20:42:1:518 (H:m:s:ms)","OPERA","62.357","0.04066594838214788","1666"
"21:0:12:121 (H:m:s:ms)","GENERIC","62.067","0.03641390937736917","1354"
"20:42:7:272 (H:m:s:ms)","GENERIC","62.121","0.041129749018666145","1380"
"21:0:18:181 (H:m:s:ms)","GENERIC","93.355","0.04913244549958164","1464"
"20:42:9:113 (H:m:s:ms)","OPERA","62.357","0.05231987296342779","1575"
"20:42:13:333 (H:m:s:ms)","GENERIC","93.245","0.04611697459750004","1186"
"21:0:24:242 (H:m:s:ms)","GENERIC","93.101","0.044145250926346684","1081"
"21:0:30:303 (H:m:s:ms)","GENERIC","93.408","0.026413083361830618","1246"
"20:42:16:708 (H:m:s:ms)","OPERA","62.393","0.044579524959801796","851"
"21:0:36:363 (H:m:s:ms)","GENERIC","93.702","0.049583657910020146","1187"
"20:42:19:393 (H:m:s:ms)","GENERIC","93.311","0.04764059646267424","938"
"21:0:42:424 (H:m:s:ms)","GENERIC","62.033","0.05092066471139401","1071"
"20:20:0:0 (H:m:s:ms)","GENERIC","93.621","0.032302955804212205","3177"
"20:42:24:303 (H:m:s:ms)","OPERA","62.357","0.04773716649699512","1292"
"21:0:48:484 (H:m:s:ms)","GENERIC","93.45100000000001","0.028135585410693404","1096"
"20:20:0:0 (H:m:s:ms)","GENERIC","62.145","0.039677867963757996","3354"
"20:42:25:454 (H:m:s:ms)","GENERIC","93.886","0.05275146465577437","821"
"21:0:54:545 (H:m:s:ms)","GENERIC","62.127","0.032396382604432256","957"
"20:20:6:60 (H:m:s:ms)","GENERIC","93.42","0.039154063533595886","1602"
"20:42:31:515 (H:m:s:ms)","GENERIC","62.013","0.029160592175990232","1093"
"21:1:0:606 (H:m:s:ms)","GENERIC","93.87","0.05009735482278024","1010"
"20:20:12:121 (H:m:s:ms)","GENERIC","93.479","0.02429614364104067","1376"
"20:42:31:898 (H:m:s:ms)","OPERA","62.333","0.044724375990755225","1350"
"21:1:3:157 (H:m:s:ms)","AMBULANCE","31.02","0.057003385005509694","1559"
"20:20:18:181 (H:m:s:ms)","GENERIC","93.386","0.037419351303502844","1445"
"20:42:37:575 (H:m:s:ms)","GENERIC","93.25","0.032900974839088645","996"
"21:1:6:666 (H:m:s:ms)","GENERIC","93.37100000000001","0.051158948118557826","757"
"20:20:24:242 (H:m:s:ms)","GENERIC","62.107","0.03519745081987706","1119"
"20:42:39:493 (H:m:s:ms)","OPERA","62.355999999999995","0.04399517225386493","1152"
"21:1:12:727 (H:m:s:ms)","GENERIC","93.926","0.05150936879946771","645"
"20:20:30:303 (H:m:s:ms)","GENERIC","62.041","0.034701104689428254","1310"
"20:42:43:636 (H:m:s:ms)","GENERIC","62.107","0.055477060188288886","419"
"20:20:36:363 (H:m:s:ms)","GENERIC","93.71000000000001","0.0511909324075278","1178"
"20:42:47:88 (H:m:s:ms)","OPERA","62.393","0.05549462744379889","1509"
"20:20:42:424 (H:m:s:ms)","GENERIC","93.428","0.03162343692595335","1129"
"20:20:48:484 (H:m:s:ms)","GENERIC","93.395","0.02855105094651382","1083"
"21:1:18:787 (H:m:s:ms)","GENERIC","93.504","0.028417424519656335","791"
"21:1:24:848 (H:m:s:ms)","GENERIC","93.147","0.054005608880350504","415"
"20:42:49:696 (H:m:s:ms)","GENERIC","93.617","0.04164835452058471","879"
"21:1:30:909 (H:m:s:ms)","GENERIC","62.079","0.025930707302868023","1535"
"20:42:54:683 (H:m:s:ms)","OPERA","62.429","0.035253914859825514","932"
"21:1:34:736 (H:m:s:ms)","AMBULANCE","31.054","0.044425487914026965","354"
"20:20:54:545 (H:m:s:ms)","GENERIC","62.093","0.02622253718336348","1066"
"20:42:55:757 (H:m:s:ms)","GENERIC","93.125","0.062078198897902837","820"
"21:1:36:969 (H:m:s:ms)","GENERIC","93.868","0.0534343715701634","1145"
"20:21:0:606 (H:m:s:ms)","GENERIC","93.756","0.039847601470657135","999"
"20:43:1:818 (H:m:s:ms)","GENERIC","93.379","0.03500742586368491","803"
"21:1:43:30 (H:m:s:ms)","GENERIC","93.654","0.04112595417024724","1533"
"20:21:6:666 (H:m:s:ms)","GENERIC","62.061","0.04170137443333996","786"
"20:43:2:278 (H:m:s:ms)","OPERA","31.009","0.05549591517632715","1291"
"21:1:49:90 (H:m:s:ms)","GENERIC","93.435","0.05310513259936558","1242"
"20:21:12:727 (H:m:s:ms)","GENERIC","62.137","0.031497976815373856","653"
"20:43:7:878 (H:m:s:ms)","GENERIC","93.348","0.038277321951105586","1690"
"21:1:55:151 (H:m:s:ms)","GENERIC","93.396","0.0364287068280525","1431"
"20:21:18:787 (H:m:s:ms)","GENERIC","93.53399999999999","0.03862771260902437","767"
"20:43:9:873 (H:m:s:ms)","OPERA","62.363","0.052199252125389076","736"
"21:2:1:212 (H:m:s:ms)","GENERIC","93.468","0.03492198018084675","1377"
"20:21:24:848 (H:m:s:ms)","GENERIC","93.111","0.0501591411893777","421"
"20:43:13:939 (H:m:s:ms)","GENERIC","93.938","0.058778515708345344","1148"
"21:2:6:315 (H:m:s:ms)","AMBULANCE","31.021","0.04643145619941115","1267"
"20:21:30:909 (H:m:s:ms)","GENERIC","62.039","0.030965463254411955","1557"
"20:43:17:468 (H:m:s:ms)","OPERA","62.357","0.053571344750537944","1192"
"20:21:36:969 (H:m:s:ms)","GENERIC","62.205","0.050074019285527786","1163"
"20:43:20:0 (H:m:s:ms)","GENERIC","124.862","0.045530742639138394","1647"
"20:21:43:30 (H:m:s:ms)","GENERIC","93.726","0.037491286904936826","1561"
"20:21:49:90 (H:m:s:ms)","GENERIC","62.065","0.039148235801772506","1277"
"20:43:25:63 (H:m:s:ms)","OPERA","62.357","0.04826497787238296","1509"
"20:43:26:60 (H:m:s:ms)","GENERIC","93.724","0.05024542609854176","1581"
"20:21:55:151 (H:m:s:ms)","GENERIC","93.405","0.024970991563486367","1451"
"20:43:32:121 (H:m:s:ms)","GENERIC","62.097","0.04153625424453505","1318"
"20:22:1:212 (H:m:s:ms)","GENERIC","93.495","0.03933006818069114","1391"
"20:43:32:658 (H:m:s:ms)","OPERA","62.355999999999995","0.04659878342512768","1357"
"20:22:7:272 (H:m:s:ms)","GENERIC","93.872","0.03473841149628251","1398"
"20:43:38:181 (H:m:s:ms)","GENERIC","93.487","0.034722403847286094","1469"
"20:22:13:333 (H:m:s:ms)","GENERIC","93.267","0.054452900660583184","1143"
"20:43:40:253 (H:m:s:ms)","OPERA","62.397999999999996","0.03987312067743121","1438"
"20:22:19:393 (H:m:s:ms)","GENERIC","62.073","0.030965463254411955","950"
"20:43:44:242 (H:m:s:ms)","GENERIC","93.429","0.06058024684233587","1237"
"20:22:25:454 (H:m:s:ms)","GENERIC","93.886","0.03654899299401078","807"
"20:43:47:848 (H:m:s:ms)","OPERA","31.009","0.06685518835045844","718"
"20:22:31:515 (H:m:s:ms)","GENERIC","93.301","0.03245326319546561","1053"
"20:43:50:303 (H:m:s:ms)","GENERIC","93.735","0.049605366462844906","1293"
"20:22:37:575 (H:m:s:ms)","GENERIC","93.25800000000001","0.04770476405675153","949"
"20:43:55:443 (H:m:s:ms)","OPERA","62.391999999999996","0.04110285028712381","1170"
"20:22:43:636 (H:m:s:ms)","GENERIC","62.091","0.04716008984378713","416"
"20:22:49:696 (H:m:s:ms)","GENERIC","93.601","0.03388879512657389","892"
"20:43:56:363 (H:m:s:ms)","GENERIC","93.332","0.06071538414682734","1218"
"20:44:2:424 (H:m:s:ms)","GENERIC","62.027","0.04262237284181464","950"
"20:22:55:757 (H:m:s:ms)","GENERIC","93.152","0.03238304229338764","803"
"20:44:3:37 (H:m:s:ms)","OPERA","62.357","0.044922980196741034","1599"
"20:23:1:818 (H:m:s:ms)","GENERIC","62.041","0.04983305462575341","684"
"20:44:8:484 (H:m:s:ms)","GENERIC","93.746","0.0327804279711573","1001"
"20:23:7:878 (H:m:s:ms)","GENERIC","62.408","0.04006564605327735","710"
"20:44:10:632 (H:m:s:ms)","OPERA","62.393","0.04929051685556738","922"
"20:23:13:939 (H:m:s:ms)","GENERIC","62.159","0.029943888063354733","1152"
"20:44:14:545 (H:m:s:ms)","GENERIC","62.097","0.04666978060687566","613"
"20:23:20:0 (H:m:s:ms)","GENERIC","62.049","0.03028212018206599","1615"
"20:44:18:227 (H:m:s:ms)","OPERA","62.393","0.03515085322745371","1337"
"20:23:26:60 (H:m:s:ms)","GENERIC","93.696","0.04080556915984656","1561"
"20:44:20:606 (H:m:s:ms)","GENERIC","62.129","0.048136613377912384","872"
"20:23:32:121 (H:m:s:ms)","GENERIC","93.43900000000001","0.04339870865354999","1292"
"20:44:25:822 (H:m:s:ms)","OPERA","62.355999999999995","0.04804489228956375","804"
"20:23:38:181 (H:m:s:ms)","GENERIC","62.504999999999995","0.043950625475238786","1351"
"20:44:26:666 (H:m:s:ms)","GENERIC","62.123","0.0479291122430748","486"
"20:23:44:242 (H:m:s:ms)","GENERIC","93.435","0.04611100552646207","1280"
"20:23:50:303 (H:m:s:ms)","GENERIC","93.705","0.03823652805120801","1191"
"20:44:32:727 (H:m:s:ms)","GENERIC","93.857","0.050601658873912984","415"
"20:44:33:417 (H:m:s:ms)","OPERA","62.399","0.05427202744329513","1171"
"20:23:56:363 (H:m:s:ms)","GENERIC","93.298","0.037703564664128164","1211"
"20:44:38:787 (H:m:s:ms)","GENERIC","93.834","0.061284936910789595","523"
"20:24:2:424 (H:m:s:ms)","GENERIC","93.43799999999999","0.04842452949744639","912"
"20:44:41:12 (H:m:s:ms)","OPERA","31.008","0.06551047937975178","1577"
"20:24:8:484 (H:m:s:ms)","GENERIC","93.761","0.04884635860916427","990"
"20:44:44:848 (H:m:s:ms)","GENERIC","62.129","0.05834643717024615","241"
"20:24:14:545 (H:m:s:ms)","GENERIC","62.107","0.036963119502089845","597"
"20:44:48:607 (H:m:s:ms)","OPERA","62.393","0.05917111399572847","954"
"20:24:20:606 (H:m:s:ms)","GENERIC","93.854","0.026039369092254433","853"
"20:44:50:909 (H:m:s:ms)","GENERIC","93.353","0.04907940877313703","1627"
"20:24:26:666 (H:m:s:ms)","GENERIC","62.143","0.040976245740938715","482"
"20:44:56:202 (H:m:s:ms)","OPERA","31.009","0.051509934578346926","1385"
"20:24:32:727 (H:m:s:ms)","GENERIC","62.113","0.03010186786529354","434"
"20:44:56:969 (H:m:s:ms)","GENERIC","93.197","0.06146131005640722","2203"
"20:24:38:787 (H:m:s:ms)","GENERIC","93.91","0.06303327936088214","474"
"20:45:3:30 (H:m:s:ms)","GENERIC","93.493","0.026808488092576282","1660"
"20:24:44:848 (H:m:s:ms)","GENERIC","62.135","0.04192144328869664","243"
"20:24:50:909 (H:m:s:ms)","GENERIC","93.369","0.049297602610962915","1655"
"20:45:3:797 (H:m:s:ms)","OPERA","62.357","0.04465940637830928","1434"
"20:45:9:90 (H:m:s:ms)","GENERIC","93.498","0.04004978273342073","1458"
"20:24:56:969 (H:m:s:ms)","GENERIC","62.107","0.041095693396985954","1596"
"20:45:11:392 (H:m:s:ms)","OPERA","31.009","0.05924704398513186","1166"
"20:25:3:30 (H:m:s:ms)","GENERIC","93.458","0.018168925180499416","1668"
"20:45:15:151 (H:m:s:ms)","GENERIC","62.443","0.053810104781128146","1374"
"20:25:9:90 (H:m:s:ms)","GENERIC","62.043","0.034345258137330165","1501"
"20:45:21:212 (H:m:s:ms)","GENERIC","93.578","0.03621625247779009","1200"
"20:25:15:151 (H:m:s:ms)","GENERIC","93.845","0.04390601566408827","988"
"20:45:26:582 (H:m:s:ms)","OPERA","93.71","0.04497984699595138","1035"
"20:25:21:212 (H:m:s:ms)","GENERIC","93.51","0.029458446313213583","1209"
"20:45:27:272 (H:m:s:ms)","GENERIC","62.47","0.05764588636455787","1018"
"20:25:27:272 (H:m:s:ms)","GENERIC","93.648","0.04906232356168512","1388"
"20:45:33:333 (H:m:s:ms)","GENERIC","62.043","0.0384734757116293","1255"
"20:25:33:333 (H:m:s:ms)","GENERIC","93.345","0.023611862514548144","1289"
"20:45:34:177 (H:m:s:ms)","OPERA","62.333","0.05450805853489717","1407"
"20:25:39:393 (H:m:s:ms)","GENERIC","93.77199999999999","0.037657875963967954","1231"
"20:45:39:393 (H:m:s:ms)","GENERIC","93.864","0.06019289291648325","1231"
"20:25:45:454 (H:m:s:ms)","GENERIC","93.444","0.017089268435570775","1168"
"20:25:51:515 (H:m:s:ms)","GENERIC","93.142","0.03877281353488692","810"
"20:25:57:575 (H:m:s:ms)","GENERIC","93.257","0.035855996765020555","755"
"20:26:3:636 (H:m:s:ms)","GENERIC","62.109","0.03309517981552135","811"
"20:26:9:696 (H:m:s:ms)","GENERIC","93.842","0.05312693519430269","615"
"20:26:15:757 (H:m:s:ms)","GENERIC","93.50399999999999","0.0224436477066272","830"
"20:26:21:818 (H:m:s:ms)","GENERIC","93.42","0.047674548940239425","779"
"20:26:27:878 (H:m:s:ms)","GENERIC","93.626","0.047016089139534596","1652"
"20:26:33:939 (H:m:s:ms)","GENERIC","93.339","0.026932107333532043","1612"
"20:26:40:0 (H:m:s:ms)","GENERIC","62.073","0.04574612916229449","1520"
"20:26:46:60 (H:m:s:ms)","GENERIC","93.276","0.03985517899919566","1469"
"20:26:52:121 (H:m:s:ms)","GENERIC","93.12","0.035402224308308174","1318"
"20:26:58:181 (H:m:s:ms)","GENERIC","93.322","0.04365601935191493","1392"
"20:27:4:242 (H:m:s:ms)","GENERIC","93.838","0.033395049742962354","1217"
"20:27:10:303 (H:m:s:ms)","GENERIC","93.313","0.04321018624179485","1215"
"20:27:16:363 (H:m:s:ms)","GENERIC","93.539","0.028850562634612772","1263"
"20:27:22:424 (H:m:s:ms)","GENERIC","93.41900000000001","0.04134251977267026","1066"
"20:27:28:484 (H:m:s:ms)","GENERIC","93.562","0.04767855055046809","1077"
"20:27:34:545 (H:m:s:ms)","GENERIC","93.82300000000001","0.031606318789495054","1009"
"20:27:40:606 (H:m:s:ms)","GENERIC","93.257","0.04270424207787058","911"
"20:27:46:666 (H:m:s:ms)","GENERIC","62.077","0.02493034373143487","939"
"20:27:52:727 (H:m:s:ms)","GENERIC","93.488","0.04027167205704781","875"
"20:27:58:787 (H:m:s:ms)","GENERIC","93.146","0.04900843886202958","771"
"20:28:4:848 (H:m:s:ms)","GENERIC","62.121","0.04158943459532518","763"
"20:28:10:909 (H:m:s:ms)","GENERIC","93.37100000000001","0.03649500355894688","1539"
"20:28:16:969 (H:m:s:ms)","GENERIC","93.33","0.015948757198921984","1448"
"20:28:23:30 (H:m:s:ms)","GENERIC","93.29","0.027258770030735065","1478"
"20:28:29:90 (H:m:s:ms)","GENERIC","93.313","0.041390687368517136","1369"
"20:28:35:151 (H:m:s:ms)","GENERIC","93.153","0.03642912132098106","1374"
"20:28:41:212 (H:m:s:ms)","GENERIC","93.3","0.04646556567218619","1083"
"20:28:47:272 (H:m:s:ms)","GENERIC","93.73599999999999","0.03720781463624485","1247"
"20:28:53:333 (H:m:s:ms)","GENERIC","93.583","0.04411149451456413","1290"
"20:28:59:393 (H:m:s:ms)","GENERIC","93.531","0.044254247626330546","1185"
"20:29:5:454 (H:m:s:ms)","GENERIC","93.48","0.03433058017752502","1196"
"20:29:11:515 (H:m:s:ms)","GENERIC","93.55799999999999","0.04314410934674636","1110"
"20:29:17:575 (H:m:s:ms)","GENERIC","93.226","0.058256001674177146","931"
"20:29:23:636 (H:m:s:ms)","GENERIC","93.548","0.03982133353998793","941"
"20:29:29:696 (H:m:s:ms)","GENERIC","93.145","0.0637932494803522","874"
"20:29:35:757 (H:m:s:ms)","GENERIC","93.374","0.0467564577829838","689"
"20:29:41:818 (H:m:s:ms)","GENERIC","93.476","0.04855712694306084","660"
"20:29:47:878 (H:m:s:ms)","GENERIC","62.071","0.04216233102515606","1767"
"20:29:53:939 (H:m:s:ms)","GENERIC","93.51","0.03734130283017553","1386"
"21:20:18:181 (H:m:s:ms)","GENERIC","124.741","0.08215537844706151","1350"
"21:20:22:784 (H:m:s:ms)","OPERA","93.399","0.07522299735550268","812"
"21:20:24:242 (H:m:s:ms)","GENERIC","93.095","0.0550435245827925","1074"
"21:20:30:303 (H:m:s:ms)","GENERIC","93.35","0.04440610330943192","1206"
"21:20:30:379 (H:m:s:ms)","OPERA","93.363","0.05381057755863275","1688"
"21:20:36:363 (H:m:s:ms)","GENERIC","62.065","0.04145563629777638","1180"
"21:20:37:974 (H:m:s:ms)","OPERA","31.009","0.059395864765805106","1631"
"21:20:42:424 (H:m:s:ms)","GENERIC","62.033","0.057902006986944525","1088"
"21:20:45:569 (H:m:s:ms)","OPERA","31.009","0.046142959724449664","1049"
"21:20:48:484 (H:m:s:ms)","GENERIC","62.071","0.0487505208062185","1024"
"21:20:53:164 (H:m:s:ms)","OPERA","62.394999999999996","0.05632532448764211","1368"
"21:20:54:545 (H:m:s:ms)","GENERIC","62.105","0.05652247637587206","902"
"21:21:0:606 (H:m:s:ms)","GENERIC","93.803","0.02889260164686718","1014"
"21:21:0:759 (H:m:s:ms)","OPERA","62.015","0.050197929955558475","1459"
"21:21:6:666 (H:m:s:ms)","GENERIC","93.402","0.053406431581085566","740"
"21:21:8:354 (H:m:s:ms)","OPERA","62.427","0.05702533747611138","1306"
"21:21:12:727 (H:m:s:ms)","GENERIC","62.133","0.032517817962168453","685"
"21:21:15:949 (H:m:s:ms)","OPERA","62.363","0.04254757794787093","1584"
"21:21:18:787 (H:m:s:ms)","GENERIC","93.53399999999999","0.0476374032212951","824"
"21:21:23:544 (H:m:s:ms)","OPERA","62.015","0.03807224630707892","1044"
"21:33:20:0 (H:m:s:ms)","GENERIC","93.492","0.04279124894309336","1609"
"21:33:7:878 (H:m:s:ms)","GENERIC","62.033","0.04163331998932253","1656"
"21:33:1:818 (H:m:s:ms)","GENERIC","124.75","0.046407103937135624","802"
"21:32:55:757 (H:m:s:ms)","GENERIC","93.206","0.03601298378613132","796"
"21:32:49:696 (H:m:s:ms)","GENERIC","93.628","0.05167845584319503","803"
"21:32:43:636 (H:m:s:ms)","GENERIC","62.131","0.03511884584284246","417"
"21:32:37:894 (H:m:s:ms)","AMBULANCE","62.506","0.04840079562441728","1272"
"21:32:37:575 (H:m:s:ms)","GENERIC","93.25200000000001","0.0436557944019539","969"
"21:21:24:848 (H:m:s:ms)","GENERIC","93.155","0.055813160381124084","390"
"21:32:31:515 (H:m:s:ms)","GENERIC","93.303","0.032279379319085616","1051"
"21:21:30:909 (H:m:s:ms)","GENERIC","93.32900000000001","0.03708436743722643","1536"
"21:21:31:139 (H:m:s:ms)","OPERA","62.015","0.05604401916427612","1841"
"21:21:36:969 (H:m:s:ms)","GENERIC","62.103","0.03402069087198857","1156"
"21:21:38:734 (H:m:s:ms)","OPERA","31.009","0.03906272488287721","851"
"21:21:43:30 (H:m:s:ms)","GENERIC","93.613","0.05662112712366163","1530"
"21:21:46:329 (H:m:s:ms)","OPERA","93.39699999999999","0.05943587308125389","1285"
"21:21:49:90 (H:m:s:ms)","GENERIC","62.043","0.053463118673660825","1253"
"21:33:13:939 (H:m:s:ms)","GENERIC","62.522999999999996","0.055159318038368724","1359"
"21:21:53:924 (H:m:s:ms)","OPERA","93.399","0.059341499289935755","1608"
"21:33:9:473 (H:m:s:ms)","AMBULANCE","31.036","0.05444183605953367","1098"
"21:21:55:151 (H:m:s:ms)","GENERIC","93.431","0.058539837262729245","1408"
"21:34:14:545 (H:m:s:ms)","GENERIC","93.894","0.0650894864765887","584"
"21:34:12:631 (H:m:s:ms)","AMBULANCE","62.429","0.06436529637960114","831"
"21:34:2:424 (H:m:s:ms)","GENERIC","62.069","0.029464827263804103","1049"
"21:33:56:363 (H:m:s:ms)","GENERIC","62.087","0.04108420496162919","1256"
"21:33:50:303 (H:m:s:ms)","GENERIC","93.737","0.03838386108154463","1186"
"21:33:44:242 (H:m:s:ms)","GENERIC","93.403","0.04516071893247346","1280"
"21:33:41:52 (H:m:s:ms)","AMBULANCE","62.462","0.04366522993405328","1634"
"21:33:38:181 (H:m:s:ms)","GENERIC","62.039","0.03520954322561412","1397"
"21:22:1:212 (H:m:s:ms)","GENERIC","93.458","0.052514888027423386","1399"
"21:33:32:121 (H:m:s:ms)","GENERIC","93.404","0.03208599775321532","1281"
"21:22:1:518 (H:m:s:ms)","OPERA","93.372","0.07501632460569164","1625"
"21:33:26:60 (H:m:s:ms)","GENERIC","125.27000000000001","0.061794781865721515","1526"
"21:22:7:272 (H:m:s:ms)","GENERIC","93.776","0.03585730333817347","1358"
"21:22:9:113 (H:m:s:ms)","OPERA","62.363","0.04702383680240394","1479"
"21:22:13:333 (H:m:s:ms)","GENERIC","124.439","0.061906698637564525","1126"
"21:22:16:708 (H:m:s:ms)","OPERA","62.363","0.05930777906035528","849"
"21:22:19:393 (H:m:s:ms)","GENERIC","62.053","0.035895929044398846","939"
"21:22:24:303 (H:m:s:ms)","OPERA","93.338","0.04613526240365088","1277"
"21:22:25:454 (H:m:s:ms)","GENERIC","93.887","0.06670112414279201","773"
"21:22:31:515 (H:m:s:ms)","GENERIC","93.348","0.032163866287966886","1044"
"21:34:8:484 (H:m:s:ms)","GENERIC","93.673","0.03708956980851692","940"
"21:35:15:789 (H:m:s:ms)","AMBULANCE","62.409","0.05395914561183146","1245"
"21:35:15:151 (H:m:s:ms)","GENERIC","93.548","0.04153442840938566","1375"
"21:35:9:90 (H:m:s:ms)","GENERIC","93.488","0.03982580147107097","1456"
"21:35:3:30 (H:m:s:ms)","GENERIC","93.498","0.03000921347274845","1612"
"21:34:56:969 (H:m:s:ms)","GENERIC","93.133","0.057794608223716064","1622"
"21:34:50:909 (H:m:s:ms)","GENERIC","62.025","0.03851406669430426","1675"
"21:34:44:848 (H:m:s:ms)","GENERIC","93.85","0.035246135457636926","238"
"21:34:38:787 (H:m:s:ms)","GENERIC","62.113","0.05376947519350578","524"
"21:22:31:898 (H:m:s:ms)","OPERA","93.39699999999999","0.04453912545407794","1282"
"21:34:32:727 (H:m:s:ms)","GENERIC","93.869","0.04085235287748666","417"
"21:22:37:575 (H:m:s:ms)","GENERIC","93.25","0.02796093085869028","969"
"21:34:26:666 (H:m:s:ms)","GENERIC","62.123","0.04092180027337447","485"
"21:2:7:272 (H:m:s:ms)","GENERIC","62.105","0.04309436074281652","1379"
"21:22:39:493 (H:m:s:ms)","OPERA","62.015","0.0412882573578182","1157"
"21:34:20:606 (H:m:s:ms)","GENERIC","93.882","0.035168030399270335","848"
"21:2:13:333 (H:m:s:ms)","GENERIC","93.233","0.028378413064911984","1200"
"21:22:43:636 (H:m:s:ms)","GENERIC","62.139","0.05381797698206834","416"
"21:2:19:393 (H:m:s:ms)","GENERIC","62.051","0.02561994623934166","948"
"21:22:47:88 (H:m:s:ms)","OPERA","93.40299999999999","0.052234653126022226","1533"
"21:2:25:454 (H:m:s:ms)","GENERIC","93.882","0.050784130840791725","797"
"21:22:49:696 (H:m:s:ms)","GENERIC","93.641","0.04036137595702112","877"
"21:2:31:515 (H:m:s:ms)","GENERIC","62.039","0.03912303982179782","1045"
"21:22:54:683 (H:m:s:ms)","OPERA","62.355999999999995","0.038773402360999826","966"
"21:2:37:575 (H:m:s:ms)","GENERIC","62.029","0.03757786700220449","947"
"21:22:55:757 (H:m:s:ms)","GENERIC","93.252","0.055197352832747945","795"
"21:2:37:894 (H:m:s:ms)","AMBULANCE","62.417","0.04645940550069582","1267"
"21:23:1:818 (H:m:s:ms)","GENERIC","93.411","0.048191605754838475","606"
"21:2:43:636 (H:m:s:ms)","GENERIC","93.878","0.04010556680050288","679"
"21:23:2:278 (H:m:s:ms)","OPERA","62.397999999999996","0.05882586316805555","1238"
"21:2:49:696 (H:m:s:ms)","GENERIC","93.616","0.052501930040310556","847"
"21:2:55:757 (H:m:s:ms)","GENERIC","93.179","0.040481821236321804","802"
"21:36:15:757 (H:m:s:ms)","GENERIC","93.611","0.033826265354985785","784"
"21:36:9:696 (H:m:s:ms)","GENERIC","93.822","0.04327528239410419","625"
"21:36:3:636 (H:m:s:ms)","GENERIC","93.065","0.034662947672796755","792"
"21:35:57:575 (H:m:s:ms)","GENERIC","93.332","0.01908948439973724","783"
"21:35:51:515 (H:m:s:ms)","GENERIC","62.129","0.06112730110063582","828"
"21:35:47:368 (H:m:s:ms)","AMBULANCE","62.438","0.04876727470931071","905"
"21:35:45:454 (H:m:s:ms)","GENERIC","93.464","0.02473425390722479","1160"
"21:23:7:878 (H:m:s:ms)","GENERIC","93.41799999999999","0.04723396874748297","1697"
"21:35:39:393 (H:m:s:ms)","GENERIC","93.82","0.04593297542820981","1152"
"21:23:9:873 (H:m:s:ms)","OPERA","93.39699999999999","0.0608902419073972","682"
"21:35:33:333 (H:m:s:ms)","GENERIC","93.33500000000001","0.022177987685018958","1260"
"21:3:1:818 (H:m:s:ms)","GENERIC","93.385","0.04203235568216168","733"
"21:23:13:939 (H:m:s:ms)","GENERIC","62.109","0.03612629833290129","1714"
"21:35:27:272 (H:m:s:ms)","GENERIC","62.097","0.041549018225586244","1048"
"21:3:7:878 (H:m:s:ms)","GENERIC","93.37100000000001","0.026576875361478347","1682"
"21:23:17:468 (H:m:s:ms)","OPERA","93.39699999999999","0.031985951443596776","1186"
"21:35:21:212 (H:m:s:ms)","GENERIC","93.5","0.040986423644882745","1198"
"21:3:9:473 (H:m:s:ms)","AMBULANCE","62.446","0.040354913509956465","1165"
"21:23:20:0 (H:m:s:ms)","GENERIC","93.478","0.048426493066806714","1615"
"21:3:13:939 (H:m:s:ms)","GENERIC","62.133","0.04682918921978719","1152"
"21:23:25:63 (H:m:s:ms)","OPERA","93.39699999999999","0.05387135798398347","1513"
"21:3:20:0 (H:m:s:ms)","GENERIC","93.479","0.0508401606786163","1571"
"21:23:26:60 (H:m:s:ms)","GENERIC","93.647","0.05768572110496716","1555"
"21:3:26:60 (H:m:s:ms)","GENERIC","93.70400000000001","0.050538963142224655","1526"
"21:23:32:121 (H:m:s:ms)","GENERIC","93.383","0.05401525659371585","1277"
"21:3:32:121 (H:m:s:ms)","GENERIC","93.442","0.04263718826309351","1278"
"21:23:32:658 (H:m:s:ms)","OPERA","93.435","0.061379099760355695","1354"
"21:3:38:181 (H:m:s:ms)","GENERIC","62.057","0.04138795673819807","1397"
"21:23:38:181 (H:m:s:ms)","GENERIC","93.475","0.053917221421011886","1355"
"21:3:41:52 (H:m:s:ms)","AMBULANCE","62.443","0.04678764491667283","1511"
"21:3:44:242 (H:m:s:ms)","GENERIC","93.441","0.049520820688805686","1346"
"21:37:10:303 (H:m:s:ms)","GENERIC","93.362","0.02714335429509156","1296"
"21:37:4:242 (H:m:s:ms)","GENERIC","93.854","0.04265033545396853","1226"
"21:36:58:181 (H:m:s:ms)","GENERIC","93.28399999999999","0.06244602702182632","1422"
"21:36:52:121 (H:m:s:ms)","GENERIC","62.053","0.053572706488819864","1323"
"21:36:50:526 (H:m:s:ms)","AMBULANCE","62.015","0.06338735506082013","811"
"21:36:46:60 (H:m:s:ms)","GENERIC","93.274","0.05323551197759652","1461"
"21:23:40:253 (H:m:s:ms)","OPERA","93.363","0.057254440640733","1298"
"21:36:40:0 (H:m:s:ms)","GENERIC","62.033","0.03921096785339527","1553"
"21:23:44:242 (H:m:s:ms)","GENERIC","93.45","0.057697107800928515","1161"
"21:36:33:939 (H:m:s:ms)","GENERIC","93.383","0.049383974191522496","1583"
"21:3:50:303 (H:m:s:ms)","GENERIC","93.733","0.031451759503468034","1237"
"21:23:47:848 (H:m:s:ms)","OPERA","93.369","0.0600590444444858","737"
"21:36:27:878 (H:m:s:ms)","GENERIC","93.632","0.04708130517377282","1649"
"21:3:56:363 (H:m:s:ms)","GENERIC","93.35","0.03358359422379937","1251"
"21:23:50:303 (H:m:s:ms)","GENERIC","62.099","0.0415444811818953","1275"
"21:36:21:818 (H:m:s:ms)","GENERIC","93.494","0.06566792764353317","780"
"21:4:2:424 (H:m:s:ms)","GENERIC","31.013","0.023592450814401655","1053"
"21:23:55:443 (H:m:s:ms)","OPERA","93.399","0.04542610414236338","1141"
"21:36:18:947 (H:m:s:ms)","AMBULANCE","62.402","0.05502926949974254","1704"
"21:4:8:484 (H:m:s:ms)","GENERIC","93.743","0.04556592825104681","992"
"21:23:56:363 (H:m:s:ms)","GENERIC","93.29899999999999","0.05370864782835996","1209"
"21:4:12:631 (H:m:s:ms)","AMBULANCE","31.032","0.05701573927461281","978"
"21:24:2:424 (H:m:s:ms)","GENERIC","62.061","0.0352466410534361","1031"
"21:4:14:545 (H:m:s:ms)","GENERIC","62.115","0.04585596564930892","602"
"21:24:3:37 (H:m:s:ms)","OPERA","93.40299999999999","0.04541089998372482","1580"
"21:4:20:606 (H:m:s:ms)","GENERIC","93.912","0.03125606359671824","825"
"21:24:8:484 (H:m:s:ms)","GENERIC","93.70400000000001","0.03952527587209773","974"
"21:4:26:666 (H:m:s:ms)","GENERIC","62.129","0.027658947838209616","495"
"21:24:10:632 (H:m:s:ms)","OPERA","93.363","0.045918154004780234","905"
"21:4:32:727 (H:m:s:ms)","GENERIC","93.869","0.04737766725825125","404"
"21:4:38:787 (H:m:s:ms)","GENERIC","93.846","0.06292136619195167","472"
"21:38:4:848 (H:m:s:ms)","GENERIC","62.079","0.04262237284181453","739"
"21:37:58:787 (H:m:s:ms)","GENERIC","93.226","0.05155035301366322","767"
"21:37:53:684 (H:m:s:ms)","AMBULANCE","93.34700000000001","0.059284872785671086","884"
"21:37:52:727 (H:m:s:ms)","GENERIC","93.498","0.0437475912118743","864"
"21:37:46:666 (H:m:s:ms)","GENERIC","62.055","0.03162174826886711","981"
"21:37:40:606 (H:m:s:ms)","GENERIC","93.13","0.04408058072547489","905"
"21:24:14:545 (H:m:s:ms)","GENERIC","62.119","0.044269090050182716","611"
"21:24:18:227 (H:m:s:ms)","OPERA","62.363","0.03627673541209094","1367"
"21:37:34:545 (H:m:s:ms)","GENERIC","93.797","0.043177063618864565","999"
"21:4:44:210 (H:m:s:ms)","AMBULANCE","31.062","0.02566519628960836","1411"
"21:24:20:606 (H:m:s:ms)","GENERIC","62.159","0.043573531276034645","850"
"21:37:28:484 (H:m:s:ms)","GENERIC","93.493","0.034506777969311946","1167"
"21:4:44:848 (H:m:s:ms)","GENERIC","93.846","0.04734989332888795","861"
"21:24:25:822 (H:m:s:ms)","OPERA","93.363","0.03941381779272335","760"
"21:37:22:424 (H:m:s:ms)","GENERIC","93.532","0.04771034849984883","1539"
"21:4:50:909 (H:m:s:ms)","GENERIC","93.351","0.02596917456753829","1672"
"21:24:26:666 (H:m:s:ms)","GENERIC","62.131","0.03382298439092156","494"
"21:37:22:105 (H:m:s:ms)","AMBULANCE","31.037","0.041719726142435416","1344"
"21:4:56:969 (H:m:s:ms)","GENERIC","93.126","0.049740842007709174","1646"
"21:24:32:727 (H:m:s:ms)","GENERIC","62.109","0.057735026918962574","416"
"21:37:16:363 (H:m:s:ms)","GENERIC","93.482","0.030951650495653207","1259"
"21:5:3:30 (H:m:s:ms)","GENERIC","93.46600000000001","0.02949373833209085","1625"
"21:24:33:417 (H:m:s:ms)","OPERA","93.39699999999999","0.06402222760834089","1163"
"21:5:9:90 (H:m:s:ms)","GENERIC","93.463","0.02562014947387151","1505"
"21:24:38:787 (H:m:s:ms)","GENERIC","93.833","0.07289492348639423","496"
"21:5:15:151 (H:m:s:ms)","GENERIC","93.493","0.03749882436646703","1445"
"21:24:41:12 (H:m:s:ms)","OPERA","93.36099999999999","0.07697732482693466","1496"
"21:5:15:789 (H:m:s:ms)","AMBULANCE","31.029","0.055463313736411314","1424"
"21:24:44:848 (H:m:s:ms)","GENERIC","62.097","0.051876549156262296","243"
"21:5:21:212 (H:m:s:ms)","GENERIC","62.081","0.03430577714912278","1253"
"21:5:27:272 (H:m:s:ms)","GENERIC","93.504","0.02904896524934117","1072"
"21:38:59:393 (H:m:s:ms)","GENERIC","93.626","0.05113813034362419","1349"
"21:38:56:842 (H:m:s:ms)","AMBULANCE","31.029","0.05693150544622069","817"
"21:38:53:333 (H:m:s:ms)","GENERIC","62.025","0.049487165930539506","1245"
"21:38:47:272 (H:m:s:ms)","GENERIC","93.73","0.03370097682470155","1259"
"21:38:41:212 (H:m:s:ms)","GENERIC","93.29599999999999","0.04592552629653549","1094"
"21:38:35:151 (H:m:s:ms)","GENERIC","93.143","0.044213970926725715","1370"
"21:38:29:90 (H:m:s:ms)","GENERIC","62.436","0.050340485914665445","1434"
"21:24:48:607 (H:m:s:ms)","OPERA","93.40100000000001","0.044747874502502526","952"
"21:24:50:909 (H:m:s:ms)","GENERIC","93.333","0.05423357110627072","1673"
"21:5:33:333 (H:m:s:ms)","GENERIC","93.279","0.026726869056118704","1316"
"21:24:56:202 (H:m:s:ms)","OPERA","93.363","0.05656352207359979","1329"
"21:5:39:393 (H:m:s:ms)","GENERIC","93.868","0.03422471198868415","1255"
"21:24:56:969 (H:m:s:ms)","GENERIC","93.123","0.0550808214978617","2180"
"21:38:25:263 (H:m:s:ms)","AMBULANCE","31.022","0.06752270676419561","1425"
"20:45:41:772 (H:m:s:ms)","OPERA","62.364999999999995","0.06428581491958012","880"
"21:5:45:454 (H:m:s:ms)","GENERIC","62.051","0.036048611041742985","1160"
"21:25:3:30 (H:m:s:ms)","GENERIC","93.446","0.03351176308203367","1668"
"21:38:23:30 (H:m:s:ms)","GENERIC","93.215","0.058897333462785036","1464"
"20:45:45:454 (H:m:s:ms)","GENERIC","93.42","0.05113189042927887","1143"
"21:5:47:368 (H:m:s:ms)","AMBULANCE","62.455","0.06190504294587819","1236"
"21:25:3:797 (H:m:s:ms)","OPERA","93.399","0.04163497071392462","1500"
"21:38:16:969 (H:m:s:ms)","GENERIC","93.38","0.024428626348021013","1434"
"20:45:49:367 (H:m:s:ms)","OPERA","62.357","0.04250704896074354","1201"
"21:5:51:515 (H:m:s:ms)","GENERIC","93.19200000000001","0.06816048167948179","855"
"21:25:9:90 (H:m:s:ms)","GENERIC","93.486","0.015555907338091774","1532"
"21:38:10:909 (H:m:s:ms)","GENERIC","93.3","0.04345803583356532","1529"
"20:45:51:515 (H:m:s:ms)","GENERIC","62.123","0.05472833853222103","808"
"21:5:57:575 (H:m:s:ms)","GENERIC","93.289","0.030987308200289214","802"
"21:25:11:392 (H:m:s:ms)","OPERA","62.39","0.034822813502426775","1206"
"20:45:56:962 (H:m:s:ms)","OPERA","31.009","0.03657747047039881","1613"
"21:6:3:636 (H:m:s:ms)","GENERIC","93.13","0.05238683617009471","824"
"21:25:15:151 (H:m:s:ms)","GENERIC","93.601","0.0508221941239712","1381"
"20:45:57:575 (H:m:s:ms)","GENERIC","93.267","0.04536468502156614","1361"
"21:6:9:696 (H:m:s:ms)","GENERIC","62.123","0.041179362351876345","660"
"21:25:18:987 (H:m:s:ms)","OPERA","62.363","0.04766499379589754","1610"
"20:46:3:636 (H:m:s:ms)","GENERIC","93.16","0.055010087308297664","793"
"21:6:15:757 (H:m:s:ms)","GENERIC","62.091","0.035169245716584654","835"
"20:46:4:556 (H:m:s:ms)","OPERA","31.009","0.06234039822682323","1043"
"21:6:18:947 (H:m:s:ms)","AMBULANCE","31.027","0.050487071801514335","1730"
"20:46:9:696 (H:m:s:ms)","GENERIC","62.103","0.0444206164055347","643"
"20:46:12:151 (H:m:s:ms)","OPERA","31.009","0.04135325014213817","1435"
"21:40:0:0 (H:m:s:ms)","AMBULANCE","62.441","0.04569953157704029","2777"
"21:39:53:939 (H:m:s:ms)","GENERIC","93.478","0.04608286321814522","1375"
"21:39:47:878 (H:m:s:ms)","GENERIC","93.17099999999999","0.05783352916191751","1767"
"21:39:41:818 (H:m:s:ms)","GENERIC","93.457","0.05420652395329656","671"
"21:39:35:757 (H:m:s:ms)","GENERIC","93.408","0.052414964960112026","693"
"21:39:29:696 (H:m:s:ms)","GENERIC","62.083","0.06729953529068419","909"
"21:39:28:421 (H:m:s:ms)","AMBULANCE","62.36","0.06775436648467335","1278"
"21:39:23:636 (H:m:s:ms)","GENERIC","93.606","0.029374074170513003","961"
"21:25:21:212 (H:m:s:ms)","GENERIC","62.075","0.048979262142117314","1205"
"21:25:26:582 (H:m:s:ms)","OPERA","93.39699999999999","0.051274599703953865","1034"
"21:6:21:818 (H:m:s:ms)","GENERIC","62.029","0.04769462012566948","773"
"21:25:27:272 (H:m:s:ms)","GENERIC","93.518","0.04972133973117922","1042"
"21:6:27:878 (H:m:s:ms)","GENERIC","125.11500000000001","0.060368021896595986","1660"
"21:25:33:333 (H:m:s:ms)","GENERIC","93.32300000000001","0.017976235740719482","1288"
"20:46:15:757 (H:m:s:ms)","GENERIC","93.53","0.03221720568100463","831"
"21:6:33:939 (H:m:s:ms)","GENERIC","93.365","0.03386860077916628","1607"
"21:25:34:177 (H:m:s:ms)","OPERA","62.015","0.039476043929172","1423"
"20:46:19:746 (H:m:s:ms)","OPERA","31.009","0.03221720568100463","912"
"21:6:40:0 (H:m:s:ms)","GENERIC","93.447","0.03800196814487811","1576"
"21:25:39:393 (H:m:s:ms)","GENERIC","93.842","0.04885926765255565","1218"
"21:39:17:575 (H:m:s:ms)","GENERIC","62.065","0.04098579498980696","958"
"20:46:21:818 (H:m:s:ms)","GENERIC","93.406","0.05960637543770489","771"
"21:6:46:60 (H:m:s:ms)","GENERIC","62.063","0.03498676998629754","1507"
"21:25:41:772 (H:m:s:ms)","OPERA","93.363","0.04554188480414294","786"
"21:39:11:515 (H:m:s:ms)","GENERIC","62.037","0.04185268915274951","1125"
"20:46:27:341 (H:m:s:ms)","OPERA","31.008","0.03681244983134163","1275"
"21:6:50:526 (H:m:s:ms)","AMBULANCE","62.448","0.046710967509795344","1096"
"21:25:45:454 (H:m:s:ms)","GENERIC","93.456","0.04191218272974552","1123"
"21:39:5:454 (H:m:s:ms)","GENERIC","93.39699999999999","0.03475763026760552","1233"
"20:46:27:878 (H:m:s:ms)","GENERIC","93.62","0.054310475461529464","2266"
"21:6:52:121 (H:m:s:ms)","GENERIC","62.105","0.04380780384296538","1346"
"21:25:49:367 (H:m:s:ms)","OPERA","93.434","0.04679951044829914","1257"
"20:46:33:939 (H:m:s:ms)","GENERIC","93.369","0.02211712224656714","1611"
"21:6:58:181 (H:m:s:ms)","GENERIC","62.041","0.031139206890370735","1435"
"21:25:51:515 (H:m:s:ms)","GENERIC","93.19","0.05188568462763137","854"
"20:46:34:936 (H:m:s:ms)","OPERA","62.336","0.03689992149443637","2268"
"21:7:4:242 (H:m:s:ms)","GENERIC","93.856","0.048555015424504556","1225"
"20:46:40:0 (H:m:s:ms)","GENERIC","93.41900000000001","0.039664883061489145","1606"
"21:7:10:303 (H:m:s:ms)","GENERIC","93.269","0.03972584633900745","1278"
"20:46:42:531 (H:m:s:ms)","OPERA","62.391999999999996","0.0354882929591389","1127"
"20:46:46:60 (H:m:s:ms)","GENERIC","62.045","0.03723511225962838","1495"
"21:40:6:60 (H:m:s:ms)","GENERIC","93.422","0.04308347412406266","1550"
"21:40:54:545 (H:m:s:ms)","GENERIC","93.386","0.012830057197916868","1019"
"21:40:48:484 (H:m:s:ms)","GENERIC","62.063","0.04411043473686124","1044"
"21:40:42:424 (H:m:s:ms)","GENERIC","93.363","0.034168383471498365","1071"
"21:40:36:363 (H:m:s:ms)","GENERIC","93.699","0.03172482822481588","1221"
"21:40:30:303 (H:m:s:ms)","GENERIC","93.346","0.026987173750857126","1256"
"21:40:24:242 (H:m:s:ms)","GENERIC","93.135","0.03508969060452347","1064"
"21:40:18:181 (H:m:s:ms)","GENERIC","93.386","0.05383706269606683","1300"
"21:40:12:121 (H:m:s:ms)","GENERIC","93.495","0.04573936065654736","1314"
"21:7:16:363 (H:m:s:ms)","GENERIC","93.468","0.02805508090336578","1291"
"21:7:22:105 (H:m:s:ms)","AMBULANCE","31.059","0.020693978369099024","1520"
"20:46:50:126 (H:m:s:ms)","OPERA","62.355999999999995","0.04363472767661628","1519"
"21:7:22:424 (H:m:s:ms)","GENERIC","62.085","0.03213325734504392","1713"
"20:46:52:121 (H:m:s:ms)","GENERIC","93.155","0.045801301855936546","1333"
"21:7:28:484 (H:m:s:ms)","GENERIC","93.524","0.04285711749273265","1120"
"20:46:57:721 (H:m:s:ms)","OPERA","62.394999999999996","0.043634365122422136","844"
"21:7:34:545 (H:m:s:ms)","GENERIC","93.76599999999999","0.05310521661965948","995"
"20:46:58:181 (H:m:s:ms)","GENERIC","93.289","0.058878117966077115","1437"
"21:7:40:606 (H:m:s:ms)","GENERIC","93.158","0.03384582292445594","937"
"21:40:0:0 (H:m:s:ms)","GENERIC","93.85","0.07752681079877141","3513"
"20:47:4:242 (H:m:s:ms)","GENERIC","93.872","0.02898381168613207","1239"
"21:7:46:666 (H:m:s:ms)","GENERIC","93.364","0.05981686724651771","981"
"21:40:0:0 (H:m:s:ms)","GENERIC","93.657","0.06264731626242033","3350"
"20:47:5:316 (H:m:s:ms)","OPERA","31.009","0.034493268215601","1271"
"21:7:52:727 (H:m:s:ms)","GENERIC","93.54","0.03560734357906208","872"
"20:47:10:303 (H:m:s:ms)","GENERIC","93.277","0.03404837268307246","1264"
"21:7:53:684 (H:m:s:ms)","AMBULANCE","62.247","0.048446576914337826","874"
"20:47:12:911 (H:m:s:ms)","OPERA","62.333","0.046260963904133375","1623"
"21:7:58:787 (H:m:s:ms)","GENERIC","93.244","0.0542716505511201","768"
"20:47:16:363 (H:m:s:ms)","GENERIC","62.065","0.050207563584890064","1290"
"20:47:20:506 (H:m:s:ms)","OPERA","62.393","0.04252636857261173","1059"
"21:8:4:848 (H:m:s:ms)","GENERIC","93.223","0.0271672482694153","743"
"21:8:10:909 (H:m:s:ms)","GENERIC","93.338","0.03212317081899198","1531"
"20:47:22:424 (H:m:s:ms)","GENERIC","93.443","0.051843607795958556","1035"
"21:8:16:969 (H:m:s:ms)","GENERIC","62.057","0.04015508846306505","1436"
"20:47:28:101 (H:m:s:ms)","OPERA","62.333","0.019790775802102853","1555"
"21:8:23:30 (H:m:s:ms)","GENERIC","93.245","0.05803917709840818","1513"
"20:47:28:484 (H:m:s:ms)","GENERIC","93.542","0.03216518148795968","1826"
"21:8:25:263 (H:m:s:ms)","AMBULANCE","62.414","0.06283398397047049","1289"
"20:47:34:545 (H:m:s:ms)","GENERIC","93.813","0.025856780879336023","1001"
"21:8:29:90 (H:m:s:ms)","GENERIC","93.333","0.0512696789544111","1390"
"20:47:35:696 (H:m:s:ms)","OPERA","62.357","0.03983862480188833","870"
"21:8:35:151 (H:m:s:ms)","GENERIC","93.14699999999999","0.057297637405116425","1343"
"20:47:40:606 (H:m:s:ms)","GENERIC","93.224","0.06518610721005022","905"
"21:8:41:212 (H:m:s:ms)","GENERIC","93.276","0.03385223687299752","1083"
"21:41:0:606 (H:m:s:ms)","GENERIC","93.785","0.05329006316258313","971"
"20:47:46:666 (H:m:s:ms)","GENERIC","93.396","0.05743082698792748","914"
"21:8:47:272 (H:m:s:ms)","GENERIC","93.734","0.029490959046221083","1273"
"20:47:50:886 (H:m:s:ms)","OPERA","62.327","0.06396951894366058","711"
"21:8:53:333 (H:m:s:ms)","GENERIC","62.045","0.03518897413397511","1223"
"20:47:52:727 (H:m:s:ms)","GENERIC","62.059","0.04396810221581319","928"
"20:47:58:481 (H:m:s:ms)","OPERA","31.009","0.041259661977819016","1078"
"21:8:56:842 (H:m:s:ms)","AMBULANCE","31.021","0.054533655198424937","738"
"21:8:59:393 (H:m:s:ms)","GENERIC","93.614","0.05963464235107","1276"
"20:47:58:787 (H:m:s:ms)","GENERIC","93.152","0.06138114165476705","1324"
"21:9:5:454 (H:m:s:ms)","GENERIC","62.021","0.04092180027337437","1080"
"20:48:4:848 (H:m:s:ms)","GENERIC","93.229","0.016792138456618196","772"
"21:9:11:515 (H:m:s:ms)","GENERIC","93.504","0.04629252395369069","1078"
"20:30:0:0 (H:m:s:ms)","GENERIC","93.574","0.0338627676140633","1608"
"20:48:6:75 (H:m:s:ms)","OPERA","62.333","0.037879812742820686","1515"
"21:9:17:575 (H:m:s:ms)","GENERIC","93.14699999999999","0.046574661712604715","878"
"20:30:0:0 (H:m:s:ms)","GENERIC","62.133","0.05312602214687398","1772"
"20:48:10:909 (H:m:s:ms)","GENERIC","93.318","0.05505545260195719","1531"
"21:9:23:636 (H:m:s:ms)","GENERIC","93.6","0.04819617107952906","906"
"20:30:6:60 (H:m:s:ms)","GENERIC","93.377","0.07224296592731695","1522"
"20:48:13:670 (H:m:s:ms)","OPERA","62.333","0.0500084363585392","925"
"21:9:28:421 (H:m:s:ms)","AMBULANCE","31.06","0.05721257451218558","1161"
"20:30:12:121 (H:m:s:ms)","GENERIC","93.487","0.029970380244886758","1343"
"20:48:16:969 (H:m:s:ms)","GENERIC","62.045","0.04527871532080659","1437"
"21:9:29:696 (H:m:s:ms)","GENERIC","62.057","0.05161575168149421","874"
"20:30:18:181 (H:m:s:ms)","GENERIC","93.41900000000001","0.028174994988312427","1412"
"20:48:21:265 (H:m:s:ms)","OPERA","62.355999999999995","0.04617252828032581","1383"
"21:9:35:757 (H:m:s:ms)","GENERIC","93.438","0.0274138084846313","685"
"20:30:24:242 (H:m:s:ms)","GENERIC","93.10900000000001","0.05255140073824564","1065"
"20:48:23:30 (H:m:s:ms)","GENERIC","93.191","0.0462431432877463","1474"
"21:9:41:818 (H:m:s:ms)","GENERIC","93.515","0.0545822234607189","654"
"20:30:30:303 (H:m:s:ms)","GENERIC","93.356","0.042496881844548834","1235"
"20:48:28:860 (H:m:s:ms)","OPERA","31.008","0.052179226102175534","685"
"20:30:36:363 (H:m:s:ms)","GENERIC","93.69800000000001","0.028591537048013278","1265"
"20:48:29:90 (H:m:s:ms)","GENERIC","93.28","0.05146016584930251","1339"
"20:30:42:424 (H:m:s:ms)","GENERIC","93.414","0.03859976400505738","1054"
"20:30:48:484 (H:m:s:ms)","GENERIC","93.409","0.02591460735084348","1088"
"21:9:47:878 (H:m:s:ms)","GENERIC","93.13","0.04580978923000664","1764"
"21:9:53:939 (H:m:s:ms)","GENERIC","93.49","0.029593946631431126","1385"
"20:48:35:151 (H:m:s:ms)","GENERIC","93.14500000000001","0.04881790192375838","1365"
"21:10:0:0 (H:m:s:ms)","AMBULANCE","31.039","0.03713312709685885","1733"
"20:48:41:212 (H:m:s:ms)","GENERIC","93.293","0.05034708779488187","1086"
"21:10:0:0 (H:m:s:ms)","GENERIC","93.61099999999999","0.05803642446820839","2298"
"20:30:54:545 (H:m:s:ms)","GENERIC","93.408","0.025619498367609666","926"
"20:48:44:50 (H:m:s:ms)","OPERA","31.009","0.06169650552508688","1568"
"21:10:0:0 (H:m:s:ms)","GENERIC","62.165","0.07161504776752649","2461"
"20:31:0:606 (H:m:s:ms)","GENERIC","93.80799999999999","0.057758279190953846","955"
"20:48:47:272 (H:m:s:ms)","GENERIC","93.72800000000001","0.06049436963916464","1238"
"21:10:6:60 (H:m:s:ms)","GENERIC","93.422","0.07205283426282792","1448"
"20:31:6:666 (H:m:s:ms)","GENERIC","93.398","0.05266216247808812","748"
"20:48:51:645 (H:m:s:ms)","OPERA","62.391999999999996","0.052031855225016674","1010"
"21:10:12:121 (H:m:s:ms)","GENERIC","93.461","0.020982662395132037","1362"
"20:31:12:727 (H:m:s:ms)","GENERIC","62.149","0.03089509350562138","667"
"20:48:53:333 (H:m:s:ms)","GENERIC","62.035","0.04897377455102172","1225"
"21:10:18:181 (H:m:s:ms)","GENERIC","93.369","0.05411790614955748","1288"
"20:31:18:787 (H:m:s:ms)","GENERIC","93.496","0.03551822723311259","786"
"20:48:59:393 (H:m:s:ms)","GENERIC","93.667","0.027198684482663174","1339"
"21:10:24:242 (H:m:s:ms)","GENERIC","93.099","0.04324936425313982","1076"
"20:31:24:848 (H:m:s:ms)","GENERIC","93.121","0.05834518028877852","400"
"20:49:5:454 (H:m:s:ms)","GENERIC","93.456","0.04948984710136693","1084"
"21:10:30:303 (H:m:s:ms)","GENERIC","93.354","0.04452701425151437","1194"
"20:31:30:909 (H:m:s:ms)","GENERIC","93.31","0.045752864210165424","1535"
"20:49:6:835 (H:m:s:ms)","OPERA","62.366","0.0644754977787898","676"
"20:31:36:969 (H:m:s:ms)","GENERIC","93.922","0.04201899178083578","1157"
"20:49:11:515 (H:m:s:ms)","GENERIC","93.556","0.053754752774087415","1083"
"20:31:43:30 (H:m:s:ms)","GENERIC","93.706","0.03180841130284564","1558"
"20:31:49:90 (H:m:s:ms)","GENERIC","62.045","0.04650305834309933","1254"
"20:49:14:430 (H:m:s:ms)","OPERA","62.355999999999995","0.043641017600309875","1214"
"20:49:17:575 (H:m:s:ms)","GENERIC","93.237","0.04707870080599764","929"
"20:31:55:151 (H:m:s:ms)","GENERIC","93.42699999999999","0.014934230019427815","1476"
"20:49:22:25 (H:m:s:ms)","OPERA","62.393","0.05348545459641262","1508"
"20:32:1:212 (H:m:s:ms)","GENERIC","93.419","0.052344505200136546","1410"
"20:49:23:636 (H:m:s:ms)","GENERIC","93.584","0.05314708396976315","930"
"20:32:7:272 (H:m:s:ms)","GENERIC","93.798","0.05382422271798625","1336"
"20:49:29:620 (H:m:s:ms)","OPERA","62.357","0.017756009565931086","1001"
"20:32:13:333 (H:m:s:ms)","GENERIC","62.071","0.03247317050614384","1196"
"20:49:29:696 (H:m:s:ms)","GENERIC","93.141","0.046689065266330515","1444"
"20:32:19:393 (H:m:s:ms)","GENERIC","62.059","0.03601946114570572","939"
"20:49:35:757 (H:m:s:ms)","GENERIC","124.78200000000001","0.052769542143824275","676"
"20:32:25:454 (H:m:s:ms)","GENERIC","93.884","0.045897182953608645","800"
"20:49:37:215 (H:m:s:ms)","OPERA","62.391999999999996","0.058419190509039584","1401"
"20:32:31:515 (H:m:s:ms)","GENERIC","93.314","0.03490404268334519","1045"
"20:49:41:818 (H:m:s:ms)","GENERIC","93.507","0.05756172945469554","585"
"20:32:37:575 (H:m:s:ms)","GENERIC","93.249","0.040581311208918926","923"
"20:49:44:810 (H:m:s:ms)","OPERA","62.394999999999996","0.05979378069778767","783"
"20:32:43:636 (H:m:s:ms)","GENERIC","62.101","0.03173968190463488","419"
"20:32:49:696 (H:m:s:ms)","GENERIC","93.646","0.06268525402705369","775"
"20:49:47:878 (H:m:s:ms)","GENERIC","93.16300000000001","0.054610759700861496","1779"
"20:49:52:405 (H:m:s:ms)","OPERA","62.391999999999996","0.06009086511071623","1136"
"20:32:55:757 (H:m:s:ms)","GENERIC","93.19399999999999","0.0376866126339415","800"
"20:49:53:939 (H:m:s:ms)","GENERIC","62.067","0.05723566500869917","1381"
"20:33:1:818 (H:m:s:ms)","GENERIC","93.38","0.03742521652619652","819"
"20:50:0:0 (H:m:s:ms)","OPERA","62.355999999999995","0.02460080386237188","1660"
"20:33:7:878 (H:m:s:ms)","GENERIC","62.041","0.04102844541697045","1689"
"20:50:0:0 (H:m:s:ms)","GENERIC","93.578","0.045300463837756384","2211"
"20:33:13:939 (H:m:s:ms)","GENERIC","62.185","0.031497976815373856","1152"
"20:50:0:0 (H:m:s:ms)","GENERIC","62.132","0.050453115832294615","2371"
"20:33:20:0 (H:m:s:ms)","GENERIC","93.442","0.04774257397373826","1619"
"20:50:6:60 (H:m:s:ms)","GENERIC","93.388","0.05035489555423285","1495"
"20:33:26:60 (H:m:s:ms)","GENERIC","62.097","0.04255398904747192","1574"
"20:50:12:121 (H:m:s:ms)","GENERIC","93.459","0.022409867954059776","1358"
"20:33:32:121 (H:m:s:ms)","GENERIC","93.416","0.051805902692554195","1305"
"20:50:18:181 (H:m:s:ms)","GENERIC","93.352","0.04374101114206803","1414"
"20:33:38:181 (H:m:s:ms)","GENERIC","93.452","0.03631402536207745","1421"
"20:50:24:242 (H:m:s:ms)","GENERIC","93.09100000000001","0.03691533369601062","1089"
"20:33:44:242 (H:m:s:ms)","GENERIC","93.385","0.03171663015500207","1370"
"20:33:50:303 (H:m:s:ms)","GENERIC","93.75399999999999","0.046019575271617257","1266"
"20:50:30:303 (H:m:s:ms)","GENERIC","93.398","0.03472256820851854","1244"
"20:50:36:363 (H:m:s:ms)","GENERIC","93.706","0.042704039458242964","1251"
"20:33:56:363 (H:m:s:ms)","GENERIC","93.363","0.045684491183591115","1247"
"20:50:42:424 (H:m:s:ms)","GENERIC","62.049","0.04779405945660571","1048"
"20:34:2:424 (H:m:s:ms)","GENERIC","62.015","0.04983305462575342","971"
"20:50:48:484 (H:m:s:ms)","GENERIC","93.421","0.02325370981950376","1067"
"20:10:0:0 (H:m:s:ms)","GENERIC","31.077","0.03491481760335085","1188"
"20:34:8:484 (H:m:s:ms)","GENERIC","62.147","0.0423158789205119","968"
"20:50:54:545 (H:m:s:ms)","GENERIC","93.402","0.02243086286869564","967"
"20:10:0:0 (H:m:s:ms)","GENERIC","62.076","0.053785436737843514","1841"
"20:34:14:545 (H:m:s:ms)","GENERIC","62.095","0.036450740219987766","605"
"20:51:0:606 (H:m:s:ms)","GENERIC","93.893","0.05888486320878907","979"
"20:10:6:60 (H:m:s:ms)","GENERIC","62.364","0.029749324925471162","1552"
"20:34:20:606 (H:m:s:ms)","GENERIC","93.852","0.04011072463839279","883"
"20:51:6:666 (H:m:s:ms)","GENERIC","93.363","0.03982723945459624","743"
"20:10:12:121 (H:m:s:ms)","GENERIC","62.093","0.04025412132622637","1348"
"20:34:26:666 (H:m:s:ms)","GENERIC","62.125","0.03448355682345643","499"
"20:51:12:727 (H:m:s:ms)","GENERIC","62.175","0.03037561684998981","655"
"20:10:18:181 (H:m:s:ms)","GENERIC","93.42699999999999","0.03664234057100762","1442"
"20:34:32:727 (H:m:s:ms)","GENERIC","93.875","0.04430026613742466","441"
"20:51:18:787 (H:m:s:ms)","GENERIC","93.551","0.027832872861716897","786"
"20:10:24:242 (H:m:s:ms)","GENERIC","93.14500000000001","0.04198578416428506","1107"
"20:34:38:787 (H:m:s:ms)","GENERIC","93.892","0.046927522004209916","568"
"20:51:24:848 (H:m:s:ms)","GENERIC","93.141","0.054005608880350504","413"
"20:10:30:303 (H:m:s:ms)","GENERIC","93.354","0.02721335833475746","1259"
"20:34:44:848 (H:m:s:ms)","GENERIC","93.862","0.046152168721323834","246"
"20:10:36:363 (H:m:s:ms)","GENERIC","93.732","0.04418653398245067","1235"
"20:34:50:909 (H:m:s:ms)","GENERIC","93.371","0.03238604788839656","1700"
"20:10:42:424 (H:m:s:ms)","GENERIC","93.414","0.033188049833237906","1093"
"20:10:48:484 (H:m:s:ms)","GENERIC","93.383","0.036589036902147265","1050"
"20:51:30:909 (H:m:s:ms)","GENERIC","62.069","0.030859897504694225","1531"
"20:51:36:969 (H:m:s:ms)","GENERIC","93.888","0.04158165010983052","1154"
"20:34:56:969 (H:m:s:ms)","GENERIC","93.222","0.04578950473592533","1690"
"20:51:43:30 (H:m:s:ms)","GENERIC","93.633","0.054142075648468076","1543"
"20:35:3:30 (H:m:s:ms)","GENERIC","93.482","0.029285378056061878","1664"
"20:51:49:90 (H:m:s:ms)","GENERIC","62.035","0.0386836831441603","1266"
"20:10:54:545 (H:m:s:ms)","GENERIC","62.085","0.035849499495574755","932"
"20:35:9:90 (H:m:s:ms)","GENERIC","93.464","0.024893164891278675","1570"
"20:51:55:151 (H:m:s:ms)","GENERIC","93.463","0.03720762550242323","1396"
"20:11:0:606 (H:m:s:ms)","GENERIC","93.781","0.04932580943866811","982"
"20:35:15:151 (H:m:s:ms)","GENERIC","62.113","0.030813466869147047","1452"
"20:52:1:212 (H:m:s:ms)","GENERIC","93.398","0.040193307548370194","1400"
"20:11:6:666 (H:m:s:ms)","GENERIC","93.408","0.05320842570807934","749"
"20:35:21:212 (H:m:s:ms)","GENERIC","93.54599999999999","0.03875634674563892","1229"
"20:52:7:272 (H:m:s:ms)","GENERIC","93.858","0.03431285680253163","1393"
"20:11:12:727 (H:m:s:ms)","GENERIC","93.852","0.038506153486347054","613"
"20:35:27:272 (H:m:s:ms)","GENERIC","93.426","0.0433196181148792","1448"
"20:52:13:333 (H:m:s:ms)","GENERIC","124.451","0.054928155668549694","1159"
"20:11:18:787 (H:m:s:ms)","GENERIC","93.48400000000001","0.025966282335754976","789"
"20:35:33:333 (H:m:s:ms)","GENERIC","62.063","0.01724498197424921","1322"
"20:52:19:393 (H:m:s:ms)","GENERIC","62.055","0.025700874732717233","968"
"20:11:24:848 (H:m:s:ms)","GENERIC","93.103","0.052074654885529634","394"
"20:35:39:393 (H:m:s:ms)","GENERIC","62.109","0.02786012100821875","1272"
"20:52:25:454 (H:m:s:ms)","GENERIC","93.896","0.05981832768807315","794"
"20:11:30:909 (H:m:s:ms)","GENERIC","93.301","0.0217096529242888","1555"
"20:35:45:454 (H:m:s:ms)","GENERIC","93.41","0.02890171080026682","1194"
"20:11:36:969 (H:m:s:ms)","GENERIC","62.187","0.04192144328869664","1158"
"20:35:51:515 (H:m:s:ms)","GENERIC","93.115","0.0491574826425667","870"
"20:11:43:30 (H:m:s:ms)","GENERIC","93.736","0.03423987176401582","1544"
"20:11:49:90 (H:m:s:ms)","GENERIC","62.085","0.039148235801772506","1282"
"20:0:54:545 (H:m:s:ms)","GENERIC","31.039","0.036855748444654245","909"
"20:1:0:606 (H:m:s:ms)","GENERIC","31.056","0.03184384732165536","985"
"20:1:6:666 (H:m:s:ms)","GENERIC","31.05","0.034217441946079494","778"
"20:1:12:727 (H:m:s:ms)","GENERIC","31.063","0.03037561684998981","648"
"20:1:18:787 (H:m:s:ms)","GENERIC","62.522000000000006","0.033273915251370786","734"
"20:1:24:848 (H:m:s:ms)","GENERIC","62.052","0.05587416919022076","394"
"20:1:30:909 (H:m:s:ms)","GENERIC","62.304","0.03414918396646687","1533"
"20:1:36:969 (H:m:s:ms)","GENERIC","62.819","0.04339249203509048","1158"
"20:1:43:30 (H:m:s:ms)","GENERIC","62.635999999999996","0.04397713565784286","1544"
"20:1:49:90 (H:m:s:ms)","GENERIC","31.055","0.03785984374763107","1245"
"20:35:57:575 (H:m:s:ms)","GENERIC","62.071","0.023779464202065843","786"
"20:36:3:636 (H:m:s:ms)","GENERIC","93.162","0.05955036752194578","790"
"20:11:55:151 (H:m:s:ms)","GENERIC","62.029","0.024081335655068117","1474"
"20:36:9:696 (H:m:s:ms)","GENERIC","62.105","0.04108560065554607","646"
"20:12:1:212 (H:m:s:ms)","GENERIC","93.455","0.024830980963519062","1410"
"20:36:15:757 (H:m:s:ms)","GENERIC","93.575","0.03309460376421527","789"
"20:12:7:272 (H:m:s:ms)","GENERIC","93.826","0.0599186703247674","1360"
"20:36:21:818 (H:m:s:ms)","GENERIC","93.451","0.040968394599945376","731"
"20:12:13:333 (H:m:s:ms)","GENERIC","93.263","0.03833101771354823","1187"
"20:36:27:878 (H:m:s:ms)","GENERIC","93.632","0.05373262294315984","1640"
"20:12:19:393 (H:m:s:ms)","GENERIC","62.087","0.03108976064623948","943"
"20:36:33:939 (H:m:s:ms)","GENERIC","93.377","0.03422787260991643","1598"
"20:12:25:454 (H:m:s:ms)","GENERIC","93.872","0.06000531024343867","782"
"20:36:40:0 (H:m:s:ms)","GENERIC","93.41499999999999","0.03627891094797966","1613"
"20:12:31:515 (H:m:s:ms)","GENERIC","62.075","0.03912303982179782","1045"
"20:36:46:60 (H:m:s:ms)","GENERIC","93.274","0.04598907283109601","1499"
"20:12:37:575 (H:m:s:ms)","GENERIC","93.268","0.04331119374901957","972"
"20:36:52:121 (H:m:s:ms)","GENERIC","93.12","0.0281470690199955","1334"
"20:12:43:636 (H:m:s:ms)","GENERIC","62.079","0.03773690599498156","416"
"20:12:49:696 (H:m:s:ms)","GENERIC","93.566","0.0388506781663495","854"
"20:1:55:151 (H:m:s:ms)","GENERIC","62.373","0.021862845754858286","1468"
"20:2:1:212 (H:m:s:ms)","GENERIC","62.393","0.04685559303707164","1375"
"20:2:7:272 (H:m:s:ms)","GENERIC","62.808","0.053438844129787826","1363"
"20:2:13:333 (H:m:s:ms)","GENERIC","62.29600000000001","0.04423611401681838","1213"
"20:2:19:393 (H:m:s:ms)","GENERIC","31.049","0.020929084576899324","925"
"20:2:25:454 (H:m:s:ms)","GENERIC","62.809","0.0389852940378755","810"
"20:2:31:515 (H:m:s:ms)","GENERIC","62.315","0.022719239794656176","1068"
"20:2:37:575 (H:m:s:ms)","GENERIC","31.029","0.03116911300377622","947"
"20:2:43:636 (H:m:s:ms)","GENERIC","31.037","0.04760952285695232","418"
"20:2:49:696 (H:m:s:ms)","GENERIC","62.566","0.05786583915547396","788"
"20:36:58:181 (H:m:s:ms)","GENERIC","93.309","0.037523175557524095","1433"
"20:37:4:242 (H:m:s:ms)","GENERIC","93.871","0.04827350964950801","1213"
"20:12:55:757 (H:m:s:ms)","GENERIC","124.326","0.04509636209748504","774"
"20:37:10:303 (H:m:s:ms)","GENERIC","93.295","0.0344474524064391","1206"
"20:13:1:818 (H:m:s:ms)","GENERIC","93.40899999999999","0.05228706125620814","821"
"20:37:16:363 (H:m:s:ms)","GENERIC","93.602","0.05786395308824561","1229"
"20:13:7:878 (H:m:s:ms)","GENERIC","93.606","0.03436440203986094","1787"
"20:37:22:424 (H:m:s:ms)","GENERIC","62.045","0.029982033439935784","1071"
"20:13:13:939 (H:m:s:ms)","GENERIC","62.137","0.036963119502089845","1148"
"20:37:28:484 (H:m:s:ms)","GENERIC","62.107","0.025119548872087474","1175"
"20:13:20:0 (H:m:s:ms)","GENERIC","93.42999999999999","0.04279124894309336","1618"
"20:37:34:545 (H:m:s:ms)","GENERIC","93.775","0.049323763900091765","986"
"20:13:26:60 (H:m:s:ms)","GENERIC","93.643","0.05784632436009244","1517"
"20:37:40:606 (H:m:s:ms)","GENERIC","93.257","0.04102805592372961","875"
"20:13:32:121 (H:m:s:ms)","GENERIC","93.394","0.051760774447362504","1283"
"20:37:46:666 (H:m:s:ms)","GENERIC","62.384","0.04947198907923504","934"
"20:13:38:181 (H:m:s:ms)","GENERIC","62.045","0.03048122539199889","1502"
"20:37:52:727 (H:m:s:ms)","GENERIC","62.061","0.03399152928475506","929"
"20:13:44:242 (H:m:s:ms)","GENERIC","93.411","0.04170713409885882","1352"
"20:13:50:303 (H:m:s:ms)","GENERIC","93.726","0.045652428149342526","1192"
"20:2:55:757 (H:m:s:ms)","GENERIC","62.153","0.047233712265591914","773"
"20:3:1:818 (H:m:s:ms)","GENERIC","62.329","0.051488921850998653","696"
"20:3:7:878 (H:m:s:ms)","GENERIC","62.233000000000004","0.04236948696188184","678"
"20:3:13:939 (H:m:s:ms)","GENERIC","31.058","0.031497976815373856","1151"
"20:3:20:0 (H:m:s:ms)","GENERIC","62.436","0.03323488830519161","1577"
"20:3:26:60 (H:m:s:ms)","GENERIC","62.647999999999996","0.044556204702145455","1541"
"20:3:32:121 (H:m:s:ms)","GENERIC","62.376000000000005","0.0427105337574739","1283"
"20:3:38:181 (H:m:s:ms)","GENERIC","62.548","0.06410226029309884","1290"
"20:3:44:242 (H:m:s:ms)","GENERIC","62.429","0.059021961448140925","1289"
"20:3:50:303 (H:m:s:ms)","GENERIC","62.705","0.03248775811851591","1275"
"20:37:58:787 (H:m:s:ms)","GENERIC","93.124","0.052491859072769986","770"
"20:38:4:848 (H:m:s:ms)","GENERIC","93.213","0.02816408622973211","760"
"20:13:56:363 (H:m:s:ms)","GENERIC","93.293","0.053097788086258715","1170"
"20:38:10:909 (H:m:s:ms)","GENERIC","93.369","0.042630321393804266","1536"
"20:14:2:424 (H:m:s:ms)","GENERIC","93.45599999999999","0.055515400630070225","941"
"20:38:16:969 (H:m:s:ms)","GENERIC","62.037","0.03258016178825324","1441"
"20:14:8:484 (H:m:s:ms)","GENERIC","93.749","0.04785166555539367","976"
"20:38:23:30 (H:m:s:ms)","GENERIC","93.227","0.049134293582956796","1466"
"20:14:14:545 (H:m:s:ms)","GENERIC","62.115","0.02700745956694215","612"
"20:38:29:90 (H:m:s:ms)","GENERIC","93.274","0.021667212151976423","1394"
"20:14:20:606 (H:m:s:ms)","GENERIC","62.137","0.04125666332265028","853"
"20:38:35:151 (H:m:s:ms)","GENERIC","62.063","0.03441000324718653","1401"
"20:14:26:666 (H:m:s:ms)","GENERIC","93.892","0.041448850406365166","482"
"20:38:41:212 (H:m:s:ms)","GENERIC","93.28","0.035234436057012965","1091"
"20:14:32:727 (H:m:s:ms)","GENERIC","93.871","0.04660148528098738","390"
"20:38:47:272 (H:m:s:ms)","GENERIC","93.773","0.026181398598051325","1407"
"20:14:38:787 (H:m:s:ms)","GENERIC","93.91","0.06463852895240488","500"
"20:38:53:333 (H:m:s:ms)","GENERIC","93.549","0.04260623585726479","1227"
"20:14:44:848 (H:m:s:ms)","GENERIC","62.115","0.03967460238079362","243"
"20:14:50:909 (H:m:s:ms)","GENERIC","93.34899999999999","0.04488542952588893","1658"
"20:3:56:363 (H:m:s:ms)","GENERIC","62.257","0.04384896808163737","1217"
"20:4:2:424 (H:m:s:ms)","GENERIC","62.464","0.05111724144360608","951"
"20:4:8:484 (H:m:s:ms)","GENERIC","62.687","0.04315412582871264","993"
"20:4:14:545 (H:m:s:ms)","GENERIC","31.063","0.04252586358998573","594"
"20:4:20:606 (H:m:s:ms)","GENERIC","31.08","0.020507775400817902","876"
"20:4:26:666 (H:m:s:ms)","GENERIC","62.823","0.04168556955790559","481"
"20:4:32:727 (H:m:s:ms)","GENERIC","31.059","0.03382628692414865","432"
"20:4:38:787 (H:m:s:ms)","GENERIC","62.808","0.06476918906967119","519"
"20:4:44:848 (H:m:s:ms)","GENERIC","31.051","0.03946400141150675","243"
"20:4:50:909 (H:m:s:ms)","GENERIC","62.311","0.037232049614979106","1628"
"20:38:59:393 (H:m:s:ms)","GENERIC","93.574","0.05801670527712536","1233"
"20:39:5:454 (H:m:s:ms)","GENERIC","93.40299999999999","0.05807500385187701","1197"
"20:14:56:969 (H:m:s:ms)","GENERIC","93.211","0.04433326556452934","1593"
"20:39:11:515 (H:m:s:ms)","GENERIC","62.067","0.034426098822106815","1108"
"20:15:3:30 (H:m:s:ms)","GENERIC","93.471","0.044534089572454694","1570"
"20:39:17:575 (H:m:s:ms)","GENERIC","93.243","0.052271003888302955","971"
"20:15:9:90 (H:m:s:ms)","GENERIC","62.051","0.0276211891462544","1538"
"20:39:23:636 (H:m:s:ms)","GENERIC","93.506","0.019959143562563845","958"
"20:15:15:151 (H:m:s:ms)","GENERIC","93.835","0.026301553159646086","995"
"20:39:29:696 (H:m:s:ms)","GENERIC","93.127","0.03860824196443679","882"
"20:15:21:212 (H:m:s:ms)","GENERIC","93.506","0.04114263158958318","1185"
"20:39:35:757 (H:m:s:ms)","GENERIC","93.425","0.04914915260171127","692"
"20:15:27:272 (H:m:s:ms)","GENERIC","93.64","0.04574622958230507","1347"
"20:39:41:818 (H:m:s:ms)","GENERIC","93.492","0.046894742679900805","630"
"20:15:33:333 (H:m:s:ms)","GENERIC","62.047","0.03470110468942824","1263"
"20:39:47:878 (H:m:s:ms)","GENERIC","93.132","0.0467541781796825","1769"
"20:15:39:393 (H:m:s:ms)","GENERIC","62.073","0.04108420496162936","1162"
"20:39:53:939 (H:m:s:ms)","GENERIC","62.075","0.03514716433794976","1393"
"20:15:45:454 (H:m:s:ms)","GENERIC","93.41","0.02788426272958678","1148"
"20:15:51:515 (H:m:s:ms)","GENERIC","93.14","0.04354741297417013","839"
"20:4:56:969 (H:m:s:ms)","GENERIC","62.152","0.05789553503283251","1627"
"20:5:3:30 (H:m:s:ms)","GENERIC","62.444","0.03043468179129952","1613"
"20:5:9:90 (H:m:s:ms)","GENERIC","62.481","0.02483262589005421","1511"
"20:5:15:151 (H:m:s:ms)","GENERIC","31.057","0.04159472273914303","969"
"20:5:21:212 (H:m:s:ms)","GENERIC","31.034","0.03488641076767365","1210"
"20:5:27:272 (H:m:s:ms)","GENERIC","62.606","0.05774395189197268","1338"
"20:5:33:333 (H:m:s:ms)","GENERIC","62.275000000000006","0.029763502505289547","1271"
"20:5:39:393 (H:m:s:ms)","GENERIC","62.739000000000004","0.0523601744467848","1213"
"20:5:45:454 (H:m:s:ms)","GENERIC","62.394000000000005","0.02563322776448967","1147"
"20:5:51:515 (H:m:s:ms)","GENERIC","62.092","0.04008589749048455","854"
"20:15:57:575 (H:m:s:ms)","GENERIC","62.075","0.035215032824254","773"
"20:16:3:636 (H:m:s:ms)","GENERIC","93.18","0.04679709885101248","795"
"20:16:9:696 (H:m:s:ms)","GENERIC","62.121","0.04100609638415858","631"
"20:16:15:757 (H:m:s:ms)","GENERIC","62.045","0.018176883774609277","836"
"20:16:21:818 (H:m:s:ms)","GENERIC","93.476","0.04935983246018175","722"
"20:16:27:878 (H:m:s:ms)","GENERIC","62.089","0.03510979136302851","1660"
"20:16:33:939 (H:m:s:ms)","GENERIC","93.349","0.029650427774523425","1590"
"20:16:40:0 (H:m:s:ms)","GENERIC","62.073","0.05092066471139401","1509"
"20:16:46:60 (H:m:s:ms)","GENERIC","93.286","0.04599243720896266","1377"
"20:16:52:121 (H:m:s:ms)","GENERIC","93.126","0.01900314873343359","1364"
"20:5:57:575 (H:m:s:ms)","GENERIC","62.22","0.035734803619169225","771"
"20:6:3:636 (H:m:s:ms)","GENERIC","62.095","0.0370616782530269","801"
"20:6:9:696 (H:m:s:ms)","GENERIC","62.796","0.044115669422551136","614"
"20:6:15:757 (H:m:s:ms)","GENERIC","31.034","0.04097624574093865","808"
"20:6:21:818 (H:m:s:ms)","GENERIC","62.389","0.050285532927858353","719"
"20:6:27:878 (H:m:s:ms)","GENERIC","62.571","0.027276767415783033","674"
"20:6:33:939 (H:m:s:ms)","GENERIC","62.312","0.03200880312285566","1564"
"20:6:40:0 (H:m:s:ms)","GENERIC","62.382999999999996","0.044781935009096295","1479"
"20:6:46:60 (H:m:s:ms)","GENERIC","62.298","0.05323424622665986","1463"
"20:6:52:121 (H:m:s:ms)","GENERIC","31.046","0.025956248801625004","1343"
"20:16:58:181 (H:m:s:ms)","GENERIC","93.316","0.04863284326206841","1423"
"20:17:4:242 (H:m:s:ms)","GENERIC","93.846","0.044767006524344885","1206"
"20:17:10:303 (H:m:s:ms)","GENERIC","93.313","0.034152301225800895","1217"
"20:17:16:363 (H:m:s:ms)","GENERIC","93.562","0.03116591677923787","1294"
"20:17:22:424 (H:m:s:ms)","GENERIC","93.38","0.048050846915709974","1086"
"20:17:28:484 (H:m:s:ms)","GENERIC","93.523","0.030338545022379683","1133"
"20:17:34:545 (H:m:s:ms)","GENERIC","93.76400000000001","0.03968386505321429","1005"
"20:17:40:606 (H:m:s:ms)","GENERIC","62.125","0.03967460238079385","918"
"20:17:46:666 (H:m:s:ms)","GENERIC","93.628","0.04049160619410971","848"
"20:17:52:727 (H:m:s:ms)","GENERIC","62.045","0.04157287273613056","884"
"20:6:58:181 (H:m:s:ms)","GENERIC","62.278999999999996","0.03141450401950471","1413"
"20:7:4:242 (H:m:s:ms)","GENERIC","62.801","0.041605308970161195","1239"
"20:7:10:303 (H:m:s:ms)","GENERIC","62.337","0.03072181742715491","1311"
"20:7:16:363 (H:m:s:ms)","GENERIC","62.518","0.053178534143721076","1234"
"20:7:22:424 (H:m:s:ms)","GENERIC","31.017","0.04093397032576932","1061"
"20:7:28:484 (H:m:s:ms)","GENERIC","62.462","0.027599100955665652","1171"
"20:7:34:545 (H:m:s:ms)","GENERIC","62.777","0.03527710569049646","1016"
"20:7:40:606 (H:m:s:ms)","GENERIC","62.129999999999995","0.04032948683311207","878"
"20:7:46:666 (H:m:s:ms)","GENERIC","62.634","0.049951577158529076","882"
"20:7:52:727 (H:m:s:ms)","GENERIC","62.461","0.037603734986581545","817"
"20:17:58:787 (H:m:s:ms)","GENERIC","93.152","0.05769104958813984","770"
"20:18:4:848 (H:m:s:ms)","GENERIC","93.197","0.04528642740652389","775"
"20:18:10:909 (H:m:s:ms)","GENERIC","93.33200000000001","0.04345803583356532","1535"
"20:18:16:969 (H:m:s:ms)","GENERIC","93.368","0.03702986267233903","1436"
"20:18:23:30 (H:m:s:ms)","GENERIC","93.221","0.04978650095611694","1521"
"20:18:29:90 (H:m:s:ms)","GENERIC","62.041","0.032531656559434234","1397"
"20:18:35:151 (H:m:s:ms)","GENERIC","93.12","0.04432578025683079","1394"
"20:18:41:212 (H:m:s:ms)","GENERIC","93.312","0.03475157960009416","1085"
"20:18:47:272 (H:m:s:ms)","GENERIC","93.70400000000001","0.028205081017509622","1279"
"20:18:53:333 (H:m:s:ms)","GENERIC","93.555","0.06413978056454503","1172"
"20:7:58:787 (H:m:s:ms)","GENERIC","62.129999999999995","0.049147846399927954","774"
"20:8:4:848 (H:m:s:ms)","GENERIC","62.144000000000005","0.028144040756672862","747"
"20:8:10:909 (H:m:s:ms)","GENERIC","62.259","0.042879763911306094","1528"
"20:8:16:969 (H:m:s:ms)","GENERIC","31.031","0.04015508846306505","1438"
"20:8:23:30 (H:m:s:ms)","GENERIC","62.262","0.04953207529812899","1465"
"20:8:29:90 (H:m:s:ms)","GENERIC","62.283","0.043229757866874524","1372"
"20:8:35:151 (H:m:s:ms)","GENERIC","62.089","0.047302784973006655","1342"
"20:8:41:212 (H:m:s:ms)","GENERIC","62.266999999999996","0.04592552629653549","1088"
"20:8:47:272 (H:m:s:ms)","GENERIC","31.048","0.03227486121839512","1276"
"20:8:53:333 (H:m:s:ms)","GENERIC","62.595","0.05774162963719051","1300"
"20:18:59:393 (H:m:s:ms)","GENERIC","93.602","0.05235085249956625","1239"
"20:19:5:454 (H:m:s:ms)","GENERIC","62.059","0.042458463095540376","1211"
"20:19:11:515 (H:m:s:ms)","GENERIC","93.536","0.049210165672359675","1080"
"20:19:17:575 (H:m:s:ms)","GENERIC","93.18299999999999","0.03994948905924253","885"
"20:19:23:636 (H:m:s:ms)","GENERIC","62.077","0.028340354696445493","974"
"20:19:29:696 (H:m:s:ms)","GENERIC","62.101","0.034473165548649876","899"
"20:19:35:757 (H:m:s:ms)","GENERIC","93.372","0.025849920708752014","709"
"20:19:41:818 (H:m:s:ms)","GENERIC","93.44500000000001","0.05170135430396409","640"
"20:19:47:878 (H:m:s:ms)","GENERIC","62.085","0.0329772648956822","1797"
"20:19:53:939 (H:m:s:ms)","GENERIC","31.043","0.041549018225586244","1401"
"20:8:59:393 (H:m:s:ms)","GENERIC","62.589","0.04779570044742387","1311"
"20:9:5:454 (H:m:s:ms)","GENERIC","62.467","0.043996678210872935","1168"
"20:9:11:515 (H:m:s:ms)","GENERIC","62.468","0.039435171293532946","1104"
"20:9:17:575 (H:m:s:ms)","GENERIC","62.163","0.052569014038466096","998"
"20:9:23:636 (H:m:s:ms)","GENERIC","62.47","0.0295094989245737","974"
"20:9:29:696 (H:m:s:ms)","GENERIC","62.141","0.043368338242784216","896"
"20:9:35:757 (H:m:s:ms)","GENERIC","62.400999999999996","0.043351428468918006","717"
"20:9:41:818 (H:m:s:ms)","GENERIC","62.449","0.06213934704532565","607"
"20:9:47:878 (H:m:s:ms)","GENERIC","62.111999999999995","0.043849961451368366","820"
"20:9:53:939 (H:m:s:ms)","GENERIC","31.038","0.054246735692881264","1798"
"21:41:43:30 (H:m:s:ms)","GENERIC","93.672","0.03688234507916489","1536"
"21:41:36:969 (H:m:s:ms)","GENERIC","62.109","0.05228129047119373","1157"
"21:41:30:909 (H:m:s:ms)","GENERIC","93.347","0.03139677210707679","1528"
"21:41:24:848 (H:m:s:ms)","GENERIC","93.178","0.04746435370649333","372"
"21:41:18:787 (H:m:s:ms)","GENERIC","62.021","0.02325152917154967","829"
"21:41:12:727 (H:m:s:ms)","GENERIC","93.836","0.03706684432519917","613"
"21:41:6:666 (H:m:s:ms)","GENERIC","93.34299999999999","0.032601044195467624","760"
"21:42:1:212 (H:m:s:ms)","GENERIC","93.471","0.042600583530331845","1367"
"21:41:55:151 (H:m:s:ms)","GENERIC","93.417","0.017825384416503644","1465"
"21:41:49:90 (H:m:s:ms)","GENERIC","62.073","0.039148235801772506","1264"
