"time (H:m:s:ms)","type","latency","utilisation","waiting"
"21:42:25:454 (H:m:s:ms)","GENERIC","93.607","0.05087431653057445","893"
"21:42:7:272 (H:m:s:ms)","GENERIC","62.115","0.05055937104039171","900"
"21:42:1:212 (H:m:s:ms)","GENERIC","62.115","0.040019526483955306","1181"
"21:41:55:151 (H:m:s:ms)","GENERIC","93.552","0.044786904206699396","1184"
"21:41:49:90 (H:m:s:ms)","GENERIC","93.47200000000001","0.05278728251950022","1237"
"21:41:43:30 (H:m:s:ms)","GENERIC","62.061","0.0534000234082347","1330"
"21:41:36:969 (H:m:s:ms)","GENERIC","93.125","0.05252020990608318","1139"
"21:41:30:909 (H:m:s:ms)","GENERIC","93.548","0.054167794801721604","1379"
"21:41:24:848 (H:m:s:ms)","GENERIC","124.37299999999999","0.05689825575505979","453"
"21:42:19:393 (H:m:s:ms)","GENERIC","93.342","0.06136568556460676","846"
"21:42:13:333 (H:m:s:ms)","GENERIC","93.312","0.024416418025554987","963"
"21:43:32:121 (H:m:s:ms)","GENERIC","93.238","0.03230650550421398","1285"
"21:43:26:60 (H:m:s:ms)","GENERIC","93.223","0.06271242402327619","1271"
"21:43:13:939 (H:m:s:ms)","GENERIC","62.121","0.0441228865011375","1389"
"20:0:0:0 (H:m:s:ms)","GENERIC","93.146","0.053757162468111575","1858"
"21:43:7:878 (H:m:s:ms)","GENERIC","93.398","0.057054211543512166","1531"
"20:0:6:60 (H:m:s:ms)","GENERIC","31.063","0.043969298245613866","1173"
"21:43:1:818 (H:m:s:ms)","GENERIC","93.357","0.06117214593409866","549"
"20:0:12:121 (H:m:s:ms)","GENERIC","62.31","0.0454461035783386","1247"
"21:42:55:757 (H:m:s:ms)","GENERIC","124.983","0.07114378774691667","627"
"20:0:18:181 (H:m:s:ms)","GENERIC","62.515","0.06527433965912244","1158"
"21:42:49:696 (H:m:s:ms)","GENERIC","93.265","0.035192881305714616","712"
"20:0:24:242 (H:m:s:ms)","GENERIC","62.078","0.057729366606602835","1104"
"21:42:43:636 (H:m:s:ms)","GENERIC","93.165","0.05168294571030035","792"
"20:0:30:303 (H:m:s:ms)","GENERIC","62.318","0.03680054249092426","1069"
"21:42:37:575 (H:m:s:ms)","GENERIC","93.192","0.05765070830777859","729"
"20:0:36:363 (H:m:s:ms)","GENERIC","62.148","0.06412389915829818","906"
"21:42:31:515 (H:m:s:ms)","GENERIC","93.556","0.0666864900780307","845"
"20:0:42:424 (H:m:s:ms)","GENERIC","62.120999999999995","0.033222890428704445","902"
"21:10:12:121 (H:m:s:ms)","GENERIC","93.385","0.02400779350888916","1248"
"20:0:48:484 (H:m:s:ms)","GENERIC","31.032","0.053033008588991175","953"
"21:10:18:181 (H:m:s:ms)","GENERIC","93.607","0.053835427572519676","1160"
"21:10:24:242 (H:m:s:ms)","GENERIC","62.047","0.043730413451135514","1094"
"21:10:30:303 (H:m:s:ms)","GENERIC","93.482","0.041708581764486496","1064"
"21:10:36:363 (H:m:s:ms)","GENERIC","93.126","0.0624260018238195","846"
"21:10:42:424 (H:m:s:ms)","GENERIC","93.187","0.033995991814014366","899"
"21:10:48:484 (H:m:s:ms)","GENERIC","93.35300000000001","0.07060312928742818","728"
"21:10:54:545 (H:m:s:ms)","GENERIC","93.26400000000001","0.062427161612154246","831"
"21:43:20:0 (H:m:s:ms)","GENERIC","124.453","0.04594179047615391","1391"
"21:11:0:606 (H:m:s:ms)","GENERIC","62.019","0.06182486594879767","733"
"21:11:6:666 (H:m:s:ms)","GENERIC","93.185","0.04122792953665771","613"
"21:25:41:772 (H:m:s:ms)","OPERA","93.262","0.06758381653452027","674"
"21:44:38:787 (H:m:s:ms)","GENERIC","124.358","0.05252142247496309","563"
"21:44:32:727 (H:m:s:ms)","GENERIC","93.18799999999999","0.031093482865124766","552"
"21:44:26:666 (H:m:s:ms)","GENERIC","93.324","0.06585531233556578","515"
"21:44:20:606 (H:m:s:ms)","GENERIC","93.581","0.05190760844710974","541"
"21:44:14:545 (H:m:s:ms)","GENERIC","93.297","0.038689062579488134","779"
"21:44:8:484 (H:m:s:ms)","GENERIC","93.428","0.06282527402469681","834"
"21:44:2:424 (H:m:s:ms)","GENERIC","93.193","0.038920877438876074","835"
"21:43:56:363 (H:m:s:ms)","GENERIC","93.264","0.03319144627427526","1050"
"21:43:50:303 (H:m:s:ms)","GENERIC","93.507","0.052012506280735706","1045"
"21:43:44:242 (H:m:s:ms)","GENERIC","93.47","0.044892103131308106","1145"
"21:11:12:727 (H:m:s:ms)","GENERIC","93.371","0.052705973898969936","484"
"21:43:38:181 (H:m:s:ms)","GENERIC","93.366","0.038257215402393414","1210"
"21:11:18:787 (H:m:s:ms)","GENERIC","62.029","0.05061943174124054","572"
"21:11:24:848 (H:m:s:ms)","GENERIC","93.211","0.05952478369892231","477"
"21:11:30:909 (H:m:s:ms)","GENERIC","62.123","0.037941191647978594","1357"
"21:11:36:969 (H:m:s:ms)","GENERIC","93.138","0.056255264360784","1201"
"21:11:43:30 (H:m:s:ms)","GENERIC","93.381","0.053628887524988164","1356"
"21:11:49:90 (H:m:s:ms)","GENERIC","93.483","0.03911335040754438","1250"
"21:11:55:151 (H:m:s:ms)","GENERIC","93.536","0.06630120610594824","1162"
"21:12:1:212 (H:m:s:ms)","GENERIC","93.549","0.07164686227073694","1137"
"21:12:7:272 (H:m:s:ms)","GENERIC","93.673","0.05619433822911764","902"
"21:26:19:746 (H:m:s:ms)","OPERA","93.22","0.07867397821884031","625"
"21:45:45:454 (H:m:s:ms)","GENERIC","93.605","0.053068365025120204","737"
"21:26:15:757 (H:m:s:ms)","GENERIC","93.274","0.07334181970725112","457"
"21:45:39:393 (H:m:s:ms)","GENERIC","62.093","0.048510448560051385","970"
"21:45:33:333 (H:m:s:ms)","GENERIC","124.976","0.07512810264692205","1047"
"21:45:27:272 (H:m:s:ms)","GENERIC","93.488","0.0506614182019441","992"
"21:26:9:696 (H:m:s:ms)","GENERIC","93.255","0.07740241726433493","698"
"21:26:4:556 (H:m:s:ms)","OPERA","93.232","0.06724451064302983","817"
"21:45:21:212 (H:m:s:ms)","GENERIC","124.25","0.054807432179082634","1186"
"21:26:3:636 (H:m:s:ms)","GENERIC","93.46600000000001","0.055091877634781135","686"
"21:45:15:151 (H:m:s:ms)","GENERIC","124.27799999999999","0.059739913886558214","1275"
"21:25:57:575 (H:m:s:ms)","GENERIC","93.259","0.06254646790269351","1187"
"21:45:9:90 (H:m:s:ms)","GENERIC","93.334","0.05399935158041146","1359"
"21:25:56:962 (H:m:s:ms)","OPERA","93.264","0.04119707232178926","1413"
"21:45:3:30 (H:m:s:ms)","GENERIC","125.055","0.0501130775710908","1319"
"21:25:51:515 (H:m:s:ms)","GENERIC","93.41499999999999","0.06220461251598591","706"
"21:44:56:969 (H:m:s:ms)","GENERIC","62.121","0.05017922489182196","1417"
"21:12:13:333 (H:m:s:ms)","GENERIC","93.32499999999999","0.04282422433728292","922"
"21:25:49:367 (H:m:s:ms)","OPERA","93.234","0.07282268647654115","1035"
"21:44:50:909 (H:m:s:ms)","GENERIC","93.15299999999999","0.0443745423395897","1454"
"21:12:19:393 (H:m:s:ms)","GENERIC","62.331","0.06579529304723833","835"
"21:25:45:454 (H:m:s:ms)","GENERIC","62.121","0.0662760184303572","712"
"21:44:44:848 (H:m:s:ms)","GENERIC","124.831","0.06257157774935751","553"
"21:12:25:454 (H:m:s:ms)","GENERIC","93.65100000000001","0.054479879285636426","861"
"21:12:31:515 (H:m:s:ms)","GENERIC","93.546","0.0615397407494793","874"
"21:12:37:575 (H:m:s:ms)","GENERIC","93.133","0.045921467913258726","732"
"21:12:43:636 (H:m:s:ms)","GENERIC","124.255","0.048930870664807086","762"
"21:12:49:696 (H:m:s:ms)","GENERIC","62.067","0.04274642610142324","721"
"21:12:55:757 (H:m:s:ms)","GENERIC","124.971","0.07204198997244524","628"
"21:13:1:818 (H:m:s:ms)","GENERIC","93.368","0.05748423194464412","556"
"21:13:7:878 (H:m:s:ms)","GENERIC","62.037","0.03594364419970268","1559"
"21:26:12:151 (H:m:s:ms)","OPERA","62.011","0.08372012211886166","1259"
"21:26:57:721 (H:m:s:ms)","OPERA","62.233999999999995","0.06178062109940427","617"
"21:46:52:121 (H:m:s:ms)","GENERIC","62.314","0.057559085709996356","1098"
"21:26:52:121 (H:m:s:ms)","GENERIC","62.087","0.06961963040914601","1101"
"21:46:46:60 (H:m:s:ms)","GENERIC","62.051","0.04398549371127693","1278"
"21:26:50:126 (H:m:s:ms)","OPERA","93.214","0.0998080251042113","1241"
"21:46:40:0 (H:m:s:ms)","GENERIC","93.187","0.04890236287093577","1407"
"21:46:33:939 (H:m:s:ms)","GENERIC","93.191","0.05527178016622731","1324"
"21:46:27:878 (H:m:s:ms)","GENERIC","93.168","0.05461531261226308","1450"
"21:26:46:60 (H:m:s:ms)","GENERIC","93.155","0.09786985340477272","1260"
"21:26:42:531 (H:m:s:ms)","OPERA","93.218","0.077809809024623","879"
"21:26:40:0 (H:m:s:ms)","GENERIC","93.231","0.08148609859151794","1372"
"21:46:21:818 (H:m:s:ms)","GENERIC","93.397","0.0648544644509491","601"
"21:26:34:936 (H:m:s:ms)","OPERA","93.262","0.05744449982371718","1805"
"21:46:15:757 (H:m:s:ms)","GENERIC","62.057","0.03207803207373159","508"
"21:26:33:939 (H:m:s:ms)","GENERIC","93.246","0.02879928593075711","1403"
"21:46:9:696 (H:m:s:ms)","GENERIC","93.251","0.05932835772964447","698"
"21:13:13:939 (H:m:s:ms)","GENERIC","93.361","0.03572609594649177","1427"
"21:26:27:878 (H:m:s:ms)","GENERIC","93.202","0.07971794882456912","1800"
"21:46:3:636 (H:m:s:ms)","GENERIC","93.444","0.04355396444349851","686"
"21:13:20:0 (H:m:s:ms)","GENERIC","93.318","0.03943538898081654","1381"
"21:26:27:341 (H:m:s:ms)","OPERA","93.214","0.056021609398719245","1031"
"21:45:57:575 (H:m:s:ms)","GENERIC","93.269","0.03220312983642602","833"
"21:13:26:60 (H:m:s:ms)","GENERIC","93.2","0.049728237653211466","1250"
"21:26:21:818 (H:m:s:ms)","GENERIC","124.70400000000001","0.07787477256480674","594"
"21:45:51:515 (H:m:s:ms)","GENERIC","62.093","0.02551530561234696","716"
"21:13:32:121 (H:m:s:ms)","GENERIC","93.238","0.03943936212710374","1288"
"21:13:38:181 (H:m:s:ms)","GENERIC","93.618","0.05619304727967586","1107"
"21:13:44:242 (H:m:s:ms)","GENERIC","93.478","0.051596319927615465","1145"
"21:13:50:303 (H:m:s:ms)","GENERIC","93.549","0.05163277572797408","1046"
"21:13:56:363 (H:m:s:ms)","GENERIC","62.277","0.03387203363962044","1118"
"21:14:2:424 (H:m:s:ms)","GENERIC","93.173","0.045781319481430674","816"
"21:14:8:484 (H:m:s:ms)","GENERIC","93.382","0.06136757683365422","821"
"21:27:34:545 (H:m:s:ms)","GENERIC","93.606","0.037652744016558076","866"
"21:47:58:787 (H:m:s:ms)","GENERIC","93.321","0.07082957269744469","463"
"21:27:28:484 (H:m:s:ms)","GENERIC","93.392","0.0888109960434713","1292"
"21:47:52:727 (H:m:s:ms)","GENERIC","93.553","0.06502388421502756","597"
"21:27:28:101 (H:m:s:ms)","OPERA","93.29599999999999","0.054181092572879265","1308"
"21:47:46:666 (H:m:s:ms)","GENERIC","93.391","0.05696178596317848","506"
"21:27:22:424 (H:m:s:ms)","GENERIC","93.545","0.058549093499799504","786"
"21:47:40:606 (H:m:s:ms)","GENERIC","93.30199999999999","0.0583730406256671","803"
"21:47:34:545 (H:m:s:ms)","GENERIC","125.1","0.04769491235937595","861"
"21:47:28:484 (H:m:s:ms)","GENERIC","93.43299999999999","0.050097592437518865","831"
"21:27:20:506 (H:m:s:ms)","OPERA","93.259","0.08237628223937177","903"
"21:27:16:363 (H:m:s:ms)","GENERIC","93.202","0.08224765123072414","828"
"21:27:12:911 (H:m:s:ms)","OPERA","124.46000000000001","0.05669446994881982","1456"
"21:47:22:424 (H:m:s:ms)","GENERIC","62.129","0.044031742853289674","829"
"21:14:14:545 (H:m:s:ms)","GENERIC","93.324","0.07350380879604657","823"
"21:27:10:303 (H:m:s:ms)","GENERIC","93.278","0.0613251620413793","1103"
"21:47:16:363 (H:m:s:ms)","GENERIC","93.20400000000001","0.04740173725212911","861"
"21:14:20:606 (H:m:s:ms)","GENERIC","93.59700000000001","0.05893592152293275","563"
"21:27:5:316 (H:m:s:ms)","OPERA","93.237","0.06834507875407317","1089"
"21:47:10:303 (H:m:s:ms)","GENERIC","124.44","0.048224873253963255","1075"
"20:52:13:333 (H:m:s:ms)","GENERIC","62.085","0.0441228865011375","977"
"21:14:26:666 (H:m:s:ms)","GENERIC","93.362","0.06254956431120373","549"
"21:27:4:242 (H:m:s:ms)","GENERIC","62.069","0.04304046623160727","1008"
"21:47:4:242 (H:m:s:ms)","GENERIC","62.025","0.050226245499354845","997"
"20:52:19:393 (H:m:s:ms)","GENERIC","93.108","0.030252162299791573","1035"
"21:14:32:727 (H:m:s:ms)","GENERIC","62.109","0.02881048336521049","576"
"21:26:58:181 (H:m:s:ms)","GENERIC","93.255","0.051376069170288384","1193"
"21:46:58:181 (H:m:s:ms)","GENERIC","93.26","0.06723010308031528","1217"
"20:52:25:454 (H:m:s:ms)","GENERIC","93.622","0.05206508176959574","843"
"21:14:38:787 (H:m:s:ms)","GENERIC","93.223","0.05827437123941718","570"
"20:52:31:515 (H:m:s:ms)","GENERIC","125.021","0.04101285115138181","950"
"21:14:44:848 (H:m:s:ms)","GENERIC","124.915","0.055909023948846996","561"
"20:52:37:575 (H:m:s:ms)","GENERIC","93.15100000000001","0.039187161855880316","774"
"21:14:50:909 (H:m:s:ms)","GENERIC","93.174","0.031478309163616484","1489"
"20:52:43:636 (H:m:s:ms)","GENERIC","62.105","0.04563004392699109","799"
"21:14:56:969 (H:m:s:ms)","GENERIC","62.085","0.043066103894148534","1444"
"20:52:49:696 (H:m:s:ms)","GENERIC","93.255","0.02844721396794094","745"
"21:15:3:30 (H:m:s:ms)","GENERIC","93.626","0.05742542964978178","1322"
"20:52:55:757 (H:m:s:ms)","GENERIC","93.489","0.048872630490830245","650"
"21:15:9:90 (H:m:s:ms)","GENERIC","125.00999999999999","0.06977564569663801","1336"
"20:53:1:818 (H:m:s:ms)","GENERIC","93.399","0.07098195240886652","567"
"20:53:7:878 (H:m:s:ms)","GENERIC","124.64500000000001","0.06252517655272727","1532"
"21:28:10:909 (H:m:s:ms)","GENERIC","93.45700000000001","0.04749814826170634","1347"
"21:49:5:454 (H:m:s:ms)","GENERIC","93.354","0.038112489621654165","786"
"21:28:6:75 (H:m:s:ms)","OPERA","93.237","0.0684467154981209","1334"
"21:48:59:393 (H:m:s:ms)","GENERIC","93.253","0.04156372956272455","953"
"21:28:4:848 (H:m:s:ms)","GENERIC","124.641","0.058546211901612404","522"
"21:48:53:333 (H:m:s:ms)","GENERIC","124.959","0.06329432801047424","1061"
"21:27:58:787 (H:m:s:ms)","GENERIC","93.32","0.0640820921517106","980"
"21:48:47:272 (H:m:s:ms)","GENERIC","62.069","0.05118231048174774","902"
"21:27:58:481 (H:m:s:ms)","OPERA","93.22","0.04673471329526674","927"
"21:48:41:212 (H:m:s:ms)","GENERIC","62.097","0.03501242606881697","1001"
"21:48:35:151 (H:m:s:ms)","GENERIC","93.389","0.03669993644430985","1105"
"21:48:29:90 (H:m:s:ms)","GENERIC","124.41499999999999","0.06061252576650543","1380"
"21:27:52:727 (H:m:s:ms)","GENERIC","125.071","0.0774214211120218","572"
"21:15:15:151 (H:m:s:ms)","GENERIC","124.251","0.030214941768323567","1291"
"21:27:50:886 (H:m:s:ms)","OPERA","93.232","0.08344787028699509","488"
"21:15:21:212 (H:m:s:ms)","GENERIC","93.173","0.04972501625617759","1118"
"21:27:46:666 (H:m:s:ms)","GENERIC","93.419","0.07364759601159847","544"
"21:48:23:30 (H:m:s:ms)","GENERIC","93.239","0.0359945882245595","1370"
"20:53:13:939 (H:m:s:ms)","GENERIC","93.33","0.04336272143873794","1442"
"21:15:27:272 (H:m:s:ms)","GENERIC","93.49","0.05598148504083224","989"
"21:27:43:291 (H:m:s:ms)","OPERA","93.239","0.060103200830124104","1081"
"21:48:16:969 (H:m:s:ms)","GENERIC","93.344","0.06573149451817498","1229"
"20:53:20:0 (H:m:s:ms)","GENERIC","93.298","0.04202120093758858","1406"
"21:15:33:333 (H:m:s:ms)","GENERIC","124.987","0.046254129956021295","1060"
"21:27:40:606 (H:m:s:ms)","GENERIC","93.28","0.0755561320428073","761"
"21:48:10:909 (H:m:s:ms)","GENERIC","93.494","0.054477964812742787","1341"
"20:53:26:60 (H:m:s:ms)","GENERIC","93.19200000000001","0.05218578986304307","1290"
"21:15:39:393 (H:m:s:ms)","GENERIC","93.46600000000001","0.03443019670523809","983"
"21:27:35:696 (H:m:s:ms)","OPERA","93.239","0.06843143356288194","675"
"21:48:4:848 (H:m:s:ms)","GENERIC","93.271","0.03951109151746553","608"
"20:53:32:121 (H:m:s:ms)","GENERIC","62.091","0.03671431830115928","1140"
"21:15:45:454 (H:m:s:ms)","GENERIC","93.601","0.052833952857096855","735"
"20:53:38:181 (H:m:s:ms)","GENERIC","62.129","0.04257550482508823","1167"
"21:15:51:515 (H:m:s:ms)","GENERIC","62.097","0.02551530561234696","718"
"20:53:44:242 (H:m:s:ms)","GENERIC","93.503","0.04746482395250184","1157"
"21:15:57:575 (H:m:s:ms)","GENERIC","93.267","0.04350610415030112","835"
"20:53:50:303 (H:m:s:ms)","GENERIC","62.137","0.05044248650140524","1055"
"21:16:3:636 (H:m:s:ms)","GENERIC","93.47","0.03951458806273841","699"
"20:53:56:363 (H:m:s:ms)","GENERIC","93.471","0.05280010288189599","942"
"21:16:9:696 (H:m:s:ms)","GENERIC","93.21600000000001","0.04881036956521608","714"
"20:54:2:424 (H:m:s:ms)","GENERIC","62.093","0.04538416495493055","832"
"20:54:8:484 (H:m:s:ms)","GENERIC","62.047","0.05026229688182745","837"
"21:28:47:272 (H:m:s:ms)","GENERIC","62.079","0.07364158581260181","906"
"22:2:6:315 (H:m:s:ms)","AMBULANCE","62.301","0.05437216418877094","925"
"21:28:44:50 (H:m:s:ms)","OPERA","62.013","0.06558193475952961","1326"
"22:1:3:157 (H:m:s:ms)","AMBULANCE","62.318","0.06247689415563919","1053"
"21:28:41:212 (H:m:s:ms)","GENERIC","93.108","0.04932767789078984","999"
"21:50:0:0 (H:m:s:ms)","GENERIC","93.267","0.05591463992808208","1370"
"21:28:36:455 (H:m:s:ms)","OPERA","93.262","0.0542307389483438","891"
"21:49:53:939 (H:m:s:ms)","GENERIC","124.695","0.059733680298554685","1404"
"21:28:35:151 (H:m:s:ms)","GENERIC","93.40899999999999","0.04478518523079111","1095"
"21:49:47:878 (H:m:s:ms)","GENERIC","124.186","0.05471716950044363","1441"
"21:28:29:90 (H:m:s:ms)","GENERIC","93.234","0.059751004855817295","1329"
"21:49:41:818 (H:m:s:ms)","GENERIC","93.487","0.02939604491111874","469"
"21:49:35:757 (H:m:s:ms)","GENERIC","93.60499999999999","0.06169648683277918","384"
"21:49:29:696 (H:m:s:ms)","GENERIC","93.247","0.04725912386238128","551"
"21:16:15:757 (H:m:s:ms)","GENERIC","62.047","0.05270462766947316","493"
"21:16:21:818 (H:m:s:ms)","GENERIC","93.413","0.04382001326117257","573"
"21:28:28:860 (H:m:s:ms)","OPERA","93.239","0.06057199661547813","510"
"20:54:14:545 (H:m:s:ms)","GENERIC","93.336","0.07168406624316653","800"
"21:16:27:878 (H:m:s:ms)","GENERIC","93.247","0.028648861398011077","1485"
"21:28:23:30 (H:m:s:ms)","GENERIC","31.022","0.06988106266330672","1398"
"20:54:20:606 (H:m:s:ms)","GENERIC","62.151","0.05055937104039172","550"
"21:16:33:939 (H:m:s:ms)","GENERIC","93.227","0.034017245581802226","1366"
"21:28:21:265 (H:m:s:ms)","OPERA","93.218","0.08523172773110228","1139"
"21:49:23:636 (H:m:s:ms)","GENERIC","93.59100000000001","0.06154778534673441","530"
"20:54:26:666 (H:m:s:ms)","GENERIC","124.645","0.0706765550442371","524"
"21:16:40:0 (H:m:s:ms)","GENERIC","62.041","0.043179109820635476","1410"
"21:28:16:969 (H:m:s:ms)","GENERIC","124.649","0.08523172773110228","1196"
"21:49:17:575 (H:m:s:ms)","GENERIC","93.536","0.061262995863734016","826"
"20:54:32:727 (H:m:s:ms)","GENERIC","93.154","0.044016494935519575","571"
"21:16:46:60 (H:m:s:ms)","GENERIC","124.36","0.029430922197048456","1313"
"21:28:13:670 (H:m:s:ms)","OPERA","93.218","0.061450866222247","738"
"21:49:11:515 (H:m:s:ms)","GENERIC","93.357","0.028527171677978143","861"
"20:54:38:787 (H:m:s:ms)","GENERIC","93.226","0.04709920505637808","586"
"21:16:52:121 (H:m:s:ms)","GENERIC","93.135","0.04123617792533054","1105"
"20:54:44:848 (H:m:s:ms)","GENERIC","93.521","0.03556665572454679","600"
"21:16:58:181 (H:m:s:ms)","GENERIC","93.257","0.0409532531532183","1176"
"20:54:50:909 (H:m:s:ms)","GENERIC","93.22800000000001","0.02674473747445077","1491"
"21:17:4:242 (H:m:s:ms)","GENERIC","93.401","0.03968419221746283","1012"
"20:54:56:969 (H:m:s:ms)","GENERIC","93.515","0.0370838414607762","1451"
"21:17:10:303 (H:m:s:ms)","GENERIC","93.24000000000001","0.05038679149302971","1072"
"20:55:3:30 (H:m:s:ms)","GENERIC","93.57900000000001","0.051711305364657595","1349"
"20:55:9:90 (H:m:s:ms)","GENERIC","125.023","0.07032423948288644","1323"
"21:29:23:636 (H:m:s:ms)","GENERIC","93.601","0.08044905464021032","584"
"21:29:22:25 (H:m:s:ms)","OPERA","93.241","0.07396912840394522","1313"
"21:29:17:575 (H:m:s:ms)","GENERIC","62.095","0.07355542905456165","834"
"21:29:14:430 (H:m:s:ms)","OPERA","93.264","0.0657963937665207","909"
"21:29:11:515 (H:m:s:ms)","GENERIC","93.375","0.05947750584080939","820"
"21:29:6:835 (H:m:s:ms)","OPERA","93.234","0.05714215626226224","573"
"21:29:5:454 (H:m:s:ms)","GENERIC","93.372","0.03547287384480699","805"
"21:17:16:363 (H:m:s:ms)","GENERIC","93.124","0.05587519226582303","851"
"21:17:22:424 (H:m:s:ms)","GENERIC","93.542","0.06454159019034775","788"
"20:55:15:151 (H:m:s:ms)","GENERIC","93.15","0.03355629130708811","1297"
"21:17:28:484 (H:m:s:ms)","GENERIC","124.74199999999999","0.05271318008473762","860"
"20:55:21:212 (H:m:s:ms)","GENERIC","93.168","0.07076849188141007","1191"
"21:17:34:545 (H:m:s:ms)","GENERIC","125.14099999999999","0.06608783908697459","824"
"21:28:59:393 (H:m:s:ms)","GENERIC","93.23","0.07253690076039748","1360"
"20:55:27:272 (H:m:s:ms)","GENERIC","93.559","0.07072916011773647","983"
"21:17:40:606 (H:m:s:ms)","GENERIC","93.236","0.05209705347228737","802"
"21:28:59:240 (H:m:s:ms)","OPERA","62.011","0.0506461886067988","1204"
"20:55:33:333 (H:m:s:ms)","GENERIC","125.04599999999999","0.053291051669189377","1072"
"21:17:46:666 (H:m:s:ms)","GENERIC","93.417","0.05190380563402802","510"
"21:28:53:333 (H:m:s:ms)","GENERIC","93.521","0.08051225918478147","997"
"22:3:9:473 (H:m:s:ms)","AMBULANCE","31.009","0.05029664070408394","775"
"20:55:39:393 (H:m:s:ms)","GENERIC","62.071","0.03637406534559121","957"
"21:17:52:727 (H:m:s:ms)","GENERIC","93.605","0.07310630968231184","581"
"21:28:51:645 (H:m:s:ms)","OPERA","93.262","0.06413710756622683","730"
"22:2:37:894 (H:m:s:ms)","AMBULANCE","31.012","0.03610821997117539","435"
"20:55:45:454 (H:m:s:ms)","GENERIC","93.56","0.03567052548597703","729"
"21:17:58:787 (H:m:s:ms)","GENERIC","62.344","0.04340235665617718","638"
"20:55:51:515 (H:m:s:ms)","GENERIC","93.423","0.04217686210743655","709"
"21:18:4:848 (H:m:s:ms)","GENERIC","93.31700000000001","0.05420551097319028","520"
"20:55:57:575 (H:m:s:ms)","GENERIC","124.578","0.021790090070866262","829"
"21:18:10:909 (H:m:s:ms)","GENERIC","93.449","0.0474501106811359","1329"
"20:56:3:636 (H:m:s:ms)","GENERIC","93.464","0.04325189372268852","683"
"20:56:9:696 (H:m:s:ms)","GENERIC","93.184","0.06040547163345482","714"
"21:30:0:0 (H:m:s:ms)","OPERA","93.265","0.06509048932114048","1928"
"21:30:0:0 (H:m:s:ms)","AMBULANCE","31.023","0.03767589601450606","1517"
"21:29:53:939 (H:m:s:ms)","GENERIC","93.353","0.06756470488549128","1433"
"21:29:52:405 (H:m:s:ms)","OPERA","93.214","0.08602162946094069","966"
"21:29:47:878 (H:m:s:ms)","GENERIC","93.088","0.08303700101108256","1426"
"21:29:44:810 (H:m:s:ms)","OPERA","93.265","0.07341396690117229","559"
"21:29:41:818 (H:m:s:ms)","GENERIC","62.127","0.07902822681579644","469"
"21:29:37:215 (H:m:s:ms)","OPERA","93.222","0.07402870342249213","1153"
"21:18:16:969 (H:m:s:ms)","GENERIC","93.387","0.05598195221001277","1220"
"21:18:23:30 (H:m:s:ms)","GENERIC","93.30600000000001","0.04275041703142271","1416"
"20:56:15:757 (H:m:s:ms)","GENERIC","62.025","0.044642857142857345","489"
"21:18:29:90 (H:m:s:ms)","GENERIC","93.25","0.05164041182014849","1352"
"20:56:21:818 (H:m:s:ms)","GENERIC","124.739","0.06348624039712863","620"
"21:18:35:151 (H:m:s:ms)","GENERIC","93.397","0.0344360060531934","1109"
"20:40:0:0 (H:m:s:ms)","OPERA","62.233000000000004","0.040287441688887995","2009"
"20:56:27:878 (H:m:s:ms)","GENERIC","62.035","0.060092521257733365","1455"
"21:18:41:212 (H:m:s:ms)","GENERIC","62.097","0.04068854235806917","1012"
"20:40:0:0 (H:m:s:ms)","GENERIC","93.214","0.07056919202136602","2369"
"20:56:33:939 (H:m:s:ms)","GENERIC","93.203","0.019178896393669813","1431"
"21:18:47:272 (H:m:s:ms)","GENERIC","93.14699999999999","0.03292861951194487","925"
"21:29:35:757 (H:m:s:ms)","GENERIC","62.139","0.05238454566950067","470"
"20:40:0:0 (H:m:s:ms)","GENERIC","93.131","0.07889013607144271","2697"
"20:56:40:0 (H:m:s:ms)","GENERIC","93.25999999999999","0.064003322219031","1436"
"21:18:53:333 (H:m:s:ms)","GENERIC","124.991","0.06694811915622693","1030"
"21:29:29:696 (H:m:s:ms)","GENERIC","93.263","0.05851265422730997","950"
"20:40:6:60 (H:m:s:ms)","GENERIC","93.107","0.04911851322384062","1121"
"20:56:46:60 (H:m:s:ms)","GENERIC","93.219","0.04971143524070374","1269"
"21:18:59:393 (H:m:s:ms)","GENERIC","124.461","0.04102806974633132","979"
"21:29:29:620 (H:m:s:ms)","OPERA","93.265","0.03323163276732806","826"
"20:40:7:594 (H:m:s:ms)","OPERA","62.255","0.06796773369771765","810"
"20:56:52:121 (H:m:s:ms)","GENERIC","62.103","0.0506066710646929","1090"
"21:19:5:454 (H:m:s:ms)","GENERIC","93.346","0.04501293042221218","814"
"20:40:12:121 (H:m:s:ms)","GENERIC","93.418","0.0795894986536765","1197"
"20:56:58:181 (H:m:s:ms)","GENERIC","93.251","0.024801396056611438","1197"
"21:19:11:515 (H:m:s:ms)","GENERIC","93.399","0.03939132492660899","858"
"20:40:15:189 (H:m:s:ms)","OPERA","62.233999999999995","0.07255803726600489","1251"
"20:57:4:242 (H:m:s:ms)","GENERIC","93.364","0.035050903360237216","1009"
"20:40:18:181 (H:m:s:ms)","GENERIC","93.601","0.06152083445971345","1185"
"20:57:10:303 (H:m:s:ms)","GENERIC","124.449","0.05457950046127059","1087"
"20:40:24:242 (H:m:s:ms)","GENERIC","93.149","0.030955333908364333","1090"
"20:40:30:303 (H:m:s:ms)","GENERIC","62.057","0.04331047441298191","1028"
"21:30:6:60 (H:m:s:ms)","GENERIC","93.133","0.035403370161570843","1157"
"21:30:48:484 (H:m:s:ms)","GENERIC","93.394","0.0705830444264024","737"
"21:30:42:424 (H:m:s:ms)","GENERIC","93.212","0.024891040799856004","911"
"21:30:36:363 (H:m:s:ms)","GENERIC","62.045","0.07434708723870606","847"
"21:30:31:578 (H:m:s:ms)","AMBULANCE","62.293","0.06840075345370623","764"
"21:30:30:303 (H:m:s:ms)","GENERIC","124.749","0.041708435662146666","1038"
"21:30:24:242 (H:m:s:ms)","GENERIC","93.117","0.03940142346966026","1090"
"21:30:18:181 (H:m:s:ms)","GENERIC","62.191","0.06643841132959157","1136"
"21:19:17:575 (H:m:s:ms)","GENERIC","125.05","0.041609084441821896","826"
"21:30:12:121 (H:m:s:ms)","GENERIC","124.719","0.05645239726626202","1228"
"21:19:23:636 (H:m:s:ms)","GENERIC","93.631","0.06364157749679399","584"
"20:57:16:363 (H:m:s:ms)","GENERIC","93.138","0.053745671202372794","853"
"21:19:29:696 (H:m:s:ms)","GENERIC","93.267","0.04772527384179052","555"
"20:57:22:424 (H:m:s:ms)","GENERIC","62.085","0.05231334811052097","784"
"21:19:35:757 (H:m:s:ms)","GENERIC","125.09100000000001","0.07313643528400451","443"
"20:40:30:379 (H:m:s:ms)","OPERA","62.233000000000004","0.06834000507313485","1351"
"20:57:28:484 (H:m:s:ms)","GENERIC","124.71100000000001","0.07765962064226248","829"
"21:19:41:818 (H:m:s:ms)","GENERIC","93.518","0.04596588485053243","473"
"20:40:36:363 (H:m:s:ms)","GENERIC","93.13","0.06265342496575681","845"
"20:57:34:545 (H:m:s:ms)","GENERIC","125.122","0.06750689054600773","849"
"21:19:47:878 (H:m:s:ms)","GENERIC","62.075","0.03847812742495153","1474"
"20:40:37:974 (H:m:s:ms)","OPERA","62.232","0.08160284027102217","1432"
"20:57:40:606 (H:m:s:ms)","GENERIC","93.262","0.04447890667371463","802"
"21:19:53:939 (H:m:s:ms)","GENERIC","93.373","0.0589863606748104","1430"
"20:40:42:424 (H:m:s:ms)","GENERIC","93.161","0.06633172905483808","879"
"20:57:46:666 (H:m:s:ms)","GENERIC","62.059","0.044379245791181555","712"
"21:20:0:0 (H:m:s:ms)","GENERIC","31.02","0.03189521778234833","2081"
"21:30:0:0 (H:m:s:ms)","GENERIC","93.316","0.0844852966952522","2648"
"20:40:45:569 (H:m:s:ms)","OPERA","62.215","0.06111563318311333","801"
"20:57:52:727 (H:m:s:ms)","GENERIC","93.632","0.06527053731305901","577"
"21:20:0:0 (H:m:s:ms)","OPERA","93.216","0.044437355315026426","2567"
"21:30:0:0 (H:m:s:ms)","GENERIC","124.50399999999999","0.07066282299938817","2309"
"20:40:48:484 (H:m:s:ms)","GENERIC","93.36699999999999","0.08414938354118348","680"
"20:57:58:787 (H:m:s:ms)","GENERIC","62.103","0.05040577761907303","531"
"21:20:0:0 (H:m:s:ms)","GENERIC","93.293","0.06648971229422725","2886"
"20:40:53:164 (H:m:s:ms)","OPERA","62.211","0.09071696650544067","1201"
"20:58:4:848 (H:m:s:ms)","GENERIC","93.307","0.051424524078448275","533"
"20:40:54:545 (H:m:s:ms)","GENERIC","93.28","0.07677673481270325","850"
"20:58:10:909 (H:m:s:ms)","GENERIC","93.484","0.04624851112771737","1328"
"20:41:0:606 (H:m:s:ms)","GENERIC","93.259","0.04568604350827922","729"
"20:41:0:759 (H:m:s:ms)","OPERA","62.239000000000004","0.054185233722134","889"
"21:31:3:157 (H:m:s:ms)","AMBULANCE","62.259","0.07656522993133544","1207"
"21:31:0:606 (H:m:s:ms)","GENERIC","93.254","0.050147909635285266","730"
"21:31:43:30 (H:m:s:ms)","GENERIC","124.64500000000001","0.03363154467398497","1357"
"21:31:36:969 (H:m:s:ms)","GENERIC","93.117","0.06717889900918136","1216"
"21:31:34:736 (H:m:s:ms)","AMBULANCE","31.01","0.0709788525715201","478"
"21:31:30:909 (H:m:s:ms)","GENERIC","62.125","0.05045099854748045","1322"
"21:31:24:848 (H:m:s:ms)","GENERIC","93.231","0.06591886890111465","462"
"21:31:18:787 (H:m:s:ms)","GENERIC","93.319","0.05079679074305108","569"
"21:31:12:727 (H:m:s:ms)","GENERIC","93.386","0.07063625526388034","483"
"21:31:6:666 (H:m:s:ms)","GENERIC","93.167","0.07722952634897451","612"
"20:58:16:969 (H:m:s:ms)","GENERIC","93.38","0.043702984462228193","1230"
"20:58:23:30 (H:m:s:ms)","GENERIC","93.34899999999999","0.031063056001932546","1239"
"20:41:6:666 (H:m:s:ms)","GENERIC","93.18900000000001","0.04103013377365137","604"
"20:58:29:90 (H:m:s:ms)","GENERIC","124.41","0.04279503208741952","1373"
"20:41:8:354 (H:m:s:ms)","OPERA","31.008","0.06834347817699586","1019"
"20:58:35:151 (H:m:s:ms)","GENERIC","62.093","0.050136986558077454","1167"
"20:41:12:727 (H:m:s:ms)","GENERIC","93.322","0.06996681761666049","473"
"20:58:41:212 (H:m:s:ms)","GENERIC","93.124","0.03614531958518677","997"
"20:41:15:949 (H:m:s:ms)","OPERA","62.288","0.05999239369959387","1459"
"20:58:47:272 (H:m:s:ms)","GENERIC","93.161","0.051086103288523546","899"
"20:41:18:787 (H:m:s:ms)","GENERIC","93.235","0.05693708950064741","582"
"20:58:53:333 (H:m:s:ms)","GENERIC","93.578","0.05862678428228196","1033"
"20:41:23:544 (H:m:s:ms)","OPERA","93.441","0.06080663077415211","816"
"20:58:59:393 (H:m:s:ms)","GENERIC","93.20599999999999","0.036315339980962445","971"
"21:30:54:545 (H:m:s:ms)","GENERIC","93.288","0.039351593354636984","862"
"20:41:24:848 (H:m:s:ms)","GENERIC","93.229","0.08577593760292544","450"
"20:59:5:454 (H:m:s:ms)","GENERIC","93.367","0.05604198634603813","777"
"20:41:30:909 (H:m:s:ms)","GENERIC","93.556","0.027386462928679318","1378"
"20:59:11:515 (H:m:s:ms)","GENERIC","93.316","0.025900502848866927","857"
"20:41:31:139 (H:m:s:ms)","OPERA","62.259","0.03471096853957006","1551"
"20:41:36:969 (H:m:s:ms)","GENERIC","62.133","0.04146840853288208","1219"
"20:59:17:575 (H:m:s:ms)","GENERIC","62.121","0.057587555344989654","811"
"20:59:23:636 (H:m:s:ms)","GENERIC","93.63300000000001","0.05619839493705087","582"
"20:41:38:734 (H:m:s:ms)","OPERA","62.259","0.05761132790717862","664"
"20:59:29:696 (H:m:s:ms)","GENERIC","93.234","0.050899142432753786","541"
"20:41:43:30 (H:m:s:ms)","GENERIC","62.053","0.05666695832800528","1372"
"20:59:35:757 (H:m:s:ms)","GENERIC","93.657","0.07332196986053573","440"
"20:41:46:329 (H:m:s:ms)","OPERA","62.230000000000004","0.05980500394900325","1005"
"20:59:41:818 (H:m:s:ms)","GENERIC","93.524","0.058747716639136","453"
"20:41:49:90 (H:m:s:ms)","GENERIC","93.519","0.05867732741919454","1245"
"20:59:47:878 (H:m:s:ms)","GENERIC","93.172","0.04888921603362508","1441"
"20:41:53:924 (H:m:s:ms)","OPERA","62.259","0.05490800693059773","447"
"20:59:53:939 (H:m:s:ms)","GENERIC","124.731","0.059058392452443126","1404"
"20:41:55:151 (H:m:s:ms)","GENERIC","93.522","0.055553720392879084","1198"
"21:0:0:0 (H:m:s:ms)","AMBULANCE","62.281000000000006","0.05322949012006312","1859"
"20:42:1:212 (H:m:s:ms)","GENERIC","93.496","0.05823158254811329","1180"
"21:0:0:0 (H:m:s:ms)","GENERIC","93.259","0.08279936250356477","2152"
"20:42:1:518 (H:m:s:ms)","OPERA","93.454","0.08100275283192672","1315"
"21:0:0:0 (H:m:s:ms)","GENERIC","62.105","0.09084784067625624","2472"
"20:42:7:272 (H:m:s:ms)","GENERIC","93.699","0.06527280866286779","888"
"20:42:9:113 (H:m:s:ms)","OPERA","62.259","0.08700519656731548","1257"
"21:0:6:60 (H:m:s:ms)","GENERIC","93.099","0.04293550458485905","1159"
"21:0:12:121 (H:m:s:ms)","GENERIC","93.388","0.05855482183736806","1194"
"20:42:13:333 (H:m:s:ms)","GENERIC","93.326","0.07775527762920029","922"
"21:0:18:181 (H:m:s:ms)","GENERIC","93.631","0.05326910370495276","1183"
"20:42:16:708 (H:m:s:ms)","OPERA","62.259","0.06624150177007937","671"
"21:0:24:242 (H:m:s:ms)","GENERIC","62.057","0.05057560923535607","1088"
"20:20:0:0 (H:m:s:ms)","GENERIC","62.069","0.0443576606662911","1770"
"20:42:19:393 (H:m:s:ms)","GENERIC","62.079","0.06002626732094104","975"
"21:0:30:303 (H:m:s:ms)","GENERIC","124.78399999999999","0.038533900438600596","1039"
"20:20:0:0 (H:m:s:ms)","GENERIC","93.27","0.07110056397421471","2103"
"20:42:24:303 (H:m:s:ms)","OPERA","62.259","0.05684057950734275","1033"
"21:0:31:578 (H:m:s:ms)","AMBULANCE","62.245000000000005","0.05546368925576605","833"
"20:20:6:60 (H:m:s:ms)","GENERIC","62.117","0.03169011408980609","1168"
"20:42:25:454 (H:m:s:ms)","GENERIC","93.62700000000001","0.059453952661736864","835"
"21:0:36:363 (H:m:s:ms)","GENERIC","93.098","0.07120054801111748","870"
"20:20:12:121 (H:m:s:ms)","GENERIC","93.382","0.052383365692334684","1243"
"20:42:31:515 (H:m:s:ms)","GENERIC","125.018","0.046738061341981406","899"
"21:0:42:424 (H:m:s:ms)","GENERIC","93.194","0.0283643022199446","898"
"20:20:18:181 (H:m:s:ms)","GENERIC","125.054","0.04868547841884049","1157"
"20:42:31:898 (H:m:s:ms)","OPERA","31.007","0.06438690101363924","851"
"21:0:48:484 (H:m:s:ms)","GENERIC","93.315","0.06026675415715986","721"
"20:20:24:242 (H:m:s:ms)","GENERIC","93.119","0.023671754912852477","1099"
"20:42:37:575 (H:m:s:ms)","GENERIC","124.271","0.06166455421625156","750"
"21:0:54:545 (H:m:s:ms)","GENERIC","93.313","0.05417133359699931","778"
"20:20:30:303 (H:m:s:ms)","GENERIC","93.338","0.05080903384407012","1070"
"20:42:39:493 (H:m:s:ms)","OPERA","62.255","0.0692816096848846","951"
"20:20:36:363 (H:m:s:ms)","GENERIC","62.065","0.03820719251379055","878"
"20:42:43:636 (H:m:s:ms)","GENERIC","124.249","0.052759679861128436","794"
"20:20:42:424 (H:m:s:ms)","GENERIC","93.16","0.02668644863242802","911"
"20:20:48:484 (H:m:s:ms)","GENERIC","93.363","0.07056857318690046","724"
"21:1:0:606 (H:m:s:ms)","GENERIC","93.254","0.053103757646660754","728"
"21:1:3:157 (H:m:s:ms)","AMBULANCE","62.306","0.05967951911303366","1224"
"20:42:47:88 (H:m:s:ms)","OPERA","62.233999999999995","0.05648444975199133","1288"
"21:1:6:666 (H:m:s:ms)","GENERIC","93.221","0.04179034583416089","629"
"20:42:49:696 (H:m:s:ms)","GENERIC","62.232","0.05316097919655163","721"
"21:1:12:727 (H:m:s:ms)","GENERIC","93.356","0.05609716778798523","467"
"20:20:54:545 (H:m:s:ms)","GENERIC","93.34899999999999","0.041826542091837685","875"
"20:42:55:757 (H:m:s:ms)","GENERIC","93.475","0.06517039968749937","626"
"21:1:18:787 (H:m:s:ms)","GENERIC","93.233","0.048398783820112576","535"
"20:21:0:606 (H:m:s:ms)","GENERIC","62.045","0.04411270050669929","730"
"20:43:1:818 (H:m:s:ms)","GENERIC","93.40299999999999","0.05275325482994151","555"
"21:1:24:848 (H:m:s:ms)","GENERIC","124.384","0.0675114496735246","407"
"20:21:6:666 (H:m:s:ms)","GENERIC","93.147","0.04011141304562544","632"
"20:43:2:278 (H:m:s:ms)","OPERA","62.211","0.0638295163358672","1061"
"21:1:30:909 (H:m:s:ms)","GENERIC","93.572","0.031499543538031645","1385"
"20:21:12:727 (H:m:s:ms)","GENERIC","62.075","0.033951942803972","690"
"20:43:7:878 (H:m:s:ms)","GENERIC","124.638","0.08181002757626366","1535"
"21:1:34:736 (H:m:s:ms)","AMBULANCE","31.031","0.06282820162053826","652"
"20:21:18:787 (H:m:s:ms)","GENERIC","62.039","0.05043096814930753","570"
"20:43:9:873 (H:m:s:ms)","OPERA","93.486","0.09017437305985213","574"
"21:1:36:969 (H:m:s:ms)","GENERIC","62.115","0.07487918189511285","1216"
"20:21:24:848 (H:m:s:ms)","GENERIC","93.232","0.05183317505408583","486"
"20:43:13:939 (H:m:s:ms)","GENERIC","62.097","0.0575253321299619","1389"
"21:1:43:30 (H:m:s:ms)","GENERIC","93.374","0.04303023569139593","1352"
"20:21:30:909 (H:m:s:ms)","GENERIC","93.504","0.033913935587994354","1357"
"20:43:17:468 (H:m:s:ms)","OPERA","62.233000000000004","0.05791863198778022","909"
"20:21:36:969 (H:m:s:ms)","GENERIC","93.179","0.05240440345353072","1141"
"20:43:20:0 (H:m:s:ms)","GENERIC","124.44800000000001","0.04951705022111654","1393"
"20:21:43:30 (H:m:s:ms)","GENERIC","93.369","0.05914613969404748","1351"
"20:21:49:90 (H:m:s:ms)","GENERIC","93.49799999999999","0.0469945627642944","1239"
"20:43:25:63 (H:m:s:ms)","OPERA","62.242000000000004","0.06945353595713542","1310"
"20:43:26:60 (H:m:s:ms)","GENERIC","93.188","0.0781432394607586","1257"
"20:21:55:151 (H:m:s:ms)","GENERIC","93.529","0.02416738451906396","1220"
"20:43:32:121 (H:m:s:ms)","GENERIC","93.268","0.07075218389286415","1237"
"20:22:1:212 (H:m:s:ms)","GENERIC","93.524","0.0467191598010725","1156"
"20:43:32:658 (H:m:s:ms)","OPERA","62.236000000000004","0.08414541972103406","1039"
"20:22:7:272 (H:m:s:ms)","GENERIC","93.735","0.05348879420981615","902"
"20:43:38:181 (H:m:s:ms)","GENERIC","93.653","0.050706714495752626","1107"
"20:22:13:333 (H:m:s:ms)","GENERIC","62.077","0.042775735604200955","949"
"20:43:40:253 (H:m:s:ms)","OPERA","62.258","0.06403841950319658","1153"
"20:22:19:393 (H:m:s:ms)","GENERIC","62.077","0.0313745906649217","1014"
"20:43:44:242 (H:m:s:ms)","GENERIC","93.439","0.07580073316417608","1144"
"20:22:25:454 (H:m:s:ms)","GENERIC","93.595","0.055926710671331585","907"
"20:43:47:848 (H:m:s:ms)","OPERA","62.290000000000006","0.07458357836169674","568"
"20:22:31:515 (H:m:s:ms)","GENERIC","125.00399999999999","0.050287991546926085","869"
"20:43:50:303 (H:m:s:ms)","GENERIC","93.59","0.06702700366745237","1043"
"20:22:37:575 (H:m:s:ms)","GENERIC","93.162","0.07100678272582729","730"
"20:43:55:443 (H:m:s:ms)","OPERA","62.287000000000006","0.07521742357296697","930"
"20:22:43:636 (H:m:s:ms)","GENERIC","93.119","0.07215230252343631","805"
"20:22:49:696 (H:m:s:ms)","GENERIC","62.081","0.05037043031234979","604"
"20:43:56:363 (H:m:s:ms)","GENERIC","93.42099999999999","0.07421497569431208","927"
"20:44:2:424 (H:m:s:ms)","GENERIC","93.122","0.05193406707800719","823"
"20:22:55:757 (H:m:s:ms)","GENERIC","93.481","0.05614549948839768","646"
"20:44:3:37 (H:m:s:ms)","OPERA","31.008","0.06805347700846896","1336"
"20:23:1:818 (H:m:s:ms)","GENERIC","124.76599999999999","0.05187916671407808","550"
"20:44:8:484 (H:m:s:ms)","GENERIC","93.374","0.08954133923677879","846"
"20:23:7:878 (H:m:s:ms)","GENERIC","93.394","0.029290231749800548","1529"
"20:44:10:632 (H:m:s:ms)","OPERA","62.258","0.08634976709783632","810"
"20:23:13:939 (H:m:s:ms)","GENERIC","93.363","0.0432605065761015","1345"
"20:44:14:545 (H:m:s:ms)","GENERIC","93.35600000000001","0.07682298066173063","810"
"20:23:20:0 (H:m:s:ms)","GENERIC","93.208","0.041811767060567884","1394"
"20:44:18:227 (H:m:s:ms)","OPERA","62.259","0.08332881214469981","1214"
"20:23:26:60 (H:m:s:ms)","GENERIC","93.174","0.03837615207756107","1278"
"20:44:20:606 (H:m:s:ms)","GENERIC","62.149","0.07092403794795257","547"
"20:23:32:121 (H:m:s:ms)","GENERIC","93.224","0.045350647541438055","1253"
"20:44:25:822 (H:m:s:ms)","OPERA","62.228","0.06483652727657571","585"
"20:23:38:181 (H:m:s:ms)","GENERIC","93.641","0.055502800107602994","1107"
"20:44:26:666 (H:m:s:ms)","GENERIC","62.325","0.08104792766700043","525"
"20:23:44:242 (H:m:s:ms)","GENERIC","93.44","0.04291656046217621","1178"
"20:23:50:303 (H:m:s:ms)","GENERIC","93.639","0.03940990615971559","1063"
"20:44:32:727 (H:m:s:ms)","GENERIC","93.202","0.024759695816947622","571"
"20:44:33:417 (H:m:s:ms)","OPERA","62.231","0.06357094267196868","1022"
"20:23:56:363 (H:m:s:ms)","GENERIC","93.424","0.05612718425037463","926"
"20:44:38:787 (H:m:s:ms)","GENERIC","124.319","0.09765212316337542","522"
"20:24:2:424 (H:m:s:ms)","GENERIC","93.14","0.056854702202252146","831"
"20:44:41:12 (H:m:s:ms)","OPERA","62.233000000000004","0.09108143063596685","1321"
"20:24:8:484 (H:m:s:ms)","GENERIC","93.369","0.052610679592747574","849"
"20:44:44:848 (H:m:s:ms)","GENERIC","93.504","0.06503132283281764","585"
"20:24:14:545 (H:m:s:ms)","GENERIC","93.337","0.05961696057481393","781"
"20:44:48:607 (H:m:s:ms)","OPERA","31.007","0.06317005363111605","794"
"20:24:20:606 (H:m:s:ms)","GENERIC","62.141","0.03677054125358549","558"
"20:44:50:909 (H:m:s:ms)","GENERIC","93.132","0.06747859646423297","1467"
"20:24:26:666 (H:m:s:ms)","GENERIC","93.217","0.05622112654767606","692"
"20:44:56:202 (H:m:s:ms)","OPERA","62.242000000000004","0.07498001727732057","1168"
"20:24:32:727 (H:m:s:ms)","GENERIC","93.192","0.020889495928190782","573"
"20:44:56:969 (H:m:s:ms)","GENERIC","93.504","0.07731980511098832","1819"
"20:24:38:787 (H:m:s:ms)","GENERIC","124.327","0.07958228553038009","544"
"20:45:3:30 (H:m:s:ms)","GENERIC","62.117","0.0508713143628116","1346"
"20:24:44:848 (H:m:s:ms)","GENERIC","93.532","0.04035547155202812","551"
"20:24:50:909 (H:m:s:ms)","GENERIC","62.063","0.046116549210788706","1475"
"20:45:3:797 (H:m:s:ms)","OPERA","62.217","0.06808751104311839","991"
"20:45:9:90 (H:m:s:ms)","GENERIC","125.00999999999999","0.052290585228354385","1355"
"20:24:56:969 (H:m:s:ms)","GENERIC","124.955","0.06597670471175575","1383"
"20:45:11:392 (H:m:s:ms)","OPERA","62.233999999999995","0.06661746474713033","1014"
"20:25:3:30 (H:m:s:ms)","GENERIC","93.576","0.06279122546608902","1345"
"20:45:15:151 (H:m:s:ms)","GENERIC","93.163","0.07369986820135713","1283"
"20:25:9:90 (H:m:s:ms)","GENERIC","93.531","0.05194145994273976","1354"
"20:45:18:987 (H:m:s:ms)","OPERA","62.237","0.06891619951838075","1461"
"20:25:15:151 (H:m:s:ms)","GENERIC","124.321","0.04492754315051317","1289"
"20:45:21:212 (H:m:s:ms)","GENERIC","93.129","0.06279321210887681","1192"
"20:25:21:212 (H:m:s:ms)","GENERIC","93.125","0.06624135524308933","1144"
"20:45:26:582 (H:m:s:ms)","OPERA","62.214","0.07666827071723648","821"
"20:25:27:272 (H:m:s:ms)","GENERIC","93.561","0.0562270826189499","1009"
"20:45:27:272 (H:m:s:ms)","GENERIC","62.121","0.07422833533766661","1008"
"20:25:33:333 (H:m:s:ms)","GENERIC","125.034","0.08632779759319484","1039"
"20:45:33:333 (H:m:s:ms)","GENERIC","124.999","0.06371931959647464","1048"
"20:25:39:393 (H:m:s:ms)","GENERIC","124.85","0.05231304229918561","978"
"20:45:34:177 (H:m:s:ms)","OPERA","62.214","0.08693616387882708","1225"
"20:25:45:454 (H:m:s:ms)","GENERIC","62.111","0.050628794113512426","717"
"20:25:51:515 (H:m:s:ms)","GENERIC","93.449","0.021558178604737688","713"
"20:25:57:575 (H:m:s:ms)","GENERIC","93.269","0.04191252300468815","835"
"20:26:3:636 (H:m:s:ms)","GENERIC","93.43299999999999","0.06565570383144409","688"
"20:26:9:696 (H:m:s:ms)","GENERIC","93.174","0.054293721471881225","699"
"20:26:15:757 (H:m:s:ms)","GENERIC","93.213","0.03888022167501382","506"
"20:26:21:818 (H:m:s:ms)","GENERIC","93.41499999999999","0.057424222121846655","601"
"20:26:27:878 (H:m:s:ms)","GENERIC","124.378","0.07287255784810585","1389"
"20:26:33:939 (H:m:s:ms)","GENERIC","93.15","0.01822009053008975","1438"
"20:26:40:0 (H:m:s:ms)","GENERIC","124.429","0.05670259287983121","1444"
"20:26:46:60 (H:m:s:ms)","GENERIC","93.194","0.07562624733064248","1293"
"20:26:52:121 (H:m:s:ms)","GENERIC","62.065","0.04108394607386209","1109"
"20:26:58:181 (H:m:s:ms)","GENERIC","93.466","0.053841711070265814","1174"
"20:27:4:242 (H:m:s:ms)","GENERIC","93.33099999999999","0.038808708561431704","1012"
"20:27:10:303 (H:m:s:ms)","GENERIC","124.402","0.07993991077538352","1070"
"20:27:16:363 (H:m:s:ms)","GENERIC","93.16199999999999","0.056009909498518654","855"
"20:27:22:424 (H:m:s:ms)","GENERIC","93.584","0.043265711904582685","822"
"20:27:28:484 (H:m:s:ms)","GENERIC","124.75399999999999","0.06457273305424473","860"
"20:27:34:545 (H:m:s:ms)","GENERIC","93.6","0.049339375061075136","833"
"20:27:40:606 (H:m:s:ms)","GENERIC","93.291","0.05631871962292401","803"
"20:27:46:666 (H:m:s:ms)","GENERIC","93.292","0.05837950603103082","676"
"20:27:52:727 (H:m:s:ms)","GENERIC","93.614","0.054557574549162255","585"
"20:27:58:787 (H:m:s:ms)","GENERIC","93.229","0.05793961136659268","616"
"20:28:4:848 (H:m:s:ms)","GENERIC","93.406","0.03753441272673285","603"
"20:28:10:909 (H:m:s:ms)","GENERIC","93.519","0.046142525604498406","1322"
"20:28:16:969 (H:m:s:ms)","GENERIC","93.34","0.07065563271848918","1231"
"20:28:23:30 (H:m:s:ms)","GENERIC","93.402","0.04794228080358141","1231"
"20:28:29:90 (H:m:s:ms)","GENERIC","93.267","0.043955754593454806","1355"
"20:28:35:151 (H:m:s:ms)","GENERIC","93.337","0.06294937612023448","1262"
"20:28:41:212 (H:m:s:ms)","GENERIC","93.148","0.025201013622329526","1012"
"20:28:47:272 (H:m:s:ms)","GENERIC","62.079","0.050871314362811844","903"
"20:28:53:333 (H:m:s:ms)","GENERIC","124.965","0.05129992973247018","1035"
"20:28:59:393 (H:m:s:ms)","GENERIC","124.418","0.05778937186548035","952"
"20:29:5:454 (H:m:s:ms)","GENERIC","93.373","0.05453693202912055","782"
"20:29:11:515 (H:m:s:ms)","GENERIC","124.572","0.026033240697178685","857"
"20:29:17:575 (H:m:s:ms)","GENERIC","93.59100000000001","0.042428239044120214","836"
"20:29:23:636 (H:m:s:ms)","GENERIC","125.14","0.08023931077703571","554"
"20:29:29:696 (H:m:s:ms)","GENERIC","93.245","0.04176965049336999","567"
"20:29:35:757 (H:m:s:ms)","GENERIC","125.155","0.07131424962534846","435"
"20:29:41:818 (H:m:s:ms)","GENERIC","93.508","0.03736716185308234","483"
"20:29:47:878 (H:m:s:ms)","GENERIC","93.155","0.05441205490294198","1443"
"20:29:53:939 (H:m:s:ms)","GENERIC","93.437","0.057991053312706334","1409"
"22:10:0:0 (H:m:s:ms)","AMBULANCE","62.269000000000005","0.06017918393388746","1270"
"22:5:15:789 (H:m:s:ms)","AMBULANCE","93.602","0.055928987409617686","444"
"21:20:6:60 (H:m:s:ms)","GENERIC","93.11500000000001","0.02786502776716495","1175"
"21:20:7:594 (H:m:s:ms)","OPERA","93.291","0.06556795927285841","834"
"21:20:12:121 (H:m:s:ms)","GENERIC","93.356","0.06877053377243932","1271"
"21:20:15:189 (H:m:s:ms)","OPERA","93.263","0.05386268133446345","1277"
"21:20:18:181 (H:m:s:ms)","GENERIC","125.09700000000001","0.08259114765135106","1153"
"21:20:22:784 (H:m:s:ms)","OPERA","62.217","0.07932696445665434","580"
"21:20:24:242 (H:m:s:ms)","GENERIC","93.13300000000001","0.05397830765855843","1104"
"21:20:30:303 (H:m:s:ms)","GENERIC","62.137","0.04303479386426825","1053"
"21:20:30:379 (H:m:s:ms)","OPERA","93.232","0.05645913131284929","1416"
"21:20:36:363 (H:m:s:ms)","GENERIC","62.035","0.050942923351720786","856"
"21:20:37:974 (H:m:s:ms)","OPERA","93.265","0.06436366365202315","1419"
"21:20:42:424 (H:m:s:ms)","GENERIC","93.205","0.04764289825556051","925"
"21:20:45:569 (H:m:s:ms)","OPERA","124.54599999999999","0.037188175758553134","863"
"21:20:48:484 (H:m:s:ms)","GENERIC","93.372","0.055794866011810815","718"
"21:20:53:164 (H:m:s:ms)","OPERA","93.262","0.056644761760306805","1227"
"21:20:54:545 (H:m:s:ms)","GENERIC","62.065","0.052813635554728046","889"
"21:21:0:606 (H:m:s:ms)","GENERIC","62.013","0.05163809868897472","741"
"21:21:0:759 (H:m:s:ms)","OPERA","124.49000000000001","0.07008308767928295","970"
"21:21:6:666 (H:m:s:ms)","GENERIC","62.121","0.04326852820330088","616"
"21:21:8:354 (H:m:s:ms)","OPERA","93.259","0.07042449956700209","1030"
"21:32:37:894 (H:m:s:ms)","AMBULANCE","31.014","0.0783868897266751","771"
"21:32:25:454 (H:m:s:ms)","GENERIC","93.60300000000001","0.050791991615140364","826"
"21:32:19:393 (H:m:s:ms)","GENERIC","93.384","0.05180787843768687","853"
"21:32:13:333 (H:m:s:ms)","GENERIC","62.037","0.055901699437494894","967"
"21:32:7:272 (H:m:s:ms)","GENERIC","93.64099999999999","0.07189722250911","891"
"21:32:6:315 (H:m:s:ms)","AMBULANCE","62.256","0.03912153145441997","1042"
"21:32:1:212 (H:m:s:ms)","GENERIC","93.584","0.024457811648412056","1201"
"21:31:55:151 (H:m:s:ms)","GENERIC","93.582","0.057628955702998946","1189"
"21:21:12:727 (H:m:s:ms)","GENERIC","93.36","0.08966526016825996","481"
"21:31:49:90 (H:m:s:ms)","GENERIC","93.419","0.0455687055928382","1243"
"21:21:15:949 (H:m:s:ms)","OPERA","93.214","0.08157783249906146","1469"
"21:21:18:787 (H:m:s:ms)","GENERIC","93.28099999999999","0.05870791625707564","590"
"21:21:23:544 (H:m:s:ms)","OPERA","93.262","0.06092574539086511","851"
"21:21:24:848 (H:m:s:ms)","GENERIC","93.164","0.07068739990943894","484"
"21:21:30:909 (H:m:s:ms)","GENERIC","93.551","0.04020769288713375","1357"
"21:21:31:139 (H:m:s:ms)","OPERA","93.264","0.06372556691660604","1533"
"21:21:36:969 (H:m:s:ms)","GENERIC","93.12700000000001","0.050181906313595134","1176"
"21:32:37:575 (H:m:s:ms)","GENERIC","93.19200000000001","0.06264587518329015","709"
"21:21:38:734 (H:m:s:ms)","OPERA","93.237","0.0637034892208442","674"
"21:32:31:515 (H:m:s:ms)","GENERIC","125.04499999999999","0.057642399099419164","898"
"21:21:43:30 (H:m:s:ms)","GENERIC","124.634","0.052533270137204865","1357"
"21:33:38:181 (H:m:s:ms)","GENERIC","62.336","0.07207737274684582","1202"
"21:33:32:121 (H:m:s:ms)","GENERIC","93.24","0.05239649850233685","1286"
"21:33:20:0 (H:m:s:ms)","GENERIC","93.247","0.03463642280806995","1396"
"21:33:13:939 (H:m:s:ms)","GENERIC","93.416","0.05175760451043551","1392"
"21:33:9:473 (H:m:s:ms)","AMBULANCE","62.285","0.077037558428328","955"
"21:33:7:878 (H:m:s:ms)","GENERIC","93.34899999999999","0.05033463351265902","1530"
"21:33:1:818 (H:m:s:ms)","GENERIC","62.045","0.05062879411351252","555"
"21:32:55:757 (H:m:s:ms)","GENERIC","93.588","0.05554370576967416","639"
"21:21:46:329 (H:m:s:ms)","OPERA","93.212","0.05517679594603082","1083"
"21:32:49:696 (H:m:s:ms)","GENERIC","93.287","0.03451536891397763","719"
"21:21:49:90 (H:m:s:ms)","GENERIC","93.461","0.0541061909875787","1244"
"21:32:43:636 (H:m:s:ms)","GENERIC","93.13","0.031720755040917974","795"
"21:21:53:924 (H:m:s:ms)","OPERA","93.237","0.0486127267894243","1492"
"21:21:55:151 (H:m:s:ms)","GENERIC","93.545","0.05044360240041654","1221"
"21:22:1:212 (H:m:s:ms)","GENERIC","93.55799999999999","0.044691502570511674","1179"
"21:22:1:518 (H:m:s:ms)","OPERA","93.212","0.067184201443832","1281"
"21:22:7:272 (H:m:s:ms)","GENERIC","62.141","0.05055937104039171","903"
"21:22:9:113 (H:m:s:ms)","OPERA","93.262","0.07473682802356203","1328"
"21:22:13:333 (H:m:s:ms)","GENERIC","93.28399999999999","0.059308561429022924","997"
"21:22:16:708 (H:m:s:ms)","OPERA","93.216","0.051033376745486914","749"
"21:33:26:60 (H:m:s:ms)","GENERIC","93.184","0.05073346838713612","1275"
"21:34:32:727 (H:m:s:ms)","GENERIC","93.215","0.029854854425686212","550"
"21:34:26:666 (H:m:s:ms)","GENERIC","93.318","0.03805220001131794","547"
"21:34:20:606 (H:m:s:ms)","GENERIC","93.61","0.04735353938892322","546"
"21:34:14:545 (H:m:s:ms)","GENERIC","93.302","0.08286304937303547","797"
"21:34:12:631 (H:m:s:ms)","AMBULANCE","62.274","0.07716432936228047","674"
"21:34:8:484 (H:m:s:ms)","GENERIC","124.688","0.055947391950645964","837"
"21:34:2:424 (H:m:s:ms)","GENERIC","93.205","0.036386187681890274","846"
"21:33:56:363 (H:m:s:ms)","GENERIC","62.025","0.04841282529343401","1064"
"21:22:19:393 (H:m:s:ms)","GENERIC","124.672","0.06669153653508297","886"
"21:33:50:303 (H:m:s:ms)","GENERIC","93.541","0.04778800002442253","1037"
"21:22:24:303 (H:m:s:ms)","OPERA","124.46000000000001","0.07583141715218787","1140"
"21:33:44:242 (H:m:s:ms)","GENERIC","93.508","0.058326083840567755","1144"
"21:1:49:90 (H:m:s:ms)","GENERIC","93.507","0.03977450770932951","1243"
"21:22:25:454 (H:m:s:ms)","GENERIC","93.642","0.0918457516711494","865"
"21:33:41:52 (H:m:s:ms)","AMBULANCE","62.272999999999996","0.07697995015207279","1356"
"21:1:55:151 (H:m:s:ms)","GENERIC","93.512","0.0456098699861118","1201"
"21:22:31:515 (H:m:s:ms)","GENERIC","93.589","0.08432946662239652","1319"
"21:2:1:212 (H:m:s:ms)","GENERIC","93.532","0.03179336375382137","1186"
"21:22:31:898 (H:m:s:ms)","OPERA","93.238","0.06247242883653895","542"
"21:2:6:315 (H:m:s:ms)","AMBULANCE","62.266000000000005","0.053781910382808246","1056"
"21:22:37:575 (H:m:s:ms)","GENERIC","124.18100000000001","0.056422105874741044","736"
"21:2:7:272 (H:m:s:ms)","GENERIC","93.667","0.0706735409619078","899"
"21:22:39:493 (H:m:s:ms)","OPERA","93.237","0.07183378548801998","987"
"21:2:13:333 (H:m:s:ms)","GENERIC","93.33500000000001","0.04348466336660334","946"
"21:22:43:636 (H:m:s:ms)","GENERIC","93.148","0.06740333314220712","856"
"21:2:19:393 (H:m:s:ms)","GENERIC","93.28","0.03469251333992684","1083"
"21:22:47:88 (H:m:s:ms)","OPERA","93.265","0.06814707720348359","1294"
"21:2:25:454 (H:m:s:ms)","GENERIC","93.65899999999999","0.050586873357436946","869"
"21:22:49:696 (H:m:s:ms)","GENERIC","93.27600000000001","0.06319963989472796","767"
"21:2:31:515 (H:m:s:ms)","GENERIC","93.53","0.05158854213110106","875"
"21:2:37:575 (H:m:s:ms)","GENERIC","93.133","0.046147061334772754","732"
"21:35:33:333 (H:m:s:ms)","GENERIC","93.51400000000001","0.0611598160824101","1047"
"21:35:27:272 (H:m:s:ms)","GENERIC","93.509","0.053398205336526824","1001"
"21:35:21:212 (H:m:s:ms)","GENERIC","124.23599999999999","0.037627297919020565","1197"
"21:35:15:789 (H:m:s:ms)","AMBULANCE","62.26","0.07270957801769387","1033"
"21:35:15:151 (H:m:s:ms)","GENERIC","93.131","0.04129667202139841","1284"
"21:35:9:90 (H:m:s:ms)","GENERIC","124.999","0.07034020879070704","1317"
"21:35:3:30 (H:m:s:ms)","GENERIC","93.56099999999999","0.04255608966314144","1376"
"21:22:54:683 (H:m:s:ms)","OPERA","62.233000000000004","0.06520394308634432","775"
"21:34:56:969 (H:m:s:ms)","GENERIC","93.533","0.05464065749806387","1410"
"21:22:55:757 (H:m:s:ms)","GENERIC","93.551","0.07452693907251284","640"
"21:34:50:909 (H:m:s:ms)","GENERIC","93.146","0.05200996938589682","1486"
"21:2:37:894 (H:m:s:ms)","AMBULANCE","62.269000000000005","0.05968856878678416","790"
"21:23:1:818 (H:m:s:ms)","GENERIC","93.412","0.0455687055928382","555"
"21:34:44:848 (H:m:s:ms)","GENERIC","93.43","0.028464555460926712","597"
"21:2:43:636 (H:m:s:ms)","GENERIC","124.328","0.04938812925828638","789"
"21:23:2:278 (H:m:s:ms)","OPERA","124.43700000000001","0.0728873042433207","1125"
"21:34:38:787 (H:m:s:ms)","GENERIC","93.236","0.06227009953110615","559"
"21:2:49:696 (H:m:s:ms)","GENERIC","124.479","0.05454928998687364","720"
"21:23:7:878 (H:m:s:ms)","GENERIC","93.31700000000001","0.06621071774191871","1510"
"21:2:55:757 (H:m:s:ms)","GENERIC","93.509","0.06502037735593501","609"
"21:23:9:873 (H:m:s:ms)","OPERA","93.234","0.08441284623375457","576"
"21:3:1:818 (H:m:s:ms)","GENERIC","93.389","0.06731957265099721","549"
"21:23:13:939 (H:m:s:ms)","GENERIC","93.35","0.07523601163175953","1348"
"21:3:7:878 (H:m:s:ms)","GENERIC","62.047","0.05090845154895926","1483"
"21:23:17:468 (H:m:s:ms)","OPERA","93.216","0.06975218757946036","874"
"21:3:9:473 (H:m:s:ms)","AMBULANCE","62.26","0.0628322776200653","978"
"21:23:20:0 (H:m:s:ms)","GENERIC","93.251","0.054247846455233784","1375"
"21:3:13:939 (H:m:s:ms)","GENERIC","93.38","0.07497420767712105","1387"
"21:23:25:63 (H:m:s:ms)","OPERA","93.222","0.05615364574144606","1315"
"21:3:20:0 (H:m:s:ms)","GENERIC","62.075","0.04421317583462448","1384"
"21:3:26:60 (H:m:s:ms)","GENERIC","93.22","0.05600145077508439","1272"
"21:36:27:878 (H:m:s:ms)","GENERIC","93.226","0.059748026595509866","1488"
"21:36:21:818 (H:m:s:ms)","GENERIC","124.75","0.0812267581899999","598"
"21:36:18:947 (H:m:s:ms)","AMBULANCE","31.008","0.06704623048490836","1276"
"21:36:15:757 (H:m:s:ms)","GENERIC","93.249","0.04439726195525058","472"
"21:36:9:696 (H:m:s:ms)","GENERIC","93.24000000000001","0.06121529145726614","672"
"21:36:3:636 (H:m:s:ms)","GENERIC","93.448","0.03879649180359104","695"
"21:23:26:60 (H:m:s:ms)","GENERIC","93.196","0.053468929204973224","1283"
"21:35:57:575 (H:m:s:ms)","GENERIC","124.459","0.03582773858100425","828"
"21:23:32:121 (H:m:s:ms)","GENERIC","93.269","0.050402926210526444","1292"
"21:35:51:515 (H:m:s:ms)","GENERIC","62.089","0.07984053147171168","713"
"21:3:32:121 (H:m:s:ms)","GENERIC","31.03","0.029699628746922276","1330"
"21:23:32:658 (H:m:s:ms)","OPERA","124.49","0.0696272903582015","1145"
"21:35:47:368 (H:m:s:ms)","AMBULANCE","62.318","0.08296060327774081","814"
"21:3:38:181 (H:m:s:ms)","GENERIC","62.119","0.05099019513592785","1126"
"21:23:38:181 (H:m:s:ms)","GENERIC","93.389","0.06988829620310036","1143"
"21:35:45:454 (H:m:s:ms)","GENERIC","62.121","0.04401336621215698","700"
"21:3:41:52 (H:m:s:ms)","AMBULANCE","62.260999999999996","0.06761664452322104","1361"
"21:23:40:253 (H:m:s:ms)","OPERA","93.264","0.07531487331558885","1126"
"21:35:39:393 (H:m:s:ms)","GENERIC","93.498","0.054616553287874174","954"
"21:3:44:242 (H:m:s:ms)","GENERIC","93.489","0.05926426035980302","1172"
"21:23:44:242 (H:m:s:ms)","GENERIC","93.513","0.0633811273535984","1145"
"21:3:50:303 (H:m:s:ms)","GENERIC","93.59700000000001","0.052931571193951865","1065"
"21:23:47:848 (H:m:s:ms)","OPERA","62.013","0.06799971812473012","571"
"21:3:56:363 (H:m:s:ms)","GENERIC","62.055","0.02927573992225773","1060"
"21:23:50:303 (H:m:s:ms)","GENERIC","124.949","0.059651368409668296","1048"
"21:4:2:424 (H:m:s:ms)","GENERIC","62.103","0.03890071281851218","829"
"21:23:55:443 (H:m:s:ms)","OPERA","93.239","0.06963701821221092","935"
"21:4:8:484 (H:m:s:ms)","GENERIC","124.644","0.052506019553314506","829"
"21:23:56:363 (H:m:s:ms)","GENERIC","93.318","0.06452004609059214","1043"
"21:4:12:631 (H:m:s:ms)","AMBULANCE","31.044","0.0643742729922235","747"
"21:4:14:545 (H:m:s:ms)","GENERIC","93.35000000000001","0.06639804034290753","816"
"21:37:22:424 (H:m:s:ms)","GENERIC","93.614","0.06091802285843186","1230"
"21:37:22:105 (H:m:s:ms)","AMBULANCE","62.257","0.04575824063970809","1329"
"21:37:16:363 (H:m:s:ms)","GENERIC","93.196","0.0711728631596038","861"
"21:37:10:303 (H:m:s:ms)","GENERIC","124.408","0.07024682037537028","1101"
"21:37:4:242 (H:m:s:ms)","GENERIC","93.33500000000001","0.02667114004174893","1034"
"21:36:58:181 (H:m:s:ms)","GENERIC","93.305","0.03850894667699232","1192"
"21:24:2:424 (H:m:s:ms)","GENERIC","62.127","0.051058941017106625","811"
"21:24:3:37 (H:m:s:ms)","OPERA","93.239","0.06295313407543411","1414"
"21:36:52:121 (H:m:s:ms)","GENERIC","62.095","0.08173988672438368","1262"
"21:4:20:606 (H:m:s:ms)","GENERIC","62.145","0.03708787138784905","557"
"21:24:8:484 (H:m:s:ms)","GENERIC","93.35499999999999","0.061485125171428304","839"
"21:36:50:526 (H:m:s:ms)","AMBULANCE","62.323","0.09647834196212073","657"
"21:4:26:666 (H:m:s:ms)","GENERIC","93.376","0.0625284523493606","531"
"21:24:10:632 (H:m:s:ms)","OPERA","62.013","0.07088612110948336","747"
"21:36:46:60 (H:m:s:ms)","GENERIC","93.157","0.06630881763749409","1312"
"21:4:32:727 (H:m:s:ms)","GENERIC","93.184","0.033516883614476724","527"
"21:24:14:545 (H:m:s:ms)","GENERIC","62.057","0.062145569475524125","830"
"21:36:40:0 (H:m:s:ms)","GENERIC","124.418","0.030454522732634822","1459"
"21:4:38:787 (H:m:s:ms)","GENERIC","93.225","0.054092348190115325","564"
"21:24:18:227 (H:m:s:ms)","OPERA","62.011","0.05980718148849611","1120"
"21:36:33:939 (H:m:s:ms)","GENERIC","62.109","0.025535953243168617","1455"
"21:4:44:210 (H:m:s:ms)","AMBULANCE","62.254","0.037626100528031","1138"
"21:24:20:606 (H:m:s:ms)","GENERIC","62.147","0.06494229447290084","575"
"21:4:44:848 (H:m:s:ms)","GENERIC","124.92699999999999","0.07366648281352979","867"
"21:24:25:822 (H:m:s:ms)","OPERA","93.262","0.06062714937242683","557"
"21:4:50:909 (H:m:s:ms)","GENERIC","93.161","0.05237781484611694","1498"
"21:24:26:666 (H:m:s:ms)","GENERIC","93.328","0.07818411475637803","509"
"21:4:56:969 (H:m:s:ms)","GENERIC","93.536","0.01926718997810652","1478"
"21:24:32:727 (H:m:s:ms)","GENERIC","93.204","0.023419936459166846","575"
"21:5:3:30 (H:m:s:ms)","GENERIC","62.105","0.05439837932759936","1349"
"21:5:9:90 (H:m:s:ms)","GENERIC","125.02199999999999","0.07368746961378009","1338"
"21:38:23:30 (H:m:s:ms)","GENERIC","62.256","0.05199427058480582","1370"
"21:38:16:969 (H:m:s:ms)","GENERIC","93.348","0.057559085709996356","1254"
"21:38:10:909 (H:m:s:ms)","GENERIC","62.091","0.029487199483674637","1365"
"21:38:4:848 (H:m:s:ms)","GENERIC","93.34","0.03620673823775775","562"
"21:37:58:787 (H:m:s:ms)","GENERIC","31.028","0.07870551441111097","401"
"21:37:53:684 (H:m:s:ms)","AMBULANCE","93.587","0.07455435925359127","652"
"21:37:52:727 (H:m:s:ms)","GENERIC","93.598","0.043368866068185616","592"
"21:24:33:417 (H:m:s:ms)","OPERA","93.239","0.04183539255746551","993"
"21:24:38:787 (H:m:s:ms)","GENERIC","93.213","0.06932973517394089","572"
"21:5:15:151 (H:m:s:ms)","GENERIC","124.244","0.0380581812692344","1285"
"21:24:41:12 (H:m:s:ms)","OPERA","93.239","0.07633963365487934","1373"
"21:5:15:789 (H:m:s:ms)","AMBULANCE","62.238","0.05593195634797785","1060"
"21:24:44:848 (H:m:s:ms)","GENERIC","124.895","0.05890238408528223","559"
"21:37:46:666 (H:m:s:ms)","GENERIC","93.376","0.06589008894924205","525"
"20:45:39:393 (H:m:s:ms)","GENERIC","93.49000000000001","0.07601444498760597","973"
"21:5:21:212 (H:m:s:ms)","GENERIC","62.135","0.05050762722761077","1146"
"21:24:48:607 (H:m:s:ms)","OPERA","62.011","0.06513744989080125","767"
"21:37:40:606 (H:m:s:ms)","GENERIC","93.224","0.04356503039985631","820"
"20:45:41:772 (H:m:s:ms)","OPERA","93.43900000000001","0.06263286733805412","634"
"21:5:27:272 (H:m:s:ms)","GENERIC","93.518","0.04001259733372198","994"
"21:24:50:909 (H:m:s:ms)","GENERIC","93.162","0.0699070016086595","1468"
"21:37:34:545 (H:m:s:ms)","GENERIC","93.634","0.04395599607236648","870"
"20:45:45:454 (H:m:s:ms)","GENERIC","62.117","0.06512216019491782","717"
"21:5:33:333 (H:m:s:ms)","GENERIC","124.988","0.05637040140113924","1043"
"21:24:56:202 (H:m:s:ms)","OPERA","93.234","0.07394435653028833","1169"
"21:37:28:484 (H:m:s:ms)","GENERIC","93.42","0.04204509105505082","880"
"20:45:49:367 (H:m:s:ms)","OPERA","93.487","0.06609506081635266","1082"
"21:5:39:393 (H:m:s:ms)","GENERIC","93.479","0.0708664567858848","949"
"21:24:56:969 (H:m:s:ms)","GENERIC","93.558","0.08891334827445992","1783"
"20:45:51:515 (H:m:s:ms)","GENERIC","93.42699999999999","0.05840365256230108","703"
"21:5:45:454 (H:m:s:ms)","GENERIC","93.603","0.06518286123266022","717"
"21:25:3:30 (H:m:s:ms)","GENERIC","93.60900000000001","0.03112948139746696","1379"
"20:45:56:962 (H:m:s:ms)","OPERA","62.209","0.05055041672283226","1412"
"21:5:47:368 (H:m:s:ms)","AMBULANCE","62.272000000000006","0.08501884303043594","1017"
"21:25:3:797 (H:m:s:ms)","OPERA","93.214","0.04472626261723693","989"
"20:45:57:575 (H:m:s:ms)","GENERIC","93.29899999999999","0.0710111264372269","1182"
"21:5:51:515 (H:m:s:ms)","GENERIC","93.46","0.06825676827474292","717"
"20:46:3:636 (H:m:s:ms)","GENERIC","93.466","0.05075355746232032","668"
"21:5:57:575 (H:m:s:ms)","GENERIC","93.305","0.04612281910120169","830"
"20:46:4:556 (H:m:s:ms)","OPERA","62.233999999999995","0.06492945776877054","783"
"20:46:9:696 (H:m:s:ms)","GENERIC","93.193","0.07654956764059552","701"
"21:39:23:636 (H:m:s:ms)","GENERIC","93.595","0.07119135899204422","577"
"21:39:17:575 (H:m:s:ms)","GENERIC","62.089","0.05052165517600699","830"
"21:39:11:515 (H:m:s:ms)","GENERIC","62.097","0.04561661231259466","863"
"21:39:5:454 (H:m:s:ms)","GENERIC","93.381","0.04873308557249406","788"
"21:38:59:393 (H:m:s:ms)","GENERIC","93.242","0.05935569558968373","980"
"21:38:56:842 (H:m:s:ms)","AMBULANCE","62.342","0.08873585030481594","464"
"21:38:53:333 (H:m:s:ms)","GENERIC","124.939","0.07061831583474452","1034"
"21:38:47:272 (H:m:s:ms)","GENERIC","93.129","0.052453239792885714","838"
"21:25:9:90 (H:m:s:ms)","GENERIC","93.582","0.06369124666394073","1338"
"21:25:11:392 (H:m:s:ms)","OPERA","93.214","0.08231816775759666","1004"
"21:6:3:636 (H:m:s:ms)","GENERIC","93.476","0.053709012307509636","686"
"21:25:15:151 (H:m:s:ms)","GENERIC","93.144","0.08465289276376448","1289"
"21:6:9:696 (H:m:s:ms)","GENERIC","93.205","0.06114070599566438","703"
"21:25:18:987 (H:m:s:ms)","OPERA","124.49000000000001","0.07571849319406987","1459"
"20:46:12:151 (H:m:s:ms)","OPERA","62.208","0.07409974121879041","1223"
"21:6:15:757 (H:m:s:ms)","GENERIC","62.037","0.04527039104081914","495"
"21:25:21:212 (H:m:s:ms)","GENERIC","93.146","0.062980485628672","1198"
"20:46:15:757 (H:m:s:ms)","GENERIC","93.213","0.05221622037709231","484"
"21:6:18:947 (H:m:s:ms)","AMBULANCE","62.334","0.07019951171716993","1426"
"21:25:26:582 (H:m:s:ms)","OPERA","93.239","0.07041629516235948","760"
"21:38:41:212 (H:m:s:ms)","GENERIC","93.13499999999999","0.03839256702804159","979"
"20:46:19:746 (H:m:s:ms)","OPERA","62.233999999999995","0.06402497339716734","697"
"21:6:21:818 (H:m:s:ms)","GENERIC","93.428","0.0894162765729949","595"
"21:25:27:272 (H:m:s:ms)","GENERIC","62.105","0.06062971129624925","1008"
"21:38:35:151 (H:m:s:ms)","GENERIC","93.395","0.04424408241532447","1106"
"20:46:21:818 (H:m:s:ms)","GENERIC","124.72","0.0812589296007127","621"
"21:6:27:878 (H:m:s:ms)","GENERIC","93.209","0.051163020153042235","1481"
"21:25:33:333 (H:m:s:ms)","GENERIC","93.527","0.03758242042497395","1074"
"21:38:29:90 (H:m:s:ms)","GENERIC","93.215","0.051633934196812545","1368"
"20:46:27:341 (H:m:s:ms)","OPERA","62.229","0.0482081857851736","1067"
"21:6:33:939 (H:m:s:ms)","GENERIC","93.169","0.05794318854318117","1393"
"21:25:34:177 (H:m:s:ms)","OPERA","93.264","0.06615717275234267","1200"
"20:46:27:878 (H:m:s:ms)","GENERIC","93.212","0.06435531011621991","1879"
"21:6:40:0 (H:m:s:ms)","GENERIC","124.411","0.06000684187662816","1407"
"21:25:39:393 (H:m:s:ms)","GENERIC","93.435","0.07575803423338814","974"
"20:46:33:939 (H:m:s:ms)","GENERIC","93.17","0.038504720832491714","1426"
"21:6:46:60 (H:m:s:ms)","GENERIC","124.38300000000001","0.04803585627409602","1305"
"20:46:34:936 (H:m:s:ms)","OPERA","62.259","0.055086403328720376","803"
"21:6:50:526 (H:m:s:ms)","AMBULANCE","31.018","0.06535328358074782","858"
"20:46:40:0 (H:m:s:ms)","GENERIC","93.22800000000001","0.05063634283178683","1405"
"20:46:42:531 (H:m:s:ms)","OPERA","62.26","0.06392303822181492","839"
"21:39:35:757 (H:m:s:ms)","GENERIC","93.64699999999999","0.0459491658384289","467"
"21:40:12:121 (H:m:s:ms)","GENERIC","124.737","0.03818240108737166","1243"
"21:40:6:60 (H:m:s:ms)","GENERIC","93.149","0.026265971377408114","1157"
"21:40:0:0 (H:m:s:ms)","GENERIC","124.479","0.1043100160503727","2506"
"21:40:0:0 (H:m:s:ms)","GENERIC","93.279","0.07340562836949589","2213"
"21:40:0:0 (H:m:s:ms)","AMBULANCE","62.263","0.06780216331138464","1867"
"21:39:53:939 (H:m:s:ms)","GENERIC","93.34299999999999","0.039825197729089316","1420"
"21:39:47:878 (H:m:s:ms)","GENERIC","93.081","0.04598800163901375","1436"
"21:39:41:818 (H:m:s:ms)","GENERIC","93.503","0.0360081722193236","466"
"21:6:52:121 (H:m:s:ms)","GENERIC","93.151","0.06305363507362795","1074"
"21:6:58:181 (H:m:s:ms)","GENERIC","93.22","0.05484880094080174","1198"
"20:46:46:60 (H:m:s:ms)","GENERIC","93.20599999999999","0.05727685093561961","1305"
"21:7:4:242 (H:m:s:ms)","GENERIC","93.357","0.030605494409515308","1012"
"20:46:50:126 (H:m:s:ms)","OPERA","62.259","0.06912063811387606","1278"
"21:7:10:303 (H:m:s:ms)","GENERIC","124.417","0.07004099936041652","1084"
"20:46:52:121 (H:m:s:ms)","GENERIC","93.125","0.07699258599205869","1072"
"21:7:16:363 (H:m:s:ms)","GENERIC","93.139","0.044758617598296156","838"
"20:46:58:181 (H:m:s:ms)","GENERIC","124.472","0.034626154248980925","1196"
"21:7:22:105 (H:m:s:ms)","AMBULANCE","62.260000000000005","0.051724666129226556","1268"
"21:39:29:696 (H:m:s:ms)","GENERIC","93.249","0.0658406761101569","557"
"20:47:4:242 (H:m:s:ms)","GENERIC","124.64","0.02975685904125832","1018"
"21:7:22:424 (H:m:s:ms)","GENERIC","93.535","0.06160188286375413","1203"
"21:39:28:421 (H:m:s:ms)","AMBULANCE","62.326","0.09074699711894729","795"
"20:47:5:316 (H:m:s:ms)","OPERA","62.215","0.058654471120346996","1018"
"21:7:28:484 (H:m:s:ms)","GENERIC","93.414","0.03784050447733989","882"
"20:47:10:303 (H:m:s:ms)","GENERIC","93.215","0.07338540317349289","1090"
"21:7:34:545 (H:m:s:ms)","GENERIC","125.124","0.08016646184244056","855"
"20:47:12:911 (H:m:s:ms)","OPERA","62.233000000000004","0.07558318826294291","496"
"21:7:40:606 (H:m:s:ms)","GENERIC","93.298","0.03728629948266553","809"
"20:47:16:363 (H:m:s:ms)","GENERIC","93.19800000000001","0.07939224580727124","863"
"20:47:20:506 (H:m:s:ms)","OPERA","62.214","0.07687793186222536","904"
"21:7:46:666 (H:m:s:ms)","GENERIC","62.331","0.06139504429946245","528"
"21:7:52:727 (H:m:s:ms)","GENERIC","93.60300000000001","0.04772805706583337","581"
"20:47:22:424 (H:m:s:ms)","GENERIC","93.57","0.07855197400576991","823"
"21:7:53:684 (H:m:s:ms)","AMBULANCE","31.039","0.06971596526121569","754"
"20:47:28:101 (H:m:s:ms)","OPERA","62.258","0.03728629948266553","1239"
"21:7:58:787 (H:m:s:ms)","GENERIC","31.017","0.0667906432361909","606"
"20:47:28:484 (H:m:s:ms)","GENERIC","93.41499999999999","0.07279215835097434","1144"
"21:8:4:848 (H:m:s:ms)","GENERIC","62.039","0.05087131436281171","536"
"20:47:34:545 (H:m:s:ms)","GENERIC","93.648","0.06369652402892041","753"
"21:8:10:909 (H:m:s:ms)","GENERIC","93.516","0.057697182793288136","1353"
"20:47:35:696 (H:m:s:ms)","OPERA","62.258","0.077378866131139","680"
"21:8:16:969 (H:m:s:ms)","GENERIC","93.368","0.0657524332565832","1223"
"20:47:40:606 (H:m:s:ms)","GENERIC","93.26599999999999","0.07187567166581776","775"
"21:8:23:30 (H:m:s:ms)","GENERIC","62.043","0.04419964167575012","1240"
"21:40:18:181 (H:m:s:ms)","GENERIC","93.65100000000001","0.04529809632557021","1159"
"20:47:43:291 (H:m:s:ms)","OPERA","62.228","0.07606326778268631","1081"
"21:8:25:263 (H:m:s:ms)","AMBULANCE","31.012","0.06335871147995809","1082"
"20:47:46:666 (H:m:s:ms)","GENERIC","93.337","0.09115754736146507","563"
"21:8:29:90 (H:m:s:ms)","GENERIC","93.254","0.059706964387016094","1360"
"20:47:50:886 (H:m:s:ms)","OPERA","62.235","0.08663648744005606","481"
"20:47:52:727 (H:m:s:ms)","GENERIC","93.608","0.07560745196880489","573"
"21:8:35:151 (H:m:s:ms)","GENERIC","62.285","0.0634210856451255","1195"
"21:8:41:212 (H:m:s:ms)","GENERIC","62.101","0.033907118631724145","1001"
"20:47:58:481 (H:m:s:ms)","OPERA","62.233999999999995","0.04769360678629628","892"
"21:8:47:272 (H:m:s:ms)","GENERIC","93.16499999999999","0.06441643600790709","912"
"20:47:58:787 (H:m:s:ms)","GENERIC","93.189","0.07739943184342545","968"
"21:8:53:333 (H:m:s:ms)","GENERIC","124.977","0.07372259405674643","1013"
"20:30:0:0 (H:m:s:ms)","GENERIC","124.446","0.05920184384691518","1402"
"20:48:4:848 (H:m:s:ms)","GENERIC","62.31","0.045492963728298405","475"
"21:8:56:842 (H:m:s:ms)","AMBULANCE","31.04","0.08026366517543804","566"
"20:30:0:0 (H:m:s:ms)","GENERIC","93.133","0.07222770826517436","1635"
"20:48:6:75 (H:m:s:ms)","OPERA","93.433","0.07019651782344792","1334"
"21:8:59:393 (H:m:s:ms)","GENERIC","93.248","0.04625042228910964","969"
"20:30:6:60 (H:m:s:ms)","GENERIC","62.107","0.05027624519616553","1146"
"20:48:10:909 (H:m:s:ms)","GENERIC","93.502","0.06035935726210188","1357"
"21:9:5:454 (H:m:s:ms)","GENERIC","93.365","0.04326854671181128","791"
"20:30:12:121 (H:m:s:ms)","GENERIC","93.379","0.031146774555055594","1251"
"20:48:13:670 (H:m:s:ms)","OPERA","31.007","0.05358825788835597","706"
"21:9:11:515 (H:m:s:ms)","GENERIC","93.328","0.035616490336106636","861"
"20:30:18:181 (H:m:s:ms)","GENERIC","93.618","0.06257969096788547","1134"
"20:48:16:969 (H:m:s:ms)","GENERIC","93.395","0.07308243832248563","1204"
"21:9:17:575 (H:m:s:ms)","GENERIC","93.63","0.04086265260923718","821"
"20:30:24:242 (H:m:s:ms)","GENERIC","93.143","0.045414985859090116","1086"
"20:48:21:265 (H:m:s:ms)","OPERA","62.258","0.06701704275714548","1143"
"21:9:23:636 (H:m:s:ms)","GENERIC","93.60900000000001","0.05656672023737015","532"
"20:30:30:303 (H:m:s:ms)","GENERIC","93.363","0.031562607566024296","1067"
"20:48:23:30 (H:m:s:ms)","GENERIC","93.344","0.05094412198228097","1249"
"20:30:36:363 (H:m:s:ms)","GENERIC","93.12","0.06249817737477537","821"
"20:48:28:860 (H:m:s:ms)","OPERA","62.26","0.06595111529415083","475"
"20:30:42:424 (H:m:s:ms)","GENERIC","93.191","0.045221023488829","891"
"20:30:48:484 (H:m:s:ms)","GENERIC","93.344","0.05762777285258303","722"
"21:9:28:421 (H:m:s:ms)","AMBULANCE","31.031","0.06773428428618977","1023"
"21:9:29:696 (H:m:s:ms)","GENERIC","93.267","0.06388933670878592","559"
"20:48:29:90 (H:m:s:ms)","GENERIC","93.272","0.06323587065460373","1336"
"21:9:35:757 (H:m:s:ms)","GENERIC","93.61699999999999","0.05461190675846543","410"
"20:48:35:151 (H:m:s:ms)","GENERIC","124.702","0.0573104582772376","1266"
"21:9:41:818 (H:m:s:ms)","GENERIC","62.155","0.04497427161278654","467"
"20:30:54:545 (H:m:s:ms)","GENERIC","62.239000000000004","0.023221884153385997","836"
"20:48:36:455 (H:m:s:ms)","OPERA","62.259","0.07426822521416906","887"
"21:9:47:878 (H:m:s:ms)","GENERIC","93.111","0.04198672375479013","1425"
"20:31:0:606 (H:m:s:ms)","GENERIC","93.265","0.04896198056877482","732"
"20:48:41:212 (H:m:s:ms)","GENERIC","62.109","0.070654013039209","972"
"21:9:53:939 (H:m:s:ms)","GENERIC","93.393","0.050621396770438386","1435"
"20:31:6:666 (H:m:s:ms)","GENERIC","93.179","0.052550848843721534","557"
"20:48:44:50 (H:m:s:ms)","OPERA","62.258","0.07547858721313055","1362"
"21:10:0:0 (H:m:s:ms)","AMBULANCE","62.305","0.04288694934962116","1416"
"20:31:12:727 (H:m:s:ms)","GENERIC","62.34","0.070582173677896","469"
"20:48:47:272 (H:m:s:ms)","GENERIC","93.155","0.07473140264012341","897"
"21:10:0:0 (H:m:s:ms)","GENERIC","93.245","0.08288801699842581","1785"
"20:31:18:787 (H:m:s:ms)","GENERIC","93.277","0.050095469680063044","553"
"20:48:51:645 (H:m:s:ms)","OPERA","62.259","0.07512696300199306","723"
"21:10:0:0 (H:m:s:ms)","GENERIC","93.355","0.0990869165659068","2147"
"20:31:24:848 (H:m:s:ms)","GENERIC","93.237","0.04589538984832906","501"
"20:48:53:333 (H:m:s:ms)","GENERIC","93.538","0.07340214613696913","1022"
"21:10:6:60 (H:m:s:ms)","GENERIC","93.127","0.026090233688980263","1158"
"20:31:30:909 (H:m:s:ms)","GENERIC","62.087","0.03218282302149914","1382"
"20:48:59:240 (H:m:s:ms)","OPERA","62.21","0.05404682450869868","1207"
"20:31:36:969 (H:m:s:ms)","GENERIC","93.16499999999999","0.04271286371561454","1203"
"20:48:59:393 (H:m:s:ms)","GENERIC","93.233","0.05897691149535749","1391"
"20:31:43:30 (H:m:s:ms)","GENERIC","93.374","0.03424888936105466","1358"
"20:31:49:90 (H:m:s:ms)","GENERIC","93.495","0.04727179982852173","1242"
"20:49:5:454 (H:m:s:ms)","GENERIC","62.053","0.05071913804706487","762"
"20:49:6:835 (H:m:s:ms)","OPERA","62.215","0.07174272954233137","531"
"20:31:55:151 (H:m:s:ms)","GENERIC","93.53","0.037929438883888326","1204"
"20:49:11:515 (H:m:s:ms)","GENERIC","62.053","0.06405607705401076","844"
"20:32:1:212 (H:m:s:ms)","GENERIC","124.876","0.0467471245723082","1166"
"20:49:14:430 (H:m:s:ms)","OPERA","93.442","0.05776294520914446","941"
"20:32:7:272 (H:m:s:ms)","GENERIC","62.203","0.0348010216963685","914"
"20:49:17:575 (H:m:s:ms)","GENERIC","93.58500000000001","0.054050624640264146","830"
"20:32:13:333 (H:m:s:ms)","GENERIC","93.345","0.03920041786846451","943"
"20:49:22:25 (H:m:s:ms)","OPERA","62.211","0.06294769952281982","1314"
"20:32:19:393 (H:m:s:ms)","GENERIC","93.088","0.05311751276748963","982"
"20:49:23:636 (H:m:s:ms)","GENERIC","93.617","0.08227004007981421","558"
"20:32:25:454 (H:m:s:ms)","GENERIC","93.586","0.055861526447926795","879"
"20:49:29:620 (H:m:s:ms)","OPERA","62.259","0.03643726910930075","830"
"20:32:31:515 (H:m:s:ms)","GENERIC","93.54599999999999","0.05167114601496723","925"
"20:49:29:696 (H:m:s:ms)","GENERIC","93.247","0.06175858849077124","953"
"20:32:37:575 (H:m:s:ms)","GENERIC","93.194","0.06149234168779684","711"
"20:49:35:757 (H:m:s:ms)","GENERIC","93.659","0.06076473653002883","438"
"20:32:43:636 (H:m:s:ms)","GENERIC","93.13","0.0271250904500598","798"
"20:32:49:696 (H:m:s:ms)","GENERIC","93.322","0.06141488932378929","649"
"20:49:37:215 (H:m:s:ms)","OPERA","62.238","0.07082098852242705","1231"
"20:49:41:818 (H:m:s:ms)","GENERIC","93.555","0.05212883001072573","481"
"20:32:55:757 (H:m:s:ms)","GENERIC","93.475","0.06514833840314954","620"
"20:49:44:810 (H:m:s:ms)","OPERA","62.233999999999995","0.06132514047063444","564"
"20:33:1:818 (H:m:s:ms)","GENERIC","93.399","0.06268733150792166","574"
"20:49:47:878 (H:m:s:ms)","GENERIC","93.133","0.07240461772942584","1443"
"20:33:7:878 (H:m:s:ms)","GENERIC","93.37100000000001","0.041173927780168255","1552"
"20:49:52:405 (H:m:s:ms)","OPERA","62.258","0.07203982469870422","920"
"20:33:13:939 (H:m:s:ms)","GENERIC","93.336","0.0351292320589477","1409"
"20:49:53:939 (H:m:s:ms)","GENERIC","93.461","0.060697390652234395","1437"
"20:33:20:0 (H:m:s:ms)","GENERIC","124.451","0.032324839959085534","1416"
"20:50:0:0 (H:m:s:ms)","OPERA","62.232","0.04225292059396585","1452"
"20:33:26:60 (H:m:s:ms)","GENERIC","124.289","0.049840870775879016","1267"
"20:50:0:0 (H:m:s:ms)","GENERIC","124.441","0.08455339258380157","1780"
"20:33:32:121 (H:m:s:ms)","GENERIC","93.252","0.061394394321702225","1259"
"20:50:0:0 (H:m:s:ms)","GENERIC","93.134","0.10249608838084069","2104"
"20:33:38:181 (H:m:s:ms)","GENERIC","93.648","0.0520819618670933","1148"
"20:50:6:60 (H:m:s:ms)","GENERIC","93.107","0.05589491830114527","1154"
"20:33:44:242 (H:m:s:ms)","GENERIC","93.47399999999999","0.041773355871274925","1220"
"20:33:50:303 (H:m:s:ms)","GENERIC","125.123","0.054569173273196284","1044"
"20:50:12:121 (H:m:s:ms)","GENERIC","93.408","0.05794755349954591","1226"
"20:50:18:181 (H:m:s:ms)","GENERIC","93.617","0.051865629892918326","1161"
"20:33:56:363 (H:m:s:ms)","GENERIC","62.061","0.042304263034556526","962"
"20:50:24:242 (H:m:s:ms)","GENERIC","93.153","0.03503875145975642","1087"
"20:34:2:424 (H:m:s:ms)","GENERIC","62.083","0.04587278281001518","839"
"20:50:30:303 (H:m:s:ms)","GENERIC","62.081","0.04311272840041048","1032"
"20:10:0:0 (H:m:s:ms)","GENERIC","62.262","0.07057937844294783","1294"
"20:34:8:484 (H:m:s:ms)","GENERIC","62.075","0.05139769796410227","854"
"20:50:36:363 (H:m:s:ms)","GENERIC","93.106","0.05928956390789229","874"
"20:10:0:0 (H:m:s:ms)","GENERIC","62.073","0.08641849823076096","1610"
"20:34:14:545 (H:m:s:ms)","GENERIC","93.35","0.06719116202542724","824"
"20:50:42:424 (H:m:s:ms)","GENERIC","93.20400000000001","0.02869817688848558","911"
"20:10:6:60 (H:m:s:ms)","GENERIC","62.125","0.03184754949591946","1165"
"20:34:20:606 (H:m:s:ms)","GENERIC","62.141","0.04350844393767206","567"
"20:50:48:484 (H:m:s:ms)","GENERIC","93.305","0.07069566304178668","722"
"20:10:12:121 (H:m:s:ms)","GENERIC","124.661","0.062114510184260965","1174"
"20:34:26:666 (H:m:s:ms)","GENERIC","62.033","0.041046726970781176","789"
"20:50:54:545 (H:m:s:ms)","GENERIC","93.271","0.04851737292961207","863"
"20:10:18:181 (H:m:s:ms)","GENERIC","125.04400000000001","0.042864586923605646","1170"
"20:34:32:727 (H:m:s:ms)","GENERIC","62.139","0.043902592653775926","566"
"20:51:0:606 (H:m:s:ms)","GENERIC","93.242","0.04341126732732321","730"
"20:10:24:242 (H:m:s:ms)","GENERIC","93.129","0.03805456234664122","1086"
"20:34:38:787 (H:m:s:ms)","GENERIC","93.18299999999999","0.050224058280377445","601"
"20:51:6:666 (H:m:s:ms)","GENERIC","93.19500000000001","0.03163004977816737","633"
"20:10:30:303 (H:m:s:ms)","GENERIC","93.375","0.04235839360870041","1034"
"20:34:44:848 (H:m:s:ms)","GENERIC","124.907","0.043425097653614735","614"
"20:10:36:363 (H:m:s:ms)","GENERIC","93.16","0.05607505801785537","869"
"20:34:50:909 (H:m:s:ms)","GENERIC","62.071","0.03424269995196048","1515"
"20:10:42:424 (H:m:s:ms)","GENERIC","93.179","0.05377179642412063","892"
"20:10:48:484 (H:m:s:ms)","GENERIC","62.333","0.055944447882881186","726"
"20:51:12:727 (H:m:s:ms)","GENERIC","93.35","0.05593204546921305","488"
"20:51:18:787 (H:m:s:ms)","GENERIC","93.239","0.03917255053037402","567"
"20:34:56:969 (H:m:s:ms)","GENERIC","93.52","0.04320590047547136","1461"
"20:51:24:848 (H:m:s:ms)","GENERIC","124.356","0.06913684562067983","451"
"20:35:3:30 (H:m:s:ms)","GENERIC","93.54899999999999","0.027287322879860316","1393"
"20:51:30:909 (H:m:s:ms)","GENERIC","93.562","0.03546321342844456","1383"
"20:10:54:545 (H:m:s:ms)","GENERIC","93.584","0.05604556165666079","658"
"20:35:9:90 (H:m:s:ms)","GENERIC","93.546","0.05242509312769254","1348"
"20:51:36:969 (H:m:s:ms)","GENERIC","93.16499999999999","0.04316647029061516","1200"
"20:11:0:606 (H:m:s:ms)","GENERIC","93.27","0.05482608302861137","724"
"20:35:15:151 (H:m:s:ms)","GENERIC","124.271","0.038666270197795914","1295"
"20:51:43:30 (H:m:s:ms)","GENERIC","93.361","0.027157847553690436","1380"
"20:11:6:666 (H:m:s:ms)","GENERIC","93.153","0.02509355711462886","633"
"20:35:21:212 (H:m:s:ms)","GENERIC","93.138","0.04410000930033239","1178"
"20:51:49:90 (H:m:s:ms)","GENERIC","93.533","0.0547522968815162","1244"
"20:11:12:727 (H:m:s:ms)","GENERIC","93.256","0.04612319199357835","573"
"20:35:27:272 (H:m:s:ms)","GENERIC","93.559","0.036010427071901475","1019"
"20:51:55:151 (H:m:s:ms)","GENERIC","93.52","0.03805985605789222","1213"
"20:11:18:787 (H:m:s:ms)","GENERIC","93.275","0.04210456625045937","565"
"20:35:33:333 (H:m:s:ms)","GENERIC","93.616","0.07149371756642887","1066"
"20:52:1:212 (H:m:s:ms)","GENERIC","93.507","0.05997814079464679","1162"
"20:11:24:848 (H:m:s:ms)","GENERIC","93.257","0.06326739427331894","477"
"20:35:39:393 (H:m:s:ms)","GENERIC","62.067","0.05337725534431715","956"
"20:52:7:272 (H:m:s:ms)","GENERIC","93.679","0.047442414868434556","905"
"20:11:30:909 (H:m:s:ms)","GENERIC","93.53399999999999","0.05495934673865868","1387"
"20:35:45:454 (H:m:s:ms)","GENERIC","93.603","0.04871002058605813","722"
"20:11:36:969 (H:m:s:ms)","GENERIC","62.119","0.05118231048174774","1206"
"20:35:51:515 (H:m:s:ms)","GENERIC","62.101","0.03784548613099673","714"
"20:11:43:30 (H:m:s:ms)","GENERIC","93.357","0.05919803407869539","1372"
"20:11:49:90 (H:m:s:ms)","GENERIC","93.453","0.03289194131352003","1249"
"20:0:54:545 (H:m:s:ms)","GENERIC","31.079","0.04442109968959721","646"
"20:1:0:606 (H:m:s:ms)","GENERIC","62.256","0.035466200426274984","747"
"20:1:6:666 (H:m:s:ms)","GENERIC","93.195","0.02608936588022846","637"
"20:1:12:727 (H:m:s:ms)","GENERIC","93.332","0.046458135080135556","548"
"20:1:18:787 (H:m:s:ms)","GENERIC","62.226","0.0321224154813144","602"
"20:1:24:848 (H:m:s:ms)","GENERIC","93.335","0.05395531277680989","475"
"20:1:30:909 (H:m:s:ms)","GENERIC","31.055","0.03780692932949521","1362"
"20:1:36:969 (H:m:s:ms)","GENERIC","62.113","0.03248831279426391","1229"
"20:1:43:30 (H:m:s:ms)","GENERIC","62.364000000000004","0.03424888936105466","1361"
"20:1:49:90 (H:m:s:ms)","GENERIC","62.425","0.04489280783664451","1224"
"20:35:57:575 (H:m:s:ms)","GENERIC","93.255","0.03687632313902658","840"
"20:36:3:636 (H:m:s:ms)","GENERIC","93.484","0.03746364371313211","706"
"20:11:55:151 (H:m:s:ms)","GENERIC","93.487","0.050369147269470685","1198"
"20:36:9:696 (H:m:s:ms)","GENERIC","93.203","0.035319880615408875","717"
"20:12:1:212 (H:m:s:ms)","GENERIC","93.504","0.05298074753561543","1195"
"20:36:15:757 (H:m:s:ms)","GENERIC","93.231","0.03986061130043118","491"
"20:12:7:272 (H:m:s:ms)","GENERIC","62.215","0.02576941016011038","926"
"20:36:21:818 (H:m:s:ms)","GENERIC","93.363","0.05681897771129277","628"
"20:12:13:333 (H:m:s:ms)","GENERIC","62.061","0.05092791420595802","945"
"20:36:27:878 (H:m:s:ms)","GENERIC","93.202","0.06227009953110615","1429"
"20:12:19:393 (H:m:s:ms)","GENERIC","93.16300000000001","0.024205186749463592","1012"
"20:36:33:939 (H:m:s:ms)","GENERIC","62.065","0.04706188599738283","1404"
"20:12:25:454 (H:m:s:ms)","GENERIC","93.60300000000001","0.04333588650636365","901"
"20:36:40:0 (H:m:s:ms)","GENERIC","93.228","0.054429272959954006","1416"
"20:12:31:515 (H:m:s:ms)","GENERIC","93.512","0.05230467206654522","923"
"20:36:46:60 (H:m:s:ms)","GENERIC","93.214","0.060540903569612774","1294"
"20:12:37:575 (H:m:s:ms)","GENERIC","93.137","0.05924169952472206","706"
"20:36:52:121 (H:m:s:ms)","GENERIC","62.083","0.051058941017106625","1076"
"20:12:43:636 (H:m:s:ms)","GENERIC","93.106","0.04593774900855192","775"
"20:12:49:696 (H:m:s:ms)","GENERIC","93.455","0.03773298985553584","608"
"20:1:55:151 (H:m:s:ms)","GENERIC","62.438","0.054426082097464246","1190"
"20:2:1:212 (H:m:s:ms)","GENERIC","62.519999999999996","0.030863192354847996","1198"
"20:2:7:272 (H:m:s:ms)","GENERIC","31.099","0.034166666666666665","923"
"20:2:13:333 (H:m:s:ms)","GENERIC","62.294","0.042783828700433464","928"
"20:2:19:393 (H:m:s:ms)","GENERIC","62.063","0.04481440987229438","984"
"20:2:25:454 (H:m:s:ms)","GENERIC","62.539","0.052043285879376316","872"
"20:2:31:515 (H:m:s:ms)","GENERIC","62.551","0.04341649922120813","876"
"20:2:37:575 (H:m:s:ms)","GENERIC","62.079","0.03607564888348667","733"
"20:2:43:636 (H:m:s:ms)","GENERIC","62.133","0.05310308629428004","796"
"20:2:49:696 (H:m:s:ms)","GENERIC","62.434","0.07067988694001395","580"
"20:36:58:181 (H:m:s:ms)","GENERIC","93.251","0.030078910328204013","1220"
"20:37:4:242 (H:m:s:ms)","GENERIC","93.311","0.03708271545033194","1010"
"20:12:55:757 (H:m:s:ms)","GENERIC","93.52","0.07063589553659076","642"
"20:37:10:303 (H:m:s:ms)","GENERIC","124.44","0.07010333377062855","1067"
"20:13:1:818 (H:m:s:ms)","GENERIC","124.71199999999999","0.07382823551660053","550"
"20:37:16:363 (H:m:s:ms)","GENERIC","62.097","0.05072349839776954","851"
"20:13:7:878 (H:m:s:ms)","GENERIC","124.589","0.06030726949284799","1525"
"20:37:22:424 (H:m:s:ms)","GENERIC","93.586","0.06426035296040417","783"
"20:13:13:939 (H:m:s:ms)","GENERIC","93.379","0.04527348394352281","1389"
"20:37:28:484 (H:m:s:ms)","GENERIC","93.383","0.05242260995012882","855"
"20:13:20:0 (H:m:s:ms)","GENERIC","93.283","0.03556890248601279","1394"
"20:37:34:545 (H:m:s:ms)","GENERIC","93.642","0.061193569533581765","826"
"20:13:26:60 (H:m:s:ms)","GENERIC","124.266","0.054581235637647996","1255"
"20:37:40:606 (H:m:s:ms)","GENERIC","93.271","0.04443351112075251","801"
"20:13:32:121 (H:m:s:ms)","GENERIC","124.411","0.049274685099248365","1236"
"20:37:46:666 (H:m:s:ms)","GENERIC","93.32900000000001","0.055858216605817405","676"
"20:13:38:181 (H:m:s:ms)","GENERIC","93.629","0.05825403558227946","1146"
"20:37:52:727 (H:m:s:ms)","GENERIC","93.569","0.07724588345105073","544"
"20:13:44:242 (H:m:s:ms)","GENERIC","93.499","0.04643352451763784","1172"
"20:13:50:303 (H:m:s:ms)","GENERIC","93.648","0.04551211837487173","1065"
"20:2:55:757 (H:m:s:ms)","GENERIC","62.467","0.05215277110526057","646"
"20:3:1:818 (H:m:s:ms)","GENERIC","93.668","0.06723764746112146","543"
"20:3:7:878 (H:m:s:ms)","GENERIC","62.307","0.07355710521959388","548"
"20:3:13:939 (H:m:s:ms)","GENERIC","62.286","0.05829448691898141","1290"
"20:3:20:0 (H:m:s:ms)","GENERIC","62.215999999999994","0.05369780539857537","1355"
"20:3:26:60 (H:m:s:ms)","GENERIC","62.114000000000004","0.03807343919486399","1263"
"20:3:32:121 (H:m:s:ms)","GENERIC","31.012","0.044642857142857345","1228"
"20:3:38:181 (H:m:s:ms)","GENERIC","62.545","0.06530547999488101","1115"
"20:3:44:242 (H:m:s:ms)","GENERIC","62.436","0.045065839688538535","1143"
"20:3:50:303 (H:m:s:ms)","GENERIC","62.543","0.05599183789209861","1126"
"20:37:58:787 (H:m:s:ms)","GENERIC","124.319","0.044197715699070314","603"
"20:38:4:848 (H:m:s:ms)","GENERIC","31.02","0.03603034750100364","585"
"20:13:56:363 (H:m:s:ms)","GENERIC","93.482","0.054497978808831775","929"
"20:38:10:909 (H:m:s:ms)","GENERIC","93.504","0.0546963203721656","1338"
"20:14:2:424 (H:m:s:ms)","GENERIC","93.127","0.03968089920854757","823"
"20:38:16:969 (H:m:s:ms)","GENERIC","124.643","0.07161543684429114","1234"
"20:14:8:484 (H:m:s:ms)","GENERIC","62.077","0.044479861172070145","838"
"20:38:23:30 (H:m:s:ms)","GENERIC","62.093","0.03610821997117539","1258"
"20:14:14:545 (H:m:s:ms)","GENERIC","93.37700000000001","0.04001266503737696","789"
"20:38:29:90 (H:m:s:ms)","GENERIC","124.46600000000001","0.036065360065918615","1369"
"20:14:20:606 (H:m:s:ms)","GENERIC","62.147","0.050990195135927854","541"
"20:38:35:151 (H:m:s:ms)","GENERIC","93.394","0.06821996447958341","1215"
"20:14:26:666 (H:m:s:ms)","GENERIC","124.411","0.052911431090207024","707"
"20:38:41:212 (H:m:s:ms)","GENERIC","62.117","0.04178020081396702","994"
"20:14:32:727 (H:m:s:ms)","GENERIC","93.194","0.026092605207923072","568"
"20:38:47:272 (H:m:s:ms)","GENERIC","62.089","0.05118231048174774","911"
"20:14:38:787 (H:m:s:ms)","GENERIC","93.191","0.041742811495607074","586"
"20:38:53:333 (H:m:s:ms)","GENERIC","93.574","0.0625392064724051","1029"
"20:14:44:848 (H:m:s:ms)","GENERIC","124.96199999999999","0.05645305403692241","554"
"20:14:50:909 (H:m:s:ms)","GENERIC","62.069","0.055901699437495005","1473"
"20:3:56:363 (H:m:s:ms)","GENERIC","62.403999999999996","0.03559390969467081","1019"
"20:4:2:424 (H:m:s:ms)","GENERIC","31.055","0.0324172606820933","876"
"20:4:8:484 (H:m:s:ms)","GENERIC","62.361000000000004","0.0617745932777959","855"
"20:4:14:545 (H:m:s:ms)","GENERIC","93.55199999999999","0.05745947678879041","838"
"20:4:20:606 (H:m:s:ms)","GENERIC","62.544","0.05195045076359961","538"
"20:4:26:666 (H:m:s:ms)","GENERIC","62.188","0.059182439029961426","730"
"20:4:32:727 (H:m:s:ms)","GENERIC","62.13","0.036759453490106835","550"
"20:4:38:787 (H:m:s:ms)","GENERIC","62.163","0.0540752306892464","614"
"20:4:44:848 (H:m:s:ms)","GENERIC","93.846","0.0671152788369739","589"
"20:4:50:909 (H:m:s:ms)","GENERIC","93.201","0.041139572341991185","1501"
"20:38:59:393 (H:m:s:ms)","GENERIC","93.215","0.0294745402630205","976"
"20:39:5:454 (H:m:s:ms)","GENERIC","93.363","0.05589285523090411","772"
"20:14:56:969 (H:m:s:ms)","GENERIC","124.94300000000001","0.04951845055968842","1409"
"20:39:11:515 (H:m:s:ms)","GENERIC","93.318","0.03744684332561007","856"
"20:15:3:30 (H:m:s:ms)","GENERIC","93.601","0.03844488216260825","1351"
"20:39:17:575 (H:m:s:ms)","GENERIC","93.58500000000001","0.05599589439800151","802"
"20:15:9:90 (H:m:s:ms)","GENERIC","93.528","0.0530432434461735","1355"
"20:39:23:636 (H:m:s:ms)","GENERIC","93.617","0.07117032024762898","538"
"20:15:15:151 (H:m:s:ms)","GENERIC","93.196","0.029494697952973232","1290"
"20:39:29:696 (H:m:s:ms)","GENERIC","93.247","0.04462243177732545","552"
"20:15:21:212 (H:m:s:ms)","GENERIC","93.13","0.061865869797330365","1143"
"20:39:35:757 (H:m:s:ms)","GENERIC","93.65299999999999","0.05709543913935323","413"
"20:15:27:272 (H:m:s:ms)","GENERIC","93.557","0.06507019654886802","987"
"20:39:41:818 (H:m:s:ms)","GENERIC","93.478","0.056325588366582635","466"
"20:15:33:333 (H:m:s:ms)","GENERIC","124.977","0.061369575672059466","1070"
"20:39:47:878 (H:m:s:ms)","GENERIC","93.154","0.04676580416821028","1441"
"20:15:39:393 (H:m:s:ms)","GENERIC","93.47800000000001","0.057815140344431554","949"
"20:39:53:939 (H:m:s:ms)","GENERIC","93.409","0.040106837093740536","1419"
"20:15:45:454 (H:m:s:ms)","GENERIC","62.099","0.05033173972424005","697"
"20:15:51:515 (H:m:s:ms)","GENERIC","93.395","0.07181783472493469","709"
"20:4:56:969 (H:m:s:ms)","GENERIC","62.466","0.05179483477704791","1417"
"20:5:3:30 (H:m:s:ms)","GENERIC","93.996","0.05077490483860531","1316"
"20:5:9:90 (H:m:s:ms)","GENERIC","93.932","0.06258268972706747","1327"
"20:5:15:151 (H:m:s:ms)","GENERIC","93.269","0.06669068551698758","1282"
"20:5:21:212 (H:m:s:ms)","GENERIC","62.120000000000005","0.06375950692506091","1159"
"20:5:27:272 (H:m:s:ms)","GENERIC","62.513999999999996","0.04208110609460804","1005"
"20:5:33:333 (H:m:s:ms)","GENERIC","62.459","0.06261064357067327","1051"
"20:5:39:393 (H:m:s:ms)","GENERIC","93.859","0.05261508490735989","937"
"20:5:45:454 (H:m:s:ms)","GENERIC","31.06","0.04426472358930831","694"
"20:5:51:515 (H:m:s:ms)","GENERIC","31.043","0.031515428366349935","711"
"20:15:57:575 (H:m:s:ms)","GENERIC","93.29","0.0376848228085215","833"
"20:16:3:636 (H:m:s:ms)","GENERIC","93.456","0.03710872546540035","690"
"20:16:9:696 (H:m:s:ms)","GENERIC","93.197","0.040860502703512026","715"
"20:16:15:757 (H:m:s:ms)","GENERIC","93.185","0.04578091945904251","522"
"20:16:21:818 (H:m:s:ms)","GENERIC","93.443","0.05215589608967816","611"
"20:16:27:878 (H:m:s:ms)","GENERIC","93.196","0.06296961306648365","1425"
"20:16:33:939 (H:m:s:ms)","GENERIC","93.144","0.05657325525690778","1363"
"20:16:40:0 (H:m:s:ms)","GENERIC","93.221","0.0651372943354613","1401"
"20:16:46:60 (H:m:s:ms)","GENERIC","124.372","0.06462193540482196","1271"
"20:16:52:121 (H:m:s:ms)","GENERIC","93.107","0.042449515669206475","1092"
"20:5:57:575 (H:m:s:ms)","GENERIC","62.283","0.03814415622989333","825"
"20:6:3:636 (H:m:s:ms)","GENERIC","62.42","0.06433910618923991","668"
"20:6:9:696 (H:m:s:ms)","GENERIC","62.19","0.0478367256105729","678"
"20:6:15:757 (H:m:s:ms)","GENERIC","62.206","0.04097217568238541","487"
"20:6:21:818 (H:m:s:ms)","GENERIC","62.362","0.04521775335379872","563"
"20:6:27:878 (H:m:s:ms)","GENERIC","62.221000000000004","0.06770090130216731","430"
"20:6:33:939 (H:m:s:ms)","GENERIC","62.122","0.017161667336739312","1432"
"20:6:40:0 (H:m:s:ms)","GENERIC","62.251999999999995","0.05404003272042216","1398"
"20:6:46:60 (H:m:s:ms)","GENERIC","93.349","0.05521006618729114","1267"
"20:6:52:121 (H:m:s:ms)","GENERIC","62.069","0.07312678172355852","1071"
"20:16:58:181 (H:m:s:ms)","GENERIC","62.085","0.041139465496063274","1237"
"20:17:4:242 (H:m:s:ms)","GENERIC","93.35300000000001","0.04194070897092011","997"
"20:17:10:303 (H:m:s:ms)","GENERIC","124.36099999999999","0.05633705333688621","1104"
"20:17:16:363 (H:m:s:ms)","GENERIC","93.154","0.05591700347012267","850"
"20:17:22:424 (H:m:s:ms)","GENERIC","93.604","0.03712322545654673","835"
"20:17:28:484 (H:m:s:ms)","GENERIC","93.426","0.0640700928925545","833"
"20:17:34:545 (H:m:s:ms)","GENERIC","125.14","0.061144792219598634","792"
"20:17:40:606 (H:m:s:ms)","GENERIC","62.244","0.05751729628946702","808"
"20:17:46:666 (H:m:s:ms)","GENERIC","62.081","0.040333036885995724","737"
"20:17:52:727 (H:m:s:ms)","GENERIC","93.616","0.07081564394943224","579"
"20:6:58:181 (H:m:s:ms)","GENERIC","93.298","0.06677413724551448","1179"
"20:7:4:242 (H:m:s:ms)","GENERIC","31.041","0.050307695211874656","1004"
"20:7:10:303 (H:m:s:ms)","GENERIC","62.215999999999994","0.05447507774126345","1088"
"20:7:16:363 (H:m:s:ms)","GENERIC","62.105999999999995","0.04806007414450017","808"
"20:7:22:424 (H:m:s:ms)","GENERIC","62.516","0.03716622780100997","859"
"20:7:28:484 (H:m:s:ms)","GENERIC","93.68299999999999","0.06007039744011266","854"
"20:7:34:545 (H:m:s:ms)","GENERIC","62.583","0.05152937397164406","848"
"20:7:40:606 (H:m:s:ms)","GENERIC","31.033","0.041139465496063274","802"
"20:7:46:666 (H:m:s:ms)","GENERIC","62.299","0.060124468822924104","731"
"20:7:52:727 (H:m:s:ms)","GENERIC","62.546","0.045316244427266394","598"
"20:17:58:787 (H:m:s:ms)","GENERIC","124.304","0.05708753883378043","603"
"20:18:4:848 (H:m:s:ms)","GENERIC","62.107","0.033907118631724145","408"
"20:18:10:909 (H:m:s:ms)","GENERIC","93.531","0.03635442437838019","1352"
"20:18:16:969 (H:m:s:ms)","GENERIC","62.337","0.06007056890292343","1243"
"20:18:23:30 (H:m:s:ms)","GENERIC","62.129","0.05065314814592258","1238"
"20:18:29:90 (H:m:s:ms)","GENERIC","93.26599999999999","0.04538880576713134","1374"
"20:18:35:151 (H:m:s:ms)","GENERIC","93.357","0.05869800015658989","1248"
"20:18:41:212 (H:m:s:ms)","GENERIC","93.173","0.026983354866113373","1001"
"20:18:47:272 (H:m:s:ms)","GENERIC","93.121","0.0511951254617905","901"
"20:18:53:333 (H:m:s:ms)","GENERIC","125.0","0.06918040112235097","953"
"20:7:58:787 (H:m:s:ms)","GENERIC","62.123000000000005","0.052904737612188356","603"
"20:8:4:848 (H:m:s:ms)","GENERIC","62.085","0.027888671738346447","381"
"20:8:10:909 (H:m:s:ms)","GENERIC","62.476","0.0381129384285199","1327"
"20:8:16:969 (H:m:s:ms)","GENERIC","62.233999999999995","0.051457105371947184","1390"
"20:8:23:30 (H:m:s:ms)","GENERIC","62.347","0.04365265277314293","1244"
"20:8:29:90 (H:m:s:ms)","GENERIC","93.40100000000001","0.06501677480542294","1369"
"20:8:35:151 (H:m:s:ms)","GENERIC","62.294","0.03883598769577156","1265"
"20:8:41:212 (H:m:s:ms)","GENERIC","31.06","0.03105374663475257","1015"
"20:8:47:272 (H:m:s:ms)","GENERIC","62.084","0.045663209246714666","873"
"20:8:53:333 (H:m:s:ms)","GENERIC","62.524","0.052865094695767986","1038"
"20:18:59:393 (H:m:s:ms)","GENERIC","93.237","0.05515280364048911","983"
"20:19:5:454 (H:m:s:ms)","GENERIC","93.381","0.05190380563402802","761"
"20:19:11:515 (H:m:s:ms)","GENERIC","93.27","0.0316146057871317","855"
"20:19:17:575 (H:m:s:ms)","GENERIC","93.62","0.030832830955263745","833"
"20:19:23:636 (H:m:s:ms)","GENERIC","93.641","0.056066624319550645","583"
"20:19:29:696 (H:m:s:ms)","GENERIC","93.243","0.0437396061874546","553"
"20:19:35:757 (H:m:s:ms)","GENERIC","125.145","0.0717908741073785","435"
"20:19:41:818 (H:m:s:ms)","GENERIC","93.521","0.03076795364896834","481"
"20:19:47:878 (H:m:s:ms)","GENERIC","62.097","0.05060132238549223","1464"
"20:19:53:939 (H:m:s:ms)","GENERIC","124.795","0.05735741656972841","1417"
"20:8:59:393 (H:m:s:ms)","GENERIC","62.187","0.039739004291521385","957"
"20:9:5:454 (H:m:s:ms)","GENERIC","93.641","0.06277856689605853","790"
"20:9:11:515 (H:m:s:ms)","GENERIC","62.294","0.02559110561294804","857"
"20:9:17:575 (H:m:s:ms)","GENERIC","62.503","0.05721952782818073","805"
"20:9:23:636 (H:m:s:ms)","GENERIC","62.565","0.05836502839256746","582"
"20:9:29:696 (H:m:s:ms)","GENERIC","62.215","0.0651750325943203","561"
"20:9:35:757 (H:m:s:ms)","GENERIC","62.555","0.043432530809443974","469"
"20:9:41:818 (H:m:s:ms)","GENERIC","62.426","0.0474318307833004","464"
"20:9:47:878 (H:m:s:ms)","GENERIC","62.097","0.03907996868703123","440"
"20:9:53:939 (H:m:s:ms)","GENERIC","62.400999999999996","0.05817451686793299","1404"
"21:41:0:606 (H:m:s:ms)","GENERIC","124.524","0.055094701748150024","724"
"21:40:54:545 (H:m:s:ms)","GENERIC","93.263","0.06141488932378929","833"
"21:40:48:484 (H:m:s:ms)","GENERIC","62.085","0.05028213743870851","708"
"21:40:42:424 (H:m:s:ms)","GENERIC","62.117","0.049615871390892456","893"
"21:40:36:363 (H:m:s:ms)","GENERIC","93.123","0.0709570023995343","896"
"21:40:30:303 (H:m:s:ms)","GENERIC","93.42699999999999","0.06585293526687395","995"
"21:40:24:242 (H:m:s:ms)","GENERIC","93.081","0.04004474918174573","1094"
"21:41:18:787 (H:m:s:ms)","GENERIC","93.283","0.0441731156936265","549"
"21:41:12:727 (H:m:s:ms)","GENERIC","93.387","0.07078786466838602","457"
"21:41:6:666 (H:m:s:ms)","GENERIC","62.097","0.03589241293257448","609"
