"time (H:m:s:ms)","type","latency","utilisation","waiting"
"21:42:55:757 (H:m:s:ms)","GENERIC","124.539","0.9795442366102384","567"
"21:42:37:575 (H:m:s:ms)","GENERIC","124.604","0.8701904383737179","693"
"21:42:31:515 (H:m:s:ms)","GENERIC","155.797","0.8731194805374709","814"
"21:42:25:454 (H:m:s:ms)","GENERIC","124.30000000000001","0.8327976959784125","762"
"21:42:19:393 (H:m:s:ms)","GENERIC","93.137","0.886353256443165","867"
"21:42:13:333 (H:m:s:ms)","GENERIC","93.131","0.8880393502315238","890"
"21:42:7:272 (H:m:s:ms)","GENERIC","155.863","0.7805800774642008","1135"
"21:42:1:212 (H:m:s:ms)","GENERIC","155.204","0.7787635854083059","973"
"21:41:55:151 (H:m:s:ms)","GENERIC","93.175","0.7779232893259866","992"
"21:42:49:696 (H:m:s:ms)","GENERIC","124.245","0.9454436356832976","753"
"21:42:43:636 (H:m:s:ms)","GENERIC","124.17","0.9475521053424445","677"
"21:44:2:424 (H:m:s:ms)","GENERIC","155.464","0.9158911229108607","891"
"21:43:56:363 (H:m:s:ms)","GENERIC","155.813","0.7530004323921521","1866"
"21:43:44:242 (H:m:s:ms)","GENERIC","124.356","0.7416996887181196","1328"
"20:0:0:0 (H:m:s:ms)","GENERIC","93.205","0.11777114390438459","1777"
"21:43:38:181 (H:m:s:ms)","GENERIC","124.535","0.7843921352567177","1139"
"20:0:6:60 (H:m:s:ms)","GENERIC","93.488","0.1561090342628158","1292"
"21:43:32:121 (H:m:s:ms)","GENERIC","155.362","0.7803512871508574","1748"
"20:0:12:121 (H:m:s:ms)","GENERIC","62.31","0.1857224825183295","1112"
"21:43:26:60 (H:m:s:ms)","GENERIC","155.455","0.7588945936234284","1206"
"20:0:18:181 (H:m:s:ms)","GENERIC","93.464","0.20072948496947352","1196"
"21:43:20:0 (H:m:s:ms)","GENERIC","155.28300000000002","0.7626266277826498","1363"
"20:0:24:242 (H:m:s:ms)","GENERIC","124.514","0.21953979191182935","1085"
"21:43:13:939 (H:m:s:ms)","GENERIC","124.31","0.7667930667758196","1406"
"20:0:30:303 (H:m:s:ms)","GENERIC","124.65","0.24781068152911215","942"
"21:43:7:878 (H:m:s:ms)","GENERIC","155.39600000000002","0.8244044912712932","1554"
"20:0:36:363 (H:m:s:ms)","GENERIC","93.55799999999999","0.26724423152381604","932"
"21:43:1:818 (H:m:s:ms)","GENERIC","93.196","0.825312582505317","357"
"20:0:42:424 (H:m:s:ms)","GENERIC","62.246","0.27560318436665676","829"
"21:10:24:242 (H:m:s:ms)","GENERIC","155.655","0.38739916154001197","28395"
"20:0:48:484 (H:m:s:ms)","GENERIC","93.386","0.285491585319257","1199"
"21:10:30:303 (H:m:s:ms)","GENERIC","124.517","0.3206597102637624","22695"
"21:10:36:363 (H:m:s:ms)","GENERIC","124.517","0.3590693330203952","134762"
"21:10:42:424 (H:m:s:ms)","GENERIC","124.40299999999999","0.3014198363889902","26300"
"21:10:48:484 (H:m:s:ms)","GENERIC","155.508","0.2670590925010518","29326"
"21:10:54:545 (H:m:s:ms)","GENERIC","155.623","0.2755702262104204","8851"
"21:11:0:606 (H:m:s:ms)","GENERIC","124.374","0.3223113292532356","23316"
"21:11:6:666 (H:m:s:ms)","GENERIC","155.373","0.26429068292813035","606"
"21:43:50:303 (H:m:s:ms)","GENERIC","93.17699999999999","0.6949903266906178","971"
"21:11:12:727 (H:m:s:ms)","GENERIC","186.309","0.2604080375067442","690"
"21:11:18:787 (H:m:s:ms)","GENERIC","155.512","0.29481911787255594","21160"
"21:25:49:367 (H:m:s:ms)","OPERA","124.552","0.27010941239307507","29754"
"21:45:9:90 (H:m:s:ms)","GENERIC","155.57","1.1057903648546907","1109"
"21:45:3:30 (H:m:s:ms)","GENERIC","155.285","1.1091340291205525","1282"
"21:44:56:969 (H:m:s:ms)","GENERIC","124.543","1.0697057865408017","1441"
"21:44:50:909 (H:m:s:ms)","GENERIC","124.33000000000001","1.066849897068491","1329"
"21:44:44:848 (H:m:s:ms)","GENERIC","93.235","1.056527146980625","408"
"21:44:38:787 (H:m:s:ms)","GENERIC","62.127","1.0482667840800006","297"
"21:44:32:727 (H:m:s:ms)","GENERIC","155.425","1.0386028804510479","673"
"21:44:26:666 (H:m:s:ms)","GENERIC","93.153","1.0169679612028781","572"
"21:44:20:606 (H:m:s:ms)","GENERIC","155.765","0.9450624368427256","833"
"21:44:14:545 (H:m:s:ms)","GENERIC","93.185","0.9443227808483892","1225"
"21:11:24:848 (H:m:s:ms)","GENERIC","155.227","0.2503821001513644","28565"
"21:44:8:484 (H:m:s:ms)","GENERIC","124.578","0.9169933736004439","903"
"21:11:30:909 (H:m:s:ms)","GENERIC","155.79000000000002","0.35852662801018265","74547"
"21:11:36:969 (H:m:s:ms)","GENERIC","155.375","0.6108208592714983","86898"
"21:11:43:30 (H:m:s:ms)","GENERIC","155.284","0.6119952252038863","79398"
"21:11:49:90 (H:m:s:ms)","GENERIC","155.675","0.23583632920445874","20953"
"21:11:55:151 (H:m:s:ms)","GENERIC","155.435","0.3507556197190173","47792"
"21:12:1:212 (H:m:s:ms)","GENERIC","124.221","0.34130691457152085","99546"
"21:12:7:272 (H:m:s:ms)","GENERIC","124.544","0.3342352387034967","36086"
"21:12:13:333 (H:m:s:ms)","GENERIC","124.216","0.28431919519596516","11518"
"21:12:19:393 (H:m:s:ms)","GENERIC","124.434","0.3087525524555864","23986"
"21:36:51:0 (H:m:s:ms)","OPERA","93.201","0.3500484638728365","538646"
"21:46:15:757 (H:m:s:ms)","GENERIC","93.35300000000001","1.381845552172983","557"
"21:36:20:0 (H:m:s:ms)","GENERIC","124.388","0.6602130652743406","395431"
"21:46:9:696 (H:m:s:ms)","GENERIC","155.69","1.4490829391999303","826"
"21:46:3:636 (H:m:s:ms)","GENERIC","62.107","1.4524828212773624","452"
"21:45:57:575 (H:m:s:ms)","GENERIC","124.51","1.4531831623159877","683"
"21:26:15:757 (H:m:s:ms)","GENERIC","155.314","0.2735626500612651","592"
"21:26:12:151 (H:m:s:ms)","OPERA","124.462","0.2688593608401144","7123"
"21:45:51:515 (H:m:s:ms)","GENERIC","124.407","1.4260976191282966","770"
"21:38:57:0 (H:m:s:ms)","GENERIC","186.87900000000002","1.3984215898383316","653935"
"21:45:45:454 (H:m:s:ms)","GENERIC","93.191","1.4354888026160195","906"
"21:26:4:556 (H:m:s:ms)","OPERA","124.554","0.26974582601645697","6032"
"21:45:39:393 (H:m:s:ms)","GENERIC","93.359","1.422576878356198","820"
"21:40:1:0 (H:m:s:ms)","GENERIC","155.66899999999998","0.3834912655198102","770328"
"21:45:33:333 (H:m:s:ms)","GENERIC","124.543","1.4208755819875847","861"
"21:25:57:575 (H:m:s:ms)","GENERIC","124.518","1.251265466918115","854513"
"21:45:27:272 (H:m:s:ms)","GENERIC","155.677","1.2689415771279675","1081"
"21:12:25:454 (H:m:s:ms)","GENERIC","155.43200000000002","0.25046195081479933","2556"
"21:35:16:0 (H:m:s:ms)","OPERA","93.31","0.7318973081833517","527156"
"21:45:21:212 (H:m:s:ms)","GENERIC","124.563","1.2471058202639282","963"
"21:12:31:515 (H:m:s:ms)","GENERIC","155.877","0.3047843471239703","11552"
"21:38:57:0 (H:m:s:ms)","GENERIC","124.38","0.4767220514136104","629601"
"21:45:15:151 (H:m:s:ms)","GENERIC","93.34700000000001","1.0878985962534575","1033"
"21:12:37:575 (H:m:s:ms)","GENERIC","187.075","0.3578777831945728","186256"
"21:12:43:636 (H:m:s:ms)","GENERIC","124.318","0.6098992921717183","13690"
"21:12:49:696 (H:m:s:ms)","GENERIC","155.273","0.31431552043383987","46416"
"21:12:55:757 (H:m:s:ms)","GENERIC","155.736","0.29310214510874977","51208"
"21:13:1:818 (H:m:s:ms)","GENERIC","155.555","0.25515755845432814","10861"
"21:13:7:878 (H:m:s:ms)","GENERIC","186.342","0.27654505899356435","21574"
"21:13:13:939 (H:m:s:ms)","GENERIC","186.593","0.3963966287159077","48378"
"21:13:20:0 (H:m:s:ms)","GENERIC","124.227","0.2951974968111138","26318"
"21:40:1:0 (H:m:s:ms)","OPERA","124.42399999999999","0.38196943977125997","692776"
"21:38:57:0 (H:m:s:ms)","OPERA","186.553","0.4486571757894723","492400"
"21:47:22:424 (H:m:s:ms)","GENERIC","93.367","1.3361004532362482","1164"
"21:31:35:0 (H:m:s:ms)","GENERIC","155.656","0.3098396461249595","229927"
"21:47:16:363 (H:m:s:ms)","GENERIC","155.526","1.3344183934428662","844"
"21:26:58:181 (H:m:s:ms)","GENERIC","155.324","0.26614382091963845","213299"
"21:47:10:303 (H:m:s:ms)","GENERIC","124.58","1.3455713795062099","1019"
"21:47:4:242 (H:m:s:ms)","GENERIC","93.222","1.345654194356341","1023"
"21:46:58:181 (H:m:s:ms)","GENERIC","124.238","1.3516755878448072","1296"
"21:38:57:0 (H:m:s:ms)","OPERA","155.47899999999998","0.46332532659287123","704592"
"21:26:52:121 (H:m:s:ms)","GENERIC","155.192","0.2880450482482313","24261"
"21:38:57:0 (H:m:s:ms)","OPERA","155.381","0.4739257326533219","689207"
"21:46:52:121 (H:m:s:ms)","GENERIC","124.155","1.3957255402543882","1191"
"21:40:1:0 (H:m:s:ms)","GENERIC","93.21600000000001","1.1302346326745027","667429"
"21:46:46:60 (H:m:s:ms)","GENERIC","155.727","1.3647261282077705","1258"
"21:36:51:0 (H:m:s:ms)","OPERA","124.311","1.0898104582472303","421673"
"21:46:40:0 (H:m:s:ms)","GENERIC","62.073","1.3622448104628055","1171"
"21:13:26:60 (H:m:s:ms)","GENERIC","124.207","0.2780503990626783","20565"
"21:26:40:0 (H:m:s:ms)","GENERIC","124.304","0.29106929851533153","50751"
"21:46:33:939 (H:m:s:ms)","GENERIC","124.237","1.369928537019111","1247"
"21:13:32:121 (H:m:s:ms)","GENERIC","155.17700000000002","0.2769887946140113","13519"
"21:26:33:939 (H:m:s:ms)","GENERIC","155.368","0.3189585125171296","580890"
"21:46:27:878 (H:m:s:ms)","GENERIC","124.49000000000001","1.3696359760118375","1488"
"21:13:38:181 (H:m:s:ms)","GENERIC","155.827","0.3969858585771112","22977"
"21:36:51:0 (H:m:s:ms)","GENERIC","155.566","0.3496560119929988","322952"
"21:46:21:818 (H:m:s:ms)","GENERIC","93.249","1.3767431207790182","463"
"21:13:44:242 (H:m:s:ms)","GENERIC","124.24799999999999","0.3609581456444262","84854"
"21:13:50:303 (H:m:s:ms)","GENERIC","93.215","0.3010400042764432","9881"
"21:13:56:363 (H:m:s:ms)","GENERIC","155.81","0.3312688950227292","245815"
"21:14:2:424 (H:m:s:ms)","GENERIC","155.53","0.2702712834057464","13741"
"21:14:8:484 (H:m:s:ms)","GENERIC","124.594","0.28340630176704557","40930"
"21:14:14:545 (H:m:s:ms)","GENERIC","155.486","0.29181910622325824","16879"
"21:14:20:606 (H:m:s:ms)","GENERIC","155.751","0.2778730968365665","48026"
"21:27:43:291 (H:m:s:ms)","OPERA","155.712","0.4162737180575844","19102"
"21:48:29:90 (H:m:s:ms)","GENERIC","93.101","1.746854425305315","1159"
"21:27:40:606 (H:m:s:ms)","GENERIC","155.83499999999998","0.4228276776433011","23216"
"21:48:23:30 (H:m:s:ms)","GENERIC","62.059","1.714701543954352","1248"
"21:32:38:0 (H:m:s:ms)","OPERA","124.582","0.2997883063606126","93641"
"21:48:16:969 (H:m:s:ms)","GENERIC","124.418","1.7283326966780053","1310"
"21:27:34:545 (H:m:s:ms)","GENERIC","124.356","0.4370873881402368","27391"
"21:48:10:909 (H:m:s:ms)","GENERIC","93.131","1.6341724542777767","1349"
"21:48:4:848 (H:m:s:ms)","GENERIC","124.66399999999999","1.6384946396070341","433"
"21:47:58:787 (H:m:s:ms)","GENERIC","155.654","1.461150374966391","477"
"21:27:28:484 (H:m:s:ms)","GENERIC","124.46600000000001","0.2983050724219499","17180"
"21:34:13:0 (H:m:s:ms)","OPERA","155.599","0.3108621857927759","147000"
"21:27:22:424 (H:m:s:ms)","GENERIC","124.517","0.30612976761385746","22416"
"21:47:52:727 (H:m:s:ms)","GENERIC","124.643","1.4233687621023832","640"
"21:14:26:666 (H:m:s:ms)","GENERIC","155.348","0.29957760714216175","13319"
"21:27:20:506 (H:m:s:ms)","OPERA","155.433","0.3201057905550087","24062"
"21:47:46:666 (H:m:s:ms)","GENERIC","93.20400000000001","1.4138068994643167","543"
"21:14:32:727 (H:m:s:ms)","GENERIC","124.387","0.2593427732417729","6654"
"21:27:16:363 (H:m:s:ms)","GENERIC","124.498","0.26048580191553755","803"
"21:47:40:606 (H:m:s:ms)","GENERIC","124.628","1.4646076109963115","722"
"20:52:25:454 (H:m:s:ms)","GENERIC","124.374","0.2224313072841309","447288"
"21:14:38:787 (H:m:s:ms)","GENERIC","155.413","0.33142213248162844","25915"
"21:27:12:911 (H:m:s:ms)","OPERA","124.239","0.30152853779570316","15208"
"21:47:34:545 (H:m:s:ms)","GENERIC","93.193","1.4588565422174122","748"
"20:52:31:515 (H:m:s:ms)","GENERIC","155.8","0.2056191655013442","164898"
"21:14:44:848 (H:m:s:ms)","GENERIC","124.387","0.3088349564042008","39128"
"21:40:1:0 (H:m:s:ms)","GENERIC","155.577","1.0861511023502965","644179"
"21:47:28:484 (H:m:s:ms)","GENERIC","124.439","1.4629791140629809","717"
"20:52:37:575 (H:m:s:ms)","GENERIC","155.807","0.2551832805186405","996955"
"21:14:50:909 (H:m:s:ms)","GENERIC","155.575","0.29557929283319595","13230"
"20:52:43:636 (H:m:s:ms)","GENERIC","124.232","0.2070681159200788","358068"
"21:14:56:969 (H:m:s:ms)","GENERIC","124.492","0.28221670752506545","26617"
"20:52:49:696 (H:m:s:ms)","GENERIC","155.14600000000002","0.23745495249116075","252719"
"21:15:3:30 (H:m:s:ms)","GENERIC","186.322","0.2622104186511038","2177"
"21:9:29:0 (H:m:s:ms)","GENERIC","186.96699999999998","0.31040196598033704","1178565"
"21:15:9:90 (H:m:s:ms)","GENERIC","155.697","0.2593990594492602","1427"
"21:10:1:0 (H:m:s:ms)","GENERIC","124.293","0.33716129482849205","985448"
"21:15:15:151 (H:m:s:ms)","GENERIC","155.641","0.3701174186016532","38605"
"20:53:7:878 (H:m:s:ms)","GENERIC","155.344","0.19137055284843907","1476"
"21:15:21:212 (H:m:s:ms)","GENERIC","124.569","0.2587181248644766","22618"
"20:53:13:939 (H:m:s:ms)","GENERIC","155.482","0.20662972015326617","52766"
"20:53:20:0 (H:m:s:ms)","GENERIC","155.401","0.20993080589910865","24557"
"21:28:21:265 (H:m:s:ms)","OPERA","155.477","0.24453329491685027","45198"
"21:49:35:757 (H:m:s:ms)","GENERIC","124.255","1.7738079346940403","563"
"21:28:16:969 (H:m:s:ms)","GENERIC","155.643","0.3035610096485272","49262"
"21:49:29:696 (H:m:s:ms)","GENERIC","124.394","1.7767178076954324","877"
"21:28:13:670 (H:m:s:ms)","OPERA","155.359","0.25978816588099873","18593"
"21:49:23:636 (H:m:s:ms)","GENERIC","124.32","1.7786683526430558","702"
"21:28:10:909 (H:m:s:ms)","GENERIC","62.119","0.25160736083525065","1232"
"21:49:17:575 (H:m:s:ms)","GENERIC","124.483","1.7968568220142196","695"
"21:28:6:75 (H:m:s:ms)","OPERA","93.328","0.27962440326416216","25404"
"21:49:11:515 (H:m:s:ms)","GENERIC","93.336","1.80122621662843","618"
"21:49:5:454 (H:m:s:ms)","GENERIC","62.063","1.803169216986007","684"
"21:48:59:393 (H:m:s:ms)","GENERIC","124.59100000000001","1.8012983898367272","17127"
"21:32:38:0 (H:m:s:ms)","GENERIC","124.571","0.3750244428473209","160039"
"21:15:27:272 (H:m:s:ms)","GENERIC","155.735","0.260951340657584","10031"
"21:27:58:787 (H:m:s:ms)","GENERIC","155.712","0.2430700884972256","51777"
"21:15:33:333 (H:m:s:ms)","GENERIC","124.525","0.3180507517137892","52795"
"21:27:58:481 (H:m:s:ms)","OPERA","155.56900000000002","0.24968491343643415","24341"
"21:48:53:333 (H:m:s:ms)","GENERIC","124.316","1.8032805865616042","1001"
"21:6:51:0 (H:m:s:ms)","GENERIC","124.295","0.3003402259006491","713365"
"21:15:39:393 (H:m:s:ms)","GENERIC","155.871","0.3288120075993839","129185"
"21:27:52:727 (H:m:s:ms)","GENERIC","124.61000000000001","0.32321284879777207","176599"
"21:48:47:272 (H:m:s:ms)","GENERIC","62.023","1.8029859000188946","952"
"20:53:32:121 (H:m:s:ms)","GENERIC","186.346","0.22720013845950007","60161"
"21:15:45:454 (H:m:s:ms)","GENERIC","155.39","0.5047358190318435","141197"
"21:32:38:0 (H:m:s:ms)","OPERA","155.252","0.2807378493598267","148169"
"21:48:41:212 (H:m:s:ms)","GENERIC","62.095","1.7423586547944467","915"
"20:53:38:181 (H:m:s:ms)","GENERIC","155.82600000000002","0.22980246056893402","421461"
"21:15:51:515 (H:m:s:ms)","GENERIC","155.719","0.2652669614006106","1137"
"21:32:38:0 (H:m:s:ms)","GENERIC","155.706","0.2861735937514206","57875"
"21:48:35:151 (H:m:s:ms)","GENERIC","124.589","1.745090111614529","1168"
"20:53:44:242 (H:m:s:ms)","GENERIC","124.186","0.22829640250033056","543343"
"21:15:57:575 (H:m:s:ms)","GENERIC","124.505","0.2826631385675032","6624"
"21:9:29:0 (H:m:s:ms)","GENERIC","124.429","0.31523632250982275","987058"
"21:16:3:636 (H:m:s:ms)","GENERIC","124.521","0.2720689166527049","70092"
"20:53:56:363 (H:m:s:ms)","GENERIC","124.61","0.20430774377452413","86227"
"21:16:9:696 (H:m:s:ms)","GENERIC","155.775","0.31442374074859075","13592"
"21:7:23:0 (H:m:s:ms)","GENERIC","155.457","0.2758243090372648","214894"
"21:16:15:757 (H:m:s:ms)","GENERIC","155.37","0.2578039618869985","27141"
"21:4:45:0 (H:m:s:ms)","GENERIC","187.01600000000002","0.1970148306554902","596456"
"21:16:21:818 (H:m:s:ms)","GENERIC","124.446","0.32214512996801886","84753"
"20:54:14:545 (H:m:s:ms)","GENERIC","155.633","0.22642645290276928","27943"
"20:54:20:606 (H:m:s:ms)","GENERIC","155.731","0.3996639349763849","1068411"
"21:28:59:240 (H:m:s:ms)","OPERA","93.349","0.24522094647433823","26028"
"21:32:38:0 (H:m:s:ms)","GENERIC","155.535","0.281501421684085","92478"
"21:28:51:645 (H:m:s:ms)","OPERA","124.436","0.24015893999664942","21019"
"21:28:47:272 (H:m:s:ms)","GENERIC","124.146","0.27883651212081423","25035"
"21:28:44:50 (H:m:s:ms)","OPERA","155.515","0.24100641029390305","20600"
"21:34:45:0 (H:m:s:ms)","GENERIC","155.893","0.31576459716289595","86217"
"22:7:53:684 (H:m:s:ms)","AMBULANCE","93.37","2.1446019945463894","447"
"21:50:0:0 (H:m:s:ms)","GENERIC","93.239","1.691695811490681","1176"
"21:16:27:878 (H:m:s:ms)","GENERIC","155.749","0.2649740664659703","14526"
"21:16:33:939 (H:m:s:ms)","GENERIC","155.176","0.25910471882300234","1538"
"21:28:36:455 (H:m:s:ms)","OPERA","155.617","0.24057694441189587","15767"
"20:54:26:666 (H:m:s:ms)","GENERIC","186.309","0.26336078127986445","613990"
"21:16:40:0 (H:m:s:ms)","GENERIC","124.326","0.25869211310785767","32068"
"21:28:35:151 (H:m:s:ms)","GENERIC","155.76999999999998","0.2371529341566975","12751"
"21:2:38:0 (H:m:s:ms)","GENERIC","186.4","0.2478396594518033","327351"
"21:16:46:60 (H:m:s:ms)","GENERIC","155.71699999999998","0.26327327682662566","1302"
"21:28:29:90 (H:m:s:ms)","GENERIC","186.225","0.24427085229687312","24512"
"21:49:53:939 (H:m:s:ms)","GENERIC","93.233","1.693496649559245","1428"
"20:54:38:787 (H:m:s:ms)","GENERIC","186.41199999999998","0.21434916149641633","23927"
"21:16:52:121 (H:m:s:ms)","GENERIC","155.39","0.25869664478477705","34528"
"21:28:28:860 (H:m:s:ms)","OPERA","124.333","0.24109317482618747","3238"
"21:49:47:878 (H:m:s:ms)","GENERIC","124.381","1.6870274623059918","1653"
"20:54:44:848 (H:m:s:ms)","GENERIC","124.46799999999999","0.21171434066531608","418659"
"21:16:58:181 (H:m:s:ms)","GENERIC","155.391","0.26612452005528614","23188"
"21:34:45:0 (H:m:s:ms)","GENERIC","124.41","0.3259843539667793","105618"
"21:49:41:818 (H:m:s:ms)","GENERIC","62.031","1.722142454827396","388"
"21:0:32:0 (H:m:s:ms)","GENERIC","155.497","0.21970338310046306","115461"
"21:17:4:242 (H:m:s:ms)","GENERIC","186.687","0.31627075951737355","40396"
"20:54:56:969 (H:m:s:ms)","GENERIC","186.95","0.21705509582632956","37801"
"21:17:10:303 (H:m:s:ms)","GENERIC","124.51400000000001","0.4882798631964387","51593"
"20:55:3:30 (H:m:s:ms)","GENERIC","124.259","0.2099147977054291","27666"
"21:17:16:363 (H:m:s:ms)","GENERIC","124.446","0.4740796972351398","46429"
"21:5:16:0 (H:m:s:ms)","GENERIC","155.623","0.23073287849357918","171826"
"21:17:22:424 (H:m:s:ms)","GENERIC","124.576","0.29409227857563397","21123"
"21:2:38:0 (H:m:s:ms)","GENERIC","155.712","0.21822621749931997","363902"
"20:55:21:212 (H:m:s:ms)","GENERIC","124.521","0.3425356879484371","1782793"
"21:29:35:757 (H:m:s:ms)","GENERIC","155.288","0.289642465019826","99356"
"21:29:29:696 (H:m:s:ms)","GENERIC","124.578","0.525927026316529","500469"
"21:34:13:0 (H:m:s:ms)","OPERA","124.36699999999999","0.3057729930999392","111805"
"21:36:51:0 (H:m:s:ms)","GENERIC","124.39099999999999","0.9597004629957926","173123"
"21:35:16:0 (H:m:s:ms)","OPERA","124.514","0.3825915963564013","312683"
"21:37:54:0 (H:m:s:ms)","GENERIC","124.406","1.138768401974806","426875"
"21:29:14:430 (H:m:s:ms)","OPERA","155.531","0.23858487229116987","20115"
"21:17:28:484 (H:m:s:ms)","GENERIC","155.724","0.46069479475119723","34692"
"21:17:34:545 (H:m:s:ms)","GENERIC","155.472","0.2822560986344202","9248"
"20:55:27:272 (H:m:s:ms)","GENERIC","155.662","0.21624437573135177","27159"
"21:17:40:606 (H:m:s:ms)","GENERIC","124.595","0.4584095248248098","22692"
"20:55:33:333 (H:m:s:ms)","GENERIC","93.32300000000001","0.5633935062688447","1275131"
"21:17:46:666 (H:m:s:ms)","GENERIC","155.76600000000002","0.45358972018874505","14872"
"21:29:11:515 (H:m:s:ms)","GENERIC","155.832","0.27486925552728425","169445"
"20:55:39:393 (H:m:s:ms)","GENERIC","124.559","0.2541768298624964","1832997"
"21:17:52:727 (H:m:s:ms)","GENERIC","155.78","0.29412346858853494","316476"
"21:35:16:0 (H:m:s:ms)","OPERA","155.441","0.40713310500391725","164337"
"20:55:45:454 (H:m:s:ms)","GENERIC","124.225","0.21772054255889964","37577"
"21:17:58:787 (H:m:s:ms)","GENERIC","155.701","0.27812292038327135","48398"
"21:29:5:454 (H:m:s:ms)","GENERIC","155.313","0.2425291226926731","35292"
"21:0:32:0 (H:m:s:ms)","GENERIC","155.72","0.25221813438870105","16892"
"21:18:4:848 (H:m:s:ms)","GENERIC","155.719","0.27884290240342663","8444"
"21:28:59:393 (H:m:s:ms)","GENERIC","124.59","1.0757732999783538","1266931"
"20:55:57:575 (H:m:s:ms)","GENERIC","155.834","0.2743836939414176","307295"
"21:18:10:909 (H:m:s:ms)","GENERIC","155.425","0.32965573258637","18068"
"20:56:3:636 (H:m:s:ms)","GENERIC","124.447","0.48059774527779714","876837"
"21:18:16:969 (H:m:s:ms)","GENERIC","124.42099999999999","0.2790675571462332","1165"
"20:56:9:696 (H:m:s:ms)","GENERIC","124.501","0.2891331099477098","1218514"
"21:18:23:30 (H:m:s:ms)","GENERIC","124.517","0.31460496920473524","38870"
"20:56:15:757 (H:m:s:ms)","GENERIC","155.231","0.2055537166361457","475"
"20:56:21:818 (H:m:s:ms)","GENERIC","155.55599999999998","0.304721091770539","980379"
"21:37:54:0 (H:m:s:ms)","GENERIC","93.205","0.8396922940574688","413091"
"21:30:0:0 (H:m:s:ms)","GENERIC","155.445","0.2796972244704663","111060"
"21:30:0:0 (H:m:s:ms)","GENERIC","93.265","0.45507509563565696","3547"
"21:30:0:0 (H:m:s:ms)","OPERA","155.465","0.4558994041483853","3318"
"21:30:0:0 (H:m:s:ms)","AMBULANCE","31.029","0.4763717106041368","1290"
"21:29:53:939 (H:m:s:ms)","GENERIC","155.68099999999998","0.46694019586379754","9086"
"21:36:51:0 (H:m:s:ms)","OPERA","124.465","0.9136184480165503","391525"
"21:36:51:0 (H:m:s:ms)","GENERIC","155.584","0.9147158827025207","260188"
"21:18:29:90 (H:m:s:ms)","GENERIC","155.223","0.2549860678993655","1317"
"21:18:35:151 (H:m:s:ms)","GENERIC","124.572","0.30988036539474983","25642"
"20:56:27:878 (H:m:s:ms)","GENERIC","155.809","0.21467353062329173","13488"
"21:18:41:212 (H:m:s:ms)","GENERIC","155.731","0.27008004085787185","29435"
"20:56:33:939 (H:m:s:ms)","GENERIC","155.28300000000002","0.25209435980295997","522730"
"21:18:47:272 (H:m:s:ms)","GENERIC","155.336","0.27604670270985454","1116"
"20:40:0:0 (H:m:s:ms)","OPERA","93.299","0.22682556783950497","61706"
"21:1:35:0 (H:m:s:ms)","GENERIC","186.471","0.23738457367623142","30626"
"21:18:53:333 (H:m:s:ms)","GENERIC","155.398","0.27074233263848224","1069"
"20:40:0:0 (H:m:s:ms)","GENERIC","186.405","0.20839401557514814","22964"
"20:56:46:60 (H:m:s:ms)","GENERIC","124.55199999999999","0.2839098240800388","1844323"
"21:18:59:393 (H:m:s:ms)","GENERIC","124.58699999999999","2.0673062969349","2546517"
"21:35:16:0 (H:m:s:ms)","OPERA","155.436","0.3707507075101422","180574"
"20:40:0:0 (H:m:s:ms)","GENERIC","186.912","0.20833493708235484","79567"
"20:56:52:121 (H:m:s:ms)","GENERIC","93.17","0.2265853365817117","177574"
"21:19:5:454 (H:m:s:ms)","GENERIC","124.248","0.26018003523650507","943"
"21:37:54:0 (H:m:s:ms)","GENERIC","124.333","0.9955056282514452","445496"
"20:40:6:60 (H:m:s:ms)","GENERIC","186.88400000000001","0.21244120189233362","25184"
"20:56:58:181 (H:m:s:ms)","GENERIC","155.323","0.20464380926727113","19976"
"21:19:11:515 (H:m:s:ms)","GENERIC","124.60300000000001","0.2866312041952934","38410"
"21:29:37:215 (H:m:s:ms)","OPERA","155.506","0.24617817230485992","14284"
"20:40:7:594 (H:m:s:ms)","OPERA","124.486","0.24171480340619447","100011"
"21:9:29:0 (H:m:s:ms)","GENERIC","124.358","0.278392851650536","821447"
"21:19:17:575 (H:m:s:ms)","GENERIC","124.369","0.2685627575617255","13936"
"20:40:12:121 (H:m:s:ms)","GENERIC","155.937","0.22771895088100796","144697"
"21:2:7:0 (H:m:s:ms)","GENERIC","186.737","0.2194724018583912","48587"
"21:19:23:636 (H:m:s:ms)","GENERIC","186.745","0.2611785203182871","782"
"20:40:15:189 (H:m:s:ms)","OPERA","155.463","0.2297010989507326","1481"
"20:57:16:363 (H:m:s:ms)","GENERIC","155.549","0.27268627959044406","1041510"
"20:40:18:181 (H:m:s:ms)","GENERIC","155.58100000000002","0.4269560178027328","2241106"
"20:57:22:424 (H:m:s:ms)","GENERIC","187.063","0.20894645445725624","124458"
"20:40:22:784 (H:m:s:ms)","OPERA","93.351","0.2378029854874395","46694"
"20:40:24:242 (H:m:s:ms)","GENERIC","155.578","0.24715072408476135","205141"
"21:30:24:242 (H:m:s:ms)","GENERIC","124.33500000000001","0.33181487942454857","255208"
"21:31:3:157 (H:m:s:ms)","AMBULANCE","93.341","0.6517289150652947","1177"
"21:40:1:0 (H:m:s:ms)","GENERIC","124.46000000000001","0.9912151332662217","490731"
"21:37:54:0 (H:m:s:ms)","GENERIC","155.56799999999998","0.5438101001621891","297615"
"21:37:54:0 (H:m:s:ms)","GENERIC","124.364","0.6474547422022712","348316"
"21:34:45:0 (H:m:s:ms)","GENERIC","155.641","0.35833442313149805","276501"
"21:30:36:363 (H:m:s:ms)","GENERIC","155.823","0.4632004928555011","509460"
"21:30:31:578 (H:m:s:ms)","AMBULANCE","62.184","0.47296695737448063","636"
"21:19:29:696 (H:m:s:ms)","GENERIC","155.816","0.3330220028920061","53358"
"21:38:57:0 (H:m:s:ms)","GENERIC","155.573","1.3179470309936747","448776"
"21:19:35:757 (H:m:s:ms)","GENERIC","155.487","0.24464541508189871","601"
"21:2:38:0 (H:m:s:ms)","GENERIC","155.732","0.24211888114130767","119606"
"21:19:41:818 (H:m:s:ms)","GENERIC","155.577","0.2788823850969301","597"
"20:57:34:545 (H:m:s:ms)","GENERIC","186.448","0.2242857390441122","36673"
"21:19:47:878 (H:m:s:ms)","GENERIC","155.559","0.2601611407746755","1782"
"20:40:30:303 (H:m:s:ms)","GENERIC","187.006","0.33105606221325445","1903943"
"20:57:40:606 (H:m:s:ms)","GENERIC","124.541","0.4301249150637415","1803985"
"21:19:53:939 (H:m:s:ms)","GENERIC","155.46","0.3022446990928644","10115"
"20:40:30:379 (H:m:s:ms)","OPERA","124.427","0.22396865037013428","70516"
"20:57:46:666 (H:m:s:ms)","GENERIC","155.781","0.22834883398970074","418139"
"21:20:0:0 (H:m:s:ms)","OPERA","93.287","0.2897653735218963","4472"
"20:40:36:363 (H:m:s:ms)","GENERIC","124.689","0.2288949829412838","172628"
"20:57:52:727 (H:m:s:ms)","GENERIC","124.6","0.26632378345453883","744428"
"21:20:0:0 (H:m:s:ms)","GENERIC","155.684","0.29656912241477495","6778"
"20:40:37:974 (H:m:s:ms)","OPERA","62.094","0.27473953052753064","108327"
"20:57:58:787 (H:m:s:ms)","GENERIC","155.58100000000002","0.5244797887007007","1122411"
"21:20:0:0 (H:m:s:ms)","GENERIC","155.302","0.25237146166357194","1510"
"21:30:18:181 (H:m:s:ms)","GENERIC","155.851","0.2804919534391672","230181"
"20:40:42:424 (H:m:s:ms)","GENERIC","124.55799999999999","0.22930184373717744","227411"
"20:58:4:848 (H:m:s:ms)","GENERIC","124.57300000000001","0.24245374267003922","1729231"
"21:20:6:60 (H:m:s:ms)","GENERIC","124.397","0.3089168296816076","14153"
"21:30:12:121 (H:m:s:ms)","GENERIC","155.854","0.5722651346362945","484286"
"20:40:45:569 (H:m:s:ms)","OPERA","124.39","0.2402097156520951","290705"
"21:10:1:0 (H:m:s:ms)","GENERIC","93.212","0.513217028624422","930369"
"21:20:7:594 (H:m:s:ms)","OPERA","155.424","0.2920790037094115","411"
"20:40:48:484 (H:m:s:ms)","GENERIC","186.71300000000002","0.2254884759408038","1555"
"21:6:20:0 (H:m:s:ms)","GENERIC","124.49199999999999","0.25273694738632346","172599"
"20:40:53:164 (H:m:s:ms)","OPERA","124.286","0.21350765005245217","137332"
"20:58:23:30 (H:m:s:ms)","GENERIC","93.225","0.3856492733730885","731886"
"20:40:54:545 (H:m:s:ms)","GENERIC","155.483","0.205452904259639","196904"
"20:41:0:606 (H:m:s:ms)","GENERIC","155.811","0.23007523783781927","756"
"21:31:18:787 (H:m:s:ms)","GENERIC","186.529","0.2858615262570748","96601"
"21:31:12:727 (H:m:s:ms)","GENERIC","124.179","0.270715656480723","17774"
"21:32:1:212 (H:m:s:ms)","GENERIC","155.199","0.28899398879723165","145745"
"21:31:55:151 (H:m:s:ms)","GENERIC","124.21000000000001","0.2749637770417212","112419"
"21:40:1:0 (H:m:s:ms)","GENERIC","155.666","0.9093566224171236","397217"
"21:31:43:30 (H:m:s:ms)","GENERIC","155.363","0.3111400976989888","1383"
"21:31:36:969 (H:m:s:ms)","GENERIC","124.179","0.29879374590236923","23569"
"21:31:34:736 (H:m:s:ms)","AMBULANCE","62.159","0.5865378276951781","520"
"21:31:30:909 (H:m:s:ms)","GENERIC","155.836","0.40077692834325795","442380"
"21:31:24:848 (H:m:s:ms)","GENERIC","124.213","0.2813989792032201","174371"
"20:58:29:90 (H:m:s:ms)","GENERIC","124.249","0.3811671478399836","725939"
"20:58:35:151 (H:m:s:ms)","GENERIC","155.775","0.27546902595015","1209758"
"21:10:1:0 (H:m:s:ms)","OPERA","93.356","0.2317899493014813","1619673"
"21:9:29:0 (H:m:s:ms)","GENERIC","124.473","0.45397635086650023","783751"
"20:41:6:666 (H:m:s:ms)","GENERIC","124.217","0.21005550162989906","1921"
"21:2:38:0 (H:m:s:ms)","GENERIC","186.389","0.21998371466640262","21095"
"20:41:8:354 (H:m:s:ms)","OPERA","124.541","0.20717817436840355","13934"
"20:58:53:333 (H:m:s:ms)","GENERIC","124.299","0.33824095601914606","701052"
"20:41:12:727 (H:m:s:ms)","GENERIC","124.13900000000001","0.20697318342017776","453"
"20:58:59:393 (H:m:s:ms)","GENERIC","124.584","2.1548401775215007","4061253"
"20:41:15:949 (H:m:s:ms)","OPERA","155.72","0.2039407613141256","4092"
"21:2:38:0 (H:m:s:ms)","GENERIC","155.501","0.23269012521051166","266697"
"20:41:18:787 (H:m:s:ms)","GENERIC","155.381","0.2669955586942707","65900"
"20:59:11:515 (H:m:s:ms)","GENERIC","124.626","0.4495827595242503","1384034"
"21:31:6:666 (H:m:s:ms)","GENERIC","186.384","0.2880931363304662","1219"
"21:10:1:0 (H:m:s:ms)","OPERA","124.418","0.33548460641009703","1363432"
"21:3:42:0 (H:m:s:ms)","GENERIC","155.58","0.22481008717835982","361608"
"20:41:24:848 (H:m:s:ms)","GENERIC","155.256","0.25453381690251015","59838"
"20:59:23:636 (H:m:s:ms)","GENERIC","124.422","0.20763172425292845","516"
"20:41:30:909 (H:m:s:ms)","GENERIC","124.553","0.22531804543864137","68283"
"20:41:31:139 (H:m:s:ms)","OPERA","93.353","0.23771844080303198","11962"
"20:59:29:696 (H:m:s:ms)","GENERIC","155.774","0.4749329439031386","2206841"
"20:59:35:757 (H:m:s:ms)","GENERIC","186.41199999999998","0.22307965555413478","351"
"20:41:36:969 (H:m:s:ms)","GENERIC","124.164","0.2381787803613039","107697"
"20:59:41:818 (H:m:s:ms)","GENERIC","124.362","0.31769030377067886","651822"
"21:10:1:0 (H:m:s:ms)","OPERA","93.376","0.2707587671214656","1546914"
"21:4:13:0 (H:m:s:ms)","GENERIC","186.657","0.23297340295753113","55571"
"20:41:43:30 (H:m:s:ms)","GENERIC","124.196","0.23028164264296344","971"
"21:10:1:0 (H:m:s:ms)","GENERIC","155.44799999999998","0.3784241511300123","144053"
"20:41:46:329 (H:m:s:ms)","OPERA","124.457","0.22226718255904224","164307"
"21:0:0:0 (H:m:s:ms)","AMBULANCE","93.295","0.32121345986893907","1471"
"21:3:42:0 (H:m:s:ms)","GENERIC","124.399","0.32249471997604723","1897779"
"21:0:0:0 (H:m:s:ms)","GENERIC","155.339","0.2815600444842909","4917"
"21:10:1:0 (H:m:s:ms)","OPERA","124.349","0.28090475852968105","1384502"
"21:0:0:0 (H:m:s:ms)","GENERIC","155.73","0.24724138488256825","7233"
"20:41:55:151 (H:m:s:ms)","GENERIC","155.225","0.23622261664675157","110518"
"21:0:6:60 (H:m:s:ms)","GENERIC","124.35499999999999","0.3946186676199599","982135"
"20:42:1:212 (H:m:s:ms)","GENERIC","155.201","0.22678888711141065","24238"
"21:0:12:121 (H:m:s:ms)","GENERIC","124.651","0.2553700668426506","1764432"
"20:42:1:518 (H:m:s:ms)","OPERA","124.48","0.22403570285820812","104369"
"20:42:7:272 (H:m:s:ms)","GENERIC","93.318","0.36849113618236595","2464220"
"21:9:29:0 (H:m:s:ms)","GENERIC","155.702","0.2519933672314557","602726"
"21:8:26:0 (H:m:s:ms)","GENERIC","124.45","0.34058184642882966","718586"
"20:42:9:113 (H:m:s:ms)","OPERA","124.41199999999999","0.23078292559839977","74917"
"21:0:30:303 (H:m:s:ms)","GENERIC","155.826","0.21424592439791876","64512"
"20:42:13:333 (H:m:s:ms)","GENERIC","155.154","0.2084505789693086","92506"
"21:0:31:578 (H:m:s:ms)","AMBULANCE","93.357","0.31943535366603837","901"
"20:20:0:0 (H:m:s:ms)","GENERIC","155.253","0.2521542970867896","38250"
"21:2:38:0 (H:m:s:ms)","OPERA","124.477","0.25385275738183427","1968508"
"21:0:36:363 (H:m:s:ms)","GENERIC","186.976","0.37054932228918486","1939068"
"20:20:0:0 (H:m:s:ms)","GENERIC","124.521","0.23968195855203317","56806"
"21:5:48:0 (H:m:s:ms)","GENERIC","124.37899999999999","0.22833540279815878","1677633"
"21:0:42:424 (H:m:s:ms)","GENERIC","124.412","0.3285492372617852","727030"
"20:20:6:60 (H:m:s:ms)","GENERIC","124.571","0.2670404572982844","13019"
"20:42:24:303 (H:m:s:ms)","OPERA","124.624","0.22396452770566588","98457"
"21:10:1:0 (H:m:s:ms)","GENERIC","155.525","0.27549884171142847","494018"
"20:20:12:121 (H:m:s:ms)","GENERIC","124.65100000000001","0.2503604486518656","62713"
"20:42:25:454 (H:m:s:ms)","GENERIC","186.605","0.21720303584706563","215490"
"21:5:48:0 (H:m:s:ms)","GENERIC","155.591","0.2124729530984285","108876"
"20:20:18:181 (H:m:s:ms)","GENERIC","124.512","0.2726498743549935","13248"
"20:42:31:515 (H:m:s:ms)","GENERIC","155.8","0.216751921737723","33690"
"21:1:0:606 (H:m:s:ms)","GENERIC","155.726","0.2753008089442384","828689"
"20:20:24:242 (H:m:s:ms)","GENERIC","155.67","0.25743528713976743","7521"
"20:42:31:898 (H:m:s:ms)","OPERA","124.462","0.21496747684542453","218135"
"21:1:3:157 (H:m:s:ms)","AMBULANCE","124.453","0.3021133340158144","1183"
"20:20:30:303 (H:m:s:ms)","GENERIC","155.618","0.2543262690809798","64004"
"20:42:37:575 (H:m:s:ms)","GENERIC","124.639","0.5983594857440397","3314687"
"20:20:36:363 (H:m:s:ms)","GENERIC","155.914","0.2676217220045494","62443"
"20:42:39:493 (H:m:s:ms)","OPERA","124.481","0.28758525119770545","1146419"
"20:20:42:424 (H:m:s:ms)","GENERIC","155.68599999999998","0.2604440350484509","59211"
"20:20:48:484 (H:m:s:ms)","GENERIC","186.89499999999998","0.23979620093056495","731"
"21:10:1:0 (H:m:s:ms)","GENERIC","124.366","0.28640956307150556","828475"
"21:1:12:727 (H:m:s:ms)","GENERIC","186.31799999999998","0.25885415407983375","424016"
"20:42:43:636 (H:m:s:ms)","GENERIC","124.275","0.2298355775104874","142226"
"21:10:1:0 (H:m:s:ms)","GENERIC","124.144","0.25691295807369047","648044"
"21:2:38:0 (H:m:s:ms)","OPERA","124.31700000000001","0.2939018186734884","1771600"
"21:1:24:848 (H:m:s:ms)","GENERIC","155.215","0.2525508136688869","558891"
"20:20:54:545 (H:m:s:ms)","GENERIC","186.688","0.2752622416861294","89034"
"20:42:49:696 (H:m:s:ms)","GENERIC","93.152","0.2237454590950832","115374"
"21:1:30:909 (H:m:s:ms)","GENERIC","93.354","0.22865981211995326","375015"
"20:21:0:606 (H:m:s:ms)","GENERIC","155.675","0.24064821635161487","128306"
"20:42:54:683 (H:m:s:ms)","OPERA","124.494","0.21451232470262008","28817"
"21:1:34:736 (H:m:s:ms)","AMBULANCE","62.188","0.34314447582265517","644"
"20:21:6:666 (H:m:s:ms)","GENERIC","124.271","0.2566753281329784","34002"
"20:42:55:757 (H:m:s:ms)","GENERIC","187.022","0.22041663361847416","147916"
"21:1:36:969 (H:m:s:ms)","GENERIC","155.235","0.21550644206150035","1036"
"20:21:12:727 (H:m:s:ms)","GENERIC","124.124","0.25030391968319565","4767"
"21:5:48:0 (H:m:s:ms)","GENERIC","124.406","0.2642228934760998","1910795"
"21:1:43:30 (H:m:s:ms)","GENERIC","124.203","0.1994655753868115","234403"
"20:21:18:787 (H:m:s:ms)","GENERIC","155.3","0.26192763228489296","63999"
"20:43:7:878 (H:m:s:ms)","GENERIC","124.114","0.20564682833511735","53544"
"21:1:49:90 (H:m:s:ms)","GENERIC","155.663","0.21818210214311642","291811"
"20:21:24:848 (H:m:s:ms)","GENERIC","155.275","0.2592360872611723","12322"
"20:43:9:873 (H:m:s:ms)","OPERA","124.37299999999999","0.23420350816348767","196149"
"21:1:55:151 (H:m:s:ms)","GENERIC","186.439","0.19723211808026944","213854"
"21:4:45:0 (H:m:s:ms)","GENERIC","124.597","0.8308759750581798","4930008"
"21:5:48:0 (H:m:s:ms)","GENERIC","124.303","0.27701509211533887","1930475"
"20:21:36:969 (H:m:s:ms)","GENERIC","155.27","0.2438992221142372","12325"
"21:6:20:0 (H:m:s:ms)","OPERA","155.531","0.2707114448668305","1935992"
"20:21:43:30 (H:m:s:ms)","GENERIC","155.227","0.24251795150686437","21374"
"20:21:49:90 (H:m:s:ms)","GENERIC","155.727","0.240799019213665","156115"
"20:43:20:0 (H:m:s:ms)","GENERIC","124.144","0.2256519401893824","401275"
"21:5:16:0 (H:m:s:ms)","OPERA","124.45","0.2718106428688984","1671205"
"20:21:55:151 (H:m:s:ms)","GENERIC","155.20600000000002","0.2378201773476252","122274"
"21:5:48:0 (H:m:s:ms)","GENERIC","124.207","0.2559095991779333","1867839"
"20:22:1:212 (H:m:s:ms)","GENERIC","124.176","0.26311614116987136","481603"
"20:43:32:121 (H:m:s:ms)","GENERIC","155.275","0.20814031099977023","203824"
"20:22:7:272 (H:m:s:ms)","GENERIC","124.493","0.2808887122098715","2610179"
"20:43:38:181 (H:m:s:ms)","GENERIC","155.825","0.21630644868333906","92468"
"20:22:13:333 (H:m:s:ms)","GENERIC","155.359","0.2518471119994265","7051"
"21:6:51:0 (H:m:s:ms)","OPERA","124.598","0.26897019676480577","1857070"
"20:22:19:393 (H:m:s:ms)","GENERIC","124.236","0.236628550019963","56988"
"20:43:44:242 (H:m:s:ms)","GENERIC","155.248","0.22703383254890325","232342"
"20:22:25:454 (H:m:s:ms)","GENERIC","155.53","0.218742432912564","230236"
"21:3:42:0 (H:m:s:ms)","OPERA","93.275","0.2959212808622215","2147763"
"20:22:31:515 (H:m:s:ms)","GENERIC","124.53800000000001","0.25848962429124056","36712"
"21:5:48:0 (H:m:s:ms)","GENERIC","124.374","0.29258567748773073","1400243"
"20:22:37:575 (H:m:s:ms)","GENERIC","124.559","0.2215400808285048","205590"
"20:43:55:443 (H:m:s:ms)","OPERA","124.498","0.21964977234837268","46050"
"20:22:43:636 (H:m:s:ms)","GENERIC","155.299","0.249409192693358","790"
"20:22:49:696 (H:m:s:ms)","GENERIC","155.446","0.235427640210257","69124"
"20:43:56:363 (H:m:s:ms)","GENERIC","155.863","0.35533213695234045","1226812"
"20:44:2:424 (H:m:s:ms)","GENERIC","93.288","0.22398787465720107","132385"
"20:22:55:757 (H:m:s:ms)","GENERIC","155.797","0.24191214032828057","11720"
"21:7:23:0 (H:m:s:ms)","OPERA","124.466","0.2538583748314639","1801953"
"20:23:1:818 (H:m:s:ms)","GENERIC","155.423","0.2361128136924819","19673"
"21:4:45:0 (H:m:s:ms)","GENERIC","124.601","0.25192340880603964","2002312"
"20:23:7:878 (H:m:s:ms)","GENERIC","155.418","0.23523406182025772","14679"
"21:7:23:0 (H:m:s:ms)","OPERA","93.351","0.26705599520591866","1858109"
"20:23:13:939 (H:m:s:ms)","GENERIC","186.643","0.1995473559741694","129941"
"20:44:14:545 (H:m:s:ms)","GENERIC","155.45","0.3158621041820676","1212620"
"20:23:20:0 (H:m:s:ms)","GENERIC","155.255","0.2357900826481616","40507"
"21:7:23:0 (H:m:s:ms)","OPERA","155.503","0.3626995352672944","1969352"
"20:23:26:60 (H:m:s:ms)","GENERIC","155.505","0.22861397869796735","10422"
"20:44:20:606 (H:m:s:ms)","GENERIC","155.763","0.23001478847176543","121710"
"20:23:32:121 (H:m:s:ms)","GENERIC","155.23000000000002","0.2260347182299515","205709"
"20:44:25:822 (H:m:s:ms)","OPERA","93.391","0.2669429656310157","1202565"
"20:23:38:181 (H:m:s:ms)","GENERIC","155.836","0.20806925244250818","97912"
"20:44:26:666 (H:m:s:ms)","GENERIC","186.314","0.210188676261857","580"
"20:23:44:242 (H:m:s:ms)","GENERIC","155.308","0.22626943018508516","252071"
"20:23:50:303 (H:m:s:ms)","GENERIC","155.606","0.22681733789133987","1178"
"21:5:16:0 (H:m:s:ms)","GENERIC","155.37","0.2889352890932964","1873616"
"20:44:33:417 (H:m:s:ms)","OPERA","124.362","0.26104620958752933","1195310"
"20:23:56:363 (H:m:s:ms)","GENERIC","124.55","0.36654434040281114","2730536"
"20:44:38:787 (H:m:s:ms)","GENERIC","186.385","0.284609682803294","1229327"
"20:24:2:424 (H:m:s:ms)","GENERIC","186.63","0.21884571296283958","162896"
"21:7:54:0 (H:m:s:ms)","OPERA","124.573","0.26115028321683265","1857049"
"20:24:8:484 (H:m:s:ms)","GENERIC","124.62799999999999","0.7824468763886032","5517603"
"20:44:44:848 (H:m:s:ms)","GENERIC","186.83100000000002","0.20380663318993816","14746"
"20:24:14:545 (H:m:s:ms)","GENERIC","186.736","0.20892993234468815","80225"
"20:44:48:607 (H:m:s:ms)","OPERA","124.62","0.203437925024337","28964"
"20:24:20:606 (H:m:s:ms)","GENERIC","155.707","0.4608769871621899","2747384"
"20:44:50:909 (H:m:s:ms)","GENERIC","155.505","0.24963044623004704","1218220"
"20:24:26:666 (H:m:s:ms)","GENERIC","155.297","0.23833513639770565","585"
"21:3:42:0 (H:m:s:ms)","OPERA","124.29","0.27727916611794706","918528"
"20:24:32:727 (H:m:s:ms)","GENERIC","155.255","0.2110613307320639","2488"
"20:44:56:969 (H:m:s:ms)","GENERIC","155.699","0.21716320552775778","35331"
"20:24:38:787 (H:m:s:ms)","GENERIC","155.47899999999998","0.385096931944652","2644833"
"20:45:3:30 (H:m:s:ms)","GENERIC","155.282","0.24147230524718158","312783"
"20:24:44:848 (H:m:s:ms)","GENERIC","186.955","0.1971203939124315","832"
"20:24:50:909 (H:m:s:ms)","GENERIC","124.293","0.22852117746367165","216884"
"20:45:3:797 (H:m:s:ms)","OPERA","155.55599999999998","0.21701791420426841","24581"
"20:45:9:90 (H:m:s:ms)","GENERIC","155.515","0.26121505842849607","1279557"
"20:24:56:969 (H:m:s:ms)","GENERIC","124.60300000000001","0.19948774860343477","5450"
"21:8:57:0 (H:m:s:ms)","OPERA","155.393","0.31398329038398054","1950191"
"20:25:3:30 (H:m:s:ms)","GENERIC","155.305","0.22918209286814","362194"
"20:45:15:151 (H:m:s:ms)","GENERIC","155.806","0.2450156472594289","1310093"
"20:25:9:90 (H:m:s:ms)","GENERIC","124.432","0.19192193825968393","3174"
"20:45:18:987 (H:m:s:ms)","OPERA","124.6","0.23203358553267556","1305891"
"20:25:15:151 (H:m:s:ms)","GENERIC","124.364","0.4256212362838888","2693290"
"20:45:21:212 (H:m:s:ms)","GENERIC","155.774","0.4180146609072642","1339233"
"20:25:21:212 (H:m:s:ms)","GENERIC","155.77100000000002","0.7579953522581546","5332654"
"20:45:26:582 (H:m:s:ms)","OPERA","155.56900000000002","0.21736615044504753","57684"
"20:25:27:272 (H:m:s:ms)","GENERIC","155.85500000000002","0.2090499358463754","47036"
"20:45:27:272 (H:m:s:ms)","GENERIC","187.119","0.2094403509482345","36279"
"20:25:33:333 (H:m:s:ms)","GENERIC","155.825","0.2277505679029411","117968"
"20:45:33:333 (H:m:s:ms)","GENERIC","155.803","0.20839739215363026","1291276"
"20:25:39:393 (H:m:s:ms)","GENERIC","155.82","0.23204926566262932","1097059"
"21:7:54:0 (H:m:s:ms)","OPERA","124.464","0.2943467237263531","1394071"
"20:25:45:454 (H:m:s:ms)","GENERIC","124.161","0.21533961754947392","732"
"20:25:51:515 (H:m:s:ms)","GENERIC","186.758","0.2159912404346396","486"
"20:25:57:575 (H:m:s:ms)","GENERIC","124.63","0.24376242225929703","313294"
"20:26:3:636 (H:m:s:ms)","GENERIC","155.8","0.24076475129498454","37827"
"20:26:9:696 (H:m:s:ms)","GENERIC","155.687","0.2120152197769103","624"
"20:26:15:757 (H:m:s:ms)","GENERIC","124.19","0.2125711775521084","2678"
"20:26:21:818 (H:m:s:ms)","GENERIC","155.651","0.23600909991384283","420265"
"20:26:27:878 (H:m:s:ms)","GENERIC","155.843","0.2380936631043353","68124"
"20:26:33:939 (H:m:s:ms)","GENERIC","155.483","0.21551663490708517","1525"
"20:26:40:0 (H:m:s:ms)","GENERIC","155.341","0.2533738368785088","39954"
"20:26:46:60 (H:m:s:ms)","GENERIC","124.59100000000001","0.24021139358103905","85933"
"20:26:52:121 (H:m:s:ms)","GENERIC","186.177","0.2258665463005999","12451"
"20:26:58:181 (H:m:s:ms)","GENERIC","155.241","0.2355746887145079","22479"
"20:27:4:242 (H:m:s:ms)","GENERIC","155.59","0.23345721393985272","59976"
"20:27:10:303 (H:m:s:ms)","GENERIC","155.69400000000002","0.22856470112962096","24475"
"20:27:16:363 (H:m:s:ms)","GENERIC","155.52800000000002","0.23870289034183118","110369"
"20:27:22:424 (H:m:s:ms)","GENERIC","124.582","0.24872850355681078","101862"
"20:27:28:484 (H:m:s:ms)","GENERIC","155.463","0.23568527618853438","58086"
"20:27:34:545 (H:m:s:ms)","GENERIC","155.45","0.2430328234317126","174012"
"20:27:40:606 (H:m:s:ms)","GENERIC","155.824","0.23091336551304137","22103"
"20:27:46:666 (H:m:s:ms)","GENERIC","155.618","0.21866959703682587","15559"
"20:27:52:727 (H:m:s:ms)","GENERIC","187.041","0.24838101180091043","212076"
"20:27:58:787 (H:m:s:ms)","GENERIC","155.618","0.2487234367231247","61993"
"20:28:4:848 (H:m:s:ms)","GENERIC","155.828","0.24250705912951823","125093"
"20:28:10:909 (H:m:s:ms)","GENERIC","124.21799999999999","0.230118949150219","1452"
"20:28:16:969 (H:m:s:ms)","GENERIC","155.768","0.2171589822259948","1427"
"20:28:23:30 (H:m:s:ms)","GENERIC","93.253","0.2530158086337013","14973"
"20:28:29:90 (H:m:s:ms)","GENERIC","155.329","0.23553653138681085","9013"
"20:28:35:151 (H:m:s:ms)","GENERIC","124.541","0.24005002045630058","43554"
"20:28:41:212 (H:m:s:ms)","GENERIC","155.763","0.24751081247154344","95141"
"20:28:47:272 (H:m:s:ms)","GENERIC","124.12299999999999","0.23637514542292487","2921"
"20:28:53:333 (H:m:s:ms)","GENERIC","155.635","0.235240231719624","103567"
"20:28:59:393 (H:m:s:ms)","GENERIC","93.316","1.7206931080039254","5602593"
"20:29:5:454 (H:m:s:ms)","GENERIC","155.31","0.2586041359205106","202729"
"20:29:11:515 (H:m:s:ms)","GENERIC","155.81799999999998","0.20861885460840543","379456"
"20:29:17:575 (H:m:s:ms)","GENERIC","124.50200000000001","0.2029716324308757","394088"
"20:29:23:636 (H:m:s:ms)","GENERIC","186.701","0.2362225534973438","114710"
"20:29:29:696 (H:m:s:ms)","GENERIC","124.61099999999999","0.2314511089232499","185680"
"20:29:35:757 (H:m:s:ms)","GENERIC","124.238","0.2519663655176338","967"
"20:29:41:818 (H:m:s:ms)","GENERIC","186.768","0.2348418462718385","556"
"20:29:47:878 (H:m:s:ms)","GENERIC","124.412","0.24007970236155526","72157"
"20:29:53:939 (H:m:s:ms)","GENERIC","155.652","0.2426462184359306","19984"
"21:20:12:121 (H:m:s:ms)","GENERIC","155.83499999999998","0.4290090251796582","177799"
"21:20:15:189 (H:m:s:ms)","OPERA","155.582","0.2889163823433858","5574"
"21:20:18:181 (H:m:s:ms)","GENERIC","155.897","0.24887777121437285","21836"
"21:20:22:784 (H:m:s:ms)","OPERA","124.28399999999999","0.2823293827832244","478"
"21:20:24:242 (H:m:s:ms)","GENERIC","155.522","0.26283015461720044","12338"
"21:20:30:303 (H:m:s:ms)","GENERIC","155.627","0.27379838390163386","140209"
"21:20:30:379 (H:m:s:ms)","OPERA","155.433","0.26107635494791476","22317"
"21:20:36:363 (H:m:s:ms)","GENERIC","155.81900000000002","0.26270012450823976","18079"
"21:20:37:974 (H:m:s:ms)","OPERA","124.50699999999999","0.2556085547583884","132355"
"21:20:42:424 (H:m:s:ms)","GENERIC","124.405","0.2460320466697113","127875"
"21:20:45:569 (H:m:s:ms)","OPERA","124.518","0.2680386592535398","32650"
"21:20:48:484 (H:m:s:ms)","GENERIC","124.457","0.2560128082715205","18012"
"21:20:53:164 (H:m:s:ms)","OPERA","124.444","0.2600563358941197","1255"
"21:20:54:545 (H:m:s:ms)","GENERIC","124.464","0.23771237309733634","30188"
"21:21:0:606 (H:m:s:ms)","GENERIC","155.765","0.39463481576250203","125758"
"21:21:0:759 (H:m:s:ms)","OPERA","155.437","0.36669314362357736","126934"
"21:21:6:666 (H:m:s:ms)","GENERIC","124.187","0.2411809749514218","585"
"21:21:8:354 (H:m:s:ms)","OPERA","124.34","0.2750809735782546","1062"
"21:21:12:727 (H:m:s:ms)","GENERIC","155.152","0.26090770941505975","276"
"21:21:15:949 (H:m:s:ms)","OPERA","155.702","0.23511887031709522","1445"
"21:32:55:757 (H:m:s:ms)","GENERIC","124.551","0.4502844432042294","456470"
"21:32:37:894 (H:m:s:ms)","AMBULANCE","31.018","0.5992123954570523","317"
"21:38:26:0 (H:m:s:ms)","GENERIC","155.80100000000002","0.5645205875006357","425446"
"21:32:31:515 (H:m:s:ms)","GENERIC","155.881","0.5221280439065836","296703"
"21:37:54:0 (H:m:s:ms)","GENERIC","155.473","0.4682781126390819","225199"
"21:32:19:393 (H:m:s:ms)","GENERIC","155.303","0.280545817086729","10908"
"21:38:57:0 (H:m:s:ms)","GENERIC","186.451","1.1424553023150352","225683"
"21:32:7:272 (H:m:s:ms)","GENERIC","124.52799999999999","0.536667935925081","323362"
"21:21:18:787 (H:m:s:ms)","GENERIC","124.285","0.2357692350278275","8788"
"21:32:6:315 (H:m:s:ms)","AMBULANCE","31.025","0.5498494672735095","885"
"21:21:23:544 (H:m:s:ms)","OPERA","155.452","0.2291838549358264","83572"
"21:21:24:848 (H:m:s:ms)","GENERIC","155.235","0.25282089660253304","63918"
"21:21:30:909 (H:m:s:ms)","GENERIC","155.75799999999998","0.3631816263518559","95541"
"21:21:31:139 (H:m:s:ms)","OPERA","155.51999999999998","0.2420869479651303","11356"
"21:21:36:969 (H:m:s:ms)","GENERIC","124.14699999999999","0.2460810366570079","18973"
"21:21:38:734 (H:m:s:ms)","OPERA","186.433","0.23841443322727582","714"
"21:21:43:30 (H:m:s:ms)","GENERIC","155.243","0.2364193461255493","972"
"21:32:49:696 (H:m:s:ms)","GENERIC","155.238","0.27640425845805283","51822"
"21:21:46:329 (H:m:s:ms)","OPERA","124.561","0.24692968605271734","1681"
"21:32:43:636 (H:m:s:ms)","GENERIC","155.34","0.5157530708340023","276759"
"21:21:49:90 (H:m:s:ms)","GENERIC","155.766","0.3590390259489929","77795"
"21:38:57:0 (H:m:s:ms)","GENERIC","186.61599999999999","1.047665942783986","117421"
"21:33:56:363 (H:m:s:ms)","GENERIC","124.59899999999999","0.3946418782970355","403907"
"21:37:54:0 (H:m:s:ms)","GENERIC","155.28300000000002","0.4324129236631239","236089"
"21:33:38:181 (H:m:s:ms)","GENERIC","124.554","0.5664545529398518","519004"
"21:33:32:121 (H:m:s:ms)","GENERIC","155.269","0.30872186192113515","42861"
"21:33:26:60 (H:m:s:ms)","GENERIC","155.409","0.31847729837532407","133247"
"21:33:20:0 (H:m:s:ms)","GENERIC","155.294","0.33839726175543994","134788"
"21:33:13:939 (H:m:s:ms)","GENERIC","155.537","0.3119376936558989","64206"
"21:21:53:924 (H:m:s:ms)","OPERA","155.47","0.24516983500290107","1691"
"21:33:7:878 (H:m:s:ms)","GENERIC","155.342","0.3092363853937736","68732"
"21:21:55:151 (H:m:s:ms)","GENERIC","124.25200000000001","0.30821420064209243","108610"
"21:38:57:0 (H:m:s:ms)","GENERIC","124.386","1.0515933958005281","141088"
"21:22:1:212 (H:m:s:ms)","GENERIC","124.18299999999999","0.29769054762817637","102805"
"21:22:1:518 (H:m:s:ms)","OPERA","155.728","0.33593511904213547","65745"
"21:22:7:272 (H:m:s:ms)","GENERIC","124.537","0.35304539581120736","130800"
"21:22:9:113 (H:m:s:ms)","OPERA","186.638","0.31470912885840846","59184"
"21:22:13:333 (H:m:s:ms)","GENERIC","155.43599999999998","0.23816677974680023","1276"
"21:22:16:708 (H:m:s:ms)","OPERA","155.554","0.2388431616225074","4560"
"21:22:19:393 (H:m:s:ms)","GENERIC","124.31899999999999","0.230711796051619","7412"
"21:22:24:303 (H:m:s:ms)","OPERA","124.502","0.2662522581084999","43484"
"21:33:50:303 (H:m:s:ms)","GENERIC","155.441","0.2816281135288859","8610"
"21:40:1:0 (H:m:s:ms)","GENERIC","155.813","0.7465985865352276","371933"
"21:36:51:0 (H:m:s:ms)","GENERIC","124.28999999999999","0.3787142234907495","73111"
"21:40:1:0 (H:m:s:ms)","GENERIC","155.642","0.8037498401725831","197612"
"21:34:44:210 (H:m:s:ms)","AMBULANCE","124.603","0.4032150545561183","1026"
"21:38:57:0 (H:m:s:ms)","GENERIC","155.397","0.8973061354477634","122554"
"21:34:32:727 (H:m:s:ms)","GENERIC","155.339","0.30039704865744316","276"
"21:34:26:666 (H:m:s:ms)","GENERIC","93.191","0.3067482024784996","13427"
"21:40:1:0 (H:m:s:ms)","GENERIC","124.457","0.8160023533799327","434684"
"21:22:25:454 (H:m:s:ms)","GENERIC","124.32900000000001","0.2553079716224947","42936"
"21:40:1:0 (H:m:s:ms)","GENERIC","155.438","0.9093961905302402","145426"
"21:22:31:515 (H:m:s:ms)","GENERIC","155.80599999999998","0.24122243883827366","54938"
"21:34:12:631 (H:m:s:ms)","AMBULANCE","62.16","0.6005164943066443","663"
"21:2:1:212 (H:m:s:ms)","GENERIC","124.21000000000001","0.30987093229333534","1209807"
"21:22:31:898 (H:m:s:ms)","OPERA","155.594","0.24173066910740715","36653"
"21:34:8:484 (H:m:s:ms)","GENERIC","155.817","0.5639075681729595","485174"
"21:2:6:315 (H:m:s:ms)","AMBULANCE","124.437","0.2809255121130561","1116"
"21:22:37:575 (H:m:s:ms)","GENERIC","93.316","0.2504703530238395","83177"
"21:2:7:272 (H:m:s:ms)","GENERIC","155.726","0.6242779652227086","2048371"
"21:22:39:493 (H:m:s:ms)","OPERA","124.518","0.23032132111275497","29521"
"21:10:1:0 (H:m:s:ms)","GENERIC","155.393","0.2904337278304333","350386"
"21:22:43:636 (H:m:s:ms)","GENERIC","155.323","0.2537965204160598","57052"
"21:2:19:393 (H:m:s:ms)","GENERIC","155.42000000000002","0.24570417607160042","769085"
"21:22:47:88 (H:m:s:ms)","OPERA","124.30099999999999","0.23393470218457935","87458"
"21:2:25:454 (H:m:s:ms)","GENERIC","155.628","0.26385167593762104","722212"
"21:22:49:696 (H:m:s:ms)","GENERIC","155.348","0.24704929338914003","73095"
"21:34:13:0 (H:m:s:ms)","GENERIC","124.49600000000001","0.5899513238366004","1941427"
"21:22:54:683 (H:m:s:ms)","OPERA","155.494","0.23414814370300596","79823"
"21:2:37:575 (H:m:s:ms)","GENERIC","93.309","0.2679056104669961","1688972"
"21:40:1:0 (H:m:s:ms)","GENERIC","124.43100000000001","0.7570720536888391","347645"
"21:2:37:894 (H:m:s:ms)","AMBULANCE","124.484","0.3842813476158315","1077"
"21:2:43:636 (H:m:s:ms)","GENERIC","124.218","0.24541249647920527","311270"
"21:35:57:575 (H:m:s:ms)","GENERIC","124.571","0.620506717565266","467457"
"21:40:1:0 (H:m:s:ms)","GENERIC","155.553","0.7245883044383361","156327"
"21:35:45:454 (H:m:s:ms)","GENERIC","155.286","0.37694107988911424","8833"
"21:35:39:393 (H:m:s:ms)","GENERIC","124.588","0.8600028171290104","431238"
"21:35:33:333 (H:m:s:ms)","GENERIC","93.307","0.49309881087083673","384363"
"21:35:27:272 (H:m:s:ms)","GENERIC","155.75400000000002","0.42089811310756314","200708"
"21:35:21:212 (H:m:s:ms)","GENERIC","124.559","0.8585564966290353","454074"
"21:35:16:0 (H:m:s:ms)","GENERIC","155.552","0.8625100091964115","326227"
"21:35:15:789 (H:m:s:ms)","AMBULANCE","93.27","1.041831027065917","639"
"21:23:2:278 (H:m:s:ms)","OPERA","93.364","0.24516997679220132","130559"
"21:35:15:151 (H:m:s:ms)","GENERIC","155.719","0.43576184488810976","18956"
"21:2:49:696 (H:m:s:ms)","GENERIC","124.19800000000001","0.2800741093843608","560291"
"21:23:7:878 (H:m:s:ms)","GENERIC","155.426","0.2306600069940946","90352"
"21:38:57:0 (H:m:s:ms)","GENERIC","155.514","0.8507245250712271","218919"
"21:2:55:757 (H:m:s:ms)","GENERIC","155.77100000000002","0.23825406317862463","67621"
"21:23:9:873 (H:m:s:ms)","OPERA","155.502","0.23611793491679609","64175"
"21:35:3:30 (H:m:s:ms)","GENERIC","155.368","0.38785137135212855","150612"
"21:3:1:818 (H:m:s:ms)","GENERIC","155.532","0.2603498938466587","930680"
"21:23:13:939 (H:m:s:ms)","GENERIC","155.269","0.27381239544873187","226736"
"21:3:7:878 (H:m:s:ms)","GENERIC","155.48","0.29689039407277784","817438"
"21:23:17:468 (H:m:s:ms)","OPERA","124.492","0.23460466206145647","3575"
"21:3:9:473 (H:m:s:ms)","AMBULANCE","93.371","0.3406187081367891","658"
"21:23:20:0 (H:m:s:ms)","GENERIC","155.405","0.23527596586149982","32748"
"21:3:13:939 (H:m:s:ms)","GENERIC","186.484","0.2826532062205624","586125"
"21:23:25:63 (H:m:s:ms)","OPERA","124.403","0.23618207524253346","47067"
"21:3:20:0 (H:m:s:ms)","GENERIC","186.339","0.2989423886208707","946147"
"21:23:26:60 (H:m:s:ms)","GENERIC","155.489","0.23794594031777394","4831"
"21:3:26:60 (H:m:s:ms)","GENERIC","155.31799999999998","0.21760561363515912","32729"
"21:23:32:121 (H:m:s:ms)","GENERIC","155.225","0.27967276534646524","217752"
"21:3:32:121 (H:m:s:ms)","GENERIC","155.171","0.2158271868990933","21163"
"21:34:45:0 (H:m:s:ms)","GENERIC","124.608","1.0402879269396845","2224676"
"21:36:52:121 (H:m:s:ms)","GENERIC","124.125","0.3463531869482482","6907"
"21:36:50:526 (H:m:s:ms)","AMBULANCE","93.328","1.2539974404808716","865"
"21:40:1:0 (H:m:s:ms)","GENERIC","124.5","0.5507935082938166","28683"
"21:36:40:0 (H:m:s:ms)","GENERIC","124.282","0.3466352359471107","31179"
"21:36:33:939 (H:m:s:ms)","GENERIC","155.223","0.36290186672709834","1374"
"21:36:27:878 (H:m:s:ms)","GENERIC","124.34700000000001","0.6913476485266573","234795"
"21:23:32:658 (H:m:s:ms)","OPERA","124.503","0.24670886532328282","14182"
"21:37:54:0 (H:m:s:ms)","GENERIC","124.356","0.7829222078709932","184944"
"21:23:38:181 (H:m:s:ms)","GENERIC","124.486","0.502283859803377","550083"
"21:36:18:947 (H:m:s:ms)","AMBULANCE","124.534","0.9604598104982817","1552"
"21:3:41:52 (H:m:s:ms)","AMBULANCE","93.362","0.31843125235824565","1346"
"21:23:40:253 (H:m:s:ms)","OPERA","124.505","0.25063089988457166","95514"
"21:40:1:0 (H:m:s:ms)","GENERIC","155.64600000000002","0.6520763759225958","193848"
"21:3:44:242 (H:m:s:ms)","GENERIC","124.261","0.29490363124574814","528540"
"21:30:1:0 (H:m:s:ms)","GENERIC","124.27600000000001","0.38363316631979694","182519"
"21:40:1:0 (H:m:s:ms)","GENERIC","155.711","0.6541147383356604","142913"
"21:8:57:0 (H:m:s:ms)","GENERIC","155.56400000000002","0.2901216335077948","201012"
"21:23:47:848 (H:m:s:ms)","OPERA","155.497","0.3079997576674841","275440"
"21:36:3:636 (H:m:s:ms)","GENERIC","155.729","0.40299464716435496","260815"
"21:3:56:363 (H:m:s:ms)","GENERIC","155.885","0.35507715475464513","2197426"
"21:23:50:303 (H:m:s:ms)","GENERIC","124.327","0.2794560200301458","129082"
"21:4:2:424 (H:m:s:ms)","GENERIC","186.68900000000002","0.26576315660096517","986496"
"21:23:55:443 (H:m:s:ms)","OPERA","124.585","0.26243893105111316","193000"
"21:4:8:484 (H:m:s:ms)","GENERIC","155.821","0.32832445648640435","2184748"
"21:34:45:0 (H:m:s:ms)","GENERIC","124.588","1.043907386826702","784671"
"21:4:12:631 (H:m:s:ms)","AMBULANCE","124.41900000000001","0.33458646890772503","600"
"21:24:2:424 (H:m:s:ms)","GENERIC","155.434","0.24466138519870495","36684"
"21:10:1:0 (H:m:s:ms)","GENERIC","186.58800000000002","0.27861891510674724","173707"
"21:34:13:0 (H:m:s:ms)","OPERA","155.58599999999998","0.3741104378158744","450986"
"21:4:20:606 (H:m:s:ms)","GENERIC","124.477","0.2658221493467169","728288"
"21:4:26:666 (H:m:s:ms)","GENERIC","186.293","0.28864121233006784","357033"
"21:37:52:727 (H:m:s:ms)","GENERIC","187.12800000000001","0.6934658277875729","321029"
"21:37:46:666 (H:m:s:ms)","GENERIC","124.326","0.5798367910002423","124199"
"21:37:40:606 (H:m:s:ms)","GENERIC","155.827","0.48532896862265534","265665"
"21:38:57:0 (H:m:s:ms)","GENERIC","124.266","0.5491534141847239","75574"
"21:40:1:0 (H:m:s:ms)","GENERIC","124.49799999999999","0.45264018046399523","45105"
"21:37:22:424 (H:m:s:ms)","GENERIC","155.70600000000002","0.4012767027032891","124107"
"21:24:8:484 (H:m:s:ms)","GENERIC","155.888","0.23780863369522837","112767"
"21:35:16:0 (H:m:s:ms)","OPERA","186.601","0.8279808061867736","273785"
"21:37:22:105 (H:m:s:ms)","AMBULANCE","124.589","0.43530205045008197","1298"
"21:4:32:727 (H:m:s:ms)","GENERIC","124.41","0.28398175687364263","490871"
"21:24:14:545 (H:m:s:ms)","GENERIC","155.617","0.2244310492996638","750"
"21:37:16:363 (H:m:s:ms)","GENERIC","124.316","0.4229588756816698","8167"
"21:4:38:787 (H:m:s:ms)","GENERIC","124.294","0.2728772758636144","765508"
"21:24:18:227 (H:m:s:ms)","OPERA","186.614","0.23386672346786672","7553"
"21:40:1:0 (H:m:s:ms)","GENERIC","155.672","0.4731705972215396","64193"
"21:4:44:210 (H:m:s:ms)","AMBULANCE","93.503","0.2670696825714001","1068"
"21:24:20:606 (H:m:s:ms)","GENERIC","187.059","0.23128538693878783","736"
"21:40:1:0 (H:m:s:ms)","GENERIC","155.508","0.5064328213311047","88045"
"21:4:44:848 (H:m:s:ms)","GENERIC","124.383","0.3220791537967748","959600"
"21:32:38:0 (H:m:s:ms)","OPERA","155.442","0.40545483443809444","250674"
"21:38:57:0 (H:m:s:ms)","GENERIC","155.387","0.6479517386981372","37377"
"21:10:1:0 (H:m:s:ms)","GENERIC","155.375","0.2561225827420501","240822"
"21:24:26:666 (H:m:s:ms)","GENERIC","124.32900000000001","0.24479413281819556","16860"
"21:35:16:0 (H:m:s:ms)","GENERIC","155.768","0.8071049007987235","1982492"
"21:24:32:727 (H:m:s:ms)","GENERIC","155.445","0.24276407330013358","31923"
"21:5:3:30 (H:m:s:ms)","GENERIC","186.20499999999998","0.20960276969701377","1276"
"21:24:33:417 (H:m:s:ms)","OPERA","155.453","0.24264450373865015","16958"
"21:5:9:90 (H:m:s:ms)","GENERIC","155.457","0.29928001790865066","998678"
"21:24:38:787 (H:m:s:ms)","GENERIC","124.235","0.27899607542916477","117762"
"21:5:15:151 (H:m:s:ms)","GENERIC","186.828","0.28301709330885266","1043730"
"21:5:15:789 (H:m:s:ms)","AMBULANCE","124.48599999999999","0.41255884522173175","640"
"21:38:47:272 (H:m:s:ms)","GENERIC","124.249","0.39119541967316557","868"
"21:38:41:212 (H:m:s:ms)","GENERIC","155.64600000000002","1.3626891636149236","21070"
"21:38:35:151 (H:m:s:ms)","GENERIC","93.357","0.48315633233584354","109635"
"21:38:29:90 (H:m:s:ms)","GENERIC","124.16499999999999","0.37981192535052294","1188"
"21:38:25:263 (H:m:s:ms)","AMBULANCE","93.42999999999999","0.4804308654828315","928"
"21:38:23:30 (H:m:s:ms)","GENERIC","155.639","0.5633804691235017","76136"
"21:38:16:969 (H:m:s:ms)","GENERIC","124.409","0.42565997294755104","19695"
"21:34:13:0 (H:m:s:ms)","OPERA","124.58699999999999","0.5745346666367394","365003"
"21:34:13:0 (H:m:s:ms)","GENERIC","124.418","0.5343439777425982","364164"
"21:5:21:212 (H:m:s:ms)","GENERIC","124.544","1.0295157601031908","2142658"
"21:24:48:607 (H:m:s:ms)","OPERA","155.394","0.3103702248997214","351763"
"21:9:29:0 (H:m:s:ms)","GENERIC","155.56900000000002","0.281201961572048","155960"
"21:34:13:0 (H:m:s:ms)","GENERIC","155.48700000000002","1.040672148253187","454719"
"21:38:10:909 (H:m:s:ms)","GENERIC","155.222","0.382180211207752","1389"
"21:4:45:0 (H:m:s:ms)","GENERIC","93.351","0.3367396775843748","1290470"
"21:5:33:333 (H:m:s:ms)","GENERIC","124.572","0.2828274936698031","382445"
"21:38:57:0 (H:m:s:ms)","OPERA","124.42","0.5255665121694917","689163"
"21:40:1:0 (H:m:s:ms)","GENERIC","124.544","0.8622444010341472","146647"
"20:45:41:772 (H:m:s:ms)","OPERA","155.76600000000002","0.203097248401539","654721"
"21:5:39:393 (H:m:s:ms)","GENERIC","124.549","1.2523440672664556","2269912"
"21:24:56:969 (H:m:s:ms)","GENERIC","124.614","0.24056117610669892","59010"
"21:40:1:0 (H:m:s:ms)","GENERIC","155.571","0.44252754853203585","83857"
"20:45:45:454 (H:m:s:ms)","GENERIC","155.248","0.2114138067462811","58077"
"21:5:45:454 (H:m:s:ms)","GENERIC","124.277","0.3109166311017935","6715"
"21:25:3:30 (H:m:s:ms)","GENERIC","155.29500000000002","0.4565945101879742","417611"
"21:37:53:684 (H:m:s:ms)","AMBULANCE","62.155","1.4039223829326595","611"
"21:40:1:0 (H:m:s:ms)","GENERIC","155.538","0.42556537230259256","3255145"
"21:5:47:368 (H:m:s:ms)","AMBULANCE","93.354","0.3924494249718266","947"
"21:38:57:0 (H:m:s:ms)","OPERA","155.34300000000002","0.5059428172995817","607883"
"20:45:56:962 (H:m:s:ms)","OPERA","93.35499999999999","0.21321140437626745","50010"
"21:5:51:515 (H:m:s:ms)","GENERIC","155.59199999999998","0.26757522612176915","766403"
"21:25:9:90 (H:m:s:ms)","GENERIC","155.52499999999998","0.3862343138244021","412687"
"21:40:1:0 (H:m:s:ms)","GENERIC","155.846","0.6851597039061065","3669826"
"21:40:1:0 (H:m:s:ms)","GENERIC","155.792","0.6900182135479458","2447437"
"21:25:11:392 (H:m:s:ms)","OPERA","155.512","0.25934121324415366","14593"
"20:46:3:636 (H:m:s:ms)","GENERIC","124.57900000000001","0.2162003065662368","20413"
"21:6:3:636 (H:m:s:ms)","GENERIC","124.543","0.35514715968149674","1876791"
"21:8:26:0 (H:m:s:ms)","OPERA","155.723","0.27719144710160043","1963885"
"21:40:1:0 (H:m:s:ms)","GENERIC","124.371","0.7093913083306526","2174863"
"21:40:1:0 (H:m:s:ms)","GENERIC","124.392","0.674509158373186","2994353"
"20:46:15:757 (H:m:s:ms)","GENERIC","124.17699999999999","0.2584566730716381","1171372"
"21:39:47:878 (H:m:s:ms)","GENERIC","124.355","0.4645131731971843","1128"
"21:39:41:818 (H:m:s:ms)","GENERIC","124.309","0.4651813796570019","640"
"21:39:35:757 (H:m:s:ms)","GENERIC","155.414","0.4639817828043493","941"
"21:39:29:696 (H:m:s:ms)","GENERIC","124.574","0.7633412402556795","177133"
"21:39:23:636 (H:m:s:ms)","GENERIC","155.477","0.4646915772035188","697"
"21:39:17:575 (H:m:s:ms)","GENERIC","124.36099999999999","0.38378027991209956","67538"
"21:40:1:0 (H:m:s:ms)","GENERIC","155.825","0.8225007131965024","59106"
"21:39:5:454 (H:m:s:ms)","GENERIC","124.261","0.4442997891685403","547"
"21:35:16:0 (H:m:s:ms)","GENERIC","186.87","1.0275694025196702","411156"
"21:25:18:987 (H:m:s:ms)","OPERA","124.402","0.2756415211398537","20225"
"21:6:15:757 (H:m:s:ms)","GENERIC","124.27799999999999","0.40206518184886925","8722"
"21:25:21:212 (H:m:s:ms)","GENERIC","124.53800000000001","0.3662251122665306","530354"
"21:6:18:947 (H:m:s:ms)","AMBULANCE","124.40599999999999","0.46412177053120024","1408"
"21:25:26:582 (H:m:s:ms)","OPERA","124.376","0.2344816400691679","40612"
"20:46:19:746 (H:m:s:ms)","OPERA","93.295","0.2618474220689385","1280290"
"21:6:21:818 (H:m:s:ms)","GENERIC","155.631","0.25599271367786475","586408"
"21:25:27:272 (H:m:s:ms)","GENERIC","155.78699999999998","0.24545473671668963","907"
"21:38:57:0 (H:m:s:ms)","GENERIC","155.68200000000002","1.1289258909552065","3405378"
"21:6:27:878 (H:m:s:ms)","GENERIC","124.471","0.26373778028772155","909614"
"21:25:33:333 (H:m:s:ms)","GENERIC","124.55199999999999","0.4821485764266967","641829"
"21:38:59:393 (H:m:s:ms)","GENERIC","93.342","2.154851172337531","1287880"
"20:46:27:341 (H:m:s:ms)","OPERA","93.313","0.22762218152038416","12126"
"21:6:33:939 (H:m:s:ms)","GENERIC","155.226","0.26941251774895475","675881"
"21:38:57:0 (H:m:s:ms)","OPERA","124.34","0.4904275166431928","651237"
"21:38:56:842 (H:m:s:ms)","AMBULANCE","93.327","1.3948759318754085","563"
"20:46:27:878 (H:m:s:ms)","GENERIC","155.765","0.246993491752389","101547"
"21:6:40:0 (H:m:s:ms)","GENERIC","186.499","0.27263964755902304","541638"
"21:25:39:393 (H:m:s:ms)","GENERIC","155.899","1.2542330260620127","872946"
"21:40:1:0 (H:m:s:ms)","GENERIC","124.35900000000001","0.3907053912514942","50076"
"20:46:33:939 (H:m:s:ms)","GENERIC","124.22800000000001","0.23183265271730658","51642"
"21:40:1:0 (H:m:s:ms)","GENERIC","93.324","1.146225414491026","1831755"
"21:30:1:0 (H:m:s:ms)","OPERA","124.411","0.2559677780261464","49519"
"20:46:40:0 (H:m:s:ms)","GENERIC","124.477","0.21747805570782575","3367"
"21:6:50:526 (H:m:s:ms)","AMBULANCE","93.273","0.5216244829718097","683"
"21:25:45:454 (H:m:s:ms)","GENERIC","186.348","0.3634591079165389","505753"
"20:46:42:531 (H:m:s:ms)","OPERA","93.193","0.22719930941168556","42888"
"21:6:52:121 (H:m:s:ms)","GENERIC","155.203","0.2670073448014259","713661"
"20:46:46:60 (H:m:s:ms)","GENERIC","124.489","0.21588272281411036","242530"
"21:6:58:181 (H:m:s:ms)","GENERIC","155.328","0.26107203890365344","357294"
"20:46:50:126 (H:m:s:ms)","OPERA","93.346","0.24858622564116586","49024"
"20:46:52:121 (H:m:s:ms)","GENERIC","124.22800000000001","0.2342690369649444","75782"
"21:40:0:0 (H:m:s:ms)","GENERIC","124.479","1.1645160021204046","1879"
"21:40:42:424 (H:m:s:ms)","GENERIC","124.414","0.4740389273302846","801"
"21:40:36:363 (H:m:s:ms)","GENERIC","124.44200000000001","0.6891843740912602","48335"
"21:40:30:303 (H:m:s:ms)","GENERIC","93.244","0.4854470167461768","850"
"21:40:24:242 (H:m:s:ms)","GENERIC","124.392","0.5479958505021513","1116"
"21:40:18:181 (H:m:s:ms)","GENERIC","62.115","0.6532827699709214","1047"
"21:40:12:121 (H:m:s:ms)","GENERIC","124.589","0.446011991389988","50971"
"21:40:6:60 (H:m:s:ms)","GENERIC","124.38499999999999","0.7782164734091382","13374"
"21:40:0:0 (H:m:s:ms)","GENERIC","155.358","1.085031884418333","6415"
"21:7:4:242 (H:m:s:ms)","GENERIC","124.33","0.27577965946411265","810662"
"21:7:10:303 (H:m:s:ms)","GENERIC","124.744","0.24815947807074787","957020"
"20:46:57:721 (H:m:s:ms)","OPERA","124.45400000000001","0.20562721147492977","571"
"21:38:57:0 (H:m:s:ms)","GENERIC","124.312","0.47613183071675313","1893542"
"20:46:58:181 (H:m:s:ms)","GENERIC","124.227","0.23993926039236876","86384"
"21:7:22:105 (H:m:s:ms)","AMBULANCE","93.317","0.5303055637116999","1273"
"20:47:4:242 (H:m:s:ms)","GENERIC","155.595","0.23365704208362273","63685"
"21:7:22:424 (H:m:s:ms)","GENERIC","186.91","0.23517917613133024","1207822"
"20:47:5:316 (H:m:s:ms)","OPERA","124.402","0.23270088470618222","79572"
"21:7:28:484 (H:m:s:ms)","GENERIC","155.67000000000002","0.25004247271826363","322310"
"21:40:0:0 (H:m:s:ms)","AMBULANCE","93.254","1.162178642834621","1636"
"20:47:10:303 (H:m:s:ms)","GENERIC","155.511","0.24910792681956698","95443"
"21:10:1:0 (H:m:s:ms)","GENERIC","155.54899999999998","0.24130226727205062","263931"
"21:39:53:939 (H:m:s:ms)","GENERIC","155.599","0.4650224243380192","1852"
"20:47:12:911 (H:m:s:ms)","OPERA","124.47399999999999","0.24510590185508085","72927"
"21:7:40:606 (H:m:s:ms)","GENERIC","124.556","1.3937018360852755","2292601"
"20:47:16:363 (H:m:s:ms)","GENERIC","186.69","0.23882411851796304","112495"
"21:7:46:666 (H:m:s:ms)","GENERIC","155.667","0.2962230838165499","35312"
"20:47:20:506 (H:m:s:ms)","OPERA","124.496","0.22513460450125056","242031"
"21:7:52:727 (H:m:s:ms)","GENERIC","124.575","0.28784148687210354","147329"
"20:47:22:424 (H:m:s:ms)","GENERIC","155.829","0.2350125525014847","652004"
"20:47:28:101 (H:m:s:ms)","OPERA","124.512","0.22090434280835747","269834"
"21:7:53:684 (H:m:s:ms)","AMBULANCE","124.428","0.7284952302680853","636"
"21:7:58:787 (H:m:s:ms)","GENERIC","124.44200000000001","0.26765901043064144","53187"
"20:47:28:484 (H:m:s:ms)","GENERIC","155.731","0.2761185065352023","843170"
"21:8:4:848 (H:m:s:ms)","GENERIC","155.845","0.3006620412691216","151174"
"20:47:34:545 (H:m:s:ms)","GENERIC","155.563","0.21446675373896404","115205"
"21:8:10:909 (H:m:s:ms)","GENERIC","124.195","0.25058382933883366","40529"
"20:47:35:696 (H:m:s:ms)","OPERA","124.539","0.24308870643520838","69023"
"21:9:29:0 (H:m:s:ms)","GENERIC","155.599","0.43883714464857854","136761"
"20:47:40:606 (H:m:s:ms)","GENERIC","155.85","0.23668133591209226","163997"
"21:8:23:30 (H:m:s:ms)","GENERIC","155.715","0.2778866546024804","105220"
"20:47:43:291 (H:m:s:ms)","OPERA","124.615","0.238847026372646","80375"
"21:8:25:263 (H:m:s:ms)","AMBULANCE","93.31","0.428517441692834","1026"
"20:47:46:666 (H:m:s:ms)","GENERIC","155.784","0.22676845693276867","37493"
"21:8:29:90 (H:m:s:ms)","GENERIC","155.207","0.24849279662707602","14864"
"21:40:48:484 (H:m:s:ms)","GENERIC","124.315","0.4553519347126384","896"
"20:47:50:886 (H:m:s:ms)","OPERA","124.39699999999999","0.24800102641149593","135976"
"21:8:35:151 (H:m:s:ms)","GENERIC","155.853","0.2743745906895762","87868"
"20:47:52:727 (H:m:s:ms)","GENERIC","155.81099999999998","0.42355708331900027","1371062"
"21:8:41:212 (H:m:s:ms)","GENERIC","155.724","0.2897776725350429","106375"
"21:1:35:0 (H:m:s:ms)","OPERA","124.392","0.26340071651345126","835926"
"20:47:58:787 (H:m:s:ms)","GENERIC","124.5","0.23069638105499968","135348"
"21:10:1:0 (H:m:s:ms)","GENERIC","155.524","0.33663767058920124","112090"
"21:9:29:0 (H:m:s:ms)","GENERIC","186.557","0.2741122161088772","68637"
"20:48:4:848 (H:m:s:ms)","GENERIC","155.889","0.2159084058746787","202943"
"21:8:56:842 (H:m:s:ms)","AMBULANCE","93.345","0.5154393304954288","372"
"20:48:6:75 (H:m:s:ms)","OPERA","124.454","0.22667147170397015","315466"
"21:8:59:393 (H:m:s:ms)","GENERIC","124.605","0.5205792673549778","2269910"
"20:30:0:0 (H:m:s:ms)","GENERIC","155.414","0.213513956041461","100691"
"20:48:10:909 (H:m:s:ms)","GENERIC","155.26999999999998","0.2415579977471175","33014"
"21:9:5:454 (H:m:s:ms)","GENERIC","155.462","0.42836161652626864","90521"
"20:30:0:0 (H:m:s:ms)","GENERIC","187.04500000000002","0.25036513457913667","506787"
"20:48:13:670 (H:m:s:ms)","OPERA","124.386","0.24952889125501335","346108"
"21:9:11:515 (H:m:s:ms)","GENERIC","124.674","0.27789762295779274","76956"
"21:6:20:0 (H:m:s:ms)","GENERIC","124.50399999999999","0.3920479763964617","2177938"
"20:48:16:969 (H:m:s:ms)","GENERIC","155.823","0.2099601822985276","67297"
"21:9:17:575 (H:m:s:ms)","GENERIC","155.673","0.2752772899080319","35659"
"20:30:12:121 (H:m:s:ms)","GENERIC","155.84","0.23638731669403815","92497"
"20:48:21:265 (H:m:s:ms)","OPERA","124.449","0.22308423677723263","70138"
"21:9:23:636 (H:m:s:ms)","GENERIC","124.255","0.27590225267769286","25692"
"20:30:18:181 (H:m:s:ms)","GENERIC","155.673","0.22975003978343478","177370"
"20:48:23:30 (H:m:s:ms)","GENERIC","124.56","0.21264278275062717","268828"
"21:9:28:421 (H:m:s:ms)","AMBULANCE","93.322","0.4295750274764779","894"
"20:30:24:242 (H:m:s:ms)","GENERIC","186.79899999999998","0.23797609179303258","44331"
"20:48:28:860 (H:m:s:ms)","OPERA","124.513","0.24849649021353742","119612"
"21:9:29:696 (H:m:s:ms)","GENERIC","155.82600000000002","0.4319239586465062","60910"
"21:9:29:0 (H:m:s:ms)","GENERIC","155.618","0.3018494047424964","2525059"
"20:48:29:90 (H:m:s:ms)","GENERIC","155.224","0.22429118279255722","13985"
"20:30:36:363 (H:m:s:ms)","GENERIC","124.615","0.41978035521827445","2459752"
"20:48:35:151 (H:m:s:ms)","GENERIC","124.59100000000001","0.23388370236373968","364887"
"20:30:42:424 (H:m:s:ms)","GENERIC","124.428","0.23432222072712053","60936"
"20:30:48:484 (H:m:s:ms)","GENERIC","155.586","0.2388963963891141","177765"
"21:9:35:757 (H:m:s:ms)","GENERIC","155.287","0.26663156387165904","36009"
"21:9:41:818 (H:m:s:ms)","GENERIC","124.376","0.37419891275333445","48844"
"20:48:36:455 (H:m:s:ms)","OPERA","155.53","0.24618027050592406","117461"
"21:9:47:878 (H:m:s:ms)","GENERIC","155.527","0.37158101268142457","40883"
"21:9:29:0 (H:m:s:ms)","GENERIC","155.72199999999998","0.41171708488291847","1229814"
"21:9:53:939 (H:m:s:ms)","GENERIC","155.405","0.4732832631289062","8616"
"20:30:54:545 (H:m:s:ms)","GENERIC","155.615","0.23923297752642653","1175"
"20:48:44:50 (H:m:s:ms)","OPERA","124.547","0.23532267676898863","111172"
"21:10:0:0 (H:m:s:ms)","AMBULANCE","62.152","0.47757198835049464","1237"
"20:31:0:606 (H:m:s:ms)","GENERIC","155.76","0.23447797711595264","97539"
"20:48:47:272 (H:m:s:ms)","GENERIC","124.195","0.20281570994121625","287916"
"21:10:0:0 (H:m:s:ms)","GENERIC","155.358","0.4631283981252327","2888"
"20:31:6:666 (H:m:s:ms)","GENERIC","155.30200000000002","0.224256403615278","35387"
"21:7:23:0 (H:m:s:ms)","OPERA","93.238","0.4348461685079795","629424"
"21:10:0:0 (H:m:s:ms)","GENERIC","155.668","0.35964858018469764","28950"
"20:31:12:727 (H:m:s:ms)","GENERIC","124.242","0.21929998021390207","29282"
"21:9:29:0 (H:m:s:ms)","GENERIC","155.569","0.38247192216160714","1142078"
"21:10:6:60 (H:m:s:ms)","GENERIC","124.582","0.29536147017793934","36620"
"20:31:18:787 (H:m:s:ms)","GENERIC","155.426","0.22337201187088213","214"
"20:48:59:240 (H:m:s:ms)","OPERA","124.58","0.20851281125925636","144460"
"21:10:12:121 (H:m:s:ms)","GENERIC","155.82999999999998","0.3529343513356039","80706"
"20:31:24:848 (H:m:s:ms)","GENERIC","155.24599999999998","0.23485080091139487","85415"
"20:48:59:393 (H:m:s:ms)","GENERIC","155.788","0.2893774421189444","1815983"
"21:10:18:181 (H:m:s:ms)","GENERIC","155.587","0.3241417126479066","17195"
"20:31:30:909 (H:m:s:ms)","GENERIC","155.85399999999998","0.2322888234404073","94920"
"20:49:5:454 (H:m:s:ms)","GENERIC","155.303","0.21519787427638382","7613"
"20:31:36:969 (H:m:s:ms)","GENERIC","155.283","0.22782628353682416","45243"
"20:49:6:835 (H:m:s:ms)","OPERA","93.419","0.23296891847058201","34152"
"20:31:43:30 (H:m:s:ms)","GENERIC","186.257","0.22064891909123927","7348"
"20:31:49:90 (H:m:s:ms)","GENERIC","155.689","0.20365791399068398","270334"
"20:49:11:515 (H:m:s:ms)","GENERIC","155.894","0.22252347802574912","1122132"
"20:49:14:430 (H:m:s:ms)","OPERA","93.4","0.211861631601436","111818"
"20:31:55:151 (H:m:s:ms)","GENERIC","155.246","0.2186930497244753","120442"
"20:49:17:575 (H:m:s:ms)","GENERIC","124.497","0.21183537342827202","106168"
"20:32:1:212 (H:m:s:ms)","GENERIC","155.23","0.24076869005347845","334966"
"20:49:22:25 (H:m:s:ms)","OPERA","124.612","0.198405173281401","150112"
"20:32:7:272 (H:m:s:ms)","GENERIC","186.945","0.22502072941237505","28033"
"20:49:23:636 (H:m:s:ms)","GENERIC","155.57999999999998","0.20803763211939746","252035"
"20:32:13:333 (H:m:s:ms)","GENERIC","186.518","0.2178944593947658","88779"
"21:9:29:0 (H:m:s:ms)","OPERA","124.477","0.4484272781519589","855091"
"20:32:19:393 (H:m:s:ms)","GENERIC","155.39600000000002","0.23676634819794576","61034"
"20:49:29:696 (H:m:s:ms)","GENERIC","187.111","0.21383436679900825","624742"
"20:32:25:454 (H:m:s:ms)","GENERIC","155.47899999999998","0.20830771624223904","183428"
"20:49:35:757 (H:m:s:ms)","GENERIC","155.35500000000002","0.2095897185983128","99535"
"20:32:31:515 (H:m:s:ms)","GENERIC","124.503","0.7325370910461106","2359416"
"20:49:37:215 (H:m:s:ms)","OPERA","124.479","0.21651693619486395","495884"
"20:32:37:575 (H:m:s:ms)","GENERIC","124.553","0.4232324177963414","2333011"
"20:49:41:818 (H:m:s:ms)","GENERIC","155.63799999999998","0.20708702663143697","272236"
"20:32:43:636 (H:m:s:ms)","GENERIC","155.406","0.22507820945181123","249868"
"20:32:49:696 (H:m:s:ms)","GENERIC","155.29000000000002","0.23678822506105893","24420"
"20:49:44:810 (H:m:s:ms)","OPERA","155.411","0.2383074444493892","332853"
"20:49:47:878 (H:m:s:ms)","GENERIC","155.57","0.21365481119311794","118043"
"20:32:55:757 (H:m:s:ms)","GENERIC","155.743","0.7243379425333398","2335334"
"20:49:52:405 (H:m:s:ms)","OPERA","93.13","0.2008326991529229","160244"
"20:33:1:818 (H:m:s:ms)","GENERIC","124.386","0.22738681308278255","57935"
"20:49:53:939 (H:m:s:ms)","GENERIC","155.659","0.2136917417264075","61383"
"20:33:7:878 (H:m:s:ms)","GENERIC","155.328","0.22777276452103273","10632"
"20:50:0:0 (H:m:s:ms)","OPERA","124.55","0.21641552852845491","33485"
"20:33:13:939 (H:m:s:ms)","GENERIC","186.588","0.20822815226228397","5559"
"20:50:0:0 (H:m:s:ms)","GENERIC","155.27499999999998","0.2083928128919096","113369"
"20:33:20:0 (H:m:s:ms)","GENERIC","124.19","0.24246838396061599","42167"
"20:50:0:0 (H:m:s:ms)","GENERIC","155.90699999999998","0.21006182297178766","1039442"
"20:33:26:60 (H:m:s:ms)","GENERIC","155.401","0.23408729281612017","34553"
"20:50:6:60 (H:m:s:ms)","GENERIC","155.697","0.21142473776329895","189719"
"20:33:32:121 (H:m:s:ms)","GENERIC","93.098","0.2223565226950174","69475"
"20:50:12:121 (H:m:s:ms)","GENERIC","155.858","0.21400205042250972","75718"
"20:33:38:181 (H:m:s:ms)","GENERIC","155.772","0.7240399909793442","2290351"
"20:50:18:181 (H:m:s:ms)","GENERIC","124.528","0.21794929212516945","337824"
"20:33:44:242 (H:m:s:ms)","GENERIC","155.233","0.20696234284568407","131228"
"20:33:50:303 (H:m:s:ms)","GENERIC","155.678","0.2007567819020739","135117"
"20:50:24:242 (H:m:s:ms)","GENERIC","124.423","0.22918301693539675","325127"
"20:50:30:303 (H:m:s:ms)","GENERIC","124.512","0.21284018146036165","348303"
"20:33:56:363 (H:m:s:ms)","GENERIC","155.869","0.21864068522301555","22348"
"20:50:36:363 (H:m:s:ms)","GENERIC","124.62899999999999","0.21040540923379103","175862"
"20:34:2:424 (H:m:s:ms)","GENERIC","124.368","0.21387400437057316","166665"
"20:50:42:424 (H:m:s:ms)","GENERIC","124.385","0.2992121632388188","1024188"
"20:10:0:0 (H:m:s:ms)","GENERIC","124.71199999999999","0.2409607697428701","42118"
"20:34:8:484 (H:m:s:ms)","GENERIC","124.62299999999999","0.6091357416552013","2626195"
"20:50:48:484 (H:m:s:ms)","GENERIC","155.56900000000002","0.23020616866960414","228570"
"20:10:0:0 (H:m:s:ms)","GENERIC","155.264","0.24405383486088028","5671"
"20:34:14:545 (H:m:s:ms)","GENERIC","186.6","0.2230503304479522","799"
"21:9:29:0 (H:m:s:ms)","GENERIC","155.482","0.37247432611212394","1053776"
"20:10:6:60 (H:m:s:ms)","GENERIC","124.58500000000001","0.24381949874040648","47511"
"20:34:20:606 (H:m:s:ms)","GENERIC","187.00799999999998","0.20613526873395155","687"
"20:51:0:606 (H:m:s:ms)","GENERIC","186.946","0.21455755827377954","1167"
"20:10:12:121 (H:m:s:ms)","GENERIC","155.872","0.20660950177302592","87756"
"20:34:26:666 (H:m:s:ms)","GENERIC","186.357","0.2211882709635798","182816"
"20:51:6:666 (H:m:s:ms)","GENERIC","155.268","0.2318548376200437","163873"
"20:10:18:181 (H:m:s:ms)","GENERIC","155.744","0.2578954774416077","3327"
"20:34:32:727 (H:m:s:ms)","GENERIC","124.156","0.2195180293943447","5282"
"20:51:12:727 (H:m:s:ms)","GENERIC","124.157","0.2277813570053564","219528"
"20:10:24:242 (H:m:s:ms)","GENERIC","186.759","0.24050841172513274","30641"
"20:34:38:787 (H:m:s:ms)","GENERIC","186.476","0.19828656212855486","4610"
"20:51:18:787 (H:m:s:ms)","GENERIC","155.393","0.1956461304761477","599"
"20:10:30:303 (H:m:s:ms)","GENERIC","155.781","0.24241301969474136","3091"
"20:34:44:848 (H:m:s:ms)","GENERIC","155.712","0.19623477171897472","19757"
"20:10:36:363 (H:m:s:ms)","GENERIC","124.60499999999999","0.609698030362959","4112768"
"20:34:50:909 (H:m:s:ms)","GENERIC","124.227","0.23757978969731625","218065"
"20:10:42:424 (H:m:s:ms)","GENERIC","155.68900000000002","0.2269550194530972","28010"
"20:10:48:484 (H:m:s:ms)","GENERIC","124.29599999999999","0.24603266598592338","93533"
"20:51:24:848 (H:m:s:ms)","GENERIC","186.2","0.24824818945704444","427397"
"20:51:30:909 (H:m:s:ms)","GENERIC","187.07","0.1961944106435219","71161"
"20:34:56:969 (H:m:s:ms)","GENERIC","155.714","0.21735817998331203","670747"
"20:51:36:969 (H:m:s:ms)","GENERIC","155.248","0.2126402918358913","4688"
"20:35:3:30 (H:m:s:ms)","GENERIC","155.284","0.22933722920301025","98086"
"20:51:43:30 (H:m:s:ms)","GENERIC","155.215","0.2045929927418062","4256"
"20:10:54:545 (H:m:s:ms)","GENERIC","155.611","0.2402185058196792","870"
"20:35:9:90 (H:m:s:ms)","GENERIC","155.624","0.20815610691264094","48870"
"21:5:48:0 (H:m:s:ms)","GENERIC","124.423","0.3557326732045196","685466"
"20:11:0:606 (H:m:s:ms)","GENERIC","124.565","0.2212797027470482","395"
"20:35:15:151 (H:m:s:ms)","GENERIC","186.745","0.22177872469315435","68353"
"20:51:55:151 (H:m:s:ms)","GENERIC","155.24099999999999","0.24034999769065096","429794"
"20:11:6:666 (H:m:s:ms)","GENERIC","124.17099999999999","0.2074001254741749","31909"
"20:35:21:212 (H:m:s:ms)","GENERIC","155.781","0.3050600414480945","2399586"
"20:52:1:212 (H:m:s:ms)","GENERIC","155.203","0.19262716411332392","26063"
"20:11:12:727 (H:m:s:ms)","GENERIC","124.108","0.22378276409948683","2802"
"20:35:27:272 (H:m:s:ms)","GENERIC","155.71","0.20488405689700745","968"
"20:52:7:272 (H:m:s:ms)","GENERIC","155.824","0.21574114343306808","190162"
"20:11:18:787 (H:m:s:ms)","GENERIC","155.321","0.22742501820045907","2795"
"20:35:33:333 (H:m:s:ms)","GENERIC","186.859","0.4075717825313683","2253765"
"20:52:13:333 (H:m:s:ms)","GENERIC","155.302","0.19267096581401638","928"
"20:11:24:848 (H:m:s:ms)","GENERIC","186.316","0.20554609762018367","620"
"20:35:39:393 (H:m:s:ms)","GENERIC","155.848","0.2140525759674027","1304122"
"20:52:19:393 (H:m:s:ms)","GENERIC","155.591","0.19085062140591524","5332"
"20:11:30:909 (H:m:s:ms)","GENERIC","155.857","0.2713982044523842","4039071"
"20:35:45:454 (H:m:s:ms)","GENERIC","186.281","0.21349441607481368","69823"
"20:11:36:969 (H:m:s:ms)","GENERIC","124.247","0.21780420472612588","9639"
"20:35:51:515 (H:m:s:ms)","GENERIC","155.566","0.24542662611860078","176582"
"20:11:43:30 (H:m:s:ms)","GENERIC","124.224","0.22566398162574805","18582"
"20:11:49:90 (H:m:s:ms)","GENERIC","155.684","0.2169675957521668","3363"
"20:0:54:545 (H:m:s:ms)","GENERIC","124.463","0.29121092421094585","978"
"20:1:0:606 (H:m:s:ms)","GENERIC","93.478","0.30318096422133883","739"
"20:1:6:666 (H:m:s:ms)","GENERIC","62.147","0.30908305808839776","664"
"20:1:12:727 (H:m:s:ms)","GENERIC","93.07","0.31738967912178456","636"
"20:1:18:787 (H:m:s:ms)","GENERIC","124.37","0.32709318851694985","921"
"20:1:24:848 (H:m:s:ms)","GENERIC","93.137","0.3331597305866901","475"
"20:1:30:909 (H:m:s:ms)","GENERIC","93.559","0.3386061946675379","1386"
"20:1:36:969 (H:m:s:ms)","GENERIC","93.166","0.3443138116308044","1337"
"20:1:43:30 (H:m:s:ms)","GENERIC","93.12899999999999","0.34519454224090274","1212"
"20:1:49:90 (H:m:s:ms)","GENERIC","93.442","0.34719395753611415","1234"
"20:35:57:575 (H:m:s:ms)","GENERIC","124.575","0.21306711453080907","1993655"
"20:36:3:636 (H:m:s:ms)","GENERIC","93.323","0.24335467389865634","635358"
"20:11:55:151 (H:m:s:ms)","GENERIC","124.212","0.21340198207198807","6436"
"20:36:9:696 (H:m:s:ms)","GENERIC","124.40700000000001","0.6376183512687427","2131912"
"20:12:1:212 (H:m:s:ms)","GENERIC","93.131","0.24420251699158643","15937"
"20:36:15:757 (H:m:s:ms)","GENERIC","124.301","0.21262029075086783","68862"
"20:12:7:272 (H:m:s:ms)","GENERIC","124.564","0.23237118505485846","113217"
"20:36:21:818 (H:m:s:ms)","GENERIC","124.449","0.24383368376506712","124077"
"20:12:13:333 (H:m:s:ms)","GENERIC","124.18","0.22753005143762475","4212"
"21:9:29:0 (H:m:s:ms)","GENERIC","124.521","0.2625457331713353","2254480"
"20:12:19:393 (H:m:s:ms)","GENERIC","124.321","0.23063226315953067","63591"
"20:36:33:939 (H:m:s:ms)","GENERIC","155.471","0.20889000615557654","3530"
"20:12:25:454 (H:m:s:ms)","GENERIC","186.561","0.22336769562295447","5195"
"20:36:40:0 (H:m:s:ms)","GENERIC","155.642","0.22207652783591691","104345"
"20:12:31:515 (H:m:s:ms)","GENERIC","155.707","0.5273870303492791","3990218"
"20:36:46:60 (H:m:s:ms)","GENERIC","187.003","0.21292651645490826","578641"
"20:12:37:575 (H:m:s:ms)","GENERIC","155.808","0.2132025847572756","2654"
"20:36:52:121 (H:m:s:ms)","GENERIC","155.18","0.24146735710116174","173720"
"20:12:43:636 (H:m:s:ms)","GENERIC","93.194","0.21139477584365288","2660"
"20:12:49:696 (H:m:s:ms)","GENERIC","186.348","0.24733971208672173","15130"
"20:1:55:151 (H:m:s:ms)","GENERIC","62.085","0.34806785282494346","1055"
"20:2:1:212 (H:m:s:ms)","GENERIC","93.077","0.34773090116162125","995"
"20:2:7:272 (H:m:s:ms)","GENERIC","93.515","0.34764349281513734","902"
"20:2:13:333 (H:m:s:ms)","GENERIC","93.196","0.34713960982340014","883"
"20:2:19:393 (H:m:s:ms)","GENERIC","62.16","0.3514593493262297","892"
"20:2:25:454 (H:m:s:ms)","GENERIC","124.415","0.35188147605131165","810"
"20:2:31:515 (H:m:s:ms)","GENERIC","62.278999999999996","0.3534089490579192","615"
"20:2:37:575 (H:m:s:ms)","GENERIC","93.556","0.3543594038464522","642"
"20:2:43:636 (H:m:s:ms)","GENERIC","62.105999999999995","0.3514390834998968","571"
"20:2:49:696 (H:m:s:ms)","GENERIC","62.094","0.3468438499000548","709"
"20:36:58:181 (H:m:s:ms)","GENERIC","155.425","0.23690114981054555","67925"
"20:37:4:242 (H:m:s:ms)","GENERIC","155.482","0.23832130169714544","145102"
"20:12:55:757 (H:m:s:ms)","GENERIC","155.804","0.21440587093206903","2250"
"20:37:10:303 (H:m:s:ms)","GENERIC","155.663","0.22299120488451213","27085"
"20:13:1:818 (H:m:s:ms)","GENERIC","186.605","0.22704785724064816","3459"
"21:8:26:0 (H:m:s:ms)","GENERIC","93.161","0.3553678584275697","2084508"
"20:13:7:878 (H:m:s:ms)","GENERIC","155.295","0.24847025398493833","41196"
"20:37:22:424 (H:m:s:ms)","GENERIC","155.802","0.22485897999299162","42208"
"20:13:13:939 (H:m:s:ms)","GENERIC","124.38","0.21969573541779186","4572"
"21:9:29:0 (H:m:s:ms)","GENERIC","155.511","0.2898384226634271","2134905"
"20:13:20:0 (H:m:s:ms)","GENERIC","124.237","0.24085937304913269","32916"
"21:10:1:0 (H:m:s:ms)","GENERIC","155.425","0.30673323320363455","1902162"
"20:13:26:60 (H:m:s:ms)","GENERIC","155.624","0.23827654254810565","153342"
"20:37:40:606 (H:m:s:ms)","GENERIC","155.86200000000002","0.22397372960378156","626629"
"20:13:32:121 (H:m:s:ms)","GENERIC","124.2","0.2326958958026983","169915"
"21:9:29:0 (H:m:s:ms)","GENERIC","155.607","0.4027808385759254","2058361"
"20:13:38:181 (H:m:s:ms)","GENERIC","155.893","0.21752944015902403","236222"
"20:37:52:727 (H:m:s:ms)","GENERIC","124.57","0.22643823621993173","17129"
"20:13:44:242 (H:m:s:ms)","GENERIC","124.289","0.22304977661543174","11204"
"20:13:50:303 (H:m:s:ms)","GENERIC","155.502","0.25264835724854084","165736"
"20:2:55:757 (H:m:s:ms)","GENERIC","124.694","0.3426547994269061","614"
"20:3:1:818 (H:m:s:ms)","GENERIC","124.399","0.33633712654482234","608"
"20:3:7:878 (H:m:s:ms)","GENERIC","124.38","0.324243394042564","715"
"20:3:13:939 (H:m:s:ms)","GENERIC","124.42599999999999","0.3137818662106082","1607"
"20:3:20:0 (H:m:s:ms)","GENERIC","124.174","0.3067896337614566","1281"
"20:3:26:60 (H:m:s:ms)","GENERIC","124.556","0.30066201982815194","1805"
"20:3:32:121 (H:m:s:ms)","GENERIC","93.215","0.2872535951050474","1259"
"20:3:38:181 (H:m:s:ms)","GENERIC","124.786","0.21360257969907948","99894"
"20:3:44:242 (H:m:s:ms)","GENERIC","124.257","0.2861480891820594","1288"
"20:3:50:303 (H:m:s:ms)","GENERIC","155.745","0.26820184281479853","1325"
"21:9:29:0 (H:m:s:ms)","GENERIC","93.44200000000001","0.2688092027585319","2194259"
"20:38:4:848 (H:m:s:ms)","GENERIC","155.75","0.5466337792886733","2378910"
"20:13:56:363 (H:m:s:ms)","GENERIC","124.578","0.23331651277681903","253690"
"20:38:10:909 (H:m:s:ms)","GENERIC","155.36599999999999","0.23627420947593042","30112"
"20:14:2:424 (H:m:s:ms)","GENERIC","186.684","0.226302366107965","31039"
"21:9:29:0 (H:m:s:ms)","GENERIC","93.265","0.3765379409732283","1609771"
"20:14:8:484 (H:m:s:ms)","GENERIC","124.644","0.22778580305747773","4885"
"20:38:23:30 (H:m:s:ms)","GENERIC","155.624","0.44225099620798","1994190"
"20:14:14:545 (H:m:s:ms)","GENERIC","155.41899999999998","0.21626666774319878","78136"
"20:38:29:90 (H:m:s:ms)","GENERIC","155.243","0.2740853647176324","10477"
"20:14:20:606 (H:m:s:ms)","GENERIC","124.491","0.21359196156352722","1361682"
"20:38:35:151 (H:m:s:ms)","GENERIC","186.977","0.24646119617776455","104609"
"20:14:26:666 (H:m:s:ms)","GENERIC","155.375","0.24362779131007775","120459"
"20:38:41:212 (H:m:s:ms)","GENERIC","155.815","0.256231396289786","16169"
"20:14:32:727 (H:m:s:ms)","GENERIC","155.27100000000002","0.22400338138450812","822"
"20:38:47:272 (H:m:s:ms)","GENERIC","124.186","0.23706465946599786","10104"
"20:14:38:787 (H:m:s:ms)","GENERIC","124.196","0.2016752972069232","633"
"20:38:53:333 (H:m:s:ms)","GENERIC","186.645","0.2408007039868964","7447"
"20:14:44:848 (H:m:s:ms)","GENERIC","124.446","0.20774365247882318","15249"
"20:14:50:909 (H:m:s:ms)","GENERIC","155.592","0.2433624663004306","25463"
"20:3:56:363 (H:m:s:ms)","GENERIC","93.504","0.23863616859685724","131015"
"20:4:2:424 (H:m:s:ms)","GENERIC","124.508","0.25396810298036687","1145"
"20:4:8:484 (H:m:s:ms)","GENERIC","124.841","0.2557566955818965","152047"
"20:4:14:545 (H:m:s:ms)","GENERIC","124.44","0.24439338333007876","941"
"20:4:20:606 (H:m:s:ms)","GENERIC","93.555","0.21995203380273773","80456"
"20:4:26:666 (H:m:s:ms)","GENERIC","93.249","0.23866084626829853","105813"
"20:4:32:727 (H:m:s:ms)","GENERIC","155.47899999999998","0.22161558157007022","553"
"20:4:38:787 (H:m:s:ms)","GENERIC","93.121","0.24907814064085917","99839"
"20:4:44:848 (H:m:s:ms)","GENERIC","124.66499999999999","0.2297162226550659","23672"
"20:4:50:909 (H:m:s:ms)","GENERIC","124.59199999999998","0.23092340761159708","62368"
"20:38:59:393 (H:m:s:ms)","GENERIC","93.29899999999999","1.713934647878018","5022496"
"20:39:5:454 (H:m:s:ms)","GENERIC","155.35","0.2294889416942113","731"
"20:14:56:969 (H:m:s:ms)","GENERIC","155.735","0.22748694194941632","39142"
"20:39:11:515 (H:m:s:ms)","GENERIC","124.595","0.24076393390907552","6783"
"20:15:3:30 (H:m:s:ms)","GENERIC","155.251","0.23987165586558773","125865"
"20:39:17:575 (H:m:s:ms)","GENERIC","155.728","0.2512904091930403","49512"
"20:15:9:90 (H:m:s:ms)","GENERIC","124.50399999999999","0.22251529076457585","7646"
"20:39:23:636 (H:m:s:ms)","GENERIC","155.686","0.2216265937863136","97217"
"20:15:15:151 (H:m:s:ms)","GENERIC","155.657","0.2166058238237995","16298"
"20:39:29:696 (H:m:s:ms)","GENERIC","124.57300000000001","0.22126337541048233","110719"
"20:15:21:212 (H:m:s:ms)","GENERIC","155.803","0.3160809499199655","4639885"
"20:39:35:757 (H:m:s:ms)","GENERIC","124.226","0.23428625284279503","3251"
"20:15:27:272 (H:m:s:ms)","GENERIC","155.575","0.22475468057170128","31123"
"20:39:41:818 (H:m:s:ms)","GENERIC","124.357","0.23028397855980348","40911"
"20:15:33:333 (H:m:s:ms)","GENERIC","155.75","0.22881315753889575","31127"
"20:39:47:878 (H:m:s:ms)","GENERIC","124.443","0.2126174320706132","49586"
"20:15:39:393 (H:m:s:ms)","GENERIC","124.58500000000001","0.23238601910192513","32042"
"20:39:53:939 (H:m:s:ms)","GENERIC","155.39499999999998","0.25654954497156696","4067"
"20:15:45:454 (H:m:s:ms)","GENERIC","124.203","0.21039948228331193","65651"
"20:15:51:515 (H:m:s:ms)","GENERIC","186.99200000000002","0.24438641103595252","46068"
"20:4:56:969 (H:m:s:ms)","GENERIC","93.512","0.21059860460045987","1375"
"20:5:3:30 (H:m:s:ms)","GENERIC","62.119","0.2308253637709298","1084"
"20:5:9:90 (H:m:s:ms)","GENERIC","124.42399999999999","0.21493538069765517","1655"
"20:5:15:151 (H:m:s:ms)","GENERIC","124.674","0.21438258988538064","5163"
"20:5:21:212 (H:m:s:ms)","GENERIC","93.507","0.2304461791581827","11496"
"20:5:27:272 (H:m:s:ms)","GENERIC","93.40100000000001","0.2145533308140069","1101"
"20:5:33:333 (H:m:s:ms)","GENERIC","93.486","0.2608311150725974","83774"
"20:5:39:393 (H:m:s:ms)","GENERIC","124.78","0.26511361697356284","97049"
"20:5:45:454 (H:m:s:ms)","GENERIC","93.139","0.26024453194195163","65013"
"20:5:51:515 (H:m:s:ms)","GENERIC","124.62","0.22517633724496272","858"
"20:15:57:575 (H:m:s:ms)","GENERIC","124.669","0.2867670011273421","4670070"
"20:16:3:636 (H:m:s:ms)","GENERIC","155.793","0.23605878133775035","499584"
"20:16:9:696 (H:m:s:ms)","GENERIC","155.722","0.2404594454216388","121836"
"20:16:15:757 (H:m:s:ms)","GENERIC","124.217","0.2191309105332933","23499"
"20:16:21:818 (H:m:s:ms)","GENERIC","155.818","0.22099225048182458","1254995"
"20:16:27:878 (H:m:s:ms)","GENERIC","124.56299999999999","0.21568829868989797","573501"
"20:16:33:939 (H:m:s:ms)","GENERIC","186.297","0.229755616224287","1936"
"20:16:40:0 (H:m:s:ms)","GENERIC","155.40699999999998","0.24307445084639426","39220"
"20:16:46:60 (H:m:s:ms)","GENERIC","124.505","0.21391140267758796","1508"
"20:16:52:121 (H:m:s:ms)","GENERIC","155.346","0.24469806222242405","90524"
"20:5:57:575 (H:m:s:ms)","GENERIC","93.483","0.40194311265561067","3935864"
"20:6:3:636 (H:m:s:ms)","GENERIC","155.85","0.23094744870367603","474534"
"20:6:9:696 (H:m:s:ms)","GENERIC","124.725","0.25289787958115323","116895"
"20:6:15:757 (H:m:s:ms)","GENERIC","93.296","0.2473369890030138","4586"
"20:6:21:818 (H:m:s:ms)","GENERIC","124.512","0.2568507051991157","59263"
"20:6:27:878 (H:m:s:ms)","GENERIC","124.672","0.256825138548966","619"
"20:6:33:939 (H:m:s:ms)","GENERIC","124.36699999999999","0.24466515496417338","1691"
"20:6:40:0 (H:m:s:ms)","GENERIC","93.235","0.24126741988866052","70606"
"20:6:46:60 (H:m:s:ms)","GENERIC","93.541","0.23734751471767176","57464"
"20:6:52:121 (H:m:s:ms)","GENERIC","62.09","0.24430650167560855","25742"
"20:16:58:181 (H:m:s:ms)","GENERIC","155.262","0.22132105416715606","20397"
"20:17:4:242 (H:m:s:ms)","GENERIC","186.845","0.23982367364703366","1226"
"20:17:10:303 (H:m:s:ms)","GENERIC","124.489","0.22083022998504148","22121"
"20:17:16:363 (H:m:s:ms)","GENERIC","186.668","0.2301678844526149","100480"
"20:17:22:424 (H:m:s:ms)","GENERIC","155.826","0.2301747751196551","96054"
"20:17:28:484 (H:m:s:ms)","GENERIC","155.635","0.24421231933008264","68654"
"20:17:34:545 (H:m:s:ms)","GENERIC","186.55200000000002","0.2073032936072766","677"
"20:17:40:606 (H:m:s:ms)","GENERIC","124.51400000000001","0.3120961812068377","2719322"
"20:17:46:666 (H:m:s:ms)","GENERIC","155.511","0.24023851496047507","72134"
"20:17:52:727 (H:m:s:ms)","GENERIC","93.334","0.5864249881515553","4919237"
"20:6:58:181 (H:m:s:ms)","GENERIC","124.18599999999999","0.2514702973779637","1260"
"20:7:4:242 (H:m:s:ms)","GENERIC","124.623","0.25735982229516086","25215"
"20:7:10:303 (H:m:s:ms)","GENERIC","124.587","0.24535949453746278","12950"
"20:7:16:363 (H:m:s:ms)","GENERIC","93.328","0.2647269440760732","63910"
"20:7:22:424 (H:m:s:ms)","GENERIC","93.5","0.41248119721551335","3927913"
"20:7:28:484 (H:m:s:ms)","GENERIC","124.48499999999999","0.23956747120155486","964"
"20:7:34:545 (H:m:s:ms)","GENERIC","124.444","0.26127224666463245","30239"
"20:7:40:606 (H:m:s:ms)","GENERIC","156.005","0.21686892587945178","298519"
"20:7:46:666 (H:m:s:ms)","GENERIC","155.56","0.23996823109485338","17857"
"20:7:52:727 (H:m:s:ms)","GENERIC","156.00900000000001","0.21775638571328218","1790205"
"20:17:58:787 (H:m:s:ms)","GENERIC","155.734","0.22473117490993388","502493"
"20:18:4:848 (H:m:s:ms)","GENERIC","155.77100000000002","0.28549088286211033","4468046"
"20:18:10:909 (H:m:s:ms)","GENERIC","93.163","0.23827298301649788","1325"
"20:18:16:969 (H:m:s:ms)","GENERIC","124.356","0.24215679411265667","3384"
"20:18:23:30 (H:m:s:ms)","GENERIC","155.633","0.24621979881685296","168020"
"20:18:29:90 (H:m:s:ms)","GENERIC","124.178","0.2538362305691138","19416"
"21:3:42:0 (H:m:s:ms)","GENERIC","124.492","0.359142192235994","4443145"
"21:3:42:0 (H:m:s:ms)","GENERIC","155.68599999999998","0.4589305069284608","4575722"
"20:18:47:272 (H:m:s:ms)","GENERIC","124.293","0.23366245454901186","1146"
"20:18:53:333 (H:m:s:ms)","GENERIC","155.667","0.2556768125655012","232283"
"20:7:58:787 (H:m:s:ms)","GENERIC","93.523","0.2524445117684118","56490"
"20:8:4:848 (H:m:s:ms)","GENERIC","124.769","0.23823241747234836","490189"
"20:8:10:909 (H:m:s:ms)","GENERIC","93.156","0.25937231490259083","36448"
"20:8:16:969 (H:m:s:ms)","GENERIC","124.535","0.24961291749145803","1381"
"20:8:23:30 (H:m:s:ms)","GENERIC","124.459","0.27091843520349274","5260"
"20:8:29:90 (H:m:s:ms)","GENERIC","124.169","0.2512794762323305","1262"
"20:8:35:151 (H:m:s:ms)","GENERIC","62.232","0.6669654571501271","3871637"
"20:8:41:212 (H:m:s:ms)","GENERIC","124.735","0.2202353411406763","408521"
"20:8:47:272 (H:m:s:ms)","GENERIC","124.334","0.24192252266939887","1268"
"20:8:53:333 (H:m:s:ms)","GENERIC","93.345","0.2359198290367415","975"
"20:18:59:393 (H:m:s:ms)","GENERIC","155.80700000000002","0.20981049186532882","1167407"
"20:19:5:454 (H:m:s:ms)","GENERIC","124.304","0.22796368964047076","762"
"20:19:11:515 (H:m:s:ms)","GENERIC","155.828","0.23085171605160515","2670"
"20:19:17:575 (H:m:s:ms)","GENERIC","93.304","0.26671298803598764","44337"
"20:19:23:636 (H:m:s:ms)","GENERIC","124.26","0.25529304791516827","10796"
"20:19:29:696 (H:m:s:ms)","GENERIC","155.844","0.25113503151994415","187123"
"20:19:35:757 (H:m:s:ms)","GENERIC","186.603","0.28632742681005596","42837"
"20:19:41:818 (H:m:s:ms)","GENERIC","93.483","0.26677327210646207","30215"
"20:19:47:878 (H:m:s:ms)","GENERIC","155.601","0.2396772512039363","71243"
"20:19:53:939 (H:m:s:ms)","GENERIC","155.532","0.2746823572914201","25225"
"20:8:59:393 (H:m:s:ms)","GENERIC","62.303","1.9388932689756304","7138287"
"20:9:5:454 (H:m:s:ms)","GENERIC","124.28","0.25271634477547467","517390"
"20:9:11:515 (H:m:s:ms)","GENERIC","93.53","0.24283160691844585","777"
"20:9:17:575 (H:m:s:ms)","GENERIC","124.71900000000001","0.20049212213144643","138899"
"20:9:23:636 (H:m:s:ms)","GENERIC","155.673","0.24156747728626207","364"
"20:9:29:696 (H:m:s:ms)","GENERIC","93.562","0.514863990989804","4517456"
"20:9:35:757 (H:m:s:ms)","GENERIC","124.49799999999999","0.251713522991509","56417"
"20:9:41:818 (H:m:s:ms)","GENERIC","93.498","0.251339066591426","17932"
"20:9:47:878 (H:m:s:ms)","GENERIC","124.69","0.24151136891039557","22707"
"20:9:53:939 (H:m:s:ms)","GENERIC","93.227","0.24364337407634282","23015"
"21:41:30:909 (H:m:s:ms)","GENERIC","155.743","0.9494840056618413","174621"
"21:41:24:848 (H:m:s:ms)","GENERIC","155.198","0.690462673418363","430"
"21:41:18:787 (H:m:s:ms)","GENERIC","155.385","0.618564359530615","599"
"21:41:12:727 (H:m:s:ms)","GENERIC","93.07900000000001","0.617961364713981","433"
"21:41:6:666 (H:m:s:ms)","GENERIC","62.051","0.618624116907115","551"
"21:41:0:606 (H:m:s:ms)","GENERIC","155.763","0.4503865733388359","959"
"21:40:54:545 (H:m:s:ms)","GENERIC","93.247","0.44584879054343224","455"
"21:41:49:90 (H:m:s:ms)","GENERIC","124.411","0.6842984623671993","1479"
"21:41:43:30 (H:m:s:ms)","GENERIC","93.125","0.6883074385460051","1080"
"21:41:36:969 (H:m:s:ms)","GENERIC","124.213","0.6920384197310695","1745"
