"time (H:m:s:ms)","type","latency","utilisation","waiting"
"21:42:37:575 (H:m:s:ms)","GENERIC","124.13499999999999","0.6891233058883528","425"
"21:42:19:393 (H:m:s:ms)","GENERIC","124.33699999999999","0.6309673094118867","644"
"21:42:13:333 (H:m:s:ms)","GENERIC","124.361","0.6165659023481523","666"
"21:42:7:272 (H:m:s:ms)","GENERIC","93.35","0.652449740234581","727"
"21:42:1:212 (H:m:s:ms)","GENERIC","124.202","0.6174898680080623","788"
"21:41:55:151 (H:m:s:ms)","GENERIC","62.173","0.6108159353689699","848"
"21:41:49:90 (H:m:s:ms)","GENERIC","93.15299999999999","0.6079796054049726","946"
"21:41:43:30 (H:m:s:ms)","GENERIC","62.023","0.605311579236126","969"
"21:41:36:969 (H:m:s:ms)","GENERIC","93.206","0.6261957176957448","1030"
"21:42:31:515 (H:m:s:ms)","GENERIC","93.196","0.688409295954564","484"
"21:42:25:454 (H:m:s:ms)","GENERIC","62.049","0.670373739279887","545"
"21:43:44:242 (H:m:s:ms)","GENERIC","62.039","0.6829651396154481","758"
"21:43:38:181 (H:m:s:ms)","GENERIC","124.578","0.7482370531067278","818"
"21:43:26:60 (H:m:s:ms)","GENERIC","124.213","0.7443530516024766","939"
"20:0:0:0 (H:m:s:ms)","GENERIC","62.158","0.08826219120707313","1092"
"21:43:20:0 (H:m:s:ms)","GENERIC","124.201","0.7314893919427655","1037"
"20:0:6:60 (H:m:s:ms)","GENERIC","93.208","0.1299007014326043","940"
"21:43:13:939 (H:m:s:ms)","GENERIC","93.372","0.7333477544676327","1061"
"20:0:12:121 (H:m:s:ms)","GENERIC","62.167","0.15659089432840836","878"
"21:43:7:878 (H:m:s:ms)","GENERIC","93.213","0.7388248500145149","1122"
"20:0:18:181 (H:m:s:ms)","GENERIC","62.114","0.17707310399981221","818"
"21:43:1:818 (H:m:s:ms)","GENERIC","93.295","0.7413722569837156","181"
"20:0:24:242 (H:m:s:ms)","GENERIC","62.066","0.18524016962766301","758"
"21:42:55:757 (H:m:s:ms)","GENERIC","93.191","0.7488240748169348","242"
"20:0:30:303 (H:m:s:ms)","GENERIC","62.226","0.19763216026336217","712"
"21:42:49:696 (H:m:s:ms)","GENERIC","93.25399999999999","0.7014398212046653","339"
"20:0:36:363 (H:m:s:ms)","GENERIC","62.103","0.20882035262708482","637"
"21:42:43:636 (H:m:s:ms)","GENERIC","124.625","0.6936525511402926","363"
"20:0:42:424 (H:m:s:ms)","GENERIC","31.03","0.21151934622742474","576"
"21:10:24:242 (H:m:s:ms)","GENERIC","62.127","0.30422056210334986","758"
"20:0:48:484 (H:m:s:ms)","GENERIC","62.118","0.21603763063284281","516"
"21:10:30:303 (H:m:s:ms)","GENERIC","93.163","0.29547781508135834","722"
"21:10:36:363 (H:m:s:ms)","GENERIC","93.114","0.29123249136617174","637"
"21:10:42:424 (H:m:s:ms)","GENERIC","62.133","0.28591416313810963","575"
"21:10:48:484 (H:m:s:ms)","GENERIC","93.19800000000001","0.28004463287618603","516"
"21:10:54:545 (H:m:s:ms)","GENERIC","93.239","0.2802910105818736","454"
"21:11:0:606 (H:m:s:ms)","GENERIC","124.239","0.27870994357979384","393"
"21:11:6:666 (H:m:s:ms)","GENERIC","93.144","0.27697791048281895","333"
"21:43:32:121 (H:m:s:ms)","GENERIC","93.315","0.7407584721607485","879"
"21:11:12:727 (H:m:s:ms)","GENERIC","62.187","0.2821532946817813","272"
"21:11:18:787 (H:m:s:ms)","GENERIC","124.161","0.28739141710916266","212"
"21:25:51:515 (H:m:s:ms)","GENERIC","93.198","0.23360248338993655","18570"
"21:44:50:909 (H:m:s:ms)","GENERIC","93.378","0.5834615024336176","1090"
"21:44:44:848 (H:m:s:ms)","GENERIC","93.248","0.5820486452962156","152"
"21:44:38:787 (H:m:s:ms)","GENERIC","62.153000000000006","0.5959188382669526","238"
"21:44:32:727 (H:m:s:ms)","GENERIC","62.091","0.6265787813812452","273"
"21:44:26:666 (H:m:s:ms)","GENERIC","93.13","0.6269334051504437","333"
"21:44:20:606 (H:m:s:ms)","GENERIC","93.181","0.626237915607749","394"
"21:44:14:545 (H:m:s:ms)","GENERIC","93.13499999999999","0.660547057251706","455"
"21:44:8:484 (H:m:s:ms)","GENERIC","62.119","0.7286475814578327","516"
"21:44:2:424 (H:m:s:ms)","GENERIC","93.211","0.7436115437138888","575"
"21:43:56:363 (H:m:s:ms)","GENERIC","124.36699999999999","0.7146626795777599","636"
"21:11:24:848 (H:m:s:ms)","GENERIC","93.17","0.3138027276117911","152"
"21:43:50:303 (H:m:s:ms)","GENERIC","124.333","0.6994631852639374","697"
"21:11:30:909 (H:m:s:ms)","GENERIC","93.181","0.31966532849686863","1090"
"21:11:36:969 (H:m:s:ms)","GENERIC","124.196","0.32282405892355015","1031"
"21:11:43:30 (H:m:s:ms)","GENERIC","93.26400000000001","0.3187627392639096","969"
"21:11:49:90 (H:m:s:ms)","GENERIC","124.304","0.3080730034061919","947"
"21:11:55:151 (H:m:s:ms)","GENERIC","93.361","0.32761472791203095","848"
"21:12:1:212 (H:m:s:ms)","GENERIC","124.154","0.33740178101624047","787"
"21:12:7:272 (H:m:s:ms)","GENERIC","93.40100000000001","0.3343440985226586","727"
"21:12:13:333 (H:m:s:ms)","GENERIC","93.178","0.32724651840710617","667"
"21:12:19:393 (H:m:s:ms)","GENERIC","93.21000000000001","0.3224125593366938","645"
"21:26:27:878 (H:m:s:ms)","GENERIC","124.545","0.23697789106637382","142020"
"21:45:57:575 (H:m:s:ms)","GENERIC","93.334","0.6194328405079093","425"
"21:30:32:0 (H:m:s:ms)","OPERA","124.297","0.23043803324116988","4666"
"21:45:51:515 (H:m:s:ms)","GENERIC","93.19200000000001","0.6247795898206445","484"
"21:45:45:454 (H:m:s:ms)","GENERIC","124.291","0.6309183960939645","545"
"21:45:39:393 (H:m:s:ms)","GENERIC","124.378","0.6301022045059573","643"
"21:26:19:746 (H:m:s:ms)","OPERA","93.104","0.2309397087414355","291"
"21:26:15:757 (H:m:s:ms)","GENERIC","93.281","0.23876766459226745","55494"
"21:45:33:333 (H:m:s:ms)","GENERIC","93.325","0.6298627340965407","666"
"21:31:4:0 (H:m:s:ms)","OPERA","124.368","0.21708113534943613","12903"
"21:45:27:272 (H:m:s:ms)","GENERIC","93.13900000000001","0.6244393014390713","728"
"21:26:9:696 (H:m:s:ms)","GENERIC","124.354","0.2307659046262688","341"
"21:45:21:212 (H:m:s:ms)","GENERIC","124.64","0.6228817854157631","787"
"21:26:4:556 (H:m:s:ms)","OPERA","124.314","0.23612220594668254","444"
"21:45:15:151 (H:m:s:ms)","GENERIC","93.246","0.6193304466532131","848"
"21:26:3:636 (H:m:s:ms)","GENERIC","124.15100000000001","0.22543073575310635","5365"
"21:45:9:90 (H:m:s:ms)","GENERIC","93.281","0.6503638582977672","946"
"21:12:25:454 (H:m:s:ms)","GENERIC","93.316","0.39138131266469267","545"
"21:25:57:575 (H:m:s:ms)","GENERIC","93.328","0.25220188077143596","163446"
"21:45:3:30 (H:m:s:ms)","GENERIC","93.129","0.6498193787203209","969"
"21:12:31:515 (H:m:s:ms)","GENERIC","124.25800000000001","0.39478778823928223","484"
"21:25:56:962 (H:m:s:ms)","OPERA","93.107","0.25352885281565607","36208"
"21:44:56:969 (H:m:s:ms)","GENERIC","124.568","0.6457113726478442","1030"
"21:12:37:575 (H:m:s:ms)","GENERIC","93.168","0.3935881283390443","424"
"21:12:43:636 (H:m:s:ms)","GENERIC","124.62899999999999","0.3966469950960652","363"
"21:12:49:696 (H:m:s:ms)","GENERIC","93.25","0.3992258151193839","342"
"21:12:55:757 (H:m:s:ms)","GENERIC","124.271","0.4056759409201513","242"
"21:13:1:818 (H:m:s:ms)","GENERIC","62.087","0.4122318439841647","182"
"21:13:7:878 (H:m:s:ms)","GENERIC","124.219","0.41337525803239683","1121"
"21:13:13:939 (H:m:s:ms)","GENERIC","124.65700000000001","0.41219365449848705","1060"
"21:13:20:0 (H:m:s:ms)","GENERIC","124.156","0.42385796514749347","1039"
"21:26:21:818 (H:m:s:ms)","GENERIC","124.232","0.2489760879834678","18267"
"21:34:45:0 (H:m:s:ms)","OPERA","124.298","0.3525447134261684","208031"
"21:47:4:242 (H:m:s:ms)","GENERIC","124.464","0.6569823150290647","757"
"21:27:4:242 (H:m:s:ms)","GENERIC","124.51","0.2413959241855431","10803"
"21:46:58:181 (H:m:s:ms)","GENERIC","124.436","0.6551281174919581","818"
"21:26:58:181 (H:m:s:ms)","GENERIC","124.435","0.236987701647433","10859"
"21:46:52:121 (H:m:s:ms)","GENERIC","93.402","0.6534952886710855","4879"
"21:46:46:60 (H:m:s:ms)","GENERIC","124.181","0.6549259550123007","939"
"21:46:40:0 (H:m:s:ms)","GENERIC","93.163","0.6418544561136091","1038"
"21:26:57:721 (H:m:s:ms)","OPERA","124.368","0.23206457397341917","52533"
"21:26:52:121 (H:m:s:ms)","GENERIC","93.392","0.23262773017419874","4879"
"21:26:50:126 (H:m:s:ms)","OPERA","124.218","0.23620702496430246","874"
"21:46:33:939 (H:m:s:ms)","GENERIC","93.289","0.630660696542338","1061"
"21:26:46:60 (H:m:s:ms)","GENERIC","93.197","0.23915585853376747","940"
"21:46:27:878 (H:m:s:ms)","GENERIC","93.30199999999999","0.6448875925124631","1122"
"21:31:35:0 (H:m:s:ms)","OPERA","124.239","0.22038066919542018","83812"
"21:46:21:818 (H:m:s:ms)","GENERIC","93.14500000000001","0.6408551735823179","181"
"21:13:26:60 (H:m:s:ms)","GENERIC","93.156","0.42769885802748275","939"
"21:26:40:0 (H:m:s:ms)","GENERIC","93.21600000000001","0.24122152936922736","38169"
"21:46:15:757 (H:m:s:ms)","GENERIC","93.307","0.6393907846447499","242"
"21:13:32:121 (H:m:s:ms)","GENERIC","62.129","0.42660608768473834","878"
"21:26:34:936 (H:m:s:ms)","OPERA","93.131","0.2418992345754894","16147"
"21:46:9:696 (H:m:s:ms)","GENERIC","124.338","0.6205253953932692","341"
"21:13:38:181 (H:m:s:ms)","GENERIC","93.399","0.4290002527762911","818"
"21:26:33:939 (H:m:s:ms)","GENERIC","93.328","0.24478256165763282","1060"
"21:46:3:636 (H:m:s:ms)","GENERIC","124.274","0.6220285970955153","363"
"21:13:44:242 (H:m:s:ms)","GENERIC","62.053","0.41216799288001366","758"
"21:13:50:303 (H:m:s:ms)","GENERIC","93.178","0.411253348146917","696"
"21:13:56:363 (H:m:s:ms)","GENERIC","124.366","0.4150417184279974","637"
"21:14:2:424 (H:m:s:ms)","GENERIC","93.2","0.4157096655774505","575"
"21:14:8:484 (H:m:s:ms)","GENERIC","93.354","0.4233266581621348","515"
"21:14:14:545 (H:m:s:ms)","GENERIC","93.12","0.42051518362169027","454"
"21:14:20:606 (H:m:s:ms)","GENERIC","93.22","0.4169821020463097","394"
"21:27:43:291 (H:m:s:ms)","OPERA","124.327","0.28549141683779533","37175"
"21:48:10:909 (H:m:s:ms)","GENERIC","124.316","0.6593957976453686","1090"
"21:27:40:606 (H:m:s:ms)","GENERIC","93.358","0.24993335633746452","35821"
"21:48:4:848 (H:m:s:ms)","GENERIC","124.281","0.6400167519990146","152"
"21:27:35:696 (H:m:s:ms)","OPERA","124.255","0.23095800740148353","20684"
"21:47:58:787 (H:m:s:ms)","GENERIC","93.091","0.6426901736487552","212"
"21:27:34:545 (H:m:s:ms)","GENERIC","93.343","0.23564197234937057","10499"
"21:47:52:727 (H:m:s:ms)","GENERIC","93.141","0.6380607809078773","272"
"21:47:46:666 (H:m:s:ms)","GENERIC","93.34299999999999","0.6433471630856158","333"
"21:47:40:606 (H:m:s:ms)","GENERIC","124.616","0.6477820414371906","394"
"21:27:28:484 (H:m:s:ms)","GENERIC","124.57300000000001","0.2527648255302918","48026"
"21:34:45:0 (H:m:s:ms)","OPERA","93.123","0.3407822121067212","192172"
"21:27:22:424 (H:m:s:ms)","GENERIC","124.19300000000001","0.23487450210145985","16622"
"21:47:34:545 (H:m:s:ms)","GENERIC","62.077","0.6436578338578981","454"
"21:14:26:666 (H:m:s:ms)","GENERIC","93.19200000000001","0.409684196130264","333"
"21:31:35:0 (H:m:s:ms)","OPERA","124.43799999999999","0.22198468364796073","41666"
"21:47:28:484 (H:m:s:ms)","GENERIC","93.29","0.6349675314756508","515"
"21:14:32:727 (H:m:s:ms)","GENERIC","93.142","0.44133448537373626","272"
"21:32:38:0 (H:m:s:ms)","GENERIC","124.332","0.353693012088774","72948"
"21:47:22:424 (H:m:s:ms)","GENERIC","93.094","0.6557932987078854","575"
"20:52:25:454 (H:m:s:ms)","GENERIC","93.329","0.2451059141367824","2547"
"21:14:38:787 (H:m:s:ms)","GENERIC","93.35","0.4408488550380632","213"
"21:32:7:0 (H:m:s:ms)","OPERA","124.392","0.22499513018473621","34269"
"21:47:16:363 (H:m:s:ms)","GENERIC","93.234","0.6414134265777529","637"
"20:52:31:515 (H:m:s:ms)","GENERIC","124.218","0.254159414907715","35629"
"21:14:44:848 (H:m:s:ms)","GENERIC","124.405","0.4378281129883825","152"
"21:35:48:0 (H:m:s:ms)","GENERIC","93.372","0.30213554341329807","301863"
"21:47:10:303 (H:m:s:ms)","GENERIC","124.60900000000001","0.650341303885023","696"
"20:52:37:575 (H:m:s:ms)","GENERIC","124.197","0.2130374205246549","107940"
"21:14:50:909 (H:m:s:ms)","GENERIC","93.309","0.4391496608375099","1090"
"20:52:43:636 (H:m:s:ms)","GENERIC","124.59100000000001","0.23513595842266433","365"
"21:14:56:969 (H:m:s:ms)","GENERIC","93.303","0.4388620963382891","1031"
"20:52:49:696 (H:m:s:ms)","GENERIC","93.237","0.2367652333113609","346"
"21:15:3:30 (H:m:s:ms)","GENERIC","124.11099999999999","0.4405027795322916","969"
"20:52:55:757 (H:m:s:ms)","GENERIC","124.426","0.24129927368352272","242"
"21:15:9:90 (H:m:s:ms)","GENERIC","93.274","0.4407527258069113","1949"
"20:53:1:818 (H:m:s:ms)","GENERIC","93.315","0.24092996214920206","181"
"21:15:15:151 (H:m:s:ms)","GENERIC","93.25","0.43418361095410485","848"
"20:53:7:878 (H:m:s:ms)","GENERIC","124.152","0.2588012313697352","1121"
"21:15:21:212 (H:m:s:ms)","GENERIC","124.648","0.43879991427734405","787"
"20:53:13:939 (H:m:s:ms)","GENERIC","93.355","0.2656798659228373","1061"
"20:53:20:0 (H:m:s:ms)","GENERIC","124.184","0.2588284223280314","1045"
"21:28:21:265 (H:m:s:ms)","OPERA","93.149","0.2400795100010734","71036"
"21:49:17:575 (H:m:s:ms)","GENERIC","93.29400000000001","0.6950143079247287","425"
"21:28:16:969 (H:m:s:ms)","GENERIC","124.375","0.2667730040791678","167793"
"21:49:11:515 (H:m:s:ms)","GENERIC","124.418","0.6790210009656049","484"
"21:33:10:0 (H:m:s:ms)","OPERA","124.295","0.22847650121945548","5357"
"21:49:5:454 (H:m:s:ms)","GENERIC","93.097","0.6756152925986808","545"
"21:28:10:909 (H:m:s:ms)","GENERIC","124.381","0.24678317558657228","47268"
"21:48:59:393 (H:m:s:ms)","GENERIC","124.593","0.6771736800295549","643"
"21:28:6:75 (H:m:s:ms)","OPERA","124.21700000000001","0.2520065184990352","14010"
"21:48:53:333 (H:m:s:ms)","GENERIC","93.197","0.6699243452222793","666"
"21:48:47:272 (H:m:s:ms)","GENERIC","93.173","0.7284310334193322","727"
"21:48:41:212 (H:m:s:ms)","GENERIC","93.105","0.6611365200066078","787"
"21:28:4:848 (H:m:s:ms)","GENERIC","124.22","0.2441859435439926","17239"
"21:15:27:272 (H:m:s:ms)","GENERIC","93.113","0.44149980529263433","727"
"21:27:58:787 (H:m:s:ms)","GENERIC","124.12700000000001","0.24390863912509858","23341"
"21:15:33:333 (H:m:s:ms)","GENERIC","93.301","0.44657498535048645","666"
"21:27:58:481 (H:m:s:ms)","OPERA","124.206","0.25282781502536156","15603"
"21:48:35:151 (H:m:s:ms)","GENERIC","93.242","0.6612966634566211","848"
"20:53:26:60 (H:m:s:ms)","GENERIC","124.195","0.2707424145879266","939"
"21:15:39:393 (H:m:s:ms)","GENERIC","124.42","0.44664507365602296","646"
"21:27:52:727 (H:m:s:ms)","GENERIC","124.221","0.22953338967326184","5275"
"21:48:29:90 (H:m:s:ms)","GENERIC","124.235","0.6644196491196573","947"
"20:53:32:121 (H:m:s:ms)","GENERIC","124.517","0.2582280210426956","878"
"21:15:45:454 (H:m:s:ms)","GENERIC","124.357","0.4498265392190334","546"
"21:27:50:886 (H:m:s:ms)","OPERA","93.249","0.23194426236527227","1407"
"21:48:23:30 (H:m:s:ms)","GENERIC","93.172","0.6668900780355992","969"
"20:53:38:181 (H:m:s:ms)","GENERIC","93.381","0.25581727329262605","7862"
"21:15:51:515 (H:m:s:ms)","GENERIC","93.19999999999999","0.4079705800651475","485"
"21:32:38:0 (H:m:s:ms)","GENERIC","124.453","0.3245738268484421","6353"
"21:48:16:969 (H:m:s:ms)","GENERIC","124.406","0.6644359009782773","1031"
"20:53:44:242 (H:m:s:ms)","GENERIC","124.41","0.24620973183579714","1759"
"21:15:57:575 (H:m:s:ms)","GENERIC","124.598","0.40500145772390067","424"
"20:53:50:303 (H:m:s:ms)","GENERIC","124.414","0.23860355722556567","697"
"21:16:3:636 (H:m:s:ms)","GENERIC","93.152","0.40969622591813104","363"
"20:53:56:363 (H:m:s:ms)","GENERIC","93.226","0.23788318021032034","636"
"21:16:9:696 (H:m:s:ms)","GENERIC","93.197","0.40928637643319865","342"
"20:54:2:424 (H:m:s:ms)","GENERIC","93.243","0.24327491214368024","12621"
"21:16:15:757 (H:m:s:ms)","GENERIC","124.529","0.41274082364797204","242"
"20:54:8:484 (H:m:s:ms)","GENERIC","124.50800000000001","0.2292883161388422","9561"
"21:16:21:818 (H:m:s:ms)","GENERIC","93.102","0.4154723714503826","181"
"20:54:14:545 (H:m:s:ms)","GENERIC","93.12899999999999","0.23551152618084312","455"
"20:54:20:606 (H:m:s:ms)","GENERIC","124.351","0.22124397389690867","396"
"21:28:59:240 (H:m:s:ms)","OPERA","124.224","0.23880392557810085","798"
"22:10:0:0 (H:m:s:ms)","AMBULANCE","31.009","0.8681488273718129","1006"
"21:33:42:0 (H:m:s:ms)","GENERIC","124.425","0.22776182122079644","96087"
"22:8:25:263 (H:m:s:ms)","AMBULANCE","62.198","0.8944206429892129","741"
"21:34:45:0 (H:m:s:ms)","OPERA","124.262","0.2678321990698059","217509"
"22:4:44:210 (H:m:s:ms)","AMBULANCE","93.20400000000001","0.8757451707068442","794"
"21:34:45:0 (H:m:s:ms)","GENERIC","124.44900000000001","0.3024820573135847","137469"
"22:2:37:894 (H:m:s:ms)","AMBULANCE","93.369","0.894424741815518","108"
"21:28:44:50 (H:m:s:ms)","OPERA","93.219","0.24542335054984635","951"
"21:50:0:0 (H:m:s:ms)","GENERIC","62.074","0.7150737969827311","1037"
"21:34:45:0 (H:m:s:ms)","GENERIC","124.292","0.2716172230499415","169686"
"21:49:53:939 (H:m:s:ms)","GENERIC","93.203","0.7256270481717846","1061"
"21:49:47:878 (H:m:s:ms)","GENERIC","124.40899999999999","0.7866764625378543","1122"
"21:49:41:818 (H:m:s:ms)","GENERIC","62.077","0.7819569371044715","181"
"21:16:27:878 (H:m:s:ms)","GENERIC","93.308","0.41835269490320315","1121"
"21:16:33:939 (H:m:s:ms)","GENERIC","93.31700000000001","0.4125121757580875","1061"
"21:35:16:0 (H:m:s:ms)","OPERA","124.326","0.2804364208961658","121232"
"20:54:26:666 (H:m:s:ms)","GENERIC","124.256","0.22378331630742054","333"
"21:16:40:0 (H:m:s:ms)","GENERIC","93.18900000000001","0.41111569634819806","1039"
"21:34:13:0 (H:m:s:ms)","GENERIC","124.561","0.2599244217391981","125457"
"20:54:32:727 (H:m:s:ms)","GENERIC","124.22200000000001","0.22220273030339624","272"
"21:16:46:60 (H:m:s:ms)","GENERIC","93.196","0.40748312947271126","939"
"21:34:45:0 (H:m:s:ms)","GENERIC","93.21000000000001","0.310394091693909","147760"
"21:49:35:757 (H:m:s:ms)","GENERIC","93.34100000000001","0.7250160955393508","242"
"20:54:38:787 (H:m:s:ms)","GENERIC","93.348","0.25101380500227966","212"
"21:16:52:121 (H:m:s:ms)","GENERIC","62.181","0.4095897748464544","878"
"21:33:10:0 (H:m:s:ms)","OPERA","124.27","0.22407707509227204","6175"
"21:49:29:696 (H:m:s:ms)","GENERIC","124.231","0.7227310419742713","341"
"20:54:44:848 (H:m:s:ms)","GENERIC","124.536","0.249050375436169","152"
"21:16:58:181 (H:m:s:ms)","GENERIC","93.25399999999999","0.4088184222751514","819"
"21:28:23:30 (H:m:s:ms)","GENERIC","124.32","0.23889096478569646","106414"
"21:49:23:636 (H:m:s:ms)","GENERIC","93.219","0.7249331454532882","363"
"20:54:50:909 (H:m:s:ms)","GENERIC","124.56700000000001","0.23420536285733154","1090"
"21:17:4:242 (H:m:s:ms)","GENERIC","62.025","0.4034659846439962","757"
"20:54:56:969 (H:m:s:ms)","GENERIC","93.30600000000001","0.22790793142837767","1031"
"21:17:10:303 (H:m:s:ms)","GENERIC","62.085","0.4050403791613253","696"
"20:55:3:30 (H:m:s:ms)","GENERIC","124.126","0.2382003427830049","969"
"21:17:16:363 (H:m:s:ms)","GENERIC","124.47399999999999","0.4162532058789683","636"
"20:55:9:90 (H:m:s:ms)","GENERIC","124.545","0.24499611099128366","955"
"21:17:22:424 (H:m:s:ms)","GENERIC","124.138","0.42846250074797926","575"
"20:55:15:151 (H:m:s:ms)","GENERIC","93.21600000000001","0.24956704078148056","849"
"20:55:21:212 (H:m:s:ms)","GENERIC","93.37899999999999","0.25121841629175945","787"
"21:29:35:757 (H:m:s:ms)","GENERIC","124.561","0.23942700670355754","243"
"21:29:29:696 (H:m:s:ms)","GENERIC","124.184","0.2417529338711862","342"
"21:35:48:0 (H:m:s:ms)","OPERA","124.213","0.32139910560165175","145241"
"21:34:45:0 (H:m:s:ms)","GENERIC","93.19999999999999","0.2596644863898447","154194"
"21:34:45:0 (H:m:s:ms)","OPERA","124.405","0.28250532029118813","182994"
"21:34:13:0 (H:m:s:ms)","GENERIC","124.533","0.25653942974805233","65235"
"21:29:14:430 (H:m:s:ms)","OPERA","124.373","0.25110416218906184","13614"
"21:17:28:484 (H:m:s:ms)","GENERIC","124.614","0.4265900481498827","515"
"21:17:34:545 (H:m:s:ms)","GENERIC","93.35900000000001","0.4353694157325314","454"
"20:55:27:272 (H:m:s:ms)","GENERIC","93.134","0.2499876785245876","728"
"21:17:40:606 (H:m:s:ms)","GENERIC","62.101","0.4340294220142385","393"
"20:55:33:333 (H:m:s:ms)","GENERIC","93.298","0.2578852023105607","666"
"21:17:46:666 (H:m:s:ms)","GENERIC","124.56","0.4307275213100839","333"
"21:34:45:0 (H:m:s:ms)","GENERIC","124.376","0.25242746725667226","92017"
"20:55:39:393 (H:m:s:ms)","GENERIC","124.422","0.2456942569462125","651"
"21:17:52:727 (H:m:s:ms)","GENERIC","62.113","0.4374454596166725","272"
"21:29:6:835 (H:m:s:ms)","OPERA","124.28","0.2474400963304646","7205"
"20:55:45:454 (H:m:s:ms)","GENERIC","124.374","0.2570082501671989","545"
"21:17:58:787 (H:m:s:ms)","GENERIC","93.112","0.4500536789138358","213"
"21:29:5:454 (H:m:s:ms)","GENERIC","124.096","0.2396777130840396","10588"
"21:0:32:0 (H:m:s:ms)","GENERIC","93.15100000000001","0.3102970092858436","2580"
"21:18:4:848 (H:m:s:ms)","GENERIC","93.239","0.4431908075375879","151"
"21:28:59:393 (H:m:s:ms)","GENERIC","62.125","0.23928296607320956","125195"
"20:55:57:575 (H:m:s:ms)","GENERIC","124.58","0.27680673204246364","424"
"21:18:10:909 (H:m:s:ms)","GENERIC","93.161","0.4310098333190343","1090"
"21:4:45:0 (H:m:s:ms)","GENERIC","93.114","0.2944151891081103","11256"
"21:18:16:969 (H:m:s:ms)","GENERIC","93.253","0.41432702573663027","1030"
"21:1:4:0 (H:m:s:ms)","GENERIC","93.155","0.30202965336990484","3485"
"21:18:23:30 (H:m:s:ms)","GENERIC","124.318","0.41188351051999145","969"
"20:56:15:757 (H:m:s:ms)","GENERIC","93.265","0.2809292897142051","242"
"20:56:21:818 (H:m:s:ms)","GENERIC","124.206","0.2821966431937308","181"
"21:30:6:60 (H:m:s:ms)","GENERIC","93.215","0.2281791822095013","42127"
"21:34:13:0 (H:m:s:ms)","GENERIC","124.463","0.2376517098939651","24163"
"21:30:0:0 (H:m:s:ms)","GENERIC","93.18100000000001","0.270628741090519","1043"
"21:35:48:0 (H:m:s:ms)","OPERA","124.345","0.2783028610051837","53428"
"21:30:0:0 (H:m:s:ms)","AMBULANCE","62.183","0.27601254848046936","1042"
"21:29:53:939 (H:m:s:ms)","GENERIC","93.24000000000001","0.2746291877103343","7106"
"21:29:52:405 (H:m:s:ms)","OPERA","124.44","0.23927688943346037","12647"
"21:34:45:0 (H:m:s:ms)","GENERIC","124.398","0.38450374436826157","76620"
"21:18:29:90 (H:m:s:ms)","GENERIC","124.257","0.40431769230944337","949"
"21:18:35:151 (H:m:s:ms)","GENERIC","93.324","0.41027486311612765","848"
"20:56:27:878 (H:m:s:ms)","GENERIC","124.575","0.2895819085071161","28258"
"21:18:41:212 (H:m:s:ms)","GENERIC","93.131","0.41219305412201407","787"
"20:56:33:939 (H:m:s:ms)","GENERIC","124.469","0.28477793753818054","1060"
"21:18:47:272 (H:m:s:ms)","GENERIC","93.213","0.4140732215051831","727"
"20:40:0:0 (H:m:s:ms)","OPERA","62.132000000000005","0.32195416032833574","1119"
"20:56:40:0 (H:m:s:ms)","GENERIC","93.131","0.2898130232546143","1044"
"21:18:53:333 (H:m:s:ms)","GENERIC","124.38","0.41145625175321854","667"
"20:40:0:0 (H:m:s:ms)","GENERIC","124.342","0.31947247409315027","1119"
"20:56:46:60 (H:m:s:ms)","GENERIC","93.175","0.2827342293423487","939"
"21:18:59:393 (H:m:s:ms)","GENERIC","93.391","0.4151256442603887","645"
"21:34:45:0 (H:m:s:ms)","OPERA","124.47200000000001","0.22699283715216795","26439"
"20:40:0:0 (H:m:s:ms)","GENERIC","124.52199999999999","0.31579193126270133","1119"
"20:56:52:121 (H:m:s:ms)","GENERIC","93.391","0.28637759722338296","24968"
"21:19:5:454 (H:m:s:ms)","GENERIC","93.093","0.41231338490073","545"
"21:29:41:818 (H:m:s:ms)","GENERIC","124.148","0.24410040411797537","23280"
"20:40:6:60 (H:m:s:ms)","GENERIC","93.145","0.31176940637085493","939"
"20:56:58:181 (H:m:s:ms)","GENERIC","124.493","0.2940425914827507","818"
"21:19:11:515 (H:m:s:ms)","GENERIC","124.401","0.3992430659185031","484"
"21:34:45:0 (H:m:s:ms)","OPERA","124.428","0.23588673658988804","98420"
"20:40:12:121 (H:m:s:ms)","GENERIC","124.251","0.3056563033311489","879"
"21:1:35:0 (H:m:s:ms)","GENERIC","124.44200000000001","0.3167447365832778","3763"
"21:19:17:575 (H:m:s:ms)","GENERIC","124.548","0.4085159788390229","424"
"20:40:18:181 (H:m:s:ms)","GENERIC","93.17","0.30480363234385577","818"
"20:57:10:303 (H:m:s:ms)","GENERIC","124.603","0.2911954405317833","18742"
"21:19:23:636 (H:m:s:ms)","GENERIC","93.226","0.40600114274620447","363"
"20:40:22:784 (H:m:s:ms)","OPERA","93.305","0.3024856092017779","215"
"20:57:16:363 (H:m:s:ms)","GENERIC","93.279","0.2828257045507791","637"
"20:40:24:242 (H:m:s:ms)","GENERIC","93.154","0.3016628369429902","758"
"20:57:22:424 (H:m:s:ms)","GENERIC","124.187","0.285405928284516","575"
"20:40:30:303 (H:m:s:ms)","GENERIC","93.21000000000001","0.3013686896778025","1336"
"20:40:30:379 (H:m:s:ms)","OPERA","93.245","0.3029798674745257","1262"
"21:30:24:242 (H:m:s:ms)","GENERIC","124.157","0.2357141674732569","6797"
"21:31:3:157 (H:m:s:ms)","AMBULANCE","62.221000000000004","0.27189947449039165","851"
"21:31:0:606 (H:m:s:ms)","GENERIC","124.19900000000001","0.23068003682546906","393"
"21:30:54:545 (H:m:s:ms)","GENERIC","124.287","0.2351473667623719","2456"
"21:30:48:484 (H:m:s:ms)","GENERIC","124.292","0.2246134410071751","8556"
"21:35:48:0 (H:m:s:ms)","GENERIC","93.306","0.267473508732711","70039"
"21:30:36:363 (H:m:s:ms)","GENERIC","93.15899999999999","0.2270208469850539","4678"
"21:30:31:578 (H:m:s:ms)","AMBULANCE","62.215","0.2952069108097022","436"
"21:19:29:696 (H:m:s:ms)","GENERIC","62.143","0.4069494937156338","342"
"21:35:16:0 (H:m:s:ms)","GENERIC","124.283","0.26214297414584264","45090"
"21:19:35:757 (H:m:s:ms)","GENERIC","93.38","0.40637458102691915","243"
"20:57:28:484 (H:m:s:ms)","GENERIC","124.59899999999999","0.29365199374720985","515"
"21:19:41:818 (H:m:s:ms)","GENERIC","124.14099999999999","0.4038811698412824","181"
"20:57:34:545 (H:m:s:ms)","GENERIC","93.363","0.2912293794548071","455"
"21:19:47:878 (H:m:s:ms)","GENERIC","124.414","0.4052870969749769","1121"
"20:40:36:363 (H:m:s:ms)","GENERIC","93.143","0.3004508366470185","636"
"20:57:40:606 (H:m:s:ms)","GENERIC","93.392","0.29129606094969307","393"
"21:19:53:939 (H:m:s:ms)","GENERIC","124.33500000000001","0.3700453443368984","1061"
"20:40:37:974 (H:m:s:ms)","OPERA","62.146","0.29700536046819204","1025"
"20:57:46:666 (H:m:s:ms)","GENERIC","93.287","0.29056300551541264","334"
"21:20:0:0 (H:m:s:ms)","OPERA","93.16","0.3626401657889573","1121"
"20:40:42:424 (H:m:s:ms)","GENERIC","93.34","0.29253495490706005","575"
"20:57:52:727 (H:m:s:ms)","GENERIC","124.138","0.2874008332187208","272"
"21:20:0:0 (H:m:s:ms)","GENERIC","93.166","0.37284347333061096","1121"
"20:40:45:569 (H:m:s:ms)","OPERA","62.112","0.28531506270184276","431"
"20:57:58:787 (H:m:s:ms)","GENERIC","124.158","0.29584736933000005","213"
"21:20:0:0 (H:m:s:ms)","GENERIC","93.224","0.3714188088756782","1121"
"21:30:18:181 (H:m:s:ms)","GENERIC","124.339","0.281591517589698","204846"
"20:40:48:484 (H:m:s:ms)","GENERIC","124.18199999999999","0.2883713483293131","515"
"20:58:4:848 (H:m:s:ms)","GENERIC","93.223","0.29440364680286507","153"
"21:20:6:60 (H:m:s:ms)","GENERIC","124.246","0.36361136416557155","939"
"21:30:12:121 (H:m:s:ms)","GENERIC","124.166","0.23207317492519539","1879"
"20:40:53:164 (H:m:s:ms)","OPERA","62.14","0.2948962818651486","835"
"20:58:10:909 (H:m:s:ms)","GENERIC","93.179","0.2985403741906109","1090"
"21:20:7:594 (H:m:s:ms)","OPERA","93.31","0.3569274338333117","405"
"20:40:54:545 (H:m:s:ms)","GENERIC","62.101","0.2931445179081029","455"
"20:58:16:969 (H:m:s:ms)","GENERIC","93.262","0.30012146931965733","1030"
"20:41:0:606 (H:m:s:ms)","GENERIC","62.167","0.2992777563810298","393"
"20:58:23:30 (H:m:s:ms)","GENERIC","62.145","0.3077457886459983","969"
"20:41:0:759 (H:m:s:ms)","OPERA","93.32900000000001","0.2928691933912955","240"
"20:41:6:666 (H:m:s:ms)","GENERIC","124.225","0.2976984383742615","333"
"21:31:18:787 (H:m:s:ms)","GENERIC","124.273","0.22356292362881797","2250"
"21:35:48:0 (H:m:s:ms)","GENERIC","93.17699999999999","0.32558791347135757","45600"
"21:32:1:212 (H:m:s:ms)","GENERIC","124.227","0.22640744249983516","39025"
"21:31:55:151 (H:m:s:ms)","GENERIC","93.398","0.2300019300475194","32972"
"21:31:49:90 (H:m:s:ms)","GENERIC","93.209","0.2226579599716792","45110"
"21:34:13:0 (H:m:s:ms)","GENERIC","93.305","0.30725228529471077","16019"
"21:31:36:969 (H:m:s:ms)","GENERIC","124.196","0.21846206025705767","4070"
"21:31:34:736 (H:m:s:ms)","AMBULANCE","93.314","0.3494960215949074","279"
"21:31:30:909 (H:m:s:ms)","GENERIC","93.11099999999999","0.2173048521926178","17156"
"21:31:24:848 (H:m:s:ms)","GENERIC","124.257","0.22722977427005953","11213"
"21:3:10:0 (H:m:s:ms)","GENERIC","124.19200000000001","0.3149741719031907","3149"
"20:58:35:151 (H:m:s:ms)","GENERIC","124.533","0.3093303419127522","848"
"20:41:8:354 (H:m:s:ms)","OPERA","93.237","0.29809555397269527","646"
"20:58:41:212 (H:m:s:ms)","GENERIC","93.137","0.30867758785609944","787"
"20:41:12:727 (H:m:s:ms)","GENERIC","62.075","0.2944686769884107","272"
"20:58:47:272 (H:m:s:ms)","GENERIC","93.219","0.30848229947768957","727"
"20:41:15:949 (H:m:s:ms)","OPERA","93.274","0.2899345164464709","1051"
"20:58:53:333 (H:m:s:ms)","GENERIC","124.451","0.3116873496059551","666"
"20:41:18:787 (H:m:s:ms)","GENERIC","124.221","0.28669846798402504","212"
"20:58:59:393 (H:m:s:ms)","GENERIC","93.357","0.3076533493268429","652"
"20:41:23:544 (H:m:s:ms)","OPERA","62.111000000000004","0.29695628794630724","455"
"20:59:5:454 (H:m:s:ms)","GENERIC","93.158","0.30623078438716894","546"
"20:41:24:848 (H:m:s:ms)","GENERIC","93.161","0.2981954088155044","152"
"21:3:42:0 (H:m:s:ms)","GENERIC","93.234","0.29854453845680967","1567"
"21:31:6:666 (H:m:s:ms)","GENERIC","124.208","0.21704939518921837","3373"
"20:41:30:909 (H:m:s:ms)","GENERIC","93.17500000000001","0.29830009031742727","1090"
"20:59:17:575 (H:m:s:ms)","GENERIC","124.541","0.31171033571109413","424"
"20:41:31:139 (H:m:s:ms)","OPERA","93.331","0.2942100283804794","860"
"20:59:23:636 (H:m:s:ms)","GENERIC","124.4","0.30829500532673293","363"
"20:41:36:969 (H:m:s:ms)","GENERIC","93.162","0.2903350887016846","1030"
"20:41:43:30 (H:m:s:ms)","GENERIC","93.234","0.28220320349211087","969"
"20:59:29:696 (H:m:s:ms)","GENERIC","93.19500000000001","0.310873575344641","349"
"20:59:35:757 (H:m:s:ms)","GENERIC","124.643","0.3164030325473586","242"
"20:41:46:329 (H:m:s:ms)","OPERA","93.418","0.2785735202027699","671"
"20:59:41:818 (H:m:s:ms)","GENERIC","93.132","0.3165701178445618","182"
"20:41:49:90 (H:m:s:ms)","GENERIC","93.195","0.28475454023229435","953"
"21:4:45:0 (H:m:s:ms)","GENERIC","124.479","0.3355081794577984","10281"
"20:41:55:151 (H:m:s:ms)","GENERIC","124.57900000000001","0.2872435111870938","848"
"21:4:45:0 (H:m:s:ms)","GENERIC","124.34899999999999","0.3348706461249953","4108"
"20:42:1:212 (H:m:s:ms)","GENERIC","93.208","0.2895795931619995","787"
"21:0:0:0 (H:m:s:ms)","AMBULANCE","62.141999999999996","0.31917370149141183","1383"
"20:42:1:518 (H:m:s:ms)","OPERA","93.437","0.2854173951157751","482"
"21:4:45:0 (H:m:s:ms)","GENERIC","93.21600000000001","0.30929751952290435","10545"
"20:42:7:272 (H:m:s:ms)","GENERIC","93.36","0.28759681219587513","727"
"21:0:0:0 (H:m:s:ms)","GENERIC","93.286","0.32235884324392095","1383"
"20:42:9:113 (H:m:s:ms)","OPERA","62.149","0.2873034935721042","933"
"21:0:6:60 (H:m:s:ms)","GENERIC","124.22999999999999","0.314373672745992","939"
"20:42:13:333 (H:m:s:ms)","GENERIC","124.451","0.2867765075083679","666"
"21:0:12:121 (H:m:s:ms)","GENERIC","124.274","0.3181150111769686","879"
"20:42:16:708 (H:m:s:ms)","OPERA","93.35300000000001","0.2818376061102546","291"
"20:42:19:393 (H:m:s:ms)","GENERIC","124.18299999999999","0.2763144200393656","652"
"21:0:18:181 (H:m:s:ms)","GENERIC","93.147","0.31916219284427966","818"
"21:0:24:242 (H:m:s:ms)","GENERIC","93.15","0.3182232225086902","758"
"20:42:24:303 (H:m:s:ms)","OPERA","62.192","0.27429936656215315","697"
"21:4:45:0 (H:m:s:ms)","GENERIC","93.199","0.3042779762146034","10295"
"20:42:25:454 (H:m:s:ms)","GENERIC","124.59100000000001","0.26677785303610785","547"
"21:0:31:578 (H:m:s:ms)","AMBULANCE","31.024","0.31123840014243387","467"
"20:20:0:0 (H:m:s:ms)","GENERIC","124.35","0.32267830880483106","1123"
"20:42:31:515 (H:m:s:ms)","GENERIC","124.286","0.2711390899757912","484"
"21:0:36:363 (H:m:s:ms)","GENERIC","124.166","0.309423419554582","637"
"20:20:0:0 (H:m:s:ms)","GENERIC","124.48400000000001","0.3258181467664257","1123"
"20:42:31:898 (H:m:s:ms)","OPERA","93.189","0.26489576576671375","102"
"21:0:42:424 (H:m:s:ms)","GENERIC","93.355","0.30460478847249023","576"
"20:20:6:60 (H:m:s:ms)","GENERIC","93.152","0.3221872694707994","939"
"20:42:37:575 (H:m:s:ms)","GENERIC","124.164","0.26485660826061547","424"
"21:0:48:484 (H:m:s:ms)","GENERIC","124.163","0.30334135565439513","515"
"20:20:12:121 (H:m:s:ms)","GENERIC","93.196","0.316026318019695","879"
"20:42:39:493 (H:m:s:ms)","OPERA","93.371","0.2601802126236487","553"
"21:0:54:545 (H:m:s:ms)","GENERIC","93.18299999999999","0.31790609184973373","455"
"20:20:18:181 (H:m:s:ms)","GENERIC","93.189","0.3151642047390304","818"
"20:42:43:636 (H:m:s:ms)","GENERIC","93.338","0.26394215168847174","364"
"21:1:0:606 (H:m:s:ms)","GENERIC","124.275","0.3173961904849421","394"
"20:20:24:242 (H:m:s:ms)","GENERIC","93.17699999999999","0.31158678284154007","758"
"20:42:47:88 (H:m:s:ms)","OPERA","93.42","0.26399032114854265","911"
"21:1:3:157 (H:m:s:ms)","AMBULANCE","93.298","0.31759753866381313","844"
"20:20:30:303 (H:m:s:ms)","GENERIC","93.202","0.3175862801246378","696"
"20:42:49:696 (H:m:s:ms)","GENERIC","93.298","0.2570096110684999","347"
"20:20:36:363 (H:m:s:ms)","GENERIC","93.123","0.3095248526441161","637"
"20:42:54:683 (H:m:s:ms)","OPERA","93.345","0.2664775740976282","316"
"20:20:42:424 (H:m:s:ms)","GENERIC","124.578","0.3095490195627875","575"
"20:20:48:484 (H:m:s:ms)","GENERIC","93.17399999999999","0.30962937616726893","515"
"21:1:6:666 (H:m:s:ms)","GENERIC","124.245","0.30059571283247816","334"
"21:4:45:0 (H:m:s:ms)","GENERIC","124.345","0.3001699469127836","8049"
"20:42:55:757 (H:m:s:ms)","GENERIC","93.28399999999999","0.2587621980939105","243"
"21:1:18:787 (H:m:s:ms)","GENERIC","124.175","0.3060003332540399","212"
"20:43:1:818 (H:m:s:ms)","GENERIC","93.359","0.2498006774462312","182"
"21:1:24:848 (H:m:s:ms)","GENERIC","62.117","0.30417878550335764","152"
"20:20:54:545 (H:m:s:ms)","GENERIC","93.203","0.31325686458134233","455"
"20:43:2:278 (H:m:s:ms)","OPERA","93.27","0.23917745599784823","2723"
"21:1:30:909 (H:m:s:ms)","GENERIC","93.166","0.2985442557224806","1090"
"20:21:0:606 (H:m:s:ms)","GENERIC","93.178","0.31545659787794034","393"
"20:43:7:878 (H:m:s:ms)","GENERIC","124.203","0.23767120743430695","1121"
"21:1:34:736 (H:m:s:ms)","AMBULANCE","62.183","0.3230547383343591","308"
"20:21:6:666 (H:m:s:ms)","GENERIC","93.172","0.3133102797131748","333"
"20:43:9:873 (H:m:s:ms)","OPERA","93.314","0.23783730336184045","3171"
"21:1:36:969 (H:m:s:ms)","GENERIC","124.21000000000001","0.30587292802666555","1030"
"20:21:12:727 (H:m:s:ms)","GENERIC","93.284","0.31974440666656834","272"
"20:43:13:939 (H:m:s:ms)","GENERIC","124.572","0.24697918064054977","6103"
"21:1:43:30 (H:m:s:ms)","GENERIC","124.452","0.29664416317339093","969"
"20:21:18:787 (H:m:s:ms)","GENERIC","124.149","0.31167803293506763","212"
"20:43:17:468 (H:m:s:ms)","OPERA","62.120000000000005","0.2390216810374573","26665"
"21:1:49:90 (H:m:s:ms)","GENERIC","93.188","0.29783516107915153","961"
"20:21:24:848 (H:m:s:ms)","GENERIC","93.156","0.3144876687332887","151"
"20:43:20:0 (H:m:s:ms)","GENERIC","124.126","0.23711586768333495","1042"
"21:1:55:151 (H:m:s:ms)","GENERIC","93.369","0.302544309682213","848"
"20:21:30:909 (H:m:s:ms)","GENERIC","93.237","0.31445724807409664","1091"
"20:43:25:63 (H:m:s:ms)","OPERA","93.345","0.2274893102657709","937"
"20:21:36:969 (H:m:s:ms)","GENERIC","93.142","0.3069877435576132","1030"
"20:43:26:60 (H:m:s:ms)","GENERIC","124.143","0.22733713398715177","939"
"20:21:43:30 (H:m:s:ms)","GENERIC","124.431","0.3084082521962977","969"
"20:21:49:90 (H:m:s:ms)","GENERIC","124.30000000000001","0.3059807847984914","949"
"20:43:32:121 (H:m:s:ms)","GENERIC","124.53800000000001","0.22955695326342637","1879"
"20:43:32:658 (H:m:s:ms)","OPERA","93.314","0.22794034027319734","342"
"20:21:55:151 (H:m:s:ms)","GENERIC","93.325","0.2992333255761253","848"
"20:43:38:181 (H:m:s:ms)","GENERIC","124.625","0.23346378515643695","40995"
"20:22:1:212 (H:m:s:ms)","GENERIC","93.18299999999999","0.3025180664917826","787"
"20:43:40:253 (H:m:s:ms)","OPERA","62.131","0.21957482552774407","434875"
"20:22:7:272 (H:m:s:ms)","GENERIC","124.62","0.31213956512927976","727"
"20:43:44:242 (H:m:s:ms)","GENERIC","124.39699999999999","0.23863641113297648","4758"
"20:22:13:333 (H:m:s:ms)","GENERIC","93.214","0.30761548523861704","666"
"20:43:47:848 (H:m:s:ms)","OPERA","93.337","0.2376979911476557","7195"
"20:22:19:393 (H:m:s:ms)","GENERIC","93.152","0.30172013271440634","645"
"20:43:50:303 (H:m:s:ms)","GENERIC","93.225","0.23431289111286643","22785"
"20:22:25:454 (H:m:s:ms)","GENERIC","93.351","0.29915933461798067","546"
"20:43:55:443 (H:m:s:ms)","OPERA","62.18","0.22496844114651807","29692"
"20:22:31:515 (H:m:s:ms)","GENERIC","93.18299999999999","0.30153056733726963","484"
"20:43:56:363 (H:m:s:ms)","GENERIC","124.32300000000001","0.2138441642940327","96116"
"20:22:37:575 (H:m:s:ms)","GENERIC","124.116","0.30759610142807553","424"
"20:44:2:424 (H:m:s:ms)","GENERIC","124.172","0.2367483920432714","576"
"20:22:43:636 (H:m:s:ms)","GENERIC","62.073","0.3042822852436505","365"
"20:22:49:696 (H:m:s:ms)","GENERIC","93.255","0.30238360683316357","344"
"20:44:3:37 (H:m:s:ms)","OPERA","93.22200000000001","0.23601128513551675","962"
"20:44:8:484 (H:m:s:ms)","GENERIC","124.626","0.23564247232340604","515"
"20:22:55:757 (H:m:s:ms)","GENERIC","93.204","0.3032919562392035","242"
"20:44:10:632 (H:m:s:ms)","OPERA","62.112","0.20852396051058092","57600"
"20:23:1:818 (H:m:s:ms)","GENERIC","124.50999999999999","0.312033686669282","182"
"20:44:14:545 (H:m:s:ms)","GENERIC","93.07900000000001","0.2330114345768658","454"
"20:23:7:878 (H:m:s:ms)","GENERIC","124.27","0.31003365709743574","1121"
"20:44:18:227 (H:m:s:ms)","OPERA","93.278","0.2176138353702469","82221"
"20:23:13:939 (H:m:s:ms)","GENERIC","93.35","0.3088927934850112","1061"
"20:44:20:606 (H:m:s:ms)","GENERIC","124.52199999999999","0.22381145872405914","395"
"20:23:20:0 (H:m:s:ms)","GENERIC","93.123","0.3093740618943541","1037"
"20:44:25:822 (H:m:s:ms)","OPERA","93.369","0.21653457060622638","36360"
"20:23:26:60 (H:m:s:ms)","GENERIC","124.213","0.3033201526251981","941"
"20:44:26:666 (H:m:s:ms)","GENERIC","124.22800000000001","0.20774464677403612","333"
"20:23:32:121 (H:m:s:ms)","GENERIC","93.35","0.31102046253519644","878"
"20:44:32:727 (H:m:s:ms)","GENERIC","124.19","0.2035780961157913","273"
"20:23:38:181 (H:m:s:ms)","GENERIC","93.36699999999999","0.3063013281092059","818"
"20:44:33:417 (H:m:s:ms)","OPERA","62.196","0.19667764718901215","582"
"20:23:44:242 (H:m:s:ms)","GENERIC","124.355","0.305989548983248","757"
"20:23:50:303 (H:m:s:ms)","GENERIC","124.28399999999999","0.3024663083404201","696"
"20:44:38:787 (H:m:s:ms)","GENERIC","124.61500000000001","0.2052828733641965","11301"
"20:44:41:12 (H:m:s:ms)","OPERA","93.465","0.2027867725731337","987"
"20:23:56:363 (H:m:s:ms)","GENERIC","124.42099999999999","0.3024814677420281","636"
"20:44:44:848 (H:m:s:ms)","GENERIC","124.40199999999999","0.2029021525757865","11199"
"20:24:2:424 (H:m:s:ms)","GENERIC","62.053","0.3051243109515708","576"
"20:44:48:607 (H:m:s:ms)","OPERA","93.342","0.23222866449722804","13485"
"20:24:8:484 (H:m:s:ms)","GENERIC","124.656","0.31178775623664423","515"
"20:44:50:909 (H:m:s:ms)","GENERIC","62.095","0.20812084015016397","83549"
"20:24:14:545 (H:m:s:ms)","GENERIC","93.148","0.3093362044423872","455"
"20:44:56:202 (H:m:s:ms)","OPERA","62.213","0.20616320963729343","798"
"20:24:20:606 (H:m:s:ms)","GENERIC","124.394","0.3083573074582717","393"
"20:44:56:969 (H:m:s:ms)","GENERIC","124.631","0.2346620378683916","150860"
"20:24:26:666 (H:m:s:ms)","GENERIC","124.17099999999999","0.3045518582043255","333"
"20:45:3:30 (H:m:s:ms)","GENERIC","124.08000000000001","0.21139419480748656","970"
"20:24:32:727 (H:m:s:ms)","GENERIC","93.114","0.30678511277534426","272"
"20:45:3:797 (H:m:s:ms)","OPERA","93.373","0.20568577100178217","203"
"20:24:38:787 (H:m:s:ms)","GENERIC","93.32","0.3034298502048083","212"
"20:45:9:90 (H:m:s:ms)","GENERIC","62.109","0.20233831550076686","951"
"20:24:44:848 (H:m:s:ms)","GENERIC","93.19","0.30361668683724047","152"
"20:24:50:909 (H:m:s:ms)","GENERIC","93.348","0.3098473143315991","1091"
"20:45:11:392 (H:m:s:ms)","OPERA","62.096000000000004","0.19824722087415958","2608"
"20:45:15:151 (H:m:s:ms)","GENERIC","124.508","0.20845430164561846","47152"
"20:24:56:969 (H:m:s:ms)","GENERIC","62.107","0.310412155123671","1030"
"20:45:18:987 (H:m:s:ms)","OPERA","31.011","0.20363022271085288","37261"
"20:25:3:30 (H:m:s:ms)","GENERIC","93.098","0.3038238336203567","969"
"20:45:21:212 (H:m:s:ms)","GENERIC","93.354","0.21555611367236116","22911"
"20:25:9:90 (H:m:s:ms)","GENERIC","124.53899999999999","0.3086421414376182","947"
"20:45:26:582 (H:m:s:ms)","OPERA","93.304","0.2195765708763755","418"
"20:25:15:151 (H:m:s:ms)","GENERIC","93.26","0.30432641158678164","849"
"20:45:27:272 (H:m:s:ms)","GENERIC","93.14500000000001","0.21354698959074322","730"
"20:25:21:212 (H:m:s:ms)","GENERIC","124.565","0.3014119542152866","787"
"20:45:33:333 (H:m:s:ms)","GENERIC","93.33","0.23565842206086665","128392"
"20:25:27:272 (H:m:s:ms)","GENERIC","93.13","0.30510339627563615","727"
"20:45:34:177 (H:m:s:ms)","OPERA","62.132999999999996","0.2259590995806095","12887"
"20:25:33:333 (H:m:s:ms)","GENERIC","124.614","0.3109475509762697","666"
"20:45:39:393 (H:m:s:ms)","GENERIC","93.228","0.20233984759959817","15726"
"20:25:39:393 (H:m:s:ms)","GENERIC","124.35300000000001","0.31512133438172274","647"
"20:45:41:772 (H:m:s:ms)","OPERA","62.086","0.22363163228325494","8287"
"20:25:45:454 (H:m:s:ms)","GENERIC","124.411","0.3145501844898515","546"
"20:25:51:515 (H:m:s:ms)","GENERIC","124.357","0.31431065624384474","484"
"20:25:57:575 (H:m:s:ms)","GENERIC","124.48400000000001","0.3153749708899479","424"
"20:26:3:636 (H:m:s:ms)","GENERIC","124.253","0.31620416642341015","363"
"20:26:9:696 (H:m:s:ms)","GENERIC","93.211","0.31892195803165074","340"
"20:26:15:757 (H:m:s:ms)","GENERIC","93.261","0.3160431265515907","242"
"20:26:21:818 (H:m:s:ms)","GENERIC","93.174","0.31465076306658624","181"
"20:26:27:878 (H:m:s:ms)","GENERIC","93.363","0.3182345989999202","1121"
"20:26:33:939 (H:m:s:ms)","GENERIC","93.311","0.31775075627960564","1060"
"20:26:40:0 (H:m:s:ms)","GENERIC","124.301","0.3284595740839185","1039"
"20:26:46:60 (H:m:s:ms)","GENERIC","93.16900000000001","0.3245742376916018","940"
"20:26:52:121 (H:m:s:ms)","GENERIC","124.578","0.32820279392042184","4879"
"20:26:58:181 (H:m:s:ms)","GENERIC","124.44399999999999","0.3272984950301768","818"
"20:27:4:242 (H:m:s:ms)","GENERIC","93.297","0.32929749712048073","757"
"20:27:10:303 (H:m:s:ms)","GENERIC","124.586","0.3330713051074757","16737"
"20:27:16:363 (H:m:s:ms)","GENERIC","62.073","0.32788450274256303","636"
"20:27:22:424 (H:m:s:ms)","GENERIC","93.122","0.32936651550967555","575"
"20:27:28:484 (H:m:s:ms)","GENERIC","124.521","0.3327771881654606","516"
"20:27:34:545 (H:m:s:ms)","GENERIC","124.55000000000001","0.3364804987104591","455"
"20:27:40:606 (H:m:s:ms)","GENERIC","93.428","0.3388699494859537","4394"
"20:27:46:666 (H:m:s:ms)","GENERIC","93.265","0.33758036509152284","333"
"20:27:52:727 (H:m:s:ms)","GENERIC","124.156","0.3385445632409389","272"
"20:27:58:787 (H:m:s:ms)","GENERIC","93.13","0.33375499786471974","213"
"20:28:4:848 (H:m:s:ms)","GENERIC","93.206","0.3264012511611732","152"
"20:28:10:909 (H:m:s:ms)","GENERIC","124.33099999999999","0.320721005941786","1090"
"20:28:16:969 (H:m:s:ms)","GENERIC","93.205","0.3209560016919477","1030"
"20:28:23:30 (H:m:s:ms)","GENERIC","93.16499999999999","0.3192134138035071","970"
"20:28:29:90 (H:m:s:ms)","GENERIC","93.173","0.32039154463834846","953"
"20:28:35:151 (H:m:s:ms)","GENERIC","93.348","0.3173801906718885","848"
"20:28:41:212 (H:m:s:ms)","GENERIC","93.146","0.31804457840020844","787"
"20:28:47:272 (H:m:s:ms)","GENERIC","93.215","0.3233014641203394","727"
"20:28:53:333 (H:m:s:ms)","GENERIC","93.205","0.326925586557827","666"
"20:28:59:393 (H:m:s:ms)","GENERIC","93.348","0.331494743778672","650"
"20:29:5:454 (H:m:s:ms)","GENERIC","93.167","0.3246156301998448","545"
"20:29:11:515 (H:m:s:ms)","GENERIC","93.223","0.32368597015607553","485"
"20:29:17:575 (H:m:s:ms)","GENERIC","93.337","0.3282235897634451","424"
"20:29:23:636 (H:m:s:ms)","GENERIC","93.2","0.3303231767529622","363"
"20:29:29:696 (H:m:s:ms)","GENERIC","62.079","0.3288099145703406","345"
"20:29:35:757 (H:m:s:ms)","GENERIC","124.601","0.3370115274778926","242"
"20:29:41:818 (H:m:s:ms)","GENERIC","93.158","0.3337964454173748","181"
"20:29:47:878 (H:m:s:ms)","GENERIC","93.231","0.33363347439425217","1121"
"20:29:53:939 (H:m:s:ms)","GENERIC","62.059","0.3340233752854951","1061"
"21:20:12:121 (H:m:s:ms)","GENERIC","93.148","0.3581680403413977","878"
"21:20:15:189 (H:m:s:ms)","OPERA","31.011","0.355320180944618","811"
"21:20:18:181 (H:m:s:ms)","GENERIC","62.107","0.35639022842294144","818"
"21:20:22:784 (H:m:s:ms)","OPERA","93.131","0.3305058712961841","216"
"21:20:24:242 (H:m:s:ms)","GENERIC","93.18299999999999","0.3292106838974989","757"
"21:20:30:303 (H:m:s:ms)","GENERIC","93.173","0.3283601331537684","696"
"21:20:30:379 (H:m:s:ms)","OPERA","93.171","0.32137750709306573","621"
"21:20:36:363 (H:m:s:ms)","GENERIC","93.145","0.3116956226285842","636"
"21:20:37:974 (H:m:s:ms)","OPERA","124.292","0.3109208152006989","1026"
"21:20:42:424 (H:m:s:ms)","GENERIC","124.656","0.3159866466033883","575"
"21:20:45:569 (H:m:s:ms)","OPERA","124.351","0.31590695051879875","430"
"21:20:48:484 (H:m:s:ms)","GENERIC","62.167","0.3107487998032573","515"
"21:20:53:164 (H:m:s:ms)","OPERA","124.32900000000001","0.3118456789955473","836"
"21:20:54:545 (H:m:s:ms)","GENERIC","93.20400000000001","0.31084399060206663","454"
"21:21:0:606 (H:m:s:ms)","GENERIC","93.19200000000001","0.3115905736584091","393"
"21:21:0:759 (H:m:s:ms)","OPERA","124.295","0.30848148588498814","241"
"21:21:6:666 (H:m:s:ms)","GENERIC","124.25","0.29930016596636333","334"
"21:21:8:354 (H:m:s:ms)","OPERA","124.33099999999999","0.2961133631092498","645"
"21:21:12:727 (H:m:s:ms)","GENERIC","93.218","0.2910769032047385","272"
"21:21:15:949 (H:m:s:ms)","OPERA","93.18700000000001","0.2936366085214984","1051"
"21:32:55:757 (H:m:s:ms)","GENERIC","124.388","0.2238401317124207","3243"
"21:32:37:894 (H:m:s:ms)","AMBULANCE","93.305","0.4364750039531975","172"
"21:34:45:0 (H:m:s:ms)","GENERIC","124.213","0.32331762480152254","1623"
"21:34:45:0 (H:m:s:ms)","GENERIC","124.227","0.32909511928408247","8687"
"21:34:13:0 (H:m:s:ms)","GENERIC","124.537","0.2980997711603119","14667"
"21:34:45:0 (H:m:s:ms)","GENERIC","124.275","0.32640847865924066","21893"
"21:34:45:0 (H:m:s:ms)","GENERIC","93.139","0.32967455239710786","26896"
"21:32:7:272 (H:m:s:ms)","GENERIC","124.6","0.21999604369934267","728"
"21:21:18:787 (H:m:s:ms)","GENERIC","93.138","0.28963956707309707","212"
"21:32:6:315 (H:m:s:ms)","AMBULANCE","31.009","0.24433088482440748","686"
"21:21:23:544 (H:m:s:ms)","OPERA","93.165","0.2953108893170182","456"
"21:21:24:848 (H:m:s:ms)","GENERIC","93.18","0.2885351798653684","151"
"21:21:30:909 (H:m:s:ms)","GENERIC","93.145","0.2922865166837378","1090"
"21:21:31:139 (H:m:s:ms)","OPERA","93.23","0.288517096201207","861"
"21:21:36:969 (H:m:s:ms)","GENERIC","124.234","0.2957318072919675","1030"
"21:21:38:734 (H:m:s:ms)","OPERA","93.231","0.2948178230797856","265"
"21:21:43:30 (H:m:s:ms)","GENERIC","124.469","0.2989318001818461","969"
"21:32:49:696 (H:m:s:ms)","GENERIC","124.47999999999999","0.22443885260271162","7346"
"21:21:46:329 (H:m:s:ms)","OPERA","124.224","0.2947268376597999","670"
"21:32:43:636 (H:m:s:ms)","GENERIC","62.131","0.23170519403819695","27507"
"21:21:49:90 (H:m:s:ms)","GENERIC","93.211","0.29749705416963496","947"
"21:33:50:303 (H:m:s:ms)","GENERIC","93.226","0.32727237754692196","22787"
"21:33:44:242 (H:m:s:ms)","GENERIC","93.24199999999999","0.22386544398807243","75605"
"21:34:13:0 (H:m:s:ms)","GENERIC","124.59299999999999","0.23891964022129156","4884"
"21:33:32:121 (H:m:s:ms)","GENERIC","124.582","0.2629796961070525","78739"
"21:33:26:60 (H:m:s:ms)","GENERIC","124.092","0.22121252466494246","939"
"21:33:20:0 (H:m:s:ms)","GENERIC","124.28399999999999","0.22556378868366522","1039"
"21:34:13:0 (H:m:s:ms)","GENERIC","93.404","0.25191121555458595","28189"
"21:33:9:473 (H:m:s:ms)","AMBULANCE","62.203","0.3150217341896223","579"
"21:21:55:151 (H:m:s:ms)","GENERIC","93.394","0.3004247896514426","848"
"21:34:45:0 (H:m:s:ms)","GENERIC","93.23","0.30967610581761784","3310"
"21:22:1:212 (H:m:s:ms)","GENERIC","124.18199999999999","0.30501275459656935","788"
"21:34:13:0 (H:m:s:ms)","GENERIC","124.561","0.26268586862263055","10256"
"21:22:1:518 (H:m:s:ms)","OPERA","124.331","0.3039192986860135","482"
"21:22:7:272 (H:m:s:ms)","GENERIC","93.384","0.30554028156086876","727"
"21:22:9:113 (H:m:s:ms)","OPERA","62.019","0.3032668145534784","923"
"21:22:13:333 (H:m:s:ms)","GENERIC","93.27","0.30150273608128775","667"
"21:22:16:708 (H:m:s:ms)","OPERA","93.154","0.2949116997888479","292"
"21:22:19:393 (H:m:s:ms)","GENERIC","124.392","0.2946520198600939","644"
"21:22:24:303 (H:m:s:ms)","OPERA","93.214","0.2972263796749865","696"
"21:22:25:454 (H:m:s:ms)","GENERIC","93.28999999999999","0.2916398724625997","546"
"21:33:41:52 (H:m:s:ms)","AMBULANCE","93.388","0.30758551896468284","961"
"21:38:57:0 (H:m:s:ms)","GENERIC","93.182","0.4755232495909959","4361"
"21:34:44:210 (H:m:s:ms)","AMBULANCE","62.150999999999996","0.41588682966926954","862"
"21:34:38:787 (H:m:s:ms)","GENERIC","124.408","0.3990444163598391","7783"
"21:34:32:727 (H:m:s:ms)","GENERIC","93.119","0.2441851414173356","273"
"21:34:26:666 (H:m:s:ms)","GENERIC","124.134","0.23188105574493853","334"
"21:34:20:606 (H:m:s:ms)","GENERIC","124.381","0.24020677796864395","394"
"21:34:45:0 (H:m:s:ms)","GENERIC","124.22399999999999","0.242523808054879","1589"
"21:34:12:631 (H:m:s:ms)","AMBULANCE","62.199","0.38343406750682085","372"
"21:22:31:515 (H:m:s:ms)","GENERIC","93.107","0.2897355925394917","484"
"21:38:57:0 (H:m:s:ms)","GENERIC","124.523","0.49302992159928544","41243"
"21:22:31:898 (H:m:s:ms)","OPERA","93.14","0.2857779121417544","1102"
"21:34:2:424 (H:m:s:ms)","GENERIC","124.245","0.23417152937524968","575"
"21:2:1:212 (H:m:s:ms)","GENERIC","124.195","0.30644340347376225","788"
"21:22:37:575 (H:m:s:ms)","GENERIC","93.166","0.28578736419295997","424"
"21:33:56:363 (H:m:s:ms)","GENERIC","93.271","0.23102713199222746","4674"
"21:2:6:315 (H:m:s:ms)","AMBULANCE","62.177","0.32047968490741485","733"
"21:22:39:493 (H:m:s:ms)","OPERA","93.26","0.2789652599174196","545"
"21:2:7:272 (H:m:s:ms)","GENERIC","124.598","0.2928242164857159","823"
"21:22:43:636 (H:m:s:ms)","GENERIC","62.149","0.28349410387041557","363"
"21:6:51:0 (H:m:s:ms)","GENERIC","93.236","0.30118109559135586","8241"
"21:22:47:88 (H:m:s:ms)","OPERA","124.338","0.2858982868789265","911"
"21:3:42:0 (H:m:s:ms)","GENERIC","124.34","0.3206818623971398","1655"
"21:22:49:696 (H:m:s:ms)","GENERIC","124.481","0.2823267117937328","341"
"21:2:25:454 (H:m:s:ms)","GENERIC","93.292","0.28926882388212594","545"
"21:22:54:683 (H:m:s:ms)","OPERA","124.398","0.2827370478852425","316"
"21:2:31:515 (H:m:s:ms)","GENERIC","93.158","0.2985758948144561","484"
"21:22:55:757 (H:m:s:ms)","GENERIC","93.32","0.2759233359397213","242"
"21:2:37:575 (H:m:s:ms)","GENERIC","124.226","0.304016657389883","425"
"21:23:1:818 (H:m:s:ms)","GENERIC","124.581","0.27024010929635406","182"
"21:2:37:894 (H:m:s:ms)","AMBULANCE","62.17","0.3121247674756922","109"
"21:2:43:636 (H:m:s:ms)","GENERIC","62.115","0.29487346508663925","363"
"21:35:45:454 (H:m:s:ms)","GENERIC","124.40899999999999","0.26935680618176383","545"
"21:35:39:393 (H:m:s:ms)","GENERIC","124.328","0.26284225910283615","643"
"21:38:57:0 (H:m:s:ms)","GENERIC","93.349","0.475092687915877","3676"
"21:35:27:272 (H:m:s:ms)","GENERIC","124.147","0.2544508333865289","727"
"21:35:21:212 (H:m:s:ms)","GENERIC","124.61500000000001","0.24979301870703666","788"
"21:35:15:789 (H:m:s:ms)","AMBULANCE","62.181","0.29701664799133104","214"
"21:38:57:0 (H:m:s:ms)","GENERIC","124.46600000000001","0.4747535565132779","3862"
"21:23:2:278 (H:m:s:ms)","OPERA","93.247","0.27117235359873243","10763"
"21:35:9:90 (H:m:s:ms)","GENERIC","93.25200000000001","0.31136582069855895","40080"
"21:23:7:878 (H:m:s:ms)","GENERIC","124.138","0.2706247087764642","1121"
"21:35:3:30 (H:m:s:ms)","GENERIC","93.118","0.2672894028612722","2970"
"21:4:45:0 (H:m:s:ms)","GENERIC","93.22","0.30990717943931473","1349"
"21:23:9:873 (H:m:s:ms)","OPERA","93.193","0.2670371943011745","9169"
"21:34:56:969 (H:m:s:ms)","GENERIC","124.548","0.26379574860831445","20124"
"21:2:55:757 (H:m:s:ms)","GENERIC","93.157","0.2970442311875767","242"
"21:23:13:939 (H:m:s:ms)","GENERIC","124.644","0.268599751923282","1061"
"21:34:50:909 (H:m:s:ms)","GENERIC","124.591","0.26745775199993294","26187"
"21:3:1:818 (H:m:s:ms)","GENERIC","93.32900000000001","0.29380307155148083","182"
"21:23:17:468 (H:m:s:ms)","OPERA","124.423","0.267428747503401","533"
"21:7:54:0 (H:m:s:ms)","GENERIC","93.206","0.30473651794607587","4128"
"21:23:20:0 (H:m:s:ms)","GENERIC","93.115","0.2633839210494843","1040"
"21:3:9:473 (H:m:s:ms)","AMBULANCE","93.273","0.3141124036521103","799"
"21:23:25:63 (H:m:s:ms)","OPERA","93.127","0.23037063994226858","119428"
"21:3:13:939 (H:m:s:ms)","GENERIC","93.391","0.30831163341602474","1061"
"21:23:26:60 (H:m:s:ms)","GENERIC","93.157","0.26437480201136176","940"
"21:3:20:0 (H:m:s:ms)","GENERIC","93.189","0.3103598991286241","1046"
"21:23:32:121 (H:m:s:ms)","GENERIC","124.56700000000001","0.26696307463346464","879"
"21:3:42:0 (H:m:s:ms)","GENERIC","124.235","0.30309157961622496","1979"
"21:23:32:658 (H:m:s:ms)","OPERA","93.119","0.26224067745234625","342"
"21:3:32:121 (H:m:s:ms)","GENERIC","124.557","0.30696036481981276","878"
"21:3:38:181 (H:m:s:ms)","GENERIC","93.37100000000001","0.30081549911990724","818"
"21:36:40:0 (H:m:s:ms)","GENERIC","93.214","0.41949635179634914","1036"
"21:36:33:939 (H:m:s:ms)","GENERIC","93.272","0.40762312556671526","2061"
"21:36:27:878 (H:m:s:ms)","GENERIC","93.32","0.412203008318171","8158"
"21:36:21:818 (H:m:s:ms)","GENERIC","124.21600000000001","0.2936972713768864","181"
"21:36:18:947 (H:m:s:ms)","AMBULANCE","31.025","0.29270491072216126","1106"
"21:38:57:0 (H:m:s:ms)","GENERIC","124.471","0.43956475685100077","2250"
"21:23:38:181 (H:m:s:ms)","GENERIC","93.362","0.2626859918459948","818"
"21:36:9:696 (H:m:s:ms)","GENERIC","124.328","0.29846478352333483","340"
"21:23:40:253 (H:m:s:ms)","OPERA","124.34100000000001","0.25845717293538123","32862"
"21:36:3:636 (H:m:s:ms)","GENERIC","93.172","0.2813989680009801","364"
"21:3:41:52 (H:m:s:ms)","AMBULANCE","62.175","0.3205438944005631","1195"
"21:23:44:242 (H:m:s:ms)","GENERIC","93.228","0.26145124209881543","4759"
"21:38:57:0 (H:m:s:ms)","GENERIC","124.651","0.47365519047630683","9468"
"21:3:44:242 (H:m:s:ms)","GENERIC","124.386","0.29640412674685224","4758"
"21:23:47:848 (H:m:s:ms)","OPERA","124.431","0.26165286513608565","152"
"21:35:51:515 (H:m:s:ms)","GENERIC","93.19200000000001","0.26295854524776824","485"
"21:7:54:0 (H:m:s:ms)","GENERIC","124.244","0.30154464477828236","2708"
"21:23:50:303 (H:m:s:ms)","GENERIC","124.428","0.25095132142673776","34812"
"21:35:47:368 (H:m:s:ms)","AMBULANCE","93.369","0.33791255158191197","635"
"21:8:57:0 (H:m:s:ms)","GENERIC","93.225","0.3287686021681433","7907"
"21:23:55:443 (H:m:s:ms)","OPERA","93.225","0.2359170484924708","35711"
"21:4:2:424 (H:m:s:ms)","GENERIC","93.147","0.30225208880968185","575"
"21:23:56:363 (H:m:s:ms)","GENERIC","93.31700000000001","0.25585685690338333","637"
"21:4:8:484 (H:m:s:ms)","GENERIC","124.589","0.3142771073295851","515"
"21:24:2:424 (H:m:s:ms)","GENERIC","93.121","0.24873957699787133","576"
"21:4:12:631 (H:m:s:ms)","AMBULANCE","93.336","0.34325420116266037","468"
"21:24:3:37 (H:m:s:ms)","OPERA","124.475","0.2314318425099027","34079"
"21:4:45:0 (H:m:s:ms)","GENERIC","124.298","0.2982886658596161","1501"
"21:24:8:484 (H:m:s:ms)","GENERIC","124.612","0.25728932058908277","515"
"21:4:20:606 (H:m:s:ms)","GENERIC","93.231","0.30676282507865116","393"
"21:4:26:666 (H:m:s:ms)","GENERIC","62.143","0.30845617233736716","333"
"21:37:34:545 (H:m:s:ms)","GENERIC","93.34700000000001","0.38009544615961854","455"
"21:38:57:0 (H:m:s:ms)","GENERIC","93.31899999999999","0.5068213519546554","2520"
"21:37:22:424 (H:m:s:ms)","GENERIC","124.149","0.3728209080580118","580"
"21:37:22:105 (H:m:s:ms)","AMBULANCE","31.011","0.383708363523072","899"
"21:38:57:0 (H:m:s:ms)","GENERIC","93.241","0.5112254910801225","2638"
"21:38:57:0 (H:m:s:ms)","GENERIC","93.33500000000001","0.5104011883073696","45860"
"21:24:10:632 (H:m:s:ms)","OPERA","124.34100000000001","0.2396271952811461","51574"
"21:24:14:545 (H:m:s:ms)","GENERIC","93.04599999999999","0.24626555681088225","454"
"21:37:4:242 (H:m:s:ms)","GENERIC","93.25399999999999","0.3880682238178428","757"
"21:4:32:727 (H:m:s:ms)","GENERIC","124.16","0.3037587505898386","272"
"21:24:18:227 (H:m:s:ms)","OPERA","62.017","0.23889966975288407","37936"
"21:36:58:181 (H:m:s:ms)","GENERIC","124.378","0.41379934348441527","818"
"21:4:38:787 (H:m:s:ms)","GENERIC","93.36","0.2977606631946182","212"
"21:24:20:606 (H:m:s:ms)","GENERIC","124.38300000000001","0.2376840416262326","41563"
"21:36:52:121 (H:m:s:ms)","GENERIC","93.4","0.4300142774876848","30991"
"21:4:44:210 (H:m:s:ms)","AMBULANCE","62.206999999999994","0.3434404368808751","875"
"21:24:25:822 (H:m:s:ms)","OPERA","93.191","0.24896778529324126","177"
"21:36:50:526 (H:m:s:ms)","AMBULANCE","62.177","0.4130962295511528","497"
"21:4:44:848 (H:m:s:ms)","GENERIC","93.208","0.34044900239456644","237"
"21:24:26:666 (H:m:s:ms)","GENERIC","93.14699999999999","0.239566624493725","333"
"21:36:46:60 (H:m:s:ms)","GENERIC","93.18599999999999","0.41654222687958586","939"
"21:4:50:909 (H:m:s:ms)","GENERIC","93.32","0.3004588410557603","1090"
"21:24:32:727 (H:m:s:ms)","GENERIC","124.193","0.2237171914639019","35404"
"21:4:56:969 (H:m:s:ms)","GENERIC","124.553","0.29582321333261136","1030"
"21:24:33:417 (H:m:s:ms)","OPERA","93.181","0.2340396589190967","35715"
"21:5:3:30 (H:m:s:ms)","GENERIC","62.047","0.3035510915921454","969"
"21:24:38:787 (H:m:s:ms)","GENERIC","124.47800000000001","0.24201574151950755","11295"
"21:5:9:90 (H:m:s:ms)","GENERIC","93.297","0.3169475950237185","953"
"21:34:45:0 (H:m:s:ms)","OPERA","124.375","0.31926445777383056","33270"
"21:5:15:151 (H:m:s:ms)","GENERIC","124.422","0.3177089998096251","849"
"21:5:15:789 (H:m:s:ms)","AMBULANCE","93.347","0.30647951581258104","234"
"21:38:29:90 (H:m:s:ms)","GENERIC","93.19200000000001","0.44449932457284025","948"
"21:38:25:263 (H:m:s:ms)","AMBULANCE","62.174","0.4491501602605505","790"
"21:38:23:30 (H:m:s:ms)","GENERIC","93.19200000000001","0.4660824133608133","970"
"21:38:16:969 (H:m:s:ms)","GENERIC","93.24000000000001","0.4660901923556328","1030"
"21:38:10:909 (H:m:s:ms)","GENERIC","93.151","0.4643267969588786","1091"
"21:38:4:848 (H:m:s:ms)","GENERIC","124.293","0.4448004508054189","151"
"21:37:58:787 (H:m:s:ms)","GENERIC","124.15899999999999","0.4362242818074368","212"
"21:24:44:848 (H:m:s:ms)","GENERIC","93.23","0.23789951205066212","152"
"21:24:48:607 (H:m:s:ms)","OPERA","124.368","0.22426329651730484","19480"
"21:5:21:212 (H:m:s:ms)","GENERIC","93.361","0.30569743246775366","787"
"21:24:50:909 (H:m:s:ms)","GENERIC","62.095","0.23180664222020758","187173"
"21:5:27:272 (H:m:s:ms)","GENERIC","124.19200000000001","0.30339684180798787","727"
"21:24:56:202 (H:m:s:ms)","OPERA","93.16","0.22620232458229214","20884"
"21:37:53:684 (H:m:s:ms)","AMBULANCE","62.184","0.5106044482184392","320"
"20:45:45:454 (H:m:s:ms)","GENERIC","124.271","0.2154002421737586","6604"
"21:9:29:0 (H:m:s:ms)","GENERIC","124.543","0.3560527164397097","1708"
"21:24:56:969 (H:m:s:ms)","GENERIC","93.339","0.23764474969303367","244410"
"21:37:52:727 (H:m:s:ms)","GENERIC","93.163","0.4754800005896636","273"
"20:45:49:367 (H:m:s:ms)","OPERA","93.252","0.21818460386519886","30859"
"21:5:39:393 (H:m:s:ms)","GENERIC","62.095","0.31477976599743906","649"
"21:25:3:30 (H:m:s:ms)","GENERIC","124.116","0.22568014057731775","969"
"21:37:46:666 (H:m:s:ms)","GENERIC","124.527","0.4772918268179564","333"
"20:45:51:515 (H:m:s:ms)","GENERIC","124.251","0.2044044216094975","487"
"21:5:45:454 (H:m:s:ms)","GENERIC","93.25999999999999","0.31493019426327457","545"
"21:25:3:797 (H:m:s:ms)","OPERA","124.358","0.2245528557212159","202"
"21:37:40:606 (H:m:s:ms)","GENERIC","124.64099999999999","0.4772673243179008","394"
"20:45:56:962 (H:m:s:ms)","OPERA","93.161","0.20585497405425887","11097"
"21:5:47:368 (H:m:s:ms)","AMBULANCE","31.013","0.30771440226230906","636"
"21:25:9:90 (H:m:s:ms)","GENERIC","124.53399999999999","0.23214607013900046","948"
"20:45:57:575 (H:m:s:ms)","GENERIC","124.523","0.213110816433598","89910"
"21:10:1:0 (H:m:s:ms)","GENERIC","93.158","0.33085701312554133","8590"
"21:31:4:0 (H:m:s:ms)","OPERA","124.278","0.2161055651602343","69924"
"20:46:3:636 (H:m:s:ms)","GENERIC","93.047","0.20313694769770876","363"
"21:5:57:575 (H:m:s:ms)","GENERIC","124.61099999999999","0.3047703677658964","424"
"21:30:1:0 (H:m:s:ms)","GENERIC","124.402","0.24052070015801086","1853"
"20:46:4:556 (H:m:s:ms)","OPERA","93.216","0.2123000985352916","34608"
"21:10:1:0 (H:m:s:ms)","GENERIC","124.238","0.3268653980328314","4427"
"20:46:9:696 (H:m:s:ms)","GENERIC","124.299","0.21265736755221357","15409"
"21:10:1:0 (H:m:s:ms)","GENERIC","93.171","0.3261871860555393","8454"
"20:46:12:151 (H:m:s:ms)","OPERA","93.239","0.20818072015766553","849"
"20:46:15:757 (H:m:s:ms)","GENERIC","93.321","0.23725487348803798","368048"
"21:39:29:696 (H:m:s:ms)","GENERIC","124.262","0.4581114082064318","340"
"21:39:23:636 (H:m:s:ms)","GENERIC","93.27","0.45593531945024085","363"
"21:39:17:575 (H:m:s:ms)","GENERIC","124.569","0.45664432015468953","424"
"21:39:11:515 (H:m:s:ms)","GENERIC","93.311","0.44452370272177555","485"
"21:39:5:454 (H:m:s:ms)","GENERIC","93.059","0.4450400590849705","546"
"21:38:59:393 (H:m:s:ms)","GENERIC","124.6","0.4437452833258853","12682"
"21:38:56:842 (H:m:s:ms)","AMBULANCE","93.374","0.5206277082780717","160"
"21:38:57:0 (H:m:s:ms)","GENERIC","124.396","0.5036742363966855","1668"
"21:25:18:987 (H:m:s:ms)","OPERA","93.171","0.22406663249801645","16111"
"21:25:21:212 (H:m:s:ms)","GENERIC","124.662","0.22435876227616192","22881"
"21:6:15:757 (H:m:s:ms)","GENERIC","93.301","0.3142615907628322","242"
"21:25:26:582 (H:m:s:ms)","OPERA","124.314","0.22635340699850098","5461"
"21:6:18:947 (H:m:s:ms)","AMBULANCE","93.33","0.2923663290470306","1095"
"21:25:27:272 (H:m:s:ms)","GENERIC","93.087","0.23021981349847373","728"
"20:46:19:746 (H:m:s:ms)","OPERA","93.184","0.20950903105260363","304"
"21:6:21:818 (H:m:s:ms)","GENERIC","62.075","0.29194605894875936","181"
"21:25:33:333 (H:m:s:ms)","GENERIC","93.315","0.23947584976513367","114138"
"20:46:21:818 (H:m:s:ms)","GENERIC","124.142","0.21147529312084995","41389"
"21:6:27:878 (H:m:s:ms)","GENERIC","93.311","0.29203848009759603","1122"
"21:25:34:177 (H:m:s:ms)","OPERA","124.197","0.22470885018389733","5861"
"21:38:47:272 (H:m:s:ms)","GENERIC","93.187","0.4340962665575429","727"
"20:46:27:341 (H:m:s:ms)","OPERA","93.359","0.20753464958161036","3707"
"21:6:33:939 (H:m:s:ms)","GENERIC","93.32499999999999","0.28696636378683843","1061"
"21:25:39:393 (H:m:s:ms)","GENERIC","93.154","0.218972571877021","7647"
"21:38:41:212 (H:m:s:ms)","GENERIC","62.077","0.44107838299861435","788"
"20:46:27:878 (H:m:s:ms)","GENERIC","124.619","0.21678663022564548","35326"
"21:6:40:0 (H:m:s:ms)","GENERIC","124.29400000000001","0.30231550269400237","1041"
"21:25:41:772 (H:m:s:ms)","OPERA","124.289","0.21819997883853173","13271"
"21:38:57:0 (H:m:s:ms)","GENERIC","124.52600000000001","0.5089655351456042","1850"
"20:46:33:939 (H:m:s:ms)","GENERIC","124.56","0.22175981144202356","14116"
"21:6:46:60 (H:m:s:ms)","GENERIC","93.159","0.30036569342677816","940"
"21:25:45:454 (H:m:s:ms)","GENERIC","124.245","0.21286778008866908","10587"
"20:46:34:936 (H:m:s:ms)","OPERA","93.402","0.22610361171421317","16168"
"21:6:50:526 (H:m:s:ms)","AMBULANCE","62.157","0.29648728426309295","474"
"21:25:49:367 (H:m:s:ms)","OPERA","124.25800000000001","0.2354866257461449","12716"
"20:46:40:0 (H:m:s:ms)","GENERIC","93.114","0.24018045930055273","157837"
"21:6:52:121 (H:m:s:ms)","GENERIC","93.41","0.30169871406597304","878"
"20:46:42:531 (H:m:s:ms)","OPERA","93.199","0.20015727379827228","468"
"21:6:58:181 (H:m:s:ms)","GENERIC","124.463","0.29186149724287536","818"
"20:46:46:60 (H:m:s:ms)","GENERIC","124.23400000000001","0.22853794850331702","85655"
"20:46:50:126 (H:m:s:ms)","OPERA","93.272","0.21118514676066452","873"
"21:39:47:878 (H:m:s:ms)","GENERIC","124.452","0.5217588325811574","1121"
"21:40:24:242 (H:m:s:ms)","GENERIC","93.213","0.5477552729230933","758"
"21:40:18:181 (H:m:s:ms)","GENERIC","124.22","0.5464570549102004","818"
"21:40:12:121 (H:m:s:ms)","GENERIC","62.061","0.5042329218213254","878"
"21:40:6:60 (H:m:s:ms)","GENERIC","124.225","0.503612698810549","939"
"21:40:0:0 (H:m:s:ms)","GENERIC","62.069","0.5064617826743559","1177"
"21:40:0:0 (H:m:s:ms)","GENERIC","124.276","0.5039623290363484","1177"
"21:40:0:0 (H:m:s:ms)","AMBULANCE","62.167","0.5068134888784794","1178"
"21:39:53:939 (H:m:s:ms)","GENERIC","124.361","0.5118181397595206","1060"
"21:7:4:242 (H:m:s:ms)","GENERIC","124.502","0.3029360923809992","4758"
"21:7:10:303 (H:m:s:ms)","GENERIC","124.571","0.30976710158504517","696"
"20:46:52:121 (H:m:s:ms)","GENERIC","124.62","0.20795626716421445","4879"
"21:10:1:0 (H:m:s:ms)","GENERIC","124.406","0.3245907528920864","33875"
"20:46:57:721 (H:m:s:ms)","OPERA","62.233000000000004","0.211378826484316","17388"
"21:7:22:105 (H:m:s:ms)","AMBULANCE","62.204","0.3092027383734117","936"
"20:46:58:181 (H:m:s:ms)","GENERIC","124.38","0.2307967036239487","77678"
"21:7:22:424 (H:m:s:ms)","GENERIC","93.132","0.3044591512525297","617"
"20:47:4:242 (H:m:s:ms)","GENERIC","93.31299999999999","0.21021482895625165","4758"
"21:7:28:484 (H:m:s:ms)","GENERIC","124.53800000000001","0.29716609368673913","2557"
"21:39:41:818 (H:m:s:ms)","GENERIC","93.092","0.46256545761930246","181"
"20:47:5:316 (H:m:s:ms)","OPERA","62.149","0.2107331086989617","5742"
"21:7:34:545 (H:m:s:ms)","GENERIC","93.387","0.30770637006489376","19657"
"21:39:35:757 (H:m:s:ms)","GENERIC","124.59100000000001","0.462619728294086","243"
"20:47:10:303 (H:m:s:ms)","GENERIC","93.381","0.23422945871151185","53859"
"21:7:40:606 (H:m:s:ms)","GENERIC","124.614","0.30300179700527924","45692"
"20:47:12:911 (H:m:s:ms)","OPERA","93.37","0.2073451822736457","3090"
"21:7:46:666 (H:m:s:ms)","GENERIC","124.557","0.29433939258468195","23584"
"20:47:16:363 (H:m:s:ms)","GENERIC","124.451","0.22873967730538466","165467"
"21:7:52:727 (H:m:s:ms)","GENERIC","93.112","0.3069128388510286","272"
"20:47:20:506 (H:m:s:ms)","OPERA","93.253","0.2311559057896378","494"
"20:47:22:424 (H:m:s:ms)","GENERIC","124.211","0.21847150207273752","575"
"21:7:53:684 (H:m:s:ms)","AMBULANCE","62.161","0.3108778655839623","432"
"21:7:58:787 (H:m:s:ms)","GENERIC","124.18","0.29404429872260035","212"
"20:47:28:101 (H:m:s:ms)","OPERA","93.45400000000001","0.22457448393916807","8951"
"21:8:4:848 (H:m:s:ms)","GENERIC","93.249","0.28977805562136866","152"
"20:47:28:484 (H:m:s:ms)","GENERIC","124.46600000000001","0.23571679227924747","20624"
"21:8:10:909 (H:m:s:ms)","GENERIC","124.30699999999999","0.28985257238362494","1090"
"20:47:34:545 (H:m:s:ms)","GENERIC","124.493","0.23314983012256768","10511"
"21:8:16:969 (H:m:s:ms)","GENERIC","124.445","0.2870848138294699","1030"
"20:47:35:696 (H:m:s:ms)","OPERA","62.242000000000004","0.23678811461834995","22007"
"21:8:23:30 (H:m:s:ms)","GENERIC","93.207","0.2959173168861531","969"
"20:47:40:606 (H:m:s:ms)","GENERIC","93.40899999999999","0.23713079632911618","10449"
"21:8:25:263 (H:m:s:ms)","AMBULANCE","93.32300000000001","0.30248454034280425","738"
"20:47:43:291 (H:m:s:ms)","OPERA","93.252","0.226767013652549","228776"
"21:8:29:90 (H:m:s:ms)","GENERIC","124.232","0.29231341234521396","953"
"21:40:30:303 (H:m:s:ms)","GENERIC","124.352","0.5313619862516347","696"
"20:47:46:666 (H:m:s:ms)","GENERIC","93.283","0.22524320315401827","73699"
"21:8:35:151 (H:m:s:ms)","GENERIC","124.485","0.30141565261713416","4893"
"20:47:50:886 (H:m:s:ms)","OPERA","93.289","0.2221736648999516","57377"
"21:8:41:212 (H:m:s:ms)","GENERIC","124.215","0.2935868505160987","787"
"20:47:52:727 (H:m:s:ms)","GENERIC","124.234","0.24855845527351986","359591"
"20:47:58:481 (H:m:s:ms)","OPERA","93.35900000000001","0.23515857037614965","569"
"21:9:29:0 (H:m:s:ms)","GENERIC","124.41399999999999","0.3475105834775266","1770"
"21:8:53:333 (H:m:s:ms)","GENERIC","124.399","0.29961143389808964","666"
"20:47:58:787 (H:m:s:ms)","GENERIC","93.11500000000001","0.23956291038979685","7657"
"21:8:56:842 (H:m:s:ms)","AMBULANCE","62.183","0.33311556388861735","289"
"20:48:4:848 (H:m:s:ms)","GENERIC","124.311","0.23119476346591228","201"
"21:8:59:393 (H:m:s:ms)","GENERIC","124.62700000000001","0.3123816602507043","72016"
"20:30:0:0 (H:m:s:ms)","GENERIC","124.318","0.33455227787161146","1042"
"20:48:6:75 (H:m:s:ms)","OPERA","93.353","0.23154076155514394","974"
"21:9:5:454 (H:m:s:ms)","GENERIC","124.22","0.32231077226228294","546"
"20:30:0:0 (H:m:s:ms)","GENERIC","124.503","0.3355455943777624","1042"
"20:48:10:909 (H:m:s:ms)","GENERIC","124.37899999999999","0.23024290847383982","1189"
"21:9:11:515 (H:m:s:ms)","GENERIC","124.392","0.3168065873415626","484"
"20:30:6:60 (H:m:s:ms)","GENERIC","93.14","0.3386903097217724","939"
"20:48:13:670 (H:m:s:ms)","OPERA","31.01","0.24268820813582154","329"
"21:9:17:575 (H:m:s:ms)","GENERIC","124.55799999999999","0.34660840238532437","424"
"20:30:12:121 (H:m:s:ms)","GENERIC","124.25800000000001","0.33116490682290256","878"
"20:48:16:969 (H:m:s:ms)","GENERIC","93.275","0.22042371435911215","4272"
"21:9:23:636 (H:m:s:ms)","GENERIC","62.059","0.3483001125552458","363"
"20:30:18:181 (H:m:s:ms)","GENERIC","93.16","0.32596256896442616","818"
"20:48:21:265 (H:m:s:ms)","OPERA","93.366","0.2330000929795962","734"
"21:9:28:421 (H:m:s:ms)","AMBULANCE","62.195","0.359274071703317","636"
"20:30:24:242 (H:m:s:ms)","GENERIC","124.194","0.3265883852679745","758"
"20:48:23:30 (H:m:s:ms)","GENERIC","124.187","0.21948718301633405","970"
"21:9:29:696 (H:m:s:ms)","GENERIC","62.145","0.33153127808295946","347"
"20:30:30:303 (H:m:s:ms)","GENERIC","93.197","0.32228508955922786","697"
"20:48:28:860 (H:m:s:ms)","OPERA","93.312","0.2316139682659365","95493"
"20:30:36:363 (H:m:s:ms)","GENERIC","124.174","0.3148014415635066","636"
"20:48:29:90 (H:m:s:ms)","GENERIC","124.2","0.22326828109059094","1003"
"20:30:42:424 (H:m:s:ms)","GENERIC","124.524","0.31794173389883995","575"
"20:30:48:484 (H:m:s:ms)","GENERIC","93.156","0.31810432387495235","516"
"21:9:35:757 (H:m:s:ms)","GENERIC","93.391","0.33589788565651313","2242"
"21:9:41:818 (H:m:s:ms)","GENERIC","93.136","0.33300184208122874","182"
"20:48:35:151 (H:m:s:ms)","GENERIC","93.341","0.23256367755078483","10347"
"21:9:47:878 (H:m:s:ms)","GENERIC","62.087","0.3382331903078791","121"
"20:48:36:455 (H:m:s:ms)","OPERA","93.257","0.2208577010255688","601"
"21:9:53:939 (H:m:s:ms)","GENERIC","93.187","0.34083547374061635","1060"
"20:30:54:545 (H:m:s:ms)","GENERIC","93.18299999999999","0.3211799320690491","454"
"20:48:41:212 (H:m:s:ms)","GENERIC","124.196","0.24852998124375153","53229"
"21:10:0:0 (H:m:s:ms)","AMBULANCE","31.024","0.35747834588449884","1043"
"20:31:0:606 (H:m:s:ms)","GENERIC","62.147","0.31612964167447577","393"
"20:48:47:272 (H:m:s:ms)","GENERIC","124.35900000000001","0.23812831061757925","82136"
"21:10:0:0 (H:m:s:ms)","GENERIC","124.31","0.34403443342233875","1043"
"20:31:6:666 (H:m:s:ms)","GENERIC","93.162","0.3129007008346093","333"
"20:48:51:645 (H:m:s:ms)","OPERA","62.177","0.22513171164764054","355"
"21:10:0:0 (H:m:s:ms)","GENERIC","93.253","0.3442104929038199","1044"
"20:31:12:727 (H:m:s:ms)","GENERIC","93.306","0.31418554498564455","272"
"20:48:53:333 (H:m:s:ms)","GENERIC","124.586","0.24190655280292833","26811"
"21:10:6:60 (H:m:s:ms)","GENERIC","93.148","0.32196414525247447","940"
"20:31:18:787 (H:m:s:ms)","GENERIC","62.063","0.3162781234862166","212"
"20:48:59:240 (H:m:s:ms)","OPERA","62.146","0.2160712288014397","138413"
"21:10:12:121 (H:m:s:ms)","GENERIC","124.274","0.30615951060315966","878"
"20:31:24:848 (H:m:s:ms)","GENERIC","124.237","0.3181179797128809","152"
"20:48:59:393 (H:m:s:ms)","GENERIC","93.37100000000001","0.23802300600766643","72017"
"21:10:18:181 (H:m:s:ms)","GENERIC","93.143","0.30008178596293494","818"
"20:31:30:909 (H:m:s:ms)","GENERIC","93.215","0.327515043279689","1090"
"20:49:5:454 (H:m:s:ms)","GENERIC","124.194","0.27220328388255954","268840"
"20:31:36:969 (H:m:s:ms)","GENERIC","93.138","0.325763638243693","1030"
"20:49:6:835 (H:m:s:ms)","OPERA","93.131","0.23845377280795402","14260"
"20:31:43:30 (H:m:s:ms)","GENERIC","93.264","0.3203112406597061","969"
"20:31:49:90 (H:m:s:ms)","GENERIC","93.136","0.3200905904580278","946"
"20:49:11:515 (H:m:s:ms)","GENERIC","124.34899999999999","0.24656875090828864","23587"
"20:49:14:430 (H:m:s:ms)","OPERA","93.297","0.2420664901770753","570"
"20:31:55:151 (H:m:s:ms)","GENERIC","93.28399999999999","0.3155627259303837","848"
"20:49:17:575 (H:m:s:ms)","GENERIC","93.332","0.24275302489548167","424"
"20:32:1:212 (H:m:s:ms)","GENERIC","93.19800000000001","0.31135157479388303","787"
"20:49:22:25 (H:m:s:ms)","OPERA","93.4","0.2413781966804437","3977"
"20:32:7:272 (H:m:s:ms)","GENERIC","93.368","0.3157215095912671","728"
"20:49:23:636 (H:m:s:ms)","GENERIC","93.285","0.24668941995869886","217370"
"20:32:13:333 (H:m:s:ms)","GENERIC","124.343","0.3123528189065603","666"
"20:49:29:620 (H:m:s:ms)","OPERA","93.26400000000001","0.22510896489961546","73248"
"20:32:19:393 (H:m:s:ms)","GENERIC","124.26400000000001","0.3068677649630882","645"
"20:49:29:696 (H:m:s:ms)","GENERIC","124.268","0.2503563025058476","1350"
"20:32:25:454 (H:m:s:ms)","GENERIC","62.089","0.305217802366062","546"
"20:49:35:757 (H:m:s:ms)","GENERIC","93.352","0.23737935494011883","163002"
"20:32:31:515 (H:m:s:ms)","GENERIC","124.312","0.30866435288252814","484"
"20:49:37:215 (H:m:s:ms)","OPERA","93.416","0.2356683690671204","784"
"20:32:37:575 (H:m:s:ms)","GENERIC","124.173","0.3098860458120896","424"
"20:49:41:818 (H:m:s:ms)","GENERIC","124.17699999999999","0.22737575675877011","33350"
"20:32:43:636 (H:m:s:ms)","GENERIC","93.322","0.31155213552070427","364"
"20:32:49:696 (H:m:s:ms)","GENERIC","62.065","0.3129890528717545","339"
"20:49:44:810 (H:m:s:ms)","OPERA","93.256","0.22145716744665508","34358"
"20:49:47:878 (H:m:s:ms)","GENERIC","124.417","0.23692762422994335","126721"
"20:32:55:757 (H:m:s:ms)","GENERIC","124.341","0.31272169837742453","243"
"20:49:52:405 (H:m:s:ms)","OPERA","62.217","0.23132717791692275","4598"
"20:33:1:818 (H:m:s:ms)","GENERIC","124.543","0.31955179589219906","182"
"20:49:53:939 (H:m:s:ms)","GENERIC","124.375","0.21624749599854867","79411"
"20:33:7:878 (H:m:s:ms)","GENERIC","62.093","0.3203698143215683","1121"
"20:50:0:0 (H:m:s:ms)","OPERA","93.215","0.23527877370474287","55248"
"20:33:13:939 (H:m:s:ms)","GENERIC","124.619","0.33055622571794074","1060"
"20:50:0:0 (H:m:s:ms)","GENERIC","124.4","0.2259979565286628","33893"
"20:33:20:0 (H:m:s:ms)","GENERIC","124.174","0.3306643699307711","1039"
"20:50:0:0 (H:m:s:ms)","GENERIC","124.366","0.23328333054083347","58250"
"20:33:26:60 (H:m:s:ms)","GENERIC","93.132","0.33680630390059535","939"
"20:50:6:60 (H:m:s:ms)","GENERIC","124.173","0.23770148363273713","940"
"20:33:32:121 (H:m:s:ms)","GENERIC","93.31700000000001","0.3394816487916084","878"
"20:50:12:121 (H:m:s:ms)","GENERIC","124.212","0.24015580983728266","59073"
"20:33:38:181 (H:m:s:ms)","GENERIC","93.35499999999999","0.3384939365663688","818"
"20:50:18:181 (H:m:s:ms)","GENERIC","124.279","0.24026567670087456","36956"
"20:33:44:242 (H:m:s:ms)","GENERIC","93.217","0.33547386427729325","758"
"20:33:50:303 (H:m:s:ms)","GENERIC","93.156","0.3344992944984559","696"
"20:50:24:242 (H:m:s:ms)","GENERIC","93.151","0.2438309369527827","102198"
"20:50:30:303 (H:m:s:ms)","GENERIC","93.335","0.22145302473236667","16687"
"20:33:56:363 (H:m:s:ms)","GENERIC","124.437","0.33021308093679885","636"
"20:50:36:363 (H:m:s:ms)","GENERIC","93.15899999999999","0.2261533444658474","732"
"20:34:2:424 (H:m:s:ms)","GENERIC","124.326","0.3282812873917121","576"
"20:50:42:424 (H:m:s:ms)","GENERIC","124.604","0.21938022753388392","3870"
"20:10:0:0 (H:m:s:ms)","GENERIC","93.44","0.341646024713118","1000"
"20:34:8:484 (H:m:s:ms)","GENERIC","62.123","0.32988600868017304","515"
"20:50:48:484 (H:m:s:ms)","GENERIC","62.113","0.23072386723194924","8563"
"20:10:0:0 (H:m:s:ms)","GENERIC","93.176","0.3398456638020209","1043"
"20:34:14:545 (H:m:s:ms)","GENERIC","93.128","0.3265314262620109","455"
"20:50:54:545 (H:m:s:ms)","GENERIC","93.302","0.24033105582146186","77855"
"20:10:6:60 (H:m:s:ms)","GENERIC","93.11699999999999","0.3345731813446295","939"
"20:34:20:606 (H:m:s:ms)","GENERIC","124.405","0.3262165394883838","394"
"20:51:0:606 (H:m:s:ms)","GENERIC","93.214","0.24212535317211345","4396"
"20:10:12:121 (H:m:s:ms)","GENERIC","93.193","0.32650146618105547","878"
"20:34:26:666 (H:m:s:ms)","GENERIC","124.218","0.3195445765439403","333"
"20:51:6:666 (H:m:s:ms)","GENERIC","93.182","0.22407576726395598","42529"
"20:10:18:181 (H:m:s:ms)","GENERIC","124.221","0.3228177454399957","819"
"20:34:32:727 (H:m:s:ms)","GENERIC","124.14","0.31696427792357595","272"
"20:51:12:727 (H:m:s:ms)","GENERIC","124.488","0.22607286109418095","19368"
"20:10:24:242 (H:m:s:ms)","GENERIC","93.151","0.3221445145314592","758"
"20:34:38:787 (H:m:s:ms)","GENERIC","93.319","0.31309714337355005","213"
"20:51:18:787 (H:m:s:ms)","GENERIC","124.284","0.22044248892728902","21354"
"20:10:30:303 (H:m:s:ms)","GENERIC","93.426","0.31850311415495763","697"
"20:34:44:848 (H:m:s:ms)","GENERIC","93.221","0.3073423213935128","152"
"20:10:36:363 (H:m:s:ms)","GENERIC","124.189","0.3188185402973739","636"
"20:34:50:909 (H:m:s:ms)","GENERIC","124.606","0.3115150565395843","1091"
"20:10:42:424 (H:m:s:ms)","GENERIC","93.28","0.3197120732099595","576"
"20:10:48:484 (H:m:s:ms)","GENERIC","93.156","0.320158725067001","515"
"20:51:24:848 (H:m:s:ms)","GENERIC","124.247","0.22998337019396248","152"
"20:51:30:909 (H:m:s:ms)","GENERIC","124.334","0.24819252740838188","53352"
"20:34:56:969 (H:m:s:ms)","GENERIC","93.33500000000001","0.30860203890702875","1030"
"20:51:36:969 (H:m:s:ms)","GENERIC","93.151","0.21670092679872272","1031"
"20:35:3:30 (H:m:s:ms)","GENERIC","93.131","0.3025799614281306","969"
"20:51:43:30 (H:m:s:ms)","GENERIC","124.406","0.25391208332595316","45186"
"20:10:54:545 (H:m:s:ms)","GENERIC","93.208","0.32412731601752687","454"
"20:35:9:90 (H:m:s:ms)","GENERIC","124.62899999999999","0.3017284234799846","949"
"20:51:49:90 (H:m:s:ms)","GENERIC","124.14699999999999","0.25864388262434984","82358"
"20:11:0:606 (H:m:s:ms)","GENERIC","62.105","0.32418182877905444","394"
"20:35:15:151 (H:m:s:ms)","GENERIC","93.28399999999999","0.2972095745710225","849"
"20:51:55:151 (H:m:s:ms)","GENERIC","93.357","0.24199118533455471","8901"
"20:11:6:666 (H:m:s:ms)","GENERIC","93.182","0.32525815620889986","334"
"20:35:21:212 (H:m:s:ms)","GENERIC","124.612","0.30496550875848133","787"
"20:52:1:212 (H:m:s:ms)","GENERIC","124.25399999999999","0.23873585235908185","24897"
"20:11:12:727 (H:m:s:ms)","GENERIC","93.325","0.32662910649744564","273"
"20:35:27:272 (H:m:s:ms)","GENERIC","93.106","0.3087365072447158","727"
"20:52:7:272 (H:m:s:ms)","GENERIC","124.62700000000001","0.24218350280820575","1728"
"20:11:18:787 (H:m:s:ms)","GENERIC","124.168","0.32464984824349297","213"
"20:35:33:333 (H:m:s:ms)","GENERIC","124.538","0.3145088556346011","666"
"20:52:13:333 (H:m:s:ms)","GENERIC","124.429","0.23878691890618733","28814"
"20:11:24:848 (H:m:s:ms)","GENERIC","124.21600000000001","0.32867866748208224","151"
"20:35:39:393 (H:m:s:ms)","GENERIC","124.405","0.31921809493109715","646"
"20:52:19:393 (H:m:s:ms)","GENERIC","124.435","0.23858093805533834","42847"
"20:11:30:909 (H:m:s:ms)","GENERIC","124.381","0.32314487100874456","1091"
"20:35:45:454 (H:m:s:ms)","GENERIC","124.352","0.31044405139570963","546"
"20:11:36:969 (H:m:s:ms)","GENERIC","93.124","0.32105393821261785","1030"
"20:35:51:515 (H:m:s:ms)","GENERIC","124.357","0.3105212862021518","484"
"20:11:43:30 (H:m:s:ms)","GENERIC","124.485","0.32037177890877067","969"
"20:11:49:90 (H:m:s:ms)","GENERIC","93.219","0.3216357106934436","953"
"20:0:54:545 (H:m:s:ms)","GENERIC","62.138999999999996","0.21901923042629992","456"
"20:1:0:606 (H:m:s:ms)","GENERIC","62.067","0.22887157804615224","394"
"20:1:6:666 (H:m:s:ms)","GENERIC","93.223","0.2392271103885314","336"
"20:1:12:727 (H:m:s:ms)","GENERIC","31.044","0.24701966712204673","273"
"20:1:18:787 (H:m:s:ms)","GENERIC","62.064","0.2589704378449456","212"
"20:1:24:848 (H:m:s:ms)","GENERIC","62.07599999999999","0.2605755984784758","152"
"20:1:30:909 (H:m:s:ms)","GENERIC","62.164","0.2715650561900192","1091"
"20:1:36:969 (H:m:s:ms)","GENERIC","62.11","0.28242479383354563","1030"
"20:1:43:30 (H:m:s:ms)","GENERIC","62.262","0.29223280655154465","970"
"20:1:49:90 (H:m:s:ms)","GENERIC","62.129999999999995","0.2946836997025283","926"
"20:35:57:575 (H:m:s:ms)","GENERIC","124.531","0.3083543134938031","424"
"20:36:3:636 (H:m:s:ms)","GENERIC","124.18","0.30623039447245853","363"
"20:11:55:151 (H:m:s:ms)","GENERIC","93.322","0.32342208462281297","848"
"20:36:9:696 (H:m:s:ms)","GENERIC","124.245","0.30927537765494983","344"
"20:12:1:212 (H:m:s:ms)","GENERIC","124.18700000000001","0.32477737816121977","788"
"20:36:15:757 (H:m:s:ms)","GENERIC","124.479","0.31059476257684726","243"
"20:12:7:272 (H:m:s:ms)","GENERIC","124.607","0.3220237023380047","728"
"20:36:21:818 (H:m:s:ms)","GENERIC","124.184","0.30792098294368314","181"
"20:12:13:333 (H:m:s:ms)","GENERIC","93.226","0.3205825016643794","666"
"20:36:27:878 (H:m:s:ms)","GENERIC","93.35300000000001","0.308042373150391","1121"
"20:12:19:393 (H:m:s:ms)","GENERIC","93.17","0.3189485780549495","649"
"20:36:33:939 (H:m:s:ms)","GENERIC","93.316","0.29571312069944744","1061"
"20:12:25:454 (H:m:s:ms)","GENERIC","124.624","0.3169333112959779","545"
"20:36:40:0 (H:m:s:ms)","GENERIC","93.172","0.3051134479083969","1038"
"20:12:31:515 (H:m:s:ms)","GENERIC","124.294","0.30907105448192274","485"
"20:36:46:60 (H:m:s:ms)","GENERIC","93.173","0.30239582637248563","939"
"20:12:37:575 (H:m:s:ms)","GENERIC","93.14500000000001","0.3051989122629896","425"
"20:36:52:121 (H:m:s:ms)","GENERIC","93.358","0.30640144258800067","4879"
"20:12:43:636 (H:m:s:ms)","GENERIC","124.499","0.3032079917271346","365"
"20:12:49:696 (H:m:s:ms)","GENERIC","124.37700000000001","0.3001152229466728","348"
"20:1:55:151 (H:m:s:ms)","GENERIC","62.312","0.2971411903377738","848"
"20:2:1:212 (H:m:s:ms)","GENERIC","62.093999999999994","0.2987407816850889","789"
"20:2:7:272 (H:m:s:ms)","GENERIC","31.053","0.29959696705957944","728"
"20:2:13:333 (H:m:s:ms)","GENERIC","31.019","0.3032178244233703","666"
"20:2:19:393 (H:m:s:ms)","GENERIC","93.304","0.30598989633442675","625"
"20:2:25:454 (H:m:s:ms)","GENERIC","62.314","0.3113172311085712","545"
"20:2:31:515 (H:m:s:ms)","GENERIC","93.244","0.31432013925609537","484"
"20:2:37:575 (H:m:s:ms)","GENERIC","62.087","0.3219472634667362","425"
"20:2:43:636 (H:m:s:ms)","GENERIC","62.308","0.32529544394589566","364"
"20:2:49:696 (H:m:s:ms)","GENERIC","93.389","0.32574469940629586","323"
"20:36:58:181 (H:m:s:ms)","GENERIC","124.453","0.3102017357625461","818"
"20:37:4:242 (H:m:s:ms)","GENERIC","62.053","0.31547442464685094","758"
"20:12:55:757 (H:m:s:ms)","GENERIC","93.157","0.30311919674658355","242"
"20:37:10:303 (H:m:s:ms)","GENERIC","93.388","0.31047543203709793","696"
"20:13:1:818 (H:m:s:ms)","GENERIC","93.31","0.308401363875086","182"
"20:37:16:363 (H:m:s:ms)","GENERIC","93.256","0.3133467169334325","636"
"20:13:7:878 (H:m:s:ms)","GENERIC","93.203","0.3044374314309311","1121"
"20:37:22:424 (H:m:s:ms)","GENERIC","124.205","0.32273687208967966","575"
"20:13:13:939 (H:m:s:ms)","GENERIC","124.586","0.30745436447356006","1061"
"20:37:28:484 (H:m:s:ms)","GENERIC","93.263","0.32380637765263415","515"
"20:13:20:0 (H:m:s:ms)","GENERIC","93.121","0.3082672087448419","1042"
"20:37:34:545 (H:m:s:ms)","GENERIC","93.306","0.3256623426998035","455"
"20:13:26:60 (H:m:s:ms)","GENERIC","124.117","0.301211113656141","940"
"20:37:40:606 (H:m:s:ms)","GENERIC","93.37100000000001","0.3325688558691832","393"
"20:13:32:121 (H:m:s:ms)","GENERIC","124.608","0.31179893927262325","879"
"20:37:46:666 (H:m:s:ms)","GENERIC","124.441","0.3303376435242246","333"
"20:13:38:181 (H:m:s:ms)","GENERIC","124.576","0.31095660881803133","818"
"20:37:52:727 (H:m:s:ms)","GENERIC","124.136","0.3285511394114157","272"
"20:13:44:242 (H:m:s:ms)","GENERIC","124.38300000000001","0.30913917657694656","758"
"20:13:50:303 (H:m:s:ms)","GENERIC","93.179","0.3123007036106617","697"
"20:2:55:757 (H:m:s:ms)","GENERIC","62.164","0.33071442829475867","242"
"20:3:1:818 (H:m:s:ms)","GENERIC","93.497","0.3318064705756698","181"
"20:3:7:878 (H:m:s:ms)","GENERIC","93.168","0.3367350879886729","122"
"20:3:13:939 (H:m:s:ms)","GENERIC","62.302","0.33782582395502575","1061"
"20:3:20:0 (H:m:s:ms)","GENERIC","62.103","0.33497335046027044","1001"
"20:3:26:60 (H:m:s:ms)","GENERIC","93.232","0.33420417597645563","939"
"20:3:32:121 (H:m:s:ms)","GENERIC","31.048","0.3347765428668439","878"
"20:3:38:181 (H:m:s:ms)","GENERIC","62.295","0.33654716524504474","818"
"20:3:44:242 (H:m:s:ms)","GENERIC","93.32","0.33662774121266076","759"
"20:3:50:303 (H:m:s:ms)","GENERIC","62.158","0.33680963142957715","696"
"20:37:58:787 (H:m:s:ms)","GENERIC","93.128","0.33396882259348254","213"
"20:38:4:848 (H:m:s:ms)","GENERIC","93.229","0.33043297733665233","151"
"20:13:56:363 (H:m:s:ms)","GENERIC","124.398","0.3020451100954375","637"
"20:38:10:909 (H:m:s:ms)","GENERIC","124.353","0.3259599143076903","1091"
"20:14:2:424 (H:m:s:ms)","GENERIC","93.155","0.30157621535459045","575"
"20:38:16:969 (H:m:s:ms)","GENERIC","124.40299999999999","0.3197709638494737","1030"
"20:14:8:484 (H:m:s:ms)","GENERIC","93.387","0.30499439701887676","517"
"20:38:23:30 (H:m:s:ms)","GENERIC","124.208","0.3240776882369755","969"
"20:14:14:545 (H:m:s:ms)","GENERIC","124.219","0.2994692662160715","455"
"20:38:29:90 (H:m:s:ms)","GENERIC","124.28399999999999","0.3258948714922265","949"
"20:14:20:606 (H:m:s:ms)","GENERIC","93.28","0.30142914518069636","393"
"20:38:35:151 (H:m:s:ms)","GENERIC","93.32900000000001","0.3283338787135609","848"
"20:14:26:666 (H:m:s:ms)","GENERIC","124.178","0.30604545056632193","333"
"20:38:41:212 (H:m:s:ms)","GENERIC","93.154","0.32620904493562264","787"
"20:14:32:727 (H:m:s:ms)","GENERIC","62.079","0.29822937245037623","273"
"20:38:47:272 (H:m:s:ms)","GENERIC","93.225","0.32596794625685105","728"
"20:14:38:787 (H:m:s:ms)","GENERIC","93.328","0.29881749157226467","212"
"20:38:53:333 (H:m:s:ms)","GENERIC","93.273","0.33074705724682285","666"
"20:14:44:848 (H:m:s:ms)","GENERIC","93.221","0.2998689412662376","152"
"20:14:50:909 (H:m:s:ms)","GENERIC","93.313","0.2977227943311565","1090"
"20:3:56:363 (H:m:s:ms)","GENERIC","62.223","0.3350349862413743","637"
"20:4:2:424 (H:m:s:ms)","GENERIC","62.16","0.3355496763351096","576"
"20:4:8:484 (H:m:s:ms)","GENERIC","93.505","0.33504912297045875","516"
"20:4:14:545 (H:m:s:ms)","GENERIC","93.201","0.3363633846823665","455"
"20:4:20:606 (H:m:s:ms)","GENERIC","62.236000000000004","0.33623937178952407","394"
"20:4:26:666 (H:m:s:ms)","GENERIC","93.22200000000001","0.34083664996588614","334"
"20:4:32:727 (H:m:s:ms)","GENERIC","31.049","0.3400310186615228","272"
"20:4:38:787 (H:m:s:ms)","GENERIC","62.314","0.3348807418759572","213"
"20:4:44:848 (H:m:s:ms)","GENERIC","62.214","0.33071047008302296","153"
"20:4:50:909 (H:m:s:ms)","GENERIC","62.31","0.33341764135088764","1090"
"20:38:59:393 (H:m:s:ms)","GENERIC","93.341","0.32779810159706635","645"
"20:39:5:454 (H:m:s:ms)","GENERIC","93.16","0.3239278681427567","545"
"20:14:56:969 (H:m:s:ms)","GENERIC","93.363","0.29658751221650526","1031"
"20:39:11:515 (H:m:s:ms)","GENERIC","93.218","0.32253629088652136","484"
"20:15:3:30 (H:m:s:ms)","GENERIC","124.144","0.2922411018796239","969"
"20:39:17:575 (H:m:s:ms)","GENERIC","124.56700000000001","0.3217383780669242","424"
"20:15:9:90 (H:m:s:ms)","GENERIC","124.61099999999999","0.3008935062213784","205756"
"20:39:23:636 (H:m:s:ms)","GENERIC","93.203","0.3228788642896556","365"
"20:15:15:151 (H:m:s:ms)","GENERIC","93.28800000000001","0.2962140699189095","849"
"20:39:29:696 (H:m:s:ms)","GENERIC","124.271","0.329897732059123","342"
"20:15:21:212 (H:m:s:ms)","GENERIC","93.409","0.29914442622943205","787"
"20:39:35:757 (H:m:s:ms)","GENERIC","124.578","0.3273933055730257","243"
"20:15:27:272 (H:m:s:ms)","GENERIC","124.174","0.30290646879263505","727"
"20:39:41:818 (H:m:s:ms)","GENERIC","93.148","0.31844400343445683","181"
"20:15:33:333 (H:m:s:ms)","GENERIC","124.58099999999999","0.3058309357068257","666"
"20:39:47:878 (H:m:s:ms)","GENERIC","93.245","0.3251945796532349","1121"
"20:15:39:393 (H:m:s:ms)","GENERIC","124.39099999999999","0.30963842672","646"
"20:39:53:939 (H:m:s:ms)","GENERIC","93.242","0.3220997664495425","1061"
"20:15:45:454 (H:m:s:ms)","GENERIC","93.247","0.3085863126012715","546"
"20:15:51:515 (H:m:s:ms)","GENERIC","124.364","0.3051945595104438","484"
"20:4:56:969 (H:m:s:ms)","GENERIC","62.308","0.3324209157029993","1030"
"20:5:3:30 (H:m:s:ms)","GENERIC","93.133","0.33172133279318383","970"
"20:5:9:90 (H:m:s:ms)","GENERIC","62.268","0.34437336611655783","935"
"20:5:15:151 (H:m:s:ms)","GENERIC","62.223","0.34109702991235213","848"
"20:5:21:212 (H:m:s:ms)","GENERIC","62.268","0.3421781840079594","787"
"20:5:27:272 (H:m:s:ms)","GENERIC","93.105","0.34536607673164826","727"
"20:5:33:333 (H:m:s:ms)","GENERIC","62.266999999999996","0.347817792877755","667"
"20:5:39:393 (H:m:s:ms)","GENERIC","62.177","0.345193859053174","635"
"20:5:45:454 (H:m:s:ms)","GENERIC","31.042","0.34158517785991316","545"
"20:5:51:515 (H:m:s:ms)","GENERIC","62.187","0.33445860948655787","484"
"20:15:57:575 (H:m:s:ms)","GENERIC","93.314","0.30548911314294425","425"
"20:16:3:636 (H:m:s:ms)","GENERIC","124.18799999999999","0.3037979787564834","364"
"20:16:9:696 (H:m:s:ms)","GENERIC","93.238","0.3051744468167754","342"
"20:16:15:757 (H:m:s:ms)","GENERIC","124.463","0.305351058031719","243"
"20:16:21:818 (H:m:s:ms)","GENERIC","124.156","0.30934586119129287","182"
"20:16:27:878 (H:m:s:ms)","GENERIC","93.344","0.3056999174144469","1121"
"20:16:33:939 (H:m:s:ms)","GENERIC","124.47800000000001","0.31061580034631503","1061"
"20:16:40:0 (H:m:s:ms)","GENERIC","93.203","0.31081339747652753","1039"
"20:16:46:60 (H:m:s:ms)","GENERIC","124.20599999999999","0.3080766031873962","939"
"20:16:52:121 (H:m:s:ms)","GENERIC","124.55","0.3180146502298229","879"
"20:5:57:575 (H:m:s:ms)","GENERIC","62.258","0.32747959282509786","424"
"20:6:3:636 (H:m:s:ms)","GENERIC","62.126","0.32747447151143605","363"
"20:6:9:696 (H:m:s:ms)","GENERIC","62.158","0.32573862285989297","333"
"20:6:15:757 (H:m:s:ms)","GENERIC","62.259","0.33184110463613653","243"
"20:6:21:818 (H:m:s:ms)","GENERIC","62.076","0.3353049094359571","182"
"20:6:27:878 (H:m:s:ms)","GENERIC","62.260999999999996","0.3310768131589048","121"
"20:6:33:939 (H:m:s:ms)","GENERIC","31.043","0.3222509793613582","1061"
"20:6:40:0 (H:m:s:ms)","GENERIC","62.156000000000006","0.3292715305871012","1000"
"20:6:46:60 (H:m:s:ms)","GENERIC","62.097","0.3269769916030284","939"
"20:6:52:121 (H:m:s:ms)","GENERIC","62.278999999999996","0.3268840353921843","879"
"20:16:58:181 (H:m:s:ms)","GENERIC","124.468","0.3157029087272001","819"
"20:17:4:242 (H:m:s:ms)","GENERIC","124.414","0.31439381982498066","758"
"20:17:10:303 (H:m:s:ms)","GENERIC","124.598","0.31700496588216026","696"
"20:17:16:363 (H:m:s:ms)","GENERIC","93.322","0.3176042882339566","636"
"20:17:22:424 (H:m:s:ms)","GENERIC","124.14699999999999","0.32294470608569625","575"
"20:17:28:484 (H:m:s:ms)","GENERIC","93.282","0.3205741205230799","515"
"20:17:34:545 (H:m:s:ms)","GENERIC","93.333","0.32143597827793735","454"
"20:17:40:606 (H:m:s:ms)","GENERIC","93.39500000000001","0.3216114657630004","393"
"20:17:46:666 (H:m:s:ms)","GENERIC","124.50200000000001","0.31794161350534844","334"
"20:17:52:727 (H:m:s:ms)","GENERIC","124.154","0.31357818696632644","272"
"20:6:58:181 (H:m:s:ms)","GENERIC","93.471","0.3210653016273472","818"
"20:7:4:242 (H:m:s:ms)","GENERIC","93.445","0.3174821538458575","757"
"20:7:10:303 (H:m:s:ms)","GENERIC","62.313","0.3149335754580747","696"
"20:7:16:363 (H:m:s:ms)","GENERIC","62.221000000000004","0.31506955470221193","637"
"20:7:22:424 (H:m:s:ms)","GENERIC","62.072","0.3168296046156498","575"
"20:7:28:484 (H:m:s:ms)","GENERIC","93.485","0.3178480368580431","516"
"20:7:34:545 (H:m:s:ms)","GENERIC","93.417","0.3178908607795896","454"
"20:7:40:606 (H:m:s:ms)","GENERIC","93.57600000000001","0.32161514654911805","4395"
"20:7:46:666 (H:m:s:ms)","GENERIC","62.234","0.3181443233251053","333"
"20:7:52:727 (H:m:s:ms)","GENERIC","93.113","0.3187587089304769","273"
"20:17:58:787 (H:m:s:ms)","GENERIC","124.108","0.30902904059816483","212"
"20:18:4:848 (H:m:s:ms)","GENERIC","93.214","0.3013064110921562","151"
"20:18:10:909 (H:m:s:ms)","GENERIC","93.207","0.30058112592977704","1091"
"20:18:16:969 (H:m:s:ms)","GENERIC","124.384","0.30041843303797033","1031"
"20:18:23:30 (H:m:s:ms)","GENERIC","93.11099999999999","0.3005718131234867","969"
"20:18:29:90 (H:m:s:ms)","GENERIC","93.191","0.30050451186331617","951"
"20:18:35:151 (H:m:s:ms)","GENERIC","124.50899999999999","0.30361375113125993","848"
"20:18:41:212 (H:m:s:ms)","GENERIC","93.116","0.29732397178342423","788"
"20:18:47:272 (H:m:s:ms)","GENERIC","93.174","0.2994405863093607","728"
"20:18:53:333 (H:m:s:ms)","GENERIC","124.39","0.29732919044095385","667"
"20:7:58:787 (H:m:s:ms)","GENERIC","62.064","0.3227908574759476","213"
"20:8:4:848 (H:m:s:ms)","GENERIC","93.18299999999999","0.3170694930390345","152"
"20:8:10:909 (H:m:s:ms)","GENERIC","62.149","0.31481377005893024","1091"
"20:8:16:969 (H:m:s:ms)","GENERIC","93.406","0.30895733101292294","1030"
"20:8:23:30 (H:m:s:ms)","GENERIC","93.164","0.31195711831086964","970"
"20:8:29:90 (H:m:s:ms)","GENERIC","62.152","0.3112069387185315","946"
"20:8:35:151 (H:m:s:ms)","GENERIC","93.52000000000001","0.31720344866916295","850"
"20:8:41:212 (H:m:s:ms)","GENERIC","62.089","0.3143523177103295","787"
"20:8:47:272 (H:m:s:ms)","GENERIC","93.315","0.318261005949346","727"
"20:8:53:333 (H:m:s:ms)","GENERIC","62.192","0.32604735518629097","666"
"20:18:59:393 (H:m:s:ms)","GENERIC","124.58099999999999","0.3082808701923502","646"
"20:19:5:454 (H:m:s:ms)","GENERIC","93.163","0.3124594722936822","546"
"20:19:11:515 (H:m:s:ms)","GENERIC","124.364","0.30745997790827284","485"
"20:19:17:575 (H:m:s:ms)","GENERIC","124.55199999999999","0.3089692304735793","425"
"20:19:23:636 (H:m:s:ms)","GENERIC","124.348","0.30682445971702194","363"
"20:19:29:696 (H:m:s:ms)","GENERIC","93.127","0.3087858976743378","343"
"20:19:35:757 (H:m:s:ms)","GENERIC","124.566","0.3110651201202148","242"
"20:19:41:818 (H:m:s:ms)","GENERIC","93.148","0.3113767095076965","181"
"20:19:47:878 (H:m:s:ms)","GENERIC","124.52000000000001","0.3171154751492327","1122"
"20:19:53:939 (H:m:s:ms)","GENERIC","62.045","0.31716747518493804","1061"
"20:8:59:393 (H:m:s:ms)","GENERIC","62.305","0.32507591732836844","646"
"20:9:5:454 (H:m:s:ms)","GENERIC","62.111000000000004","0.32156957364961475","545"
"20:9:11:515 (H:m:s:ms)","GENERIC","62.193","0.3155441933574165","484"
"20:9:17:575 (H:m:s:ms)","GENERIC","93.536","0.3201910185622552","424"
"20:9:23:636 (H:m:s:ms)","GENERIC","62.185","0.3218659912892974","364"
"20:9:29:696 (H:m:s:ms)","GENERIC","31.022","0.3306144106014911","343"
"20:9:35:757 (H:m:s:ms)","GENERIC","93.539","0.33586686913643493","242"
"20:9:41:818 (H:m:s:ms)","GENERIC","93.084","0.33633041072193876","182"
"20:9:47:878 (H:m:s:ms)","GENERIC","62.217","0.3381732144529817","122"
"20:9:53:939 (H:m:s:ms)","GENERIC","31.016","0.3400277791291543","1061"
"21:41:12:727 (H:m:s:ms)","GENERIC","93.24799999999999","0.6391343486902142","272"
"21:41:6:666 (H:m:s:ms)","GENERIC","124.265","0.6725923822064561","333"
"21:41:0:606 (H:m:s:ms)","GENERIC","93.13","0.5894061351406987","393"
"21:40:54:545 (H:m:s:ms)","GENERIC","93.155","0.5888069735373851","454"
"21:40:48:484 (H:m:s:ms)","GENERIC","93.226","0.5711205777891175","516"
"21:40:42:424 (H:m:s:ms)","GENERIC","124.59100000000001","0.5365597800378662","575"
"21:40:36:363 (H:m:s:ms)","GENERIC","93.18","0.5351382245820018","637"
"21:41:30:909 (H:m:s:ms)","GENERIC","124.303","0.627761324669447","1090"
"21:41:24:848 (H:m:s:ms)","GENERIC","93.149","0.6256635429218039","152"
"21:41:18:787 (H:m:s:ms)","GENERIC","62.101","0.6292744449344017","212"
