"time (H:m:s:ms)","type","latency","utilisation","waiting"
"21:42:49:696 (H:m:s:ms)","GENERIC","62.059","0.07168604389202186","440"
"21:42:31:515 (H:m:s:ms)","GENERIC","62.047","0.02013641493939699","597"
"21:42:25:454 (H:m:s:ms)","GENERIC","62.041","0.07288689868556623","672"
"21:42:19:393 (H:m:s:ms)","GENERIC","62.055","0.009590381405995559","768"
"21:42:13:333 (H:m:s:ms)","GENERIC","62.057","0.019232731454051796","797"
"21:42:7:272 (H:m:s:ms)","GENERIC","31.022","0.03550113489048478","897"
"21:42:1:212 (H:m:s:ms)","GENERIC","62.031","0.036590830666833565","865"
"21:41:55:151 (H:m:s:ms)","GENERIC","62.037","0.035390240685851074","927"
"21:41:49:90 (H:m:s:ms)","GENERIC","62.063","0.026561023115842127","1001"
"21:42:43:636 (H:m:s:ms)","GENERIC","62.085","0.04731330418428274","428"
"21:42:37:575 (H:m:s:ms)","GENERIC","62.039","0.023753654689565386","550"
"21:43:56:363 (H:m:s:ms)","GENERIC","62.049","0.030390298790410223","752"
"21:43:50:303 (H:m:s:ms)","GENERIC","62.051","0.028555771724214127","827"
"21:43:38:181 (H:m:s:ms)","GENERIC","62.103","0.0354130150178301","930"
"20:0:0:0 (H:m:s:ms)","GENERIC","31.035","0.03542432515235822","1296"
"21:43:32:121 (H:m:s:ms)","GENERIC","62.051","0.03041752878688848","963"
"20:0:6:60 (H:m:s:ms)","GENERIC","31.045","0.023604023879640897","1021"
"21:43:26:60 (H:m:s:ms)","GENERIC","62.061","0.010600537478775639","1069"
"20:0:12:121 (H:m:s:ms)","GENERIC","31.042","0.030544664848990707","1013"
"21:43:20:0 (H:m:s:ms)","GENERIC","62.057","0.04741025655176164","1145"
"20:0:18:181 (H:m:s:ms)","GENERIC","31.067","0.03581718454242856","956"
"21:43:13:939 (H:m:s:ms)","GENERIC","62.137","0.00890981274576099","1126"
"20:0:24:242 (H:m:s:ms)","GENERIC","31.04","0.03538050300490411","804"
"21:43:7:878 (H:m:s:ms)","GENERIC","62.115","0.07087863721067054","1188"
"20:0:30:303 (H:m:s:ms)","GENERIC","31.013","0.01422193614218587","836"
"21:43:1:818 (H:m:s:ms)","GENERIC","62.033","0.07072326344902383","232"
"20:0:36:363 (H:m:s:ms)","GENERIC","31.069","0.047260555336379066","709"
"21:42:55:757 (H:m:s:ms)","GENERIC","62.085","0.07073170731707315","661"
"20:0:42:424 (H:m:s:ms)","GENERIC","31.026","0.05304751582361741","741"
"21:10:12:121 (H:m:s:ms)","GENERIC","62.037","0.030842147387708914","984"
"20:0:48:484 (H:m:s:ms)","GENERIC","31.038","0.07076722405181653","664"
"21:10:18:181 (H:m:s:ms)","GENERIC","62.095","0.03677010764638213","907"
"21:10:24:242 (H:m:s:ms)","GENERIC","62.111","0.035581173897445494","786"
"21:10:30:303 (H:m:s:ms)","GENERIC","62.105","0.042665808426557615","799"
"21:10:36:363 (H:m:s:ms)","GENERIC","62.073","0.023809523809523808","702"
"21:10:42:424 (H:m:s:ms)","GENERIC","62.119","0.0353770961931154","733"
"21:10:48:484 (H:m:s:ms)","GENERIC","62.121","0.07076722405181653","652"
"21:10:54:545 (H:m:s:ms)","GENERIC","62.129","0.03544228745760862","559"
"21:43:44:242 (H:m:s:ms)","GENERIC","62.039","0.017757659393067015","841"
"21:11:0:606 (H:m:s:ms)","GENERIC","62.067","0.017757659393067015","516"
"21:11:6:666 (H:m:s:ms)","GENERIC","62.135","0.028600699292150082","438"
"21:25:49:367 (H:m:s:ms)","OPERA","31.01","0.049891054228704566","810"
"21:45:3:30 (H:m:s:ms)","GENERIC","62.145","0.028376097575805476","1029"
"21:44:56:969 (H:m:s:ms)","GENERIC","62.131","0.011852564137940403","1077"
"21:44:50:909 (H:m:s:ms)","GENERIC","62.121","0.047323601514302635","1187"
"21:44:44:848 (H:m:s:ms)","GENERIC","62.023","0.04295755432892913","253"
"21:44:38:787 (H:m:s:ms)","GENERIC","62.097","0.07072326344902383","256"
"21:44:32:727 (H:m:s:ms)","GENERIC","62.087","0.07079080355865955","323"
"21:44:26:666 (H:m:s:ms)","GENERIC","62.109","0.03538050300490411","395"
"21:44:20:606 (H:m:s:ms)","GENERIC","62.091","0.03538050300490411","422"
"21:44:14:545 (H:m:s:ms)","GENERIC","62.115","0.023705128275880807","518"
"21:44:8:484 (H:m:s:ms)","GENERIC","62.059","0.01422543317302855","614"
"21:11:12:727 (H:m:s:ms)","GENERIC","62.053","0.028701589029910036","374"
"21:44:2:424 (H:m:s:ms)","GENERIC","62.077","0.07082386558159796","603"
"21:11:18:787 (H:m:s:ms)","GENERIC","62.117","0.01976423537605236","353"
"21:11:24:848 (H:m:s:ms)","GENERIC","62.069","0.01121704190811396","273"
"21:11:30:909 (H:m:s:ms)","GENERIC","62.077","0.024995193694082284","1163"
"21:11:36:969 (H:m:s:ms)","GENERIC","62.075","0.05413726253945863","1136"
"21:11:43:30 (H:m:s:ms)","GENERIC","62.049","0.01225670254879405","1092"
"21:11:49:90 (H:m:s:ms)","GENERIC","62.109","0.026561023115842127","1012"
"21:11:55:151 (H:m:s:ms)","GENERIC","62.055","0.012196943555611196","951"
"21:12:1:212 (H:m:s:ms)","GENERIC","62.039","0.025385910352879713","890"
"21:12:7:272 (H:m:s:ms)","GENERIC","62.131","0.00973483496697912","848"
"21:26:27:341 (H:m:s:ms)","OPERA","31.01","0.01822172467139156","784"
"21:46:9:696 (H:m:s:ms)","GENERIC","62.137","0.07079080355865955","394"
"21:26:21:818 (H:m:s:ms)","GENERIC","62.051","0.05098911086509061","290"
"21:46:3:636 (H:m:s:ms)","GENERIC","62.111","0.07082386558159796","396"
"21:45:57:575 (H:m:s:ms)","GENERIC","62.035","0.03542432515235822","521"
"21:45:51:515 (H:m:s:ms)","GENERIC","62.029","0.038078865529319515","590"
"21:26:15:757 (H:m:s:ms)","GENERIC","62.105","0.042398051798206667","314"
"21:26:12:151 (H:m:s:ms)","OPERA","62.017","0.07879921704065024","974"
"21:45:45:454 (H:m:s:ms)","GENERIC","62.103","0.042665808426557615","619"
"21:26:9:696 (H:m:s:ms)","GENERIC","62.145","0.07304745864576638","403"
"21:45:39:393 (H:m:s:ms)","GENERIC","62.079","0.0118894080883515","807"
"21:26:4:556 (H:m:s:ms)","OPERA","31.01","0.07312097306918541","574"
"21:45:33:333 (H:m:s:ms)","GENERIC","62.059","0.02848399319759648","800"
"21:26:3:636 (H:m:s:ms)","GENERIC","62.093","0.07082386558159796","393"
"21:45:27:272 (H:m:s:ms)","GENERIC","62.071","0.07551903733496602","825"
"21:25:57:575 (H:m:s:ms)","GENERIC","62.031","0.08824805928365981","637"
"21:45:21:212 (H:m:s:ms)","GENERIC","62.069","0.020349657700231356","899"
"21:12:13:333 (H:m:s:ms)","GENERIC","62.063","0.05309310266899464","786"
"21:25:56:962 (H:m:s:ms)","OPERA","31.01","0.0707629595883619","1161"
"21:45:15:151 (H:m:s:ms)","GENERIC","62.133","0.027613402542968114","929"
"21:12:19:393 (H:m:s:ms)","GENERIC","62.065","0.017721143728804317","786"
"21:25:51:515 (H:m:s:ms)","GENERIC","62.047","0.057276434271850515","587"
"21:45:9:90 (H:m:s:ms)","GENERIC","62.073","0.048534065928536714","1050"
"21:12:25:454 (H:m:s:ms)","GENERIC","62.027","0.03644344934278312","685"
"21:12:31:515 (H:m:s:ms)","GENERIC","62.049","0.05390246011650642","609"
"21:12:37:575 (H:m:s:ms)","GENERIC","62.039","0.047961935138422264","564"
"21:12:43:636 (H:m:s:ms)","GENERIC","62.087","0.047528485312492055","428"
"21:12:49:696 (H:m:s:ms)","GENERIC","62.081","0.07168604389202186","450"
"21:12:55:757 (H:m:s:ms)","GENERIC","62.059","0.07095577652469333","367"
"21:13:1:818 (H:m:s:ms)","GENERIC","62.075","0.035581173897445494","231"
"21:13:7:878 (H:m:s:ms)","GENERIC","62.091","0.03610412343339986","1191"
"21:26:19:746 (H:m:s:ms)","OPERA","31.009","0.04242743948162256","450"
"21:27:4:242 (H:m:s:ms)","GENERIC","62.097","0.036443449342783124","882"
"21:47:16:363 (H:m:s:ms)","GENERIC","62.031","0.011378737125717752","717"
"21:26:58:181 (H:m:s:ms)","GENERIC","62.051","0.031814073518446374","943"
"21:47:10:303 (H:m:s:ms)","GENERIC","62.047","0.035561344234975034","832"
"21:26:57:721 (H:m:s:ms)","OPERA","31.009","0.03875266102699053","393"
"21:47:4:242 (H:m:s:ms)","GENERIC","62.113","0.05590169943749473","875"
"21:46:58:181 (H:m:s:ms)","GENERIC","62.043","0.02672943823728295","937"
"21:46:52:121 (H:m:s:ms)","GENERIC","62.059","0.047255040787994355","926"
"21:26:52:121 (H:m:s:ms)","GENERIC","62.079","0.058398845416575126","930"
"21:26:50:126 (H:m:s:ms)","OPERA","31.01","0.0885785703583944","969"
"21:26:46:60 (H:m:s:ms)","GENERIC","62.057","0.07942868280406994","1068"
"21:46:46:60 (H:m:s:ms)","GENERIC","62.059","0.03628454281560231","1056"
"21:26:42:531 (H:m:s:ms)","OPERA","62.017","0.07959349311528209","598"
"21:46:40:0 (H:m:s:ms)","GENERIC","62.049","0.03550113489048477","1189"
"21:26:40:0 (H:m:s:ms)","GENERIC","62.085","0.07751208056151648","1204"
"21:46:33:939 (H:m:s:ms)","GENERIC","62.075","0.05488624600025032","1160"
"21:13:13:939 (H:m:s:ms)","GENERIC","62.141","0.0179954957831321","1131"
"21:26:34:936 (H:m:s:ms)","OPERA","31.009","0.03820380351319433","1289"
"21:46:27:878 (H:m:s:ms)","GENERIC","62.033","0.01592192604222784","1257"
"21:13:20:0 (H:m:s:ms)","GENERIC","62.049","0.024757898027482655","1159"
"21:26:33:939 (H:m:s:ms)","GENERIC","62.091","0.02263846284534352","1174"
"21:46:21:818 (H:m:s:ms)","GENERIC","62.031","0.028667538173074224","301"
"21:13:26:60 (H:m:s:ms)","GENERIC","62.045","0.020770341040989522","1084"
"21:26:27:878 (H:m:s:ms)","GENERIC","62.019","0.046071762977725694","1373"
"21:46:15:757 (H:m:s:ms)","GENERIC","62.091","0.04731330418428274","314"
"21:13:32:121 (H:m:s:ms)","GENERIC","62.089","0.02087098722044021","964"
"21:13:38:181 (H:m:s:ms)","GENERIC","62.083","0.07073953373222823","947"
"21:13:44:242 (H:m:s:ms)","GENERIC","62.055","0.026993243674698134","849"
"21:13:50:303 (H:m:s:ms)","GENERIC","62.055","0.014677605348469852","842"
"21:13:56:363 (H:m:s:ms)","GENERIC","62.033","0.020711709727413992","779"
"21:14:2:424 (H:m:s:ms)","GENERIC","62.085","0.07082603003566022","649"
"21:14:8:484 (H:m:s:ms)","GENERIC","62.105","0.01422543317302855","620"
"21:27:40:606 (H:m:s:ms)","GENERIC","62.081","0.039911163900911255","520"
"21:48:23:30 (H:m:s:ms)","GENERIC","62.083","0.036217791140014714","997"
"21:27:35:696 (H:m:s:ms)","OPERA","62.015","0.04281072940267807","433"
"21:48:16:969 (H:m:s:ms)","GENERIC","62.127","0.023872684083518423","1077"
"21:27:34:545 (H:m:s:ms)","GENERIC","62.101","0.023883709691197616","560"
"21:48:10:909 (H:m:s:ms)","GENERIC","62.129","0.01976423537605236","1242"
"21:27:28:484 (H:m:s:ms)","GENERIC","62.097","0.0882437247308457","676"
"21:48:4:848 (H:m:s:ms)","GENERIC","62.055","0.05312204623168431","271"
"21:47:58:787 (H:m:s:ms)","GENERIC","62.053","0.02564364193873574","331"
"21:47:52:727 (H:m:s:ms)","GENERIC","62.093","0.035557692413821215","303"
"21:27:28:101 (H:m:s:ms)","OPERA","62.015","0.05344572305152205","989"
"21:27:22:424 (H:m:s:ms)","GENERIC","62.177","0.03265517416522795","664"
"21:27:20:506 (H:m:s:ms)","OPERA","62.015","0.03258933559661086","607"
"21:47:46:666 (H:m:s:ms)","GENERIC","62.015","0.023710063808507344","466"
"21:14:14:545 (H:m:s:ms)","GENERIC","62.113","0.023604023879640897","521"
"21:27:16:363 (H:m:s:ms)","GENERIC","62.031","0.0718373572223941","724"
"21:47:40:606 (H:m:s:ms)","GENERIC","62.069","0.05304751582361741","509"
"21:14:20:606 (H:m:s:ms)","GENERIC","62.087","0.07076100600980822","428"
"21:27:12:911 (H:m:s:ms)","OPERA","62.017","0.07935986834939687","1212"
"21:47:34:545 (H:m:s:ms)","GENERIC","62.099","0.02371006380850734","553"
"20:52:13:333 (H:m:s:ms)","GENERIC","62.085","0.035714285714285705","790"
"21:14:26:666 (H:m:s:ms)","GENERIC","62.107","0.035581173897445494","401"
"21:27:10:303 (H:m:s:ms)","GENERIC","62.045","0.050146780880561","845"
"21:47:28:484 (H:m:s:ms)","GENERIC","62.101","0.07075741353560017","583"
"20:52:19:393 (H:m:s:ms)","GENERIC","62.061","0.009180454249532666","765"
"21:14:32:727 (H:m:s:ms)","GENERIC","62.113","0.023676879190756027","344"
"21:27:5:316 (H:m:s:ms)","OPERA","31.009","0.050766778669209534","828"
"21:47:22:424 (H:m:s:ms)","GENERIC","62.137","0.01062295731998497","657"
"20:52:25:454 (H:m:s:ms)","GENERIC","62.021","0.014816586988912089","660"
"21:14:38:787 (H:m:s:ms)","GENERIC","62.087","0.035581173897445494","263"
"20:52:31:515 (H:m:s:ms)","GENERIC","62.037","0.05313031694345886","595"
"21:14:44:848 (H:m:s:ms)","GENERIC","62.043","0.02393442277594844","263"
"20:52:37:575 (H:m:s:ms)","GENERIC","62.023","0.04723243353647766","547"
"21:14:50:909 (H:m:s:ms)","GENERIC","62.117","0.048764039668415256","1198"
"20:52:43:636 (H:m:s:ms)","GENERIC","62.119","0.07082603003566022","421"
"21:14:56:969 (H:m:s:ms)","GENERIC","62.113","0.035557692413821215","1064"
"20:52:49:696 (H:m:s:ms)","GENERIC","62.103","0.024845199749997684","456"
"21:15:3:30 (H:m:s:ms)","GENERIC","62.111","0.014324905362048074","1041"
"20:52:55:757 (H:m:s:ms)","GENERIC","62.069","0.0707720322977626","348"
"21:15:9:90 (H:m:s:ms)","GENERIC","62.077","0.048534065928536714","1060"
"20:53:1:818 (H:m:s:ms)","GENERIC","62.097","0.07082603003566022","210"
"20:53:7:878 (H:m:s:ms)","GENERIC","62.073","0.03610412343339986","1179"
"21:28:21:265 (H:m:s:ms)","OPERA","31.009","0.037274560263821394","876"
"21:49:29:696 (H:m:s:ms)","GENERIC","62.123","0.012028842310766154","445"
"21:28:16:969 (H:m:s:ms)","GENERIC","62.131","0.021637768783945886","1078"
"21:49:23:636 (H:m:s:ms)","GENERIC","62.089","0.012043447559426315","444"
"21:28:13:670 (H:m:s:ms)","OPERA","31.01","0.034110456657262735","459"
"21:49:17:575 (H:m:s:ms)","GENERIC","62.091","0.035377879921712416","457"
"21:28:10:909 (H:m:s:ms)","GENERIC","62.119","0.02901747557746688","1241"
"21:49:11:515 (H:m:s:ms)","GENERIC","62.087","0.048969413639763176","621"
"21:28:4:848 (H:m:s:ms)","GENERIC","62.069","0.01794301523828171","297"
"21:49:5:454 (H:m:s:ms)","GENERIC","62.059","0.03952847075210473","615"
"21:48:59:393 (H:m:s:ms)","GENERIC","62.055","0.042607887752919925","757"
"21:48:53:333 (H:m:s:ms)","GENERIC","62.051","0.04403281604540959","755"
"21:27:58:787 (H:m:s:ms)","GENERIC","62.063","0.03341039174310048","448"
"21:15:15:151 (H:m:s:ms)","GENERIC","62.075","0.011319231422671756","934"
"21:27:58:481 (H:m:s:ms)","OPERA","62.015","0.03097885829058847","631"
"21:15:21:212 (H:m:s:ms)","GENERIC","62.071","0.012471910247460253","914"
"21:27:52:727 (H:m:s:ms)","GENERIC","62.141","0.039509762925211404","304"
"21:48:47:272 (H:m:s:ms)","GENERIC","62.061","0.03839170356332643","866"
"20:53:13:939 (H:m:s:ms)","GENERIC","62.129","0.0179954957831321","1119"
"21:15:27:272 (H:m:s:ms)","GENERIC","62.095","0.029462782549439497","831"
"21:27:50:886 (H:m:s:ms)","OPERA","62.017","0.03951269841349707","241"
"21:48:41:212 (H:m:s:ms)","GENERIC","62.071","0.04247184979126001","873"
"20:53:20:0 (H:m:s:ms)","GENERIC","62.051","0.024757898027482655","1133"
"21:15:33:333 (H:m:s:ms)","GENERIC","62.043","0.02848399319759648","811"
"21:27:46:666 (H:m:s:ms)","GENERIC","62.043","0.050248980137693605","430"
"21:48:35:151 (H:m:s:ms)","GENERIC","62.131","0.07076100600980822","895"
"20:53:26:60 (H:m:s:ms)","GENERIC","62.037","0.030347157882854112","1046"
"21:15:39:393 (H:m:s:ms)","GENERIC","62.097","0.023778816176703","822"
"21:27:43:291 (H:m:s:ms)","OPERA","62.017","0.04008953804027347","836"
"21:48:29:90 (H:m:s:ms)","GENERIC","62.047","0.01789383553769017","1060"
"20:53:32:121 (H:m:s:ms)","GENERIC","62.073","0.011378737125717752","952"
"21:15:45:454 (H:m:s:ms)","GENERIC","62.081","0.03545588768484177","594"
"20:53:38:181 (H:m:s:ms)","GENERIC","62.055","0.07073953373222823","927"
"21:15:51:515 (H:m:s:ms)","GENERIC","62.031","0.036770107646382125","597"
"20:53:44:242 (H:m:s:ms)","GENERIC","62.081","0.017995495783132105","837"
"21:15:57:575 (H:m:s:ms)","GENERIC","62.049","0.053216832393519965","516"
"20:53:50:303 (H:m:s:ms)","GENERIC","62.085","0.0440328160454096","809"
"21:16:3:636 (H:m:s:ms)","GENERIC","62.081","0.03538050300490411","392"
"20:53:56:363 (H:m:s:ms)","GENERIC","62.053","0.021330482600982657","765"
"21:16:9:696 (H:m:s:ms)","GENERIC","62.149","0.0471538119921046","409"
"20:54:2:424 (H:m:s:ms)","GENERIC","62.075","0.0709699562764241","640"
"20:54:8:484 (H:m:s:ms)","GENERIC","62.099","0.0284508663460571","615"
"21:28:59:240 (H:m:s:ms)","OPERA","62.017","0.05264795329580249","1015"
"21:28:53:333 (H:m:s:ms)","GENERIC","62.073","0.07694295865413951","791"
"21:28:51:645 (H:m:s:ms)","OPERA","31.009","0.037632332288983134","465"
"22:6:50:526 (H:m:s:ms)","AMBULANCE","31.009","0.02087098722044021","591"
"21:28:47:272 (H:m:s:ms)","GENERIC","62.057","0.04138147446072509","869"
"22:6:18:947 (H:m:s:ms)","AMBULANCE","31.009","0.010435493610220104","1174"
"21:28:44:50 (H:m:s:ms)","OPERA","31.009","0.05515713629819251","1093"
"22:2:6:315 (H:m:s:ms)","AMBULANCE","31.009","0.011378737125717752","778"
"21:28:41:212 (H:m:s:ms)","GENERIC","62.083","0.08236492074832352","882"
"22:0:31:578 (H:m:s:ms)","AMBULANCE","31.01","0.021676984577377215","671"
"21:50:0:0 (H:m:s:ms)","GENERIC","62.069","0.035544014013945344","1152"
"21:49:53:939 (H:m:s:ms)","GENERIC","62.151","0.009969530612958773","1149"
"21:16:15:757 (H:m:s:ms)","GENERIC","62.089","0.023914056246647084","314"
"21:16:21:818 (H:m:s:ms)","GENERIC","62.065","0.025959559911944353","307"
"21:28:36:455 (H:m:s:ms)","OPERA","62.015","0.07901274572935174","686"
"20:54:14:545 (H:m:s:ms)","GENERIC","62.115","0.012052652816259873","520"
"21:16:27:878 (H:m:s:ms)","GENERIC","62.033","0.04305238354486507","1250"
"21:28:35:151 (H:m:s:ms)","GENERIC","62.089","0.035557692413821215","884"
"20:54:20:606 (H:m:s:ms)","GENERIC","62.123","0.03545588768484177","424"
"21:16:33:939 (H:m:s:ms)","GENERIC","62.089","0.03335416016031578","1167"
"21:28:29:90 (H:m:s:ms)","GENERIC","62.069","0.04029483931820954","1061"
"21:49:47:878 (H:m:s:ms)","GENERIC","62.113","0.02835239010544531","1257"
"20:54:26:666 (H:m:s:ms)","GENERIC","62.097","0.07082386558159796","399"
"21:16:40:0 (H:m:s:ms)","GENERIC","62.101","0.03664662612862976","1197"
"21:28:28:860 (H:m:s:ms)","OPERA","62.015","0.050674323183815095","298"
"21:49:41:818 (H:m:s:ms)","GENERIC","62.095","0.04263801121065557","274"
"20:54:32:727 (H:m:s:ms)","GENERIC","62.121","0.02359693451955318","335"
"21:16:46:60 (H:m:s:ms)","GENERIC","62.059","0.07076295958836189","1064"
"21:28:23:30 (H:m:s:ms)","GENERIC","62.055","0.05009282372391993","1003"
"21:49:35:757 (H:m:s:ms)","GENERIC","62.059","0.02370512827588083","404"
"20:54:38:787 (H:m:s:ms)","GENERIC","62.109","0.07072326344902383","259"
"21:16:52:121 (H:m:s:ms)","GENERIC","62.095","0.047169125353724986","928"
"20:54:44:848 (H:m:s:ms)","GENERIC","62.071","0.07119834374653061","218"
"21:16:58:181 (H:m:s:ms)","GENERIC","62.039","0.009458481298851604","949"
"20:54:50:909 (H:m:s:ms)","GENERIC","62.147","0.026669550017128323","1186"
"21:17:4:242 (H:m:s:ms)","GENERIC","62.077","0.05590169943749473","885"
"20:54:56:969 (H:m:s:ms)","GENERIC","62.113","0.035377879921712416","1060"
"21:17:10:303 (H:m:s:ms)","GENERIC","62.047","0.07081390544093999","843"
"20:55:3:30 (H:m:s:ms)","GENERIC","62.125","0.04244173333415953","1035"
"20:55:9:90 (H:m:s:ms)","GENERIC","62.057","0.036817870057290814","1087"
"21:29:35:757 (H:m:s:ms)","GENERIC","62.079","0.0357142857142857","358"
"21:29:29:696 (H:m:s:ms)","GENERIC","62.109","0.041008109234774236","610"
"21:29:29:620 (H:m:s:ms)","OPERA","62.015","0.03628454281560231","593"
"21:29:23:636 (H:m:s:ms)","GENERIC","62.129","0.05466746206768052","450"
"21:29:22:25 (H:m:s:ms)","OPERA","62.017","0.05831458245931419","1070"
"21:29:17:575 (H:m:s:ms)","GENERIC","62.113","0.042804667700109274","492"
"21:29:14:430 (H:m:s:ms)","OPERA","62.017","0.08002127918156914","714"
"21:17:16:363 (H:m:s:ms)","GENERIC","62.047","0.030753897138223515","725"
"21:17:22:424 (H:m:s:ms)","GENERIC","62.173","0.01976423537605236","660"
"20:55:15:151 (H:m:s:ms)","GENERIC","62.087","0.03005203820042822","930"
"21:17:28:484 (H:m:s:ms)","GENERIC","62.079","0.023883709691197616","585"
"20:55:21:212 (H:m:s:ms)","GENERIC","62.097","0.010391636999866486","899"
"21:17:34:545 (H:m:s:ms)","GENERIC","62.109","0.023883709691197616","563"
"21:29:11:515 (H:m:s:ms)","GENERIC","62.039","0.10069336562873372","615"
"20:55:27:272 (H:m:s:ms)","GENERIC","62.103","0.025173012444988718","820"
"21:17:40:606 (H:m:s:ms)","GENERIC","62.097","0.03555067391080604","520"
"21:29:6:835 (H:m:s:ms)","OPERA","62.017","0.08666161486497181","293"
"20:55:33:333 (H:m:s:ms)","GENERIC","62.017","0.04255981518381771","777"
"21:17:46:666 (H:m:s:ms)","GENERIC","62.057","0.035565095712760994","441"
"21:29:5:454 (H:m:s:ms)","GENERIC","62.065","0.04999999999999998","612"
"20:55:39:393 (H:m:s:ms)","GENERIC","62.077","0.03566822426505449","777"
"21:17:52:727 (H:m:s:ms)","GENERIC","62.163","0.035445416502284305","303"
"21:28:59:393 (H:m:s:ms)","GENERIC","62.081","0.04314775075321679","764"
"20:55:45:454 (H:m:s:ms)","GENERIC","62.103","0.07072326344902383","590"
"21:17:58:787 (H:m:s:ms)","GENERIC","62.059","0.021676984577377195","335"
"20:55:51:515 (H:m:s:ms)","GENERIC","62.045","0.07103063757226806","591"
"21:18:4:848 (H:m:s:ms)","GENERIC","62.081","0.05305528200811205","277"
"20:55:57:575 (H:m:s:ms)","GENERIC","62.031","0.053216832393519965","499"
"21:18:10:909 (H:m:s:ms)","GENERIC","62.119","0.024999999999999988","1248"
"20:56:3:636 (H:m:s:ms)","GENERIC","62.073","0.07076100600980822","389"
"20:56:9:696 (H:m:s:ms)","GENERIC","62.139","0.07071958542839829","391"
"21:30:6:60 (H:m:s:ms)","GENERIC","62.115","0.012378949013741323","1011"
"21:30:0:0 (H:m:s:ms)","GENERIC","62.091","0.09965796491557354","1543"
"21:30:0:0 (H:m:s:ms)","GENERIC","62.037","0.07122937551614171","1436"
"21:30:0:0 (H:m:s:ms)","AMBULANCE","31.024","0.05890393162497362","1310"
"21:30:0:0 (H:m:s:ms)","OPERA","31.01","0.03563048203434805","1172"
"21:29:53:939 (H:m:s:ms)","GENERIC","62.125","0.05596431091531213","1153"
"21:29:52:405 (H:m:s:ms)","OPERA","31.01","0.055106174539997325","684"
"21:29:47:878 (H:m:s:ms)","GENERIC","62.139","0.05523654463120048","1263"
"21:18:16:969 (H:m:s:ms)","GENERIC","62.115","0.011852564137940403","1078"
"21:18:23:30 (H:m:s:ms)","GENERIC","62.037","0.03545220318347527","1001"
"20:56:15:757 (H:m:s:ms)","GENERIC","62.111","0.047528485312492055","298"
"21:18:29:90 (H:m:s:ms)","GENERIC","62.067","0.017731958085966584","1080"
"20:56:21:818 (H:m:s:ms)","GENERIC","62.093","0.020128613420650737","285"
"21:18:35:151 (H:m:s:ms)","GENERIC","62.077","0.035377879921712416","886"
"20:40:0:0 (H:m:s:ms)","OPERA","31.009","0.0707629595883619","1303"
"20:56:27:878 (H:m:s:ms)","GENERIC","62.055","0.04305238354486507","1229"
"21:18:41:212 (H:m:s:ms)","GENERIC","62.099","0.028891559705599475","898"
"20:40:0:0 (H:m:s:ms)","GENERIC","62.039","0.07306315773245375","1416"
"20:56:33:939 (H:m:s:ms)","GENERIC","62.085","0.06791538853603055","1152"
"21:18:47:272 (H:m:s:ms)","GENERIC","62.065","0.03413621137715327","870"
"21:29:44:810 (H:m:s:ms)","OPERA","62.017","0.060078912227539805","282"
"20:40:0:0 (H:m:s:ms)","GENERIC","62.047","0.08081199478413159","1524"
"20:56:40:0 (H:m:s:ms)","GENERIC","62.121","0.035934973411004295","1175"
"21:18:53:333 (H:m:s:ms)","GENERIC","62.089","0.035871084369970614","793"
"21:29:41:818 (H:m:s:ms)","GENERIC","62.087","0.03397006792045313","278"
"20:40:6:60 (H:m:s:ms)","GENERIC","62.083","0.012052652816259873","1008"
"20:56:46:60 (H:m:s:ms)","GENERIC","62.089","0.07076295958836189","1050"
"21:18:59:393 (H:m:s:ms)","GENERIC","62.089","0.04314775075321679","761"
"21:29:37:215 (H:m:s:ms)","OPERA","31.01","0.04023248497208393","910"
"20:40:7:594 (H:m:s:ms)","OPERA","31.01","0.03811824665974053","536"
"20:56:52:121 (H:m:s:ms)","GENERIC","62.063","0.047169125353724986","927"
"21:19:5:454 (H:m:s:ms)","GENERIC","62.075","0.05590169943749469","615"
"20:40:12:121 (H:m:s:ms)","GENERIC","62.077","0.041396118161585914","1004"
"20:56:58:181 (H:m:s:ms)","GENERIC","62.037","0.017995495783132105","930"
"21:19:11:515 (H:m:s:ms)","GENERIC","62.017","0.048969413639763176","631"
"20:40:15:189 (H:m:s:ms)","OPERA","31.01","0.0734183014444957","931"
"20:57:4:242 (H:m:s:ms)","GENERIC","62.083","0.044194173824159216","868"
"20:40:18:181 (H:m:s:ms)","GENERIC","62.105","0.09960314027319833","942"
"20:57:10:303 (H:m:s:ms)","GENERIC","62.063","0.0712609640686961","808"
"20:40:22:784 (H:m:s:ms)","OPERA","31.009","0.07677312303771375","338"
"20:40:24:242 (H:m:s:ms)","GENERIC","62.109","0.07678424508467142","849"
"21:30:24:242 (H:m:s:ms)","GENERIC","62.119","0.03538050300490411","789"
"21:31:6:666 (H:m:s:ms)","GENERIC","62.099","0.028319604517012487","438"
"21:31:0:606 (H:m:s:ms)","GENERIC","62.081","0.008997747891566052","522"
"21:30:54:545 (H:m:s:ms)","GENERIC","62.089","0.02386222896269379","584"
"21:30:48:484 (H:m:s:ms)","GENERIC","62.109","0.07076722405181653","665"
"21:30:42:424 (H:m:s:ms)","GENERIC","62.121","0.0353770961931154","740"
"21:30:36:363 (H:m:s:ms)","GENERIC","62.061","0.03914108719271707","708"
"21:30:31:578 (H:m:s:ms)","AMBULANCE","31.012","0.052499013220191626","644"
"21:19:17:575 (H:m:s:ms)","GENERIC","62.127","0.023604023879640897","494"
"21:30:30:303 (H:m:s:ms)","GENERIC","62.059","0.04245307371242289","808"
"21:19:23:636 (H:m:s:ms)","GENERIC","62.125","0.03537709619311539","434"
"20:57:16:363 (H:m:s:ms)","GENERIC","62.081","0.021676984577377215","713"
"21:19:29:696 (H:m:s:ms)","GENERIC","62.099","0.010378381319674473","445"
"20:57:22:424 (H:m:s:ms)","GENERIC","62.133","0.024999999999999988","654"
"21:19:35:757 (H:m:s:ms)","GENERIC","62.071","0.02475789802748267","400"
"20:40:30:303 (H:m:s:ms)","GENERIC","62.119","0.04245307371242289","804"
"20:57:28:484 (H:m:s:ms)","GENERIC","62.071","0.02360526314442479","577"
"21:19:41:818 (H:m:s:ms)","GENERIC","62.083","0.014422205101855904","270"
"20:40:30:379 (H:m:s:ms)","OPERA","31.01","0.05503884289641635","853"
"20:57:34:545 (H:m:s:ms)","GENERIC","62.099","0.02371006380850734","544"
"21:19:47:878 (H:m:s:ms)","GENERIC","62.149","0.02835239010544531","1269"
"20:40:36:363 (H:m:s:ms)","GENERIC","62.079","0.023676879190756027","708"
"20:57:40:606 (H:m:s:ms)","GENERIC","62.087","0.05304751582361741","497"
"21:19:53:939 (H:m:s:ms)","GENERIC","62.115","0.017744377953602716","1150"
"20:40:37:974 (H:m:s:ms)","OPERA","31.01","0.03013837731191781","1150"
"20:57:46:666 (H:m:s:ms)","GENERIC","62.047","0.035378706767800076","426"
"21:20:0:0 (H:m:s:ms)","OPERA","31.01","0.03563048203434805","1308"
"21:30:18:181 (H:m:s:ms)","GENERIC","62.069","0.03677010764638213","910"
"20:40:42:424 (H:m:s:ms)","GENERIC","62.107","0.04008953804027345","735"
"20:57:52:727 (H:m:s:ms)","GENERIC","62.133","0.012052652816259873","313"
"21:20:0:0 (H:m:s:ms)","GENERIC","62.026","0.053764532919016374","1436"
"21:30:12:121 (H:m:s:ms)","GENERIC","62.079","0.011615142051344647","1002"
"20:40:45:569 (H:m:s:ms)","OPERA","31.009","0.050542581215556874","580"
"20:57:58:787 (H:m:s:ms)","GENERIC","62.061","0.021676984577377195","320"
"21:20:0:0 (H:m:s:ms)","GENERIC","62.077","0.06415192952511338","1545"
"20:40:48:484 (H:m:s:ms)","GENERIC","62.111","0.07916962736175483","659"
"20:58:4:848 (H:m:s:ms)","GENERIC","62.095","0.05312204623168431","267"
"20:40:53:164 (H:m:s:ms)","OPERA","31.01","0.072760340543007","961"
"20:58:10:909 (H:m:s:ms)","GENERIC","62.113","0.01863389981249824","1238"
"20:40:54:545 (H:m:s:ms)","GENERIC","62.155","0.021403456046120067","572"
"20:41:0:606 (H:m:s:ms)","GENERIC","62.073","0.010180137724099437","517"
"21:31:24:848 (H:m:s:ms)","GENERIC","62.061","0.010391636999866465","279"
"21:31:18:787 (H:m:s:ms)","GENERIC","62.101","0.02124591463996994","361"
"21:32:6:315 (H:m:s:ms)","AMBULANCE","31.014","0.04511126241783492","887"
"21:32:1:212 (H:m:s:ms)","GENERIC","62.043","0.02403700850309328","901"
"21:31:55:151 (H:m:s:ms)","GENERIC","62.023","0.02362254625052145","960"
"21:31:49:90 (H:m:s:ms)","GENERIC","62.079","0.018269278602143047","1018"
"21:31:43:30 (H:m:s:ms)","GENERIC","62.045","0.011996997188754745","1099"
"21:31:36:969 (H:m:s:ms)","GENERIC","62.093","0.07834949956795409","1156"
"21:31:34:736 (H:m:s:ms)","AMBULANCE","62.067","0.04210664833023227","411"
"21:31:30:909 (H:m:s:ms)","GENERIC","62.107","0.024995193694082284","1160"
"20:58:16:969 (H:m:s:ms)","GENERIC","62.083","0.012378949013741323","1074"
"20:58:23:30 (H:m:s:ms)","GENERIC","62.013","0.07114582486036498","999"
"20:41:0:759 (H:m:s:ms)","OPERA","31.01","0.054313298672475474","453"
"20:58:29:90 (H:m:s:ms)","GENERIC","62.029","0.026661101819878016","1046"
"20:41:6:666 (H:m:s:ms)","GENERIC","62.187","0.04252058325093848","438"
"20:58:35:151 (H:m:s:ms)","GENERIC","62.095","0.035557692413821215","881"
"20:41:8:354 (H:m:s:ms)","OPERA","31.01","0.04593587960105064","767"
"20:58:41:212 (H:m:s:ms)","GENERIC","62.097","0.04247184979126001","873"
"20:41:12:727 (H:m:s:ms)","GENERIC","62.025","0.03362804366979488","378"
"20:58:47:272 (H:m:s:ms)","GENERIC","62.067","0.012797234521108784","853"
"20:41:15:949 (H:m:s:ms)","OPERA","31.009","0.041583804699697295","1160"
"20:58:53:333 (H:m:s:ms)","GENERIC","62.067","0.048534065928536714","747"
"20:41:18:787 (H:m:s:ms)","GENERIC","62.107","0.041811824712589644","336"
"20:58:59:393 (H:m:s:ms)","GENERIC","62.113","0.01840893502864541","760"
"21:31:12:727 (H:m:s:ms)","GENERIC","62.067","0.042705751519459885","382"
"20:41:23:544 (H:m:s:ms)","OPERA","31.009","0.04560508133976005","598"
"20:59:5:454 (H:m:s:ms)","GENERIC","62.099","0.06373774391990976","609"
"20:41:24:848 (H:m:s:ms)","GENERIC","62.081","0.037487705861471626","274"
"20:59:11:515 (H:m:s:ms)","GENERIC","62.031","0.0251730124449887","612"
"20:41:30:909 (H:m:s:ms)","GENERIC","62.087","0.026669550017128323","1155"
"20:41:31:139 (H:m:s:ms)","OPERA","31.01","0.032152209219619206","1056"
"20:59:17:575 (H:m:s:ms)","GENERIC","62.125","0.012378949013741323","485"
"20:59:23:636 (H:m:s:ms)","GENERIC","62.105","0.012043447559426315","442"
"20:41:36:969 (H:m:s:ms)","GENERIC","62.065","0.07072481884034769","1157"
"20:59:29:696 (H:m:s:ms)","GENERIC","62.079","0.02706863126972931","435"
"20:41:38:734 (H:m:s:ms)","OPERA","31.009","0.07879602590944154","399"
"20:59:35:757 (H:m:s:ms)","GENERIC","62.063","0.012821820969367872","385"
"20:41:43:30 (H:m:s:ms)","GENERIC","62.077","0.03732001539893787","1105"
"20:59:41:818 (H:m:s:ms)","GENERIC","62.087","0.028600699292150082","257"
"20:41:46:329 (H:m:s:ms)","OPERA","31.01","0.021377600225579437","803"
"20:59:47:878 (H:m:s:ms)","GENERIC","62.125","0.014677605348469852","1246"
"20:41:49:90 (H:m:s:ms)","GENERIC","62.093","0.020332533647053265","1022"
"20:59:53:939 (H:m:s:ms)","GENERIC","62.105","0.026914522857422525","1141"
"20:41:53:924 (H:m:s:ms)","OPERA","31.01","0.036711787737074224","204"
"21:0:0:0 (H:m:s:ms)","AMBULANCE","31.039","0.035459786374203404","1278"
"20:41:55:151 (H:m:s:ms)","GENERIC","62.035","0.03751487674887349","959"
"21:0:0:0 (H:m:s:ms)","GENERIC","62.037","0.0395225453786376","1392"
"20:42:1:212 (H:m:s:ms)","GENERIC","62.029","0.012692955176439856","897"
"21:0:0:0 (H:m:s:ms)","GENERIC","62.047","0.05268470052446482","1471"
"20:42:1:518 (H:m:s:ms)","OPERA","31.009","0.037547717003018274","713"
"20:42:7:272 (H:m:s:ms)","GENERIC","62.115","0.01814227140780115","853"
"21:0:6:60 (H:m:s:ms)","GENERIC","62.105","0.035445416502284305","970"
"21:0:12:121 (H:m:s:ms)","GENERIC","62.035","0.020561431591805936","990"
"20:42:9:113 (H:m:s:ms)","OPERA","31.009","0.03542173257606336","1044"
"21:0:18:181 (H:m:s:ms)","GENERIC","62.091","0.035406952720469995","923"
"20:42:13:333 (H:m:s:ms)","GENERIC","62.087","0.06142888031552437","792"
"21:0:24:242 (H:m:s:ms)","GENERIC","62.115","0.07082386558159796","782"
"20:20:0:0 (H:m:s:ms)","GENERIC","62.029","0.03563048203434805","1274"
"20:42:16:708 (H:m:s:ms)","OPERA","31.01","0.06403806691631528","414"
"21:0:30:303 (H:m:s:ms)","GENERIC","62.127","0.02844387228437174","804"
"20:20:0:0 (H:m:s:ms)","GENERIC","62.051","0.0788695358056959","1370"
"20:42:19:393 (H:m:s:ms)","GENERIC","62.067","0.039633737721049875","780"
"21:0:31:578 (H:m:s:ms)","AMBULANCE","31.044","0.03340959968311216","528"
"20:20:6:60 (H:m:s:ms)","GENERIC","62.081","0.035377879921712416","973"
"20:42:24:303 (H:m:s:ms)","OPERA","31.009","0.03521138798255123","807"
"21:0:36:363 (H:m:s:ms)","GENERIC","62.071","0.07282388236751655","698"
"20:20:12:121 (H:m:s:ms)","GENERIC","62.109","0.020293239422421457","999"
"20:42:25:454 (H:m:s:ms)","GENERIC","62.039","0.05224851605411104","642"
"21:0:42:424 (H:m:s:ms)","GENERIC","62.119","0.018065171339139447","716"
"20:20:18:181 (H:m:s:ms)","GENERIC","62.131","0.035561344234975034","938"
"20:42:31:515 (H:m:s:ms)","GENERIC","62.043","0.01796748670550215","606"
"21:0:48:484 (H:m:s:ms)","GENERIC","62.131","0.03538361202590826","637"
"20:20:24:242 (H:m:s:ms)","GENERIC","62.087","0.07073953373222827","849"
"20:42:31:898 (H:m:s:ms)","OPERA","31.009","0.03959070818392354","382"
"21:0:54:545 (H:m:s:ms)","GENERIC","62.149","0.035550673910806026","547"
"20:20:30:303 (H:m:s:ms)","GENERIC","62.069","0.01422193614218587","815"
"20:42:37:575 (H:m:s:ms)","GENERIC","62.041","0.0707720322977626","569"
"20:20:36:363 (H:m:s:ms)","GENERIC","62.117","0.047260555336379066","701"
"20:42:39:493 (H:m:s:ms)","OPERA","31.009","0.07682361782747896","670"
"20:20:42:424 (H:m:s:ms)","GENERIC","62.075","0.03555067391080604","731"
"20:20:48:484 (H:m:s:ms)","GENERIC","62.073","0.05413726253945863","635"
"21:1:0:606 (H:m:s:ms)","GENERIC","62.083","0.017757659393067015","501"
"21:1:3:157 (H:m:s:ms)","AMBULANCE","31.046","0.039424831892342214","930"
"20:42:43:636 (H:m:s:ms)","GENERIC","62.117","0.07700423847191629","430"
"21:1:6:666 (H:m:s:ms)","GENERIC","62.151","0.055038862636934194","427"
"20:42:47:88 (H:m:s:ms)","OPERA","31.009","0.0771514563691424","1022"
"21:1:12:727 (H:m:s:ms)","GENERIC","62.039","0.01592192604222784","365"
"20:20:54:545 (H:m:s:ms)","GENERIC","62.121","0.011850224636935363","570"
"20:42:49:696 (H:m:s:ms)","GENERIC","62.117","0.07780589984385032","443"
"21:1:18:787 (H:m:s:ms)","GENERIC","62.131","0.01863389981249824","339"
"20:21:0:606 (H:m:s:ms)","GENERIC","62.075","0.017995495783132105","510"
"20:42:54:683 (H:m:s:ms)","OPERA","31.01","0.08884880626423242","408"
"21:1:24:848 (H:m:s:ms)","GENERIC","62.083","0.031174910999599487","242"
"20:21:6:666 (H:m:s:ms)","GENERIC","62.189","0.04252058325093848","435"
"20:42:55:757 (H:m:s:ms)","GENERIC","62.087","0.058279759850647705","368"
"21:1:30:909 (H:m:s:ms)","GENERIC","62.083","0.04786884555189688","1153"
"20:21:12:727 (H:m:s:ms)","GENERIC","62.023","0.029214854593069103","372"
"20:43:1:818 (H:m:s:ms)","GENERIC","62.103","0.035581173897445494","232"
"21:1:34:736 (H:m:s:ms)","AMBULANCE","31.025","0.04979105532995504","376"
"20:21:18:787 (H:m:s:ms)","GENERIC","62.077","0.02124591463996994","347"
"20:43:2:278 (H:m:s:ms)","OPERA","31.01","0.04995469497094341","845"
"21:1:36:969 (H:m:s:ms)","GENERIC","62.057","0.07210468680041439","1140"
"20:21:24:848 (H:m:s:ms)","GENERIC","62.085","0.031174910999599487","237"
"20:43:7:878 (H:m:s:ms)","GENERIC","62.087","0.03544228745760862","1173"
"21:1:43:30 (H:m:s:ms)","GENERIC","62.051","0.01225670254879405","1079"
"20:21:30:909 (H:m:s:ms)","GENERIC","62.109","0.048764039668415256","1156"
"20:43:9:873 (H:m:s:ms)","OPERA","31.01","0.03999553125078331","301"
"20:21:36:969 (H:m:s:ms)","GENERIC","62.083","0.03560898762952971","1148"
"20:43:13:939 (H:m:s:ms)","GENERIC","62.143","0.025833517153967676","1128"
"20:21:43:30 (H:m:s:ms)","GENERIC","62.053","0.023809523809523815","1087"
"20:21:49:90 (H:m:s:ms)","GENERIC","62.115","0.00935824747702313","1009"
"20:43:17:468 (H:m:s:ms)","OPERA","31.009","0.035259821582881073","642"
"20:43:20:0 (H:m:s:ms)","GENERIC","62.055","0.05645207757601802","1157"
"20:21:55:151 (H:m:s:ms)","GENERIC","62.063","0.02362254625052145","945"
"20:43:25:63 (H:m:s:ms)","OPERA","31.01","0.07130600138144925","1025"
"20:22:1:212 (H:m:s:ms)","GENERIC","62.017","0.036590830666833565","871"
"20:43:26:60 (H:m:s:ms)","GENERIC","62.027","0.054314188222290866","1079"
"20:22:7:272 (H:m:s:ms)","GENERIC","62.101","0.017885649267056023","846"
"20:43:32:121 (H:m:s:ms)","GENERIC","31.038","0.02087098722044021","965"
"20:22:13:333 (H:m:s:ms)","GENERIC","62.059","0.05357142857142855","786"
"20:43:32:658 (H:m:s:ms)","OPERA","31.009","0.07357884716638559","575"
"20:22:19:393 (H:m:s:ms)","GENERIC","62.093","0.009590381405995559","770"
"20:43:38:181 (H:m:s:ms)","GENERIC","62.055","0.026655608222363632","890"
"20:22:25:454 (H:m:s:ms)","GENERIC","62.065","0.0286274562264969","668"
"20:43:40:253 (H:m:s:ms)","OPERA","31.01","0.03191101939554791","871"
"20:22:31:515 (H:m:s:ms)","GENERIC","62.037","0.03550113489048478","599"
"20:43:44:242 (H:m:s:ms)","GENERIC","62.083","0.02043614400882899","849"
"20:22:37:575 (H:m:s:ms)","GENERIC","62.073","0.047961935138422264","556"
"20:43:47:848 (H:m:s:ms)","OPERA","31.009","0.03216394713581546","261"
"20:22:43:636 (H:m:s:ms)","GENERIC","62.115","0.02365665209214137","424"
"20:22:49:696 (H:m:s:ms)","GENERIC","62.157","0.07081971546656643","440"
"20:43:50:303 (H:m:s:ms)","GENERIC","62.103","0.033810749897139586","837"
"20:43:55:443 (H:m:s:ms)","OPERA","31.009","0.03360896836558406","664"
"20:22:55:757 (H:m:s:ms)","GENERIC","62.079","0.0707720322977626","359"
"20:43:56:363 (H:m:s:ms)","GENERIC","62.071","0.036597371121416054","776"
"20:23:1:818 (H:m:s:ms)","GENERIC","62.107","0.07073953373222827","211"
"20:44:2:424 (H:m:s:ms)","GENERIC","62.085","0.03538050300490411","606"
"20:23:7:878 (H:m:s:ms)","GENERIC","62.083","0.07075270527132133","1186"
"20:44:3:37 (H:m:s:ms)","OPERA","31.01","0.03963667322781531","1087"
"20:23:13:939 (H:m:s:ms)","GENERIC","62.131","0.02661135195096442","1125"
"20:44:8:484 (H:m:s:ms)","GENERIC","62.099","0.023155087061390387","620"
"20:23:20:0 (H:m:s:ms)","GENERIC","62.089","0.04741025655176164","1153"
"20:44:10:632 (H:m:s:ms)","OPERA","31.01","0.038132615387029736","492"
"20:23:26:60 (H:m:s:ms)","GENERIC","62.039","0.020770341040989522","1074"
"20:44:14:545 (H:m:s:ms)","GENERIC","62.137","0.042518040162792765","520"
"20:23:32:121 (H:m:s:ms)","GENERIC","62.105","0.017786456215091236","991"
"20:44:18:227 (H:m:s:ms)","OPERA","31.01","0.04268797342406005","895"
"20:23:38:181 (H:m:s:ms)","GENERIC","62.081","0.03558548202023184","934"
"20:44:20:606 (H:m:s:ms)","GENERIC","62.147","0.05001160330260648","424"
"20:23:44:242 (H:m:s:ms)","GENERIC","62.067","0.009458481298851604","840"
"20:23:50:303 (H:m:s:ms)","GENERIC","62.113","0.016178021976178885","831"
"20:44:26:666 (H:m:s:ms)","GENERIC","62.083","0.035581173897445494","406"
"20:44:32:727 (H:m:s:ms)","GENERIC","62.115","0.02359693451955318","342"
"20:23:56:363 (H:m:s:ms)","GENERIC","62.071","0.012201108105874383","770"
"20:44:33:417 (H:m:s:ms)","OPERA","31.01","0.04282260269687906","711"
"20:24:2:424 (H:m:s:ms)","GENERIC","62.097","0.07082386558159796","602"
"20:44:38:787 (H:m:s:ms)","GENERIC","62.119","0.06312674409164419","290"
"20:24:8:484 (H:m:s:ms)","GENERIC","62.115","0.028657748352630862","616"
"20:44:41:12 (H:m:s:ms)","OPERA","31.01","0.0550979873255674","1112"
"20:24:14:545 (H:m:s:ms)","GENERIC","62.127","0.035445416502284305","487"
"20:44:44:848 (H:m:s:ms)","GENERIC","62.081","0.03078361135500878","259"
"20:24:20:606 (H:m:s:ms)","GENERIC","62.119","0.035557692413821215","424"
"20:44:48:607 (H:m:s:ms)","OPERA","31.009","0.04318407207979848","512"
"20:24:26:666 (H:m:s:ms)","GENERIC","62.087","0.035445416502284305","367"
"20:44:50:909 (H:m:s:ms)","GENERIC","62.151","0.04318407207979848","1196"
"20:24:32:727 (H:m:s:ms)","GENERIC","62.111","0.023809523809523808","338"
"20:44:56:202 (H:m:s:ms)","OPERA","31.01","0.04359765958710676","922"
"20:24:38:787 (H:m:s:ms)","GENERIC","62.107","0.03545588768484177","262"
"20:44:56:969 (H:m:s:ms)","GENERIC","62.113","0.05020077761619807","1188"
"20:24:44:848 (H:m:s:ms)","GENERIC","62.083","0.04786884555189688","255"
"20:24:50:909 (H:m:s:ms)","GENERIC","62.121","0.026669550017128323","1194"
"20:45:3:30 (H:m:s:ms)","GENERIC","62.115","0.014324905362048074","1040"
"20:45:3:797 (H:m:s:ms)","OPERA","31.01","0.055192311392840865","364"
"20:24:56:969 (H:m:s:ms)","GENERIC","62.083","0.023872684083518423","1079"
"20:45:9:90 (H:m:s:ms)","GENERIC","62.049","0.04527692569068701","1090"
"20:25:3:30 (H:m:s:ms)","GENERIC","62.087","0.028307255755510956","1049"
"20:45:11:392 (H:m:s:ms)","OPERA","31.01","0.05761083616658524","729"
"20:25:9:90 (H:m:s:ms)","GENERIC","62.075","0.02748737083745107","1084"
"20:45:15:151 (H:m:s:ms)","GENERIC","62.109","0.042578354501976313","935"
"20:25:15:151 (H:m:s:ms)","GENERIC","62.097","0.027443123000125146","929"
"20:45:18:987 (H:m:s:ms)","OPERA","31.01","0.04230188151008104","1185"
"20:25:21:212 (H:m:s:ms)","GENERIC","62.037","0.010391636999866486","909"
"20:45:21:212 (H:m:s:ms)","GENERIC","62.079","0.03764587235615695","909"
"20:25:27:272 (H:m:s:ms)","GENERIC","62.097","0.050346024889977435","827"
"20:45:26:582 (H:m:s:ms)","OPERA","31.01","0.022525690450877395","539"
"20:25:33:333 (H:m:s:ms)","GENERIC","62.023","0.029074928614235655","801"
"20:45:27:272 (H:m:s:ms)","GENERIC","62.083","0.0313657892733855","833"
"20:25:39:393 (H:m:s:ms)","GENERIC","62.033","0.012196943555611196","824"
"20:45:33:333 (H:m:s:ms)","GENERIC","62.041","0.04361239292135351","792"
"20:25:45:454 (H:m:s:ms)","GENERIC","62.151","0.035557692413821215","619"
"20:25:51:515 (H:m:s:ms)","GENERIC","62.031","0.0714285714285714","595"
"20:25:57:575 (H:m:s:ms)","GENERIC","62.035","0.03563048203434805","525"
"20:26:3:636 (H:m:s:ms)","GENERIC","62.099","0.07082386558159796","393"
"20:26:9:696 (H:m:s:ms)","GENERIC","62.115","0.023676879190756027","402"
"20:26:15:757 (H:m:s:ms)","GENERIC","62.105","0.04718372447015267","307"
"20:26:21:818 (H:m:s:ms)","GENERIC","62.081","0.024189695210401558","304"
"20:26:27:878 (H:m:s:ms)","GENERIC","62.043","0.042705751519459885","1249"
"20:26:33:939 (H:m:s:ms)","GENERIC","62.073","0.04596194077712552","1168"
"20:26:40:0 (H:m:s:ms)","GENERIC","62.111","0.0357142857142857","1157"
"20:26:46:60 (H:m:s:ms)","GENERIC","62.061","0.07076295958836189","1058"
"20:26:52:121 (H:m:s:ms)","GENERIC","62.073","0.07078712211732288","928"
"20:26:58:181 (H:m:s:ms)","GENERIC","62.031","0.017995495783132105","939"
"20:27:4:242 (H:m:s:ms)","GENERIC","62.069","0.0592927061281571","883"
"20:27:10:303 (H:m:s:ms)","GENERIC","62.075","0.07094272836976585","840"
"20:27:16:363 (H:m:s:ms)","GENERIC","31.041","0.031306480830660344","720"
"20:27:22:424 (H:m:s:ms)","GENERIC","62.083","0.01976423537605236","660"
"20:27:28:484 (H:m:s:ms)","GENERIC","62.103","0.07075741353560017","586"
"20:27:34:545 (H:m:s:ms)","GENERIC","62.067","0.02371006380850734","558"
"20:27:40:606 (H:m:s:ms)","GENERIC","62.081","0.053091013742701886","517"
"20:27:46:666 (H:m:s:ms)","GENERIC","62.055","0.023605263144424793","474"
"20:27:52:727 (H:m:s:ms)","GENERIC","62.075","0.035377879921712416","305"
"20:27:58:787 (H:m:s:ms)","GENERIC","62.059","0.018680321104666348","338"
"20:28:4:848 (H:m:s:ms)","GENERIC","62.057","0.017744377953602723","296"
"20:28:10:909 (H:m:s:ms)","GENERIC","62.075","0.01062295731998497","1249"
"20:28:16:969 (H:m:s:ms)","GENERIC","62.099","0.035445416502284305","1061"
"20:28:23:30 (H:m:s:ms)","GENERIC","62.033","0.03574122049188663","1001"
"20:28:29:90 (H:m:s:ms)","GENERIC","62.063","0.009263603524002082","1062"
"20:28:35:151 (H:m:s:ms)","GENERIC","62.117","0.035377879921712416","881"
"20:28:41:212 (H:m:s:ms)","GENERIC","62.097","0.042833657586321267","875"
"20:28:47:272 (H:m:s:ms)","GENERIC","62.045","0.02564364193873574","869"
"20:28:53:333 (H:m:s:ms)","GENERIC","62.107","0.03558548202023184","796"
"20:28:59:393 (H:m:s:ms)","GENERIC","62.099","0.029355210696939704","767"
"20:29:5:454 (H:m:s:ms)","GENERIC","62.079","0.05590169943749469","614"
"20:29:11:515 (H:m:s:ms)","GENERIC","62.059","0.047961935138422264","627"
"20:29:17:575 (H:m:s:ms)","GENERIC","62.095","0.035445416502284305","460"
"20:29:23:636 (H:m:s:ms)","GENERIC","62.101","0.012043447559426315","451"
"20:29:29:696 (H:m:s:ms)","GENERIC","62.073","0.018495561597760907","439"
"20:29:35:757 (H:m:s:ms)","GENERIC","62.057","0.035445416502284284","356"
"20:29:41:818 (H:m:s:ms)","GENERIC","62.087","0.014422205101855904","270"
"20:29:47:878 (H:m:s:ms)","GENERIC","62.085","0.042833657586321225","1229"
"20:29:53:939 (H:m:s:ms)","GENERIC","62.105","0.018269278602143047","1151"
"21:20:6:60 (H:m:s:ms)","GENERIC","62.123","0.035557692413821215","975"
"21:20:7:594 (H:m:s:ms)","OPERA","31.01","0.06358997100711339","498"
"21:20:12:121 (H:m:s:ms)","GENERIC","62.051","0.061121987842033376","990"
"21:20:15:189 (H:m:s:ms)","OPERA","31.01","0.035664196600383044","935"
"21:20:18:181 (H:m:s:ms)","GENERIC","62.083","0.039930743212522726","916"
"21:20:22:784 (H:m:s:ms)","OPERA","31.01","0.04023248497208395","344"
"21:20:24:242 (H:m:s:ms)","GENERIC","62.109","0.07302598240763196","791"
"21:20:30:303 (H:m:s:ms)","GENERIC","62.079","0.01422193614218587","825"
"21:20:30:379 (H:m:s:ms)","OPERA","62.017","0.05494550828355358","845"
"21:20:36:363 (H:m:s:ms)","GENERIC","62.071","0.023809523809523808","705"
"21:20:37:974 (H:m:s:ms)","OPERA","62.017","0.05828923805757653","1121"
"21:20:42:424 (H:m:s:ms)","GENERIC","62.129","0.07495298927221293","737"
"21:20:45:569 (H:m:s:ms)","OPERA","62.015","0.06120094498836966","558"
"21:20:48:484 (H:m:s:ms)","GENERIC","62.107","0.04696268385810176","658"
"21:20:53:164 (H:m:s:ms)","OPERA","31.01","0.05058276605115076","965"
"21:20:54:545 (H:m:s:ms)","GENERIC","62.109","0.04322644537669309","577"
"21:21:0:606 (H:m:s:ms)","GENERIC","62.067","0.009458481298851604","514"
"21:21:0:759 (H:m:s:ms)","OPERA","31.009","0.07145664702671843","505"
"21:21:6:666 (H:m:s:ms)","GENERIC","62.117","0.02842534080710369","440"
"21:21:8:354 (H:m:s:ms)","OPERA","31.009","0.04522210774993488","789"
"21:33:1:818 (H:m:s:ms)","GENERIC","62.047","0.07082603003566022","214"
"21:32:43:636 (H:m:s:ms)","GENERIC","62.071","0.023914056246647084","440"
"21:32:37:894 (H:m:s:ms)","AMBULANCE","31.023","0.04923631945254444","372"
"21:32:37:575 (H:m:s:ms)","GENERIC","62.029","0.0251730124449887","569"
"21:32:31:515 (H:m:s:ms)","GENERIC","62.055","0.01796748670550215","609"
"21:32:25:454 (H:m:s:ms)","GENERIC","62.023","0.04419417382415919","659"
"21:32:19:393 (H:m:s:ms)","GENERIC","62.067","0.026632325099918742","768"
"21:32:13:333 (H:m:s:ms)","GENERIC","62.051","0.035714285714285705","816"
"21:21:12:727 (H:m:s:ms)","GENERIC","62.067","0.045199621315464344","378"
"21:32:7:272 (H:m:s:ms)","GENERIC","62.139","0.06075846619812917","1117"
"21:21:15:949 (H:m:s:ms)","OPERA","31.01","0.033363426960038835","1173"
"21:21:18:787 (H:m:s:ms)","GENERIC","62.113","0.02653416864025122","356"
"21:21:23:544 (H:m:s:ms)","OPERA","62.015","0.07376756083670694","599"
"21:21:24:848 (H:m:s:ms)","GENERIC","62.057","0.07723097027695947","251"
"21:21:30:909 (H:m:s:ms)","GENERIC","62.087","0.026669550017128323","1162"
"21:21:31:139 (H:m:s:ms)","OPERA","31.01","0.07577668602558915","1054"
"21:21:36:969 (H:m:s:ms)","GENERIC","62.077","0.05548668479328271","1141"
"21:32:55:757 (H:m:s:ms)","GENERIC","62.079","0.04723243353647766","369"
"21:21:38:734 (H:m:s:ms)","OPERA","62.017","0.06555450641882973","408"
"21:32:49:696 (H:m:s:ms)","GENERIC","62.057","0.02389534796400732","485"
"21:21:43:30 (H:m:s:ms)","GENERIC","62.047","0.03727017475960795","1101"
"21:33:56:363 (H:m:s:ms)","GENERIC","62.045","0.010355854863706996","776"
"21:33:50:303 (H:m:s:ms)","GENERIC","62.039","0.030641293851416986","834"
"21:33:41:52 (H:m:s:ms)","AMBULANCE","31.031","0.05040240040688129","1070"
"21:33:38:181 (H:m:s:ms)","GENERIC","62.113","0.035871084369970614","940"
"21:33:32:121 (H:m:s:ms)","GENERIC","62.067","0.02087098722044021","965"
"21:33:26:60 (H:m:s:ms)","GENERIC","62.065","0.020770341040989522","1081"
"21:33:20:0 (H:m:s:ms)","GENERIC","62.049","0.04741025655176164","1157"
"21:33:13:939 (H:m:s:ms)","GENERIC","62.153","0.02842206276586524","1129"
"21:21:46:329 (H:m:s:ms)","OPERA","31.009","0.07178283987540685","811"
"21:33:9:473 (H:m:s:ms)","AMBULANCE","31.031","0.07154014759126463","699"
"21:21:49:90 (H:m:s:ms)","GENERIC","62.101","0.07152513080865948","1006"
"21:33:7:878 (H:m:s:ms)","GENERIC","62.105","0.07087863721067054","1190"
"21:21:53:924 (H:m:s:ms)","OPERA","31.009","0.037042643918988684","197"
"21:21:55:151 (H:m:s:ms)","GENERIC","62.041","0.03783862313816629","953"
"21:22:1:212 (H:m:s:ms)","GENERIC","62.051","0.02748737083745107","894"
"21:22:1:518 (H:m:s:ms)","OPERA","62.015","0.04078568466829617","700"
"21:22:7:272 (H:m:s:ms)","GENERIC","62.141","0.026828473900584","804"
"21:22:9:113 (H:m:s:ms)","OPERA","62.015","0.07542586120701684","1062"
"21:22:13:333 (H:m:s:ms)","GENERIC","62.055","0.07315480594751823","810"
"21:22:16:708 (H:m:s:ms)","OPERA","31.009","0.07330347012192005","418"
"21:33:44:242 (H:m:s:ms)","GENERIC","62.037","0.044344344304683904","841"
"21:34:56:969 (H:m:s:ms)","GENERIC","62.131","0.011852564137940403","1083"
"21:34:50:909 (H:m:s:ms)","GENERIC","62.115","0.048764039668415256","1196"
"21:34:44:848 (H:m:s:ms)","GENERIC","31.013","0.046998571028351005","415"
"21:34:44:210 (H:m:s:ms)","AMBULANCE","31.009","0.02037208815680257","896"
"21:34:38:787 (H:m:s:ms)","GENERIC","62.083","0.07082386558159796","262"
"21:34:32:727 (H:m:s:ms)","GENERIC","62.099","0.0707463006287827","323"
"21:34:26:666 (H:m:s:ms)","GENERIC","62.109","0.03538050300490411","401"
"21:34:20:606 (H:m:s:ms)","GENERIC","62.093","0.07072326344902383","424"
"21:22:19:393 (H:m:s:ms)","GENERIC","62.077","0.07147395332514775","778"
"21:34:14:545 (H:m:s:ms)","GENERIC","62.113","0.011852564137940403","523"
"21:22:24:303 (H:m:s:ms)","OPERA","62.015","0.03177045442904689","809"
"21:34:8:484 (H:m:s:ms)","GENERIC","62.065","0.0284508663460571","621"
"21:1:49:90 (H:m:s:ms)","GENERIC","62.099","0.009969530612958773","1006"
"21:22:25:454 (H:m:s:ms)","GENERIC","62.017","0.03366958047702718","673"
"21:34:2:424 (H:m:s:ms)","GENERIC","62.081","0.03545588768484177","606"
"21:1:55:151 (H:m:s:ms)","GENERIC","62.045","0.0118894080883515","941"
"21:22:31:515 (H:m:s:ms)","GENERIC","62.053","0.0359349734110043","613"
"21:2:1:212 (H:m:s:ms)","GENERIC","62.029","0.018408935028645417","885"
"21:22:31:898 (H:m:s:ms)","OPERA","62.017","0.07941237790399999","1359"
"21:2:6:315 (H:m:s:ms)","AMBULANCE","31.041","0.07299776243818035","799"
"21:22:37:575 (H:m:s:ms)","GENERIC","62.023","0.09999654452818926","583"
"21:2:7:272 (H:m:s:ms)","GENERIC","62.127","0.07127511636999039","837"
"21:22:39:493 (H:m:s:ms)","OPERA","62.017","0.07937136743236306","683"
"21:2:13:333 (H:m:s:ms)","GENERIC","62.079","0.035714285714285705","793"
"21:22:43:636 (H:m:s:ms)","GENERIC","62.071","0.059336167434674375","436"
"21:2:19:393 (H:m:s:ms)","GENERIC","62.053","0.026632325099918742","761"
"21:22:47:88 (H:m:s:ms)","OPERA","31.01","0.07084994143941599","1005"
"21:2:25:454 (H:m:s:ms)","GENERIC","62.015","0.07288689868556623","669"
"21:22:49:696 (H:m:s:ms)","GENERIC","62.061","0.05850949680462119","477"
"21:2:31:515 (H:m:s:ms)","GENERIC","62.047","0.05313031694345886","592"
"21:2:37:575 (H:m:s:ms)","GENERIC","62.025","0.047961935138422264","552"
"21:35:51:515 (H:m:s:ms)","GENERIC","62.045","0.0827773246768517","614"
"21:35:47:368 (H:m:s:ms)","AMBULANCE","31.019","0.08275270508203442","770"
"21:35:45:454 (H:m:s:ms)","GENERIC","62.101","0.07076100600980822","598"
"21:35:39:393 (H:m:s:ms)","GENERIC","62.089","0.012196943555611196","817"
"21:35:33:333 (H:m:s:ms)","GENERIC","62.047","0.030033994345183713","812"
"21:35:27:272 (H:m:s:ms)","GENERIC","62.073","0.07126096406869609","838"
"21:35:21:212 (H:m:s:ms)","GENERIC","62.071","0.02148653052962007","917"
"21:22:54:683 (H:m:s:ms)","OPERA","62.017","0.04376896137475216","447"
"21:35:15:789 (H:m:s:ms)","AMBULANCE","31.031","0.023633238786583154","355"
"21:22:55:757 (H:m:s:ms)","GENERIC","62.075","0.059848043906485286","363"
"21:35:15:151 (H:m:s:ms)","GENERIC","62.115","0.03259017850405395","1084"
"21:2:37:894 (H:m:s:ms)","AMBULANCE","31.049","0.05942107804791058","366"
"21:23:1:818 (H:m:s:ms)","GENERIC","62.059","0.03545588768484177","233"
"21:35:9:90 (H:m:s:ms)","GENERIC","62.087","0.048534065928536714","1051"
"21:2:43:636 (H:m:s:ms)","GENERIC","62.103","0.0709699562764241","425"
"21:23:2:278 (H:m:s:ms)","OPERA","62.017","0.04986613222501253","843"
"21:35:3:30 (H:m:s:ms)","GENERIC","62.127","0.04256414636370822","1039"
"21:2:49:696 (H:m:s:ms)","GENERIC","62.093","0.04859126579037756","468"
"21:23:7:878 (H:m:s:ms)","GENERIC","62.107","0.035550673910806026","1174"
"21:2:55:757 (H:m:s:ms)","GENERIC","62.063","0.04723243353647766","359"
"21:23:9:873 (H:m:s:ms)","OPERA","62.017","0.03978596653114119","300"
"21:3:1:818 (H:m:s:ms)","GENERIC","62.093","0.0709699562764241","212"
"21:23:13:939 (H:m:s:ms)","GENERIC","62.159","0.032044439576333406","1130"
"21:3:7:878 (H:m:s:ms)","GENERIC","62.081","0.07087863721067054","1184"
"21:23:17:468 (H:m:s:ms)","OPERA","62.015","0.04474179719655217","655"
"21:3:9:473 (H:m:s:ms)","AMBULANCE","31.051","0.09975881438771954","698"
"21:23:20:0 (H:m:s:ms)","GENERIC","62.053","0.04371999306944984","1157"
"21:3:13:939 (H:m:s:ms)","GENERIC","62.123","0.07145664702671843","1128"
"21:23:25:63 (H:m:s:ms)","OPERA","31.01","0.07474131173826895","1064"
"21:3:20:0 (H:m:s:ms)","GENERIC","62.049","0.024757898027482655","1155"
"21:3:26:60 (H:m:s:ms)","GENERIC","62.057","0.020770341040989522","1074"
"21:36:50:526 (H:m:s:ms)","AMBULANCE","31.012","0.09978759343584569","688"
"21:36:46:60 (H:m:s:ms)","GENERIC","62.059","0.0709195727484068","1059"
"21:36:40:0 (H:m:s:ms)","GENERIC","62.067","0.07078368864726105","1189"
"21:36:33:939 (H:m:s:ms)","GENERIC","62.083","0.06010407640085647","1162"
"21:36:27:878 (H:m:s:ms)","GENERIC","62.027","0.029214854593069103","1262"
"21:36:21:818 (H:m:s:ms)","GENERIC","62.043","0.045637544282860654","302"
"21:23:26:60 (H:m:s:ms)","GENERIC","62.055","0.07341113018633812","1086"
"21:36:18:947 (H:m:s:ms)","AMBULANCE","31.013","0.04282743125270712","1332"
"21:23:32:121 (H:m:s:ms)","GENERIC","62.075","0.02037208815680257","965"
"21:36:15:757 (H:m:s:ms)","GENERIC","62.113","0.023914056246647084","309"
"21:3:32:121 (H:m:s:ms)","GENERIC","62.085","0.012797234521108794","960"
"21:23:32:658 (H:m:s:ms)","OPERA","62.015","0.07358980885801722","557"
"21:36:9:696 (H:m:s:ms)","GENERIC","62.147","0.02359693451955318","404"
"21:3:38:181 (H:m:s:ms)","GENERIC","62.069","0.035871084369970614","927"
"21:23:38:181 (H:m:s:ms)","GENERIC","62.099","0.0708260300356602","943"
"21:36:3:636 (H:m:s:ms)","GENERIC","62.103","0.07076100600980822","394"
"21:3:41:52 (H:m:s:ms)","AMBULANCE","31.016","0.041268891766491775","1060"
"21:23:40:253 (H:m:s:ms)","OPERA","62.017","0.07896196539946579","871"
"21:35:57:575 (H:m:s:ms)","GENERIC","62.029","0.03542432515235822","533"
"21:3:44:242 (H:m:s:ms)","GENERIC","62.069","0.027191221918617163","837"
"21:23:44:242 (H:m:s:ms)","GENERIC","62.045","0.04448343649260135","847"
"21:3:50:303 (H:m:s:ms)","GENERIC","62.071","0.04314775075321679","811"
"21:23:47:848 (H:m:s:ms)","OPERA","62.015","0.04060414984374156","281"
"21:3:56:363 (H:m:s:ms)","GENERIC","62.039","0.021330482600982657","766"
"21:23:50:303 (H:m:s:ms)","GENERIC","62.041","0.042195556577618615","843"
"21:4:2:424 (H:m:s:ms)","GENERIC","62.081","0.07082603003566022","638"
"21:23:55:443 (H:m:s:ms)","OPERA","62.017","0.07648559877047188","680"
"21:4:8:484 (H:m:s:ms)","GENERIC","62.107","0.0284508663460571","614"
"21:23:56:363 (H:m:s:ms)","GENERIC","62.029","0.07185590363471853","781"
"21:4:12:631 (H:m:s:ms)","AMBULANCE","31.042","0.04548074040768217","526"
"21:4:14:545 (H:m:s:ms)","GENERIC","62.097","0.05018233267738466","489"
"21:37:46:666 (H:m:s:ms)","GENERIC","62.029","0.035378706767800076","442"
"21:37:40:606 (H:m:s:ms)","GENERIC","62.077","0.05304751582361741","522"
"21:37:34:545 (H:m:s:ms)","GENERIC","62.101","0.023883709691197616","552"
"21:37:28:484 (H:m:s:ms)","GENERIC","62.095","0.047157980393399024","582"
"21:37:22:424 (H:m:s:ms)","GENERIC","62.157","0.03490250148202074","789"
"21:37:22:105 (H:m:s:ms)","AMBULANCE","62.049","0.014537464307117828","1025"
"21:24:2:424 (H:m:s:ms)","GENERIC","62.079","0.0709699562764241","646"
"21:24:3:37 (H:m:s:ms)","OPERA","62.017","0.08827495252096622","1059"
"21:37:16:363 (H:m:s:ms)","GENERIC","62.023","0.030753897138223515","719"
"21:4:20:606 (H:m:s:ms)","GENERIC","62.107","0.07076100600980822","420"
"21:24:8:484 (H:m:s:ms)","GENERIC","62.083","0.06787806360845147","603"
"21:37:10:303 (H:m:s:ms)","GENERIC","62.029","0.07073649907190485","832"
"21:4:26:666 (H:m:s:ms)","GENERIC","62.099","0.03538050300490411","400"
"21:24:10:632 (H:m:s:ms)","OPERA","62.017","0.0553180172672927","488"
"21:37:4:242 (H:m:s:ms)","GENERIC","62.107","0.0537645329190164","875"
"21:4:32:727 (H:m:s:ms)","GENERIC","62.117","0.07071958542839829","319"
"21:24:14:545 (H:m:s:ms)","GENERIC","62.113","0.037436403189125306","530"
"21:36:58:181 (H:m:s:ms)","GENERIC","62.057","0.02672943823728295","938"
"21:4:38:787 (H:m:s:ms)","GENERIC","62.093","0.07076100600980822","261"
"21:24:18:227 (H:m:s:ms)","OPERA","31.009","0.07204171140345104","943"
"21:36:52:121 (H:m:s:ms)","GENERIC","62.067","0.09965490035299086","925"
"21:4:44:210 (H:m:s:ms)","AMBULANCE","31.053","0.010326286096862803","965"
"21:24:20:606 (H:m:s:ms)","GENERIC","62.083","0.07916722339061293","427"
"21:4:44:848 (H:m:s:ms)","GENERIC","62.065","0.026948502374658404","424"
"21:24:26:666 (H:m:s:ms)","GENERIC","62.111","0.03538050300490411","404"
"21:4:50:909 (H:m:s:ms)","GENERIC","62.131","0.04786884555189688","1187"
"21:24:32:727 (H:m:s:ms)","GENERIC","62.109","0.023809523809523808","341"
"21:4:56:969 (H:m:s:ms)","GENERIC","62.113","0.035445416502284305","1059"
"21:24:33:417 (H:m:s:ms)","OPERA","31.01","0.043198049191873755","710"
"21:5:3:30 (H:m:s:ms)","GENERIC","62.115","0.014324905362048074","1032"
"21:5:9:90 (H:m:s:ms)","GENERIC","62.069","0.05522680508593621","1049"
"21:38:47:272 (H:m:s:ms)","GENERIC","62.049","0.012797234521108784","871"
"21:38:41:212 (H:m:s:ms)","GENERIC","62.071","0.028352390105445345","896"
"21:38:35:151 (H:m:s:ms)","GENERIC","62.109","0.035581173897445494","898"
"21:38:29:90 (H:m:s:ms)","GENERIC","62.053","0.01789383553769017","1062"
"21:38:23:30 (H:m:s:ms)","GENERIC","62.067","0.07114582486036498","1001"
"21:38:16:969 (H:m:s:ms)","GENERIC","62.141","0.023872684083518423","1079"
"21:38:10:909 (H:m:s:ms)","GENERIC","62.119","0.02901747557746688","1229"
"21:24:38:787 (H:m:s:ms)","GENERIC","62.075","0.06329531867079921","288"
"21:24:41:12 (H:m:s:ms)","OPERA","62.017","0.06312674409164419","1113"
"21:5:15:151 (H:m:s:ms)","GENERIC","62.071","0.011319231422671756","932"
"21:24:44:848 (H:m:s:ms)","GENERIC","62.057","0.04286680873072287","429"
"21:5:15:789 (H:m:s:ms)","AMBULANCE","31.024","0.03288594125050335","396"
"21:24:48:607 (H:m:s:ms)","OPERA","62.017","0.0743932763259916","520"
"21:38:4:848 (H:m:s:ms)","GENERIC","62.061","0.017744377953602723","288"
"20:45:34:177 (H:m:s:ms)","OPERA","31.01","0.06836313440313471","914"
"21:5:21:212 (H:m:s:ms)","GENERIC","62.087","0.030402510589575313","885"
"21:24:50:909 (H:m:s:ms)","GENERIC","62.113","0.08503543789241551","1199"
"21:37:58:787 (H:m:s:ms)","GENERIC","62.049","0.022060894224828494","330"
"20:45:39:393 (H:m:s:ms)","GENERIC","62.077","0.06365151851395998","785"
"21:5:27:272 (H:m:s:ms)","GENERIC","62.107","0.07126096406869609","823"
"21:24:56:202 (H:m:s:ms)","OPERA","62.017","0.059384719157964935","923"
"21:37:53:684 (H:m:s:ms)","AMBULANCE","62.035","0.016678921621866113","435"
"20:45:45:454 (H:m:s:ms)","GENERIC","62.123","0.04253297392059072","620"
"21:5:33:333 (H:m:s:ms)","GENERIC","62.029","0.030033994345183713","804"
"21:24:56:969 (H:m:s:ms)","GENERIC","62.117","0.050082831500227576","1187"
"21:37:52:727 (H:m:s:ms)","GENERIC","62.117","0.011852564137940403","318"
"20:45:49:367 (H:m:s:ms)","OPERA","31.01","0.046367496180510316","805"
"21:5:39:393 (H:m:s:ms)","GENERIC","62.097","0.035390240685851074","781"
"21:25:3:30 (H:m:s:ms)","GENERIC","62.117","0.04256414636370822","1039"
"20:45:51:515 (H:m:s:ms)","GENERIC","62.051","0.04233113641847801","591"
"21:5:45:454 (H:m:s:ms)","GENERIC","62.085","0.03538050300490411","591"
"21:25:3:797 (H:m:s:ms)","OPERA","62.017","0.06798705105807243","366"
"20:45:56:962 (H:m:s:ms)","OPERA","31.01","0.03542432515235822","1156"
"21:5:47:368 (H:m:s:ms)","AMBULANCE","31.042","0.0636067082886395","722"
"21:25:9:90 (H:m:s:ms)","GENERIC","62.089","0.03807886552931951","1091"
"20:45:57:575 (H:m:s:ms)","GENERIC","62.015","0.07084865030471645","647"
"21:5:51:515 (H:m:s:ms)","GENERIC","62.023","0.06958180228763806","586"
"20:46:3:636 (H:m:s:ms)","GENERIC","62.065","0.07072326344902383","392"
"21:5:57:575 (H:m:s:ms)","GENERIC","62.047","0.053079024223321926","507"
"20:46:4:556 (H:m:s:ms)","OPERA","31.01","0.07879465775113832","570"
"20:46:9:696 (H:m:s:ms)","GENERIC","62.121","0.058797121583901164","400"
"21:39:41:818 (H:m:s:ms)","GENERIC","62.085","0.014422205101855904","265"
"21:39:35:757 (H:m:s:ms)","GENERIC","62.071","0.02370512827588083","395"
"21:39:29:696 (H:m:s:ms)","GENERIC","62.115","0.035130558027877144","441"
"21:39:28:421 (H:m:s:ms)","AMBULANCE","31.011","0.04647155591215049","659"
"21:39:23:636 (H:m:s:ms)","GENERIC","62.107","0.03544228745760862","431"
"21:39:17:575 (H:m:s:ms)","GENERIC","62.107","0.035445416502284305","457"
"21:39:11:515 (H:m:s:ms)","GENERIC","62.063","0.048969413639763176","623"
"21:39:5:454 (H:m:s:ms)","GENERIC","62.061","0.04999999999999998","611"
"21:25:11:392 (H:m:s:ms)","OPERA","31.009","0.052111417029577715","764"
"21:25:15:151 (H:m:s:ms)","GENERIC","62.093","0.04241540598853723","942"
"21:6:3:636 (H:m:s:ms)","GENERIC","62.079","0.07072326344902383","392"
"21:25:18:987 (H:m:s:ms)","OPERA","31.009","0.07468982716015955","1211"
"21:6:9:696 (H:m:s:ms)","GENERIC","62.149","0.0707463006287827","400"
"21:25:21:212 (H:m:s:ms)","GENERIC","62.069","0.07742058763028932","899"
"20:46:12:151 (H:m:s:ms)","OPERA","31.01","0.0708151513794702","942"
"21:6:15:757 (H:m:s:ms)","GENERIC","62.103","0.02433701397939169","309"
"21:25:26:582 (H:m:s:ms)","OPERA","31.009","0.07718398174137053","539"
"20:46:15:757 (H:m:s:ms)","GENERIC","62.109","0.07099254883474466","311"
"21:6:18:947 (H:m:s:ms)","AMBULANCE","31.051","0.04348590896987632","1230"
"21:25:27:272 (H:m:s:ms)","GENERIC","62.081","0.10153355733841919","833"
"21:38:59:393 (H:m:s:ms)","GENERIC","62.065","0.029979774804514976","753"
"20:46:19:746 (H:m:s:ms)","OPERA","31.01","0.07099254883474466","394"
"21:6:21:818 (H:m:s:ms)","GENERIC","62.077","0.03954225011754868","293"
"21:25:33:333 (H:m:s:ms)","GENERIC","62.049","0.029074928614235655","811"
"21:38:56:842 (H:m:s:ms)","AMBULANCE","31.022","0.0599565472180119","340"
"20:46:21:818 (H:m:s:ms)","GENERIC","62.095","0.05465705855233687","307"
"21:6:27:878 (H:m:s:ms)","GENERIC","62.045","0.014959318595506086","1254"
"21:25:34:177 (H:m:s:ms)","OPERA","31.01","0.045604074828026676","955"
"21:38:53:333 (H:m:s:ms)","GENERIC","62.055","0.05522680508593621","757"
"20:46:27:341 (H:m:s:ms)","OPERA","31.01","0.03577129853411206","779"
"21:6:33:939 (H:m:s:ms)","GENERIC","62.095","0.04596194077712552","1159"
"21:25:39:393 (H:m:s:ms)","GENERIC","62.099","0.03725255941368826","817"
"20:46:27:878 (H:m:s:ms)","GENERIC","62.045","0.04544294390246518","1380"
"21:6:40:0 (H:m:s:ms)","GENERIC","62.113","0.0357142857142857","1152"
"21:25:45:454 (H:m:s:ms)","GENERIC","62.097","0.03545588768484177","596"
"20:46:33:939 (H:m:s:ms)","GENERIC","62.085","0.04596194077712552","1163"
"21:6:46:60 (H:m:s:ms)","GENERIC","62.079","0.03664662612862977","1040"
"20:46:34:936 (H:m:s:ms)","OPERA","31.01","0.07006460932001732","1262"
"21:6:50:526 (H:m:s:ms)","AMBULANCE","31.056","0.05095339962810643","588"
"20:46:40:0 (H:m:s:ms)","GENERIC","62.133","0.06380077882092473","1196"
"20:46:42:531 (H:m:s:ms)","OPERA","31.01","0.0639132291090219","563"
"21:40:0:0 (H:m:s:ms)","AMBULANCE","31.024","0.023821276949566855","1290"
"21:40:36:363 (H:m:s:ms)","GENERIC","62.049","0.047260555336379066","698"
"21:40:30:303 (H:m:s:ms)","GENERIC","62.045","0.02844387228437174","810"
"21:40:24:242 (H:m:s:ms)","GENERIC","62.123","0.03545588768484177","786"
"21:40:18:181 (H:m:s:ms)","GENERIC","62.053","0.035406952720469995","932"
"21:40:12:121 (H:m:s:ms)","GENERIC","62.085","0.030544664848990707","986"
"21:40:6:60 (H:m:s:ms)","GENERIC","62.107","0.035557692413821215","971"
"21:40:0:0 (H:m:s:ms)","GENERIC","62.083","0.054950678985519995","1495"
"21:40:0:0 (H:m:s:ms)","GENERIC","62.055","0.042489375758658014","1403"
"21:6:52:121 (H:m:s:ms)","GENERIC","62.089","0.07907512968351628","925"
"21:6:58:181 (H:m:s:ms)","GENERIC","62.047","0.026569897762697164","931"
"20:46:46:60 (H:m:s:ms)","GENERIC","62.089","0.06367256929101706","1048"
"21:7:4:242 (H:m:s:ms)","GENERIC","62.071","0.0537645329190164","869"
"20:46:50:126 (H:m:s:ms)","OPERA","31.009","0.07898770882012297","1033"
"21:7:10:303 (H:m:s:ms)","GENERIC","62.051","0.03581718454242856","827"
"20:46:52:121 (H:m:s:ms)","GENERIC","62.053","0.09965490035299086","926"
"21:7:16:363 (H:m:s:ms)","GENERIC","62.065","0.02037208815680257","718"
"20:46:57:721 (H:m:s:ms)","OPERA","31.01","0.08800145449168423","375"
"21:7:22:105 (H:m:s:ms)","AMBULANCE","31.037","0.024999999999999998","1016"
"21:39:53:939 (H:m:s:ms)","GENERIC","62.133","0.026694134109223458","1141"
"20:46:58:181 (H:m:s:ms)","GENERIC","62.017","0.05587603219978148","944"
"21:7:22:424 (H:m:s:ms)","GENERIC","62.151","0.031045204360814132","782"
"21:39:47:878 (H:m:s:ms)","GENERIC","62.127","0.02835239010544531","1255"
"20:47:4:242 (H:m:s:ms)","GENERIC","62.083","0.0318688719599549","883"
"21:7:28:484 (H:m:s:ms)","GENERIC","62.063","0.07075741353560017","579"
"20:47:5:316 (H:m:s:ms)","OPERA","31.01","0.04783579720583927","805"
"21:7:34:545 (H:m:s:ms)","GENERIC","62.107","0.02371006380850734","554"
"20:47:10:303 (H:m:s:ms)","GENERIC","62.077","0.07950082735339127","818"
"21:7:40:606 (H:m:s:ms)","GENERIC","62.101","0.018065171339139447","511"
"20:47:12:911 (H:m:s:ms)","OPERA","31.009","0.0794118032621112","1212"
"20:47:16:363 (H:m:s:ms)","GENERIC","62.097","0.04164353623982642","722"
"21:7:46:666 (H:m:s:ms)","GENERIC","62.059","0.023605263144424793","468"
"21:7:52:727 (H:m:s:ms)","GENERIC","62.151","0.023705128275880807","320"
"20:47:20:506 (H:m:s:ms)","OPERA","31.01","0.03733062675230606","606"
"21:7:53:684 (H:m:s:ms)","AMBULANCE","31.014","0.03335784324373223","438"
"20:47:22:424 (H:m:s:ms)","GENERIC","62.113","0.040716533789271044","659"
"21:7:58:787 (H:m:s:ms)","GENERIC","62.069","0.034739138136920325","329"
"20:47:28:101 (H:m:s:ms)","OPERA","31.01","0.030606091221351717","1009"
"21:8:4:848 (H:m:s:ms)","GENERIC","62.091","0.017744377953602723","288"
"20:47:28:484 (H:m:s:ms)","GENERIC","62.067","0.056004321008891536","692"
"21:8:10:909 (H:m:s:ms)","GENERIC","62.113","0.01062295731998497","1239"
"20:47:34:545 (H:m:s:ms)","GENERIC","62.095","0.07075741353560017","540"
"21:8:16:969 (H:m:s:ms)","GENERIC","62.099","0.035445416502284305","1063"
"20:47:35:696 (H:m:s:ms)","OPERA","31.009","0.0768103621591171","411"
"21:8:23:30 (H:m:s:ms)","GENERIC","62.023","0.07180326832784531","1017"
"21:40:42:424 (H:m:s:ms)","GENERIC","62.107","0.018065171339139447","725"
"20:47:40:606 (H:m:s:ms)","GENERIC","62.079","0.04659429941076143","519"
"21:8:25:263 (H:m:s:ms)","AMBULANCE","31.033","0.0740449771993598","914"
"20:47:43:291 (H:m:s:ms)","OPERA","31.01","0.06352597113117803","803"
"21:8:29:90 (H:m:s:ms)","GENERIC","62.043","0.025724530445528856","1065"
"20:47:46:666 (H:m:s:ms)","GENERIC","62.037","0.06352952707728467","428"
"20:47:50:886 (H:m:s:ms)","OPERA","31.01","0.050248980137693605","241"
"21:8:35:151 (H:m:s:ms)","GENERIC","62.081","0.07076100600980822","893"
"21:8:41:212 (H:m:s:ms)","GENERIC","62.113","0.02855577172421416","886"
"20:47:52:727 (H:m:s:ms)","GENERIC","62.125","0.03782137015667979","324"
"21:8:47:272 (H:m:s:ms)","GENERIC","62.069","0.025594469042217568","862"
"20:47:58:481 (H:m:s:ms)","OPERA","31.009","0.03577129853411206","641"
"21:8:53:333 (H:m:s:ms)","GENERIC","62.079","0.05522680508593621","752"
"20:30:0:0 (H:m:s:ms)","GENERIC","62.025","0.03542432515235822","1185"
"20:47:58:787 (H:m:s:ms)","GENERIC","62.071","0.04718352045638632","460"
"21:8:56:842 (H:m:s:ms)","AMBULANCE","31.054","0.06580605983651316","280"
"20:30:0:0 (H:m:s:ms)","GENERIC","62.047","0.07885170526742635","1293"
"20:48:4:848 (H:m:s:ms)","GENERIC","62.085","0.03565482492794939","292"
"21:8:59:393 (H:m:s:ms)","GENERIC","62.103","0.056773333564100685","760"
"20:30:6:60 (H:m:s:ms)","GENERIC","62.087","0.035557692413821215","977"
"20:48:10:909 (H:m:s:ms)","GENERIC","62.097","0.01863389981249824","1246"
"21:9:5:454 (H:m:s:ms)","GENERIC","62.085","0.03952847075210473","612"
"20:30:12:121 (H:m:s:ms)","GENERIC","62.101","0.030842147387708914","994"
"20:48:13:670 (H:m:s:ms)","OPERA","31.01","0.040168821961379726","444"
"21:9:11:515 (H:m:s:ms)","GENERIC","62.025","0.047961935138422264","624"
"20:30:18:181 (H:m:s:ms)","GENERIC","62.115","0.035406952720469995","942"
"20:48:16:969 (H:m:s:ms)","GENERIC","62.079","0.042804667700109274","1084"
"21:9:17:575 (H:m:s:ms)","GENERIC","62.133","0.035445416502284305","456"
"20:30:24:242 (H:m:s:ms)","GENERIC","62.101","0.03538050300490411","785"
"20:48:21:265 (H:m:s:ms)","OPERA","31.01","0.05831458245931419","822"
"21:9:23:636 (H:m:s:ms)","GENERIC","62.111","0.03537709619311539","428"
"20:30:30:303 (H:m:s:ms)","GENERIC","62.095","0.042665808426557615","802"
"20:48:23:30 (H:m:s:ms)","GENERIC","62.019","0.06399453029623758","1001"
"20:30:36:363 (H:m:s:ms)","GENERIC","62.097","0.02359693451955318","708"
"20:48:28:860 (H:m:s:ms)","OPERA","31.01","0.050310958644042815","256"
"20:30:42:424 (H:m:s:ms)","GENERIC","62.093","0.05316343118641294","735"
"20:30:48:484 (H:m:s:ms)","GENERIC","62.091","0.07083784299369934","650"
"21:9:28:421 (H:m:s:ms)","AMBULANCE","31.036","0.046545884166435555","737"
"21:9:29:696 (H:m:s:ms)","GENERIC","62.087","0.04038297968871501","443"
"20:48:29:90 (H:m:s:ms)","GENERIC","62.045","0.036785427168545805","1068"
"21:9:35:757 (H:m:s:ms)","GENERIC","62.063","0.02370512827588083","396"
"20:48:35:151 (H:m:s:ms)","GENERIC","62.099","0.07082386558159796","897"
"21:9:41:818 (H:m:s:ms)","GENERIC","62.087","0.014422205101855904","265"
"20:30:54:545 (H:m:s:ms)","GENERIC","62.141","0.03537709619311539","559"
"20:48:36:455 (H:m:s:ms)","OPERA","31.009","0.07888403786089465","702"
"21:9:47:878 (H:m:s:ms)","GENERIC","62.141","0.042471849791259966","1226"
"20:31:0:606 (H:m:s:ms)","GENERIC","62.083","0.018385053823191062","515"
"20:48:41:212 (H:m:s:ms)","GENERIC","62.081","0.03809259176690281","891"
"21:9:53:939 (H:m:s:ms)","GENERIC","62.107","0.026694134109223458","1144"
"20:31:6:666 (H:m:s:ms)","GENERIC","62.195","0.014422205101855904","434"
"20:48:44:50 (H:m:s:ms)","OPERA","31.01","0.022717892722730774","1071"
"21:10:0:0 (H:m:s:ms)","AMBULANCE","31.019","0.053216832393519965","1144"
"20:31:12:727 (H:m:s:ms)","GENERIC","62.033","0.04305238354486507","382"
"20:48:47:272 (H:m:s:ms)","GENERIC","62.057","0.027923265141015466","866"
"21:10:0:0 (H:m:s:ms)","GENERIC","62.019","0.0712609640686961","1263"
"20:31:18:787 (H:m:s:ms)","GENERIC","62.093","0.01062295731998497","356"
"20:48:51:645 (H:m:s:ms)","OPERA","31.01","0.027923265141015466","475"
"21:10:0:0 (H:m:s:ms)","GENERIC","62.059","0.07924041439597304","1350"
"20:31:24:848 (H:m:s:ms)","GENERIC","62.083","0.030402510589575313","246"
"20:48:53:333 (H:m:s:ms)","GENERIC","62.077","0.07277445796644838","790"
"21:10:6:60 (H:m:s:ms)","GENERIC","62.125","0.012378949013741323","1003"
"20:31:30:909 (H:m:s:ms)","GENERIC","62.095","0.04786884555189688","1157"
"20:48:59:240 (H:m:s:ms)","OPERA","31.009","0.07117982893585285","948"
"20:31:36:969 (H:m:s:ms)","GENERIC","62.081","0.07083784299369934","1153"
"20:48:59:393 (H:m:s:ms)","GENERIC","62.131","0.07642609897836727","898"
"20:31:43:30 (H:m:s:ms)","GENERIC","62.065","0.02359693451955319","1090"
"20:31:49:90 (H:m:s:ms)","GENERIC","62.107","0.017744377953602716","1009"
"20:49:5:454 (H:m:s:ms)","GENERIC","62.105","0.07499999999999993","610"
"20:49:6:835 (H:m:s:ms)","OPERA","31.009","0.08090324515233742","270"
"20:31:55:151 (H:m:s:ms)","GENERIC","62.047","0.035390240685851074","938"
"20:49:11:515 (H:m:s:ms)","GENERIC","62.025","0.05683334419417553","623"
"20:32:1:212 (H:m:s:ms)","GENERIC","62.021","0.036590830666833565","876"
"20:49:14:430 (H:m:s:ms)","OPERA","31.01","0.05663439577830723","680"
"20:32:7:272 (H:m:s:ms)","GENERIC","62.103","0.017729893187101695","854"
"20:49:17:575 (H:m:s:ms)","GENERIC","62.119","0.04654645923879332","459"
"20:32:13:333 (H:m:s:ms)","GENERIC","62.071","0.05357142857142855","798"
"20:49:22:25 (H:m:s:ms)","OPERA","31.01","0.07916722339061293","1094"
"20:32:19:393 (H:m:s:ms)","GENERIC","62.085","0.02654550687135094","766"
"20:49:23:636 (H:m:s:ms)","GENERIC","62.101","0.07916689622563503","437"
"20:32:25:454 (H:m:s:ms)","GENERIC","62.053","0.0712609640686961","689"
"20:49:29:620 (H:m:s:ms)","OPERA","31.009","0.07091957274840681","554"
"20:32:31:515 (H:m:s:ms)","GENERIC","62.039","0.01796748670550215","609"
"20:49:29:696 (H:m:s:ms)","GENERIC","62.071","0.0714295606835276","561"
"20:32:37:575 (H:m:s:ms)","GENERIC","62.063","0.047961935138422264","567"
"20:49:35:757 (H:m:s:ms)","GENERIC","62.061","0.012821820969367872","395"
"20:32:43:636 (H:m:s:ms)","GENERIC","62.107","0.0709699562764241","429"
"20:32:49:696 (H:m:s:ms)","GENERIC","62.135","0.02389534796400732","483"
"20:49:37:215 (H:m:s:ms)","OPERA","31.01","0.054620080029173644","871"
"20:49:41:818 (H:m:s:ms)","GENERIC","62.087","0.06003000880451955","264"
"20:32:55:757 (H:m:s:ms)","GENERIC","62.089","0.023753654689565386","370"
"20:49:44:810 (H:m:s:ms)","OPERA","31.01","0.05990840217268214","279"
"20:33:1:818 (H:m:s:ms)","GENERIC","62.109","0.07082386558159796","236"
"20:49:47:878 (H:m:s:ms)","GENERIC","62.115","0.060179223634749","1253"
"20:33:7:878 (H:m:s:ms)","GENERIC","62.095","0.03537709619311539","1175"
"20:49:52:405 (H:m:s:ms)","OPERA","31.009","0.04171462386334155","713"
"20:33:13:939 (H:m:s:ms)","GENERIC","62.151","0.00890981274576099","1131"
"20:49:53:939 (H:m:s:ms)","GENERIC","62.091","0.03529451969188937","1141"
"20:33:20:0 (H:m:s:ms)","GENERIC","62.073","0.02370512827588082","1156"
"20:50:0:0 (H:m:s:ms)","OPERA","31.009","0.03628454281560231","1162"
"20:33:26:60 (H:m:s:ms)","GENERIC","62.025","0.03047454553313588","1071"
"20:50:0:0 (H:m:s:ms)","GENERIC","62.061","0.04043815767913485","1271"
"20:33:32:121 (H:m:s:ms)","GENERIC","62.107","0.014537464307117828","1030"
"20:50:0:0 (H:m:s:ms)","GENERIC","62.043","0.05341059371208503","1363"
"20:33:38:181 (H:m:s:ms)","GENERIC","62.065","0.035871084369970614","955"
"20:50:6:60 (H:m:s:ms)","GENERIC","62.089","0.011852564137940403","997"
"20:33:44:242 (H:m:s:ms)","GENERIC","62.075","0.026993243674698134","850"
"20:33:50:303 (H:m:s:ms)","GENERIC","62.113","0.014677605348469852","849"
"20:50:12:121 (H:m:s:ms)","GENERIC","62.055","0.010280715795902968","983"
"20:50:18:181 (H:m:s:ms)","GENERIC","62.097","0.03846546290810359","897"
"20:33:56:363 (H:m:s:ms)","GENERIC","62.085","0.020331408680604356","785"
"20:50:24:242 (H:m:s:ms)","GENERIC","62.119","0.07082603003566022","835"
"20:34:2:424 (H:m:s:ms)","GENERIC","62.095","0.07073953373222827","650"
"20:50:30:303 (H:m:s:ms)","GENERIC","62.133","0.014458695325984683","801"
"20:10:0:0 (H:m:s:ms)","GENERIC","31.024","0.03537635263566066","1101"
"20:34:8:484 (H:m:s:ms)","GENERIC","62.107","0.042676299519085685","609"
"20:50:36:363 (H:m:s:ms)","GENERIC","62.071","0.0471538119921046","694"
"20:10:0:0 (H:m:s:ms)","GENERIC","62.045","0.039448554499886906","1273"
"20:34:14:545 (H:m:s:ms)","GENERIC","62.147","0.012378949013741323","524"
"20:50:42:424 (H:m:s:ms)","GENERIC","62.117","0.0353770961931154","721"
"20:10:6:60 (H:m:s:ms)","GENERIC","62.083","0.012378949013741323","1010"
"20:34:20:606 (H:m:s:ms)","GENERIC","62.143","0.035581173897445494","425"
"20:50:48:484 (H:m:s:ms)","GENERIC","62.131","0.035468295701936395","647"
"20:10:12:121 (H:m:s:ms)","GENERIC","62.091","0.030544664848990707","980"
"20:34:26:666 (H:m:s:ms)","GENERIC","62.073","0.035557692413821215","367"
"20:50:54:545 (H:m:s:ms)","GENERIC","62.159","0.03544228745760862","557"
"20:10:18:181 (H:m:s:ms)","GENERIC","62.145","0.07081390544093999","938"
"20:34:32:727 (H:m:s:ms)","GENERIC","62.107","0.0707463006287827","327"
"20:51:0:606 (H:m:s:ms)","GENERIC","62.069","0.009458481298851604","509"
"20:10:24:242 (H:m:s:ms)","GENERIC","62.075","0.07072326344902383","787"
"20:34:38:787 (H:m:s:ms)","GENERIC","62.111","0.07082386558159796","262"
"20:51:6:666 (H:m:s:ms)","GENERIC","62.167","0.028319604517012487","433"
"20:10:30:303 (H:m:s:ms)","GENERIC","62.047","0.02844387228437174","814"
"20:34:44:848 (H:m:s:ms)","GENERIC","62.083","0.047323601514302635","260"
"20:10:36:363 (H:m:s:ms)","GENERIC","62.135","0.07079080355865955","701"
"20:34:50:909 (H:m:s:ms)","GENERIC","62.133","0.0708329092870135","1168"
"20:10:42:424 (H:m:s:ms)","GENERIC","62.059","0.035442287457608634","727"
"20:10:48:484 (H:m:s:ms)","GENERIC","62.063","0.03560898762952971","648"
"20:51:12:727 (H:m:s:ms)","GENERIC","62.021","0.04305238354486507","375"
"20:51:18:787 (H:m:s:ms)","GENERIC","62.131","0.01976423537605236","341"
"20:34:56:969 (H:m:s:ms)","GENERIC","62.101","0.035557692413821215","1062"
"20:51:24:848 (H:m:s:ms)","GENERIC","62.095","0.020349657700231314","261"
"20:35:3:30 (H:m:s:ms)","GENERIC","62.101","0.0424876795510373","1045"
"20:51:30:909 (H:m:s:ms)","GENERIC","62.085","0.04786884555189688","1147"
"20:10:54:545 (H:m:s:ms)","GENERIC","62.107","0.01235877438912753","570"
"20:35:9:90 (H:m:s:ms)","GENERIC","62.059","0.048534065928536714","1052"
"20:51:36:969 (H:m:s:ms)","GENERIC","62.043","0.05413726253945863","1122"
"20:11:0:606 (H:m:s:ms)","GENERIC","62.075","0.026993243674698134","513"
"20:35:15:151 (H:m:s:ms)","GENERIC","62.111","0.02298097038856275","938"
"20:51:43:30 (H:m:s:ms)","GENERIC","62.065","0.023809523809523815","1074"
"20:11:6:666 (H:m:s:ms)","GENERIC","62.167","0.02842534080710369","429"
"20:35:21:212 (H:m:s:ms)","GENERIC","62.059","0.031174910999599483","900"
"20:51:49:90 (H:m:s:ms)","GENERIC","62.093","0.026694134109223458","1001"
"20:11:12:727 (H:m:s:ms)","GENERIC","62.025","0.014959318595506086","372"
"20:35:27:272 (H:m:s:ms)","GENERIC","62.081","0.03547788826234666","835"
"20:51:55:151 (H:m:s:ms)","GENERIC","62.027","0.024037008503093267","936"
"20:11:18:787 (H:m:s:ms)","GENERIC","62.067","0.01062295731998497","349"
"20:35:33:333 (H:m:s:ms)","GENERIC","62.039","0.04255981518381771","795"
"20:52:1:212 (H:m:s:ms)","GENERIC","62.013","0.018408935028645417","883"
"20:11:24:848 (H:m:s:ms)","GENERIC","62.097","0.031174910999599487","242"
"20:35:39:393 (H:m:s:ms)","GENERIC","62.057","0.03549473965547397","788"
"20:52:7:272 (H:m:s:ms)","GENERIC","62.127","0.00973483496697912","839"
"20:11:30:909 (H:m:s:ms)","GENERIC","62.105","0.048764039668415256","1161"
"20:35:45:454 (H:m:s:ms)","GENERIC","62.139","0.035445416502284305","617"
"20:11:36:969 (H:m:s:ms)","GENERIC","62.095","0.035468295701936395","1157"
"20:35:51:515 (H:m:s:ms)","GENERIC","62.053","0.07079080355865953","607"
"20:11:43:30 (H:m:s:ms)","GENERIC","62.043","0.01225670254879405","1091"
"20:11:49:90 (H:m:s:ms)","GENERIC","62.127","0.017744377953602716","1007"
"20:0:54:545 (H:m:s:ms)","GENERIC","31.046","0.023602849205392504","585"
"20:1:0:606 (H:m:s:ms)","GENERIC","31.045","0.009458481298851604","522"
"20:1:6:666 (H:m:s:ms)","GENERIC","31.077","0.04252058325093848","443"
"20:1:12:727 (H:m:s:ms)","GENERIC","31.02","0.01592192604222784","373"
"20:1:18:787 (H:m:s:ms)","GENERIC","31.033","0.03186887195995486","339"
"20:1:24:848 (H:m:s:ms)","GENERIC","31.046","0.030402510589575313","247"
"20:1:30:909 (H:m:s:ms)","GENERIC","31.052","0.048764039668415256","1159"
"20:1:36:969 (H:m:s:ms)","GENERIC","31.054","0.07076722405181653","1155"
"20:1:43:30 (H:m:s:ms)","GENERIC","31.017","0.023676879190756034","1097"
"20:1:49:90 (H:m:s:ms)","GENERIC","31.072","0.008971507619140852","981"
"20:35:57:575 (H:m:s:ms)","GENERIC","62.029","0.017815241017174025","534"
"20:36:3:636 (H:m:s:ms)","GENERIC","62.079","0.07076100600980822","398"
"20:11:55:151 (H:m:s:ms)","GENERIC","62.077","0.03566822426505449","937"
"20:36:9:696 (H:m:s:ms)","GENERIC","62.113","0.0707463006287827","407"
"20:12:1:212 (H:m:s:ms)","GENERIC","62.021","0.025385910352879713","887"
"20:36:15:757 (H:m:s:ms)","GENERIC","62.103","0.04718372447015267","314"
"20:12:7:272 (H:m:s:ms)","GENERIC","62.109","0.026828473900584","803"
"20:36:21:818 (H:m:s:ms)","GENERIC","62.087","0.025959559911944353","313"
"20:12:13:333 (H:m:s:ms)","GENERIC","62.047","0.036157958448779615","804"
"20:36:27:878 (H:m:s:ms)","GENERIC","62.035","0.04305238354486507","1253"
"20:12:19:393 (H:m:s:ms)","GENERIC","62.079","0.008925465537266983","775"
"20:36:33:939 (H:m:s:ms)","GENERIC","62.087","0.04527692569068704","1171"
"20:12:25:454 (H:m:s:ms)","GENERIC","62.045","0.07288689868556623","678"
"20:36:40:0 (H:m:s:ms)","GENERIC","62.119","0.0357142857142857","1170"
"20:12:31:515 (H:m:s:ms)","GENERIC","62.033","0.03664662612862977","603"
"20:36:46:60 (H:m:s:ms)","GENERIC","62.077","0.0709195727484068","1065"
"20:12:37:575 (H:m:s:ms)","GENERIC","62.047","0.0712609640686961","560"
"20:36:52:121 (H:m:s:ms)","GENERIC","62.059","0.07088256118199147","930"
"20:12:43:636 (H:m:s:ms)","GENERIC","62.123","0.0709699562764241","430"
"20:12:49:696 (H:m:s:ms)","GENERIC","62.159","0.07168604389202186","440"
"20:1:55:151 (H:m:s:ms)","GENERIC","31.04","0.02362254625052145","961"
"20:2:1:212 (H:m:s:ms)","GENERIC","31.017","0.02748737083745107","902"
"20:2:7:272 (H:m:s:ms)","GENERIC","31.057","0.00924778079888045","854"
"20:2:13:333 (H:m:s:ms)","GENERIC","31.023","0.05327297817920104","795"
"20:2:19:393 (H:m:s:ms)","GENERIC","31.035","0.026632325099918742","735"
"20:2:25:454 (H:m:s:ms)","GENERIC","31.017","0.03952847075210473","690"
"20:2:31:515 (H:m:s:ms)","GENERIC","31.012","0.05342117851610523","610"
"20:2:37:575 (H:m:s:ms)","GENERIC","31.021","0.0712609640686961","572"
"20:2:43:636 (H:m:s:ms)","GENERIC","31.072","0.047528485312492055","433"
"20:2:49:696 (H:m:s:ms)","GENERIC","31.07","0.02389534796400732","455"
"20:36:58:181 (H:m:s:ms)","GENERIC","62.027","0.02672943823728295","942"
"20:37:4:242 (H:m:s:ms)","GENERIC","62.075","0.0592927061281571","880"
"20:12:55:757 (H:m:s:ms)","GENERIC","62.055","0.0707720322977626","360"
"20:37:10:303 (H:m:s:ms)","GENERIC","62.081","0.07084865030471645","824"
"20:13:1:818 (H:m:s:ms)","GENERIC","62.115","0.03545588768484177","227"
"20:37:16:363 (H:m:s:ms)","GENERIC","62.095","0.011378737125717752","721"
"20:13:7:878 (H:m:s:ms)","GENERIC","62.071","0.03544228745760862","1171"
"20:37:22:424 (H:m:s:ms)","GENERIC","62.093","0.01863389981249824","663"
"20:13:13:939 (H:m:s:ms)","GENERIC","62.105","0.026729438237282938","1126"
"20:37:28:484 (H:m:s:ms)","GENERIC","62.089","0.047157980393399024","581"
"20:13:20:0 (H:m:s:ms)","GENERIC","62.073","0.024105305632519756","1150"
"20:37:34:545 (H:m:s:ms)","GENERIC","62.083","0.023883709691197616","560"
"20:13:26:60 (H:m:s:ms)","GENERIC","62.043","0.03068568312082473","1060"
"20:37:40:606 (H:m:s:ms)","GENERIC","62.079","0.03555067391080604","515"
"20:13:32:121 (H:m:s:ms)","GENERIC","62.089","0.05335936864527365","997"
"20:37:46:666 (H:m:s:ms)","GENERIC","62.047","0.023883709691197623","475"
"20:13:38:181 (H:m:s:ms)","GENERIC","62.097","0.026551348599007794","889"
"20:37:52:727 (H:m:s:ms)","GENERIC","62.101","0.011852564137940403","322"
"20:13:44:242 (H:m:s:ms)","GENERIC","62.083","0.026993243674698134","841"
"20:13:50:303 (H:m:s:ms)","GENERIC","62.099","0.028555771724214127","834"
"20:2:55:757 (H:m:s:ms)","GENERIC","31.024","0.02429563289518876","370"
"20:3:1:818 (H:m:s:ms)","GENERIC","31.056","0.07082603003566022","215"
"20:3:7:878 (H:m:s:ms)","GENERIC","31.043","0.07108802802789067","196"
"20:3:13:939 (H:m:s:ms)","GENERIC","31.044","0.02661135195096442","1132"
"20:3:20:0 (H:m:s:ms)","GENERIC","31.028","0.04741025655176164","1109"
"20:3:26:60 (H:m:s:ms)","GENERIC","31.017","0.01119306115320661","1083"
"20:3:32:121 (H:m:s:ms)","GENERIC","31.049","0.03557291243018247","1006"
"20:3:38:181 (H:m:s:ms)","GENERIC","31.056","0.026551348599007794","898"
"20:3:44:242 (H:m:s:ms)","GENERIC","31.042","0.008997747891566052","850"
"20:3:50:303 (H:m:s:ms)","GENERIC","31.045","0.028555771724214127","841"
"20:37:58:787 (H:m:s:ms)","GENERIC","62.067","0.031306480830660344","334"
"20:38:4:848 (H:m:s:ms)","GENERIC","62.071","0.035488755907205446","294"
"20:13:56:363 (H:m:s:ms)","GENERIC","62.061","0.020331408680604356","774"
"20:38:10:909 (H:m:s:ms)","GENERIC","62.079","0.02901747557746688","1236"
"20:14:2:424 (H:m:s:ms)","GENERIC","62.097","0.07076100600980822","604"
"20:38:16:969 (H:m:s:ms)","GENERIC","62.099","0.011852564137940403","1082"
"20:14:8:484 (H:m:s:ms)","GENERIC","62.095","0.04245424535850677","606"
"20:38:23:30 (H:m:s:ms)","GENERIC","62.017","0.07090440636695054","998"
"20:14:14:545 (H:m:s:ms)","GENERIC","62.113","0.011852564137940403","523"
"20:38:29:90 (H:m:s:ms)","GENERIC","62.069","0.01789383553769017","1069"
"20:14:20:606 (H:m:s:ms)","GENERIC","62.109","0.07072326344902383","422"
"20:38:35:151 (H:m:s:ms)","GENERIC","62.109","0.03538050300490411","898"
"20:14:26:666 (H:m:s:ms)","GENERIC","62.071","0.035557692413821215","367"
"20:38:41:212 (H:m:s:ms)","GENERIC","62.085","0.028352390105445345","893"
"20:14:32:727 (H:m:s:ms)","GENERIC","62.125","0.023676879190756027","340"
"20:38:47:272 (H:m:s:ms)","GENERIC","62.041","0.03413621137715327","864"
"20:14:38:787 (H:m:s:ms)","GENERIC","62.085","0.03538050300490411","260"
"20:38:53:333 (H:m:s:ms)","GENERIC","62.099","0.0354130150178301","789"
"20:14:44:848 (H:m:s:ms)","GENERIC","62.105","0.047323601514302635","253"
"20:14:50:909 (H:m:s:ms)","GENERIC","62.107","0.0708329092870135","1163"
"20:3:56:363 (H:m:s:ms)","GENERIC","31.025","0.020331408680604356","778"
"20:4:2:424 (H:m:s:ms)","GENERIC","31.044","0.035581173897445494","605"
"20:4:8:484 (H:m:s:ms)","GENERIC","31.04","0.028657748352630862","619"
"20:4:14:545 (H:m:s:ms)","GENERIC","31.049","0.012052652816259873","522"
"20:4:20:606 (H:m:s:ms)","GENERIC","31.065","0.07082386558159796","426"
"20:4:26:666 (H:m:s:ms)","GENERIC","31.042","0.035581173897445494","407"
"20:4:32:727 (H:m:s:ms)","GENERIC","31.071","0.023676879190756027","347"
"20:4:38:787 (H:m:s:ms)","GENERIC","31.045","0.07082386558159796","267"
"20:4:44:848 (H:m:s:ms)","GENERIC","31.057","0.02393442277594844","263"
"20:4:50:909 (H:m:s:ms)","GENERIC","31.051","0.0708329092870135","168"
"20:38:59:393 (H:m:s:ms)","GENERIC","62.117","0.04314775075321679","759"
"20:39:5:454 (H:m:s:ms)","GENERIC","62.097","0.05590169943749469","613"
"20:14:56:969 (H:m:s:ms)","GENERIC","62.081","0.035445416502284305","1060"
"20:39:11:515 (H:m:s:ms)","GENERIC","62.035","0.047961935138422264","626"
"20:15:3:30 (H:m:s:ms)","GENERIC","62.071","0.028490464293710195","1036"
"20:39:17:575 (H:m:s:ms)","GENERIC","62.117","0.023604023879640897","494"
"20:15:9:90 (H:m:s:ms)","GENERIC","62.089","0.03807886552931951","1081"
"20:39:23:636 (H:m:s:ms)","GENERIC","62.097","0.012043447559426315","447"
"20:15:15:151 (H:m:s:ms)","GENERIC","62.079","0.022638462845343512","929"
"20:39:29:696 (H:m:s:ms)","GENERIC","62.067","0.012028842310766154","442"
"20:15:21:212 (H:m:s:ms)","GENERIC","62.027","0.012471910247460253","903"
"20:39:35:757 (H:m:s:ms)","GENERIC","62.049","0.03615795844877961","353"
"20:15:27:272 (H:m:s:ms)","GENERIC","62.115","0.03547788826234666","827"
"20:39:41:818 (H:m:s:ms)","GENERIC","62.087","0.014212670403551845","270"
"20:15:33:333 (H:m:s:ms)","GENERIC","62.037","0.04255981518381771","786"
"20:39:47:878 (H:m:s:ms)","GENERIC","62.099","0.028555771724214127","1267"
"20:15:39:393 (H:m:s:ms)","GENERIC","62.031","0.023778816176703","811"
"20:39:53:939 (H:m:s:ms)","GENERIC","62.097","0.017744377953602716","1148"
"20:15:45:454 (H:m:s:ms)","GENERIC","62.145","0.035581173897445494","595"
"20:15:51:515 (H:m:s:ms)","GENERIC","62.025","0.0714285714285714","590"
"20:4:56:969 (H:m:s:ms)","GENERIC","31.044","0.012052652816259873","1084"
"20:5:3:30 (H:m:s:ms)","GENERIC","31.038","0.028490464293710195","1043"
"20:5:9:90 (H:m:s:ms)","GENERIC","31.044","0.036817870057290814","1075"
"20:5:15:151 (H:m:s:ms)","GENERIC","31.037","0.027443123000125146","939"
"20:5:21:212 (H:m:s:ms)","GENERIC","31.019","0.02078327399973297","912"
"20:5:27:272 (H:m:s:ms)","GENERIC","31.055","0.07551903733496602","832"
"20:5:33:333 (H:m:s:ms)","GENERIC","31.022","0.04361239292135351","794"
"20:5:39:393 (H:m:s:ms)","GENERIC","31.023","0.035390240685851074","768"
"20:5:45:454 (H:m:s:ms)","GENERIC","31.065","0.04245307371242289","616"
"20:5:51:515 (H:m:s:ms)","GENERIC","31.024","0.03551531878613403","603"
"20:15:57:575 (H:m:s:ms)","GENERIC","62.055","0.018879759333741513","529"
"20:16:3:636 (H:m:s:ms)","GENERIC","62.111","0.07072326344902383","391"
"20:16:9:696 (H:m:s:ms)","GENERIC","62.127","0.023676879190756027","399"
"20:16:15:757 (H:m:s:ms)","GENERIC","62.099","0.047528485312492055","315"
"20:16:21:818 (H:m:s:ms)","GENERIC","62.069","0.020128613420650737","483"
"20:16:27:878 (H:m:s:ms)","GENERIC","62.043","0.042705751519459885","1253"
"20:16:33:939 (H:m:s:ms)","GENERIC","62.077","0.04527692569068704","1167"
"20:16:40:0 (H:m:s:ms)","GENERIC","62.097","0.0357142857142857","1163"
"20:16:46:60 (H:m:s:ms)","GENERIC","62.077","0.0354597863742034","1058"
"20:16:52:121 (H:m:s:ms)","GENERIC","62.075","0.07072979686393277","925"
"20:5:57:575 (H:m:s:ms)","GENERIC","31.026","0.018879759333741513","529"
"20:6:3:636 (H:m:s:ms)","GENERIC","31.064","0.0318688719599549","437"
"20:6:9:696 (H:m:s:ms)","GENERIC","31.061","0.0471538119921046","393"
"20:6:15:757 (H:m:s:ms)","GENERIC","31.053","0.04718372447015267","309"
"20:6:21:818 (H:m:s:ms)","GENERIC","31.034","0.025959559911944353","304"
"20:6:27:878 (H:m:s:ms)","GENERIC","31.023","0.014350794514955018","264"
"20:6:33:939 (H:m:s:ms)","GENERIC","31.035","0.06791538853603055","1165"
"20:6:40:0 (H:m:s:ms)","GENERIC","31.043","0.07100226978096955","1138"
"20:6:46:60 (H:m:s:ms)","GENERIC","31.047","0.07117982893585285","1062"
"20:6:52:121 (H:m:s:ms)","GENERIC","31.033","0.07072979686393277","930"
"20:16:58:181 (H:m:s:ms)","GENERIC","62.037","0.017995495783132105","934"
"20:17:4:242 (H:m:s:ms)","GENERIC","62.073","0.0592927061281571","873"
"20:17:10:303 (H:m:s:ms)","GENERIC","62.067","0.035561344234975034","829"
"20:17:16:363 (H:m:s:ms)","GENERIC","62.093","0.02848399319759648","948"
"20:17:22:424 (H:m:s:ms)","GENERIC","62.077","0.014731391274719749","661"
"20:17:28:484 (H:m:s:ms)","GENERIC","62.091","0.07081578943327435","585"
"20:17:34:545 (H:m:s:ms)","GENERIC","62.061","0.04729797305678198","559"
"20:17:40:606 (H:m:s:ms)","GENERIC","62.093","0.05316343118641294","512"
"20:17:46:666 (H:m:s:ms)","GENERIC","62.055","0.023605263144424793","467"
"20:17:52:727 (H:m:s:ms)","GENERIC","62.053","0.012052652816259873","320"
"20:6:58:181 (H:m:s:ms)","GENERIC","31.025","0.018385053823191062","937"
"20:7:4:242 (H:m:s:ms)","GENERIC","31.041","0.024999999999999998","880"
"20:7:10:303 (H:m:s:ms)","GENERIC","31.033","0.07081390544093999","835"
"20:7:16:363 (H:m:s:ms)","GENERIC","31.052","0.017885649267056023","702"
"20:7:22:424 (H:m:s:ms)","GENERIC","31.041","0.02901747557746688","662"
"20:7:28:484 (H:m:s:ms)","GENERIC","31.05","0.04721052628884958","583"
"20:7:34:545 (H:m:s:ms)","GENERIC","31.029","0.047157980393399024","560"
"20:7:40:606 (H:m:s:ms)","GENERIC","31.046","0.0353770961931154","516"
"20:7:46:666 (H:m:s:ms)","GENERIC","31.035","0.035565095712760994","442"
"20:7:52:727 (H:m:s:ms)","GENERIC","31.032","0.023604023879640897","322"
"20:17:58:787 (H:m:s:ms)","GENERIC","62.053","0.025594469042217568","333"
"20:18:4:848 (H:m:s:ms)","GENERIC","62.047","0.05312204623168431","277"
"20:18:10:909 (H:m:s:ms)","GENERIC","62.073","0.01062295731998497","1244"
"20:18:16:969 (H:m:s:ms)","GENERIC","62.083","0.011852564137940403","1076"
"20:18:23:30 (H:m:s:ms)","GENERIC","62.047","0.03545220318347527","999"
"20:18:29:90 (H:m:s:ms)","GENERIC","62.037","0.008946917768845085","1062"
"20:18:35:151 (H:m:s:ms)","GENERIC","62.131","0.03538050300490411","894"
"20:18:41:212 (H:m:s:ms)","GENERIC","62.085","0.015320646925708507","889"
"20:18:47:272 (H:m:s:ms)","GENERIC","62.053","0.012797234521108784","864"
"20:18:53:333 (H:m:s:ms)","GENERIC","62.101","0.07073953373222823","788"
"20:7:58:787 (H:m:s:ms)","GENERIC","31.017","0.02564364193873574","341"
"20:8:4:848 (H:m:s:ms)","GENERIC","31.021","0.017744377953602723","292"
"20:8:10:909 (H:m:s:ms)","GENERIC","31.039","0.02901747557746688","1232"
"20:8:16:969 (H:m:s:ms)","GENERIC","31.033","0.035377879921712416","1062"
"20:8:23:30 (H:m:s:ms)","GENERIC","31.029","0.036217791140014714","997"
"20:8:29:90 (H:m:s:ms)","GENERIC","31.017","0.017731958085966584","1061"
"20:8:35:151 (H:m:s:ms)","GENERIC","31.073","0.07082386558159796","896"
"20:8:41:212 (H:m:s:ms)","GENERIC","31.036","0.04247184979126001","874"
"20:8:47:272 (H:m:s:ms)","GENERIC","31.035","0.025594469042217568","867"
"20:8:53:333 (H:m:s:ms)","GENERIC","31.042","0.07096995627642408","790"
"20:18:59:393 (H:m:s:ms)","GENERIC","62.083","0.0440328160454096","758"
"20:19:5:454 (H:m:s:ms)","GENERIC","62.073","0.03952847075210473","611"
"20:19:11:515 (H:m:s:ms)","GENERIC","62.077","0.048969413639763176","621"
"20:19:17:575 (H:m:s:ms)","GENERIC","62.075","0.023872684083518423","496"
"20:19:23:636 (H:m:s:ms)","GENERIC","62.121","0.011850224636935363","450"
"20:19:29:696 (H:m:s:ms)","GENERIC","62.081","0.01788564926705603","433"
"20:19:35:757 (H:m:s:ms)","GENERIC","62.071","0.012821820969367872","403"
"20:19:41:818 (H:m:s:ms)","GENERIC","62.085","0.04252058325093848","264"
"20:19:47:878 (H:m:s:ms)","GENERIC","62.075","0.028555771724214127","1254"
"20:19:53:939 (H:m:s:ms)","GENERIC","62.109","0.018269278602143047","1141"
"20:8:59:393 (H:m:s:ms)","GENERIC","31.041","0.01840893502864541","754"
"20:9:5:454 (H:m:s:ms)","GENERIC","31.035","0.03952847075210473","612"
"20:9:11:515 (H:m:s:ms)","GENERIC","31.052","0.048969413639763176","625"
"20:9:17:575 (H:m:s:ms)","GENERIC","31.04","0.012378949013741323","493"
"20:9:23:636 (H:m:s:ms)","GENERIC","31.069","0.03537709619311539","429"
"20:9:29:696 (H:m:s:ms)","GENERIC","31.045","0.01788564926705603","439"
"20:9:35:757 (H:m:s:ms)","GENERIC","31.034","0.035445416502284284","358"
"20:9:41:818 (H:m:s:ms)","GENERIC","31.044","0.02842534080710369","264"
"20:9:47:878 (H:m:s:ms)","GENERIC","31.039","0.02835239010544531","257"
"20:9:53:939 (H:m:s:ms)","GENERIC","31.055","0.017943015238281703","1146"
"21:41:24:848 (H:m:s:ms)","GENERIC","62.067","0.030694438580639166","232"
"21:41:18:787 (H:m:s:ms)","GENERIC","62.089","0.01062295731998497","344"
"21:41:12:727 (H:m:s:ms)","GENERIC","62.061","0.042496415180700346","366"
"21:41:6:666 (H:m:s:ms)","GENERIC","62.081","0.04263801121065557","436"
"21:41:0:606 (H:m:s:ms)","GENERIC","62.075","0.010180137724099437","507"
"21:40:54:545 (H:m:s:ms)","GENERIC","62.097","0.03537709619311539","551"
"21:40:48:484 (H:m:s:ms)","GENERIC","62.089","0.07076722405181653","648"
"21:41:43:30 (H:m:s:ms)","GENERIC","62.057","0.02359693451955319","1081"
"21:41:36:969 (H:m:s:ms)","GENERIC","62.101","0.03560898762952971","1143"
"21:41:30:909 (H:m:s:ms)","GENERIC","62.125","0.024995193694082284","1153"
