"time (H:m:s:ms)","type","latency","utilisation","waiting"
"21:42:49:696 (H:m:s:ms)","GENERIC","62.071","0.03699112319552181","402"
"21:42:31:515 (H:m:s:ms)","GENERIC","62.027","0.012119772641798565","521"
"21:42:25:454 (H:m:s:ms)","GENERIC","62.095","0.020360275448198892","608"
"21:42:19:393 (H:m:s:ms)","GENERIC","62.055","0.026882266459508183","732"
"21:42:13:333 (H:m:s:ms)","GENERIC","62.061","0.03749999999999998","742"
"21:42:7:272 (H:m:s:ms)","GENERIC","62.075","0.02471754877825504","776"
"21:42:1:212 (H:m:s:ms)","GENERIC","62.021","0.027950849718747357","862"
"21:41:55:151 (H:m:s:ms)","GENERIC","62.063","0.028571428571428484","937"
"21:41:49:90 (H:m:s:ms)","GENERIC","62.125","0.05711829829397929","1021"
"21:42:43:636 (H:m:s:ms)","GENERIC","62.035","0.053105454995225274","441"
"21:42:37:575 (H:m:s:ms)","GENERIC","62.037","0.018142271407801155","522"
"21:43:56:363 (H:m:s:ms)","GENERIC","62.045","0.018633899812498245","725"
"21:43:50:303 (H:m:s:ms)","GENERIC","31.029","0.019764235376052364","758"
"21:43:38:181 (H:m:s:ms)","GENERIC","62.079","0.032515476866065866","839"
"20:0:0:0 (H:m:s:ms)","GENERIC","31.048","0.02394686872024121","1183"
"21:43:32:121 (H:m:s:ms)","GENERIC","62.085","0.03547788826234665","963"
"20:0:6:60 (H:m:s:ms)","GENERIC","31.043","0.036770107646382146","1002"
"21:43:26:60 (H:m:s:ms)","GENERIC","62.119","0.030532241359769847","1029"
"20:0:12:121 (H:m:s:ms)","GENERIC","31.049","0.030413466050200677","985"
"21:43:20:0 (H:m:s:ms)","GENERIC","62.069","0.03551531878613404","1121"
"20:0:18:181 (H:m:s:ms)","GENERIC","31.06","0.035515318786134044","879"
"21:43:13:939 (H:m:s:ms)","GENERIC","62.067","0.03551531878613403","1121"
"20:0:24:242 (H:m:s:ms)","GENERIC","31.074","0.028306532164228897","816"
"21:43:7:878 (H:m:s:ms)","GENERIC","62.153","0.015420998131276661","1156"
"20:0:30:303 (H:m:s:ms)","GENERIC","31.04","0.04072055089639779","725"
"21:43:1:818 (H:m:s:ms)","GENERIC","62.167","0.019039432764659768","253"
"20:0:36:363 (H:m:s:ms)","GENERIC","31.052","0.03548875590720543","725"
"21:42:55:757 (H:m:s:ms)","GENERIC","62.017","0.010167818897467155","330"
"20:0:42:424 (H:m:s:ms)","GENERIC","31.023","0.020247055543612974","677"
"21:10:24:242 (H:m:s:ms)","GENERIC","62.049","0.014186605061272591","808"
"20:0:48:484 (H:m:s:ms)","GENERIC","31.038","0.026694134109223475","585"
"21:10:30:303 (H:m:s:ms)","GENERIC","62.111","0.04072055089639779","717"
"21:10:36:363 (H:m:s:ms)","GENERIC","62.091","0.0365385572042861","712"
"21:10:42:424 (H:m:s:ms)","GENERIC","62.045","0.020247055543612974","663"
"21:10:48:484 (H:m:s:ms)","GENERIC","62.061","0.009358247477023131","577"
"21:10:54:545 (H:m:s:ms)","GENERIC","62.049","0.03553768872247754","556"
"21:11:0:606 (H:m:s:ms)","GENERIC","62.083","0.04072055089639779","444"
"21:11:6:666 (H:m:s:ms)","GENERIC","62.033","0.010812809504674607","430"
"21:43:44:242 (H:m:s:ms)","GENERIC","62.121","0.027487370837451067","845"
"21:11:12:727 (H:m:s:ms)","GENERIC","62.037","0.03846546290810359","336"
"21:11:18:787 (H:m:s:ms)","GENERIC","62.051","0.008942824633528015","313"
"21:25:49:367 (H:m:s:ms)","OPERA","62.015","0.047735280847302615","757"
"21:45:3:30 (H:m:s:ms)","GENERIC","62.065","0.0530890318541453","1037"
"21:44:56:969 (H:m:s:ms)","GENERIC","62.029","0.07905694150420946","1092"
"21:44:50:909 (H:m:s:ms)","GENERIC","62.065","0.012119772641798565","1139"
"21:44:44:848 (H:m:s:ms)","GENERIC","62.065","0.038078865529319515","237"
"21:44:38:787 (H:m:s:ms)","GENERIC","62.033","0.014577379737113224","298"
"21:44:32:727 (H:m:s:ms)","GENERIC","62.051","0.020567919154935735","362"
"21:44:26:666 (H:m:s:ms)","GENERIC","62.105","0.028515771845041723","418"
"21:44:20:606 (H:m:s:ms)","GENERIC","62.069","0.0389393398679165","456"
"21:44:14:545 (H:m:s:ms)","GENERIC","62.083","0.0428827160478454","529"
"21:44:8:484 (H:m:s:ms)","GENERIC","62.091","0.009192526911595535","615"
"21:11:24:848 (H:m:s:ms)","GENERIC","62.095","0.0354288429620787","241"
"21:44:2:424 (H:m:s:ms)","GENERIC","62.047","0.009128412437638523","661"
"21:11:30:909 (H:m:s:ms)","GENERIC","62.073","0.028692225456609124","1191"
"21:11:36:969 (H:m:s:ms)","GENERIC","62.077","0.038391703563326426","1070"
"21:11:43:30 (H:m:s:ms)","GENERIC","62.091","0.026932271018653833","1060"
"21:11:49:90 (H:m:s:ms)","GENERIC","62.163","0.02761340254296815","1024"
"21:11:55:151 (H:m:s:ms)","GENERIC","62.099","0.04285714285714285","944"
"21:12:1:212 (H:m:s:ms)","GENERIC","62.063","0.027950849718747357","868"
"21:12:7:272 (H:m:s:ms)","GENERIC","62.133","0.03555067391080604","777"
"21:12:13:333 (H:m:s:ms)","GENERIC","31.016","0.019764235376052364","745"
"21:12:19:393 (H:m:s:ms)","GENERIC","62.055","0.017921510973005466","740"
"21:26:27:341 (H:m:s:ms)","OPERA","62.015","0.020567919154935735","746"
"21:46:9:696 (H:m:s:ms)","GENERIC","62.103","0.014202629250973339","377"
"21:26:21:818 (H:m:s:ms)","GENERIC","62.065","0.014818538220600537","259"
"21:46:3:636 (H:m:s:ms)","GENERIC","62.085","0.02423954528359713","411"
"21:45:57:575 (H:m:s:ms)","GENERIC","62.045","0.05305972547158699","517"
"21:45:51:515 (H:m:s:ms)","GENERIC","62.031","0.026161055530048515","561"
"21:26:15:757 (H:m:s:ms)","GENERIC","62.081","0.052095335719955706","305"
"21:26:12:151 (H:m:s:ms)","OPERA","62.017","0.04150399995702709","926"
"21:45:45:454 (H:m:s:ms)","GENERIC","62.071","0.03106910452842734","633"
"21:26:9:696 (H:m:s:ms)","GENERIC","62.097","0.04150399995702709","376"
"21:45:39:393 (H:m:s:ms)","GENERIC","62.055","0.05305972547158699","711"
"21:26:4:556 (H:m:s:ms)","OPERA","62.015","0.046831160427665455","522"
"21:45:33:333 (H:m:s:ms)","GENERIC","62.079","0.03664662612862977","732"
"21:26:3:636 (H:m:s:ms)","GENERIC","62.079","0.035805027579936304","412"
"21:45:27:272 (H:m:s:ms)","GENERIC","62.029","0.06373774391990979","792"
"21:25:57:575 (H:m:s:ms)","GENERIC","62.019","0.04075920226286054","635"
"21:45:21:212 (H:m:s:ms)","GENERIC","62.051","0.03054903239051323","866"
"21:12:25:454 (H:m:s:ms)","GENERIC","62.081","0.020360275448198892","612"
"21:25:56:962 (H:m:s:ms)","OPERA","62.017","0.020567919154935735","1134"
"21:45:15:151 (H:m:s:ms)","GENERIC","62.067","0.014844905142563744","936"
"21:12:31:515 (H:m:s:ms)","GENERIC","31.026","0.03546829570193639","522"
"21:25:51:515 (H:m:s:ms)","GENERIC","62.025","0.039038306127441656","559"
"21:45:9:90 (H:m:s:ms)","GENERIC","62.089","0.036770107646382146","982"
"21:12:37:575 (H:m:s:ms)","GENERIC","62.045","0.017729893187101702","529"
"21:12:43:636 (H:m:s:ms)","GENERIC","62.021","0.035382514573761924","470"
"21:12:49:696 (H:m:s:ms)","GENERIC","62.017","0.03699112319552181","407"
"21:12:55:757 (H:m:s:ms)","GENERIC","62.037","0.02050016557378404","335"
"21:13:1:818 (H:m:s:ms)","GENERIC","62.109","0.0412310562561766","262"
"21:13:7:878 (H:m:s:ms)","GENERIC","62.105","0.028450866346057115","1161"
"21:13:13:939 (H:m:s:ms)","GENERIC","62.029","0.05398648734939627","1126"
"21:13:20:0 (H:m:s:ms)","GENERIC","62.043","0.017995495783132108","1130"
"21:26:19:746 (H:m:s:ms)","OPERA","62.015","0.043609934539309725","389"
"21:27:4:242 (H:m:s:ms)","GENERIC","62.127","0.021201074957551237","834"
"21:47:16:363 (H:m:s:ms)","GENERIC","62.061","0.02263846284534352","797"
"21:26:58:181 (H:m:s:ms)","GENERIC","62.063","0.027495749745518883","918"
"21:47:10:303 (H:m:s:ms)","GENERIC","62.079","0.03251547686606586","757"
"21:26:57:721 (H:m:s:ms)","OPERA","62.017","0.027013249029433386","356"
"21:47:4:242 (H:m:s:ms)","GENERIC","62.093","0.01635023157404437","833"
"21:46:58:181 (H:m:s:ms)","GENERIC","62.043","0.018408935028645417","920"
"21:46:52:121 (H:m:s:ms)","GENERIC","62.089","0.035376352635660656","981"
"21:26:52:121 (H:m:s:ms)","GENERIC","62.063","0.035043963858985484","976"
"21:26:50:126 (H:m:s:ms)","OPERA","62.017","0.041738220264857205","954"
"21:26:46:60 (H:m:s:ms)","GENERIC","62.149","0.03511184021008759","988"
"21:46:46:60 (H:m:s:ms)","GENERIC","62.141","0.028352390105445293","1002"
"21:26:42:531 (H:m:s:ms)","OPERA","62.015","0.07344868878432613","569"
"21:46:40:0 (H:m:s:ms)","GENERIC","62.049","0.07080854761617741","1139"
"21:26:40:0 (H:m:s:ms)","GENERIC","62.023","0.07674948828063566","1132"
"21:46:33:939 (H:m:s:ms)","GENERIC","62.059","0.014198393844202968","1135"
"21:13:26:60 (H:m:s:ms)","GENERIC","62.067","0.030532241359769847","1035"
"21:26:34:936 (H:m:s:ms)","OPERA","62.017","0.03343163458295865","1217"
"21:46:27:878 (H:m:s:ms)","GENERIC","62.109","0.035805027579936304","1157"
"21:13:32:121 (H:m:s:ms)","GENERIC","62.045","0.053114786599924774","972"
"21:26:33:939 (H:m:s:ms)","GENERIC","62.057","0.014365846686513356","1135"
"21:46:21:818 (H:m:s:ms)","GENERIC","62.053","0.03056774906431665","248"
"21:13:38:181 (H:m:s:ms)","GENERIC","62.073","0.04656573146573321","840"
"21:26:27:878 (H:m:s:ms)","GENERIC","62.081","0.04082142695030427","1247"
"21:46:15:757 (H:m:s:ms)","GENERIC","62.109","0.014677605348469893","304"
"21:13:44:242 (H:m:s:ms)","GENERIC","62.125","0.027487370837451067","850"
"21:13:50:303 (H:m:s:ms)","GENERIC","62.071","0.03545588768484175","791"
"21:13:56:363 (H:m:s:ms)","GENERIC","62.067","0.024999999999999998","728"
"21:14:2:424 (H:m:s:ms)","GENERIC","62.019","0.027950849718747357","683"
"21:14:8:484 (H:m:s:ms)","GENERIC","62.093","0.026785714285714274","611"
"21:14:14:545 (H:m:s:ms)","GENERIC","62.083","0.014741134218990194","535"
"21:14:20:606 (H:m:s:ms)","GENERIC","62.081","0.020960121664941943","835"
"21:27:40:606 (H:m:s:ms)","GENERIC","62.097","0.052322157163787124","442"
"21:48:23:30 (H:m:s:ms)","GENERIC","62.115","0.028405258501946678","1006"
"21:27:35:696 (H:m:s:ms)","OPERA","62.015","0.03639129877894884","383"
"21:48:16:969 (H:m:s:ms)","GENERIC","62.065","0.035477888262346664","1120"
"21:27:34:545 (H:m:s:ms)","GENERIC","62.061","0.020293239422421432","543"
"21:48:10:909 (H:m:s:ms)","GENERIC","62.057","0.026541019731877433","1176"
"21:27:28:484 (H:m:s:ms)","GENERIC","62.095","0.05231091027915239","647"
"21:48:4:848 (H:m:s:ms)","GENERIC","31.016","0.03749999999999998","223"
"21:47:58:787 (H:m:s:ms)","GENERIC","62.087","0.029529646120466796","287"
"21:47:52:727 (H:m:s:ms)","GENERIC","62.087","0.01184800467131513","375"
"21:27:28:101 (H:m:s:ms)","OPERA","62.017","0.03054903239051323","977"
"21:27:22:424 (H:m:s:ms)","GENERIC","62.095","0.029855576535536287","613"
"21:27:20:506 (H:m:s:ms)","OPERA","62.015","0.031337944971661126","583"
"21:47:46:666 (H:m:s:ms)","GENERIC","62.103","0.04072055089639779","356"
"21:14:26:666 (H:m:s:ms)","GENERIC","62.103","0.014599631636396672","447"
"21:27:16:363 (H:m:s:ms)","GENERIC","62.061","0.03120732808271712","725"
"21:47:40:606 (H:m:s:ms)","GENERIC","62.117","0.028964242362612178","445"
"21:14:32:727 (H:m:s:ms)","GENERIC","31.026","0.03054903239051323","376"
"21:27:12:911 (H:m:s:ms)","OPERA","62.019","0.03717652313136821","1175"
"21:47:34:545 (H:m:s:ms)","GENERIC","62.047","0.020561431591805908","545"
"20:52:19:393 (H:m:s:ms)","GENERIC","62.103","0.026882266459508183","736"
"21:14:38:787 (H:m:s:ms)","GENERIC","62.029","0.01771442148103935","325"
"21:27:10:303 (H:m:s:ms)","GENERIC","62.047","0.04352211005765956","760"
"21:47:28:484 (H:m:s:ms)","GENERIC","62.087","0.04072055089639776","578"
"20:52:25:454 (H:m:s:ms)","GENERIC","62.101","0.020360275448198892","608"
"21:14:44:848 (H:m:s:ms)","GENERIC","62.095","0.03681787005729083","257"
"21:27:5:316 (H:m:s:ms)","OPERA","62.017","0.037011613029172885","760"
"21:47:22:424 (H:m:s:ms)","GENERIC","62.101","0.027929627490398113","611"
"20:52:31:515 (H:m:s:ms)","GENERIC","62.095","0.018078979224389807","573"
"21:14:50:909 (H:m:s:ms)","GENERIC","62.059","0.035805027579936304","1146"
"20:52:37:575 (H:m:s:ms)","GENERIC","62.063","0.02682847390058404","515"
"21:14:56:969 (H:m:s:ms)","GENERIC","62.053","0.04999999999999999","1101"
"20:52:43:636 (H:m:s:ms)","GENERIC","62.037","0.05319587425789971","444"
"21:15:3:30 (H:m:s:ms)","GENERIC","62.097","0.0530890318541453","1042"
"20:52:49:696 (H:m:s:ms)","GENERIC","31.018","0.03546829570193639","460"
"21:15:9:90 (H:m:s:ms)","GENERIC","62.147","0.038391703563326426","989"
"20:52:55:757 (H:m:s:ms)","GENERIC","62.051","0.01036415532241629","332"
"21:15:15:151 (H:m:s:ms)","GENERIC","62.097","0.014844905142563744","951"
"20:53:1:818 (H:m:s:ms)","GENERIC","62.075","0.03605551275463989","256"
"21:15:21:212 (H:m:s:ms)","GENERIC","62.047","0.010183010796837727","902"
"20:53:7:878 (H:m:s:ms)","GENERIC","62.115","0.014472449545298431","1158"
"20:53:13:939 (H:m:s:ms)","GENERIC","62.043","0.05313979552539433","1123"
"21:28:16:969 (H:m:s:ms)","GENERIC","62.049","0.040707026668264396","1120"
"21:49:29:696 (H:m:s:ms)","GENERIC","62.049","0.014382583584405627","361"
"21:28:13:670 (H:m:s:ms)","OPERA","62.017","0.026957723218639446","418"
"21:49:23:636 (H:m:s:ms)","GENERIC","62.029","0.035614119010736835","465"
"21:28:10:909 (H:m:s:ms)","GENERIC","62.047","0.020910507068781004","1180"
"21:49:17:575 (H:m:s:ms)","GENERIC","62.071","0.032515476866065866","459"
"21:28:6:75 (H:m:s:ms)","OPERA","62.015","0.017790117256302567","1012"
"21:49:11:515 (H:m:s:ms)","GENERIC","62.041","0.008912111332782394","571"
"21:28:4:848 (H:m:s:ms)","GENERIC","62.109","0.01423315301077376","253"
"21:49:5:454 (H:m:s:ms)","GENERIC","62.099","0.03605551275463989","605"
"21:48:59:393 (H:m:s:ms)","GENERIC","62.017","0.020243916564442375","745"
"21:48:53:333 (H:m:s:ms)","GENERIC","62.105","0.03577129853411205","729"
"21:27:58:787 (H:m:s:ms)","GENERIC","62.097","0.0312160152718536","385"
"21:15:27:272 (H:m:s:ms)","GENERIC","62.045","0.05590169943749472","799"
"21:27:58:481 (H:m:s:ms)","OPERA","62.015","0.010423645551075887","617"
"21:15:33:333 (H:m:s:ms)","GENERIC","62.061","0.07100226978096956","748"
"21:27:52:727 (H:m:s:ms)","GENERIC","62.073","0.04663357491227688","351"
"21:48:47:272 (H:m:s:ms)","GENERIC","62.033","0.0443315830554058","801"
"20:53:20:0 (H:m:s:ms)","GENERIC","62.057","0.03551531878613404","1131"
"21:15:39:393 (H:m:s:ms)","GENERIC","62.045","0.07117982893585285","738"
"21:27:50:886 (H:m:s:ms)","OPERA","62.019","0.038301549273481575","193"
"21:48:41:212 (H:m:s:ms)","GENERIC","62.019","0.02673633399834717","875"
"20:53:26:60 (H:m:s:ms)","GENERIC","62.041","0.011541414611284767","1041"
"21:15:45:454 (H:m:s:ms)","GENERIC","62.063","0.023914448069028923","628"
"21:27:46:666 (H:m:s:ms)","GENERIC","62.091","0.025514103885368834","355"
"21:48:35:151 (H:m:s:ms)","GENERIC","62.031","0.010183010796837727","949"
"20:53:32:121 (H:m:s:ms)","GENERIC","62.059","0.053053464909361775","967"
"21:15:51:515 (H:m:s:ms)","GENERIC","62.017","0.040272829878793985","564"
"21:27:43:291 (H:m:s:ms)","OPERA","62.017","0.044029508479834445","796"
"21:48:29:90 (H:m:s:ms)","GENERIC","62.021","0.026614430552458428","1032"
"20:53:38:181 (H:m:s:ms)","GENERIC","62.103","0.031043820977155467","840"
"21:15:57:575 (H:m:s:ms)","GENERIC","62.019","0.018385053823191066","546"
"20:53:44:242 (H:m:s:ms)","GENERIC","62.103","0.03659083066683357","849"
"21:16:3:636 (H:m:s:ms)","GENERIC","31.034","0.01001734606680942","539"
"20:53:50:303 (H:m:s:ms)","GENERIC","62.061","0.012446237375574409","787"
"21:16:9:696 (H:m:s:ms)","GENERIC","62.105","0.014202629250973339","377"
"20:53:56:363 (H:m:s:ms)","GENERIC","62.095","0.039528470752104736","734"
"21:16:15:757 (H:m:s:ms)","GENERIC","62.067","0.04250716069749206","309"
"20:54:2:424 (H:m:s:ms)","GENERIC","62.063","0.019764235376052364","681"
"21:16:21:818 (H:m:s:ms)","GENERIC","62.055","0.03056774906431665","251"
"20:54:8:484 (H:m:s:ms)","GENERIC","62.075","0.018078979224389807","617"
"20:54:14:545 (H:m:s:ms)","GENERIC","62.083","0.042629813957631615","531"
"21:28:53:333 (H:m:s:ms)","GENERIC","62.073","0.05694783803560837","727"
"23:33:41:52 (H:m:s:ms)","AMBULANCE","62.069","0.015103807466993188","1022"
"21:28:51:645 (H:m:s:ms)","OPERA","62.015","0.04868275653841349","445"
"23:3:41:52 (H:m:s:ms)","AMBULANCE","62.045","0.015103807466993188","1022"
"21:28:47:272 (H:m:s:ms)","GENERIC","62.037","0.05358690938235829","805"
"22:33:41:52 (H:m:s:ms)","AMBULANCE","62.015","0.015103807466993188","1024"
"21:28:44:50 (H:m:s:ms)","OPERA","62.017","0.03179594797822505","1028"
"22:7:22:105 (H:m:s:ms)","AMBULANCE","62.061","0.03054903239051323","975"
"21:28:41:212 (H:m:s:ms)","GENERIC","62.047","0.014080599448505567","875"
"22:3:41:52 (H:m:s:ms)","AMBULANCE","31.021","0.028504385627478396","1025"
"21:28:36:455 (H:m:s:ms)","OPERA","62.017","0.04113583830987147","633"
"22:0:31:578 (H:m:s:ms)","AMBULANCE","31.009","0.02373932508635315","493"
"21:50:0:0 (H:m:s:ms)","GENERIC","62.073","0.04295755432892909","1103"
"21:49:53:939 (H:m:s:ms)","GENERIC","62.111","0.015521910488577734","1098"
"21:16:27:878 (H:m:s:ms)","GENERIC","62.075","0.012119772641798565","1159"
"21:16:33:939 (H:m:s:ms)","GENERIC","62.069","0.028396787688405936","1141"
"21:28:35:151 (H:m:s:ms)","GENERIC","62.011","0.03054903239051323","928"
"20:54:20:606 (H:m:s:ms)","GENERIC","62.101","0.028483993197596535","456"
"21:16:40:0 (H:m:s:ms)","GENERIC","62.029","0.07110134782161208","1144"
"21:28:29:90 (H:m:s:ms)","GENERIC","62.041","0.022643207866784514","1056"
"20:54:26:666 (H:m:s:ms)","GENERIC","62.123","0.014599631636396672","422"
"21:16:46:60 (H:m:s:ms)","GENERIC","62.159","0.028555771724214113","1005"
"21:28:28:860 (H:m:s:ms)","OPERA","62.017","0.043609934539309725","238"
"21:49:47:878 (H:m:s:ms)","GENERIC","62.135","0.029529646120466796","1185"
"20:54:32:727 (H:m:s:ms)","GENERIC","62.021","0.03546829570193639","325"
"21:16:52:121 (H:m:s:ms)","GENERIC","62.063","0.0530890318541453","961"
"21:28:23:30 (H:m:s:ms)","GENERIC","62.127","0.052095335719955706","1004"
"21:49:41:818 (H:m:s:ms)","GENERIC","62.061","0.03186887195995489","273"
"20:54:38:787 (H:m:s:ms)","GENERIC","62.055","0.017824222665564788","300"
"21:16:58:181 (H:m:s:ms)","GENERIC","62.065","0.015092308563562366","926"
"21:28:21:265 (H:m:s:ms)","OPERA","62.015","0.04662460318359097","811"
"21:49:35:757 (H:m:s:ms)","GENERIC","62.051","0.05304803849111766","344"
"20:54:44:848 (H:m:s:ms)","GENERIC","62.127","0.02748737083745107","240"
"21:17:4:242 (H:m:s:ms)","GENERIC","62.117","0.03592030308036191","839"
"20:54:50:909 (H:m:s:ms)","GENERIC","62.039","0.012119772641798565","1140"
"21:17:10:303 (H:m:s:ms)","GENERIC","62.051","0.02058143250776173","763"
"20:54:56:969 (H:m:s:ms)","GENERIC","62.055","0.05327297817920102","1084"
"21:17:16:363 (H:m:s:ms)","GENERIC","62.071","0.03554401401394534","717"
"20:55:3:30 (H:m:s:ms)","GENERIC","62.093","0.07168604389202186","1058"
"21:17:22:424 (H:m:s:ms)","GENERIC","62.095","0.03291893988477033","614"
"20:55:9:90 (H:m:s:ms)","GENERIC","62.123","0.036770107646382146","987"
"20:55:15:151 (H:m:s:ms)","GENERIC","62.111","0.04245307371242289","927"
"21:29:35:757 (H:m:s:ms)","GENERIC","62.077","0.05309310266899465","344"
"21:29:29:696 (H:m:s:ms)","GENERIC","62.081","0.04160592950807447","439"
"21:29:29:620 (H:m:s:ms)","OPERA","62.015","0.03054903239051323","493"
"21:29:23:636 (H:m:s:ms)","GENERIC","62.045","0.03647316087635983","454"
"21:29:22:25 (H:m:s:ms)","OPERA","62.017","0.030998829919563126","1049"
"21:29:17:575 (H:m:s:ms)","GENERIC","62.059","0.02338914607665298","460"
"21:29:11:515 (H:m:s:ms)","GENERIC","62.063","0.014306573932192607","569"
"21:17:28:484 (H:m:s:ms)","GENERIC","62.077","0.07693092581620718","580"
"21:17:34:545 (H:m:s:ms)","GENERIC","62.039","0.03036477643402588","549"
"20:55:21:212 (H:m:s:ms)","GENERIC","62.047","0.03054903239051323","867"
"21:17:40:606 (H:m:s:ms)","GENERIC","62.079","0.015457274521730482","447"
"20:55:27:272 (H:m:s:ms)","GENERIC","62.027","0.05590169943749472","794"
"21:17:46:666 (H:m:s:ms)","GENERIC","62.101","0.031043820977155467","358"
"21:29:6:835 (H:m:s:ms)","OPERA","62.015","0.03753865844675388","262"
"20:55:33:333 (H:m:s:ms)","GENERIC","62.027","0.07078368864726106","742"
"21:17:52:727 (H:m:s:ms)","GENERIC","62.069","0.03554401401394534","356"
"21:29:5:454 (H:m:s:ms)","GENERIC","62.115","0.03605551275463989","608"
"20:55:39:393 (H:m:s:ms)","GENERIC","62.075","0.035459786374203404","736"
"21:17:58:787 (H:m:s:ms)","GENERIC","62.113","0.014422205101855955","292"
"21:28:59:393 (H:m:s:ms)","GENERIC","62.033","0.06073174969332723","799"
"24:33:41:52 (H:m:s:ms)","AMBULANCE","62.051","0.015103807466993188","1024"
"20:55:45:454 (H:m:s:ms)","GENERIC","62.101","0.046603656792641036","613"
"21:18:4:848 (H:m:s:ms)","GENERIC","62.109","0.01423315301077376","260"
"21:28:59:240 (H:m:s:ms)","OPERA","62.015","0.030413466050200677","873"
"24:3:41:52 (H:m:s:ms)","AMBULANCE","62.053","0.04257346591481594","1022"
"20:55:51:515 (H:m:s:ms)","GENERIC","62.031","0.05342117851610522","561"
"21:18:10:909 (H:m:s:ms)","GENERIC","31.021","0.026614430552458428","1186"
"20:55:57:575 (H:m:s:ms)","GENERIC","62.051","0.03551531878613404","538"
"21:18:16:969 (H:m:s:ms)","GENERIC","62.043","0.025173012444988714","1138"
"20:56:3:636 (H:m:s:ms)","GENERIC","62.101","0.0428827160478454","427"
"21:18:23:30 (H:m:s:ms)","GENERIC","62.137","0.02855577172421421","1007"
"20:56:9:696 (H:m:s:ms)","GENERIC","62.083","0.042607887752920015","381"
"20:56:15:757 (H:m:s:ms)","GENERIC","62.095","0.02855577172421421","305"
"21:30:6:60 (H:m:s:ms)","GENERIC","62.083","0.017995495783132115","989"
"21:30:0:0 (H:m:s:ms)","GENERIC","62.081","0.05194208541755435","1291"
"21:30:0:0 (H:m:s:ms)","GENERIC","62.079","0.04920947443433693","1229"
"21:30:0:0 (H:m:s:ms)","AMBULANCE","31.012","0.03697947344804197","1164"
"21:30:0:0 (H:m:s:ms)","OPERA","62.017","0.010812809504674607","1125"
"21:29:53:939 (H:m:s:ms)","GENERIC","62.113","0.03266533302003357","1097"
"21:29:52:405 (H:m:s:ms)","OPERA","62.015","0.04721403362001031","695"
"21:29:47:878 (H:m:s:ms)","GENERIC","62.125","0.04721403362001031","1185"
"21:18:29:90 (H:m:s:ms)","GENERIC","62.047","0.010812809504674607","1039"
"21:18:35:151 (H:m:s:ms)","GENERIC","62.021","0.020366021593675454","957"
"20:56:21:818 (H:m:s:ms)","GENERIC","62.047","0.03056774906431665","250"
"21:18:41:212 (H:m:s:ms)","GENERIC","62.045","0.01771442148103935","881"
"20:56:27:878 (H:m:s:ms)","GENERIC","62.069","0.02423954528359713","1157"
"21:18:47:272 (H:m:s:ms)","GENERIC","62.039","0.01553455226421367","822"
"20:40:0:0 (H:m:s:ms)","OPERA","31.01","0.010812809504674607","1215"
"20:56:33:939 (H:m:s:ms)","GENERIC","62.051","0.014365846686513356","1138"
"21:18:53:333 (H:m:s:ms)","GENERIC","62.061","0.018495561597760904","732"
"20:40:0:0 (H:m:s:ms)","GENERIC","62.069","0.044827587101657934","1272"
"20:56:40:0 (H:m:s:ms)","GENERIC","62.051","0.07158668688808127","1143"
"21:18:59:393 (H:m:s:ms)","GENERIC","62.031","0.020243916564442375","751"
"21:29:44:810 (H:m:s:ms)","OPERA","62.017","0.028244038158809336","291"
"20:40:0:0 (H:m:s:ms)","GENERIC","62.109","0.049671890247462484","1339"
"20:56:46:60 (H:m:s:ms)","GENERIC","62.195","0.04283365758632121","991"
"21:19:5:454 (H:m:s:ms)","GENERIC","62.129","0.0412310562561766","609"
"21:29:41:818 (H:m:s:ms)","GENERIC","62.047","0.03604987046116617","270"
"20:40:6:60 (H:m:s:ms)","GENERIC","62.105","0.017995495783132115","991"
"20:56:52:121 (H:m:s:ms)","GENERIC","62.055","0.035376352635660656","981"
"21:19:11:515 (H:m:s:ms)","GENERIC","62.049","0.008912111332782394","577"
"21:29:37:215 (H:m:s:ms)","OPERA","62.017","0.06087992006465637","850"
"20:40:7:594 (H:m:s:ms)","OPERA","31.01","0.03511336131056189","489"
"20:56:58:181 (H:m:s:ms)","GENERIC","62.043","0.027487370837451067","921"
"21:19:17:575 (H:m:s:ms)","GENERIC","62.063","0.032515476866065866","464"
"20:40:12:121 (H:m:s:ms)","GENERIC","62.051","0.050573036080615204","988"
"20:57:4:242 (H:m:s:ms)","GENERIC","62.087","0.021201074957551237","834"
"21:19:23:636 (H:m:s:ms)","GENERIC","62.047","0.0359349734110043","470"
"20:40:15:189 (H:m:s:ms)","OPERA","31.01","0.030737820806467572","907"
"20:57:10:303 (H:m:s:ms)","GENERIC","62.087","0.015521910488577723","760"
"20:40:18:181 (H:m:s:ms)","GENERIC","62.177","0.054126424629231416","872"
"20:57:16:363 (H:m:s:ms)","GENERIC","62.091","0.03554401401394534","714"
"20:40:22:784 (H:m:s:ms)","OPERA","31.01","0.056788817396569796","309"
"20:40:24:242 (H:m:s:ms)","GENERIC","62.097","0.03482337713880688","809"
"21:30:24:242 (H:m:s:ms)","GENERIC","62.069","0.028306532164228897","808"
"21:31:3:157 (H:m:s:ms)","AMBULANCE","31.009","0.028297234087789776","910"
"21:31:0:606 (H:m:s:ms)","GENERIC","62.067","0.02564364193873573","444"
"21:30:54:545 (H:m:s:ms)","GENERIC","62.065","0.05315474879759762","546"
"21:30:48:484 (H:m:s:ms)","GENERIC","62.029","0.026914522857422542","577"
"21:30:42:424 (H:m:s:ms)","GENERIC","62.083","0.010448004012568334","665"
"21:30:36:363 (H:m:s:ms)","GENERIC","62.095","0.04689271203953884","711"
"21:30:31:578 (H:m:s:ms)","AMBULANCE","31.012","0.04339074866570127","577"
"21:19:29:696 (H:m:s:ms)","GENERIC","62.097","0.028314566527506708","361"
"21:30:30:303 (H:m:s:ms)","GENERIC","62.121","0.031043820977155467","718"
"21:19:35:757 (H:m:s:ms)","GENERIC","62.073","0.017857142857142856","349"
"20:57:22:424 (H:m:s:ms)","GENERIC","62.111","0.030978858290588468","612"
"21:19:41:818 (H:m:s:ms)","GENERIC","62.043","0.019764235376052364","274"
"20:57:28:484 (H:m:s:ms)","GENERIC","62.041","0.04277365776756254","567"
"21:19:47:878 (H:m:s:ms)","GENERIC","62.103","0.014422205101855955","1186"
"20:40:30:303 (H:m:s:ms)","GENERIC","62.083","0.031043820977155467","718"
"20:57:34:545 (H:m:s:ms)","GENERIC","62.019","0.011615142051344639","545"
"21:19:53:939 (H:m:s:ms)","GENERIC","62.133","0.036770107646382146","1098"
"20:40:30:379 (H:m:s:ms)","OPERA","31.01","0.04325226345678244","724"
"20:57:40:606 (H:m:s:ms)","GENERIC","62.061","0.042477349958720004","442"
"21:20:0:0 (H:m:s:ms)","OPERA","62.015","0.05196148433622008","1356"
"20:40:36:363 (H:m:s:ms)","GENERIC","62.039","0.019939061225917543","709"
"20:57:46:666 (H:m:s:ms)","GENERIC","62.131","0.02564364193873573","355"
"21:20:0:0 (H:m:s:ms)","GENERIC","62.069","0.04295755432892909","1182"
"20:40:37:974 (H:m:s:ms)","OPERA","31.009","0.028366298518076205","1126"
"20:57:52:727 (H:m:s:ms)","GENERIC","62.061","0.03543931860533527","353"
"21:20:0:0 (H:m:s:ms)","GENERIC","62.081","0.05104386260239345","1249"
"21:30:18:181 (H:m:s:ms)","GENERIC","62.081","0.036770107646382146","868"
"20:40:42:424 (H:m:s:ms)","GENERIC","62.079","0.028572767936225724","666"
"20:57:58:787 (H:m:s:ms)","GENERIC","62.115","0.01649242250247064","289"
"21:20:6:60 (H:m:s:ms)","GENERIC","62.103","0.03599099156626423","992"
"21:30:12:121 (H:m:s:ms)","GENERIC","31.023","0.02373932508635315","914"
"20:40:45:569 (H:m:s:ms)","OPERA","31.01","0.02871642175675175","508"
"20:58:4:848 (H:m:s:ms)","GENERIC","62.089","0.04269945903232131","233"
"21:20:7:594 (H:m:s:ms)","OPERA","62.015","0.0373689581705287","513"
"20:40:48:484 (H:m:s:ms)","GENERIC","62.055","0.03370829280331756","579"
"20:58:10:909 (H:m:s:ms)","GENERIC","62.091","0.04248575117210593","1154"
"20:40:53:164 (H:m:s:ms)","OPERA","31.011","0.028764441975454132","940"
"20:58:16:969 (H:m:s:ms)","GENERIC","62.067","0.029462782549439497","1134"
"20:40:54:545 (H:m:s:ms)","GENERIC","62.051","0.054065427289225525","541"
"20:41:0:606 (H:m:s:ms)","GENERIC","62.071","0.02338914607665298","440"
"21:31:18:787 (H:m:s:ms)","GENERIC","62.057","0.02655134859900783","303"
"21:31:12:727 (H:m:s:ms)","GENERIC","62.031","0.04072055089639776","346"
"21:32:1:212 (H:m:s:ms)","GENERIC","62.029","0.027950849718747357","864"
"21:31:55:151 (H:m:s:ms)","GENERIC","62.069","0.03642156795423414","937"
"21:31:49:90 (H:m:s:ms)","GENERIC","62.137","0.022638462845343536","1020"
"21:31:43:30 (H:m:s:ms)","GENERIC","62.055","0.026932271018653833","1060"
"21:31:36:969 (H:m:s:ms)","GENERIC","31.02","0.03765595338749573","1179"
"21:31:34:736 (H:m:s:ms)","AMBULANCE","31.031","0.05580425006277635","319"
"21:31:30:909 (H:m:s:ms)","GENERIC","62.037","0.04269945903232131","1170"
"21:31:24:848 (H:m:s:ms)","GENERIC","62.077","0.035520508944427806","242"
"20:58:23:30 (H:m:s:ms)","GENERIC","62.137","0.014382583584405627","1006"
"20:58:29:90 (H:m:s:ms)","GENERIC","62.029","0.010423645551075887","1039"
"20:41:0:759 (H:m:s:ms)","OPERA","31.011","0.038136566687149924","353"
"20:58:35:151 (H:m:s:ms)","GENERIC","31.025","0.02050016557378404","1015"
"20:41:6:666 (H:m:s:ms)","GENERIC","62.037","0.010183010796837727","433"
"20:58:41:212 (H:m:s:ms)","GENERIC","31.008","0.026614430552458428","878"
"20:41:8:354 (H:m:s:ms)","OPERA","31.009","0.020366021593675454","745"
"20:58:47:272 (H:m:s:ms)","GENERIC","62.065","0.02900555660644325","816"
"20:41:12:727 (H:m:s:ms)","GENERIC","62.097","0.07414109678152292","346"
"20:58:53:333 (H:m:s:ms)","GENERIC","62.063","0.05413726253945862","729"
"20:41:15:949 (H:m:s:ms)","OPERA","31.01","0.07611194792150065","1139"
"20:58:59:393 (H:m:s:ms)","GENERIC","62.029","0.020366021593675454","748"
"20:41:18:787 (H:m:s:ms)","GENERIC","62.033","0.022283345996105482","315"
"20:59:5:454 (H:m:s:ms)","GENERIC","62.113","0.054886246000250355","608"
"21:31:6:666 (H:m:s:ms)","GENERIC","62.021","0.03255181499214744","423"
"20:41:23:544 (H:m:s:ms)","OPERA","31.01","0.013687248458131816","544"
"20:59:11:515 (H:m:s:ms)","GENERIC","62.071","0.009477951027050933","603"
"20:41:24:848 (H:m:s:ms)","GENERIC","62.101","0.020596210713640546","239"
"20:59:17:575 (H:m:s:ms)","GENERIC","62.077","0.036770107646382146","463"
"20:41:30:909 (H:m:s:ms)","GENERIC","62.089","0.042456832720165226","1170"
"20:41:31:139 (H:m:s:ms)","OPERA","31.01","0.05192867337457862","1021"
"20:59:23:636 (H:m:s:ms)","GENERIC","62.063","0.07074313654502272","469"
"20:59:29:696 (H:m:s:ms)","GENERIC","62.129","0.014677605348469893","367"
"20:41:36:969 (H:m:s:ms)","GENERIC","62.111","0.036770107646382146","1068"
"20:59:35:757 (H:m:s:ms)","GENERIC","62.059","0.018078979224389807","345"
"20:41:38:734 (H:m:s:ms)","OPERA","31.01","0.041914387020250826","354"
"20:59:41:818 (H:m:s:ms)","GENERIC","62.053","0.027950849718747357","270"
"20:41:43:30 (H:m:s:ms)","GENERIC","62.113","0.030244567135187823","1058"
"20:59:47:878 (H:m:s:ms)","GENERIC","62.093","0.02884441020371191","1183"
"20:41:46:329 (H:m:s:ms)","OPERA","31.009","0.024994147663047507","761"
"20:59:53:939 (H:m:s:ms)","GENERIC","62.149","0.036770107646382146","1097"
"20:41:49:90 (H:m:s:ms)","GENERIC","62.147","0.03753865844675388","1021"
"21:0:0:0 (H:m:s:ms)","AMBULANCE","31.045","0.04257346591481594","1242"
"20:41:53:924 (H:m:s:ms)","OPERA","31.009","0.04693577085851971","162"
"21:0:0:0 (H:m:s:ms)","GENERIC","62.071","0.04584428103355771","1312"
"20:41:55:151 (H:m:s:ms)","GENERIC","62.127","0.047302925514624165","936"
"21:0:0:0 (H:m:s:ms)","GENERIC","62.101","0.0549998615773143","1377"
"20:42:1:212 (H:m:s:ms)","GENERIC","62.043","0.03749999999999998","864"
"21:0:6:60 (H:m:s:ms)","GENERIC","62.143","0.053458876474565965","990"
"20:42:1:518 (H:m:s:ms)","OPERA","31.01","0.04810008046235077","636"
"20:42:7:272 (H:m:s:ms)","GENERIC","62.111","0.02471754877825504","779"
"21:0:12:121 (H:m:s:ms)","GENERIC","62.039","0.010812809504674607","969"
"21:0:18:181 (H:m:s:ms)","GENERIC","62.131","0.01891696259770322","869"
"20:42:9:113 (H:m:s:ms)","OPERA","31.01","0.0319968208428108","999"
"21:0:24:242 (H:m:s:ms)","GENERIC","62.065","0.028373210122545182","807"
"20:42:13:333 (H:m:s:ms)","GENERIC","62.095","0.04549947274641784","688"
"21:0:30:303 (H:m:s:ms)","GENERIC","62.103","0.04656573146573321","718"
"20:20:0:0 (H:m:s:ms)","GENERIC","62.089","0.028483993197596445","1185"
"20:42:16:708 (H:m:s:ms)","OPERA","31.01","0.05075710039559938","372"
"21:0:31:578 (H:m:s:ms)","AMBULANCE","31.053","0.0477110582935229","515"
"20:20:0:0 (H:m:s:ms)","GENERIC","62.101","0.03704553727660177","1249"
"20:42:19:393 (H:m:s:ms)","GENERIC","62.123","0.03174921226217376","732"
"21:0:36:363 (H:m:s:ms)","GENERIC","62.073","0.05436839543920139","700"
"20:20:6:60 (H:m:s:ms)","GENERIC","62.081","0.01891696259770322","989"
"20:42:25:454 (H:m:s:ms)","GENERIC","62.113","0.017995495783132115","609"
"21:0:42:424 (H:m:s:ms)","GENERIC","62.049","0.010189249688105528","662"
"20:20:12:121 (H:m:s:ms)","GENERIC","62.045","0.010423645551075887","979"
"20:42:31:515 (H:m:s:ms)","GENERIC","62.095","0.05309310266899465","574"
"21:0:48:484 (H:m:s:ms)","GENERIC","62.045","0.009969530612958773","581"
"20:20:18:181 (H:m:s:ms)","GENERIC","62.165","0.036770107646382146","870"
"20:42:31:898 (H:m:s:ms)","OPERA","31.009","0.06087992006465637","271"
"21:0:54:545 (H:m:s:ms)","GENERIC","62.051","0.03543649919839842","556"
"20:20:24:242 (H:m:s:ms)","GENERIC","62.121","0.04244125072573292","807"
"20:42:37:575 (H:m:s:ms)","GENERIC","62.077","0.009247780798880452","521"
"21:1:0:606 (H:m:s:ms)","GENERIC","62.087","0.031043820977155467","443"
"20:20:30:303 (H:m:s:ms)","GENERIC","62.073","0.015521910488577734","718"
"20:42:43:636 (H:m:s:ms)","GENERIC","62.037","0.05305112946547386","441"
"20:20:36:363 (H:m:s:ms)","GENERIC","62.071","0.03548875590720543","712"
"20:42:47:88 (H:m:s:ms)","OPERA","31.011","0.060884002010538354","978"
"20:20:42:424 (H:m:s:ms)","GENERIC","62.073","0.03033393050395553","652"
"20:20:48:484 (H:m:s:ms)","GENERIC","62.059","0.009358247477023131","579"
"21:1:3:157 (H:m:s:ms)","AMBULANCE","31.046","0.040938965098669206","1004"
"21:1:6:666 (H:m:s:ms)","GENERIC","62.035","0.028922059171800525","434"
"20:42:49:696 (H:m:s:ms)","GENERIC","62.051","0.04285681121689229","565"
"21:1:12:727 (H:m:s:ms)","GENERIC","62.059","0.04072055089639776","348"
"20:42:54:683 (H:m:s:ms)","OPERA","31.01","0.032263329984322006","392"
"21:1:18:787 (H:m:s:ms)","GENERIC","62.039","0.017729893187101702","313"
"20:20:54:545 (H:m:s:ms)","GENERIC","62.085","0.018039604201193216","555"
"20:42:55:757 (H:m:s:ms)","GENERIC","62.049","0.03216044402133426","332"
"21:1:24:848 (H:m:s:ms)","GENERIC","62.103","0.01771442148103935","241"
"20:21:0:606 (H:m:s:ms)","GENERIC","62.097","0.038391703563326426","442"
"20:43:1:818 (H:m:s:ms)","GENERIC","62.057","0.054886246000250355","256"
"21:1:30:909 (H:m:s:ms)","GENERIC","62.091","0.028329889597880454","1190"
"20:21:6:666 (H:m:s:ms)","GENERIC","62.055","0.030331835412661046","422"
"20:43:2:278 (H:m:s:ms)","OPERA","31.01","0.05572256175561013","824"
"21:1:34:736 (H:m:s:ms)","AMBULANCE","31.057","0.041453405025102925","346"
"20:21:12:727 (H:m:s:ms)","GENERIC","62.073","0.03677010764638213","346"
"20:43:7:878 (H:m:s:ms)","GENERIC","62.123","0.04341734863589532","1156"
"21:1:36:969 (H:m:s:ms)","GENERIC","62.095","0.04439626635746537","1067"
"20:21:18:787 (H:m:s:ms)","GENERIC","62.059","0.009247780798880452","312"
"20:43:9:873 (H:m:s:ms)","OPERA","31.011","0.04463861953910845","255"
"21:1:43:30 (H:m:s:ms)","GENERIC","62.107","0.028142741317947115","1057"
"20:21:24:848 (H:m:s:ms)","GENERIC","62.083","0.05308203946375489","227"
"20:43:13:939 (H:m:s:ms)","GENERIC","62.059","0.03747704081560895","1124"
"21:1:49:90 (H:m:s:ms)","GENERIC","62.173","0.054886246000250355","1025"
"20:21:30:909 (H:m:s:ms)","GENERIC","62.085","0.014941345376266879","1190"
"20:43:17:468 (H:m:s:ms)","OPERA","31.009","0.046972599507340944","610"
"20:21:36:969 (H:m:s:ms)","GENERIC","62.109","0.032515476866065866","1066"
"20:43:20:0 (H:m:s:ms)","GENERIC","62.043","0.04676232475599498","1116"
"20:21:43:30 (H:m:s:ms)","GENERIC","62.081","0.02263846284534352","1056"
"20:21:49:90 (H:m:s:ms)","GENERIC","62.121","0.019039432764659768","1020"
"20:43:25:63 (H:m:s:ms)","OPERA","31.009","0.04103322973112767","1027"
"20:43:26:60 (H:m:s:ms)","GENERIC","62.023","0.036501447571405894","1028"
"20:21:55:151 (H:m:s:ms)","GENERIC","62.099","0.028571428571428484","935"
"20:43:32:121 (H:m:s:ms)","GENERIC","62.069","0.018221724671391555","967"
"20:22:1:212 (H:m:s:ms)","GENERIC","62.029","0.03749999999999998","859"
"20:43:38:181 (H:m:s:ms)","GENERIC","62.109","0.02338914607665298","841"
"20:22:7:272 (H:m:s:ms)","GENERIC","62.091","0.013938814545676055","775"
"20:43:40:253 (H:m:s:ms)","OPERA","31.01","0.025422763630310232","835"
"20:22:13:333 (H:m:s:ms)","GENERIC","62.115","0.032515476866065866","687"
"20:43:44:242 (H:m:s:ms)","GENERIC","62.093","0.018133439036463656","847"
"20:22:19:393 (H:m:s:ms)","GENERIC","62.133","0.026557393299962397","729"
"20:43:47:848 (H:m:s:ms)","OPERA","31.01","0.018262952006807345","254"
"20:22:25:454 (H:m:s:ms)","GENERIC","62.149","0.03599099156626423","606"
"20:43:50:303 (H:m:s:ms)","GENERIC","62.075","0.036785160983311194","786"
"20:22:31:515 (H:m:s:ms)","GENERIC","62.091","0.0354454165022843","572"
"20:43:55:443 (H:m:s:ms)","OPERA","31.01","0.04651101370347227","636"
"20:22:37:575 (H:m:s:ms)","GENERIC","62.089","0.026655608222363666","512"
"20:43:56:363 (H:m:s:ms)","GENERIC","62.113","0.03931975913845095","724"
"20:22:43:636 (H:m:s:ms)","GENERIC","62.015","0.05305112946547386","441"
"20:22:49:696 (H:m:s:ms)","GENERIC","62.057","0.01771690968789108","413"
"20:44:2:424 (H:m:s:ms)","GENERIC","62.075","0.019764235376052364","677"
"20:44:3:37 (H:m:s:ms)","OPERA","31.009","0.028220108388130452","1064"
"20:22:55:757 (H:m:s:ms)","GENERIC","62.053","0.010683367426657635","328"
"20:44:8:484 (H:m:s:ms)","GENERIC","62.077","0.026859134585813172","618"
"20:23:1:818 (H:m:s:ms)","GENERIC","62.083","0.03605551275463989","256"
"20:44:10:632 (H:m:s:ms)","OPERA","31.009","0.020784372106783515","459"
"20:23:7:878 (H:m:s:ms)","GENERIC","62.095","0.042537651508295596","1157"
"20:44:14:545 (H:m:s:ms)","GENERIC","62.083","0.01783799477866162","530"
"20:23:13:939 (H:m:s:ms)","GENERIC","62.091","0.03551531878613403","1122"
"20:44:18:227 (H:m:s:ms)","OPERA","31.009","0.03347444003789575","852"
"20:23:20:0 (H:m:s:ms)","GENERIC","62.061","0.05313979552539435","1102"
"20:44:20:606 (H:m:s:ms)","GENERIC","62.119","0.04145872476434365","456"
"20:23:26:60 (H:m:s:ms)","GENERIC","62.037","0.020542971567389826","1040"
"20:44:25:822 (H:m:s:ms)","OPERA","31.01","0.034778190869737755","280"
"20:23:32:121 (H:m:s:ms)","GENERIC","62.099","0.05321683239351993","965"
"20:44:26:666 (H:m:s:ms)","GENERIC","62.107","0.04713750806417445","420"
"20:23:38:181 (H:m:s:ms)","GENERIC","62.111","0.031043820977155467","838"
"20:44:32:727 (H:m:s:ms)","GENERIC","31.01","0.01307244770075172","373"
"20:23:44:242 (H:m:s:ms)","GENERIC","62.083","0.015092308563562366","844"
"20:23:50:303 (H:m:s:ms)","GENERIC","62.085","0.023720782598297012","783"
"20:44:33:417 (H:m:s:ms)","OPERA","31.011","0.03311308639074051","650"
"20:44:38:787 (H:m:s:ms)","GENERIC","62.047","0.03530383590023581","303"
"20:23:56:363 (H:m:s:ms)","GENERIC","62.143","0.03726779962499649","724"
"20:44:41:12 (H:m:s:ms)","OPERA","31.009","0.020596210713640543","1077"
"20:24:2:424 (H:m:s:ms)","GENERIC","62.103","0.027950849718747357","653"
"20:44:44:848 (H:m:s:ms)","GENERIC","62.127","0.032194789963443125","241"
"20:24:8:484 (H:m:s:ms)","GENERIC","62.037","0.008928571428571428","616"
"20:44:48:607 (H:m:s:ms)","OPERA","31.01","0.032266965882477794","495"
"20:24:14:545 (H:m:s:ms)","GENERIC","62.069","0.014741134218990194","528"
"20:44:50:909 (H:m:s:ms)","GENERIC","31.023","0.03772262726812108","1142"
"20:24:20:606 (H:m:s:ms)","GENERIC","62.151","0.028373210122545182","453"
"20:44:56:202 (H:m:s:ms)","OPERA","31.01","0.03782909839190698","886"
"20:24:26:666 (H:m:s:ms)","GENERIC","62.093","0.028802531118229308","420"
"20:44:56:969 (H:m:s:ms)","GENERIC","62.041","0.07520775121766908","1197"
"20:24:32:727 (H:m:s:ms)","GENERIC","62.045","0.01774437795360272","334"
"20:45:3:30 (H:m:s:ms)","GENERIC","62.083","0.05304701995213875","1038"
"20:24:38:787 (H:m:s:ms)","GENERIC","62.027","0.026541019731877433","298"
"20:45:3:797 (H:m:s:ms)","OPERA","31.01","0.05670348850552469","349"
"20:24:44:848 (H:m:s:ms)","GENERIC","62.097","0.045276925690687024","240"
"20:24:50:909 (H:m:s:ms)","GENERIC","62.037","0.03033755670680774","1167"
"20:45:9:90 (H:m:s:ms)","GENERIC","62.111","0.015521910488577734","983"
"20:45:11:392 (H:m:s:ms)","OPERA","31.01","0.03397733894233654","690"
"20:24:56:969 (H:m:s:ms)","GENERIC","62.037","0.026719686705737853","1083"
"20:45:15:151 (H:m:s:ms)","GENERIC","62.099","0.05199059466007123","925"
"20:25:3:30 (H:m:s:ms)","GENERIC","62.065","0.03726779962499649","1058"
"20:45:18:987 (H:m:s:ms)","OPERA","31.009","0.043784452245178934","1141"
"20:25:9:90 (H:m:s:ms)","GENERIC","62.111","0.031043820977155467","981"
"20:45:21:212 (H:m:s:ms)","GENERIC","62.037","0.040914244161099574","869"
"20:25:15:151 (H:m:s:ms)","GENERIC","62.071","0.014844905142563744","934"
"20:45:26:582 (H:m:s:ms)","OPERA","31.01","0.040914244161099574","508"
"20:25:21:212 (H:m:s:ms)","GENERIC","62.021","0.020243916564442375","887"
"20:45:27:272 (H:m:s:ms)","GENERIC","62.025","0.03851604390806364","815"
"20:25:27:272 (H:m:s:ms)","GENERIC","62.059","0.05590169943749472","794"
"20:45:33:333 (H:m:s:ms)","GENERIC","62.031","0.07136508394594353","743"
"20:25:33:333 (H:m:s:ms)","GENERIC","62.071","0.07078368864726106","741"
"20:45:34:177 (H:m:s:ms)","OPERA","31.01","0.07201872466395152","924"
"20:25:39:393 (H:m:s:ms)","GENERIC","62.059","0.03628454281560231","729"
"20:45:39:393 (H:m:s:ms)","GENERIC","62.079","0.07142462844831624","735"
"20:25:45:454 (H:m:s:ms)","GENERIC","62.063","0.03106910452842734","634"
"20:25:51:515 (H:m:s:ms)","GENERIC","62.057","0.026161055530048515","559"
"20:25:57:575 (H:m:s:ms)","GENERIC","62.111","0.010683367426657635","509"
"20:26:3:636 (H:m:s:ms)","GENERIC","62.103","0.042629813957631615","425"
"20:26:9:696 (H:m:s:ms)","GENERIC","62.037","0.028314566527506708","376"
"20:26:15:757 (H:m:s:ms)","GENERIC","62.125","0.014202629250973339","303"
"20:26:21:818 (H:m:s:ms)","GENERIC","62.077","0.04999999999999998","268"
"20:26:27:878 (H:m:s:ms)","GENERIC","62.107","0.015521910488577734","1143"
"20:26:33:939 (H:m:s:ms)","GENERIC","62.085","0.014640679280549691","1126"
"20:26:40:0 (H:m:s:ms)","GENERIC","62.091","0.03555067391080604","1135"
"20:26:46:60 (H:m:s:ms)","GENERIC","62.157","0.014277885862107056","1000"
"20:26:52:121 (H:m:s:ms)","GENERIC","62.059","0.053158977908002836","957"
"20:26:58:181 (H:m:s:ms)","GENERIC","62.013","0.015092308563562366","917"
"20:27:4:242 (H:m:s:ms)","GENERIC","62.077","0.03291893988477033","831"
"20:27:10:303 (H:m:s:ms)","GENERIC","62.075","0.02058143250776173","760"
"20:27:16:363 (H:m:s:ms)","GENERIC","62.083","0.012034707811133303","723"
"20:27:22:424 (H:m:s:ms)","GENERIC","62.117","0.011973434360120605","612"
"20:27:28:484 (H:m:s:ms)","GENERIC","62.053","0.04379889490918997","566"
"20:27:34:545 (H:m:s:ms)","GENERIC","62.039","0.03084214738770891","541"
"20:27:40:606 (H:m:s:ms)","GENERIC","62.101","0.015457274521730482","442"
"20:27:46:666 (H:m:s:ms)","GENERIC","62.109","0.036770107646382146","354"
"20:27:52:727 (H:m:s:ms)","GENERIC","62.053","0.012034707811133303","373"
"20:27:58:787 (H:m:s:ms)","GENERIC","62.071","0.014422205101855955","285"
"20:28:4:848 (H:m:s:ms)","GENERIC","62.059","0.028329889597880454","253"
"20:28:10:909 (H:m:s:ms)","GENERIC","62.121","0.014537464307117855","1151"
"20:28:16:969 (H:m:s:ms)","GENERIC","62.079","0.02124591463996994","1130"
"20:28:23:30 (H:m:s:ms)","GENERIC","62.131","0.042446609730820706","1008"
"20:28:29:90 (H:m:s:ms)","GENERIC","62.029","0.020366021593675454","1032"
"20:28:35:151 (H:m:s:ms)","GENERIC","62.109","0.019764235376052364","937"
"20:28:41:212 (H:m:s:ms)","GENERIC","62.079","0.011083883383231038","888"
"20:28:47:272 (H:m:s:ms)","GENERIC","62.065","0.01911254185602602","815"
"20:28:53:333 (H:m:s:ms)","GENERIC","62.021","0.03546829570193639","768"
"20:28:59:393 (H:m:s:ms)","GENERIC","31.021","0.030326738560945442","781"
"20:29:5:454 (H:m:s:ms)","GENERIC","62.143","0.054886246000250355","607"
"20:29:11:515 (H:m:s:ms)","GENERIC","62.073","0.028515771845041723","585"
"20:29:17:575 (H:m:s:ms)","GENERIC","62.097","0.032515476866065866","463"
"20:29:23:636 (H:m:s:ms)","GENERIC","62.047","0.07100226978096956","462"
"20:29:29:696 (H:m:s:ms)","GENERIC","62.101","0.042607887752920015","359"
"20:29:35:757 (H:m:s:ms)","GENERIC","62.075","0.053168124753426436","342"
"20:29:41:818 (H:m:s:ms)","GENERIC","62.025","0.03186887195995489","247"
"20:29:47:878 (H:m:s:ms)","GENERIC","62.071","0.029529646120466796","1183"
"20:29:53:939 (H:m:s:ms)","GENERIC","62.095","0.04656573146573321","1097"
"21:20:12:121 (H:m:s:ms)","GENERIC","62.029","0.04073204318735091","1049"
"21:20:15:189 (H:m:s:ms)","OPERA","62.015","0.04073204318735091","911"
"21:20:18:181 (H:m:s:ms)","GENERIC","62.097","0.05405083565465812","867"
"21:20:22:784 (H:m:s:ms)","OPERA","62.017","0.05400575535916353","318"
"21:20:24:242 (H:m:s:ms)","GENERIC","62.057","0.030048335273122916","807"
"21:20:30:303 (H:m:s:ms)","GENERIC","62.111","0.04072055089639779","717"
"21:20:30:379 (H:m:s:ms)","OPERA","62.017","0.045374171364304224","747"
"21:20:36:363 (H:m:s:ms)","GENERIC","62.099","0.0365385572042861","714"
"21:20:37:974 (H:m:s:ms)","OPERA","62.015","0.04159582618920213","1128"
"21:20:42:424 (H:m:s:ms)","GENERIC","62.067","0.028734120502566376","656"
"21:20:45:569 (H:m:s:ms)","OPERA","62.015","0.0231660381339562","522"
"21:20:48:484 (H:m:s:ms)","GENERIC","62.039","0.028702662597182037","580"
"21:20:53:164 (H:m:s:ms)","OPERA","62.017","0.033412114880808044","928"
"21:20:54:545 (H:m:s:ms)","GENERIC","62.053","0.040641345132059636","559"
"21:21:0:606 (H:m:s:ms)","GENERIC","62.077","0.04072055089639779","446"
"21:21:0:759 (H:m:s:ms)","OPERA","62.015","0.04541867271329766","383"
"21:21:6:666 (H:m:s:ms)","GENERIC","62.021","0.020567919154935735","437"
"21:21:8:354 (H:m:s:ms)","OPERA","62.017","0.05109329251863377","715"
"21:21:12:727 (H:m:s:ms)","GENERIC","62.025","0.05547616091801802","350"
"21:21:15:949 (H:m:s:ms)","OPERA","62.015","0.055371070723784326","1133"
"21:33:1:818 (H:m:s:ms)","GENERIC","62.143","0.05350233639758172","256"
"21:32:43:636 (H:m:s:ms)","GENERIC","62.027","0.03559917187326529","463"
"21:32:37:894 (H:m:s:ms)","AMBULANCE","31.029","0.01621990515239318","302"
"21:32:37:575 (H:m:s:ms)","GENERIC","62.027","0.009734834966979125","526"
"21:32:31:515 (H:m:s:ms)","GENERIC","62.045","0.03546829570193639","520"
"21:32:25:454 (H:m:s:ms)","GENERIC","62.101","0.020360275448198892","608"
"21:32:19:393 (H:m:s:ms)","GENERIC","62.043","0.01822172467139156","731"
"21:32:13:333 (H:m:s:ms)","GENERIC","62.051","0.019764235376052364","742"
"21:21:18:787 (H:m:s:ms)","GENERIC","62.043","0.03518854623114116","315"
"21:32:7:272 (H:m:s:ms)","GENERIC","62.091","0.036130342678278894","776"
"21:21:23:544 (H:m:s:ms)","OPERA","62.017","0.03518854623114116","538"
"21:21:24:848 (H:m:s:ms)","GENERIC","62.073","0.035026295819696365","240"
"21:21:30:909 (H:m:s:ms)","GENERIC","62.057","0.028329889597880454","1196"
"21:21:31:139 (H:m:s:ms)","OPERA","62.017","0.03484182418178728","1059"
"21:21:36:969 (H:m:s:ms)","GENERIC","62.077","0.030491067797299275","1198"
"21:21:38:734 (H:m:s:ms)","OPERA","62.015","0.04279118045335531","347"
"21:21:43:30 (H:m:s:ms)","GENERIC","62.073","0.035267513584237804","1061"
"21:32:55:757 (H:m:s:ms)","GENERIC","62.035","0.02033563779493431","328"
"21:21:46:329 (H:m:s:ms)","OPERA","62.017","0.027240359351321485","760"
"21:32:49:696 (H:m:s:ms)","GENERIC","62.053","0.03699112319552181","403"
"21:21:49:90 (H:m:s:ms)","GENERIC","62.149","0.03032037614249882","1023"
"21:34:2:424 (H:m:s:ms)","GENERIC","31.02","0.026614430552458428","664"
"21:33:56:363 (H:m:s:ms)","GENERIC","62.055","0.03726779962499649","726"
"21:33:44:242 (H:m:s:ms)","GENERIC","62.131","0.03659083066683357","847"
"21:33:38:181 (H:m:s:ms)","GENERIC","62.075","0.031043820977155467","843"
"21:33:32:121 (H:m:s:ms)","GENERIC","62.073","0.018221724671391555","968"
"21:33:26:60 (H:m:s:ms)","GENERIC","62.101","0.020542971567389826","1040"
"21:33:20:0 (H:m:s:ms)","GENERIC","62.055","0.05313979552539435","1103"
"21:33:13:939 (H:m:s:ms)","GENERIC","62.047","0.05496838449660103","1122"
"21:21:53:924 (H:m:s:ms)","OPERA","62.015","0.024994147663047493","1173"
"21:33:9:473 (H:m:s:ms)","AMBULANCE","31.01","0.032263106593668295","631"
"21:21:55:151 (H:m:s:ms)","GENERIC","62.081","0.017836758665979693","937"
"21:33:7:878 (H:m:s:ms)","GENERIC","62.131","0.028944899090596863","1157"
"21:22:1:212 (H:m:s:ms)","GENERIC","62.047","0.027950849718747357","862"
"21:22:1:518 (H:m:s:ms)","OPERA","62.017","0.04120158866510728","638"
"21:22:7:272 (H:m:s:ms)","GENERIC","62.111","0.013938814545676055","776"
"21:22:9:113 (H:m:s:ms)","OPERA","62.017","0.03327014370959369","990"
"21:22:13:333 (H:m:s:ms)","GENERIC","62.033","0.03604987046116617","742"
"21:22:16:708 (H:m:s:ms)","OPERA","62.019","0.028385922319255512","371"
"21:22:19:393 (H:m:s:ms)","GENERIC","62.053","0.03352301857956162","734"
"21:22:24:303 (H:m:s:ms)","OPERA","31.01","0.04035573814102556","766"
"21:33:50:303 (H:m:s:ms)","GENERIC","62.093","0.020366021593675454","818"
"21:34:56:969 (H:m:s:ms)","GENERIC","62.037","0.07905694150420946","1094"
"21:34:50:909 (H:m:s:ms)","GENERIC","62.041","0.03635931792539568","1139"
"21:34:44:848 (H:m:s:ms)","GENERIC","62.081","0.04738379176037845","346"
"21:34:44:210 (H:m:s:ms)","AMBULANCE","31.025","0.02837045668472746","895"
"21:34:38:787 (H:m:s:ms)","GENERIC","62.021","0.009477951027050933","300"
"21:34:32:727 (H:m:s:ms)","GENERIC","62.043","0.030331835412661046","351"
"21:34:26:666 (H:m:s:ms)","GENERIC","62.089","0.04277365776756258","422"
"21:34:20:606 (H:m:s:ms)","GENERIC","62.069","0.024057684621532304","457"
"21:22:25:454 (H:m:s:ms)","GENERIC","62.093","0.03529867382432539","608"
"21:34:14:545 (H:m:s:ms)","GENERIC","62.073","0.05537389095140643","528"
"21:22:31:515 (H:m:s:ms)","GENERIC","62.067","0.02373932508635315","523"
"21:34:12:631 (H:m:s:ms)","AMBULANCE","31.031","0.039489188077962395","426"
"21:1:55:151 (H:m:s:ms)","GENERIC","62.119","0.028571428571428484","937"
"21:22:31:898 (H:m:s:ms)","OPERA","62.015","0.025736468245321137","245"
"21:34:8:484 (H:m:s:ms)","GENERIC","62.113","0.01772270825114215","617"
"21:2:1:212 (H:m:s:ms)","GENERIC","62.057","0.019764235376052364","863"
"21:22:37:575 (H:m:s:ms)","GENERIC","62.035","0.009247780798880452","527"
"21:2:6:315 (H:m:s:ms)","AMBULANCE","31.04","0.02214034890448389","801"
"21:22:39:493 (H:m:s:ms)","OPERA","31.01","0.031700912267804665","608"
"21:2:7:272 (H:m:s:ms)","GENERIC","62.151","0.03687726666422193","775"
"21:22:43:636 (H:m:s:ms)","GENERIC","62.025","0.060930753253544065","442"
"21:2:13:333 (H:m:s:ms)","GENERIC","62.075","0.01775765939306702","755"
"21:22:47:88 (H:m:s:ms)","OPERA","62.015","0.05668487559511928","1013"
"21:2:19:393 (H:m:s:ms)","GENERIC","62.077","0.008960755486502733","735"
"21:22:49:696 (H:m:s:ms)","GENERIC","62.037","0.027374496916263626","403"
"21:2:25:454 (H:m:s:ms)","GENERIC","62.091","0.017995495783132115","608"
"21:22:54:683 (H:m:s:ms)","OPERA","62.017","0.03543952115144441","396"
"21:2:31:515 (H:m:s:ms)","GENERIC","62.081","0.05643049553606876","637"
"21:22:55:757 (H:m:s:ms)","GENERIC","62.041","0.03203263822267437","334"
"21:2:37:575 (H:m:s:ms)","GENERIC","62.059","0.01788564926705603","524"
"21:2:37:894 (H:m:s:ms)","AMBULANCE","31.037","0.027120266067099916","300"
"21:35:57:575 (H:m:s:ms)","GENERIC","62.035","0.03539540177932977","539"
"21:35:51:515 (H:m:s:ms)","GENERIC","62.047","0.037620330357379196","560"
"21:35:45:454 (H:m:s:ms)","GENERIC","62.065","0.03423303706138675","621"
"21:35:39:393 (H:m:s:ms)","GENERIC","62.065","0.05313979552539435","708"
"21:35:33:333 (H:m:s:ms)","GENERIC","62.073","0.07078368864726106","742"
"21:35:27:272 (H:m:s:ms)","GENERIC","62.025","0.05590169943749472","792"
"21:35:21:212 (H:m:s:ms)","GENERIC","62.053","0.030331835412661046","868"
"21:23:1:818 (H:m:s:ms)","GENERIC","62.125","0.019039432764659768","259"
"21:35:15:789 (H:m:s:ms)","AMBULANCE","31.025","0.01418522834236373","307"
"21:23:2:278 (H:m:s:ms)","OPERA","62.015","0.021800421592014","812"
"21:35:15:151 (H:m:s:ms)","GENERIC","62.071","0.03165638331525615","1033"
"21:2:43:636 (H:m:s:ms)","GENERIC","62.027","0.01789383553769017","465"
"21:23:7:878 (H:m:s:ms)","GENERIC","62.113","0.01688390246865006","1157"
"21:35:9:90 (H:m:s:ms)","GENERIC","62.107","0.031043820977155467","979"
"21:2:49:696 (H:m:s:ms)","GENERIC","62.015","0.018495561597760904","403"
"21:23:9:873 (H:m:s:ms)","OPERA","62.015","0.03458596310307079","242"
"21:35:3:30 (H:m:s:ms)","GENERIC","62.067","0.05304701995213875","1037"
"21:2:55:757 (H:m:s:ms)","GENERIC","62.041","0.03050345669240151","331"
"21:23:13:939 (H:m:s:ms)","GENERIC","62.037","0.06165899090530927","1123"
"21:3:1:818 (H:m:s:ms)","GENERIC","62.093","0.022638462845343536","258"
"21:23:17:468 (H:m:s:ms)","OPERA","62.019","0.054837483991279176","635"
"21:3:7:878 (H:m:s:ms)","GENERIC","62.101","0.042537651508295596","1157"
"21:23:20:0 (H:m:s:ms)","GENERIC","62.049","0.054005755359163486","1102"
"21:3:9:473 (H:m:s:ms)","AMBULANCE","31.022","0.0508745965881866","757"
"21:23:25:63 (H:m:s:ms)","OPERA","62.017","0.060920465534014354","1017"
"21:3:13:939 (H:m:s:ms)","GENERIC","62.027","0.05997115630082036","1124"
"21:23:26:60 (H:m:s:ms)","GENERIC","62.083","0.04302154291830124","1031"
"21:3:20:0 (H:m:s:ms)","GENERIC","62.051","0.05313979552539435","1106"
"21:23:32:121 (H:m:s:ms)","GENERIC","62.061","0.026872912838472596","1070"
"21:3:26:60 (H:m:s:ms)","GENERIC","62.049","0.02028856498582977","1042"
"21:3:32:121 (H:m:s:ms)","GENERIC","62.061","0.017738944131173325","968"
"21:36:52:121 (H:m:s:ms)","GENERIC","62.083","0.037981804000867724","980"
"21:36:50:526 (H:m:s:ms)","AMBULANCE","62.057","0.03175723507621539","564"
"21:36:46:60 (H:m:s:ms)","GENERIC","62.139","0.028555771724214113","1001"
"21:36:40:0 (H:m:s:ms)","GENERIC","62.039","0.07158668688808127","1136"
"21:36:33:939 (H:m:s:ms)","GENERIC","62.051","0.014365846686513356","1137"
"21:36:27:878 (H:m:s:ms)","GENERIC","62.105","0.02423954528359713","1157"
"21:23:32:658 (H:m:s:ms)","OPERA","31.01","0.020366021593675454","444"
"21:36:21:818 (H:m:s:ms)","GENERIC","62.059","0.10188785805595706","269"
"21:23:38:181 (H:m:s:ms)","GENERIC","62.065","0.032515476866065866","840"
"21:36:18:947 (H:m:s:ms)","AMBULANCE","31.023","0.04702276311625403","1179"
"21:3:38:181 (H:m:s:ms)","GENERIC","62.091","0.02338914607665298","840"
"21:23:40:253 (H:m:s:ms)","OPERA","62.017","0.03416241384428101","823"
"21:36:15:757 (H:m:s:ms)","GENERIC","62.095","0.042607887752920015","304"
"21:3:44:242 (H:m:s:ms)","GENERIC","62.117","0.027487370837451067","846"
"21:23:44:242 (H:m:s:ms)","GENERIC","62.139","0.029437399201615633","843"
"21:36:9:696 (H:m:s:ms)","GENERIC","62.093","0.014677605348469893","376"
"21:3:50:303 (H:m:s:ms)","GENERIC","62.059","0.023720782598297012","787"
"21:23:47:848 (H:m:s:ms)","OPERA","62.017","0.040905586326900605","231"
"21:36:3:636 (H:m:s:ms)","GENERIC","62.095","0.012119772641798565","412"
"21:3:56:363 (H:m:s:ms)","GENERIC","62.085","0.018633899812498245","724"
"21:23:50:303 (H:m:s:ms)","GENERIC","62.087","0.032872866182759815","786"
"21:4:2:424 (H:m:s:ms)","GENERIC","62.039","0.024999999999999994","678"
"21:23:55:443 (H:m:s:ms)","OPERA","62.015","0.02366032591407401","660"
"21:4:8:484 (H:m:s:ms)","GENERIC","62.079","0.008928571428571428","617"
"21:23:56:363 (H:m:s:ms)","GENERIC","62.057","0.04223705649204022","725"
"21:4:12:631 (H:m:s:ms)","AMBULANCE","31.051","0.013954716008350344","450"
"21:24:2:424 (H:m:s:ms)","GENERIC","62.015","0.027950849718747357","668"
"21:4:14:545 (H:m:s:ms)","GENERIC","62.081","0.030465091253660793","529"
"21:24:3:37 (H:m:s:ms)","OPERA","62.017","0.03451144623857762","1049"
"21:4:20:606 (H:m:s:ms)","GENERIC","62.085","0.014319184776309729","458"
"21:4:26:666 (H:m:s:ms)","GENERIC","62.119","0.028802531118229308","421"
"21:37:52:727 (H:m:s:ms)","GENERIC","62.081","0.012339603766427539","374"
"21:37:46:666 (H:m:s:ms)","GENERIC","62.095","0.015521910488577734","355"
"21:37:40:606 (H:m:s:ms)","GENERIC","62.109","0.028588477365230267","442"
"21:37:34:545 (H:m:s:ms)","GENERIC","62.063","0.03084214738770891","542"
"21:37:28:484 (H:m:s:ms)","GENERIC","62.109","0.04072055089639776","578"
"21:37:22:424 (H:m:s:ms)","GENERIC","62.109","0.04328832739613902","692"
"21:24:8:484 (H:m:s:ms)","GENERIC","62.107","0.026950068597502565","617"
"21:24:10:632 (H:m:s:ms)","OPERA","62.015","0.027101753988355244","458"
"21:37:22:105 (H:m:s:ms)","AMBULANCE","31.012","0.03054903239051323","974"
"21:4:32:727 (H:m:s:ms)","GENERIC","62.017","0.01307244770075172","542"
"21:24:14:545 (H:m:s:ms)","GENERIC","62.067","0.03535444070536159","528"
"21:37:16:363 (H:m:s:ms)","GENERIC","62.065","0.03537635263566066","715"
"21:4:38:787 (H:m:s:ms)","GENERIC","62.045","0.026614430552458428","300"
"21:24:18:227 (H:m:s:ms)","OPERA","62.017","0.0417883493204751","851"
"21:37:10:303 (H:m:s:ms)","GENERIC","62.057","0.03055813223520389","758"
"21:4:44:210 (H:m:s:ms)","AMBULANCE","31.043","0.030331835412661046","873"
"21:24:20:606 (H:m:s:ms)","GENERIC","31.034","0.03543952115144441","458"
"21:37:4:242 (H:m:s:ms)","GENERIC","62.115","0.03592030308036191","834"
"21:4:44:848 (H:m:s:ms)","GENERIC","62.111","0.04082040670997708","325"
"21:24:25:822 (H:m:s:ms)","OPERA","62.015","0.02752246848231275","269"
"21:36:58:181 (H:m:s:ms)","GENERIC","62.055","0.035668224265054484","920"
"21:4:50:909 (H:m:s:ms)","GENERIC","62.065","0.01307244770075172","1140"
"21:24:26:666 (H:m:s:ms)","GENERIC","62.085","0.0348517047636272","419"
"21:4:56:969 (H:m:s:ms)","GENERIC","62.057","0.04999999999999999","1095"
"21:24:32:727 (H:m:s:ms)","GENERIC","62.039","0.030331835412661046","352"
"21:5:3:30 (H:m:s:ms)","GENERIC","62.097","0.05304701995213875","1037"
"21:24:33:417 (H:m:s:ms)","OPERA","62.015","0.04048783312888475","684"
"21:5:9:90 (H:m:s:ms)","GENERIC","62.135","0.02338914607665298","986"
"21:24:38:787 (H:m:s:ms)","GENERIC","62.015","0.028399843725765282","300"
"21:5:15:151 (H:m:s:ms)","GENERIC","62.109","0.014458695325984679","938"
"21:5:15:789 (H:m:s:ms)","AMBULANCE","31.044","0.03347144978072872","382"
"21:38:47:272 (H:m:s:ms)","GENERIC","62.037","0.0443315830554058","806"
"21:38:41:212 (H:m:s:ms)","GENERIC","62.033","0.018005736743359757","877"
"21:38:35:151 (H:m:s:ms)","GENERIC","62.025","0.010183010796837727","950"
"21:38:29:90 (H:m:s:ms)","GENERIC","31.01","0.0302987296870441","1043"
"21:38:25:263 (H:m:s:ms)","AMBULANCE","31.019","0.02033787771347622","863"
"21:38:23:30 (H:m:s:ms)","GENERIC","62.115","0.014382583584405627","1006"
"21:38:16:969 (H:m:s:ms)","GENERIC","62.063","0.03644344934278312","1131"
"21:24:41:12 (H:m:s:ms)","OPERA","62.015","0.040313270730759125","1064"
"21:24:44:848 (H:m:s:ms)","GENERIC","62.095","0.04870144300122918","242"
"21:5:21:212 (H:m:s:ms)","GENERIC","62.061","0.010812809504674607","881"
"21:24:48:607 (H:m:s:ms)","OPERA","62.017","0.048584400348231145","458"
"21:5:27:272 (H:m:s:ms)","GENERIC","62.045","0.036130342678278894","815"
"21:24:50:909 (H:m:s:ms)","GENERIC","62.037","0.03291727809815616","1139"
"21:38:10:909 (H:m:s:ms)","GENERIC","62.059","0.026614430552458428","1181"
"20:45:41:772 (H:m:s:ms)","OPERA","31.009","0.07142462844831624","331"
"21:5:33:333 (H:m:s:ms)","GENERIC","62.041","0.03664662612862977","732"
"21:24:56:202 (H:m:s:ms)","OPERA","62.015","0.01663858243636688","903"
"21:38:4:848 (H:m:s:ms)","GENERIC","62.095","0.03050345669240151","323"
"20:45:45:454 (H:m:s:ms)","GENERIC","62.103","0.021688425588507573","635"
"21:5:39:393 (H:m:s:ms)","GENERIC","62.051","0.07117982893585285","736"
"21:24:56:969 (H:m:s:ms)","GENERIC","62.035","0.038596814451687306","1217"
"21:37:58:787 (H:m:s:ms)","GENERIC","62.087","0.0511699630252337","287"
"20:45:49:367 (H:m:s:ms)","OPERA","31.01","0.03572558703998868","751"
"21:5:45:454 (H:m:s:ms)","GENERIC","62.083","0.046603656792641036","612"
"21:25:3:30 (H:m:s:ms)","GENERIC","62.079","0.03557291243018248","1062"
"21:37:53:684 (H:m:s:ms)","AMBULANCE","31.017","0.04419169869082104","449"
"20:45:51:515 (H:m:s:ms)","GENERIC","62.037","0.03723779084730061","559"
"21:5:47:368 (H:m:s:ms)","AMBULANCE","31.046","0.053025054957207704","655"
"21:25:3:797 (H:m:s:ms)","OPERA","62.019","0.0466553787456693","362"
"20:45:56:962 (H:m:s:ms)","OPERA","31.01","0.020243916564442375","1146"
"21:5:51:515 (H:m:s:ms)","GENERIC","62.033","0.04757204488623437","561"
"21:25:9:90 (H:m:s:ms)","GENERIC","62.129","0.02338914607665298","979"
"20:45:57:575 (H:m:s:ms)","GENERIC","62.069","0.02695091027221376","648"
"21:5:57:575 (H:m:s:ms)","GENERIC","62.033","0.05305972547158699","516"
"21:25:11:392 (H:m:s:ms)","OPERA","62.015","0.038301549273481575","686"
"20:46:3:636 (H:m:s:ms)","GENERIC","62.109","0.042477349958720004","426"
"21:6:3:636 (H:m:s:ms)","GENERIC","62.095","0.014525368433365098","522"
"20:46:4:556 (H:m:s:ms)","OPERA","31.01","0.04358103880874433","545"
"21:6:9:696 (H:m:s:ms)","GENERIC","62.095","0.028314566527506708","379"
"20:46:9:696 (H:m:s:ms)","GENERIC","62.069","0.043707731222186276","379"
"20:46:12:151 (H:m:s:ms)","OPERA","31.009","0.043707731222186276","951"
"21:39:41:818 (H:m:s:ms)","GENERIC","62.055","0.012499999999999997","267"
"21:39:35:757 (H:m:s:ms)","GENERIC","62.065","0.03537787992171241","342"
"21:39:29:696 (H:m:s:ms)","GENERIC","62.063","0.03813932427124679","358"
"21:39:28:421 (H:m:s:ms)","AMBULANCE","31.03","0.07904713754517807","647"
"21:39:23:636 (H:m:s:ms)","GENERIC","62.033","0.07100226978096956","464"
"21:39:17:575 (H:m:s:ms)","GENERIC","62.063","0.036770107646382146","460"
"21:39:11:515 (H:m:s:ms)","GENERIC","62.059","0.018005736743359757","574"
"21:39:5:454 (H:m:s:ms)","GENERIC","62.111","0.03605551275463989","609"
"21:25:15:151 (H:m:s:ms)","GENERIC","62.081","0.03366607771960669","936"
"21:25:18:987 (H:m:s:ms)","OPERA","62.015","0.017738769752184018","1148"
"21:6:15:757 (H:m:s:ms)","GENERIC","62.083","0.014382583584405627","304"
"21:25:21:212 (H:m:s:ms)","GENERIC","62.039","0.021201074957551275","879"
"21:6:18:947 (H:m:s:ms)","AMBULANCE","31.032","0.017907693772528935","1181"
"21:25:26:582 (H:m:s:ms)","OPERA","62.015","0.03097885829058847","517"
"20:46:15:757 (H:m:s:ms)","GENERIC","62.111","0.030078437349850516","304"
"21:6:21:818 (H:m:s:ms)","GENERIC","62.055","0.032187139744478815","249"
"21:25:27:272 (H:m:s:ms)","GENERIC","62.031","0.040792179592037285","816"
"20:46:19:746 (H:m:s:ms)","OPERA","31.009","0.030295205781850524","382"
"21:6:27:878 (H:m:s:ms)","GENERIC","62.061","0.03546829570193639","1158"
"21:25:33:333 (H:m:s:ms)","GENERIC","62.067","0.03550113489048478","732"
"21:38:59:393 (H:m:s:ms)","GENERIC","62.023","0.0470152519640108","735"
"20:46:21:818 (H:m:s:ms)","GENERIC","62.041","0.015251370577006538","259"
"21:6:33:939 (H:m:s:ms)","GENERIC","62.061","0.028312442278176864","1136"
"21:25:34:177 (H:m:s:ms)","OPERA","62.015","0.04068947336262985","923"
"21:38:56:842 (H:m:s:ms)","AMBULANCE","31.018","0.05735959844104251","278"
"20:46:27:341 (H:m:s:ms)","OPERA","31.011","0.010423645551075887","748"
"21:6:40:0 (H:m:s:ms)","GENERIC","62.039","0.053046101542798485","1130"
"21:25:39:393 (H:m:s:ms)","GENERIC","62.059","0.040924695104375707","729"
"21:38:53:333 (H:m:s:ms)","GENERIC","62.089","0.0389393398679165","728"
"20:46:27:878 (H:m:s:ms)","GENERIC","31.042","0.015905638914393342","247"
"21:6:46:60 (H:m:s:ms)","GENERIC","62.177","0.04283365758632121","990"
"21:25:41:772 (H:m:s:ms)","OPERA","62.017","0.037093439145238695","329"
"20:46:33:939 (H:m:s:ms)","GENERIC","62.059","0.02853680938359986","1124"
"21:6:50:526 (H:m:s:ms)","AMBULANCE","31.03","0.060026081131681806","562"
"21:25:45:454 (H:m:s:ms)","GENERIC","62.061","0.04760709663635093","610"
"20:46:34:936 (H:m:s:ms)","OPERA","31.009","0.04159304861500854","208"
"21:6:52:121 (H:m:s:ms)","GENERIC","62.057","0.055010608620029725","980"
"20:46:40:0 (H:m:s:ms)","GENERIC","62.067","0.037076323167382554","1142"
"21:6:58:181 (H:m:s:ms)","GENERIC","62.057","0.027487370837451067","920"
"20:46:42:531 (H:m:s:ms)","OPERA","31.011","0.042123848333619505","558"
"20:46:46:60 (H:m:s:ms)","GENERIC","62.189","0.035180206864330446","993"
"21:40:0:0 (H:m:s:ms)","AMBULANCE","31.017","0.03054903239051323","1223"
"21:40:36:363 (H:m:s:ms)","GENERIC","62.091","0.03588603047656341","710"
"21:40:30:303 (H:m:s:ms)","GENERIC","62.111","0.036770107646382146","718"
"21:40:24:242 (H:m:s:ms)","GENERIC","62.085","0.014319184776309729","807"
"21:40:18:181 (H:m:s:ms)","GENERIC","62.079","0.053139795525394384","868"
"21:40:12:121 (H:m:s:ms)","GENERIC","62.051","0.02423954528359713","915"
"21:40:6:60 (H:m:s:ms)","GENERIC","62.073","0.01891696259770322","993"
"21:40:0:0 (H:m:s:ms)","GENERIC","62.072","0.06155058859092527","1347"
"21:40:0:0 (H:m:s:ms)","GENERIC","62.073","0.05246042413236904","1286"
"21:7:4:242 (H:m:s:ms)","GENERIC","62.095","0.02394686872024121","831"
"21:7:10:303 (H:m:s:ms)","GENERIC","62.069","0.02058143250776173","758"
"20:46:50:126 (H:m:s:ms)","OPERA","31.009","0.041738220264857205","954"
"21:7:16:363 (H:m:s:ms)","GENERIC","62.077","0.02369600934263026","725"
"20:46:52:121 (H:m:s:ms)","GENERIC","62.053","0.03521140938583601","981"
"21:7:22:105 (H:m:s:ms)","AMBULANCE","31.028","0.030413466050200677","978"
"20:46:57:721 (H:m:s:ms)","OPERA","31.01","0.03521140938583601","357"
"21:7:22:424 (H:m:s:ms)","GENERIC","62.093","0.03730595817015126","695"
"20:46:58:181 (H:m:s:ms)","GENERIC","62.025","0.040808943130101","919"
"21:7:28:484 (H:m:s:ms)","GENERIC","62.057","0.04277365776756254","567"
"21:39:53:939 (H:m:s:ms)","GENERIC","62.111","0.015521910488577734","1097"
"20:47:4:242 (H:m:s:ms)","GENERIC","62.087","0.03592030308036191","834"
"21:7:34:545 (H:m:s:ms)","GENERIC","62.019","0.02100080888567165","546"
"21:39:47:878 (H:m:s:ms)","GENERIC","62.129","0.015231546211727814","1185"
"20:47:5:316 (H:m:s:ms)","OPERA","31.009","0.03724616374663382","787"
"21:7:40:606 (H:m:s:ms)","GENERIC","62.061","0.02836062868688863","441"
"20:47:10:303 (H:m:s:ms)","GENERIC","62.097","0.023859137603453415","759"
"21:7:46:666 (H:m:s:ms)","GENERIC","62.113","0.031043820977155467","354"
"20:47:12:911 (H:m:s:ms)","OPERA","31.009","0.023859137603453415","191"
"21:7:52:727 (H:m:s:ms)","GENERIC","62.061","0.03537635263566066","351"
"20:47:16:363 (H:m:s:ms)","GENERIC","62.103","0.025840301817746048","726"
"20:47:20:506 (H:m:s:ms)","OPERA","31.009","0.026091269629461785","585"
"21:7:53:684 (H:m:s:ms)","AMBULANCE","31.038","0.04641935902322828","398"
"21:7:58:787 (H:m:s:ms)","GENERIC","62.125","0.05202747319858419","288"
"20:47:22:424 (H:m:s:ms)","GENERIC","62.127","0.01605358753032187","612"
"21:8:4:848 (H:m:s:ms)","GENERIC","62.105","0.028329889597880454","254"
"20:47:28:101 (H:m:s:ms)","OPERA","31.009","0.030331835412661046","978"
"21:8:10:909 (H:m:s:ms)","GENERIC","62.085","0.009477951027050933","1168"
"20:47:28:484 (H:m:s:ms)","GENERIC","62.039","0.054404913236491874","647"
"21:8:16:969 (H:m:s:ms)","GENERIC","62.053","0.03952847075210473","1133"
"20:47:34:545 (H:m:s:ms)","GENERIC","62.017","0.020293239422421432","545"
"21:8:23:30 (H:m:s:ms)","GENERIC","62.129","0.02855577172421421","1007"
"20:47:35:696 (H:m:s:ms)","OPERA","31.01","0.036503992291465434","369"
"21:8:25:263 (H:m:s:ms)","AMBULANCE","31.038","0.03043469814475949","832"
"20:47:40:606 (H:m:s:ms)","GENERIC","62.069","0.04147397465767891","443"
"21:8:29:90 (H:m:s:ms)","GENERIC","62.037","0.030737820806467572","1040"
"21:40:42:424 (H:m:s:ms)","GENERIC","62.099","0.010865576480186698","654"
"20:47:43:291 (H:m:s:ms)","OPERA","31.01","0.030254058485392615","800"
"21:8:35:151 (H:m:s:ms)","GENERIC","62.031","0.010812809504674607","992"
"20:47:46:666 (H:m:s:ms)","GENERIC","62.133","0.025669590348662136","354"
"21:8:41:212 (H:m:s:ms)","GENERIC","62.029","0.009128412437638523","877"
"20:47:50:886 (H:m:s:ms)","OPERA","31.009","0.030998829919563126","204"
"20:47:52:727 (H:m:s:ms)","GENERIC","62.053","0.023724955173877942","376"
"21:8:47:272 (H:m:s:ms)","GENERIC","62.049","0.02900555660644325","816"
"21:8:53:333 (H:m:s:ms)","GENERIC","62.053","0.03699112319552181","728"
"20:47:58:481 (H:m:s:ms)","OPERA","31.009","0.030331835412661046","598"
"21:8:56:842 (H:m:s:ms)","AMBULANCE","31.024","0.042049053793351054","264"
"20:47:58:787 (H:m:s:ms)","GENERIC","62.101","0.033811467094159976","369"
"21:8:59:393 (H:m:s:ms)","GENERIC","62.025","0.03054903239051323","746"
"20:30:0:0 (H:m:s:ms)","GENERIC","62.075","0.028483993197596445","1113"
"20:48:4:848 (H:m:s:ms)","GENERIC","62.079","0.014941345376266879","255"
"21:9:5:454 (H:m:s:ms)","GENERIC","62.121","0.05350233639758172","607"
"20:30:0:0 (H:m:s:ms)","GENERIC","62.117","0.032741737719682966","1173"
"20:48:6:75 (H:m:s:ms)","OPERA","31.01","0.03368205476751915","989"
"21:9:11:515 (H:m:s:ms)","GENERIC","31.014","0.01771442148103935","572"
"20:30:6:60 (H:m:s:ms)","GENERIC","62.087","0.01891696259770322","990"
"20:48:10:909 (H:m:s:ms)","GENERIC","62.105","0.0334117192076709","1153"
"21:9:17:575 (H:m:s:ms)","GENERIC","62.065","0.02338914607665298","462"
"20:30:12:121 (H:m:s:ms)","GENERIC","62.043","0.030413466050200677","958"
"20:48:13:670 (H:m:s:ms)","OPERA","31.009","0.024942562738905782","407"
"21:9:23:636 (H:m:s:ms)","GENERIC","62.055","0.0359349734110043","466"
"20:30:18:181 (H:m:s:ms)","GENERIC","62.185","0.03599099156626423","867"
"20:48:16:969 (H:m:s:ms)","GENERIC","62.063","0.035402152516263864","1121"
"21:9:28:421 (H:m:s:ms)","AMBULANCE","31.022","0.03725096048262979","684"
"20:30:24:242 (H:m:s:ms)","GENERIC","62.113","0.028373210122545182","807"
"20:48:21:265 (H:m:s:ms)","OPERA","31.01","0.04192976542989717","815"
"21:9:29:696 (H:m:s:ms)","GENERIC","62.115","0.029993372111553115","363"
"20:30:30:303 (H:m:s:ms)","GENERIC","62.079","0.015521910488577734","718"
"20:48:23:30 (H:m:s:ms)","GENERIC","62.129","0.04160592950807447","1006"
"20:30:36:363 (H:m:s:ms)","GENERIC","62.055","0.03588603047656341","710"
"20:48:28:860 (H:m:s:ms)","OPERA","31.01","0.03490643009483145","228"
"20:30:42:424 (H:m:s:ms)","GENERIC","62.087","0.020378499376211057","664"
"20:30:48:484 (H:m:s:ms)","GENERIC","62.067","0.026914522857422542","577"
"21:9:35:757 (H:m:s:ms)","GENERIC","62.069","0.05309310266899465","345"
"21:9:41:818 (H:m:s:ms)","GENERIC","62.059","0.03186887195995489","270"
"20:48:29:90 (H:m:s:ms)","GENERIC","62.019","0.0509150539841888","1026"
"21:9:47:878 (H:m:s:ms)","GENERIC","62.093","0.014422205101855955","1184"
"20:48:35:151 (H:m:s:ms)","GENERIC","62.131","0.025051058970741256","1109"
"21:9:53:939 (H:m:s:ms)","GENERIC","62.147","0.031043820977155467","1097"
"20:30:54:545 (H:m:s:ms)","GENERIC","62.073","0.03543649919839842","557"
"20:48:36:455 (H:m:s:ms)","OPERA","31.009","0.027184577302307673","635"
"21:10:0:0 (H:m:s:ms)","AMBULANCE","31.036","0.030331835412661046","1121"
"20:31:0:606 (H:m:s:ms)","GENERIC","62.081","0.02564364193873573","444"
"20:48:41:212 (H:m:s:ms)","GENERIC","62.077","0.028562956030311896","889"
"21:10:0:0 (H:m:s:ms)","GENERIC","62.067","0.03350541217013405","1197"
"20:31:6:666 (H:m:s:ms)","GENERIC","62.045","0.030331835412661046","421"
"20:48:44:50 (H:m:s:ms)","OPERA","31.01","0.040265946865549546","1027"
"21:10:0:0 (H:m:s:ms)","GENERIC","62.087","0.037143827998908224","1259"
"20:31:12:727 (H:m:s:ms)","GENERIC","62.091","0.04072055089639776","348"
"20:48:47:272 (H:m:s:ms)","GENERIC","62.071","0.038665017369491725","804"
"21:10:6:60 (H:m:s:ms)","GENERIC","62.131","0.053139795525394384","990"
"20:31:18:787 (H:m:s:ms)","GENERIC","62.041","0.018142271407801155","312"
"20:48:51:645 (H:m:s:ms)","OPERA","31.01","0.038665017369491725","421"
"21:10:12:121 (H:m:s:ms)","GENERIC","62.023","0.03054903239051323","959"
"20:31:24:848 (H:m:s:ms)","GENERIC","62.095","0.05308203946375489","228"
"20:48:53:333 (H:m:s:ms)","GENERIC","62.067","0.06189322584567786","728"
"21:10:18:181 (H:m:s:ms)","GENERIC","62.109","0.01891696259770322","867"
"20:31:30:909 (H:m:s:ms)","GENERIC","62.089","0.04269945903232131","1171"
"20:48:59:240 (H:m:s:ms)","OPERA","31.011","0.030413466050200677","879"
"20:31:36:969 (H:m:s:ms)","GENERIC","62.111","0.02564364193873573","1067"
"20:48:59:393 (H:m:s:ms)","GENERIC","62.033","0.04058976588109785","830"
"20:31:43:30 (H:m:s:ms)","GENERIC","62.097","0.01292338534939235","1057"
"20:31:49:90 (H:m:s:ms)","GENERIC","62.135","0.05711829829397929","1019"
"20:49:5:454 (H:m:s:ms)","GENERIC","62.109","0.05350233639758172","608"
"20:49:6:835 (H:m:s:ms)","OPERA","31.01","0.05705490780336794","275"
"20:31:55:151 (H:m:s:ms)","GENERIC","62.113","0.03194382824999698","935"
"20:49:11:515 (H:m:s:ms)","GENERIC","62.055","0.04701510074786384","586"
"20:32:1:212 (H:m:s:ms)","GENERIC","62.029","0.012499999999999997","861"
"20:49:17:575 (H:m:s:ms)","GENERIC","62.097","0.038391703563326426","461"
"20:32:7:272 (H:m:s:ms)","GENERIC","62.101","0.01235877438912752","776"
"20:49:22:25 (H:m:s:ms)","OPERA","31.009","0.04330248017597264","1077"
"20:32:13:333 (H:m:s:ms)","GENERIC","62.109","0.04656573146573321","687"
"20:49:23:636 (H:m:s:ms)","GENERIC","62.061","0.03641466831629456","454"
"20:32:19:393 (H:m:s:ms)","GENERIC","62.141","0.01822172467139156","729"
"20:49:29:620 (H:m:s:ms)","OPERA","31.01","0.030331835412661046","485"
"20:32:25:454 (H:m:s:ms)","GENERIC","62.129","0.036770107646382146","606"
"20:49:29:696 (H:m:s:ms)","GENERIC","62.125","0.041284196609481544","431"
"20:32:31:515 (H:m:s:ms)","GENERIC","62.091","0.0354454165022843","572"
"20:49:35:757 (H:m:s:ms)","GENERIC","62.059","0.018078979224389807","346"
"20:32:37:575 (H:m:s:ms)","GENERIC","62.091","0.018142271407801155","526"
"20:49:37:215 (H:m:s:ms)","OPERA","31.01","0.027246625874754044","875"
"20:32:43:636 (H:m:s:ms)","GENERIC","62.027","0.053105454995225274","443"
"20:32:49:696 (H:m:s:ms)","GENERIC","62.057","0.053150729063673234","404"
"20:49:41:818 (H:m:s:ms)","GENERIC","62.029","0.03776856334404506","248"
"20:49:44:810 (H:m:s:ms)","OPERA","31.01","0.04385717589297551","269"
"20:32:55:757 (H:m:s:ms)","GENERIC","62.053","0.02033563779493431","330"
"20:49:47:878 (H:m:s:ms)","GENERIC","62.083","0.03352870389301402","1185"
"20:33:1:818 (H:m:s:ms)","GENERIC","62.067","0.02761340254296815","256"
"20:49:52:405 (H:m:s:ms)","OPERA","31.01","0.017709304331485584","684"
"20:33:7:878 (H:m:s:ms)","GENERIC","62.107","0.01688390246865006","1160"
"20:49:53:939 (H:m:s:ms)","GENERIC","62.137","0.03968836898021245","1097"
"20:33:13:939 (H:m:s:ms)","GENERIC","62.075","0.0534588764745659","1125"
"20:50:0:0 (H:m:s:ms)","OPERA","31.01","0.05656395050529118","1247"
"20:33:20:0 (H:m:s:ms)","GENERIC","62.045","0.05305972547158699","1101"
"20:50:0:0 (H:m:s:ms)","GENERIC","62.067","0.04295755432892909","1106"
"20:33:26:60 (H:m:s:ms)","GENERIC","62.027","0.020542971567389826","1039"
"20:50:0:0 (H:m:s:ms)","GENERIC","62.105","0.04804176796341321","1168"
"20:33:32:121 (H:m:s:ms)","GENERIC","62.073","0.017921510973005463","966"
"20:50:6:60 (H:m:s:ms)","GENERIC","62.115","0.035515318786134044","988"
"20:33:38:181 (H:m:s:ms)","GENERIC","62.109","0.02564364193873573","841"
"20:50:12:121 (H:m:s:ms)","GENERIC","62.051","0.020243916564442375","981"
"20:33:44:242 (H:m:s:ms)","GENERIC","62.083","0.015092308563562366","848"
"20:33:50:303 (H:m:s:ms)","GENERIC","62.089","0.03558117389744548","784"
"20:50:18:181 (H:m:s:ms)","GENERIC","62.155","0.020360275448198892","869"
"20:50:24:242 (H:m:s:ms)","GENERIC","62.083","0.04244125072573292","807"
"20:33:56:363 (H:m:s:ms)","GENERIC","62.131","0.018633899812498245","725"
"20:50:30:303 (H:m:s:ms)","GENERIC","62.095","0.038391703563326426","719"
"20:34:2:424 (H:m:s:ms)","GENERIC","62.093","0.03749999999999998","655"
"20:50:36:363 (H:m:s:ms)","GENERIC","62.057","0.03588603047656341","711"
"20:10:0:0 (H:m:s:ms)","GENERIC","31.053","0.028483993197596445","1080"
"20:34:8:484 (H:m:s:ms)","GENERIC","62.061","0.018078979224389807","619"
"20:50:42:424 (H:m:s:ms)","GENERIC","62.063","0.030421823062710907","655"
"20:10:0:0 (H:m:s:ms)","GENERIC","62.087","0.04332209491671363","1190"
"20:34:14:545 (H:m:s:ms)","GENERIC","62.085","0.014741134218990194","531"
"20:50:48:484 (H:m:s:ms)","GENERIC","62.045","0.008971507619140855","578"
"20:10:6:60 (H:m:s:ms)","GENERIC","62.071","0.020360275448198892","992"
"20:34:20:606 (H:m:s:ms)","GENERIC","62.135","0.014537464307117855","455"
"20:50:54:545 (H:m:s:ms)","GENERIC","62.047","0.035375646550409826","557"
"20:10:12:121 (H:m:s:ms)","GENERIC","31.017","0.020366021593675454","988"
"20:34:26:666 (H:m:s:ms)","GENERIC","62.099","0.04277365776756258","422"
"20:51:0:606 (H:m:s:ms)","GENERIC","62.083","0.02564364193873573","444"
"20:10:18:181 (H:m:s:ms)","GENERIC","62.139","0.036770107646382146","871"
"20:34:32:727 (H:m:s:ms)","GENERIC","62.047","0.014313728113248457","381"
"20:51:6:666 (H:m:s:ms)","GENERIC","62.025","0.03054903239051323","423"
"20:10:24:242 (H:m:s:ms)","GENERIC","62.135","0.04244125072573292","809"
"20:34:38:787 (H:m:s:ms)","GENERIC","62.035","0.026614430552458428","300"
"20:51:12:727 (H:m:s:ms)","GENERIC","62.079","0.07354021529276426","348"
"20:10:30:303 (H:m:s:ms)","GENERIC","62.067","0.02564364193873573","719"
"20:34:44:848 (H:m:s:ms)","GENERIC","62.115","0.02748737083745107","241"
"20:10:36:363 (H:m:s:ms)","GENERIC","62.085","0.03588603047656341","716"
"20:34:50:909 (H:m:s:ms)","GENERIC","62.051","0.014252192813739198","1239"
"20:10:42:424 (H:m:s:ms)","GENERIC","62.055","0.010448004012568334","670"
"20:10:48:484 (H:m:s:ms)","GENERIC","62.067","0.009358247477023131","581"
"20:51:18:787 (H:m:s:ms)","GENERIC","62.027","0.008942824633528015","315"
"20:51:24:848 (H:m:s:ms)","GENERIC","62.105","0.053045270556458725","230"
"20:34:56:969 (H:m:s:ms)","GENERIC","62.031","0.03726779962499649","1105"
"20:51:30:909 (H:m:s:ms)","GENERIC","62.099","0.028692225456609124","1193"
"20:35:3:30 (H:m:s:ms)","GENERIC","62.077","0.07081971546656643","1057"
"20:51:36:969 (H:m:s:ms)","GENERIC","62.107","0.031043820977155467","1066"
"20:10:54:545 (H:m:s:ms)","GENERIC","62.085","0.03543649919839842","560"
"20:35:9:90 (H:m:s:ms)","GENERIC","62.111","0.031043820977155467","983"
"20:51:43:30 (H:m:s:ms)","GENERIC","62.125","0.01001734606680942","1057"
"20:11:0:606 (H:m:s:ms)","GENERIC","62.115","0.04072055089639779","445"
"20:35:15:151 (H:m:s:ms)","GENERIC","62.089","0.028443872284371736","936"
"20:51:49:90 (H:m:s:ms)","GENERIC","62.161","0.05350233639758172","1025"
"20:11:6:666 (H:m:s:ms)","GENERIC","62.067","0.03054903239051323","432"
"20:35:21:212 (H:m:s:ms)","GENERIC","62.021","0.020243916564442375","888"
"20:51:55:151 (H:m:s:ms)","GENERIC","62.129","0.03194382824999698","938"
"20:11:12:727 (H:m:s:ms)","GENERIC","62.063","0.046565731465733194","350"
"20:35:27:272 (H:m:s:ms)","GENERIC","62.043","0.07158668688808127","817"
"20:52:1:212 (H:m:s:ms)","GENERIC","62.047","0.03749999999999998","863"
"20:11:18:787 (H:m:s:ms)","GENERIC","62.057","0.01788564926705603","320"
"20:35:33:333 (H:m:s:ms)","GENERIC","62.051","0.0359349734110043","743"
"20:52:7:272 (H:m:s:ms)","GENERIC","62.133","0.013938814545676055","775"
"20:11:24:848 (H:m:s:ms)","GENERIC","62.093","0.01800573674335976","244"
"20:35:39:393 (H:m:s:ms)","GENERIC","62.073","0.03628454281560231","731"
"20:52:13:333 (H:m:s:ms)","GENERIC","62.077","0.04656573146573321","687"
"20:11:30:909 (H:m:s:ms)","GENERIC","62.067","0.014502778303221617","1196"
"20:35:45:454 (H:m:s:ms)","GENERIC","62.083","0.023914448069028923","622"
"20:11:36:969 (H:m:s:ms)","GENERIC","62.099","0.031043820977155467","1068"
"20:35:51:515 (H:m:s:ms)","GENERIC","62.051","0.040272829878793985","561"
"20:11:43:30 (H:m:s:ms)","GENERIC","62.061","0.03005203820042824","1063"
"20:11:49:90 (H:m:s:ms)","GENERIC","62.105","0.03605551275463989","1025"
"20:0:54:545 (H:m:s:ms)","GENERIC","31.033","0.05315474879759762","553"
"20:1:0:606 (H:m:s:ms)","GENERIC","31.064","0.015521910488577734","454"
"20:1:6:666 (H:m:s:ms)","GENERIC","31.032","0.020366021593675454","444"
"20:1:12:727 (H:m:s:ms)","GENERIC","31.027","0.03677010764638213","341"
"20:1:18:787 (H:m:s:ms)","GENERIC","31.026","0.017729893187101702","318"
"20:1:24:848 (H:m:s:ms)","GENERIC","31.048","0.01771442148103935","245"
"20:1:30:909 (H:m:s:ms)","GENERIC","31.025","0.014502778303221617","1197"
"20:1:36:969 (H:m:s:ms)","GENERIC","31.045","0.031043820977155467","1068"
"20:1:43:30 (H:m:s:ms)","GENERIC","31.024","0.02003469213361884","1062"
"20:1:49:90 (H:m:s:ms)","GENERIC","31.056","0.03605551275463989","1003"
"20:35:57:575 (H:m:s:ms)","GENERIC","31.04","0.03551531878613404","539"
"20:36:3:636 (H:m:s:ms)","GENERIC","62.121","0.042629813957631615","427"
"20:11:55:151 (H:m:s:ms)","GENERIC","62.099","0.028571428571428484","940"
"20:36:9:696 (H:m:s:ms)","GENERIC","62.055","0.014382583584405627","375"
"20:12:1:212 (H:m:s:ms)","GENERIC","62.047","0.012499999999999997","868"
"20:36:15:757 (H:m:s:ms)","GENERIC","62.121","0.014382583584405627","304"
"20:12:7:272 (H:m:s:ms)","GENERIC","62.095","0.023862228962693764","778"
"20:36:21:818 (H:m:s:ms)","GENERIC","62.057","0.07905694150420946","271"
"20:12:13:333 (H:m:s:ms)","GENERIC","62.101","0.036770107646382146","690"
"20:36:27:878 (H:m:s:ms)","GENERIC","62.109","0.026161055530048515","1280"
"20:12:19:393 (H:m:s:ms)","GENERIC","62.117","0.01773894413117333","743"
"20:36:33:939 (H:m:s:ms)","GENERIC","62.073","0.04259518153260894","1115"
"20:12:25:454 (H:m:s:ms)","GENERIC","62.167","0.053139795525394384","614"
"20:36:40:0 (H:m:s:ms)","GENERIC","62.083","0.07080854761617741","1137"
"20:12:31:515 (H:m:s:ms)","GENERIC","62.097","0.053168124753426436","580"
"20:36:46:60 (H:m:s:ms)","GENERIC","62.171","0.042607887752919904","1002"
"20:12:37:575 (H:m:s:ms)","GENERIC","62.079","0.009247780798880452","532"
"20:36:52:121 (H:m:s:ms)","GENERIC","62.057","0.03554401401394533","980"
"20:12:43:636 (H:m:s:ms)","GENERIC","62.019","0.05305112946547386","447"
"20:12:49:696 (H:m:s:ms)","GENERIC","62.071","0.01771690968789108","419"
"20:1:55:151 (H:m:s:ms)","GENERIC","31.053","0.03642156795423414","943"
"20:2:1:212 (H:m:s:ms)","GENERIC","31.034","0.03186887195995489","868"
"20:2:7:272 (H:m:s:ms)","GENERIC","31.043","0.036130342678278894","778"
"20:2:13:333 (H:m:s:ms)","GENERIC","31.046","0.038391703563326426","689"
"20:2:19:393 (H:m:s:ms)","GENERIC","31.05","0.01773894413117333","717"
"20:2:25:454 (H:m:s:ms)","GENERIC","31.091","0.01891696259770322","612"
"20:2:31:515 (H:m:s:ms)","GENERIC","31.049","0.01772270825114215","577"
"20:2:37:575 (H:m:s:ms)","GENERIC","31.033","0.017729893187101702","535"
"20:2:43:636 (H:m:s:ms)","GENERIC","31.017","0.01789383553769017","469"
"20:2:49:696 (H:m:s:ms)","GENERIC","31.048","0.053085361028776604","387"
"20:36:58:181 (H:m:s:ms)","GENERIC","62.013","0.03659083066683357","920"
"20:37:4:242 (H:m:s:ms)","GENERIC","62.079","0.011973434360120605","834"
"20:12:55:757 (H:m:s:ms)","GENERIC","62.073","0.020236279057951365","335"
"20:37:10:303 (H:m:s:ms)","GENERIC","62.083","0.021676984577377163","759"
"20:13:1:818 (H:m:s:ms)","GENERIC","62.101","0.038078865529319536","264"
"20:37:16:363 (H:m:s:ms)","GENERIC","62.095","0.012339603766427539","724"
"20:13:7:878 (H:m:s:ms)","GENERIC","62.089","0.042537651508295596","1159"
"20:37:22:424 (H:m:s:ms)","GENERIC","62.127","0.021201074957551237","611"
"20:13:13:939 (H:m:s:ms)","GENERIC","62.103","0.0534588764745659","1125"
"20:37:28:484 (H:m:s:ms)","GENERIC","62.045","0.07354021529276426","578"
"20:13:20:0 (H:m:s:ms)","GENERIC","62.051","0.05327297817920102","1106"
"20:37:34:545 (H:m:s:ms)","GENERIC","62.023","0.030544664848990703","544"
"20:13:26:60 (H:m:s:ms)","GENERIC","62.043","0.030532241359769847","1034"
"20:37:40:606 (H:m:s:ms)","GENERIC","62.085","0.042629813957631615","445"
"20:13:32:121 (H:m:s:ms)","GENERIC","62.123","0.017738944131173325","969"
"20:37:46:666 (H:m:s:ms)","GENERIC","62.117","0.032515476866065866","355"
"20:13:38:181 (H:m:s:ms)","GENERIC","62.129","0.036770107646382146","840"
"20:37:52:727 (H:m:s:ms)","GENERIC","62.051","0.03543931860533527","371"
"20:13:44:242 (H:m:s:ms)","GENERIC","62.093","0.018408935028645417","850"
"20:13:50:303 (H:m:s:ms)","GENERIC","62.091","0.023607955193866006","788"
"20:2:55:757 (H:m:s:ms)","GENERIC","31.048","0.030393128272019235","335"
"20:3:1:818 (H:m:s:ms)","GENERIC","31.061","0.054886246000250355","259"
"20:3:7:878 (H:m:s:ms)","GENERIC","31.048","0.015420998131276661","159"
"20:3:13:939 (H:m:s:ms)","GENERIC","31.059","0.05313979552539433","1127"
"20:3:20:0 (H:m:s:ms)","GENERIC","31.024","0.05327297817920102","1076"
"20:3:26:60 (H:m:s:ms)","GENERIC","31.026","0.020960121664941943","1051"
"20:3:32:121 (H:m:s:ms)","GENERIC","31.057","0.017738944131173325","972"
"20:3:38:181 (H:m:s:ms)","GENERIC","31.074","0.04072055089639779","841"
"20:3:44:242 (H:m:s:ms)","GENERIC","31.053","0.018408935028645417","854"
"20:3:50:303 (H:m:s:ms)","GENERIC","31.047","0.011860391299148506","790"
"20:37:58:787 (H:m:s:ms)","GENERIC","62.083","0.014422205101855955","305"
"20:38:4:848 (H:m:s:ms)","GENERIC","62.065","0.04254797972304196","248"
"20:13:56:363 (H:m:s:ms)","GENERIC","62.157","0.05590169943749473","706"
"20:38:10:909 (H:m:s:ms)","GENERIC","62.113","0.04255981518381777","1163"
"20:14:2:424 (H:m:s:ms)","GENERIC","62.083","0.019764235376052364","679"
"20:38:16:969 (H:m:s:ms)","GENERIC","62.063","0.02124591463996994","1156"
"20:14:8:484 (H:m:s:ms)","GENERIC","62.025","0.01772270825114215","620"
"20:38:23:30 (H:m:s:ms)","GENERIC","62.123","0.028405258501946678","1009"
"20:14:14:545 (H:m:s:ms)","GENERIC","62.049","0.028964242362612178","533"
"20:38:29:90 (H:m:s:ms)","GENERIC","62.021","0.03054903239051323","1029"
"20:14:20:606 (H:m:s:ms)","GENERIC","62.159","0.028483993197596535","457"
"20:38:35:151 (H:m:s:ms)","GENERIC","62.129","0.012499999999999995","943"
"20:14:26:666 (H:m:s:ms)","GENERIC","62.093","0.04258109021524078","424"
"20:38:41:212 (H:m:s:ms)","GENERIC","62.087","0.012201108105874386","895"
"20:14:32:727 (H:m:s:ms)","GENERIC","62.055","0.008971507619140855","336"
"20:38:47:272 (H:m:s:ms)","GENERIC","62.071","0.023914448069028923","806"
"20:14:38:787 (H:m:s:ms)","GENERIC","31.012","0.017824222665564788","302"
"20:38:53:333 (H:m:s:ms)","GENERIC","31.028","0.018495561597760904","732"
"20:14:44:848 (H:m:s:ms)","GENERIC","62.079","0.0440328160454096","238"
"20:14:50:909 (H:m:s:ms)","GENERIC","62.031","0.010200040015927883","1181"
"20:3:56:363 (H:m:s:ms)","GENERIC","31.086","0.03726779962499649","728"
"20:4:2:424 (H:m:s:ms)","GENERIC","31.037","0.027950849718747357","686"
"20:4:8:484 (H:m:s:ms)","GENERIC","31.016","0.02663648908960052","610"
"20:4:14:545 (H:m:s:ms)","GENERIC","31.016","0.0428827160478454","534"
"20:4:20:606 (H:m:s:ms)","GENERIC","31.072","0.04248575117210593","458"
"20:4:26:666 (H:m:s:ms)","GENERIC","31.048","0.02834232366937507","426"
"20:4:32:727 (H:m:s:ms)","GENERIC","31.033","0.026914522857422542","338"
"20:4:38:787 (H:m:s:ms)","GENERIC","31.051","0.008912111332782394","311"
"20:4:44:848 (H:m:s:ms)","GENERIC","31.034","0.0440328160454096","235"
"20:4:50:909 (H:m:s:ms)","GENERIC","31.021","0.020400080031855766","1183"
"20:38:59:393 (H:m:s:ms)","GENERIC","62.027","0.020243916564442375","771"
"20:39:5:454 (H:m:s:ms)","GENERIC","62.125","0.02761340254296815","611"
"20:14:56:969 (H:m:s:ms)","GENERIC","62.031","0.026567445575613687","1084"
"20:39:11:515 (H:m:s:ms)","GENERIC","62.057","0.04246513053058495","595"
"20:15:3:30 (H:m:s:ms)","GENERIC","62.055","0.0362177911400147","1060"
"20:39:17:575 (H:m:s:ms)","GENERIC","62.113","0.04072055089639779","463"
"20:15:9:90 (H:m:s:ms)","GENERIC","62.115","0.032515476866065866","985"
"20:39:23:636 (H:m:s:ms)","GENERIC","62.055","0.0359349734110043","476"
"20:15:15:151 (H:m:s:ms)","GENERIC","62.061","0.028642122978084477","940"
"20:39:29:696 (H:m:s:ms)","GENERIC","62.109","0.042607887752920015","363"
"20:15:21:212 (H:m:s:ms)","GENERIC","62.043","0.020243916564442375","893"
"20:39:35:757 (H:m:s:ms)","GENERIC","62.059","0.018078979224389807","353"
"20:15:27:272 (H:m:s:ms)","GENERIC","62.083","0.037076323167382554","819"
"20:39:41:818 (H:m:s:ms)","GENERIC","62.017","0.027950849718747357","275"
"20:15:33:333 (H:m:s:ms)","GENERIC","62.069","0.03664662612862977","730"
"20:39:47:878 (H:m:s:ms)","GENERIC","62.071","0.028425340807103787","1188"
"20:15:39:393 (H:m:s:ms)","GENERIC","62.049","0.03577129853411206","734"
"20:39:53:939 (H:m:s:ms)","GENERIC","62.119","0.015521910488577734","1097"
"20:15:45:454 (H:m:s:ms)","GENERIC","62.047","0.023914448069028923","624"
"20:15:51:515 (H:m:s:ms)","GENERIC","62.073","0.05456912365246799","561"
"20:4:56:969 (H:m:s:ms)","GENERIC","31.013","0.07168604389202188","1109"
"20:5:3:30 (H:m:s:ms)","GENERIC","31.037","0.03557291243018248","1061"
"20:5:9:90 (H:m:s:ms)","GENERIC","31.059","0.038391703563326426","970"
"20:5:15:151 (H:m:s:ms)","GENERIC","31.025","0.028443872284371736","941"
"20:5:21:212 (H:m:s:ms)","GENERIC","31.016","0.010812809504674607","883"
"20:5:27:272 (H:m:s:ms)","GENERIC","31.037","0.037076323167382554","820"
"20:5:33:333 (H:m:s:ms)","GENERIC","31.026","0.03664662612862977","737"
"20:5:39:393 (H:m:s:ms)","GENERIC","31.02","0.03577129853411206","726"
"20:5:45:454 (H:m:s:ms)","GENERIC","31.02","0.01911254185602602","640"
"20:5:51:515 (H:m:s:ms)","GENERIC","31.044","0.040272829878793985","563"
"20:15:57:575 (H:m:s:ms)","GENERIC","62.105","0.03599099156626421","486"
"20:16:3:636 (H:m:s:ms)","GENERIC","62.097","0.0428827160478454","427"
"20:16:9:696 (H:m:s:ms)","GENERIC","62.031","0.042607887752920015","376"
"20:16:15:757 (H:m:s:ms)","GENERIC","62.111","0.042607887752920015","306"
"20:16:21:818 (H:m:s:ms)","GENERIC","62.063","0.09999999999999996","271"
"20:16:27:878 (H:m:s:ms)","GENERIC","62.115","0.04656573146573321","1142"
"20:16:33:939 (H:m:s:ms)","GENERIC","62.099","0.028396787688405936","1138"
"20:16:40:0 (H:m:s:ms)","GENERIC","62.099","0.07080854761617741","1139"
"20:16:46:60 (H:m:s:ms)","GENERIC","62.147","0.015320646925708486","991"
"20:16:52:121 (H:m:s:ms)","GENERIC","62.073","0.017719659302667633","984"
"20:5:57:575 (H:m:s:ms)","GENERIC","31.05","0.01891696259770321","489"
"20:6:3:636 (H:m:s:ms)","GENERIC","31.047","0.042477349958720004","429"
"20:6:9:696 (H:m:s:ms)","GENERIC","31.018","0.02855577172421421","366"
"20:6:15:757 (H:m:s:ms)","GENERIC","31.053","0.04250716069749206","307"
"20:6:21:818 (H:m:s:ms)","GENERIC","31.026","0.04999999999999998","277"
"20:6:27:878 (H:m:s:ms)","GENERIC","31.051","0.031043820977155467","144"
"20:6:33:939 (H:m:s:ms)","GENERIC","31.046","0.014198393844202968","1142"
"20:6:40:0 (H:m:s:ms)","GENERIC","31.045","0.037076323167382554","1114"
"20:6:46:60 (H:m:s:ms)","GENERIC","31.064","0.014277885862107056","1005"
"20:6:52:121 (H:m:s:ms)","GENERIC","31.042","0.0530890318541453","962"
"20:16:58:181 (H:m:s:ms)","GENERIC","62.029","0.03807886552931952","920"
"20:17:4:242 (H:m:s:ms)","GENERIC","62.061","0.03291893988477033","837"
"20:17:10:303 (H:m:s:ms)","GENERIC","62.065","0.023389146076652916","759"
"20:17:16:363 (H:m:s:ms)","GENERIC","62.073","0.012034707811133303","725"
"20:17:22:424 (H:m:s:ms)","GENERIC","62.107","0.021770200797714582","611"
"20:17:28:484 (H:m:s:ms)","GENERIC","62.061","0.04277365776756254","567"
"20:17:34:545 (H:m:s:ms)","GENERIC","62.059","0.03036477643402588","544"
"20:17:40:606 (H:m:s:ms)","GENERIC","62.115","0.014741134218990194","442"
"20:17:46:666 (H:m:s:ms)","GENERIC","62.101","0.04072055089639779","359"
"20:17:52:727 (H:m:s:ms)","GENERIC","62.073","0.023852305712008227","379"
"20:6:58:181 (H:m:s:ms)","GENERIC","31.025","0.03807886552931952","925"
"20:7:4:242 (H:m:s:ms)","GENERIC","31.028","0.02394686872024121","836"
"20:7:10:303 (H:m:s:ms)","GENERIC","31.041","0.03130648083066034","761"
"20:7:16:363 (H:m:s:ms)","GENERIC","31.031","0.023852305712008227","729"
"20:7:22:424 (H:m:s:ms)","GENERIC","31.044","0.021201074957551237","613"
"20:7:28:484 (H:m:s:ms)","GENERIC","31.037","0.07142857142857141","581"
"20:7:34:545 (H:m:s:ms)","GENERIC","31.032","0.03084214738770891","554"
"20:7:40:606 (H:m:s:ms)","GENERIC","31.059","0.028588477365230267","448"
"20:7:46:666 (H:m:s:ms)","GENERIC","31.045","0.02564364193873573","358"
"20:7:52:727 (H:m:s:ms)","GENERIC","31.048","0.03554401401394534","362"
"20:17:58:787 (H:m:s:ms)","GENERIC","62.077","0.028425340807103787","291"
"20:18:4:848 (H:m:s:ms)","GENERIC","62.057","0.014941345376266879","254"
"20:18:10:909 (H:m:s:ms)","GENERIC","62.127","0.04244125072573292","1153"
"20:18:16:969 (H:m:s:ms)","GENERIC","62.087","0.04419417382415919","1122"
"20:18:23:30 (H:m:s:ms)","GENERIC","62.117","0.042446609730820706","1005"
"20:18:29:90 (H:m:s:ms)","GENERIC","62.033","0.030331835412661046","1025"
"20:18:35:151 (H:m:s:ms)","GENERIC","62.091","0.02499999999999999","939"
"20:18:41:212 (H:m:s:ms)","GENERIC","62.069","0.030390298790410223","889"
"20:18:47:272 (H:m:s:ms)","GENERIC","62.053","0.03106910452842734","816"
"20:18:53:333 (H:m:s:ms)","GENERIC","31.017","0.02373932508635315","717"
"20:7:58:787 (H:m:s:ms)","GENERIC","31.041","0.014422205101855955","295"
"20:8:4:848 (H:m:s:ms)","GENERIC","31.024","0.028329889597880454","262"
"20:8:10:909 (H:m:s:ms)","GENERIC","31.057","0.028306532164228897","1157"
"20:8:16:969 (H:m:s:ms)","GENERIC","31.049","0.029462782549439497","1138"
"20:8:23:30 (H:m:s:ms)","GENERIC","31.064","0.042607887752920015","1007"
"20:8:29:90 (H:m:s:ms)","GENERIC","31.025","0.010423645551075887","1036"
"20:8:35:151 (H:m:s:ms)","GENERIC","31.045","0.019764235376052364","941"
"20:8:41:212 (H:m:s:ms)","GENERIC","31.029","0.02133048260098267","894"
"20:8:47:272 (H:m:s:ms)","GENERIC","31.03","0.046603656792641036","808"
"20:8:53:333 (H:m:s:ms)","GENERIC","31.014","0.03186887195995489","829"
"20:18:59:393 (H:m:s:ms)","GENERIC","62.077","0.017729893187101702","883"
"20:19:5:454 (H:m:s:ms)","GENERIC","62.133","0.022638462845343536","612"
"20:19:11:515 (H:m:s:ms)","GENERIC","62.093","0.04277365776756258","591"
"20:19:17:575 (H:m:s:ms)","GENERIC","62.083","0.036770107646382146","464"
"20:19:23:636 (H:m:s:ms)","GENERIC","62.049","0.03542021129563926","468"
"20:19:29:696 (H:m:s:ms)","GENERIC","62.087","0.014202629250973339","361"
"20:19:35:757 (H:m:s:ms)","GENERIC","62.095","0.05309310266899465","345"
"20:19:41:818 (H:m:s:ms)","GENERIC","62.041","0.019764235376052364","269"
"20:19:47:878 (H:m:s:ms)","GENERIC","62.069","0.04280186911806538","1186"
"20:19:53:939 (H:m:s:ms)","GENERIC","62.077","0.02338914607665298","1097"
"20:8:59:393 (H:m:s:ms)","GENERIC","31.044","0.015521910488577734","727"
"20:9:5:454 (H:m:s:ms)","GENERIC","31.06","0.019039432764659768","617"
"20:9:11:515 (H:m:s:ms)","GENERIC","31.061","0.028515771845041723","598"
"20:9:17:575 (H:m:s:ms)","GENERIC","31.042","0.032515476866065866","464"
"20:9:23:636 (H:m:s:ms)","GENERIC","31.024","0.07074313654502272","474"
"20:9:29:696 (H:m:s:ms)","GENERIC","31.039","0.028405258501946678","364"
"20:9:35:757 (H:m:s:ms)","GENERIC","31.051","0.018078979224389807","352"
"20:9:41:818 (H:m:s:ms)","GENERIC","31.025","0.03186887195995489","276"
"20:9:47:878 (H:m:s:ms)","GENERIC","31.038","0.028425340807103787","188"
"20:9:53:939 (H:m:s:ms)","GENERIC","31.035","0.04656573146573321","1100"
"21:41:24:848 (H:m:s:ms)","GENERIC","62.095","0.01800573674335976","241"
"21:41:18:787 (H:m:s:ms)","GENERIC","62.075","0.02682847390058404","302"
"21:41:12:727 (H:m:s:ms)","GENERIC","62.051","0.07693092581620718","347"
"21:41:6:666 (H:m:s:ms)","GENERIC","62.033","0.030413466050200677","424"
"21:41:0:606 (H:m:s:ms)","GENERIC","62.051","0.04072055089639779","442"
"21:40:54:545 (H:m:s:ms)","GENERIC","62.085","0.0178394359618821","556"
"21:40:48:484 (H:m:s:ms)","GENERIC","62.043","0.026694134109223475","579"
"21:41:43:30 (H:m:s:ms)","GENERIC","62.047","0.02263846284534352","1058"
"21:41:36:969 (H:m:s:ms)","GENERIC","31.015","0.020243916564442375","1128"
"21:41:30:909 (H:m:s:ms)","GENERIC","62.031","0.028329889597880454","1191"
