"time (H:m:s:ms)","type","latency","utilisation","waiting"
"21:43:1:818 (H:m:s:ms)","GENERIC","62.173","0.18467265838850028","188"
"21:42:43:636 (H:m:s:ms)","GENERIC","62.035","0.17716367255391552","370"
"21:42:37:575 (H:m:s:ms)","GENERIC","62.035","0.17651645148579645","431"
"21:42:31:515 (H:m:s:ms)","GENERIC","62.125","0.17542008624672728","492"
"21:42:25:454 (H:m:s:ms)","GENERIC","62.083","0.1808235825117855","553"
"21:42:19:393 (H:m:s:ms)","GENERIC","62.019","0.18453100616631465","649"
"21:42:13:333 (H:m:s:ms)","GENERIC","62.063","0.18480081120296482","674"
"21:42:7:272 (H:m:s:ms)","GENERIC","62.057","0.18480832237114836","735"
"21:42:1:212 (H:m:s:ms)","GENERIC","62.095","0.1838746210579494","794"
"21:42:55:757 (H:m:s:ms)","GENERIC","62.037","0.17971351107508296","250"
"21:42:49:696 (H:m:s:ms)","GENERIC","62.031","0.17750368548235773","346"
"21:44:8:484 (H:m:s:ms)","GENERIC","62.079","0.18842063486611527","522"
"21:44:2:424 (H:m:s:ms)","GENERIC","62.111","0.18966053953160972","583"
"21:43:50:303 (H:m:s:ms)","GENERIC","62.051","0.1866964334195769","705"
"20:0:0:0 (H:m:s:ms)","GENERIC","31.051","0.025025813119937814","1453"
"21:43:44:242 (H:m:s:ms)","GENERIC","62.085","0.18649111482013092","765"
"20:0:6:60 (H:m:s:ms)","GENERIC","31.06","0.04510202050616856","953"
"21:43:38:181 (H:m:s:ms)","GENERIC","62.081","0.1901156768012582","826"
"20:0:12:121 (H:m:s:ms)","GENERIC","31.025","0.04800412711841275","890"
"21:43:32:121 (H:m:s:ms)","GENERIC","62.075","0.19021729633505383","885"
"20:0:18:181 (H:m:s:ms)","GENERIC","31.036","0.051180943896902586","831"
"21:43:26:60 (H:m:s:ms)","GENERIC","62.147","0.18846146916920925","946"
"20:0:24:242 (H:m:s:ms)","GENERIC","31.046","0.05909690246165745","770"
"21:43:20:0 (H:m:s:ms)","GENERIC","62.103","0.1892914341847092","1042"
"20:0:30:303 (H:m:s:ms)","GENERIC","31.045","0.061263163241966186","708"
"21:43:13:939 (H:m:s:ms)","GENERIC","62.097","0.18823141178519243","1068"
"20:0:36:363 (H:m:s:ms)","GENERIC","31.047","0.06600972996067864","648"
"21:43:7:878 (H:m:s:ms)","GENERIC","62.043","0.18522164688715562","1128"
"20:0:42:424 (H:m:s:ms)","GENERIC","31.088","0.07638016026480118","589"
"21:10:42:424 (H:m:s:ms)","GENERIC","62.149","0.20287564213438727","583"
"20:0:48:484 (H:m:s:ms)","GENERIC","31.038","0.07732898760754854","528"
"21:10:48:484 (H:m:s:ms)","GENERIC","62.071","0.2029125666083705","522"
"21:10:54:545 (H:m:s:ms)","GENERIC","62.063","0.20315194175881307","461"
"21:11:0:606 (H:m:s:ms)","GENERIC","62.031","0.19989359626840875","400"
"21:11:6:666 (H:m:s:ms)","GENERIC","62.095","0.20132097106622535","340"
"21:11:12:727 (H:m:s:ms)","GENERIC","62.079","0.2018982199713783","280"
"21:11:18:787 (H:m:s:ms)","GENERIC","62.047","0.2017165119235198","219"
"21:11:24:848 (H:m:s:ms)","GENERIC","62.073","0.19861562748576914","159"
"21:43:56:363 (H:m:s:ms)","GENERIC","62.109","0.19083710082867314","643"
"21:11:30:909 (H:m:s:ms)","GENERIC","62.085","0.19859506822124778","1098"
"21:11:36:969 (H:m:s:ms)","GENERIC","62.045","0.19860448666362832","1037"
"21:25:57:575 (H:m:s:ms)","GENERIC","62.055","0.2678701998470991","438"
"21:45:15:151 (H:m:s:ms)","GENERIC","62.085","0.18561199410895812","856"
"21:45:9:90 (H:m:s:ms)","GENERIC","62.069","0.1862526459314551","954"
"21:45:3:30 (H:m:s:ms)","GENERIC","62.065","0.18566217170552027","975"
"21:44:56:969 (H:m:s:ms)","GENERIC","62.097","0.19411030300519203","1037"
"21:44:50:909 (H:m:s:ms)","GENERIC","62.043","0.19519778618738823","1097"
"21:44:44:848 (H:m:s:ms)","GENERIC","62.099","0.1957027981045772","159"
"21:44:38:787 (H:m:s:ms)","GENERIC","62.089","0.1955998391301593","218"
"21:44:32:727 (H:m:s:ms)","GENERIC","62.097","0.1951170825125824","279"
"21:44:26:666 (H:m:s:ms)","GENERIC","62.113","0.1977168447691846","340"
"21:44:20:606 (H:m:s:ms)","GENERIC","62.027","0.1977218351342793","400"
"21:11:43:30 (H:m:s:ms)","GENERIC","62.083","0.19873947742705733","976"
"21:44:14:545 (H:m:s:ms)","GENERIC","62.145","0.19280841273209962","461"
"21:11:49:90 (H:m:s:ms)","GENERIC","62.123","0.19765955805577345","953"
"21:11:55:151 (H:m:s:ms)","GENERIC","62.123","0.19212224633906907","855"
"21:12:1:212 (H:m:s:ms)","GENERIC","62.045","0.19179522853175932","796"
"21:12:7:272 (H:m:s:ms)","GENERIC","62.049","0.19344686053466398","734"
"21:12:13:333 (H:m:s:ms)","GENERIC","62.073","0.19507690578383283","673"
"21:12:19:393 (H:m:s:ms)","GENERIC","62.055","0.1902316440503347","648"
"21:12:25:454 (H:m:s:ms)","GENERIC","62.073","0.18797693410356003","552"
"21:12:31:515 (H:m:s:ms)","GENERIC","62.117","0.1880563449652371","491"
"21:12:37:575 (H:m:s:ms)","GENERIC","62.017","0.18756614038651673","431"
"21:26:40:0 (H:m:s:ms)","GENERIC","62.067","0.25201181389634375","1041"
"21:46:21:818 (H:m:s:ms)","GENERIC","62.147","0.18510804724346774","191"
"21:26:33:939 (H:m:s:ms)","GENERIC","62.031","0.2552907513785818","1068"
"21:46:15:757 (H:m:s:ms)","GENERIC","62.143","0.17987410876902604","250"
"21:46:9:696 (H:m:s:ms)","GENERIC","62.029","0.1802422112054125","346"
"21:46:3:636 (H:m:s:ms)","GENERIC","62.043","0.1845946220554925","371"
"21:26:27:341 (H:m:s:ms)","OPERA","62.015","0.2562267731912859","665"
"21:26:21:818 (H:m:s:ms)","GENERIC","62.159","0.2604353605923997","188"
"21:45:57:575 (H:m:s:ms)","GENERIC","62.041","0.18602800836242794","432"
"21:26:19:746 (H:m:s:ms)","OPERA","62.015","0.26028476545634627","292"
"21:45:51:515 (H:m:s:ms)","GENERIC","62.043","0.18584121449966562","491"
"21:26:15:757 (H:m:s:ms)","GENERIC","62.111","0.2591226043884719","250"
"21:45:45:454 (H:m:s:ms)","GENERIC","62.121","0.1871265407845212","552"
"21:26:12:151 (H:m:s:ms)","OPERA","62.019","0.2615961388194933","855"
"21:45:39:393 (H:m:s:ms)","GENERIC","62.053","0.18638280220094122","649"
"21:26:9:696 (H:m:s:ms)","GENERIC","62.047","0.2604401615897922","344"
"21:45:33:333 (H:m:s:ms)","GENERIC","62.073","0.18715095419017422","673"
"21:12:43:636 (H:m:s:ms)","GENERIC","62.049","0.18627488431175102","372"
"21:26:4:556 (H:m:s:ms)","OPERA","62.017","0.2688451173350414","449"
"21:45:27:272 (H:m:s:ms)","GENERIC","62.093","0.1882598977281106","734"
"21:12:49:696 (H:m:s:ms)","GENERIC","62.035","0.18922513365849203","347"
"21:26:3:636 (H:m:s:ms)","GENERIC","62.079","0.26617460233762547","372"
"21:45:21:212 (H:m:s:ms)","GENERIC","62.087","0.185531171758543","795"
"21:12:55:757 (H:m:s:ms)","GENERIC","62.053","0.19347351009000205","249"
"21:13:1:818 (H:m:s:ms)","GENERIC","62.181","0.19842464502751142","188"
"21:13:7:878 (H:m:s:ms)","GENERIC","62.029","0.19892141200070423","1128"
"21:13:13:939 (H:m:s:ms)","GENERIC","62.135","0.20362958044708235","1068"
"21:13:20:0 (H:m:s:ms)","GENERIC","62.131","0.20504861030870042","1043"
"21:13:26:60 (H:m:s:ms)","GENERIC","62.177","0.19791136607320955","947"
"21:13:32:121 (H:m:s:ms)","GENERIC","62.063","0.19949532106369466","885"
"21:13:38:181 (H:m:s:ms)","GENERIC","62.081","0.19980308874095523","825"
"21:26:27:878 (H:m:s:ms)","GENERIC","62.121","0.25610751249716934","1134"
"21:27:20:506 (H:m:s:ms)","OPERA","62.017","0.25298743437053184","500"
"21:47:28:484 (H:m:s:ms)","GENERIC","62.119","0.1846963468366908","523"
"21:27:16:363 (H:m:s:ms)","GENERIC","62.077","0.25407581613822655","643"
"21:47:22:424 (H:m:s:ms)","GENERIC","62.103","0.18542276807264013","582"
"21:27:12:911 (H:m:s:ms)","OPERA","62.017","0.2571074665960268","1095"
"21:47:16:363 (H:m:s:ms)","GENERIC","62.077","0.18622539038850724","643"
"21:47:10:303 (H:m:s:ms)","GENERIC","62.017","0.18298073947258053","703"
"21:47:4:242 (H:m:s:ms)","GENERIC","62.087","0.181906698908125","765"
"21:27:10:303 (H:m:s:ms)","GENERIC","62.051","0.24986223267667532","703"
"21:27:5:316 (H:m:s:ms)","OPERA","62.015","0.25025032318209567","689"
"21:27:4:242 (H:m:s:ms)","GENERIC","62.061","0.24937920956253917","764"
"21:46:58:181 (H:m:s:ms)","GENERIC","62.053","0.18364389102941184","825"
"21:26:58:181 (H:m:s:ms)","GENERIC","62.063","0.25439748356794606","824"
"21:46:52:121 (H:m:s:ms)","GENERIC","62.075","0.18641257008480097","886"
"21:26:57:721 (H:m:s:ms)","OPERA","62.017","0.25271591723223225","285"
"21:46:46:60 (H:m:s:ms)","GENERIC","62.027","0.1861460363116047","946"
"21:13:44:242 (H:m:s:ms)","GENERIC","62.071","0.19545351279708686","764"
"21:26:52:121 (H:m:s:ms)","GENERIC","62.081","0.25283498423898154","885"
"21:46:40:0 (H:m:s:ms)","GENERIC","62.097","0.18395493758979842","1043"
"21:13:50:303 (H:m:s:ms)","GENERIC","62.049","0.19184753926484246","702"
"21:26:46:60 (H:m:s:ms)","GENERIC","62.035","0.2540108128626983","945"
"21:46:33:939 (H:m:s:ms)","GENERIC","62.069","0.18333170114511332","1068"
"21:13:56:363 (H:m:s:ms)","GENERIC","62.139","0.1920793131041766","643"
"21:26:42:531 (H:m:s:ms)","OPERA","62.017","0.2543782697989786","475"
"21:46:27:878 (H:m:s:ms)","GENERIC","62.081","0.18385650350664115","1128"
"21:14:2:424 (H:m:s:ms)","GENERIC","62.089","0.19065731069565897","584"
"21:14:8:484 (H:m:s:ms)","GENERIC","62.079","0.18663029125631123","522"
"21:14:14:545 (H:m:s:ms)","GENERIC","62.195","0.18802603153848219","461"
"21:14:20:606 (H:m:s:ms)","GENERIC","62.039","0.19327450140661476","400"
"21:14:26:666 (H:m:s:ms)","GENERIC","62.111","0.19237527980715186","340"
"21:14:32:727 (H:m:s:ms)","GENERIC","62.051","0.19184040849407427","279"
"21:14:38:787 (H:m:s:ms)","GENERIC","62.085","0.18998899139976846","221"
"21:27:58:481 (H:m:s:ms)","OPERA","62.017","0.2484740799674575","525"
"21:48:35:151 (H:m:s:ms)","GENERIC","62.097","0.17801860859252286","855"
"21:27:52:727 (H:m:s:ms)","GENERIC","62.167","0.24979123215333301","281"
"21:48:29:90 (H:m:s:ms)","GENERIC","62.033","0.17903909008237334","952"
"21:27:50:886 (H:m:s:ms)","OPERA","62.017","0.24996672035570472","1120"
"21:48:23:30 (H:m:s:ms)","GENERIC","62.109","0.17854731562990134","977"
"21:27:46:666 (H:m:s:ms)","GENERIC","62.073","0.24786426727338276","340"
"21:48:16:969 (H:m:s:ms)","GENERIC","62.071","0.18385322057944636","1038"
"21:48:10:909 (H:m:s:ms)","GENERIC","62.139","0.1831636898470064","1098"
"21:48:4:848 (H:m:s:ms)","GENERIC","62.067","0.18315475041851595","159"
"21:27:43:291 (H:m:s:ms)","OPERA","62.017","0.2526774650541595","715"
"21:27:40:606 (H:m:s:ms)","GENERIC","62.149","0.25098701449756633","400"
"21:27:35:696 (H:m:s:ms)","OPERA","62.019","0.2541128976406993","310"
"21:47:58:787 (H:m:s:ms)","GENERIC","62.041","0.18584949029357883","219"
"21:14:44:848 (H:m:s:ms)","GENERIC","62.107","0.18768468308374056","159"
"21:27:34:545 (H:m:s:ms)","GENERIC","62.069","0.2520218275396301","461"
"21:47:52:727 (H:m:s:ms)","GENERIC","62.133","0.18513978841232395","280"
"21:14:50:909 (H:m:s:ms)","GENERIC","62.071","0.18809013407055636","1097"
"21:27:28:484 (H:m:s:ms)","GENERIC","62.107","0.2541427637525741","529"
"21:47:46:666 (H:m:s:ms)","GENERIC","62.103","0.18482386974843243","341"
"20:52:37:575 (H:m:s:ms)","GENERIC","62.041","0.22050156392012732","432"
"21:14:56:969 (H:m:s:ms)","GENERIC","62.091","0.18541947690902638","1038"
"21:27:28:101 (H:m:s:ms)","OPERA","62.017","0.2512232925286755","905"
"21:47:40:606 (H:m:s:ms)","GENERIC","62.111","0.1867594066668943","399"
"20:52:43:636 (H:m:s:ms)","GENERIC","62.033","0.2195069631921689","370"
"21:15:3:30 (H:m:s:ms)","GENERIC","62.073","0.17281727570731908","976"
"21:27:22:424 (H:m:s:ms)","GENERIC","62.133","0.25320876219295524","582"
"21:47:34:545 (H:m:s:ms)","GENERIC","62.053","0.18566945570740231","463"
"20:52:49:696 (H:m:s:ms)","GENERIC","62.059","0.21470992194873467","352"
"21:15:9:90 (H:m:s:ms)","GENERIC","62.083","0.17269518392378733","950"
"20:52:55:757 (H:m:s:ms)","GENERIC","62.037","0.21105166694102032","250"
"21:15:15:151 (H:m:s:ms)","GENERIC","62.089","0.17379530951829464","858"
"20:53:1:818 (H:m:s:ms)","GENERIC","62.147","0.21151584716235575","188"
"21:15:21:212 (H:m:s:ms)","GENERIC","62.117","0.1767567191987031","794"
"20:53:7:878 (H:m:s:ms)","GENERIC","62.063","0.2117059800984135","1129"
"21:15:27:272 (H:m:s:ms)","GENERIC","62.101","0.17956097344462968","734"
"20:53:13:939 (H:m:s:ms)","GENERIC","62.163","0.21577172070426803","1067"
"21:15:33:333 (H:m:s:ms)","GENERIC","62.095","0.1783482372905424","674"
"20:53:20:0 (H:m:s:ms)","GENERIC","62.157","0.2179045465185469","1047"
"21:15:39:393 (H:m:s:ms)","GENERIC","62.053","0.17569973792562796","647"
"20:53:26:60 (H:m:s:ms)","GENERIC","62.159","0.2146271173413765","946"
"20:53:32:121 (H:m:s:ms)","GENERIC","62.103","0.21454993870967345","885"
"21:28:35:151 (H:m:s:ms)","GENERIC","62.119","0.2535292901572513","855"
"21:49:41:818 (H:m:s:ms)","GENERIC","62.071","0.1733740546634114","188"
"21:28:29:90 (H:m:s:ms)","GENERIC","62.033","0.2538845123984641","950"
"21:49:35:757 (H:m:s:ms)","GENERIC","62.097","0.17321743307886478","249"
"21:28:28:860 (H:m:s:ms)","OPERA","62.017","0.2540938140618381","145"
"21:49:29:696 (H:m:s:ms)","GENERIC","62.059","0.1751560181745299","345"
"21:28:23:30 (H:m:s:ms)","GENERIC","62.079","0.24793590202094254","976"
"21:49:23:636 (H:m:s:ms)","GENERIC","62.049","0.17500226319326725","370"
"21:28:21:265 (H:m:s:ms)","OPERA","62.017","0.24732181278524093","741"
"21:49:17:575 (H:m:s:ms)","GENERIC","62.097","0.18022931350266316","431"
"21:49:11:515 (H:m:s:ms)","GENERIC","62.093","0.18546639327876255","492"
"21:49:5:454 (H:m:s:ms)","GENERIC","62.111","0.1857021572275555","552"
"21:28:16:969 (H:m:s:ms)","GENERIC","62.107","0.248582045823139","1037"
"21:15:45:454 (H:m:s:ms)","GENERIC","62.099","0.17694786284416156","552"
"21:28:13:670 (H:m:s:ms)","OPERA","31.01","0.25111974471198545","336"
"21:15:51:515 (H:m:s:ms)","GENERIC","62.047","0.17874255771452713","490"
"21:28:10:909 (H:m:s:ms)","GENERIC","62.141","0.24788836070412446","1097"
"21:48:59:393 (H:m:s:ms)","GENERIC","62.049","0.18396438922070357","649"
"20:53:38:181 (H:m:s:ms)","GENERIC","62.095","0.21359284921518648","825"
"21:15:57:575 (H:m:s:ms)","GENERIC","62.061","0.18043416109373034","432"
"21:28:6:75 (H:m:s:ms)","OPERA","31.01","0.24635201855277208","931"
"21:48:53:333 (H:m:s:ms)","GENERIC","62.057","0.18900626153366934","673"
"20:53:44:242 (H:m:s:ms)","GENERIC","62.077","0.21370734323731655","764"
"21:16:3:636 (H:m:s:ms)","GENERIC","62.093","0.1777054060794916","370"
"21:28:4:848 (H:m:s:ms)","GENERIC","62.059","0.24529910703842522","157"
"21:48:47:272 (H:m:s:ms)","GENERIC","62.073","0.18795839557947255","734"
"20:53:50:303 (H:m:s:ms)","GENERIC","62.023","0.21060781307200385","703"
"21:16:9:696 (H:m:s:ms)","GENERIC","62.047","0.1755693550772661","345"
"21:27:58:787 (H:m:s:ms)","GENERIC","62.041","0.24942294927478698","226"
"21:48:41:212 (H:m:s:ms)","GENERIC","62.119","0.1831805497765038","796"
"20:53:56:363 (H:m:s:ms)","GENERIC","62.163","0.20582253405326717","644"
"21:16:15:757 (H:m:s:ms)","GENERIC","62.093","0.17448597954236444","249"
"20:54:2:424 (H:m:s:ms)","GENERIC","62.063","0.19760151783603558","582"
"21:16:21:818 (H:m:s:ms)","GENERIC","62.151","0.17507528214454518","190"
"20:54:8:484 (H:m:s:ms)","GENERIC","62.101","0.19334408941486086","523"
"21:16:27:878 (H:m:s:ms)","GENERIC","62.095","0.17333643334380597","1128"
"20:54:14:545 (H:m:s:ms)","GENERIC","62.167","0.19785494344534338","461"
"21:16:33:939 (H:m:s:ms)","GENERIC","62.027","0.17083849663470027","1068"
"20:54:20:606 (H:m:s:ms)","GENERIC","62.069","0.1983123380237904","400"
"21:16:40:0 (H:m:s:ms)","GENERIC","62.067","0.17082909388215847","1041"
"20:54:26:666 (H:m:s:ms)","GENERIC","62.111","0.19703638260842596","342"
"20:54:32:727 (H:m:s:ms)","GENERIC","62.035","0.200517284390855","280"
"21:29:11:515 (H:m:s:ms)","GENERIC","62.079","0.2531012414511378","490"
"23:3:41:52 (H:m:s:ms)","AMBULANCE","62.085","0.019500294346287115","954"
"21:29:6:835 (H:m:s:ms)","OPERA","62.015","0.2538115764081337","170"
"22:33:41:52 (H:m:s:ms)","AMBULANCE","62.093","0.05003428180039376","955"
"21:29:5:454 (H:m:s:ms)","GENERIC","62.119","0.25320421146376637","552"
"22:6:18:947 (H:m:s:ms)","AMBULANCE","62.123","0.08490246519114426","1069"
"21:28:59:393 (H:m:s:ms)","GENERIC","62.053","0.2563570707793697","653"
"22:4:12:631 (H:m:s:ms)","AMBULANCE","62.045","0.07007861280163208","376"
"21:28:59:240 (H:m:s:ms)","OPERA","62.017","0.25655000138453715","800"
"22:3:41:52 (H:m:s:ms)","AMBULANCE","31.05","0.049516722496381886","954"
"21:28:53:333 (H:m:s:ms)","GENERIC","62.073","0.25452400040711437","673"
"22:2:37:894 (H:m:s:ms)","AMBULANCE","62.081","0.04293118823216168","1112"
"22:1:34:736 (H:m:s:ms)","AMBULANCE","62.157","0.03730996316162672","270"
"22:0:31:578 (H:m:s:ms)","AMBULANCE","62.061","0.012724737099066666","428"
"21:16:46:60 (H:m:s:ms)","GENERIC","62.017","0.16791432079466956","946"
"21:16:52:121 (H:m:s:ms)","GENERIC","62.089","0.1733259656197366","886"
"21:28:51:645 (H:m:s:ms)","OPERA","62.017","0.25464519488932885","361"
"20:54:38:787 (H:m:s:ms)","GENERIC","62.077","0.19826061362781308","219"
"21:16:58:181 (H:m:s:ms)","GENERIC","62.073","0.1778581782232139","826"
"21:28:47:272 (H:m:s:ms)","GENERIC","62.079","0.25622056893471645","734"
"20:54:44:848 (H:m:s:ms)","GENERIC","62.091","0.1973328538515726","159"
"21:17:4:242 (H:m:s:ms)","GENERIC","62.047","0.1778270218111761","765"
"21:28:44:50 (H:m:s:ms)","OPERA","62.017","0.2562919895933498","956"
"21:50:0:0 (H:m:s:ms)","GENERIC","62.075","0.17312867615124733","1042"
"20:54:50:909 (H:m:s:ms)","GENERIC","62.075","0.19585575097895708","1097"
"21:17:10:303 (H:m:s:ms)","GENERIC","62.071","0.17769418921205243","704"
"21:28:41:212 (H:m:s:ms)","GENERIC","62.097","0.25572277781496816","795"
"21:49:53:939 (H:m:s:ms)","GENERIC","62.053","0.17315991650674936","1067"
"20:54:56:969 (H:m:s:ms)","GENERIC","62.077","0.19469031329084402","1037"
"21:17:16:363 (H:m:s:ms)","GENERIC","62.087","0.1756680421064885","644"
"21:28:36:455 (H:m:s:ms)","OPERA","62.015","0.25461551563725643","550"
"21:49:47:878 (H:m:s:ms)","GENERIC","62.033","0.1735840923659969","1130"
"20:55:3:30 (H:m:s:ms)","GENERIC","62.063","0.1931686438009745","978"
"21:17:22:424 (H:m:s:ms)","GENERIC","62.145","0.17647848749065095","582"
"20:55:9:90 (H:m:s:ms)","GENERIC","62.063","0.18870955057625094","957"
"21:17:28:484 (H:m:s:ms)","GENERIC","62.119","0.17536451908944897","524"
"20:55:15:151 (H:m:s:ms)","GENERIC","62.093","0.1887327291871117","856"
"21:17:34:545 (H:m:s:ms)","GENERIC","62.085","0.17761855692482462","461"
"20:55:21:212 (H:m:s:ms)","GENERIC","62.097","0.1914645867864101","794"
"21:17:40:606 (H:m:s:ms)","GENERIC","62.177","0.18036703371088691","400"
"20:55:27:272 (H:m:s:ms)","GENERIC","62.141","0.19265554852072855","733"
"20:55:33:333 (H:m:s:ms)","GENERIC","62.067","0.19074905102655373","673"
"21:29:47:878 (H:m:s:ms)","GENERIC","62.039","0.2577445873907146","1128"
"21:29:44:810 (H:m:s:ms)","OPERA","62.017","0.25692948523566284","197"
"21:29:41:818 (H:m:s:ms)","GENERIC","62.045","0.2566579281469722","187"
"21:29:37:215 (H:m:s:ms)","OPERA","31.009","0.25648949647628916","791"
"21:29:35:757 (H:m:s:ms)","GENERIC","62.093","0.2550671005194204","248"
"21:29:29:696 (H:m:s:ms)","GENERIC","62.041","0.2553003845204346","352"
"21:29:29:620 (H:m:s:ms)","OPERA","31.011","0.2553493762527876","421"
"21:17:46:666 (H:m:s:ms)","GENERIC","62.077","0.17897556964613195","341"
"21:17:52:727 (H:m:s:ms)","GENERIC","62.185","0.17859308274725103","281"
"20:55:39:393 (H:m:s:ms)","GENERIC","62.061","0.1855183855458848","657"
"21:17:58:787 (H:m:s:ms)","GENERIC","62.037","0.1769672249861261","221"
"20:55:45:454 (H:m:s:ms)","GENERIC","62.131","0.1854426093439139","552"
"21:18:4:848 (H:m:s:ms)","GENERIC","62.045","0.1713105536808746","159"
"21:29:23:636 (H:m:s:ms)","GENERIC","62.079","0.25404253948449085","369"
"20:55:51:515 (H:m:s:ms)","GENERIC","62.079","0.18676811020669057","491"
"21:18:10:909 (H:m:s:ms)","GENERIC","62.139","0.1706634039536324","1098"
"21:29:22:25 (H:m:s:ms)","OPERA","62.017","0.2510255596214797","981"
"20:55:57:575 (H:m:s:ms)","GENERIC","62.089","0.19184926289179544","432"
"21:18:16:969 (H:m:s:ms)","GENERIC","62.119","0.17029385134436137","1037"
"21:29:17:575 (H:m:s:ms)","GENERIC","62.113","0.2531168530423598","431"
"24:3:41:52 (H:m:s:ms)","AMBULANCE","62.095","0.05007710104811103","955"
"20:56:3:636 (H:m:s:ms)","GENERIC","62.137","0.1875587182662503","370"
"21:18:23:30 (H:m:s:ms)","GENERIC","62.073","0.16863175842539185","978"
"21:29:14:430 (H:m:s:ms)","OPERA","62.017","0.25608410611269944","576"
"23:33:41:52 (H:m:s:ms)","AMBULANCE","62.067","0.05007710104811103","954"
"20:56:9:696 (H:m:s:ms)","GENERIC","62.015","0.1825643330595198","352"
"21:18:29:90 (H:m:s:ms)","GENERIC","62.011","0.16862885054096768","951"
"20:56:15:757 (H:m:s:ms)","GENERIC","62.109","0.1822007987576639","251"
"21:18:35:151 (H:m:s:ms)","GENERIC","62.115","0.16743180292909104","856"
"20:56:21:818 (H:m:s:ms)","GENERIC","62.157","0.18275959284023338","188"
"21:18:41:212 (H:m:s:ms)","GENERIC","62.115","0.1725478816273593","795"
"20:56:27:878 (H:m:s:ms)","GENERIC","62.055","0.17725361088081545","1128"
"20:56:33:939 (H:m:s:ms)","GENERIC","62.031","0.17264071498981634","1068"
"21:30:30:303 (H:m:s:ms)","GENERIC","62.101","0.2671594921467026","703"
"21:30:24:242 (H:m:s:ms)","GENERIC","62.115","0.2682082576989135","763"
"21:30:18:181 (H:m:s:ms)","GENERIC","62.121","0.2680464018723379","824"
"21:30:12:121 (H:m:s:ms)","GENERIC","62.085","0.26637346837607345","884"
"21:30:6:60 (H:m:s:ms)","GENERIC","62.111","0.27070147519066395","946"
"21:30:0:0 (H:m:s:ms)","GENERIC","62.101","0.26421171741638955","1040"
"21:30:0:0 (H:m:s:ms)","AMBULANCE","62.115","0.2688669503456536","1060"
"21:30:0:0 (H:m:s:ms)","GENERIC","62.061","0.2671007349871553","1054"
"21:18:47:272 (H:m:s:ms)","GENERIC","62.069","0.17755420567357544","734"
"21:18:53:333 (H:m:s:ms)","GENERIC","62.073","0.17637392512040329","674"
"20:56:40:0 (H:m:s:ms)","GENERIC","62.085","0.1712470446695707","1047"
"21:18:59:393 (H:m:s:ms)","GENERIC","62.075","0.17543455405290556","647"
"20:56:46:60 (H:m:s:ms)","GENERIC","62.047","0.17327322044680515","946"
"21:19:5:454 (H:m:s:ms)","GENERIC","62.123","0.1765598435153822","552"
"20:40:0:0 (H:m:s:ms)","OPERA","31.01","0.1744554702797358","1455"
"20:56:52:121 (H:m:s:ms)","GENERIC","62.071","0.17887997352630605","885"
"21:19:11:515 (H:m:s:ms)","GENERIC","62.065","0.17599231610683647","491"
"20:40:0:0 (H:m:s:ms)","GENERIC","62.103","0.1764557058400751","1462"
"20:56:58:181 (H:m:s:ms)","GENERIC","62.053","0.18394780793163557","825"
"21:19:17:575 (H:m:s:ms)","GENERIC","62.133","0.17433156109428033","432"
"21:30:0:0 (H:m:s:ms)","OPERA","31.011","0.26584783972562404","1047"
"20:40:0:0 (H:m:s:ms)","GENERIC","62.059","0.17716773491273252","1470"
"20:57:4:242 (H:m:s:ms)","GENERIC","62.089","0.18148330489487552","765"
"21:19:23:636 (H:m:s:ms)","GENERIC","62.069","0.16938515345620045","369"
"21:29:53:939 (H:m:s:ms)","GENERIC","62.035","0.26206938018958353","1068"
"20:40:6:60 (H:m:s:ms)","GENERIC","62.131","0.18250413133776813","946"
"20:57:10:303 (H:m:s:ms)","GENERIC","62.093","0.18134270478890946","703"
"21:19:29:696 (H:m:s:ms)","GENERIC","62.049","0.1695100045761985","344"
"21:29:52:405 (H:m:s:ms)","OPERA","31.01","0.25915634611905214","600"
"20:40:7:594 (H:m:s:ms)","OPERA","31.009","0.18357061684631476","420"
"20:57:16:363 (H:m:s:ms)","GENERIC","62.111","0.180741593694033","644"
"21:19:35:757 (H:m:s:ms)","GENERIC","62.083","0.16952031027819944","249"
"20:40:12:121 (H:m:s:ms)","GENERIC","62.061","0.1835368346728935","885"
"20:57:22:424 (H:m:s:ms)","GENERIC","62.147","0.1817758264860357","584"
"21:19:41:818 (H:m:s:ms)","GENERIC","62.045","0.1705570797834122","188"
"20:40:15:189 (H:m:s:ms)","OPERA","31.009","0.1851820294933808","817"
"20:57:28:484 (H:m:s:ms)","GENERIC","62.141","0.1853899903979702","522"
"20:40:18:181 (H:m:s:ms)","GENERIC","62.083","0.18556855013631834","825"
"20:57:34:545 (H:m:s:ms)","GENERIC","62.077","0.1866443255740235","462"
"20:40:22:784 (H:m:s:ms)","OPERA","31.01","0.1807825564139712","223"
"20:40:24:242 (H:m:s:ms)","GENERIC","62.079","0.18072972847860264","764"
"21:30:42:424 (H:m:s:ms)","GENERIC","62.119","0.26755191943727774","582"
"21:31:24:848 (H:m:s:ms)","GENERIC","62.063","0.2574896779808833","159"
"21:31:18:787 (H:m:s:ms)","GENERIC","62.037","0.2624795734189448","219"
"21:31:12:727 (H:m:s:ms)","GENERIC","62.079","0.2637754048088699","279"
"21:31:6:666 (H:m:s:ms)","GENERIC","62.087","0.26377648553054606","341"
"21:31:3:157 (H:m:s:ms)","AMBULANCE","62.073","0.2657942943554583","849"
"21:31:0:606 (H:m:s:ms)","GENERIC","62.047","0.26502111897189573","400"
"21:30:54:545 (H:m:s:ms)","GENERIC","62.083","0.26601809718694713","461"
"21:19:47:878 (H:m:s:ms)","GENERIC","62.033","0.17168150095784018","1129"
"21:30:48:484 (H:m:s:ms)","GENERIC","62.081","0.2675094011558085","522"
"21:19:53:939 (H:m:s:ms)","GENERIC","62.025","0.17178923929617346","1067"
"20:57:40:606 (H:m:s:ms)","GENERIC","62.135","0.18615769390823597","400"
"21:20:0:0 (H:m:s:ms)","OPERA","62.017","0.17167307933620737","1454"
"20:57:46:666 (H:m:s:ms)","GENERIC","62.105","0.18511166231382464","341"
"21:20:0:0 (H:m:s:ms)","GENERIC","62.061","0.17183146750716274","1462"
"20:40:30:303 (H:m:s:ms)","GENERIC","62.111","0.17501347398408604","704"
"20:57:52:727 (H:m:s:ms)","GENERIC","62.209","0.18504103651280038","281"
"21:20:0:0 (H:m:s:ms)","GENERIC","62.105","0.17461327184671246","1469"
"20:40:30:379 (H:m:s:ms)","OPERA","31.009","0.18001199320424116","635"
"20:57:58:787 (H:m:s:ms)","GENERIC","62.063","0.1833919293378184","219"
"21:20:6:60 (H:m:s:ms)","GENERIC","62.111","0.17632681407963335","947"
"20:40:36:363 (H:m:s:ms)","GENERIC","62.111","0.18421623800859765","652"
"20:58:4:848 (H:m:s:ms)","GENERIC","62.061","0.1823518632775127","159"
"21:20:7:594 (H:m:s:ms)","OPERA","62.017","0.17690621164797252","412"
"20:40:37:974 (H:m:s:ms)","OPERA","31.009","0.18643083783604017","1032"
"20:58:10:909 (H:m:s:ms)","GENERIC","62.121","0.181674957553005","1098"
"21:20:12:121 (H:m:s:ms)","GENERIC","62.089","0.1771932432695728","885"
"21:30:36:363 (H:m:s:ms)","GENERIC","62.111","0.2693506493011385","642"
"20:40:42:424 (H:m:s:ms)","GENERIC","62.127","0.18755064914402048","582"
"20:58:16:969 (H:m:s:ms)","GENERIC","62.103","0.17717461434307344","1038"
"21:20:15:189 (H:m:s:ms)","OPERA","62.015","0.17837458132856251","817"
"21:30:31:578 (H:m:s:ms)","AMBULANCE","62.019","0.2671280138171016","428"
"20:40:45:569 (H:m:s:ms)","OPERA","31.01","0.191071995794048","437"
"20:58:23:30 (H:m:s:ms)","GENERIC","62.075","0.17741583395116","977"
"21:20:18:181 (H:m:s:ms)","GENERIC","62.101","0.1781132194729469","825"
"20:40:48:484 (H:m:s:ms)","GENERIC","62.059","0.19165344578091834","522"
"20:58:29:90 (H:m:s:ms)","GENERIC","62.039","0.17866490332806448","957"
"20:40:53:164 (H:m:s:ms)","OPERA","31.01","0.18774821994230712","843"
"20:58:35:151 (H:m:s:ms)","GENERIC","62.111","0.1786451001069463","855"
"20:40:54:545 (H:m:s:ms)","GENERIC","62.097","0.1899669669713748","462"
"20:41:0:606 (H:m:s:ms)","GENERIC","62.043","0.1901787097175602","401"
"21:31:36:969 (H:m:s:ms)","GENERIC","62.059","0.258187428323494","1037"
"21:31:34:736 (H:m:s:ms)","AMBULANCE","62.127","0.2589797547022129","270"
"21:32:19:393 (H:m:s:ms)","GENERIC","62.027","0.24580468248085582","646"
"21:32:13:333 (H:m:s:ms)","GENERIC","62.071","0.24799997186681236","672"
"21:32:7:272 (H:m:s:ms)","GENERIC","62.053","0.24808021054778437","735"
"21:32:6:315 (H:m:s:ms)","AMBULANCE","62.055","0.2448611066193173","691"
"21:32:1:212 (H:m:s:ms)","GENERIC","62.079","0.24864941947740907","794"
"21:31:55:151 (H:m:s:ms)","GENERIC","62.153","0.2539305834937427","855"
"21:31:49:90 (H:m:s:ms)","GENERIC","62.085","0.2571137699083459","951"
"21:31:43:30 (H:m:s:ms)","GENERIC","62.081","0.2596795920870281","975"
"20:58:41:212 (H:m:s:ms)","GENERIC","62.119","0.17911659333725288","794"
"20:58:47:272 (H:m:s:ms)","GENERIC","62.067","0.17861096582953484","734"
"20:41:0:759 (H:m:s:ms)","OPERA","31.01","0.19328117088508426","255"
"20:58:53:333 (H:m:s:ms)","GENERIC","62.041","0.17814266383670885","674"
"20:41:6:666 (H:m:s:ms)","GENERIC","62.065","0.1950131081194528","341"
"20:58:59:393 (H:m:s:ms)","GENERIC","62.063","0.1770539356193549","655"
"20:41:8:354 (H:m:s:ms)","OPERA","31.009","0.1973417660439502","652"
"20:59:5:454 (H:m:s:ms)","GENERIC","62.129","0.17800169404066077","552"
"20:41:12:727 (H:m:s:ms)","GENERIC","62.075","0.2017224270011075","279"
"20:59:11:515 (H:m:s:ms)","GENERIC","62.083","0.1766991383657759","491"
"20:41:15:949 (H:m:s:ms)","OPERA","31.01","0.20326633554444404","1057"
"20:59:17:575 (H:m:s:ms)","GENERIC","62.105","0.17093383183390387","432"
"20:41:18:787 (H:m:s:ms)","GENERIC","62.091","0.2034865423120421","219"
"20:59:23:636 (H:m:s:ms)","GENERIC","62.041","0.1652508276877199","370"
"21:31:30:909 (H:m:s:ms)","GENERIC","62.057","0.2576855281961438","1097"
"20:41:23:544 (H:m:s:ms)","OPERA","31.01","0.20311801652304734","462"
"20:59:29:696 (H:m:s:ms)","GENERIC","62.047","0.1652197433254447","350"
"20:41:24:848 (H:m:s:ms)","GENERIC","62.125","0.20470908603902543","158"
"20:59:35:757 (H:m:s:ms)","GENERIC","62.095","0.15896700530871755","249"
"20:41:30:909 (H:m:s:ms)","GENERIC","62.131","0.20456751556908875","1098"
"20:41:31:139 (H:m:s:ms)","OPERA","31.01","0.2057891212642644","875"
"20:59:41:818 (H:m:s:ms)","GENERIC","62.081","0.15922716602262413","188"
"20:59:47:878 (H:m:s:ms)","GENERIC","62.019","0.15906022696765604","1131"
"20:41:36:969 (H:m:s:ms)","GENERIC","62.083","0.20162635611513002","1038"
"20:59:53:939 (H:m:s:ms)","GENERIC","62.047","0.16100279614606813","1067"
"20:41:43:30 (H:m:s:ms)","GENERIC","62.065","0.20292077609249926","976"
"21:0:0:0 (H:m:s:ms)","AMBULANCE","31.036","0.15962286231476497","1472"
"20:41:46:329 (H:m:s:ms)","OPERA","31.01","0.20560502063319847","677"
"21:0:0:0 (H:m:s:ms)","GENERIC","62.083","0.1606919878509101","1479"
"20:41:49:90 (H:m:s:ms)","GENERIC","62.089","0.20397132048946628","951"
"21:0:0:0 (H:m:s:ms)","GENERIC","62.091","0.16378486943864728","1487"
"20:41:53:924 (H:m:s:ms)","OPERA","31.011","0.2051525354150667","1083"
"21:0:6:60 (H:m:s:ms)","GENERIC","62.095","0.16603710482919837","946"
"20:41:55:151 (H:m:s:ms)","GENERIC","62.091","0.20519670870021917","857"
"21:0:12:121 (H:m:s:ms)","GENERIC","62.077","0.1657723304065824","886"
"20:42:1:212 (H:m:s:ms)","GENERIC","62.039","0.20408890196436075","794"
"21:0:18:181 (H:m:s:ms)","GENERIC","62.085","0.17214265428384531","830"
"20:42:7:272 (H:m:s:ms)","GENERIC","62.055","0.20502172932451315","734"
"21:0:24:242 (H:m:s:ms)","GENERIC","62.077","0.16632003757045252","765"
"20:42:9:113 (H:m:s:ms)","OPERA","31.011","0.20529807666147962","928"
"20:42:13:333 (H:m:s:ms)","GENERIC","62.049","0.20529338477291667","673"
"21:0:30:303 (H:m:s:ms)","GENERIC","62.085","0.16485639561890317","703"
"21:0:31:578 (H:m:s:ms)","AMBULANCE","31.017","0.16481046914808475","428"
"20:42:16:708 (H:m:s:ms)","OPERA","31.01","0.20623209738363868","298"
"21:0:36:363 (H:m:s:ms)","GENERIC","62.109","0.16951220739193026","643"
"20:42:19:393 (H:m:s:ms)","GENERIC","62.029","0.20866256411547784","648"
"21:0:42:424 (H:m:s:ms)","GENERIC","62.147","0.17085392375795982","582"
"20:20:0:0 (H:m:s:ms)","GENERIC","62.077","0.1629288932827929","1469"
"20:42:24:303 (H:m:s:ms)","OPERA","31.011","0.21014564881128892","703"
"21:0:48:484 (H:m:s:ms)","GENERIC","62.053","0.17169822369518237","522"
"20:20:0:0 (H:m:s:ms)","GENERIC","62.079","0.16458478303900395","1476"
"20:42:25:454 (H:m:s:ms)","GENERIC","62.019","0.21290091972276115","553"
"21:0:54:545 (H:m:s:ms)","GENERIC","62.071","0.1773066265451534","463"
"20:20:6:60 (H:m:s:ms)","GENERIC","62.141","0.16713940019278764","947"
"20:42:31:515 (H:m:s:ms)","GENERIC","62.119","0.21131169400246377","491"
"21:1:0:606 (H:m:s:ms)","GENERIC","62.031","0.17363477838818012","401"
"20:20:12:121 (H:m:s:ms)","GENERIC","62.011","0.1665247387937405","885"
"20:42:31:898 (H:m:s:ms)","OPERA","31.01","0.2113667051167119","115"
"21:1:3:157 (H:m:s:ms)","AMBULANCE","31.062","0.18095110824805538","850"
"20:20:18:181 (H:m:s:ms)","GENERIC","62.051","0.17213671011790851","826"
"20:42:37:575 (H:m:s:ms)","GENERIC","62.055","0.21100092059985048","431"
"21:1:6:666 (H:m:s:ms)","GENERIC","62.085","0.18081722775701797","340"
"20:20:24:242 (H:m:s:ms)","GENERIC","62.075","0.17237745839881213","765"
"20:42:39:493 (H:m:s:ms)","OPERA","31.009","0.2138753775063155","549"
"21:1:12:727 (H:m:s:ms)","GENERIC","62.085","0.1821172813465428","279"
"20:20:30:303 (H:m:s:ms)","GENERIC","62.103","0.17236005640630772","704"
"20:42:43:636 (H:m:s:ms)","GENERIC","62.029","0.21285724268966746","370"
"20:20:36:363 (H:m:s:ms)","GENERIC","62.077","0.17736149107991117","644"
"20:42:47:88 (H:m:s:ms)","OPERA","31.01","0.21412453494327438","918"
"20:20:42:424 (H:m:s:ms)","GENERIC","62.131","0.17838123002917766","582"
"20:20:48:484 (H:m:s:ms)","GENERIC","62.083","0.17999075041427143","522"
"21:1:18:787 (H:m:s:ms)","GENERIC","62.065","0.1819225870182737","220"
"21:1:24:848 (H:m:s:ms)","GENERIC","62.089","0.1862504102126753","158"
"20:42:49:696 (H:m:s:ms)","GENERIC","62.037","0.21494399044839685","349"
"21:1:30:909 (H:m:s:ms)","GENERIC","62.109","0.18824955229634732","1098"
"20:42:54:683 (H:m:s:ms)","OPERA","31.01","0.21737629358998525","323"
"21:1:34:736 (H:m:s:ms)","AMBULANCE","31.054","0.19381133572313614","270"
"20:20:54:545 (H:m:s:ms)","GENERIC","62.129","0.1837533223286093","462"
"20:42:55:757 (H:m:s:ms)","GENERIC","62.023","0.21799802878996363","250"
"21:1:36:969 (H:m:s:ms)","GENERIC","62.043","0.1933955661720386","1037"
"20:21:0:606 (H:m:s:ms)","GENERIC","62.075","0.18329549647761578","400"
"20:43:1:818 (H:m:s:ms)","GENERIC","62.139","0.22201791505504764","188"
"21:1:43:30 (H:m:s:ms)","GENERIC","62.071","0.19494272031396861","976"
"20:21:6:666 (H:m:s:ms)","GENERIC","62.057","0.18520449665001965","340"
"20:43:2:278 (H:m:s:ms)","OPERA","31.009","0.22631074876819765","728"
"21:1:49:90 (H:m:s:ms)","GENERIC","62.103","0.19446614682554592","957"
"20:21:12:727 (H:m:s:ms)","GENERIC","62.051","0.1861492425672057","279"
"20:43:7:878 (H:m:s:ms)","GENERIC","62.079","0.2263691353612875","1128"
"21:1:55:151 (H:m:s:ms)","GENERIC","62.119","0.189305416176326","855"
"20:21:18:787 (H:m:s:ms)","GENERIC","62.085","0.18573610447317077","219"
"20:43:9:873 (H:m:s:ms)","OPERA","31.01","0.23103143009198543","169"
"21:2:1:212 (H:m:s:ms)","GENERIC","62.025","0.18681450398031918","795"
"20:21:24:848 (H:m:s:ms)","GENERIC","62.089","0.18749389869503888","159"
"20:43:13:939 (H:m:s:ms)","GENERIC","62.183","0.2329761859921235","1068"
"21:2:6:315 (H:m:s:ms)","AMBULANCE","31.027","0.1866257292416917","691"
"20:21:30:909 (H:m:s:ms)","GENERIC","62.131","0.19239307625674867","1097"
"20:43:17:468 (H:m:s:ms)","OPERA","31.01","0.233001483555623","537"
"20:21:36:969 (H:m:s:ms)","GENERIC","62.067","0.1929597480860753","1037"
"20:43:20:0 (H:m:s:ms)","GENERIC","62.157","0.23500748513564837","1043"
"20:21:43:30 (H:m:s:ms)","GENERIC","62.051","0.19318700379088027","976"
"20:21:49:90 (H:m:s:ms)","GENERIC","62.101","0.19384676735720907","950"
"20:43:25:63 (H:m:s:ms)","OPERA","31.011","0.2410968463705941","943"
"20:43:26:60 (H:m:s:ms)","GENERIC","62.141","0.24159679068784212","945"
"20:21:55:151 (H:m:s:ms)","GENERIC","62.133","0.19226173155349185","855"
"20:43:32:121 (H:m:s:ms)","GENERIC","62.127","0.24192296533410798","886"
"20:22:1:212 (H:m:s:ms)","GENERIC","62.083","0.19205848538429707","794"
"20:43:32:658 (H:m:s:ms)","OPERA","31.009","0.241781806789463","355"
"20:22:7:272 (H:m:s:ms)","GENERIC","62.061","0.19691505976778187","734"
"20:43:38:181 (H:m:s:ms)","GENERIC","62.085","0.24156682806728888","825"
"20:22:13:333 (H:m:s:ms)","GENERIC","62.033","0.19534082953393125","673"
"20:43:40:253 (H:m:s:ms)","OPERA","31.01","0.24272394624804292","753"
"20:22:19:393 (H:m:s:ms)","GENERIC","62.023","0.19496131509272668","647"
"20:43:44:242 (H:m:s:ms)","GENERIC","62.073","0.24583818678291078","765"
"20:22:25:454 (H:m:s:ms)","GENERIC","62.041","0.19291227211893738","552"
"20:43:47:848 (H:m:s:ms)","OPERA","31.009","0.24896764384520145","158"
"20:22:31:515 (H:m:s:ms)","GENERIC","62.107","0.1884194245062734","492"
"20:43:50:303 (H:m:s:ms)","GENERIC","62.031","0.25043253831479095","703"
"20:22:37:575 (H:m:s:ms)","GENERIC","62.083","0.18894644962231433","431"
"20:43:55:443 (H:m:s:ms)","OPERA","31.009","0.2513717067748757","563"
"20:22:43:636 (H:m:s:ms)","GENERIC","62.059","0.1924723187944159","370"
"20:22:49:696 (H:m:s:ms)","GENERIC","62.029","0.1952888082591039","344"
"20:43:56:363 (H:m:s:ms)","GENERIC","62.177","0.25155247708733663","642"
"20:44:2:424 (H:m:s:ms)","GENERIC","62.065","0.25188156642664455","581"
"20:22:55:757 (H:m:s:ms)","GENERIC","62.027","0.19759956141626647","249"
"20:44:3:37 (H:m:s:ms)","OPERA","31.011","0.25342169579641316","969"
"20:23:1:818 (H:m:s:ms)","GENERIC","62.117","0.20138590581547688","190"
"20:44:8:484 (H:m:s:ms)","GENERIC","62.103","0.25053196908708303","521"
"20:23:7:878 (H:m:s:ms)","GENERIC","62.119","0.20175107337396517","1128"
"20:44:10:632 (H:m:s:ms)","OPERA","31.009","0.2514674092320694","374"
"20:23:13:939 (H:m:s:ms)","GENERIC","62.169","0.20603861645982172","1067"
"20:44:14:545 (H:m:s:ms)","GENERIC","62.147","0.2545988757708229","460"
"20:23:20:0 (H:m:s:ms)","GENERIC","62.125","0.20651182044967953","1041"
"20:44:18:227 (H:m:s:ms)","OPERA","31.009","0.2564111039125881","779"
"20:23:26:60 (H:m:s:ms)","GENERIC","62.111","0.2061028039389565","946"
"20:44:20:606 (H:m:s:ms)","GENERIC","62.073","0.2565207028235677","400"
"20:23:32:121 (H:m:s:ms)","GENERIC","62.129","0.20517391153123665","885"
"20:44:25:822 (H:m:s:ms)","OPERA","31.009","0.2550839905349474","183"
"20:23:38:181 (H:m:s:ms)","GENERIC","62.089","0.2044945124142575","825"
"20:44:26:666 (H:m:s:ms)","GENERIC","62.101","0.25542987765270714","339"
"20:23:44:242 (H:m:s:ms)","GENERIC","62.071","0.20573042510033893","765"
"20:23:50:303 (H:m:s:ms)","GENERIC","62.037","0.20314778468194095","703"
"20:44:32:727 (H:m:s:ms)","GENERIC","62.041","0.25535075634321963","279"
"20:44:33:417 (H:m:s:ms)","OPERA","31.009","0.256041722546135","589"
"20:23:56:363 (H:m:s:ms)","GENERIC","62.163","0.20273448372549557","643"
"20:44:38:787 (H:m:s:ms)","GENERIC","62.079","0.25456909528565097","218"
"20:24:2:424 (H:m:s:ms)","GENERIC","62.071","0.20615645072654284","582"
"20:44:44:848 (H:m:s:ms)","GENERIC","62.097","0.25393320700710975","158"
"20:24:8:484 (H:m:s:ms)","GENERIC","62.101","0.2047661341217773","522"
"20:44:48:607 (H:m:s:ms)","OPERA","31.011","0.255358194367843","398"
"20:24:14:545 (H:m:s:ms)","GENERIC","62.119","0.20836121285924583","461"
"20:44:50:909 (H:m:s:ms)","GENERIC","62.069","0.2524621568171156","1097"
"20:24:20:606 (H:m:s:ms)","GENERIC","62.069","0.20927600918055297","400"
"20:44:56:202 (H:m:s:ms)","OPERA","31.009","0.2524053885140929","804"
"20:24:26:666 (H:m:s:ms)","GENERIC","62.099","0.20555988660028485","339"
"20:44:56:969 (H:m:s:ms)","GENERIC","62.081","0.25239119629930223","1044"
"20:24:32:727 (H:m:s:ms)","GENERIC","62.059","0.2062131460610312","284"
"20:45:3:30 (H:m:s:ms)","GENERIC","62.061","0.24889753817833643","975"
"20:24:38:787 (H:m:s:ms)","GENERIC","62.061","0.20575959405480043","218"
"20:45:3:797 (H:m:s:ms)","OPERA","31.01","0.2514436531234806","215"
"20:24:44:848 (H:m:s:ms)","GENERIC","62.139","0.2036550430689315","159"
"20:24:50:909 (H:m:s:ms)","GENERIC","62.077","0.203388292581543","1097"
"20:45:9:90 (H:m:s:ms)","GENERIC","62.045","0.2477346708154048","952"
"20:45:11:392 (H:m:s:ms)","OPERA","31.009","0.24927359748236214","614"
"20:24:56:969 (H:m:s:ms)","GENERIC","62.069","0.20118651090816722","1037"
"20:45:15:151 (H:m:s:ms)","GENERIC","62.085","0.2494053203705176","855"
"20:25:3:30 (H:m:s:ms)","GENERIC","62.053","0.19959245117278876","976"
"20:45:18:987 (H:m:s:ms)","OPERA","31.009","0.2538758040766692","1058"
"20:25:9:90 (H:m:s:ms)","GENERIC","62.051","0.19874357952591012","950"
"20:45:21:212 (H:m:s:ms)","GENERIC","62.107","0.2570197370535024","794"
"20:25:15:151 (H:m:s:ms)","GENERIC","62.091","0.19877112690762483","855"
"20:45:26:582 (H:m:s:ms)","OPERA","31.01","0.2571807542213128","424"
"20:25:21:212 (H:m:s:ms)","GENERIC","62.123","0.19405277495100376","795"
"20:45:27:272 (H:m:s:ms)","GENERIC","62.121","0.2608313710874662","734"
"20:25:27:272 (H:m:s:ms)","GENERIC","62.079","0.1963560059937851","734"
"20:45:33:333 (H:m:s:ms)","GENERIC","62.053","0.2583727147302036","673"
"20:25:33:333 (H:m:s:ms)","GENERIC","62.055","0.19641571874636757","674"
"20:45:34:177 (H:m:s:ms)","OPERA","31.01","0.25997688387386486","829"
"20:25:39:393 (H:m:s:ms)","GENERIC","62.043","0.19161177683939484","648"
"20:45:39:393 (H:m:s:ms)","GENERIC","62.055","0.25574483944922366","649"
"20:25:45:454 (H:m:s:ms)","GENERIC","62.161","0.19381246076288236","552"
"20:25:51:515 (H:m:s:ms)","GENERIC","62.043","0.19686541847813896","492"
"20:25:57:575 (H:m:s:ms)","GENERIC","62.075","0.1921654030232788","431"
"20:26:3:636 (H:m:s:ms)","GENERIC","62.105","0.18791734764934187","370"
"20:26:9:696 (H:m:s:ms)","GENERIC","62.043","0.18588402013268235","343"
"20:26:15:757 (H:m:s:ms)","GENERIC","62.077","0.18554986594225384","249"
"20:26:21:818 (H:m:s:ms)","GENERIC","62.145","0.18609159816132143","189"
"20:26:27:878 (H:m:s:ms)","GENERIC","62.045","0.18119002333451073","1128"
"20:26:33:939 (H:m:s:ms)","GENERIC","62.061","0.18120239040790959","1068"
"20:26:40:0 (H:m:s:ms)","GENERIC","62.051","0.17969946297827138","1042"
"20:26:46:60 (H:m:s:ms)","GENERIC","62.081","0.17647101784641442","946"
"20:26:52:121 (H:m:s:ms)","GENERIC","62.067","0.17677613649377805","886"
"20:26:58:181 (H:m:s:ms)","GENERIC","62.023","0.17863365794424005","825"
"20:27:4:242 (H:m:s:ms)","GENERIC","62.123","0.1779814921406481","764"
"20:27:10:303 (H:m:s:ms)","GENERIC","62.089","0.17266135185206466","703"
"20:27:16:363 (H:m:s:ms)","GENERIC","62.099","0.1692073528441413","644"
"20:27:22:424 (H:m:s:ms)","GENERIC","62.109","0.17015080381427794","587"
"20:27:28:484 (H:m:s:ms)","GENERIC","62.141","0.17295179408398986","522"
"20:27:34:545 (H:m:s:ms)","GENERIC","62.053","0.1775496413256503","461"
"20:27:40:606 (H:m:s:ms)","GENERIC","62.107","0.17796725245967498","400"
"20:27:46:666 (H:m:s:ms)","GENERIC","62.153","0.17310714008913475","340"
"20:27:52:727 (H:m:s:ms)","GENERIC","62.163","0.17260697970167782","280"
"20:27:58:787 (H:m:s:ms)","GENERIC","62.073","0.1720191201687528","219"
"20:28:4:848 (H:m:s:ms)","GENERIC","62.041","0.16663659216491544","159"
"20:28:10:909 (H:m:s:ms)","GENERIC","62.117","0.1683943896408688","1098"
"20:28:16:969 (H:m:s:ms)","GENERIC","62.071","0.16348731585280724","1039"
"20:28:23:30 (H:m:s:ms)","GENERIC","62.081","0.1634967260781764","976"
"20:28:29:90 (H:m:s:ms)","GENERIC","62.083","0.16283534120084692","950"
"20:28:35:151 (H:m:s:ms)","GENERIC","62.055","0.1628396348199367","855"
"20:28:41:212 (H:m:s:ms)","GENERIC","62.117","0.16380355153524476","797"
"20:28:47:272 (H:m:s:ms)","GENERIC","62.045","0.16504427476093025","734"
"20:28:53:333 (H:m:s:ms)","GENERIC","62.055","0.1718543233415345","673"
"20:28:59:393 (H:m:s:ms)","GENERIC","62.061","0.17123423264489523","648"
"20:29:5:454 (H:m:s:ms)","GENERIC","62.147","0.16838387564386598","552"
"20:29:11:515 (H:m:s:ms)","GENERIC","62.091","0.16969897882948162","492"
"20:29:17:575 (H:m:s:ms)","GENERIC","62.103","0.16369468679352867","432"
"20:29:23:636 (H:m:s:ms)","GENERIC","62.021","0.1667026263439354","371"
"20:29:29:696 (H:m:s:ms)","GENERIC","62.069","0.16549112925207182","345"
"20:29:35:757 (H:m:s:ms)","GENERIC","62.119","0.16347406422746844","249"
"20:29:41:818 (H:m:s:ms)","GENERIC","62.041","0.16390276337694026","188"
"20:29:47:878 (H:m:s:ms)","GENERIC","62.055","0.16515795000935815","1129"
"20:29:53:939 (H:m:s:ms)","GENERIC","62.083","0.1670228570851144","1072"
"24:33:41:52 (H:m:s:ms)","AMBULANCE","62.151","0.02506849327903871","955"
"21:20:22:784 (H:m:s:ms)","OPERA","62.017","0.17434496397610283","223"
"21:20:24:242 (H:m:s:ms)","GENERIC","62.095","0.17487377087756528","764"
"21:20:30:303 (H:m:s:ms)","GENERIC","62.099","0.17174275567209768","704"
"21:20:30:379 (H:m:s:ms)","OPERA","62.017","0.17408469440713265","639"
"21:20:36:363 (H:m:s:ms)","GENERIC","62.099","0.17520309767916437","643"
"21:20:37:974 (H:m:s:ms)","OPERA","62.017","0.17515674285985028","1032"
"21:20:42:424 (H:m:s:ms)","GENERIC","62.135","0.17517763649431434","584"
"21:20:45:569 (H:m:s:ms)","OPERA","62.015","0.17846985329456164","438"
"21:20:48:484 (H:m:s:ms)","GENERIC","62.071","0.17818839801154174","523"
"21:20:53:164 (H:m:s:ms)","OPERA","62.015","0.17894659395464949","843"
"21:20:54:545 (H:m:s:ms)","GENERIC","62.071","0.18260211000961518","461"
"21:21:0:606 (H:m:s:ms)","GENERIC","62.043","0.18784713410905757","409"
"21:21:0:759 (H:m:s:ms)","OPERA","62.017","0.18285429932040886","249"
"21:21:6:666 (H:m:s:ms)","GENERIC","62.101","0.19237917887836242","339"
"21:21:8:354 (H:m:s:ms)","OPERA","62.017","0.1950282629262451","652"
"21:21:12:727 (H:m:s:ms)","GENERIC","62.077","0.1954728112136403","279"
"21:21:15:949 (H:m:s:ms)","OPERA","62.015","0.1997513492687798","1058"
"21:21:18:787 (H:m:s:ms)","GENERIC","62.027","0.1996403480328512","219"
"21:21:23:544 (H:m:s:ms)","OPERA","62.017","0.2034927985995159","462"
"21:21:24:848 (H:m:s:ms)","GENERIC","62.055","0.20795085369909228","158"
"21:33:13:939 (H:m:s:ms)","GENERIC","62.117","0.23297740351234617","1067"
"21:33:1:818 (H:m:s:ms)","GENERIC","62.191","0.2434023642165407","190"
"21:32:55:757 (H:m:s:ms)","GENERIC","62.051","0.24373553443641316","250"
"21:32:49:696 (H:m:s:ms)","GENERIC","62.039","0.24347674830003443","344"
"21:32:43:636 (H:m:s:ms)","GENERIC","62.039","0.24016204060769758","370"
"21:32:37:894 (H:m:s:ms)","AMBULANCE","62.037","0.23735214896531837","1119"
"21:32:37:575 (H:m:s:ms)","GENERIC","62.027","0.23694818529382286","431"
"21:32:31:515 (H:m:s:ms)","GENERIC","62.119","0.2377295916022296","491"
"21:21:30:909 (H:m:s:ms)","GENERIC","62.073","0.20925736911880907","1097"
"21:32:25:454 (H:m:s:ms)","GENERIC","62.079","0.24353425516917243","552"
"21:21:31:139 (H:m:s:ms)","OPERA","62.019","0.21015065867319963","874"
"21:21:36:969 (H:m:s:ms)","GENERIC","62.047","0.2106554433077543","1036"
"21:21:38:734 (H:m:s:ms)","OPERA","31.01","0.21098946303570693","272"
"21:21:43:30 (H:m:s:ms)","GENERIC","62.091","0.21408250355149053","976"
"21:21:46:329 (H:m:s:ms)","OPERA","62.019","0.21526163060082937","677"
"21:21:49:90 (H:m:s:ms)","GENERIC","62.103","0.21531777001962576","950"
"21:21:53:924 (H:m:s:ms)","OPERA","62.017","0.21531471961721899","1082"
"21:33:9:473 (H:m:s:ms)","AMBULANCE","62.103","0.23557484606487875","567"
"21:21:55:151 (H:m:s:ms)","GENERIC","62.135","0.21519160254889905","855"
"21:33:7:878 (H:m:s:ms)","GENERIC","62.029","0.2339647768622816","1127"
"21:22:1:212 (H:m:s:ms)","GENERIC","62.063","0.2145782901226243","794"
"21:34:14:545 (H:m:s:ms)","GENERIC","62.165","0.23219505678528685","462"
"21:34:12:631 (H:m:s:ms)","AMBULANCE","62.029","0.22845696366913312","375"
"21:34:2:424 (H:m:s:ms)","GENERIC","62.115","0.2292343037263686","582"
"21:33:56:363 (H:m:s:ms)","GENERIC","62.117","0.22767219373610056","644"
"21:33:50:303 (H:m:s:ms)","GENERIC","62.051","0.22455843464274386","703"
"21:33:44:242 (H:m:s:ms)","GENERIC","62.077","0.22885222075998932","764"
"21:33:38:181 (H:m:s:ms)","GENERIC","62.073","0.22971070180625305","825"
"21:33:32:121 (H:m:s:ms)","GENERIC","62.063","0.23444989995980653","885"
"21:22:1:518 (H:m:s:ms)","OPERA","31.01","0.22179877582781554","494"
"21:33:26:60 (H:m:s:ms)","GENERIC","62.159","0.23305548703048795","946"
"21:22:7:272 (H:m:s:ms)","GENERIC","62.055","0.22249744863297646","734"
"21:33:20:0 (H:m:s:ms)","GENERIC","62.117","0.2338330304809767","1042"
"21:22:9:113 (H:m:s:ms)","OPERA","31.011","0.22760975535267627","928"
"21:22:13:333 (H:m:s:ms)","GENERIC","62.075","0.22889201972494824","673"
"21:22:16:708 (H:m:s:ms)","OPERA","62.017","0.2317310889454821","299"
"21:22:19:393 (H:m:s:ms)","GENERIC","62.039","0.22959082109971138","645"
"21:22:24:303 (H:m:s:ms)","OPERA","31.01","0.22820886245582833","703"
"21:22:25:454 (H:m:s:ms)","GENERIC","62.079","0.22877189248856827","552"
"21:22:31:515 (H:m:s:ms)","GENERIC","62.125","0.22703334055939714","491"
"21:22:31:898 (H:m:s:ms)","OPERA","62.015","0.2293649412090632","1114"
"21:34:8:484 (H:m:s:ms)","GENERIC","62.079","0.2245311325890623","522"
"21:35:15:151 (H:m:s:ms)","GENERIC","62.085","0.21396984021247176","856"
"21:35:9:90 (H:m:s:ms)","GENERIC","62.081","0.2139729340999428","951"
"21:35:3:30 (H:m:s:ms)","GENERIC","62.081","0.21492610379351165","976"
"21:34:56:969 (H:m:s:ms)","GENERIC","62.093","0.21932583798082458","1037"
"21:34:50:909 (H:m:s:ms)","GENERIC","62.055","0.22365860752887037","1097"
"21:34:44:848 (H:m:s:ms)","GENERIC","62.107","0.22756628485369776","167"
"21:34:44:210 (H:m:s:ms)","AMBULANCE","62.107","0.22764909494490518","798"
"21:34:38:787 (H:m:s:ms)","GENERIC","62.101","0.2287032343626601","219"
"21:22:37:575 (H:m:s:ms)","GENERIC","62.023","0.22864775463043974","430"
"21:34:32:727 (H:m:s:ms)","GENERIC","62.081","0.23001532903508426","278"
"21:22:39:493 (H:m:s:ms)","OPERA","62.019","0.22989422209900406","547"
"21:34:26:666 (H:m:s:ms)","GENERIC","62.115","0.22617198443317618","339"
"21:2:7:272 (H:m:s:ms)","GENERIC","62.049","0.19164901647682123","734"
"21:22:43:636 (H:m:s:ms)","GENERIC","62.055","0.22765478215531315","370"
"21:34:20:606 (H:m:s:ms)","GENERIC","62.027","0.22977064607842335","401"
"21:2:13:333 (H:m:s:ms)","GENERIC","62.073","0.19016440398994905","673"
"21:22:47:88 (H:m:s:ms)","OPERA","62.017","0.23160972747395608","918"
"21:2:19:393 (H:m:s:ms)","GENERIC","62.055","0.19024002138495177","656"
"21:22:49:696 (H:m:s:ms)","GENERIC","62.027","0.23431604981340654","343"
"21:2:25:454 (H:m:s:ms)","GENERIC","62.057","0.18801119741872327","553"
"21:22:54:683 (H:m:s:ms)","OPERA","62.017","0.23443810589946298","323"
"21:2:31:515 (H:m:s:ms)","GENERIC","62.113","0.18317164156592317","492"
"21:22:55:757 (H:m:s:ms)","GENERIC","62.049","0.23490993151777034","248"
"21:2:37:575 (H:m:s:ms)","GENERIC","62.027","0.18323534961142904","432"
"21:23:1:818 (H:m:s:ms)","GENERIC","62.191","0.23862234927099135","188"
"21:2:37:894 (H:m:s:ms)","AMBULANCE","31.021","0.18556324654815815","120"
"21:23:2:278 (H:m:s:ms)","OPERA","62.015","0.2394521628154023","727"
"21:2:43:636 (H:m:s:ms)","GENERIC","62.045","0.18682628288331396","370"
"21:23:7:878 (H:m:s:ms)","GENERIC","62.027","0.2400138379309145","1129"
"21:2:49:696 (H:m:s:ms)","GENERIC","62.059","0.188635740988907","351"
"21:2:55:757 (H:m:s:ms)","GENERIC","62.053","0.1895127469007729","249"
"21:36:9:696 (H:m:s:ms)","GENERIC","62.033","0.2129712013722821","343"
"21:36:3:636 (H:m:s:ms)","GENERIC","62.061","0.2149486689311847","370"
"21:35:57:575 (H:m:s:ms)","GENERIC","62.055","0.21515029350008558","431"
"21:35:51:515 (H:m:s:ms)","GENERIC","62.033","0.2152486302459008","491"
"21:35:47:368 (H:m:s:ms)","AMBULANCE","62.097","0.21303575135964242","638"
"21:35:45:454 (H:m:s:ms)","GENERIC","62.107","0.21191911524678492","552"
"21:35:39:393 (H:m:s:ms)","GENERIC","62.053","0.2122167113843303","648"
"21:23:9:873 (H:m:s:ms)","OPERA","62.017","0.2411816192461201","167"
"21:35:33:333 (H:m:s:ms)","GENERIC","62.083","0.21643811914653058","673"
"21:23:13:939 (H:m:s:ms)","GENERIC","62.135","0.24155283979546835","1068"
"21:35:27:272 (H:m:s:ms)","GENERIC","62.083","0.21915930230171396","734"
"21:3:1:818 (H:m:s:ms)","GENERIC","62.163","0.19451025596399385","188"
"21:23:17:468 (H:m:s:ms)","OPERA","62.015","0.24232550269447142","537"
"21:35:21:212 (H:m:s:ms)","GENERIC","62.101","0.21733676292442625","794"
"21:3:7:878 (H:m:s:ms)","GENERIC","62.043","0.19451703269165863","1129"
"21:23:20:0 (H:m:s:ms)","GENERIC","62.129","0.24380323088354378","1042"
"21:35:15:789 (H:m:s:ms)","AMBULANCE","62.095","0.21818801941302451","224"
"21:3:9:473 (H:m:s:ms)","AMBULANCE","31.029","0.19630952841153126","572"
"21:23:25:63 (H:m:s:ms)","OPERA","62.017","0.24476454094108988","943"
"21:3:13:939 (H:m:s:ms)","GENERIC","62.143","0.19912869184191206","1068"
"21:23:26:60 (H:m:s:ms)","GENERIC","62.169","0.2451500552975123","946"
"21:3:20:0 (H:m:s:ms)","GENERIC","62.139","0.19861594752166867","1048"
"21:23:32:121 (H:m:s:ms)","GENERIC","62.063","0.2474166517871478","885"
"21:3:26:60 (H:m:s:ms)","GENERIC","62.171","0.1981730372672985","947"
"21:23:32:658 (H:m:s:ms)","OPERA","62.017","0.24993355610671805","355"
"21:3:32:121 (H:m:s:ms)","GENERIC","62.087","0.19730072880170402","886"
"21:23:38:181 (H:m:s:ms)","GENERIC","62.075","0.25023427440267787","825"
"21:3:38:181 (H:m:s:ms)","GENERIC","62.083","0.19648934360430634","825"
"21:23:40:253 (H:m:s:ms)","OPERA","62.015","0.2509230421582537","753"
"21:3:44:242 (H:m:s:ms)","GENERIC","62.079","0.1985695538019724","764"
"21:3:50:303 (H:m:s:ms)","GENERIC","62.031","0.20006982224412065","703"
"21:37:4:242 (H:m:s:ms)","GENERIC","62.075","0.21256274139675346","765"
"21:36:58:181 (H:m:s:ms)","GENERIC","62.067","0.21487747931146098","826"
"21:36:52:121 (H:m:s:ms)","GENERIC","62.069","0.21155759192224172","885"
"21:36:50:526 (H:m:s:ms)","AMBULANCE","62.121","0.2078157001153197","480"
"21:36:46:60 (H:m:s:ms)","GENERIC","62.015","0.2080030712222381","946"
"21:36:40:0 (H:m:s:ms)","GENERIC","62.079","0.20604997705204914","1040"
"21:23:44:242 (H:m:s:ms)","GENERIC","62.075","0.2484548839408878","763"
"21:36:33:939 (H:m:s:ms)","GENERIC","62.053","0.20918347395049483","1067"
"21:23:47:848 (H:m:s:ms)","OPERA","62.015","0.25019350894153075","158"
"21:36:27:878 (H:m:s:ms)","GENERIC","62.105","0.2119478115237501","1128"
"21:3:56:363 (H:m:s:ms)","GENERIC","62.145","0.20723202446296746","644"
"21:23:50:303 (H:m:s:ms)","GENERIC","62.051","0.2502264390387051","703"
"21:36:21:818 (H:m:s:ms)","GENERIC","62.165","0.21343241753307418","188"
"21:4:2:424 (H:m:s:ms)","GENERIC","62.077","0.21082352649455485","582"
"21:23:55:443 (H:m:s:ms)","OPERA","62.015","0.2515061432873531","563"
"21:36:18:947 (H:m:s:ms)","AMBULANCE","62.077","0.21274648863831455","1093"
"21:4:8:484 (H:m:s:ms)","GENERIC","62.083","0.2088055331884173","522"
"21:23:56:363 (H:m:s:ms)","GENERIC","62.127","0.2516129600253553","642"
"21:36:15:757 (H:m:s:ms)","GENERIC","62.129","0.21115437939734777","251"
"21:4:12:631 (H:m:s:ms)","AMBULANCE","31.026","0.21294651921944602","375"
"21:24:2:424 (H:m:s:ms)","GENERIC","62.103","0.25293444473670923","584"
"21:4:14:545 (H:m:s:ms)","GENERIC","62.183","0.21717794492279968","461"
"21:24:3:37 (H:m:s:ms)","OPERA","31.01","0.2553412309595306","971"
"21:4:20:606 (H:m:s:ms)","GENERIC","62.053","0.21878308359958407","400"
"21:24:8:484 (H:m:s:ms)","GENERIC","62.077","0.2543544363286767","524"
"21:4:26:666 (H:m:s:ms)","GENERIC","62.115","0.21857331797009474","340"
"21:24:10:632 (H:m:s:ms)","OPERA","62.015","0.2574363470264411","373"
"21:4:32:727 (H:m:s:ms)","GENERIC","62.045","0.22083412448722978","279"
"21:24:14:545 (H:m:s:ms)","GENERIC","62.179","0.2602214846267197","460"
"21:4:38:787 (H:m:s:ms)","GENERIC","62.077","0.2203087887358085","219"
"21:4:44:210 (H:m:s:ms)","AMBULANCE","31.036","0.21922879061436523","797"
"21:37:58:787 (H:m:s:ms)","GENERIC","62.029","0.21193427502109927","219"
"21:37:53:684 (H:m:s:ms)","AMBULANCE","62.123","0.21267120626758035","322"
"21:37:52:727 (H:m:s:ms)","GENERIC","62.145","0.21275731138925102","279"
"21:37:46:666 (H:m:s:ms)","GENERIC","62.083","0.2130343940075868","340"
"21:37:40:606 (H:m:s:ms)","GENERIC","62.129","0.21721902798545673","400"
"21:37:34:545 (H:m:s:ms)","GENERIC","62.059","0.21904511274770502","462"
"21:24:18:227 (H:m:s:ms)","OPERA","62.015","0.2629420820907845","778"
"21:24:20:606 (H:m:s:ms)","GENERIC","62.025","0.2632261175400271","400"
"21:37:28:484 (H:m:s:ms)","GENERIC","62.107","0.21665006469128803","522"
"21:4:44:848 (H:m:s:ms)","GENERIC","62.091","0.21920761513263018","167"
"21:24:25:822 (H:m:s:ms)","OPERA","62.015","0.26683708221029306","183"
"21:37:22:424 (H:m:s:ms)","GENERIC","62.117","0.21375146179858864","589"
"21:4:50:909 (H:m:s:ms)","GENERIC","62.067","0.21904185974802198","1097"
"21:24:26:666 (H:m:s:ms)","GENERIC","62.109","0.2667210005319897","340"
"21:37:22:105 (H:m:s:ms)","AMBULANCE","62.119","0.21158893765572384","901"
"21:4:56:969 (H:m:s:ms)","GENERIC","62.081","0.21781283772470733","1037"
"21:24:32:727 (H:m:s:ms)","GENERIC","62.065","0.2671203945749426","278"
"21:37:16:363 (H:m:s:ms)","GENERIC","62.069","0.20690067611101068","643"
"21:5:3:30 (H:m:s:ms)","GENERIC","62.053","0.21686616044799573","976"
"21:24:33:417 (H:m:s:ms)","OPERA","62.019","0.26832048950736137","589"
"21:37:10:303 (H:m:s:ms)","GENERIC","62.033","0.20837581158435942","704"
"21:5:9:90 (H:m:s:ms)","GENERIC","62.071","0.212630876082736","955"
"21:24:38:787 (H:m:s:ms)","GENERIC","62.103","0.26875676912646135","218"
"21:5:15:151 (H:m:s:ms)","GENERIC","62.097","0.21415817868112708","864"
"21:24:41:12 (H:m:s:ms)","OPERA","31.009","0.27147516625469353","993"
"21:5:15:789 (H:m:s:ms)","AMBULANCE","31.052","0.21405648872089217","219"
"21:24:44:848 (H:m:s:ms)","GENERIC","62.091","0.2700190402921347","157"
"21:5:21:212 (H:m:s:ms)","GENERIC","62.107","0.2138001197461227","794"
"21:24:48:607 (H:m:s:ms)","OPERA","31.01","0.2709411496356529","399"
"21:5:27:272 (H:m:s:ms)","GENERIC","62.119","0.21528865935420133","735"
"21:5:33:333 (H:m:s:ms)","GENERIC","62.079","0.21495464188277566","673"
"21:38:56:842 (H:m:s:ms)","AMBULANCE","62.063","0.20796105434957113","164"
"21:38:53:333 (H:m:s:ms)","GENERIC","62.077","0.20807532299208992","672"
"21:38:47:272 (H:m:s:ms)","GENERIC","62.083","0.20767186042279517","734"
"21:38:41:212 (H:m:s:ms)","GENERIC","62.099","0.2072940361278756","794"
"21:38:35:151 (H:m:s:ms)","GENERIC","62.119","0.20330063527420483","855"
"21:38:29:90 (H:m:s:ms)","GENERIC","62.031","0.20704123935447652","950"
"21:38:25:263 (H:m:s:ms)","AMBULANCE","62.089","0.2059674479177846","743"
"21:24:50:909 (H:m:s:ms)","GENERIC","62.065","0.26826581944188227","1096"
"21:24:56:202 (H:m:s:ms)","OPERA","62.017","0.2685869554767767","804"
"21:5:39:393 (H:m:s:ms)","GENERIC","62.053","0.2110672383882324","653"
"21:24:56:969 (H:m:s:ms)","GENERIC","62.091","0.2684177592348038","1043"
"21:5:45:454 (H:m:s:ms)","GENERIC","62.113","0.21074934585593022","553"
"21:25:3:30 (H:m:s:ms)","GENERIC","62.089","0.2671490054411273","976"
"21:38:23:30 (H:m:s:ms)","GENERIC","62.091","0.20568864204485773","976"
"20:45:41:772 (H:m:s:ms)","OPERA","31.011","0.2560582893268127","234"
"21:5:47:368 (H:m:s:ms)","AMBULANCE","31.063","0.2111465652820551","638"
"21:25:3:797 (H:m:s:ms)","OPERA","62.017","0.26849253939363243","217"
"21:38:16:969 (H:m:s:ms)","GENERIC","62.089","0.20689205910956077","1037"
"20:45:45:454 (H:m:s:ms)","GENERIC","62.143","0.2572734670902066","552"
"21:5:51:515 (H:m:s:ms)","GENERIC","62.063","0.21132515964921778","491"
"21:25:9:90 (H:m:s:ms)","GENERIC","62.095","0.2668671693982073","951"
"21:38:10:909 (H:m:s:ms)","GENERIC","62.143","0.20932679992489694","1098"
"20:45:49:367 (H:m:s:ms)","OPERA","31.011","0.2538398013356998","675"
"21:5:57:575 (H:m:s:ms)","GENERIC","62.079","0.2085377594572177","431"
"21:25:11:392 (H:m:s:ms)","OPERA","62.017","0.26678990605626884","614"
"21:38:4:848 (H:m:s:ms)","GENERIC","62.059","0.21148714266967486","158"
"20:45:51:515 (H:m:s:ms)","GENERIC","62.075","0.2552973341013107","491"
"21:6:3:636 (H:m:s:ms)","GENERIC","62.115","0.20865033506323086","372"
"21:25:15:151 (H:m:s:ms)","GENERIC","62.081","0.2667241528918578","856"
"20:45:56:962 (H:m:s:ms)","OPERA","31.01","0.25168821629705806","1044"
"21:6:9:696 (H:m:s:ms)","GENERIC","62.027","0.20257459831186891","350"
"21:25:18:987 (H:m:s:ms)","OPERA","62.015","0.26699843436059256","1054"
"20:45:57:575 (H:m:s:ms)","GENERIC","62.081","0.25274903749244526","438"
"21:6:15:757 (H:m:s:ms)","GENERIC","62.099","0.19873416039049344","249"
"21:25:21:212 (H:m:s:ms)","GENERIC","62.109","0.2668518713522972","794"
"20:46:3:636 (H:m:s:ms)","GENERIC","62.131","0.25040321146132466","372"
"21:6:18:947 (H:m:s:ms)","AMBULANCE","31.037","0.19899089589449143","1098"
"20:46:4:556 (H:m:s:ms)","OPERA","31.01","0.25186699765633974","450"
"21:6:21:818 (H:m:s:ms)","GENERIC","62.153","0.2035717655838229","189"
"20:46:9:696 (H:m:s:ms)","GENERIC","62.017","0.24734000756349622","348"
"20:46:12:151 (H:m:s:ms)","OPERA","31.01","0.25223508838554387","855"
"21:39:53:939 (H:m:s:ms)","GENERIC","62.039","0.18671058552734113","1068"
"21:39:47:878 (H:m:s:ms)","GENERIC","62.027","0.18662628148059776","1128"
"21:39:41:818 (H:m:s:ms)","GENERIC","62.057","0.18494703535250798","189"
"21:39:35:757 (H:m:s:ms)","GENERIC","62.097","0.18507590835795984","249"
"21:39:29:696 (H:m:s:ms)","GENERIC","62.047","0.19046365073725283","346"
"21:39:28:421 (H:m:s:ms)","AMBULANCE","62.093","0.19017041640756877","585"
"21:39:23:636 (H:m:s:ms)","GENERIC","62.067","0.1859852608663351","370"
"21:39:17:575 (H:m:s:ms)","GENERIC","62.105","0.18486581550174444","432"
"21:25:26:582 (H:m:s:ms)","OPERA","62.017","0.266895413973272","424"
"21:25:27:272 (H:m:s:ms)","GENERIC","62.081","0.2671770533240311","734"
"21:6:27:878 (H:m:s:ms)","GENERIC","62.075","0.19917629486942348","1128"
"21:25:33:333 (H:m:s:ms)","GENERIC","62.103","0.26739384207790656","672"
"21:6:33:939 (H:m:s:ms)","GENERIC","62.039","0.200326422747856","1067"
"21:25:34:177 (H:m:s:ms)","OPERA","62.017","0.26794143636765555","830"
"20:46:15:757 (H:m:s:ms)","GENERIC","62.111","0.25165911909869426","249"
"21:6:40:0 (H:m:s:ms)","GENERIC","62.067","0.19630203340860125","1047"
"21:25:39:393 (H:m:s:ms)","GENERIC","62.047","0.2654777125591223","646"
"20:46:19:746 (H:m:s:ms)","OPERA","31.009","0.2500142013048947","297"
"21:6:46:60 (H:m:s:ms)","GENERIC","62.037","0.19587488973708456","946"
"21:25:41:772 (H:m:s:ms)","OPERA","62.019","0.26663259420971164","233"
"21:39:11:515 (H:m:s:ms)","GENERIC","62.089","0.1948270084904168","491"
"20:46:21:818 (H:m:s:ms)","GENERIC","62.157","0.25036610902355594","188"
"21:6:50:526 (H:m:s:ms)","AMBULANCE","31.053","0.1972099477677481","480"
"21:25:45:454 (H:m:s:ms)","GENERIC","62.107","0.2669313438897057","552"
"21:39:5:454 (H:m:s:ms)","GENERIC","62.113","0.1956421568412012","552"
"20:46:27:341 (H:m:s:ms)","OPERA","31.01","0.2509530820929158","664"
"21:6:52:121 (H:m:s:ms)","GENERIC","62.077","0.19825436191297238","887"
"21:25:49:367 (H:m:s:ms)","OPERA","31.011","0.26697587384549587","671"
"21:38:59:393 (H:m:s:ms)","GENERIC","62.041","0.20028875172074165","647"
"20:46:27:878 (H:m:s:ms)","GENERIC","62.031","0.2510390156661231","1134"
"21:6:58:181 (H:m:s:ms)","GENERIC","62.069","0.20210576816241332","824"
"21:25:51:515 (H:m:s:ms)","GENERIC","62.033","0.2668226208298003","491"
"20:46:33:939 (H:m:s:ms)","GENERIC","62.017","0.25264780722143637","1067"
"21:7:4:242 (H:m:s:ms)","GENERIC","62.069","0.20166912342801946","764"
"21:25:56:962 (H:m:s:ms)","OPERA","62.019","0.26516388884569464","1044"
"20:46:40:0 (H:m:s:ms)","GENERIC","62.079","0.2532806085743738","1043"
"21:7:10:303 (H:m:s:ms)","GENERIC","62.087","0.19717775677188717","704"
"20:46:42:531 (H:m:s:ms)","OPERA","31.01","0.25541455587699224","475"
"21:7:16:363 (H:m:s:ms)","GENERIC","62.099","0.19887705881144685","643"
"20:46:46:60 (H:m:s:ms)","GENERIC","62.047","0.2542175765611197","946"
"20:46:52:121 (H:m:s:ms)","GENERIC","62.077","0.2522238799168046","885"
"21:40:0:0 (H:m:s:ms)","GENERIC","62.089","0.19687923788519046","1469"
"21:40:48:484 (H:m:s:ms)","GENERIC","62.097","0.18754604377641806","523"
"21:40:42:424 (H:m:s:ms)","GENERIC","62.127","0.19146604397079983","583"
"21:40:36:363 (H:m:s:ms)","GENERIC","62.129","0.18925970202969725","643"
"21:40:30:303 (H:m:s:ms)","GENERIC","62.113","0.19302568323301225","708"
"21:40:24:242 (H:m:s:ms)","GENERIC","62.129","0.1931442894558188","764"
"21:40:18:181 (H:m:s:ms)","GENERIC","62.139","0.19442658341717498","825"
"21:40:12:121 (H:m:s:ms)","GENERIC","62.063","0.19880736155969822","884"
"21:40:6:60 (H:m:s:ms)","GENERIC","62.129","0.19933160727796653","946"
"21:7:22:105 (H:m:s:ms)","AMBULANCE","31.063","0.19808004853682626","902"
"21:7:22:424 (H:m:s:ms)","GENERIC","62.141","0.20047671347272797","590"
"20:46:57:721 (H:m:s:ms)","OPERA","31.01","0.252544616696923","284"
"21:7:28:484 (H:m:s:ms)","GENERIC","62.139","0.19883841424847534","523"
"20:46:58:181 (H:m:s:ms)","GENERIC","62.037","0.25256289630244844","825"
"21:7:34:545 (H:m:s:ms)","GENERIC","62.081","0.19998237226511534","462"
"20:47:4:242 (H:m:s:ms)","GENERIC","62.109","0.25066403113127056","764"
"21:7:40:606 (H:m:s:ms)","GENERIC","62.161","0.1991289111210856","402"
"20:47:5:316 (H:m:s:ms)","OPERA","31.01","0.252616547772739","689"
"21:7:46:666 (H:m:s:ms)","GENERIC","62.085","0.1963590262303365","341"
"21:40:0:0 (H:m:s:ms)","AMBULANCE","62.061","0.19449633900223784","1462"
"20:47:10:303 (H:m:s:ms)","GENERIC","62.079","0.25105887431059937","703"
"21:7:52:727 (H:m:s:ms)","GENERIC","62.201","0.19598802287162584","279"
"21:40:0:0 (H:m:s:ms)","GENERIC","62.077","0.18751245821996665","1454"
"20:47:12:911 (H:m:s:ms)","OPERA","31.01","0.25387650767939135","1095"
"21:7:53:684 (H:m:s:ms)","AMBULANCE","31.036","0.19634447074664046","322"
"20:47:16:363 (H:m:s:ms)","GENERIC","62.125","0.2516305239115756","643"
"21:7:58:787 (H:m:s:ms)","GENERIC","62.049","0.19579549496374452","219"
"20:47:20:506 (H:m:s:ms)","OPERA","31.009","0.250722886664671","500"
"21:8:4:848 (H:m:s:ms)","GENERIC","62.041","0.19125724269348796","157"
"20:47:22:424 (H:m:s:ms)","GENERIC","62.129","0.2521272457811996","582"
"20:47:28:101 (H:m:s:ms)","OPERA","31.01","0.2532636892647282","905"
"21:8:10:909 (H:m:s:ms)","GENERIC","62.131","0.1894193833515651","1098"
"21:8:16:969 (H:m:s:ms)","GENERIC","62.125","0.19143472354124064","1037"
"20:47:28:484 (H:m:s:ms)","GENERIC","62.141","0.25631735266781047","529"
"21:8:23:30 (H:m:s:ms)","GENERIC","62.071","0.19066405761472038","975"
"20:47:34:545 (H:m:s:ms)","GENERIC","62.075","0.25476674269532446","461"
"21:8:25:263 (H:m:s:ms)","AMBULANCE","31.035","0.19657856658910575","743"
"20:47:35:696 (H:m:s:ms)","OPERA","31.009","0.25774595347996676","309"
"21:8:29:90 (H:m:s:ms)","GENERIC","62.031","0.19702279087951874","955"
"20:47:40:606 (H:m:s:ms)","GENERIC","62.119","0.25499556030825643","400"
"21:8:35:151 (H:m:s:ms)","GENERIC","62.129","0.19723466936489825","855"
"20:47:43:291 (H:m:s:ms)","OPERA","31.01","0.25685215852129173","715"
"21:8:41:212 (H:m:s:ms)","GENERIC","62.121","0.20183677429997285","795"
"20:47:46:666 (H:m:s:ms)","GENERIC","62.119","0.2528487528624774","340"
"21:8:47:272 (H:m:s:ms)","GENERIC","62.067","0.20420226437306416","734"
"21:40:54:545 (H:m:s:ms)","GENERIC","62.075","0.18899091124789508","463"
"20:47:50:886 (H:m:s:ms)","OPERA","31.01","0.25196596537879645","119"
"21:8:53:333 (H:m:s:ms)","GENERIC","62.053","0.20636984526624208","674"
"20:47:52:727 (H:m:s:ms)","GENERIC","62.189","0.25179478533917493","280"
"21:8:56:842 (H:m:s:ms)","AMBULANCE","31.023","0.20652669407159144","164"
"20:47:58:481 (H:m:s:ms)","OPERA","31.01","0.25019339618866837","525"
"20:47:58:787 (H:m:s:ms)","GENERIC","62.079","0.2508932312815902","226"
"21:8:59:393 (H:m:s:ms)","GENERIC","62.077","0.19842686773464424","650"
"21:9:5:454 (H:m:s:ms)","GENERIC","62.119","0.19606168862541698","552"
"20:48:4:848 (H:m:s:ms)","GENERIC","62.059","0.2460505094270886","158"
"21:9:11:515 (H:m:s:ms)","GENERIC","62.069","0.19638413969665566","494"
"20:48:6:75 (H:m:s:ms)","OPERA","31.011","0.24850174376986311","931"
"21:9:17:575 (H:m:s:ms)","GENERIC","62.121","0.1865223621070792","431"
"20:30:0:0 (H:m:s:ms)","GENERIC","62.089","0.1668939676621764","1039"
"20:48:10:909 (H:m:s:ms)","GENERIC","62.117","0.24516977362090195","1099"
"21:9:23:636 (H:m:s:ms)","GENERIC","62.055","0.1854444712371816","369"
"20:30:0:0 (H:m:s:ms)","GENERIC","62.057","0.17035306822367713","1046"
"20:48:16:969 (H:m:s:ms)","GENERIC","62.083","0.24562027199080927","1038"
"21:9:28:421 (H:m:s:ms)","AMBULANCE","31.048","0.18879325442847714","585"
"20:30:6:60 (H:m:s:ms)","GENERIC","62.145","0.17610902923416774","946"
"20:48:21:265 (H:m:s:ms)","OPERA","31.01","0.24377792696428702","741"
"21:9:29:696 (H:m:s:ms)","GENERIC","62.041","0.1887940795102772","347"
"20:30:12:121 (H:m:s:ms)","GENERIC","62.037","0.17639490978919883","885"
"20:48:23:30 (H:m:s:ms)","GENERIC","62.075","0.24357710510428968","976"
"21:9:35:757 (H:m:s:ms)","GENERIC","62.077","0.1853641361461776","249"
"20:30:18:181 (H:m:s:ms)","GENERIC","62.065","0.17966771573863782","826"
"20:48:28:860 (H:m:s:ms)","OPERA","31.01","0.2448805872947485","145"
"21:9:41:818 (H:m:s:ms)","GENERIC","62.059","0.18613216679009387","188"
"20:30:24:242 (H:m:s:ms)","GENERIC","62.087","0.1793816878000616","765"
"20:48:29:90 (H:m:s:ms)","GENERIC","62.055","0.24552367378753115","953"
"21:9:47:878 (H:m:s:ms)","GENERIC","62.019","0.1868844466470726","1128"
"20:30:30:303 (H:m:s:ms)","GENERIC","62.117","0.17657710696293405","704"
"20:48:35:151 (H:m:s:ms)","GENERIC","62.087","0.24301844238686057","855"
"20:30:36:363 (H:m:s:ms)","GENERIC","62.093","0.17356386161791568","643"
"20:48:36:455 (H:m:s:ms)","OPERA","31.009","0.244989450222779","551"
"20:30:42:424 (H:m:s:ms)","GENERIC","62.127","0.1754450474296723","583"
"20:30:48:484 (H:m:s:ms)","GENERIC","62.071","0.1765995415968159","522"
"21:9:53:939 (H:m:s:ms)","GENERIC","62.031","0.18949969322833102","1067"
"21:10:0:0 (H:m:s:ms)","AMBULANCE","31.015","0.19638562488493821","1046"
"20:48:41:212 (H:m:s:ms)","GENERIC","62.101","0.2426505415427354","794"
"21:10:0:0 (H:m:s:ms)","GENERIC","62.075","0.19711862107297856","1052"
"20:48:44:50 (H:m:s:ms)","OPERA","31.01","0.24456770062692731","956"
"21:10:0:0 (H:m:s:ms)","GENERIC","62.097","0.20178381136072537","1059"
"20:30:54:545 (H:m:s:ms)","GENERIC","62.113","0.1767244685389326","462"
"20:48:47:272 (H:m:s:ms)","GENERIC","62.071","0.24630290412128575","734"
"21:10:6:60 (H:m:s:ms)","GENERIC","62.095","0.20393277766283519","947"
"20:31:0:606 (H:m:s:ms)","GENERIC","62.057","0.18164862912761273","402"
"20:48:51:645 (H:m:s:ms)","OPERA","31.009","0.24699890478029168","361"
"21:10:12:121 (H:m:s:ms)","GENERIC","62.087","0.20391163023289843","885"
"20:31:6:666 (H:m:s:ms)","GENERIC","62.055","0.18137295985293891","340"
"20:48:53:333 (H:m:s:ms)","GENERIC","62.041","0.2469124964858405","672"
"21:10:18:181 (H:m:s:ms)","GENERIC","62.089","0.20414933945477776","826"
"20:31:12:727 (H:m:s:ms)","GENERIC","62.069","0.18298304617096692","279"
"20:48:59:240 (H:m:s:ms)","OPERA","31.009","0.24975395885150353","803"
"21:10:24:242 (H:m:s:ms)","GENERIC","62.087","0.20291354738748488","764"
"20:31:18:787 (H:m:s:ms)","GENERIC","62.083","0.17973960656928378","219"
"20:48:59:393 (H:m:s:ms)","GENERIC","62.043","0.2496941948783578","656"
"21:10:30:303 (H:m:s:ms)","GENERIC","62.087","0.20124652418401467","703"
"20:31:24:848 (H:m:s:ms)","GENERIC","62.107","0.18179317422615834","158"
"20:49:5:454 (H:m:s:ms)","GENERIC","62.129","0.24898158987621552","552"
"21:10:36:363 (H:m:s:ms)","GENERIC","62.099","0.2026191767468077","645"
"20:31:30:909 (H:m:s:ms)","GENERIC","62.145","0.18661324344658148","1097"
"20:49:6:835 (H:m:s:ms)","OPERA","31.01","0.25174089631575264","171"
"20:31:36:969 (H:m:s:ms)","GENERIC","62.079","0.18137970354202923","1038"
"20:49:11:515 (H:m:s:ms)","GENERIC","62.091","0.24979771705877124","491"
"20:31:43:30 (H:m:s:ms)","GENERIC","62.055","0.18326779326237083","976"
"20:31:49:90 (H:m:s:ms)","GENERIC","62.093","0.1833756307081726","951"
"20:49:14:430 (H:m:s:ms)","OPERA","31.01","0.25278638074030996","576"
"20:49:17:575 (H:m:s:ms)","GENERIC","62.099","0.24959333575102893","431"
"20:31:55:151 (H:m:s:ms)","GENERIC","62.109","0.1823687149033961","855"
"20:49:22:25 (H:m:s:ms)","OPERA","31.01","0.2495478043539727","981"
"20:32:1:212 (H:m:s:ms)","GENERIC","62.059","0.1841549620523427","795"
"20:49:23:636 (H:m:s:ms)","GENERIC","62.025","0.24982970454351847","372"
"20:32:7:272 (H:m:s:ms)","GENERIC","62.057","0.18936368103779205","735"
"20:49:29:620 (H:m:s:ms)","OPERA","31.01","0.24541579078757256","423"
"20:32:13:333 (H:m:s:ms)","GENERIC","62.043","0.19119056450702493","673"
"20:49:29:696 (H:m:s:ms)","GENERIC","62.051","0.24536438205768818","353"
"20:32:19:393 (H:m:s:ms)","GENERIC","62.021","0.19032060933618752","648"
"20:49:35:757 (H:m:s:ms)","GENERIC","62.111","0.24256110814529738","248"
"20:32:25:454 (H:m:s:ms)","GENERIC","62.031","0.1907455885822975","552"
"20:49:41:818 (H:m:s:ms)","GENERIC","62.081","0.24338131915588415","188"
"20:32:31:515 (H:m:s:ms)","GENERIC","62.119","0.18616335857569624","491"
"20:49:44:810 (H:m:s:ms)","OPERA","31.01","0.24667801424504998","198"
"20:32:37:575 (H:m:s:ms)","GENERIC","62.071","0.184668132302595","431"
"20:49:47:878 (H:m:s:ms)","GENERIC","62.029","0.249677745724064","1127"
"20:32:43:636 (H:m:s:ms)","GENERIC","62.045","0.18444538325152396","371"
"20:32:49:696 (H:m:s:ms)","GENERIC","62.033","0.1873223644027567","345"
"20:49:52:405 (H:m:s:ms)","OPERA","31.011","0.24821980411859615","601"
"20:49:53:939 (H:m:s:ms)","GENERIC","62.065","0.2547504941547808","1067"
"20:32:55:757 (H:m:s:ms)","GENERIC","62.017","0.18898073678000865","249"
"20:50:0:0 (H:m:s:ms)","OPERA","31.01","0.25555674803605505","1045"
"20:33:1:818 (H:m:s:ms)","GENERIC","62.131","0.19402939748944853","189"
"20:50:0:0 (H:m:s:ms)","GENERIC","62.099","0.25547175578925463","1052"
"20:33:7:878 (H:m:s:ms)","GENERIC","62.101","0.19363262634890613","1128"
"20:50:0:0 (H:m:s:ms)","GENERIC","62.073","0.25651445543191","1059"
"20:33:13:939 (H:m:s:ms)","GENERIC","62.173","0.19593457143293203","1068"
"20:50:6:60 (H:m:s:ms)","GENERIC","62.113","0.2551745941051932","946"
"20:33:20:0 (H:m:s:ms)","GENERIC","62.137","0.19542822461689505","1043"
"20:50:12:121 (H:m:s:ms)","GENERIC","62.071","0.25336890717326777","885"
"20:33:26:60 (H:m:s:ms)","GENERIC","62.125","0.19404013892393263","946"
"20:50:18:181 (H:m:s:ms)","GENERIC","62.087","0.25462217727900505","825"
"20:33:32:121 (H:m:s:ms)","GENERIC","62.141","0.19430846232052776","886"
"20:50:24:242 (H:m:s:ms)","GENERIC","62.073","0.24546846111146","764"
"20:33:38:181 (H:m:s:ms)","GENERIC","62.087","0.19490899536784054","825"
"20:50:30:303 (H:m:s:ms)","GENERIC","62.097","0.24096498292588836","703"
"20:33:44:242 (H:m:s:ms)","GENERIC","62.073","0.19408476852416828","764"
"20:33:50:303 (H:m:s:ms)","GENERIC","62.025","0.19469138776032557","703"
"20:50:36:363 (H:m:s:ms)","GENERIC","62.119","0.24008638260885307","643"
"20:50:42:424 (H:m:s:ms)","GENERIC","62.137","0.24137025750507643","582"
"20:33:56:363 (H:m:s:ms)","GENERIC","62.183","0.19691183115085595","643"
"20:50:48:484 (H:m:s:ms)","GENERIC","62.057","0.24118719199801722","523"
"20:34:2:424 (H:m:s:ms)","GENERIC","62.065","0.20023452101458128","582"
"20:50:54:545 (H:m:s:ms)","GENERIC","62.083","0.2427591611426515","462"
"20:10:0:0 (H:m:s:ms)","GENERIC","31.034","0.17857875565123155","1007"
"20:34:8:484 (H:m:s:ms)","GENERIC","62.097","0.19589756950526932","523"
"20:51:0:606 (H:m:s:ms)","GENERIC","62.023","0.2432922680985454","400"
"20:10:0:0 (H:m:s:ms)","GENERIC","62.101","0.1838759295882193","1052"
"20:34:14:545 (H:m:s:ms)","GENERIC","62.131","0.194896921237519","461"
"20:51:6:666 (H:m:s:ms)","GENERIC","62.075","0.246599572400991","339"
"20:10:6:60 (H:m:s:ms)","GENERIC","62.125","0.18649037893423195","947"
"20:34:20:606 (H:m:s:ms)","GENERIC","62.073","0.19736552074076907","405"
"20:51:12:727 (H:m:s:ms)","GENERIC","62.077","0.24916012424518458","279"
"20:10:12:121 (H:m:s:ms)","GENERIC","62.023","0.184934751423285","885"
"20:34:26:666 (H:m:s:ms)","GENERIC","62.109","0.19265523146204477","340"
"20:51:18:787 (H:m:s:ms)","GENERIC","62.083","0.244144599191214","218"
"20:10:18:181 (H:m:s:ms)","GENERIC","62.057","0.1880152352105052","825"
"20:34:32:727 (H:m:s:ms)","GENERIC","62.051","0.1954190987842344","279"
"20:51:24:848 (H:m:s:ms)","GENERIC","62.103","0.24374948561401838","159"
"20:10:24:242 (H:m:s:ms)","GENERIC","62.081","0.18278204834062847","765"
"20:34:38:787 (H:m:s:ms)","GENERIC","62.079","0.19361206227742397","219"
"20:51:30:909 (H:m:s:ms)","GENERIC","62.115","0.24333373567650193","1097"
"20:10:30:303 (H:m:s:ms)","GENERIC","62.091","0.17967300249265786","704"
"20:34:44:848 (H:m:s:ms)","GENERIC","62.117","0.1939452020993438","158"
"20:10:36:363 (H:m:s:ms)","GENERIC","62.085","0.17788940664560116","644"
"20:34:50:909 (H:m:s:ms)","GENERIC","62.077","0.19294239393427606","1097"
"20:10:42:424 (H:m:s:ms)","GENERIC","62.147","0.18049222580356644","583"
"20:10:48:484 (H:m:s:ms)","GENERIC","62.087","0.1802197361180964","523"
"20:51:36:969 (H:m:s:ms)","GENERIC","62.065","0.24077090158807612","1038"
"20:51:43:30 (H:m:s:ms)","GENERIC","62.071","0.24261783147951926","975"
"20:34:56:969 (H:m:s:ms)","GENERIC","62.083","0.19136160958754092","1037"
"20:51:49:90 (H:m:s:ms)","GENERIC","62.087","0.23990436036212723","956"
"20:35:3:30 (H:m:s:ms)","GENERIC","62.059","0.19071509243068832","976"
"20:51:55:151 (H:m:s:ms)","GENERIC","62.105","0.23752418360399052","855"
"20:10:54:545 (H:m:s:ms)","GENERIC","62.129","0.17883642783852513","468"
"20:35:9:90 (H:m:s:ms)","GENERIC","62.041","0.18549825475946205","951"
"20:52:1:212 (H:m:s:ms)","GENERIC","62.019","0.23670194232143096","793"
"20:11:0:606 (H:m:s:ms)","GENERIC","62.093","0.1819955596989158","400"
"20:35:15:151 (H:m:s:ms)","GENERIC","62.095","0.18517823543717551","855"
"20:52:7:272 (H:m:s:ms)","GENERIC","62.055","0.2375859832573359","734"
"20:11:6:666 (H:m:s:ms)","GENERIC","62.065","0.18726152604324453","340"
"20:35:21:212 (H:m:s:ms)","GENERIC","62.113","0.1873454002190318","795"
"20:52:13:333 (H:m:s:ms)","GENERIC","62.063","0.23758528799262243","672"
"20:11:12:727 (H:m:s:ms)","GENERIC","62.037","0.18849453403653102","279"
"20:35:27:272 (H:m:s:ms)","GENERIC","62.097","0.1927081486784274","734"
"20:52:19:393 (H:m:s:ms)","GENERIC","62.043","0.2362777259069074","653"
"20:11:18:787 (H:m:s:ms)","GENERIC","62.077","0.18860513715833502","219"
"20:35:33:333 (H:m:s:ms)","GENERIC","62.039","0.18935882438251186","673"
"20:52:25:454 (H:m:s:ms)","GENERIC","62.031","0.23279875011587559","551"
"20:11:24:848 (H:m:s:ms)","GENERIC","62.079","0.19268979218879434","158"
"20:35:39:393 (H:m:s:ms)","GENERIC","62.045","0.18839705440193802","649"
"20:52:31:515 (H:m:s:ms)","GENERIC","62.109","0.2256282472221665","491"
"20:11:30:909 (H:m:s:ms)","GENERIC","62.115","0.19387861035122184","1098"
"20:35:45:454 (H:m:s:ms)","GENERIC","62.151","0.18736874951871446","553"
"20:11:36:969 (H:m:s:ms)","GENERIC","62.061","0.18886057508673146","1037"
"20:35:51:515 (H:m:s:ms)","GENERIC","62.059","0.19149816090272304","491"
"20:11:43:30 (H:m:s:ms)","GENERIC","62.043","0.18999080451141265","976"
"20:11:49:90 (H:m:s:ms)","GENERIC","62.115","0.18964086527978383","952"
"20:0:54:545 (H:m:s:ms)","GENERIC","31.067","0.09161786960165985","482"
"20:1:0:606 (H:m:s:ms)","GENERIC","31.058","0.1037791911113672","406"
"20:1:6:666 (H:m:s:ms)","GENERIC","31.039","0.11457323349792536","345"
"20:1:12:727 (H:m:s:ms)","GENERIC","31.011","0.1179881767822957","287"
"20:1:18:787 (H:m:s:ms)","GENERIC","31.032","0.11845569911153468","224"
"20:1:24:848 (H:m:s:ms)","GENERIC","31.034","0.12781802028234385","181"
"20:1:30:909 (H:m:s:ms)","GENERIC","31.049","0.12863158571786668","1102"
"20:1:36:969 (H:m:s:ms)","GENERIC","31.024","0.12982495352812298","1043"
"20:1:43:30 (H:m:s:ms)","GENERIC","31.022","0.1305972294122516","977"
"20:1:49:90 (H:m:s:ms)","GENERIC","31.061","0.13067155516417814","931"
"20:35:57:575 (H:m:s:ms)","GENERIC","62.075","0.1896601787557491","432"
"20:36:3:636 (H:m:s:ms)","GENERIC","62.109","0.18777504372878","371"
"20:11:55:151 (H:m:s:ms)","GENERIC","62.127","0.1846541548467943","855"
"20:36:9:696 (H:m:s:ms)","GENERIC","62.025","0.18748478726875123","345"
"20:12:1:212 (H:m:s:ms)","GENERIC","62.081","0.18601284804117138","795"
"20:36:15:757 (H:m:s:ms)","GENERIC","62.093","0.18255538822383927","249"
"20:12:7:272 (H:m:s:ms)","GENERIC","62.071","0.18601434912957557","734"
"20:36:21:818 (H:m:s:ms)","GENERIC","62.149","0.1836120077563394","188"
"20:12:13:333 (H:m:s:ms)","GENERIC","62.025","0.18292306887991064","673"
"20:36:27:878 (H:m:s:ms)","GENERIC","62.023","0.1785500668913319","1128"
"20:12:19:393 (H:m:s:ms)","GENERIC","62.021","0.1829194722317816","649"
"20:36:33:939 (H:m:s:ms)","GENERIC","62.039","0.1785870801376904","1068"
"20:12:25:454 (H:m:s:ms)","GENERIC","62.043","0.18330275918532765","553"
"20:36:40:0 (H:m:s:ms)","GENERIC","62.065","0.17912832828424238","1042"
"20:12:31:515 (H:m:s:ms)","GENERIC","62.101","0.1782840177374922","491"
"20:36:46:60 (H:m:s:ms)","GENERIC","62.063","0.1757386269592177","946"
"20:12:37:575 (H:m:s:ms)","GENERIC","62.067","0.17828516491823004","432"
"20:36:52:121 (H:m:s:ms)","GENERIC","62.075","0.1768273455777827","885"
"20:12:43:636 (H:m:s:ms)","GENERIC","62.063","0.1814369378376644","370"
"20:12:49:696 (H:m:s:ms)","GENERIC","62.047","0.1828968995956323","346"
"20:1:55:151 (H:m:s:ms)","GENERIC","31.059","0.1307553110403212","857"
"20:2:1:212 (H:m:s:ms)","GENERIC","31.036","0.13532268866708858","795"
"20:2:7:272 (H:m:s:ms)","GENERIC","31.04","0.14330529357964863","735"
"20:2:13:333 (H:m:s:ms)","GENERIC","31.021","0.14645122273260783","674"
"20:2:19:393 (H:m:s:ms)","GENERIC","31.018","0.14647254714665864","626"
"20:2:25:454 (H:m:s:ms)","GENERIC","31.029","0.14660605135102975","553"
"20:2:31:515 (H:m:s:ms)","GENERIC","31.048","0.14832124573488878","492"
"20:2:37:575 (H:m:s:ms)","GENERIC","31.028","0.14921710851762804","431"
"20:2:43:636 (H:m:s:ms)","GENERIC","31.025","0.15686160735538635","370"
"20:2:49:696 (H:m:s:ms)","GENERIC","31.02","0.16309155322187782","325"
"20:36:58:181 (H:m:s:ms)","GENERIC","62.027","0.17769616220969112","826"
"20:37:4:242 (H:m:s:ms)","GENERIC","62.127","0.17710950188232372","765"
"20:12:55:757 (H:m:s:ms)","GENERIC","62.045","0.187577042297386","249"
"20:37:10:303 (H:m:s:ms)","GENERIC","62.077","0.1771168493328705","703"
"20:13:1:818 (H:m:s:ms)","GENERIC","62.103","0.19257174877342179","188"
"20:37:16:363 (H:m:s:ms)","GENERIC","62.117","0.1717079172005161","645"
"20:13:7:878 (H:m:s:ms)","GENERIC","62.115","0.19337626222872625","1128"
"20:37:22:424 (H:m:s:ms)","GENERIC","62.117","0.17037808727131112","582"
"20:13:13:939 (H:m:s:ms)","GENERIC","62.163","0.1948326663557574","1070"
"20:37:28:484 (H:m:s:ms)","GENERIC","62.129","0.16911172312110506","523"
"20:13:20:0 (H:m:s:ms)","GENERIC","62.121","0.19175611441903212","1044"
"20:37:34:545 (H:m:s:ms)","GENERIC","62.063","0.17031645124751466","462"
"20:13:26:60 (H:m:s:ms)","GENERIC","62.099","0.1914884131083539","947"
"20:37:40:606 (H:m:s:ms)","GENERIC","62.109","0.1732927641756378","400"
"20:13:32:121 (H:m:s:ms)","GENERIC","62.111","0.193370298266943","885"
"20:37:46:666 (H:m:s:ms)","GENERIC","62.133","0.1730761900830623","340"
"20:13:38:181 (H:m:s:ms)","GENERIC","62.091","0.19398321959224127","825"
"20:37:52:727 (H:m:s:ms)","GENERIC","62.173","0.17272980021156725","280"
"20:13:44:242 (H:m:s:ms)","GENERIC","62.085","0.19398035667732835","765"
"20:13:50:303 (H:m:s:ms)","GENERIC","62.053","0.19153020875363563","703"
"20:2:55:757 (H:m:s:ms)","GENERIC","31.024","0.1669518997935786","249"
"20:3:1:818 (H:m:s:ms)","GENERIC","31.059","0.1682100810460884","189"
"20:3:7:878 (H:m:s:ms)","GENERIC","31.058","0.16947958873467867","128"
"20:3:13:939 (H:m:s:ms)","GENERIC","31.076","0.1756440040655822","1068"
"20:3:20:0 (H:m:s:ms)","GENERIC","31.052","0.17576609273168667","1008"
"20:3:26:60 (H:m:s:ms)","GENERIC","31.046","0.1758745213664896","947"
"20:3:32:121 (H:m:s:ms)","GENERIC","31.05","0.1794910113687992","885"
"20:3:38:181 (H:m:s:ms)","GENERIC","31.051","0.1796805073369034","826"
"20:3:44:242 (H:m:s:ms)","GENERIC","31.049","0.1814382903864559","765"
"20:3:50:303 (H:m:s:ms)","GENERIC","31.028","0.18308060770362242","711"
"20:37:58:787 (H:m:s:ms)","GENERIC","62.087","0.1728112057013736","219"
"20:38:4:848 (H:m:s:ms)","GENERIC","62.043","0.167134958528111","159"
"20:13:56:363 (H:m:s:ms)","GENERIC","62.143","0.19551667082899965","643"
"20:38:10:909 (H:m:s:ms)","GENERIC","62.115","0.17001979563464975","1098"
"20:14:2:424 (H:m:s:ms)","GENERIC","62.067","0.19917726484738063","582"
"20:38:16:969 (H:m:s:ms)","GENERIC","62.075","0.1724782532427656","1036"
"20:14:8:484 (H:m:s:ms)","GENERIC","62.119","0.19511691029114117","522"
"20:38:23:30 (H:m:s:ms)","GENERIC","62.073","0.17056456896886835","976"
"20:14:14:545 (H:m:s:ms)","GENERIC","62.117","0.1957080279667641","462"
"20:38:29:90 (H:m:s:ms)","GENERIC","62.075","0.1705016036890836","952"
"20:14:20:606 (H:m:s:ms)","GENERIC","62.067","0.19457994715970842","401"
"20:38:35:151 (H:m:s:ms)","GENERIC","62.061","0.17035232440888776","855"
"20:14:26:666 (H:m:s:ms)","GENERIC","62.081","0.1952103139294702","340"
"20:38:41:212 (H:m:s:ms)","GENERIC","62.107","0.17073375722140824","795"
"20:14:32:727 (H:m:s:ms)","GENERIC","62.049","0.19581974191805046","279"
"20:38:47:272 (H:m:s:ms)","GENERIC","62.061","0.1736146071574564","734"
"20:14:38:787 (H:m:s:ms)","GENERIC","62.059","0.19619007059625812","219"
"20:38:53:333 (H:m:s:ms)","GENERIC","62.055","0.17406128236801327","674"
"20:14:44:848 (H:m:s:ms)","GENERIC","62.155","0.19442440257583013","158"
"20:14:50:909 (H:m:s:ms)","GENERIC","62.069","0.19390261217427993","1097"
"20:3:56:363 (H:m:s:ms)","GENERIC","31.063","0.18841816522823512","644"
"20:4:2:424 (H:m:s:ms)","GENERIC","31.033","0.19007254341483004","582"
"20:4:8:484 (H:m:s:ms)","GENERIC","31.069","0.19037663478512945","522"
"20:4:14:545 (H:m:s:ms)","GENERIC","31.057","0.1906592267073319","463"
"20:4:20:606 (H:m:s:ms)","GENERIC","31.036","0.1959255748978299","400"
"20:4:26:666 (H:m:s:ms)","GENERIC","31.042","0.19676365390467768","339"
"20:4:32:727 (H:m:s:ms)","GENERIC","31.023","0.1972952936620204","280"
"20:4:38:787 (H:m:s:ms)","GENERIC","31.037","0.19866305122828784","219"
"20:4:44:848 (H:m:s:ms)","GENERIC","31.078","0.19868062619327412","159"
"20:4:50:909 (H:m:s:ms)","GENERIC","31.039","0.19896784165975628","1097"
"20:38:59:393 (H:m:s:ms)","GENERIC","62.051","0.16835834005701897","648"
"20:39:5:454 (H:m:s:ms)","GENERIC","62.149","0.17030514985876197","553"
"20:14:56:969 (H:m:s:ms)","GENERIC","62.065","0.18987328488236857","1042"
"20:39:11:515 (H:m:s:ms)","GENERIC","62.089","0.1700602697720619","491"
"20:15:3:30 (H:m:s:ms)","GENERIC","62.049","0.18587944986327135","976"
"20:39:17:575 (H:m:s:ms)","GENERIC","62.107","0.17144111940448822","432"
"20:15:9:90 (H:m:s:ms)","GENERIC","62.065","0.18628496033038522","952"
"20:39:23:636 (H:m:s:ms)","GENERIC","62.013","0.17428932223212643","370"
"20:15:15:151 (H:m:s:ms)","GENERIC","62.083","0.1865753695710751","856"
"20:39:29:696 (H:m:s:ms)","GENERIC","62.053","0.1739310080503535","345"
"20:15:21:212 (H:m:s:ms)","GENERIC","62.123","0.1837616769864494","794"
"20:39:35:757 (H:m:s:ms)","GENERIC","62.111","0.17389760847722902","249"
"20:15:27:272 (H:m:s:ms)","GENERIC","62.085","0.18501898595581814","734"
"20:39:41:818 (H:m:s:ms)","GENERIC","62.061","0.17489743339267166","188"
"20:15:33:333 (H:m:s:ms)","GENERIC","62.069","0.18219671167983506","674"
"20:39:47:878 (H:m:s:ms)","GENERIC","62.039","0.17552487939759384","1130"
"20:15:39:393 (H:m:s:ms)","GENERIC","62.041","0.18140551941821315","649"
"20:39:53:939 (H:m:s:ms)","GENERIC","62.069","0.17559547992824648","1067"
"20:15:45:454 (H:m:s:ms)","GENERIC","62.149","0.18008766185624395","552"
"20:15:51:515 (H:m:s:ms)","GENERIC","62.029","0.18113772566961236","491"
"20:4:56:969 (H:m:s:ms)","GENERIC","31.032","0.19891401514490858","1038"
"20:5:3:30 (H:m:s:ms)","GENERIC","31.03","0.19813165816215805","976"
"20:5:9:90 (H:m:s:ms)","GENERIC","31.032","0.19707298575712934","937"
"20:5:15:151 (H:m:s:ms)","GENERIC","31.045","0.19681763346470213","856"
"20:5:21:212 (H:m:s:ms)","GENERIC","31.058","0.2012653471789533","795"
"20:5:27:272 (H:m:s:ms)","GENERIC","31.047","0.20301944482590115","735"
"20:5:33:333 (H:m:s:ms)","GENERIC","31.034","0.20108595901099982","673"
"20:5:39:393 (H:m:s:ms)","GENERIC","31.021","0.20080277741413266","637"
"20:5:45:454 (H:m:s:ms)","GENERIC","31.072","0.1994995924340189","552"
"20:5:51:515 (H:m:s:ms)","GENERIC","31.017","0.20080929721614577","491"
"20:15:57:575 (H:m:s:ms)","GENERIC","62.081","0.1813031005483774","431"
"20:16:3:636 (H:m:s:ms)","GENERIC","62.115","0.17934676536978778","371"
"20:16:9:696 (H:m:s:ms)","GENERIC","62.055","0.1738094846485277","347"
"20:16:15:757 (H:m:s:ms)","GENERIC","62.071","0.1703216234968653","250"
"20:16:21:818 (H:m:s:ms)","GENERIC","62.165","0.17131881585528325","188"
"20:16:27:878 (H:m:s:ms)","GENERIC","62.049","0.16559113057124314","1129"
"20:16:33:939 (H:m:s:ms)","GENERIC","62.073","0.16439228877059156","1068"
"20:16:40:0 (H:m:s:ms)","GENERIC","62.033","0.16440799301981182","1043"
"20:16:46:60 (H:m:s:ms)","GENERIC","62.107","0.162338632052231","948"
"20:16:52:121 (H:m:s:ms)","GENERIC","62.079","0.1673177352880217","886"
"20:5:57:575 (H:m:s:ms)","GENERIC","31.043","0.20063812965956693","432"
"20:6:3:636 (H:m:s:ms)","GENERIC","31.05","0.1958412800762823","370"
"20:6:9:696 (H:m:s:ms)","GENERIC","31.023","0.1911202671543144","336"
"20:6:15:757 (H:m:s:ms)","GENERIC","31.042","0.1896033182235856","250"
"20:6:21:818 (H:m:s:ms)","GENERIC","31.082","0.19051203361695468","189"
"20:6:27:878 (H:m:s:ms)","GENERIC","31.032","0.18609745283029938","128"
"20:6:33:939 (H:m:s:ms)","GENERIC","31.028","0.1880213171191175","1069"
"20:6:40:0 (H:m:s:ms)","GENERIC","31.018","0.188360541242393","1007"
"20:6:46:60 (H:m:s:ms)","GENERIC","31.064","0.18651077027862345","947"
"20:6:52:121 (H:m:s:ms)","GENERIC","31.049","0.19174655326923704","885"
"20:16:58:181 (H:m:s:ms)","GENERIC","62.033","0.17077524148173193","825"
"20:17:4:242 (H:m:s:ms)","GENERIC","62.105","0.17073907176985817","765"
"20:17:10:303 (H:m:s:ms)","GENERIC","62.103","0.1719074501158013","704"
"20:17:16:363 (H:m:s:ms)","GENERIC","62.101","0.1687723815132833","643"
"20:17:22:424 (H:m:s:ms)","GENERIC","62.107","0.1715018905937781","583"
"20:17:28:484 (H:m:s:ms)","GENERIC","62.159","0.17307160425487467","522"
"20:17:34:545 (H:m:s:ms)","GENERIC","62.067","0.17327132637848922","462"
"20:17:40:606 (H:m:s:ms)","GENERIC","62.101","0.17558179857558026","400"
"20:17:46:666 (H:m:s:ms)","GENERIC","62.137","0.16943727265075348","340"
"20:17:52:727 (H:m:s:ms)","GENERIC","62.157","0.16923809040441015","280"
"20:6:58:181 (H:m:s:ms)","GENERIC","31.025","0.19398846085803476","825"
"20:7:4:242 (H:m:s:ms)","GENERIC","31.044","0.19236025802552234","764"
"20:7:10:303 (H:m:s:ms)","GENERIC","31.058","0.18756919135393907","704"
"20:7:16:363 (H:m:s:ms)","GENERIC","31.05","0.18365130172725266","644"
"20:7:22:424 (H:m:s:ms)","GENERIC","31.05","0.18296631070141156","583"
"20:7:28:484 (H:m:s:ms)","GENERIC","31.077","0.18653706100748338","522"
"20:7:34:545 (H:m:s:ms)","GENERIC","31.031","0.1881675110873059","462"
"20:7:40:606 (H:m:s:ms)","GENERIC","31.043","0.1877699120038396","401"
"20:7:46:666 (H:m:s:ms)","GENERIC","31.062","0.18363042131206841","341"
"20:7:52:727 (H:m:s:ms)","GENERIC","31.076","0.18177766298291748","280"
"20:17:58:787 (H:m:s:ms)","GENERIC","62.061","0.16870731514052448","219"
"20:18:4:848 (H:m:s:ms)","GENERIC","62.065","0.16339063319684177","158"
"20:18:10:909 (H:m:s:ms)","GENERIC","62.131","0.16544099264385773","1098"
"20:18:16:969 (H:m:s:ms)","GENERIC","62.069","0.16626405111720366","1038"
"20:18:23:30 (H:m:s:ms)","GENERIC","62.099","0.16567763740830496","976"
"20:18:29:90 (H:m:s:ms)","GENERIC","62.063","0.16711252667755913","952"
"20:18:35:151 (H:m:s:ms)","GENERIC","62.057","0.16298843666356597","859"
"20:18:41:212 (H:m:s:ms)","GENERIC","62.121","0.16335282288651337","795"
"20:18:47:272 (H:m:s:ms)","GENERIC","62.059","0.1687087605931341","734"
"20:18:53:333 (H:m:s:ms)","GENERIC","62.041","0.17301459046203851","673"
"20:7:58:787 (H:m:s:ms)","GENERIC","31.028","0.1802936222055197","220"
"20:8:4:848 (H:m:s:ms)","GENERIC","31.028","0.1794279189804231","158"
"20:8:10:909 (H:m:s:ms)","GENERIC","31.075","0.17872740239011048","1098"
"20:8:16:969 (H:m:s:ms)","GENERIC","31.044","0.17863414253893492","1037"
"20:8:23:30 (H:m:s:ms)","GENERIC","31.061","0.17732590830547013","976"
"20:8:29:90 (H:m:s:ms)","GENERIC","31.026","0.1788590998204099","949"
"20:8:35:151 (H:m:s:ms)","GENERIC","31.038","0.17776882913993014","855"
"20:8:41:212 (H:m:s:ms)","GENERIC","31.069","0.17861194074691605","795"
"20:8:47:272 (H:m:s:ms)","GENERIC","31.032","0.18347216668230668","735"
"20:8:53:333 (H:m:s:ms)","GENERIC","31.017","0.18512755952845783","673"
"20:18:59:393 (H:m:s:ms)","GENERIC","62.073","0.1671714767084126","648"
"20:19:5:454 (H:m:s:ms)","GENERIC","62.125","0.1612131848945031","553"
"20:19:11:515 (H:m:s:ms)","GENERIC","62.105","0.16147087859078912","491"
"20:19:17:575 (H:m:s:ms)","GENERIC","62.103","0.16099675273261307","431"
"20:19:23:636 (H:m:s:ms)","GENERIC","62.033","0.1666632410094693","370"
"20:19:29:696 (H:m:s:ms)","GENERIC","62.081","0.16550932837835616","346"
"20:19:35:757 (H:m:s:ms)","GENERIC","62.125","0.16164853360409173","249"
"20:19:41:818 (H:m:s:ms)","GENERIC","62.047","0.16231919432911648","188"
"20:19:47:878 (H:m:s:ms)","GENERIC","62.065","0.16211575613334503","1128"
"20:19:53:939 (H:m:s:ms)","GENERIC","62.091","0.16223127581097488","1068"
"20:8:59:393 (H:m:s:ms)","GENERIC","31.043","0.17972526053130145","645"
"20:9:5:454 (H:m:s:ms)","GENERIC","31.053","0.1813943982089021","552"
"20:9:11:515 (H:m:s:ms)","GENERIC","31.059","0.18245534882369002","491"
"20:9:17:575 (H:m:s:ms)","GENERIC","31.047","0.18370812023156285","431"
"20:9:23:636 (H:m:s:ms)","GENERIC","31.023","0.17833515673621603","370"
"20:9:29:696 (H:m:s:ms)","GENERIC","31.045","0.17775985253098778","346"
"20:9:35:757 (H:m:s:ms)","GENERIC","31.068","0.17500833474005306","249"
"20:9:41:818 (H:m:s:ms)","GENERIC","31.031","0.1744660253776521","188"
"20:9:47:878 (H:m:s:ms)","GENERIC","31.042","0.1754103433189171","129"
"20:9:53:939 (H:m:s:ms)","GENERIC","31.042","0.17661255042091373","1068"
"21:41:36:969 (H:m:s:ms)","GENERIC","62.077","0.18958216825448992","1037"
"21:41:30:909 (H:m:s:ms)","GENERIC","62.047","0.19133966433679903","1097"
"21:41:24:848 (H:m:s:ms)","GENERIC","62.063","0.18964844550389526","163"
"21:41:18:787 (H:m:s:ms)","GENERIC","62.051","0.1934383315384548","220"
"21:41:12:727 (H:m:s:ms)","GENERIC","62.079","0.19350195748028984","280"
"21:41:6:666 (H:m:s:ms)","GENERIC","62.075","0.19350748919439628","340"
"21:41:0:606 (H:m:s:ms)","GENERIC","62.063","0.18854168775517857","401"
"21:41:55:151 (H:m:s:ms)","GENERIC","62.139","0.18648992769573783","855"
"21:41:49:90 (H:m:s:ms)","GENERIC","62.075","0.18957604806420292","951"
"21:41:43:30 (H:m:s:ms)","GENERIC","62.065","0.1895082098699192","977"
