"time (H:m:s:ms)","type","latency","utilisation","waiting"
"21:42:25:454 (H:m:s:ms)","GENERIC","124.248","0.2810234175551644","550"
"21:42:7:272 (H:m:s:ms)","GENERIC","93.145","0.2793075843637303","732"
"21:42:1:212 (H:m:s:ms)","GENERIC","124.507","0.2844691489327636","792"
"21:41:55:151 (H:m:s:ms)","GENERIC","124.628","0.28202278438302325","853"
"21:41:49:90 (H:m:s:ms)","GENERIC","124.35400000000001","0.27422988710157165","948"
"21:41:43:30 (H:m:s:ms)","GENERIC","124.519","0.2742959425342275","973"
"21:41:36:969 (H:m:s:ms)","GENERIC","124.56","0.2714753352475708","1034"
"21:41:30:909 (H:m:s:ms)","GENERIC","93.18","0.27489755847341013","1094"
"21:41:24:848 (H:m:s:ms)","GENERIC","124.506","0.28365390419719033","156"
"21:42:19:393 (H:m:s:ms)","GENERIC","124.611","0.2819299943570571","645"
"21:42:13:333 (H:m:s:ms)","GENERIC","124.434","0.2782023396417302","671"
"21:43:32:121 (H:m:s:ms)","GENERIC","124.201","0.297178388081691","882"
"21:43:26:60 (H:m:s:ms)","GENERIC","124.604","0.29496220482414964","944"
"21:43:13:939 (H:m:s:ms)","GENERIC","124.4","0.29821881931597105","1064"
"20:0:0:0 (H:m:s:ms)","GENERIC","93.207","0.10074327801207864","1120"
"21:43:7:878 (H:m:s:ms)","GENERIC","124.366","0.30314250810312987","1125"
"20:0:6:60 (H:m:s:ms)","GENERIC","93.22200000000001","0.13557370049366216","956"
"21:43:1:818 (H:m:s:ms)","GENERIC","93.383","0.3012395615530533","184"
"20:0:12:121 (H:m:s:ms)","GENERIC","93.172","0.15801029001602912","894"
"21:42:55:757 (H:m:s:ms)","GENERIC","124.576","0.3000086541660796","246"
"20:0:18:181 (H:m:s:ms)","GENERIC","62.213","0.16606484420224724","834"
"21:42:49:696 (H:m:s:ms)","GENERIC","124.58500000000001","0.299787665201973","342"
"20:0:24:242 (H:m:s:ms)","GENERIC","62.129999999999995","0.1755760173414203","774"
"21:42:43:636 (H:m:s:ms)","GENERIC","124.36099999999999","0.29962018364870424","367"
"20:0:30:303 (H:m:s:ms)","GENERIC","93.303","0.18014416184422752","713"
"21:42:37:575 (H:m:s:ms)","GENERIC","124.65299999999999","0.2965377003682943","429"
"20:0:36:363 (H:m:s:ms)","GENERIC","93.586","0.2069948331034839","652"
"21:42:31:515 (H:m:s:ms)","GENERIC","124.35","0.2850029148925862","488"
"20:0:42:424 (H:m:s:ms)","GENERIC","31.068","0.2101700248806663","591"
"21:10:18:181 (H:m:s:ms)","GENERIC","93.142","0.28895481990228733","822"
"20:0:48:484 (H:m:s:ms)","GENERIC","93.197","0.21441098503857786","531"
"21:10:24:242 (H:m:s:ms)","GENERIC","124.372","0.29004617009428757","762"
"21:10:30:303 (H:m:s:ms)","GENERIC","124.28999999999999","0.2864212364233231","701"
"21:10:36:363 (H:m:s:ms)","GENERIC","124.61","0.28469439483803954","642"
"21:10:42:424 (H:m:s:ms)","GENERIC","124.243","0.28354832807152947","580"
"21:10:48:484 (H:m:s:ms)","GENERIC","93.144","0.27653786624227167","520"
"21:10:54:545 (H:m:s:ms)","GENERIC","124.553","0.2741096947189891","459"
"21:11:0:606 (H:m:s:ms)","GENERIC","124.62","0.26678453076147407","398"
"21:43:20:0 (H:m:s:ms)","GENERIC","124.42","0.3038030425355244","1040"
"21:11:6:666 (H:m:s:ms)","GENERIC","93.367","0.26235750629796606","338"
"21:11:12:727 (H:m:s:ms)","GENERIC","124.53200000000001","0.2686899813186804","278"
"21:25:45:454 (H:m:s:ms)","GENERIC","93.077","0.20151115420891577","4610"
"21:44:38:787 (H:m:s:ms)","GENERIC","124.10499999999999","0.31074292503758916","216"
"21:44:32:727 (H:m:s:ms)","GENERIC","124.393","0.31290725021608073","276"
"21:44:26:666 (H:m:s:ms)","GENERIC","124.505","0.307103273114204","338"
"21:44:20:606 (H:m:s:ms)","GENERIC","124.243","0.3013789220469187","397"
"21:44:14:545 (H:m:s:ms)","GENERIC","124.332","0.30210607428832487","458"
"21:44:8:484 (H:m:s:ms)","GENERIC","124.592","0.3058190106819593","520"
"21:44:2:424 (H:m:s:ms)","GENERIC","124.611","0.30119045929687926","579"
"21:43:56:363 (H:m:s:ms)","GENERIC","124.61099999999999","0.3061430125620781","640"
"21:43:50:303 (H:m:s:ms)","GENERIC","124.229","0.3058374493414586","700"
"21:43:44:242 (H:m:s:ms)","GENERIC","124.565","0.2975395191956727","762"
"21:11:18:787 (H:m:s:ms)","GENERIC","124.53800000000001","0.2635085197784381","217"
"21:43:38:181 (H:m:s:ms)","GENERIC","124.566","0.29425793063995753","822"
"21:11:24:848 (H:m:s:ms)","GENERIC","124.594","0.2639865645860661","156"
"21:11:30:909 (H:m:s:ms)","GENERIC","124.218","0.26935948858737335","1095"
"21:11:36:969 (H:m:s:ms)","GENERIC","124.589","0.280766460019976","1035"
"21:11:43:30 (H:m:s:ms)","GENERIC","124.53999999999999","0.2837013729245184","974"
"21:11:49:90 (H:m:s:ms)","GENERIC","124.42","0.2827369292524994","952"
"21:11:55:151 (H:m:s:ms)","GENERIC","124.64500000000001","0.28002693628266134","854"
"21:12:1:212 (H:m:s:ms)","GENERIC","124.524","0.2729315574010199","793"
"21:12:7:272 (H:m:s:ms)","GENERIC","124.126","0.27204801848998944","732"
"21:12:13:333 (H:m:s:ms)","GENERIC","124.33099999999999","0.27886226215511667","670"
"21:26:21:818 (H:m:s:ms)","GENERIC","124.51400000000001","0.20159197631317347","3194"
"21:45:45:454 (H:m:s:ms)","GENERIC","93.107","0.31748292263646016","550"
"21:26:19:746 (H:m:s:ms)","OPERA","124.486","0.20071891736034325","291"
"21:45:39:393 (H:m:s:ms)","GENERIC","124.595","0.31887895658343246","646"
"21:45:33:333 (H:m:s:ms)","GENERIC","93.221","0.3176770559575593","670"
"21:45:27:272 (H:m:s:ms)","GENERIC","124.326","0.316629451361918","733"
"21:26:12:151 (H:m:s:ms)","OPERA","124.322","0.19730279619860747","39141"
"21:26:9:696 (H:m:s:ms)","GENERIC","124.606","0.2011697053638843","4360"
"21:45:21:212 (H:m:s:ms)","GENERIC","124.56700000000001","0.31347689402677525","791"
"21:26:4:556 (H:m:s:ms)","OPERA","124.44800000000001","0.20387013950231553","3462"
"21:45:15:151 (H:m:s:ms)","GENERIC","124.537","0.30990137947066554","853"
"21:26:3:636 (H:m:s:ms)","GENERIC","124.586","0.20337736186523828","366"
"21:45:9:90 (H:m:s:ms)","GENERIC","93.129","0.31003263832730465","948"
"21:25:57:575 (H:m:s:ms)","GENERIC","124.63499999999999","0.20160543538924527","28655"
"21:45:3:30 (H:m:s:ms)","GENERIC","124.182","0.3089514918542022","974"
"21:25:56:962 (H:m:s:ms)","OPERA","124.35400000000001","0.20401577168949053","1046"
"21:44:56:969 (H:m:s:ms)","GENERIC","124.134","0.3144506400141519","1034"
"21:12:19:393 (H:m:s:ms)","GENERIC","124.668","0.2789335769708629","650"
"21:25:51:515 (H:m:s:ms)","GENERIC","124.328","0.20471278580706417","3505"
"21:44:50:909 (H:m:s:ms)","GENERIC","124.471","0.31054101971748255","1094"
"21:12:25:454 (H:m:s:ms)","GENERIC","124.243","0.2813427287411603","549"
"21:25:49:367 (H:m:s:ms)","OPERA","124.47","0.2052973976421771","24876"
"21:44:44:848 (H:m:s:ms)","GENERIC","124.226","0.30681004914670473","156"
"21:12:31:515 (H:m:s:ms)","GENERIC","124.349","0.28520416813153515","489"
"21:12:37:575 (H:m:s:ms)","GENERIC","124.625","0.2952621376891847","429"
"21:12:43:636 (H:m:s:ms)","GENERIC","124.289","0.29330100457474584","368"
"21:12:49:696 (H:m:s:ms)","GENERIC","124.55799999999999","0.29628014178358925","346"
"21:12:55:757 (H:m:s:ms)","GENERIC","124.581","0.30154311188746974","247"
"21:13:1:818 (H:m:s:ms)","GENERIC","124.61500000000001","0.29882305616892685","186"
"21:13:7:878 (H:m:s:ms)","GENERIC","124.161","0.2962188786398619","1126"
"21:13:13:939 (H:m:s:ms)","GENERIC","124.431","0.29468430707237203","1067"
"21:26:15:757 (H:m:s:ms)","GENERIC","124.179","0.19994216818822397","2250"
"21:26:58:181 (H:m:s:ms)","GENERIC","124.652","0.19939608494349045","4887"
"21:46:52:121 (H:m:s:ms)","GENERIC","124.57300000000001","0.31754656095810174","884"
"21:26:57:721 (H:m:s:ms)","OPERA","124.189","0.20500835721224842","82096"
"21:46:46:60 (H:m:s:ms)","GENERIC","124.107","0.3141390809629244","944"
"21:26:52:121 (H:m:s:ms)","GENERIC","124.58500000000001","0.19581397195321246","402512"
"21:46:40:0 (H:m:s:ms)","GENERIC","124.414","0.3129147089297684","1039"
"21:46:33:939 (H:m:s:ms)","GENERIC","124.396","0.319496489590117","1064"
"21:46:27:878 (H:m:s:ms)","GENERIC","124.582","0.3186687042860168","1126"
"21:26:50:126 (H:m:s:ms)","OPERA","124.33000000000001","0.20208675479439933","18997"
"21:26:46:60 (H:m:s:ms)","GENERIC","124.339","0.19384886985748734","5001"
"21:26:42:531 (H:m:s:ms)","OPERA","124.394","0.19544034778372613","2483"
"21:46:21:818 (H:m:s:ms)","GENERIC","124.434","0.3150670033880707","186"
"21:26:40:0 (H:m:s:ms)","GENERIC","124.578","0.1940421506258423","1048"
"21:46:15:757 (H:m:s:ms)","GENERIC","124.17599999999999","0.316485546367717","247"
"21:26:34:936 (H:m:s:ms)","OPERA","124.293","0.2002748370700846","28317"
"21:46:9:696 (H:m:s:ms)","GENERIC","124.551","0.31325950562511407","344"
"21:13:20:0 (H:m:s:ms)","GENERIC","124.452","0.29120936349662363","1042"
"21:26:33:939 (H:m:s:ms)","GENERIC","124.41499999999999","0.19583498889993486","14174"
"21:46:3:636 (H:m:s:ms)","GENERIC","124.555","0.31521412391015924","367"
"21:13:26:60 (H:m:s:ms)","GENERIC","124.626","0.2919530301573961","944"
"21:26:27:878 (H:m:s:ms)","GENERIC","124.467","0.20043732311618745","11195"
"21:45:57:575 (H:m:s:ms)","GENERIC","124.676","0.3149236933305041","428"
"21:13:32:121 (H:m:s:ms)","GENERIC","124.271","0.2848724765038221","883"
"21:26:27:341 (H:m:s:ms)","OPERA","124.28200000000001","0.1971369960288815","660"
"21:45:51:515 (H:m:s:ms)","GENERIC","124.292","0.3211084709278537","489"
"21:13:38:181 (H:m:s:ms)","GENERIC","124.562","0.2904221756624194","825"
"21:13:44:242 (H:m:s:ms)","GENERIC","124.577","0.2985850185602843","762"
"21:13:50:303 (H:m:s:ms)","GENERIC","124.189","0.3011396280146188","701"
"21:13:56:363 (H:m:s:ms)","GENERIC","124.634","0.3013373868431849","641"
"21:14:2:424 (H:m:s:ms)","GENERIC","93.319","0.3012363879120378","580"
"21:14:8:484 (H:m:s:ms)","GENERIC","124.46199999999999","0.30726901163459575","520"
"21:14:14:545 (H:m:s:ms)","GENERIC","124.311","0.30905850160356757","459"
"21:27:35:696 (H:m:s:ms)","OPERA","124.418","0.20988798441064974","305"
"21:47:58:787 (H:m:s:ms)","GENERIC","124.23","0.3073079938712386","217"
"21:27:34:545 (H:m:s:ms)","GENERIC","124.309","0.2201505552456531","458"
"21:47:52:727 (H:m:s:ms)","GENERIC","93.09","0.30806079893224503","276"
"21:27:28:484 (H:m:s:ms)","GENERIC","124.47800000000001","0.20687835039300528","22777"
"21:47:46:666 (H:m:s:ms)","GENERIC","93.247","0.3149590270554213","337"
"21:27:28:101 (H:m:s:ms)","OPERA","93.269","0.21075903924525197","13073"
"21:47:40:606 (H:m:s:ms)","GENERIC","124.41","0.3206901420997261","397"
"21:47:34:545 (H:m:s:ms)","GENERIC","124.27799999999999","0.32190192090061776","460"
"21:47:28:484 (H:m:s:ms)","GENERIC","124.2","0.31949659628795474","519"
"21:27:22:424 (H:m:s:ms)","GENERIC","124.578","0.22512809832869649","10718"
"21:27:20:506 (H:m:s:ms)","OPERA","124.41900000000001","0.2123745732586575","498"
"21:27:16:363 (H:m:s:ms)","GENERIC","93.307","0.2235047103200265","17877"
"21:47:22:424 (H:m:s:ms)","GENERIC","124.536","0.3154099148533021","579"
"21:14:20:606 (H:m:s:ms)","GENERIC","93.389","0.3024667000022506","398"
"21:27:12:911 (H:m:s:ms)","OPERA","124.286","0.2282185341522252","21347"
"21:47:16:363 (H:m:s:ms)","GENERIC","124.517","0.31537301896700665","641"
"21:14:26:666 (H:m:s:ms)","GENERIC","93.223","0.30650101135889096","338"
"21:27:10:303 (H:m:s:ms)","GENERIC","124.27799999999999","0.21555382179270513","16852"
"21:47:10:303 (H:m:s:ms)","GENERIC","93.181","0.31267320956944356","700"
"20:52:19:393 (H:m:s:ms)","GENERIC","124.613","0.22404885536553684","653"
"21:14:32:727 (H:m:s:ms)","GENERIC","124.477","0.3092934966047982","277"
"21:27:5:316 (H:m:s:ms)","OPERA","124.386","0.19837757900373726","684"
"21:47:4:242 (H:m:s:ms)","GENERIC","124.283","0.3157793130235264","762"
"20:52:25:454 (H:m:s:ms)","GENERIC","93.172","0.23633897022352005","547"
"21:14:38:787 (H:m:s:ms)","GENERIC","124.156","0.29963949783640964","216"
"21:27:4:242 (H:m:s:ms)","GENERIC","124.299","0.1917918774580394","381260"
"21:46:58:181 (H:m:s:ms)","GENERIC","124.656","0.32465699273116605","822"
"20:52:31:515 (H:m:s:ms)","GENERIC","124.288","0.24661782347641414","486"
"21:14:44:848 (H:m:s:ms)","GENERIC","124.237","0.3009708552238485","155"
"20:52:37:575 (H:m:s:ms)","GENERIC","93.333","0.24539597801581825","425"
"21:14:50:909 (H:m:s:ms)","GENERIC","124.435","0.3049908224624494","1095"
"20:52:43:636 (H:m:s:ms)","GENERIC","93.199","0.24199733190469272","365"
"21:14:56:969 (H:m:s:ms)","GENERIC","124.189","0.30995375274765574","1035"
"20:52:49:696 (H:m:s:ms)","GENERIC","124.58","0.25150463194787825","350"
"21:15:3:30 (H:m:s:ms)","GENERIC","124.18799999999999","0.30579315941892443","974"
"20:52:55:757 (H:m:s:ms)","GENERIC","124.57900000000001","0.2546779645457512","243"
"21:15:9:90 (H:m:s:ms)","GENERIC","124.237","0.30669413346861746","951"
"20:53:1:818 (H:m:s:ms)","GENERIC","124.57300000000001","0.26618329529302154","183"
"21:15:15:151 (H:m:s:ms)","GENERIC","93.297","0.3044185122556799","853"
"20:53:7:878 (H:m:s:ms)","GENERIC","124.163","0.26043208385563005","1123"
"20:53:13:939 (H:m:s:ms)","GENERIC","124.357","0.25284782071663525","1063"
"21:28:16:969 (H:m:s:ms)","GENERIC","124.427","0.21098929542713513","150432"
"21:49:5:454 (H:m:s:ms)","GENERIC","124.24000000000001","0.30990561091021546","550"
"21:28:13:670 (H:m:s:ms)","OPERA","124.543","0.20251613344977595","14473"
"21:48:59:393 (H:m:s:ms)","GENERIC","124.34899999999999","0.3107337636838554","647"
"21:28:10:909 (H:m:s:ms)","GENERIC","124.499","0.20299654946520104","29392"
"21:48:53:333 (H:m:s:ms)","GENERIC","124.489","0.3080598200322771","672"
"21:28:4:848 (H:m:s:ms)","GENERIC","124.205","0.20197799327446367","14272"
"21:48:47:272 (H:m:s:ms)","GENERIC","124.182","0.3152241275340994","731"
"21:27:58:787 (H:m:s:ms)","GENERIC","124.309","0.2087439136518544","216"
"21:48:41:212 (H:m:s:ms)","GENERIC","124.324","0.31196999719370916","791"
"21:48:35:151 (H:m:s:ms)","GENERIC","124.45400000000001","0.31461508909970176","853"
"21:48:29:90 (H:m:s:ms)","GENERIC","124.608","0.3041166273740406","949"
"21:27:58:481 (H:m:s:ms)","OPERA","124.088","0.20325990874580285","11649"
"21:15:21:212 (H:m:s:ms)","GENERIC","124.41300000000001","0.3071631074192971","792"
"21:27:52:727 (H:m:s:ms)","GENERIC","124.27699999999999","0.20311297560522923","11378"
"21:15:27:272 (H:m:s:ms)","GENERIC","124.288","0.3120060152328509","731"
"21:27:50:886 (H:m:s:ms)","OPERA","124.207","0.20585715576034636","12223"
"21:48:23:30 (H:m:s:ms)","GENERIC","124.626","0.3043118586659469","973"
"20:53:20:0 (H:m:s:ms)","GENERIC","124.459","0.2605767843611347","1047"
"21:15:33:333 (H:m:s:ms)","GENERIC","93.23","0.30556790531395045","671"
"21:27:46:666 (H:m:s:ms)","GENERIC","124.446","0.21188396895217143","10430"
"21:48:16:969 (H:m:s:ms)","GENERIC","124.345","0.3037511566633992","1035"
"20:53:26:60 (H:m:s:ms)","GENERIC","124.52099999999999","0.26027887938533745","942"
"21:15:39:393 (H:m:s:ms)","GENERIC","124.622","0.3110490450596639","649"
"21:27:43:291 (H:m:s:ms)","OPERA","124.34","0.20768936906926766","5736"
"21:48:10:909 (H:m:s:ms)","GENERIC","93.359","0.3086430405474504","1094"
"20:53:32:121 (H:m:s:ms)","GENERIC","93.196","0.26301517074785075","881"
"21:15:45:454 (H:m:s:ms)","GENERIC","124.16499999999999","0.3117427689692474","549"
"21:27:40:606 (H:m:s:ms)","GENERIC","124.608","0.20340236739580803","396"
"21:48:4:848 (H:m:s:ms)","GENERIC","93.15899999999999","0.3081141834439196","155"
"20:53:38:181 (H:m:s:ms)","GENERIC","124.618","0.2595803602612021","821"
"21:15:51:515 (H:m:s:ms)","GENERIC","124.342","0.3114031566717283","489"
"20:53:44:242 (H:m:s:ms)","GENERIC","124.68299999999999","0.26900788247507595","761"
"21:15:57:575 (H:m:s:ms)","GENERIC","124.601","0.30757247020810186","429"
"20:53:50:303 (H:m:s:ms)","GENERIC","124.193","0.27139302981629104","699"
"21:16:3:636 (H:m:s:ms)","GENERIC","124.564","0.3045054172076705","368"
"20:53:56:363 (H:m:s:ms)","GENERIC","124.564","0.269293458127035","640"
"21:16:9:696 (H:m:s:ms)","GENERIC","124.553","0.3068079894105313","346"
"20:54:2:424 (H:m:s:ms)","GENERIC","124.501","0.27205279821104544","578"
"21:16:15:757 (H:m:s:ms)","GENERIC","124.18299999999999","0.3057732535474001","247"
"20:54:8:484 (H:m:s:ms)","GENERIC","124.488","0.28774972298519486","518"
"20:54:14:545 (H:m:s:ms)","GENERIC","124.311","0.28599085992051176","458"
"21:28:53:333 (H:m:s:ms)","GENERIC","93.237","0.2066326244405908","11811"
"22:3:9:473 (H:m:s:ms)","AMBULANCE","124.583","0.1412346020188352","541"
"21:28:51:645 (H:m:s:ms)","OPERA","124.499","0.20538811821924513","177447"
"22:1:34:736 (H:m:s:ms)","AMBULANCE","124.551","0.06909314063573345","270"
"21:28:47:272 (H:m:s:ms)","GENERIC","124.493","0.1981934863849669","734"
"21:50:0:0 (H:m:s:ms)","GENERIC","124.445","0.3122243830467355","1039"
"21:28:44:50 (H:m:s:ms)","OPERA","124.4","0.20488699946006356","958"
"21:49:53:939 (H:m:s:ms)","GENERIC","124.205","0.31607901577116254","1065"
"21:28:41:212 (H:m:s:ms)","GENERIC","124.195","0.19458145927027606","77046"
"21:49:47:878 (H:m:s:ms)","GENERIC","124.34800000000001","0.3108466303428749","1125"
"21:28:36:455 (H:m:s:ms)","OPERA","124.221","0.20951844942797476","272961"
"21:49:41:818 (H:m:s:ms)","GENERIC","124.20400000000001","0.3186228258344088","185"
"21:49:35:757 (H:m:s:ms)","GENERIC","124.572","0.3264388906240208","246"
"21:49:29:696 (H:m:s:ms)","GENERIC","124.445","0.3208805603731503","344"
"21:16:21:818 (H:m:s:ms)","GENERIC","124.513","0.30016265553377325","186"
"21:16:27:878 (H:m:s:ms)","GENERIC","124.55199999999999","0.2991454991423149","1126"
"21:28:35:151 (H:m:s:ms)","GENERIC","124.606","0.2138486562129722","854"
"20:54:20:606 (H:m:s:ms)","GENERIC","93.138","0.2865629929341195","397"
"21:16:33:939 (H:m:s:ms)","GENERIC","124.44800000000001","0.3059533617822548","1066"
"21:28:29:90 (H:m:s:ms)","GENERIC","124.65799999999999","0.21047720107784318","257122"
"20:54:26:666 (H:m:s:ms)","GENERIC","124.47300000000001","0.28109493261452684","336"
"21:16:40:0 (H:m:s:ms)","GENERIC","124.494","0.29513377973614346","1043"
"21:28:28:860 (H:m:s:ms)","OPERA","124.22200000000001","0.201653383926066","142"
"21:49:23:636 (H:m:s:ms)","GENERIC","124.242","0.3184933960718155","367"
"20:54:32:727 (H:m:s:ms)","GENERIC","124.399","0.28291273257827737","276"
"21:16:46:60 (H:m:s:ms)","GENERIC","124.263","0.2951479964244818","943"
"21:28:23:30 (H:m:s:ms)","GENERIC","124.563","0.20381698569890377","975"
"21:49:17:575 (H:m:s:ms)","GENERIC","124.491","0.31212581848747567","428"
"20:54:38:787 (H:m:s:ms)","GENERIC","124.163","0.2777672621854983","215"
"21:16:52:121 (H:m:s:ms)","GENERIC","93.21799999999999","0.29482215398313477","883"
"21:28:21:265 (H:m:s:ms)","OPERA","124.35900000000001","0.205580217308379","211158"
"21:49:11:515 (H:m:s:ms)","GENERIC","124.304","0.31381793496610927","488"
"20:54:44:848 (H:m:s:ms)","GENERIC","124.299","0.28626126984593236","155"
"21:16:58:181 (H:m:s:ms)","GENERIC","124.55600000000001","0.29860965101976905","823"
"20:54:50:909 (H:m:s:ms)","GENERIC","124.35900000000001","0.2772090802497612","1093"
"21:17:4:242 (H:m:s:ms)","GENERIC","124.288","0.2954987158995377","762"
"20:54:56:969 (H:m:s:ms)","GENERIC","124.10300000000001","0.27879297378691353","1033"
"21:17:10:303 (H:m:s:ms)","GENERIC","124.235","0.2922790541703824","700"
"20:55:3:30 (H:m:s:ms)","GENERIC","124.24799999999999","0.2799188116072851","973"
"21:17:16:363 (H:m:s:ms)","GENERIC","124.487","0.29622428026533604","641"
"20:55:9:90 (H:m:s:ms)","GENERIC","124.18299999999999","0.2808074850746335","955"
"20:55:15:151 (H:m:s:ms)","GENERIC","124.578","0.29252274674770345","851"
"21:29:29:696 (H:m:s:ms)","GENERIC","124.44","0.19891300484917596","34011"
"21:29:29:620 (H:m:s:ms)","OPERA","124.134","0.19679679409101797","27953"
"21:29:23:636 (H:m:s:ms)","GENERIC","93.193","0.2085179032112185","369"
"21:29:22:25 (H:m:s:ms)","OPERA","124.274","0.20939567504000936","60119"
"21:29:17:575 (H:m:s:ms)","GENERIC","124.44800000000001","0.20260895517306265","26927"
"21:29:14:430 (H:m:s:ms)","OPERA","124.393","0.20275199163651303","17888"
"21:29:11:515 (H:m:s:ms)","GENERIC","124.4","0.21251730891043158","16749"
"21:17:22:424 (H:m:s:ms)","GENERIC","124.479","0.2914822847421608","580"
"21:17:28:484 (H:m:s:ms)","GENERIC","124.271","0.29297559946849583","520"
"20:55:21:212 (H:m:s:ms)","GENERIC","124.535","0.30045537957115787","792"
"21:17:34:545 (H:m:s:ms)","GENERIC","124.31","0.2925892786313522","458"
"20:55:27:272 (H:m:s:ms)","GENERIC","124.28999999999999","0.30712497255319804","731"
"21:17:40:606 (H:m:s:ms)","GENERIC","124.376","0.2854624689778193","398"
"21:29:6:835 (H:m:s:ms)","OPERA","124.445","0.223167178189053","13406"
"20:55:33:333 (H:m:s:ms)","GENERIC","124.334","0.31260725355480734","670"
"21:17:46:666 (H:m:s:ms)","GENERIC","124.43199999999999","0.2843147449412769","337"
"21:29:5:454 (H:m:s:ms)","GENERIC","124.262","0.2088633228579702","8681"
"20:55:39:393 (H:m:s:ms)","GENERIC","124.548","0.3096133977272653","655"
"21:17:52:727 (H:m:s:ms)","GENERIC","93.336","0.28355142901567726","277"
"21:28:59:393 (H:m:s:ms)","GENERIC","124.16","0.19561356057598722","643"
"22:10:0:0 (H:m:s:ms)","AMBULANCE","124.4","0.08192403958868803","1013"
"20:55:45:454 (H:m:s:ms)","GENERIC","124.119","0.30921837294801385","549"
"21:17:58:787 (H:m:s:ms)","GENERIC","124.30099999999999","0.28412811966656853","216"
"21:28:59:240 (H:m:s:ms)","OPERA","124.2","0.2075243872761834","8876"
"22:7:22:105 (H:m:s:ms)","AMBULANCE","93.307","0.12561552874683615","903"
"20:55:51:515 (H:m:s:ms)","GENERIC","93.212","0.305889100052476","488"
"21:18:4:848 (H:m:s:ms)","GENERIC","93.173","0.2835149885004642","158"
"20:55:57:575 (H:m:s:ms)","GENERIC","124.55","0.3098680675488822","428"
"21:18:10:909 (H:m:s:ms)","GENERIC","124.576","0.2856786534202923","1095"
"20:56:3:636 (H:m:s:ms)","GENERIC","124.577","0.30797625174969806","366"
"21:18:16:969 (H:m:s:ms)","GENERIC","124.30799999999999","0.2921126651918402","1035"
"20:56:9:696 (H:m:s:ms)","GENERIC","124.466","0.31303222746620135","351"
"20:56:15:757 (H:m:s:ms)","GENERIC","124.165","0.31218053317485533","246"
"21:30:0:0 (H:m:s:ms)","GENERIC","124.469","0.19570393667237013","51958"
"21:30:0:0 (H:m:s:ms)","AMBULANCE","124.37","0.20356026417343823","10252"
"21:30:0:0 (H:m:s:ms)","GENERIC","124.367","0.20514987341775698","27527"
"21:30:0:0 (H:m:s:ms)","OPERA","124.526","0.19675521638669743","1061"
"21:29:53:939 (H:m:s:ms)","GENERIC","124.21700000000001","0.2046930642480703","16412"
"21:29:52:405 (H:m:s:ms)","OPERA","124.206","0.1925945864596392","606"
"21:29:47:878 (H:m:s:ms)","GENERIC","124.396","0.22297779147494798","58218"
"21:29:44:810 (H:m:s:ms)","OPERA","124.309","0.2073091992809433","43025"
"21:18:23:30 (H:m:s:ms)","GENERIC","124.612","0.29409289930671595","975"
"21:18:29:90 (H:m:s:ms)","GENERIC","124.457","0.2877743047253108","950"
"20:56:21:818 (H:m:s:ms)","GENERIC","124.53899999999999","0.3172148172548844","185"
"21:18:35:151 (H:m:s:ms)","GENERIC","124.533","0.2925303568268057","853"
"20:56:27:878 (H:m:s:ms)","GENERIC","124.549","0.31469098404458623","1125"
"21:18:41:212 (H:m:s:ms)","GENERIC","124.285","0.2956911014382398","793"
"20:40:0:0 (H:m:s:ms)","OPERA","62.120999999999995","0.281478830046807","1117"
"20:56:33:939 (H:m:s:ms)","GENERIC","124.46600000000001","0.31555134164556475","1064"
"21:18:47:272 (H:m:s:ms)","GENERIC","93.104","0.29634277044288665","732"
"20:40:0:0 (H:m:s:ms)","GENERIC","124.255","0.2787430085540297","1122"
"20:56:40:0 (H:m:s:ms)","GENERIC","124.449","0.3143668993171699","1047"
"21:18:53:333 (H:m:s:ms)","GENERIC","124.431","0.29785350240339","671"
"21:29:41:818 (H:m:s:ms)","GENERIC","124.395","0.2038346522793304","33853"
"20:40:0:0 (H:m:s:ms)","GENERIC","124.563","0.2790308261075588","1128"
"20:56:46:60 (H:m:s:ms)","GENERIC","124.186","0.3099101618787101","944"
"21:18:59:393 (H:m:s:ms)","GENERIC","93.148","0.2973736150239436","649"
"21:29:37:215 (H:m:s:ms)","OPERA","93.364","0.20131277764263528","793"
"20:40:6:60 (H:m:s:ms)","GENERIC","124.2","0.277690395993552","944"
"20:56:52:121 (H:m:s:ms)","GENERIC","124.536","0.31236748465644093","883"
"21:19:5:454 (H:m:s:ms)","GENERIC","124.255","0.2885084741321","550"
"21:29:35:757 (H:m:s:ms)","GENERIC","124.39","0.22520652579035186","52259"
"20:40:7:594 (H:m:s:ms)","OPERA","93.313","0.27961499082145763","410"
"20:56:58:181 (H:m:s:ms)","GENERIC","124.591","0.3106976680263635","824"
"21:19:11:515 (H:m:s:ms)","GENERIC","124.364","0.28898128931879885","489"
"20:40:12:121 (H:m:s:ms)","GENERIC","124.251","0.2776670308362035","883"
"20:57:4:242 (H:m:s:ms)","GENERIC","124.253","0.3122188682212657","762"
"21:19:17:575 (H:m:s:ms)","GENERIC","124.46","0.2864087996869111","429"
"20:40:15:189 (H:m:s:ms)","OPERA","93.272","0.27784440793278325","815"
"20:57:10:303 (H:m:s:ms)","GENERIC","124.266","0.3153563311774846","701"
"20:40:18:181 (H:m:s:ms)","GENERIC","124.31899999999999","0.2798989552013689","823"
"20:57:16:363 (H:m:s:ms)","GENERIC","124.549","0.3154524420547204","641"
"20:40:22:784 (H:m:s:ms)","OPERA","93.33500000000001","0.2789417314470772","220"
"20:40:24:242 (H:m:s:ms)","GENERIC","124.319","0.27948228549945464","761"
"21:30:18:181 (H:m:s:ms)","GENERIC","124.372","0.20135150161541945","23238"
"21:31:0:606 (H:m:s:ms)","GENERIC","124.62700000000001","0.21718373315534456","20779"
"21:30:54:545 (H:m:s:ms)","GENERIC","124.53399999999999","0.21218634704414618","168814"
"21:30:48:484 (H:m:s:ms)","GENERIC","124.203","0.19934959203505023","2590"
"21:30:42:424 (H:m:s:ms)","GENERIC","124.34700000000001","0.20140401614232395","16841"
"21:30:36:363 (H:m:s:ms)","GENERIC","93.239","0.20119856804932013","27117"
"21:30:31:578 (H:m:s:ms)","AMBULANCE","124.306","0.20497368748162723","171030"
"21:30:30:303 (H:m:s:ms)","GENERIC","124.482","0.21005466412093587","45471"
"21:19:23:636 (H:m:s:ms)","GENERIC","124.24799999999999","0.29353987674565507","369"
"21:30:24:242 (H:m:s:ms)","GENERIC","124.416","0.19919963616093264","24157"
"21:19:29:696 (H:m:s:ms)","GENERIC","124.386","0.29751907547457823","345"
"20:57:22:424 (H:m:s:ms)","GENERIC","124.493","0.3115163457463985","580"
"21:19:35:757 (H:m:s:ms)","GENERIC","124.583","0.2970406019623782","247"
"20:57:28:484 (H:m:s:ms)","GENERIC","124.203","0.3136560613573044","519"
"21:19:41:818 (H:m:s:ms)","GENERIC","124.22200000000001","0.29746395489817773","186"
"20:40:30:303 (H:m:s:ms)","GENERIC","93.208","0.27447214527308716","701"
"20:57:34:545 (H:m:s:ms)","GENERIC","93.209","0.3125524089751325","459"
"21:19:47:878 (H:m:s:ms)","GENERIC","124.33","0.30090044579325015","1126"
"20:40:30:379 (H:m:s:ms)","OPERA","93.248","0.2712027725450605","629"
"20:57:40:606 (H:m:s:ms)","GENERIC","124.456","0.31413252926025004","398"
"21:19:53:939 (H:m:s:ms)","GENERIC","124.19","0.2977180495120444","1064"
"20:40:36:363 (H:m:s:ms)","GENERIC","124.649","0.27735992229617656","641"
"20:57:46:666 (H:m:s:ms)","GENERIC","124.422","0.31463153092179463","337"
"21:20:0:0 (H:m:s:ms)","OPERA","124.31200000000001","0.2973498988839796","1112"
"20:40:37:974 (H:m:s:ms)","OPERA","93.373","0.28026028696003186","1029"
"20:57:52:727 (H:m:s:ms)","GENERIC","124.27199999999999","0.31041969445230705","277"
"21:20:0:0 (H:m:s:ms)","GENERIC","124.352","0.3022466361106614","1117"
"21:30:12:121 (H:m:s:ms)","GENERIC","124.304","0.20275607128121884","113745"
"20:40:42:424 (H:m:s:ms)","GENERIC","93.143","0.27210857413101536","579"
"20:57:58:787 (H:m:s:ms)","GENERIC","124.235","0.3040411254493229","217"
"21:20:0:0 (H:m:s:ms)","GENERIC","124.53399999999999","0.30101041929686984","1122"
"21:30:6:60 (H:m:s:ms)","GENERIC","124.325","0.19047225686030983","27418"
"20:40:45:569 (H:m:s:ms)","OPERA","93.273","0.27354017123104774","434"
"20:58:4:848 (H:m:s:ms)","GENERIC","124.432","0.2964572069707894","156"
"21:20:6:60 (H:m:s:ms)","GENERIC","124.213","0.30624192317624954","944"
"20:40:48:484 (H:m:s:ms)","GENERIC","93.153","0.2773373807466773","519"
"20:58:10:909 (H:m:s:ms)","GENERIC","124.56899999999999","0.3018175547362663","1095"
"20:40:53:164 (H:m:s:ms)","OPERA","93.309","0.28010228281697314","840"
"20:58:16:969 (H:m:s:ms)","GENERIC","124.265","0.30106466139576626","1035"
"20:40:54:545 (H:m:s:ms)","GENERIC","124.56","0.28071502989247693","458"
"20:41:0:606 (H:m:s:ms)","GENERIC","124.557","0.28298581912936704","397"
"21:31:12:727 (H:m:s:ms)","GENERIC","93.327","0.21186907963398016","14529"
"21:31:6:666 (H:m:s:ms)","GENERIC","124.638","0.20785381502942388","2374"
"21:31:55:151 (H:m:s:ms)","GENERIC","124.554","0.20894844159939874","2869"
"21:31:49:90 (H:m:s:ms)","GENERIC","124.399","0.2070223501663104","2961"
"21:31:43:30 (H:m:s:ms)","GENERIC","124.44200000000001","0.20778717227607252","971"
"21:31:36:969 (H:m:s:ms)","GENERIC","124.57900000000001","0.20575438302864046","1047"
"21:31:34:736 (H:m:s:ms)","AMBULANCE","124.49000000000001","0.20734700502545605","5364"
"21:31:30:909 (H:m:s:ms)","GENERIC","124.346","0.20942549605372104","1105"
"21:31:24:848 (H:m:s:ms)","GENERIC","124.59700000000001","0.214767623671035","4216"
"21:31:18:787 (H:m:s:ms)","GENERIC","124.491","0.20798974640508314","2289"
"20:58:23:30 (H:m:s:ms)","GENERIC","93.34700000000001","0.30386049275374655","974"
"20:58:29:90 (H:m:s:ms)","GENERIC","124.607","0.30533486598605225","958"
"20:41:0:759 (H:m:s:ms)","OPERA","62.22","0.2792684754730097","247"
"20:58:35:151 (H:m:s:ms)","GENERIC","124.53399999999999","0.3003471241545853","853"
"20:41:6:666 (H:m:s:ms)","GENERIC","124.578","0.2805096637633325","337"
"20:58:41:212 (H:m:s:ms)","GENERIC","62.063","0.29825495728824464","792"
"20:41:8:354 (H:m:s:ms)","OPERA","93.225","0.2788494200523368","649"
"20:58:47:272 (H:m:s:ms)","GENERIC","93.179","0.2939574919716431","732"
"20:41:12:727 (H:m:s:ms)","GENERIC","124.49000000000001","0.28245269657194266","276"
"20:58:53:333 (H:m:s:ms)","GENERIC","124.451","0.29097583056154575","671"
"20:41:15:949 (H:m:s:ms)","OPERA","93.297","0.2892302642398952","1053"
"20:58:59:393 (H:m:s:ms)","GENERIC","124.227","0.291280145035014","654"
"20:41:18:787 (H:m:s:ms)","GENERIC","93.298","0.28654868883485207","216"
"20:59:5:454 (H:m:s:ms)","GENERIC","124.39","0.28445678255202445","550"
"21:31:3:157 (H:m:s:ms)","AMBULANCE","124.543","0.21498551483656336","5928"
"20:41:23:544 (H:m:s:ms)","OPERA","93.332","0.28792261827855176","458"
"20:59:11:515 (H:m:s:ms)","GENERIC","124.28999999999999","0.28882403057779593","489"
"20:41:24:848 (H:m:s:ms)","GENERIC","124.569","0.2886817089688596","155"
"20:59:17:575 (H:m:s:ms)","GENERIC","124.451","0.2929603979491173","429"
"20:41:30:909 (H:m:s:ms)","GENERIC","124.247","0.2845976885963793","1094"
"20:41:31:139 (H:m:s:ms)","OPERA","93.34100000000001","0.2853324461197555","868"
"20:59:23:636 (H:m:s:ms)","GENERIC","124.241","0.2958174834860268","368"
"20:59:29:696 (H:m:s:ms)","GENERIC","124.493","0.2957269889966652","352"
"20:41:36:969 (H:m:s:ms)","GENERIC","124.58000000000001","0.28045913356246005","1033"
"20:59:35:757 (H:m:s:ms)","GENERIC","93.34400000000001","0.2936608272443195","249"
"20:41:38:734 (H:m:s:ms)","OPERA","93.373","0.2797005453088114","269"
"20:59:41:818 (H:m:s:ms)","GENERIC","124.194","0.29455066931956725","187"
"20:41:43:30 (H:m:s:ms)","GENERIC","124.5","0.2764925088643037","972"
"20:59:47:878 (H:m:s:ms)","GENERIC","124.386","0.29790356311124","1126"
"20:41:46:329 (H:m:s:ms)","OPERA","93.424","0.2701328473688353","678"
"20:59:53:939 (H:m:s:ms)","GENERIC","124.179","0.2919374004233507","1066"
"20:41:49:90 (H:m:s:ms)","GENERIC","124.443","0.27199754520331876","950"
"21:0:0:0 (H:m:s:ms)","AMBULANCE","93.411","0.2877965156959171","1127"
"20:41:53:924 (H:m:s:ms)","OPERA","62.263999999999996","0.2689242347766798","1078"
"21:0:0:0 (H:m:s:ms)","GENERIC","93.321","0.2878421496513507","1132"
"20:41:55:151 (H:m:s:ms)","GENERIC","124.584","0.26575794513977635","851"
"21:0:0:0 (H:m:s:ms)","GENERIC","124.612","0.29060717125429725","1137"
"20:42:1:212 (H:m:s:ms)","GENERIC","93.18299999999999","0.26231234526203345","790"
"21:0:6:60 (H:m:s:ms)","GENERIC","124.277","0.29633458453608585","943"
"20:42:1:518 (H:m:s:ms)","OPERA","93.345","0.26121138932138654","487"
"20:42:7:272 (H:m:s:ms)","GENERIC","124.162","0.27224948624899836","730"
"21:0:12:121 (H:m:s:ms)","GENERIC","93.239","0.30322722062893476","883"
"21:0:18:181 (H:m:s:ms)","GENERIC","124.247","0.3032912129067793","823"
"20:42:9:113 (H:m:s:ms)","OPERA","93.208","0.26320427198873886","928"
"21:0:24:242 (H:m:s:ms)","GENERIC","124.33699999999999","0.3001452949814443","762"
"20:42:13:333 (H:m:s:ms)","GENERIC","124.44200000000001","0.2673836874540742","669"
"21:0:30:303 (H:m:s:ms)","GENERIC","124.328","0.30931663708609725","704"
"20:20:0:0 (H:m:s:ms)","GENERIC","124.285","0.31246668678552375","1116"
"20:42:16:708 (H:m:s:ms)","OPERA","93.203","0.26802861180678433","294"
"21:0:31:578 (H:m:s:ms)","AMBULANCE","93.582","0.30858611073767706","426"
"20:20:0:0 (H:m:s:ms)","GENERIC","124.487","0.31366879357202265","1121"
"20:42:19:393 (H:m:s:ms)","GENERIC","62.121","0.26406384709139014","647"
"21:0:36:363 (H:m:s:ms)","GENERIC","124.608","0.306599828195882","641"
"20:20:6:60 (H:m:s:ms)","GENERIC","124.319","0.31858384598981765","944"
"20:42:24:303 (H:m:s:ms)","OPERA","62.172","0.26552287844474287","699"
"21:0:42:424 (H:m:s:ms)","GENERIC","124.14699999999999","0.29934889789146635","580"
"20:20:12:121 (H:m:s:ms)","GENERIC","124.148","0.31540217381883834","882"
"20:42:25:454 (H:m:s:ms)","GENERIC","124.28","0.26445786676233835","548"
"21:0:48:484 (H:m:s:ms)","GENERIC","124.236","0.3017423434346263","520"
"20:20:18:181 (H:m:s:ms)","GENERIC","124.275","0.30825219636604934","823"
"20:42:31:515 (H:m:s:ms)","GENERIC","124.482","0.27765746045458134","487"
"21:0:54:545 (H:m:s:ms)","GENERIC","124.50999999999999","0.3062426133102198","460"
"20:20:24:242 (H:m:s:ms)","GENERIC","93.16","0.3102720409642275","762"
"20:42:31:898 (H:m:s:ms)","OPERA","93.302","0.2731390373863038","107"
"21:1:0:606 (H:m:s:ms)","GENERIC","124.55199999999999","0.30819364411695566","397"
"20:20:30:303 (H:m:s:ms)","GENERIC","124.38499999999999","0.30399231058235154","701"
"20:42:37:575 (H:m:s:ms)","GENERIC","124.519","0.27586462013526525","426"
"20:20:36:363 (H:m:s:ms)","GENERIC","124.61","0.30647305666470137","641"
"20:42:39:493 (H:m:s:ms)","OPERA","93.252","0.2749541653011695","548"
"20:20:42:424 (H:m:s:ms)","GENERIC","93.148","0.3046474039355001","579"
"20:20:48:484 (H:m:s:ms)","GENERIC","124.226","0.29932571987941464","520"
"21:1:3:157 (H:m:s:ms)","AMBULANCE","93.162","0.3073212989762843","847"
"21:1:6:666 (H:m:s:ms)","GENERIC","124.595","0.30422685070655786","338"
"20:42:43:636 (H:m:s:ms)","GENERIC","124.28399999999999","0.2699680487520827","365"
"21:1:12:727 (H:m:s:ms)","GENERIC","124.589","0.3050882852536136","277"
"20:42:47:88 (H:m:s:ms)","OPERA","93.294","0.2716881705382457","913"
"21:1:18:787 (H:m:s:ms)","GENERIC","124.55799999999999","0.3100015290966056","217"
"20:20:54:545 (H:m:s:ms)","GENERIC","124.545","0.29947524925726426","459"
"20:42:49:696 (H:m:s:ms)","GENERIC","124.636","0.27228058432451374","347"
"21:1:24:848 (H:m:s:ms)","GENERIC","124.576","0.3091190955044128","156"
"20:21:0:606 (H:m:s:ms)","GENERIC","124.52000000000001","0.30570409598717846","397"
"20:42:54:683 (H:m:s:ms)","OPERA","93.298","0.2713547926120486","319"
"21:1:30:909 (H:m:s:ms)","GENERIC","124.249","0.306633386739972","1094"
"20:21:6:666 (H:m:s:ms)","GENERIC","124.59700000000001","0.3099277654963308","338"
"20:42:55:757 (H:m:s:ms)","GENERIC","124.707","0.2660761568721631","244"
"21:1:34:736 (H:m:s:ms)","AMBULANCE","93.553","0.31014596280213985","268"
"20:21:12:727 (H:m:s:ms)","GENERIC","124.53399999999999","0.30649138977087337","277"
"20:43:1:818 (H:m:s:ms)","GENERIC","124.527","0.26463115249780805","184"
"21:1:36:969 (H:m:s:ms)","GENERIC","124.475","0.305201631826228","1035"
"20:21:18:787 (H:m:s:ms)","GENERIC","124.584","0.312713022480676","217"
"20:43:7:878 (H:m:s:ms)","GENERIC","124.166","0.26117614170478465","1123"
"21:1:43:30 (H:m:s:ms)","GENERIC","124.545","0.29984266577690044","974"
"20:21:24:848 (H:m:s:ms)","GENERIC","124.525","0.3071489147192962","157"
"20:43:9:873 (H:m:s:ms)","OPERA","93.236","0.2594639813305408","168"
"21:1:49:90 (H:m:s:ms)","GENERIC","93.284","0.3000397406487314","958"
"20:21:30:909 (H:m:s:ms)","GENERIC","124.286","0.2925243144172142","1095"
"20:43:13:939 (H:m:s:ms)","GENERIC","124.31","0.261529887445152","1062"
"20:21:36:969 (H:m:s:ms)","GENERIC","124.607","0.2899634678496365","1035"
"20:43:17:468 (H:m:s:ms)","OPERA","93.153","0.262310400681405","533"
"20:21:43:30 (H:m:s:ms)","GENERIC","124.518","0.2912483544144919","974"
"20:21:49:90 (H:m:s:ms)","GENERIC","124.406","0.2953943774150596","957"
"20:43:20:0 (H:m:s:ms)","GENERIC","124.489","0.2604910118477008","1043"
"20:43:25:63 (H:m:s:ms)","OPERA","93.441","0.26035579636569595","938"
"20:21:55:151 (H:m:s:ms)","GENERIC","124.564","0.2876912848630679","853"
"20:43:26:60 (H:m:s:ms)","GENERIC","124.27","0.2452228451735946","941"
"20:22:1:212 (H:m:s:ms)","GENERIC","124.505","0.289358350467697","793"
"20:43:32:121 (H:m:s:ms)","GENERIC","124.16999999999999","0.23485237064738243","881"
"20:22:7:272 (H:m:s:ms)","GENERIC","124.263","0.28961971433461114","731"
"20:43:32:658 (H:m:s:ms)","OPERA","93.315","0.24286797928019221","343"
"20:22:13:333 (H:m:s:ms)","GENERIC","124.441","0.28672460050444953","671"
"20:43:38:181 (H:m:s:ms)","GENERIC","124.519","0.23150523286829128","820"
"20:22:19:393 (H:m:s:ms)","GENERIC","124.6","0.2936637124977349","650"
"20:43:40:253 (H:m:s:ms)","OPERA","93.184","0.22141531172833126","747"
"20:22:25:454 (H:m:s:ms)","GENERIC","124.315","0.2987256928178682","550"
"20:43:44:242 (H:m:s:ms)","GENERIC","124.639","0.2264766996335919","10850"
"20:22:31:515 (H:m:s:ms)","GENERIC","124.465","0.30545158073640505","488"
"20:43:47:848 (H:m:s:ms)","OPERA","93.272","0.2242514528784026","158"
"20:22:37:575 (H:m:s:ms)","GENERIC","124.61500000000001","0.3021419806224758","428"
"20:43:50:303 (H:m:s:ms)","GENERIC","124.162","0.21210389817745728","16788"
"20:22:43:636 (H:m:s:ms)","GENERIC","124.281","0.3017908231885875","368"
"20:22:49:696 (H:m:s:ms)","GENERIC","124.549","0.3009833421731164","347"
"20:43:55:443 (H:m:s:ms)","OPERA","93.27","0.2234921969500338","560"
"20:43:56:363 (H:m:s:ms)","GENERIC","124.446","0.22278831614036954","640"
"20:22:55:757 (H:m:s:ms)","GENERIC","124.54599999999999","0.3030977399371654","247"
"20:44:2:424 (H:m:s:ms)","GENERIC","124.595","0.22372176840766372","578"
"20:23:1:818 (H:m:s:ms)","GENERIC","124.606","0.3026611582905268","185"
"20:44:3:37 (H:m:s:ms)","OPERA","93.218","0.21200973867227504","965"
"20:23:7:878 (H:m:s:ms)","GENERIC","124.18299999999999","0.30128306756413775","1126"
"20:44:8:484 (H:m:s:ms)","GENERIC","124.441","0.2161191041620663","16681"
"20:23:13:939 (H:m:s:ms)","GENERIC","124.311","0.29754451197203596","1066"
"20:44:10:632 (H:m:s:ms)","OPERA","93.27","0.21077600916603575","58021"
"20:23:20:0 (H:m:s:ms)","GENERIC","124.408","0.29790844529992755","1043"
"20:44:14:545 (H:m:s:ms)","GENERIC","124.416","0.20379912163576003","63202"
"20:23:26:60 (H:m:s:ms)","GENERIC","124.587","0.2966918884468913","944"
"20:44:18:227 (H:m:s:ms)","OPERA","93.466","0.19574585937539812","80722"
"20:23:32:121 (H:m:s:ms)","GENERIC","93.17699999999999","0.2955466744142013","883"
"20:44:20:606 (H:m:s:ms)","GENERIC","124.218","0.20131159591808429","72247"
"20:23:38:181 (H:m:s:ms)","GENERIC","124.63900000000001","0.2951660123875753","823"
"20:44:25:822 (H:m:s:ms)","OPERA","93.245","0.214685778069691","185"
"20:23:44:242 (H:m:s:ms)","GENERIC","124.63499999999999","0.30363967762158844","763"
"20:23:50:303 (H:m:s:ms)","GENERIC","124.236","0.3017147589409779","700"
"20:44:26:666 (H:m:s:ms)","GENERIC","124.48","0.24788850515274946","35805"
"20:44:32:727 (H:m:s:ms)","GENERIC","124.469","0.20888308470554953","275"
"20:23:56:363 (H:m:s:ms)","GENERIC","124.619","0.3022054719956325","641"
"20:44:33:417 (H:m:s:ms)","OPERA","62.182","0.2127158985734238","9698"
"20:24:2:424 (H:m:s:ms)","GENERIC","124.60900000000001","0.2995563508662023","580"
"20:44:38:787 (H:m:s:ms)","GENERIC","124.363","0.209687735866962","216"
"20:24:8:484 (H:m:s:ms)","GENERIC","124.52799999999999","0.3043992443958865","520"
"20:44:41:12 (H:m:s:ms)","OPERA","93.286","0.20494509680793313","33396"
"20:24:14:545 (H:m:s:ms)","GENERIC","124.276","0.30769427904292157","460"
"20:44:44:848 (H:m:s:ms)","GENERIC","124.289","0.2377109332055855","17407"
"20:24:20:606 (H:m:s:ms)","GENERIC","124.41900000000001","0.30455738989254094","397"
"20:44:50:909 (H:m:s:ms)","GENERIC","124.374","0.23054408933805978","5150"
"20:24:26:666 (H:m:s:ms)","GENERIC","124.439","0.30212740597371623","337"
"20:44:56:202 (H:m:s:ms)","OPERA","93.297","0.20502868301502927","30150"
"20:24:32:727 (H:m:s:ms)","GENERIC","124.437","0.30430939600213913","277"
"20:44:56:969 (H:m:s:ms)","GENERIC","124.22","0.2318359463157881","5136"
"20:24:38:787 (H:m:s:ms)","GENERIC","93.15","0.30041741798935545","217"
"20:45:3:30 (H:m:s:ms)","GENERIC","124.59","0.20133324385016257","115462"
"20:24:44:848 (H:m:s:ms)","GENERIC","124.324","0.30626741934930135","156"
"20:24:50:909 (H:m:s:ms)","GENERIC","124.436","0.30355360552614286","1095"
"20:45:3:797 (H:m:s:ms)","OPERA","93.32","0.22056525648517625","207"
"20:45:9:90 (H:m:s:ms)","GENERIC","124.154","0.20797133555707822","956"
"20:24:56:969 (H:m:s:ms)","GENERIC","124.114","0.30537771763968163","1035"
"20:45:11:392 (H:m:s:ms)","OPERA","93.342","0.2033468709048158","12731"
"20:25:3:30 (H:m:s:ms)","GENERIC","124.22399999999999","0.30484264146173445","973"
"20:45:15:151 (H:m:s:ms)","GENERIC","124.485","0.2096472208531509","4921"
"20:25:9:90 (H:m:s:ms)","GENERIC","124.261","0.3088865181870194","952"
"20:45:18:987 (H:m:s:ms)","OPERA","62.062","0.19860864750952925","31394"
"20:25:15:151 (H:m:s:ms)","GENERIC","124.42699999999999","0.3113476188638353","852"
"20:45:21:212 (H:m:s:ms)","GENERIC","124.562","0.18586676028989355","172368"
"20:25:21:212 (H:m:s:ms)","GENERIC","124.60300000000001","0.31582204553055293","792"
"20:45:26:582 (H:m:s:ms)","OPERA","93.248","0.2066257349887745","5491"
"20:25:27:272 (H:m:s:ms)","GENERIC","62.077","0.3225193729126772","732"
"20:45:27:272 (H:m:s:ms)","GENERIC","124.36099999999999","0.1945324856355517","51350"
"20:25:33:333 (H:m:s:ms)","GENERIC","124.374","0.3211280959677127","670"
"20:45:33:333 (H:m:s:ms)","GENERIC","93.077","0.19902659547383458","10776"
"20:25:39:393 (H:m:s:ms)","GENERIC","124.62899999999999","0.3259930467706964","651"
"20:45:34:177 (H:m:s:ms)","OPERA","93.439","0.19887090734098248","28148"
"20:25:45:454 (H:m:s:ms)","GENERIC","124.22399999999999","0.32777240214027076","550"
"20:25:51:515 (H:m:s:ms)","GENERIC","93.18","0.32716690421856864","488"
"20:25:57:575 (H:m:s:ms)","GENERIC","124.531","0.32913660069250344","429"
"20:26:3:636 (H:m:s:ms)","GENERIC","124.523","0.33008615403332614","368"
"20:26:9:696 (H:m:s:ms)","GENERIC","93.36","0.3235776718385338","345"
"20:26:15:757 (H:m:s:ms)","GENERIC","124.235","0.32390624429076564","247"
"20:26:21:818 (H:m:s:ms)","GENERIC","124.482","0.31874840089519535","186"
"20:26:27:878 (H:m:s:ms)","GENERIC","93.416","0.3213096818256542","1126"
"20:26:33:939 (H:m:s:ms)","GENERIC","124.514","0.32583566939857167","1066"
"20:26:40:0 (H:m:s:ms)","GENERIC","124.477","0.3246659939163098","1042"
"20:26:46:60 (H:m:s:ms)","GENERIC","93.139","0.3273984331138297","943"
"20:26:52:121 (H:m:s:ms)","GENERIC","124.61500000000001","0.3243857140764193","883"
"20:26:58:181 (H:m:s:ms)","GENERIC","124.52199999999999","0.3247790835599025","823"
"20:27:4:242 (H:m:s:ms)","GENERIC","93.17","0.32394400888710834","762"
"20:27:10:303 (H:m:s:ms)","GENERIC","124.172","0.32883855661801886","700"
"20:27:16:363 (H:m:s:ms)","GENERIC","124.57","0.32694447967928764","641"
"20:27:22:424 (H:m:s:ms)","GENERIC","124.53","0.3276732164644637","579"
"20:27:28:484 (H:m:s:ms)","GENERIC","124.197","0.33102933109457666","520"
"20:27:34:545 (H:m:s:ms)","GENERIC","93.19","0.32611482081997883","459"
"20:27:40:606 (H:m:s:ms)","GENERIC","93.337","0.3266585537844204","398"
"20:27:46:666 (H:m:s:ms)","GENERIC","124.382","0.3239323631548698","338"
"20:27:52:727 (H:m:s:ms)","GENERIC","124.22800000000001","0.31761433388861976","277"
"20:27:58:787 (H:m:s:ms)","GENERIC","124.3","0.3168948456006611","217"
"20:28:4:848 (H:m:s:ms)","GENERIC","124.259","0.31747039690393203","156"
"20:28:10:909 (H:m:s:ms)","GENERIC","124.64099999999999","0.31852669758167323","1095"
"20:28:16:969 (H:m:s:ms)","GENERIC","124.281","0.313540767641184","1035"
"20:28:23:30 (H:m:s:ms)","GENERIC","124.52799999999999","0.30793643777213725","974"
"20:28:29:90 (H:m:s:ms)","GENERIC","124.566","0.3097865886048605","952"
"20:28:35:151 (H:m:s:ms)","GENERIC","124.469","0.31355138658874565","852"
"20:28:41:212 (H:m:s:ms)","GENERIC","93.14699999999999","0.31423761512967724","792"
"20:28:47:272 (H:m:s:ms)","GENERIC","93.168","0.30852043595414924","732"
"20:28:53:333 (H:m:s:ms)","GENERIC","124.48599999999999","0.3033118007560935","671"
"20:28:59:393 (H:m:s:ms)","GENERIC","124.269","0.2996826556611555","649"
"20:29:5:454 (H:m:s:ms)","GENERIC","124.209","0.3005357409829472","549"
"20:29:11:515 (H:m:s:ms)","GENERIC","124.259","0.29961952160268224","490"
"20:29:17:575 (H:m:s:ms)","GENERIC","124.495","0.29861144521304034","429"
"20:29:23:636 (H:m:s:ms)","GENERIC","124.311","0.3029429401983781","372"
"20:29:29:696 (H:m:s:ms)","GENERIC","124.555","0.3017725290192105","346"
"20:29:35:757 (H:m:s:ms)","GENERIC","124.61","0.3044442385046794","247"
"20:29:41:818 (H:m:s:ms)","GENERIC","124.196","0.29624537949194446","186"
"20:29:47:878 (H:m:s:ms)","GENERIC","124.33000000000001","0.2952838912740985","1126"
"20:29:53:939 (H:m:s:ms)","GENERIC","124.21799999999999","0.30294391391379555","1066"
"21:20:7:594 (H:m:s:ms)","OPERA","124.349","0.3015540396052453","409"
"21:20:12:121 (H:m:s:ms)","GENERIC","124.164","0.3015594480007372","883"
"21:20:15:189 (H:m:s:ms)","OPERA","124.303","0.29846387806278935","815"
"21:20:18:181 (H:m:s:ms)","GENERIC","93.105","0.2979534861091552","822"
"21:20:22:784 (H:m:s:ms)","OPERA","124.303","0.2942504241416122","220"
"21:20:24:242 (H:m:s:ms)","GENERIC","93.185","0.2914010690989367","761"
"21:20:30:303 (H:m:s:ms)","GENERIC","124.297","0.2945030925688794","701"
"21:20:30:379 (H:m:s:ms)","OPERA","124.365","0.29377717830060207","629"
"21:20:36:363 (H:m:s:ms)","GENERIC","124.606","0.2997110658813405","642"
"21:20:37:974 (H:m:s:ms)","OPERA","124.32","0.30096653879383906","1031"
"21:20:42:424 (H:m:s:ms)","GENERIC","124.16999999999999","0.29838766784417736","579"
"21:20:45:569 (H:m:s:ms)","OPERA","93.16300000000001","0.29729120365199085","434"
"21:20:48:484 (H:m:s:ms)","GENERIC","124.22200000000001","0.2964354239944667","519"
"21:20:53:164 (H:m:s:ms)","OPERA","124.23500000000001","0.29197362679638655","839"
"21:20:54:545 (H:m:s:ms)","GENERIC","124.509","0.2900659530462066","458"
"21:21:0:606 (H:m:s:ms)","GENERIC","124.60900000000001","0.2904869225460324","398"
"21:21:0:759 (H:m:s:ms)","OPERA","124.32300000000001","0.28618892969095056","248"
"21:21:6:666 (H:m:s:ms)","GENERIC","124.623","0.28040185472472706","337"
"21:21:8:354 (H:m:s:ms)","OPERA","124.326","0.2822355175142636","649"
"21:21:12:727 (H:m:s:ms)","GENERIC","124.63","0.2785850009208556","276"
"21:32:49:696 (H:m:s:ms)","GENERIC","124.549","0.21728728828478047","2365"
"21:32:37:575 (H:m:s:ms)","GENERIC","124.574","0.21956434744451603","14653"
"21:32:31:515 (H:m:s:ms)","GENERIC","124.412","0.21989006933262886","10666"
"21:32:25:454 (H:m:s:ms)","GENERIC","93.142","0.20644255495368577","9718"
"21:32:19:393 (H:m:s:ms)","GENERIC","124.469","0.20291672981091927","8752"
"21:32:13:333 (H:m:s:ms)","GENERIC","124.51400000000001","0.19863922742807524","671"
"21:32:7:272 (H:m:s:ms)","GENERIC","124.27000000000001","0.218722522139346","28191"
"21:32:6:315 (H:m:s:ms)","AMBULANCE","93.28399999999999","0.22002656012518956","29157"
"21:21:15:949 (H:m:s:ms)","OPERA","124.311","0.2837344822391656","1055"
"21:32:1:212 (H:m:s:ms)","GENERIC","124.435","0.2054891246657041","2811"
"21:21:18:787 (H:m:s:ms)","GENERIC","124.59700000000001","0.27746723753024927","216"
"21:21:23:544 (H:m:s:ms)","OPERA","124.325","0.2789078298377199","459"
"21:21:24:848 (H:m:s:ms)","GENERIC","124.646","0.28246412936663706","154"
"21:21:30:909 (H:m:s:ms)","GENERIC","124.252","0.28438553027972985","1094"
"21:21:31:139 (H:m:s:ms)","OPERA","93.11","0.28373387789085247","868"
"21:21:36:969 (H:m:s:ms)","GENERIC","124.58","0.28428621645838925","1034"
"21:21:38:734 (H:m:s:ms)","OPERA","124.371","0.2873310086785698","269"
"21:32:43:636 (H:m:s:ms)","GENERIC","124.446","0.20842839899374635","366"
"21:21:43:30 (H:m:s:ms)","GENERIC","124.549","0.29187537375608025","973"
"21:32:37:894 (H:m:s:ms)","AMBULANCE","124.425","0.2146816615790764","1126"
"21:21:46:329 (H:m:s:ms)","OPERA","124.326","0.28605214312007127","674"
"21:33:44:242 (H:m:s:ms)","GENERIC","124.542","0.21691842005104991","4771"
"21:33:41:52 (H:m:s:ms)","AMBULANCE","124.571","0.21599421136657393","949"
"21:33:32:121 (H:m:s:ms)","GENERIC","124.357","0.20177722143005705","4894"
"21:33:26:60 (H:m:s:ms)","GENERIC","124.56","0.19619898002512728","2951"
"21:33:20:0 (H:m:s:ms)","GENERIC","124.279","0.19224982689768091","5057"
"21:33:13:939 (H:m:s:ms)","GENERIC","124.436","0.19279231783363412","1070"
"21:33:9:473 (H:m:s:ms)","AMBULANCE","124.162","0.20602025467789245","1569"
"21:33:7:878 (H:m:s:ms)","GENERIC","124.21100000000001","0.20594400982983888","123"
"21:21:49:90 (H:m:s:ms)","GENERIC","93.199","0.286653649653641","947"
"21:33:1:818 (H:m:s:ms)","GENERIC","124.505","0.20856116154703774","2202"
"21:21:53:924 (H:m:s:ms)","OPERA","124.287","0.28543685574006816","1079"
"21:32:55:757 (H:m:s:ms)","GENERIC","124.532","0.20718192529770374","2263"
"21:21:55:151 (H:m:s:ms)","GENERIC","124.568","0.2852972157903132","852"
"21:22:1:212 (H:m:s:ms)","GENERIC","124.515","0.2795386623747409","790"
"21:22:1:518 (H:m:s:ms)","OPERA","124.19900000000001","0.2793765295734067","487"
"21:22:7:272 (H:m:s:ms)","GENERIC","93.127","0.278653538170838","730"
"21:22:9:113 (H:m:s:ms)","OPERA","124.356","0.2812780281364243","925"
"21:22:13:333 (H:m:s:ms)","GENERIC","124.491","0.2892811028353328","669"
"21:22:16:708 (H:m:s:ms)","OPERA","124.397","0.28347340842838215","294"
"21:22:19:393 (H:m:s:ms)","GENERIC","124.649","0.2845761287693901","644"
"21:33:38:181 (H:m:s:ms)","GENERIC","124.369","0.21369755417225852","30993"
"21:34:44:210 (H:m:s:ms)","AMBULANCE","124.33500000000001","0.20722609601934036","792"
"21:34:38:787 (H:m:s:ms)","GENERIC","124.18100000000001","0.19883495825802844","23352"
"21:34:32:727 (H:m:s:ms)","GENERIC","124.487","0.20933432791828901","275"
"21:34:26:666 (H:m:s:ms)","GENERIC","124.44200000000001","0.20852265343532153","12389"
"21:34:20:606 (H:m:s:ms)","GENERIC","93.314","0.20348310048807142","396"
"21:34:14:545 (H:m:s:ms)","GENERIC","124.228","0.20065324449935787","457"
"21:34:12:631 (H:m:s:ms)","AMBULANCE","124.459","0.20746154253544316","16424"
"21:34:8:484 (H:m:s:ms)","GENERIC","124.415","0.21270814785366174","517"
"21:22:24:303 (H:m:s:ms)","OPERA","124.29400000000001","0.28927379648172236","700"
"21:34:2:424 (H:m:s:ms)","GENERIC","124.542","0.20099740930364707","3584"
"21:22:25:454 (H:m:s:ms)","GENERIC","124.261","0.2856277513605005","548"
"21:33:56:363 (H:m:s:ms)","GENERIC","124.219","0.20103670067194412","4682"
"21:1:55:151 (H:m:s:ms)","GENERIC","124.604","0.29507681740550806","852"
"21:22:31:515 (H:m:s:ms)","GENERIC","124.51","0.28054735579676693","487"
"21:33:50:303 (H:m:s:ms)","GENERIC","124.249","0.20217284346545808","698"
"21:2:1:212 (H:m:s:ms)","GENERIC","93.295","0.29402963042722036","792"
"21:22:31:898 (H:m:s:ms)","OPERA","124.25999999999999","0.27930988929498735","1106"
"21:2:6:315 (H:m:s:ms)","AMBULANCE","93.356","0.29077851772009183","689"
"21:22:37:575 (H:m:s:ms)","GENERIC","124.62899999999999","0.2744135606579641","427"
"21:2:7:272 (H:m:s:ms)","GENERIC","93.117","0.28555863140254045","731"
"21:22:39:493 (H:m:s:ms)","OPERA","124.22200000000001","0.27068119743794156","547"
"21:2:13:333 (H:m:s:ms)","GENERIC","124.313","0.29218927343168277","671"
"21:22:43:636 (H:m:s:ms)","GENERIC","93.221","0.2751409230168387","366"
"21:2:19:393 (H:m:s:ms)","GENERIC","124.565","0.290904343191321","656"
"21:22:47:88 (H:m:s:ms)","OPERA","124.393","0.27156593482753294","914"
"21:2:25:454 (H:m:s:ms)","GENERIC","124.227","0.29011776363810265","550"
"21:22:49:696 (H:m:s:ms)","GENERIC","124.43299999999999","0.2695307549282193","342"
"21:2:31:515 (H:m:s:ms)","GENERIC","124.35","0.29137771651897065","488"
"21:22:54:683 (H:m:s:ms)","OPERA","124.269","0.2730445259415161","319"
"21:2:37:575 (H:m:s:ms)","GENERIC","124.535","0.28991353557699673","428"
"21:2:37:894 (H:m:s:ms)","AMBULANCE","93.402","0.29256173313133066","114"
"21:35:39:393 (H:m:s:ms)","GENERIC","124.63","0.22069875775045308","642"
"21:35:33:333 (H:m:s:ms)","GENERIC","124.414","0.2276631857304117","668"
"21:35:27:272 (H:m:s:ms)","GENERIC","124.357","0.21722117913271344","729"
"21:35:21:212 (H:m:s:ms)","GENERIC","124.248","0.1969604729514061","790"
"21:35:15:789 (H:m:s:ms)","AMBULANCE","124.446","0.20200103351763796","6258"
"21:35:15:151 (H:m:s:ms)","GENERIC","124.531","0.19596041656408902","852"
"21:35:9:90 (H:m:s:ms)","GENERIC","124.265","0.20909026709177841","1947"
"21:22:55:757 (H:m:s:ms)","GENERIC","93.229","0.2677207542079051","244"
"21:35:3:30 (H:m:s:ms)","GENERIC","124.40299999999999","0.1987310612692844","13024"
"21:23:1:818 (H:m:s:ms)","GENERIC","124.556","0.26780618115946686","184"
"21:34:56:969 (H:m:s:ms)","GENERIC","124.345","0.19844240122121823","7079"
"21:2:43:636 (H:m:s:ms)","GENERIC","124.384","0.2888344213531469","367"
"21:23:2:278 (H:m:s:ms)","OPERA","93.202","0.2695314344623958","723"
"21:34:50:909 (H:m:s:ms)","GENERIC","124.434","0.20115425697926842","3097"
"21:2:49:696 (H:m:s:ms)","GENERIC","124.588","0.2866071380479467","351"
"21:23:7:878 (H:m:s:ms)","GENERIC","124.116","0.25817036715314334","1123"
"21:34:44:848 (H:m:s:ms)","GENERIC","124.362","0.20090067335835576","156"
"21:2:55:757 (H:m:s:ms)","GENERIC","124.563","0.28712076793591107","246"
"21:23:9:873 (H:m:s:ms)","OPERA","124.23","0.2549858724812554","164"
"21:3:1:818 (H:m:s:ms)","GENERIC","124.44","0.2841300766148641","185"
"21:23:13:939 (H:m:s:ms)","GENERIC","124.39099999999999","0.2568400935648762","1062"
"21:3:7:878 (H:m:s:ms)","GENERIC","93.092","0.27880605953661947","1125"
"21:23:17:468 (H:m:s:ms)","OPERA","124.102","0.2518336508793099","533"
"21:3:9:473 (H:m:s:ms)","AMBULANCE","93.41900000000001","0.2784869717904199","574"
"21:23:20:0 (H:m:s:ms)","GENERIC","124.513","0.244846747351535","1039"
"21:3:13:939 (H:m:s:ms)","GENERIC","124.275","0.27955538989477696","1065"
"21:23:25:63 (H:m:s:ms)","OPERA","124.392","0.25182274643488367","938"
"21:3:20:0 (H:m:s:ms)","GENERIC","124.44","0.2812286764502912","1048"
"21:23:26:60 (H:m:s:ms)","GENERIC","124.60499999999999","0.23712848954533305","940"
"21:3:26:60 (H:m:s:ms)","GENERIC","124.62700000000001","0.27836317094164104","943"
"21:3:32:121 (H:m:s:ms)","GENERIC","124.22999999999999","0.27212986723873117","882"
"21:36:33:939 (H:m:s:ms)","GENERIC","93.22800000000001","0.25174348981675226","1063"
"21:36:27:878 (H:m:s:ms)","GENERIC","124.54499999999999","0.24577337559085533","1125"
"21:36:21:818 (H:m:s:ms)","GENERIC","124.56800000000001","0.24070559856908183","184"
"21:36:18:947 (H:m:s:ms)","AMBULANCE","124.332","0.23397596381180974","1087"
"21:36:15:757 (H:m:s:ms)","GENERIC","124.202","0.23573553648117512","244"
"21:36:9:696 (H:m:s:ms)","GENERIC","124.486","0.23587578898809614","340"
"21:23:32:121 (H:m:s:ms)","GENERIC","124.209","0.23718623842590889","880"
"21:36:3:636 (H:m:s:ms)","GENERIC","124.58699999999999","0.23327095607992865","365"
"21:23:32:658 (H:m:s:ms)","OPERA","124.392","0.2300932428905082","345"
"21:35:57:575 (H:m:s:ms)","GENERIC","124.678","0.23507607454553828","426"
"21:3:38:181 (H:m:s:ms)","GENERIC","124.596","0.26891194782900296","822"
"21:23:38:181 (H:m:s:ms)","GENERIC","124.60400000000001","0.22900692189245547","820"
"21:35:51:515 (H:m:s:ms)","GENERIC","124.304","0.2338390107143135","487"
"21:3:41:52 (H:m:s:ms)","AMBULANCE","93.497","0.26293833404273576","953"
"21:23:40:253 (H:m:s:ms)","OPERA","124.50399999999999","0.22440338820983138","748"
"21:35:47:368 (H:m:s:ms)","AMBULANCE","124.519","0.22873998573797305","633"
"21:3:44:242 (H:m:s:ms)","GENERIC","124.554","0.2632259397360843","762"
"21:23:44:242 (H:m:s:ms)","GENERIC","124.455","0.2312432884072159","4765"
"21:35:45:454 (H:m:s:ms)","GENERIC","93.092","0.2392012515702487","547"
"21:3:50:303 (H:m:s:ms)","GENERIC","93.097","0.26809631269411055","700"
"21:23:47:848 (H:m:s:ms)","OPERA","124.362","0.23113549297244962","13276"
"21:3:56:363 (H:m:s:ms)","GENERIC","124.525","0.26400156492218063","640"
"21:23:50:303 (H:m:s:ms)","GENERIC","93.14099999999999","0.23045272540637912","16812"
"21:4:2:424 (H:m:s:ms)","GENERIC","124.608","0.2754546618391064","579"
"21:23:55:443 (H:m:s:ms)","OPERA","124.295","0.21808972217343167","11660"
"21:4:8:484 (H:m:s:ms)","GENERIC","124.481","0.2720039890374837","519"
"21:23:56:363 (H:m:s:ms)","GENERIC","93.295","0.22751579359212407","22806"
"21:4:12:631 (H:m:s:ms)","AMBULANCE","93.226","0.2742216824027378","372"
"21:24:2:424 (H:m:s:ms)","GENERIC","124.505","0.2298917345977847","582"
"21:4:14:545 (H:m:s:ms)","GENERIC","124.28200000000001","0.2746541130395026","458"
"21:4:20:606 (H:m:s:ms)","GENERIC","124.182","0.26624033001619957","397"
"21:37:28:484 (H:m:s:ms)","GENERIC","124.283","0.25153180191922825","517"
"21:37:22:424 (H:m:s:ms)","GENERIC","124.51599999999999","0.2525639248811387","580"
"21:37:22:105 (H:m:s:ms)","AMBULANCE","124.29599999999999","0.2550443857756647","897"
"21:37:16:363 (H:m:s:ms)","GENERIC","124.479","0.25968781830485177","639"
"21:37:10:303 (H:m:s:ms)","GENERIC","93.181","0.2597467807498431","699"
"21:37:4:242 (H:m:s:ms)","GENERIC","124.287","0.25647654345185883","760"
"21:24:3:37 (H:m:s:ms)","OPERA","124.294","0.22637904958153038","968"
"21:24:8:484 (H:m:s:ms)","GENERIC","124.481","0.22552873418482447","4565"
"21:36:58:181 (H:m:s:ms)","GENERIC","124.604","0.25585584529197886","821"
"21:4:26:666 (H:m:s:ms)","GENERIC","124.491","0.27240428374202896","337"
"21:24:10:632 (H:m:s:ms)","OPERA","124.26400000000001","0.21658122898973123","20506"
"21:36:52:121 (H:m:s:ms)","GENERIC","124.559","0.25833062717532856","881"
"21:4:32:727 (H:m:s:ms)","GENERIC","124.474","0.27848916661191786","276"
"21:24:14:545 (H:m:s:ms)","GENERIC","124.45500000000001","0.2141300537810749","22596"
"21:36:50:526 (H:m:s:ms)","AMBULANCE","124.25","0.2565078957167826","475"
"21:4:38:787 (H:m:s:ms)","GENERIC","124.196","0.2715479303383877","216"
"21:24:18:227 (H:m:s:ms)","OPERA","124.32499999999999","0.21683626235578723","777"
"21:36:46:60 (H:m:s:ms)","GENERIC","124.213","0.26128646495382646","942"
"21:4:44:210 (H:m:s:ms)","AMBULANCE","62.128","0.2749095092146637","794"
"21:24:20:606 (H:m:s:ms)","GENERIC","124.227","0.2142500581142882","4411"
"21:36:40:0 (H:m:s:ms)","GENERIC","124.53","0.25793630948275575","1036"
"21:4:44:848 (H:m:s:ms)","GENERIC","124.274","0.27117320452146676","160"
"21:24:25:822 (H:m:s:ms)","OPERA","124.13","0.21286057664722138","30387"
"21:4:50:909 (H:m:s:ms)","GENERIC","124.376","0.2755385584995957","1094"
"21:24:26:666 (H:m:s:ms)","GENERIC","124.53","0.21667638783978038","337"
"21:4:56:969 (H:m:s:ms)","GENERIC","93.136","0.27969455485167977","1035"
"21:24:32:727 (H:m:s:ms)","GENERIC","124.485","0.20939089199599373","10342"
"21:5:3:30 (H:m:s:ms)","GENERIC","93.169","0.2831755068382318","973"
"21:24:33:417 (H:m:s:ms)","OPERA","93.134","0.20488937109458477","28813"
"21:5:9:90 (H:m:s:ms)","GENERIC","93.134","0.2806438138534748","954"
"21:5:15:151 (H:m:s:ms)","GENERIC","124.584","0.28676921668475647","852"
"21:38:25:263 (H:m:s:ms)","AMBULANCE","124.24000000000001","0.27799998816209404","739"
"21:38:23:30 (H:m:s:ms)","GENERIC","124.61099999999999","0.27792950808766687","972"
"21:38:16:969 (H:m:s:ms)","GENERIC","124.324","0.2783361462829296","1033"
"21:38:10:909 (H:m:s:ms)","GENERIC","124.601","0.2762354957774075","1094"
"21:38:4:848 (H:m:s:ms)","GENERIC","124.215","0.2666521848428277","155"
"21:37:58:787 (H:m:s:ms)","GENERIC","124.321","0.2671355942484223","215"
"21:37:53:684 (H:m:s:ms)","AMBULANCE","124.208","0.2600368327546418","318"
"21:24:38:787 (H:m:s:ms)","GENERIC","124.368","0.21925259704781164","35569"
"21:24:41:12 (H:m:s:ms)","OPERA","124.379","0.19681878377284226","137245"
"21:5:15:789 (H:m:s:ms)","AMBULANCE","93.577","0.2857392850142305","219"
"21:24:44:848 (H:m:s:ms)","GENERIC","124.19800000000001","0.2157355045598055","35544"
"21:5:21:212 (H:m:s:ms)","GENERIC","124.52199999999999","0.29062947404675843","791"
"21:24:48:607 (H:m:s:ms)","OPERA","93.326","0.21136366790207042","397"
"21:37:52:727 (H:m:s:ms)","GENERIC","124.232","0.2654799157405866","277"
"20:45:39:393 (H:m:s:ms)","GENERIC","124.41499999999999","0.21189045913725865","10769"
"21:5:27:272 (H:m:s:ms)","GENERIC","124.311","0.296332785863377","732"
"21:24:50:909 (H:m:s:ms)","GENERIC","124.298","0.21353416890033788","35467"
"21:37:46:666 (H:m:s:ms)","GENERIC","124.42699999999999","0.25774874801973124","336"
"20:45:41:772 (H:m:s:ms)","OPERA","93.464","0.19820998296483391","232"
"21:5:33:333 (H:m:s:ms)","GENERIC","93.22","0.29559863989786717","670"
"21:24:56:202 (H:m:s:ms)","OPERA","124.331","0.21224613581526097","5874"
"21:37:40:606 (H:m:s:ms)","GENERIC","124.46000000000001","0.2514085583885043","396"
"20:45:45:454 (H:m:s:ms)","GENERIC","124.303","0.191637913640339","24887"
"21:5:39:393 (H:m:s:ms)","GENERIC","124.625","0.29295495572448155","651"
"21:24:56:969 (H:m:s:ms)","GENERIC","124.203","0.2036878530307986","212103"
"21:37:34:545 (H:m:s:ms)","GENERIC","124.372","0.24701151222028303","456"
"20:45:49:367 (H:m:s:ms)","OPERA","93.446","0.1962789459627131","51414"
"21:5:45:454 (H:m:s:ms)","GENERIC","93.079","0.2983614950575155","549"
"21:25:3:30 (H:m:s:ms)","GENERIC","124.28","0.22812096662389153","6013"
"20:45:51:515 (H:m:s:ms)","GENERIC","62.053","0.20021011157840873","65431"
"21:5:47:368 (H:m:s:ms)","AMBULANCE","93.465","0.3003667840618308","635"
"21:25:3:797 (H:m:s:ms)","OPERA","124.503","0.2066413997211506","58877"
"20:45:56:962 (H:m:s:ms)","OPERA","93.37","0.2041865630987176","1054"
"21:5:51:515 (H:m:s:ms)","GENERIC","93.159","0.30322950820259054","489"
"21:25:9:90 (H:m:s:ms)","GENERIC","93.105","0.20381593546674748","41430"
"20:45:57:575 (H:m:s:ms)","GENERIC","124.607","0.20397814866822023","66455"
"21:5:57:575 (H:m:s:ms)","GENERIC","124.596","0.3049598683390373","428"
"20:46:3:636 (H:m:s:ms)","GENERIC","124.66499999999999","0.19305275556403229","4418"
"21:6:3:636 (H:m:s:ms)","GENERIC","124.58","0.30844557526598726","366"
"20:46:4:556 (H:m:s:ms)","OPERA","93.419","0.1929317930123564","9593"
"20:46:9:696 (H:m:s:ms)","GENERIC","124.586","0.19580539707317915","347257"
"21:39:23:636 (H:m:s:ms)","GENERIC","124.267","0.2670232254103517","367"
"21:39:17:575 (H:m:s:ms)","GENERIC","124.439","0.2688221255248909","428"
"21:39:11:515 (H:m:s:ms)","GENERIC","124.287","0.2685199690152502","488"
"21:39:5:454 (H:m:s:ms)","GENERIC","124.195","0.27871765516198205","549"
"21:38:59:393 (H:m:s:ms)","GENERIC","124.253","0.2776738140575426","645"
"21:38:56:842 (H:m:s:ms)","AMBULANCE","124.556","0.28345164671149226","160"
"21:38:53:333 (H:m:s:ms)","GENERIC","124.55199999999999","0.2873102824172204","670"
"21:38:47:272 (H:m:s:ms)","GENERIC","93.125","0.2765071865230891","731"
"21:25:11:392 (H:m:s:ms)","OPERA","124.52000000000001","0.20183264679998494","57216"
"21:25:15:151 (H:m:s:ms)","GENERIC","124.505","0.21753827086457891","1868"
"21:6:9:696 (H:m:s:ms)","GENERIC","124.60300000000001","0.3082925918634671","349"
"21:25:18:987 (H:m:s:ms)","OPERA","124.274","0.2227137255824421","1061"
"21:6:15:757 (H:m:s:ms)","GENERIC","124.16499999999999","0.3104804176134265","247"
"21:25:21:212 (H:m:s:ms)","GENERIC","124.40299999999999","0.22560701586277765","4818"
"20:46:12:151 (H:m:s:ms)","OPERA","62.194","0.19623808598202738","350736"
"21:6:18:947 (H:m:s:ms)","AMBULANCE","93.28399999999999","0.3009280671783525","1098"
"21:25:26:582 (H:m:s:ms)","OPERA","124.24000000000001","0.21866175312744884","17629"
"20:46:15:757 (H:m:s:ms)","GENERIC","124.19","0.1867342384769143","125285"
"21:6:21:818 (H:m:s:ms)","GENERIC","124.618","0.30357656043386416","185"
"21:25:27:272 (H:m:s:ms)","GENERIC","124.37100000000001","0.22392683710052166","4794"
"21:38:41:212 (H:m:s:ms)","GENERIC","124.278","0.2816778290400688","791"
"20:46:19:746 (H:m:s:ms)","OPERA","93.339","0.19890573233879344","296"
"21:6:27:878 (H:m:s:ms)","GENERIC","124.614","0.30332761508670325","1125"
"21:25:33:333 (H:m:s:ms)","GENERIC","124.251","0.21913972074235666","4705"
"21:38:35:151 (H:m:s:ms)","GENERIC","124.494","0.28017665255604957","852"
"20:46:21:818 (H:m:s:ms)","GENERIC","124.577","0.19985600236181597","3219"
"21:6:33:939 (H:m:s:ms)","GENERIC","124.512","0.3067008950015193","1064"
"21:25:34:177 (H:m:s:ms)","OPERA","124.34800000000001","0.20554483211247962","12964"
"21:38:29:90 (H:m:s:ms)","GENERIC","124.575","0.2797940465007557","947"
"20:46:27:341 (H:m:s:ms)","OPERA","93.397","0.1992279474016674","660"
"21:6:40:0 (H:m:s:ms)","GENERIC","124.435","0.3027847451287547","1047"
"21:25:39:393 (H:m:s:ms)","GENERIC","93.41","0.21037217437400743","647"
"20:46:27:878 (H:m:s:ms)","GENERIC","124.53399999999999","0.20859499493012842","5223"
"21:6:46:60 (H:m:s:ms)","GENERIC","124.197","0.29514299761433527","943"
"21:25:41:772 (H:m:s:ms)","OPERA","124.35","0.20500088860562019","2250"
"20:46:33:939 (H:m:s:ms)","GENERIC","124.475","0.2074390435179384","1074"
"21:6:50:526 (H:m:s:ms)","AMBULANCE","62.093","0.30000409314534926","477"
"20:46:34:936 (H:m:s:ms)","OPERA","93.47200000000001","0.20028095714476837","4113"
"21:6:52:121 (H:m:s:ms)","GENERIC","124.475","0.2991393719367882","882"
"20:46:40:0 (H:m:s:ms)","GENERIC","124.53399999999999","0.20620415536123315","8135"
"20:46:42:531 (H:m:s:ms)","OPERA","93.431","0.19716631133937063","8604"
"21:39:35:757 (H:m:s:ms)","GENERIC","124.541","0.2719603137852216","246"
"21:40:12:121 (H:m:s:ms)","GENERIC","124.19200000000001","0.2630748652820762","881"
"21:40:6:60 (H:m:s:ms)","GENERIC","93.179","0.26012724633709283","943"
"21:40:0:0 (H:m:s:ms)","GENERIC","124.489","0.2670413744907696","1123"
"21:40:0:0 (H:m:s:ms)","GENERIC","124.36","0.26673764892128843","1119"
"21:40:0:0 (H:m:s:ms)","AMBULANCE","93.229","0.2733576902554596","1115"
"21:39:53:939 (H:m:s:ms)","GENERIC","124.273","0.27676521193101966","1064"
"21:39:47:878 (H:m:s:ms)","GENERIC","124.32499999999999","0.28237141071324245","1126"
"21:39:41:818 (H:m:s:ms)","GENERIC","124.19","0.27857631365126245","185"
"21:6:58:181 (H:m:s:ms)","GENERIC","124.649","0.3029148304913413","822"
"21:7:4:242 (H:m:s:ms)","GENERIC","124.265","0.29891218378885126","761"
"20:46:46:60 (H:m:s:ms)","GENERIC","124.245","0.19809766424589464","946"
"21:7:10:303 (H:m:s:ms)","GENERIC","124.28200000000001","0.3035834451779008","701"
"20:46:50:126 (H:m:s:ms)","OPERA","93.418","0.2130153406486201","13058"
"21:7:16:363 (H:m:s:ms)","GENERIC","124.506","0.302182106114941","641"
"20:46:52:121 (H:m:s:ms)","GENERIC","93.356","0.1861832030841026","29319"
"21:7:22:105 (H:m:s:ms)","AMBULANCE","62.123999999999995","0.294956296041228","897"
"20:46:57:721 (H:m:s:ms)","OPERA","93.312","0.18954725704745595","11444"
"21:7:22:424 (H:m:s:ms)","GENERIC","124.435","0.29651252114534254","583"
"21:39:29:696 (H:m:s:ms)","GENERIC","124.455","0.2705170565657407","344"
"20:46:58:181 (H:m:s:ms)","GENERIC","124.43299999999999","0.192945768148568","58816"
"21:7:28:484 (H:m:s:ms)","GENERIC","124.239","0.2946967356653837","519"
"21:39:28:421 (H:m:s:ms)","AMBULANCE","124.307","0.26902733368725584","582"
"20:47:4:242 (H:m:s:ms)","GENERIC","93.2","0.1919506145805343","6869"
"21:7:34:545 (H:m:s:ms)","GENERIC","93.202","0.28979621662607774","459"
"20:47:5:316 (H:m:s:ms)","OPERA","93.387","0.18384101506138764","52579"
"21:7:40:606 (H:m:s:ms)","GENERIC","93.289","0.28769329041774294","399"
"20:47:10:303 (H:m:s:ms)","GENERIC","124.303","0.1762744236782956","197871"
"21:7:46:666 (H:m:s:ms)","GENERIC","124.394","0.282053433103218","338"
"20:47:12:911 (H:m:s:ms)","OPERA","93.342","0.20322540692942762","2111"
"20:47:16:363 (H:m:s:ms)","GENERIC","124.65299999999999","0.1907954317401864","1649"
"21:7:52:727 (H:m:s:ms)","GENERIC","124.218","0.27995900241559396","276"
"21:7:53:684 (H:m:s:ms)","AMBULANCE","93.156","0.2783535511859995","319"
"20:47:20:506 (H:m:s:ms)","OPERA","93.33800000000001","0.1979918752382975","494"
"21:7:58:787 (H:m:s:ms)","GENERIC","124.305","0.27942932899993167","216"
"20:47:22:424 (H:m:s:ms)","GENERIC","124.524","0.1824015677098853","4610"
"21:8:4:848 (H:m:s:ms)","GENERIC","124.26","0.2785595304384282","156"
"20:47:28:101 (H:m:s:ms)","OPERA","93.38499999999999","0.19430446041583413","11071"
"21:8:10:909 (H:m:s:ms)","GENERIC","124.561","0.2838088473850434","1096"
"20:47:28:484 (H:m:s:ms)","GENERIC","124.301","0.1975189669309508","16835"
"21:8:16:969 (H:m:s:ms)","GENERIC","124.303","0.2879536918819736","1034"
"20:47:34:545 (H:m:s:ms)","GENERIC","124.298","0.1806969802024313","114346"
"21:8:23:30 (H:m:s:ms)","GENERIC","124.541","0.2854759619808494","973"
"20:47:35:696 (H:m:s:ms)","OPERA","93.488","0.20197573568994043","13573"
"21:8:25:263 (H:m:s:ms)","AMBULANCE","31.054","0.28129238681863705","740"
"21:40:18:181 (H:m:s:ms)","GENERIC","124.262","0.2720817624684084","822"
"20:47:40:606 (H:m:s:ms)","GENERIC","124.59100000000001","0.19965770075951145","213611"
"21:8:29:90 (H:m:s:ms)","GENERIC","124.577","0.28965703960599426","954"
"20:47:43:291 (H:m:s:ms)","OPERA","93.401","0.19791504627289047","249105"
"21:8:35:151 (H:m:s:ms)","GENERIC","124.494","0.2971887041187553","853"
"20:47:46:666 (H:m:s:ms)","GENERIC","124.503","0.19568259205569605","175075"
"20:47:50:886 (H:m:s:ms)","OPERA","62.086","0.1904419093010332","25550"
"21:8:41:212 (H:m:s:ms)","GENERIC","93.203","0.2920545394082351","791"
"21:8:47:272 (H:m:s:ms)","GENERIC","124.162","0.2929744503968698","731"
"20:47:52:727 (H:m:s:ms)","GENERIC","124.262","0.1934928767343384","289"
"21:8:53:333 (H:m:s:ms)","GENERIC","93.351","0.28831573874615607","671"
"20:47:58:481 (H:m:s:ms)","OPERA","93.268","0.1866466665986814","532"
"21:8:56:842 (H:m:s:ms)","AMBULANCE","93.54299999999999","0.2903009319888854","161"
"20:30:0:0 (H:m:s:ms)","GENERIC","124.288","0.2988626041532212","1041"
"20:47:58:787 (H:m:s:ms)","GENERIC","124.346","0.18364224569386423","229"
"21:8:59:393 (H:m:s:ms)","GENERIC","93.152","0.281114114901999","652"
"20:30:0:0 (H:m:s:ms)","GENERIC","124.555","0.30299691663393086","1046"
"20:48:4:848 (H:m:s:ms)","GENERIC","124.42699999999999","0.1818824358232617","165"
"21:9:5:454 (H:m:s:ms)","GENERIC","124.258","0.2845621762872663","549"
"20:30:6:60 (H:m:s:ms)","GENERIC","124.229","0.3059332358164796","944"
"20:48:10:909 (H:m:s:ms)","GENERIC","124.578","0.1842070176947867","1104"
"21:9:11:515 (H:m:s:ms)","GENERIC","124.33699999999999","0.2839026072437422","488"
"20:30:12:121 (H:m:s:ms)","GENERIC","93.15700000000001","0.3060142380571742","884"
"20:48:13:670 (H:m:s:ms)","OPERA","93.196","0.1943085782525722","5388"
"21:9:17:575 (H:m:s:ms)","GENERIC","93.311","0.27947733461606156","429"
"20:30:18:181 (H:m:s:ms)","GENERIC","124.251","0.3097745221139213","823"
"20:48:16:969 (H:m:s:ms)","GENERIC","93.205","0.18866753286765936","5125"
"21:9:23:636 (H:m:s:ms)","GENERIC","124.224","0.2841425076590483","368"
"20:30:24:242 (H:m:s:ms)","GENERIC","93.20599999999999","0.3089008025324681","762"
"20:48:21:265 (H:m:s:ms)","OPERA","93.458","0.18882988261841469","5779"
"21:9:28:421 (H:m:s:ms)","AMBULANCE","93.23400000000001","0.2888382942560586","583"
"20:30:30:303 (H:m:s:ms)","GENERIC","124.354","0.31023750241993026","701"
"20:48:23:30 (H:m:s:ms)","GENERIC","93.207","0.2057117411960896","19241"
"20:30:36:363 (H:m:s:ms)","GENERIC","124.68299999999999","0.3064778017463103","641"
"20:48:28:860 (H:m:s:ms)","OPERA","93.36099999999999","0.19742818942868431","39748"
"20:30:42:424 (H:m:s:ms)","GENERIC","93.147","0.31046837721577464","580"
"20:30:48:484 (H:m:s:ms)","GENERIC","124.292","0.3117843676146472","520"
"21:9:29:696 (H:m:s:ms)","GENERIC","93.176","0.2857443621819315","348"
"21:9:35:757 (H:m:s:ms)","GENERIC","124.59700000000001","0.28250743155651387","247"
"20:48:29:90 (H:m:s:ms)","GENERIC","124.53","0.1990089441858058","955"
"21:9:41:818 (H:m:s:ms)","GENERIC","124.22800000000001","0.2786134227272036","186"
"20:48:35:151 (H:m:s:ms)","GENERIC","124.556","0.19797368405272522","852"
"21:9:47:878 (H:m:s:ms)","GENERIC","124.303","0.27683248587871107","1126"
"20:30:54:545 (H:m:s:ms)","GENERIC","124.542","0.31590423584882277","459"
"20:48:36:455 (H:m:s:ms)","OPERA","93.236","0.20082887699842727","3626"
"21:9:53:939 (H:m:s:ms)","GENERIC","124.17","0.2741607840554529","1065"
"20:31:0:606 (H:m:s:ms)","GENERIC","124.556","0.3126149266336449","398"
"20:48:41:212 (H:m:s:ms)","GENERIC","124.26","0.19216285238211125","792"
"21:10:0:0 (H:m:s:ms)","AMBULANCE","93.326","0.2752109116264292","1044"
"20:31:6:666 (H:m:s:ms)","GENERIC","124.52","0.3167127946789722","338"
"20:48:44:50 (H:m:s:ms)","OPERA","93.239","0.18885234424401037","4988"
"21:10:0:0 (H:m:s:ms)","GENERIC","124.34899999999999","0.2783849996653986","1049"
"20:31:12:727 (H:m:s:ms)","GENERIC","93.262","0.31621456647485374","277"
"20:48:47:272 (H:m:s:ms)","GENERIC","124.405","0.19597520226037188","9864"
"21:10:0:0 (H:m:s:ms)","GENERIC","93.36","0.2783015759843265","1054"
"20:31:18:787 (H:m:s:ms)","GENERIC","124.529","0.3149810550810387","217"
"20:48:51:645 (H:m:s:ms)","OPERA","93.36500000000001","0.17709039807533838","53201"
"21:10:6:60 (H:m:s:ms)","GENERIC","124.211","0.2806930394694064","944"
"20:31:24:848 (H:m:s:ms)","GENERIC","124.533","0.31977140687314154","157"
"20:48:53:333 (H:m:s:ms)","GENERIC","124.348","0.1751870138689479","95195"
"21:10:12:121 (H:m:s:ms)","GENERIC","124.221","0.28555099532802214","882"
"20:31:30:909 (H:m:s:ms)","GENERIC","124.33099999999999","0.31073438178561047","1095"
"20:48:59:240 (H:m:s:ms)","OPERA","93.327","0.19635405851591584","4866"
"20:31:36:969 (H:m:s:ms)","GENERIC","124.531","0.3193563398967323","1035"
"20:48:59:393 (H:m:s:ms)","GENERIC","124.225","0.19629847538890505","5731"
"20:31:43:30 (H:m:s:ms)","GENERIC","124.513","0.3141830590573578","974"
"20:31:49:90 (H:m:s:ms)","GENERIC","124.414","0.3111497876652347","952"
"20:49:5:454 (H:m:s:ms)","GENERIC","124.40899999999999","0.194536050481773","88947"
"20:49:6:835 (H:m:s:ms)","OPERA","93.274","0.20421334326365728","69302"
"20:31:55:151 (H:m:s:ms)","GENERIC","124.569","0.3109416147556982","853"
"20:49:11:515 (H:m:s:ms)","GENERIC","93.136","0.19826169954045472","492"
"20:32:1:212 (H:m:s:ms)","GENERIC","124.477","0.3051949701786358","792"
"20:49:14:430 (H:m:s:ms)","OPERA","93.525","0.1821149942903369","577"
"20:32:7:272 (H:m:s:ms)","GENERIC","124.174","0.308346860390214","732"
"20:49:17:575 (H:m:s:ms)","GENERIC","124.458","0.1806330176543046","430"
"20:32:13:333 (H:m:s:ms)","GENERIC","124.387","0.3126925698573221","671"
"20:49:22:25 (H:m:s:ms)","OPERA","62.197","0.18252266289618085","4015"
"20:32:19:393 (H:m:s:ms)","GENERIC","124.469","0.3133488129606714","649"
"20:49:23:636 (H:m:s:ms)","GENERIC","93.139","0.18553808874334285","82584"
"20:32:25:454 (H:m:s:ms)","GENERIC","124.229","0.3093014200226412","550"
"20:49:29:620 (H:m:s:ms)","OPERA","93.184","0.1770105137299263","27818"
"20:32:31:515 (H:m:s:ms)","GENERIC","93.193","0.30480724329597453","489"
"20:49:29:696 (H:m:s:ms)","GENERIC","124.534","0.1784734132822867","358"
"20:32:37:575 (H:m:s:ms)","GENERIC","124.58","0.30529154771875827","429"
"20:49:35:757 (H:m:s:ms)","GENERIC","124.426","0.2013905861748557","42965"
"20:32:43:636 (H:m:s:ms)","GENERIC","93.199","0.30443276193582003","368"
"20:32:49:696 (H:m:s:ms)","GENERIC","124.562","0.3042767353323302","347"
"20:49:41:818 (H:m:s:ms)","GENERIC","124.267","0.19253619026554264","90409"
"20:49:44:810 (H:m:s:ms)","OPERA","93.213","0.18094858891045779","204"
"20:32:55:757 (H:m:s:ms)","GENERIC","124.617","0.3063062825106589","247"
"20:49:47:878 (H:m:s:ms)","GENERIC","124.292","0.19188712383539666","92298"
"20:33:1:818 (H:m:s:ms)","GENERIC","124.55199999999999","0.30343601155256433","186"
"20:49:52:405 (H:m:s:ms)","OPERA","93.215","0.17679741591351777","605"
"20:33:7:878 (H:m:s:ms)","GENERIC","93.16","0.30547428543204214","1126"
"20:49:53:939 (H:m:s:ms)","GENERIC","124.465","0.19250028743431208","93188"
"20:33:13:939 (H:m:s:ms)","GENERIC","124.357","0.30044448411950947","1066"
"20:50:0:0 (H:m:s:ms)","OPERA","93.118","0.17916322336919707","3094"
"20:33:20:0 (H:m:s:ms)","GENERIC","124.439","0.3011030356133224","1042"
"20:50:0:0 (H:m:s:ms)","GENERIC","124.268","0.1911298522170263","3078"
"20:33:26:60 (H:m:s:ms)","GENERIC","124.664","0.30050665115577463","944"
"20:50:0:0 (H:m:s:ms)","GENERIC","124.524","0.18770646308319386","3080"
"20:33:32:121 (H:m:s:ms)","GENERIC","124.259","0.29668826764357814","882"
"20:50:6:60 (H:m:s:ms)","GENERIC","124.272","0.21459666676771222","9119"
"20:33:38:181 (H:m:s:ms)","GENERIC","124.654","0.30136435462863087","823"
"20:50:12:121 (H:m:s:ms)","GENERIC","124.163","0.21910129591658042","881"
"20:33:44:242 (H:m:s:ms)","GENERIC","124.664","0.3013342727919189","762"
"20:33:50:303 (H:m:s:ms)","GENERIC","124.241","0.30255177999504207","701"
"20:50:18:181 (H:m:s:ms)","GENERIC","124.331","0.18543978914428194","819"
"20:50:24:242 (H:m:s:ms)","GENERIC","124.24600000000001","0.1787179212976675","759"
"20:33:56:363 (H:m:s:ms)","GENERIC","124.47","0.29451884382921917","641"
"20:50:30:303 (H:m:s:ms)","GENERIC","124.393","0.1765042254668502","697"
"20:34:2:424 (H:m:s:ms)","GENERIC","124.547","0.29849089760905045","579"
"20:50:36:363 (H:m:s:ms)","GENERIC","124.666","0.196425122936402","6728"
"20:10:0:0 (H:m:s:ms)","GENERIC","93.449","0.29592757643947","1005"
"20:34:8:484 (H:m:s:ms)","GENERIC","124.504","0.30626385823071944","520"
"20:50:42:424 (H:m:s:ms)","GENERIC","124.34100000000001","0.18130679071797773","578"
"20:10:0:0 (H:m:s:ms)","GENERIC","124.29599999999999","0.2974324794476297","1052"
"20:34:14:545 (H:m:s:ms)","GENERIC","124.27","0.3056729080394249","459"
"20:50:48:484 (H:m:s:ms)","GENERIC","124.22200000000001","0.1889364780773751","2568"
"20:10:6:60 (H:m:s:ms)","GENERIC","124.251","0.3059555557367911","944"
"20:34:20:606 (H:m:s:ms)","GENERIC","93.174","0.30147958791003904","397"
"20:50:54:545 (H:m:s:ms)","GENERIC","124.479","0.2005262050768886","8556"
"20:10:12:121 (H:m:s:ms)","GENERIC","124.16499999999999","0.3025588051406625","883"
"20:34:26:666 (H:m:s:ms)","GENERIC","124.452","0.3101814861863898","337"
"20:51:0:606 (H:m:s:ms)","GENERIC","124.57900000000001","0.1910888665232128","2413"
"20:10:18:181 (H:m:s:ms)","GENERIC","93.293","0.30362640699892013","823"
"20:34:32:727 (H:m:s:ms)","GENERIC","93.23","0.31050130653781655","277"
"20:51:6:666 (H:m:s:ms)","GENERIC","124.475","0.1897694200638121","335"
"20:10:24:242 (H:m:s:ms)","GENERIC","124.315","0.307133335412197","762"
"20:34:38:787 (H:m:s:ms)","GENERIC","93.119","0.30672707361726154","217"
"20:51:12:727 (H:m:s:ms)","GENERIC","124.49600000000001","0.19146007092396586","2282"
"20:10:30:303 (H:m:s:ms)","GENERIC","124.35900000000001","0.308026026479863","702"
"20:34:44:848 (H:m:s:ms)","GENERIC","124.287","0.3090766682969306","156"
"20:10:36:363 (H:m:s:ms)","GENERIC","124.66499999999999","0.30915266747928116","641"
"20:34:50:909 (H:m:s:ms)","GENERIC","124.46700000000001","0.3172794254950033","1095"
"20:10:42:424 (H:m:s:ms)","GENERIC","93.143","0.31427572923308966","580"
"20:10:48:484 (H:m:s:ms)","GENERIC","124.202","0.3162668384625214","520"
"20:51:18:787 (H:m:s:ms)","GENERIC","124.518","0.198406869941933","214"
"20:51:24:848 (H:m:s:ms)","GENERIC","124.527","0.19146025945575137","152"
"20:34:56:969 (H:m:s:ms)","GENERIC","93.145","0.31942118935317987","1035"
"20:51:30:909 (H:m:s:ms)","GENERIC","124.342","0.1865903253073189","1094"
"20:35:3:30 (H:m:s:ms)","GENERIC","124.203","0.3159593339155615","974"
"20:51:36:969 (H:m:s:ms)","GENERIC","124.527","0.18885597144185926","1034"
"20:10:54:545 (H:m:s:ms)","GENERIC","124.554","0.31993089009386294","459"
"20:35:9:90 (H:m:s:ms)","GENERIC","124.25399999999999","0.3241580223912518","951"
"20:51:43:30 (H:m:s:ms)","GENERIC","124.574","0.20348359210848604","971"
"20:11:0:606 (H:m:s:ms)","GENERIC","124.51","0.3123726865504041","398"
"20:35:15:151 (H:m:s:ms)","GENERIC","124.497","0.3247085030791027","853"
"20:51:49:90 (H:m:s:ms)","GENERIC","124.465","0.1972401517772069","954"
"20:11:6:666 (H:m:s:ms)","GENERIC","124.575","0.31735469607418215","338"
"20:35:21:212 (H:m:s:ms)","GENERIC","124.622","0.32669275041288315","792"
"20:51:55:151 (H:m:s:ms)","GENERIC","124.574","0.19139976547942594","850"
"20:11:12:727 (H:m:s:ms)","GENERIC","124.50999999999999","0.31553165568920793","278"
"20:35:27:272 (H:m:s:ms)","GENERIC","93.226","0.3254244707045281","732"
"20:52:1:212 (H:m:s:ms)","GENERIC","124.53","0.20425393169119724","2791"
"20:11:18:787 (H:m:s:ms)","GENERIC","124.606","0.31215399078386197","217"
"20:35:33:333 (H:m:s:ms)","GENERIC","93.226","0.3222615596598991","670"
"20:52:7:272 (H:m:s:ms)","GENERIC","124.412","0.20138886827965224","729"
"20:11:24:848 (H:m:s:ms)","GENERIC","124.517","0.3161261777337924","157"
"20:35:39:393 (H:m:s:ms)","GENERIC","124.517","0.31647015159122643","648"
"20:52:13:333 (H:m:s:ms)","GENERIC","124.49600000000001","0.22236927473599474","667"
"20:11:30:909 (H:m:s:ms)","GENERIC","124.30199999999999","0.3185262326184408","1094"
"20:35:45:454 (H:m:s:ms)","GENERIC","124.225","0.31271241767716396","550"
"20:11:36:969 (H:m:s:ms)","GENERIC","124.57400000000001","0.3121335603119026","1035"
"20:35:51:515 (H:m:s:ms)","GENERIC","124.332","0.31366186721802997","488"
"20:11:43:30 (H:m:s:ms)","GENERIC","124.491","0.31062246065307436","974"
"20:11:49:90 (H:m:s:ms)","GENERIC","93.18700000000001","0.307688498644733","957"
"20:0:54:545 (H:m:s:ms)","GENERIC","93.483","0.2165589829225371","471"
"20:1:0:606 (H:m:s:ms)","GENERIC","93.537","0.22642394750342867","410"
"20:1:6:666 (H:m:s:ms)","GENERIC","62.291","0.23689576799442463","350"
"20:1:12:727 (H:m:s:ms)","GENERIC","62.254999999999995","0.24538576670383846","337"
"20:1:18:787 (H:m:s:ms)","GENERIC","93.547","0.2570219989204139","258"
"20:1:24:848 (H:m:s:ms)","GENERIC","93.471","0.26491584681153396","161"
"20:1:30:909 (H:m:s:ms)","GENERIC","93.241","0.2692035620132854","1098"
"20:1:36:969 (H:m:s:ms)","GENERIC","93.52","0.2743071698437247","1038"
"20:1:43:30 (H:m:s:ms)","GENERIC","93.547","0.27843983276477463","977"
"20:1:49:90 (H:m:s:ms)","GENERIC","93.418","0.2785764319006159","932"
"20:35:57:575 (H:m:s:ms)","GENERIC","124.674","0.31687346714054176","429"
"20:36:3:636 (H:m:s:ms)","GENERIC","124.64500000000001","0.3218152430811547","368"
"20:11:55:151 (H:m:s:ms)","GENERIC","93.356","0.3109412907100834","853"
"20:36:9:696 (H:m:s:ms)","GENERIC","124.538","0.32258432128677544","345"
"20:12:1:212 (H:m:s:ms)","GENERIC","124.518","0.30128693634362586","792"
"20:36:15:757 (H:m:s:ms)","GENERIC","124.19800000000001","0.32033470426836325","250"
"20:12:7:272 (H:m:s:ms)","GENERIC","93.252","0.2928063841981151","732"
"20:36:21:818 (H:m:s:ms)","GENERIC","124.467","0.3242789315673813","186"
"20:12:13:333 (H:m:s:ms)","GENERIC","124.457","0.292522820209694","671"
"20:36:27:878 (H:m:s:ms)","GENERIC","124.64699999999999","0.3216706826724507","1126"
"20:12:19:393 (H:m:s:ms)","GENERIC","124.62700000000001","0.2973055926701917","653"
"20:36:33:939 (H:m:s:ms)","GENERIC","124.605","0.3210867430126644","1065"
"20:12:25:454 (H:m:s:ms)","GENERIC","124.25200000000001","0.29689017058581096","550"
"20:36:40:0 (H:m:s:ms)","GENERIC","124.50200000000001","0.3170772687307569","1044"
"20:12:31:515 (H:m:s:ms)","GENERIC","124.428","0.2977003382924712","489"
"20:36:46:60 (H:m:s:ms)","GENERIC","124.13499999999999","0.31948800610672007","944"
"20:12:37:575 (H:m:s:ms)","GENERIC","124.593","0.2958277570977641","429"
"20:36:52:121 (H:m:s:ms)","GENERIC","124.638","0.32120653449483105","883"
"20:12:43:636 (H:m:s:ms)","GENERIC","124.26400000000001","0.2969185708935552","368"
"20:12:49:696 (H:m:s:ms)","GENERIC","124.59100000000001","0.30552070795455094","348"
"20:1:55:151 (H:m:s:ms)","GENERIC","93.561","0.28715838826145124","855"
"20:2:1:212 (H:m:s:ms)","GENERIC","93.5","0.2865730157062465","795"
"20:2:7:272 (H:m:s:ms)","GENERIC","93.27600000000001","0.2875522933178792","734"
"20:2:13:333 (H:m:s:ms)","GENERIC","62.167","0.2942539696319057","673"
"20:2:19:393 (H:m:s:ms)","GENERIC","93.521","0.29550029184097304","629"
"20:2:25:454 (H:m:s:ms)","GENERIC","93.226","0.2956850476778567","552"
"20:2:31:515 (H:m:s:ms)","GENERIC","93.382","0.295354005433224","490"
"20:2:37:575 (H:m:s:ms)","GENERIC","93.56","0.297974749302985","432"
"20:2:43:636 (H:m:s:ms)","GENERIC","62.3","0.2978013379182898","371"
"20:2:49:696 (H:m:s:ms)","GENERIC","93.511","0.29560372885433817","328"
"20:36:58:181 (H:m:s:ms)","GENERIC","124.598","0.32186117723861163","823"
"20:37:4:242 (H:m:s:ms)","GENERIC","124.267","0.31785189901618","762"
"20:12:55:757 (H:m:s:ms)","GENERIC","124.607","0.30882887676497967","248"
"20:37:10:303 (H:m:s:ms)","GENERIC","124.247","0.3140711064555302","700"
"20:13:1:818 (H:m:s:ms)","GENERIC","124.49600000000001","0.3102112286876516","187"
"20:37:16:363 (H:m:s:ms)","GENERIC","124.57300000000001","0.32230333940705047","640"
"20:13:7:878 (H:m:s:ms)","GENERIC","124.164","0.30723070094769417","1126"
"20:37:22:424 (H:m:s:ms)","GENERIC","124.464","0.3198730278439691","580"
"20:13:13:939 (H:m:s:ms)","GENERIC","124.399","0.31289784211654925","1065"
"20:37:28:484 (H:m:s:ms)","GENERIC","124.245","0.3153473717892781","519"
"20:13:20:0 (H:m:s:ms)","GENERIC","124.422","0.3114027271393177","1044"
"20:37:34:545 (H:m:s:ms)","GENERIC","93.166","0.31005132123452267","459"
"20:13:26:60 (H:m:s:ms)","GENERIC","124.616","0.31187613414173226","943"
"20:37:40:606 (H:m:s:ms)","GENERIC","124.499","0.3156371268115097","398"
"20:13:32:121 (H:m:s:ms)","GENERIC","93.148","0.3056296061481708","883"
"20:37:46:666 (H:m:s:ms)","GENERIC","124.378","0.30881061684808536","337"
"20:13:38:181 (H:m:s:ms)","GENERIC","124.608","0.3010518294840889","823"
"20:37:52:727 (H:m:s:ms)","GENERIC","93.156","0.3023901291660133","276"
"20:13:44:242 (H:m:s:ms)","GENERIC","124.618","0.29981692418225575","762"
"20:13:50:303 (H:m:s:ms)","GENERIC","93.187","0.30302182752760237","700"
"20:2:55:757 (H:m:s:ms)","GENERIC","93.479","0.3006622702470861","249"
"20:3:1:818 (H:m:s:ms)","GENERIC","93.559","0.31388761802400045","188"
"20:3:7:878 (H:m:s:ms)","GENERIC","62.104","0.31386828669320443","127"
"20:3:13:939 (H:m:s:ms)","GENERIC","62.206999999999994","0.31575634375943296","1067"
"20:3:20:0 (H:m:s:ms)","GENERIC","93.374","0.31498890866527024","1006"
"20:3:26:60 (H:m:s:ms)","GENERIC","93.471","0.3205766317706618","945"
"20:3:32:121 (H:m:s:ms)","GENERIC","93.191","0.3212834049071597","884"
"20:3:38:181 (H:m:s:ms)","GENERIC","93.505","0.33060444780476594","824"
"20:3:44:242 (H:m:s:ms)","GENERIC","93.594","0.3314998387787298","764"
"20:3:50:303 (H:m:s:ms)","GENERIC","62.105000000000004","0.33184776023462864","702"
"20:37:58:787 (H:m:s:ms)","GENERIC","124.32300000000001","0.3026310379197908","217"
"20:38:4:848 (H:m:s:ms)","GENERIC","124.283","0.3016787611108409","155"
"20:13:56:363 (H:m:s:ms)","GENERIC","124.517","0.30159370166314725","641"
"20:38:10:909 (H:m:s:ms)","GENERIC","93.271","0.30075606978813524","1095"
"20:14:2:424 (H:m:s:ms)","GENERIC","124.53399999999999","0.3017527104120271","579"
"20:38:16:969 (H:m:s:ms)","GENERIC","124.346","0.30046256022100976","1034"
"20:14:8:484 (H:m:s:ms)","GENERIC","124.486","0.3095411423112821","520"
"20:38:23:30 (H:m:s:ms)","GENERIC","124.524","0.30189906022917035","974"
"20:14:14:545 (H:m:s:ms)","GENERIC","93.17","0.3109060150205868","459"
"20:38:29:90 (H:m:s:ms)","GENERIC","124.59100000000001","0.3043480321302615","951"
"20:14:20:606 (H:m:s:ms)","GENERIC","93.199","0.30893711309520816","397"
"20:38:35:151 (H:m:s:ms)","GENERIC","124.533","0.30520065505127847","853"
"20:14:26:666 (H:m:s:ms)","GENERIC","124.362","0.31478631891033465","337"
"20:38:41:212 (H:m:s:ms)","GENERIC","124.307","0.30660262922475645","792"
"20:14:32:727 (H:m:s:ms)","GENERIC","124.40299999999999","0.31077308345460725","277"
"20:38:47:272 (H:m:s:ms)","GENERIC","93.166","0.30260339910302314","732"
"20:14:38:787 (H:m:s:ms)","GENERIC","124.19200000000001","0.3142593670164771","217"
"20:38:53:333 (H:m:s:ms)","GENERIC","124.44800000000001","0.3033163919642568","672"
"20:14:44:848 (H:m:s:ms)","GENERIC","124.28","0.3111327755899271","155"
"20:14:50:909 (H:m:s:ms)","GENERIC","124.469","0.31368000162147347","1095"
"20:3:56:363 (H:m:s:ms)","GENERIC","93.482","0.3296646262208018","642"
"20:4:2:424 (H:m:s:ms)","GENERIC","93.541","0.33371864012538044","581"
"20:4:8:484 (H:m:s:ms)","GENERIC","93.53","0.3369103925908336","521"
"20:4:14:545 (H:m:s:ms)","GENERIC","62.174","0.3334336198614469","460"
"20:4:20:606 (H:m:s:ms)","GENERIC","93.193","0.33074462072425437","398"
"20:4:26:666 (H:m:s:ms)","GENERIC","93.40299999999999","0.33164873695177755","338"
"20:4:32:727 (H:m:s:ms)","GENERIC","93.37100000000001","0.33004720326012144","278"
"20:4:38:787 (H:m:s:ms)","GENERIC","93.191","0.3297709229134143","217"
"20:4:44:848 (H:m:s:ms)","GENERIC","93.25800000000001","0.33050241576791467","157"
"20:4:50:909 (H:m:s:ms)","GENERIC","93.38900000000001","0.3278071155537161","1094"
"20:38:59:393 (H:m:s:ms)","GENERIC","93.193","0.3064645358691696","649"
"20:39:5:454 (H:m:s:ms)","GENERIC","93.15299999999999","0.30035390505843335","550"
"20:14:56:969 (H:m:s:ms)","GENERIC","93.146","0.31480661875268134","1034"
"20:39:11:515 (H:m:s:ms)","GENERIC","124.281","0.29787186594666826","490"
"20:15:3:30 (H:m:s:ms)","GENERIC","124.17099999999999","0.3147256063323507","973"
"20:39:17:575 (H:m:s:ms)","GENERIC","124.504","0.2948759948965444","429"
"20:15:9:90 (H:m:s:ms)","GENERIC","93.154","0.317369289480674","953"
"20:39:23:636 (H:m:s:ms)","GENERIC","124.294","0.2956805754607627","368"
"20:15:15:151 (H:m:s:ms)","GENERIC","124.453","0.3266955847707513","852"
"20:39:29:696 (H:m:s:ms)","GENERIC","124.499","0.29454830178351443","347"
"20:15:21:212 (H:m:s:ms)","GENERIC","124.60300000000001","0.33039630983382295","792"
"20:39:35:757 (H:m:s:ms)","GENERIC","124.56700000000001","0.28791673590923766","247"
"20:15:27:272 (H:m:s:ms)","GENERIC","124.363","0.32832116601167255","732"
"20:39:41:818 (H:m:s:ms)","GENERIC","93.142","0.2880906721860098","186"
"20:15:33:333 (H:m:s:ms)","GENERIC","124.40899999999999","0.3236361910006979","671"
"20:39:47:878 (H:m:s:ms)","GENERIC","124.38499999999999","0.2872224559397929","1127"
"20:15:39:393 (H:m:s:ms)","GENERIC","124.58099999999999","0.31859648586209566","650"
"20:39:53:939 (H:m:s:ms)","GENERIC","124.182","0.2828162505184326","1066"
"20:15:45:454 (H:m:s:ms)","GENERIC","124.201","0.3158955270022085","550"
"20:15:51:515 (H:m:s:ms)","GENERIC","124.306","0.32134596910268964","489"
"20:4:56:969 (H:m:s:ms)","GENERIC","93.109","0.3243791195622847","1034"
"20:5:3:30 (H:m:s:ms)","GENERIC","93.218","0.3276603664063196","974"
"20:5:9:90 (H:m:s:ms)","GENERIC","62.135","0.32732634435208985","940"
"20:5:15:151 (H:m:s:ms)","GENERIC","93.389","0.32370436200301406","853"
"20:5:21:212 (H:m:s:ms)","GENERIC","93.42","0.32688546958270287","792"
"20:5:27:272 (H:m:s:ms)","GENERIC","93.294","0.32662348868687485","732"
"20:5:33:333 (H:m:s:ms)","GENERIC","62.176","0.3319428359179382","672"
"20:5:39:393 (H:m:s:ms)","GENERIC","93.513","0.3270729059506582","641"
"20:5:45:454 (H:m:s:ms)","GENERIC","93.144","0.3239041417631634","550"
"20:5:51:515 (H:m:s:ms)","GENERIC","93.257","0.3277117161561227","490"
"20:15:57:575 (H:m:s:ms)","GENERIC","124.55099999999999","0.32408056023715953","429"
"20:16:3:636 (H:m:s:ms)","GENERIC","124.639","0.32371790787553456","368"
"20:16:9:696 (H:m:s:ms)","GENERIC","124.551","0.32021302762552223","348"
"20:16:15:757 (H:m:s:ms)","GENERIC","124.23","0.31833739321279353","246"
"20:16:21:818 (H:m:s:ms)","GENERIC","124.46600000000001","0.31571858089432703","186"
"20:16:27:878 (H:m:s:ms)","GENERIC","124.50800000000001","0.31536015039480203","1126"
"20:16:33:939 (H:m:s:ms)","GENERIC","124.506","0.31598843005920124","1065"
"20:16:40:0 (H:m:s:ms)","GENERIC","124.61","0.31603849831916236","1043"
"20:16:46:60 (H:m:s:ms)","GENERIC","124.19200000000001","0.3159080054948458","943"
"20:16:52:121 (H:m:s:ms)","GENERIC","124.599","0.3156139120259818","883"
"20:5:57:575 (H:m:s:ms)","GENERIC","93.513","0.3221305060120275","429"
"20:6:3:636 (H:m:s:ms)","GENERIC","93.437","0.3187203005883864","369"
"20:6:9:696 (H:m:s:ms)","GENERIC","93.534","0.3218715943912371","340"
"20:6:15:757 (H:m:s:ms)","GENERIC","93.207","0.32867794603918277","247"
"20:6:21:818 (H:m:s:ms)","GENERIC","93.491","0.32027397393373297","187"
"20:6:27:878 (H:m:s:ms)","GENERIC","62.4","0.3166068998263256","127"
"20:6:33:939 (H:m:s:ms)","GENERIC","93.451","0.30896145082767223","1066"
"20:6:40:0 (H:m:s:ms)","GENERIC","93.564","0.3059455512728722","1005"
"20:6:46:60 (H:m:s:ms)","GENERIC","62.083","0.3032594781510184","944"
"20:6:52:121 (H:m:s:ms)","GENERIC","93.538","0.3014002072709458","883"
"20:16:58:181 (H:m:s:ms)","GENERIC","124.53999999999999","0.322287357646323","823"
"20:17:4:242 (H:m:s:ms)","GENERIC","124.30099999999999","0.31704617197777263","762"
"20:17:10:303 (H:m:s:ms)","GENERIC","124.259","0.3204370456118545","701"
"20:17:16:363 (H:m:s:ms)","GENERIC","124.543","0.32097540081338244","641"
"20:17:22:424 (H:m:s:ms)","GENERIC","124.549","0.320760202431526","580"
"20:17:28:484 (H:m:s:ms)","GENERIC","124.19","0.32514689126776647","519"
"20:17:34:545 (H:m:s:ms)","GENERIC","124.30600000000001","0.3214233814016491","458"
"20:17:40:606 (H:m:s:ms)","GENERIC","93.247","0.32583880677225907","398"
"20:17:46:666 (H:m:s:ms)","GENERIC","124.388","0.32603236144300307","338"
"20:17:52:727 (H:m:s:ms)","GENERIC","124.21600000000001","0.3174125762263857","277"
"20:6:58:181 (H:m:s:ms)","GENERIC","62.291","0.3067420347033472","823"
"20:7:4:242 (H:m:s:ms)","GENERIC","93.166","0.3095402359871924","763"
"20:7:10:303 (H:m:s:ms)","GENERIC","93.129","0.3129827447951957","701"
"20:7:16:363 (H:m:s:ms)","GENERIC","93.361","0.3166548044786544","641"
"20:7:22:424 (H:m:s:ms)","GENERIC","93.45","0.31679541703243147","580"
"20:7:28:484 (H:m:s:ms)","GENERIC","62.101","0.3143682355609728","520"
"20:7:34:545 (H:m:s:ms)","GENERIC","93.22200000000001","0.3108181783198794","460"
"20:7:40:606 (H:m:s:ms)","GENERIC","93.468","0.31214236705629855","399"
"20:7:46:666 (H:m:s:ms)","GENERIC","93.324","0.31027311654426865","338"
"20:7:52:727 (H:m:s:ms)","GENERIC","31.024","0.30434796236644684","277"
"20:17:58:787 (H:m:s:ms)","GENERIC","124.34100000000001","0.3142827740884701","217"
"20:18:4:848 (H:m:s:ms)","GENERIC","93.108","0.3167706721438879","159"
"20:18:10:909 (H:m:s:ms)","GENERIC","124.61","0.31524000452002543","1095"
"20:18:16:969 (H:m:s:ms)","GENERIC","124.34700000000001","0.32442723430537773","1034"
"20:18:23:30 (H:m:s:ms)","GENERIC","124.55799999999999","0.32450706529845674","974"
"20:18:29:90 (H:m:s:ms)","GENERIC","124.53999999999999","0.32228054085973146","953"
"20:18:35:151 (H:m:s:ms)","GENERIC","124.492","0.3220654628705319","853"
"20:18:41:212 (H:m:s:ms)","GENERIC","124.249","0.32889564580140357","792"
"20:18:47:272 (H:m:s:ms)","GENERIC","124.187","0.32198815145873305","731"
"20:18:53:333 (H:m:s:ms)","GENERIC","124.511","0.31445583851311737","671"
"20:7:58:787 (H:m:s:ms)","GENERIC","93.28999999999999","0.3041941793300285","218"
"20:8:4:848 (H:m:s:ms)","GENERIC","93.22","0.30755245173952217","156"
"20:8:10:909 (H:m:s:ms)","GENERIC","93.533","0.3069983924888647","1095"
"20:8:16:969 (H:m:s:ms)","GENERIC","93.321","0.30731689199103374","1035"
"20:8:23:30 (H:m:s:ms)","GENERIC","62.227999999999994","0.30748138131694863","974"
"20:8:29:90 (H:m:s:ms)","GENERIC","93.541","0.313189079739176","951"
"20:8:35:151 (H:m:s:ms)","GENERIC","93.504","0.310023519429742","852"
"20:8:41:212 (H:m:s:ms)","GENERIC","93.321","0.31666872019513004","792"
"20:8:47:272 (H:m:s:ms)","GENERIC","62.105000000000004","0.3147320246457654","732"
"20:8:53:333 (H:m:s:ms)","GENERIC","93.424","0.30966904441289705","671"
"20:18:59:393 (H:m:s:ms)","GENERIC","124.28999999999999","0.31678685056767797","649"
"20:19:5:454 (H:m:s:ms)","GENERIC","124.227","0.322594171595309","550"
"20:19:11:515 (H:m:s:ms)","GENERIC","62.065","0.3172292170297019","489"
"20:19:17:575 (H:m:s:ms)","GENERIC","124.499","0.3139129399929944","429"
"20:19:23:636 (H:m:s:ms)","GENERIC","93.231","0.31380448934091043","368"
"20:19:29:696 (H:m:s:ms)","GENERIC","124.601","0.31610179803128374","348"
"20:19:35:757 (H:m:s:ms)","GENERIC","124.569","0.32202491461543553","247"
"20:19:41:818 (H:m:s:ms)","GENERIC","124.195","0.3150665312621087","186"
"20:19:47:878 (H:m:s:ms)","GENERIC","124.367","0.30976446977135824","1125"
"20:19:53:939 (H:m:s:ms)","GENERIC","124.15700000000001","0.30529170053631716","1065"
"20:8:59:393 (H:m:s:ms)","GENERIC","93.21","0.30010237970892806","649"
"20:9:5:454 (H:m:s:ms)","GENERIC","93.19200000000001","0.3034117947415423","550"
"20:9:11:515 (H:m:s:ms)","GENERIC","62.123","0.30720583531153356","489"
"20:9:17:575 (H:m:s:ms)","GENERIC","93.44800000000001","0.30201252090250963","429"
"20:9:23:636 (H:m:s:ms)","GENERIC","93.27","0.30208994123283894","370"
"20:9:29:696 (H:m:s:ms)","GENERIC","93.419","0.3038161538881138","349"
"20:9:35:757 (H:m:s:ms)","GENERIC","62.309","0.30084935483277253","247"
"20:9:41:818 (H:m:s:ms)","GENERIC","93.203","0.30694803752719546","186"
"20:9:47:878 (H:m:s:ms)","GENERIC","93.332","0.30653629608978666","126"
"20:9:53:939 (H:m:s:ms)","GENERIC","93.122","0.3038922397446851","1066"
"21:41:0:606 (H:m:s:ms)","GENERIC","124.619","0.28383993495777915","397"
"21:40:54:545 (H:m:s:ms)","GENERIC","124.554","0.2724439638062103","458"
"21:40:48:484 (H:m:s:ms)","GENERIC","124.19399999999999","0.2775576201532773","520"
"21:40:42:424 (H:m:s:ms)","GENERIC","124.222","0.2884323292639788","579"
"21:40:36:363 (H:m:s:ms)","GENERIC","124.55199999999999","0.2782292000268007","641"
"21:40:30:303 (H:m:s:ms)","GENERIC","124.36500000000001","0.2660489467204272","700"
"21:40:24:242 (H:m:s:ms)","GENERIC","124.27000000000001","0.2736255465149162","762"
"21:41:18:787 (H:m:s:ms)","GENERIC","124.555","0.29156617770808857","218"
"21:41:12:727 (H:m:s:ms)","GENERIC","124.56200000000001","0.28364354344132686","276"
"21:41:6:666 (H:m:s:ms)","GENERIC","124.65899999999999","0.2934940604482405","337"
