"time (H:m:s:ms)","type","latency","utilisation","waiting"
"21:42:31:515 (H:m:s:ms)","GENERIC","62.093","0.08070060715815516","488"
"21:42:13:333 (H:m:s:ms)","GENERIC","62.123","0.08174618806567935","669"
"21:42:7:272 (H:m:s:ms)","GENERIC","62.113","0.082864574640064","730"
"21:42:1:212 (H:m:s:ms)","GENERIC","62.035","0.0829298033393236","791"
"21:41:55:151 (H:m:s:ms)","GENERIC","62.071","0.08395887137287576","852"
"21:41:49:90 (H:m:s:ms)","GENERIC","62.045","0.08657575297152093","955"
"21:41:43:30 (H:m:s:ms)","GENERIC","62.113","0.0862206027035146","973"
"21:41:36:969 (H:m:s:ms)","GENERIC","62.029","0.0855304126551293","1034"
"21:41:30:909 (H:m:s:ms)","GENERIC","62.023","0.08616847252687111","1093"
"21:42:25:454 (H:m:s:ms)","GENERIC","62.119","0.0816104539305293","550"
"21:42:19:393 (H:m:s:ms)","GENERIC","62.079","0.08239207738482547","650"
"21:43:38:181 (H:m:s:ms)","GENERIC","62.079","0.07948985954865115","821"
"21:43:32:121 (H:m:s:ms)","GENERIC","62.125","0.07987456436078928","882"
"21:43:20:0 (H:m:s:ms)","GENERIC","62.095","0.08115796305491861","1044"
"20:0:0:0 (H:m:s:ms)","GENERIC","31.073","0.010408329997330665","2384"
"21:43:13:939 (H:m:s:ms)","GENERIC","62.093","0.08104453215597202","1063"
"20:0:6:60 (H:m:s:ms)","GENERIC","31.038","0.018564951385532373","967"
"21:43:7:878 (H:m:s:ms)","GENERIC","62.141","0.07998971403451129","1125"
"20:0:12:121 (H:m:s:ms)","GENERIC","31.02","0.024291970847068925","896"
"21:43:1:818 (H:m:s:ms)","GENERIC","62.021","0.08045092219714584","185"
"20:0:18:181 (H:m:s:ms)","GENERIC","31.05","0.024974815814001582","831"
"21:42:55:757 (H:m:s:ms)","GENERIC","62.111","0.08153076814872111","245"
"20:0:24:242 (H:m:s:ms)","GENERIC","31.03","0.02964955360006099","770"
"21:42:49:696 (H:m:s:ms)","GENERIC","62.035","0.0817340535502312","349"
"20:0:30:303 (H:m:s:ms)","GENERIC","31.022","0.03132704187688481","709"
"21:42:43:636 (H:m:s:ms)","GENERIC","62.071","0.08110679026620073","368"
"20:0:36:363 (H:m:s:ms)","GENERIC","31.042","0.03293333944696529","646"
"21:42:37:575 (H:m:s:ms)","GENERIC","62.095","0.08109788752262662","427"
"20:0:42:424 (H:m:s:ms)","GENERIC","31.048","0.03454625854475779","585"
"21:10:24:242 (H:m:s:ms)","GENERIC","62.091","0.08359657874531587","761"
"20:0:48:484 (H:m:s:ms)","GENERIC","31.052","0.03496986003980167","527"
"21:10:30:303 (H:m:s:ms)","GENERIC","62.103","0.08359657874531587","699"
"21:10:36:363 (H:m:s:ms)","GENERIC","62.109","0.08437853044704757","639"
"21:10:42:424 (H:m:s:ms)","GENERIC","62.031","0.08404207732869258","579"
"21:10:48:484 (H:m:s:ms)","GENERIC","62.123","0.08326851920442555","519"
"21:10:54:545 (H:m:s:ms)","GENERIC","62.107","0.08328514717346247","457"
"21:11:0:606 (H:m:s:ms)","GENERIC","62.045","0.08293205388828398","397"
"21:11:6:666 (H:m:s:ms)","GENERIC","62.139","0.0827161654798599","336"
"21:43:26:60 (H:m:s:ms)","GENERIC","62.099","0.07990951272522885","942"
"21:11:12:727 (H:m:s:ms)","GENERIC","62.053","0.0827043534886726","281"
"21:11:18:787 (H:m:s:ms)","GENERIC","62.045","0.08234876992647337","216"
"21:25:49:367 (H:m:s:ms)","OPERA","62.013","0.104560228136811","673"
"21:44:44:848 (H:m:s:ms)","GENERIC","62.029","0.07387929704116206","156"
"21:44:38:787 (H:m:s:ms)","GENERIC","62.119","0.07353086543349607","216"
"21:44:32:727 (H:m:s:ms)","GENERIC","62.055","0.07353086543349607","276"
"21:44:26:666 (H:m:s:ms)","GENERIC","62.075","0.07477795939497922","336"
"21:44:20:606 (H:m:s:ms)","GENERIC","62.109","0.07481622260059785","397"
"21:44:14:545 (H:m:s:ms)","GENERIC","62.087","0.07481622260059785","458"
"21:44:8:484 (H:m:s:ms)","GENERIC","62.025","0.0751815239315437","519"
"21:44:2:424 (H:m:s:ms)","GENERIC","62.057","0.07569794221099459","579"
"21:43:56:363 (H:m:s:ms)","GENERIC","62.015","0.07817044575260826","640"
"21:43:50:303 (H:m:s:ms)","GENERIC","62.045","0.0788300118615549","700"
"21:11:24:848 (H:m:s:ms)","GENERIC","62.021","0.08318369101468741","156"
"21:43:44:242 (H:m:s:ms)","GENERIC","62.055","0.07949420759404432","761"
"21:11:30:909 (H:m:s:ms)","GENERIC","62.063","0.08252436804053279","1094"
"21:11:36:969 (H:m:s:ms)","GENERIC","62.065","0.08319876121192077","1033"
"21:11:43:30 (H:m:s:ms)","GENERIC","62.077","0.08294150875367408","972"
"21:11:49:90 (H:m:s:ms)","GENERIC","62.075","0.08294150875367408","951"
"21:11:55:151 (H:m:s:ms)","GENERIC","62.083","0.08079990675643807","852"
"21:12:1:212 (H:m:s:ms)","GENERIC","62.077","0.08089756354692111","791"
"21:12:7:272 (H:m:s:ms)","GENERIC","62.109","0.0801868193238316","730"
"21:12:13:333 (H:m:s:ms)","GENERIC","62.103","0.08051320688073908","670"
"21:12:19:393 (H:m:s:ms)","GENERIC","62.079","0.08033416471074196","648"
"21:26:27:341 (H:m:s:ms)","OPERA","31.008","0.10448793713963819","661"
"21:45:51:515 (H:m:s:ms)","GENERIC","62.127","0.0731584056198992","487"
"21:26:21:818 (H:m:s:ms)","GENERIC","62.057","0.10454660080825247","185"
"21:45:45:454 (H:m:s:ms)","GENERIC","62.041","0.07357804765396565","548"
"21:45:39:393 (H:m:s:ms)","GENERIC","62.023","0.0723290405929146","651"
"21:45:33:333 (H:m:s:ms)","GENERIC","62.101","0.07311291687279946","670"
"21:26:15:757 (H:m:s:ms)","GENERIC","62.021","0.10551233290351379","245"
"21:26:12:151 (H:m:s:ms)","OPERA","62.015","0.10454348163074294","852"
"21:45:27:272 (H:m:s:ms)","GENERIC","62.067","0.07315853537085684","730"
"21:26:9:696 (H:m:s:ms)","GENERIC","62.121","0.10433303920139224","343"
"21:45:21:212 (H:m:s:ms)","GENERIC","62.045","0.07323013099421645","791"
"21:26:4:556 (H:m:s:ms)","OPERA","31.009","0.1045681247763414","446"
"21:45:15:151 (H:m:s:ms)","GENERIC","62.041","0.07247773928248376","851"
"21:26:3:636 (H:m:s:ms)","GENERIC","62.169","0.10375482258456442","368"
"21:45:9:90 (H:m:s:ms)","GENERIC","62.159","0.07257093129694912","956"
"21:25:57:575 (H:m:s:ms)","GENERIC","62.101","0.10460102232944317","432"
"21:45:3:30 (H:m:s:ms)","GENERIC","62.041","0.07257093129694912","973"
"21:12:25:454 (H:m:s:ms)","GENERIC","62.097","0.08024008444685575","548"
"21:25:56:962 (H:m:s:ms)","OPERA","31.009","0.1046004360620677","1041"
"21:44:56:969 (H:m:s:ms)","GENERIC","62.065","0.0735838502352519","1034"
"21:12:31:515 (H:m:s:ms)","GENERIC","62.101","0.07930843817010023","487"
"21:25:51:515 (H:m:s:ms)","GENERIC","62.097","0.10492440056579615","487"
"21:44:50:909 (H:m:s:ms)","GENERIC","62.083","0.0735838502352519","1094"
"21:12:37:575 (H:m:s:ms)","GENERIC","62.097","0.07924574992580986","427"
"21:12:43:636 (H:m:s:ms)","GENERIC","62.067","0.07992297981730316","367"
"21:12:49:696 (H:m:s:ms)","GENERIC","62.041","0.0799666191894025","345"
"21:12:55:757 (H:m:s:ms)","GENERIC","62.091","0.07993010759893109","246"
"21:13:1:818 (H:m:s:ms)","GENERIC","62.075","0.07954170351175016","185"
"21:13:7:878 (H:m:s:ms)","GENERIC","62.135","0.08035066510001836","1124"
"21:13:13:939 (H:m:s:ms)","GENERIC","62.077","0.0803636110473579","1064"
"21:13:20:0 (H:m:s:ms)","GENERIC","62.093","0.080044775490873","1042"
"21:26:19:746 (H:m:s:ms)","OPERA","31.008","0.10374919327091439","293"
"21:27:5:316 (H:m:s:ms)","OPERA","31.009","0.10471876741224818","686"
"21:46:58:181 (H:m:s:ms)","GENERIC","62.079","0.07493203729784952","822"
"21:27:4:242 (H:m:s:ms)","GENERIC","62.109","0.10370812028750627","762"
"21:46:52:121 (H:m:s:ms)","GENERIC","62.085","0.07548667628953049","882"
"21:26:58:181 (H:m:s:ms)","GENERIC","62.049","0.10502161034054046","821"
"21:46:46:60 (H:m:s:ms)","GENERIC","62.095","0.0749815133859836","943"
"21:46:40:0 (H:m:s:ms)","GENERIC","62.036","0.0749815133859836","1046"
"21:46:33:939 (H:m:s:ms)","GENERIC","62.073","0.0753566124093768","1065"
"21:26:57:721 (H:m:s:ms)","OPERA","62.015","0.10501615777680602","281"
"21:26:52:121 (H:m:s:ms)","GENERIC","62.049","0.10541536562875446","881"
"21:26:50:126 (H:m:s:ms)","OPERA","31.009","0.10535117252722137","877"
"21:46:27:878 (H:m:s:ms)","GENERIC","62.121","0.07470198006592808","1125"
"21:26:46:60 (H:m:s:ms)","GENERIC","62.117","0.10598872283123122","942"
"21:46:21:818 (H:m:s:ms)","GENERIC","62.081","0.07469017754381402","185"
"21:26:40:0 (H:m:s:ms)","GENERIC","62.075","0.1059810583096345","1041"
"21:46:15:757 (H:m:s:ms)","GENERIC","62.019","0.07503063224853047","245"
"21:13:26:60 (H:m:s:ms)","GENERIC","62.077","0.07939656705423431","942"
"21:26:34:936 (H:m:s:ms)","OPERA","31.009","0.10674671519356646","1071"
"21:46:9:696 (H:m:s:ms)","GENERIC","62.139","0.07438815109557805","348"
"21:13:32:121 (H:m:s:ms)","GENERIC","62.131","0.07867247285862336","882"
"21:26:33:939 (H:m:s:ms)","GENERIC","62.057","0.1060291411734569","1064"
"21:46:3:636 (H:m:s:ms)","GENERIC","62.133","0.07362022077093842","367"
"21:13:38:181 (H:m:s:ms)","GENERIC","62.095","0.07970332428554457","821"
"21:26:27:878 (H:m:s:ms)","GENERIC","62.119","0.10546517221650306","1128"
"21:45:57:575 (H:m:s:ms)","GENERIC","62.099","0.07356854315317667","427"
"21:13:44:242 (H:m:s:ms)","GENERIC","62.055","0.07828645635030336","762"
"21:13:50:303 (H:m:s:ms)","GENERIC","62.067","0.07828645635030336","700"
"21:13:56:363 (H:m:s:ms)","GENERIC","62.049","0.07800771117234176","640"
"21:14:2:424 (H:m:s:ms)","GENERIC","62.063","0.07765859765013308","578"
"21:14:8:484 (H:m:s:ms)","GENERIC","62.041","0.07818157171954437","519"
"21:14:14:545 (H:m:s:ms)","GENERIC","62.061","0.07818619197882007","459"
"21:14:20:606 (H:m:s:ms)","GENERIC","62.137","0.07889288677228144","397"
"21:27:43:291 (H:m:s:ms)","OPERA","62.015","0.10196799130001838","711"
"21:48:4:848 (H:m:s:ms)","GENERIC","62.119","0.07479876981489635","155"
"21:27:40:606 (H:m:s:ms)","GENERIC","62.039","0.10196929409942135","397"
"21:47:58:787 (H:m:s:ms)","GENERIC","62.131","0.07422798160205207","216"
"21:27:35:696 (H:m:s:ms)","OPERA","31.009","0.1020897810957186","307"
"21:47:52:727 (H:m:s:ms)","GENERIC","62.111","0.07358764952231876","276"
"21:27:34:545 (H:m:s:ms)","GENERIC","62.065","0.10181948838405643","457"
"21:47:46:666 (H:m:s:ms)","GENERIC","62.107","0.07429790174032781","337"
"21:47:40:606 (H:m:s:ms)","GENERIC","62.063","0.07430834631493735","397"
"21:47:34:545 (H:m:s:ms)","GENERIC","62.031","0.07449536855009731","460"
"21:27:28:484 (H:m:s:ms)","GENERIC","62.099","0.10330677065166026","521"
"21:27:28:101 (H:m:s:ms)","OPERA","62.015","0.10329203302207668","901"
"21:27:22:424 (H:m:s:ms)","GENERIC","62.055","0.10427146628783306","579"
"21:47:28:484 (H:m:s:ms)","GENERIC","62.099","0.07503415012865154","519"
"21:14:26:666 (H:m:s:ms)","GENERIC","62.079","0.0788726352513929","336"
"21:27:20:506 (H:m:s:ms)","OPERA","62.015","0.10328228128888212","498"
"21:47:22:424 (H:m:s:ms)","GENERIC","62.069","0.07501342684408185","579"
"21:14:32:727 (H:m:s:ms)","GENERIC","62.067","0.07734942784096678","275"
"21:27:16:363 (H:m:s:ms)","GENERIC","62.119","0.10404366456844813","640"
"21:47:16:363 (H:m:s:ms)","GENERIC","62.087","0.07576493872794139","640"
"20:52:25:454 (H:m:s:ms)","GENERIC","62.123","0.09823294498766147","548"
"21:14:38:787 (H:m:s:ms)","GENERIC","62.057","0.07737423523870636","216"
"21:27:12:911 (H:m:s:ms)","OPERA","31.009","0.10444485219405039","1092"
"21:47:10:303 (H:m:s:ms)","GENERIC","62.055","0.07501342684408184","700"
"20:52:31:515 (H:m:s:ms)","GENERIC","62.097","0.09775735997424109","487"
"21:14:44:848 (H:m:s:ms)","GENERIC","62.047","0.0773160277485153","154"
"21:27:10:303 (H:m:s:ms)","GENERIC","62.079","0.1036924540831974","699"
"21:47:4:242 (H:m:s:ms)","GENERIC","62.081","0.07493969732962345","761"
"20:52:37:575 (H:m:s:ms)","GENERIC","62.089","0.09772981054223298","427"
"21:14:50:909 (H:m:s:ms)","GENERIC","62.149","0.0773160277485153","1093"
"20:52:43:636 (H:m:s:ms)","GENERIC","62.073","0.09771979507583574","366"
"21:14:56:969 (H:m:s:ms)","GENERIC","62.069","0.07708147533854873","1033"
"20:52:49:696 (H:m:s:ms)","GENERIC","62.083","0.09867616207204746","350"
"21:15:3:30 (H:m:s:ms)","GENERIC","62.093","0.07569225368383158","972"
"20:52:55:757 (H:m:s:ms)","GENERIC","62.059","0.09661141238064726","246"
"21:15:9:90 (H:m:s:ms)","GENERIC","62.125","0.07520808407761162","951"
"20:53:1:818 (H:m:s:ms)","GENERIC","62.081","0.09533509770580316","185"
"21:15:15:151 (H:m:s:ms)","GENERIC","62.061","0.07563705751553383","852"
"20:53:7:878 (H:m:s:ms)","GENERIC","62.119","0.09527081272003757","1125"
"21:15:21:212 (H:m:s:ms)","GENERIC","62.083","0.07560624545453594","791"
"20:53:13:939 (H:m:s:ms)","GENERIC","62.091","0.09403214040226762","1064"
"20:53:20:0 (H:m:s:ms)","GENERIC","62.111","0.0940431553797256","1047"
"21:28:21:265 (H:m:s:ms)","OPERA","31.01","0.10166028664112951","738"
"21:49:11:515 (H:m:s:ms)","GENERIC","62.043","0.07708597074849298","488"
"21:28:16:969 (H:m:s:ms)","GENERIC","62.073","0.10260019380318809","1034"
"21:49:5:454 (H:m:s:ms)","GENERIC","62.127","0.07594804082417353","548"
"21:28:13:670 (H:m:s:ms)","OPERA","31.009","0.10182041558895694","332"
"21:48:59:393 (H:m:s:ms)","GENERIC","62.085","0.07519736607261931","652"
"21:28:10:909 (H:m:s:ms)","GENERIC","62.083","0.10134140396281675","1094"
"21:48:53:333 (H:m:s:ms)","GENERIC","62.039","0.07525282529782473","669"
"21:28:6:75 (H:m:s:ms)","OPERA","62.013","0.10186254516755677","927"
"21:48:47:272 (H:m:s:ms)","GENERIC","62.073","0.0745405326150081","731"
"21:48:41:212 (H:m:s:ms)","GENERIC","62.071","0.07487150144573909","792"
"21:48:35:151 (H:m:s:ms)","GENERIC","62.057","0.07487150144573909","853"
"21:28:4:848 (H:m:s:ms)","GENERIC","62.109","0.10185332061023229","155"
"21:15:27:272 (H:m:s:ms)","GENERIC","62.027","0.07552899792391621","730"
"21:27:58:787 (H:m:s:ms)","GENERIC","62.155","0.10259596666710766","219"
"21:15:33:333 (H:m:s:ms)","GENERIC","62.081","0.07512141462604194","670"
"21:27:58:481 (H:m:s:ms)","OPERA","62.015","0.10259551184393012","521"
"21:48:29:90 (H:m:s:ms)","GENERIC","62.019","0.07444880340388996","954"
"20:53:26:60 (H:m:s:ms)","GENERIC","62.115","0.09453019776726626","942"
"21:15:39:393 (H:m:s:ms)","GENERIC","62.051","0.07431985640709812","647"
"21:27:52:727 (H:m:s:ms)","GENERIC","62.093","0.1028879670150114","275"
"21:48:23:30 (H:m:s:ms)","GENERIC","62.101","0.07487973532733419","973"
"20:53:32:121 (H:m:s:ms)","GENERIC","62.135","0.09335483346367054","882"
"21:15:45:454 (H:m:s:ms)","GENERIC","62.047","0.07672155242303137","548"
"21:27:50:886 (H:m:s:ms)","OPERA","31.009","0.10289132922581296","116"
"21:48:16:969 (H:m:s:ms)","GENERIC","62.075","0.07411673064227152","1033"
"20:53:38:181 (H:m:s:ms)","GENERIC","62.059","0.0929338726922995","822"
"21:15:51:515 (H:m:s:ms)","GENERIC","62.105","0.0756446444731262","488"
"21:27:46:666 (H:m:s:ms)","GENERIC","62.117","0.10195020466371153","337"
"21:48:10:909 (H:m:s:ms)","GENERIC","62.111","0.07530274880271783","1094"
"20:53:44:242 (H:m:s:ms)","GENERIC","62.037","0.09235092509632951","761"
"21:15:57:575 (H:m:s:ms)","GENERIC","62.091","0.07692157974346076","428"
"20:53:50:303 (H:m:s:ms)","GENERIC","62.051","0.09287723961213337","700"
"21:16:3:636 (H:m:s:ms)","GENERIC","62.185","0.07803409056703077","366"
"20:53:56:363 (H:m:s:ms)","GENERIC","62.053","0.09210116269466065","641"
"21:16:9:696 (H:m:s:ms)","GENERIC","62.117","0.07756923308921303","343"
"20:54:2:424 (H:m:s:ms)","GENERIC","62.087","0.09144011113680342","579"
"21:16:15:757 (H:m:s:ms)","GENERIC","62.037","0.07829653520224564","245"
"20:54:8:484 (H:m:s:ms)","GENERIC","62.033","0.09095727017809602","518"
"21:16:21:818 (H:m:s:ms)","GENERIC","62.043","0.07831503221963139","184"
"20:54:14:545 (H:m:s:ms)","GENERIC","62.093","0.09002831621189755","457"
"20:54:20:606 (H:m:s:ms)","GENERIC","62.175","0.08946543828358566","397"
"21:28:59:240 (H:m:s:ms)","OPERA","62.013","0.1038337681162075","802"
"22:6:50:526 (H:m:s:ms)","AMBULANCE","62.067","0.01757917008408579","477"
"21:28:53:333 (H:m:s:ms)","GENERIC","62.071","0.10297536969803053","669"
"22:5:47:368 (H:m:s:ms)","AMBULANCE","62.087","0.007875331167518339","634"
"21:28:51:645 (H:m:s:ms)","OPERA","31.009","0.10293850618810406","357"
"22:3:41:52 (H:m:s:ms)","AMBULANCE","62.109","0.005951190357119042","951"
"21:28:47:272 (H:m:s:ms)","GENERIC","62.065","0.10334751145688957","730"
"21:50:0:0 (H:m:s:ms)","GENERIC","62.101","0.08092538009258683","1046"
"21:28:44:50 (H:m:s:ms)","OPERA","31.008","0.10283662364441662","953"
"21:49:53:939 (H:m:s:ms)","GENERIC","62.099","0.08198676002285743","1064"
"21:28:41:212 (H:m:s:ms)","GENERIC","62.033","0.1024198445083572","790"
"21:49:47:878 (H:m:s:ms)","GENERIC","62.039","0.08157617269949358","1124"
"21:49:41:818 (H:m:s:ms)","GENERIC","62.063","0.0808249824827042","184"
"21:49:35:757 (H:m:s:ms)","GENERIC","62.023","0.07975384556369129","245"
"21:16:27:878 (H:m:s:ms)","GENERIC","62.105","0.07680801932624286","1124"
"21:16:33:939 (H:m:s:ms)","GENERIC","62.041","0.07676818038082991","1064"
"21:28:36:455 (H:m:s:ms)","OPERA","31.009","0.10442153259228319","548"
"20:54:26:666 (H:m:s:ms)","GENERIC","62.037","0.08911587054804325","336"
"21:16:40:0 (H:m:s:ms)","GENERIC","62.071","0.07561012488493413","1040"
"21:28:35:151 (H:m:s:ms)","GENERIC","62.041","0.10418314709899912","851"
"20:54:32:727 (H:m:s:ms)","GENERIC","62.081","0.0893883386215793","276"
"21:16:46:60 (H:m:s:ms)","GENERIC","62.127","0.07517914974044457","943"
"21:28:29:90 (H:m:s:ms)","GENERIC","62.033","0.10447892528153065","949"
"21:49:29:696 (H:m:s:ms)","GENERIC","62.063","0.07857286461536409","348"
"20:54:38:787 (H:m:s:ms)","GENERIC","62.049","0.08743738215952158","216"
"21:16:52:121 (H:m:s:ms)","GENERIC","62.053","0.07399744931018985","882"
"21:28:28:860 (H:m:s:ms)","OPERA","62.015","0.10340819768994298","143"
"21:49:23:636 (H:m:s:ms)","GENERIC","62.125","0.07928593980869508","367"
"20:54:44:848 (H:m:s:ms)","GENERIC","62.063","0.08680692953804872","156"
"21:16:58:181 (H:m:s:ms)","GENERIC","62.039","0.07356701297937764","822"
"21:28:23:30 (H:m:s:ms)","GENERIC","62.067","0.10321253997546388","973"
"21:49:17:575 (H:m:s:ms)","GENERIC","62.131","0.07751579283956764","428"
"20:54:50:909 (H:m:s:ms)","GENERIC","62.123","0.08644660104995253","1094"
"21:17:4:242 (H:m:s:ms)","GENERIC","62.125","0.07314271482874463","761"
"20:54:56:969 (H:m:s:ms)","GENERIC","62.035","0.08711983787023449","1033"
"21:17:10:303 (H:m:s:ms)","GENERIC","62.089","0.07273803110005769","700"
"20:55:3:30 (H:m:s:ms)","GENERIC","62.073","0.08530489262605151","973"
"21:17:16:363 (H:m:s:ms)","GENERIC","62.127","0.0715066105482576","639"
"20:55:9:90 (H:m:s:ms)","GENERIC","62.135","0.0846500361475526","957"
"21:17:22:424 (H:m:s:ms)","GENERIC","62.045","0.07157991540750794","579"
"20:55:15:151 (H:m:s:ms)","GENERIC","62.081","0.08367231850049557","852"
"20:55:21:212 (H:m:s:ms)","GENERIC","62.105","0.08234930901430774","791"
"21:29:35:757 (H:m:s:ms)","GENERIC","62.045","0.10156684712546911","246"
"21:29:29:696 (H:m:s:ms)","GENERIC","62.033","0.10302750353821498","346"
"21:29:29:620 (H:m:s:ms)","OPERA","62.017","0.1030476118877221","419"
"21:29:23:636 (H:m:s:ms)","GENERIC","62.091","0.10325429285165566","366"
"21:29:22:25 (H:m:s:ms)","OPERA","31.009","0.10293512248042723","978"
"21:29:17:575 (H:m:s:ms)","GENERIC","62.143","0.10376814059501976","428"
"21:29:14:430 (H:m:s:ms)","OPERA","31.009","0.10409511435297653","573"
"21:17:28:484 (H:m:s:ms)","GENERIC","62.083","0.07160019091007311","519"
"21:17:34:545 (H:m:s:ms)","GENERIC","62.079","0.07229144313799533","458"
"20:55:27:272 (H:m:s:ms)","GENERIC","62.061","0.08230423010852667","731"
"21:17:40:606 (H:m:s:ms)","GENERIC","62.031","0.07351039453934274","396"
"20:55:33:333 (H:m:s:ms)","GENERIC","62.045","0.0835001033943385","670"
"21:17:46:666 (H:m:s:ms)","GENERIC","62.133","0.0738655820371248","336"
"21:29:11:515 (H:m:s:ms)","GENERIC","62.037","0.10258307544758193","487"
"20:55:39:393 (H:m:s:ms)","GENERIC","62.087","0.08448810731394688","655"
"21:17:52:727 (H:m:s:ms)","GENERIC","62.077","0.07394512343353728","275"
"21:29:6:835 (H:m:s:ms)","OPERA","31.009","0.10281683753170898","167"
"20:55:45:454 (H:m:s:ms)","GENERIC","62.047","0.08513624991059981","549"
"21:17:58:787 (H:m:s:ms)","GENERIC","62.175","0.07348294193006893","215"
"21:29:5:454 (H:m:s:ms)","GENERIC","62.143","0.10282236720321111","549"
"20:55:51:515 (H:m:s:ms)","GENERIC","62.095","0.084086444777513","488"
"21:18:4:848 (H:m:s:ms)","GENERIC","62.121","0.07348294193006893","155"
"21:28:59:393 (H:m:s:ms)","GENERIC","62.071","0.10293692653708128","646"
"20:55:57:575 (H:m:s:ms)","GENERIC","62.079","0.08319279588179834","428"
"21:18:10:909 (H:m:s:ms)","GENERIC","62.071","0.07348294193006893","1094"
"20:56:3:636 (H:m:s:ms)","GENERIC","62.153","0.08251813025906045","367"
"21:18:16:969 (H:m:s:ms)","GENERIC","62.077","0.07470761870392166","1034"
"20:56:9:696 (H:m:s:ms)","GENERIC","62.095","0.08251813025906045","350"
"21:18:23:30 (H:m:s:ms)","GENERIC","62.045","0.07461971802923777","973"
"20:56:15:757 (H:m:s:ms)","GENERIC","62.045","0.08266299355581315","245"
"20:56:21:818 (H:m:s:ms)","GENERIC","62.025","0.08201755632328044","184"
"21:30:6:60 (H:m:s:ms)","GENERIC","62.065","0.10489465248858369","942"
"21:30:0:0 (H:m:s:ms)","GENERIC","62.137","0.10424629407178827","1053"
"21:30:0:0 (H:m:s:ms)","AMBULANCE","62.035","0.10329004906433102","1049"
"21:30:0:0 (H:m:s:ms)","GENERIC","62.099","0.10183093985745593","1046"
"21:30:0:0 (H:m:s:ms)","OPERA","31.01","0.10147239207926922","1042"
"21:29:53:939 (H:m:s:ms)","GENERIC","62.093","0.10203529961843547","1064"
"21:29:52:405 (H:m:s:ms)","OPERA","31.009","0.1020419469700364","597"
"21:29:47:878 (H:m:s:ms)","GENERIC","62.069","0.10164273737950291","1124"
"21:18:29:90 (H:m:s:ms)","GENERIC","62.029","0.07538225313266145","950"
"21:18:35:151 (H:m:s:ms)","GENERIC","62.053","0.075397652849325","851"
"20:56:27:878 (H:m:s:ms)","GENERIC","62.089","0.08096834576265156","1125"
"21:18:41:212 (H:m:s:ms)","GENERIC","62.025","0.075397652849325","790"
"20:56:33:939 (H:m:s:ms)","GENERIC","62.021","0.08078593074631125","1064"
"21:18:47:272 (H:m:s:ms)","GENERIC","62.053","0.07688594898492117","731"
"20:40:0:0 (H:m:s:ms)","OPERA","31.009","0.08506047400536927","2257"
"20:56:40:0 (H:m:s:ms)","GENERIC","62.031","0.08111653410332971","1049"
"21:18:53:333 (H:m:s:ms)","GENERIC","62.049","0.07638244880369995","670"
"20:40:0:0 (H:m:s:ms)","GENERIC","62.073","0.08735814018992322","2260"
"20:56:46:60 (H:m:s:ms)","GENERIC","62.131","0.08074016300288102","942"
"21:18:59:393 (H:m:s:ms)","GENERIC","62.055","0.07513695614199922","645"
"21:29:44:810 (H:m:s:ms)","OPERA","62.015","0.1013906101948648","193"
"20:40:0:0 (H:m:s:ms)","GENERIC","62.107","0.08939123183867298","2264"
"20:56:52:121 (H:m:s:ms)","GENERIC","62.043","0.07961107638095792","881"
"21:19:5:454 (H:m:s:ms)","GENERIC","62.135","0.07592954136668273","549"
"21:29:41:818 (H:m:s:ms)","GENERIC","62.071","0.10140328605814056","184"
"20:40:6:60 (H:m:s:ms)","GENERIC","62.075","0.08827398220577196","943"
"20:56:58:181 (H:m:s:ms)","GENERIC","62.057","0.07891799944092912","822"
"21:19:11:515 (H:m:s:ms)","GENERIC","62.055","0.07583643889708516","488"
"21:29:37:215 (H:m:s:ms)","OPERA","62.015","0.10189217974008946","788"
"20:40:7:594 (H:m:s:ms)","OPERA","31.009","0.08965246673318093","408"
"20:57:4:242 (H:m:s:ms)","GENERIC","62.125","0.0785359298065092","761"
"21:19:17:575 (H:m:s:ms)","GENERIC","62.161","0.07624117892437839","427"
"20:40:12:121 (H:m:s:ms)","GENERIC","62.043","0.08839621050928982","881"
"20:57:10:303 (H:m:s:ms)","GENERIC","62.101","0.07885889830782782","700"
"21:19:23:636 (H:m:s:ms)","GENERIC","62.077","0.07507698840883037","366"
"20:40:15:189 (H:m:s:ms)","OPERA","31.009","0.08845480374569857","815"
"20:57:16:363 (H:m:s:ms)","GENERIC","62.161","0.08086490980291011","640"
"20:40:18:181 (H:m:s:ms)","GENERIC","62.095","0.0878305211547647","823"
"20:57:22:424 (H:m:s:ms)","GENERIC","62.049","0.07961187730327922","580"
"20:40:22:784 (H:m:s:ms)","OPERA","31.009","0.08746429741320046","218"
"20:40:24:242 (H:m:s:ms)","GENERIC","62.081","0.08780685896047127","762"
"21:30:24:242 (H:m:s:ms)","GENERIC","62.103","0.10429375774282475","761"
"21:31:3:157 (H:m:s:ms)","AMBULANCE","62.071","0.10307622284849415","846"
"21:31:0:606 (H:m:s:ms)","GENERIC","62.025","0.10221639674961999","397"
"21:30:54:545 (H:m:s:ms)","GENERIC","62.125","0.10200021710709431","458"
"21:30:48:484 (H:m:s:ms)","GENERIC","62.159","0.1023747153886019","519"
"21:30:42:424 (H:m:s:ms)","GENERIC","62.061","0.10212645302213375","579"
"21:30:36:363 (H:m:s:ms)","GENERIC","62.133","0.10312573132659388","640"
"21:30:31:578 (H:m:s:ms)","AMBULANCE","62.085","0.10408742027382589","425"
"21:19:29:696 (H:m:s:ms)","GENERIC","62.031","0.07589789906218243","343"
"21:30:30:303 (H:m:s:ms)","GENERIC","62.083","0.10387388649231455","699"
"21:19:35:757 (H:m:s:ms)","GENERIC","62.039","0.07622129275409056","246"
"20:57:28:484 (H:m:s:ms)","GENERIC","62.107","0.07850117568442962","519"
"21:19:41:818 (H:m:s:ms)","GENERIC","62.055","0.0773361554155423","185"
"20:57:34:545 (H:m:s:ms)","GENERIC","62.073","0.0785437765873298","458"
"21:19:47:878 (H:m:s:ms)","GENERIC","62.085","0.07842433094914933","1125"
"20:40:30:303 (H:m:s:ms)","GENERIC","62.059","0.0869639467183948","700"
"20:57:40:606 (H:m:s:ms)","GENERIC","62.019","0.07782502062233575","396"
"21:19:53:939 (H:m:s:ms)","GENERIC","62.081","0.0795070627685859","1065"
"20:40:30:379 (H:m:s:ms)","OPERA","31.008","0.08702458233505339","628"
"20:57:46:666 (H:m:s:ms)","GENERIC","62.129","0.07671140100465751","336"
"21:20:0:0 (H:m:s:ms)","OPERA","31.009","0.08010400706156023","2256"
"20:40:36:363 (H:m:s:ms)","GENERIC","62.107","0.0870301889953047","639"
"20:57:52:727 (H:m:s:ms)","GENERIC","62.055","0.07573940957618785","276"
"21:20:0:0 (H:m:s:ms)","GENERIC","62.098","0.07879346216553829","2249"
"20:40:37:974 (H:m:s:ms)","OPERA","31.009","0.08755156118405918","1029"
"20:57:58:787 (H:m:s:ms)","GENERIC","62.189","0.07586179707599426","216"
"21:20:0:0 (H:m:s:ms)","GENERIC","62.121","0.0794026221033843","2252"
"21:30:18:181 (H:m:s:ms)","GENERIC","62.131","0.10457730070508052","821"
"20:40:42:424 (H:m:s:ms)","GENERIC","62.051","0.0879460427223589","579"
"20:58:4:848 (H:m:s:ms)","GENERIC","62.123","0.076997123374503","155"
"21:20:6:60 (H:m:s:ms)","GENERIC","62.077","0.08010400706156023","943"
"21:30:12:121 (H:m:s:ms)","GENERIC","62.027","0.10418353009416666","881"
"20:40:45:569 (H:m:s:ms)","OPERA","31.009","0.0880206117824351","434"
"20:58:10:909 (H:m:s:ms)","GENERIC","62.095","0.07702773193973146","1094"
"21:20:7:594 (H:m:s:ms)","OPERA","31.009","0.08132831000888535","408"
"20:40:48:484 (H:m:s:ms)","GENERIC","62.059","0.08838272344732957","518"
"20:58:16:969 (H:m:s:ms)","GENERIC","62.091","0.07741869163055166","1033"
"20:40:53:164 (H:m:s:ms)","OPERA","31.008","0.08777226422290706","839"
"20:58:23:30 (H:m:s:ms)","GENERIC","62.017","0.07811892332746954","973"
"20:40:54:545 (H:m:s:ms)","GENERIC","62.121","0.08794009981384568","458"
"20:41:0:606 (H:m:s:ms)","GENERIC","62.049","0.08855560172063472","397"
"21:31:18:787 (H:m:s:ms)","GENERIC","62.013","0.10105517089480268","216"
"21:31:12:727 (H:m:s:ms)","GENERIC","62.075","0.10205647752357386","276"
"21:32:1:212 (H:m:s:ms)","GENERIC","62.053","0.1000822741834042","791"
"21:31:55:151 (H:m:s:ms)","GENERIC","62.079","0.10012246183767104","851"
"21:31:49:90 (H:m:s:ms)","GENERIC","62.065","0.10021248361868425","954"
"21:31:43:30 (H:m:s:ms)","GENERIC","62.105","0.1005638995077424","973"
"21:31:36:969 (H:m:s:ms)","GENERIC","62.039","0.10006630967837314","1034"
"21:31:34:736 (H:m:s:ms)","AMBULANCE","62.039","0.10055151690509674","267"
"21:31:30:909 (H:m:s:ms)","GENERIC","62.039","0.0996873199594438","1094"
"21:31:24:848 (H:m:s:ms)","GENERIC","62.037","0.10096899025908114","155"
"20:58:29:90 (H:m:s:ms)","GENERIC","62.039","0.0769833324247113","959"
"20:58:35:151 (H:m:s:ms)","GENERIC","62.071","0.07909961115085727","851"
"20:41:0:759 (H:m:s:ms)","OPERA","31.01","0.0903781619179359","247"
"20:58:41:212 (H:m:s:ms)","GENERIC","62.047","0.0797251940705756","791"
"20:41:6:666 (H:m:s:ms)","GENERIC","62.141","0.09105631378763214","337"
"20:58:47:272 (H:m:s:ms)","GENERIC","62.069","0.08042697044725937","730"
"20:41:8:354 (H:m:s:ms)","OPERA","31.009","0.09289821970685432","648"
"20:58:53:333 (H:m:s:ms)","GENERIC","62.037","0.0804637071270715","669"
"20:41:12:727 (H:m:s:ms)","GENERIC","62.111","0.09289821970685432","276"
"20:58:59:393 (H:m:s:ms)","GENERIC","62.071","0.08141429154739767","653"
"20:41:18:787 (H:m:s:ms)","GENERIC","62.049","0.09347362800028296","216"
"20:59:5:454 (H:m:s:ms)","GENERIC","62.101","0.08105736279692591","548"
"20:41:23:544 (H:m:s:ms)","OPERA","31.01","0.09353107825016317","459"
"20:59:11:515 (H:m:s:ms)","GENERIC","62.095","0.08175552235532914","487"
"21:31:6:666 (H:m:s:ms)","GENERIC","62.111","0.10221641135664936","337"
"20:41:24:848 (H:m:s:ms)","GENERIC","62.071","0.0935746922803308","155"
"20:59:17:575 (H:m:s:ms)","GENERIC","62.183","0.08177695788810771","428"
"20:41:30:909 (H:m:s:ms)","GENERIC","62.021","0.0932767157981479","1093"
"20:59:23:636 (H:m:s:ms)","GENERIC","62.073","0.08269471346719215","367"
"20:41:31:139 (H:m:s:ms)","OPERA","31.009","0.09358605556803537","888"
"20:41:36:969 (H:m:s:ms)","GENERIC","62.029","0.09359606863971778","1033"
"20:59:29:696 (H:m:s:ms)","GENERIC","62.071","0.08334359329303499","350"
"20:59:35:757 (H:m:s:ms)","GENERIC","62.031","0.08326273384179737","245"
"20:41:38:734 (H:m:s:ms)","OPERA","31.009","0.09368211467408182","269"
"20:59:41:818 (H:m:s:ms)","GENERIC","62.053","0.08326273384179737","185"
"20:41:43:30 (H:m:s:ms)","GENERIC","62.023","0.09427999031466693","973"
"20:59:47:878 (H:m:s:ms)","GENERIC","62.073","0.08290429247320408","1125"
"20:41:46:329 (H:m:s:ms)","OPERA","31.009","0.09431353659334914","673"
"20:59:53:939 (H:m:s:ms)","GENERIC","62.053","0.08288515086966208","1064"
"20:41:49:90 (H:m:s:ms)","GENERIC","62.107","0.09431353659334914","949"
"21:0:0:0 (H:m:s:ms)","AMBULANCE","31.032","0.08172795509643635","2261"
"20:41:53:924 (H:m:s:ms)","OPERA","31.009","0.09494712917164864","1080"
"21:0:0:0 (H:m:s:ms)","GENERIC","62.083","0.08287914757047962","2265"
"20:41:55:151 (H:m:s:ms)","GENERIC","62.081","0.09498101529020281","852"
"21:0:0:0 (H:m:s:ms)","GENERIC","62.109","0.08407809324076912","2268"
"20:42:1:212 (H:m:s:ms)","GENERIC","62.049","0.09498101529020281","791"
"21:0:6:60 (H:m:s:ms)","GENERIC","62.079","0.08469963678290732","943"
"20:42:1:518 (H:m:s:ms)","OPERA","31.009","0.0961342609193834","488"
"21:0:12:121 (H:m:s:ms)","GENERIC","62.053","0.08532574996411978","882"
"20:42:7:272 (H:m:s:ms)","GENERIC","62.099","0.0953947984155242","730"
"20:42:9:113 (H:m:s:ms)","OPERA","31.01","0.09663737419564533","928"
"21:0:18:181 (H:m:s:ms)","GENERIC","62.133","0.08504380038595667","822"
"21:0:24:242 (H:m:s:ms)","GENERIC","62.071","0.08403860187369795","761"
"20:42:13:333 (H:m:s:ms)","GENERIC","62.085","0.09608693757762146","670"
"21:0:30:303 (H:m:s:ms)","GENERIC","62.079","0.08408316833739579","717"
"20:42:16:708 (H:m:s:ms)","OPERA","31.009","0.09710390874347054","295"
"21:0:31:578 (H:m:s:ms)","AMBULANCE","31.067","0.08462899815895769","425"
"20:20:0:0 (H:m:s:ms)","GENERIC","62.085","0.07556697977493779","2281"
"20:42:19:393 (H:m:s:ms)","GENERIC","62.087","0.09636635002169229","648"
"21:0:36:363 (H:m:s:ms)","GENERIC","62.105","0.08353061944962087","640"
"20:20:0:0 (H:m:s:ms)","GENERIC","62.127","0.07628740833971648","2285"
"20:42:24:303 (H:m:s:ms)","OPERA","31.009","0.09591024821524388","700"
"21:0:42:424 (H:m:s:ms)","GENERIC","62.021","0.08250547958214244","579"
"20:20:6:60 (H:m:s:ms)","GENERIC","62.065","0.07558953892931344","943"
"20:42:25:454 (H:m:s:ms)","GENERIC","62.145","0.0970309564672979","548"
"21:0:48:484 (H:m:s:ms)","GENERIC","62.099","0.0814631644948817","519"
"20:20:12:121 (H:m:s:ms)","GENERIC","62.041","0.0755470511982042","882"
"20:42:31:515 (H:m:s:ms)","GENERIC","62.077","0.0967640636052132","489"
"21:0:54:545 (H:m:s:ms)","GENERIC","62.121","0.08215046762692171","458"
"20:20:18:181 (H:m:s:ms)","GENERIC","62.077","0.0755470511982042","822"
"20:42:31:898 (H:m:s:ms)","OPERA","31.009","0.09763080068855574","109"
"21:1:0:606 (H:m:s:ms)","GENERIC","62.063","0.08363068888527521","396"
"20:20:24:242 (H:m:s:ms)","GENERIC","62.077","0.07553214618533058","761"
"20:42:37:575 (H:m:s:ms)","GENERIC","62.067","0.09762301839639172","428"
"21:1:3:157 (H:m:s:ms)","AMBULANCE","31.06","0.08370207116085195","846"
"20:20:30:303 (H:m:s:ms)","GENERIC","62.041","0.07735671110618392","699"
"20:42:39:493 (H:m:s:ms)","OPERA","31.01","0.09763709535419372","546"
"20:20:36:363 (H:m:s:ms)","GENERIC","62.091","0.07777912416918271","639"
"20:42:43:636 (H:m:s:ms)","GENERIC","62.087","0.09692482799495544","367"
"20:20:42:424 (H:m:s:ms)","GENERIC","62.091","0.07765606798369926","579"
"20:20:48:484 (H:m:s:ms)","GENERIC","62.073","0.07807028097535165","519"
"21:1:6:666 (H:m:s:ms)","GENERIC","62.149","0.08417927715304886","338"
"21:1:12:727 (H:m:s:ms)","GENERIC","62.071","0.08485353435041902","276"
"20:42:47:88 (H:m:s:ms)","OPERA","31.008","0.0970648242775137","915"
"21:1:18:787 (H:m:s:ms)","GENERIC","62.041","0.08441448453664192","215"
"20:42:49:696 (H:m:s:ms)","GENERIC","62.083","0.098196483350195","345"
"21:1:24:848 (H:m:s:ms)","GENERIC","62.031","0.08457590460173631","155"
"20:20:54:545 (H:m:s:ms)","GENERIC","62.105","0.07768260066168634","459"
"20:42:54:683 (H:m:s:ms)","OPERA","31.009","0.098196483350195","321"
"21:1:30:909 (H:m:s:ms)","GENERIC","62.045","0.08539894790823867","1094"
"20:21:0:606 (H:m:s:ms)","GENERIC","62.035","0.07881985726048585","398"
"20:42:55:757 (H:m:s:ms)","GENERIC","62.059","0.0982505328730806","245"
"21:1:34:736 (H:m:s:ms)","AMBULANCE","31.028","0.08678055975108803","267"
"20:21:6:666 (H:m:s:ms)","GENERIC","62.129","0.07813360928741778","337"
"20:43:1:818 (H:m:s:ms)","GENERIC","62.093","0.0982505328730806","184"
"21:1:36:969 (H:m:s:ms)","GENERIC","62.051","0.08747248170857658","1033"
"20:21:12:727 (H:m:s:ms)","GENERIC","62.085","0.07813360928741778","276"
"20:43:7:878 (H:m:s:ms)","GENERIC","62.131","0.09770103717396425","1124"
"21:1:43:30 (H:m:s:ms)","GENERIC","62.055","0.08723971221489137","972"
"20:21:18:787 (H:m:s:ms)","GENERIC","62.079","0.07851795358092255","216"
"20:43:9:873 (H:m:s:ms)","OPERA","31.009","0.09877494026720228","168"
"21:1:49:90 (H:m:s:ms)","GENERIC","62.079","0.08728105101985574","956"
"20:21:24:848 (H:m:s:ms)","GENERIC","62.091","0.07817243368070537","156"
"20:43:13:939 (H:m:s:ms)","GENERIC","62.091","0.09850720560143611","1064"
"21:1:55:151 (H:m:s:ms)","GENERIC","62.085","0.08825040519618646","852"
"20:21:30:909 (H:m:s:ms)","GENERIC","62.021","0.07917813068307453","1094"
"20:43:20:0 (H:m:s:ms)","GENERIC","62.107","0.09851979896102167","1041"
"20:21:36:969 (H:m:s:ms)","GENERIC","62.043","0.07990148512374365","1033"
"20:43:25:63 (H:m:s:ms)","OPERA","31.01","0.09816236653777853","939"
"20:21:43:30 (H:m:s:ms)","GENERIC","62.065","0.08023381438585472","973"
"20:21:49:90 (H:m:s:ms)","GENERIC","62.139","0.08022276373615149","951"
"20:43:26:60 (H:m:s:ms)","GENERIC","62.115","0.09844789169440644","942"
"20:43:32:121 (H:m:s:ms)","GENERIC","62.127","0.09819865134021244","881"
"20:21:55:151 (H:m:s:ms)","GENERIC","62.087","0.08066839833102166","851"
"20:43:38:181 (H:m:s:ms)","GENERIC","62.049","0.09896804130688013","822"
"20:22:1:212 (H:m:s:ms)","GENERIC","62.047","0.07999245357669377","791"
"20:43:40:253 (H:m:s:ms)","OPERA","31.008","0.09976849178792523","750"
"20:22:7:272 (H:m:s:ms)","GENERIC","62.099","0.07929075442244186","731"
"20:43:44:242 (H:m:s:ms)","GENERIC","62.035","0.09993960174455634","761"
"20:22:13:333 (H:m:s:ms)","GENERIC","62.097","0.08003290745498891","670"
"20:43:47:848 (H:m:s:ms)","OPERA","31.009","0.10150859876586663","155"
"20:22:19:393 (H:m:s:ms)","GENERIC","62.057","0.0793315661219372","648"
"20:43:50:303 (H:m:s:ms)","GENERIC","62.049","0.10126481369722742","700"
"20:22:25:454 (H:m:s:ms)","GENERIC","62.137","0.07934601895439992","548"
"20:43:55:443 (H:m:s:ms)","OPERA","31.008","0.10151327498378067","559"
"20:22:31:515 (H:m:s:ms)","GENERIC","62.055","0.0792918567708709","488"
"20:43:56:363 (H:m:s:ms)","GENERIC","62.067","0.10152604447553189","640"
"20:22:37:575 (H:m:s:ms)","GENERIC","62.067","0.0789485796758757","428"
"20:44:2:424 (H:m:s:ms)","GENERIC","62.073","0.10101998360241997","578"
"20:22:43:636 (H:m:s:ms)","GENERIC","62.067","0.07823529227272065","367"
"20:22:49:696 (H:m:s:ms)","GENERIC","62.049","0.07817594634220579","346"
"20:44:3:37 (H:m:s:ms)","OPERA","31.008","0.10102707986940077","966"
"20:44:8:484 (H:m:s:ms)","GENERIC","62.019","0.10101422893831553","518"
"20:22:55:757 (H:m:s:ms)","GENERIC","62.043","0.07897919017775902","245"
"20:44:10:632 (H:m:s:ms)","OPERA","31.009","0.10204626078034114","371"
"20:23:1:818 (H:m:s:ms)","GENERIC","62.059","0.07896176081587306","185"
"20:44:14:545 (H:m:s:ms)","GENERIC","62.095","0.1027609636225356","458"
"20:23:7:878 (H:m:s:ms)","GENERIC","62.119","0.07823628765855567","1125"
"20:44:18:227 (H:m:s:ms)","OPERA","31.009","0.10324806310561228","776"
"20:23:13:939 (H:m:s:ms)","GENERIC","62.107","0.0787120897353403","1064"
"20:44:20:606 (H:m:s:ms)","GENERIC","62.189","0.10349767033471333","397"
"20:23:20:0 (H:m:s:ms)","GENERIC","62.093","0.0787120897353403","1043"
"20:44:25:822 (H:m:s:ms)","OPERA","31.009","0.10326593141553721","181"
"20:23:26:60 (H:m:s:ms)","GENERIC","62.109","0.07879684712159876","943"
"20:44:26:666 (H:m:s:ms)","GENERIC","62.043","0.10358909879210439","336"
"20:23:32:121 (H:m:s:ms)","GENERIC","62.101","0.07769711492088541","882"
"20:44:32:727 (H:m:s:ms)","GENERIC","62.065","0.10287316096135606","276"
"20:23:38:181 (H:m:s:ms)","GENERIC","62.055","0.07770634905652465","822"
"20:44:33:417 (H:m:s:ms)","OPERA","31.009","0.10286985365452356","585"
"20:23:44:242 (H:m:s:ms)","GENERIC","62.057","0.07876467241827431","761"
"20:23:50:303 (H:m:s:ms)","GENERIC","62.053","0.07800811804471144","700"
"20:44:38:787 (H:m:s:ms)","GENERIC","62.059","0.10285119110221007","215"
"20:44:41:12 (H:m:s:ms)","OPERA","31.009","0.1031684603335633","991"
"20:23:56:363 (H:m:s:ms)","GENERIC","62.099","0.077245662832322","640"
"20:44:44:848 (H:m:s:ms)","GENERIC","62.077","0.10267696560747164","155"
"20:24:2:424 (H:m:s:ms)","GENERIC","62.035","0.077245662832322","578"
"20:44:48:607 (H:m:s:ms)","OPERA","31.009","0.1041975745405562","395"
"20:24:8:484 (H:m:s:ms)","GENERIC","62.043","0.07727171143635336","519"
"20:44:50:909 (H:m:s:ms)","GENERIC","62.103","0.1048417637580616","1093"
"20:24:14:545 (H:m:s:ms)","GENERIC","62.111","0.07762562602868209","460"
"20:44:56:202 (H:m:s:ms)","OPERA","31.01","0.10447644206311855","800"
"20:24:20:606 (H:m:s:ms)","GENERIC","62.177","0.0780100806470902","397"
"20:44:56:969 (H:m:s:ms)","GENERIC","62.019","0.10589224867525496","1324"
"20:24:26:666 (H:m:s:ms)","GENERIC","62.085","0.07956490572940317","337"
"20:45:3:30 (H:m:s:ms)","GENERIC","62.065","0.1032981962629653","973"
"20:24:32:727 (H:m:s:ms)","GENERIC","62.061","0.0804838843187353","276"
"20:45:3:797 (H:m:s:ms)","OPERA","31.009","0.10350742793924715","209"
"20:24:38:787 (H:m:s:ms)","GENERIC","62.095","0.07978791076042649","216"
"20:45:9:90 (H:m:s:ms)","GENERIC","62.119","0.10385709563334916","953"
"20:24:44:848 (H:m:s:ms)","GENERIC","62.083","0.07950169661098566","155"
"20:24:50:909 (H:m:s:ms)","GENERIC","62.081","0.07950805278445446","1094"
"20:45:11:392 (H:m:s:ms)","OPERA","31.009","0.10461244289982236","611"
"20:45:15:151 (H:m:s:ms)","GENERIC","62.079","0.10492962522345187","851"
"20:24:56:969 (H:m:s:ms)","GENERIC","62.039","0.07950805278445446","1034"
"20:45:18:987 (H:m:s:ms)","OPERA","31.009","0.10468489111735034","1057"
"20:25:3:30 (H:m:s:ms)","GENERIC","62.067","0.07846593718276955","973"
"20:45:21:212 (H:m:s:ms)","GENERIC","62.129","0.1050534538975545","791"
"20:25:9:90 (H:m:s:ms)","GENERIC","62.093","0.07912834574450404","952"
"20:45:26:582 (H:m:s:ms)","OPERA","31.01","0.1055246666051358","421"
"20:25:15:151 (H:m:s:ms)","GENERIC","62.059","0.07912834574450404","852"
"20:45:27:272 (H:m:s:ms)","GENERIC","62.077","0.10582540319521153","730"
"20:25:21:212 (H:m:s:ms)","GENERIC","62.131","0.0798123652637398","791"
"20:45:33:333 (H:m:s:ms)","GENERIC","62.039","0.10573668766989092","670"
"20:25:27:272 (H:m:s:ms)","GENERIC","62.097","0.07943898319344361","730"
"20:45:34:177 (H:m:s:ms)","OPERA","31.009","0.10669719337221706","826"
"20:25:33:333 (H:m:s:ms)","GENERIC","62.015","0.07825108679130696","670"
"20:45:39:393 (H:m:s:ms)","GENERIC","62.093","0.10617071193036576","650"
"20:25:39:393 (H:m:s:ms)","GENERIC","62.089","0.07855489998213344","656"
"20:45:41:772 (H:m:s:ms)","OPERA","31.009","0.10686278877515015","230"
"20:25:45:454 (H:m:s:ms)","GENERIC","62.025","0.07856829111509703","549"
"20:25:51:515 (H:m:s:ms)","GENERIC","62.033","0.08003354442238479","488"
"20:25:57:575 (H:m:s:ms)","GENERIC","62.113","0.07985047687718813","428"
"20:26:3:636 (H:m:s:ms)","GENERIC","62.147","0.07862385303880226","367"
"20:26:9:696 (H:m:s:ms)","GENERIC","62.079","0.07859084277819615","345"
"20:26:15:757 (H:m:s:ms)","GENERIC","62.089","0.07930187356955556","246"
"20:26:21:818 (H:m:s:ms)","GENERIC","62.063","0.07893896989527882","185"
"20:26:27:878 (H:m:s:ms)","GENERIC","62.107","0.07925706042007194","1125"
"20:26:33:939 (H:m:s:ms)","GENERIC","62.047","0.07856359381962146","1064"
"20:26:40:0 (H:m:s:ms)","GENERIC","62.069","0.07854022712096341","1043"
"20:26:46:60 (H:m:s:ms)","GENERIC","62.147","0.07815782246920337","943"
"20:26:52:121 (H:m:s:ms)","GENERIC","62.047","0.07777073853099206","882"
"20:26:58:181 (H:m:s:ms)","GENERIC","62.053","0.07730184175620117","823"
"20:27:4:242 (H:m:s:ms)","GENERIC","62.081","0.07693680704936245","761"
"20:27:10:303 (H:m:s:ms)","GENERIC","62.121","0.07692130849687728","699"
"20:27:16:363 (H:m:s:ms)","GENERIC","62.123","0.0768757070795812","640"
"20:27:22:424 (H:m:s:ms)","GENERIC","62.091","0.07772688041416852","579"
"20:27:28:484 (H:m:s:ms)","GENERIC","62.129","0.07810600771660464","518"
"20:27:34:545 (H:m:s:ms)","GENERIC","62.065","0.07811655700333521","458"
"20:27:40:606 (H:m:s:ms)","GENERIC","62.025","0.07916539449787006","397"
"20:27:46:666 (H:m:s:ms)","GENERIC","62.105","0.07919766836628656","336"
"20:27:52:727 (H:m:s:ms)","GENERIC","62.015","0.07957999005624326","276"
"20:27:58:787 (H:m:s:ms)","GENERIC","62.185","0.07945384573001135","216"
"20:28:4:848 (H:m:s:ms)","GENERIC","62.097","0.0790861239692427","155"
"20:28:10:909 (H:m:s:ms)","GENERIC","62.103","0.07909055838200316","1094"
"20:28:16:969 (H:m:s:ms)","GENERIC","62.107","0.07964202655080148","1034"
"20:28:23:30 (H:m:s:ms)","GENERIC","62.067","0.07961505119303172","973"
"20:28:29:90 (H:m:s:ms)","GENERIC","62.035","0.07961505119303172","950"
"20:28:35:151 (H:m:s:ms)","GENERIC","62.059","0.08000016410335939","852"
"20:28:41:212 (H:m:s:ms)","GENERIC","62.037","0.07928269454435373","792"
"20:28:47:272 (H:m:s:ms)","GENERIC","62.081","0.07928269454435373","731"
"20:28:53:333 (H:m:s:ms)","GENERIC","62.049","0.08002794740468061","670"
"20:28:59:393 (H:m:s:ms)","GENERIC","62.099","0.08073745893683519","646"
"20:29:5:454 (H:m:s:ms)","GENERIC","62.087","0.08008199751603715","551"
"20:29:11:515 (H:m:s:ms)","GENERIC","62.091","0.08075284531153493","490"
"20:29:17:575 (H:m:s:ms)","GENERIC","62.133","0.08145289683250234","428"
"20:29:23:636 (H:m:s:ms)","GENERIC","62.069","0.08212001701191601","367"
"20:29:29:696 (H:m:s:ms)","GENERIC","62.143","0.0809840514654471","343"
"20:29:35:757 (H:m:s:ms)","GENERIC","62.031","0.08006825226204155","246"
"20:29:41:818 (H:m:s:ms)","GENERIC","62.089","0.07991324461224782","185"
"20:29:47:878 (H:m:s:ms)","GENERIC","62.091","0.08032266847211535","1125"
"20:29:53:939 (H:m:s:ms)","GENERIC","62.057","0.08102601762238251","1064"
"21:20:12:121 (H:m:s:ms)","GENERIC","62.031","0.0821837199251885","881"
"21:20:15:189 (H:m:s:ms)","OPERA","62.015","0.08256517095948575","813"
"21:20:18:181 (H:m:s:ms)","GENERIC","62.147","0.08323882323952783","822"
"21:20:22:784 (H:m:s:ms)","OPERA","62.013","0.08218875148350749","219"
"21:20:24:242 (H:m:s:ms)","GENERIC","62.095","0.08263621495948417","761"
"21:20:30:303 (H:m:s:ms)","GENERIC","62.107","0.0829566062876978","701"
"21:20:30:379 (H:m:s:ms)","OPERA","62.015","0.08305239032606615","627"
"21:20:36:363 (H:m:s:ms)","GENERIC","62.117","0.0834303837171942","640"
"21:20:37:974 (H:m:s:ms)","OPERA","31.009","0.08402952363708358","1028"
"21:20:42:424 (H:m:s:ms)","GENERIC","62.049","0.08402952363708358","578"
"21:20:45:569 (H:m:s:ms)","OPERA","31.009","0.08409570142033232","433"
"21:20:48:484 (H:m:s:ms)","GENERIC","62.145","0.08343478444593574","518"
"21:20:53:164 (H:m:s:ms)","OPERA","62.017","0.08313208445521873","839"
"21:20:54:545 (H:m:s:ms)","GENERIC","62.117","0.08319724183913658","459"
"21:21:0:606 (H:m:s:ms)","GENERIC","62.023","0.08258000246588325","396"
"21:21:0:759 (H:m:s:ms)","OPERA","31.008","0.0837939103938318","247"
"21:21:6:666 (H:m:s:ms)","GENERIC","62.131","0.08278895496245864","337"
"21:21:8:354 (H:m:s:ms)","OPERA","31.01","0.08390383995854953","648"
"21:21:12:727 (H:m:s:ms)","GENERIC","62.057","0.08388697043565893","276"
"21:21:15:949 (H:m:s:ms)","OPERA","31.009","0.08392338115356322","1053"
"21:32:55:757 (H:m:s:ms)","GENERIC","62.123","0.10111448422292066","246"
"21:32:37:894 (H:m:s:ms)","AMBULANCE","62.139","0.10012029904245308","1113"
"21:32:37:575 (H:m:s:ms)","GENERIC","62.081","0.09848099263012813","428"
"21:32:31:515 (H:m:s:ms)","GENERIC","62.097","0.09875948758459623","488"
"21:32:25:454 (H:m:s:ms)","GENERIC","62.115","0.09930870542765174","549"
"21:32:19:393 (H:m:s:ms)","GENERIC","62.069","0.10070372702028314","650"
"21:32:13:333 (H:m:s:ms)","GENERIC","62.111","0.10134374521894841","671"
"21:32:7:272 (H:m:s:ms)","GENERIC","62.111","0.100783541631085","730"
"21:21:18:787 (H:m:s:ms)","GENERIC","62.031","0.08540482875667545","217"
"21:32:6:315 (H:m:s:ms)","AMBULANCE","62.047","0.09974337100966468","688"
"21:21:23:544 (H:m:s:ms)","OPERA","62.015","0.08538844999416814","458"
"21:21:24:848 (H:m:s:ms)","GENERIC","62.027","0.0857971693795265","155"
"21:21:30:909 (H:m:s:ms)","GENERIC","62.057","0.08578402202553467","1093"
"21:21:31:139 (H:m:s:ms)","OPERA","31.009","0.08640713077639021","867"
"21:21:36:969 (H:m:s:ms)","GENERIC","62.053","0.0860787000561928","1034"
"21:21:38:734 (H:m:s:ms)","OPERA","31.01","0.08803044885151773","268"
"21:21:43:30 (H:m:s:ms)","GENERIC","62.089","0.08846631387040288","973"
"21:32:49:696 (H:m:s:ms)","GENERIC","62.029","0.10068079544343957","347"
"21:21:46:329 (H:m:s:ms)","OPERA","31.008","0.08898325559913355","673"
"21:32:43:636 (H:m:s:ms)","GENERIC","62.081","0.10066980189125498","366"
"21:21:49:90 (H:m:s:ms)","GENERIC","62.077","0.09051946771515354","949"
"21:33:50:303 (H:m:s:ms)","GENERIC","62.057","0.09789127927154181","701"
"21:33:44:242 (H:m:s:ms)","GENERIC","62.055","0.09841474794075473","761"
"21:33:38:181 (H:m:s:ms)","GENERIC","62.101","0.09704308989488845","822"
"21:33:32:121 (H:m:s:ms)","GENERIC","62.139","0.09702474246939752","882"
"21:33:26:60 (H:m:s:ms)","GENERIC","62.083","0.09767547333373401","943"
"21:33:20:0 (H:m:s:ms)","GENERIC","62.075","0.09851034572306645","1044"
"21:33:13:939 (H:m:s:ms)","GENERIC","62.075","0.0994159610730993","1064"
"21:33:9:473 (H:m:s:ms)","AMBULANCE","62.133","0.0996733622918032","569"
"21:21:53:924 (H:m:s:ms)","OPERA","31.009","0.09111222189901207","1078"
"21:33:7:878 (H:m:s:ms)","GENERIC","62.143","0.09966048311025079","1125"
"21:21:55:151 (H:m:s:ms)","GENERIC","62.081","0.09161344871420024","852"
"21:33:1:818 (H:m:s:ms)","GENERIC","62.039","0.1010519523257686","185"
"21:22:1:212 (H:m:s:ms)","GENERIC","62.075","0.09325348643953181","790"
"21:22:1:518 (H:m:s:ms)","OPERA","31.009","0.09328925008441817","487"
"21:22:7:272 (H:m:s:ms)","GENERIC","62.105","0.09371510193115326","730"
"21:22:9:113 (H:m:s:ms)","OPERA","31.009","0.09462816529564069","926"
"21:22:13:333 (H:m:s:ms)","GENERIC","62.101","0.09462816529564069","669"
"21:22:16:708 (H:m:s:ms)","OPERA","62.017","0.09590616392352806","295"
"21:22:19:393 (H:m:s:ms)","GENERIC","62.069","0.09534120985703216","646"
"21:22:24:303 (H:m:s:ms)","OPERA","31.009","0.09534120985703216","699"
"21:33:41:52 (H:m:s:ms)","AMBULANCE","62.095","0.09787615693547536","951"
"21:34:44:848 (H:m:s:ms)","GENERIC","62.027","0.09588657621057924","158"
"21:34:44:210 (H:m:s:ms)","AMBULANCE","62.063","0.09575434819894195","793"
"21:34:38:787 (H:m:s:ms)","GENERIC","62.097","0.09574320896654605","216"
"21:34:32:727 (H:m:s:ms)","GENERIC","62.047","0.09642874225073604","276"
"21:34:26:666 (H:m:s:ms)","GENERIC","62.085","0.09725181593291113","337"
"21:34:20:606 (H:m:s:ms)","GENERIC","62.117","0.0980801191157295","397"
"21:34:14:545 (H:m:s:ms)","GENERIC","62.073","0.09930815752230197","458"
"21:34:12:631 (H:m:s:ms)","AMBULANCE","62.033","0.09885067263146648","372"
"21:22:25:454 (H:m:s:ms)","GENERIC","62.103","0.09647995903245357","548"
"21:34:8:484 (H:m:s:ms)","GENERIC","62.035","0.09857935457973836","518"
"21:22:31:515 (H:m:s:ms)","GENERIC","62.105","0.09564777875915649","487"
"21:34:2:424 (H:m:s:ms)","GENERIC","62.063","0.09734021319601767","578"
"21:2:1:212 (H:m:s:ms)","GENERIC","62.067","0.08790559288062634","791"
"21:22:31:898 (H:m:s:ms)","OPERA","31.008","0.09728896457403002","108"
"21:33:56:363 (H:m:s:ms)","GENERIC","62.019","0.09861599837908817","640"
"21:2:6:315 (H:m:s:ms)","AMBULANCE","31.02","0.08754080285425514","688"
"21:22:37:575 (H:m:s:ms)","GENERIC","62.085","0.09740495498867087","427"
"21:2:7:272 (H:m:s:ms)","GENERIC","62.109","0.08804067417170199","730"
"21:22:39:493 (H:m:s:ms)","OPERA","31.008","0.09744108592947244","546"
"21:2:13:333 (H:m:s:ms)","GENERIC","62.097","0.08776940742385766","669"
"21:22:43:636 (H:m:s:ms)","GENERIC","62.075","0.0969043946139776","367"
"21:2:19:393 (H:m:s:ms)","GENERIC","62.091","0.0867966238823283","654"
"21:22:47:88 (H:m:s:ms)","OPERA","62.015","0.09613937703417332","914"
"21:2:25:454 (H:m:s:ms)","GENERIC","62.103","0.08657267963645744","548"
"21:22:49:696 (H:m:s:ms)","GENERIC","62.023","0.09618362209160625","345"
"21:2:31:515 (H:m:s:ms)","GENERIC","62.103","0.08623838710042962","487"
"21:22:54:683 (H:m:s:ms)","OPERA","31.009","0.09585338957475846","320"
"21:2:37:575 (H:m:s:ms)","GENERIC","62.101","0.0863074022271886","427"
"21:22:55:757 (H:m:s:ms)","GENERIC","62.109","0.0958768033863118","245"
"21:2:37:894 (H:m:s:ms)","AMBULANCE","31.04","0.08683236898259421","112"
"21:2:43:636 (H:m:s:ms)","GENERIC","62.061","0.08650037464773236","366"
"21:35:45:454 (H:m:s:ms)","GENERIC","62.053","0.09066742844839831","548"
"21:35:39:393 (H:m:s:ms)","GENERIC","62.013","0.09156567619821272","651"
"21:35:33:333 (H:m:s:ms)","GENERIC","62.081","0.09161642267304046","670"
"21:35:27:272 (H:m:s:ms)","GENERIC","62.059","0.0919710989143861","731"
"21:35:21:212 (H:m:s:ms)","GENERIC","62.051","0.0928511085620876","790"
"21:35:15:789 (H:m:s:ms)","AMBULANCE","62.061","0.0935651679322684","217"
"21:35:15:151 (H:m:s:ms)","GENERIC","62.039","0.09267331446375009","852"
"21:23:1:818 (H:m:s:ms)","GENERIC","62.061","0.09640842821702901","185"
"21:35:9:90 (H:m:s:ms)","GENERIC","62.139","0.09293263033612309","953"
"21:23:2:278 (H:m:s:ms)","OPERA","31.009","0.09727091629670746","725"
"21:35:3:30 (H:m:s:ms)","GENERIC","62.063","0.09293263033612309","973"
"21:2:49:696 (H:m:s:ms)","GENERIC","62.059","0.08683236898259421","352"
"21:23:7:878 (H:m:s:ms)","GENERIC","62.133","0.09726061126411706","1124"
"21:34:56:969 (H:m:s:ms)","GENERIC","62.051","0.09540591570117582","1034"
"21:2:55:757 (H:m:s:ms)","GENERIC","62.073","0.08636152853105027","246"
"21:23:9:873 (H:m:s:ms)","OPERA","31.009","0.09731682550208655","167"
"21:34:50:909 (H:m:s:ms)","GENERIC","62.105","0.09543706985945312","1094"
"21:3:1:818 (H:m:s:ms)","GENERIC","62.081","0.0852756507486032","184"
"21:23:13:939 (H:m:s:ms)","GENERIC","62.061","0.0965136615724732","1064"
"21:3:7:878 (H:m:s:ms)","GENERIC","62.129","0.08432316376706628","1124"
"21:23:17:468 (H:m:s:ms)","OPERA","31.009","0.09830779587188171","535"
"21:3:9:473 (H:m:s:ms)","AMBULANCE","31.051","0.08487935520631446","573"
"21:23:20:0 (H:m:s:ms)","GENERIC","62.077","0.09749450942380763","1039"
"21:3:13:939 (H:m:s:ms)","GENERIC","62.091","0.08422739462064081","1064"
"21:23:25:63 (H:m:s:ms)","OPERA","31.009","0.09720607610637308","940"
"21:3:20:0 (H:m:s:ms)","GENERIC","62.101","0.08487935520631446","1049"
"21:23:26:60 (H:m:s:ms)","GENERIC","62.075","0.09726628925020545","956"
"21:3:26:60 (H:m:s:ms)","GENERIC","62.095","0.08422739462064081","944"
"21:23:32:121 (H:m:s:ms)","GENERIC","62.133","0.09676862520558942","885"
"21:3:32:121 (H:m:s:ms)","GENERIC","62.133","0.08527447145760811","881"
"21:3:38:181 (H:m:s:ms)","GENERIC","62.073","0.08437558835990461","821"
"21:36:40:0 (H:m:s:ms)","GENERIC","62.055","0.0909585922559818","1042"
"21:36:33:939 (H:m:s:ms)","GENERIC","62.073","0.09264779042863507","1065"
"21:36:27:878 (H:m:s:ms)","GENERIC","62.125","0.09177075499410026","1125"
"21:36:21:818 (H:m:s:ms)","GENERIC","62.067","0.09233411475711727","185"
"21:36:18:947 (H:m:s:ms)","AMBULANCE","62.119","0.09106753095002644","1095"
"21:36:15:757 (H:m:s:ms)","GENERIC","62.015","0.09047104584340837","245"
"21:23:32:658 (H:m:s:ms)","OPERA","31.008","0.0964629625187745","344"
"21:36:9:696 (H:m:s:ms)","GENERIC","62.133","0.0906527617682107","346"
"21:23:38:181 (H:m:s:ms)","GENERIC","62.119","0.09675550295514453","821"
"21:36:3:636 (H:m:s:ms)","GENERIC","62.149","0.09045491136357699","367"
"21:3:41:52 (H:m:s:ms)","AMBULANCE","31.039","0.08556386236949086","966"
"21:23:40:253 (H:m:s:ms)","OPERA","31.01","0.09893018084718573","749"
"21:35:57:575 (H:m:s:ms)","GENERIC","62.099","0.0907547298915263","428"
"21:3:44:242 (H:m:s:ms)","GENERIC","62.037","0.08517440880273115","761"
"21:23:44:242 (H:m:s:ms)","GENERIC","62.057","0.09841811296020964","761"
"21:35:51:515 (H:m:s:ms)","GENERIC","62.105","0.09123682428541299","488"
"21:3:50:303 (H:m:s:ms)","GENERIC","62.061","0.08542145828129413","700"
"21:23:47:848 (H:m:s:ms)","OPERA","31.009","0.09891732685216847","154"
"21:35:47:368 (H:m:s:ms)","AMBULANCE","62.073","0.09125029308169451","635"
"21:3:56:363 (H:m:s:ms)","GENERIC","62.057","0.08442783079896433","639"
"21:23:50:303 (H:m:s:ms)","GENERIC","62.069","0.09821069712762771","700"
"21:4:2:424 (H:m:s:ms)","GENERIC","62.071","0.08416302523463234","578"
"21:23:55:443 (H:m:s:ms)","OPERA","62.015","0.09889475424182387","560"
"21:4:8:484 (H:m:s:ms)","GENERIC","62.041","0.08416302523463234","518"
"21:23:56:363 (H:m:s:ms)","GENERIC","62.035","0.0989043188146171","639"
"21:4:12:631 (H:m:s:ms)","AMBULANCE","31.032","0.08314927432602996","372"
"21:24:2:424 (H:m:s:ms)","GENERIC","62.065","0.0986011010148726","579"
"21:4:14:545 (H:m:s:ms)","GENERIC","62.075","0.08324528625172532","458"
"21:24:3:37 (H:m:s:ms)","OPERA","62.015","0.09968010747816385","966"
"21:4:20:606 (H:m:s:ms)","GENERIC","62.155","0.08328375565489989","396"
"21:4:26:666 (H:m:s:ms)","GENERIC","62.057","0.08238923401008384","337"
"21:37:34:545 (H:m:s:ms)","GENERIC","62.047","0.0935748862131143","458"
"21:37:28:484 (H:m:s:ms)","GENERIC","62.093","0.09386847969695421","519"
"21:37:22:424 (H:m:s:ms)","GENERIC","62.065","0.0927036621631574","583"
"21:37:22:105 (H:m:s:ms)","AMBULANCE","62.041","0.0914613707367727","898"
"21:37:16:363 (H:m:s:ms)","GENERIC","62.099","0.09115456546327817","640"
"21:37:10:303 (H:m:s:ms)","GENERIC","62.067","0.09179073385412581","700"
"21:24:8:484 (H:m:s:ms)","GENERIC","62.035","0.09889147273886134","519"
"21:24:10:632 (H:m:s:ms)","OPERA","31.009","0.09916607583366567","371"
"21:37:4:242 (H:m:s:ms)","GENERIC","62.095","0.09264842344425865","761"
"21:4:32:727 (H:m:s:ms)","GENERIC","62.073","0.08133705205707348","278"
"21:24:14:545 (H:m:s:ms)","GENERIC","62.071","0.0989129956020528","458"
"21:36:58:181 (H:m:s:ms)","GENERIC","62.065","0.09256329177818495","822"
"21:4:38:787 (H:m:s:ms)","GENERIC","62.047","0.08156154747337677","215"
"21:24:18:227 (H:m:s:ms)","OPERA","31.008","0.09865678403651021","775"
"21:36:52:121 (H:m:s:ms)","GENERIC","62.067","0.09254809355981862","882"
"21:4:44:210 (H:m:s:ms)","AMBULANCE","31.025","0.08155368842536918","793"
"21:24:20:606 (H:m:s:ms)","GENERIC","62.125","0.10048627459415868","396"
"21:36:50:526 (H:m:s:ms)","AMBULANCE","62.027","0.09128890319094089","476"
"21:4:44:848 (H:m:s:ms)","GENERIC","62.053","0.08337642402714925","159"
"21:24:25:822 (H:m:s:ms)","OPERA","62.015","0.10073878538753579","180"
"21:36:46:60 (H:m:s:ms)","GENERIC","62.111","0.08973346846087911","942"
"21:4:50:909 (H:m:s:ms)","GENERIC","62.125","0.08438538200277573","1093"
"21:24:26:666 (H:m:s:ms)","GENERIC","62.089","0.10224313570132906","336"
"21:4:56:969 (H:m:s:ms)","GENERIC","62.055","0.08472167718326767","1033"
"21:24:32:727 (H:m:s:ms)","GENERIC","62.053","0.10220427013775597","276"
"21:5:3:30 (H:m:s:ms)","GENERIC","62.081","0.084313978180054","972"
"21:24:33:417 (H:m:s:ms)","OPERA","31.009","0.10320411456568236","585"
"21:5:9:90 (H:m:s:ms)","GENERIC","62.127","0.08333968705644326","955"
"21:24:38:787 (H:m:s:ms)","GENERIC","62.079","0.10437930721286554","216"
"21:5:15:151 (H:m:s:ms)","GENERIC","62.073","0.08266956587267879","852"
"21:5:15:789 (H:m:s:ms)","AMBULANCE","31.038","0.08271590330621739","217"
"21:38:29:90 (H:m:s:ms)","GENERIC","62.019","0.09218641557854285","952"
"21:38:25:263 (H:m:s:ms)","AMBULANCE","62.081","0.09288520077238555","739"
"21:38:23:30 (H:m:s:ms)","GENERIC","62.083","0.09243672418150421","972"
"21:38:16:969 (H:m:s:ms)","GENERIC","62.073","0.09155783639687427","1034"
"21:38:10:909 (H:m:s:ms)","GENERIC","62.095","0.09134714989276381","1094"
"21:38:4:848 (H:m:s:ms)","GENERIC","62.119","0.0911084640403525","155"
"21:37:58:787 (H:m:s:ms)","GENERIC","62.137","0.09189025673177599","216"
"21:24:41:12 (H:m:s:ms)","OPERA","62.013","0.10471200474005223","990"
"21:24:44:848 (H:m:s:ms)","GENERIC","62.031","0.10400164360555915","155"
"21:5:21:212 (H:m:s:ms)","GENERIC","62.089","0.08228792220911539","790"
"21:24:48:607 (H:m:s:ms)","OPERA","62.017","0.10431230007216194","396"
"21:5:27:272 (H:m:s:ms)","GENERIC","62.043","0.08264572474141822","730"
"21:24:50:909 (H:m:s:ms)","GENERIC","62.131","0.10359751685644453","1094"
"21:37:53:684 (H:m:s:ms)","AMBULANCE","62.105","0.09267242323946706","318"
"20:45:45:454 (H:m:s:ms)","GENERIC","62.039","0.1059291333522943","548"
"21:5:33:333 (H:m:s:ms)","GENERIC","62.063","0.08096531185921374","670"
"21:24:56:202 (H:m:s:ms)","OPERA","31.009","0.10288465268448163","800"
"21:37:52:727 (H:m:s:ms)","GENERIC","62.107","0.09168788196934947","276"
"20:45:49:367 (H:m:s:ms)","OPERA","31.009","0.10511877223491284","677"
"21:5:39:393 (H:m:s:ms)","GENERIC","62.067","0.08141406790776227","652"
"21:24:56:969 (H:m:s:ms)","GENERIC","62.045","0.10372407066885736","1037"
"21:37:46:666 (H:m:s:ms)","GENERIC","62.103","0.09202172658481506","337"
"20:45:51:515 (H:m:s:ms)","GENERIC","62.071","0.1051074587256908","488"
"21:5:45:454 (H:m:s:ms)","GENERIC","62.045","0.0811815117561013","549"
"21:25:3:30 (H:m:s:ms)","GENERIC","62.083","0.10259845630389128","973"
"21:37:40:606 (H:m:s:ms)","GENERIC","62.051","0.09260473110513764","397"
"20:45:56:962 (H:m:s:ms)","OPERA","31.01","0.10551195638948212","1041"
"21:5:47:368 (H:m:s:ms)","AMBULANCE","31.03","0.08323761305505524","634"
"21:25:3:797 (H:m:s:ms)","OPERA","31.009","0.10259719625393665","210"
"20:45:57:575 (H:m:s:ms)","GENERIC","62.087","0.10554096055717542","431"
"21:5:51:515 (H:m:s:ms)","GENERIC","62.099","0.08231689955341212","488"
"21:25:9:90 (H:m:s:ms)","GENERIC","62.121","0.10226363439734976","950"
"20:46:3:636 (H:m:s:ms)","GENERIC","62.143","0.1041711555442343","366"
"21:5:57:575 (H:m:s:ms)","GENERIC","62.085","0.08164784064604783","428"
"21:25:11:392 (H:m:s:ms)","OPERA","31.008","0.10251949958606273","610"
"20:46:4:556 (H:m:s:ms)","OPERA","31.009","0.1048471347657998","447"
"21:6:3:636 (H:m:s:ms)","GENERIC","62.171","0.08060753301443001","368"
"20:46:9:696 (H:m:s:ms)","GENERIC","62.085","0.10414405124985825","350"
"21:6:9:696 (H:m:s:ms)","GENERIC","62.109","0.08107301390975775","348"
"20:46:12:151 (H:m:s:ms)","OPERA","31.009","0.1048471347657998","853"
"20:46:15:757 (H:m:s:ms)","GENERIC","62.055","0.1048471347657998","246"
"21:39:28:421 (H:m:s:ms)","AMBULANCE","62.129","0.08992059642104545","581"
"21:39:23:636 (H:m:s:ms)","GENERIC","62.103","0.08943489043490423","367"
"21:39:17:575 (H:m:s:ms)","GENERIC","62.141","0.08882646214962654","427"
"21:39:11:515 (H:m:s:ms)","GENERIC","62.029","0.09017315882033444","488"
"21:39:5:454 (H:m:s:ms)","GENERIC","62.137","0.09104374308962922","549"
"21:38:59:393 (H:m:s:ms)","GENERIC","62.085","0.09154352037982033","651"
"21:38:56:842 (H:m:s:ms)","AMBULANCE","62.121","0.09154352037982033","161"
"21:38:53:333 (H:m:s:ms)","GENERIC","62.055","0.09062778290847864","670"
"21:25:15:151 (H:m:s:ms)","GENERIC","62.055","0.10220442990390184","851"
"21:25:18:987 (H:m:s:ms)","OPERA","31.01","0.10144419782039764","1052"
"21:6:15:757 (H:m:s:ms)","GENERIC","62.039","0.08036186165137453","245"
"21:25:21:212 (H:m:s:ms)","GENERIC","62.059","0.10233535994641184","792"
"21:6:18:947 (H:m:s:ms)","AMBULANCE","31.063","0.07950667907547926","1097"
"21:25:26:582 (H:m:s:ms)","OPERA","31.009","0.10227816149534817","420"
"20:46:19:746 (H:m:s:ms)","OPERA","31.009","0.10480234091563304","297"
"21:6:21:818 (H:m:s:ms)","GENERIC","62.031","0.08009693263053914","184"
"21:25:27:272 (H:m:s:ms)","GENERIC","62.039","0.10302503408775814","730"
"20:46:21:818 (H:m:s:ms)","GENERIC","62.039","0.10640369642558581","185"
"21:6:27:878 (H:m:s:ms)","GENERIC","62.103","0.07972457117830871","1125"
"21:25:33:333 (H:m:s:ms)","GENERIC","62.083","0.10352930416862276","670"
"21:38:47:272 (H:m:s:ms)","GENERIC","62.081","0.09062960975002418","731"
"20:46:27:341 (H:m:s:ms)","OPERA","31.009","0.10577806584161668","663"
"21:6:33:939 (H:m:s:ms)","GENERIC","62.025","0.07865881341348532","1064"
"21:25:34:177 (H:m:s:ms)","OPERA","31.009","0.10451520285599247","825"
"21:38:41:212 (H:m:s:ms)","GENERIC","62.053","0.09160142782999767","791"
"20:46:27:878 (H:m:s:ms)","GENERIC","62.081","0.10577643230208802","1130"
"21:6:40:0 (H:m:s:ms)","GENERIC","62.053","0.07594882558964167","1045"
"21:25:39:393 (H:m:s:ms)","GENERIC","62.029","0.10464505112536397","646"
"21:38:35:151 (H:m:s:ms)","GENERIC","62.045","0.09160142782999767","852"
"20:46:33:939 (H:m:s:ms)","GENERIC","62.027","0.10555500111824481","1065"
"21:6:46:60 (H:m:s:ms)","GENERIC","62.131","0.07708383856561261","943"
"21:25:41:772 (H:m:s:ms)","OPERA","62.015","0.10563509419186226","231"
"20:46:34:936 (H:m:s:ms)","OPERA","31.009","0.10586723870228808","1072"
"21:6:50:526 (H:m:s:ms)","AMBULANCE","31.021","0.07782418742214034","477"
"21:25:45:454 (H:m:s:ms)","GENERIC","62.059","0.10491739638132265","548"
"20:46:40:0 (H:m:s:ms)","GENERIC","62.029","0.10563581391718099","1045"
"21:6:52:121 (H:m:s:ms)","GENERIC","62.057","0.0801927156945714","881"
"20:46:46:60 (H:m:s:ms)","GENERIC","62.139","0.10516498091613052","942"
"21:6:58:181 (H:m:s:ms)","GENERIC","62.049","0.0795267532584405","822"
"20:46:50:126 (H:m:s:ms)","OPERA","31.01","0.1046805501547473","877"
"20:46:52:121 (H:m:s:ms)","GENERIC","62.033","0.10613098279107004","881"
"21:39:41:818 (H:m:s:ms)","GENERIC","62.071","0.0890901508091523","185"
"21:40:18:181 (H:m:s:ms)","GENERIC","62.115","0.08878767717266423","821"
"21:40:12:121 (H:m:s:ms)","GENERIC","62.023","0.08981376052009411","882"
"21:40:6:60 (H:m:s:ms)","GENERIC","62.049","0.09084786179474248","942"
"21:40:0:0 (H:m:s:ms)","GENERIC","62.147","0.08994244557763659","2361"
"21:40:0:0 (H:m:s:ms)","AMBULANCE","62.056","0.0892500194777898","2357"
"21:40:0:0 (H:m:s:ms)","GENERIC","62.107","0.08828785219424998","2354"
"21:39:53:939 (H:m:s:ms)","GENERIC","62.103","0.08921843079436817","1064"
"21:39:47:878 (H:m:s:ms)","GENERIC","62.051","0.08859702650437952","1125"
"21:7:4:242 (H:m:s:ms)","GENERIC","62.129","0.0812806061347886","760"
"21:7:10:303 (H:m:s:ms)","GENERIC","62.087","0.08011310051285922","699"
"20:46:57:721 (H:m:s:ms)","OPERA","31.009","0.10565570182279362","281"
"21:7:16:363 (H:m:s:ms)","GENERIC","62.147","0.08199256421399184","639"
"20:46:58:181 (H:m:s:ms)","GENERIC","62.063","0.1066093842598899","822"
"21:7:22:105 (H:m:s:ms)","AMBULANCE","31.018","0.08368333527832571","898"
"20:47:4:242 (H:m:s:ms)","GENERIC","62.107","0.10567081570691572","761"
"21:7:22:424 (H:m:s:ms)","GENERIC","62.049","0.08375814138995359","582"
"20:47:5:316 (H:m:s:ms)","OPERA","31.009","0.10661406998820364","686"
"21:7:28:484 (H:m:s:ms)","GENERIC","62.091","0.08418962954344066","519"
"21:39:35:757 (H:m:s:ms)","GENERIC","62.037","0.08905510222000407","245"
"20:47:10:303 (H:m:s:ms)","GENERIC","62.119","0.10488265373979178","700"
"21:7:34:545 (H:m:s:ms)","GENERIC","62.083","0.0846674269010037","457"
"21:39:29:696 (H:m:s:ms)","GENERIC","62.051","0.08998530936059042","348"
"20:47:12:911 (H:m:s:ms)","OPERA","31.009","0.10600545533211933","1092"
"21:7:40:606 (H:m:s:ms)","GENERIC","62.025","0.08309727014740248","397"
"20:47:16:363 (H:m:s:ms)","GENERIC","62.153","0.10603206125431267","640"
"21:7:46:666 (H:m:s:ms)","GENERIC","62.135","0.08345294448557829","337"
"20:47:20:506 (H:m:s:ms)","OPERA","31.008","0.10563150873418342","497"
"21:7:52:727 (H:m:s:ms)","GENERIC","62.065","0.08345294448557829","277"
"20:47:22:424 (H:m:s:ms)","GENERIC","62.055","0.10682727872914129","579"
"20:47:28:101 (H:m:s:ms)","OPERA","31.009","0.1063602629301441","902"
"21:7:53:684 (H:m:s:ms)","AMBULANCE","31.049","0.08353198940201446","319"
"21:7:58:787 (H:m:s:ms)","GENERIC","62.187","0.08488947631944918","215"
"20:47:28:484 (H:m:s:ms)","GENERIC","62.129","0.1066599458078037","522"
"21:8:4:848 (H:m:s:ms)","GENERIC","62.121","0.08523314734623266","154"
"20:47:34:545 (H:m:s:ms)","GENERIC","62.069","0.10658836355592512","458"
"21:8:10:909 (H:m:s:ms)","GENERIC","62.081","0.0846411404504694","1094"
"20:47:35:696 (H:m:s:ms)","OPERA","31.009","0.10658016645923286","307"
"21:8:16:969 (H:m:s:ms)","GENERIC","62.091","0.0846411404504694","1033"
"20:47:40:606 (H:m:s:ms)","GENERIC","62.037","0.10660029673848367","397"
"21:8:23:30 (H:m:s:ms)","GENERIC","62.037","0.08398214549739809","973"
"20:47:43:291 (H:m:s:ms)","OPERA","31.009","0.1066023542358166","712"
"21:8:25:263 (H:m:s:ms)","AMBULANCE","31.053","0.08458078739852504","739"
"20:47:46:666 (H:m:s:ms)","GENERIC","62.115","0.10598402373793842","337"
"21:8:29:90 (H:m:s:ms)","GENERIC","62.037","0.08525040112716421","952"
"21:40:24:242 (H:m:s:ms)","GENERIC","62.103","0.08831124538958289","761"
"20:47:50:886 (H:m:s:ms)","OPERA","31.009","0.10500827736477457","116"
"21:8:35:151 (H:m:s:ms)","GENERIC","62.063","0.08425121210997481","851"
"20:47:52:727 (H:m:s:ms)","GENERIC","62.041","0.10726348802991367","275"
"21:8:41:212 (H:m:s:ms)","GENERIC","62.045","0.08477212795665508","791"
"20:47:58:481 (H:m:s:ms)","OPERA","31.009","0.10725518703132102","522"
"20:47:58:787 (H:m:s:ms)","GENERIC","62.187","0.10754861541622467","218"
"21:8:47:272 (H:m:s:ms)","GENERIC","62.061","0.08471098405206862","730"
"21:8:53:333 (H:m:s:ms)","GENERIC","62.033","0.08377930408466623","670"
"20:48:4:848 (H:m:s:ms)","GENERIC","62.107","0.1073331588987136","155"
"21:8:56:842 (H:m:s:ms)","AMBULANCE","31.04","0.08390028148455932","160"
"20:48:6:75 (H:m:s:ms)","OPERA","31.008","0.10805780215049629","927"
"21:8:59:393 (H:m:s:ms)","GENERIC","62.057","0.08387900962132915","649"
"20:30:0:0 (H:m:s:ms)","GENERIC","62.083","0.0810342354272163","1041"
"20:48:10:909 (H:m:s:ms)","GENERIC","62.115","0.10759466719026385","1093"
"21:9:5:454 (H:m:s:ms)","GENERIC","62.119","0.08273486995211138","549"
"20:30:0:0 (H:m:s:ms)","GENERIC","62.113","0.08258185488709065","1045"
"20:48:13:670 (H:m:s:ms)","OPERA","31.009","0.10788455088644867","334"
"21:9:11:515 (H:m:s:ms)","GENERIC","62.075","0.08272013785179351","488"
"20:30:6:60 (H:m:s:ms)","GENERIC","62.061","0.08263656888431894","942"
"20:48:16:969 (H:m:s:ms)","GENERIC","62.097","0.10835872402001902","1033"
"21:9:17:575 (H:m:s:ms)","GENERIC","62.179","0.08298051229009282","428"
"20:30:12:121 (H:m:s:ms)","GENERIC","62.047","0.08263656888431894","882"
"20:48:21:265 (H:m:s:ms)","OPERA","31.009","0.10835872402001902","738"
"21:9:23:636 (H:m:s:ms)","GENERIC","62.067","0.0832962813779414","367"
"20:30:18:181 (H:m:s:ms)","GENERIC","62.083","0.08330710485065022","821"
"20:48:23:30 (H:m:s:ms)","GENERIC","62.025","0.10837608867158757","972"
"21:9:28:421 (H:m:s:ms)","AMBULANCE","31.062","0.08280996447813244","582"
"20:30:24:242 (H:m:s:ms)","GENERIC","62.097","0.08227766798276226","762"
"20:48:28:860 (H:m:s:ms)","OPERA","31.009","0.10738184036407299","142"
"21:9:29:696 (H:m:s:ms)","GENERIC","62.059","0.08426472840974183","347"
"20:30:30:303 (H:m:s:ms)","GENERIC","62.049","0.08330096125802201","699"
"20:48:29:90 (H:m:s:ms)","GENERIC","62.025","0.10828232923798321","955"
"20:30:36:363 (H:m:s:ms)","GENERIC","62.101","0.08475191369471476","640"
"20:48:35:151 (H:m:s:ms)","GENERIC","62.079","0.10782199827684555","851"
"20:30:42:424 (H:m:s:ms)","GENERIC","62.071","0.08457357297288699","579"
"20:30:48:484 (H:m:s:ms)","GENERIC","62.075","0.08457357297288699","519"
"21:9:35:757 (H:m:s:ms)","GENERIC","62.035","0.0842755816394782","245"
"21:9:41:818 (H:m:s:ms)","GENERIC","62.061","0.08432206582850416","184"
"20:48:36:455 (H:m:s:ms)","OPERA","31.009","0.1087159731389392","548"
"21:9:47:878 (H:m:s:ms)","GENERIC","62.073","0.0825497441938207","1124"
"20:48:41:212 (H:m:s:ms)","GENERIC","62.047","0.10857923915318411","791"
"21:9:53:939 (H:m:s:ms)","GENERIC","62.067","0.08275710845500504","1064"
"20:30:54:545 (H:m:s:ms)","GENERIC","62.119","0.0838554483000664","458"
"20:48:44:50 (H:m:s:ms)","OPERA","31.01","0.10854132886023116","953"
"21:10:0:0 (H:m:s:ms)","AMBULANCE","31.032","0.08275710845500504","1043"
"20:31:0:606 (H:m:s:ms)","GENERIC","62.037","0.08567275559973528","397"
"20:48:47:272 (H:m:s:ms)","GENERIC","62.091","0.10800844029604971","731"
"21:10:0:0 (H:m:s:ms)","GENERIC","62.089","0.08279615983148884","1046"
"20:31:6:666 (H:m:s:ms)","GENERIC","62.137","0.08565044913203498","336"
"20:48:51:645 (H:m:s:ms)","OPERA","31.009","0.10710366535377494","358"
"21:10:0:0 (H:m:s:ms)","GENERIC","62.105","0.08364546564248015","1050"
"20:31:12:727 (H:m:s:ms)","GENERIC","62.105","0.08565044913203498","275"
"20:48:53:333 (H:m:s:ms)","GENERIC","62.059","0.10713354526314049","670"
"21:10:6:60 (H:m:s:ms)","GENERIC","62.085","0.08298081281943256","942"
"20:31:18:787 (H:m:s:ms)","GENERIC","62.071","0.08463273364445324","215"
"20:48:59:240 (H:m:s:ms)","OPERA","31.01","0.10694104433176863","805"
"21:10:12:121 (H:m:s:ms)","GENERIC","62.045","0.08292401544830763","882"
"20:31:24:848 (H:m:s:ms)","GENERIC","62.087","0.08617617145932374","155"
"20:48:59:393 (H:m:s:ms)","GENERIC","62.085","0.10763604308411047","656"
"21:10:18:181 (H:m:s:ms)","GENERIC","62.149","0.08357429372573587","822"
"20:31:30:909 (H:m:s:ms)","GENERIC","62.031","0.08685358497146667","1094"
"20:49:5:454 (H:m:s:ms)","GENERIC","62.087","0.10764967595891824","548"
"20:31:36:969 (H:m:s:ms)","GENERIC","62.043","0.08748811019841869","1033"
"20:49:6:835 (H:m:s:ms)","OPERA","31.009","0.10794021390704474","167"
"20:31:43:30 (H:m:s:ms)","GENERIC","62.045","0.0875166304024334","973"
"20:31:49:90 (H:m:s:ms)","GENERIC","62.129","0.08750845620341109","951"
"20:49:11:515 (H:m:s:ms)","GENERIC","62.109","0.10703182147612383","488"
"20:49:14:430 (H:m:s:ms)","OPERA","31.009","0.10701913177649912","573"
"20:31:55:151 (H:m:s:ms)","GENERIC","62.081","0.08708033417798397","852"
"20:49:17:575 (H:m:s:ms)","GENERIC","62.163","0.1063580296535205","428"
"20:32:1:212 (H:m:s:ms)","GENERIC","62.049","0.08681792488068102","791"
"20:49:22:25 (H:m:s:ms)","OPERA","31.009","0.10570590101549751","977"
"20:32:7:272 (H:m:s:ms)","GENERIC","62.099","0.08680727091755526","730"
"20:49:23:636 (H:m:s:ms)","GENERIC","62.085","0.10589898243756395","367"
"20:32:13:333 (H:m:s:ms)","GENERIC","62.083","0.08744703715328075","669"
"20:49:29:620 (H:m:s:ms)","OPERA","31.01","0.10510554989026293","425"
"20:32:19:393 (H:m:s:ms)","GENERIC","62.073","0.08746174156961117","650"
"20:49:29:696 (H:m:s:ms)","GENERIC","62.093","0.1055836231885074","352"
"20:32:25:454 (H:m:s:ms)","GENERIC","62.133","0.08637524899927967","548"
"20:49:35:757 (H:m:s:ms)","GENERIC","62.029","0.1052819036003733","246"
"20:32:31:515 (H:m:s:ms)","GENERIC","62.059","0.08607376023281485","488"
"20:49:37:215 (H:m:s:ms)","OPERA","31.009","0.10620879174872991","787"
"20:32:37:575 (H:m:s:ms)","GENERIC","62.057","0.08671585727694674","428"
"20:49:41:818 (H:m:s:ms)","GENERIC","62.057","0.10668571708368979","184"
"20:32:43:636 (H:m:s:ms)","GENERIC","62.083","0.0867523110214521","368"
"20:32:49:696 (H:m:s:ms)","GENERIC","62.071","0.08644535151787187","343"
"20:49:44:810 (H:m:s:ms)","OPERA","31.009","0.10711709449597559","192"
"20:49:47:878 (H:m:s:ms)","GENERIC","62.083","0.10691037443659059","1125"
"20:32:55:757 (H:m:s:ms)","GENERIC","62.053","0.08609967354269164","245"
"20:49:52:405 (H:m:s:ms)","OPERA","31.008","0.10550190597845988","597"
"20:33:1:818 (H:m:s:ms)","GENERIC","62.075","0.0854359950086614","185"
"20:49:53:939 (H:m:s:ms)","GENERIC","62.039","0.10548795846250313","1064"
"20:33:7:878 (H:m:s:ms)","GENERIC","62.139","0.08643795136654339","1125"
"20:50:0:0 (H:m:s:ms)","OPERA","31.009","0.10525301748388342","1050"
"20:33:13:939 (H:m:s:ms)","GENERIC","62.097","0.08610134541798921","1065"
"20:50:0:0 (H:m:s:ms)","GENERIC","62.075","0.10671282922177718","1054"
"20:33:20:0 (H:m:s:ms)","GENERIC","62.099","0.08508665880928674","1039"
"20:50:0:0 (H:m:s:ms)","GENERIC","62.111","0.10518168269073916","1047"
"20:33:26:60 (H:m:s:ms)","GENERIC","62.109","0.08611703901198008","942"
"20:50:6:60 (H:m:s:ms)","GENERIC","62.081","0.1066577746950131","942"
"20:33:32:121 (H:m:s:ms)","GENERIC","62.113","0.08689615861893732","882"
"20:50:12:121 (H:m:s:ms)","GENERIC","62.047","0.10548400837943292","881"
"20:33:38:181 (H:m:s:ms)","GENERIC","62.037","0.08654776184375311","822"
"20:50:18:181 (H:m:s:ms)","GENERIC","62.115","0.10681946962224949","821"
"20:33:44:242 (H:m:s:ms)","GENERIC","62.047","0.08719699526593853","761"
"20:33:50:303 (H:m:s:ms)","GENERIC","62.051","0.08717762494475037","700"
"20:50:24:242 (H:m:s:ms)","GENERIC","62.077","0.1071702097952108","762"
"20:50:30:303 (H:m:s:ms)","GENERIC","62.067","0.10619681247037206","700"
"20:33:56:363 (H:m:s:ms)","GENERIC","62.081","0.08717762494475037","639"
"20:50:36:363 (H:m:s:ms)","GENERIC","62.105","0.10521361525461395","639"
"20:34:2:424 (H:m:s:ms)","GENERIC","62.053","0.0871676661028954","578"
"20:50:42:424 (H:m:s:ms)","GENERIC","62.035","0.10472983070803636","579"
"20:10:0:0 (H:m:s:ms)","GENERIC","31.044","0.0792768384646788","1005"
"20:34:8:484 (H:m:s:ms)","GENERIC","62.025","0.08713590100871656","519"
"20:50:48:484 (H:m:s:ms)","GENERIC","62.077","0.10569455109445633","518"
"20:10:0:0 (H:m:s:ms)","GENERIC","62.129","0.08141591585979094","1050"
"20:34:14:545 (H:m:s:ms)","GENERIC","62.117","0.08660891675397824","458"
"20:50:54:545 (H:m:s:ms)","GENERIC","62.115","0.1063454275386565","458"
"20:10:6:60 (H:m:s:ms)","GENERIC","62.067","0.08213942365074374","944"
"20:34:20:606 (H:m:s:ms)","GENERIC","62.193","0.08660609569407389","397"
"20:51:0:606 (H:m:s:ms)","GENERIC","62.069","0.1056189655596557","397"
"20:10:12:121 (H:m:s:ms)","GENERIC","62.041","0.08213942365074374","885"
"20:34:26:666 (H:m:s:ms)","GENERIC","62.061","0.08599192406060005","337"
"20:51:6:666 (H:m:s:ms)","GENERIC","62.147","0.10426718295542245","336"
"20:10:18:181 (H:m:s:ms)","GENERIC","62.085","0.08172216291305825","823"
"20:34:32:727 (H:m:s:ms)","GENERIC","62.061","0.08552154046713993","275"
"20:51:12:727 (H:m:s:ms)","GENERIC","62.091","0.10367997974864203","276"
"20:10:24:242 (H:m:s:ms)","GENERIC","62.055","0.0821005142455173","762"
"20:34:38:787 (H:m:s:ms)","GENERIC","62.073","0.08503944170499256","215"
"20:51:18:787 (H:m:s:ms)","GENERIC","62.031","0.10267147358556782","215"
"20:10:30:303 (H:m:s:ms)","GENERIC","62.039","0.0821005142455173","702"
"20:34:44:848 (H:m:s:ms)","GENERIC","62.089","0.08502498685724338","156"
"20:10:36:363 (H:m:s:ms)","GENERIC","62.087","0.0821219522995528","641"
"20:34:50:909 (H:m:s:ms)","GENERIC","62.085","0.0845906752171057","1094"
"20:10:42:424 (H:m:s:ms)","GENERIC","62.099","0.08218684382812107","579"
"20:10:48:484 (H:m:s:ms)","GENERIC","62.073","0.08296777431751506","519"
"20:51:24:848 (H:m:s:ms)","GENERIC","62.055","0.1024417412532849","155"
"20:51:30:909 (H:m:s:ms)","GENERIC","62.027","0.10240270074697748","1094"
"20:34:56:969 (H:m:s:ms)","GENERIC","62.037","0.08468371890156673","1033"
"20:51:36:969 (H:m:s:ms)","GENERIC","62.037","0.10125704090792573","1034"
"20:35:3:30 (H:m:s:ms)","GENERIC","62.055","0.08441417868378158","973"
"20:51:43:30 (H:m:s:ms)","GENERIC","62.037","0.10149625119822248","972"
"20:10:54:545 (H:m:s:ms)","GENERIC","62.091","0.08357576620054345","459"
"20:35:9:90 (H:m:s:ms)","GENERIC","62.109","0.08474035206123996","949"
"20:51:49:90 (H:m:s:ms)","GENERIC","62.087","0.1019976864745099","955"
"20:11:0:606 (H:m:s:ms)","GENERIC","62.023","0.08357576620054345","397"
"20:35:15:151 (H:m:s:ms)","GENERIC","62.069","0.084784792696443","851"
"20:51:55:151 (H:m:s:ms)","GENERIC","62.083","0.1017655360711791","852"
"20:11:6:666 (H:m:s:ms)","GENERIC","62.107","0.08401424221226539","338"
"20:35:21:212 (H:m:s:ms)","GENERIC","62.145","0.08415981024143908","790"
"20:52:1:212 (H:m:s:ms)","GENERIC","62.057","0.10073661544413531","791"
"20:11:12:727 (H:m:s:ms)","GENERIC","62.065","0.08366437474493474","276"
"20:35:27:272 (H:m:s:ms)","GENERIC","62.093","0.08473678930665896","730"
"20:52:7:272 (H:m:s:ms)","GENERIC","62.103","0.09969923117288988","730"
"20:11:18:787 (H:m:s:ms)","GENERIC","62.063","0.08305393586218894","217"
"20:35:33:333 (H:m:s:ms)","GENERIC","62.015","0.08407410440509319","670"
"20:52:13:333 (H:m:s:ms)","GENERIC","62.087","0.09970656995293466","670"
"20:11:24:848 (H:m:s:ms)","GENERIC","62.107","0.08299795340382929","155"
"20:35:39:393 (H:m:s:ms)","GENERIC","62.097","0.08304488617841675","646"
"20:52:19:393 (H:m:s:ms)","GENERIC","62.103","0.09941074824650285","653"
"20:11:30:909 (H:m:s:ms)","GENERIC","62.027","0.08301585140395504","1094"
"20:35:45:454 (H:m:s:ms)","GENERIC","62.023","0.08199850268299254","549"
"20:11:36:969 (H:m:s:ms)","GENERIC","62.043","0.08308709889182118","1034"
"20:35:51:515 (H:m:s:ms)","GENERIC","62.053","0.08275006414199039","488"
"20:11:43:30 (H:m:s:ms)","GENERIC","62.087","0.08259328583984299","973"
"20:11:49:90 (H:m:s:ms)","GENERIC","62.119","0.08400590685524328","953"
"20:0:54:545 (H:m:s:ms)","GENERIC","31.043","0.036396347934420197","464"
"20:1:0:606 (H:m:s:ms)","GENERIC","31.02","0.037709382733679936","402"
"20:1:6:666 (H:m:s:ms)","GENERIC","31.049","0.040658995183841425","345"
"20:1:12:727 (H:m:s:ms)","GENERIC","31.028","0.04343003730979331","281"
"20:1:18:787 (H:m:s:ms)","GENERIC","31.029","0.04387795931255517","220"
"20:1:24:848 (H:m:s:ms)","GENERIC","31.061","0.04496169759394141","160"
"20:1:30:909 (H:m:s:ms)","GENERIC","31.024","0.045296761862854924","1100"
"20:1:36:969 (H:m:s:ms)","GENERIC","31.03","0.04560409422269773","1041"
"20:1:43:30 (H:m:s:ms)","GENERIC","31.051","0.04587549736215541","981"
"20:1:49:90 (H:m:s:ms)","GENERIC","31.051","0.04613473659255131","930"
"20:35:57:575 (H:m:s:ms)","GENERIC","62.101","0.08275006414199039","428"
"20:36:3:636 (H:m:s:ms)","GENERIC","62.141","0.08197307578599049","367"
"20:11:55:151 (H:m:s:ms)","GENERIC","62.095","0.08404366815781568","853"
"20:36:9:696 (H:m:s:ms)","GENERIC","62.073","0.08410207693779347","343"
"20:12:1:212 (H:m:s:ms)","GENERIC","62.055","0.08459046543006071","792"
"20:36:15:757 (H:m:s:ms)","GENERIC","62.071","0.08380842898465456","246"
"20:12:7:272 (H:m:s:ms)","GENERIC","62.107","0.08460014474505355","734"
"20:36:21:818 (H:m:s:ms)","GENERIC","62.047","0.08427632646360832","185"
"20:12:13:333 (H:m:s:ms)","GENERIC","62.113","0.08460531991058183","670"
"20:36:27:878 (H:m:s:ms)","GENERIC","62.095","0.08361599385425665","1125"
"20:12:19:393 (H:m:s:ms)","GENERIC","62.045","0.0852937671640369","649"
"20:36:33:939 (H:m:s:ms)","GENERIC","62.041","0.08290348828217937","1064"
"20:12:25:454 (H:m:s:ms)","GENERIC","62.125","0.08472244124536149","550"
"20:36:40:0 (H:m:s:ms)","GENERIC","62.047","0.08222315448030171","1042"
"20:12:31:515 (H:m:s:ms)","GENERIC","62.071","0.08477193740815886","489"
"20:36:46:60 (H:m:s:ms)","GENERIC","62.147","0.08222315448030171","943"
"20:12:37:575 (H:m:s:ms)","GENERIC","62.083","0.0853726324498232","428"
"20:36:52:121 (H:m:s:ms)","GENERIC","62.045","0.08222315448030171","882"
"20:12:43:636 (H:m:s:ms)","GENERIC","62.069","0.08630332838226183","368"
"20:12:49:696 (H:m:s:ms)","GENERIC","62.053","0.08570022607960798","346"
"20:1:55:151 (H:m:s:ms)","GENERIC","31.053","0.046371208373338496","855"
"20:2:1:212 (H:m:s:ms)","GENERIC","31.026","0.04680172186639852","795"
"20:2:7:272 (H:m:s:ms)","GENERIC","31.056","0.04701610787695359","735"
"20:2:13:333 (H:m:s:ms)","GENERIC","31.066","0.04813799751665268","678"
"20:2:19:393 (H:m:s:ms)","GENERIC","31.019","0.05030927934915756","628"
"20:2:25:454 (H:m:s:ms)","GENERIC","31.056","0.05238507534636082","553"
"20:2:31:515 (H:m:s:ms)","GENERIC","31.043","0.05322501292293739","492"
"20:2:37:575 (H:m:s:ms)","GENERIC","31.037","0.055386276180708904","432"
"20:2:43:636 (H:m:s:ms)","GENERIC","31.042","0.057257470514960614","371"
"20:2:49:696 (H:m:s:ms)","GENERIC","31.036","0.05740504881082554","327"
"20:36:58:181 (H:m:s:ms)","GENERIC","62.059","0.08224131972582463","822"
"20:37:4:242 (H:m:s:ms)","GENERIC","62.097","0.08336988693980012","761"
"20:12:55:757 (H:m:s:ms)","GENERIC","62.043","0.08468982654489933","247"
"20:37:10:303 (H:m:s:ms)","GENERIC","62.135","0.08373372896443412","701"
"20:13:1:818 (H:m:s:ms)","GENERIC","62.037","0.08467240881915299","187"
"20:37:16:363 (H:m:s:ms)","GENERIC","62.141","0.08413311222559061","641"
"20:13:7:878 (H:m:s:ms)","GENERIC","62.105","0.08588912098553428","1126"
"20:37:22:424 (H:m:s:ms)","GENERIC","62.071","0.08412078213503674","579"
"20:13:13:939 (H:m:s:ms)","GENERIC","62.119","0.08688682903882486","1065"
"20:37:28:484 (H:m:s:ms)","GENERIC","62.133","0.0844941823560151","519"
"20:13:20:0 (H:m:s:ms)","GENERIC","62.107","0.08593972435206801","1045"
"20:37:34:545 (H:m:s:ms)","GENERIC","62.073","0.08547158701390857","457"
"20:13:26:60 (H:m:s:ms)","GENERIC","62.107","0.08594810719036108","943"
"20:37:40:606 (H:m:s:ms)","GENERIC","62.037","0.08543826098241297","397"
"20:13:32:121 (H:m:s:ms)","GENERIC","62.107","0.08624842539958794","885"
"20:37:46:666 (H:m:s:ms)","GENERIC","62.105","0.08439662231760861","337"
"20:13:38:181 (H:m:s:ms)","GENERIC","62.081","0.0855928143996656","823"
"20:37:52:727 (H:m:s:ms)","GENERIC","62.027","0.08533728748783868","276"
"20:13:44:242 (H:m:s:ms)","GENERIC","62.079","0.08551575584407496","761"
"20:13:50:303 (H:m:s:ms)","GENERIC","62.073","0.0861428997435629","700"
"20:2:55:757 (H:m:s:ms)","GENERIC","31.021","0.0585052063642117","250"
"20:3:1:818 (H:m:s:ms)","GENERIC","31.018","0.059220562498864225","191"
"20:3:7:878 (H:m:s:ms)","GENERIC","31.053","0.05939927600521815","128"
"20:3:13:939 (H:m:s:ms)","GENERIC","31.061","0.060114503339836985","1069"
"20:3:20:0 (H:m:s:ms)","GENERIC","31.051","0.06080112589654837","1007"
"20:3:26:60 (H:m:s:ms)","GENERIC","31.056","0.06246466794539782","945"
"20:3:32:121 (H:m:s:ms)","GENERIC","31.052","0.06312733009440179","886"
"20:3:38:181 (H:m:s:ms)","GENERIC","31.049","0.06340227078735805","826"
"20:3:44:242 (H:m:s:ms)","GENERIC","31.038","0.06354625248623144","765"
"20:3:50:303 (H:m:s:ms)","GENERIC","31.039","0.06434136127987361","702"
"20:37:58:787 (H:m:s:ms)","GENERIC","62.199","0.08568558836050498","215"
"20:38:4:848 (H:m:s:ms)","GENERIC","62.091","0.08637458512652556","155"
"20:13:56:363 (H:m:s:ms)","GENERIC","62.109","0.08602712139746696","640"
"20:38:10:909 (H:m:s:ms)","GENERIC","62.119","0.0857273180445228","1093"
"20:14:2:424 (H:m:s:ms)","GENERIC","62.029","0.08645618428377544","579"
"20:38:16:969 (H:m:s:ms)","GENERIC","62.103","0.08606388640247693","1033"
"20:14:8:484 (H:m:s:ms)","GENERIC","62.059","0.08548782443750202","519"
"20:38:23:30 (H:m:s:ms)","GENERIC","62.045","0.0865240955375232","974"
"20:14:14:545 (H:m:s:ms)","GENERIC","62.087","0.08411685027172607","458"
"20:38:29:90 (H:m:s:ms)","GENERIC","62.021","0.08585099337655573","950"
"20:14:20:606 (H:m:s:ms)","GENERIC","62.159","0.0841130168070193","397"
"20:38:35:151 (H:m:s:ms)","GENERIC","62.067","0.0846295823350316","851"
"20:14:26:666 (H:m:s:ms)","GENERIC","62.091","0.08362965207612277","337"
"20:38:41:212 (H:m:s:ms)","GENERIC","62.039","0.08564799977665159","791"
"20:14:32:727 (H:m:s:ms)","GENERIC","62.049","0.08357839906527646","276"
"20:38:47:272 (H:m:s:ms)","GENERIC","62.087","0.08501157022314465","730"
"20:14:38:787 (H:m:s:ms)","GENERIC","62.091","0.08357839906527646","216"
"20:38:53:333 (H:m:s:ms)","GENERIC","62.061","0.08399879823644273","670"
"20:14:44:848 (H:m:s:ms)","GENERIC","62.065","0.08224429664945067","155"
"20:14:50:909 (H:m:s:ms)","GENERIC","62.079","0.08176190858351721","1094"
"20:3:56:363 (H:m:s:ms)","GENERIC","31.057","0.06588847907495958","642"
"20:4:2:424 (H:m:s:ms)","GENERIC","31.021","0.06647255970329775","582"
"20:4:8:484 (H:m:s:ms)","GENERIC","31.035","0.06841296170473563","521"
"20:4:14:545 (H:m:s:ms)","GENERIC","31.039","0.06856668997636282","462"
"20:4:20:606 (H:m:s:ms)","GENERIC","31.071","0.07084685944804202","401"
"20:4:26:666 (H:m:s:ms)","GENERIC","31.037","0.07174389868053092","339"
"20:4:32:727 (H:m:s:ms)","GENERIC","31.031","0.07327375109544063","278"
"20:4:38:787 (H:m:s:ms)","GENERIC","31.035","0.07338603237579368","218"
"20:4:44:848 (H:m:s:ms)","GENERIC","31.03","0.07406998515079218","159"
"20:4:50:909 (H:m:s:ms)","GENERIC","31.035","0.07636023444072841","1099"
"20:38:59:393 (H:m:s:ms)","GENERIC","62.085","0.08394883219208656","648"
"20:39:5:454 (H:m:s:ms)","GENERIC","62.073","0.08396909147081515","549"
"20:14:56:969 (H:m:s:ms)","GENERIC","62.039","0.08050592582992143","1035"
"20:39:11:515 (H:m:s:ms)","GENERIC","62.105","0.08362423110201204","488"
"20:15:3:30 (H:m:s:ms)","GENERIC","62.087","0.08009227503766699","975"
"20:39:17:575 (H:m:s:ms)","GENERIC","62.147","0.08352086986170588","428"
"20:15:9:90 (H:m:s:ms)","GENERIC","62.107","0.08009227503766699","952"
"20:39:23:636 (H:m:s:ms)","GENERIC","62.083","0.08284768693945371","366"
"20:15:15:151 (H:m:s:ms)","GENERIC","62.045","0.07940696693957974","852"
"20:39:29:696 (H:m:s:ms)","GENERIC","62.119","0.08349694368028401","343"
"20:15:21:212 (H:m:s:ms)","GENERIC","62.117","0.07909183900721087","791"
"20:39:35:757 (H:m:s:ms)","GENERIC","62.025","0.08387954281832832","245"
"20:15:27:272 (H:m:s:ms)","GENERIC","62.081","0.07886417967201141","731"
"20:39:41:818 (H:m:s:ms)","GENERIC","62.077","0.0848697329419805","184"
"20:15:33:333 (H:m:s:ms)","GENERIC","62.039","0.07834064365297116","671"
"20:39:47:878 (H:m:s:ms)","GENERIC","62.085","0.08502215442956368","1124"
"20:15:39:393 (H:m:s:ms)","GENERIC","62.083","0.07720569857170204","650"
"20:39:53:939 (H:m:s:ms)","GENERIC","62.045","0.08512993369695808","1064"
"20:15:45:454 (H:m:s:ms)","GENERIC","62.043","0.07600220270884606","549"
"20:15:51:515 (H:m:s:ms)","GENERIC","62.025","0.07595977930335382","488"
"20:4:56:969 (H:m:s:ms)","GENERIC","31.02","0.07687913562078603","1036"
"20:5:3:30 (H:m:s:ms)","GENERIC","31.051","0.07647956148216821","976"
"20:5:9:90 (H:m:s:ms)","GENERIC","31.068","0.07647956148216821","939"
"20:5:15:151 (H:m:s:ms)","GENERIC","31.019","0.07573251242614626","855"
"20:5:21:212 (H:m:s:ms)","GENERIC","31.051","0.07519105272575702","792"
"20:5:27:272 (H:m:s:ms)","GENERIC","31.042","0.07519105272575702","732"
"20:5:33:333 (H:m:s:ms)","GENERIC","31.029","0.07593636316574942","671"
"20:5:39:393 (H:m:s:ms)","GENERIC","31.042","0.07668029046123041","638"
"20:5:45:454 (H:m:s:ms)","GENERIC","31.031","0.07623762782694292","550"
"20:5:51:515 (H:m:s:ms)","GENERIC","31.023","0.07623697731265344","489"
"20:15:57:575 (H:m:s:ms)","GENERIC","62.123","0.07506172332167801","427"
"20:16:3:636 (H:m:s:ms)","GENERIC","62.141","0.07507783453532892","367"
"20:16:9:696 (H:m:s:ms)","GENERIC","62.091","0.07462842737669764","346"
"20:16:15:757 (H:m:s:ms)","GENERIC","62.105","0.07462842737669764","246"
"20:16:21:818 (H:m:s:ms)","GENERIC","62.075","0.07458791952915955","185"
"20:16:27:878 (H:m:s:ms)","GENERIC","62.121","0.07423511356804437","1125"
"20:16:33:939 (H:m:s:ms)","GENERIC","62.055","0.07463012326485798","1064"
"20:16:40:0 (H:m:s:ms)","GENERIC","62.085","0.07455122142242804","1046"
"20:16:46:60 (H:m:s:ms)","GENERIC","62.159","0.07493003160585554","943"
"20:16:52:121 (H:m:s:ms)","GENERIC","62.053","0.07416536345152719","882"
"20:5:57:575 (H:m:s:ms)","GENERIC","31.068","0.07696229463480442","429"
"20:6:3:636 (H:m:s:ms)","GENERIC","31.066","0.07656315449457382","368"
"20:6:9:696 (H:m:s:ms)","GENERIC","31.043","0.07577487552155827","336"
"20:6:15:757 (H:m:s:ms)","GENERIC","31.06","0.07571367255568623","247"
"20:6:21:818 (H:m:s:ms)","GENERIC","31.034","0.07611841152385149","186"
"20:6:27:878 (H:m:s:ms)","GENERIC","31.064","0.07571367255568623","126"
"20:6:33:939 (H:m:s:ms)","GENERIC","31.035","0.07571367255568623","1066"
"20:6:40:0 (H:m:s:ms)","GENERIC","31.042","0.07626800732792237","1006"
"20:6:46:60 (H:m:s:ms)","GENERIC","31.088","0.07626800732792237","944"
"20:6:52:121 (H:m:s:ms)","GENERIC","31.037","0.07740444828105365","884"
"20:16:58:181 (H:m:s:ms)","GENERIC","62.037","0.0741070560546103","822"
"20:17:4:242 (H:m:s:ms)","GENERIC","62.071","0.07411973096781115","762"
"20:17:10:303 (H:m:s:ms)","GENERIC","62.107","0.07441250453269053","700"
"20:17:16:363 (H:m:s:ms)","GENERIC","62.103","0.07517350024865717","640"
"20:17:22:424 (H:m:s:ms)","GENERIC","62.113","0.07395031899665518","579"
"20:17:28:484 (H:m:s:ms)","GENERIC","62.125","0.07395031899665518","519"
"20:17:34:545 (H:m:s:ms)","GENERIC","62.061","0.07313735814684251","460"
"20:17:40:606 (H:m:s:ms)","GENERIC","62.013","0.07315349594853375","397"
"20:17:46:666 (H:m:s:ms)","GENERIC","62.099","0.0720007880255934","337"
"20:17:52:727 (H:m:s:ms)","GENERIC","62.021","0.0720007880255934","275"
"20:6:58:181 (H:m:s:ms)","GENERIC","31.015","0.07791393009608771","824"
"20:7:4:242 (H:m:s:ms)","GENERIC","31.04","0.07791393009608771","764"
"20:7:10:303 (H:m:s:ms)","GENERIC","31.046","0.07830284858842414","701"
"20:7:16:363 (H:m:s:ms)","GENERIC","31.041","0.07821888529592609","641"
"20:7:22:424 (H:m:s:ms)","GENERIC","31.067","0.07821888529592609","580"
"20:7:28:484 (H:m:s:ms)","GENERIC","31.061","0.07821189359358843","520"
"20:7:34:545 (H:m:s:ms)","GENERIC","31.035","0.07827087824612833","459"
"20:7:40:606 (H:m:s:ms)","GENERIC","31.018","0.07706047588580155","399"
"20:7:46:666 (H:m:s:ms)","GENERIC","31.045","0.07706047588580155","338"
"20:7:52:727 (H:m:s:ms)","GENERIC","31.012","0.07821727565039621","277"
"20:17:58:787 (H:m:s:ms)","GENERIC","62.169","0.0724319475579046","216"
"20:18:4:848 (H:m:s:ms)","GENERIC","62.117","0.07244518043947067","156"
"20:18:10:909 (H:m:s:ms)","GENERIC","62.081","0.07104473033328569","1094"
"20:18:16:969 (H:m:s:ms)","GENERIC","62.089","0.06978343565572366","1034"
"20:18:23:30 (H:m:s:ms)","GENERIC","62.079","0.07022048498620007","972"
"20:18:29:90 (H:m:s:ms)","GENERIC","62.021","0.07145812888028748","951"
"20:18:35:151 (H:m:s:ms)","GENERIC","62.047","0.07223134183254577","852"
"20:18:41:212 (H:m:s:ms)","GENERIC","62.041","0.07184465537094316","791"
"20:18:47:272 (H:m:s:ms)","GENERIC","62.073","0.07187383850037948","731"
"20:18:53:333 (H:m:s:ms)","GENERIC","62.039","0.07190868111063758","669"
"20:7:58:787 (H:m:s:ms)","GENERIC","31.076","0.07870126265719705","217"
"20:8:4:848 (H:m:s:ms)","GENERIC","31.068","0.07832413861918726","156"
"20:8:10:909 (H:m:s:ms)","GENERIC","31.037","0.07829458355237315","1095"
"20:8:16:969 (H:m:s:ms)","GENERIC","31.037","0.07899885287818767","1035"
"20:8:23:30 (H:m:s:ms)","GENERIC","31.035","0.0786144856484871","974"
"20:8:29:90 (H:m:s:ms)","GENERIC","31.014","0.07754227788712122","954"
"20:8:35:151 (H:m:s:ms)","GENERIC","31.021","0.07829443796819423","855"
"20:8:41:212 (H:m:s:ms)","GENERIC","31.032","0.07939529921963905","792"
"20:8:47:272 (H:m:s:ms)","GENERIC","31.031","0.07977481274637437","732"
"20:8:53:333 (H:m:s:ms)","GENERIC","31.021","0.07977481274637437","673"
"20:18:59:393 (H:m:s:ms)","GENERIC","62.095","0.07269996997948794","648"
"20:19:5:454 (H:m:s:ms)","GENERIC","62.103","0.0725521066441083","549"
"20:19:11:515 (H:m:s:ms)","GENERIC","62.075","0.07257601524614256","488"
"20:19:17:575 (H:m:s:ms)","GENERIC","62.125","0.07259296435135103","428"
"20:19:23:636 (H:m:s:ms)","GENERIC","62.065","0.0726844105439503","367"
"20:19:29:696 (H:m:s:ms)","GENERIC","62.157","0.07326849356537199","345"
"20:19:35:757 (H:m:s:ms)","GENERIC","62.045","0.07460150791584579","246"
"20:19:41:818 (H:m:s:ms)","GENERIC","62.099","0.07418648130113888","185"
"20:19:47:878 (H:m:s:ms)","GENERIC","62.097","0.07466587232146746","1124"
"20:19:53:939 (H:m:s:ms)","GENERIC","62.059","0.07522256783755246","1064"
"20:8:59:393 (H:m:s:ms)","GENERIC","31.05","0.07868147565214476","649"
"20:9:5:454 (H:m:s:ms)","GENERIC","31.061","0.07939529921963905","549"
"20:9:11:515 (H:m:s:ms)","GENERIC","31.03","0.07937937341273071","489"
"20:9:17:575 (H:m:s:ms)","GENERIC","31.06","0.07937937341273071","429"
"20:9:23:636 (H:m:s:ms)","GENERIC","31.032","0.07804654307835403","368"
"20:9:29:696 (H:m:s:ms)","GENERIC","31.069","0.0774171225949717","347"
"20:9:35:757 (H:m:s:ms)","GENERIC","31.032","0.0774171225949717","247"
"20:9:41:818 (H:m:s:ms)","GENERIC","31.045","0.07893015517781342","185"
"20:9:47:878 (H:m:s:ms)","GENERIC","31.045","0.07892071886326821","126"
"20:9:53:939 (H:m:s:ms)","GENERIC","31.034","0.07892071886326821","1066"
"21:41:6:666 (H:m:s:ms)","GENERIC","62.105","0.08836627016535734","336"
"21:41:0:606 (H:m:s:ms)","GENERIC","62.017","0.08805567180219222","397"
"21:40:54:545 (H:m:s:ms)","GENERIC","62.141","0.08771274373261526","458"
"21:40:48:484 (H:m:s:ms)","GENERIC","62.147","0.08803437190137084","520"
"21:40:42:424 (H:m:s:ms)","GENERIC","62.077","0.08861698368252141","580"
"21:40:36:363 (H:m:s:ms)","GENERIC","62.141","0.08952406931791583","643"
"21:40:30:303 (H:m:s:ms)","GENERIC","62.065","0.08892403847418244","702"
"21:41:24:848 (H:m:s:ms)","GENERIC","62.045","0.08649929542740599","155"
"21:41:18:787 (H:m:s:ms)","GENERIC","62.015","0.08786414117289836","215"
"21:41:12:727 (H:m:s:ms)","GENERIC","62.077","0.08819726614750807","276"
