"time (H:m:s:ms)","type","latency","utilisation","waiting"
"21:42:31:515 (H:m:s:ms)","GENERIC","187.839","0.04594730404799748","487"
"21:42:13:333 (H:m:s:ms)","GENERIC","187.44400000000002","0.04840823481501988","669"
"21:42:7:272 (H:m:s:ms)","GENERIC","187.973","0.04054982542074002","730"
"21:42:1:212 (H:m:s:ms)","GENERIC","187.542","0.045351007218194565","790"
"21:41:55:151 (H:m:s:ms)","GENERIC","188.023","0.0463405787963551","851"
"21:41:49:90 (H:m:s:ms)","GENERIC","187.417","0.04180327259873881","951"
"21:41:43:30 (H:m:s:ms)","GENERIC","187.932","0.043252099031753616","971"
"21:41:36:969 (H:m:s:ms)","GENERIC","187.455","0.048387847765221495","1032"
"21:41:30:909 (H:m:s:ms)","GENERIC","187.93200000000002","0.036220842431082145","1093"
"21:42:25:454 (H:m:s:ms)","GENERIC","187.535","0.042195178553141865","549"
"21:42:19:393 (H:m:s:ms)","GENERIC","187.964","0.04644909965822839","649"
"21:43:38:181 (H:m:s:ms)","GENERIC","187.524","0.04310002307484951","819"
"21:43:32:121 (H:m:s:ms)","GENERIC","187.924","0.033508846702269376","882"
"21:43:20:0 (H:m:s:ms)","GENERIC","187.935","0.045716302189141154","1040"
"20:0:0:0 (H:m:s:ms)","GENERIC","156.892","0.03634789138418073","1639"
"21:43:13:939 (H:m:s:ms)","GENERIC","187.594","0.04403516158349463","1063"
"20:0:6:60 (H:m:s:ms)","GENERIC","156.578","0.040476119613429694","965"
"21:43:7:878 (H:m:s:ms)","GENERIC","187.995","0.031084609922972056","1124"
"20:0:12:121 (H:m:s:ms)","GENERIC","156.888","0.03646397089911444","897"
"21:43:1:818 (H:m:s:ms)","GENERIC","187.638","0.051630187689063016","184"
"20:0:18:181 (H:m:s:ms)","GENERIC","156.465","0.03786733880164513","841"
"21:42:55:757 (H:m:s:ms)","GENERIC","187.897","0.04776574641452264","244"
"20:0:24:242 (H:m:s:ms)","GENERIC","156.907","0.0429736982014981","771"
"21:42:49:696 (H:m:s:ms)","GENERIC","187.65300000000002","0.0383333984527692","345"
"20:0:30:303 (H:m:s:ms)","GENERIC","156.524","0.05127087806478658","708"
"21:42:43:636 (H:m:s:ms)","GENERIC","187.811","0.036902042716427504","366"
"20:0:36:363 (H:m:s:ms)","GENERIC","156.762","0.04201815396822515","652"
"21:42:37:575 (H:m:s:ms)","GENERIC","187.648","0.04315060606218954","427"
"20:0:42:424 (H:m:s:ms)","GENERIC","156.649","0.037866469714613625","587"
"21:10:18:181 (H:m:s:ms)","GENERIC","187.291","0.03857213504815748","821"
"20:0:48:484 (H:m:s:ms)","GENERIC","156.78","0.04033255612896737","529"
"21:10:24:242 (H:m:s:ms)","GENERIC","188.002","0.04197400958338292","760"
"21:10:30:303 (H:m:s:ms)","GENERIC","187.50900000000001","0.04080723451375159","699"
"21:10:36:363 (H:m:s:ms)","GENERIC","187.95600000000002","0.04092177516406195","639"
"21:10:42:424 (H:m:s:ms)","GENERIC","187.611","0.036067423249138496","577"
"21:10:48:484 (H:m:s:ms)","GENERIC","187.991","0.0420790312689412","517"
"21:10:54:545 (H:m:s:ms)","GENERIC","187.46800000000002","0.04624673748727058","457"
"21:11:0:606 (H:m:s:ms)","GENERIC","187.816","0.03727955994490798","396"
"21:43:26:60 (H:m:s:ms)","GENERIC","187.355","0.03612656072215278","943"
"21:11:6:666 (H:m:s:ms)","GENERIC","187.73000000000002","0.03833789204663973","336"
"21:11:12:727 (H:m:s:ms)","GENERIC","187.805","0.04343367733417035","275"
"21:25:45:454 (H:m:s:ms)","GENERIC","187.472","0.05546006416870641","548"
"21:44:44:848 (H:m:s:ms)","GENERIC","188.036","0.04958836293609102","154"
"21:44:38:787 (H:m:s:ms)","GENERIC","187.379","0.048378803910407414","215"
"21:44:32:727 (H:m:s:ms)","GENERIC","187.98","0.042787974643460666","275"
"21:44:26:666 (H:m:s:ms)","GENERIC","187.53900000000002","0.03789028411631391","336"
"21:44:20:606 (H:m:s:ms)","GENERIC","187.913","0.03535204733062878","396"
"21:44:14:545 (H:m:s:ms)","GENERIC","187.539","0.03743105121052236","457"
"21:44:8:484 (H:m:s:ms)","GENERIC","187.871","0.04641594892834445","518"
"21:44:2:424 (H:m:s:ms)","GENERIC","187.75","0.04303735084600088","578"
"21:43:56:363 (H:m:s:ms)","GENERIC","187.85899999999998","0.038253406956140025","639"
"21:43:50:303 (H:m:s:ms)","GENERIC","187.679","0.03974103872857772","700"
"21:11:18:787 (H:m:s:ms)","GENERIC","187.663","0.04306377142893309","215"
"21:43:44:242 (H:m:s:ms)","GENERIC","187.77100000000002","0.041234913550713494","760"
"21:11:24:848 (H:m:s:ms)","GENERIC","187.84","0.04539321865980755","155"
"21:11:30:909 (H:m:s:ms)","GENERIC","187.93","0.020419591993927056","1092"
"21:11:36:969 (H:m:s:ms)","GENERIC","187.479","0.03680806952209303","1032"
"21:11:43:30 (H:m:s:ms)","GENERIC","187.846","0.041945699168846426","971"
"21:11:49:90 (H:m:s:ms)","GENERIC","187.561","0.0462463857586546","949"
"21:11:55:151 (H:m:s:ms)","GENERIC","187.90800000000002","0.03907575677471148","851"
"21:12:1:212 (H:m:s:ms)","GENERIC","187.663","0.033739783590683456","790"
"21:12:7:272 (H:m:s:ms)","GENERIC","187.831","0.04639973137714037","730"
"21:12:13:333 (H:m:s:ms)","GENERIC","187.648","0.047262524760420525","668"
"21:26:21:818 (H:m:s:ms)","GENERIC","187.317","0.057448636265633825","183"
"21:45:51:515 (H:m:s:ms)","GENERIC","187.823","0.045502391745650815","487"
"21:26:19:746 (H:m:s:ms)","OPERA","156.852","0.04821111896276967","295"
"21:45:45:454 (H:m:s:ms)","GENERIC","187.768","0.04318795749867687","548"
"21:45:39:393 (H:m:s:ms)","GENERIC","187.887","0.03987268733705837","649"
"21:45:33:333 (H:m:s:ms)","GENERIC","187.501","0.04728180978324875","669"
"21:26:12:151 (H:m:s:ms)","OPERA","187.965","0.043286029591371684","850"
"21:26:9:696 (H:m:s:ms)","GENERIC","187.58100000000002","0.053158724705071034","344"
"21:45:27:272 (H:m:s:ms)","GENERIC","187.913","0.046189430422106235","731"
"21:26:4:556 (H:m:s:ms)","OPERA","156.875","0.04436984640529603","446"
"21:45:21:212 (H:m:s:ms)","GENERIC","187.457","0.03781353392366708","790"
"21:26:3:636 (H:m:s:ms)","GENERIC","186.47299999999998","0.05274341536432715","366"
"21:45:15:151 (H:m:s:ms)","GENERIC","187.90300000000002","0.043137875134047224","851"
"21:25:57:575 (H:m:s:ms)","GENERIC","187.433","0.054683130887600385","431"
"21:45:9:90 (H:m:s:ms)","GENERIC","187.496","0.040995742730249744","951"
"21:25:56:962 (H:m:s:ms)","OPERA","156.93099999999998","0.04474375198623309","1041"
"21:45:3:30 (H:m:s:ms)","GENERIC","187.932","0.03832438690342355","972"
"21:12:19:393 (H:m:s:ms)","GENERIC","187.837","0.0443595301776702","646"
"21:25:51:515 (H:m:s:ms)","GENERIC","186.663","0.04928789516109737","487"
"21:44:56:969 (H:m:s:ms)","GENERIC","187.526","0.040758796330280275","1033"
"21:12:25:454 (H:m:s:ms)","GENERIC","187.713","0.04847365944575175","548"
"21:25:49:367 (H:m:s:ms)","OPERA","187.93900000000002","0.03987900183341938","676"
"21:44:50:909 (H:m:s:ms)","GENERIC","187.99","0.028823812455879484","1093"
"21:12:31:515 (H:m:s:ms)","GENERIC","187.789","0.0466163106924289","487"
"21:12:37:575 (H:m:s:ms)","GENERIC","187.534","0.039921603569951405","427"
"21:12:43:636 (H:m:s:ms)","GENERIC","187.908","0.03952436210034874","366"
"21:12:49:696 (H:m:s:ms)","GENERIC","187.751","0.04328806876555449","344"
"21:12:55:757 (H:m:s:ms)","GENERIC","187.849","0.04691050077373803","245"
"21:13:1:818 (H:m:s:ms)","GENERIC","187.516","0.042804826733337194","183"
"21:13:7:878 (H:m:s:ms)","GENERIC","188.037","0.03352447820128904","1123"
"21:13:13:939 (H:m:s:ms)","GENERIC","187.386","0.04224460995637869","1063"
"21:26:15:757 (H:m:s:ms)","GENERIC","187.11700000000002","0.05532905833635491","245"
"21:26:58:181 (H:m:s:ms)","GENERIC","187.75","0.04688027516283837","821"
"21:46:58:181 (H:m:s:ms)","GENERIC","187.549","0.051414551350237266","820"
"21:26:57:721 (H:m:s:ms)","OPERA","156.844","0.039661576587701274","280"
"21:46:52:121 (H:m:s:ms)","GENERIC","187.953","0.049147050651514056","881"
"21:26:52:121 (H:m:s:ms)","GENERIC","186.772","0.055492781292787716","880"
"21:46:46:60 (H:m:s:ms)","GENERIC","187.46","0.04582566623149047","942"
"21:46:40:0 (H:m:s:ms)","GENERIC","187.925","0.04380581647277273","1042"
"21:46:33:939 (H:m:s:ms)","GENERIC","187.526","0.04300498538561619","1063"
"21:26:50:126 (H:m:s:ms)","OPERA","187.897","0.04820469735550321","878"
"21:26:46:60 (H:m:s:ms)","GENERIC","187.602","0.05196857398733865","941"
"21:26:42:531 (H:m:s:ms)","OPERA","156.85899999999998","0.0354678680099985","471"
"21:46:27:878 (H:m:s:ms)","GENERIC","187.928","0.035216909677166564","1122"
"21:26:40:0 (H:m:s:ms)","GENERIC","186.666","0.04997575347546391","1041"
"21:46:21:818 (H:m:s:ms)","GENERIC","187.44299999999998","0.0485185297400753","184"
"21:26:34:936 (H:m:s:ms)","OPERA","187.538","0.04047933475392143","1068"
"21:46:15:757 (H:m:s:ms)","GENERIC","187.944","0.041155157679670575","245"
"21:13:20:0 (H:m:s:ms)","GENERIC","187.92000000000002","0.034733606725887094","1041"
"21:26:33:939 (H:m:s:ms)","GENERIC","187.787","0.04727873265454362","1063"
"21:46:9:696 (H:m:s:ms)","GENERIC","187.488","0.03878740609119212","343"
"21:13:26:60 (H:m:s:ms)","GENERIC","187.476","0.04395603551463065","942"
"21:26:27:878 (H:m:s:ms)","GENERIC","187.49200000000002","0.0471596582282128","1126"
"21:46:3:636 (H:m:s:ms)","GENERIC","187.87","0.04274546644593127","365"
"21:13:32:121 (H:m:s:ms)","GENERIC","187.928","0.05007184824165903","880"
"21:26:27:341 (H:m:s:ms)","OPERA","156.9","0.04318951850233027","661"
"21:45:57:575 (H:m:s:ms)","GENERIC","187.7","0.04639154943406427","426"
"21:13:38:181 (H:m:s:ms)","GENERIC","187.482","0.04391342683739457","820"
"21:13:44:242 (H:m:s:ms)","GENERIC","187.79899999999998","0.03990822949082409","760"
"21:13:50:303 (H:m:s:ms)","GENERIC","187.594","0.04660477529704849","699"
"21:13:56:363 (H:m:s:ms)","GENERIC","187.788","0.049417324214968326","639"
"21:14:2:424 (H:m:s:ms)","GENERIC","187.686","0.045231694458161824","578"
"21:14:8:484 (H:m:s:ms)","GENERIC","187.86700000000002","0.04055666338667421","518"
"21:14:14:545 (H:m:s:ms)","GENERIC","187.677","0.03814891608765178","457"
"21:27:35:696 (H:m:s:ms)","OPERA","156.921","0.03843473569777598","305"
"21:48:4:848 (H:m:s:ms)","GENERIC","187.81799999999998","0.04554407552725987","155"
"21:27:34:545 (H:m:s:ms)","GENERIC","186.866","0.0445307564044263","457"
"21:47:58:787 (H:m:s:ms)","GENERIC","187.589","0.04430788194214647","215"
"21:27:28:484 (H:m:s:ms)","GENERIC","187.493","0.051070885693104376","521"
"21:47:52:727 (H:m:s:ms)","GENERIC","187.777","0.04521949373667987","275"
"21:27:28:101 (H:m:s:ms)","OPERA","187.925","0.04171705610849802","901"
"21:47:46:666 (H:m:s:ms)","GENERIC","187.683","0.04039166826232706","335"
"21:47:40:606 (H:m:s:ms)","GENERIC","187.875","0.03807665184756499","395"
"21:47:34:545 (H:m:s:ms)","GENERIC","187.764","0.04353490348343232","457"
"21:27:22:424 (H:m:s:ms)","GENERIC","186.841","0.05775820076148866","578"
"21:27:20:506 (H:m:s:ms)","OPERA","187.937","0.04614989307137689","495"
"21:27:16:363 (H:m:s:ms)","GENERIC","187.601","0.03985414335002392","639"
"21:47:28:484 (H:m:s:ms)","GENERIC","188.032","0.04768917282997968","517"
"21:14:20:606 (H:m:s:ms)","GENERIC","187.87","0.04512330736496714","396"
"21:27:12:911 (H:m:s:ms)","OPERA","156.901","0.028591761164182952","1091"
"21:47:22:424 (H:m:s:ms)","GENERIC","187.698","0.04409798556626058","577"
"21:14:26:666 (H:m:s:ms)","GENERIC","187.723","0.04395184725498386","336"
"21:27:10:303 (H:m:s:ms)","GENERIC","186.787","0.05069304615664136","699"
"21:47:16:363 (H:m:s:ms)","GENERIC","187.841","0.04743816540476509","639"
"20:52:19:393 (H:m:s:ms)","GENERIC","187.781","0.04398650066681403","649"
"21:14:32:727 (H:m:s:ms)","GENERIC","187.937","0.03229631867708332","275"
"21:27:5:316 (H:m:s:ms)","OPERA","187.437","0.04626378277935149","686"
"21:47:10:303 (H:m:s:ms)","GENERIC","187.63","0.049975482889709544","702"
"20:52:25:454 (H:m:s:ms)","GENERIC","187.611","0.04799790175969279","548"
"21:14:38:787 (H:m:s:ms)","GENERIC","187.666","0.03384138277918143","215"
"21:27:4:242 (H:m:s:ms)","GENERIC","188.017","0.04304154320846108","760"
"21:47:4:242 (H:m:s:ms)","GENERIC","187.824","0.045119617907986","760"
"20:52:31:515 (H:m:s:ms)","GENERIC","187.946","0.04530041113090444","487"
"21:14:44:848 (H:m:s:ms)","GENERIC","187.9","0.041590427591072565","154"
"20:52:37:575 (H:m:s:ms)","GENERIC","187.386","0.04702362143400387","426"
"21:14:50:909 (H:m:s:ms)","GENERIC","187.891","0.027890149976028476","1093"
"20:52:43:636 (H:m:s:ms)","GENERIC","187.93900000000002","0.04391501598719374","366"
"21:14:56:969 (H:m:s:ms)","GENERIC","187.567","0.04346929952671953","1033"
"20:52:49:696 (H:m:s:ms)","GENERIC","187.63","0.04153393026798958","348"
"21:15:3:30 (H:m:s:ms)","GENERIC","187.982","0.04581143922262553","972"
"20:52:55:757 (H:m:s:ms)","GENERIC","187.878","0.042068737482732176","245"
"21:15:9:90 (H:m:s:ms)","GENERIC","187.594","0.04204111927647979","948"
"20:53:1:818 (H:m:s:ms)","GENERIC","187.687","0.03795679299183612","184"
"21:15:15:151 (H:m:s:ms)","GENERIC","187.89600000000002","0.04373895696683908","851"
"20:53:7:878 (H:m:s:ms)","GENERIC","187.96","0.03155325898661619","1124"
"20:53:13:939 (H:m:s:ms)","GENERIC","187.409","0.04558431719691904","1063"
"21:28:13:670 (H:m:s:ms)","OPERA","156.91899999999998","0.04188126898866445","332"
"21:49:11:515 (H:m:s:ms)","GENERIC","187.97299999999998","0.043079747637121454","487"
"21:28:10:909 (H:m:s:ms)","GENERIC","187.593","0.03551019738491863","1092"
"21:49:5:454 (H:m:s:ms)","GENERIC","187.357","0.04301224506887264","547"
"21:28:6:75 (H:m:s:ms)","OPERA","156.838","0.0328478968662595","927"
"21:48:59:393 (H:m:s:ms)","GENERIC","187.961","0.040631755292993094","648"
"21:28:4:848 (H:m:s:ms)","GENERIC","187.326","0.05260698066432927","154"
"21:48:53:333 (H:m:s:ms)","GENERIC","187.531","0.044451738015132136","669"
"21:27:58:787 (H:m:s:ms)","GENERIC","187.96","0.04160922924518548","214"
"21:48:47:272 (H:m:s:ms)","GENERIC","187.94400000000002","0.042110438630905675","729"
"21:48:41:212 (H:m:s:ms)","GENERIC","187.302","0.03691420213313509","790"
"21:48:35:151 (H:m:s:ms)","GENERIC","187.99","0.04610572282758305","851"
"21:27:58:481 (H:m:s:ms)","OPERA","155.93099999999998","0.050801527023839374","523"
"21:15:21:212 (H:m:s:ms)","GENERIC","187.608","0.041661960181270996","789"
"21:27:52:727 (H:m:s:ms)","GENERIC","187.361","0.05636563899234998","274"
"21:15:27:272 (H:m:s:ms)","GENERIC","187.95499999999998","0.036921406082841876","729"
"21:27:50:886 (H:m:s:ms)","OPERA","187.898","0.051947228144288676","1116"
"21:48:29:90 (H:m:s:ms)","GENERIC","187.61","0.05138983567304795","950"
"20:53:20:0 (H:m:s:ms)","GENERIC","187.91","0.04964915533022343","1046"
"21:15:33:333 (H:m:s:ms)","GENERIC","187.58100000000002","0.03936012323628795","669"
"21:27:46:666 (H:m:s:ms)","GENERIC","186.972","0.05702091102262845","336"
"21:48:23:30 (H:m:s:ms)","GENERIC","187.93","0.050379475562588455","972"
"20:53:26:60 (H:m:s:ms)","GENERIC","187.413","0.05609895580333377","942"
"21:15:39:393 (H:m:s:ms)","GENERIC","188.013","0.04382856019739731","647"
"21:27:43:291 (H:m:s:ms)","OPERA","156.817","0.041146991678034296","711"
"21:48:16:969 (H:m:s:ms)","GENERIC","187.493","0.045167941182705784","1032"
"20:53:32:121 (H:m:s:ms)","GENERIC","187.86599999999999","0.04608534754647837","881"
"21:15:45:454 (H:m:s:ms)","GENERIC","187.582","0.04707539004729735","548"
"21:27:40:606 (H:m:s:ms)","GENERIC","187.60999999999999","0.04676179529495562","396"
"21:48:10:909 (H:m:s:ms)","GENERIC","187.962","0.025500216378453955","1093"
"20:53:38:181 (H:m:s:ms)","GENERIC","187.528","0.03632161895322653","821"
"21:15:51:515 (H:m:s:ms)","GENERIC","187.939","0.041663899856778076","487"
"20:53:44:242 (H:m:s:ms)","GENERIC","187.88","0.04295869632879325","760"
"21:15:57:575 (H:m:s:ms)","GENERIC","187.601","0.044922217702039705","427"
"20:53:50:303 (H:m:s:ms)","GENERIC","187.504","0.04752452694995376","699"
"21:16:3:636 (H:m:s:ms)","GENERIC","188.022","0.04827629273541752","366"
"20:53:56:363 (H:m:s:ms)","GENERIC","187.95","0.04505324361825707","639"
"21:16:9:696 (H:m:s:ms)","GENERIC","187.555","0.04827984395309462","342"
"20:54:2:424 (H:m:s:ms)","GENERIC","187.611","0.04017797381334513","578"
"21:16:15:757 (H:m:s:ms)","GENERIC","187.92399999999998","0.05132304266603138","244"
"20:54:8:484 (H:m:s:ms)","GENERIC","187.954","0.03768982130388722","518"
"20:54:14:545 (H:m:s:ms)","GENERIC","187.41899999999998","0.03285333798125738","457"
"21:28:51:645 (H:m:s:ms)","OPERA","187.941","0.05164128444964084","356"
"22:4:44:210 (H:m:s:ms)","AMBULANCE","188.00900000000001","0.024929484152499067","792"
"21:28:47:272 (H:m:s:ms)","GENERIC","187.539","0.055397544100229366","730"
"22:2:6:315 (H:m:s:ms)","AMBULANCE","187.971","0.024147696343549192","686"
"21:28:44:50 (H:m:s:ms)","OPERA","156.86","0.04578404420101578","952"
"22:1:34:736 (H:m:s:ms)","AMBULANCE","188.06","0.04157077076654034","266"
"21:28:41:212 (H:m:s:ms)","GENERIC","186.777","0.056061984805437844","790"
"21:50:0:0 (H:m:s:ms)","GENERIC","187.96800000000002","0.04192694296674306","1041"
"21:28:36:455 (H:m:s:ms)","OPERA","156.481","0.04517422588140051","547"
"21:49:53:939 (H:m:s:ms)","GENERIC","187.562","0.04627608849077184","1063"
"21:28:35:151 (H:m:s:ms)","GENERIC","187.981","0.042053276357006154","850"
"21:49:47:878 (H:m:s:ms)","GENERIC","188.04","0.035085508159409674","1124"
"21:49:41:818 (H:m:s:ms)","GENERIC","187.51500000000001","0.051704261149407876","184"
"21:49:35:757 (H:m:s:ms)","GENERIC","187.99599999999998","0.045752393452270834","246"
"21:16:21:818 (H:m:s:ms)","GENERIC","187.582","0.0440737711392097","184"
"21:16:27:878 (H:m:s:ms)","GENERIC","187.954","0.04071982445691545","1125"
"21:28:29:90 (H:m:s:ms)","GENERIC","186.78","0.055272357005041975","949"
"20:54:20:606 (H:m:s:ms)","GENERIC","187.99200000000002","0.043036911834738935","395"
"21:16:33:939 (H:m:s:ms)","GENERIC","187.534","0.04988055921213009","1063"
"21:28:28:860 (H:m:s:ms)","OPERA","187.894","0.049564140982036","141"
"20:54:26:666 (H:m:s:ms)","GENERIC","187.547","0.04538823052571572","335"
"21:16:40:0 (H:m:s:ms)","GENERIC","187.90699999999998","0.04679790347880093","1040"
"21:28:23:30 (H:m:s:ms)","GENERIC","187.41500000000002","0.058555183227647245","971"
"21:49:29:696 (H:m:s:ms)","GENERIC","187.53","0.0374870506536305","346"
"20:54:32:727 (H:m:s:ms)","GENERIC","187.954","0.04041858462107211","275"
"21:16:46:60 (H:m:s:ms)","GENERIC","187.653","0.0455889630300443","942"
"21:28:21:265 (H:m:s:ms)","OPERA","187.924","0.048534174858436044","736"
"21:49:23:636 (H:m:s:ms)","GENERIC","187.829","0.037232735732909625","366"
"20:54:38:787 (H:m:s:ms)","GENERIC","187.523","0.03615881909168669","215"
"21:16:52:121 (H:m:s:ms)","GENERIC","187.949","0.04150288566552168","881"
"21:28:16:969 (H:m:s:ms)","GENERIC","186.591","0.0525144610706074","1033"
"21:49:17:575 (H:m:s:ms)","GENERIC","187.483","0.03668532537946168","426"
"20:54:44:848 (H:m:s:ms)","GENERIC","188.054","0.03820156536653099","154"
"21:16:58:181 (H:m:s:ms)","GENERIC","187.71699999999998","0.04760304846171589","821"
"20:54:50:909 (H:m:s:ms)","GENERIC","187.938","0.02501268778493148","1093"
"21:17:4:242 (H:m:s:ms)","GENERIC","187.901","0.04936397005973277","760"
"20:54:56:969 (H:m:s:ms)","GENERIC","187.427","0.03830999519731562","1033"
"21:17:10:303 (H:m:s:ms)","GENERIC","187.583","0.04544716246092138","699"
"20:55:3:30 (H:m:s:ms)","GENERIC","187.896","0.0429399590665678","972"
"21:17:16:363 (H:m:s:ms)","GENERIC","187.81400000000002","0.04468383215481618","640"
"20:55:9:90 (H:m:s:ms)","GENERIC","187.50099999999998","0.045050103586439315","954"
"20:55:15:151 (H:m:s:ms)","GENERIC","187.97899999999998","0.05054711967799918","851"
"21:29:29:620 (H:m:s:ms)","OPERA","156.912","0.04746749990116602","417"
"21:29:23:636 (H:m:s:ms)","GENERIC","187.526","0.05608046893641868","365"
"21:29:22:25 (H:m:s:ms)","OPERA","156.889","0.04475925643434825","977"
"21:29:17:575 (H:m:s:ms)","GENERIC","186.71800000000002","0.05680149762178534","427"
"21:29:14:430 (H:m:s:ms)","OPERA","187.894","0.04719861445900108","572"
"21:29:11:515 (H:m:s:ms)","GENERIC","187.486","0.057114390166692494","486"
"21:29:6:835 (H:m:s:ms)","OPERA","187.864","0.0406791779148667","167"
"21:17:22:424 (H:m:s:ms)","GENERIC","187.664","0.04340894730399124","578"
"21:17:28:484 (H:m:s:ms)","GENERIC","187.935","0.04185399578414467","518"
"20:55:21:212 (H:m:s:ms)","GENERIC","187.515","0.04936933026997779","790"
"21:17:34:545 (H:m:s:ms)","GENERIC","187.70100000000002","0.04029740522630837","457"
"20:55:27:272 (H:m:s:ms)","GENERIC","187.916","0.04806647464406182","729"
"21:17:40:606 (H:m:s:ms)","GENERIC","187.874","0.0425184086329335","396"
"21:29:5:454 (H:m:s:ms)","GENERIC","186.631","0.04389615808978823","550"
"20:55:33:333 (H:m:s:ms)","GENERIC","187.438","0.05290322951320239","668"
"21:17:46:666 (H:m:s:ms)","GENERIC","187.57","0.04515262461180973","336"
"21:28:59:393 (H:m:s:ms)","GENERIC","187.49900000000002","0.04998807574088996","647"
"20:55:39:393 (H:m:s:ms)","GENERIC","187.837","0.049966504611429416","654"
"21:17:52:727 (H:m:s:ms)","GENERIC","187.805","0.0434559733714598","275"
"21:28:59:240 (H:m:s:ms)","OPERA","156.851","0.044103386223691","798"
"22:8:25:263 (H:m:s:ms)","AMBULANCE","187.962","0.02937407335864013","739"
"20:55:45:454 (H:m:s:ms)","GENERIC","187.798","0.04462699792606219","548"
"21:17:58:787 (H:m:s:ms)","GENERIC","187.59","0.04580746071757063","214"
"21:28:53:333 (H:m:s:ms)","GENERIC","186.735","0.06224484446613289","668"
"22:6:18:947 (H:m:s:ms)","AMBULANCE","187.962","0.025436514499077238","1060"
"20:55:51:515 (H:m:s:ms)","GENERIC","187.815","0.042027494823254116","487"
"21:18:4:848 (H:m:s:ms)","GENERIC","187.852","0.04975797313114888","154"
"20:55:57:575 (H:m:s:ms)","GENERIC","187.727","0.03960436154017019","426"
"21:18:10:909 (H:m:s:ms)","GENERIC","187.949","0.026765141136739834","1093"
"20:56:3:636 (H:m:s:ms)","GENERIC","188.068","0.047122734827478856","366"
"21:18:16:969 (H:m:s:ms)","GENERIC","187.46300000000002","0.040932023214993105","1033"
"20:56:9:696 (H:m:s:ms)","GENERIC","187.558","0.05276016445396459","349"
"20:56:15:757 (H:m:s:ms)","GENERIC","187.854","0.04809409301689793","245"
"21:30:0:0 (H:m:s:ms)","GENERIC","187.512","0.06030985015470343","1044"
"21:30:0:0 (H:m:s:ms)","AMBULANCE","187.628","0.051410773220670454","1041"
"21:30:0:0 (H:m:s:ms)","OPERA","187.902","0.04478468933502511","1038"
"21:29:53:939 (H:m:s:ms)","GENERIC","186.817","0.05246773331329112","1063"
"21:29:52:405 (H:m:s:ms)","OPERA","156.877","0.04069535077078582","597"
"21:29:47:878 (H:m:s:ms)","GENERIC","187.45499999999998","0.043001889033764895","1124"
"21:29:44:810 (H:m:s:ms)","OPERA","156.861","0.04604851875503584","193"
"21:29:41:818 (H:m:s:ms)","GENERIC","186.838","0.051101639796444644","184"
"21:18:23:30 (H:m:s:ms)","GENERIC","188.02100000000002","0.04246644989505362","972"
"21:18:29:90 (H:m:s:ms)","GENERIC","187.75900000000001","0.04524257260059538","952"
"20:56:21:818 (H:m:s:ms)","GENERIC","187.752","0.05044457526774992","184"
"21:18:35:151 (H:m:s:ms)","GENERIC","187.996","0.050609758629664284","851"
"20:56:27:878 (H:m:s:ms)","GENERIC","187.92700000000002","0.034640690436348535","1124"
"21:18:41:212 (H:m:s:ms)","GENERIC","187.652","0.047640977567358245","790"
"20:40:0:0 (H:m:s:ms)","OPERA","156.874","0.04745468514294441","1470"
"20:56:33:939 (H:m:s:ms)","GENERIC","187.467","0.04386645010866108","1063"
"21:18:47:272 (H:m:s:ms)","GENERIC","187.813","0.04420447690937865","729"
"20:40:0:0 (H:m:s:ms)","GENERIC","186.828","0.05397688739684009","1473"
"20:56:40:0 (H:m:s:ms)","GENERIC","187.977","0.03947584346170543","1046"
"21:18:53:333 (H:m:s:ms)","GENERIC","187.60000000000002","0.04420447690937865","668"
"21:29:37:215 (H:m:s:ms)","OPERA","187.921","0.03917457813688169","786"
"20:40:0:0 (H:m:s:ms)","GENERIC","187.68900000000002","0.05721195438675136","1475"
"20:56:46:60 (H:m:s:ms)","GENERIC","187.63400000000001","0.03936057878282677","941"
"21:18:59:393 (H:m:s:ms)","GENERIC","187.83100000000002","0.04094217266305862","647"
"21:29:35:757 (H:m:s:ms)","GENERIC","187.638","0.051560794622277126","244"
"20:40:6:60 (H:m:s:ms)","GENERIC","187.586","0.05713744460143214","942"
"20:56:52:121 (H:m:s:ms)","GENERIC","187.839","0.0346079613569344","881"
"21:19:5:454 (H:m:s:ms)","GENERIC","187.552","0.049535897191503094","547"
"21:29:29:696 (H:m:s:ms)","GENERIC","186.881","0.053690235692563794","343"
"20:40:7:594 (H:m:s:ms)","OPERA","156.89","0.035059014870307804","408"
"20:56:58:181 (H:m:s:ms)","GENERIC","187.78300000000002","0.043516450419836795","821"
"21:19:11:515 (H:m:s:ms)","GENERIC","187.911","0.049267772183333176","487"
"20:40:12:121 (H:m:s:ms)","GENERIC","186.709","0.04985060905659866","881"
"20:57:4:242 (H:m:s:ms)","GENERIC","187.838","0.04669144640752157","761"
"21:19:17:575 (H:m:s:ms)","GENERIC","187.637","0.048522599653257704","426"
"20:40:15:189 (H:m:s:ms)","OPERA","156.902","0.04718994980898889","813"
"20:57:10:303 (H:m:s:ms)","GENERIC","187.72","0.040892716330444626","699"
"20:40:18:181 (H:m:s:ms)","GENERIC","187.429","0.05895818188470189","820"
"20:57:16:363 (H:m:s:ms)","GENERIC","187.838","0.04130363885662749","639"
"20:40:22:784 (H:m:s:ms)","OPERA","156.856","0.04783146181187628","219"
"20:40:24:242 (H:m:s:ms)","GENERIC","186.853","0.056449210297960635","761"
"21:30:12:121 (H:m:s:ms)","GENERIC","187.974","0.051925180066942606","881"
"21:30:54:545 (H:m:s:ms)","GENERIC","187.94799999999998","0.036420658929359716","458"
"21:30:48:484 (H:m:s:ms)","GENERIC","187.595","0.04655483770949424","518"
"21:30:42:424 (H:m:s:ms)","GENERIC","187.982","0.0463693982862172","578"
"21:30:36:363 (H:m:s:ms)","GENERIC","186.67000000000002","0.05351221625084901","639"
"21:30:31:578 (H:m:s:ms)","AMBULANCE","187.962","0.04403822346595487","424"
"21:30:30:303 (H:m:s:ms)","GENERIC","187.482","0.04614620867276706","699"
"21:30:24:242 (H:m:s:ms)","GENERIC","188.024","0.046377222163985245","760"
"21:19:23:636 (H:m:s:ms)","GENERIC","187.833","0.04421837813350842","366"
"21:30:18:181 (H:m:s:ms)","GENERIC","187.406","0.04513927850940395","821"
"21:19:29:696 (H:m:s:ms)","GENERIC","187.668","0.038182642254119326","342"
"20:57:22:424 (H:m:s:ms)","GENERIC","187.618","0.041034209715608415","578"
"21:19:35:757 (H:m:s:ms)","GENERIC","187.901","0.039625250233409265","245"
"20:57:28:484 (H:m:s:ms)","GENERIC","187.89600000000002","0.042047124826027016","517"
"21:19:41:818 (H:m:s:ms)","GENERIC","187.621","0.03433805858321531","184"
"20:40:30:303 (H:m:s:ms)","GENERIC","188.074","0.04689791512124351","699"
"20:57:34:545 (H:m:s:ms)","GENERIC","187.558","0.04633170075561307","457"
"21:19:47:878 (H:m:s:ms)","GENERIC","188.012","0.031784216682592493","1124"
"20:40:30:379 (H:m:s:ms)","OPERA","156.44400000000002","0.05632354928204317","626"
"20:57:40:606 (H:m:s:ms)","GENERIC","187.90200000000002","0.04605931953769487","396"
"21:19:53:939 (H:m:s:ms)","GENERIC","187.498","0.03773249897949808","1063"
"20:40:36:363 (H:m:s:ms)","GENERIC","186.821","0.055164570410216655","639"
"20:57:46:666 (H:m:s:ms)","GENERIC","187.637","0.04518418588027952","335"
"21:20:0:0 (H:m:s:ms)","OPERA","187.827","0.038736196534955684","1466"
"20:40:37:974 (H:m:s:ms)","OPERA","156.857","0.04525280789586476","1028"
"20:57:52:727 (H:m:s:ms)","GENERIC","187.84799999999998","0.048385782412795425","274"
"21:20:0:0 (H:m:s:ms)","GENERIC","186.956","0.04438762026596575","1470"
"21:30:6:60 (H:m:s:ms)","GENERIC","186.75900000000001","0.06772882544154359","942"
"20:40:42:424 (H:m:s:ms)","GENERIC","187.61","0.050644643705251575","578"
"20:57:58:787 (H:m:s:ms)","GENERIC","187.631","0.051515869520374236","214"
"21:20:0:0 (H:m:s:ms)","GENERIC","188.24200000000002","0.05681634369336553","1474"
"21:30:0:0 (H:m:s:ms)","GENERIC","187.959","0.06664755312142964","1047"
"20:40:45:569 (H:m:s:ms)","OPERA","156.782","0.03393583602992478","433"
"20:58:4:848 (H:m:s:ms)","GENERIC","187.94","0.04945143573038878","154"
"21:20:6:60 (H:m:s:ms)","GENERIC","187.483","0.0638591632433571","942"
"20:40:48:484 (H:m:s:ms)","GENERIC","187.192","0.049358615376158765","518"
"20:58:10:909 (H:m:s:ms)","GENERIC","187.902","0.03092174202090191","1093"
"20:40:53:164 (H:m:s:ms)","OPERA","156.888","0.0423087608653872","838"
"20:58:16:969 (H:m:s:ms)","GENERIC","187.574","0.04621354008796936","1033"
"20:40:54:545 (H:m:s:ms)","GENERIC","187.356","0.05075768904381446","457"
"20:41:0:606 (H:m:s:ms)","GENERIC","187.947","0.03866777036831637","396"
"21:31:6:666 (H:m:s:ms)","GENERIC","186.702","0.054740816716205336","335"
"21:31:3:157 (H:m:s:ms)","AMBULANCE","188.036","0.04316086865945342","845"
"21:31:49:90 (H:m:s:ms)","GENERIC","187.558","0.04459765245138879","947"
"21:31:43:30 (H:m:s:ms)","GENERIC","187.973","0.03778043565804766","971"
"21:31:36:969 (H:m:s:ms)","GENERIC","186.746","0.04474938015490387","1033"
"21:31:34:736 (H:m:s:ms)","AMBULANCE","187.605","0.03611709814573126","266"
"21:31:30:909 (H:m:s:ms)","GENERIC","187.899","0.025068842288453512","1093"
"21:31:24:848 (H:m:s:ms)","GENERIC","187.90300000000002","0.036996637567805024","154"
"21:31:18:787 (H:m:s:ms)","GENERIC","187.575","0.04182383055143695","215"
"21:31:12:727 (H:m:s:ms)","GENERIC","187.947","0.04995201407537839","275"
"20:58:23:30 (H:m:s:ms)","GENERIC","188.034","0.044908762734600254","971"
"20:58:29:90 (H:m:s:ms)","GENERIC","187.413","0.04054813742995844","957"
"20:41:0:759 (H:m:s:ms)","OPERA","155.93200000000002","0.055095920914129924","246"
"20:58:35:151 (H:m:s:ms)","GENERIC","187.957","0.04203844662866247","850"
"20:41:6:666 (H:m:s:ms)","GENERIC","187.40800000000002","0.05602101175944146","336"
"20:58:41:212 (H:m:s:ms)","GENERIC","187.595","0.046089381919064955","790"
"20:41:8:354 (H:m:s:ms)","OPERA","156.874","0.039513710328681846","648"
"20:58:47:272 (H:m:s:ms)","GENERIC","187.978","0.04397136512851649","730"
"20:41:12:727 (H:m:s:ms)","GENERIC","187.055","0.04621361125933082","275"
"20:58:53:333 (H:m:s:ms)","GENERIC","187.526","0.041638920873494294","669"
"20:41:18:787 (H:m:s:ms)","GENERIC","187.977","0.04021335334616495","215"
"20:58:59:393 (H:m:s:ms)","GENERIC","187.97199999999998","0.048911285106228226","654"
"20:41:23:544 (H:m:s:ms)","OPERA","156.34","0.03646587685702673","458"
"20:59:5:454 (H:m:s:ms)","GENERIC","187.406","0.04775193213621263","548"
"21:31:0:606 (H:m:s:ms)","GENERIC","187.666","0.03521511989181926","396"
"20:41:24:848 (H:m:s:ms)","GENERIC","186.874","0.04628475357105664","154"
"20:59:11:515 (H:m:s:ms)","GENERIC","188.032","0.03604401219803777","487"
"20:41:30:909 (H:m:s:ms)","GENERIC","187.865","0.02785085026231687","1093"
"20:59:17:575 (H:m:s:ms)","GENERIC","187.50900000000001","0.03659685461187998","427"
"20:41:31:139 (H:m:s:ms)","OPERA","156.349","0.03955229329588612","866"
"20:41:36:969 (H:m:s:ms)","GENERIC","186.704","0.04803240912090395","1033"
"20:59:23:636 (H:m:s:ms)","GENERIC","187.962","0.04202735075619488","366"
"20:59:29:696 (H:m:s:ms)","GENERIC","187.461","0.040690874485629386","352"
"20:41:38:734 (H:m:s:ms)","OPERA","156.925","0.044958574500503355","268"
"20:59:35:757 (H:m:s:ms)","GENERIC","188.012","0.03529988719867949","245"
"20:41:43:30 (H:m:s:ms)","GENERIC","187.54399999999998","0.05641122370332892","972"
"20:59:41:818 (H:m:s:ms)","GENERIC","187.596","0.03796982769349647","184"
"20:41:46:329 (H:m:s:ms)","OPERA","156.9","0.046509348157875004","673"
"20:59:47:878 (H:m:s:ms)","GENERIC","188.03900000000002","0.04071982445691545","1124"
"20:41:49:90 (H:m:s:ms)","GENERIC","186.778","0.05242311148017289","949"
"20:59:53:939 (H:m:s:ms)","GENERIC","187.44299999999998","0.048745889767122595","1063"
"20:41:53:924 (H:m:s:ms)","OPERA","156.87","0.03892580730497809","1078"
"21:0:0:0 (H:m:s:ms)","AMBULANCE","156.97","0.03955029405305237","1489"
"20:41:55:151 (H:m:s:ms)","GENERIC","187.599","0.051624971522982815","851"
"21:0:0:0 (H:m:s:ms)","GENERIC","186.933","0.04835714491306866","1492"
"20:42:1:212 (H:m:s:ms)","GENERIC","187.949","0.04638593165634478","789"
"21:0:0:0 (H:m:s:ms)","GENERIC","187.887","0.055941580866011836","1494"
"20:42:1:518 (H:m:s:ms)","OPERA","155.607","0.053793772778855456","486"
"21:0:6:60 (H:m:s:ms)","GENERIC","187.567","0.056953926069559596","942"
"20:42:7:272 (H:m:s:ms)","GENERIC","187.543","0.057203769234963696","730"
"20:42:13:333 (H:m:s:ms)","GENERIC","187.992","0.04852283083245529","669"
"21:0:12:121 (H:m:s:ms)","GENERIC","188.035","0.04403361095229776","880"
"21:0:18:181 (H:m:s:ms)","GENERIC","187.66500000000002","0.04318243204952774","820"
"20:42:16:708 (H:m:s:ms)","OPERA","156.546","0.04750971048783967","293"
"21:0:24:242 (H:m:s:ms)","GENERIC","187.882","0.037592292612604106","760"
"20:42:19:393 (H:m:s:ms)","GENERIC","186.774","0.054054732450906876","649"
"21:0:30:303 (H:m:s:ms)","GENERIC","187.527","0.03550610908372191","699"
"20:20:0:0 (H:m:s:ms)","GENERIC","187.947","0.049670255746051696","1516"
"20:42:24:303 (H:m:s:ms)","OPERA","156.85899999999998","0.03835814218083919","699"
"21:0:31:578 (H:m:s:ms)","AMBULANCE","156.93800000000002","0.038273786043469364","424"
"20:20:0:0 (H:m:s:ms)","GENERIC","186.90800000000002","0.058154364268430264","1519"
"20:42:25:454 (H:m:s:ms)","GENERIC","187.553","0.05211156227641685","548"
"21:0:36:363 (H:m:s:ms)","GENERIC","186.656","0.05062031469815139","639"
"20:20:6:60 (H:m:s:ms)","GENERIC","187.562","0.06112464672403368","943"
"20:42:31:515 (H:m:s:ms)","GENERIC","187.937","0.050540297508152","487"
"21:0:42:424 (H:m:s:ms)","GENERIC","188.028","0.03866554084469467","578"
"20:20:12:121 (H:m:s:ms)","GENERIC","187.825","0.041236589875756825","881"
"20:42:31:898 (H:m:s:ms)","OPERA","155.514","0.05238302147651564","106"
"21:0:48:484 (H:m:s:ms)","GENERIC","187.64000000000001","0.03781462033511537","518"
"20:20:18:181 (H:m:s:ms)","GENERIC","187.56900000000002","0.03978639089540753","821"
"20:42:37:575 (H:m:s:ms)","GENERIC","187.509","0.04958343301361153","427"
"21:0:54:545 (H:m:s:ms)","GENERIC","187.964","0.04813196995292437","457"
"20:20:24:242 (H:m:s:ms)","GENERIC","187.841","0.04550355012519553","761"
"20:42:39:493 (H:m:s:ms)","OPERA","156.936","0.04923454127729735","549"
"21:1:0:606 (H:m:s:ms)","GENERIC","187.619","0.04501243786914346","396"
"20:20:30:303 (H:m:s:ms)","GENERIC","187.647","0.05266272593338906","700"
"20:42:43:636 (H:m:s:ms)","GENERIC","186.856","0.05777524154041565","365"
"20:20:36:363 (H:m:s:ms)","GENERIC","187.763","0.05269572006144075","639"
"20:42:47:88 (H:m:s:ms)","OPERA","156.914","0.04355895083835329","914"
"20:20:42:424 (H:m:s:ms)","GENERIC","187.596","0.04991727910531588","578"
"20:20:48:484 (H:m:s:ms)","GENERIC","187.799","0.049895207384113203","518"
"21:1:3:157 (H:m:s:ms)","AMBULANCE","156.912","0.04651048127590604","845"
"21:1:6:666 (H:m:s:ms)","GENERIC","186.78","0.0523560217307141","336"
"20:42:49:696 (H:m:s:ms)","GENERIC","187.487","0.054514656520436404","346"
"21:1:12:727 (H:m:s:ms)","GENERIC","187.885","0.04264154321160672","275"
"20:42:54:683 (H:m:s:ms)","OPERA","156.93099999999998","0.05255968719966302","319"
"21:1:18:787 (H:m:s:ms)","GENERIC","187.419","0.04582464093983064","215"
"20:20:54:545 (H:m:s:ms)","GENERIC","187.553","0.045626525019937816","457"
"20:42:55:757 (H:m:s:ms)","GENERIC","186.822","0.06128853949733512","244"
"21:1:24:848 (H:m:s:ms)","GENERIC","187.95100000000002","0.03786602455651502","154"
"20:21:0:606 (H:m:s:ms)","GENERIC","187.899","0.04286585329818606","396"
"20:43:1:818 (H:m:s:ms)","GENERIC","188.006","0.05097944150971682","184"
"21:1:30:909 (H:m:s:ms)","GENERIC","187.97","0.03184936263833342","1093"
"20:21:6:666 (H:m:s:ms)","GENERIC","187.364","0.032715801519544035","336"
"20:43:2:278 (H:m:s:ms)","OPERA","156.358","0.04964008240396939","724"
"21:1:34:736 (H:m:s:ms)","AMBULANCE","156.472","0.0451577405913489","267"
"20:21:12:727 (H:m:s:ms)","GENERIC","187.999","0.03281277870843175","276"
"20:43:7:878 (H:m:s:ms)","GENERIC","187.947","0.045227338386810936","1124"
"21:1:36:969 (H:m:s:ms)","GENERIC","186.70499999999998","0.05402274518832365","1032"
"20:21:18:787 (H:m:s:ms)","GENERIC","187.779","0.046295032528432145","215"
"20:43:9:873 (H:m:s:ms)","OPERA","156.506","0.04301898851283213","169"
"21:1:43:30 (H:m:s:ms)","GENERIC","187.945","0.038453495415225865","972"
"20:21:24:848 (H:m:s:ms)","GENERIC","187.851","0.041959316784361544","154"
"20:43:13:939 (H:m:s:ms)","GENERIC","186.661","0.048823648219715014","1064"
"21:1:49:90 (H:m:s:ms)","GENERIC","187.52499999999998","0.03381883404008084","952"
"20:21:30:909 (H:m:s:ms)","GENERIC","187.933","0.03475496493269969","1093"
"20:43:17:468 (H:m:s:ms)","OPERA","156.91500000000002","0.04908881489371034","533"
"20:21:36:969 (H:m:s:ms)","GENERIC","187.65","0.04704431960305437","1033"
"20:43:20:0 (H:m:s:ms)","GENERIC","187.495","0.05958937904266984","1044"
"20:21:43:30 (H:m:s:ms)","GENERIC","187.935","0.04203102854426638","972"
"20:21:49:90 (H:m:s:ms)","GENERIC","187.454","0.03991480101912924","949"
"20:43:25:63 (H:m:s:ms)","OPERA","156.858","0.04852637638716742","939"
"20:43:26:60 (H:m:s:ms)","GENERIC","186.80599999999998","0.05265292087591812","941"
"20:21:55:151 (H:m:s:ms)","GENERIC","188.041","0.0393893740736174","852"
"20:43:32:121 (H:m:s:ms)","GENERIC","187.938","0.033213799743991794","881"
"20:22:1:212 (H:m:s:ms)","GENERIC","187.406","0.04304403925104747","791"
"20:43:32:658 (H:m:s:ms)","OPERA","156.18099999999998","0.04474931998595572","347"
"20:22:7:272 (H:m:s:ms)","GENERIC","187.946","0.04079761523687294","730"
"20:43:38:181 (H:m:s:ms)","GENERIC","187.019","0.05236475340984308","821"
"20:22:13:333 (H:m:s:ms)","GENERIC","187.452","0.043939035891381734","669"
"20:43:40:253 (H:m:s:ms)","OPERA","156.906","0.03930086354083845","749"
"20:22:19:393 (H:m:s:ms)","GENERIC","187.939","0.044141249334789835","645"
"20:43:44:242 (H:m:s:ms)","GENERIC","187.072","0.053816397511752406","760"
"20:22:25:454 (H:m:s:ms)","GENERIC","187.44299999999998","0.03686432742065864","548"
"20:43:47:848 (H:m:s:ms)","OPERA","156.90800000000002","0.04695116857918506","154"
"20:22:31:515 (H:m:s:ms)","GENERIC","187.817","0.04148184084509928","487"
"20:43:50:303 (H:m:s:ms)","GENERIC","186.868","0.06050305856389191","699"
"20:22:37:575 (H:m:s:ms)","GENERIC","187.6","0.04168794223534165","427"
"20:43:55:443 (H:m:s:ms)","OPERA","156.882","0.05779641502999218","558"
"20:22:43:636 (H:m:s:ms)","GENERIC","187.849","0.038394660613710725","366"
"20:22:49:696 (H:m:s:ms)","GENERIC","187.77800000000002","0.03998032687055507","343"
"20:43:56:363 (H:m:s:ms)","GENERIC","187.237","0.06678301367084089","638"
"20:44:2:424 (H:m:s:ms)","GENERIC","188.003","0.052153702742224355","578"
"20:22:55:757 (H:m:s:ms)","GENERIC","187.813","0.040046378565738616","245"
"20:44:8:484 (H:m:s:ms)","GENERIC","187.526","0.05661946102190848","518"
"20:23:1:818 (H:m:s:ms)","GENERIC","187.59199999999998","0.041555625491211126","184"
"20:44:10:632 (H:m:s:ms)","OPERA","156.871","0.05582049265092875","370"
"20:23:7:878 (H:m:s:ms)","GENERIC","188.046","0.02847290559362471","1124"
"20:44:14:545 (H:m:s:ms)","GENERIC","186.784","0.06381433088348196","458"
"20:23:13:939 (H:m:s:ms)","GENERIC","187.38400000000001","0.039192929142083804","1064"
"20:44:18:227 (H:m:s:ms)","OPERA","156.881","0.04652995376542778","774"
"20:23:20:0 (H:m:s:ms)","GENERIC","187.918","0.043415651130759146","1040"
"20:44:20:606 (H:m:s:ms)","GENERIC","187.43","0.056089006304935365","396"
"20:23:26:60 (H:m:s:ms)","GENERIC","187.57","0.05180229772735603","942"
"20:44:25:822 (H:m:s:ms)","OPERA","156.734","0.044647716087509046","180"
"20:23:32:121 (H:m:s:ms)","GENERIC","187.946","0.04840272804370922","881"
"20:44:26:666 (H:m:s:ms)","GENERIC","187.059","0.05276661982667691","336"
"20:23:38:181 (H:m:s:ms)","GENERIC","187.389","0.03821648420382489","821"
"20:44:32:727 (H:m:s:ms)","GENERIC","188.079","0.03980356649643119","275"
"20:23:44:242 (H:m:s:ms)","GENERIC","187.915","0.04770443022418942","760"
"20:23:50:303 (H:m:s:ms)","GENERIC","187.417","0.04547166791227397","699"
"20:44:33:417 (H:m:s:ms)","OPERA","156.459","0.05025137881112873","584"
"20:44:38:787 (H:m:s:ms)","GENERIC","186.64600000000002","0.060156945835903246","214"
"20:23:56:363 (H:m:s:ms)","GENERIC","187.894","0.03941825848745239","639"
"20:44:41:12 (H:m:s:ms)","OPERA","156.888","0.05253182667890527","990"
"20:24:2:424 (H:m:s:ms)","GENERIC","187.566","0.040740216793009536","578"
"20:44:44:848 (H:m:s:ms)","GENERIC","187.549","0.05940592257108621","154"
"20:24:8:484 (H:m:s:ms)","GENERIC","188.012","0.032566794408806846","519"
"20:44:48:607 (H:m:s:ms)","OPERA","156.918","0.04510668844763098","395"
"20:24:14:545 (H:m:s:ms)","GENERIC","187.4","0.039487895173989256","458"
"20:44:50:909 (H:m:s:ms)","GENERIC","187.464","0.04712632620087794","1093"
"20:24:20:606 (H:m:s:ms)","GENERIC","187.981","0.04077604385630605","396"
"20:44:56:202 (H:m:s:ms)","OPERA","156.922","0.042935439250982775","800"
"20:24:26:666 (H:m:s:ms)","GENERIC","187.458","0.039096924823122006","336"
"20:44:56:969 (H:m:s:ms)","GENERIC","186.637","0.05384709103806173","1035"
"20:24:32:727 (H:m:s:ms)","GENERIC","188.01","0.04587150597084701","276"
"20:45:3:30 (H:m:s:ms)","GENERIC","187.865","0.049167219083200944","972"
"20:24:38:787 (H:m:s:ms)","GENERIC","187.45499999999998","0.047147083845249245","215"
"20:45:3:797 (H:m:s:ms)","OPERA","156.352","0.05657798306765619","207"
"20:24:44:848 (H:m:s:ms)","GENERIC","188.008","0.04178870350679957","154"
"20:24:50:909 (H:m:s:ms)","GENERIC","187.946","0.03338376986590983","1093"
"20:45:9:90 (H:m:s:ms)","GENERIC","186.747","0.05621595198898553","952"
"20:45:11:392 (H:m:s:ms)","OPERA","156.907","0.042207283998997466","610"
"20:24:56:969 (H:m:s:ms)","GENERIC","187.429","0.04937701058979066","1033"
"20:45:15:151 (H:m:s:ms)","GENERIC","187.478","0.05154256608317714","851"
"20:25:3:30 (H:m:s:ms)","GENERIC","187.93900000000002","0.05345880177365461","971"
"20:45:18:987 (H:m:s:ms)","OPERA","156.804","0.043255015346635214","1053"
"20:25:9:90 (H:m:s:ms)","GENERIC","187.468","0.04766632515364791","947"
"20:45:21:212 (H:m:s:ms)","GENERIC","186.976","0.05832469942056887","790"
"20:25:15:151 (H:m:s:ms)","GENERIC","187.936","0.03703189854454945","851"
"20:45:26:582 (H:m:s:ms)","OPERA","156.918","0.04850251851701897","420"
"20:25:21:212 (H:m:s:ms)","GENERIC","187.393","0.04060526077173381","790"
"20:45:27:272 (H:m:s:ms)","GENERIC","187.35500000000002","0.053996672858730395","729"
"20:25:27:272 (H:m:s:ms)","GENERIC","187.985","0.04832138869862869","729"
"20:45:33:333 (H:m:s:ms)","GENERIC","187.982","0.04155381634746099","669"
"20:25:33:333 (H:m:s:ms)","GENERIC","187.552","0.04965273958784964","669"
"20:45:34:177 (H:m:s:ms)","OPERA","156.43900000000002","0.04763372646772003","825"
"20:25:39:393 (H:m:s:ms)","GENERIC","187.88400000000001","0.04855897126325921","654"
"20:45:39:393 (H:m:s:ms)","GENERIC","186.685","0.056034349542102596","648"
"20:25:45:454 (H:m:s:ms)","GENERIC","187.661","0.053041294586882164","548"
"20:25:51:515 (H:m:s:ms)","GENERIC","187.865","0.051481516122932544","488"
"20:25:57:575 (H:m:s:ms)","GENERIC","187.784","0.04753492678668924","427"
"20:26:3:636 (H:m:s:ms)","GENERIC","187.81799999999998","0.04558992347101384","367"
"20:26:9:696 (H:m:s:ms)","GENERIC","187.689","0.04323856274923925","345"
"20:26:15:757 (H:m:s:ms)","GENERIC","187.893","0.04410415328626705","245"
"20:26:21:818 (H:m:s:ms)","GENERIC","187.736","0.04931553856768323","184"
"20:26:27:878 (H:m:s:ms)","GENERIC","187.928","0.019494364909615265","1124"
"20:26:33:939 (H:m:s:ms)","GENERIC","187.512","0.03428853423063528","1063"
"20:26:40:0 (H:m:s:ms)","GENERIC","187.94799999999998","0.03786499785899904","1041"
"20:26:46:60 (H:m:s:ms)","GENERIC","187.619","0.03356195450312032","942"
"20:26:52:121 (H:m:s:ms)","GENERIC","187.988","0.03913347317685686","882"
"20:26:58:181 (H:m:s:ms)","GENERIC","187.613","0.0483228495272717","822"
"20:27:4:242 (H:m:s:ms)","GENERIC","187.939","0.05056138881947061","761"
"20:27:10:303 (H:m:s:ms)","GENERIC","187.50799999999998","0.045370634245698996","699"
"20:27:16:363 (H:m:s:ms)","GENERIC","187.939","0.042848507468468154","639"
"20:27:22:424 (H:m:s:ms)","GENERIC","187.497","0.045088912022523436","578"
"20:27:28:484 (H:m:s:ms)","GENERIC","188.06","0.04054044360070267","518"
"20:27:34:545 (H:m:s:ms)","GENERIC","187.482","0.043028918156558904","457"
"20:27:40:606 (H:m:s:ms)","GENERIC","188.052","0.0452042626486126","396"
"20:27:46:666 (H:m:s:ms)","GENERIC","187.38299999999998","0.04147448589590896","335"
"20:27:52:727 (H:m:s:ms)","GENERIC","187.999","0.04238280464164836","275"
"20:27:58:787 (H:m:s:ms)","GENERIC","187.626","0.04492357966954534","215"
"20:28:4:848 (H:m:s:ms)","GENERIC","187.948","0.042927028527158656","154"
"20:28:10:909 (H:m:s:ms)","GENERIC","187.949","0.033794609802152674","1093"
"20:28:16:969 (H:m:s:ms)","GENERIC","187.381","0.045419805596572334","1032"
"20:28:23:30 (H:m:s:ms)","GENERIC","188.041","0.04223842776546027","972"
"20:28:29:90 (H:m:s:ms)","GENERIC","187.505","0.044475658584357","947"
"20:28:35:151 (H:m:s:ms)","GENERIC","187.789","0.04486780956646104","851"
"20:28:41:212 (H:m:s:ms)","GENERIC","187.566","0.04372610833736027","790"
"20:28:47:272 (H:m:s:ms)","GENERIC","187.814","0.04445705823291602","731"
"20:28:53:333 (H:m:s:ms)","GENERIC","187.704","0.05414706910403593","669"
"20:28:59:393 (H:m:s:ms)","GENERIC","187.87900000000002","0.05223339897010906","646"
"20:29:5:454 (H:m:s:ms)","GENERIC","187.627","0.04716894399314879","548"
"20:29:11:515 (H:m:s:ms)","GENERIC","187.90800000000002","0.04719041408518996","487"
"20:29:17:575 (H:m:s:ms)","GENERIC","187.622","0.04387802530059835","427"
"20:29:23:636 (H:m:s:ms)","GENERIC","187.835","0.04636527242278228","366"
"20:29:29:696 (H:m:s:ms)","GENERIC","187.587","0.05151586952037422","342"
"20:29:35:757 (H:m:s:ms)","GENERIC","187.958","0.051571578478809194","245"
"20:29:41:818 (H:m:s:ms)","GENERIC","187.707","0.04770520240775882","184"
"20:29:47:878 (H:m:s:ms)","GENERIC","187.978","0.031784216682592493","1124"
"20:29:53:939 (H:m:s:ms)","GENERIC","187.579","0.04835581841423245","1064"
"21:20:7:594 (H:m:s:ms)","OPERA","156.877","0.04868578204272243","408"
"21:20:12:121 (H:m:s:ms)","GENERIC","186.793","0.052862807735779595","881"
"21:20:15:189 (H:m:s:ms)","OPERA","156.87800000000001","0.0374209958763819","813"
"21:20:18:181 (H:m:s:ms)","GENERIC","187.5","0.04454920013235854","829"
"21:20:22:784 (H:m:s:ms)","OPERA","156.90699999999998","0.03804208970758486","218"
"21:20:24:242 (H:m:s:ms)","GENERIC","186.695","0.04511584598708464","761"
"21:20:30:303 (H:m:s:ms)","GENERIC","187.942","0.03724277253357892","699"
"21:20:30:379 (H:m:s:ms)","OPERA","156.505","0.0450340483814552","626"
"21:20:36:363 (H:m:s:ms)","GENERIC","186.504","0.04715234857530713","639"
"21:20:37:974 (H:m:s:ms)","OPERA","156.871","0.039041438612950785","1027"
"21:20:42:424 (H:m:s:ms)","GENERIC","187.53","0.04825930352147015","578"
"21:20:45:569 (H:m:s:ms)","OPERA","187.934","0.04308000291567577","433"
"21:20:48:484 (H:m:s:ms)","GENERIC","186.805","0.053978933981306584","518"
"21:20:53:164 (H:m:s:ms)","OPERA","187.863","0.04627130010421809","838"
"21:20:54:545 (H:m:s:ms)","GENERIC","187.382","0.05471977989220815","457"
"21:21:0:606 (H:m:s:ms)","GENERIC","187.973","0.04173722100499237","396"
"21:21:0:759 (H:m:s:ms)","OPERA","155.71800000000002","0.050422946848796994","246"
"21:21:6:666 (H:m:s:ms)","GENERIC","187.488","0.05159010837339668","336"
"21:21:8:354 (H:m:s:ms)","OPERA","187.924","0.04419890423492771","646"
"21:21:12:727 (H:m:s:ms)","GENERIC","186.623","0.05077860301164361","274"
"21:32:43:636 (H:m:s:ms)","GENERIC","186.812","0.05234900709992921","366"
"21:32:31:515 (H:m:s:ms)","GENERIC","187.515","0.03945756409742632","487"
"21:32:25:454 (H:m:s:ms)","GENERIC","187.96","0.03351057246891305","547"
"21:32:19:393 (H:m:s:ms)","GENERIC","187.552","0.0414700033295771","647"
"21:32:13:333 (H:m:s:ms)","GENERIC","188.045","0.05275832337796702","669"
"21:32:7:272 (H:m:s:ms)","GENERIC","186.841","0.06663724127921926","730"
"21:32:6:315 (H:m:s:ms)","AMBULANCE","188.002","0.053511364318834416","686"
"21:32:1:212 (H:m:s:ms)","GENERIC","187.518","0.047345609159191906","789"
"21:21:15:949 (H:m:s:ms)","OPERA","156.863","0.04357953852002565","1051"
"21:31:55:151 (H:m:s:ms)","GENERIC","187.999","0.045236685491718505","850"
"21:21:18:787 (H:m:s:ms)","GENERIC","187.469","0.050975114859865674","216"
"21:21:23:544 (H:m:s:ms)","OPERA","187.785","0.037872817031458804","458"
"21:21:24:848 (H:m:s:ms)","GENERIC","187.019","0.04988090843255106","155"
"21:21:30:909 (H:m:s:ms)","GENERIC","187.914","0.02973710871599325","1092"
"21:21:31:139 (H:m:s:ms)","OPERA","156.485","0.04191594498816016","865"
"21:21:36:969 (H:m:s:ms)","GENERIC","186.9","0.05447639573763818","1032"
"21:21:38:734 (H:m:s:ms)","OPERA","187.893","0.046734627128525115","266"
"21:32:37:894 (H:m:s:ms)","AMBULANCE","187.36599999999999","0.03966200358290401","1111"
"21:21:43:30 (H:m:s:ms)","GENERIC","187.543","0.0552633577454319","971"
"21:32:37:575 (H:m:s:ms)","GENERIC","187.901","0.04544659004970519","427"
"21:21:46:329 (H:m:s:ms)","OPERA","156.918","0.046620350726102","672"
"21:33:44:242 (H:m:s:ms)","GENERIC","186.794","0.05964780934508978","760"
"21:33:41:52 (H:m:s:ms)","AMBULANCE","187.79399999999998","0.05037426592001917","949"
"21:33:32:121 (H:m:s:ms)","GENERIC","187.793","0.05220441426911301","881"
"21:33:26:60 (H:m:s:ms)","GENERIC","187.595","0.051666902643610804","941"
"21:33:20:0 (H:m:s:ms)","GENERIC","187.813","0.039222632529372366","1042"
"21:33:13:939 (H:m:s:ms)","GENERIC","187.52100000000002","0.03822913063365972","1063"
"21:33:7:878 (H:m:s:ms)","GENERIC","188.029","0.030621085783008213","1124"
"21:33:1:818 (H:m:s:ms)","GENERIC","188.027","0.045098874845878704","184"
"21:21:49:90 (H:m:s:ms)","GENERIC","186.862","0.05106495165321955","948"
"21:32:55:757 (H:m:s:ms)","GENERIC","187.533","0.04305019676951906","244"
"21:21:53:924 (H:m:s:ms)","OPERA","187.945","0.037417582988334204","1079"
"21:32:49:696 (H:m:s:ms)","GENERIC","187.983","0.04533712062595076","343"
"21:21:55:151 (H:m:s:ms)","GENERIC","187.562","0.045601532598158884","850"
"21:22:1:212 (H:m:s:ms)","GENERIC","187.769","0.04260691562595638","790"
"21:22:1:518 (H:m:s:ms)","OPERA","187.062","0.05214022465385843","485"
"21:22:7:272 (H:m:s:ms)","GENERIC","187.43200000000002","0.05068102868212921","731"
"21:22:9:113 (H:m:s:ms)","OPERA","156.93099999999998","0.03711438258391896","924"
"21:22:13:333 (H:m:s:ms)","GENERIC","186.70999999999998","0.053390018813195786","668"
"21:22:16:708 (H:m:s:ms)","OPERA","187.934","0.04850761499168363","294"
"21:22:19:393 (H:m:s:ms)","GENERIC","187.49","0.06147792615795852","646"
"21:33:38:181 (H:m:s:ms)","GENERIC","187.57299999999998","0.05232186975700632","821"
"21:34:44:848 (H:m:s:ms)","GENERIC","186.85","0.057272355247881525","157"
"21:34:44:210 (H:m:s:ms)","AMBULANCE","187.622","0.04642555687721626","793"
"21:34:38:787 (H:m:s:ms)","GENERIC","187.909","0.0514349552594093","214"
"21:34:32:727 (H:m:s:ms)","GENERIC","187.478","0.0546505483148483","276"
"21:34:26:666 (H:m:s:ms)","GENERIC","187.982","0.044659861008366504","336"
"21:34:20:606 (H:m:s:ms)","GENERIC","187.573","0.04058613501644223","395"
"21:34:14:545 (H:m:s:ms)","GENERIC","187.921","0.041998688611016195","456"
"21:34:8:484 (H:m:s:ms)","GENERIC","187.473","0.04420619703920922","517"
"21:22:24:303 (H:m:s:ms)","OPERA","156.953","0.04770134293687419","699"
"21:34:2:424 (H:m:s:ms)","GENERIC","187.988","0.05211315661152405","578"
"21:22:25:454 (H:m:s:ms)","GENERIC","186.56","0.05237419353596689","548"
"21:33:56:363 (H:m:s:ms)","GENERIC","187.56799999999998","0.05238930234643262","638"
"21:1:55:151 (H:m:s:ms)","GENERIC","188.003","0.03825772151857353","850"
"21:22:31:515 (H:m:s:ms)","GENERIC","187.949","0.040467681995893956","488"
"21:33:50:303 (H:m:s:ms)","GENERIC","187.878","0.046575588106354975","698"
"21:2:1:212 (H:m:s:ms)","GENERIC","187.601","0.045174384666695516","790"
"21:22:31:898 (H:m:s:ms)","OPERA","187.50400000000002","0.04762386446757712","1108"
"21:2:6:315 (H:m:s:ms)","AMBULANCE","156.943","0.052108397295727873","687"
"21:22:37:575 (H:m:s:ms)","GENERIC","186.813","0.05543595841612944","433"
"21:2:7:272 (H:m:s:ms)","GENERIC","186.703","0.06214960961922377","729"
"21:22:39:493 (H:m:s:ms)","OPERA","187.929","0.04093187648742577","545"
"21:2:13:333 (H:m:s:ms)","GENERIC","187.994","0.049784178262472105","669"
"21:22:43:636 (H:m:s:ms)","GENERIC","187.465","0.051615131687287076","366"
"21:2:19:393 (H:m:s:ms)","GENERIC","187.506","0.050775161922507965","649"
"21:22:47:88 (H:m:s:ms)","OPERA","187.727","0.03874871941991204","914"
"21:2:25:454 (H:m:s:ms)","GENERIC","187.993","0.04505058262936998","548"
"21:22:49:696 (H:m:s:ms)","GENERIC","187.11","0.05679977828926751","341"
"21:2:31:515 (H:m:s:ms)","GENERIC","187.562","0.04381647568018141","487"
"21:22:54:683 (H:m:s:ms)","OPERA","156.901","0.0575488204648248","319"
"21:2:37:575 (H:m:s:ms)","GENERIC","187.736","0.0468732097469835","427"
"21:2:37:894 (H:m:s:ms)","AMBULANCE","156.026","0.05680007333898526","110"
"21:35:45:454 (H:m:s:ms)","GENERIC","187.58","0.04847323310326057","548"
"21:35:39:393 (H:m:s:ms)","GENERIC","188.03300000000002","0.0475214765095391","646"
"21:35:33:333 (H:m:s:ms)","GENERIC","187.517","0.0487133176637839","668"
"21:35:27:272 (H:m:s:ms)","GENERIC","187.96800000000002","0.048499393159007524","730"
"21:35:21:212 (H:m:s:ms)","GENERIC","187.502","0.05452626717762573","790"
"21:35:15:789 (H:m:s:ms)","AMBULANCE","186.878","0.057778184060771946","215"
"21:35:15:151 (H:m:s:ms)","GENERIC","187.87099999999998","0.04782889696713702","851"
"21:22:55:757 (H:m:s:ms)","GENERIC","187.423","0.06450010864839213","245"
"21:35:9:90 (H:m:s:ms)","GENERIC","187.606","0.04938521184695695","951"
"21:23:1:818 (H:m:s:ms)","GENERIC","188.01600000000002","0.04495045903150744","183"
"21:35:3:30 (H:m:s:ms)","GENERIC","187.90699999999998","0.04510520338366505","971"
"21:2:43:636 (H:m:s:ms)","GENERIC","187.6","0.05852052257013463","365"
"21:23:2:278 (H:m:s:ms)","OPERA","187.50799999999998","0.04554764312660286","724"
"21:34:56:969 (H:m:s:ms)","GENERIC","187.584","0.036716230131339116","1033"
"21:2:49:696 (H:m:s:ms)","GENERIC","188.036","0.05220000859318005","347"
"21:23:7:878 (H:m:s:ms)","GENERIC","187.979","0.04168978385995659","1124"
"21:34:50:909 (H:m:s:ms)","GENERIC","187.989","0.02121868474665223","1093"
"21:2:55:757 (H:m:s:ms)","GENERIC","187.505","0.04522146251313757","245"
"21:23:9:873 (H:m:s:ms)","OPERA","187.475","0.04406049393583208","166"
"21:3:1:818 (H:m:s:ms)","GENERIC","188.014","0.03926523704897905","184"
"21:23:13:939 (H:m:s:ms)","GENERIC","186.73","0.05184514855388414","1063"
"21:3:7:878 (H:m:s:ms)","GENERIC","187.961","0.044919255497004124","1124"
"21:23:17:468 (H:m:s:ms)","OPERA","156.888","0.040853435198154826","534"
"21:3:9:473 (H:m:s:ms)","AMBULANCE","156.524","0.05668916848458411","569"
"21:23:20:0 (H:m:s:ms)","GENERIC","187.27","0.048633783527235616","1038"
"21:3:13:939 (H:m:s:ms)","GENERIC","186.683","0.06598641381378337","1063"
"21:23:25:63 (H:m:s:ms)","OPERA","156.91500000000002","0.03775963428460286","939"
"21:3:20:0 (H:m:s:ms)","GENERIC","187.976","0.0453096465704729","1043"
"21:23:26:60 (H:m:s:ms)","GENERIC","186.88400000000001","0.0523416492548093","942"
"21:3:26:60 (H:m:s:ms)","GENERIC","187.503","0.034562395730549714","942"
"21:3:32:121 (H:m:s:ms)","GENERIC","187.887","0.03638937135717788","881"
"21:36:40:0 (H:m:s:ms)","GENERIC","187.836","0.03859315118394248","1038"
"21:36:33:939 (H:m:s:ms)","GENERIC","187.389","0.05055628499914298","1063"
"21:36:27:878 (H:m:s:ms)","GENERIC","187.967","0.040603909665557415","1123"
"21:36:21:818 (H:m:s:ms)","GENERIC","186.779","0.05733691714008061","184"
"21:36:18:947 (H:m:s:ms)","AMBULANCE","187.784","0.04762137358409972","1090"
"21:36:15:757 (H:m:s:ms)","GENERIC","187.53699999999998","0.0488902690178406","244"
"21:23:32:121 (H:m:s:ms)","GENERIC","187.94299999999998","0.047050994448211036","881"
"21:36:9:696 (H:m:s:ms)","GENERIC","188.084","0.03475389764890697","342"
"21:23:32:658 (H:m:s:ms)","OPERA","187.08100000000002","0.05203486534729553","345"
"21:36:3:636 (H:m:s:ms)","GENERIC","187.591","0.0403619905133021","365"
"21:3:38:181 (H:m:s:ms)","GENERIC","187.5","0.04530149039448982","821"
"21:23:38:181 (H:m:s:ms)","GENERIC","186.69299999999998","0.045719045134153403","821"
"21:35:57:575 (H:m:s:ms)","GENERIC","187.972","0.04975995203751568","427"
"21:3:41:52 (H:m:s:ms)","AMBULANCE","156.858","0.040975667328266206","950"
"21:23:40:253 (H:m:s:ms)","OPERA","156.928","0.04741201428417894","749"
"21:35:51:515 (H:m:s:ms)","GENERIC","186.61599999999999","0.06037103414028896","487"
"21:3:44:242 (H:m:s:ms)","GENERIC","186.657","0.0465546403477372","760"
"21:23:44:242 (H:m:s:ms)","GENERIC","187.55700000000002","0.05255192712263415","760"
"21:35:47:368 (H:m:s:ms)","AMBULANCE","187.993","0.04755829505752412","633"
"21:3:50:303 (H:m:s:ms)","GENERIC","187.906","0.042865756513337454","699"
"21:23:47:848 (H:m:s:ms)","OPERA","156.89000000000001","0.039693334620497005","152"
"21:3:56:363 (H:m:s:ms)","GENERIC","187.477","0.05140108441133689","638"
"21:23:50:303 (H:m:s:ms)","GENERIC","186.875","0.05252651326341269","698"
"21:4:2:424 (H:m:s:ms)","GENERIC","187.987","0.049605896770214264","578"
"21:23:55:443 (H:m:s:ms)","OPERA","156.886","0.04530608459901587","558"
"21:4:8:484 (H:m:s:ms)","GENERIC","187.409","0.04416687720593897","518"
"21:23:56:363 (H:m:s:ms)","GENERIC","187.455","0.049492740873452554","638"
"21:4:12:631 (H:m:s:ms)","AMBULANCE","156.926","0.04948213091224146","370"
"21:24:2:424 (H:m:s:ms)","GENERIC","188.036","0.03696312265895186","578"
"21:4:14:545 (H:m:s:ms)","GENERIC","186.649","0.05734758716445265","457"
"21:4:20:606 (H:m:s:ms)","GENERIC","188.001","0.045222646421169986","395"
"21:37:34:545 (H:m:s:ms)","GENERIC","187.885","0.04025407811707784","456"
"21:37:28:484 (H:m:s:ms)","GENERIC","187.677","0.05427810780160778","517"
"21:37:22:424 (H:m:s:ms)","GENERIC","186.845","0.057982807071921355","579"
"21:37:22:105 (H:m:s:ms)","AMBULANCE","187.792","0.04942713259072837","896"
"21:37:16:363 (H:m:s:ms)","GENERIC","187.60899999999998","0.038919522408630815","638"
"21:37:10:303 (H:m:s:ms)","GENERIC","187.788","0.04228226451803021","701"
"21:24:3:37 (H:m:s:ms)","OPERA","156.50400000000002","0.040798408948830495","964"
"21:24:8:484 (H:m:s:ms)","GENERIC","186.914","0.04825157210404487","517"
"21:37:4:242 (H:m:s:ms)","GENERIC","187.559","0.05272992317885738","760"
"21:4:26:666 (H:m:s:ms)","GENERIC","187.473","0.04647976052053586","335"
"21:24:10:632 (H:m:s:ms)","OPERA","187.851","0.04213710320200984","370"
"21:36:58:181 (H:m:s:ms)","GENERIC","188.051","0.051881672766990315","820"
"21:4:32:727 (H:m:s:ms)","GENERIC","187.947","0.0408514014279016","275"
"21:24:14:545 (H:m:s:ms)","GENERIC","187.45","0.04718423217272879","457"
"21:36:52:121 (H:m:s:ms)","GENERIC","186.831","0.05428856895853076","880"
"21:4:38:787 (H:m:s:ms)","GENERIC","187.39600000000002","0.03122511619031449","215"
"21:24:18:227 (H:m:s:ms)","OPERA","156.87","0.03631519620318692","775"
"21:36:50:526 (H:m:s:ms)","AMBULANCE","187.845","0.04186866847329308","475"
"21:4:44:210 (H:m:s:ms)","AMBULANCE","156.956","0.02929766584799308","792"
"21:24:20:606 (H:m:s:ms)","GENERIC","186.69","0.04737610956685852","396"
"21:36:46:60 (H:m:s:ms)","GENERIC","187.749","0.03702922073563287","942"
"21:4:44:848 (H:m:s:ms)","GENERIC","186.871","0.036122728499983194","156"
"21:24:25:822 (H:m:s:ms)","OPERA","187.872","0.045661565157937","180"
"21:4:50:909 (H:m:s:ms)","GENERIC","187.945","0.031784216682592493","1093"
"21:24:26:666 (H:m:s:ms)","GENERIC","187.439","0.04983373383527039","336"
"21:4:56:969 (H:m:s:ms)","GENERIC","187.45","0.041634080418634686","1033"
"21:24:32:727 (H:m:s:ms)","GENERIC","188.06900000000002","0.031072341038737763","275"
"21:5:3:30 (H:m:s:ms)","GENERIC","187.804","0.04249382039860536","972"
"21:24:33:417 (H:m:s:ms)","OPERA","156.483","0.039465861688761664","585"
"21:5:9:90 (H:m:s:ms)","GENERIC","187.78","0.04959851434357184","952"
"21:5:15:151 (H:m:s:ms)","GENERIC","187.824","0.04419028464071767","851"
"21:38:29:90 (H:m:s:ms)","GENERIC","187.13299999999998","0.046639886605135544","950"
"21:38:25:263 (H:m:s:ms)","AMBULANCE","187.48","0.04150489687970242","739"
"21:38:23:30 (H:m:s:ms)","GENERIC","187.95600000000002","0.042141665429905883","972"
"21:38:16:969 (H:m:s:ms)","GENERIC","187.466","0.0407978140055202","1033"
"21:38:10:909 (H:m:s:ms)","GENERIC","187.925","0.032782192593661046","1093"
"21:38:4:848 (H:m:s:ms)","GENERIC","187.95","0.045376220573767674","154"
"21:37:58:787 (H:m:s:ms)","GENERIC","186.691","0.052722151727037675","215"
"21:24:38:787 (H:m:s:ms)","GENERIC","186.643","0.05367678955092854","215"
"21:24:41:12 (H:m:s:ms)","OPERA","156.918","0.05370535771288031","989"
"21:5:15:789 (H:m:s:ms)","AMBULANCE","155.65","0.05251752901313098","216"
"21:24:44:848 (H:m:s:ms)","GENERIC","187.437","0.06204291888418123","154"
"21:5:21:212 (H:m:s:ms)","GENERIC","187.618","0.050555466082820966","790"
"21:24:48:607 (H:m:s:ms)","OPERA","156.764","0.038921797429922085","395"
"21:37:53:684 (H:m:s:ms)","AMBULANCE","187.911","0.04316992814568555","318"
"20:45:41:772 (H:m:s:ms)","OPERA","156.87099999999998","0.0401324404619543","230"
"21:5:27:272 (H:m:s:ms)","GENERIC","187.82","0.051167885546513414","730"
"21:24:50:909 (H:m:s:ms)","GENERIC","187.65800000000002","0.03850254005007905","1093"
"21:37:52:727 (H:m:s:ms)","GENERIC","187.69","0.04442596426541096","274"
"20:45:45:454 (H:m:s:ms)","GENERIC","187.667","0.04976312180558969","549"
"21:5:33:333 (H:m:s:ms)","GENERIC","187.718","0.0485046375365516","668"
"21:24:56:202 (H:m:s:ms)","OPERA","156.733","0.04304049897894119","800"
"21:37:46:666 (H:m:s:ms)","GENERIC","187.87","0.04410033366630515","336"
"20:45:49:367 (H:m:s:ms)","OPERA","156.857","0.049545140106297264","673"
"21:5:39:393 (H:m:s:ms)","GENERIC","188.071","0.0462961069150248","648"
"21:24:56:969 (H:m:s:ms)","GENERIC","186.72899999999998","0.05230588696716493","1035"
"21:37:40:606 (H:m:s:ms)","GENERIC","187.57999999999998","0.04646746837030006","396"
"20:45:51:515 (H:m:s:ms)","GENERIC","186.62199999999999","0.05601324666414842","487"
"21:5:45:454 (H:m:s:ms)","GENERIC","187.775","0.04589873557760788","548"
"21:25:3:30 (H:m:s:ms)","GENERIC","187.949","0.04251843749664893","972"
"20:45:56:962 (H:m:s:ms)","OPERA","156.924","0.04222770451960475","1039"
"21:5:47:368 (H:m:s:ms)","AMBULANCE","156.80599999999998","0.04175754253144064","634"
"21:25:3:797 (H:m:s:ms)","OPERA","156.53300000000002","0.05253303673513411","207"
"20:45:57:575 (H:m:s:ms)","GENERIC","187.57399999999998","0.04965657477871284","429"
"21:5:51:515 (H:m:s:ms)","GENERIC","186.618","0.054073274081629326","487"
"21:25:9:90 (H:m:s:ms)","GENERIC","186.752","0.05562694261094114","947"
"20:46:3:636 (H:m:s:ms)","GENERIC","186.80200000000002","0.049588922273398096","365"
"21:5:57:575 (H:m:s:ms)","GENERIC","188.007","0.04669914826671182","427"
"20:46:9:696 (H:m:s:ms)","GENERIC","187.964","0.03911611191257291","346"
"21:6:3:636 (H:m:s:ms)","GENERIC","187.472","0.04397143067328462","366"
"20:46:12:151 (H:m:s:ms)","OPERA","156.481","0.04775470675183849","850"
"20:46:15:757 (H:m:s:ms)","GENERIC","186.744","0.050749466117720715","245"
"21:39:28:421 (H:m:s:ms)","AMBULANCE","187.964","0.048383873102942856","581"
"21:39:23:636 (H:m:s:ms)","GENERIC","187.548","0.05053141822793528","366"
"21:39:17:575 (H:m:s:ms)","GENERIC","187.975","0.046665063476340224","426"
"21:39:11:515 (H:m:s:ms)","GENERIC","187.458","0.04064171760851299","487"
"21:39:5:454 (H:m:s:ms)","GENERIC","187.923","0.044478828518905","548"
"21:38:59:393 (H:m:s:ms)","GENERIC","186.658","0.052941266599158994","648"
"21:38:56:842 (H:m:s:ms)","AMBULANCE","187.897","0.04325349706978229","159"
"21:38:53:333 (H:m:s:ms)","GENERIC","187.563","0.0451055423857315","669"
"21:25:11:392 (H:m:s:ms)","OPERA","156.9","0.04377468040168517","609"
"21:25:15:151 (H:m:s:ms)","GENERIC","187.498","0.05684886765041104","851"
"21:6:9:696 (H:m:s:ms)","GENERIC","187.997","0.04718428844901602","345"
"21:25:18:987 (H:m:s:ms)","OPERA","187.9","0.04256706098261518","1053"
"21:6:15:757 (H:m:s:ms)","GENERIC","187.573","0.04804698581398249","244"
"21:25:21:212 (H:m:s:ms)","GENERIC","186.758","0.05498733469589062","791"
"20:46:19:746 (H:m:s:ms)","OPERA","156.838","0.03741680235387549","295"
"21:6:18:947 (H:m:s:ms)","AMBULANCE","156.884","0.04592899139133198","1094"
"21:25:26:582 (H:m:s:ms)","OPERA","187.85","0.043917382051868535","420"
"20:46:21:818 (H:m:s:ms)","GENERIC","187.545","0.04679958415370549","183"
"21:6:21:818 (H:m:s:ms)","GENERIC","186.841","0.0560365402826241","184"
"21:25:27:272 (H:m:s:ms)","GENERIC","187.14600000000002","0.04698706213336183","730"
"21:38:47:272 (H:m:s:ms)","GENERIC","187.919","0.050207578610139234","730"
"20:46:27:341 (H:m:s:ms)","OPERA","156.89000000000001","0.04336998706913022","661"
"21:6:27:878 (H:m:s:ms)","GENERIC","187.997","0.03755014492318064","1124"
"21:25:33:333 (H:m:s:ms)","GENERIC","187.989","0.045224695195821736","669"
"21:38:41:212 (H:m:s:ms)","GENERIC","187.51","0.04942373254407132","789"
"20:46:27:878 (H:m:s:ms)","GENERIC","187.31900000000002","0.03547122937460671","1127"
"21:6:33:939 (H:m:s:ms)","GENERIC","187.469","0.04924783994755759","1063"
"21:25:34:177 (H:m:s:ms)","OPERA","187.49","0.05422956163084998","827"
"21:38:35:151 (H:m:s:ms)","GENERIC","187.951","0.03553342073793326","851"
"20:46:33:939 (H:m:s:ms)","GENERIC","187.954","0.02921042914120852","1064"
"21:6:40:0 (H:m:s:ms)","GENERIC","187.995","0.0413366455512924","1043"
"21:25:39:393 (H:m:s:ms)","GENERIC","186.809","0.06417489737274142","648"
"20:46:34:936 (H:m:s:ms)","OPERA","156.456","0.040681051363077994","1069"
"21:6:46:60 (H:m:s:ms)","GENERIC","187.785","0.040902752462231226","942"
"21:25:41:772 (H:m:s:ms)","OPERA","187.883","0.04801467724987294","229"
"20:46:40:0 (H:m:s:ms)","GENERIC","186.712","0.04769627515820309","1042"
"21:6:50:526 (H:m:s:ms)","AMBULANCE","156.752","0.0395149204845604","476"
"20:46:42:531 (H:m:s:ms)","OPERA","156.888","0.04140924387138066","470"
"21:6:52:121 (H:m:s:ms)","GENERIC","186.623","0.04774633773750042","880"
"20:46:46:60 (H:m:s:ms)","GENERIC","187.49","0.0570238886673397","942"
"20:46:50:126 (H:m:s:ms)","OPERA","156.911","0.0505242617331234","876"
"21:39:41:818 (H:m:s:ms)","GENERIC","187.439","0.047090522273539104","184"
"21:40:18:181 (H:m:s:ms)","GENERIC","187.612","0.04694537789773177","821"
"21:40:12:121 (H:m:s:ms)","GENERIC","187.944","0.048053573733360354","881"
"21:40:6:60 (H:m:s:ms)","GENERIC","187.686","0.06501975738747895","942"
"21:40:0:0 (H:m:s:ms)","GENERIC","187.822","0.06332827272910645","1494"
"21:40:0:0 (H:m:s:ms)","GENERIC","186.81","0.059062795345024066","1491"
"21:40:0:0 (H:m:s:ms)","AMBULANCE","187.918","0.04941992361353811","1489"
"21:39:53:939 (H:m:s:ms)","GENERIC","187.535","0.04617118082783163","1064"
"21:39:47:878 (H:m:s:ms)","GENERIC","188.02100000000002","0.031089499553797438","1124"
"21:6:58:181 (H:m:s:ms)","GENERIC","188.05700000000002","0.0418716165277575","821"
"21:7:4:242 (H:m:s:ms)","GENERIC","187.601","0.04589925899028875","760"
"20:46:52:121 (H:m:s:ms)","GENERIC","186.65800000000002","0.058765554433243404","880"
"21:7:10:303 (H:m:s:ms)","GENERIC","187.966","0.04751254552654393","698"
"20:46:57:721 (H:m:s:ms)","OPERA","156.913","0.04945026483652899","281"
"21:7:16:363 (H:m:s:ms)","GENERIC","187.49699999999999","0.04243162700836985","638"
"20:46:58:181 (H:m:s:ms)","GENERIC","187.5","0.05495112540973715","821"
"21:7:22:105 (H:m:s:ms)","AMBULANCE","156.854","0.040242275419445264","897"
"20:47:4:242 (H:m:s:ms)","GENERIC","187.852","0.035775766254776686","761"
"21:7:22:424 (H:m:s:ms)","GENERIC","186.68599999999998","0.04743571761767577","581"
"21:39:35:757 (H:m:s:ms)","GENERIC","187.98000000000002","0.04726206310644991","245"
"20:47:5:316 (H:m:s:ms)","OPERA","156.50799999999998","0.03892095646378352","686"
"21:7:28:484 (H:m:s:ms)","GENERIC","187.639","0.05086459569072704","517"
"21:39:29:696 (H:m:s:ms)","GENERIC","186.779","0.0583617450521285","342"
"20:47:10:303 (H:m:s:ms)","GENERIC","186.734","0.04941859055422033","699"
"21:7:34:545 (H:m:s:ms)","GENERIC","187.77800000000002","0.039944616923077866","458"
"20:47:12:911 (H:m:s:ms)","OPERA","156.937","0.04644217474601653","1091"
"21:7:40:606 (H:m:s:ms)","GENERIC","187.621","0.031228195431734922","397"
"20:47:16:363 (H:m:s:ms)","GENERIC","187.367","0.056110865557376564","639"
"21:7:46:666 (H:m:s:ms)","GENERIC","187.987","0.0400300910069612","336"
"20:47:20:506 (H:m:s:ms)","OPERA","156.81799999999998","0.037374257613461866","496"
"20:47:22:424 (H:m:s:ms)","GENERIC","186.692","0.051387060573941414","578"
"21:7:52:727 (H:m:s:ms)","GENERIC","187.599","0.042898949022367225","275"
"21:7:53:684 (H:m:s:ms)","AMBULANCE","156.781","0.03542611445525097","317"
"20:47:28:101 (H:m:s:ms)","OPERA","156.91400000000002","0.04053786258076802","901"
"21:7:58:787 (H:m:s:ms)","GENERIC","186.646","0.04394740583911434","214"
"20:47:28:484 (H:m:s:ms)","GENERIC","187.40300000000002","0.05484804662386805","520"
"21:8:4:848 (H:m:s:ms)","GENERIC","187.959","0.03877496138334703","154"
"20:47:34:545 (H:m:s:ms)","GENERIC","186.687","0.05502448072579278","457"
"21:8:10:909 (H:m:s:ms)","GENERIC","187.956","0.0333997247517354","1093"
"20:47:35:696 (H:m:s:ms)","OPERA","156.845","0.04916984939865159","306"
"21:8:16:969 (H:m:s:ms)","GENERIC","187.514","0.0472203703759777","1032"
"20:47:40:606 (H:m:s:ms)","GENERIC","187.387","0.059825057922550696","401"
"21:8:23:30 (H:m:s:ms)","GENERIC","187.971","0.048033646309666965","972"
"20:47:43:291 (H:m:s:ms)","OPERA","156.91899999999998","0.04788429099320084","711"
"21:8:25:263 (H:m:s:ms)","AMBULANCE","156.535","0.04234208595355167","739"
"21:40:24:242 (H:m:s:ms)","GENERIC","188.022","0.04947232539501113","760"
"20:47:46:666 (H:m:s:ms)","GENERIC","187.005","0.05819313546146029","335"
"21:8:29:90 (H:m:s:ms)","GENERIC","186.803","0.053355019202228404","951"
"20:47:50:886 (H:m:s:ms)","OPERA","156.894","0.04250817146302951","116"
"21:8:35:151 (H:m:s:ms)","GENERIC","187.899","0.04644688796114473","851"
"20:47:52:727 (H:m:s:ms)","GENERIC","187.46699999999998","0.05352614341773573","275"
"20:47:58:481 (H:m:s:ms)","OPERA","156.909","0.04114487614873081","521"
"21:8:41:212 (H:m:s:ms)","GENERIC","187.498","0.04635554880287251","790"
"21:8:47:272 (H:m:s:ms)","GENERIC","187.997","0.045467518529408404","730"
"20:47:58:787 (H:m:s:ms)","GENERIC","186.713","0.056978215897743455","218"
"21:8:53:333 (H:m:s:ms)","GENERIC","187.41899999999998","0.04651686475050087","669"
"20:48:4:848 (H:m:s:ms)","GENERIC","187.387","0.05373322411268988","154"
"21:8:56:842 (H:m:s:ms)","AMBULANCE","156.926","0.04818218438933036","160"
"20:30:0:0 (H:m:s:ms)","GENERIC","187.941","0.04455250319909289","1041"
"20:48:6:75 (H:m:s:ms)","OPERA","156.89","0.03929038179027448","926"
"21:8:59:393 (H:m:s:ms)","GENERIC","186.63299999999998","0.05680012280335765","648"
"20:30:0:0 (H:m:s:ms)","GENERIC","187.041","0.051276488747505525","1044"
"20:48:10:909 (H:m:s:ms)","GENERIC","187.403","0.041913821322328196","1093"
"21:9:5:454 (H:m:s:ms)","GENERIC","187.91199999999998","0.04498897134394566","547"
"20:30:6:60 (H:m:s:ms)","GENERIC","187.464","0.04823631861885831","942"
"20:48:13:670 (H:m:s:ms)","OPERA","156.77700000000002","0.04520561399324231","332"
"21:9:11:515 (H:m:s:ms)","GENERIC","187.587","0.051431085893158424","487"
"20:30:12:121 (H:m:s:ms)","GENERIC","187.898","0.05130577357710894","881"
"20:48:16:969 (H:m:s:ms)","GENERIC","186.724","0.05657767334691639","1032"
"21:9:17:575 (H:m:s:ms)","GENERIC","187.981","0.04840489075647137","426"
"20:30:18:181 (H:m:s:ms)","GENERIC","187.49200000000002","0.05249756936353122","821"
"20:48:21:265 (H:m:s:ms)","OPERA","156.86599999999999","0.04456398625022777","737"
"21:9:23:636 (H:m:s:ms)","GENERIC","187.39","0.032759179812012346","366"
"20:30:24:242 (H:m:s:ms)","GENERIC","187.966","0.043564288215247285","761"
"20:48:23:30 (H:m:s:ms)","GENERIC","187.38299999999998","0.058860879437001065","971"
"21:9:28:421 (H:m:s:ms)","AMBULANCE","156.922","0.039705311541916435","580"
"20:30:30:303 (H:m:s:ms)","GENERIC","187.624","0.043516824210053595","700"
"20:48:28:860 (H:m:s:ms)","OPERA","156.881","0.044246766431914115","142"
"20:30:36:363 (H:m:s:ms)","GENERIC","187.95100000000002","0.044523579065063754","640"
"20:48:29:90 (H:m:s:ms)","GENERIC","187.129","0.05059302248715389","953"
"20:30:42:424 (H:m:s:ms)","GENERIC","187.60899999999998","0.038302226764242935","578"
"20:30:48:484 (H:m:s:ms)","GENERIC","187.99900000000002","0.0417759798986679","518"
"21:9:29:696 (H:m:s:ms)","GENERIC","187.061","0.04853583113654703","344"
"21:9:35:757 (H:m:s:ms)","GENERIC","187.96099999999998","0.04075152277041329","244"
"20:48:35:151 (H:m:s:ms)","GENERIC","187.954","0.038018586414635035","851"
"21:9:41:818 (H:m:s:ms)","GENERIC","187.76","0.044907304838256654","183"
"20:48:36:455 (H:m:s:ms)","OPERA","156.34199999999998","0.04288217404982005","549"
"21:9:47:878 (H:m:s:ms)","GENERIC","187.971","0.026515512783160902","1123"
"20:30:54:545 (H:m:s:ms)","GENERIC","187.538","0.04143299933266291","459"
"20:48:41:212 (H:m:s:ms)","GENERIC","186.711","0.04917918188171625","790"
"21:9:53:939 (H:m:s:ms)","GENERIC","187.429","0.04342132354702271","1063"
"20:31:0:606 (H:m:s:ms)","GENERIC","188.058","0.037011366047664154","396"
"20:48:44:50 (H:m:s:ms)","OPERA","156.886","0.038071117679382045","952"
"21:10:0:0 (H:m:s:ms)","AMBULANCE","156.932","0.050312388982182286","1040"
"20:31:6:666 (H:m:s:ms)","GENERIC","187.50799999999998","0.03737073926885125","338"
"20:48:47:272 (H:m:s:ms)","GENERIC","187.51100000000002","0.04493290435800804","730"
"21:10:0:0 (H:m:s:ms)","GENERIC","186.914","0.054172836097669166","1043"
"20:31:12:727 (H:m:s:ms)","GENERIC","187.947","0.04012297674706473","276"
"20:48:51:645 (H:m:s:ms)","OPERA","156.739","0.03244239713884122","357"
"21:10:0:0 (H:m:s:ms)","GENERIC","187.743","0.06141073940706293","1045"
"20:31:18:787 (H:m:s:ms)","GENERIC","187.64600000000002","0.0484916556675828","215"
"20:48:53:333 (H:m:s:ms)","GENERIC","186.576","0.039714438709140445","669"
"21:10:6:60 (H:m:s:ms)","GENERIC","187.591","0.05720975831461649","941"
"20:31:24:848 (H:m:s:ms)","GENERIC","187.84300000000002","0.04515107049092139","155"
"20:48:59:240 (H:m:s:ms)","OPERA","156.872","0.04439277016872907","804"
"21:10:12:121 (H:m:s:ms)","GENERIC","187.99200000000002","0.03192681123956518","881"
"20:31:30:909 (H:m:s:ms)","GENERIC","187.891","0.025491676125324284","1093"
"20:48:59:393 (H:m:s:ms)","GENERIC","187.53199999999998","0.05161950359968856","654"
"20:31:36:969 (H:m:s:ms)","GENERIC","187.678","0.04405170249220443","1033"
"20:49:5:454 (H:m:s:ms)","GENERIC","186.79500000000002","0.05609961173921244","547"
"20:31:43:30 (H:m:s:ms)","GENERIC","187.91199999999998","0.04384749545150205","972"
"20:31:49:90 (H:m:s:ms)","GENERIC","187.373","0.04376297792942649","953"
"20:49:6:835 (H:m:s:ms)","OPERA","156.857","0.047142927796672444","167"
"20:49:11:515 (H:m:s:ms)","GENERIC","187.542","0.05193505163814159","486"
"20:31:55:151 (H:m:s:ms)","GENERIC","188.03199999999998","0.04169965761512646","851"
"20:49:14:430 (H:m:s:ms)","OPERA","156.886","0.042869805735959464","572"
"20:32:1:212 (H:m:s:ms)","GENERIC","187.50799999999998","0.04176359977310623","790"
"20:49:17:575 (H:m:s:ms)","GENERIC","187.119","0.052706563294187034","427"
"20:32:7:272 (H:m:s:ms)","GENERIC","187.94299999999998","0.050687288385811935","729"
"20:49:22:25 (H:m:s:ms)","OPERA","156.873","0.04555412452460248","977"
"20:32:13:333 (H:m:s:ms)","GENERIC","187.573","0.04757360031184091","669"
"20:49:23:636 (H:m:s:ms)","GENERIC","187.285","0.053913058088087544","366"
"20:32:19:393 (H:m:s:ms)","GENERIC","187.933","0.04055720449137086","647"
"20:49:29:620 (H:m:s:ms)","OPERA","156.92000000000002","0.04046560719109867","423"
"20:32:25:454 (H:m:s:ms)","GENERIC","187.448","0.04215905216836314","547"
"20:49:29:696 (H:m:s:ms)","GENERIC","187.15","0.05642520092308635","349"
"20:32:31:515 (H:m:s:ms)","GENERIC","187.89499999999998","0.045468338235912203","487"
"20:49:35:757 (H:m:s:ms)","GENERIC","187.233","0.05733750436405459","244"
"20:32:37:575 (H:m:s:ms)","GENERIC","187.561","0.043911409113731904","427"
"20:49:37:215 (H:m:s:ms)","OPERA","156.86700000000002","0.047715124688568776","787"
"20:32:43:636 (H:m:s:ms)","GENERIC","187.95100000000002","0.04703137283387258","366"
"20:32:49:696 (H:m:s:ms)","GENERIC","187.5","0.052170594696818","343"
"20:49:41:818 (H:m:s:ms)","GENERIC","187.279","0.05957521851205222","184"
"20:49:44:810 (H:m:s:ms)","OPERA","156.846","0.04649268420120074","192"
"20:32:55:757 (H:m:s:ms)","GENERIC","187.924","0.052235664179810154","245"
"20:49:47:878 (H:m:s:ms)","GENERIC","187.563","0.04149813294314531","1124"
"20:33:1:818 (H:m:s:ms)","GENERIC","187.635","0.049249708911957076","184"
"20:49:52:405 (H:m:s:ms)","OPERA","156.784","0.039500503759727724","598"
"20:33:7:878 (H:m:s:ms)","GENERIC","188.043","0.03330559054001578","1125"
"20:49:53:939 (H:m:s:ms)","GENERIC","187.036","0.048148545198925","1064"
"20:33:13:939 (H:m:s:ms)","GENERIC","187.57","0.04340435587235292","1064"
"20:50:0:0 (H:m:s:ms)","OPERA","156.849","0.05439951038164052","1050"
"20:33:20:0 (H:m:s:ms)","GENERIC","187.863","0.041658399088356356","1042"
"20:50:0:0 (H:m:s:ms)","GENERIC","188.02700000000002","0.035339447823479746","1044"
"20:33:26:60 (H:m:s:ms)","GENERIC","187.334","0.037087177716365057","942"
"20:50:0:0 (H:m:s:ms)","GENERIC","187.352","0.04201533272857206","1047"
"20:33:32:121 (H:m:s:ms)","GENERIC","187.954","0.03286942397088101","882"
"20:50:6:60 (H:m:s:ms)","GENERIC","187.05599999999998","0.049501009195573244","942"
"20:33:38:181 (H:m:s:ms)","GENERIC","187.272","0.03892202309206605","821"
"20:50:12:121 (H:m:s:ms)","GENERIC","187.976","0.03576256319452675","881"
"20:33:44:242 (H:m:s:ms)","GENERIC","187.921","0.04755620698200854","761"
"20:33:50:303 (H:m:s:ms)","GENERIC","187.484","0.044898253512629716","699"
"20:50:18:181 (H:m:s:ms)","GENERIC","187.501","0.046139258612727586","820"
"20:50:24:242 (H:m:s:ms)","GENERIC","187.90800000000002","0.04402797227002259","760"
"20:33:56:363 (H:m:s:ms)","GENERIC","187.963","0.041417170611124814","639"
"20:50:30:303 (H:m:s:ms)","GENERIC","187.602","0.04162948712979515","699"
"20:34:2:424 (H:m:s:ms)","GENERIC","187.52800000000002","0.04628469284873203","578"
"20:50:36:363 (H:m:s:ms)","GENERIC","187.87","0.04286451670680062","638"
"20:10:0:0 (H:m:s:ms)","GENERIC","156.42000000000002","0.047689747633750626","1005"
"20:34:8:484 (H:m:s:ms)","GENERIC","188.047","0.043882669880121516","518"
"20:50:42:424 (H:m:s:ms)","GENERIC","187.559","0.04642409218698395","578"
"20:10:0:0 (H:m:s:ms)","GENERIC","186.832","0.05649512641986865","1052"
"20:34:14:545 (H:m:s:ms)","GENERIC","187.563","0.04862596094598484","459"
"20:50:48:484 (H:m:s:ms)","GENERIC","187.95","0.04648169332707644","518"
"20:10:6:60 (H:m:s:ms)","GENERIC","187.745","0.051532933836560726","944"
"20:34:20:606 (H:m:s:ms)","GENERIC","187.835","0.051444941713756714","396"
"20:50:54:545 (H:m:s:ms)","GENERIC","187.392","0.04854581764085892","457"
"20:10:12:121 (H:m:s:ms)","GENERIC","187.613","0.0372417917132725","883"
"20:34:26:666 (H:m:s:ms)","GENERIC","187.738","0.04787674847792555","336"
"20:51:0:606 (H:m:s:ms)","GENERIC","187.862","0.04879074384896514","396"
"20:10:18:181 (H:m:s:ms)","GENERIC","187.81099999999998","0.039644578986894954","822"
"20:34:32:727 (H:m:s:ms)","GENERIC","187.934","0.048698977399284034","275"
"20:51:6:666 (H:m:s:ms)","GENERIC","187.606","0.04396785144013892","336"
"20:10:24:242 (H:m:s:ms)","GENERIC","187.687","0.04555068668842562","761"
"20:34:38:787 (H:m:s:ms)","GENERIC","187.543","0.0524534983339802","215"
"20:51:12:727 (H:m:s:ms)","GENERIC","187.757","0.042069805372025176","275"
"20:10:30:303 (H:m:s:ms)","GENERIC","187.907","0.04680073358125205","700"
"20:34:44:848 (H:m:s:ms)","GENERIC","187.905","0.04855018485501013","154"
"20:10:36:363 (H:m:s:ms)","GENERIC","187.668","0.049893789991200005","640"
"20:34:50:909 (H:m:s:ms)","GENERIC","187.893","0.042708210854837704","1093"
"20:10:42:424 (H:m:s:ms)","GENERIC","187.84","0.04667793442208359","578"
"20:10:48:484 (H:m:s:ms)","GENERIC","187.573","0.03931253234695622","517"
"20:51:18:787 (H:m:s:ms)","GENERIC","187.611","0.041283176598270854","217"
"20:51:24:848 (H:m:s:ms)","GENERIC","188.023","0.04210057042713834","154"
"20:34:56:969 (H:m:s:ms)","GENERIC","187.585","0.05225913449262278","1033"
"20:51:30:909 (H:m:s:ms)","GENERIC","187.894","0.02508246589228377","1093"
"20:35:3:30 (H:m:s:ms)","GENERIC","187.886","0.04453461438093416","972"
"20:51:36:969 (H:m:s:ms)","GENERIC","187.57999999999998","0.035971608140410005","1033"
"20:10:54:545 (H:m:s:ms)","GENERIC","187.78300000000002","0.037044038859175836","458"
"20:35:9:90 (H:m:s:ms)","GENERIC","187.47199999999998","0.04460985453351846","949"
"20:51:43:30 (H:m:s:ms)","GENERIC","187.84300000000002","0.03626989924660181","972"
"20:11:0:606 (H:m:s:ms)","GENERIC","187.629","0.03751057186545564","397"
"20:35:15:151 (H:m:s:ms)","GENERIC","187.756","0.03996397025398515","851"
"20:51:49:90 (H:m:s:ms)","GENERIC","187.55","0.047613687153937614","953"
"20:11:6:666 (H:m:s:ms)","GENERIC","187.80200000000002","0.04053927382494244","336"
"20:35:21:212 (H:m:s:ms)","GENERIC","187.64100000000002","0.032267485983301945","790"
"20:51:55:151 (H:m:s:ms)","GENERIC","187.878","0.05065812729536676","851"
"20:11:12:727 (H:m:s:ms)","GENERIC","187.553","0.04684148314574753","275"
"20:35:27:272 (H:m:s:ms)","GENERIC","187.869","0.028860478449712502","730"
"20:52:1:212 (H:m:s:ms)","GENERIC","187.696","0.04953006136094853","789"
"20:11:18:787 (H:m:s:ms)","GENERIC","187.881","0.044144745721563725","215"
"20:35:33:333 (H:m:s:ms)","GENERIC","187.582","0.03686455011989564","669"
"20:52:7:272 (H:m:s:ms)","GENERIC","187.848","0.04827785215310656","730"
"20:11:24:848 (H:m:s:ms)","GENERIC","187.584","0.05144932313899983","155"
"20:35:39:393 (H:m:s:ms)","GENERIC","187.9","0.03941130812075993","644"
"20:52:13:333 (H:m:s:ms)","GENERIC","187.75","0.03892985096971756","669"
"20:11:30:909 (H:m:s:ms)","GENERIC","187.94799999999998","0.03652197776986437","1093"
"20:35:45:454 (H:m:s:ms)","GENERIC","187.493","0.03318502288674407","548"
"20:11:36:969 (H:m:s:ms)","GENERIC","187.60399999999998","0.04749305273788883","1033"
"20:35:51:515 (H:m:s:ms)","GENERIC","187.95","0.040980503496041425","487"
"20:11:43:30 (H:m:s:ms)","GENERIC","188.017","0.04375274835414119","973"
"20:11:49:90 (H:m:s:ms)","GENERIC","187.64","0.04207994356206726","953"
"20:0:54:545 (H:m:s:ms)","GENERIC","156.636","0.043893647260463034","468"
"20:1:0:606 (H:m:s:ms)","GENERIC","157.005","0.042853144659400946","404"
"20:1:6:666 (H:m:s:ms)","GENERIC","156.341","0.03727800682075019","343"
"20:1:12:727 (H:m:s:ms)","GENERIC","156.77100000000002","0.03739718932967349","286"
"20:1:18:787 (H:m:s:ms)","GENERIC","156.69299999999998","0.04516319779769325","222"
"20:1:24:848 (H:m:s:ms)","GENERIC","156.787","0.049620983681362","166"
"20:1:30:909 (H:m:s:ms)","GENERIC","156.933","0.02753690738240789","1123"
"20:1:36:969 (H:m:s:ms)","GENERIC","156.614","0.038415074491429536","1051"
"20:1:43:30 (H:m:s:ms)","GENERIC","156.968","0.04634568399456493","983"
"20:1:49:90 (H:m:s:ms)","GENERIC","156.465","0.05382328080008168","935"
"20:35:57:575 (H:m:s:ms)","GENERIC","187.555","0.04424904515013151","427"
"20:36:3:636 (H:m:s:ms)","GENERIC","187.92700000000002","0.04266661862730223","366"
"20:11:55:151 (H:m:s:ms)","GENERIC","187.828","0.03672414633187973","852"
"20:36:9:696 (H:m:s:ms)","GENERIC","187.608","0.043217524466253716","344"
"20:12:1:212 (H:m:s:ms)","GENERIC","187.704","0.03813623831788817","791"
"20:36:15:757 (H:m:s:ms)","GENERIC","188.05200000000002","0.04531720055429692","245"
"20:12:7:272 (H:m:s:ms)","GENERIC","187.983","0.051357265589999125","730"
"20:36:21:818 (H:m:s:ms)","GENERIC","187.57","0.042818157509448125","184"
"20:12:13:333 (H:m:s:ms)","GENERIC","187.644","0.05664867678939213","670"
"20:36:27:878 (H:m:s:ms)","GENERIC","187.97899999999998","0.0427925927210375","1124"
"20:12:19:393 (H:m:s:ms)","GENERIC","187.86","0.04917011068444632","651"
"20:36:33:939 (H:m:s:ms)","GENERIC","187.468","0.051489537723296605","1063"
"20:12:25:454 (H:m:s:ms)","GENERIC","187.705","0.04825772586282273","551"
"20:36:40:0 (H:m:s:ms)","GENERIC","188.0","0.044374971689259","1039"
"20:12:31:515 (H:m:s:ms)","GENERIC","187.784","0.04934666821181608","488"
"20:36:46:60 (H:m:s:ms)","GENERIC","187.626","0.0476528647005082","942"
"20:12:37:575 (H:m:s:ms)","GENERIC","187.732","0.048359559626682556","428"
"20:36:52:121 (H:m:s:ms)","GENERIC","187.962","0.048501258119902545","881"
"20:12:43:636 (H:m:s:ms)","GENERIC","188.037","0.04737826481233253","370"
"20:12:49:696 (H:m:s:ms)","GENERIC","187.47899999999998","0.043429596629465717","347"
"20:1:55:151 (H:m:s:ms)","GENERIC","156.973","0.04724395409014492","857"
"20:2:1:212 (H:m:s:ms)","GENERIC","156.512","0.039238060257702004","795"
"20:2:7:272 (H:m:s:ms)","GENERIC","156.894","0.0444925633245139","734"
"20:2:13:333 (H:m:s:ms)","GENERIC","156.404","0.04877359844334856","673"
"20:2:19:393 (H:m:s:ms)","GENERIC","156.946","0.04201857254618057","632"
"20:2:25:454 (H:m:s:ms)","GENERIC","156.564","0.03267105834770639","552"
"20:2:31:515 (H:m:s:ms)","GENERIC","156.92","0.04268889645361288","492"
"20:2:37:575 (H:m:s:ms)","GENERIC","156.49099999999999","0.05117499820819759","433"
"20:2:43:636 (H:m:s:ms)","GENERIC","156.951","0.04956790164690713","373"
"20:2:49:696 (H:m:s:ms)","GENERIC","156.411","0.0512558836415696","332"
"20:36:58:181 (H:m:s:ms)","GENERIC","187.559","0.04826478108987752","821"
"20:37:4:242 (H:m:s:ms)","GENERIC","187.88","0.04238469033468347","761"
"20:12:55:757 (H:m:s:ms)","GENERIC","187.976","0.05062291038328345","245"
"20:37:10:303 (H:m:s:ms)","GENERIC","187.715","0.04320997947361032","699"
"20:13:1:818 (H:m:s:ms)","GENERIC","187.585","0.049642613644393","184"
"20:37:16:363 (H:m:s:ms)","GENERIC","187.787","0.04750457255603833","639"
"20:13:7:878 (H:m:s:ms)","GENERIC","188.03199999999998","0.03745944815013341","1124"
"20:37:22:424 (H:m:s:ms)","GENERIC","187.611","0.051637915743218375","577"
"20:13:13:939 (H:m:s:ms)","GENERIC","187.51","0.046174449831763144","1064"
"20:37:28:484 (H:m:s:ms)","GENERIC","187.869","0.0477163767664427","518"
"20:13:20:0 (H:m:s:ms)","GENERIC","188.011","0.042549674771657185","1040"
"20:37:34:545 (H:m:s:ms)","GENERIC","187.738","0.03417958586024836","457"
"20:13:26:60 (H:m:s:ms)","GENERIC","187.65300000000002","0.03963362623286689","942"
"20:37:40:606 (H:m:s:ms)","GENERIC","187.89100000000002","0.028844280528838497","396"
"20:13:32:121 (H:m:s:ms)","GENERIC","187.993","0.04200669493573049","882"
"20:37:46:666 (H:m:s:ms)","GENERIC","187.528","0.03548346529317457","336"
"20:13:38:181 (H:m:s:ms)","GENERIC","187.66500000000002","0.047546332137509265","821"
"20:37:52:727 (H:m:s:ms)","GENERIC","188.091","0.04571551950322955","275"
"20:13:44:242 (H:m:s:ms)","GENERIC","187.845","0.03676465653820004","761"
"20:13:50:303 (H:m:s:ms)","GENERIC","187.613","0.0407292674863587","699"
"20:2:55:757 (H:m:s:ms)","GENERIC","156.95600000000002","0.04704665177366606","249"
"20:3:1:818 (H:m:s:ms)","GENERIC","156.51","0.045100277232619994","188"
"20:3:7:878 (H:m:s:ms)","GENERIC","157.009","0.04428446586499344","128"
"20:3:13:939 (H:m:s:ms)","GENERIC","156.876","0.03631457441784781","1067"
"20:3:20:0 (H:m:s:ms)","GENERIC","156.538","0.04390914203055907","1008"
"20:3:26:60 (H:m:s:ms)","GENERIC","156.767","0.03968503954966293","945"
"20:3:32:121 (H:m:s:ms)","GENERIC","156.675","0.046219467489252465","886"
"20:3:38:181 (H:m:s:ms)","GENERIC","156.789","0.05209973359565478","824"
"20:3:44:242 (H:m:s:ms)","GENERIC","156.55700000000002","0.05898927408499908","766"
"20:3:50:303 (H:m:s:ms)","GENERIC","156.774","0.05768742232602379","704"
"20:37:58:787 (H:m:s:ms)","GENERIC","187.733","0.04662819154874724","215"
"20:38:4:848 (H:m:s:ms)","GENERIC","187.901","0.04064270553583686","155"
"20:13:56:363 (H:m:s:ms)","GENERIC","187.74599999999998","0.04863798173036808","639"
"20:38:10:909 (H:m:s:ms)","GENERIC","187.954","0.03183260746567865","1093"
"20:14:2:424 (H:m:s:ms)","GENERIC","187.744","0.053342398523573954","578"
"20:38:16:969 (H:m:s:ms)","GENERIC","187.478","0.041762737015624364","1033"
"20:14:8:484 (H:m:s:ms)","GENERIC","187.883","0.04847263748146748","519"
"20:38:23:30 (H:m:s:ms)","GENERIC","187.88400000000001","0.032867479809685435","972"
"20:14:14:545 (H:m:s:ms)","GENERIC","187.708","0.042992538459032247","458"
"20:38:29:90 (H:m:s:ms)","GENERIC","187.653","0.04050164506440657","949"
"20:14:20:606 (H:m:s:ms)","GENERIC","187.855","0.044285368632241084","397"
"20:38:35:151 (H:m:s:ms)","GENERIC","187.80200000000002","0.04570697597451792","851"
"20:14:26:666 (H:m:s:ms)","GENERIC","187.62","0.041945511455415634","336"
"20:38:41:212 (H:m:s:ms)","GENERIC","187.551","0.049773292225892295","790"
"20:14:32:727 (H:m:s:ms)","GENERIC","187.88400000000001","0.046525496240280614","275"
"20:38:47:272 (H:m:s:ms)","GENERIC","187.876","0.054069344296918134","729"
"20:14:38:787 (H:m:s:ms)","GENERIC","187.526","0.04296320008829692","216"
"20:38:53:333 (H:m:s:ms)","GENERIC","187.674","0.044093281168835485","669"
"20:14:44:848 (H:m:s:ms)","GENERIC","187.852","0.04169200294432661","155"
"20:14:50:909 (H:m:s:ms)","GENERIC","187.95499999999998","0.029696739308952738","1094"
"20:3:56:363 (H:m:s:ms)","GENERIC","156.659","0.056210442730007845","643"
"20:4:2:424 (H:m:s:ms)","GENERIC","156.805","0.0493605268126197","581"
"20:4:8:484 (H:m:s:ms)","GENERIC","156.658","0.035381892497921924","521"
"20:4:14:545 (H:m:s:ms)","GENERIC","156.828","0.03536869410222042","461"
"20:4:20:606 (H:m:s:ms)","GENERIC","156.623","0.04326039600421311","398"
"20:4:26:666 (H:m:s:ms)","GENERIC","157.006","0.04801256966281431","338"
"20:4:32:727 (H:m:s:ms)","GENERIC","156.676","0.046931833216303155","278"
"20:4:38:787 (H:m:s:ms)","GENERIC","156.765","0.041963812872804554","217"
"20:4:44:848 (H:m:s:ms)","GENERIC","156.532","0.04262011149908178","164"
"20:4:50:909 (H:m:s:ms)","GENERIC","156.939","0.027790813084900074","1097"
"20:38:59:393 (H:m:s:ms)","GENERIC","187.87","0.04344612683589681","646"
"20:39:5:454 (H:m:s:ms)","GENERIC","187.70600000000002","0.045832249062875696","548"
"20:14:56:969 (H:m:s:ms)","GENERIC","187.63299999999998","0.03988463027413517","1033"
"20:39:11:515 (H:m:s:ms)","GENERIC","187.862","0.048295180968704166","486"
"20:15:3:30 (H:m:s:ms)","GENERIC","187.886","0.03704420061521648","973"
"20:39:17:575 (H:m:s:ms)","GENERIC","187.565","0.0509457738375364","427"
"20:15:9:90 (H:m:s:ms)","GENERIC","187.656","0.03659906701345788","949"
"20:39:23:636 (H:m:s:ms)","GENERIC","187.84199999999998","0.0449561127503519","367"
"20:15:15:151 (H:m:s:ms)","GENERIC","187.89600000000002","0.04285622787404575","851"
"20:39:29:696 (H:m:s:ms)","GENERIC","187.562","0.03952514229619215","342"
"20:15:21:212 (H:m:s:ms)","GENERIC","187.582","0.0495306699902999","791"
"20:39:35:757 (H:m:s:ms)","GENERIC","188.087","0.04420609823567282","244"
"20:15:27:272 (H:m:s:ms)","GENERIC","187.945","0.046369698686906595","730"
"20:39:41:818 (H:m:s:ms)","GENERIC","187.747","0.04628209643444949","184"
"20:15:33:333 (H:m:s:ms)","GENERIC","187.465","0.039465842562610404","669"
"20:39:47:878 (H:m:s:ms)","GENERIC","188.008","0.04051955218234459","1124"
"20:15:39:393 (H:m:s:ms)","GENERIC","188.05200000000002","0.03939946767813242","647"
"20:39:53:939 (H:m:s:ms)","GENERIC","187.45600000000002","0.047320414475894586","1064"
"20:15:45:454 (H:m:s:ms)","GENERIC","187.664","0.04511040379822557","549"
"20:15:51:515 (H:m:s:ms)","GENERIC","187.958","0.044530909198954825","488"
"20:4:56:969 (H:m:s:ms)","GENERIC","156.52","0.04540035589362262","1036"
"20:5:3:30 (H:m:s:ms)","GENERIC","156.862","0.044267972339714204","975"
"20:5:9:90 (H:m:s:ms)","GENERIC","156.597","0.04415664202790667","941"
"20:5:15:151 (H:m:s:ms)","GENERIC","156.892","0.04745919254093974","854"
"20:5:21:212 (H:m:s:ms)","GENERIC","156.388","0.041846331989710765","792"
"20:5:27:272 (H:m:s:ms)","GENERIC","156.9","0.04159079237710942","732"
"20:5:33:333 (H:m:s:ms)","GENERIC","156.473","0.041657540248661036","670"
"20:5:39:393 (H:m:s:ms)","GENERIC","156.915","0.0452383975099027","637"
"20:5:45:454 (H:m:s:ms)","GENERIC","156.531","0.05402180678506351","549"
"20:5:51:515 (H:m:s:ms)","GENERIC","156.914","0.04926624841798341","489"
"20:15:57:575 (H:m:s:ms)","GENERIC","187.636","0.039806072537698765","427"
"20:16:3:636 (H:m:s:ms)","GENERIC","187.992","0.04165839908835636","366"
"20:16:9:696 (H:m:s:ms)","GENERIC","187.399","0.04344988123268943","346"
"20:16:15:757 (H:m:s:ms)","GENERIC","187.953","0.04659571188704075","246"
"20:16:21:818 (H:m:s:ms)","GENERIC","187.467","0.05039646959090057","184"
"20:16:27:878 (H:m:s:ms)","GENERIC","187.95499999999998","0.02856452232155888","1124"
"20:16:33:939 (H:m:s:ms)","GENERIC","187.399","0.0415650905870594","1064"
"20:16:40:0 (H:m:s:ms)","GENERIC","187.959","0.04707930854385505","1046"
"20:16:46:60 (H:m:s:ms)","GENERIC","187.659","0.04396639914183834","943"
"20:16:52:121 (H:m:s:ms)","GENERIC","187.968","0.03797233917773048","882"
"20:5:57:575 (H:m:s:ms)","GENERIC","156.416","0.04183964499421422","429"
"20:6:3:636 (H:m:s:ms)","GENERIC","156.927","0.03814958719831474","368"
"20:6:9:696 (H:m:s:ms)","GENERIC","156.31","0.028042309472355413","336"
"20:6:15:757 (H:m:s:ms)","GENERIC","156.947","0.04303192412637113","246"
"20:6:21:818 (H:m:s:ms)","GENERIC","156.484","0.05056568561426308","186"
"20:6:27:878 (H:m:s:ms)","GENERIC","156.959","0.04290896258271767","126"
"20:6:33:939 (H:m:s:ms)","GENERIC","156.88","0.023421979184121953","1066"
"20:6:40:0 (H:m:s:ms)","GENERIC","156.517","0.03514102257544122","1004"
"20:6:46:60 (H:m:s:ms)","GENERIC","156.92499999999998","0.03011981142319851","943"
"20:6:52:121 (H:m:s:ms)","GENERIC","156.382","0.04001814973059675","882"
"20:16:58:181 (H:m:s:ms)","GENERIC","187.554","0.040263220307864334","822"
"20:17:4:242 (H:m:s:ms)","GENERIC","187.962","0.04483135494576114","761"
"20:17:10:303 (H:m:s:ms)","GENERIC","187.409","0.048239798994358006","700"
"20:17:16:363 (H:m:s:ms)","GENERIC","187.901","0.04065234666590586","640"
"20:17:22:424 (H:m:s:ms)","GENERIC","187.418","0.03809572815655411","579"
"20:17:28:484 (H:m:s:ms)","GENERIC","187.994","0.04556405104550813","519"
"20:17:34:545 (H:m:s:ms)","GENERIC","187.608","0.043361937294501815","458"
"20:17:40:606 (H:m:s:ms)","GENERIC","188.004","0.047540425736718364","397"
"20:17:46:666 (H:m:s:ms)","GENERIC","187.457","0.04757277789829976","337"
"20:17:52:727 (H:m:s:ms)","GENERIC","188.063","0.0493842962572143","275"
"20:6:58:181 (H:m:s:ms)","GENERIC","156.923","0.04950075226990327","822"
"20:7:4:242 (H:m:s:ms)","GENERIC","156.522","0.04756544067009793","762"
"20:7:10:303 (H:m:s:ms)","GENERIC","156.882","0.04935313290306352","700"
"20:7:16:363 (H:m:s:ms)","GENERIC","156.279","0.04325141354981391","640"
"20:7:22:424 (H:m:s:ms)","GENERIC","156.893","0.0462858519985074","580"
"20:7:28:484 (H:m:s:ms)","GENERIC","156.482","0.05057559084627496","519"
"20:7:34:545 (H:m:s:ms)","GENERIC","156.786","0.03985011328315789","458"
"20:7:40:606 (H:m:s:ms)","GENERIC","156.699","0.04501639712795677","397"
"20:7:46:666 (H:m:s:ms)","GENERIC","156.768","0.04826286460715013","337"
"20:7:52:727 (H:m:s:ms)","GENERIC","156.591","0.03931711287637032","277"
"20:17:58:787 (H:m:s:ms)","GENERIC","187.582","0.053942801591932515","216"
"20:18:4:848 (H:m:s:ms)","GENERIC","188.001","0.048569547009186004","154"
"20:18:10:909 (H:m:s:ms)","GENERIC","187.899","0.02915045418475301","1094"
"20:18:16:969 (H:m:s:ms)","GENERIC","187.365","0.045040955033947394","1034"
"20:18:23:30 (H:m:s:ms)","GENERIC","188.014","0.0429078668196772","973"
"20:18:29:90 (H:m:s:ms)","GENERIC","187.493","0.041565096676077495","950"
"20:18:35:151 (H:m:s:ms)","GENERIC","187.946","0.04416034712128491","851"
"20:18:41:212 (H:m:s:ms)","GENERIC","187.578","0.04740913892873756","791"
"20:18:47:272 (H:m:s:ms)","GENERIC","187.873","0.05394211890168474","730"
"20:18:53:333 (H:m:s:ms)","GENERIC","187.527","0.0474699923890741","670"
"20:7:58:787 (H:m:s:ms)","GENERIC","156.786","0.04718197354261846","216"
"20:8:4:848 (H:m:s:ms)","GENERIC","156.574","0.05152359490650347","155"
"20:8:10:909 (H:m:s:ms)","GENERIC","156.857","0.028338026894164033","1094"
"20:8:16:969 (H:m:s:ms)","GENERIC","156.362","0.03565860164090247","1033"
"20:8:23:30 (H:m:s:ms)","GENERIC","156.95600000000002","0.03517869254510195","973"
"20:8:29:90 (H:m:s:ms)","GENERIC","156.498","0.046694360942358605","947"
"20:8:35:151 (H:m:s:ms)","GENERIC","156.85899999999998","0.04871556237123127","852"
"20:8:41:212 (H:m:s:ms)","GENERIC","156.537","0.04043005184132568","791"
"20:8:47:272 (H:m:s:ms)","GENERIC","156.901","0.04327393671118456","732"
"20:8:53:333 (H:m:s:ms)","GENERIC","156.518","0.04582995960125096","670"
"20:18:59:393 (H:m:s:ms)","GENERIC","187.936","0.035691673020768686","648"
"20:19:5:454 (H:m:s:ms)","GENERIC","187.558","0.03684822566517206","549"
"20:19:11:515 (H:m:s:ms)","GENERIC","188.00900000000001","0.03790344363285703","487"
"20:19:17:575 (H:m:s:ms)","GENERIC","187.381","0.03535899643112341","427"
"20:19:23:636 (H:m:s:ms)","GENERIC","187.937","0.0433127355537185","366"
"20:19:29:696 (H:m:s:ms)","GENERIC","187.418","0.04733905760518291","345"
"20:19:35:757 (H:m:s:ms)","GENERIC","188.07299999999998","0.04264866917020265","245"
"20:19:41:818 (H:m:s:ms)","GENERIC","187.55599999999998","0.0364480638909772","184"
"20:19:47:878 (H:m:s:ms)","GENERIC","187.945","0.027420109124572826","1124"
"20:19:53:939 (H:m:s:ms)","GENERIC","187.59199999999998","0.03854832159917866","1064"
"20:8:59:393 (H:m:s:ms)","GENERIC","156.867","0.044228458696397965","647"
"20:9:5:454 (H:m:s:ms)","GENERIC","156.519","0.04071596400047687","549"
"20:9:11:515 (H:m:s:ms)","GENERIC","156.964","0.03940353961547837","489"
"20:9:17:575 (H:m:s:ms)","GENERIC","156.562","0.04736234592864167","428"
"20:9:23:636 (H:m:s:ms)","GENERIC","156.954","0.04320077996696091","368"
"20:9:29:696 (H:m:s:ms)","GENERIC","156.487","0.03941371409557146","353"
"20:9:35:757 (H:m:s:ms)","GENERIC","157.023","0.044361316078751656","247"
"20:9:41:818 (H:m:s:ms)","GENERIC","156.554","0.03986786501031572","186"
"20:9:47:878 (H:m:s:ms)","GENERIC","156.95","0.041142224316089354","126"
"20:9:53:939 (H:m:s:ms)","GENERIC","156.981","0.03798725072327286","1066"
"21:41:6:666 (H:m:s:ms)","GENERIC","187.546","0.04847905764307966","336"
"21:41:0:606 (H:m:s:ms)","GENERIC","187.981","0.041723419264808936","395"
"21:40:54:545 (H:m:s:ms)","GENERIC","187.525","0.043799374785528075","457"
"21:40:48:484 (H:m:s:ms)","GENERIC","187.93","0.04381580989805365","518"
"21:40:42:424 (H:m:s:ms)","GENERIC","187.547","0.03513758295669317","579"
"21:40:36:363 (H:m:s:ms)","GENERIC","187.983","0.041691401748678886","638"
"21:40:30:303 (H:m:s:ms)","GENERIC","187.495","0.04935863455182897","699"
"21:41:24:848 (H:m:s:ms)","GENERIC","187.904","0.050422039212381184","154"
"21:41:18:787 (H:m:s:ms)","GENERIC","187.42000000000002","0.04477462743255708","214"
"21:41:12:727 (H:m:s:ms)","GENERIC","187.921","0.04575248981780944","273"
